2482.411121 2822.207268
-2224.009838 794.371130
-297.963469 -537.970037
-54.568015 -22.753617
-140.053781 -23.992292
-1.708021 117.223211
103.256918 -14.026020
28.857728 3.154657
-14.475120 -30.680348
-38.531323 14.367635
25.337282 22.363913
9.216192 -20.253481
-19.733994 0.279291
10.853251 7.718490
1.533691 -16.055344
-12.322257 -1.888569
1.819458 11.581712
7.645852 0.653309
-4.803061 0.404674
6.505967 -0.077857
-3.617717 -10.011114
-8.136286 9.529869
8.618164 4.719750
1.814181 -8.226217
-3.779434 -0.833285
0.218824 1.134909
0.626673 1.086726
0.769594 -0.595922
-2.026653 0.110365
0.827746 0.727317
1.064848 -0.431202
-0.311504 -0.584771
-1.936245 0.252402
0.321783 1.134527
1.272535 -0.411172
0.650411 -0.218327
-0.302078 -1.210045
-2.220157 0.667793
1.455174 2.137862
1.500088 -2.411911
-1.960012 -0.322556
-0.076910 1.565378
0.694728 -0.170975
0.235027 -0.519791
0.106049 -0.159578
-0.101394 0.414833
0.179172 0.632758
0.562632 -0.414579
-0.525186 -0.503624
-0.262220 0.565993
0.611603 -0.236776
-0.656345 -0.350721
0.011738 -0.133275
-0.274604 -0.216882
0.169214 0.720978
0.734713 -0.546158
-1.004993 -0.270656
0.115699 0.129331
0.368987 -0.423478
-0.415695 0.120863
0.505192 -0.029708
-0.285333 -0.462946
-0.213001 -0.023622
0.803201 -0.412726
0.084990 -1.142692
-0.781398 0.505522
0.800894 0.516647
0.111228 -0.830918
-0.433773 0.111155
0.143542 0.038510
-0.114285 -0.073563
0.449977 0.498083
-0.076994 -0.629000
-0.215995 0.058146
0.481610 -0.149955
-0.030297 0.284102
-0.043605 -0.057168
-0.133899 -0.100758
-0.160544 -0.106512
-0.296101 0.294835
0.124813 -0.161791
-0.463144 -0.287213
0.579731 0.630034
0.595037 -0.073818
-0.228808 -0.075685
-0.140803 -0.106305
-0.398547 -0.312452
0.017055 0.029418
-0.213005 0.207472
-0.094225 -0.435632
0.073783 -0.236525
-0.306814 -0.340548
-0.191945 -0.057683
-0.159944 0.223030
0.165470 -0.160967
0.215301 -0.489279
-0.170525 -0.428406
-0.365943 0.002883
-0.095727 0.622444
0.398425 -0.118463
0.223418 -0.487095
-0.211372 -0.096017
-0.087622 -0.248098
-0.238853 0.530079
0.252545 0.130350
0.063476 -0.373939
0.345537 -0.342088
0.073881 0.091985
-0.621435 -0.161954
-0.185407 0.608903
0.143384 0.211474
0.160320 -0.315091
0.003049 -0.043112
-0.215551 -0.140332
0.100540 0.172617
0.007264 0.176668
0.012011 -0.169015
-0.089834 -0.006294
0.110791 0.037669
0.394584 -0.184571
-0.350903 0.279783
-0.259919 -0.135923
-0.594148 -0.287977
0.003500 -0.017524
-0.107561 -0.202380
-0.264751 0.161332
-0.126853 -0.189237
0.447802 0.263013
0.048505 0.144804
0.102225 0.040080
-0.123089 -0.161308
-0.138795 -0.053507
-0.058682 -0.170261
0.095190 -0.103496
0.017938 0.431402
-0.064814 -0.489148
-0.004329 -0.003974
-0.042332 -0.103970
0.000251 -0.051246
0.035576 0.405758
-0.052984 0.171129
-0.167453 0.192863
0.205736 -0.167256
0.059968 -0.502512
0.155364 0.150622
0.024738 -0.262469
-0.086134 0.018155
-0.001654 0.175682
-0.075981 0.138743
-0.340589 -0.096068
0.123576 0.242363
-0.003649 -0.063945
-0.114502 -0.057644
0.117624 0.175174
0.034770 -0.266298
0.206749 -0.007091
0.081079 0.202573
0.198506 0.006402
-0.160846 -0.351180
0.040134 0.222203
0.225494 0.161325
0.202704 -0.152881
0.019112 0.196676
0.176293 0.050655
0.152786 -0.083298
-0.093847 -0.017911
-0.173334 0.141443
-0.136668 -0.322536
-0.276451 -0.415695
0.097734 -0.125284
-0.181823 0.445170
0.027779 -0.444555
0.101287 0.303637
-0.075192 -0.375986
-0.173546 -0.709590
-0.207336 -0.437014
0.195712 -0.068348
-0.093485 -0.609059
0.089801 -0.301003
-0.148164 0.158518
0.059887 0.078573
0.036499 0.269752
-0.206185 0.020619
0.009157 -0.067523
-0.216813 0.517235
0.098058 -0.062665
-0.087339 0.093912
-0.457417 0.196392
0.093462 0.023532
0.064619 0.039512
0.074189 0.044520
-0.258870 -0.064884
-0.167144 0.012621
-0.277589 0.226210
-0.028182 0.050503
-0.111501 -0.098945
-0.348367 -0.029204
-0.036965 0.065985
0.229451 0.093453
0.331790 -0.008512
0.095999 -0.026029
-0.238658 0.030613
-0.088831 -0.089683
0.021244 -0.056037
0.475971 0.428869
0.038631 0.072130
0.086207 -0.141064
-0.251866 -0.151524
-0.120288 -0.005314
0.000125 -0.034732
0.209576 -0.027749
-0.128284 -0.073492
-0.162292 -0.002983
0.025641 -0.032643
0.120936 0.048871
0.138600 -0.000234
-0.190412 -0.152885
-0.315430 -0.291918
0.606643 0.349689
-0.301445 -0.057384
-0.087485 0.165538
0.049478 -0.191013
0.146762 -0.133350
0.246214 -0.260406
-0.120569 -0.002222
0.043182 -0.070662
-0.265848 0.232081
0.065826 0.241534
-0.124805 -0.216825
0.010156 -0.067064
0.107690 0.189002
-0.000285 0.008336
-0.254957 -0.064724
-0.363857 0.037663
0.018252 0.029131
0.211302 0.173104
0.175940 -0.120530
0.156190 -0.025094
0.268012 -0.011885
0.020872 0.133787
-0.097261 0.011364
0.047597 -0.021200
-0.057514 -0.234500
-0.307500 0.070570
-0.134764 -0.271897
-0.114951 0.060522
0.257340 -0.036130
-0.367962 -0.041548
0.041130 -0.144583
-0.100471 -0.437570
0.075408 0.225073
-0.295207 0.172960
0.284818 -0.231388
-0.011412 -0.129953
-0.104792 0.079925
-0.057666 0.140194
0.157868 -0.130650
-0.102220 -0.171423
0.006324 -0.012538
0.230981 0.038575
-0.403101 0.045724
0.315158 -0.095076
-0.122817 0.147794
-0.261082 0.149630
-0.061065 0.200987
0.125194 0.009748
-0.168535 0.218777
-0.232404 -0.422883
0.071033 0.449395
0.107645 0.033448
0.271993 -0.300867
0.319724 -0.203325
0.416210 -0.016817
0.217770 0.037804
-0.195732 -0.003388
-0.527419 -0.027471
-0.482350 -0.052756
-0.325097 -0.105725
-0.170954 0.037407
0.090183 0.070103
0.061139 -0.069153
-0.030624 0.017074
0.092952 0.031726
-0.305620 -0.087968
-0.039524 -0.316955
-0.288795 -0.137527
-0.198015 0.077571
0.496239 0.213503
0.085889 0.051940
-0.073787 0.429583
0.043901 -0.072658
0.050899 0.004469
0.020623 -0.124880
-0.042179 -0.203322
-0.090232 0.061189
0.063262 0.199211
-0.114403 0.135687
0.262797 0.047206
-0.292295 0.299317
-0.179167 -0.227771
0.512861 0.178611
0.005150 -0.480350
-0.100831 -0.255134
0.148252 0.028801
0.276683 0.136488
-0.454560 -0.121888
0.368146 -0.020961
-0.214777 0.005452
-0.204024 0.154860
0.048796 0.089525
-0.158340 -0.066363
-0.057682 0.022298
-0.158891 0.117158
-0.382502 -0.146818
-0.233272 0.189833
0.116359 0.005520
-0.055993 -0.132256
-0.021146 0.043758
0.168561 0.063850
-0.035356 -0.007161
0.093808 0.122814
0.266576 -0.082713
0.342390 0.518534
-0.164553 -0.187465
0.165545 -0.011666
0.018960 -0.048519
-0.028399 0.507329
0.071941 -0.182978
0.156387 -0.213431
-0.317874 -0.144440
-0.068748 -0.351659
-0.143028 -0.327755
0.023442 -0.112274
0.178887 -0.135738
-0.232865 0.119944
0.034208 0.073521
0.084222 -0.021474
-0.077037 0.088488
-0.216683 0.381856
0.373390 -0.396732
-0.133891 0.124213
-0.084296 0.010301
-0.017735 -0.068240
0.238995 -0.151521
0.130592 0.030939
0.117517 -0.207612
0.093313 -0.139634
0.127936 -0.069953
-0.121068 0.052134
-0.238847 0.239183
-0.214895 0.017986
0.065011 -0.080135
-0.239190 -0.059416
-0.297035 0.065257
-0.341514 0.158288
-0.430292 -0.103209
-0.326193 -0.199545
-0.208658 -0.108763
-0.020878 0.108627
0.215618 0.193134
-0.103935 -0.087904
0.161698 -0.033618
0.153615 0.125620
0.080406 0.077383
-0.124347 0.157967
0.318374 0.146415
0.000503 0.056264
0.078949 0.013013
-0.108069 -0.288579
-0.258110 -0.040997
0.221304 -0.054075
-0.060721 0.078870
-0.060556 -0.269700
0.111942 0.214327
-0.013980 0.166777
-0.264143 0.354735
0.097382 -0.219584
0.227348 0.413980
-0.300873 -0.038637
-0.094154 0.144993
-0.115151 0.161314
-0.014081 0.341142
-0.003975 -0.161159
0.253493 -0.216652
0.187912 -0.317564
0.045633 0.066874
0.267043 0.012160
-0.000210 -0.238353
0.354377 -0.090309
-0.035487 0.097727
-0.121375 -0.074719
-0.077856 0.114118
0.015136 -0.077048
-0.293176 0.001660
-0.018959 0.003208
-0.024262 0.019312
-0.278314 -0.080259
-0.328432 -0.024921
0.049922 -0.331712
-0.155703 0.336617
-0.218500 -0.223282
0.304881 0.085577
0.013959 -0.104524
-0.146291 0.197796
0.275918 0.333776
0.167973 -0.243565
-0.324690 -0.067261
0.142393 0.107777
0.080504 0.206783
-0.184937 -0.090372
0.454955 0.235430
-0.386543 -0.038960
-0.020436 -0.063575
0.264398 -0.084290
0.033938 -0.377227
-0.264439 -0.128919
0.291403 -0.230391
-0.027009 0.083686
-0.105771 0.128618
-0.192718 0.252902
-0.055583 0.162665
-0.042315 0.049316
0.300628 -0.353609
0.443153 -0.250862
-0.249662 -0.097270
0.118977 0.161444
-0.174919 0.073195
-0.409958 0.154694
-0.535786 0.071833
-0.399943 0.158537
-0.140424 0.104533
0.043119 -0.034448
0.255094 0.012213
0.352779 -0.138687
-0.425361 -0.001123
-0.213588 0.219387
0.158404 -0.150121
0.305782 -0.103744
-0.232705 0.215786
0.468102 0.187593
0.153483 0.135374
-0.178704 -0.189332
0.059276 -0.043571
-0.210847 -0.079808
-0.097799 -0.130621
-0.090293 -0.294957
0.027931 -0.122434
-0.369767 0.011364
0.388092 -0.074394
-0.032855 0.231362
-0.197939 -0.078171
0.100608 0.094782
0.020591 0.168731
0.051091 0.487571
-0.035945 -0.597591
-0.123641 0.150419
0.191148 0.036671
-0.091518 0.055832
0.130781 -0.045718
-0.250559 -0.262074
0.075443 0.477977
-0.174435 0.192343
-0.372065 0.089252
-0.231396 0.153779
0.195390 0.168035
-0.192337 -0.154533
0.018092 0.103753
0.295170 -0.132981
0.071595 -0.016315
-0.079075 0.017911
0.113959 -0.001497
0.042081 -0.090452
-0.038171 0.124078
0.072265 0.049195
0.138095 -0.116902
0.015780 -0.136409
-0.160314 0.356773
-0.095370 -0.258413
-0.309209 -0.192937
-0.023959 -0.156160
-0.118518 -0.027577
0.101518 0.417143
0.221935 0.064657
0.130437 -0.087613
-0.114183 -0.260764
-0.300945 0.219258
0.121090 -0.193812
0.253986 0.265079
-0.081700 0.297751
0.045761 0.073181
-0.104736 -0.209688
0.000583 -0.027108
0.394304 -0.033089
-0.574029 0.066217
0.151558 0.052495
0.212060 0.017653
-0.034827 -0.000142
-0.315815 0.160491
0.064407 0.043536
-0.026866 0.106646
0.106818 -0.103411
0.151669 -0.067290
-0.126717 -0.063531
-0.338888 0.216741
0.121647 0.070647
0.346687 -0.274166
0.560600 -0.124753
0.037271 0.050597
-0.120008 -0.204122
-0.467073 0.037825
0.104745 0.325982
0.003180 -0.093708
0.017925 -0.244746
-0.232342 0.096502
-0.313938 -0.063860
0.059350 0.078121
0.018830 -0.103512
-0.156790 0.034310
-0.173423 -0.299208
-0.126768 -0.024089
-0.128849 0.044759
0.125120 -0.084601
-0.132470 -0.109320
-0.319911 -0.247607
0.188326 -0.173176
-0.307876 -0.391484
-0.112801 -0.109332
0.200419 0.604045
-0.090469 -0.118492
0.327241 0.062681
-0.272005 0.131030
-0.147631 0.546704
0.138067 0.213419
0.088197 0.190573
-0.243837 0.281625
-0.127080 0.198905
-0.252828 0.638473
-0.241205 0.239280
0.287506 0.084537
-0.136770 -0.191136
0.068429 -0.310016
0.271216 0.203335
-0.122581 -0.052322
-0.320679 0.224301
0.040070 -0.154166
-0.206738 0.101296
0.102966 0.137853
0.000573 -0.088010
0.422313 -0.096793
0.329350 0.016738
0.242297 -0.151814
0.182320 0.195722
0.134097 0.137916
-0.095419 -0.215488
-0.309921 -0.294336
0.168121 0.342087
-0.572408 -0.202463
0.203254 0.044076
0.071184 -0.272410
-0.070551 0.294176
0.117386 0.016757
0.058315 0.103099
0.092825 0.267746
0.084146 -0.186013
-0.154906 -0.333945
-0.208649 -0.211431
-0.014838 0.220261
0.226018 0.257902
-0.018025 -0.017885
0.066011 0.085926
-0.273450 -0.231341
0.214214 -0.122823
0.021539 0.260104
-0.156710 0.009353
0.147780 0.152123
-0.357190 0.008700
0.243405 0.055401
0.231075 -0.420660
-0.066901 0.167092
-0.162671 0.143614
-0.044438 -0.118893
-0.224657 0.084317
0.111392 0.272895
0.231036 -0.101772
-0.634478 -0.043272
0.169165 0.040361
-0.024019 -0.074135
-0.282092 0.293370
-0.244011 0.062936
-0.343867 -0.196565
-0.049268 -0.213352
0.177947 0.327541
0.167975 0.130078
0.377463 -0.046055
-0.183299 0.028011
0.143414 -0.064028
-0.095276 -0.364207
-0.777580 0.104763
0.549167 0.374373
0.208247 -0.093123
-0.220466 -0.355400
-0.145525 -0.166569
-0.250543 -0.224581
-0.082738 0.240493
0.370387 0.734851
0.413905 0.070841
-0.320217 -0.203581
0.108717 -0.132157
-0.279640 0.236960
0.030850 0.029266
0.158611 0.274764
0.237792 -0.034098
-0.024126 -0.515082
-0.477376 0.062996
-0.044988 0.654877
-0.034724 0.486023
-0.271357 0.453151
0.166874 -0.216889
-0.377407 0.121785
-0.570510 0.150562
0.314601 0.462830
0.203729 -0.193069
0.096859 -0.380587
0.345043 0.186471
-0.267646 -0.272288
-0.892983 0.308667
0.064144 0.041547
0.140440 0.193862
0.621985 0.128220
-0.270644 -0.403514
0.203547 -0.401200
-0.689765 0.227347
0.292100 1.037006
0.517072 -0.607787
-0.263424 -0.514764
-0.166515 0.062678
-0.099472 0.136761
-0.036205 0.246225
-0.046653 0.308115
0.790690 0.030427
0.040214 -0.746206
-0.586439 0.587083
0.418149 0.584868
-0.145646 0.019824
0.207487 0.484755
0.628330 -0.181490
-0.191064 -0.381356
-0.595182 0.636806
-0.054655 1.169636
0.682946 -0.393376
-0.439703 -0.162990
0.358120 0.319685
0.342837 -0.421630
-0.819809 0.153617
-0.498227 0.202366
0.095509 0.956203
0.871099 -0.080519
0.038343 -0.443792
-0.097015 -0.375520
-1.236964 -0.545012
-0.144641 1.614841
1.662902 -0.102463
-0.327187 -0.490963
0.342301 -0.038192
-0.445139 -1.242266
-0.704022 0.535568
0.011619 1.141467
1.339366 0.803415
0.971958 -1.470220
-1.195377 -1.031825
-0.246457 0.190504
-0.964078 0.612078
0.468749 2.133102
1.553285 -1.028846
0.146384 -1.721379
-1.113973 -1.428966
-2.234627 2.620971
2.260741 0.501049
-1.535617 -1.569619
1.690087 2.702580
2.809065 -3.836974
-4.996975 -0.042930
1.024971 4.014400
0.012152 -2.138836
0.136998 2.252788
4.207710 -0.412996
-1.088356 -3.300010
-5.190011 -1.536216
-0.264016 3.479374
4.415852 -0.188174
-0.319550 0.893413
0.602793 0.165828
-2.147926 -0.372360
2.172737 -2.453408
-8.057806 -6.076454
-3.527796 23.273095
23.042959 -4.940435
-15.468577 -17.158909
21.440861 1.491837
-19.354036 -36.409528
-45.973860 69.454570
79.136568 25.134556
-0.033784 -85.604979
-44.720617 -4.646817
-59.023863 -18.876873
-79.304259 196.732159
348.570328 58.970702
