2886.311455 3479.491214
-2411.133838 566.022050
-154.593850 -489.613051
-150.949788 64.477597
-65.880079 -43.639859
-30.334551 37.435403
62.174775 45.891440
34.613359 -13.507331
2.963656 -36.948739
-35.625601 5.539662
-4.729565 37.498929
37.022680 6.401840
2.664440 -32.073162
-27.583432 0.024631
6.498085 10.039530
2.230075 -6.451667
-4.821514 3.083554
7.423263 1.847508
-0.711192 -7.276304
-6.331271 3.321688
4.325318 3.601194
-0.462965 -1.269317
-1.442765 1.541511
2.067853 0.047119
0.670568 -1.829382
-1.320585 -1.067356
-0.675082 0.203439
-0.231549 1.298291
2.042220 -0.206016
0.799054 -1.509948
-1.304408 -0.902276
-1.328317 1.061644
0.919469 1.140357
0.548252 -0.713639
-0.585074 -0.086494
0.390259 0.407748
-0.186739 -0.915686
-0.880288 0.458347
1.176376 0.565610
-0.151538 -0.849289
-0.250103 0.843228
1.473146 -0.223827
-0.997236 -1.643788
-1.853564 1.243599
1.556609 1.397540
0.381301 -1.586776
-1.094105 -0.289893
0.145825 0.546413
0.034393 -0.264690
-0.385071 0.411462
0.517948 0.201281
0.185805 -0.633075
-0.143949 0.067597
-0.033297 0.483492
-0.111342 -0.036048
-0.263991 -0.840483
-0.064562 0.136947
0.151360 0.061180
-0.019373 0.026025
-0.198992 -0.311518
-0.171600 -0.700980
-0.300011 0.558960
0.728230 -0.026818
-0.075388 -0.763164
-0.744586 -0.007657
0.429618 0.221212
0.005298 -0.231043
-0.034837 0.230537
0.356723 -0.186374
-0.368421 -0.295600
-0.406979 0.473300
0.491835 0.279151
0.073167 -0.390668
-0.268176 0.049153
0.159765 0.111595
-0.061701 -0.242577
-0.256576 0.115149
0.544934 0.257534
0.177231 -0.468106
0.149895 -0.330645
-0.107378 0.141544
-0.254700 0.367662
-0.182355 -0.042501
0.229694 -0.136811
0.575452 -0.180602
-0.296824 0.090920
0.124940 0.282212
0.208529 -0.186007
0.007839 -0.273754
0.378431 0.474962
0.089226 -0.080618
-0.539977 -0.109201
0.134374 -0.196736
-0.295856 -0.145795
-0.214790 0.077923
0.191341 0.177853
0.277410 -0.062144
-0.192333 -0.097905
-0.161435 0.096112
0.144280 -0.317536
-0.317046 0.014956
0.130165 0.096344
0.165779 -0.272215
-0.445523 -0.222485
0.251197 0.124720
-0.166551 -0.416056
0.026672 -0.737475
-0.099114 0.171574
0.128269 0.014842
0.005634 -0.074421
-0.175552 -0.305698
0.305773 -0.255896
-0.009858 0.037621
-0.011234 0.111824
-0.162361 -0.094220
-0.035869 -0.000130
0.413321 -0.021241
-0.061716 -0.228672
-0.002883 0.004804
0.020045 -0.009872
0.159517 -0.287857
0.297347 0.217863
0.154147 -0.223056
-0.296793 -0.129786
-0.102872 0.183940
-0.359323 0.282930
-0.009953 -0.214098
-0.210374 0.107838
-0.185234 -0.090120
-0.058336 0.090541
0.159011 0.086924
0.069787 -0.246429
-0.828142 0.122475
-0.211093 -0.327251
-0.039036 0.048746
-0.195378 -0.142820
-0.030609 0.153728
0.132003 -0.018718
-0.032251 -0.129996
-0.106776 0.026840
-0.085016 -0.205859
-0.096556 0.114496
-0.045409 -0.162970
0.099567 -0.235709
-0.259866 -0.085424
0.000495 -0.028909
0.010877 0.057042
0.084242 -0.098489
-0.145107 -0.076020
0.278893 0.669167
-0.313495 0.440197
0.104489 0.000273
0.170782 -0.440706
0.007116 -0.031102
-0.066801 -0.181723
-0.001711 0.084411
0.085405 -0.020109
-0.075723 -0.045040
0.013094 0.108949
-0.013485 0.144953
-0.259449 -0.148135
-0.117574 0.529586
-0.327263 0.064620
0.028737 0.010409
0.486120 -0.258152
0.065623 0.038960
0.122403 -0.240484
-0.092784 0.042612
0.024630 0.259720
-0.326768 -0.111803
-0.076719 -0.045549
0.399655 -0.103315
0.151980 0.255143
0.035970 0.019662
-0.274169 -0.273911
-0.085726 0.006876
-0.009254 0.071169
0.055662 0.124790
0.184169 -0.074724
0.020159 0.099411
0.035988 -0.009092
-0.123700 -0.140002
-0.054830 0.034663
0.106708 0.085011
0.025849 0.192842
0.224164 -0.066873
0.028775 0.263504
-0.073750 0.052450
-0.218085 -0.241909
0.379287 -0.365700
-0.479783 -0.352808
0.069490 -0.576624
-0.053599 0.090998
0.047872 -0.254019
0.070797 -0.076918
-0.088397 -0.110915
0.024322 -0.027834
0.046280 0.057711
-0.053340 0.164795
-0.200023 -0.055880
0.000950 0.414206
0.185079 -0.068631
-0.195566 -0.331896
0.341720 -0.140336
0.169994 0.052462
-0.074548 -0.034462
-0.272123 -0.027980
0.017590 0.231257
-0.247336 -0.022950
0.019293 0.100053
-0.059697 0.001465
-0.180993 -0.147052
-0.186666 0.341236
-0.131552 -0.195237
-0.120155 -0.020171
-0.241257 0.100451
0.118265 0.005996
0.004783 -0.104034
-0.034124 0.080114
0.076288 -0.021964
0.170061 0.136622
0.024163 0.047681
0.471807 0.040187
-0.114389 0.298842
0.264213 0.077961
0.119199 -0.046752
-0.142019 -0.059174
-0.450198 -0.294007
0.243076 -0.186641
-0.278263 -0.194475
-0.031355 -0.114743
-0.000392 0.033331
-0.006559 -0.138707
0.033402 -0.047123
-0.236367 -0.241616
0.313004 -0.230351
-0.140212 -0.214869
-0.131248 -0.075308
0.064931 0.179945
0.168008 -0.081263
-0.015066 -0.157257
-0.157321 -0.049829
0.072487 0.019577
0.085829 0.062917
0.164072 -0.225579
-0.089220 -0.102014
-0.095791 0.234139
-0.273281 0.104751
0.066870 0.097992
-0.330598 0.218677
0.015047 -0.056021
-0.150178 0.091836
-0.433203 -0.110449
-0.048831 0.469621
-0.608412 -0.004853
0.010064 -0.149562
-0.060534 -0.063204
0.007060 0.197307
0.078028 0.079856
-0.079606 -0.155997
-0.017983 -0.107307
-0.357363 -0.045210
-0.025764 0.242205
0.603936 -0.087864
0.389164 0.563083
0.109688 -0.196181
0.049116 0.119641
0.025627 0.012390
-0.304639 -0.085117
0.039852 -0.204013
0.017261 -0.029971
-0.037929 -0.071462
-0.120775 0.051735
0.091041 0.179799
0.059285 0.067838
0.111207 -0.071363
-0.080656 -0.177415
-0.178707 0.104560
0.084299 -0.012331
0.111921 -0.109300
0.027567 0.103369
-0.220225 0.259589
0.039473 -0.003027
0.046552 -0.225876
0.116318 0.075158
0.064884 -0.218690
0.040747 -0.100338
-0.109157 -0.019833
-0.013817 0.114481
0.150836 0.037928
0.064823 -0.235649
-0.074854 0.030520
0.043575 0.123954
-0.289391 -0.038213
-0.068554 0.078629
-0.292746 0.293063
0.084437 -0.095817
0.055027 -0.294933
0.183623 0.231481
0.104399 0.071935
0.227635 -0.093108
-0.107293 -0.142831
-0.130972 0.119499
0.099374 0.065797
0.060367 -0.106266
0.218836 0.168072
0.005151 0.005733
0.018114 0.005843
0.001062 -0.163874
-0.366521 0.088404
-0.297253 -0.691886
-0.113083 0.014644
-0.329431 -0.163069
0.184014 -0.042240
-0.008027 -0.181415
-0.192441 0.073220
0.039571 0.170115
0.226742 0.260681
0.116277 -0.172383
-0.468048 -0.480646
0.223549 -0.273394
-0.006083 0.013657
-0.104118 0.458087
-0.027865 0.000802
0.147731 0.763617
-0.532877 0.133816
0.077187 0.274558
0.444565 -0.305673
-0.160649 -0.206423
0.023479 -0.214218
0.132108 0.068470
0.025283 0.008933
0.033957 -0.023558
-0.062861 -0.109768
0.251877 -0.164568
0.119226 0.095719
0.093155 -0.159587
0.079429 0.015191
-0.018023 -0.083747
-0.271198 0.062107
0.076183 0.097663
-0.451134 0.192356
-0.380753 -0.444211
-0.296331 0.338801
-0.351798 -0.130544
0.049171 0.076026
-0.359687 -0.100113
-0.095586 -0.234439
-0.116755 0.082678
0.171429 0.268001
0.155083 -0.116733
0.246854 0.129435
-0.118441 0.154850
0.547892 0.161885
0.030429 0.420533
0.098698 -0.048656
-0.158017 -0.294826
0.023110 0.037616
-0.331040 -0.408311
0.099711 -0.332079
-0.114211 0.079985
0.050707 0.524246
0.112619 -0.138107
-0.111553 0.061516
0.302439 -0.030571
-0.404592 -0.658109
0.229728 -0.380193
0.117056 0.128445
0.001729 0.166172
-0.334783 -0.077438
0.019695 0.586382
-0.264918 0.138657
0.139562 0.143307
-0.228965 0.137828
-0.103669 -0.017147
0.015194 0.077025
0.068505 -0.028431
-0.041630 0.089106
-0.452726 0.114991
0.051088 0.052186
-0.225543 0.119846
-0.025112 0.012229
0.149885 -0.163297
0.420911 0.105201
-0.063044 -0.124161
0.422643 0.099402
0.120289 -0.103283
-0.343603 -0.012095
-0.214352 -0.020332
0.108011 0.091775
0.124990 -0.054968
-0.056941 -0.047269
-0.157338 0.011111
-0.010563 -0.061569
-0.066779 0.045390
-0.121410 -0.276757
-0.067748 0.033955
0.166500 0.128983
-0.088723 0.130527
0.253031 0.112915
0.069675 0.045731
-0.120712 -0.079076
-0.099059 0.084331
0.125619 0.092412
0.216085 -0.008040
-0.222896 0.040351
-0.095669 0.115368
0.178040 -0.383942
0.027435 -0.046519
-0.007646 -0.112936
-0.015919 -0.071463
-0.064860 0.084994
-0.213569 0.382640
0.180448 0.034215
-0.048913 0.140987
-0.111846 -0.082988
-0.133991 -0.132301
0.395825 0.038946
0.094731 -0.107401
0.152028 -0.239350
-0.055031 -0.011064
-0.096553 0.125137
-0.240499 -0.008563
0.033428 0.120410
0.899888 -0.113327
0.020169 -0.219682
-0.028783 -0.187460
-0.182359 0.148057
0.008046 0.427470
-0.438621 -0.437141
-0.143669 -0.100453
-0.251574 0.078135
-0.005170 -0.034187
-0.296584 0.181836
-0.281439 -0.519664
-0.116553 0.047248
-0.355009 -0.196239
0.002353 -0.046061
-0.094502 0.016402
0.024757 0.063468
0.097148 -0.014230
-0.076679 -0.278504
-0.160144 -0.001326
0.017685 0.182218
0.096079 0.103409
0.144893 -0.078367
-0.106130 0.253447
0.038407 0.047172
0.073975 0.135854
-0.089459 0.033817
0.029264 0.060674
0.035151 0.001456
0.033139 -0.027347
-0.165327 0.542184
-0.187587 0.027500
0.098604 0.458676
-0.269345 0.119963
0.078419 0.060740
0.113552 -0.186574
-0.114860 0.002205
0.025567 0.148019
-0.043154 -0.099255
-0.102672 0.083435
0.267367 0.055473
0.033110 -0.213956
0.174198 -0.273779
0.225169 0.302469
0.195840 -0.277532
0.077308 0.040604
0.056451 0.009687
-0.267224 -0.046142
-0.070904 -0.045829
-0.285239 0.156525
-0.317106 -0.232120
0.005122 0.289592
-0.324992 -0.442829
-0.273298 -0.170080
-0.153937 0.307233
0.328456 0.254590
0.285611 -0.353797
-0.036758 0.248164
0.036229 0.124724
-0.274510 -0.282195
-0.016811 -0.136604
0.011069 0.061598
0.042667 -0.021250
-0.088065 0.010310
0.089773 0.090522
0.021928 -0.151717
-0.192072 0.056094
0.110391 0.223916
0.248434 -0.138095
-0.224067 0.418328
-0.139460 0.118594
0.157875 0.425483
-0.014394 0.045984
0.041568 -0.055300
-0.283693 0.255250
0.102700 0.084552
-0.118360 0.363677
-0.240148 0.052021
0.095517 0.026171
0.329169 -0.215155
-0.135421 -0.093917
0.446034 -0.375132
0.079949 0.039304
-0.006445 -0.020782
-0.167858 0.007278
0.085850 0.152510
-0.269310 -0.079367
-0.164993 0.043289
0.214381 0.066385
0.103325 -0.121390
-0.221896 0.137412
-0.230152 -0.009018
0.044290 -0.141692
0.548681 -0.032218
0.164106 0.533701
0.333542 -0.187596
-0.142830 -0.160320
-0.047693 0.077243
-0.648818 -0.366443
-0.028774 -0.036724
0.043481 0.052584
0.082037 0.265579
0.232705 -0.109741
-0.145292 -0.256633
-0.195190 0.118900
0.045268 0.119533
0.069031 0.024104
0.123619 -0.020535
0.005520 -0.259267
-0.182683 -0.024144
-0.248615 -0.327631
0.144748 0.050652
0.325397 0.157049
-0.241396 0.230057
-0.124848 0.000766
0.058977 -0.216389
0.163737 -0.043121
-0.106396 -0.100231
0.212571 0.052322
0.066456 -0.241711
-0.345532 0.042726
-0.081439 0.217165
0.079670 0.372468
-0.149641 -0.135747
-0.049614 0.134984
-0.393885 0.171550
0.015341 -0.107977
-0.476255 0.241396
0.185262 0.409082
0.524326 -0.467817
-0.132154 -0.315826
-0.212628 0.348184
-0.606110 0.164894
-0.236785 -0.279181
-0.315850 0.539815
-0.007867 -0.538589
-0.362663 -0.135578
-0.147053 0.250008
0.105141 0.175970
0.326390 0.018168
0.101940 -0.194057
-0.245738 -0.079772
-0.009076 0.183257
0.030479 -0.048211
0.234542 0.311452
0.211068 0.199176
0.056089 -0.292796
-0.254881 -0.068941
-0.006270 0.143316
0.219783 0.391329
0.075966 0.056928
-0.043548 -0.190021
-0.045142 -0.086341
0.139377 0.018396
-0.161779 0.796594
-0.082980 0.202747
0.266180 0.178371
-0.087412 -0.085764
0.110274 0.135656
-0.269508 0.254306
-0.220270 0.030430
-0.040889 0.541630
0.233086 0.060003
0.169314 -0.279256
-0.161203 -0.327077
-0.363794 0.219787
-0.057007 0.609717
0.062558 -0.206891
-0.064608 0.237734
0.289172 -0.209690
-0.447343 -0.470247
0.014665 0.488503
0.566266 0.160826
-0.272849 -0.170421
-0.284326 -0.021999
0.184593 -0.231608
0.127720 0.003347
-0.114084 0.354224
0.150401 0.188229
0.290366 -0.190661
0.217133 -0.638476
-0.039343 0.646811
0.224571 0.441817
0.104073 -0.359512
-0.263512 -0.207919
0.096220 0.263585
0.183768 -0.454903
-0.588656 -0.085501
0.128655 0.801147
0.486867 0.009765
0.172880 -0.262797
-0.186731 -0.126927
-0.198240 0.072306
0.007335 0.116159
-0.068581 0.065078
0.135617 0.215811
0.551248 -0.377475
-0.524281 -0.599031
-0.372608 0.364789
0.270904 0.197898
-0.067396 0.689426
0.194906 0.143202
0.217791 -0.295883
-0.760010 0.033080
0.034586 0.477725
-0.508846 0.922278
0.400675 0.226364
0.382689 -0.999723
-0.058457 -0.104280
0.152374 0.149513
-0.605491 -0.288561
-0.576769 0.763928
1.156915 0.555165
0.519261 -1.216338
-1.123442 -0.208807
-0.821442 0.590812
0.247511 0.425171
0.213062 0.108656
0.286815 -0.057398
0.430321 -0.425693
-0.336884 -0.823880
-1.434747 0.565047
0.966346 1.776539
1.589717 -1.138691
-1.322358 -0.937267
-0.070562 0.697084
0.129682 -0.833918
-1.508146 0.443341
0.993488 1.524965
1.040717 -1.007488
-0.244022 -0.770661
-0.226898 -0.808420
-1.714792 1.131572
0.866764 2.203993
2.099982 -0.447958
-0.573053 -0.572868
1.169390 -0.321572
-2.036899 -2.031775
-3.088457 3.321796
4.107067 1.685521
2.459742 -3.984412
-2.940706 -1.613237
-1.076857 1.722929
0.608438 0.074368
-1.687569 0.177385
-0.358136 3.983944
7.181284 2.393892
-1.096592 -10.886672
-12.977837 2.467258
7.430277 10.667103
4.684271 -9.461020
-8.990245 5.339643
21.993097 7.055050
-0.173195 -38.923528
-40.962748 11.654148
19.718813 46.109981
22.677064 -14.353758
-5.909793 -23.188539
-15.165208 -18.675465
-104.693317 -22.125549
-26.654540 207.525151
97.005725 -49.731146
