12844.821896 11102.593050
941.102859 -2729.048665
-226.168383 1787.585695
168.685809 413.920659
53.425117 75.998087
-231.294529 -81.341021
290.795396 38.681036
3.938621 39.189130
-54.704981 127.789515
62.960689 -1.633749
-22.101028 -5.422033
56.806207 -26.379344
45.812353 4.223980
-26.579846 -73.748720
-55.903764 -32.810125
34.340544 -75.783399
24.089105 -59.042971
-23.394732 18.537334
45.969521 21.935490
24.035864 25.002841
44.453586 -34.262875
29.016413 -20.721762
35.510938 -26.903355
22.177402 -11.976029
23.388506 -24.413137
43.649560 -21.729832
25.726490 -9.755054
50.597767 -40.052775
29.083801 -12.006878
49.508775 -23.701316
44.697995 -38.687706
42.876006 -40.207214
22.588826 -18.194140
29.423156 -30.768171
34.433457 -38.174157
26.740522 -23.948068
42.246352 -39.603450
36.861239 -30.873996
37.229558 -31.931221
23.027180 -39.695527
39.864593 -34.761983
29.249273 -34.928689
36.616663 -38.474256
31.584048 -37.572450
32.697130 -34.188348
26.596206 -45.724062
28.276109 -37.472371
28.375219 -36.091427
26.514686 -49.793689
23.809422 -46.239700
22.257912 -44.123846
22.687601 -40.442307
22.276850 -44.870368
21.285032 -39.549720
16.917192 -53.119409
15.301188 -46.196343
10.863210 -45.327032
12.543992 -40.073130
7.597063 -41.735942
15.788139 -45.163875
9.063700 -48.394089
11.311564 -48.249367
6.840922 -49.845457
6.744662 -47.355537
2.234420 -44.942565
3.073835 -45.098153
4.837617 -43.532489
-3.356429 -46.169909
1.797142 -46.836121
-1.658645 -47.111188
-1.464683 -46.301113
-5.108536 -49.644944
-6.656558 -45.919094
-9.292059 -47.267726
-10.691029 -44.085240
-5.669351 -42.674932
-11.298425 -39.670968
-7.667110 -45.145027
-12.924086 -41.996088
-14.251591 -41.277970
-16.505634 -43.491576
-15.610129 -42.561775
-16.629987 -42.100646
-17.197600 -42.423100
-16.395795 -41.128177
-22.782457 -37.815427
-19.053405 -40.500184
-20.302420 -37.637809
-20.965167 -35.338465
-23.292259 -39.971543
-24.186870 -35.107820
-24.936075 -36.828314
-29.701696 -34.501046
-25.114999 -34.217834
-26.593184 -32.762659
-27.503490 -35.006266
-28.701959 -32.342598
-30.308524 -29.127965
-29.557925 -29.516566
-29.335952 -27.036944
-28.342226 -27.662845
-31.987470 -27.025693
-30.426609 -28.357304
-32.776416 -24.668894
-31.641797 -24.618527
-31.348531 -22.171198
-32.471180 -22.064380
-34.059596 -22.611474
-33.523031 -20.783799
-31.752370 -19.276717
-34.094462 -18.002144
-33.527380 -16.579652
-33.538426 -17.238512
-36.014493 -15.871668
-36.409625 -16.132897
-35.386571 -12.454239
-34.082161 -11.200529
-34.090084 -10.166137
-33.787899 -10.851268
-34.427564 -9.864941
-35.465305 -7.466743
-34.895321 -6.641548
-35.097923 -5.277394
-33.057954 -5.551562
-33.326574 -4.912967
-34.104711 -3.506366
-35.635694 -1.937137
-32.981628 -1.769477
-32.977231 -0.614607
-32.949362 1.694497
-31.763398 0.950040
-30.880653 2.486447
-31.674604 2.483885
-31.522538 3.582431
-28.999784 4.875689
-30.582052 5.014556
-29.799697 6.829266
-27.758219 6.274244
-28.530008 9.304142
-27.274714 7.629902
-27.914895 8.949179
-25.912414 9.933018
-27.141926 10.189587
-25.317936 10.083161
-25.373984 11.849125
-24.273902 11.953537
-23.381547 12.758163
-22.961960 14.734788
-22.953717 13.957723
-21.820477 14.359564
-20.113935 14.814811
-21.012704 14.756243
-19.199284 13.797280
-20.039959 14.849265
-19.233882 15.674129
-17.535656 15.766131
-16.500316 16.701481
-16.311595 16.684722
-15.170477 16.863926
-14.884388 17.167435
-15.063874 17.249228
-14.503550 17.170306
-12.502537 17.307377
-12.468114 18.509528
-10.958470 18.025647
-10.332150 18.481108
-9.998755 17.805028
-9.700924 17.123897
-9.363243 17.987169
-8.961845 17.676797
-7.325980 18.662863
-6.514501 17.989650
-7.055272 18.976338
-6.081428 17.778574
-5.047325 16.734512
-4.165082 17.597538
-3.543349 17.457985
-3.301276 16.913499
-2.822257 17.189186
-2.791865 17.605370
-1.489279 16.234612
-0.804424 16.697886
-0.583904 16.756842
0.595534 17.254884
1.202313 15.483529
0.728287 15.389645
1.562119 15.363638
3.194547 14.218470
2.516402 14.989277
3.008068 14.821511
4.163863 14.522427
4.903347 14.428632
3.901227 13.695919
5.843143 14.469623
5.584104 13.072529
6.887748 12.791194
6.719061 12.619099
7.059281 12.483238
6.237803 12.034328
7.263643 10.367709
7.675125 10.676997
7.177467 9.451881
8.535450 10.040058
8.249452 9.780833
8.423831 9.469170
8.552219 9.215301
8.555119 8.041060
8.711756 8.437978
9.424591 7.690946
9.976687 7.283174
9.296173 6.221537
9.202361 6.211695
10.155071 5.911187
9.652908 5.286889
10.401593 4.720948
9.717819 4.393401
10.018119 4.987109
9.811146 3.461848
10.012101 4.335532
10.894423 3.308386
10.159702 2.728286
10.478502 1.978981
10.050760 1.749313
10.606910 1.827892
10.846968 1.578302
10.257466 1.465535
10.309530 0.956926
10.243163 0.569519
10.544563 0.467397
9.387460 0.449563
11.291554 -0.833547
10.524088 -1.397996
10.643579 -1.471277
9.694036 -2.389274
8.811166 -2.498569
9.716357 -1.675579
9.967123 -2.079942
8.922755 -2.411772
8.747431 -2.391476
8.902980 -3.381978
8.930084 -3.354826
9.600458 -2.567579
9.730719 -3.998106
8.948933 -4.327097
8.004386 -4.869597
7.848578 -4.881297
8.665336 -4.987324
8.302010 -4.240183
7.692016 -5.865907
7.503827 -5.168952
7.289940 -5.873613
7.460889 -6.407112
7.593152 -6.427531
7.561215 -6.241379
6.357771 -6.090758
7.092926 -7.184991
7.028760 -6.301080
6.374939 -7.462835
6.188508 -7.210715
6.063407 -7.500101
5.467922 -6.765323
5.677197 -7.517077
5.575671 -7.590768
5.787333 -7.832236
4.451503 -8.065098
4.759593 -7.649108
4.236471 -7.995110
4.569519 -7.458073
4.902021 -7.809354
3.963810 -8.332497
3.917939 -8.624059
3.606301 -8.213561
4.177224 -8.138878
4.183795 -8.630033
3.223419 -9.328320
3.074738 -8.729747
3.675336 -9.271595
2.667295 -9.298180
2.067855 -7.986441
3.050275 -9.377570
3.156862 -9.064510
2.592071 -9.088177
2.196519 -8.748971
2.581347 -9.536831
1.013119 -9.820488
2.085748 -9.257480
1.824704 -8.817639
1.328024 -9.115502
1.831350 -8.975564
1.749464 -8.846404
1.583076 -8.748967
0.581864 -9.052620
0.690491 -9.377397
1.049435 -9.261886
0.973483 -9.570474
-0.025772 -10.074096
-0.267560 -9.210442
-0.105501 -8.638115
-0.393230 -8.684822
-0.250230 -9.143165
-0.003931 -9.823865
-0.209791 -8.316288
-0.367107 -9.559565
-1.073172 -9.305495
-0.617199 -8.842857
-0.500218 -8.791751
-1.884075 -9.212903
-1.642150 -9.566204
-1.785050 -8.665146
-1.094458 -8.899989
-1.791188 -9.183531
-1.461659 -9.025262
-2.298096 -7.750328
-1.948674 -9.384879
-1.334655 -8.702742
-1.508833 -7.905480
-1.932428 -8.599603
-2.347052 -9.002995
-1.646721 -9.211288
-2.749861 -9.032551
-2.759520 -9.451538
-2.499570 -9.188968
-2.888035 -8.232829
-2.540646 -8.553075
-2.583355 -7.787270
-2.211437 -8.710973
-2.946560 -8.192771
-3.585689 -9.113729
-4.037531 -9.502025
-3.380765 -8.628663
-3.001954 -8.998662
-3.456134 -8.346246
-3.606753 -7.813561
-3.952579 -8.247449
-3.531822 -8.641269
-3.739115 -8.604111
-4.660078 -7.620266
-4.242125 -7.567152
-4.314458 -7.510745
-4.760647 -7.473134
-4.924059 -8.488617
-3.876623 -8.400695
-4.436946 -7.635209
-3.401456 -7.951598
-4.954607 -9.307789
-4.400347 -7.991514
-4.523561 -7.200660
-5.185069 -8.201578
-4.760056 -7.267434
-5.043368 -7.336963
-5.050834 -7.677552
-5.640248 -7.138258
-4.922290 -7.981162
-6.284786 -7.294708
-5.204749 -6.927485
-5.432474 -7.107957
-5.960973 -6.189372
-5.880104 -6.988471
-5.242099 -7.259473
-5.121408 -6.667796
-5.817580 -7.522575
-5.597219 -7.203781
-6.278119 -6.704810
-6.428844 -6.646242
-6.516738 -6.777074
-5.401387 -6.126660
-6.442333 -7.102233
-6.693713 -6.828199
-5.405986 -6.415280
-6.809167 -6.178583
-6.615177 -6.412313
-6.501612 -6.965982
-6.712951 -6.624318
-6.697144 -6.203824
-6.310606 -6.269849
-6.696276 -5.626033
-6.924314 -6.456262
-7.227538 -6.317472
-6.750635 -6.406125
-7.486901 -6.319435
-7.404160 -5.332857
-7.617968 -6.029144
-7.070621 -5.478568
-7.538814 -5.912904
-7.887787 -4.508980
-7.682946 -5.153883
-8.169547 -5.683897
-8.438901 -5.637875
-8.273499 -5.620920
-8.137034 -5.584388
-7.793476 -6.070089
-8.529531 -5.050650
-8.478485 -5.050997
-7.888595 -4.857557
-8.748343 -4.824700
-7.688041 -3.943596
-8.607256 -3.800027
-9.569275 -4.067507
-8.843231 -4.528696
-9.142674 -4.263008
-8.642569 -4.326887
-9.091617 -4.282502
-8.640964 -4.182635
-7.895447 -4.807007
-9.205899 -3.935530
-8.596502 -3.573146
-9.304582 -3.034014
-7.803973 -3.356913
-8.477086 -3.642110
-8.769859 -2.998190
-9.188884 -2.652745
-9.868406 -2.801685
-9.492533 -3.705874
-9.112985 -3.122637
-9.550618 -3.381821
-9.878623 -2.617408
-8.842738 -1.897511
-10.056340 -2.451204
-8.606786 -2.382216
-9.886548 -2.707803
-8.963280 -2.142050
-8.912379 -1.741882
-10.065164 -2.501134
-10.157085 -0.653257
-9.309929 -1.165770
-9.713762 -2.134043
-10.266895 -1.476447
-9.924605 -1.019305
-9.411235 0.164745
-9.738346 -0.927351
-9.623207 0.060467
-8.757800 -0.411644
-9.584152 -0.243033
-10.028350 -0.000267
-9.475172 0.213906
-9.803842 0.431877
-9.181479 0.678544
-9.511705 0.728925
-9.947346 0.726440
-9.107828 1.797676
-10.153109 0.107792
-9.565274 1.084384
-9.029043 0.840005
-8.908539 2.046445
-9.621803 1.181636
-8.452056 1.669286
-8.868192 1.919070
-9.150000 2.094033
-9.534222 3.178401
-8.803367 1.898548
-8.754194 1.943257
-8.672347 3.103585
-8.391902 2.729489
-8.760706 2.480029
-8.304876 2.850994
-8.710313 2.897066
-8.416216 3.295377
-8.036388 2.832179
-8.295699 3.301316
-7.862803 3.695553
-7.185446 4.450309
-8.226266 4.688057
-6.540601 3.176894
-6.848478 4.567062
-7.717081 3.680117
-7.868046 4.176401
-6.624328 4.382030
-7.096478 4.193877
-6.535057 3.920883
-6.426340 4.679478
-6.569955 4.317014
-6.462194 5.115223
-5.084966 4.419508
-6.109237 4.501940
-5.060848 5.617817
-5.905308 5.211891
-5.501543 5.103687
-5.557880 5.306330
-5.541398 5.439027
-5.324434 5.358362
-4.367411 4.940090
-4.538546 4.868303
-4.374471 4.912597
-3.715304 4.902026
-4.341309 5.399262
-4.247644 5.252707
-3.564566 6.067022
-3.838714 5.188905
-3.533151 5.487474
-3.367667 5.003828
-3.406748 5.638350
-1.923348 5.780030
-3.282783 5.177543
-2.681643 5.016560
-2.428532 4.334387
-2.319525 6.053151
-1.701005 5.138024
-1.735939 4.971764
-1.455073 4.587175
-1.743616 5.136722
-1.936271 4.994278
-0.995872 4.943371
-0.799321 4.471477
-0.737958 4.519082
-0.331824 4.734223
-0.204365 4.279196
-0.908750 4.684083
0.189803 4.948637
-0.270102 4.113370
-0.239919 3.948574
-0.283758 3.690050
0.295647 3.898535
0.703867 3.300128
0.375686 3.357370
0.844861 2.933776
1.049908 3.094719
0.806890 3.402736
1.171353 2.209200
1.003275 3.109390
0.962196 2.233234
1.025652 2.116473
0.444850 2.152588
0.799852 2.179236
1.330749 2.147544
1.403072 2.468970
1.089163 2.096603
1.370913 1.381699
0.824877 1.893358
1.488644 1.595651
1.287333 1.635770
0.891595 1.354824
1.335635 1.214380
1.632496 0.967471
1.373316 0.999075
0.646258 0.974972
1.489203 0.983654
1.726561 0.780023
0.323000 -0.498930
1.491074 -0.319660
1.344283 -0.555944
0.907935 -0.068882
0.660137 -0.853123
1.280797 -1.062566
1.043106 -1.095403
0.611238 -0.938658
0.764921 -1.198027
0.240074 -1.190620
1.032365 -1.001816
0.412690 -1.042298
0.171575 -1.891295
1.097637 -2.408058
0.699627 -1.474562
0.409128 -2.394099
0.943580 -1.104186
0.752220 -1.560735
-0.062521 -1.283245
-0.074325 -2.499167
-0.113251 -2.429465
0.034507 -2.200032
-0.182670 -1.819618
0.021534 -1.972542
-0.266767 -1.864361
0.413795 -2.923125
-0.260317 -2.377504
-0.887394 -2.216726
-0.400625 -1.677614
-0.778288 -2.517380
-1.494942 -3.600277
-1.160947 -2.821190
-1.649442 -2.659511
-1.440577 -3.268865
-2.025974 -2.998354
-2.168912 -3.613423
-1.810001 -2.816492
-1.851168 -2.835957
-1.321215 -2.968220
-1.346899 -2.761522
-2.587274 -3.270993
-1.872962 -3.321537
-2.270831 -2.523060
-1.380531 -4.535999
-1.513982 -2.936219
-2.028582 -2.603355
-2.240700 -2.774649
-2.080306 -3.613388
-2.062508 -3.059881
-2.679293 -2.990759
-2.522438 -2.820367
-2.893715 -2.940186
-3.343669 -2.875553
-2.626721 -3.299282
-3.084595 -2.983446
-2.878424 -3.008769
-3.271669 -3.014877
-3.234824 -3.710512
-4.072787 -3.528352
-4.017157 -3.443849
-3.399022 -2.573730
-3.932991 -2.685380
-3.503852 -2.876598
-3.812960 -2.924450
-3.864841 -2.668739
-4.537971 -2.389785
-4.094823 -2.484837
-3.331926 -2.563962
-3.976676 -2.303001
-4.062778 -2.965711
-4.149557 -2.288237
-4.249367 -2.373089
-4.203574 -2.254948
-4.494541 -1.978209
-4.794870 -1.716640
-5.004019 -2.726792
-4.290846 -1.937860
-4.102894 -2.305832
-4.686751 -1.967712
-4.003913 -2.580226
-4.314770 -1.484125
-4.644258 -1.849961
-5.376616 -1.996107
-4.690047 -2.325116
-4.712686 -2.587769
-4.596038 -1.150817
-4.686101 -0.917369
-4.256466 -1.597601
-4.665460 -1.715367
-5.238047 -1.551296
-4.829758 -1.626714
-5.662913 -1.176240
-4.856978 -1.825253
-5.207205 -1.019885
-5.449241 -2.159404
-5.145543 -1.241502
-5.375688 -0.843305
-5.002024 -0.768882
-5.207807 -1.558492
-4.588956 -0.905441
-4.784939 -1.018490
-5.133106 -1.043762
-5.209816 -1.085329
-4.772940 -0.711528
-4.889768 -1.057043
-5.200277 -0.343063
-5.009872 -0.512236
-4.782403 -0.588057
-5.243472 -1.016821
-5.581059 -0.748490
-5.270661 -1.389603
-5.760744 -0.561666
-5.259701 -1.160610
-5.167954 -0.872140
-4.997101 -0.959834
-5.341694 -0.722237
-5.617008 -0.434954
-5.952071 -1.023764
-5.708792 -0.263203
-5.044278 -0.351488
-4.994124 -0.402190
-5.252449 -0.116198
-5.552092 -0.530060
-5.954329 -0.182789
-5.759439 -0.751268
-5.930338 -0.182621
-5.671552 -0.715986
-6.116790 -0.654884
-5.666722 -0.497739
-6.141538 -0.361062
-5.681486 -0.577964
-6.119892 -0.091952
-5.899489 -0.844091
-6.453032 0.081859
-5.930503 -0.800670
-5.825301 -0.194534
-6.001771 -0.097151
-5.812895 -0.093640
-6.465658 0.131428
-6.470038 0.296130
-5.918204 0.446273
-5.977863 0.388703
-5.779072 -0.157269
-5.343009 0.750942
-6.188573 -0.421497
-6.688780 0.314808
-6.612129 0.385301
-6.793122 0.150217
-5.794238 0.234814
-6.616724 0.578779
-6.814548 0.347124
-6.453136 0.604064
-6.329598 1.335032
-6.608472 0.693219
-6.196300 0.845772
-6.461045 0.668467
-6.457744 0.816692
-6.146878 0.736037
-6.204029 0.739654
-7.021083 1.094184
-7.313448 0.559208
-6.560858 1.142847
-6.484945 0.909064
-6.055386 1.695882
-6.804190 1.278340
-6.993200 1.293022
-6.662480 1.020735
-6.639468 1.534939
-6.878946 1.894114
-6.933577 1.878087
-6.997163 1.924704
-7.302728 2.404004
-6.822047 2.760272
-6.782087 2.728249
-7.218345 2.161370
-6.805802 2.612891
-6.636738 1.950620
-7.035682 2.516942
-7.014847 2.702668
-6.636019 2.627320
-6.857246 2.611490
-6.412226 2.868545
-7.202093 2.691749
-6.915769 2.924658
-6.685224 3.066043
-6.478926 3.409677
-6.948596 3.539038
-6.540775 3.000340
-6.794943 3.662703
-6.884001 3.617093
-6.814066 3.268100
-5.965441 3.160821
-6.237407 3.375873
-6.484883 3.844557
-6.750522 4.510771
-6.277155 4.245324
-5.946816 4.500193
-6.124186 3.861452
-6.196804 4.502776
-6.709136 4.600818
-5.325937 3.776728
-5.703125 4.388807
-5.924327 4.840037
-6.482279 4.613162
-5.584458 4.762429
-6.024858 4.511111
-5.892847 4.799903
-5.411224 4.636693
-5.186268 4.990010
-5.393730 4.850110
-4.820835 4.873904
-5.335103 5.494611
-4.949028 4.996343
-5.591761 5.658882
-6.174739 5.318267
-5.035927 5.486814
-4.933229 5.889187
-5.066939 5.686746
-5.028434 5.461810
-5.030493 5.613954
-4.481382 5.099696
-4.670779 5.784839
-4.800759 5.663206
-4.238318 5.565259
-4.164367 5.888815
-4.469085 5.639910
-3.299122 6.262893
-3.944201 6.338839
-3.945212 5.476558
-4.170987 5.991766
-4.122852 5.023945
-3.757892 6.097830
-3.730307 5.793165
-3.057034 5.629282
-3.078396 6.339601
-2.790587 5.907512
-3.275056 5.858011
-2.874165 6.146342
-3.613385 6.095031
-2.895507 6.490515
-2.824502 6.175939
-2.868785 5.934721
-2.327801 6.440613
-2.699959 5.495849
-2.750400 5.814103
-2.379927 6.172270
-2.630213 5.804957
-2.130209 5.896395
-2.591816 5.871405
-2.136112 5.301594
-2.191786 6.029947
-2.544267 5.743412
-2.006336 5.955563
-1.238528 5.819417
-2.047477 5.449998
-1.452412 5.765956
-1.548978 5.699749
-1.407091 5.447706
-1.644967 6.465325
-1.636816 5.778120
-0.927969 5.118026
-1.193238 5.448499
-0.679230 6.075043
-0.860954 5.382810
-0.957478 5.404941
-1.209727 5.323143
-1.122857 5.445683
-1.331813 5.681682
-0.530723 4.828340
-0.996271 5.579117
-0.379868 5.384113
-0.470179 5.091062
-0.633312 5.162251
-0.224651 5.059183
-0.667508 4.053877
-0.352782 4.887934
-0.196056 5.141067
-0.138710 4.690425
-0.603381 5.034792
-0.392658 5.116456
-0.430594 4.487434
-0.018118 4.251604
0.108979 4.209387
0.072787 4.462440
-0.267271 4.822896
-0.197757 3.797268
0.417865 5.330791
-0.060567 4.414748
0.496080 3.763272
0.067370 4.322664
-0.207868 4.394349
0.122039 3.669188
0.074089 3.943950
0.149946 3.948000
0.363242 3.405923
-0.086476 3.638594
0.550416 3.566410
-0.231112 3.860270
0.011561 3.518880
0.690865 3.692783
-0.162986 3.629546
-0.111478 3.139399
0.894998 3.090316
0.208780 3.373963
-0.099794 3.301141
0.358213 2.891889
0.471863 3.096070
0.367668 3.391046
-0.136283 3.209083
-0.005338 2.444528
-0.047120 2.667613
-0.152724 2.634682
0.383609 2.756785
0.388684 3.305795
0.053501 2.115732
0.389351 2.889438
-0.203792 2.631972
-0.012699 2.477105
-0.317660 2.610576
-0.444323 2.647456
0.331766 2.261768
-0.318091 2.781438
-0.236627 1.983382
0.467954 2.308255
-0.472614 2.229827
-0.468216 1.477239
-0.267914 2.244805
-0.465546 1.771151
-0.036054 1.879226
-0.074713 1.876932
-0.226360 2.196049
-0.274558 2.234929
-0.213816 1.898375
-0.371277 1.408824
-0.495075 1.287594
0.063173 1.588938
-0.283518 1.775380
-0.197813 1.613899
-0.503651 1.455674
-0.398351 1.703789
-1.084754 1.452514
-1.284412 1.425161
-1.571819 1.488424
-0.767084 1.659873
-0.689262 1.637588
-0.494374 1.259979
-1.106864 1.498719
-1.006976 1.256328
-1.196545 1.966249
-1.354188 1.649261
-1.558529 1.175815
-1.590356 1.708674
-1.038486 1.353859
-1.421882 1.541485
-0.481055 1.484446
-0.997197 0.747863
-1.313519 0.960415
-1.919043 0.951233
-1.572294 0.861084
-2.025782 1.309674
-1.654552 1.102808
-1.931476 1.616727
-2.163499 1.126270
-2.332855 1.099110
-2.541978 0.949349
-2.234102 1.414630
-2.659077 1.258887
-2.346344 1.594594
-2.703206 1.402377
-2.372971 1.517002
-2.375994 1.618724
-2.601966 1.972044
-2.367298 1.487262
-2.665921 1.536015
-2.885108 1.496036
-3.008436 1.445270
-2.319222 1.800390
-2.619596 2.510797
-2.393249 2.024729
-2.359649 1.543073
-2.669514 1.458750
-3.099430 1.892953
-3.171532 2.236056
-3.005311 1.896343
-3.173959 2.365221
-3.371537 2.470262
-3.393106 2.283929
-2.780539 2.203225
-2.896542 2.752087
-3.566099 2.330439
-3.210758 2.135119
-3.319233 2.473776
-3.768016 2.562164
-3.328019 2.675129
-3.625446 2.343652
-3.618394 2.564562
-3.609448 2.719158
-3.558118 3.097504
-3.316077 3.226917
-3.951199 3.485989
-3.645021 2.234473
-2.989741 3.585684
-3.607835 3.018685
-3.529646 3.858293
-3.356681 3.683904
-3.277947 3.904760
-3.531816 3.084891
-3.263002 3.686220
-3.736180 3.862388
-3.645771 4.247586
-3.926693 3.251829
-3.309668 4.425679
-3.984437 4.269004
-3.124472 4.038909
-3.533478 3.995533
-3.262569 4.146092
-3.635498 3.512837
-3.540606 4.043802
-3.067374 4.302793
-3.365996 5.139649
-3.004334 4.976188
-2.999072 4.723073
-3.036614 4.644270
-2.824564 4.612138
-3.263929 4.162889
-2.657068 4.752822
-3.183017 5.499707
-3.483744 4.988425
-3.075665 4.969531
-3.007756 5.208195
-3.506292 4.558036
-2.912161 5.079613
-3.288655 5.049102
-2.423752 5.225205
-2.345722 5.110073
-2.594214 5.045408
-2.225307 5.450382
-2.432112 5.722482
-2.571415 5.222966
-2.602619 5.737896
-1.935556 5.808645
-2.500995 6.308801
-2.064452 4.837965
-1.971922 5.905011
-2.552894 5.788679
-2.710635 5.935640
-1.979417 5.859252
-2.420823 5.924729
-2.200020 5.619690
-1.860823 5.914433
-2.459670 5.469111
-1.822278 6.163625
-1.923581 6.431635
-1.242437 5.444304
-1.350300 6.038850
-1.588213 6.088306
-0.995325 6.145173
-1.735055 5.675200
-1.197385 5.116065
-1.170849 5.642943
-0.767565 6.124107
-1.377438 6.296827
-1.124112 6.242407
-1.433565 5.708165
-1.128411 6.090016
-1.241701 5.637346
-0.807514 5.937450
-1.210287 4.955850
-0.753530 5.464877
-0.822231 6.274707
-1.378073 5.830855
-0.879818 5.937090
-1.089321 6.158496
-0.230598 6.002793
-0.865407 5.690331
-0.705543 5.826520
-0.888229 5.680580
-0.405013 5.838597
-0.261140 6.522326
-0.592610 6.117201
-0.174775 6.319028
-0.367672 5.324825
-0.738840 5.382661
-0.583285 5.520469
-0.012297 6.614138
-0.632589 5.574209
-0.498589 6.409692
-0.318718 5.779903
-0.162307 5.883793
0.489663 6.134098
-0.037972 6.112593
-0.265007 5.606848
0.358498 5.950159
0.374439 5.886781
0.217238 6.101565
-0.166167 6.109483
-0.026178 6.534616
-0.027995 6.572774
0.101922 6.678308
-0.105149 4.835446
0.334031 6.580695
0.156248 6.320363
0.441268 6.661398
0.231427 6.245985
0.558444 5.993985
0.223986 5.992369
0.064540 6.213774
1.003103 6.351521
0.147021 6.512497
-0.186039 5.430725
1.076913 6.262755
0.450087 5.930568
0.931376 5.509871
0.615028 6.484763
1.055992 6.761172
0.967601 6.108955
1.607050 6.593799
1.172368 5.976220
1.426260 6.120670
0.649834 5.855438
0.874002 6.363280
1.152690 5.503288
1.678578 5.879442
1.316980 6.627865
1.714048 6.637862
1.818059 6.452843
0.951979 7.053417
1.722696 6.847984
1.894630 6.756766
1.803911 6.158037
2.124245 6.566083
1.884723 7.051869
1.930273 5.858055
2.249644 6.387884
1.963769 6.489065
1.885049 6.617350
2.140781 6.224773
2.357945 6.257158
2.356744 6.118420
2.189046 5.784704
1.716409 5.765166
2.430630 5.929443
2.727882 5.827123
1.777778 5.822067
2.577065 5.915886
2.873789 5.701353
2.534996 5.979141
2.436356 5.606472
3.302381 5.598186
3.015911 5.559446
2.690040 5.566469
2.888845 5.579355
3.326326 6.233088
3.614288 6.437898
3.487232 5.626309
3.597544 5.920709
2.862290 5.520887
3.785421 5.475077
3.615759 5.206692
3.089789 5.909861
3.494653 5.588938
4.001012 5.309525
3.695641 5.564292
3.600602 5.571136
3.915924 5.715946
3.910711 5.102073
3.615985 5.474555
3.575167 5.030093
4.371412 5.096342
4.387669 4.742377
4.320641 4.551332
4.427397 4.954391
4.291614 4.924734
4.115358 4.119085
4.195629 4.600804
4.230693 4.356517
3.989863 4.309721
3.991771 3.837145
4.573223 3.915631
4.517733 3.929214
4.038288 4.600277
4.466693 3.229599
4.148641 3.538921
4.047445 3.893683
4.253076 3.522416
4.338378 3.937686
4.438868 3.264843
4.607245 4.068407
4.011867 3.436795
4.601770 3.203619
4.654915 2.614183
4.678230 2.987957
4.549226 2.938565
4.419700 2.857514
4.399048 2.965394
4.560021 3.151500
4.222186 3.091374
4.273198 2.601627
4.710630 1.958811
3.963345 2.192421
4.275113 2.326263
4.129923 1.932290
4.803077 2.307971
4.497314 1.956927
4.623437 1.948072
4.053941 1.769942
4.601630 1.761369
4.003824 1.532345
3.834871 1.705059
3.548016 1.718826
4.084570 2.565092
3.406180 1.718094
3.500832 1.470671
3.678159 1.618478
3.697178 1.965995
3.765081 1.320514
3.553044 1.604095
3.580837 1.529725
3.788819 1.381066
2.533291 1.680755
3.862516 1.825469
3.300001 0.810945
3.166905 0.869659
3.522430 1.398157
3.326371 1.805240
3.053358 0.966930
2.595235 1.003948
2.928571 1.183073
3.487162 1.364195
2.755842 0.590551
3.106742 1.454933
3.442569 1.190524
2.716933 0.958158
2.948241 1.160334
2.714933 1.383962
2.576312 1.221239
2.282091 0.993995
2.538052 0.632874
1.804773 1.213226
2.171459 0.599542
2.195909 1.427002
2.401044 0.704831
1.884169 0.562058
1.861397 0.727303
1.781653 0.798462
1.753480 1.103846
2.743360 0.469200
2.522724 1.390136
2.389830 0.866140
1.954622 0.818947
2.153659 0.872227
1.401157 1.446106
1.912312 1.220703
1.991447 0.954394
2.205414 0.789412
1.726274 1.881130
2.253511 1.278863
1.681291 1.090828
1.235333 1.954006
1.544618 1.008378
2.611509 1.207836
2.147822 1.982455
1.547430 0.921599
1.520503 1.468103
1.389215 1.520295
2.223314 0.649780
1.466688 0.613197
2.013116 0.464988
0.979303 1.409855
2.021549 1.530556
2.051042 1.042672
1.753976 0.592420
2.017449 0.572856
1.539183 1.542457
1.832185 1.656301
1.419472 1.536895
1.644665 0.918631
1.640393 0.792348
0.586025 1.741098
1.325310 0.610146
1.263593 1.184500
1.532162 0.983652
1.431020 1.301774
1.634046 1.252517
1.700769 1.042887
0.934151 0.808870
1.331846 1.302581
1.618178 1.596013
0.950419 1.385778
0.094818 0.933780
0.752762 1.043774
1.500203 0.930471
1.412048 0.685998
0.611565 1.388740
0.964813 1.073286
0.574165 0.901259
1.067428 1.127956
0.916632 0.705688
1.220542 0.966004
0.427241 1.061605
0.671010 0.825992
1.080059 1.058270
0.748966 1.296441
0.088574 1.156994
0.660916 0.961415
-0.360049 1.290086
0.329017 1.083362
0.887978 1.132372
0.733753 0.975534
-0.462603 0.606153
-0.022941 0.398733
0.104826 1.180034
-0.072130 0.825215
-0.148549 0.473335
-0.729379 1.335784
0.145622 0.890947
-1.486528 0.625352
-0.626859 1.455023
-1.018562 0.851056
-1.413163 0.760793
-0.828260 1.154716
-1.246251 1.102830
-0.706713 1.317740
-1.028367 0.961963
-1.544038 1.317039
-1.839802 2.084911
-1.040460 0.985166
-1.149351 1.091539
-1.890172 1.846160
-2.225204 1.262103
-1.848879 1.751719
-1.807567 1.339312
-2.326702 2.010497
-1.775922 2.485431
-2.169035 2.058149
-2.399937 1.987020
-3.096777 2.775240
-2.822974 2.885570
-2.765355 2.273122
-2.104342 2.807140
-2.507338 2.632516
-3.519118 2.320416
-3.372654 3.833500
-2.525767 3.114033
-2.568704 2.898826
-2.956534 3.534111
-3.165369 4.217836
-2.672688 4.011834
-3.373470 4.517485
-3.394254 4.174340
-3.455102 4.607120
-2.759990 4.398667
-2.929678 5.480926
-2.988399 5.544578
-2.308955 4.853986
-2.710797 6.090876
-2.888371 5.082682
-3.571574 5.875645
-3.337552 5.662282
-3.372757 5.968133
-3.653249 5.734345
-2.903274 6.840747
-3.234938 7.191061
-3.800141 7.262709
-2.501148 6.837881
-3.113313 7.525728
-3.446930 7.788961
-3.010437 7.770965
-2.559061 7.236329
-3.179419 8.100347
-3.528464 8.392615
-2.711053 8.571413
-3.296194 9.035919
-1.996119 9.815900
-2.051216 9.519150
-1.858578 10.063012
-1.666435 9.914735
-1.972366 10.260443
-1.149251 10.640311
-0.958555 10.403074
-1.236806 10.761297
-0.870477 10.503159
-1.481806 10.860830
-0.520009 11.855698
-0.984868 11.585582
-0.610682 11.432663
-0.647043 11.822125
-0.054737 12.009397
0.288383 12.222203
0.242211 12.720734
1.342749 13.580522
0.794162 12.449672
1.301465 12.419455
1.612739 12.956558
1.830607 12.544233
1.892314 13.524759
2.505769 13.811370
2.993719 13.970826
3.106486 14.025660
3.538845 13.357984
2.885822 13.626263
4.336952 13.985378
3.686757 14.058056
4.451965 14.491265
5.140421 14.407718
5.650532 13.684208
5.168610 14.258071
5.846364 14.622319
5.802242 14.900846
6.335770 14.185755
7.380473 13.986384
7.187921 13.468783
6.916821 14.494099
7.900471 14.079257
8.785494 13.891633
8.894385 13.867094
8.971666 13.374562
9.513965 13.930584
9.968610 13.661303
9.779085 14.233208
10.572188 13.557440
10.547613 14.752940
11.635776 13.277395
11.491093 13.473292
11.989974 13.227109
12.521333 12.946249
12.561968 12.455182
12.736562 12.811383
12.816590 12.659523
13.908988 12.071531
14.323937 12.656463
14.334936 11.687059
14.154460 11.778606
15.118062 11.460270
15.788075 11.383975
15.361639 11.540383
15.653402 10.929431
16.458733 10.443785
16.625129 9.442278
16.887621 9.945693
17.770853 9.360170
17.668622 8.527112
17.708312 9.044994
17.439413 8.341632
17.958274 7.952784
17.945841 7.298712
18.329209 8.453610
18.173495 7.268128
18.122433 7.125689
18.818137 6.759156
19.383155 6.321738
20.169708 5.415316
19.697258 5.618965
19.837418 5.001041
19.720008 3.932572
20.089950 4.396265
20.267536 2.878862
19.296459 3.750921
19.974958 2.130348
19.644847 1.668766
20.612814 2.580671
20.982541 2.537087
19.961967 0.809678
20.469949 -0.239391
20.401763 0.726959
20.087153 -0.519117
19.534949 -0.269904
20.355405 -0.934944
19.757747 -0.866650
20.181776 -1.817641
19.872142 -2.724646
19.333527 -2.585755
20.795928 -3.437652
20.936906 -3.296451
20.950131 -4.135754
19.358536 -4.955557
20.103136 -4.341312
18.668255 -6.037476
19.138228 -5.844145
20.343404 -5.848249
19.291491 -6.605293
18.726065 -6.459775
18.606818 -7.773329
18.732291 -7.092903
19.418697 -8.419512
19.157970 -8.312213
19.024264 -9.165891
18.094201 -10.193463
17.451692 -9.658553
17.003802 -9.159287
17.433115 -10.089346
17.081774 -10.730671
15.313197 -10.570551
16.825088 -10.943815
16.121965 -11.572396
16.021720 -12.071970
15.740225 -11.343382
15.570256 -13.254590
14.212588 -13.253648
14.668639 -12.842780
14.451599 -12.471710
13.905470 -13.279249
13.418971 -13.728693
14.078955 -14.229531
12.537897 -15.243118
12.580894 -13.984709
12.708201 -14.802641
12.328408 -14.569710
12.123080 -16.015557
10.669731 -16.613200
10.157102 -16.749695
9.870397 -16.142366
10.516894 -16.229086
9.588115 -16.801757
8.805463 -17.187838
7.417614 -18.350679
7.668406 -17.488946
6.934892 -16.563293
6.754171 -17.377771
7.744830 -17.636094
6.361223 -16.864279
5.441892 -18.115079
5.957361 -17.264537
5.490408 -17.802383
2.089978 -17.250400
4.028243 -17.232229
4.198904 -16.707538
2.545277 -18.160829
3.309353 -17.443819
2.489132 -16.953839
1.088917 -18.112146
1.661959 -18.004792
1.859044 -18.073194
-0.593457 -18.344108
-0.394610 -18.889079
-1.604172 -16.761964
-1.306390 -17.840238
-1.029129 -17.352630
-1.652123 -17.294561
-4.977778 -16.748053
-3.860366 -16.317279
-3.926082 -15.741291
-4.335593 -16.592625
-4.498498 -16.453404
-5.589678 -16.077631
-7.687746 -15.961938
-5.960838 -14.955158
-4.775737 -13.948445
-6.438215 -14.276771
-5.930712 -14.875778
-9.033827 -15.211703
-7.744016 -14.872456
-10.050055 -14.279323
-9.196721 -12.543064
-10.990824 -12.849295
-8.011327 -13.047230
-9.749765 -14.349270
-12.474800 -12.444389
-10.927556 -10.930755
-11.553466 -10.070600
-11.924168 -9.388891
-11.258829 -11.458274
-12.740092 -9.676443
-15.218871 -9.247093
-13.309672 -8.261625
-12.326417 -8.122696
-10.548760 -6.921544
-12.575352 -8.709526
-14.148461 -7.635055
-13.618178 -5.593371
-15.656108 -7.080797
-14.030732 -5.814996
-14.325084 -3.452056
-14.950603 -3.965255
-17.805435 -4.588688
-15.767511 -2.916200
-15.573315 -2.054921
-15.743277 -3.080083
-16.133036 -0.800788
-15.863880 -1.446613
-16.946238 -0.529210
-16.844026 2.210592
-16.072358 4.679821
-16.699272 2.592343
-15.136232 3.303582
-16.429132 2.010318
-16.330867 4.768470
-15.455370 6.700135
-15.912448 5.694692
-18.037022 5.180227
-13.370651 5.007303
-16.336263 7.956302
-15.256363 8.637560
-16.210374 11.983807
-15.389410 10.263480
-18.747975 11.858861
-14.290280 11.084515
-15.164649 13.691206
-16.913068 12.310860
-11.745043 12.042690
-15.879366 16.376502
-14.173819 16.780212
-16.458151 16.173838
-11.243664 18.247108
-12.997256 18.083134
-6.824039 18.488646
-9.454454 19.076742
-14.986963 22.343349
-10.784208 13.121067
-13.341727 22.082074
-12.139577 21.351605
-9.518229 21.219846
-4.766966 21.744512
-12.688085 23.616442
-5.442818 24.701590
-5.023950 22.711235
-12.193285 29.664924
-4.970445 15.021911
-8.353827 28.406742
-5.326273 28.082186
-7.752595 27.723348
0.793556 30.029469
-9.292698 31.819332
4.581307 23.959412
4.453865 23.562681
4.046920 35.168953
5.526968 13.764496
-2.277323 28.891765
-3.766197 27.100999
0.059891 28.584808
9.610854 31.294441
0.675517 27.581573
10.748190 20.848946
10.028398 17.299662
6.576076 34.862593
1.513446 12.320711
-0.149051 33.489156
2.583109 20.759590
6.707499 28.929478
14.895270 36.577725
21.006121 43.172305
6.439212 21.371880
13.055443 19.608250
17.514577 27.042147
21.412201 6.538726
4.844970 26.544968
20.535935 17.411568
8.587010 25.157228
24.025270 19.592590
30.414821 31.934882
9.746495 21.895735
17.522172 18.196582
18.136668 11.238754
26.329816 15.882369
-11.941942 42.781398
15.886861 21.636123
-29.645495 20.264514
40.278286 33.247519
86.478980 28.358284
20.863212 29.267878
13.419687 52.125544
24.699341 28.774594
44.923766 13.920999
38.727335 39.020504
78.183047 9.354788
-45.796834 -15.371810
44.031138 -29.746931
147.261696 -65.457339
1.433078 -4.123537
23.017439 42.758746
-23.218614 -267.793975
-249.445393 -338.969398
814.621256 507.346792
-872.351000 45.257457
-5714.983057 1675.377327
