17466.118036 21961.350585
-10009.039264 3472.134588
302.700747 43.983639
-762.848356 -831.031577
200.019023 500.633294
204.623719 -782.403163
-336.683435 348.855035
-1415.820731 297.082958
606.784030 152.471680
-124.938506 -286.812780
248.528105 939.073659
-174.627328 790.616443
22.795318 42.177130
120.444079 -16.231763
-450.863763 -135.325710
-346.070251 -472.466353
10.824652 44.541021
68.082334 -146.129950
-14.008212 -52.781375
37.669980 -61.390701
95.157162 -20.809049
52.877782 -26.881213
27.956147 5.373876
65.191979 -47.802427
-50.717271 0.962073
46.096091 -28.953213
24.356893 -44.274086
-6.916546 -142.907141
36.316531 66.178004
28.416320 -9.159847
20.233926 -46.120295
28.249093 -24.240280
-74.979353 -124.303749
23.338110 -68.112269
19.231185 65.994268
20.643684 -26.595419
19.419958 -37.239725
49.745959 -44.113718
22.126703 -51.212663
30.070856 -39.485200
23.779693 -30.260278
50.089585 -34.895524
-19.921138 -35.015708
49.019465 -36.570486
43.752672 -38.874094
37.946427 -45.866954
39.236730 -31.250383
33.906143 -41.421362
-4.897252 -35.659743
18.146165 -30.643117
8.672485 -71.656894
28.622971 -20.654202
12.195097 -17.339464
21.928819 -26.615279
39.672017 -43.736949
31.922004 -38.737485
12.011843 -57.038138
18.158276 -37.431471
21.611089 -35.610746
43.475858 -56.034628
-2.232847 -52.189814
52.600970 -34.766204
42.477363 -43.595445
23.800900 -39.916175
38.208640 -58.383780
3.029193 -30.041645
18.525671 -49.299865
25.909595 -39.439045
30.496232 -42.295963
25.832436 -31.675459
19.745783 -37.124763
37.791978 -50.995927
3.272478 -51.831467
28.770402 -39.829054
28.918797 -64.379926
14.383193 -28.376072
16.010408 -34.847831
16.343586 -41.332690
19.092484 -51.116334
21.118995 -50.944476
30.552748 -39.943556
22.238616 -43.538318
32.886049 -46.320785
7.023690 -33.546114
-1.029227 -52.362334
23.690817 -39.275471
19.112541 -55.626674
25.325956 -44.649489
21.989664 -47.744147
11.846453 -44.497240
8.625947 -47.021987
6.390509 -51.348146
16.195568 -56.280795
8.067139 -42.444016
13.442290 -40.714375
13.266038 -43.437233
22.634155 -39.706445
12.104048 -49.056563
13.844788 -53.099618
14.621500 -49.838803
22.595135 -54.823556
6.097208 -50.891815
0.336669 -59.772516
18.466208 -37.846668
17.287159 -40.362626
12.337512 -48.189496
26.740066 -51.614245
9.076711 -52.055967
12.809043 -41.191788
11.033657 -51.787404
11.198314 -45.974311
13.269907 -50.050400
-0.286908 -45.242599
18.305180 -50.716040
17.590108 -50.192172
10.456877 -50.248756
16.922526 -51.058218
-1.478971 -41.394977
19.813893 -44.749264
-0.033359 -55.210799
1.025483 -44.142695
18.318651 -44.046069
4.456434 -43.218082
16.679338 -51.349112
1.434355 -42.858935
5.281125 -43.201950
4.315753 -52.776468
5.479481 -45.361375
12.124409 -48.013640
5.001168 -50.638767
10.857309 -44.716722
-1.405185 -48.431300
2.996119 -32.821711
5.278695 -51.175589
1.338726 -50.283438
5.330565 -44.380693
4.213273 -45.438569
8.731595 -45.324379
-0.317795 -47.145600
1.390745 -44.205915
1.016417 -49.413757
4.304733 -53.673513
3.229489 -42.968176
0.324646 -47.051828
-0.556095 -41.587147
-0.914745 -43.518039
-3.546493 -46.551923
0.236686 -46.215714
7.558343 -43.550741
1.505357 -45.684793
-0.102716 -39.171875
4.036053 -42.895353
-0.380242 -48.523704
-2.978225 -47.494474
-1.497340 -47.056874
0.498826 -47.305100
0.318435 -40.537764
-0.494428 -39.250380
-4.212336 -42.321541
-4.636365 -46.338489
-0.543898 -43.300543
-4.780499 -41.443253
-1.455454 -45.233652
-3.440064 -41.835821
-0.580147 -42.375179
-6.303285 -42.283616
-7.740800 -42.515158
-5.895917 -41.782381
-6.490976 -40.496805
-11.159481 -39.764922
-9.163284 -42.295072
-5.460841 -43.179506
-9.257557 -41.886679
-13.375831 -45.020988
-7.331895 -42.226969
-7.958047 -41.774386
-9.653637 -42.262244
-2.997634 -41.135899
-9.380500 -43.468907
-10.906341 -38.456160
-9.522302 -38.511122
-8.901542 -43.809657
-11.734389 -44.419174
-14.319095 -40.623057
-9.116039 -41.739948
-7.758358 -36.322928
-9.302568 -41.518962
-14.036497 -42.154700
-12.537172 -37.809730
-9.999362 -43.687306
-12.690044 -36.934248
-10.435049 -40.934425
-13.525381 -39.018422
-15.880524 -36.243004
-10.727086 -38.697254
-13.567146 -42.080861
-14.074028 -43.571492
-13.273579 -36.247242
-11.616064 -31.867999
-12.850337 -38.261865
-10.499957 -37.810117
-12.744176 -37.978291
-13.954497 -36.540393
-14.951512 -37.410191
-15.315599 -35.615462
-15.397704 -36.340885
-20.097437 -35.930670
-14.464488 -34.495412
-12.234163 -34.237744
-13.352008 -32.597202
-16.216975 -32.973991
-17.920916 -35.531553
-19.380022 -37.091793
-16.024941 -33.418034
-17.318146 -34.141786
-21.173072 -34.275937
-17.118996 -30.413039
-19.507181 -33.887475
-16.678382 -35.617467
-19.262534 -31.475717
-18.587107 -31.558560
-21.733934 -29.768512
-18.482802 -34.543673
-20.307640 -36.682911
-19.784829 -33.100446
-20.772376 -33.865627
-19.206944 -29.693294
-21.724886 -29.293275
-19.590193 -29.546279
-19.457284 -33.030204
-19.459403 -31.126585
-18.437118 -32.844509
-16.576319 -29.988209
-20.220543 -31.399396
-18.683876 -27.616506
-23.212462 -28.976703
-17.899674 -30.142532
-18.223663 -30.378725
-20.172177 -29.033891
-20.362898 -29.488336
-22.413663 -28.178659
-19.755072 -28.514831
-23.806485 -26.288884
-20.838356 -28.721121
-19.023822 -25.431616
-21.288878 -30.411472
-20.979119 -25.686742
-20.279139 -27.636325
-21.803588 -25.526310
-22.035651 -27.955062
-21.107203 -26.259627
-21.834263 -23.780782
-21.899711 -24.250476
-23.864618 -24.352589
-19.329518 -23.027865
-22.066476 -24.215804
-22.112705 -27.330493
-21.812962 -23.081865
-22.998126 -25.215859
-24.615408 -25.331701
-24.842370 -24.247940
-21.164432 -22.663899
-24.155378 -22.102835
-23.101053 -23.262878
-20.794360 -23.788866
-23.505920 -21.584942
-26.369076 -23.037747
-23.901685 -22.428763
-23.653245 -21.797156
-24.822974 -20.675923
-25.257998 -20.188407
-21.261706 -21.356203
-21.917291 -18.404002
-25.298313 -21.987986
-21.776482 -22.949078
-23.816416 -20.893708
-24.118809 -19.521311
-25.101560 -18.630385
-24.182589 -17.681471
-24.680512 -18.682640
-23.118670 -18.415471
-23.158497 -18.680530
-21.985023 -17.101075
-23.934574 -17.199604
-25.652349 -18.569670
-23.541589 -18.839409
-23.305793 -18.337817
-22.141483 -19.514621
-24.156771 -15.063939
-26.704046 -16.174458
-24.938156 -17.091725
-23.856082 -15.836492
-25.021510 -16.112142
-26.003170 -14.768325
-22.985822 -15.172474
-21.750881 -16.548147
-24.085113 -14.030282
-22.859738 -15.701771
-23.941923 -12.753274
-26.445613 -13.780646
-23.894923 -14.920999
-21.988940 -12.088855
-23.749825 -11.449431
-22.387839 -12.138861
-22.667914 -13.473079
-22.643895 -11.512283
-23.970453 -12.276929
-23.817471 -12.645954
-23.803782 -10.691433
-24.013240 -10.149523
-23.811038 -11.600979
-24.258733 -9.985269
-22.726319 -9.796806
-23.514357 -10.276422
-22.789794 -12.514178
-25.065802 -10.144233
-24.143399 -9.809719
-22.113828 -10.314422
-24.560319 -9.955006
-22.268809 -10.391093
-23.669926 -9.178307
-23.136332 -8.927462
-22.041550 -8.431102
-21.601693 -8.693065
-22.874060 -8.818712
-22.849811 -6.784435
-21.648560 -8.969456
-22.251483 -8.482161
-21.017027 -6.263170
-21.261363 -6.223349
-22.970663 -5.468628
-23.912993 -6.810671
-21.165795 -6.537236
-21.552658 -7.186214
-21.514419 -6.146396
-22.608609 -7.180768
-20.860201 -5.867209
-22.018784 -5.005544
-21.414109 -4.410676
-20.950298 -3.973673
-20.289263 -4.152957
-19.715681 -5.442145
-20.867890 -5.428266
-19.147793 -5.189571
-22.335557 -5.533712
-21.238750 -3.613550
-19.440095 -4.709575
-20.677342 -4.386977
-20.467754 -4.979491
-22.220140 -4.507684
-19.359607 -4.062880
-19.672336 -1.226545
-21.110457 -2.091539
-20.465310 -3.088869
-19.906688 -2.173544
-20.475081 -3.397941
-19.136658 -2.351658
-21.278666 -3.016984
-18.442638 -1.583208
-19.228711 -2.777919
-20.606026 -3.939894
-18.972048 -0.054522
-18.419276 -2.156809
-18.612889 -3.083885
-18.096273 -0.197679
-19.098945 -1.659507
-17.923636 -0.996503
-18.254133 0.804855
-19.783644 -0.813039
-17.489733 0.757682
-17.523686 0.089988
-15.899650 -1.703301
-17.353891 -0.556021
-16.923409 -0.275312
-18.262369 -0.363845
-17.109537 0.663136
-16.359436 -0.360182
-14.918059 0.246019
-16.307713 0.854415
-16.373231 1.625872
-15.669516 0.891763
-16.163011 2.985844
-15.779628 0.815972
-15.586526 0.892833
-14.373878 0.797666
-15.453703 0.747160
-15.455242 1.851580
-15.517913 1.547063
-15.774234 -0.359270
-16.206894 1.500879
-14.280717 2.014521
-15.037360 2.226397
-13.702265 2.226741
-14.333711 1.273069
-14.322027 2.030458
-13.785887 1.280876
-14.526941 1.689203
-12.670236 2.737922
-13.295016 2.075305
-14.435813 2.744852
-12.878077 2.012587
-12.973688 2.600235
-13.936859 2.424528
-12.875783 2.110613
-12.961867 1.870018
-13.333106 2.986567
-12.067213 3.444250
-11.749237 2.496810
-12.160991 2.545246
-11.914862 2.929376
-11.975607 2.399399
-12.359626 3.318803
-10.840294 2.417216
-10.734000 2.303538
-10.435983 3.472124
-11.236979 3.175494
-11.201267 2.848159
-9.662863 5.000632
-11.197143 3.293778
-10.566827 2.692078
-11.740241 2.374537
-9.740160 3.200797
-10.132356 3.598509
-9.535412 2.823019
-10.567380 3.224820
-9.450487 4.302951
-10.206511 4.962325
-11.217344 3.545172
-9.102338 3.755771
-8.860546 4.276930
-7.471415 4.382944
-8.750929 3.838137
-8.931518 2.369839
-9.448877 4.307229
-9.001105 4.047083
-6.389163 3.048339
-9.409682 3.833384
-7.619993 3.565143
-8.023671 4.175958
-7.796528 2.898140
-7.575069 2.506012
-7.641511 4.106322
-6.704409 4.712264
-6.334047 3.724685
-5.994063 3.291779
-6.824390 2.626728
-6.680305 3.222913
-6.550711 3.870552
-6.936167 4.072449
-6.823730 4.050502
-6.019691 4.655619
-5.681037 3.927599
-5.041340 3.303767
-4.599927 3.016483
-5.430811 4.616876
-6.265903 3.657520
-4.551804 3.657446
-6.213170 4.176890
-5.508468 2.786155
-5.218843 3.759100
-5.237827 3.570019
-5.103065 4.289097
-4.959242 2.046064
-5.065048 2.943916
-3.953183 3.505787
-3.921590 2.254685
-4.992667 3.206911
-4.033432 2.053037
-4.686713 3.188428
-3.454811 2.519563
-3.832435 2.647296
-3.277341 4.095389
-3.784524 2.094335
-2.447963 2.721720
-3.026323 2.055627
-3.213323 1.890617
-2.935456 3.089725
-3.035416 3.912348
-2.353279 3.169038
-2.755728 1.711636
-2.698604 1.942849
-2.104138 1.035147
-1.517433 1.664904
-0.957898 1.586009
-2.375265 1.796804
-1.086507 1.293997
-2.234379 2.399943
-0.998461 2.423974
-1.552853 1.883655
-0.581147 1.558284
-1.466139 2.874610
-1.587356 1.780419
-1.984242 0.693760
-0.915978 1.317894
-2.078837 1.631042
-1.509508 1.027852
-1.081415 1.910214
-0.837277 1.865764
-0.636835 1.268345
-0.071037 0.454948
-1.164795 0.949744
-0.426740 0.367781
-1.151357 0.136547
0.392549 0.966720
-1.521015 0.317137
-1.355855 1.541529
-0.955064 0.798964
0.267300 1.700609
-1.130265 -0.007057
-0.492431 0.753760
0.214334 0.139036
0.212675 0.191553
-0.656515 0.260392
0.299834 0.156531
-0.394548 0.348143
-0.957473 -1.369488
0.250212 -0.267960
0.117046 -0.062960
1.132983 0.379362
-0.195073 -1.444098
-0.035427 -1.725026
0.236234 0.075256
0.185818 -0.929039
0.428849 -0.520948
0.946152 -0.772501
0.714252 -2.200433
1.385157 -0.728423
0.706650 -0.492820
0.258277 -1.247280
0.867877 -2.094656
1.092090 -1.421173
0.887419 -1.402390
0.750251 -1.853371
1.813340 -1.571926
2.249041 -1.534855
0.962998 -1.164890
0.949273 -1.807191
1.436751 -2.230433
0.525261 -1.725091
1.643157 -3.829351
1.814421 -3.176646
0.313147 -2.416378
1.217980 -2.865984
1.104742 -2.699145
1.493128 -2.740631
0.914201 -2.420451
0.586250 -2.574227
0.876625 -3.527929
2.171652 -3.315336
1.262643 -2.619785
1.622287 -3.247581
0.582125 -3.167922
2.194357 -3.120921
0.524102 -4.430688
1.265707 -3.960518
2.633038 -3.594739
0.777123 -4.076579
1.344699 -3.704045
1.469093 -4.274418
-0.199369 -4.734665
0.732198 -3.847181
0.930982 -4.679984
1.539755 -4.268427
1.883886 -5.173973
1.142235 -4.104937
1.330327 -5.163789
0.814173 -4.989262
2.057116 -5.883593
0.934627 -4.550240
1.351397 -5.021206
0.499869 -4.369432
1.327695 -4.412345
0.709302 -4.620121
1.826819 -5.816309
0.945553 -5.446841
1.180774 -6.680321
0.973520 -4.566904
0.627044 -6.463533
1.281118 -5.740762
1.165080 -5.410943
1.201148 -5.212352
0.264200 -6.539492
0.939567 -6.673645
0.859386 -6.253024
0.827904 -6.640168
1.185678 -6.239618
1.417840 -7.090003
0.019138 -5.533389
-0.342640 -6.034890
0.583302 -6.294429
0.885605 -6.639546
0.705931 -7.045582
1.150537 -6.791801
0.369156 -6.764514
-0.185167 -6.660570
-0.231014 -7.502224
1.802949 -7.013609
0.574070 -8.088987
-0.169049 -7.511423
-0.217865 -7.930562
0.242045 -7.623705
0.141931 -7.247034
-0.276797 -7.769025
0.460905 -7.679820
0.237429 -7.994100
-0.219052 -7.542873
-0.593206 -8.023438
-0.679160 -8.084985
0.211537 -7.702885
0.070097 -7.574605
-0.459824 -8.278769
-0.343516 -8.856104
-0.606481 -8.597554
-0.245931 -8.664745
-0.347456 -8.831121
-0.218554 -8.053892
-0.656872 -8.845662
-1.056360 -7.703913
-0.096517 -8.714633
-1.061489 -8.428971
-1.505326 -9.034975
-0.648159 -8.786935
-1.323628 -8.732099
-0.593562 -8.235302
-2.996928 -9.204915
-1.308998 -9.227296
-1.945425 -9.018313
-1.907727 -9.121244
-2.250296 -9.330094
-1.965337 -9.165965
-2.169871 -9.814471
-2.104641 -9.130089
-1.221301 -9.448530
-2.144739 -8.803158
-2.365573 -9.639895
-2.318258 -8.716120
-2.081954 -8.568619
-1.812070 -8.284905
-2.636735 -9.638183
-2.375130 -8.781952
-2.349626 -9.260288
-2.480305 -9.244783
-2.962709 -9.417402
-3.514339 -9.768922
-2.933186 -9.696730
-3.078342 -9.148522
-2.502473 -9.353843
-3.235795 -9.427717
-3.088684 -10.320554
-2.915592 -9.996709
-3.250059 -9.516472
-3.939358 -10.112855
-3.858813 -10.169210
-4.094186 -9.362848
-3.926422 -9.344532
-4.236234 -9.544751
-3.593683 -9.492491
-4.216823 -9.439030
-4.753070 -9.569844
-3.916746 -9.094366
-3.887942 -9.581218
-4.143968 -10.268016
-4.398700 -9.096372
-3.987544 -9.347640
-5.154188 -9.585769
-4.382634 -9.450993
-4.363797 -9.443928
-4.775960 -9.453103
-4.584490 -9.716820
-4.654749 -10.304163
-4.893694 -9.605186
-4.714433 -9.653833
-4.866866 -9.538160
-4.942087 -9.968585
-4.478893 -9.101096
-5.392893 -9.759490
-5.361325 -9.959612
-5.000685 -8.828981
-5.232397 -10.635416
-5.594949 -9.162367
-5.926396 -9.703329
-5.197789 -9.720990
-5.889857 -9.535650
-5.544234 -9.941084
-5.554583 -9.893323
-6.556513 -9.423513
-6.801947 -9.563295
-5.934796 -9.417098
-6.503485 -9.807377
-6.387410 -9.555150
-7.086823 -9.412116
-6.915189 -9.312359
-6.359041 -9.733672
-7.148286 -9.567719
-7.577834 -8.850653
-6.911366 -8.721490
-6.646906 -8.902285
-6.935258 -8.913480
-6.807206 -8.901777
-7.042417 -10.118799
-7.406813 -9.778486
-7.336080 -8.893538
-7.028827 -8.632737
-7.275447 -8.663177
-7.315695 -8.720694
-7.881405 -8.852618
-7.503585 -7.915324
-7.625774 -8.391497
-8.487727 -8.879350
-8.062970 -8.409169
-7.995726 -8.965345
-7.983560 -8.793930
-8.397263 -8.579445
-8.150504 -9.119934
-8.294482 -8.452792
-7.890906 -8.181498
-8.845154 -8.139773
-7.553171 -8.550590
-8.728261 -8.339700
-8.858778 -7.882473
-8.599231 -8.311582
-8.384503 -8.308713
-8.655175 -7.409116
-8.324225 -8.046273
-7.752775 -8.301532
-8.770758 -7.224508
-8.385902 -7.570826
-7.839017 -7.809325
-8.908981 -7.586120
-8.445013 -7.657695
-8.568370 -7.805642
-8.607385 -7.442876
-8.774675 -7.704371
-9.209217 -7.079451
-9.388042 -7.105551
-9.113763 -7.504241
-9.525281 -7.679734
-9.202204 -6.732627
-9.576188 -7.284584
-9.635637 -6.932797
-9.708575 -6.872948
-9.785048 -6.942298
-9.472140 -6.699637
-9.389479 -6.464230
-9.483836 -6.477647
-9.934840 -6.021664
-9.985925 -6.440659
-10.092133 -6.624112
-10.077501 -6.001479
-9.775730 -6.267015
-10.462115 -5.718675
-10.023517 -5.422045
-10.292738 -6.367888
-10.948245 -5.748126
-10.393028 -5.203697
-10.077504 -5.280983
-10.192709 -6.149996
-10.091416 -5.724517
-10.380192 -5.162620
-10.219050 -5.619889
-10.315798 -4.888514
-10.027005 -5.407567
-10.478569 -5.445556
-10.288542 -5.703576
-10.903545 -5.935466
-10.145487 -4.877374
-10.637786 -4.902070
-10.726889 -4.974298
-11.109766 -5.494839
-10.579852 -4.132341
-10.708294 -4.116279
-10.826259 -5.065308
-10.691148 -5.049757
-10.678773 -4.494436
-10.630890 -4.483166
-10.987122 -4.343269
-10.705782 -4.423386
-10.326500 -4.294442
-10.471856 -4.386947
-10.558248 -3.998492
-11.068281 -3.530938
-10.827742 -3.585618
-10.698204 -3.530381
-11.087476 -3.447836
-11.201096 -3.265764
-11.147930 -3.545979
-11.191466 -3.060595
-10.722396 -2.928492
-10.981366 -3.692160
-10.372555 -2.945891
-10.500691 -2.527559
-10.717454 -2.874615
-11.301904 -3.074926
-10.866448 -2.747125
-10.535354 -2.547110
-10.658969 -2.187662
-10.560608 -1.949277
-10.263895 -2.692849
-10.446843 -2.191239
-10.671402 -1.993978
-10.570441 -2.141730
-10.892128 -2.143526
-10.609073 -2.246425
-10.604734 -1.947294
-10.438947 -2.117401
-10.625600 -2.057936
-10.281902 -1.543842
-10.213628 -2.014414
-10.131251 -0.862584
-10.275268 -1.477656
-10.222821 -2.288904
-10.579115 -1.432689
-10.651736 -1.628705
-10.266453 -1.548970
-10.963987 -1.071661
-11.013540 -1.134336
-10.604581 -0.775603
-10.669756 -0.627535
-10.438795 -0.435291
-10.463446 -0.375448
-10.501743 -0.705869
-10.844445 -0.811080
-10.702593 -0.948236
-10.568511 -0.445575
-10.117985 -0.851850
-10.163928 -1.003592
-9.589119 -0.073938
-10.413234 -0.285964
-10.097000 -0.419741
-10.198659 -0.270840
-10.204549 -0.450032
-10.305297 -0.579151
-10.006758 0.792418
-9.509436 0.930972
-10.225195 0.433344
-9.568452 0.467357
-9.477899 0.818173
-9.518646 0.990010
-10.037978 0.379293
-9.789144 0.232099
-10.055664 0.608106
-9.554811 0.378795
-9.577540 0.695893
-9.762429 0.770543
-9.418198 0.975023
-9.104643 1.078785
-9.193128 1.037611
-9.264057 1.198492
-9.499434 1.555468
-8.941164 1.360209
-9.372534 1.376882
-9.535395 1.458414
-9.482492 1.299812
-9.000361 1.325190
-9.607654 1.687836
-9.469247 1.727585
-9.405198 1.793764
-9.099626 1.573830
-8.808883 1.029851
-9.077827 1.511577
-8.884846 1.779013
-8.609177 1.743723
-9.157019 1.256258
-8.580734 2.133113
-8.436267 2.085274
-8.260693 1.887716
-8.436694 2.343503
-8.226159 2.512871
-8.233186 2.347653
-8.772026 2.217761
-7.580192 2.098926
-7.840860 2.476423
-8.020867 2.259124
-7.700771 2.666593
-8.130368 2.555697
-8.376232 2.577708
-7.742508 2.491159
-8.514018 2.723795
-7.862776 2.916584
-7.010987 2.405280
-6.983260 2.731490
-7.325534 3.058400
-7.751468 2.936079
-7.556879 2.975728
-6.614094 3.166958
-7.698334 2.827321
-7.141574 2.991257
-7.103912 2.880189
-6.983314 2.667652
-6.508895 2.572227
-6.851818 2.932075
-6.994504 3.276264
-6.432396 3.195844
-6.350358 2.876642
-6.286378 2.539818
-5.955870 3.054515
-6.133458 3.260659
-6.642006 2.910633
-6.587582 3.353028
-6.965192 3.529138
-5.814241 3.702755
-6.230583 3.336690
-6.179756 3.189432
-6.403090 3.430636
-6.041709 3.531364
-6.051754 4.001201
-5.256831 3.752196
-5.313263 3.719233
-5.613151 3.179249
-5.646707 3.140632
-5.345704 2.918521
-5.785504 3.794736
-5.853526 3.358502
-5.351761 3.340726
-4.586399 3.147572
-5.308745 3.719293
-4.813120 3.175067
-5.046491 3.533365
-5.217292 3.368333
-4.644417 3.447627
-4.732353 3.261576
-4.310023 3.458060
-4.971548 3.259632
-4.947388 3.799329
-4.467334 3.018797
-4.795545 3.108194
-4.742296 3.572075
-4.593376 3.116115
-4.470686 3.273791
-3.864965 3.464350
-4.053578 3.829680
-3.959426 3.338652
-4.137134 3.287669
-4.303604 3.652549
-4.161480 3.547768
-3.772020 3.217148
-3.699905 2.718153
-3.476635 3.750629
-3.828631 3.375822
-3.400014 2.921593
-3.336073 3.872056
-3.622975 3.337178
-3.329141 3.152142
-3.005814 2.964064
-3.215251 2.984908
-3.380408 3.350035
-3.030283 3.465649
-3.365729 2.911745
-2.682645 3.319249
-3.046149 2.726035
-3.209715 2.820061
-2.649761 3.256717
-3.023326 3.482440
-2.627449 3.099725
-2.820047 2.854421
-2.849325 2.875966
-2.826396 2.735745
-2.648049 2.904315
-2.409022 2.903657
-2.487737 3.289366
-2.205657 2.978748
-2.432551 3.448276
-2.238440 3.576187
-2.017917 2.397452
-1.740311 2.350417
-1.816950 2.938475
-1.958716 2.503987
-2.364415 2.254560
-1.629636 2.563584
-1.739109 2.792454
-1.822898 2.028446
-1.435662 2.693452
-1.349683 2.701938
-2.045978 1.843630
-1.801205 2.475598
-1.230620 2.105659
-1.850092 2.535634
-1.378506 2.325534
-1.261880 2.317390
-1.750840 1.978181
-1.263959 2.113513
-1.199987 1.578891
-1.586201 2.107023
-1.030647 2.214577
-1.652011 2.189631
-1.340796 2.371776
-1.080006 2.322404
-0.910320 1.703005
-0.926680 1.941442
-0.901257 1.718963
-0.723224 1.502225
-0.844984 1.918653
-1.044693 2.072566
-1.048086 1.418310
-0.491759 1.808724
-0.700886 1.587232
-0.786754 1.071279
-0.358652 1.221863
-0.880875 1.785572
-0.765432 1.441093
-0.852281 0.888827
-0.619065 1.033473
-0.553667 1.570451
-0.626521 0.887361
-0.569625 1.304468
-0.783570 1.134834
-0.483155 0.958215
-0.315045 1.736950
-0.291288 1.030694
-0.277314 0.639162
-0.646876 1.080759
-0.060467 1.163936
-0.429002 0.315477
-0.394289 0.181478
-0.455536 0.254234
-0.285791 0.458637
-0.316296 0.375565
0.081689 0.315457
0.500533 0.028031
0.116736 0.051400
0.135382 0.419347
0.044854 0.395930
-0.397846 0.126342
-0.146311 0.299300
-0.055764 -0.063835
-0.114121 -0.401921
0.260906 -0.112981
0.034600 -0.576293
0.207204 -0.651110
0.244734 -0.465904
0.259468 -0.172195
-0.226775 -0.667751
-0.037702 -0.442132
0.222063 -0.383709
-0.052659 -0.806130
0.325490 -0.692894
0.063925 -0.670197
0.051815 -0.779779
-0.076934 -0.599430
0.275368 -0.820589
0.658621 -0.702988
-0.033922 -1.238887
0.063662 -1.215886
0.466847 -1.139175
0.590481 -1.106567
-0.309846 -1.059651
0.099762 -1.720234
0.137704 -1.620584
0.364012 -1.653132
0.379493 -1.177191
-0.215874 -1.550558
0.246320 -1.876742
0.011683 -1.589171
0.340606 -1.515415
-0.161591 -1.174240
-0.077898 -1.611516
0.130273 -1.627502
0.163211 -1.791088
-0.071250 -1.383981
0.604803 -2.002138
-0.310504 -2.111146
0.136873 -2.185814
-0.169193 -1.896999
-0.241086 -2.253090
-0.259155 -1.944764
-0.258499 -2.020333
-0.045972 -2.614989
-0.098279 -1.961787
-0.210597 -2.522943
-0.134434 -2.255790
0.210504 -2.601754
0.078116 -2.968579
-0.664518 -2.218992
-0.388389 -2.561816
-0.454385 -2.508791
-0.473060 -2.462180
-0.377827 -2.411621
0.114500 -2.843377
-0.113833 -2.990311
-0.388759 -2.694190
-0.570689 -2.808583
-0.305445 -2.918400
-0.421111 -3.086856
-0.576770 -2.500033
-0.268614 -2.803159
-0.755816 -3.226870
-0.649829 -2.916737
-0.558308 -3.308597
-0.688129 -3.288410
-0.925417 -3.474034
-0.726988 -3.283293
-0.992777 -3.162305
-0.664431 -3.485099
-1.171904 -3.544942
-0.663300 -3.411698
-0.769126 -3.562839
-1.117106 -3.588766
-0.993711 -3.480236
-0.951892 -3.614749
-1.168043 -3.525780
-0.987688 -3.609695
-1.160752 -3.379298
-0.767714 -3.941578
-1.176910 -3.901271
-1.316441 -3.972464
-1.493029 -3.791008
-1.254056 -3.846741
-1.225081 -4.223428
-1.302778 -3.936433
-1.690329 -4.129967
-1.084616 -3.936483
-1.356729 -4.076721
-1.553878 -4.251222
-1.794370 -4.228370
-1.723099 -3.794306
-1.799283 -4.377533
-2.022006 -4.274822
-1.832322 -3.918842
-1.684282 -4.387544
-1.596198 -4.515825
-2.411077 -4.605667
-2.098216 -4.518231
-1.724530 -4.192905
-1.771592 -4.436842
-1.800527 -4.373998
-2.255589 -4.569278
-2.320609 -4.387489
-2.397120 -4.093946
-2.442510 -5.004903
-2.164404 -4.410786
-2.540091 -4.446712
-2.460566 -4.563538
-2.428081 -4.485147
-2.992633 -4.335931
-2.682969 -4.430255
-2.530489 -4.101656
-2.983815 -4.381814
-2.514979 -4.469203
-2.921334 -4.415303
-3.240148 -4.532765
-3.000212 -4.854566
-2.968551 -4.672411
-3.009067 -4.647698
-3.263783 -4.609816
-3.115710 -4.498705
-3.553065 -5.078519
-2.843371 -4.928184
-3.077941 -4.713027
-3.540263 -4.393278
-3.389462 -4.598504
-3.338667 -4.344069
-3.336298 -4.513107
-3.483088 -4.506207
-3.295219 -4.568155
-4.181551 -4.759597
-4.003328 -4.591172
-3.500836 -4.530637
-3.862971 -4.867569
-4.192663 -4.888219
-3.867771 -4.481398
-3.970472 -4.788488
-3.961780 -4.942130
-4.092064 -4.497640
-4.158416 -4.582166
-4.173076 -4.447588
-4.342043 -4.394475
-4.019549 -4.785941
-4.395129 -4.579440
-4.559347 -4.538884
-4.436695 -4.285080
-4.305147 -4.300044
-4.376889 -4.816735
-4.975105 -4.625422
-4.617770 -4.649948
-4.717604 -4.193390
-4.806724 -4.133000
-4.846626 -4.123661
-4.974142 -4.566273
-4.933803 -4.656606
-5.226765 -4.726674
-5.063188 -4.386423
-5.269405 -4.106637
-5.340389 -4.515528
-4.969927 -4.541044
-5.058971 -4.587206
-5.304370 -4.278735
-5.223145 -4.363076
-5.178443 -4.431754
-5.178064 -3.800747
-5.450177 -4.326802
-5.297241 -4.036645
-5.412306 -4.426759
-5.869743 -3.804622
-5.720749 -4.697495
-5.797764 -4.222708
-5.642184 -4.121516
-5.900437 -4.078766
-5.755008 -4.159471
-5.963679 -3.893330
-5.927026 -4.086550
-5.926347 -3.679501
-6.019554 -4.422941
-6.159910 -4.140128
-6.121834 -4.133529
-6.399544 -3.722469
-6.111474 -3.473461
-6.499818 -3.983341
-6.028140 -3.398668
-6.253185 -3.749816
-6.081206 -3.583616
-6.188283 -3.974027
-6.585628 -3.604765
-6.673612 -3.606274
-6.390338 -3.349883
-6.635517 -3.606883
-6.245772 -3.629580
-6.533393 -3.381242
-6.368465 -3.531250
-6.682067 -3.434956
-6.581761 -3.344488
-6.599844 -3.516777
-6.932408 -3.082831
-6.742766 -3.055045
-6.759672 -3.253295
-6.965266 -3.223205
-6.940081 -2.852096
-7.142589 -3.063051
-6.740904 -3.144323
-6.795216 -2.766299
-7.197182 -2.899672
-6.911980 -2.981668
-6.954821 -2.716584
-7.437900 -3.063156
-7.502016 -2.485496
-7.539784 -2.850269
-7.416755 -2.833024
-6.819745 -2.822586
-6.964737 -2.204165
-7.414171 -2.290447
-7.139050 -2.792229
-6.868358 -2.331599
-7.400734 -2.479498
-7.477749 -2.774296
-7.463526 -1.989702
-7.449774 -2.274842
-7.419725 -2.108943
-7.340018 -2.250824
-7.709310 -1.989951
-7.869917 -1.983424
-7.297966 -2.136520
-7.368282 -1.609256
-8.096282 -1.667145
-7.468269 -1.787460
-7.555734 -1.808891
-7.507031 -1.724314
-7.778676 -1.779139
-7.657842 -1.581317
-7.857636 -1.572113
-7.558772 -1.532836
-7.911325 -1.538559
-7.784208 -1.125293
-7.665660 -1.057362
-7.662592 -1.096161
-7.743991 -0.731234
-7.820430 -0.900200
-7.795778 -1.086068
-7.479941 -1.019255
-7.464713 -1.197525
-8.162469 -0.997917
-7.553957 -0.564126
-7.773257 -1.022506
-7.897414 -0.536293
-7.680973 -0.721671
-7.831415 -0.775929
-7.669478 -0.592603
-7.969729 -0.885299
-7.684241 -0.043230
-7.529201 -0.332219
-7.855689 -0.152238
-7.581638 -0.237058
-7.746039 -0.189712
-7.443165 -0.034779
-7.766667 -0.197908
-7.733686 0.100813
-7.730784 -0.170478
-7.980960 0.150691
-7.575409 -0.008300
-7.953287 -0.125459
-7.371792 0.190697
-7.921940 0.528301
-7.781890 0.660098
-7.573408 0.271352
-7.623091 0.299442
-7.397966 0.540859
-7.752247 0.448926
-7.484900 0.872965
-7.375325 0.793629
-7.666737 0.684643
-7.307814 0.432202
-7.364691 0.758734
-7.865065 0.600563
-7.338646 0.837439
-8.023323 0.868785
-7.958530 1.090040
-7.346848 0.921719
-7.425674 1.027442
-7.100207 1.127797
-7.246416 1.089799
-7.587050 1.107911
-7.507907 0.980484
-7.120294 1.526851
-7.528274 1.318781
-7.495588 1.467951
-7.652642 1.416132
-7.323688 1.156356
-7.259254 1.534024
-7.098928 1.418446
-7.224029 1.488684
-7.488672 1.577000
-6.951411 1.613577
-7.169584 1.549883
-7.197180 1.782410
-7.247450 1.732368
-6.926192 2.055760
-7.297405 1.960465
-7.190771 2.419561
-6.693919 1.803525
-6.997241 1.870450
-6.502928 2.020337
-6.847632 2.102306
-6.919196 2.707161
-7.129524 2.386271
-6.640459 2.391097
-6.994995 2.304522
-6.634512 2.090916
-6.424393 2.255677
-6.368039 2.474784
-6.742723 2.661547
-6.703593 2.772105
-6.625400 2.731858
-6.349239 2.899078
-6.480752 2.660295
-6.186802 2.699656
-6.381055 2.707290
-6.277437 2.938936
-6.242630 3.084118
-6.412505 2.943900
-6.412105 2.977974
-5.975614 2.964382
-6.529516 3.228268
-6.196566 3.118606
-6.148422 2.950918
-6.032585 2.994532
-5.863931 2.933307
-6.032438 3.308499
-5.938346 3.083266
-5.579045 3.226100
-5.857969 2.883384
-5.813797 3.161346
-5.674141 3.283811
-5.369540 3.597240
-5.916642 3.142693
-5.472836 3.101531
-5.478151 3.370916
-5.520095 3.656316
-5.543512 3.337167
-5.812348 3.574617
-5.535297 3.496928
-5.253042 3.517117
-5.306445 3.251503
-5.214785 3.354615
-5.121588 3.690250
-5.270032 3.719469
-5.315446 3.240939
-5.171528 3.917242
-5.182156 3.755576
-5.133442 3.473808
-5.118666 3.644613
-4.931572 3.676613
-4.994376 3.639178
-4.901294 3.746200
-4.743701 3.664085
-4.675366 3.577910
-4.612496 3.456017
-4.731847 3.621556
-4.679022 3.794907
-4.261012 3.700386
-4.419027 3.491134
-4.717314 4.093194
-4.790980 3.725275
-4.266447 3.506621
-4.408286 3.826079
-4.234338 4.131331
-4.106038 3.853093
-3.995619 3.808802
-4.006455 4.086882
-4.099100 3.658838
-4.083799 3.891953
-3.991165 3.592968
-4.145025 3.974734
-3.889733 4.095290
-4.106649 3.797682
-3.673674 3.964095
-3.733827 3.970140
-3.661317 3.942267
-3.484758 3.905780
-3.167844 3.896673
-3.082192 4.137002
-3.433361 4.047622
-3.435811 4.291885
-3.228571 4.317514
-3.135930 4.151959
-3.016767 3.856388
-3.357111 3.739189
-3.126280 3.424483
-3.085224 3.813586
-2.789033 4.000369
-3.235740 3.714756
-2.953702 3.818143
-2.907504 3.894608
-3.076154 3.923355
-2.977118 4.012429
-2.840707 3.793307
-2.710602 3.911681
-2.629837 3.709777
-2.586045 4.112056
-2.514529 3.986202
-2.838620 3.785410
-2.687026 4.016110
-2.519842 3.842350
-2.209500 3.365120
-2.393267 3.666924
-2.142755 3.636915
-2.147061 3.749233
-1.949224 3.493331
-2.163399 3.699996
-2.159570 3.851674
-2.140450 3.237834
-2.378113 3.710986
-2.257093 3.408003
-1.665356 3.427354
-1.578028 3.508433
-1.990790 3.680332
-1.716806 3.267731
-1.878615 3.561111
-1.540936 3.822400
-1.841428 3.227234
-1.939341 3.526035
-1.372190 3.130707
-1.773471 3.175593
-1.626093 3.333085
-1.463344 3.339999
-1.208399 3.009004
-1.438968 3.015635
-1.247651 3.164819
-1.262601 3.272292
-1.191004 3.247251
-0.944181 3.183014
-1.140623 3.132709
-0.786794 2.861911
-1.043112 2.727482
-0.742773 2.884731
-0.982424 2.830415
-0.981019 2.766790
-0.849306 2.909412
-0.968190 2.902529
-0.681925 2.937846
-0.907175 3.011074
-0.713267 2.436246
-0.969505 2.620853
-0.987515 2.764745
-0.854005 2.429111
-1.047878 2.658480
-0.543329 2.454765
-0.494257 2.620552
-0.764287 2.641227
-0.305638 2.423976
-0.513732 2.408727
-0.655947 2.334988
-0.800998 2.304400
-0.522548 2.342753
-0.333221 2.176411
-0.547866 2.090884
-0.743888 2.334973
-0.512522 2.386414
-0.540866 2.501813
-0.516289 2.081039
-0.396486 2.076928
-0.249693 2.159853
-0.329284 1.956352
-0.303890 2.014988
-0.277841 1.929676
-0.159487 2.091673
-0.115364 1.580095
-0.283046 1.858437
-0.287803 1.610480
-0.318824 1.873219
0.009569 2.116087
-0.049389 1.668792
-0.295240 1.561088
-0.352816 1.185489
-0.008683 1.314638
0.041644 1.403764
-0.037467 1.328812
-0.205902 1.694264
-0.369053 1.506454
0.001778 1.216176
0.329694 1.149405
0.239257 1.138904
-0.038488 1.255526
0.020493 1.131140
0.090363 0.883926
0.192103 1.038252
-0.065816 1.044568
0.024211 0.891197
-0.211980 0.930138
-0.035718 0.878027
-0.012538 0.477125
-0.182370 0.874238
0.386748 0.739664
-0.029523 0.836491
-0.209352 0.440163
-0.120633 0.517274
0.370321 0.732026
0.014810 0.599363
-0.154024 0.362908
0.192612 0.364642
0.231748 0.288423
0.356670 0.008774
-0.000920 0.207252
0.232418 0.140803
-0.102437 0.231861
-0.166071 0.252800
-0.099572 -0.115321
-0.337790 0.013034
-0.031463 -0.084031
0.006561 -0.371378
0.114027 0.139049
0.101259 -0.109648
-0.118175 -0.020956
0.137484 -0.012209
0.203333 -0.254343
0.068287 -0.267268
-0.025101 0.066121
-0.031069 -0.100434
-0.023578 -0.338805
-0.307966 -0.576118
0.168334 -0.420713
-0.454168 -0.272130
0.016528 -0.507477
-0.043215 -0.610837
-0.420898 -0.567008
-0.518485 -0.841797
0.017554 -0.229759
0.180702 -0.949931
-0.408241 -0.644948
-0.460629 -0.811442
-0.151884 -1.007787
-0.372686 -0.770759
-0.670462 -0.667769
-0.187253 -0.843908
-0.765347 -0.549333
-0.139527 -1.348710
-0.630532 -1.178709
-0.249053 -1.431554
-0.418791 -1.147144
-0.537429 -1.270378
-0.470222 -1.227711
-0.590910 -1.107430
-0.637132 -1.373247
-0.604943 -1.183697
-0.559952 -1.642856
-0.672241 -1.368826
-0.590137 -1.414691
-0.461374 -1.740211
-0.649367 -1.302168
-0.571165 -1.466000
-0.749307 -1.611577
-0.723469 -1.457724
-1.029650 -1.244594
-0.814476 -1.474402
-0.951827 -1.950846
-1.090242 -1.805546
-0.998524 -1.479054
-0.995805 -1.714653
-1.076715 -1.908336
-0.955997 -2.177612
-1.019900 -1.890141
-1.179931 -1.930811
-1.261452 -2.003020
-1.230768 -1.642120
-1.415838 -1.866306
-0.989139 -2.066846
-0.981530 -1.909877
-1.322752 -2.032839
-1.460178 -2.378867
-1.220278 -2.242162
-1.334609 -1.933740
-1.665093 -1.937069
-1.498156 -2.041978
-1.121453 -2.116599
-1.443651 -2.589105
-1.631448 -2.074403
-1.268067 -2.249756
-1.904896 -2.197236
-1.650265 -2.557227
-1.783247 -2.358453
-1.717157 -2.235770
-1.961269 -2.361992
-2.066820 -2.278755
-1.748799 -2.767072
-2.119619 -2.472900
-1.792282 -2.658492
-2.052650 -2.353221
-1.960372 -2.115062
-2.022527 -2.368559
-1.928036 -2.511380
-1.895422 -2.315099
-2.263740 -2.303182
-2.217216 -2.548631
-2.211793 -2.700375
-2.073120 -2.508462
-2.270782 -2.476594
-2.319601 -2.459960
-2.341904 -2.552639
-2.775188 -2.365989
-2.546753 -2.627368
-2.439888 -2.465789
-2.388382 -2.670570
-2.655786 -2.734478
-2.812593 -2.466296
-2.630879 -2.654920
-2.787175 -2.841957
-2.689503 -2.707634
-2.812042 -2.400268
-2.942540 -2.791748
-2.924214 -2.513920
-3.127292 -2.616963
-3.050201 -2.602422
-3.230486 -2.523086
-2.976783 -2.518811
-3.178565 -2.680434
-3.173690 -2.483309
-2.996813 -2.555932
-3.431813 -2.416850
-3.136861 -2.656088
-3.346443 -2.499418
-3.529012 -2.521406
-3.533443 -2.985099
-3.619520 -2.444338
-3.466218 -2.400460
-3.763646 -2.392558
-3.669248 -2.122286
-3.557735 -2.404591
-3.721043 -2.125647
-3.853936 -2.222475
-3.720404 -2.419147
-3.791633 -2.583631
-3.993716 -2.851268
-3.814663 -2.540333
-3.897280 -2.204478
-4.004256 -2.587969
-3.848029 -2.592053
-4.058814 -2.239602
-4.030362 -2.421492
-4.170321 -2.407872
-4.251331 -2.506835
-4.080254 -2.495000
-4.267092 -2.441310
-4.025682 -2.243840
-4.189658 -2.139215
-4.388211 -2.009851
-4.214606 -2.331694
-4.605556 -2.303283
-4.453308 -2.032782
-4.483634 -2.107642
-4.563255 -2.408295
-4.830241 -2.145440
-4.760869 -2.188800
-4.636372 -2.175848
-4.810952 -2.047561
-4.920047 -1.877049
-4.914302 -2.089174
-4.774087 -2.141001
-4.877340 -1.775285
-4.913848 -1.537333
-4.937011 -1.680237
-4.912866 -2.202119
-4.930824 -1.836964
-5.208536 -1.883816
-5.128086 -1.902422
-5.738988 -1.759720
-5.116370 -1.645433
-5.073336 -1.690666
-5.205394 -1.986090
-5.109727 -1.767828
-5.305215 -1.598249
-5.388771 -1.680200
-5.202501 -1.730388
-5.391098 -1.828196
-5.357963 -1.484229
-5.505583 -1.592940
-5.493452 -1.650872
-5.625214 -1.573475
-5.633431 -1.156859
-5.492355 -1.335220
-5.350352 -1.348842
-5.610261 -1.537141
-5.730424 -1.508276
-5.811825 -1.070795
-6.094406 -1.033265
-5.609554 -1.204856
-5.768437 -1.146693
-5.607539 -1.022945
-6.140697 -0.765238
-6.040436 -0.865677
-5.839864 -1.025949
-5.838649 -1.152359
-5.774528 -1.044745
-5.688725 -0.918013
-6.195435 -0.773920
-5.974337 -0.611954
-6.103643 -0.874115
-6.093023 -0.553252
-6.194642 -0.667720
-6.217954 -0.376133
-6.000707 -0.579055
-6.179573 -0.623321
-6.262865 -0.532742
-5.971631 -0.448186
-6.153149 -0.101794
-6.359687 -0.576329
-6.145653 -0.433966
-6.238820 -0.264929
-6.104482 -0.160219
-6.144895 -0.201523
-6.199336 -0.258508
-6.094920 -0.032571
-6.350604 0.061678
-6.363759 -0.183354
-6.242650 -0.211707
-6.388085 -0.179144
-6.228377 -0.090503
-6.289155 0.093278
-6.332322 0.236343
-6.371972 0.273855
-6.304606 0.077842
-6.248981 0.402144
-6.459101 0.506971
-6.517950 0.418528
-6.368703 0.452304
-6.337154 0.401291
-6.393355 0.435312
-6.304678 0.262909
-6.480326 0.547931
-6.534368 0.738478
-6.406706 0.443338
-6.368139 0.767189
-6.372247 0.925470
-6.605556 1.022339
-6.330533 0.898291
-6.422324 0.925520
-6.435064 0.742562
-6.200563 0.888527
-6.427076 1.169200
-6.494367 1.031061
-6.484560 1.153467
-6.244979 1.282268
-6.468979 1.284462
-6.760615 1.178319
-6.316589 1.360912
-6.464682 1.068698
-6.424998 1.377025
-6.414135 1.319191
-6.118821 1.385147
-6.338617 1.580859
-6.203321 1.797240
-6.235043 1.613278
-6.265749 1.551878
-6.199082 1.564277
-6.098309 1.821910
-6.226758 1.650216
-6.362666 2.030884
-6.121951 1.974886
-6.430847 2.057578
-6.280591 2.404526
-6.116099 1.975411
-6.177802 1.967264
-6.108467 2.253115
-6.246254 2.271191
-6.363444 2.332762
-6.110476 2.443970
-6.391984 2.020444
-6.232304 2.442397
-6.167075 2.548734
-6.126947 2.324526
-6.085660 2.500309
-5.986972 2.581681
-6.032300 2.589556
-6.221462 2.316776
-6.078901 2.674871
-5.850556 2.947199
-5.768626 2.855007
-5.798118 2.714946
-6.145359 2.746412
-5.813005 3.014487
-5.876927 3.179606
-5.671834 3.109495
-5.580258 2.848152
-5.790826 3.166420
-5.582834 3.029249
-5.598972 3.023722
-5.876005 3.157493
-5.591937 3.269416
-5.747163 2.958816
-5.457007 3.175356
-5.705551 3.243311
-5.619118 3.352681
-5.683128 3.534119
-5.665051 3.285350
-5.395965 3.358100
-5.321723 3.411831
-5.283123 3.311436
-5.540694 3.315669
-5.710708 3.396638
-5.518089 3.401270
-5.144159 3.508466
-5.256583 3.227765
-5.298199 4.150655
-5.120376 3.615664
-5.102459 3.886760
-5.255877 3.966994
-5.270163 3.797890
-4.891543 4.079245
-4.907220 3.845802
-4.973925 3.696777
-5.021600 3.774541
-4.842413 4.174204
-4.763121 3.905695
-4.947376 3.824259
-4.883279 3.865115
-4.594005 4.115526
-5.113000 4.133343
-4.590433 3.931805
-4.604240 3.847201
-4.753939 3.908090
-4.584470 4.138789
-4.692891 3.991470
-4.680610 3.744857
-4.465003 4.147322
-4.156896 4.312040
-4.228748 4.305567
-4.239258 4.341231
-4.284516 4.104862
-4.267572 4.526817
-4.248377 4.180988
-3.955855 4.459790
-3.813604 4.293496
-4.286768 4.247964
-4.184131 4.284180
-4.250118 4.484639
-4.048140 4.626156
-4.216802 4.366753
-4.245637 4.441543
-3.778751 4.332207
-3.761141 4.280398
-3.753678 4.368838
-3.805382 4.327434
-3.514670 4.282912
-3.656611 4.541983
-3.756726 4.397680
-3.703740 4.521133
-3.683553 4.190294
-3.455395 4.620789
-3.681329 4.422623
-3.211630 4.651068
-3.258048 4.706575
-3.516932 4.315697
-3.291303 4.472717
-3.703957 4.274301
-3.253153 4.521627
-2.930902 4.752070
-2.990946 4.520842
-3.223472 4.458372
-2.907533 4.514297
-2.883541 4.536176
-2.703738 4.694174
-2.902805 4.442094
-2.557780 4.593546
-2.668622 4.520871
-2.560231 4.619297
-2.456142 4.574411
-2.322591 4.447992
-2.518673 4.429667
-2.294500 4.546883
-2.464639 4.730443
-2.632541 4.522923
-2.360843 4.341568
-2.254651 4.563425
-2.430011 4.623691
-2.657793 4.842849
-2.366982 4.675407
-2.074537 4.550487
-2.382506 4.961199
-2.189022 4.664688
-2.021682 4.544527
-1.949034 4.545413
-2.141302 4.428936
-2.171483 4.445503
-1.778405 4.699060
-1.553911 4.396933
-1.804574 4.477327
-1.867170 4.639331
-1.755862 4.160722
-1.450910 4.232014
-1.496480 4.482366
-1.578878 4.388441
-1.472424 4.453182
-1.320708 4.123912
-1.646172 4.582813
-1.634529 4.420054
-1.533310 4.220417
-1.535726 4.327523
-1.467343 4.207333
-1.111572 4.300053
-1.394558 4.417714
-1.445889 4.333990
-1.194569 4.339950
-1.563718 3.808681
-1.304844 3.988808
-1.032736 3.906990
-1.173842 3.880400
-1.276671 3.979715
-1.295609 4.372857
-1.055247 4.319531
-0.881737 4.036973
-1.090583 3.676925
-1.026968 3.806048
-0.579818 4.093180
-0.659418 3.782996
-0.880104 3.733938
-0.515118 3.797533
-0.504859 3.748778
-0.959291 3.946726
-0.506822 3.818767
-0.367590 4.100906
-0.536392 4.090985
-0.700667 3.770798
-0.376355 3.693097
-0.410354 3.828809
-0.307027 3.771607
-0.479757 3.705705
-0.370697 3.761226
-0.344015 3.691634
-0.260480 3.342965
-0.307267 3.548996
-0.285016 3.488894
-0.326980 3.330052
-0.289718 3.456686
-0.110057 3.583483
0.087614 3.481438
-0.201920 3.549173
-0.087595 3.176846
-0.007164 2.983224
-0.040802 3.297388
-0.299200 3.145809
0.132628 3.003072
0.173207 2.892475
0.108449 2.961281
0.224839 2.750889
-0.084154 3.031964
0.054781 3.244001
0.023493 2.837807
0.041671 3.083563
0.244885 2.906953
0.191772 2.925073
0.293982 2.995636
0.319128 2.741154
0.129462 2.866938
0.008854 2.531590
0.453601 2.656320
0.001005 2.689133
0.246202 2.253764
0.371256 2.694134
0.303433 2.403397
0.362741 2.363507
0.271968 2.221648
-0.055334 2.371772
0.462216 2.445128
0.478557 2.301342
0.531270 2.342409
0.408617 2.499007
0.433352 2.231469
0.362771 2.190195
0.617505 2.075779
0.192868 1.709869
0.392928 2.140125
0.570677 2.111859
0.445648 1.727588
0.499009 1.514692
0.329474 1.843062
0.491258 1.737970
0.476095 1.888628
0.480144 1.698911
0.613258 1.300235
0.129503 1.731095
0.421386 1.757262
0.642474 1.656737
0.053632 1.457310
0.137051 1.649597
0.177728 1.547856
0.430760 1.771859
0.354389 1.161773
0.436880 1.249621
0.575368 1.367545
0.256493 1.042180
0.374718 1.096899
0.522697 0.784391
0.410764 1.276640
0.375281 1.048974
0.318920 1.066915
0.637597 1.143796
0.362438 0.613272
0.116538 0.682690
0.545037 1.102553
0.249979 0.817918
0.599743 0.666368
0.356550 0.749150
0.497631 0.594663
0.093144 0.248398
0.237341 0.825271
0.349421 0.691956
0.247769 0.805785
0.444996 0.563884
0.261244 0.448096
0.130067 0.559130
0.251406 0.327939
-0.007596 0.537775
0.178045 0.243858
0.179201 0.424063
-0.008105 0.128115
0.076591 0.103938
0.107215 0.327519
-0.046302 -0.232566
0.443603 0.159833
0.113084 0.448140
0.357500 0.290299
0.002844 -0.129602
0.117086 -0.085152
-0.089496 -0.041087
-0.036456 0.019053
-0.119304 -0.032167
-0.055373 0.067365
0.026198 0.079206
-0.003890 0.104859
-0.202974 -0.140773
-0.174525 -0.364446
-0.238571 -0.430787
-0.125317 -0.234809
-0.266901 -0.457010
-0.359497 -0.095634
-0.040703 -0.255595
-0.161273 -0.566108
-0.351367 -0.579272
-0.391722 -0.292965
-0.203494 -0.229047
-0.519940 -0.742382
-0.555981 -0.499253
-0.501376 -0.929076
-0.155759 -0.607798
-0.603997 -0.639537
-0.957981 -0.454676
-0.652615 -0.256431
-0.617885 -1.076093
-0.701275 -0.662669
-0.668153 -0.674854
-0.550113 -1.013914
-1.041084 -0.971185
-0.647240 -0.828119
-0.833496 -0.552395
-0.755821 -0.635790
-1.166783 -0.865519
-0.787773 -0.807461
-1.086956 -0.660470
-0.888747 -0.987040
-0.898211 -0.751467
-1.028177 -1.185596
-1.078693 -1.001201
-1.312949 -0.843635
-1.092336 -1.175431
-1.051627 -0.952726
-1.078196 -0.902334
-1.170267 -1.138188
-1.572368 -0.970194
-1.329413 -1.488149
-1.313032 -1.244220
-1.652162 -1.050645
-1.628060 -0.978395
-1.608643 -1.181276
-1.689666 -0.975196
-1.536007 -0.931972
-1.572185 -1.248303
-1.873124 -1.389502
-1.678905 -1.166488
-1.708334 -1.462972
-2.015129 -1.166976
-1.897651 -1.374749
-2.140390 -1.414046
-1.758175 -1.145263
-2.318491 -0.982691
-2.174045 -1.467429
-2.244392 -1.306862
-2.346391 -1.553307
-1.996158 -1.439657
-2.072591 -1.536296
-1.799964 -1.016346
-2.137087 -1.338257
-2.432827 -1.437532
-2.498164 -1.311238
-2.366500 -1.325065
-2.641655 -1.137297
-2.493603 -1.327475
-2.555970 -1.218453
-2.391110 -1.373831
-2.605662 -0.997564
-2.679262 -1.329446
-2.650971 -1.316410
-2.741057 -1.386176
-2.550210 -1.695315
-3.032636 -1.423374
-2.858754 -1.181961
-2.881986 -1.408928
-2.935980 -1.190965
-3.160930 -1.203609
-2.939713 -1.284550
-3.139362 -1.226111
-3.133461 -1.320784
-3.133985 -1.137799
-3.353247 -1.228767
-3.051319 -1.333618
-3.043671 -1.120237
-3.303570 -1.317551
-3.244132 -1.257557
-3.104673 -1.435525
-3.178725 -1.256651
-3.167882 -1.139141
-3.436102 -1.422574
-3.695731 -1.378835
-2.992396 -1.368375
-3.455990 -1.427979
-3.480143 -1.283819
-3.791782 -1.191203
-3.854232 -1.174514
-3.405495 -1.005094
-3.684382 -0.878889
-3.737013 -1.463883
-3.712712 -1.045539
-4.189770 -1.069371
-4.005847 -0.871403
-4.315295 -1.332530
-3.637548 -1.140713
-4.079698 -1.067800
-4.016345 -1.022470
-4.145557 -1.160427
-4.133009 -0.981387
-4.412464 -0.439113
-3.984212 -0.632579
-4.281843 -0.937939
-4.589740 -0.848222
-4.577661 -0.927987
-4.242779 -0.671937
-4.052151 -0.669185
-3.923444 -0.540503
-4.631756 -0.577385
-4.749618 -0.498574
-4.503237 -0.847090
-4.503227 -0.748335
-4.668126 -0.563729
-4.621857 -0.451754
-4.433687 -0.901714
-4.124655 -0.184426
-4.865191 -0.700461
-4.743870 -0.550012
-4.644746 -0.707194
-4.850924 -0.629159
-5.272112 -0.795426
-4.799198 0.068722
-5.117285 -0.004672
-4.886113 -0.362580
-5.227438 -0.211921
-4.703418 -0.122124
-4.463710 -0.152630
-5.027678 -0.195532
-5.343824 -0.406691
-5.854721 0.080356
-4.740417 -0.272364
-5.026871 -0.010009
-5.331667 0.091172
-4.995908 -0.025231
-5.260901 0.328531
-5.320031 0.363559
-5.265640 0.184508
-5.477176 0.436522
-5.006830 0.263110
-5.101259 -0.101525
-5.066867 0.318185
-5.558114 0.393468
-5.229323 0.364600
-5.231811 0.284138
-5.313865 0.451670
-5.747415 0.630238
-5.559744 0.481115
-5.345791 0.541114
-5.287834 0.483412
-5.449618 0.809635
-5.541528 0.389536
-5.201418 1.044878
-5.382099 0.566490
-5.408772 0.683637
-5.897327 0.953920
-5.546322 1.019485
-5.671064 0.985829
-5.581798 0.893102
-5.351264 1.001111
-5.540470 1.155856
-5.428165 1.174338
-5.622567 1.084408
-5.624400 1.245286
-5.319204 1.448657
-5.946613 1.533594
-5.741154 1.511103
-5.657840 1.242156
-5.908776 1.708573
-5.251557 1.365925
-5.786138 1.951753
-5.567816 1.806398
-5.904674 1.787220
-5.939148 1.735774
-5.509345 1.705901
-5.469705 1.948986
-5.712601 1.575077
-5.905500 1.712520
-5.837577 1.661662
-5.253406 2.154530
-5.798430 2.243712
-5.763585 1.935330
-5.682719 1.760875
-5.582793 1.533445
-5.672064 2.176207
-5.234327 2.372666
-5.647386 1.996619
-5.876001 2.086620
-5.666570 2.180790
-6.051419 2.673962
-6.186612 2.419870
-5.883146 2.540971
-5.850163 2.615449
-5.564199 2.892667
-5.757459 2.801852
-5.798900 2.498773
-5.537546 2.633632
-5.532980 2.391872
-5.988657 2.414609
-5.514556 3.038362
-5.583358 2.886262
-5.918767 2.955076
-5.586799 2.865049
-5.838903 2.797813
-5.347161 2.856050
-5.494399 2.676945
-5.384085 3.473996
-5.407437 3.536375
-5.401062 2.833623
-5.300504 3.338429
-5.563571 3.592782
-5.862611 3.144953
-5.368117 3.320733
-5.678917 3.289811
-5.102070 3.768757
-5.447436 3.740322
-5.108705 3.819399
-5.516919 3.925599
-5.492821 3.651431
-5.629431 3.477430
-5.512922 3.733807
-4.951003 3.738872
-4.779962 3.912267
-5.162438 3.846443
-4.998749 3.524964
-5.069059 3.994234
-5.103985 3.896203
-5.205104 4.378803
-5.007466 4.245376
-4.945318 3.984654
-5.320565 4.625274
-5.073095 4.325923
-5.136721 4.026609
-5.169530 4.462208
-5.170005 4.044627
-4.856311 4.336055
-4.850058 4.340571
-5.016236 4.507374
-4.129599 4.589866
-4.689552 4.236051
-4.466715 4.566065
-4.756833 4.863171
-4.698090 4.427213
-4.596240 4.347099
-4.699433 4.547749
-4.736888 4.887635
-4.782781 5.130905
-4.671288 4.897299
-4.611825 4.604185
-4.704692 4.835620
-4.089250 4.781164
-4.356884 4.745903
-4.441712 4.744528
-4.422065 4.887722
-4.272396 5.015742
-4.281429 5.100099
-4.158034 5.156686
-4.505954 5.157969
-4.292895 4.996857
-4.447784 5.297459
-3.884979 5.169264
-4.172324 5.202712
-4.074327 5.337295
-4.348410 5.108740
-3.884972 5.455899
-3.744345 4.935808
-3.952455 5.072651
-3.807500 5.551651
-4.049287 5.225323
-3.563281 5.240365
-3.585424 5.214490
-3.757466 5.242691
-3.815335 5.213542
-3.718711 5.305444
-3.454013 5.086971
-3.512588 5.035328
-3.432664 5.059870
-3.309342 5.128728
-3.493541 5.458257
-3.569633 5.257905
-3.707877 5.393653
-3.726906 5.105594
-2.886980 5.600397
-3.183153 5.559763
-3.318069 5.002882
-2.577118 5.313384
-2.759693 5.521812
-3.033530 5.403882
-2.597270 5.356785
-3.214135 5.464216
-3.057118 5.578153
-3.094487 5.985719
-2.435725 5.295175
-2.824822 5.746778
-2.700643 5.433141
-2.960048 5.187856
-2.777740 5.735114
-2.464510 5.821964
-2.697095 5.976166
-2.519880 5.801625
-2.651197 5.402397
-2.117269 5.943038
-2.273701 5.843901
-2.574214 5.473483
-2.078334 5.673839
-2.407277 6.119457
-2.292324 5.492725
-2.460537 5.610073
-2.019174 5.963417
-2.548598 5.641684
-2.141648 5.688257
-2.052020 5.614513
-1.991437 5.371875
-2.027354 5.600851
-1.518630 5.582639
-1.639451 5.703800
-1.359377 5.711153
-1.654994 5.668596
-1.403822 5.049970
-1.299117 5.246831
-1.533841 5.281372
-1.190594 5.630787
-1.838861 5.448378
-1.561349 5.762758
-1.780347 5.470767
-1.707010 5.292712
-1.061343 5.648632
-1.412806 5.948433
-0.814216 5.564520
-1.044676 5.342033
-0.797450 5.552456
-1.398771 5.802732
-0.880129 5.105570
-0.791543 5.507484
-0.714547 5.948664
-0.724035 5.290956
-0.964846 5.610170
-0.799785 5.747934
-1.006161 5.309494
-1.069680 5.558226
-0.494373 5.714220
-0.968775 5.257619
-0.803663 5.594713
0.082413 5.642678
-0.162970 4.967279
-0.915257 5.573379
-0.806009 5.488475
-0.360470 4.926348
-0.460383 5.164721
-0.673580 5.409253
-0.532825 4.784060
0.290115 5.462050
-0.204564 5.321904
-0.047746 5.048751
0.079239 4.839495
0.018135 4.876133
-0.326265 4.822526
0.192727 5.016015
0.142132 5.184690
0.094630 5.480067
-0.116869 5.272980
0.011393 5.481469
0.201391 4.471788
0.322090 4.392655
0.460510 4.653887
0.255046 5.166553
0.479986 5.338083
0.134976 4.802215
0.433803 4.970800
0.646863 4.694306
0.207357 5.032630
-0.087022 4.606457
0.316533 4.612968
1.020577 4.373758
0.570384 4.158378
0.730019 4.659482
0.828758 4.664505
0.376189 4.307272
0.855385 4.399539
0.426969 4.281345
0.663846 4.359656
0.768934 4.384858
0.818806 4.163297
1.131680 4.022691
0.397231 4.351808
0.848852 4.152095
1.018411 3.996728
0.909750 3.891923
1.109887 3.784988
0.865880 4.327145
0.940400 4.279493
0.899642 4.066657
0.713430 3.847633
1.243525 3.805212
1.049743 3.880923
0.771278 3.923347
0.894875 3.456945
0.786451 3.725987
1.146001 3.254843
1.168004 3.566040
0.804210 3.600405
1.318990 3.863187
1.130941 3.555727
1.433403 3.336545
1.357867 3.258470
0.945031 3.657825
1.351313 3.430377
1.147853 3.369229
1.236136 3.320691
1.159854 2.769271
0.867697 3.084095
1.468950 2.838898
1.073605 3.143122
1.308455 3.206155
1.427218 2.564995
0.940672 3.283417
0.907149 3.071019
1.233071 3.201556
1.054071 3.078459
1.287208 2.590502
1.774828 3.043648
1.095568 2.824843
1.286013 3.298425
1.327718 3.048711
0.864471 2.589087
1.455028 2.781244
1.263235 2.419317
1.039019 2.480933
1.062451 2.555026
0.708460 2.020445
0.948329 2.310428
1.081402 2.682129
0.478032 2.675954
1.771931 2.224211
0.869870 2.188912
1.089111 2.681486
1.208593 2.158930
1.594812 2.138952
1.718351 1.557881
1.144828 1.400296
1.495990 2.056390
1.234101 1.758902
1.297267 2.184062
1.237049 1.915525
1.392772 1.702264
0.942080 1.571921
1.120310 1.625431
1.423536 1.355976
1.321801 1.545099
1.073241 1.511285
1.024341 1.578481
0.729435 1.840010
0.887901 1.301911
1.219322 1.071190
1.075745 1.851521
1.547446 1.007959
0.972863 1.198036
0.925500 1.156079
1.228696 1.333256
1.197542 1.183786
0.730734 1.241008
0.940184 0.778822
0.682577 1.221675
0.936834 0.907829
0.626946 0.677410
0.415071 0.953060
0.650107 1.103072
0.644790 1.152801
0.771158 1.098378
0.724029 1.014816
0.501470 0.697798
0.653426 0.782154
0.628814 1.064681
0.321990 0.701361
0.805782 0.272574
0.669306 1.277543
0.561036 0.523502
0.743690 0.543440
0.482592 0.608539
0.928153 0.200537
1.028549 0.997560
0.782303 0.973058
0.540931 0.275777
-0.043766 0.423875
0.549165 0.611127
0.402647 0.531102
0.151174 0.211938
0.813175 0.468266
0.195513 0.030549
0.636655 0.132811
0.716414 -0.216730
0.298693 0.144170
0.378325 -0.298635
0.296832 -0.199895
0.015222 -0.083641
-0.027544 0.218749
-0.004928 0.197256
-0.016511 -0.655892
-0.117864 -0.382339
-0.552843 -0.586509
-0.529897 0.066359
-0.422452 -0.336933
-0.476840 -0.538155
-0.161951 -0.243322
-0.415974 -0.080568
-0.818104 -0.377189
-0.367444 -0.302937
-0.513704 -0.613193
-0.664501 0.023821
-0.188840 -0.405359
-0.676149 -0.052521
-0.673411 -0.063540
-0.923259 -0.069746
-0.435085 0.233080
-0.684684 -0.123259
-0.883093 -0.226468
-0.828331 -0.661278
-0.450192 -0.507946
-0.567718 -0.590929
-1.341413 -0.549563
-1.245814 -0.572031
-0.855479 -0.173807
-0.728363 -0.493404
-1.308523 -0.474938
-1.090066 -0.648998
-1.456950 -0.745565
-1.171903 -0.710376
-1.449338 -0.758781
-1.081732 -0.756954
-1.370693 -0.657696
-1.436231 -0.457958
-1.566894 -0.276578
-1.258558 -0.631531
-1.722389 -0.379544
-1.510611 -0.783766
-1.693088 -0.690925
-0.859434 -0.697700
-1.900684 -0.569036
-1.949849 -0.441439
-1.768111 -0.841134
-1.920259 -0.562675
-1.400261 -0.135231
-1.770059 -0.779360
-2.053373 -0.150622
-1.970264 -0.270419
-2.030268 -0.540771
-1.949701 -0.743749
-1.843177 -0.863184
-1.980035 -0.473502
-1.971480 -0.716703
-1.994429 -0.949605
-2.164568 -0.486253
-2.139722 -0.559091
-2.420086 -0.550546
-2.680500 -0.708990
-2.343849 -0.364298
-2.829727 -0.375853
-2.529440 -0.469350
-2.518744 -0.811768
-2.553009 -0.523155
-2.543115 0.132388
-2.738667 -0.262572
-3.105701 -0.702357
-2.690940 -0.724968
-2.949078 -0.515254
-2.833005 -0.387606
-2.888187 -0.617531
-2.631141 -0.597783
-2.849360 -0.322378
-2.680418 -0.291650
-3.211381 -0.649893
-3.172593 -0.430103
-3.142524 -0.119367
-3.686496 -0.433380
-3.434389 0.372344
-3.506832 -0.064653
-3.468064 -0.489793
-3.473890 0.022437
-3.878321 -0.331948
-3.311824 -0.275578
-2.920496 -0.377629
-3.733736 0.054688
-3.373826 -0.384328
-3.871145 -0.059784
-3.863421 0.288677
-3.883935 0.057809
-3.819375 -0.249435
-3.441046 0.092846
-3.834575 0.244133
-4.078926 -0.338649
-3.866106 0.098261
-4.076170 -0.115274
-3.861626 0.292029
-3.861005 0.226700
-4.107866 -0.028140
-4.473009 0.483614
-3.818240 0.230125
-3.912775 0.303366
-4.877266 0.153190
-4.807929 0.216248
-4.378681 0.691955
-4.520630 0.506701
-4.169633 0.576718
-4.367182 0.880390
-4.361084 0.596376
-4.609246 0.281936
-4.492578 0.728594
-4.237644 0.274598
-4.467305 0.563551
-4.751940 0.637883
-4.892930 0.354373
-4.623401 0.830487
-4.486096 1.029520
-4.760516 0.537865
-4.636946 0.676205
-4.695636 0.600936
-5.127761 1.270149
-5.062183 1.126256
-4.706491 1.585948
-4.910409 1.438913
-4.869797 1.399436
-5.180940 1.313982
-5.322327 1.066607
-4.977571 1.099379
-5.406636 1.328711
-5.006601 1.346767
-5.112146 1.693665
-5.252595 1.067368
-5.538378 1.130295
-5.072123 1.137216
-4.682471 1.886804
-4.872259 1.888710
-4.806947 1.673172
-5.250372 1.176903
-5.481495 1.793029
-5.063145 2.489298
-5.543278 1.793283
-4.828874 1.989035
-5.528521 2.313878
-5.240397 2.099572
-5.406861 1.861072
-5.655701 2.374437
-5.304261 2.578193
-4.900105 2.329803
-5.031800 2.648065
-5.485160 1.990619
-5.602941 2.228410
-5.133044 2.187229
-5.358515 2.204719
-5.620373 2.513359
-5.171835 2.796929
-5.326729 2.438218
-5.510667 2.194692
-5.658042 2.805037
-5.870265 2.460442
-5.747099 2.786863
-5.357758 3.195841
-5.307567 2.392701
-5.142007 2.755358
-5.608318 2.564053
-5.467912 2.971032
-4.926810 2.954143
-5.847348 3.050270
-5.633066 2.370454
-5.175311 3.194014
-4.993587 3.616343
-4.772673 3.591550
-5.329926 3.416312
-4.981296 3.239601
-5.654466 3.363794
-5.229901 3.896243
-5.648549 3.556852
-5.365399 3.883146
-5.109373 3.621842
-5.525517 3.634297
-5.330140 4.116671
-5.763704 3.343143
-5.891945 3.887882
-4.860482 3.937884
-5.153853 3.898731
-6.150004 4.322902
-5.386503 4.475389
-5.699163 4.759420
-5.808255 4.316051
-5.334414 4.090722
-5.172993 4.370236
-5.188600 3.981169
-4.992369 4.390292
-5.955169 4.572862
-5.513875 4.788496
-5.387040 5.028722
-5.251036 4.653830
-5.849708 4.791501
-5.285811 4.823429
-5.014157 4.624446
-5.013127 5.271011
-5.051920 4.807492
-4.711426 5.526238
-4.610514 5.144678
-5.316141 4.669951
-5.625234 4.947487
-4.438680 5.154172
-5.274032 4.837374
-5.137549 5.351491
-5.045456 5.050247
-5.193558 5.112070
-4.986491 5.530980
-4.837885 5.589608
-4.603712 5.363146
-5.212644 5.173250
-4.485587 5.546300
-4.601641 5.652735
-5.083014 6.220864
-4.605709 5.584150
-4.684497 5.595288
-4.477771 5.965283
-4.794541 5.621833
-4.723338 5.493038
-4.804942 5.797612
-4.958853 5.873038
-4.424691 5.624806
-4.781787 5.713034
-4.020295 5.857856
-4.340046 5.993562
-3.935360 6.473827
-4.519772 6.283776
-3.981212 6.364659
-4.397472 5.941094
-4.272815 6.582165
-3.902043 6.472773
-3.482273 6.466348
-4.204721 6.029226
-4.125668 6.293539
-4.269761 6.475099
-4.675310 6.842889
-4.231326 6.056794
-4.507105 6.612522
-3.881813 6.637399
-4.400823 6.743801
-3.620873 6.308390
-4.119046 6.590053
-3.953313 7.239491
-3.485611 7.247785
-3.693714 6.165896
-3.362447 6.455342
-4.179190 6.803910
-3.586443 7.205068
-3.901885 7.039409
-3.261147 7.217352
-3.595087 6.501618
-3.524267 7.044192
-2.969863 6.997626
-2.996108 6.844796
-3.168277 7.706736
-3.065392 6.835401
-3.035306 7.574876
-2.650952 7.034101
-3.402333 7.073077
-3.248882 7.428443
-3.157838 7.172032
-3.084530 7.813808
-2.934162 7.269338
-3.134221 7.317000
-2.555437 7.516334
-2.285159 7.449885
-2.661481 7.168492
-2.045546 7.712283
-2.508546 7.362619
-2.259191 7.425928
-2.467772 7.320934
-2.437344 7.411078
-2.131308 7.518016
-2.042425 7.650560
-2.041154 7.449774
-2.167961 7.389280
-2.816976 7.652525
-2.010516 7.312775
-2.242019 7.588861
-1.777631 6.955704
-2.373492 7.725579
-2.219815 7.751803
-2.145994 7.716627
-1.758544 7.285963
-1.540704 7.322677
-1.088581 7.554825
-1.651936 7.909158
-1.663734 7.672588
-0.850763 7.976148
-1.740867 7.654818
-0.536379 7.115870
-1.368356 7.382976
-1.258614 7.660281
-1.202542 7.244165
-1.220155 7.736730
-1.288620 7.920661
-0.653040 6.789658
-0.515260 7.529538
-0.731448 7.740462
-1.485558 7.698427
-1.008352 7.185633
-0.621798 7.426125
-0.782968 7.383542
-0.679077 7.042974
-0.397944 7.919580
-1.076357 7.304462
-0.670861 7.485904
0.002093 7.752492
-0.136615 7.430894
0.067877 6.977863
-0.078090 7.262924
-0.226088 6.437368
-0.388428 7.094619
-0.206006 7.583311
0.121842 7.392229
-0.552050 7.531398
-0.217146 7.632343
0.605797 7.335610
0.190751 7.678735
0.020778 7.071255
0.134569 7.256549
0.226019 7.058643
0.422049 7.751185
0.414819 7.798658
0.624799 7.041387
0.602976 7.633910
0.955473 7.590322
0.174029 7.826026
1.145383 7.481741
0.547776 7.442037
0.358414 7.084378
1.314086 7.335468
0.093106 7.264938
1.010899 6.799604
1.110103 7.562386
1.038542 6.869551
0.720096 7.526483
1.427769 6.505814
1.323822 7.349851
0.728369 6.395105
1.083050 7.609031
0.622527 6.776598
1.607854 7.290896
1.764116 6.560769
1.419941 7.096445
1.644543 6.886538
1.053836 7.174496
1.414900 6.871595
1.499533 6.593368
1.450712 6.631768
1.644602 6.853260
1.688787 6.730813
1.116093 6.933102
1.848652 6.638960
1.342857 5.971048
1.522506 6.216025
1.666214 6.190194
1.187191 5.750881
1.601709 6.871951
2.158982 6.291600
2.542599 6.118731
2.225826 6.514700
1.709301 5.680489
2.282983 5.854720
2.648761 5.962603
2.215058 6.175529
2.067219 6.131910
2.747155 6.080017
2.137141 5.664281
2.561112 4.986199
2.335462 6.153507
2.195640 5.987806
2.166846 5.811982
2.502949 5.544864
2.280989 5.735931
1.913406 5.811417
2.437460 5.551970
2.684933 5.859343
3.179435 5.694986
2.412369 5.390625
2.807161 6.198355
2.415712 4.956238
2.625738 5.270995
2.822079 5.332407
2.481188 5.118083
2.286180 5.550100
2.726469 4.565621
2.863793 4.909487
1.926631 5.512392
2.166924 4.925782
2.506820 5.347502
2.954826 5.141450
2.781234 4.637442
3.042694 4.831535
2.625768 5.193369
2.885200 4.455471
2.780288 3.823624
2.941630 4.692998
2.801115 4.107519
2.891477 3.946299
3.223312 3.817384
2.739491 3.851657
3.072053 4.605035
3.009723 4.114350
2.765593 3.921909
3.026960 3.952115
3.511364 4.001301
3.083429 3.820526
2.732032 3.342852
2.585413 3.868372
2.506196 3.810112
2.458672 3.712237
3.286092 3.864912
2.523067 3.859229
3.192865 4.038490
2.934711 3.797908
2.987612 3.474645
3.295753 3.299986
2.805083 3.654817
3.141652 3.347451
3.332516 3.112931
2.792732 3.510898
2.303023 3.141112
2.765536 3.007554
3.008163 2.892290
2.756237 2.707001
2.763292 2.823821
3.627352 2.647886
3.215761 2.693275
2.244338 2.988971
3.191767 2.579527
2.745232 3.163878
2.525306 2.886243
3.092560 2.318326
2.571721 2.736553
2.249609 2.856096
3.138397 1.882886
3.108587 2.065298
2.982501 2.150963
2.907080 2.735640
2.773159 1.685261
3.084638 2.537502
3.109306 2.785844
2.900321 1.924006
2.932683 1.878152
2.507892 1.935764
2.166634 2.117850
2.712396 2.272988
2.289232 1.376420
3.398470 2.407833
2.358663 1.022544
2.676660 1.700581
2.044211 2.611860
2.256354 2.035112
2.746597 1.550900
2.297643 1.656613
2.301836 1.859918
2.484170 1.403729
2.366511 1.765589
2.227671 2.099743
2.261336 0.982764
1.807840 1.631394
2.328105 0.920548
2.327038 1.760044
2.229748 0.981066
2.061540 1.072063
1.946721 0.977915
2.086267 0.955331
1.228016 1.395184
2.204698 0.421898
1.512996 0.934258
2.118626 1.014610
2.069430 1.315170
1.335597 0.524308
1.979764 1.356176
1.685575 1.141706
1.592397 1.160865
1.330467 0.440302
1.671066 0.661474
1.094341 -0.180143
1.472204 0.615395
1.846116 0.264068
1.089311 1.007085
0.929046 0.932435
1.779118 0.524676
0.641846 0.709700
0.921876 0.691242
0.862694 0.693929
0.721034 -0.148333
1.485242 0.343032
0.800758 0.409130
1.849070 0.407595
-0.402500 -0.090537
0.459919 -0.199194
1.033576 0.136199
0.852002 -0.040800
0.311159 0.327621
0.632107 -0.128329
1.115988 -0.180959
0.604059 0.547842
0.809024 0.582503
0.613711 -0.275812
0.401404 0.320549
0.548485 0.221825
0.117323 -0.115453
0.439695 -0.396468
-0.069859 -0.562841
-0.280497 0.215415
-0.408242 -0.272946
-0.454029 -0.577835
0.300600 0.206797
-0.136351 0.287975
-0.356352 0.085249
0.064016 1.019905
0.218746 -0.207051
0.303572 0.907777
-0.219247 -0.531973
-0.265059 -0.414936
-0.438284 -0.420912
-0.486397 -0.180404
-0.654824 -0.661721
-0.723783 0.297873
-0.652877 -0.190143
0.155219 0.281903
-0.909946 0.429670
-1.006769 -0.001711
-0.852362 -0.325856
-0.440916 0.312570
-1.075201 -0.089468
-0.969839 -0.507771
-0.658439 -0.427853
-0.432579 -0.420988
-0.793358 -0.112178
-0.409783 -0.592133
-0.878720 -0.265628
-1.601994 -0.052868
-1.050710 -0.158023
-0.976649 0.180617
-2.589959 -0.433240
-2.197870 -0.385282
-1.649805 -0.049138
-1.458098 0.394092
-1.769176 -0.522811
-1.570872 -0.241907
-1.928254 0.385895
-2.330271 0.020973
-2.834621 -0.422780
-1.739287 0.675237
-2.711124 0.126795
-2.091411 0.123104
-2.501782 0.149074
-1.848626 -0.099859
-2.191540 -0.055043
-2.503680 0.060108
-2.413517 0.565864
-2.382703 0.287759
-2.565057 0.704604
-2.396193 -0.116869
-2.459649 0.624131
-2.065133 0.722586
-3.049445 0.094451
-3.525118 -0.465842
-3.102050 0.041321
-3.452976 0.532756
-2.965146 0.258682
-2.761590 0.444189
-3.254466 0.175158
-3.224524 0.826077
-3.240841 0.390521
-2.830958 0.727193
-3.777740 1.396129
-3.443480 0.806646
-3.190399 -0.138849
-2.754740 1.273382
-3.105046 0.974771
-3.437283 1.258621
-3.829273 0.782232
-3.447041 1.099676
-4.572745 0.388148
-4.054419 1.329527
-4.392454 0.608534
-3.824284 0.921467
-3.782971 1.417403
-3.863654 0.585111
-4.447195 1.307827
-3.953316 0.541510
-4.440881 1.622428
-4.647757 1.296817
-2.896811 1.076723
-4.082600 1.355224
-4.327884 1.389697
-4.387948 1.861159
-4.445741 1.567135
-4.194823 1.618918
-5.128838 1.281769
-4.386258 1.974393
-4.028026 1.572516
-5.719886 1.908055
-4.278101 1.836575
-5.348433 2.066258
-5.556471 2.432559
-5.056071 1.691324
-4.551527 2.104225
-4.811269 1.654440
-4.594907 2.511796
-5.109823 1.908078
-5.362888 2.313357
-5.409651 2.103096
-6.040789 2.296743
-5.114775 2.584282
-4.851463 2.286661
-5.352549 2.623565
-5.347186 3.370513
-5.185348 3.117915
-4.689634 3.102109
-5.929116 2.403701
-5.447017 2.866729
-5.587882 4.081978
-5.180175 3.288769
-4.727445 3.434781
-5.334888 3.380880
-5.555350 3.948482
-5.780503 2.946843
-5.100371 4.028307
-5.284656 3.440275
-6.180757 4.389944
-6.853756 2.984140
-4.621907 3.736945
-4.912651 4.289464
-5.137071 3.642460
-5.328511 4.058243
-5.569796 3.421683
-5.883132 3.435514
-5.548728 3.856438
-6.057886 4.193568
-5.599601 4.372370
-5.423378 4.858387
-5.852333 3.979799
-5.936631 4.522596
-6.219354 5.373338
-6.596777 4.439205
-5.326968 4.813264
-5.916717 4.491774
-5.182742 4.763919
-6.133903 4.924541
-5.544014 4.590273
-6.366208 5.825744
-5.900747 5.473997
-6.114836 5.265907
-5.542187 5.768908
-6.052202 4.926998
-6.322966 4.802226
-5.611188 5.152683
-5.735010 5.649648
-5.433276 5.490851
-5.416204 6.300609
-5.970700 5.496324
-5.892247 5.666217
-5.398994 5.082846
-5.709795 5.973126
-6.470443 6.001304
-6.166308 5.617015
-6.232813 5.391800
-4.191058 6.933713
-5.631570 6.047402
-6.148811 6.385783
-4.664834 6.355302
-5.362326 5.873620
-5.243597 6.745143
-5.260546 7.219697
-4.392057 6.909727
-6.043315 7.542523
-5.572789 7.219158
-5.525712 6.869624
-5.837719 7.546400
-5.693928 7.250983
-5.018993 6.584936
-5.614645 7.420464
-4.946904 6.783574
-5.296650 6.301046
-5.507425 7.537099
-5.365002 7.021611
-4.663811 7.585728
-5.436345 7.104898
-5.484056 7.659522
-6.163450 7.171497
-5.200294 7.904003
-5.612232 8.508548
-4.198334 8.362193
-4.761529 8.293084
-5.372936 8.537833
-4.827738 8.216485
-4.823606 8.569927
-4.846145 7.708837
-4.495720 8.548702
-5.279461 9.140041
-5.125196 8.713411
-3.968893 7.803264
-4.241658 9.828606
-4.879298 9.064186
-4.463804 8.842147
-4.427769 8.252789
-4.945382 8.432679
-5.952262 9.163564
-3.757736 8.982381
-4.725860 9.229758
-4.452964 9.880499
-4.700177 9.849288
-5.096547 9.366081
-3.945917 9.375836
-4.616874 8.710458
-4.925496 9.052777
-4.582128 9.390658
-4.799767 9.110229
-3.379928 8.649354
-3.376323 10.318333
-3.156192 9.865408
-3.363547 10.112079
-2.776350 9.807070
-3.843653 9.159324
-3.930332 9.666282
-3.435649 9.471161
-4.239077 10.104271
-3.502767 10.852544
-2.835650 10.305459
-3.463484 9.940675
-3.116694 10.824350
-2.977448 10.917810
-2.139348 11.039281
-4.497573 9.902262
-2.421571 11.807314
-2.822988 10.165313
-3.372900 9.547328
-2.445087 10.545676
-2.931985 10.772913
-2.463506 10.562035
-3.135330 11.487177
-2.630271 11.145495
-2.635599 10.174291
-2.153959 10.901855
-1.849218 11.526345
-3.097905 10.923103
-1.652958 11.267074
-2.126274 9.994168
-1.605740 10.363462
-2.030214 10.969332
-1.672012 11.978012
-1.794124 11.158753
-2.128151 10.194292
-2.496728 10.785779
-0.941177 10.396041
-1.981378 10.183493
-1.580747 11.602695
-1.196774 10.885640
-0.935019 9.760106
-2.000141 11.650130
-0.834105 11.841647
-1.141937 12.114531
-1.142752 11.774343
-0.507367 10.864543
-0.979444 12.062238
-0.355109 11.429369
-0.246111 11.861196
-0.779060 11.393513
-0.279280 10.747364
-0.710269 10.982675
-0.794456 12.183111
-0.873791 11.672219
1.224859 11.101680
-0.825817 10.470117
-0.346223 12.874413
0.116311 12.101929
0.733379 11.580671
1.491470 11.443620
0.152447 12.267125
0.542804 11.803115
0.023140 11.990755
0.438377 11.608051
0.604298 11.783223
0.543659 11.269935
0.675134 11.193479
1.446342 11.507951
0.981746 12.017579
1.631963 10.344151
1.141199 11.180966
0.901390 11.189207
1.394833 11.660509
0.620136 12.011564
0.828830 12.353366
1.583153 11.958176
2.419912 12.048020
1.902596 11.404377
2.113424 11.073914
1.573492 11.604219
1.487667 11.470595
1.598083 11.058211
1.884824 11.484312
1.933780 11.770278
2.627663 12.083848
2.238899 11.010433
2.924002 11.402341
2.259584 10.741810
2.598895 11.815364
1.810270 12.026153
2.307841 12.288334
1.424088 12.171499
2.413254 12.743387
2.795691 12.225712
2.506232 11.235602
2.655996 11.389172
4.081646 12.100271
4.019587 11.902679
2.996114 11.214459
3.244410 11.785849
2.709920 11.570680
3.160199 11.953609
3.240796 11.681490
3.244171 10.530786
3.461368 9.495647
3.185758 10.600117
4.065612 11.605086
3.814150 10.709626
3.853862 9.560403
3.621689 11.031373
4.239039 10.960706
4.781248 10.282040
4.277004 10.650034
5.038716 9.893197
4.157136 10.684300
3.817491 10.812554
4.978746 10.491147
4.493232 11.180705
4.869463 10.546130
4.675494 9.684120
4.638379 10.227391
5.449310 10.255665
4.202742 10.514601
5.483129 10.495334
6.615349 10.672333
4.371396 10.224637
5.635304 9.016021
5.681744 10.260713
5.442565 9.428639
4.922841 9.031475
4.695855 9.200716
5.674855 8.847456
7.208558 9.046259
5.791131 9.239342
6.806542 9.027891
5.675411 8.887856
5.068029 9.540740
5.707733 10.172176
5.802962 9.742583
5.585913 9.434178
5.384787 8.923377
5.101118 9.055307
6.833709 9.888005
5.896822 9.394156
5.789962 9.153439
6.817319 8.994778
7.012610 9.122688
6.019744 9.344047
6.850555 8.941760
6.359295 8.074241
6.446253 9.266921
6.463033 8.501195
5.430446 8.309395
8.019907 8.529616
6.855469 8.643193
6.185814 8.065083
6.250792 7.564975
7.093799 7.582706
6.780371 8.776606
6.497141 8.285337
7.057443 6.925733
6.509646 7.718742
7.958013 8.180589
7.490260 8.017794
6.171180 6.922986
7.299809 7.285233
6.268428 6.669040
7.089588 6.017297
6.362623 6.355787
5.579065 6.469385
7.028840 7.495645
7.191170 7.011353
6.510250 6.165037
6.825494 6.976337
7.547333 6.920253
8.539623 6.763007
7.069474 5.233321
7.504437 6.160598
7.215809 6.619460
7.446072 6.264708
8.087302 6.465375
5.608959 6.631919
7.694429 5.820152
7.232960 5.814664
7.915286 5.021963
7.923645 5.995369
6.978236 5.714824
8.192392 6.416817
7.302229 5.631227
6.856603 6.041073
6.746232 5.128657
6.629504 4.789449
7.096818 5.007357
6.170208 5.650811
7.890390 4.212660
6.346975 5.079894
7.196282 4.400035
7.439181 4.977700
7.492143 4.755086
6.185855 4.910403
6.738371 3.579631
7.654457 4.747441
7.817922 4.140630
6.633143 5.104137
6.783405 5.241154
7.063824 5.174397
6.478326 4.668875
7.191548 4.894224
6.564145 4.122423
5.651859 3.563262
6.193399 3.077392
7.272086 3.663959
6.991984 4.502856
7.396402 3.579183
8.196067 3.594010
6.463382 3.390997
7.003537 2.718844
6.601530 3.379280
8.337285 2.568284
6.544529 2.847542
5.898459 2.955231
6.813803 3.082700
5.510152 3.963577
7.132347 3.464068
6.290805 3.632783
5.473152 2.696947
5.881881 4.284985
7.674907 2.765697
5.689585 1.975550
5.964517 3.557257
6.443493 2.121732
7.013285 2.574098
5.914791 2.809531
5.527457 2.932244
5.620030 1.937867
6.508475 2.332115
5.723978 2.000825
5.026211 2.775886
5.105948 2.061694
5.696829 1.546861
6.065082 1.654137
5.435090 1.482476
4.410521 2.169428
5.729662 1.839279
5.289364 2.262050
4.611899 2.055329
4.640108 1.951421
3.853052 0.823463
5.776700 1.958678
6.034612 1.195410
4.344618 2.437125
4.418222 1.769040
5.726931 0.983154
3.929057 0.256743
3.451617 1.254603
4.294146 0.216912
4.498663 2.198100
4.120346 0.639927
4.080324 0.659034
3.200376 0.222210
3.748607 0.348055
3.551469 1.362293
4.248445 0.789828
5.094140 1.077537
2.269368 0.626624
4.797066 1.260380
3.499761 0.455333
4.318133 0.691178
4.339524 0.254330
2.701774 0.201107
4.229399 0.879380
3.517222 -0.156703
3.065458 1.517932
3.220947 0.931183
2.764246 -0.393462
2.270575 -0.151163
2.230314 0.397849
2.046518 1.808550
2.763458 -1.833787
1.451861 -0.308356
2.823534 1.065119
2.122434 -0.404748
1.595975 0.460393
1.340461 -0.780127
1.408375 0.735501
1.896113 1.559039
1.917988 1.079320
1.287983 0.030977
0.596630 0.435646
1.651282 0.491699
3.317508 -0.938042
1.510143 0.331859
1.871133 -0.611279
1.430573 -0.644819
0.892814 1.985238
1.134270 1.539168
1.123420 0.406068
1.422612 -1.377428
0.205859 -1.058412
1.038472 0.144354
-0.591935 0.678343
0.430924 -0.161753
0.785405 0.137637
0.071370 0.379147
0.666896 0.633287
-0.513153 -1.061948
-0.218502 0.251419
0.378992 -0.937432
-0.329403 0.326836
-0.954982 -0.150397
-0.876205 -0.325394
-0.664609 -0.865460
-0.811200 -0.212715
0.430642 0.438181
0.507587 -0.163546
-0.422655 -0.047556
-0.317272 0.299879
-0.804274 -0.499775
-0.107152 1.600683
-2.861852 -0.306918
-1.686686 -1.028815
-2.466309 0.955129
-0.634129 1.265076
-0.622165 -0.047829
-1.940423 1.351170
-1.353846 0.045435
-2.328306 0.159691
-1.417191 0.298678
-3.379774 0.380374
-3.181173 0.764539
-2.529612 0.874347
-3.185066 1.281724
-1.545432 1.457121
-3.575023 0.156402
-2.021883 1.158020
-4.003412 0.893743
-2.537901 1.996482
-2.694749 1.469858
-3.817805 1.292585
-3.587116 0.759506
-4.459790 -0.090621
-2.778882 2.909559
-4.257531 1.759397
-3.085170 1.161718
-2.787358 1.891059
-3.452111 2.210868
-3.718851 1.671060
-5.949040 1.209388
-3.925681 1.364418
-3.979950 3.649549
-3.891778 0.863967
-5.126079 2.587589
-5.138209 1.658889
-5.473438 2.370620
-5.231095 2.817151
-5.379023 2.193220
-3.648720 1.837061
-5.146471 3.305381
-5.617233 1.152777
-5.015699 1.249547
-5.395936 2.088154
-6.136686 4.201956
-6.026639 1.983890
-4.081313 3.791945
-4.376205 3.494495
-5.949461 3.662365
-5.786623 4.499511
-4.758430 3.929224
-4.028932 4.526247
-5.377046 4.059483
-5.958884 4.718670
-5.745406 4.312292
-5.864653 4.765889
-5.726054 3.795540
-6.055969 5.182190
-6.701762 4.599926
-5.621044 5.073842
-6.324725 4.925244
-5.219789 6.486410
-7.913230 4.677509
-6.185013 5.732816
-6.674928 5.333589
-7.031272 5.393401
-6.658046 5.607184
-6.046926 7.324638
-5.415797 6.064819
-6.154026 4.663886
-8.542062 5.011862
-6.821464 4.983899
-6.767984 6.654451
-7.750077 8.347501
-5.821770 7.180464
-7.126061 8.265179
-5.705913 4.898403
-5.792276 5.936654
-6.281432 7.036082
-7.356813 8.144597
-7.441308 7.873412
-6.696882 7.313097
-8.173269 7.390132
-8.475795 7.565657
-8.634827 8.543855
-6.732771 8.125663
-7.132272 7.964511
-7.597395 10.075459
-8.707902 9.728023
-6.726983 8.996355
-6.770093 9.964097
-8.424389 9.057840
-8.638893 9.216869
-7.840083 11.201707
-7.221076 10.682182
-8.270852 9.778047
-7.884381 11.020771
-7.952321 8.901762
-7.972595 9.454244
-9.326239 9.674340
-7.647155 11.132530
-8.589966 10.550690
-7.750966 10.641682
-8.826998 12.338522
-8.087659 12.085248
-6.233058 10.456056
-5.772514 11.398854
-9.093465 11.181265
-8.198567 11.660834
-9.528642 12.167685
-9.529462 13.681044
-8.246967 12.628319
-6.602387 13.659572
-7.128045 11.259705
-9.139265 13.558262
-9.644199 13.404635
-5.687205 12.125239
-9.348730 12.645788
-8.490739 15.088545
-8.020980 15.201353
-5.780409 14.695184
-6.886752 14.441780
-7.211498 14.533190
-6.951212 13.160160
-8.052048 15.811016
-8.074978 14.843251
-7.955752 17.021968
-4.341787 15.303847
-8.002431 16.542846
-8.185609 14.743616
-5.526620 16.410726
-7.175076 17.846654
-7.373851 15.425733
-6.076820 16.976950
-6.411949 15.659604
-7.348716 15.341251
-5.698558 16.755860
-6.897145 16.421564
-6.049975 16.812987
-7.464971 14.995796
-8.776659 18.390613
-4.758897 18.219818
-6.771322 17.965658
-6.136978 17.397614
-3.549124 17.520549
-7.940902 18.143182
-4.079676 19.912740
-4.520580 17.991941
-7.357866 18.335965
-6.378293 19.763502
-5.031735 18.372553
-5.769607 16.609038
-4.397586 19.340730
-5.885899 20.490590
-5.130925 21.639683
-4.398648 19.390789
-6.976372 19.676196
-4.719571 19.585155
-5.052064 21.012903
-5.698926 21.016623
-5.717783 23.286359
-4.911436 20.909791
-6.793139 21.739551
-4.062513 21.174684
-3.485079 22.244760
-2.874647 21.169056
-1.929946 22.407720
-4.217060 22.225935
-3.056092 21.596249
-4.048959 22.322397
-2.395270 21.809806
-4.799233 24.233591
-3.492375 24.208141
-3.860918 24.489801
-2.783595 23.607191
-3.388142 22.239336
-2.901726 25.790947
-2.650345 24.063486
-2.959299 22.574434
-1.064194 22.924661
-1.744523 23.932323
-1.451050 24.358504
-3.543475 23.453181
-1.680689 25.655578
-2.310050 25.753864
-1.958731 25.517809
-0.605082 23.901032
-1.550054 22.173856
-2.137465 25.016237
-1.734809 26.646774
0.057825 25.401793
-0.795633 25.974499
-1.081543 26.033056
-0.060482 27.601676
2.033918 25.265791
2.653598 25.961725
1.482345 28.772667
-1.163845 25.867641
2.288026 26.499335
0.867926 27.479745
0.617075 27.243790
1.809592 27.271889
3.959094 27.300274
0.906236 28.114245
3.492826 24.777664
3.681935 28.929886
3.296308 26.472321
3.098016 29.022840
2.066583 28.076478
0.678177 27.810220
0.874767 28.773178
4.983955 26.056649
4.399379 27.712858
2.202197 28.395066
4.190992 25.654537
4.380862 29.491209
4.935972 27.916325
3.403577 28.309864
2.041478 27.437819
3.485432 27.155092
6.345439 27.449719
6.217061 28.076042
6.547510 31.550602
7.240826 29.888143
6.554360 26.406483
6.599505 28.994177
7.578434 30.355818
6.834924 28.891220
7.986658 29.813406
4.665658 28.688004
6.687308 29.032560
8.434067 30.185866
9.796653 29.181473
7.430016 32.565885
8.144521 30.996241
11.367732 28.785869
10.069638 28.774415
8.153868 28.855926
8.486332 28.972123
10.956957 29.890569
8.812864 31.875322
12.796332 32.488053
8.815854 30.918030
10.599025 27.585887
10.195781 34.960415
11.763376 30.524000
13.975486 31.658981
9.093969 30.267767
13.248458 35.015477
11.266795 32.176590
13.019357 32.085593
12.148971 31.807403
12.458513 31.458351
12.990287 34.105503
15.777109 29.585525
13.892781 32.967178
16.257173 29.686470
11.338288 34.268253
13.303623 32.930647
14.759184 28.992831
11.387016 29.708915
16.659401 31.397624
15.171481 31.557882
15.370893 33.832482
17.013797 29.364192
17.354001 31.210723
16.496712 28.996241
15.425759 32.317748
19.360458 34.237189
16.217170 32.177875
18.403072 33.489218
15.569887 30.906072
19.597821 28.176111
20.273133 31.769448
20.037652 32.014621
19.255389 29.473776
20.241178 30.400447
17.562164 28.525135
19.551280 28.121104
18.115214 28.985465
22.335501 31.584340
20.607914 33.645650
24.037196 30.307484
25.231405 26.284054
23.570727 27.033993
23.674159 31.535151
22.334896 32.979177
20.323327 30.679926
25.111326 32.296657
24.728535 28.784875
22.648940 27.800748
24.657296 31.528416
23.247103 31.304185
26.074179 29.752170
23.084354 35.139523
26.017667 32.530914
26.236177 30.477918
26.194386 32.589642
28.345350 26.328607
30.350336 25.642591
26.190171 27.809183
25.478436 29.260916
26.971620 26.930130
23.183810 32.105007
27.291966 30.713539
26.931017 29.383970
28.142590 32.178338
30.993227 29.280459
29.600433 23.995574
32.524021 27.320731
28.089873 28.378304
27.183932 31.262783
29.262750 25.258026
24.930521 25.466420
31.284599 23.882880
29.967813 26.896334
28.278909 29.531664
35.427952 27.195654
30.735250 29.937774
31.063447 23.039998
29.738532 23.369412
34.735380 27.413094
36.680564 26.123142
33.722301 28.450137
31.707113 26.137419
35.570381 29.218981
35.994211 27.279164
31.486179 19.064774
34.412536 29.941888
38.403384 24.766437
31.243437 29.283136
34.708157 23.715834
33.450544 23.524406
33.878653 28.368847
37.407647 26.165951
38.827697 25.104660
40.503232 24.841043
32.103385 22.735035
36.140843 25.833154
34.517419 15.806802
36.858940 26.478386
39.174257 21.874107
39.259947 27.391553
38.114096 24.277210
34.914645 27.387231
36.720079 29.279112
40.644741 22.785459
38.250735 23.329191
36.356254 23.256498
39.718126 19.099609
34.848232 22.346552
36.816281 26.567784
39.119223 19.230860
36.503568 20.054571
44.353363 20.058955
42.105553 24.117961
37.656946 20.476867
39.384293 18.165410
34.216005 15.831160
41.247943 18.222844
39.594878 13.939587
40.497722 15.012133
44.479449 21.357711
38.736014 19.640931
41.464038 13.071051
45.742685 19.155767
46.381290 13.743828
46.048129 11.925035
42.506376 19.730206
38.615374 19.680530
42.989432 20.557843
37.247232 16.560796
40.236522 11.956014
42.099320 21.983386
45.984384 12.567520
47.505636 10.846700
39.923198 14.601571
44.661848 12.728184
43.386164 12.184617
46.263877 10.944116
40.655286 17.001746
47.013688 9.950309
45.513890 14.998345
47.388606 11.843457
47.181047 10.498249
46.122501 6.433018
47.901320 11.891067
36.878241 14.123571
44.355986 12.516682
49.240923 16.830154
46.076685 9.778152
43.832243 15.849864
46.474630 4.253275
56.706071 9.122707
35.714970 4.501533
37.460458 -5.546612
47.180832 16.507966
45.445526 10.534150
47.849063 5.711308
44.082251 -0.415752
48.101580 3.644556
47.529991 -2.614060
52.799660 -14.531681
58.815187 -0.016334
49.297087 12.574874
41.428456 12.682763
52.429656 3.094924
47.090553 2.843139
52.176243 -1.110740
51.141767 -5.281857
60.889053 0.286843
62.438943 3.732136
38.721415 6.759139
45.561297 -7.460959
40.177723 -1.570596
50.051521 2.410750
62.323365 1.471394
43.941472 2.331085
43.732825 -2.571456
51.672400 -0.400974
54.009710 -2.372049
60.370692 -4.211513
51.636269 -8.254052
51.638891 1.185995
49.326386 1.635080
48.029689 -8.025164
55.057088 -2.858477
58.787771 -10.427662
58.983908 4.579397
55.667502 5.291907
35.251633 1.225136
50.839920 14.331444
36.595753 3.141233
39.350819 0.803189
57.098202 -13.307717
39.162965 -9.059627
58.610333 -13.100406
39.360362 -22.650357
46.670080 1.650797
56.933942 -21.289004
30.100712 3.601663
30.722761 -13.906141
36.794969 -28.060736
61.226907 3.818915
62.878846 -18.889388
51.320700 9.077296
68.491397 -4.458196
38.861227 -3.829584
64.258897 1.908913
36.614579 -16.165801
42.994463 -5.389196
91.388768 -44.202684
49.335298 -0.701797
49.433646 -4.000036
19.701648 -25.561952
45.544178 -11.876904
40.913865 -10.497887
40.743691 -4.523360
59.868298 -14.025163
24.776645 -45.281554
65.490898 2.018643
42.729365 3.629118
69.290691 -23.118130
126.793219 -40.475421
51.184594 -6.910899
39.420453 -10.662971
39.432882 -29.557508
39.762713 -22.447826
10.866133 24.651829
97.304766 -20.277694
43.317644 -1.102827
35.754262 -26.589958
72.142877 115.411721
-7.056276 71.335927
63.128798 -56.314529
-8.208365 -43.144981
-50.342453 -85.005764
8.531018 -61.106633
47.501578 -140.407125
73.686700 -96.611790
-61.888347 89.002587
96.047789 -21.597315
-159.098376 -94.131853
-12.701517 -123.266720
74.343359 31.893896
55.336581 40.947634
-6.127877 59.422699
179.258681 -21.948321
330.910566 164.678150
88.694881 71.504220
14.370434 -112.095815
-117.754185 96.510185
-103.999653 55.033925
6.541465 -19.129104
-1278.348920 -853.082715
57.375699 2.321615
-102.267949 1963.834994
125.045161 -134.660303
-1355.496981 615.743550
821.323935 6.976169
-1488.786462 -1220.906138
615.658448 1208.760984
-409.506498 2788.928176
