2990.756931 3417.327575
-82.006879 -219.661476
-31.296928 -303.106668
-19.820139 74.628045
-17.964491 16.378226
55.706961 -71.893151
-18.749851 9.991578
13.830053 -2.679891
2.758811 -5.867315
1.517535 3.091843
-18.064395 -1.739831
0.320723 2.420163
-14.553877 -8.527475
-2.584050 0.329142
-3.002547 -6.270086
-2.833432 -2.918461
0.374069 3.290324
0.788479 -0.878934
-0.014380 3.960349
-3.079518 1.860987
-0.913538 2.233554
3.487061 4.355353
-3.572894 2.462240
-0.377270 2.704992
-0.738297 0.530433
0.164474 1.829493
3.773215 -0.925314
2.419284 -1.110845
1.567345 -1.766208
1.995682 1.152915
0.282416 1.712996
1.410175 2.204102
1.431979 -0.068581
-0.627518 -2.329458
0.995331 -0.806027
-0.229102 -0.903963
-1.466607 -1.996259
-0.356507 -0.674794
0.811748 -1.928656
-1.058926 2.753076
-2.899145 -1.609566
0.771652 -0.656752
2.320479 1.268297
-0.818518 -0.736542
1.802572 -0.668579
-0.824918 0.796083
-0.906547 -1.683840
-0.696411 0.615541
-1.409978 -1.945730
1.931720 -0.386086
-1.498977 2.140863
-2.948868 1.515747
-0.124370 1.006239
0.680819 -0.336329
2.289363 0.982163
0.596859 -0.167932
2.522941 0.092490
-1.508283 -0.801949
-0.329498 -1.686141
-0.033914 -0.005270
0.927893 0.365659
0.363280 0.191215
-0.181337 -0.798802
0.235665 0.994102
-0.919906 -1.047284
-0.879986 -0.831804
-0.381207 -0.160673
0.914117 -1.373694
0.067717 0.718628
-1.581628 0.646273
0.545371 -0.278506
0.802190 0.519475
0.042646 0.886989
-0.589532 -0.761274
1.320238 0.360308
-0.233210 -0.422929
0.565272 0.077180
-1.272658 0.938444
-0.628333 -2.270885
0.262820 -0.448244
-0.138075 0.080347
-0.874718 1.428127
0.861335 0.289510
-0.510604 -0.112721
0.904680 0.957335
-0.054483 -0.541652
0.146536 0.675199
1.078894 1.264151
0.024866 -0.126345
-1.079367 0.379215
-0.241247 -0.962973
-0.301152 0.040560
1.107377 -0.305271
0.211547 -0.513733
-0.645065 -0.354994
0.209430 -0.032704
0.209585 0.603950
0.017970 -0.090782
0.419132 0.052882
-0.457025 -0.331178
-0.751087 0.819045
-0.225180 -0.303668
-0.259774 -0.311814
0.094452 -0.344556
-0.274135 -0.929346
-0.672571 0.681006
0.364274 0.723301
-0.804736 -0.583199
-0.327058 0.597903
-0.278965 -0.239952
-0.265665 0.346141
0.277030 0.436914
0.784700 -0.018846
-0.367393 0.351977
0.012951 0.115582
0.153149 -0.024302
0.038756 -0.016610
-0.132947 -0.310382
0.431446 -0.009390
-0.516429 -0.196002
-0.504031 -0.211869
0.545894 -0.043313
-0.238031 0.299785
0.073966 0.282432
0.290886 0.060621
-0.166687 0.003801
0.174403 0.033117
0.450860 0.057357
-0.518904 -0.108987
-0.008082 -0.091818
0.246058 0.379048
-0.538364 0.075152
-0.523153 0.127960
0.011967 -0.789681
0.247772 -0.080990
-0.092411 -0.559488
0.129770 -0.093574
0.069863 -0.090568
-0.012494 0.092012
-0.452643 0.412865
-0.495178 0.327034
-0.058119 0.263660
0.003855 -0.199903
0.154717 0.067638
0.134233 0.095871
-0.047710 -0.102020
0.258939 -0.178693
0.117561 -0.236612
-0.022588 0.309084
-0.486529 0.114539
-0.206138 -0.231755
0.110297 0.030709
0.177889 -0.294875
0.226702 -0.241449
-0.050474 -0.053808
-0.080094 0.194504
0.254009 -0.008647
-0.221118 0.050664
0.080668 -0.257145
0.024472 -0.310464
-0.203480 -0.037633
-0.137941 0.143283
-0.033910 -0.069078
0.273590 -0.004115
-0.189696 0.126244
-0.184518 0.054824
-0.425706 0.040786
0.005618 -0.010589
-0.191188 -0.157474
0.012880 0.385503
0.032218 0.027351
-0.052330 0.103989
-0.097974 0.100062
-0.033854 0.234352
-0.244360 0.007062
-0.436597 0.004366
-0.107249 0.209197
0.299110 -0.157454
0.044133 -0.252403
0.021722 -0.185518
0.040594 -0.045434
0.156239 -0.022639
-0.010425 0.034279
0.057189 0.265846
0.031354 -0.076325
-0.033216 0.059488
-0.171858 -0.192271
-0.106417 -0.041663
-0.057198 -0.186406
-0.170171 -0.101779
-0.149075 -0.107610
-0.176796 -0.047372
0.163339 -0.047317
-0.200173 -0.182014
0.030946 -0.264150
-0.077130 -0.088907
0.003295 -0.071518
-0.081078 0.039451
0.035620 0.031494
-0.048229 -0.061605
-0.184406 0.143799
-0.070584 0.054853
-0.060885 0.225556
-0.079091 -0.015511
0.089135 0.036784
0.090787 -0.015029
-0.103680 0.176124
-0.105881 0.181210
0.093494 0.192304
0.044405 0.233280
-0.016253 0.202804
0.123466 0.055521
0.105536 0.025278
0.091647 0.024221
-0.046982 0.128236
-0.082474 0.035005
0.044854 0.183988
0.015692 0.023610
0.148792 -0.065521
-0.003531 -0.068859
0.152688 -0.194696
0.108315 -0.156668
0.025518 0.046399
0.117433 0.326588
-0.092305 -0.162254
0.065268 0.016892
0.040378 0.236820
-0.247923 -0.020705
-0.226227 -0.090856
0.048326 0.025882
0.234553 -0.232832
-0.261307 0.273627
-0.081995 0.138652
-0.329518 -0.052231
-0.325625 -0.298368
-0.184348 0.048075
0.120607 -0.085660
-0.306551 -0.284450
-0.189217 -0.000606
0.073880 -0.165998
0.058241 0.154657
-0.163642 0.232297
-0.010665 0.309628
0.162255 -0.115482
-0.283062 -0.040612
-0.142247 -0.309794
-0.409976 -0.089529
-0.245730 -0.168377
-0.445486 -0.008282
0.317911 0.014046
-0.151959 0.054906
0.119477 0.045581
-0.311794 0.013778
-0.188684 -0.077529
-0.301487 -0.000063
-0.015526 0.214751
-0.184563 -0.238006
-0.384541 -0.060766
0.018127 -0.105299
-0.037871 -0.229386
0.220711 -0.146109
0.351015 0.102887
-0.039514 -0.165446
-0.096597 -0.238169
0.201577 0.098095
-0.157586 -0.026545
-0.097628 0.061268
0.265367 0.134381
0.067171 -0.010505
0.009296 0.071896
-0.063550 0.300770
0.201665 0.200911
-0.075574 0.137137
0.031953 0.191249
0.060522 0.098544
-0.120794 -0.166902
0.081939 0.106346
0.087419 -0.172088
-0.262860 0.193572
-0.050337 -0.058070
-0.288475 -0.084658
0.127917 0.374773
-0.052640 -0.254603
-0.383059 -0.182462
-0.168967 -0.111508
-0.047386 -0.093068
0.293695 -0.015371
-0.011595 0.036971
0.005265 -0.281787
-0.269079 -0.261589
0.191353 0.014845
0.263972 0.064200
0.168932 0.170134
0.001854 -0.132103
-0.416028 0.007298
0.275384 0.026441
0.112473 -0.217224
0.124017 0.302084
0.254372 0.246056
-0.128837 -0.238912
0.280423 0.028754
0.296280 0.179659
-0.058282 0.000631
-0.196842 0.158314
-0.326683 -0.099884
0.179335 0.030726
-0.402032 0.076443
-0.122869 -0.207153
-0.149728 -0.297236
-0.160224 0.134560
-0.002072 0.098179
0.003725 0.129454
-0.228700 0.163000
-0.102544 -0.050605
0.021091 -0.393198
-0.301807 -0.143947
0.250891 -0.011737
-0.124102 0.057128
-0.132503 -0.068501
0.043604 -0.098993
-0.014840 0.060462
-0.108527 0.266233
-0.025358 0.189700
0.152125 0.111590
-0.184136 -0.013918
-0.108712 0.104119
-0.396862 0.131419
-0.184289 0.055103
-0.120349 0.224914
0.291322 0.323896
0.123094 0.410036
-0.154053 -0.176799
-0.029908 0.051752
-0.248449 -0.086383
-0.134436 -0.192351
-0.015392 0.034009
-0.185252 0.194267
-0.117637 -0.239506
-0.016986 -0.032023
0.019859 -0.159581
-0.180176 0.179582
-0.024746 -0.085057
-0.154234 -0.012838
-0.103660 -0.102180
-0.309014 -0.050503
0.239224 -0.416184
-0.136789 -0.089237
-0.016960 0.149714
0.049229 -0.018256
-0.141971 0.050342
-0.284360 0.103667
-0.274539 0.057222
-0.369377 -0.322962
-0.238337 0.188537
0.039604 -0.267778
0.022244 -0.246720
0.141965 -0.117610
0.120713 -0.036234
0.134106 -0.065961
-0.249670 0.086789
0.219790 0.159212
0.166354 0.044091
0.130682 0.143285
-0.047782 0.096509
0.149374 -0.079469
0.023159 -0.164271
-0.019376 0.088401
0.103991 0.028508
-0.131040 0.083932
0.193615 -0.084528
0.266183 0.016228
0.240785 0.002435
-0.224923 0.092112
0.082756 -0.043348
0.058997 0.026174
-0.057142 0.199514
-0.140192 -0.126589
0.004452 -0.130114
-0.137267 -0.166896
0.119775 0.142456
-0.017699 -0.158725
0.122552 -0.083404
-0.032082 -0.119730
-0.020974 -0.121510
-0.145121 0.127528
-0.296963 0.025635
0.041325 -0.310876
0.004322 0.054913
-0.020924 0.169586
-0.003166 0.087387
-0.137049 -0.228589
-0.057452 0.194688
-0.262422 0.165708
-0.330747 0.076093
-0.443625 -0.060793
-0.098201 0.172921
0.169324 -0.282045
-0.137350 -0.180182
-0.238065 -0.278012
-0.067334 -0.000418
0.314633 0.057969
-0.141967 0.199013
-0.087138 0.127455
0.094284 -0.074224
0.075110 0.153481
-0.193691 0.101663
-0.311957 0.191147
0.026770 -0.035654
-0.261094 -0.006850
-0.048027 0.301012
-0.002666 0.195491
-0.217124 -0.303266
-0.006624 -0.239771
-0.017076 0.141873
0.078050 0.040048
0.026546 0.159436
0.564502 0.138427
0.058935 0.120930
-0.185520 0.424166
-0.465724 -0.059140
-0.191594 0.045233
-0.038560 -0.217003
0.201114 -0.248819
-0.034608 -0.495667
0.210829 -0.138387
0.160922 0.336663
0.016458 0.250777
-0.215765 0.089061
0.469419 0.089021
-0.066411 -0.142521
0.290259 0.107472
-0.138793 0.190461
0.020929 -0.464997
-0.082695 -0.209221
-0.565136 -0.048434
-0.000240 0.128776
-0.238073 0.401076
-0.690517 -0.114210
0.056852 -0.084148
-0.050296 -0.008828
0.424393 -0.488308
0.042122 0.038871
0.823232 0.049204
-0.344575 0.486790
-0.280523 0.240232
-0.196124 0.041499
-0.240570 -0.034394
0.134694 0.006777
0.123769 -0.098177
-0.176273 -0.190784
-0.213703 0.127599
0.315420 -0.435205
-1.063117 0.088848
-0.143804 -0.515033
0.332334 0.279426
-0.517523 0.273011
0.151197 0.289330
0.157904 -0.023059
0.153949 0.242741
-0.386185 0.206969
0.059930 0.208729
-0.302679 -0.598187
0.625116 -0.166727
0.076624 0.174948
-1.275625 -0.944848
0.089318 0.042393
0.816694 -0.379512
-0.195806 0.101453
-0.086194 0.813915
-0.861755 -0.484378
-0.097199 0.970287
0.400036 0.092574
-0.092307 -0.921239
0.212475 0.462465
-0.129186 0.230076
-0.060139 0.443047
0.037683 0.106037
0.097109 -0.703423
-0.442257 -0.405558
0.109799 0.107199
-0.179942 0.693684
0.082906 -0.480974
0.819240 -0.582743
-0.323765 -0.515683
0.252161 1.248861
0.634456 0.194932
-1.209559 -0.520062
1.018502 -0.361587
-0.826089 -0.607465
-0.168897 0.061859
0.574802 -0.383421
-0.609615 -1.202570
0.395290 0.292306
-1.758479 -0.723533
-0.297381 0.095610
0.398410 0.890356
-0.167134 0.837112
-1.052563 0.192249
0.724710 -0.415369
0.210487 1.261317
0.086286 -1.446921
0.465547 0.291924
0.821815 0.033431
0.380555 -0.924894
-0.348209 0.178221
-0.852176 0.653689
0.241761 -0.561772
0.072614 0.223059
-0.402719 0.280818
0.247895 -0.057832
0.522423 1.116009
0.008303 0.143629
-0.504891 0.481960
0.400802 -0.715427
0.379840 -0.862779
-0.995266 0.826451
1.658661 1.438418
0.069542 2.609229
-0.338702 -1.540550
1.323019 -0.398607
0.850245 -1.515435
0.853686 -1.624919
-1.108157 0.858235
-3.291051 0.151682
-1.065301 -0.799081
0.169350 0.851205
-0.721412 0.153762
-0.135097 1.687226
-0.433172 1.232434
-0.278305 1.407034
0.851045 0.455913
-1.586208 0.318959
0.956519 -2.756991
0.613841 -1.210091
0.419013 1.904232
-0.510602 1.011284
-0.851735 -0.644990
1.161426 1.076440
-0.466717 1.050988
1.233426 -1.070714
4.717350 0.931321
0.002505 2.765056
3.431337 -1.409406
-1.590609 -1.411849
-1.392150 -3.015640
2.313966 0.146591
4.307347 -2.334193
0.307990 0.049055
3.623649 -2.097101
-0.756688 -5.329895
1.306348 -2.376786
0.331718 3.523169
-0.649306 -3.772079
-5.396363 -0.395041
-3.176774 -1.531469
-4.794757 1.648602
-3.214811 -5.385429
-8.474562 -0.671656
5.164574 4.017230
-12.483153 -8.270656
5.966311 13.310217
-4.845079 8.405411
-4.453667 3.431681
-7.533288 14.298038
-10.065538 34.765850
1.549379 -4.376339
-40.653931 25.073068
-21.720748 7.141727
41.054643 -3.056124
-71.980445 -2.511308
-77.852655 -33.102553
7.621006 17.681391
-1420.464612 -1373.690359
