3626.113650 4369.305303
-2828.924757 -328.881516
879.341988 -172.500175
319.177888 -10.686231
354.662859 -228.592884
122.654512 -10.224224
255.406882 39.804568
214.658075 73.649814
309.395467 -117.739337
96.673004 -100.628220
103.564119 -133.105494
104.346818 -1.847406
127.398078 -27.505722
65.366083 -78.975817
92.721776 -122.985597
73.440984 -33.831367
38.892535 -40.724268
41.162296 -43.766803
77.243145 -57.542951
55.311106 -29.109985
38.889477 -45.707868
31.713407 -25.132839
51.902793 -27.857447
64.528640 -19.299257
71.132026 -40.531506
56.100934 -42.463323
44.886502 -63.583306
45.031686 -49.645050
38.862146 -36.017851
28.009659 -38.269630
32.657897 -55.705247
26.642863 -38.361657
14.037634 -28.776106
17.585209 -18.554459
33.684785 -25.269132
36.199103 -22.321558
26.135313 -35.435560
22.993014 -27.505815
17.529877 -18.439141
26.947025 -18.709428
35.494674 -20.992451
25.667938 -20.569947
21.439972 -31.195267
26.796304 -23.597207
22.193625 -15.207262
22.624135 -16.263603
29.500429 -25.701652
28.837471 -20.685789
17.539071 -21.984627
17.100152 -20.204336
23.871768 -13.366912
28.834799 -12.075788
28.315743 -20.999959
26.811590 -21.356540
19.997006 -21.126620
25.535400 -16.100652
32.612072 -15.597796
31.285317 -20.572554
26.154988 -29.922045
28.798886 -28.400158
22.648705 -24.532659
24.502026 -26.724517
24.118575 -33.211531
23.836384 -35.140077
13.290759 -34.662434
7.255371 -31.846395
4.620029 -27.435926
6.526354 -23.110904
6.044295 -20.958282
6.236431 -19.607574
4.012051 -16.046333
7.159359 -12.764900
10.137874 -6.779515
13.927742 -9.027372
15.076360 -14.184888
17.423455 -15.740197
14.915709 -9.529179
14.977616 -11.532858
20.754067 -15.804329
24.213760 -19.190117
17.876400 -19.769381
14.151534 -23.173628
13.923410 -20.545947
15.099850 -21.476623
14.620396 -21.598881
11.319411 -24.810494
6.093724 -24.063718
4.232711 -22.075690
6.229244 -15.760989
5.991623 -15.108640
8.079755 -16.958757
8.531825 -17.975750
7.403386 -13.334277
5.311296 -13.358163
10.719010 -13.530969
12.634576 -14.143309
12.792174 -16.157015
9.229957 -19.598686
8.390576 -18.236274
7.039442 -17.921943
9.966538 -17.184379
7.889611 -17.364640
3.955507 -19.904208
3.033175 -19.185647
4.291811 -11.842507
2.719245 -10.199227
5.966411 -14.222801
6.263009 -14.435699
4.418413 -12.114222
2.747114 -10.733518
6.510003 -9.163810
7.967794 -8.359776
9.291287 -10.733740
8.160657 -12.045672
8.565346 -11.617109
7.717647 -11.841473
10.139471 -12.188819
9.230599 -11.908127
8.154296 -16.171466
7.077589 -16.639180
6.924441 -13.640968
3.610016 -10.580520
5.635971 -12.994413
7.931398 -13.184376
7.257492 -12.686605
4.751830 -11.586281
6.656428 -12.270001
9.597868 -11.692307
11.177718 -14.499372
8.493836 -15.844122
5.305748 -17.032289
3.855276 -16.137807
5.638959 -15.423688
4.029502 -14.066688
3.243132 -16.530739
1.938204 -16.047007
0.639892 -13.433641
-0.686251 -10.172150
1.660600 -9.891788
3.262538 -8.387256
3.535418 -9.345362
2.946652 -8.280391
3.971337 -7.680678
6.270636 -5.679416
9.308417 -8.112489
10.200060 -8.800809
7.853334 -12.113026
7.842127 -12.570366
8.625527 -11.924599
8.731792 -10.928319
8.198952 -15.639723
8.233723 -17.311015
5.277033 -16.422158
3.090321 -14.910762
3.436303 -14.777239
4.727370 -14.281579
3.295197 -15.626906
1.271700 -14.729104
-0.511806 -13.756956
0.685289 -11.797086
2.660093 -10.683965
4.174303 -9.941769
2.897618 -11.692974
3.902021 -11.736860
3.475824 -10.529687
4.111071 -9.112446
5.029561 -11.533569
7.906522 -13.735836
4.876370 -13.905886
2.743584 -15.071090
2.138668 -13.947290
3.459741 -13.427763
2.982249 -14.453926
2.157213 -15.176792
-1.479973 -14.020818
-1.946959 -13.019247
-0.435816 -10.675933
1.475269 -9.437935
0.190722 -9.565566
1.089990 -11.908244
0.811542 -9.115550
1.863458 -6.870000
2.630527 -7.481041
6.161228 -9.747645
5.947006 -10.134858
4.995537 -12.270635
4.187415 -12.931731
4.983463 -13.047175
4.410333 -12.707287
3.885492 -14.385082
1.747922 -14.923337
0.124018 -15.726609
0.444790 -13.682227
0.571777 -12.006625
0.530360 -13.383935
0.348841 -14.920558
-0.261142 -13.054336
-1.312324 -11.885200
-0.245945 -11.674105
1.547133 -12.871657
0.548827 -12.458459
-1.543750 -13.631550
-2.544386 -12.512017
-2.609724 -12.215792
-1.119091 -10.607059
-1.254625 -10.700733
-1.827281 -10.175561
-3.050858 -10.866350
-2.192934 -8.498862
-1.525698 -6.863629
-0.489687 -6.670495
1.264840 -8.460944
1.964433 -8.425615
0.230724 -8.194369
1.318312 -8.237089
3.360784 -9.291169
4.538942 -10.029859
3.311299 -12.634017
1.445167 -13.135130
-0.412191 -13.089775
0.644482 -12.749676
0.456263 -12.385612
-0.773873 -12.977944
-2.710179 -14.194509
-2.305861 -12.163295
-3.855956 -10.088231
-2.579684 -10.200767
-2.231147 -10.099593
-2.000392 -9.785393
-3.267884 -9.792605
-2.468509 -8.660439
-2.068874 -7.400656
0.665627 -7.655214
0.096217 -8.825733
0.268566 -9.532690
-1.414380 -9.556058
0.667154 -9.628664
0.366477 -9.245622
0.966191 -10.764707
-0.463469 -12.403043
-0.930764 -12.654562
-2.873601 -10.203525
-3.064511 -10.522178
-2.170356 -10.793636
-2.252124 -10.281251
-4.316851 -9.609360
-4.248284 -9.108232
-4.449637 -6.820638
-2.276727 -6.808212
-1.291027 -5.927556
-0.735896 -6.666341
-0.853636 -6.882157
0.541334 -7.062611
1.962481 -5.896155
2.266466 -8.289574
2.829045 -10.699859
2.903564 -12.204013
1.153174 -12.025250
-0.447103 -13.025195
-0.490501 -12.927263
-1.166562 -13.757794
-2.445954 -14.128995
-4.680908 -13.991357
-6.397553 -11.830098
-6.357817 -10.237483
-4.325727 -8.990768
-5.187350 -9.153790
-5.165688 -8.852773
-5.165297 -8.259123
-3.688730 -5.420783
-3.382487 -6.331482
-1.426486 -7.927202
-1.435752 -8.728193
-1.973827 -8.024995
-2.625525 -8.318999
-1.678240 -8.655292
-1.654998 -9.182499
-1.839458 -9.581223
-3.159341 -10.296165
-4.039833 -9.546673
-4.019763 -8.852831
-2.586154 -7.676969
-2.737160 -7.688833
-2.634976 -9.192773
-2.433173 -9.458003
-2.480455 -7.702005
-3.386374 -7.834296
-1.845349 -9.712182
-1.196994 -10.231958
-2.945247 -10.313767
-4.326111 -10.307758
-4.173333 -9.725020
-3.983675 -9.349651
-3.207987 -10.196260
-5.008771 -10.239202
-5.830503 -9.986571
-5.992654 -9.026248
-5.182113 -8.140889
-5.468875 -7.746343
-5.066358 -8.898687
-5.561545 -8.773671
-6.047757 -7.419712
-6.032071 -6.110552
-4.548617 -7.327369
-3.611339 -6.530660
-4.067305 -7.820026
-4.863871 -7.627638
-4.625508 -7.171893
-4.494374 -7.145301
-3.436918 -7.260876
-3.305644 -7.462658
-5.239692 -8.987191
-5.751774 -8.344668
-5.420927 -7.227326
-4.900173 -6.119219
-5.032418 -7.857085
-4.516021 -7.588331
-5.600528 -6.934535
-6.394527 -5.813931
-5.165358 -5.533341
-4.097379 -5.226911
-3.770947 -6.212975
-3.818797 -6.083394
-4.147527 -6.790748
-3.505463 -6.181081
-2.838763 -6.613202
-1.914258 -6.976412
-3.734863 -9.210932
-3.942366 -9.816794
-4.715964 -8.536086
-5.433157 -7.992212
-5.960992 -9.177382
-5.803797 -9.636545
-8.209074 -8.504768
-8.857153 -7.355208
-8.823742 -5.577689
-7.154356 -4.739483
-7.162749 -4.455566
-5.989602 -4.603292
-6.697079 -3.944496
-6.126799 -3.217336
-4.314967 -2.836286
-3.078753 -3.206160
-3.963849 -5.305331
-2.558223 -6.263608
-3.817583 -5.618158
-4.111850 -5.586976
-3.840803 -6.541413
-3.020283 -7.125695
-4.674159 -7.215155
-5.407036 -7.321289
-6.242736 -6.362678
-5.249459 -6.290857
-5.201046 -5.909571
-4.543773 -6.067860
-5.875525 -6.224273
-6.148873 -6.206172
-5.234810 -4.629384
-4.178389 -4.777191
-4.736558 -5.832037
-4.009122 -6.888692
-4.923706 -6.127272
-5.949664 -5.880790
-5.481411 -5.521526
-4.544326 -6.678679
-5.145030 -6.018218
-6.208314 -6.573160
-6.826246 -5.669495
-6.505691 -5.334274
-5.748731 -4.800048
-5.803265 -5.345267
-6.352227 -5.176366
-6.551889 -6.081829
-5.710425 -4.222913
-6.129011 -3.774989
-5.318630 -4.396065
-4.713304 -5.786496
-5.326861 -5.049839
-6.333365 -5.174682
-5.957614 -4.714764
-5.190331 -4.994236
-4.827519 -4.968831
-5.748890 -6.051756
-6.363598 -5.295556
-7.055180 -4.879977
-5.217312 -3.992990
-5.602629 -4.342434
-5.721456 -4.821379
-5.945125 -5.501677
-5.246689 -4.235285
-6.019270 -3.345248
-5.148690 -4.505565
-4.674801 -5.484124
-4.165878 -5.575084
-5.734888 -5.805082
-5.416665 -5.503682
-5.214033 -5.484914
-5.163014 -6.247459
-5.759975 -6.911793
-6.957158 -7.087462
-8.530944 -6.507380
-7.686768 -5.816826
-7.951729 -4.733961
-8.453190 -5.174892
-8.758050 -5.469133
-8.943895 -3.878559
-9.492900 -2.102367
-8.748121 -1.736369
-7.569040 -2.053906
-6.713435 -1.726979
-6.909725 -1.536768
-6.591775 -1.639306
-5.464087 -1.096328
-4.090563 -2.162919
-3.898200 -2.888497
-4.533339 -4.075536
-5.257084 -4.980199
-5.465682 -4.658187
-5.729628 -3.811146
-6.052012 -5.240330
-6.263904 -5.680369
-7.213310 -5.757759
-8.132570 -4.153501
-8.426854 -3.757691
-7.179615 -3.078137
-7.310649 -3.340767
-7.874259 -2.938928
-8.233723 -3.239750
-8.133379 -2.031508
-6.788499 -1.841934
-6.099785 -2.005090
-6.367106 -2.595551
-6.494636 -3.053274
-6.673876 -3.055381
-6.422200 -1.846773
-6.694774 -2.529507
-6.064072 -3.264597
-6.488423 -3.903722
-7.668634 -3.102234
-8.214053 -3.084998
-7.543030 -2.240680
-7.236752 -1.760751
-7.030085 -1.930184
-8.040847 -2.105965
-7.829264 -1.374491
-7.386984 -0.925781
-6.259334 -0.234852
-6.140064 -0.529131
-5.993096 -1.818574
-6.351594 -1.712003
-6.270158 -1.006493
-6.065806 -1.217708
-4.699802 -1.757618
-5.018104 -2.409188
-6.303509 -2.480478
-6.875112 -1.987003
-6.206560 -2.227943
-5.993846 -1.272441
-5.012926 -2.354895
-5.866724 -2.616166
-6.404736 -2.333604
-6.477564 -2.341775
-5.655998 -1.707672
-5.874446 -1.959797
-5.927343 -3.453960
-6.288164 -3.343441
-7.122696 -2.390693
-7.712270 -1.812032
-6.573134 -2.645695
-7.058883 -2.645873
-7.991016 -2.551362
-8.974811 -2.250806
-8.481149 -1.118096
-8.249972 -0.424800
-7.690916 -0.394131
-7.705627 0.516241
-8.185057 0.094116
-7.468450 0.665540
-6.337065 2.062692
-5.679890 1.812481
-4.129308 -0.022986
-3.995196 -0.300013
-4.111252 -0.550654
-4.622254 -0.861735
-3.910554 -1.946250
-3.755139 -1.861453
-4.673376 -3.383417
-5.822199 -3.185420
-7.038761 -3.991037
-6.919914 -2.743947
-6.760458 -2.827297
-7.209061 -2.192882
-8.445048 -3.012635
-8.268268 -1.907509
-8.868561 -0.500735
-8.538321 0.361778
-7.590645 -0.144196
-6.596306 0.112006
-7.514218 0.091164
-7.072111 0.716593
-6.292971 0.926516
-5.409077 0.672891
-5.141593 -0.014867
-5.317395 -1.275980
-6.221302 -1.476022
-5.753410 -1.437207
-5.686148 -1.052653
-6.130569 -1.047816
-7.273291 -1.713971
-7.688754 -2.009852
-8.478195 -0.981628
-8.999094 -0.086659
-8.423708 -0.190242
-7.315047 0.532539
-7.854497 1.299326
-7.852606 1.803324
-7.613980 2.231811
-6.350965 3.139898
-5.102214 2.218496
-4.450552 1.371064
-5.014804 0.651880
-4.661671 0.086673
-4.527143 0.525530
-4.213927 -0.221789
-4.984601 -1.997956
-5.352339 -2.983752
-7.008289 -1.859043
-7.791243 -1.273012
-7.911856 -0.626239
-7.209418 -0.676073
-8.112900 0.059779
-8.590740 -0.496792
-8.754861 1.087452
-8.120886 1.126626
-7.389541 2.164517
-6.594095 1.918147
-6.741847 1.705546
-7.064430 0.978860
-6.459278 2.273409
-6.670614 2.757070
-5.969207 1.821477
-5.793230 0.890100
-6.458847 1.179915
-6.938021 1.719964
-6.781958 2.445367
-5.887157 2.198785
-5.569363 2.220401
-5.851552 1.760203
-6.284517 2.248051
-6.350910 3.014985
-4.469053 2.940139
-4.098751 2.162978
-4.505700 1.479704
-4.812562 0.541654
-4.450423 1.599070
-4.887403 1.612908
-4.631596 0.732360
-4.613636 -0.275197
-5.487413 -0.314395
-6.940386 0.112006
-6.692752 0.734560
-6.801693 1.485948
-5.755247 2.105007
-6.555077 1.076914
-7.351043 1.907419
-7.457443 1.692674
-5.898612 2.671850
-5.607747 3.628667
-5.520690 2.385421
-5.862134 1.958955
-5.595956 3.002523
-6.092482 3.250573
-4.630207 2.752520
-3.864982 2.476942
-3.929545 1.955517
-4.984543 1.785487
-4.768580 1.440485
-5.112824 1.776920
-3.865786 1.267842
-4.315118 1.180972
-5.759753 0.695806
-6.627277 1.281736
-6.097454 1.706041
-6.166533 3.384992
-5.870595 2.585138
-5.352275 2.618399
-4.864478 2.790499
-5.396584 4.172519
-4.211983 3.918673
-2.701293 3.782841
-2.661397 2.645984
-2.644226 1.688066
-3.257391 0.696990
-3.372224 1.374663
-3.177518 0.126467
-3.361074 0.063530
-4.478874 -1.079034
-5.747811 -1.119599
-6.002331 -0.289525
-6.831306 1.692649
-7.410353 0.720646
-6.626861 1.262980
-6.978666 1.962015
-7.748922 2.634423
-7.380106 3.355369
-5.663292 4.370069
-5.016621 4.175899
-4.579605 3.704893
-4.985909 3.038631
-5.016434 3.489164
-4.082526 3.527137
-2.855471 3.204161
-3.785471 2.514544
-4.289697 0.887611
-4.457239 1.497620
-4.962026 2.752879
-4.914358 2.358773
-3.786107 1.630216
-4.401883 2.186802
-5.083838 2.606181
-5.548051 2.516383
-4.687691 2.944813
-3.646213 2.443300
-3.167944 1.640637
-4.303887 1.624596
-5.218810 1.368577
-5.160202 1.902887
-4.383818 2.353916
-5.462703 1.564876
-5.135326 0.844489
-5.732766 1.472356
-6.801712 2.698718
-6.806879 3.202294
-4.990988 2.896388
-5.232691 3.196474
-5.409544 2.952576
-6.096238 3.566015
-5.533857 4.034283
-4.749985 4.646855
-3.774884 4.188330
-4.122084 3.689883
-4.908642 2.640947
-4.337522 3.439849
-4.081552 4.386550
-4.110480 3.749543
-3.362044 2.435926
-3.958792 3.088537
-4.742617 3.273988
-5.026062 3.581732
-4.191571 3.252955
-4.039812 3.181547
-4.418566 2.773091
-5.345907 3.214357
-5.716679 3.804502
-4.483075 4.583865
-3.324598 4.910840
-3.600879 5.237832
-3.781662 3.504119
-3.605852 3.756993
-3.342432 5.382920
-2.039593 4.780534
-1.168401 3.115710
-1.114061 2.648947
-2.474301 2.022100
-3.301783 1.588275
-3.327393 1.794859
-3.228066 1.278949
-4.224164 0.774088
-5.227072 1.550837
-6.886031 1.885043
-6.331647 2.563108
-5.687110 4.200488
-5.766506 4.823095
-5.798039 4.362233
-5.185410 5.025130
-5.644737 7.017490
-4.015152 7.150067
-2.313895 6.288482
-0.958566 5.513069
-1.343922 5.078428
-1.866058 4.460411
-1.108510 4.742500
0.035353 4.690057
-0.211671 2.885899
-0.431477 2.119450
-2.410099 1.205720
-2.735561 1.497476
-2.751087 2.498551
-2.663206 2.812141
-3.075565 1.338735
-3.371936 1.732500
-4.434411 3.423185
-4.302098 3.959957
-3.430918 3.841736
-1.840627 3.365451
-2.673870 3.233540
-3.154028 2.425251
-3.337787 3.294978
-3.283656 3.168360
-2.684771 3.359587
-2.796574 2.799969
-3.505540 2.127914
-4.144083 2.014165
-3.729102 3.991579
-3.342147 4.249469
-3.369316 3.379600
-2.562727 2.618811
-3.680526 4.220716
-4.016363 3.924626
-2.826320 4.312399
-1.814366 3.848817
-2.282744 2.958146
-3.031345 3.152581
-3.055957 3.631027
-2.902818 3.312338
-1.678856 4.605052
-1.822597 3.360335
-2.459245 2.837003
-2.547953 2.100635
-2.783143 3.579063
-3.786572 3.626434
-2.421366 3.028445
-1.908270 2.905446
-2.559978 3.320616
-4.164708 2.941123
-3.103276 3.890246
-2.151771 4.753470
-0.478361 3.905702
-1.640726 2.070208
-2.738232 2.085440
-2.774850 2.669698
-1.621411 2.802326
-1.528399 2.364354
-2.133606 0.942483
-3.432333 0.129078
-4.344511 1.289968
-5.617873 2.408537
-4.412384 1.960983
-4.369617 2.503136
-5.507737 3.254541
-6.559499 3.952823
-6.092895 4.569196
-5.603445 6.299506
-3.693693 6.710947
-2.909099 7.101358
-3.125990 6.512482
-2.826725 6.302012
-0.450567 6.854573
0.338593 7.373093
1.131765 4.981160
1.001881 3.313267
0.792578 2.311969
-0.910878 3.036303
0.248111 1.962208
0.258122 1.578171
-0.724892 0.596616
-3.056955 -0.140175
-4.176242 0.505581
-4.548381 1.931603
-3.897751 2.668424
-3.931400 3.650823
-4.646593 3.198365
-4.972203 3.206966
-4.131646 5.042745
-3.516963 6.828426
-2.471780 5.616287
-1.326082 4.673077
-1.082164 4.320144
-1.781602 4.345557
-1.081397 3.717247
-0.402454 3.720572
-1.068074 2.570287
-1.214136 2.273824
-2.727923 1.666487
-3.220733 2.395642
-2.706359 3.426264
-2.389532 3.960713
-2.955820 2.964431
-3.385338 2.543210
-3.098381 3.932147
-3.284512 6.381296
-2.465812 5.575144
-0.137534 5.069992
-1.012778 4.624760
-1.184081 4.459747
-1.333674 4.442888
0.525172 4.961313
0.797100 3.758337
1.409390 2.642254
-0.443340 2.107465
-0.985185 1.975746
-0.238075 1.981811
-0.026537 2.748175
-1.463678 1.243547
-1.165047 0.100400
-2.429707 0.766091
-3.584790 2.632008
-3.512363 2.416030
-1.247472 2.359865
-1.942345 2.786197
-2.870004 2.890875
-2.782225 2.427393
-2.146084 2.723747
-1.718325 2.409206
-1.245952 1.501800
-2.818287 1.527319
-3.701735 1.380461
-3.975228 1.970496
-3.348884 3.072498
-3.536285 2.827727
-3.341081 2.224085
-3.528251 3.643902
-3.937648 4.947667
-3.759913 5.814623
-0.582151 4.815345
0.257466 4.990996
-0.211371 3.880183
-0.881860 4.233309
-0.023609 4.137733
1.171349 4.156245
2.153427 1.734061
1.499721 0.290368
-0.307992 -1.574615
-0.668309 -0.065420
-1.344402 1.325530
-2.243802 -0.733172
-1.809324 -2.569062
-3.635463 -1.690808
-6.481467 -0.761307
-6.993425 0.561159
-6.819289 1.689812
-5.760331 2.573289
-5.138402 2.521556
-4.963753 3.554127
-6.444677 4.043795
-4.615502 5.528978
-3.091176 6.147729
-1.576383 4.992109
-2.764690 2.616854
-2.010575 2.433589
-3.098786 3.541987
-2.018857 3.842282
-1.500141 1.511338
-1.285968 1.191291
-4.059397 1.128051
-5.073784 1.279052
-5.490675 2.291870
-4.201905 2.264314
-4.227229 2.362426
-5.577124 2.985062
-7.150678 3.193633
-5.119902 4.710979
-4.496451 6.560217
-3.672316 6.524300
-2.986151 5.186187
-1.400372 4.884543
-2.431996 6.516508
-0.961222 4.780712
1.420384 3.991826
2.113641 2.255329
-0.330495 0.117486
-2.555975 -1.118730
-3.956076 0.584670
-4.157581 0.293629
-4.064403 -0.008764
-5.800954 -0.802635
-8.406977 -0.165060
-8.460816 1.717013
-7.919890 5.104354
-7.821170 5.819410
-6.951277 5.273383
-5.273475 4.400727
-6.112822 6.732802
-6.217840 6.505660
-4.629597 6.476941
-2.432410 4.926489
-2.862600 5.242540
-4.446908 3.221097
-5.410361 4.867899
-5.162011 5.759371
-3.031148 7.047667
-2.741768 5.538694
-3.695530 5.189361
-4.215492 4.766984
-2.903898 7.612770
-2.309735 7.746198
0.990285 6.269683
1.634436 4.031688
-0.303549 3.925560
-2.113430 1.638810
0.555548 2.392190
0.649906 1.420036
-0.533139 -0.202209
-3.536795 -2.154266
-5.913612 -1.106847
-6.599536 -1.220058
-5.526316 2.109110
-8.021070 2.321864
-8.042673 0.972609
-8.715520 1.310639
-7.943291 5.566944
-8.887911 6.389267
-6.086782 6.622972
-5.406777 5.254625
-5.383317 5.153775
-7.634121 5.799299
-4.794917 7.268742
-3.550467 8.355354
-0.712522 5.735891
-1.689409 3.548164
-3.432742 2.423172
-4.427706 2.283343
-1.659061 3.714607
-3.685316 4.145617
-3.510669 -0.896575
-4.094708 -1.831577
-7.376705 0.522842
-10.392642 2.856603
-8.073634 2.793820
-6.884884 4.359176
-7.577351 3.710509
-9.252601 5.114398
-8.905972 6.003090
-7.185251 8.585797
-2.467801 7.661993
-2.619635 5.778230
-3.767885 2.996094
-4.208593 4.399345
-1.226207 4.445427
0.675258 4.109090
0.284471 -2.562194
-1.610514 -7.594056
-6.214300 -7.724180
-12.678143 -4.785924
-14.345745 -5.593163
-12.305164 -3.533544
-16.597119 -3.375342
-20.441110 -1.408876
-23.247922 2.216409
-22.657621 9.478215
-18.899708 12.952591
-13.257990 15.119025
-14.230355 12.606242
-13.203853 12.020670
-9.188331 15.149321
-6.028234 16.512617
-4.683610 10.648724
-2.952985 7.249464
-6.726477 4.382447
-9.288109 5.249700
-9.408990 8.695307
-6.805784 11.641649
-5.263870 6.483719
-4.788435 1.231975
-9.905153 2.290427
-13.713438 4.379813
-11.577821 5.933076
-6.358381 8.687127
-10.842547 3.918195
-10.272578 -2.658121
-15.373546 0.792651
-16.418196 6.394843
-16.870584 3.476302
-13.286892 1.246671
-17.562713 1.273420
-23.031905 0.394542
-27.785513 4.868856
-25.767281 9.056668
-26.524199 10.448817
-23.517513 11.903200
-27.721886 13.760003
-27.656988 17.220061
-23.630410 22.339001
-16.582209 24.873460
-16.828538 23.555982
-11.341900 15.641075
-16.213228 16.401796
-16.383373 16.525607
-13.290071 19.489521
-9.609978 15.919086
-13.452885 10.717494
-14.145464 6.199806
-22.522659 11.737775
-23.922756 13.611475
-25.171362 14.163012
-17.450683 8.336283
-27.713475 19.453202
-37.446665 11.170608
-34.170571 22.206792
-29.417356 30.654415
-27.820102 35.658458
-23.661152 23.649261
-22.460112 28.757677
-34.701100 32.750404
-38.815340 35.884877
-18.963606 33.271533
-12.128927 47.913900
-24.298088 22.829692
-18.050496 19.527262
-23.052858 20.337706
-30.784027 3.993379
-40.347518 -27.897352
-65.948916 0.999625
-112.113766 5.352327
-123.252306 -3.136131
-92.523028 17.476638
-119.293509 79.322118
-183.789756 50.185062
-191.515790 19.028675
-169.879770 90.602110
-187.841344 229.921745
-217.966603 190.031868
-134.722443 221.440103
-4.971267 245.747684
-17.311211 191.951118
13.171749 205.307010
-573.160384 368.760190
614.696486 104.078692
-164.143676 -785.044402
