2974.404940 3819.123901
-1667.242978 -2073.470614
-458.279144 58.785617
68.992864 -88.405171
-92.619416 -245.276312
8.926777 97.170398
-75.321138 35.437583
-103.190843 -25.321044
33.679331 93.295711
-40.299335 -14.344693
-23.354993 30.675110
30.795694 12.618016
-18.987745 -12.423728
1.525590 -0.698410
14.521900 -4.532096
-14.534142 -0.851299
-7.070180 5.376022
3.995225 -9.218079
-1.849598 1.997392
-3.022751 10.411246
2.974997 -12.172672
-5.555027 9.863051
5.643926 2.593642
-1.249552 -3.562377
-5.104528 4.873285
3.081858 -5.631883
-6.331781 1.330461
2.258046 0.411764
-1.530002 -1.622714
-6.350723 0.193870
4.585922 1.787748
-6.346954 -2.583578
-3.374362 -3.641500
2.169538 3.138492
-7.946985 -0.656548
-1.885176 -3.027158
1.643989 0.333813
-4.886072 0.478030
-1.982424 0.173935
0.728599 -2.579583
-2.336818 2.727198
-1.570342 -0.256179
1.075117 -2.574418
-1.844216 3.363488
-1.504367 -0.496205
0.161328 -2.885985
-0.513358 3.089151
-0.520609 -0.540406
-1.914821 -2.394123
0.699320 1.567273
0.063416 -0.204046
-2.148942 -0.315096
-0.074518 0.698296
-0.920866 -0.298291
-1.027679 -0.752274
1.427582 -0.444267
0.259871 -0.523300
-1.404731 -0.388018
1.524251 -0.013492
-2.097443 -1.367825
-0.613160 -0.273809
-0.197855 -1.027834
-0.750462 -0.862080
0.712843 1.824391
-1.706414 -0.679260
0.448326 -1.105906
0.567202 0.978412
-0.456513 -1.326372
0.625099 0.254429
-0.180165 0.269512
-0.403282 -1.503186
0.239030 0.891841
-0.694182 -0.421097
0.166598 -0.786776
-0.549669 1.158689
-0.083046 -0.025499
0.034473 -0.389613
-0.119892 0.270061
-0.263976 -0.298969
0.022564 -0.451554
0.978057 0.625417
0.067374 0.538727
-0.442239 -0.150381
0.901725 -0.128270
0.336882 0.310239
-0.182555 -0.062660
1.411351 0.695223
-0.875307 0.436503
-0.071371 -1.030807
1.190856 0.855850
-0.773103 -0.264212
0.354500 0.697165
0.671287 0.807826
-0.862550 -0.206089
0.132867 -0.221554
0.624813 -0.964680
-0.528106 -0.143707
0.267325 -0.089019
0.901812 -0.582510
-0.229715 -0.309975
1.063700 -0.496450
0.278553 0.005488
-0.851150 0.014500
0.831705 -0.257493
-0.426917 0.070664
-0.243909 0.647903
1.198298 -0.646183
-0.671276 0.551457
0.294476 0.013621
0.696794 -0.878079
-0.938257 0.153081
0.655406 -0.222643
-0.464891 -0.232432
-0.849601 0.493911
0.341689 0.049454
-0.560423 -0.408638
0.484713 0.530435
-0.006492 0.090620
-0.870433 -0.228353
0.266989 0.634473
0.123858 -0.416343
-0.463521 0.572603
0.784993 0.093419
-0.843242 -0.389893
-0.543002 0.457950
0.736641 -0.436005
-0.234903 -0.401259
0.163404 1.371912
0.670654 -0.231791
-1.234625 0.039302
0.145939 0.490918
-0.334906 -0.570410
-0.172922 0.714570
0.436681 0.577374
-0.219802 0.015076
0.117428 0.557685
0.678866 -0.251916
-0.304622 -0.134097
-0.200910 0.765374
0.317205 -0.163948
-0.257489 0.258797
0.666475 0.447069
0.263421 -0.245389
-0.613120 0.330844
0.458428 0.348355
-0.071024 -0.524695
-0.420190 0.452452
0.626813 0.057645
-0.350949 -0.189487
-0.142051 0.340222
0.260230 -0.510223
-0.525510 -0.220753
0.219854 0.521403
0.391377 -0.514301
-0.669688 0.122433
0.164193 0.335031
-0.090811 -0.733284
-0.525053 0.333238
0.496192 -0.506587
-0.167790 -0.247562
0.003006 0.517411
0.462720 -0.646236
-0.671061 -0.392867
-0.159098 0.772676
0.248810 -0.465059
-0.379305 0.407621
0.497695 0.059836
-0.332237 -0.694054
-0.365642 0.795095
0.815193 0.297937
-0.182587 -0.535280
0.206230 0.789355
0.582571 -0.343814
-0.449287 0.017915
0.553033 0.371723
0.412760 -0.248828
-0.090510 0.171698
0.527775 0.730166
0.101900 -0.298575
-0.291469 0.281711
0.017605 0.393011
-0.773869 -0.136204
0.193636 0.468966
0.185604 -0.414212
-0.176831 0.029809
0.259997 0.380305
0.158753 -0.643956
-0.206651 0.479713
0.337754 0.225757
-0.369428 -0.869901
-0.373855 0.432528
0.053970 0.046110
-0.348250 -0.569739
0.112470 0.436359
0.778674 -0.265140
-0.563817 -0.104225
-0.117330 0.301065
0.039842 -0.820521
-0.478465 -0.182820
0.259581 0.145713
0.276846 -0.345485
-0.496030 0.348562
0.358496 -0.136422
-0.281006 -0.067505
-0.070014 0.140028
0.650648 -0.272845
-0.470630 -0.041184
0.009766 0.456553
-0.070270 -0.033675
-0.354531 -0.265874
0.292201 -0.225150
-0.113394 -0.598614
-0.234746 0.060451
0.282577 -0.105972
-0.063858 -0.272540
-0.034609 0.370739
0.547634 -0.286940
-0.319540 0.017799
0.082548 0.283271
0.134137 -0.421886
-0.264382 -0.163368
0.318296 -0.128651
0.200902 0.046430
0.074120 0.258552
0.337919 -0.325582
0.042882 -0.056719
0.038433 -0.014384
-0.020290 0.005109
0.321897 -0.419676
-0.489239 0.087467
0.388318 -0.114914
-0.113198 -0.551649
-0.475876 0.353706
0.173679 -0.358336
-0.113825 0.153966
-0.084194 0.186249
0.281297 -0.263919
-0.227863 -0.084506
0.081269 0.219886
-0.127974 0.115128
-0.284192 0.141054
0.328662 -0.136399
-0.139499 -0.398452
-0.230274 0.144214
-0.101736 0.022513
-0.115247 -0.002632
-0.186684 -0.003849
-0.044023 -0.225311
-0.257739 0.073601
0.244176 -0.309642
-0.231509 -0.223564
0.008644 0.007558
0.399174 0.124242
0.136425 -0.318507
-0.009864 -0.067720
0.201756 0.168567
0.654523 -0.437285
-0.419649 0.078705
-0.136626 -0.297411
-0.143061 -0.040313
0.075827 0.424940
-0.053261 -0.393978
-0.342595 -0.028543
0.169223 -0.030334
-0.225190 -0.006576
-0.338391 -0.019463
0.233233 -0.313440
0.261480 -0.302827
-0.266581 0.423185
-0.139885 0.078730
-0.387159 -0.236371
0.159221 0.219628
0.226289 0.443198
-0.311496 0.266993
-0.145024 -0.083259
0.221296 0.020674
-0.362141 0.353095
0.285954 0.393027
-0.195773 -0.087641
-0.194768 0.017977
0.159806 -0.185585
-0.094614 0.152845
-0.007799 0.000809
0.345694 -0.107715
-0.438962 -0.197805
0.038711 0.231092
0.235301 -0.087769
-0.206887 0.346249
0.473696 0.287227
0.144896 -0.422348
-0.225018 0.111163
0.086105 -0.039636
-0.100241 -0.468252
-0.148370 0.155981
0.211186 -0.302158
0.012914 -0.228744
0.319156 0.163268
0.493551 -0.253853
-0.233544 0.158843
0.115966 0.389165
-0.243567 -0.305510
-0.377056 0.643170
0.481431 -0.042012
-0.268715 -0.295520
-0.012520 0.123207
0.598159 -0.199408
-0.221024 -0.340545
-0.148122 0.513547
-0.056488 -0.301155
-0.649009 -0.010558
0.171097 0.022905
0.266695 -0.306269
0.017874 0.087255
0.364121 -0.038628
-0.152717 -0.557704
-0.206705 0.237650
0.386785 0.102796
-0.400513 -0.146609
-0.186870 0.104610
0.001809 -0.246149
-0.369931 0.158373
-0.201662 0.291227
0.173344 -0.124746
-0.097621 -0.090135
0.485118 0.335092
-0.425886 -0.056818
-0.728624 0.473369
0.437508 0.005013
-0.330433 -0.645688
-0.226803 0.315814
-0.005573 -0.268130
-0.389502 0.113054
0.003324 0.364400
0.197647 -0.377646
-0.264572 0.065291
0.085348 0.256554
0.221782 -0.293682
0.008607 0.177494
0.602844 -0.082613
-0.243801 -0.197108
-0.345043 0.375697
0.073028 0.070334
-0.211606 -0.496286
0.268506 0.281240
-0.033807 -0.257988
-0.289207 0.313133
0.465690 0.217605
0.059318 -0.417997
-0.050004 0.362065
-0.011565 0.431772
-0.298253 -0.289350
-0.080776 0.186051
0.330927 0.005193
-0.373015 -0.129875
-0.059154 0.465613
0.015527 0.047282
-0.511690 -0.060197
0.096964 0.123206
-0.076295 -0.344931
-0.228581 0.011847
0.367621 0.016135
-0.293295 -0.451938
0.108690 0.431829
0.076067 -0.226216
0.143296 -0.151648
0.366178 0.201256
0.060080 -0.428648
-0.206342 0.027048
0.277455 -0.019950
0.171299 -0.145979
0.169409 0.190639
0.124747 -0.077966
-0.148890 -0.426048
-0.178452 0.346344
-0.086753 -0.032652
0.152601 -0.394341
-0.210943 0.510878
-0.099245 -0.382354
-0.390889 -0.032791
0.166933 0.573355
0.048150 -0.022774
-0.385252 0.028974
0.528816 -0.224859
-0.102103 -0.310010
-0.292135 -0.176478
-0.016011 0.202254
-0.478070 0.109596
0.154168 -0.085759
0.076173 -0.120907
-0.228008 -0.054886
0.158718 0.135568
-0.239282 0.170239
-0.436484 0.056104
0.262458 0.157372
0.146329 -0.071818
0.284163 0.043552
0.089561 0.137508
-0.095371 -0.293244
0.171135 0.105723
0.084232 -0.242798
-0.196427 -0.111515
-0.108507 0.093308
0.328434 -0.242340
-0.030434 0.053865
0.125235 -0.500744
-0.133061 -0.267521
0.004789 0.046260
0.160907 0.180741
-0.210042 -0.280056
0.099880 0.077077
0.136496 0.266332
0.430171 -0.118012
0.049345 -0.100613
0.088849 -0.095518
-0.026361 -0.205381
-0.195170 0.107293
0.252534 -0.309145
-0.371115 -0.320320
-0.271043 0.010904
0.056928 -0.066038
-0.242658 0.024085
-0.220870 -0.067596
0.011214 0.128326
-0.111729 0.334409
-0.078531 -0.026314
0.133160 -0.001403
-0.010803 -0.023620
0.145681 -0.084378
-0.278817 -0.074210
-0.273309 0.060188
0.207046 0.105965
-0.274660 0.079151
0.143183 0.099386
0.056802 -0.296802
-0.413940 0.118317
-0.100428 0.306327
-0.184578 -0.087001
-0.140739 0.305657
0.294182 -0.242674
-0.085350 -0.152321
-0.026566 0.209014
-0.268427 -0.177809
-0.325707 0.115196
0.180059 0.310214
0.169774 -0.289447
0.041243 -0.161898
-0.004300 0.266680
-0.053793 -0.345636
0.002745 0.079399
0.259487 0.111831
-0.067899 -0.233112
-0.433615 0.321372
0.085495 -0.042856
0.034789 0.089772
-0.116201 0.520079
0.242646 -0.099677
-0.296793 0.082719
0.108080 0.355309
-0.327705 0.065005
-0.261993 0.224576
0.213208 -0.017875
-0.123597 -0.168871
-0.179879 0.361803
0.379913 -0.505475
-0.380698 -0.212084
-0.353632 0.051609
0.258890 -0.464611
-0.050738 0.393346
0.059182 0.159028
-0.013883 -0.382951
-0.220423 -0.040313
0.593082 -0.014931
0.340972 -0.297427
-0.169864 0.318257
-0.016289 -0.083553
-0.281515 0.022646
-0.191282 0.184415
0.423519 -0.231789
-0.108206 -0.224939
0.060535 0.246162
0.050528 -0.275547
0.175969 0.520425
0.203677 0.321735
-0.669771 -0.263239
-0.117724 0.302905
0.380496 0.356939
-0.063422 -0.020863
0.068917 0.275935
0.030923 0.010042
-0.434674 0.137948
-0.116481 0.499662
-0.103484 -0.318942
-0.079125 -0.358862
0.422615 -0.070729
0.121189 0.065758
-0.244837 0.600255
-0.010461 0.009802
-0.160865 -0.208833
-0.395762 0.009928
0.091368 -0.153185
0.000158 0.375678
0.443582 0.104773
0.063514 0.117413
-0.069199 -0.138813
0.228304 -0.257593
-0.273479 0.047610
-0.544865 -0.024796
0.271260 0.320444
-0.453269 -0.137141
-0.473732 0.585448
-0.059032 -0.084514
-0.261554 -0.283304
0.359345 0.247719
0.043829 0.057618
-0.089070 0.158283
-0.140405 0.459400
-0.427616 -0.602559
-0.004872 -0.093225
0.284541 -0.624456
0.195822 -0.186143
-0.082861 0.477816
0.248098 -0.005018
-0.196264 0.219423
-0.005369 0.341209
0.037050 -0.114128
-0.248373 0.025143
0.362925 -0.026443
-0.139979 -0.290680
-0.177871 0.031621
0.133497 0.023578
-0.141302 -0.246274
0.112487 0.049641
0.257251 -0.340160
-0.423939 0.096215
-0.046013 0.263324
-0.039586 0.211363
-0.274606 -0.111637
0.535690 0.159025
-0.081855 0.011949
-0.494192 0.046360
0.400603 -0.286282
0.044133 -0.162531
0.146202 0.003042
-0.213052 -0.101331
-0.016247 -0.163142
-0.008123 0.268152
0.445243 0.024425
-0.227595 -0.272235
0.446933 0.362970
0.248996 0.049598
-0.220361 0.135256
0.354332 -0.005377
0.286633 0.025120
0.330032 0.409651
-0.062996 -0.231986
-0.549354 -0.596797
-0.189636 -0.018159
0.585952 -0.039640
-0.118181 0.099006
-0.460938 0.412809
-0.180399 -0.262850
0.114251 -0.259371
0.272307 0.571849
0.104634 -0.025142
0.059092 0.173013
0.063850 0.257337
-0.248674 0.109504
-0.138368 0.294165
-0.202204 -0.016613
-0.291151 0.086728
-0.074222 0.281056
0.006196 0.464225
-0.191861 -0.088341
-0.389238 0.119134
0.350827 -0.068206
-0.353367 -0.398804
0.098423 0.470675
-0.058304 0.025589
-0.086429 0.236464
0.441391 -0.422660
-0.410682 -0.459214
0.129600 0.133065
0.340732 -0.040548
-0.104469 0.064461
0.010316 0.162955
-0.100217 -0.182506
-0.002446 -0.321932
0.670450 -0.075009
-0.204254 0.101235
0.153807 -0.146923
0.152705 -0.299106
0.139278 -0.655868
-0.020804 -0.226615
0.128712 0.112128
-0.030105 -0.296433
-0.009127 0.048848
0.257991 0.107657
0.204641 -0.019560
-0.195159 0.053203
0.212046 0.123198
0.018731 -0.364035
0.447636 -0.239944
0.655615 0.063144
-0.086860 0.198308
0.317013 0.098166
-0.030657 -0.396352
-0.358241 -0.283207
0.317345 0.067450
-0.352115 0.327613
-0.230751 0.252290
0.060721 -0.352266
-0.186946 -0.297144
0.350070 0.000000
0.284387 -0.144411
0.109012 0.413632
-0.051597 0.422355
-0.590471 -0.484996
0.024565 0.081404
0.517927 0.085509
-0.043811 0.083132
-0.199144 0.746552
-0.126286 -0.017305
-0.768129 -0.321828
0.148073 0.462174
0.045045 -0.328008
-0.117089 0.358891
0.094566 0.798595
-0.506567 -0.269716
-0.863315 0.176713
0.167870 0.067778
-0.092420 -0.139805
0.215169 0.446021
0.148386 0.204489
-0.496235 0.000297
-0.392390 0.442121
-0.026643 -0.167802
-0.513170 0.019916
-0.080505 0.026936
-0.159992 -0.585184
-0.165577 0.280622
0.490156 -0.167575
0.332643 -0.095747
-0.054538 0.447653
0.261958 -0.195292
-0.637883 -0.344255
0.243753 0.367653
0.253720 -0.532436
-0.633855 0.622792
0.555389 0.759866
0.446344 -0.512467
-0.524591 0.187501
0.056599 0.234885
-0.055327 -0.571605
0.098470 0.674835
0.749842 -0.246606
-0.332917 -0.169137
-0.175803 0.320673
0.356731 -0.018276
-0.466732 -0.112938
0.228987 -0.011915
-0.135094 -0.406285
-0.253326 0.566337
-0.004131 0.193775
-0.731409 -0.358103
-0.121982 0.586721
0.197960 -0.155256
0.141570 -0.611405
0.302565 0.914918
-0.324010 0.059759
-0.699442 -0.234300
0.160434 0.551606
-0.172720 -0.594067
0.043000 -0.010624
0.514517 0.444690
-0.069045 -0.106704
-0.313916 -0.170766
0.066835 0.307945
-0.031479 0.121984
0.147912 0.218438
0.522970 -0.227620
-0.048740 0.111888
0.171898 0.525970
0.330894 -0.207444
-0.293873 0.106330
0.658742 0.446223
0.291290 -0.559158
-0.519263 -0.065637
0.912576 0.183403
-0.641485 -0.551741
0.106104 0.094759
0.781073 -0.068963
-0.070279 -0.362896
0.231937 -0.098044
0.345359 -0.122657
-1.463901 -0.351747
-0.043569 -0.064837
-0.171334 -0.487221
-0.378583 0.734271
0.497406 0.068786
-0.257842 -0.485673
-0.577971 -0.098132
0.322651 -0.570378
-0.360453 -0.126228
-0.541000 0.530338
-0.128784 -0.311140
-0.794295 -0.294183
0.142871 0.099625
0.161837 -0.167533
-0.722833 0.017794
0.274117 0.171362
-0.468350 -0.328871
-0.317335 0.346461
0.031260 -0.083574
-0.278060 -0.290339
0.571094 0.550587
-0.161161 -0.072103
0.152214 -0.680247
0.635480 0.984408
-0.396750 0.263399
-0.098897 -0.341467
1.020405 0.905605
-0.549577 0.565789
-0.947373 -0.680520
0.174762 0.128691
-0.426109 -0.233776
0.156910 0.072146
0.326994 -0.154502
0.233632 -0.633820
-0.220945 -0.228123
0.900081 -0.182074
-0.308500 -0.326009
0.064051 -0.367204
1.068338 -0.250932
-0.529493 -0.500628
0.840233 -0.400891
-0.468313 0.133068
-0.104036 -0.932279
1.387849 0.969724
-0.280237 -0.169592
0.195801 -0.355456
0.249615 0.518591
0.119325 -1.300428
-0.223754 0.048470
1.004785 -0.762723
-0.195088 -0.199848
-1.161632 -0.224368
1.312193 -1.190288
-0.410918 1.084971
0.051254 0.305683
0.401427 -1.359702
0.856038 0.699055
0.016407 0.479740
0.756017 -1.508182
-0.200497 0.671229
0.778580 0.037774
0.313325 -0.429064
-0.798268 0.588520
1.351310 -1.537098
-1.069826 0.822650
1.718061 -0.220074
0.949395 -0.417123
-1.243263 1.317401
1.054985 -1.639850
1.257644 -0.013522
-1.361013 0.702698
1.497827 -1.589982
-0.695984 0.104303
-1.071242 0.656969
2.181123 -1.312659
-0.552568 0.628291
0.533787 1.514693
0.292247 -1.971102
0.572145 1.058097
0.225936 0.589328
-1.177590 -0.947714
-0.007065 1.210276
1.531494 1.102967
-1.343447 0.817403
0.451673 1.878594
2.233568 1.430690
-3.057985 -1.300961
0.939951 3.047401
-2.488685 0.205174
0.604157 -0.115532
-1.996500 6.468003
-4.269282 -5.387095
3.019377 2.760558
-2.040896 2.373333
-1.148559 -0.123026
-5.709207 -0.001522
3.912192 -0.984868
-6.767480 7.308524
-9.166101 -0.349053
7.724936 0.579439
-10.231843 6.578610
6.617799 0.509729
2.401319 0.438478
-8.357018 5.260429
-0.909310 -8.439889
-11.820817 7.676400
-3.449886 7.386394
1.246877 10.400165
-13.794093 9.278809
7.509176 -3.382107
-0.858531 16.900997
-14.147320 -16.599245
-24.185653 19.941838
-43.159638 -48.475288
24.899078 14.930481
-40.927553 45.721713
-56.109459 -15.854906
93.499572 -51.549716
61.238440 -118.647956
-0.429684 243.310191
-155.495160 -735.790218
-357.420036 -366.798221
