6568.939640 7729.046053
-702.905827 3276.549559
-363.160021 326.469530
-247.564759 -225.851085
94.471778 -221.943422
-256.889257 -96.525431
7.609083 21.909718
-9.664882 -6.401755
-17.144563 3.368166
8.204358 -49.594421
-5.608200 -22.005944
23.436028 5.029210
-24.543273 35.208384
55.274025 26.154496
11.642068 14.236323
20.480170 -0.343612
19.019123 -3.099338
6.452200 10.804049
8.071194 7.554113
-5.514061 5.602309
16.959354 -8.766804
-20.402350 -6.271521
-0.686604 -15.629379
-13.897818 6.134676
-17.215120 -5.576821
-10.123083 5.667228
-11.534574 2.627499
-3.439247 3.076900
-0.339399 3.609928
0.691000 8.244022
2.698018 -5.830771
-2.991566 1.846408
-2.700177 -5.155609
-5.013040 0.750693
0.440800 2.397677
-6.278323 4.427780
1.582165 -1.726803
-4.484730 -1.318709
-5.501398 -0.629971
-2.309611 -2.106113
-2.469320 4.130394
-2.718686 -0.940786
0.036241 -0.192175
-0.789898 -2.467500
-1.035620 -2.358411
-0.074474 0.256582
1.563824 -1.034677
-0.170243 0.339745
1.601713 -1.116595
0.804115 -0.538110
2.860562 -0.125279
0.654979 1.029652
2.452015 -0.304194
0.855009 -0.028074
-1.161691 -1.603173
2.601015 -0.173297
-1.632923 -0.761548
1.746325 -1.242842
-2.424803 -0.557088
-1.339272 -1.692535
-2.487483 -1.141914
-1.735895 2.323423
-0.062283 0.654118
0.665276 2.066985
0.555132 0.407377
-0.206643 0.020229
0.860928 -0.786203
-0.297926 1.365179
-0.313078 0.272823
0.939048 0.406542
-1.762231 0.799243
-0.888717 -0.531521
-0.528634 0.425574
-1.632117 0.902780
-0.709478 -0.335754
-1.368430 1.640002
-1.404217 -1.238320
-0.755738 1.240020
-0.166695 -0.318619
0.232907 0.062412
-0.090747 -0.321973
-0.582493 -0.542917
0.036883 -0.409875
-0.178984 -0.338166
0.475523 0.255815
0.867269 -0.368401
-0.236114 -0.295757
0.264303 -0.609378
-0.747649 -0.038557
0.406570 -0.711127
0.291055 0.273544
-0.078060 -0.856337
0.158484 -1.180354
-1.067651 -0.563384
-0.682826 -0.725403
-0.446407 -0.164225
-0.437367 0.137809
-0.218753 0.456519
-0.366466 0.111743
0.629682 0.045259
-0.056264 0.741174
1.314476 -0.394975
0.155294 0.392738
0.093711 0.261570
0.056045 -0.393543
0.191797 0.914708
-0.171580 -0.527699
0.554731 0.587548
-1.017838 -0.094465
-0.390515 0.080089
-0.803130 0.837929
-0.362077 -0.036836
0.264560 0.632835
-0.004099 0.088869
0.004659 0.090632
-0.455485 -0.180363
-0.189546 0.000024
-0.226131 0.291750
0.195755 -0.434516
0.170045 0.311521
-0.441007 -0.146592
-0.098488 -0.009368
-0.103581 -0.290130
-0.294938 0.263083
0.146919 -0.130196
-0.388186 0.116351
-0.212105 0.234119
0.078638 -0.405260
-0.077820 -0.205759
0.057195 -0.850354
-0.452278 0.094561
-0.371568 -0.719510
-0.190775 0.393630
-0.201742 -0.332864
0.678623 -0.504944
-0.075411 -0.181463
0.153510 -0.617798
0.095869 0.341076
-0.263832 -0.334840
0.548282 -0.179951
-0.031588 0.334151
-0.020016 -0.882804
-0.148035 0.585217
-0.711352 -0.079673
-0.238271 0.196335
0.022200 0.214430
-0.119629 0.345611
0.036659 0.346431
-0.269285 0.385195
0.291160 0.317742
0.297669 0.041157
0.404849 -0.179612
0.294998 0.014813
-0.098862 -0.031089
0.036679 -0.010249
-0.030429 -0.071783
0.114512 -0.098416
0.085298 -0.204113
-0.359980 0.237889
-0.079248 0.332319
-0.541524 0.397487
-0.010758 -0.202564
0.031523 0.031359
-0.241786 -0.299720
-0.108020 -0.216476
-0.494054 0.168919
-0.155470 -0.457002
-0.294172 0.059548
-0.046142 -0.444905
0.186524 0.110991
-0.456536 0.225022
-0.180539 -0.519919
0.336833 0.344366
-0.198554 -0.552670
0.248833 0.047637
-0.355977 0.021755
-0.031278 -0.022636
-0.166994 0.000746
-0.167585 -0.252903
0.153554 0.029794
-0.372994 -0.011247
0.142754 0.246011
-0.003877 0.349294
0.044473 -0.159545
0.396374 -0.053532
0.056359 -0.088267
0.266971 0.242233
-0.094368 0.067225
0.257729 0.025835
0.486644 -0.190621
0.149151 -0.133103
0.425523 -0.249165
0.048353 0.423732
-0.531280 -0.022183
-0.232882 -0.625642
0.575597 0.119893
0.163446 0.543566
-0.665277 0.496124
-0.257509 -0.608087
0.587102 -0.247543
0.320532 0.350296
-0.426047 -0.220757
-0.112714 -0.047911
-0.105322 -0.180332
0.115712 0.245489
-0.411469 0.106690
-0.139357 -0.471447
-0.184624 -0.059893
-0.465872 -0.230566
0.414378 -0.149359
-0.087427 0.161864
-0.042645 0.042178
-0.015676 -0.174736
-0.299016 -0.160016
-0.123184 -0.018445
-0.202518 0.055869
0.256132 -0.107769
-0.681307 0.150549
0.265916 0.123594
-0.055525 -0.677335
-0.317349 0.442356
0.880930 -0.081389
-0.759037 -0.369393
0.129871 0.321978
0.786949 -0.486965
-0.515725 0.024618
0.609416 0.004997
0.175111 -0.070956
-0.212845 -0.399092
0.097615 -0.066742
-0.364939 0.229676
0.009404 -0.249803
0.196453 0.460520
0.166821 0.017077
0.272372 -0.057415
0.027328 -0.076321
0.360123 -0.088428
0.079619 -0.075648
0.219258 -0.370339
0.153922 0.036647
-0.296591 -0.128902
-0.166098 -0.586354
-0.036299 0.186490
-0.231352 -0.199936
-0.201762 -0.181764
-0.364296 0.190506
-0.675893 -0.360088
-0.204121 -0.477274
-0.057035 -0.445915
0.266386 -0.151238
0.212186 -0.000813
0.335343 0.603417
-0.509120 0.982180
-0.865327 0.077438
-0.244089 0.294030
-0.563378 -0.489648
0.156679 -0.746546
-0.312530 -0.236409
-0.169049 0.051190
0.159816 0.054710
-0.057575 -0.112689
0.368107 -0.468417
0.036000 -0.234401
-0.174960 -0.534087
-0.472099 0.333437
-0.185791 0.203426
-0.207222 0.288479
0.057864 0.118995
-0.089788 -0.013886
0.065196 -0.053205
-0.589212 0.193143
0.135463 0.214831
-0.172641 0.342985
0.230524 -0.409772
0.123566 0.041554
-0.088703 -0.341141
-0.392448 -0.260361
-0.127911 0.373696
0.067788 0.214247
0.596387 0.122367
-0.350733 -0.077765
0.391051 0.315394
-0.126283 0.161103
0.140784 -0.057904
-0.248603 0.155910
-0.182064 0.361884
0.010248 0.132279
0.045119 0.377071
-0.111081 -0.239438
0.114576 0.270809
-0.358016 -0.143807
0.300238 -0.043137
-0.068085 -0.149307
0.089340 -0.226377
0.116983 -0.140579
-0.152712 -0.037101
-0.021450 -0.039744
-0.043911 0.331937
0.021253 -0.213699
-0.225634 -0.035587
-0.112936 -0.123354
0.074700 -0.031079
-0.172631 0.086315
0.087521 0.080574
0.306006 -0.110954
-0.453214 -0.447265
-0.400783 0.041146
-0.124151 0.585965
0.705674 -0.326645
-0.195916 -0.665025
-0.762192 0.144143
0.188011 0.394901
0.456820 0.140769
0.171582 -0.843967
-0.347941 0.202908
0.282190 -0.090149
-0.102886 0.278106
0.083621 -0.157354
-0.253220 0.011822
0.233526 0.193722
-0.326306 -0.285109
0.191969 0.608393
-0.026679 -0.056085
0.198169 -0.123729
-0.164567 0.162818
-0.050179 0.048658
0.141175 -0.225225
-0.334089 0.458815
0.295433 -0.269593
-0.059996 0.037457
-0.074486 -0.071467
0.060359 -0.257050
0.136814 0.160261
-0.399204 -0.276961
-0.027357 0.209657
0.020971 -0.000711
-0.272556 -0.080115
0.112860 0.063901
-0.254722 0.319572
0.142374 0.139296
-0.110208 -0.016829
-0.112013 -0.062787
-0.207154 0.134399
0.096924 -0.050787
-0.202352 0.000945
-0.146494 -0.364491
0.224967 -0.127213
-0.378246 0.036815
0.200731 -0.159012
0.081545 0.224956
-0.212258 -0.166731
0.321335 -0.191893
-0.248101 0.087954
0.049000 -0.291009
-0.061238 0.223981
-0.194843 0.138569
-0.156715 0.114323
-0.030971 0.247739
0.119926 0.143718
0.260899 0.203741
0.195642 0.035900
0.010953 0.051233
0.075133 -0.079941
0.102906 -0.230455
0.127230 -0.063297
0.302235 -0.264188
0.142720 0.117915
0.055119 -0.376604
-0.002634 -0.425631
-0.090830 0.074402
-0.396126 0.067069
-0.005342 0.168076
-0.328040 0.261616
0.029703 0.133736
0.136537 0.345051
-0.003510 -0.130591
0.290907 0.060516
-0.267993 -0.159425
-0.010216 -0.210604
-0.332667 0.025305
-0.148072 -0.125337
0.230343 0.026958
-0.227198 -0.026366
0.019056 -0.106400
-0.241249 -0.046531
-0.185204 -0.084515
-0.109290 0.197615
-0.009718 0.183586
-0.063522 0.189838
0.067318 0.193033
0.059225 0.018022
0.539716 -0.500135
0.268962 0.365327
-0.357280 -0.253313
-0.280687 -0.134671
-0.035479 -0.652937
0.117913 0.634107
-0.220099 -0.136042
0.133621 0.056594
-0.028300 -0.651289
0.110147 0.123163
-0.403612 -0.253639
-0.037938 0.300049
0.028699 0.005143
0.328815 0.265056
-0.074576 -0.197343
0.463517 0.002448
-0.505329 0.034239
0.205555 -0.248887
-0.199952 0.175551
0.164114 -0.149016
-0.032803 0.160999
-0.007226 0.052719
-0.141019 0.184613
-0.161142 0.143127
-0.209389 -0.064757
0.214957 0.014269
-0.089953 0.270523
-0.116820 -0.236692
0.001167 0.022243
-0.044116 -0.240287
0.136439 0.319954
-0.140355 0.098571
0.009794 -0.067644
0.031427 0.152688
0.279784 0.063392
-0.016417 0.106912
-0.029826 -0.008279
0.023726 -0.033182
-0.142198 0.147007
-0.022896 -0.080743
0.068399 0.055788
-0.153358 -0.118941
0.075557 -0.155605
-0.038142 -0.201546
-0.029553 -0.257730
0.067961 -0.079406
-0.125349 0.048954
0.038159 -0.360846
0.025939 0.379880
0.169121 -0.270335
-0.025220 -0.256865
0.043812 0.280457
0.227162 -0.319214
-0.317203 0.256898
0.236446 0.292217
0.181062 -0.371696
-0.097932 0.086788
0.363511 -0.240081
-0.210808 -0.119505
-0.348879 -0.387769
-0.276480 -0.117567
-0.397891 0.009509
-0.086315 -0.129049
0.060248 0.222711
0.463617 0.014807
0.336096 0.297461
0.193004 0.026882
0.109509 -0.025250
-0.329562 0.041039
-0.349050 -0.352892
-0.089417 0.157275
-0.095859 -0.090965
-0.002394 0.181719
-0.153762 0.190499
0.092992 -0.207783
-0.052607 0.234934
-0.132221 -0.224890
0.193111 -0.211830
-0.193767 0.157345
-0.356644 -0.257918
0.087344 0.094405
-0.285014 0.093594
-0.033751 -0.001154
0.174885 -0.077009
0.068440 0.267193
-0.119336 -0.051149
0.157920 -0.394062
0.269659 -0.161701
-0.357877 -0.126348
-0.077687 -0.288595
0.036370 0.145952
-0.735079 0.199110
-0.022847 -0.258717
0.130408 0.353468
-0.242062 -0.036578
0.024564 -0.012320
0.051294 0.033167
-0.038104 -0.085147
-0.008863 -0.033852
0.295603 -0.334962
0.134114 0.337946
-0.231926 -0.376015
0.480903 0.095907
-0.183482 0.053159
0.153513 -0.371626
0.181364 0.248351
-0.155834 0.045406
-0.138662 0.327048
-0.531247 -0.007662
-0.046744 -0.223117
-0.304146 -0.307009
-0.044572 -0.432331
0.286963 0.091306
-0.113779 0.021263
0.124568 0.164652
-0.378916 0.305076
-0.304257 0.085980
-0.166255 0.285042
-0.180461 0.032041
0.090441 0.154492
-0.020784 0.072256
0.017098 0.004225
-0.144775 -0.036128
-0.276011 -0.115652
0.079184 0.031495
-0.255442 0.133873
0.036413 0.034297
-0.243500 0.290069
-0.022025 0.061059
-0.005026 0.107770
0.050729 0.143738
0.041711 -0.062295
0.092043 -0.044846
-0.095216 0.250769
0.124578 -0.048097
0.097135 0.020094
0.096277 -0.100791
-0.015216 -0.288282
-0.066922 0.017065
-0.304007 0.037500
0.309941 0.152060
0.222757 -0.007981
0.232445 -0.195708
0.026247 -0.113826
0.072708 0.008394
-0.166927 -0.027125
0.059293 0.008015
0.213533 0.145862
0.139503 -0.090793
-0.228481 -0.180535
0.035662 0.110744
-0.414780 -0.157117
0.021589 0.384902
0.072695 0.060714
-0.115536 -0.236651
0.159772 0.126429
0.049348 -0.204500
-0.021372 0.033935
0.263746 0.260814
-0.043119 -0.098134
-0.007315 0.188844
-0.251005 -0.059335
-0.080525 0.130766
-0.157920 -0.131197
0.048560 0.296876
-0.119091 0.034174
-0.229431 0.066396
0.046053 0.152622
-0.145584 0.004936
0.183213 -0.350860
-0.222118 0.234981
0.028930 -0.027523
-0.075798 -0.099753
-0.008302 -0.116615
0.042185 -0.338205
0.045239 0.266888
0.025937 -0.350330
0.008293 -0.043321
-0.062338 -0.026113
-0.000432 0.003301
-0.013856 -0.031909
-0.169938 -0.038686
0.051310 -0.010363
-0.205964 -0.093089
-0.015929 -0.002941
-0.020780 -0.040712
0.069897 -0.080369
-0.021288 -0.065433
-0.076021 0.103336
0.040558 -0.205892
0.102642 -0.040394
0.010564 -0.053105
0.146933 0.024734
-0.003431 0.010037
-0.023947 0.288321
0.319860 0.159539
0.295627 -0.357548
-0.067998 0.198802
-0.324481 0.536671
0.150648 0.156846
0.101119 -0.112055
-0.154897 0.265229
-0.219645 0.902354
-0.103074 0.398200
0.088031 0.000112
-0.059233 0.185105
-0.334492 0.078889
-0.132093 -0.127234
-0.205592 -0.129718
-0.095305 -0.261263
-0.125023 -0.370025
-0.221153 -0.300628
-0.113859 -0.374914
-0.172631 -0.258946
0.120730 -0.393305
0.106351 -0.286333
0.074528 -0.290956
0.142475 -0.065786
0.112459 -0.149557
0.293133 -0.044320
0.178260 -0.006934
0.398694 -0.157901
0.214123 0.318103
-0.370924 0.394387
0.209327 0.252092
0.354766 0.046881
-0.016422 -0.024347
-0.523221 0.443663
-0.108294 0.334037
0.331965 -0.166440
-0.044824 0.018447
-0.412370 0.202106
-0.066263 0.167407
0.023201 -0.005753
-0.078162 -0.191110
-0.068578 -0.030462
-0.031018 -0.077400
-0.055654 -0.106614
-0.174685 0.137790
0.154659 -0.281526
0.010961 0.026974
-0.100625 -0.146404
0.029909 0.065590
0.022947 -0.060124
-0.066856 -0.073498
0.162185 0.082623
-0.091484 -0.180143
0.031750 0.084090
-0.182307 -0.098567
-0.011528 0.127006
-0.261696 -0.177971
-0.224234 -0.037636
0.166795 -0.061251
-0.113411 -0.030040
-0.121155 -0.042672
-0.116115 0.271467
0.307001 -0.262067
-0.018793 -0.029475
-0.039502 0.011960
-0.006752 -0.148637
0.037303 0.222185
-0.062874 -0.151082
-0.041118 0.080381
-0.095837 0.097214
-0.055167 0.249898
0.152041 0.181898
0.145239 0.002622
0.146083 0.196819
-0.078911 -0.199684
-0.223516 0.025874
-0.223009 0.105001
0.040901 -0.176659
0.054056 0.086887
0.123837 0.033421
0.275525 -0.405976
-0.253601 0.374705
0.187010 -0.150576
-0.118154 0.155455
0.016541 0.154558
0.298257 -0.130741
0.021294 0.041131
-0.174115 -0.085198
-0.098507 -0.035417
0.010485 0.101496
0.074166 -0.045050
-0.075099 -0.142239
0.029326 -0.161278
-0.368853 0.012471
0.104917 -0.161306
-0.170310 0.121524
0.150711 0.089450
0.014995 -0.006524
0.184894 0.033624
-0.159097 -0.261416
0.017964 0.045894
-0.041477 -0.003006
-0.121308 -0.053667
0.099983 -0.017930
0.086278 0.010230
-0.159989 -0.159110
0.098162 0.087392
-0.199543 0.025553
0.189704 -0.191104
-0.132008 0.015831
0.010988 -0.258112
-0.015732 -0.149931
-0.219092 0.081244
0.048041 -0.028249
-0.124281 0.137777
0.102373 -0.262066
0.151256 0.324913
0.156438 -0.092637
0.124785 0.105089
-0.586190 0.009709
-0.150607 -0.352655
-0.390732 -0.244005
-0.130613 -0.534363
0.257888 0.059206
0.121017 0.039724
0.159606 0.202193
-0.183809 0.225965
-0.135868 -0.163826
-0.320270 0.339407
-0.489693 -0.159078
0.223114 0.111221
-0.310883 0.368892
-0.289924 -0.205157
0.195833 0.154389
-0.336109 0.020683
0.044465 -0.104800
0.023034 0.069998
-0.031326 0.091447
-0.246775 0.086854
0.035200 0.081603
0.396709 0.317493
-0.293207 0.248434
0.460342 -0.257861
0.103895 0.389908
-0.297971 -0.142121
0.136810 -0.241485
0.026167 0.107142
-0.331404 -0.030338
0.051709 -0.069212
0.163428 0.141655
-0.060253 0.161095
-0.080094 -0.194706
0.469236 -0.130671
-0.110498 -0.172408
-0.122581 -0.437011
-0.110763 -0.068500
-0.385059 0.005123
-0.321232 -0.222242
-0.031352 0.346269
-0.159554 0.115628
-0.102178 0.170814
0.016503 0.339939
0.228913 -0.144687
0.227001 0.115199
0.032270 -0.271009
0.255479 0.028071
-0.358431 0.227802
-0.447203 0.063161
-0.306556 0.315135
-0.362710 -0.218225
-0.002045 0.064525
0.033185 0.019802
0.451906 -0.029335
0.039199 0.159019
-0.235647 -0.118699
0.224520 0.146887
-0.277876 -0.049735
0.007307 0.588455
0.260509 0.196945
-0.132272 0.147402
0.422214 0.330759
0.049278 -0.351494
-0.144865 0.007412
0.058304 0.210100
-0.113630 -0.414705
0.075065 0.355652
-0.089313 -0.178524
0.023940 -0.209923
-0.046978 0.042779
-0.086968 -0.107517
0.067407 -0.063737
-0.155722 0.009912
0.149259 0.006223
0.179226 0.202495
0.052099 0.066154
0.272158 0.046616
0.045167 -0.116167
-0.304945 -0.253697
0.010939 -0.003569
-0.224839 0.118775
-0.066862 0.156523
-0.242656 0.069390
0.089075 -0.293546
0.026228 0.217400
0.023608 -0.135524
-0.151224 0.147692
-0.032751 -0.279861
0.348894 -0.011935
-0.063908 0.007494
-0.053712 -0.007260
-0.071777 0.138219
0.082797 0.222222
0.010694 0.107211
0.101490 0.099682
-0.127112 -0.205081
0.238444 0.040879
-0.448404 0.005869
0.537642 -0.055902
-0.275211 0.389825
0.180717 -0.255493
-0.108150 0.212243
0.153646 -0.340679
-0.208826 -0.045458
0.308730 -0.370820
-0.283127 0.018340
-0.177063 -0.105693
-0.623364 0.063314
0.181702 -0.339172
0.231673 0.633493
-0.212483 0.298846
0.043725 0.181526
0.226648 -0.511157
0.355035 0.112379
-0.409261 -0.076470
-0.242918 0.032172
-0.136079 -0.162562
-0.040343 0.261564
0.113905 -0.183400
0.051641 0.153080
-0.270574 -0.247021
-0.251964 -0.030593
-0.533316 0.063430
0.002912 0.189834
-0.034101 0.524629
0.262666 0.175051
0.375102 0.119960
0.166269 -0.097438
0.252679 -0.159834
0.054916 0.009377
0.067890 -0.132597
0.084270 0.132793
0.012200 -0.058135
0.025942 -0.019800
0.006790 -0.012315
-0.018719 -0.222599
0.100821 -0.044691
-0.596510 0.092921
-0.258356 -0.181539
0.053146 0.303673
0.011965 -0.188086
0.247220 0.094741
-0.090961 -0.073061
0.204408 -0.093036
-0.223449 0.033925
0.137473 -0.018868
-0.065311 0.200982
0.067818 -0.047133
0.073917 0.046013
-0.264868 -0.036005
0.083926 -0.060126
-0.194537 0.321305
-0.186856 -0.062854
0.112231 0.103098
-0.184814 0.199264
-0.003613 -0.181439
0.223705 0.248752
-0.180110 -0.104596
0.219941 -0.299967
0.015429 0.071367
-0.293646 -0.379993
0.326272 0.067665
-0.026372 -0.077340
0.142244 0.027312
-0.019923 -0.019958
-0.415913 -0.043353
-0.015584 0.313069
0.162717 -0.020290
-0.044515 0.038655
-0.156449 -0.079015
0.070589 0.130377
0.032152 -0.145436
-0.295393 -0.147003
0.337713 0.063973
-0.356604 -0.031125
0.192321 -0.308389
-0.273396 0.105335
0.086060 -0.051947
-0.087992 -0.131438
0.110212 0.461138
-0.026736 -0.485776
0.024707 0.356329
-0.059905 -0.250120
-0.307963 0.139684
0.287326 0.055366
-0.357536 -0.096287
0.008824 0.159596
-0.244478 0.213827
0.013302 0.125970
-0.118037 0.286465
0.420585 0.180051
-0.031790 -0.571413
-0.729168 -0.095889
0.077661 0.443230
0.419270 0.395940
0.365613 -0.915223
-0.655897 0.185373
-0.158394 0.293695
0.621940 0.108359
0.092705 -0.356090
-0.431140 -0.230276
0.085485 0.566372
-0.345261 0.028772
0.330310 0.006054
-0.038882 0.127301
0.138680 -0.334321
0.013045 0.169644
-0.123716 -0.019823
0.188576 0.173864
-0.101260 -0.079755
-0.134133 -0.388221
-0.081412 -0.096187
-0.393749 -0.325288
0.114845 0.019881
-0.328780 0.049579
0.209908 -0.019275
0.028712 0.201258
0.111523 0.146179
0.235498 0.147582
0.225108 0.054914
0.182118 -0.360896
-0.196556 -0.201740
-0.602496 0.195972
0.097294 0.328704
-0.126321 0.237799
0.051393 -0.321741
-0.250885 0.116851
-0.033234 -0.144023
-0.011029 0.055536
-0.163051 -0.033022
0.201041 -0.108363
0.496754 0.068960
-0.091103 -0.485823
0.215446 -0.296294
-0.452133 0.072779
-0.084258 -0.071891
-0.118489 0.385775
0.155688 -0.017721
0.186988 -0.126664
-0.185621 -0.079526
-0.416445 -0.121970
-0.320086 0.374433
-0.417630 -0.235000
0.262974 0.072506
-0.406447 -0.407097
0.081050 -0.368168
-0.973925 -0.133021
-0.291369 -0.212592
-0.237688 -0.067950
-0.107349 -0.130320
0.584824 -0.080222
0.437454 0.779033
-0.304186 0.223609
-0.261495 0.909143
-0.792563 0.739276
-0.642869 -0.137181
-0.139461 -0.501965
-0.097309 -0.124485
0.425619 -0.072111
-0.082153 0.352499
0.317672 0.149365
-0.280054 0.559676
0.048646 -0.492960
0.104633 0.608478
0.065179 0.239753
0.251343 -0.107984
0.145606 0.455563
-0.256048 -0.251370
0.014453 -0.064698
-0.097522 -0.073975
-0.062328 0.425069
0.108436 0.014528
-0.155655 0.047861
-0.056818 0.209980
-0.075851 -0.002588
0.257108 0.076945
-0.000816 0.437755
-0.059105 0.301150
0.523050 -0.070356
-0.732465 -0.205606
0.826495 0.124376
-0.057617 -0.436896
-0.613615 0.207334
0.782390 -0.109011
-0.698428 -0.757752
-0.020223 0.517898
0.154693 -0.011343
-0.313891 -0.397166
0.120493 0.401514
-0.171666 -0.118846
-0.206776 0.032150
-0.240421 0.296591
0.011944 0.205847
0.184528 0.265786
-0.391553 -0.114787
0.281522 0.176141
-0.446927 -0.004559
-0.089911 -0.354311
0.331743 0.231168
-0.092827 0.088313
0.315521 -0.058838
0.025803 0.625557
-0.177917 0.183943
-0.213306 -0.042770
0.208934 -0.511988
0.626011 0.243894
-0.022684 0.650408
-0.826904 -0.265156
0.301824 -0.488639
0.583627 0.399543
0.166471 0.442558
-0.615398 0.296817
0.128901 -0.477181
0.329330 0.321588
-0.004088 0.026853
0.251686 -0.081111
-0.013791 0.064707
-0.399441 -0.434961
0.086384 -0.045309
-0.146117 -0.199359
0.276782 0.016119
-0.278018 0.122542
-0.254765 -0.220853
-0.055439 -0.130716
-0.476939 0.137161
0.094477 -0.016684
0.053273 0.410405
-0.178863 0.071503
0.210888 0.333623
-0.128734 -0.109795
0.259895 -0.106402
-0.127887 0.035433
0.002030 -0.272848
-0.130676 0.228234
-0.765700 -0.166130
0.310034 -0.150025
-0.185039 0.269589
0.220061 0.077689
0.036750 0.040023
-0.046172 -0.117778
0.147249 -0.294302
0.050684 0.361061
0.371728 -0.650042
0.193294 0.513661
-0.454110 -0.195256
0.282539 0.117284
-0.456383 0.388857
0.074533 0.021917
0.306268 0.494098
-0.304383 -0.308790
0.391077 -0.150573
-0.393469 0.098108
0.026498 -0.764092
-0.086315 0.359224
-0.434172 -0.271259
0.042947 0.001062
-0.334447 0.045548
-0.219014 0.035980
0.314027 -0.016192
-0.388745 0.122437
0.013610 0.193505
-0.575703 0.407134
-0.015526 -0.128805
-0.047711 0.923654
0.136199 0.296521
0.483386 -0.002594
-0.273263 0.072837
-0.236740 -0.450375
-0.288319 -0.134358
-0.320926 -0.187000
-0.066196 0.040223
-0.051603 -0.011479
-0.195013 -0.416623
-0.020551 0.061414
-0.296785 -0.071680
0.295879 -0.155085
-0.219391 0.509208
0.261530 -0.343962
0.107113 0.500990
-0.535858 -0.468813
0.587577 0.513141
-0.537617 0.370264
0.260270 -0.255441
0.318885 1.197555
-0.472755 -0.835378
1.006745 0.237521
-0.370086 -0.338042
0.420107 -0.269568
-0.179353 -0.364273
-0.074886 -0.195530
-0.166283 -0.167980
0.128504 -0.204262
-0.013722 -0.351203
0.008898 -0.160968
-0.726407 -0.335472
-0.264303 0.050260
-0.825032 0.861417
0.059228 0.341585
0.074876 1.053771
-0.471015 0.256060
0.689805 0.362998
-0.862720 0.330534
0.074353 -0.753494
-0.301897 0.935898
-0.619970 -0.799489
-0.447429 0.133330
-0.672219 0.532867
-0.277819 -0.697943
-0.012291 0.747298
-0.144604 -0.239576
0.452267 0.526522
-0.465625 -0.104211
0.312069 -0.211388
0.682324 0.541751
-0.585019 -0.965592
1.181883 0.017289
-1.221353 0.591728
0.308386 -0.978251
-0.397173 1.131626
0.060536 -0.828178
0.608463 -0.174130
-0.723808 -1.475379
-0.789342 -0.172667
-0.653458 -0.816250
-0.896630 -0.162424
0.311852 -0.141442
-0.112812 -0.262523
0.720724 -0.477381
-1.054266 -0.257637
0.223358 -0.321675
-0.341104 0.118887
-1.006647 0.769676
0.465601 0.773284
-0.428965 2.776504
-0.397935 0.016881
1.733073 1.691155
-0.442574 0.359899
0.602820 -1.538762
-1.232520 1.122535
-1.276762 -0.656072
-0.915478 0.498094
-1.158643 0.234186
0.099630 -0.210766
-0.653506 1.005216
-1.688442 -0.447434
0.615347 2.244688
-0.589486 1.209895
1.546956 -0.918449
1.852807 2.452129
-1.500450 -2.084056
2.125303 1.598481
-3.672353 -0.254818
2.517711 -0.185772
-1.508539 -0.890683
-0.810819 -0.996265
-1.122031 -1.317411
-3.169010 -1.530622
-2.408898 -2.772137
-2.991952 -1.591296
-0.545563 -1.928970
-3.539639 0.662793
-0.482526 -0.897727
2.229019 1.205620
-1.146541 -3.657787
1.700464 -3.274179
-0.161968 -1.456316
-5.543229 2.002252
-0.358221 -0.326579
-0.964552 10.017129
2.535933 -3.550568
2.368808 4.404822
1.004796 -0.117117
-1.107397 0.373883
-1.574950 1.250313
-2.720758 -2.486355
2.466866 -0.486588
-4.539000 -4.069808
-4.584139 2.369063
-0.139603 5.638439
-7.335911 0.389646
7.850319 5.230137
-4.188905 6.996338
14.285666 4.184752
-2.611513 18.561217
7.142013 1.272371
17.225628 8.997550
-9.898147 -8.584583
7.419531 2.128358
-9.379087 3.052144
-13.242947 2.165634
-20.524479 -13.887334
-26.655241 -39.718793
-29.304077 -25.628367
-139.074053 -37.942024
-0.228208 37.239058
-148.714326 45.415126
19.551065 -4.888868
11.419498 -48.743313
48.897025 -8.298551
-125.055561 -317.590204
-21.630355 254.901349
-591.314958 -332.484288
-135.591577 -396.473965
-3876.154837 2396.181785
