6195.837111 7525.329686
-632.823324 3448.719891
111.173606 203.252517
-480.711252 -364.057286
33.385008 -12.047876
-254.566181 55.774331
-59.742840 -0.236111
22.664077 0.069701
-32.960522 -32.164794
30.848397 38.324061
-55.205143 -18.071760
99.756735 37.455281
14.870258 13.690452
57.125469 -9.994186
22.897801 -11.678727
25.320192 -8.611521
17.946722 18.487378
2.612598 -21.271683
18.989870 4.404568
-11.220850 -14.883771
-11.230453 11.089238
-16.439808 -11.355359
-0.474080 13.063955
-17.979756 0.512531
-5.884503 -5.237188
-10.648210 0.886149
-13.214794 -0.051446
-12.009211 -2.342411
-8.723989 10.765255
-8.821563 2.041823
2.231353 12.598038
2.292841 0.987783
0.597590 5.355674
1.285099 -5.504026
-2.174906 5.729292
-3.578301 3.949314
0.116593 -0.201200
0.844861 4.258369
-2.502319 -1.555491
-5.099380 2.850020
-0.518551 -2.622219
-1.370656 6.137598
-3.383160 -3.130749
1.593584 -0.348111
-3.332599 -0.358648
1.118372 -0.360575
-1.717654 0.793233
2.991231 -0.078831
1.004789 0.598852
3.408698 1.081325
1.942006 -0.158264
3.864699 -0.630754
2.765986 0.758778
0.369717 -1.278331
2.366664 -0.034941
0.465564 -0.164372
-0.965253 -0.463212
0.381681 -0.435951
-3.892845 1.468801
0.866813 0.272864
-1.649797 2.167808
0.488481 0.181465
-1.812602 -0.183790
-0.592073 1.016807
-1.816126 2.764473
-0.935723 2.022545
2.340698 2.748157
0.300691 2.253161
1.409989 1.696816
0.815462 1.002070
1.825821 1.511203
-0.815335 2.195746
0.590325 -0.513710
0.273468 3.066381
-0.914124 0.314670
-0.185478 1.831513
-0.172517 0.827186
-1.012860 1.498461
0.620225 0.581639
-0.390509 1.227467
0.361150 -0.050799
0.319278 -0.117649
-0.369288 0.862769
-0.153963 0.061916
0.771404 1.021781
0.783147 0.937654
1.066384 -0.229199
1.088596 1.248102
0.530767 -0.362905
1.758035 1.004338
0.326131 0.080844
0.845471 -0.543029
0.103449 0.287245
-0.270556 0.366016
-0.615416 0.677518
0.509764 0.604525
-0.015770 1.102816
0.343239 0.310170
0.278797 0.683652
-0.239206 0.296945
0.682126 0.402330
-0.515737 0.762165
1.978440 1.077323
0.479516 2.174919
1.049974 1.131338
1.383822 1.083220
1.031071 1.738947
0.853078 0.681973
1.169646 1.507901
0.771916 0.810680
0.665471 0.732477
0.602974 0.703871
-0.146184 1.280864
0.181333 0.548820
1.126936 1.407065
0.020860 0.702820
0.996040 0.358828
0.146585 0.608145
0.591025 0.436994
0.511997 0.922930
0.381120 0.376121
1.221592 0.949945
0.467294 0.675347
0.820398 0.796334
0.811546 0.233715
0.802372 1.138312
0.439030 0.159145
0.965589 0.263355
0.286237 0.456095
0.158001 -0.269576
0.045464 0.853089
-0.456556 0.147684
0.745671 1.020084
0.284493 0.876809
0.610695 0.124817
0.954730 0.663321
0.331703 0.375262
0.977567 0.336163
0.884847 0.937323
0.983836 0.229573
1.089109 0.578153
0.941675 0.809835
0.362839 1.144862
1.416827 0.425782
0.965182 1.396247
0.891673 -0.085863
1.298151 0.771715
0.631660 0.732346
0.767865 0.288782
0.788738 0.668112
0.672229 0.387520
0.634843 0.817750
0.797607 0.527572
0.791528 0.636387
0.894750 0.451547
0.801680 0.609151
0.578435 0.451475
1.082837 0.785758
0.554869 0.697365
1.021642 0.548446
0.818395 0.581112
0.730751 0.716900
1.128277 0.723294
0.638976 0.748021
0.945707 0.039350
0.512005 0.587391
0.265979 0.326816
0.479737 0.369782
0.445011 0.639266
0.697358 0.391659
0.480106 0.289465
0.720082 0.654867
0.412571 0.177979
1.303005 0.506516
0.310631 0.533224
0.982770 0.185922
1.032913 0.814450
0.737696 0.531769
1.281086 0.287118
0.993602 0.581055
1.055179 0.488409
1.026472 0.337285
1.109228 0.497753
0.832261 0.186366
0.956456 0.305222
0.527718 0.353343
1.072636 0.020454
0.969673 0.662955
0.850530 0.046226
0.986195 0.130516
0.836725 0.518647
0.827600 0.245984
1.380027 0.688474
0.989275 0.372207
1.257838 0.154298
1.048442 0.528299
0.852867 0.313439
1.092167 0.287806
0.923424 0.562138
0.677709 0.470522
0.933708 0.074678
0.915031 0.360065
1.042391 0.068702
0.917229 0.478499
0.320263 0.327587
0.895343 0.220316
0.777339 0.592375
0.584132 -0.057244
0.914113 0.158557
0.547247 0.270551
0.672329 0.188451
0.869535 0.357758
0.753899 0.404883
0.735795 0.296063
0.985663 0.368912
0.777877 0.590354
1.031707 0.404519
1.144030 0.401355
0.946706 0.222066
1.127383 0.000067
0.777586 0.228938
1.082067 -0.005668
0.823387 0.281449
0.797477 -0.136613
1.061680 0.186283
0.710908 0.151857
0.986692 -0.164861
1.037220 0.029409
0.833305 0.190804
0.977459 0.058136
1.335679 0.175756
0.845098 0.169398
1.080068 -0.190672
1.167721 0.243367
0.553351 0.332395
1.144079 0.071247
1.164877 0.460347
0.956072 0.012295
1.087924 -0.042629
0.922397 0.128340
0.816046 -0.155146
0.903762 0.410867
0.538900 0.169119
0.675894 0.109437
0.731356 0.174004
0.616583 -0.121925
1.418147 -0.022284
0.874396 0.464841
0.659719 -0.172021
1.061529 0.055356
0.870688 0.388782
0.815880 0.258546
0.738184 0.212467
1.015625 0.166928
0.836015 0.534212
0.745845 0.088402
0.946174 -0.199298
0.854148 0.231506
0.391314 0.122685
0.576217 -0.116726
1.205543 0.179652
0.620324 0.127121
1.006849 -0.179496
0.839431 0.035509
0.662191 0.212600
1.067094 0.208952
1.221553 0.374980
1.126319 -0.498239
1.054023 0.077302
0.608317 -0.034714
0.841252 0.403817
1.235854 0.413149
1.179138 0.349972
1.386084 -0.265831
0.863053 0.123456
1.098310 -0.113110
1.156793 0.188651
1.091429 -0.115986
1.048537 -0.670987
1.080614 0.046463
0.377949 -0.145216
1.251073 0.170749
1.095793 0.197473
1.373492 0.146039
1.080754 -0.417708
1.025863 0.043926
0.895841 -0.367468
1.257387 0.443572
0.959682 -0.027550
1.295702 -0.066250
1.155420 0.072200
0.806537 -0.085885
1.346035 -0.264421
0.737024 0.045263
0.999153 -0.432843
0.695979 -0.041630
0.933148 -0.182733
0.762611 -0.449501
0.996997 0.039847
0.653910 -0.243036
1.016436 -0.457243
0.916540 -0.210635
0.957289 -0.188383
1.141114 -0.223764
0.908443 0.076377
0.885011 -0.243006
0.980162 0.013263
0.794062 -0.246177
1.082625 -0.085470
0.927942 -0.119343
0.788835 -0.376270
1.134918 -0.223644
0.737790 -0.141740
0.925676 -0.307546
1.020700 -0.480830
0.883695 -0.147434
0.992167 -0.475268
0.958283 -0.127295
1.113673 -0.486019
0.976912 -0.389802
1.247627 -0.195046
0.755891 -0.437465
1.423022 -0.047841
0.824371 -0.394850
1.177079 -0.030038
0.998749 -0.523316
0.671859 -0.184936
1.185536 -0.478758
0.432808 0.027170
1.077418 -0.406660
0.916183 -0.342303
0.620667 0.071734
0.761977 -0.672269
1.314384 -0.182546
0.553021 -0.388046
0.654547 -0.382635
1.200680 -0.186932
0.721327 -0.135131
1.340269 -0.274117
1.061782 -0.166295
0.987213 -0.228952
1.440443 -0.184222
0.921823 0.539510
0.571195 -0.361167
0.550001 -0.711468
1.127302 -0.970062
1.268652 -0.621809
1.080025 -0.374605
0.849185 -0.852110
0.913429 -0.477796
0.539464 -0.607643
0.831213 -0.649304
0.696310 -0.176315
0.477316 -0.517263
0.855216 -0.503160
0.906979 -0.062949
0.517990 -0.501160
1.296317 -0.528251
0.824711 -0.100184
0.596327 -0.782024
1.242901 -0.234849
0.704776 -0.142629
1.424781 -0.548790
1.196343 -0.232776
0.720395 -1.025352
1.024748 -0.051272
0.895337 -0.631967
1.124650 -0.869010
0.613377 -0.246958
0.958950 -0.957364
1.130540 -0.473976
0.499939 -0.565132
0.910698 -0.910417
0.668348 -0.250894
0.788501 -0.608542
0.953273 -0.187641
0.977423 -0.718389
0.934618 -0.494747
0.574435 -0.656079
0.871495 -0.456140
0.662977 -0.150112
1.002999 -0.544477
0.976796 -0.293476
0.720841 -0.687346
0.815912 -0.657292
0.473916 -0.594283
0.656693 -0.726069
0.753394 -0.642025
0.749623 -0.459855
0.652881 -0.602837
0.882248 -0.598795
0.679013 -0.586819
0.797010 -0.905468
0.474071 -0.281018
0.653494 -0.324877
0.980320 -0.466047
1.296067 -0.302885
0.564308 -1.474682
0.082068 -0.025308
1.571532 0.019368
1.086031 -1.471018
-0.329587 -0.642168
1.790062 0.039875
0.893355 -1.307431
0.999667 -0.633946
0.232020 -1.352340
0.596734 -0.383515
0.588407 -0.693186
0.961112 -0.618440
0.763706 -0.938383
0.745995 -0.885253
0.505803 -0.682138
0.858330 -0.267911
0.552816 -0.803887
1.314988 -0.369768
0.468057 -0.800796
0.942357 -0.512382
0.668707 -0.827098
0.762640 -0.419005
0.457570 -0.809087
0.915367 -0.664076
0.464785 -0.559604
0.911096 -0.841197
0.380160 -0.495774
0.802676 -0.900539
0.714050 -0.682194
0.721905 -0.692423
0.511506 -1.109707
0.864021 -0.734330
0.613834 -0.605882
0.599933 -0.494069
1.127187 -0.646990
0.655223 -1.226601
0.263615 -0.142110
1.074736 -0.522895
0.528162 -1.248252
0.430467 -0.496982
0.312311 -0.462170
0.568123 -1.065236
0.739132 -0.914033
0.307464 -1.023791
0.140280 -1.095158
0.376515 -1.451905
1.464020 -1.675146
1.773277 -0.234948
0.538141 0.233963
-0.304648 -0.445510
0.121241 -1.008190
0.319308 -0.888529
0.576745 -0.947107
0.518252 -0.729816
0.474496 -1.200979
0.740469 -0.877762
0.532878 -0.805556
0.468073 -0.825369
0.662875 -0.747164
0.624279 -0.688913
0.784731 -0.699015
0.684705 -0.865446
0.456361 -1.003541
0.369722 -0.930307
0.251337 -0.615040
0.418169 -0.605799
0.647647 -0.485290
0.601066 -0.616212
0.740510 -1.103423
0.251240 -0.772224
0.464011 -0.805480
0.569107 -0.903909
0.219630 -0.712277
0.627343 -0.490220
0.843089 -0.581579
0.690311 -0.790816
0.814721 -1.116204
0.561281 -0.914095
0.299006 -0.987666
0.477119 -1.091494
0.331798 -0.637174
0.116999 -0.888932
0.573712 -0.919365
0.557662 -0.661611
0.337924 -0.810030
0.525101 -1.237799
0.499124 -0.850686
0.171537 -1.068236
0.032097 -0.881756
0.259133 -1.127543
0.743859 -0.764168
0.284229 -0.606143
0.490687 -1.220947
0.671971 -0.741758
0.278684 -0.743294
0.254124 -1.141321
0.573576 -0.816808
0.270207 -0.671293
0.346454 -0.781927
0.377617 -1.059288
0.632225 -0.884461
0.358055 -0.799053
0.064631 -1.226432
0.706125 -0.821431
0.293895 -0.825445
0.421188 -1.211989
0.357784 -0.871451
0.672644 -0.789989
0.213002 -0.699500
0.288381 -1.051913
0.667192 -0.799237
0.254298 -0.688076
0.528375 -1.015101
0.415278 -0.929357
0.421607 -0.909548
0.415918 -0.825709
0.111140 -0.947140
0.469759 -1.009914
0.236486 -0.745129
0.332049 -0.959591
0.377198 -0.995444
0.370886 -1.063150
0.167806 -0.991493
0.252819 -1.190500
0.257182 -0.881924
0.161515 -0.954998
0.346307 -0.853431
0.218030 -0.845666
0.421593 -1.128990
0.273641 -0.814392
0.091049 -1.243500
0.484202 -0.910594
0.070970 -1.049028
0.377130 -0.886950
0.224151 -0.956463
0.178909 -1.111937
0.282333 -1.206706
0.210337 -0.857053
-0.000752 -1.258959
0.229955 -1.140345
0.344200 -0.929300
-0.056727 -1.395448
0.233807 -1.366079
-0.003848 -0.847870
0.111384 -1.093779
0.298957 -1.042391
0.416078 -1.469469
0.331028 -1.060044
0.049529 -0.702753
-0.216506 -0.759303
0.001134 -0.707873
-0.001911 -1.135957
0.181868 -0.935665
-0.061902 -1.018690
-0.006949 -0.778220
0.210387 -1.026477
0.457189 -0.662738
-0.015523 -1.261328
0.376405 -1.156722
-0.119011 -0.895387
0.183695 -1.075925
0.161731 -0.854996
0.152581 -1.073479
0.005656 -0.912499
0.071181 -1.029784
0.272377 -0.850084
-0.158701 -0.917990
0.314111 -0.954059
-0.373754 -1.022583
0.217920 -0.981153
-0.509839 -0.860096
0.246972 -1.164867
-0.294582 -0.849218
-0.059787 -1.074615
0.158808 -1.010217
-0.307216 -1.046436
0.059125 -1.087180
-0.217294 -1.140716
0.217441 -0.869724
-0.315497 -1.180031
0.312732 -0.984317
-0.229120 -0.943020
0.163744 -1.173762
0.088974 -0.911562
-0.130574 -0.982160
0.146160 -1.023948
-0.098602 -0.939870
-0.045337 -0.972501
-0.225608 -1.149817
-0.117050 -0.987320
-0.027923 -1.436926
0.183849 -0.938069
-0.149630 -1.047306
-0.073637 -1.085870
-0.048845 -1.069045
-0.081294 -1.074522
-0.012788 -1.053114
0.041618 -0.909139
-0.020113 -1.147691
0.079862 -1.077133
-0.167766 -0.861229
0.030411 -1.089080
0.014523 -0.650603
-0.126957 -0.875954
0.156910 -0.804263
-0.169640 -0.861886
-0.115564 -0.928310
-0.061948 -0.709501
-0.577102 -0.767196
-0.416557 -0.939079
-0.343000 -0.624197
-0.517606 -0.937011
-0.293085 -1.047535
-0.422252 -1.081974
-0.492965 -1.171422
-0.374367 -1.193300
-0.491529 -1.230398
-0.464926 -1.263997
-0.326905 -1.270973
-0.370372 -1.196586
-0.167402 -1.222916
-0.236466 -1.084153
-0.056557 -1.187972
0.017542 -1.076988
0.016738 -1.107826
-0.052279 -1.013706
0.116891 -0.926162
-0.190379 -0.840191
-0.009208 -1.052951
-0.072877 -0.686609
-0.425519 -0.843884
0.058903 -1.000664
-0.312025 -0.638455
-0.435344 -0.816838
-0.234011 -0.678271
-0.509489 -0.738861
-0.395748 -0.938862
-0.316258 -0.748584
-0.627182 -0.932283
-0.370008 -0.993777
-0.484913 -0.792133
-0.401699 -1.116746
-0.428665 -1.040498
-0.303533 -0.909515
-0.434191 -1.108783
-0.240020 -0.959956
-0.424035 -1.119717
-0.141616 -1.023258
-0.196983 -0.730701
-0.539114 -0.853477
-0.415622 -0.894192
-0.541404 -0.951703
-0.265867 -0.869967
-0.464624 -1.029594
-0.301512 -0.785179
-0.473471 -1.183015
-0.246320 -0.665456
-0.591163 -1.186169
-0.300856 -0.862552
-0.517398 -0.897567
-0.355514 -1.126437
-0.298533 -0.779873
-0.458598 -1.172979
-0.400215 -0.811599
-0.325921 -1.281913
-0.417268 -0.744855
-0.630315 -1.233547
-0.308659 -0.533631
-0.699599 -1.001751
-0.297697 -0.803325
-0.607627 -0.712724
-0.273799 -1.067716
-0.641093 -0.761206
-0.436198 -1.088687
-0.651864 -0.594452
-0.510024 -0.826749
-0.569875 -0.594832
-0.200952 -1.001746
-0.450963 -0.816383
-0.687001 -1.064637
-0.292551 -0.846322
-0.701995 -0.592691
-0.193236 -1.192065
-0.405008 -0.875087
-0.553250 -0.974251
-0.759068 -0.958523
-0.405870 -0.853074
-0.760328 -0.667369
-0.710627 -1.106589
-0.898510 -0.943387
-0.720707 -1.155608
-0.463428 -0.698425
-0.388720 -0.423481
-0.653070 -0.653412
-0.667111 -0.757296
-0.841441 -0.869550
-0.479590 -0.485455
-0.781510 -0.572967
-0.401595 -0.971204
-0.555242 -0.931795
-0.815615 -0.648855
-0.585609 -1.064743
-0.554468 -0.690651
-0.567020 -0.642977
-0.587254 -0.886410
-0.352881 -0.790553
-0.659153 -0.753742
-0.291999 -0.824214
-0.717836 -0.602682
-0.658001 -0.977190
-0.652072 -0.575613
-0.750086 -0.816963
-0.698444 -0.597455
-0.578004 -0.680667
-0.542355 -0.738914
-0.450516 -0.686626
-0.739329 -0.943536
-0.644990 -0.842898
-0.679514 -0.775066
-0.775071 -0.674446
-0.579795 -0.804870
-0.420942 -0.599093
-0.622902 -0.732890
-0.476562 -0.977737
-0.611804 -0.785825
-0.668831 -0.784652
-0.646280 -0.522116
-0.818960 -0.781772
-0.456308 -0.783164
-0.739656 -0.438122
-0.906156 -0.963918
-0.543508 -0.823299
-0.659233 -0.756658
-0.905467 -0.396558
-0.613267 -0.863519
-0.479891 -0.900504
-0.992550 -0.520851
-0.809803 -1.098729
-0.627076 -0.732474
-0.833079 -0.624770
-0.898200 -0.747523
-0.655868 -0.724685
-0.613452 -0.861790
-0.556209 -0.440679
-1.036684 -1.066650
-0.622177 -0.924008
-0.948774 -0.393577
-1.228886 -0.661037
-0.482990 -0.569248
-0.850492 -0.145443
-0.902007 -0.580085
-0.884687 -0.742309
-0.602458 -0.916503
-0.918805 -0.614382
-1.108019 -0.814819
-0.828383 -0.764855
-0.734019 -0.359791
-0.874905 -0.489038
-0.644463 -0.744853
-0.487262 -0.577812
-0.856691 -0.681389
-0.769322 -0.818065
-0.774107 -0.339257
-0.896433 -0.580694
-0.644177 -0.427047
-0.706949 -0.569052
-0.824044 -0.469223
-0.512410 -0.482868
-0.722070 -0.933136
-1.287597 -0.941194
-0.941960 -0.522797
-1.250285 -0.621418
-0.832114 -0.661818
-0.837770 -0.394567
-0.793884 -0.768984
-0.673917 -0.683061
-0.947168 -0.733465
-0.976400 -0.799039
-0.982049 -0.621462
-1.061199 -0.346911
-0.762530 -0.294783
-0.801719 -0.275306
-0.796425 -0.542993
-0.767548 -0.556151
-1.153761 -0.145136
-1.198968 -0.483480
-0.988959 -0.240712
-1.111123 -0.283477
-1.399872 -0.372167
-1.702384 -0.953431
-1.153253 -1.584234
0.313274 -1.074703
-0.021518 0.488335
-0.930121 0.134615
-1.207457 -0.296322
-1.152859 -0.449491
-0.897847 -0.403228
-1.117488 -0.185857
-1.255083 -0.458383
-1.103396 -0.572923
-0.793611 0.194535
-0.442082 -0.684397
-1.335666 -1.149596
-1.053916 0.070685
-0.652586 -0.426808
-1.058943 -0.521047
-0.933903 -0.423506
-0.687822 -0.368194
-1.014172 -0.111255
-0.866891 -0.498844
-0.914900 -0.489168
-0.855489 -0.264247
-1.195676 -0.585311
-0.824473 -0.189212
-1.095136 -0.496223
-0.794240 -0.222723
-1.099444 -0.193420
-0.960855 -0.537650
-0.979832 -0.185521
-0.959475 -0.422499
-1.399189 -0.071095
-0.415898 -0.392016
-1.263371 0.067043
-0.552386 -0.750584
-1.281592 -0.352551
-0.915031 -0.327300
-1.302787 -0.212368
-0.811166 -0.159153
-1.264434 -0.200089
-0.812726 -0.392397
-1.145991 0.227501
-0.720576 -0.599357
-0.757477 -0.000692
-0.419203 -0.959480
-2.202695 -0.077287
-0.654267 0.828597
0.028936 -0.564265
-1.441791 -1.141853
-1.229113 0.537212
-0.703345 -0.786129
-1.216648 -0.258246
-1.128039 -0.239657
-1.292857 -0.299053
-0.693211 -0.012677
-0.898929 -0.448479
-1.155599 -0.512808
-1.216986 -0.301903
-1.300394 -0.127934
-0.840058 0.100311
-0.852451 0.014107
-1.022951 -0.295998
-0.969325 -0.333617
-1.347049 -0.214126
-1.075747 -0.116722
-1.013978 0.125180
-0.978556 -0.049206
-0.736147 -0.152377
-1.176928 -0.015003
-0.945977 -0.335711
-1.193284 0.079229
-1.056347 -0.246195
-1.133813 0.122941
-1.028413 -0.187938
-0.788039 0.159598
-1.337908 -0.236226
-0.703653 -0.221478
-1.091705 0.232772
-1.120848 -0.205895
-0.732800 0.208947
-0.847651 0.049707
-0.866479 -0.682043
-1.333810 0.426957
-0.876143 -0.195682
-0.596726 0.095346
-1.255991 -0.036001
-0.587873 -0.396867
-1.350355 0.432756
-1.154339 -0.637794
-0.792133 0.038689
-1.557458 0.031880
-1.091300 -0.446243
-1.071186 0.158814
-1.318108 -0.027455
-1.198553 -0.320965
-0.860500 0.142963
-1.411411 0.035030
-0.863953 0.035790
-1.023874 0.344776
-0.976534 0.067490
-0.506430 0.254563
-0.992075 0.833019
-1.247782 0.579018
-1.300535 0.049636
-0.999698 -0.477072
-0.333512 -0.437687
-1.150912 0.263125
-0.685620 -0.325904
-1.007176 0.138285
-0.825086 -0.037039
-1.040784 -0.127424
-0.921755 0.320537
-1.255367 -0.194627
-0.672359 0.182550
-0.765254 -0.091816
-1.745760 -0.051488
-0.596510 -0.106905
-1.433022 0.274115
-1.064963 0.042448
-1.212036 0.140526
-1.049248 0.434077
-1.118022 0.035828
-1.084111 0.334449
-1.075643 -0.041078
-1.059994 0.356866
-0.981971 0.286459
-1.108371 0.107537
-0.680949 0.427980
-1.203904 0.023800
-0.907578 0.229186
-1.092116 0.074373
-1.186954 0.413977
-0.663929 0.088017
-1.044294 0.569110
-1.007559 -0.270257
-0.812018 0.220374
-1.191401 0.327359
-1.175977 0.082324
-0.854704 0.313392
-1.238675 0.381848
-0.997316 0.201360
-0.957118 0.307312
-1.102604 0.238332
-0.740614 0.070590
-0.840268 0.460866
-1.107706 0.011809
-0.824882 0.504322
-1.342656 0.181726
-1.014499 0.156165
-0.976436 0.509582
-0.852895 0.493706
-0.846697 0.016824
-0.784380 0.395697
-1.028027 -0.104482
-0.908287 0.228101
-1.276180 0.390379
-1.116264 0.361188
-0.738239 0.689535
-0.883075 0.492716
-0.749476 0.011731
-0.889756 0.518918
-1.282790 0.245666
-0.898067 0.557098
-1.054620 0.311715
-0.860195 0.109037
-0.889418 0.383733
-1.416153 0.478685
-0.768706 0.354690
-0.687726 0.887314
-0.701950 0.347477
-0.764187 -0.022034
-0.805525 0.333450
-1.284439 0.295711
-0.581940 0.636995
-0.902914 0.370757
-0.623900 0.034948
-1.093244 0.256547
-1.194416 0.378491
-0.979760 0.344230
-0.740729 0.845736
-0.962090 -0.051631
-0.715190 0.273979
-1.460314 0.098672
-0.791264 0.446986
-0.888012 0.430770
-1.016487 0.310686
-0.520005 -0.017838
-1.109384 0.530237
-1.345100 0.140971
-1.003410 0.048505
-0.759981 0.800254
-1.488542 0.230769
-0.767333 0.273823
-1.319943 0.466634
-0.980412 0.646191
-1.252453 0.435528
-0.989782 0.578276
-0.930040 0.464284
-1.194000 1.025342
-1.152539 0.198920
-0.624860 0.634438
-1.118871 1.043770
-1.393719 0.563836
-0.780237 0.738929
-1.166823 0.599446
-0.684969 0.310340
-0.733719 0.584205
-0.933482 0.687800
-0.759384 0.577233
-1.029187 0.943489
-0.632079 0.473016
-0.833921 0.951170
-1.152656 0.484462
-0.694143 0.752687
-0.973107 0.839683
-0.918796 0.720883
-0.832230 0.569943
-0.745583 0.770325
-1.150933 0.442454
-0.596328 0.710245
-0.926727 0.783290
-0.912214 0.349404
-0.567039 0.668871
-0.979894 0.494798
-0.568770 0.515391
-0.752942 0.456267
-0.937631 0.572863
-0.659858 0.571123
-0.973830 0.917936
-0.724063 0.368504
-0.786540 0.695426
-1.109879 0.535490
-1.012530 0.548060
-0.959970 0.938648
-1.241695 0.763050
-0.784598 0.626547
-0.872991 1.042709
-1.245667 0.625888
-0.484605 0.852408
-1.088279 1.145232
-0.627932 0.487002
-0.504523 0.946941
-0.821753 0.703097
-0.547327 0.704740
-0.129977 0.634806
-0.828795 1.065101
-0.595810 0.693648
-1.112708 1.168738
-0.753583 0.556931
-0.580096 1.156298
-0.905210 0.986628
-0.634187 0.548579
-0.628544 1.217235
-0.693175 0.587307
-0.502612 0.601172
-0.651532 0.718341
-0.980770 0.572271
-0.389697 0.726548
-0.817516 0.938949
-0.572062 0.223225
-0.469639 0.876240
-1.033865 0.765011
-0.777313 0.634061
-0.535906 0.946894
-0.890690 0.709910
-0.423581 0.659391
-1.074528 0.868204
-0.763407 0.605908
-0.868947 1.179337
-1.096802 0.973472
-0.637404 0.819346
-0.781330 1.267854
-0.617673 0.877864
-0.504699 0.639070
-0.324816 0.981599
-1.113369 0.360803
-0.277865 1.114694
-0.822241 0.847583
-0.193484 0.811471
-0.359230 1.068803
-0.686734 0.839304
-0.034627 0.630410
-0.459575 1.184258
-0.542620 0.446130
-0.346039 0.634613
-0.966645 1.086354
-0.740149 0.863089
-0.356132 1.378919
-0.909203 1.005210
-0.246652 0.520704
-0.561963 0.955817
-0.861111 0.783279
-0.589110 0.320897
-0.392706 1.352103
-1.108099 0.422906
0.028007 0.951203
-0.809010 0.860118
-0.232916 0.752995
-0.602457 0.806905
-0.787845 0.846817
-0.576902 0.822981
-0.560494 1.414088
-0.889775 0.951385
-0.536256 0.600683
-1.354770 1.175216
-1.304793 0.706450
-0.649584 1.627977
-0.739343 1.618041
-0.269192 1.073213
-0.315643 1.189963
-0.418704 0.973015
-0.132140 0.614580
-0.359834 1.268534
-0.370518 0.241637
0.114657 0.910793
-0.779626 0.837997
-0.236430 0.700051
-0.101948 1.344183
-0.523157 0.678436
0.258131 0.893056
-0.486599 1.171074
-0.964351 0.485896
0.287602 0.808978
-1.308164 1.741015
-0.303321 0.035196
-0.172910 1.580537
-0.644406 0.709905
-0.472833 0.859910
-0.281307 0.775226
-0.648422 1.176365
-0.096138 0.730882
-0.119962 1.224795
-0.178956 0.140628
0.010125 0.974326
-1.177990 0.918651
-0.428573 0.845570
-0.175625 1.850361
-0.694118 1.061573
-0.035318 1.098057
-0.739000 1.228728
-1.275359 0.765267
-0.182560 1.208003
-2.041928 1.824026
-0.387504 0.599330
-0.172253 1.942006
-0.588738 1.756628
-0.304209 1.377817
-0.092228 1.402676
-0.637361 0.769757
0.117220 0.466904
0.045834 1.478895
-0.439341 -0.063657
1.066111 1.512839
-1.334180 0.710677
1.279732 0.297410
-0.189656 1.587402
0.012694 0.234301
-0.556624 0.058842
-0.112325 0.926623
-1.949656 0.965265
0.222445 0.743184
-0.918139 1.198418
-0.451848 0.153076
-0.923281 0.452009
-1.359147 1.093257
-0.044335 0.527953
-0.154316 2.053523
0.516247 -0.028128
0.661455 0.846106
-0.169914 0.353073
-0.086388 -0.309476
-0.308897 2.134931
-1.693396 0.533616
0.800003 1.990182
-0.517019 2.714900
-0.659443 1.330680
-0.203175 0.720559
-0.387360 2.703290
-3.424092 1.433185
0.807617 2.370065
-1.891667 3.481179
0.918512 0.501850
-0.712351 2.915333
-0.752207 0.324755
1.607897 2.086344
-0.147002 1.729109
0.901926 0.415265
0.911653 -0.246776
0.230001 3.242244
-0.650920 -0.771300
2.516150 2.407025
0.006889 -0.048786
-0.365496 -0.258309
0.285422 0.022002
-3.731460 0.550525
0.136091 -1.082510
-2.985834 1.692779
-2.792568 -1.150658
-1.651350 -0.246232
-3.250768 -0.407635
-1.870450 -0.558981
-4.478637 0.961496
-0.756367 -0.636393
1.389527 4.366018
0.193865 -0.937623
2.674840 -1.497462
2.032137 -4.694500
-3.529741 6.275991
-3.150845 -5.477907
4.800802 10.697960
-2.086368 0.432469
3.045380 1.920578
-1.769398 1.723019
-2.765342 1.515321
-1.194157 4.288418
-4.301398 2.473478
-4.487634 3.271680
1.088959 4.349944
-5.536146 9.141348
5.140257 2.551377
4.382904 5.829113
6.607295 5.580431
7.633646 -0.524068
11.687908 7.278071
5.148238 -5.932281
17.556764 -0.149813
-7.975112 8.040413
8.710642 -12.879989
2.136723 12.302004
-3.808794 -12.501058
-24.057388 -4.196128
-32.440831 -14.028599
-18.476824 6.956029
-60.135166 17.570927
-12.208947 -52.502172
-89.151404 -21.961059
-40.664030 -26.743012
-250.127804 26.372201
66.826328 -23.457386
-120.668849 197.742627
49.448210 -104.574509
101.591951 -81.998129
-1.964005 -35.756204
-253.379973 -384.750541
-16.288770 -12.110539
-4269.132021 2145.292698
