2419.159328 2597.668136
-679.108365 347.823421
-35.718037 -16.225858
-0.549318 -76.147219
-0.890388 -3.171337
31.596932 14.459688
-0.766989 -10.860706
-10.545117 5.334947
3.235539 1.687160
0.772889 -1.526074
-5.569351 5.383665
1.721290 1.202057
-3.267041 -6.913713
-0.693762 -0.698518
3.448866 1.310211
0.528463 -0.882573
-1.789515 2.104780
1.098864 0.390618
0.066379 -0.617979
-0.289103 0.871870
0.158061 0.323857
-1.482121 -1.329958
-0.665332 -0.177151
1.000772 -0.823676
1.145985 -0.016397
0.118649 0.871834
-0.035570 0.433113
-0.505416 0.229716
0.087193 -0.070791
0.382087 -0.318857
-0.047576 -0.010951
-0.219131 -0.674721
0.152885 -0.873326
0.628936 0.193257
0.057760 -0.158773
-0.128199 -0.108275
-0.282363 0.334623
0.024587 -0.463068
-0.641462 -0.047728
-0.149510 0.456357
-0.174697 -0.556865
0.103587 -0.538446
0.136049 0.432498
0.534372 -0.087416
-0.134501 0.140193
0.086953 0.417553
-0.221419 -0.171165
-0.116648 -0.488386
0.097190 -0.134631
0.132803 -0.087559
-0.431790 -0.287455
0.163214 -0.344753
0.113759 0.005859
0.152537 0.388759
-0.030783 -0.102593
-0.280604 -0.087930
-0.424204 -0.088595
0.294236 -0.392589
-0.237483 -0.508853
-0.318254 0.288752
-0.318152 0.247668
0.067293 -0.101765
0.299515 0.026875
0.295770 0.493058
-0.465580 0.121634
-0.021994 -0.352945
-0.006647 -0.378978
-0.217712 -0.144554
0.013044 0.042162
0.076293 0.052820
-0.234515 0.102495
0.036634 0.321719
0.069986 0.303171
-0.190521 -0.157904
0.021313 -0.283383
0.035558 0.005757
0.229832 0.236570
0.236116 0.093212
0.029015 -0.142806
-0.193648 -0.111364
0.106361 -0.059143
0.077517 -0.091954
0.075681 -0.040158
0.011000 -0.097351
0.138914 -0.168636
-0.059074 -0.074641
-0.171971 -0.009819
-0.058259 -0.147999
0.035930 -0.233121
-0.141386 -0.327317
-0.016243 0.002818
-0.106413 0.065051
-0.262668 0.121763
-0.171492 0.182598
-0.003057 0.059571
-0.060295 -0.355869
0.099992 -0.037617
0.083440 0.006267
-0.085738 -0.036600
-0.285174 0.099171
-0.084040 0.133589
0.115666 -0.009523
-0.014981 -0.003043
-0.122380 -0.189696
-0.017527 -0.119608
-0.113321 0.228864
-0.201654 0.026105
0.166821 -0.017948
0.072962 0.139778
-0.082950 0.143674
-0.120414 -0.063028
0.228977 0.014146
0.019459 -0.089391
0.017553 -0.077288
-0.088334 -0.074354
0.109877 0.030564
-0.184191 -0.075000
0.042136 -0.031745
-0.049561 0.086670
0.005754 0.069483
-0.080838 -0.127858
0.169835 -0.074909
-0.062103 -0.127819
-0.061759 -0.097489
-0.292136 -0.014158
-0.085060 0.186534
0.065591 0.220657
0.148864 0.039526
-0.135868 -0.365481
-0.017668 -0.006617
-0.015731 0.263984
0.234765 0.167582
0.027477 -0.149850
0.012510 -0.239396
-0.063603 -0.263158
-0.015785 0.011013
-0.376148 0.047988
0.015357 0.053431
0.119244 0.086856
0.102135 -0.220925
-0.236116 -0.079786
-0.034617 0.097832
-0.025122 0.116495
-0.018804 -0.189249
-0.182595 0.119175
-0.046913 -0.185492
0.007644 -0.006419
-0.021693 -0.065784
0.025200 0.233170
-0.191080 -0.122279
-0.091393 0.173483
-0.118457 0.007191
0.086627 0.066665
-0.086594 -0.162129
0.096835 0.079143
-0.155836 -0.206655
0.081397 0.013175
-0.237856 0.352809
-0.129935 0.286894
-0.073776 -0.014588
0.259990 0.020914
0.142658 -0.065823
0.100786 -0.193475
-0.043457 0.085572
-0.022285 0.119549
-0.059530 0.114180
-0.079659 0.000295
0.367268 -0.128856
0.087316 -0.177162
-0.071295 -0.176461
-0.126234 -0.122456
-0.009829 0.005554
-0.398592 0.215368
0.097806 -0.131207
-0.013657 -0.033474
0.092530 -0.079864
0.001514 0.092651
-0.027820 -0.194116
-0.263446 0.183634
0.026442 -0.104943
-0.070034 0.041904
-0.158417 -0.060506
-0.051674 0.111675
-0.031040 -0.261464
0.084967 0.193851
0.031796 0.083177
-0.071291 0.008193
-0.408239 0.031907
0.027193 0.161922
0.230496 -0.160094
0.065607 -0.085744
-0.424302 0.045249
-0.010113 0.005011
-0.065155 0.134202
0.032528 0.243870
0.159108 0.264069
0.219620 -0.127803
-0.211544 -0.199194
-0.064146 -0.011276
-0.107527 0.154209
0.156985 -0.097855
0.232751 -0.119420
0.002044 -0.184959
-0.421791 0.108032
-0.079954 0.220295
-0.083309 0.012946
0.029893 0.014741
-0.011458 0.162467
0.111381 -0.189755
-0.115795 -0.082966
0.112971 0.156823
-0.111571 0.009672
0.003832 -0.010809
-0.064730 0.215548
0.024662 0.014253
-0.153641 0.036192
0.252031 -0.006940
0.013754 -0.082210
-0.082950 -0.143674
0.137224 0.033028
0.184280 0.013894
-0.339201 -0.051531
-0.098923 -0.177118
0.046557 0.078633
-0.230660 0.193134
-0.074432 0.021120
0.168282 -0.151258
0.007068 -0.229821
-0.118058 0.045694
-0.046525 0.232940
-0.145343 0.098853
-0.129505 -0.043483
-0.057504 0.101545
0.191160 -0.228122
0.034560 -0.081995
-0.212027 0.117673
-0.246212 0.053501
-0.222263 -0.061353
-0.192744 0.209845
0.149284 0.099918
0.020314 0.105778
-0.098760 0.125383
0.018415 0.153605
0.038130 0.219373
-0.128751 0.202200
0.022907 -0.060539
0.000036 -0.139549
0.223600 0.005833
0.107285 0.120004
0.074096 0.274008
0.120077 0.222026
0.096768 -0.191080
-0.248482 -0.207912
-0.049465 0.142027
0.064728 -0.082475
0.255885 -0.409560
0.238117 -0.026548
-0.125870 0.167098
-0.262581 0.097425
-0.335560 0.001667
-0.276733 -0.222395
0.062305 0.020145
0.308041 0.418469
-0.192185 0.034839
0.132056 -0.296149
0.155143 0.113383
0.065518 -0.056902
-0.375853 -0.273191
-0.294379 -0.128677
-0.355769 0.411925
0.096574 0.215116
-0.190950 -0.082662
0.045760 -0.013960
0.048270 0.452962
0.117514 -0.050298
-0.212183 -0.100102
-0.075058 0.258069
-0.228082 0.152851
0.131870 -0.059346
-0.022420 0.269410
0.065198 0.334076
-0.120754 -0.105959
0.312649 -0.070061
0.113830 0.227725
0.019710 0.208393
-0.380632 -0.347279
0.208112 0.018909
-0.107545 0.053531
0.157816 -0.182288
-0.222794 0.149405
-0.207248 0.457932
-0.327414 0.055154
0.087993 0.124819
-0.384141 0.136719
0.332777 0.021667
0.261768 0.416486
-0.311836 0.260812
0.242516 0.223048
0.730717 0.244975
-0.025994 0.028974
-0.204480 0.072020
0.253905 -0.116406
-0.410436 -0.214652
0.243156 0.154202
0.186154 -0.246776
-0.200291 -1.005647
0.141095 0.809019
0.896053 0.758724
-0.381545 0.863774
-0.867352 0.275833
-0.138340 -0.883262
-0.557310 -1.536610
0.692513 0.323219
0.261775 -0.637949
-0.142020 -0.038869
-1.017571 1.288286
2.705368 0.438312
0.419527 1.889046
-1.737166 0.156062
-9.451521 1.138113
-2.959424 -3.727615
3.067408 -5.070290
8.438728 0.409208
13.969532 15.290106
0.804164 -33.974698
-54.704337 25.222469
332.156958 248.300579
