4631.366392 2004.310123
-1425.577260 40.234656
18.951372 -19.447397
-170.301002 30.134806
11.765916 9.710609
-0.534498 22.241127
-5.370127 -1.605085
-22.757695 -32.353266
-3.148900 -0.325880
-12.919495 -25.177156
-8.735080 3.765066
0.965198 -16.816882
-1.573579 2.853824
-12.840268 -4.454901
-2.494962 3.164986
-4.069264 0.936843
1.633356 2.165999
4.529758 -0.006671
1.033050 0.053646
1.701667 0.873716
0.989655 -1.831619
1.072784 -0.378938
1.280233 0.268981
-0.750684 -1.477547
1.160522 1.060229
-1.804175 1.124099
-0.333638 0.557528
-1.312845 0.673024
1.101665 1.151102
-1.391829 0.217367
0.223628 0.636355
-0.396128 -0.225614
-1.603476 0.734368
0.188937 -0.687032
-1.052148 1.294338
-0.554050 -1.209136
-0.486638 0.702300
-1.391166 -1.316189
-0.990256 0.237913
0.000711 -0.903558
-0.555631 -0.050318
0.022885 0.285607
-0.048350 -0.541831
0.043253 -0.482788
-0.091313 -0.059682
0.090104 -0.741644
-0.346677 -0.035584
0.147829 -0.188796
0.306759 0.034615
-0.093640 -0.154525
0.813087 0.275065
-0.046693 0.178522
0.336487 0.336808
-0.128885 0.276433
0.188077 0.196025
-0.150692 0.044230
-0.641826 0.143718
0.291662 0.359969
-0.289004 0.333950
-0.550038 0.249803
-0.420656 0.734963
-0.093598 -0.030802
-0.431408 0.763490
-0.343624 0.534761
-0.247965 -0.041184
-0.036374 -0.202150
-0.025590 -0.273758
-0.168857 -0.047102
-0.212015 -0.262293
-0.242346 -0.335771
-0.725551 0.077092
0.004152 -0.168378
-0.444209 0.202757
-0.374636 -0.674670
0.740891 0.252706
-0.246123 0.214065
0.020393 -0.315331
-0.043650 -0.157416
0.114755 -0.006148
-0.036154 0.063426
-0.034731 -0.026038
0.124358 -0.041640
0.221989 -0.050027
-0.221313 -0.009086
-0.154976 0.185160
-0.521277 0.072733
0.431585 -0.025425
-0.095028 0.109967
0.204693 -0.248368
-0.149603 0.142440
-0.043017 -0.046873
-0.193964 0.112673
-0.302080 -0.290053
-0.177585 -0.358507
-0.013559 -0.274545
-0.258124 -0.263136
-0.157540 0.340015
0.047893 0.147617
-0.383279 -0.168597
-0.004804 -0.003964
-0.086202 -0.133397
0.070063 -0.045718
-0.120318 0.089984
0.328503 -0.016891
-0.163840 -0.103917
0.217545 -0.182701
-0.290922 -0.281695
-0.173744 0.337871
-0.407134 0.165512
0.082992 0.147430
-0.033395 0.360008
-0.026760 0.144552
0.227090 -0.048040
0.167925 0.282390
0.026282 0.180558
0.090181 0.027384
0.099486 -0.315543
-0.180097 0.041736
-0.096752 0.233639
0.096445 0.002373
-0.000243 0.128334
-0.044776 0.016939
0.188609 -0.202252
0.161797 -0.017210
-0.003255 0.215472
0.120244 -0.178506
0.137988 -0.383121
-0.253845 0.012684
-0.288180 -0.312254
0.115369 -0.185434
-0.198595 0.026632
-0.076454 0.062501
-0.168460 -0.098805
-0.133254 0.084697
-0.028265 -0.001989
0.172708 -0.109405
-0.044596 -0.313001
-0.191972 -0.154521
-0.171570 -0.109747
-0.156598 -0.169116
-0.132640 -0.021951
-0.097437 0.207177
-0.111511 -0.188614
0.085932 0.017420
0.002861 0.137347
0.122793 -0.181051
0.160484 -0.163401
0.020154 -0.086243
0.060453 0.017074
0.102758 -0.201626
0.160032 -0.198684
-0.226181 0.044666
0.008632 -0.349757
0.045896 -0.011434
-0.109782 -0.013428
0.009032 -0.099827
0.027554 0.067532
-0.041231 -0.025902
-0.089606 -0.035781
-0.134569 0.152851
0.081454 -0.269275
-0.162049 -0.189881
0.024099 0.100008
-0.022611 0.174828
-0.196465 -0.367032
0.045128 0.166145
-0.048462 0.030073
0.065245 -0.008273
-0.192787 -0.066400
-0.206286 0.037016
0.140836 -0.188451
-0.080089 0.019132
0.056860 -0.078800
0.346346 0.113295
0.085939 -0.095779
-0.312536 0.307509
-0.382969 -0.077428
-0.168094 -0.273171
0.143655 -0.023086
0.022623 0.047037
0.071422 0.225533
0.085594 0.342526
-0.096426 0.318845
-0.059800 -0.050673
-0.136500 0.003025
-0.066020 -0.229228
0.132082 0.057368
0.224862 0.032938
-0.078570 0.169911
0.141002 -0.347453
-0.291947 0.117169
-0.008032 0.127561
-0.033000 -0.010182
0.140665 -0.165742
-0.170630 0.028323
0.097756 -0.369526
-0.104299 0.176300
0.339677 0.107151
0.163153 -0.106267
0.135528 -0.157456
-0.099880 -0.008197
-0.134301 -0.121058
-0.053615 0.090341
0.304602 -0.077313
0.141968 -0.232841
0.098070 -0.154439
-0.004885 0.092762
-0.131172 0.006163
0.109419 0.140673
-0.002004 -0.062117
0.149406 -0.162637
0.049253 -0.049124
0.202545 -0.106824
0.018468 -0.076328
0.150275 -0.029500
-0.257961 -0.202036
0.263252 -0.282843
0.004822 -0.078611
-0.002717 -0.105031
0.023519 -0.074834
0.117942 -0.057647
-0.496825 0.024245
0.244207 -0.122776
-0.048806 -0.400599
-0.119741 0.041919
-0.110631 0.314720
0.122900 -0.025454
-0.131271 0.351414
0.167866 0.338268
0.063102 -0.116566
-0.056118 -0.037596
0.099564 0.034141
0.225504 0.071421
0.193548 -0.061684
0.045296 -0.096938
-0.051437 -0.105473
0.009176 -0.083550
-0.389353 0.044770
-0.335073 -0.120257
0.224939 -0.115847
0.007294 0.089594
-0.008322 0.089024
-0.005071 -0.013672
0.040115 -0.272224
0.132864 -0.024994
-0.100034 -0.138194
0.005405 -0.254367
-0.056608 -0.177475
-0.019714 0.050150
-0.175634 -0.032745
-0.346809 -0.119575
0.128933 -0.133206
0.238894 0.145467
-0.151439 0.004926
-0.026797 0.083274
-0.058632 0.014099
-0.146389 0.114775
-0.121544 0.110315
0.027023 0.083320
0.203829 -0.117898
0.020854 -0.238390
-0.057511 0.167737
0.057295 0.122650
-0.085146 -0.202918
-0.149006 0.109264
0.113507 -0.056457
-0.318191 -0.474370
-0.225460 -0.098739
0.151571 0.100478
-0.008641 0.075388
-0.251192 0.079292
0.229549 0.084553
-0.102474 0.051577
0.058920 -0.096720
0.233609 -0.157067
0.207648 0.111704
-0.038766 -0.108748
0.116540 -0.021094
-0.098006 -0.106110
0.064785 -0.112371
-0.062630 -0.091580
-0.037448 0.195660
0.082194 0.028013
-0.061703 0.193250
-0.109455 -0.081615
-0.305774 -0.069931
-0.273571 0.040397
-0.151416 0.292224
0.204959 0.038279
-0.108946 0.175776
-0.028939 0.037139
-0.377354 0.002628
-0.207420 0.322163
-0.143917 0.192150
0.036452 -0.149430
-0.127587 -0.013741
-0.033747 0.057515
-0.283147 -0.050265
0.073674 0.365483
0.033625 0.111932
-0.103695 -0.090802
-0.051684 0.174403
-0.191758 0.282369
-0.126725 0.010647
0.096886 -0.038765
0.208444 -0.129290
0.051003 0.040080
0.138201 0.142523
-0.187213 0.343547
-0.108548 0.110374
-0.235326 0.021157
-0.222146 0.019966
-0.106968 -0.256030
0.351581 0.139192
0.068990 0.386818
-0.011272 0.216859
-0.483040 0.205526
0.098918 0.222289
0.054638 0.048453
0.008704 0.045699
0.230776 -0.033194
0.264196 0.125966
-0.060189 -0.144810
0.046551 0.237845
-0.080628 0.034763
0.189196 -0.129646
-0.022611 0.096502
0.019755 0.313387
0.141828 -0.222715
-0.002546 -0.148234
0.130344 0.129965
0.131030 -0.010350
0.004426 -0.046610
-0.071702 0.082675
-0.112836 -0.075162
0.021780 0.100592
-0.188951 0.114849
-0.030536 -0.101487
0.122608 0.277783
-0.035102 0.108694
-0.103514 0.068054
0.178456 0.263087
0.069263 0.120163
0.058510 -0.033766
-0.026898 -0.088731
0.066195 0.213361
-0.069057 0.032830
0.008047 -0.044078
0.018360 0.233138
-0.051798 0.256650
0.039676 -0.074241
0.016939 0.248449
0.108900 -0.008697
-0.053925 0.000556
-0.205663 0.019418
-0.084014 0.187830
0.099919 0.148594
-0.033826 0.000293
-0.021218 0.077452
-0.077548 0.133896
-0.292392 -0.161802
0.051544 -0.143578
0.042386 0.083281
-0.222758 -0.207747
-0.307235 -0.077971
0.076856 0.287366
-0.302828 0.063883
-0.061324 -0.283959
-0.070807 0.050115
0.066428 -0.037628
-0.207975 0.005978
0.081912 0.110659
0.087162 0.055419
-0.120697 -0.333442
-0.123575 0.068790
0.008547 0.207510
-0.117503 0.337835
-0.185999 -0.086047
0.144690 0.203699
-0.060231 0.229217
0.072276 0.237230
0.080699 0.046350
0.370343 0.506817
-0.208440 -0.248280
0.066850 0.076739
-0.321462 0.104881
0.078546 0.268635
-0.199811 0.325937
0.416130 0.160524
-0.094226 -0.069159
0.445362 0.064105
0.169361 -0.334418
0.221941 0.121102
-0.226046 0.100674
0.328084 -0.277319
-0.473999 -0.345723
0.130589 -0.295039
-0.048621 -0.088440
0.137958 0.209492
0.035031 0.294213
0.109389 0.161872
0.102130 -0.011510
-0.006530 -0.007225
-0.061079 -0.006338
0.273882 -0.115232
0.336314 0.120282
-0.151570 -0.129790
-0.261440 0.050545
-0.490823 -0.017927
-0.033387 0.344232
-0.198624 0.171474
-0.023599 0.462487
-0.067879 -0.094416
0.180895 -0.051850
0.119118 0.183311
-0.708002 0.165166
0.109643 -0.695661
0.063673 -0.075133
-0.367379 -0.024520
-0.011578 -0.080793
-0.033858 -0.008215
-0.528292 -0.166024
0.124447 0.267124
-0.371434 -0.137306
0.150493 -0.177269
0.209460 -0.249829
0.350530 0.161097
0.414599 0.035219
-0.231099 -0.628346
0.066486 -0.255554
-0.061376 -0.257326
-0.403448 -0.408527
-0.887304 0.115531
0.024201 -0.029329
-0.130173 -0.049245
-0.254918 0.426744
0.194858 0.089511
0.239777 0.457415
0.226531 -0.178630
-0.002830 -0.115029
0.162044 -0.458139
0.164420 -0.800544
-0.152476 -0.111872
0.225479 -0.879556
0.078399 -0.194628
-0.385217 -0.560831
0.411802 0.274488
-0.361704 -0.802220
0.439894 0.923136
0.341931 -0.536279
-0.039142 -0.384365
0.647120 -0.833116
0.608607 -0.528313
-0.437096 -0.820446
-0.628400 0.164279
-0.524162 -0.152055
-1.130443 0.966360
-0.155692 -0.213712
-0.100864 0.790486
-1.520731 0.102198
0.680592 -0.156983
-1.650775 0.562255
-0.611654 -0.777860
0.323858 -0.413436
-1.462136 -0.014641
-0.898950 -0.136111
-2.398996 -1.098312
-0.538338 -0.811676
-1.956660 0.966838
0.860873 -2.999885
0.222822 0.720213
2.145857 -2.306323
-2.709516 -3.814720
1.768170 -2.732122
0.238290 -4.888536
3.723231 -4.452506
-0.831347 -5.062315
-1.658901 -5.503367
-22.566043 -1.908995
0.813707 -1.749384
-7.546891 11.769194
-6.698941 0.051413
12.695930 21.667126
-1.810521 4.836549
-10.278649 72.744781
-12.636818 18.801101
46.789661 39.552261
-13.365895 -12.963794
-618.374052 -103.807646
