4424.916573 5372.067151
-1772.292854 2.615003
8.723251 5.749916
-196.502377 26.718615
12.259312 8.078388
-2.876664 35.677629
-5.796379 -5.119271
-19.269525 -44.781642
-10.495700 -1.534851
-14.391823 -31.091200
7.494860 -1.356174
-0.117216 -9.150623
-6.732833 -3.868604
-6.231445 0.411130
-2.559516 1.555091
-1.473261 2.174123
4.916881 -3.181030
9.173395 2.339353
-2.228541 -4.236458
3.566832 1.376697
-1.847388 1.020308
-0.251475 -1.518462
0.131716 1.189581
-3.338345 -3.293943
-1.662380 2.509134
-2.132655 -0.791549
0.513711 1.510876
-1.510286 -1.117932
0.023642 -0.454372
-1.947629 -1.706393
-1.560297 -0.745371
-0.370091 -2.129167
-2.128825 -1.492000
0.793767 -1.295844
-1.447006 0.861792
1.194086 -0.854289
-0.000661 0.734168
0.249269 -0.595590
-0.296396 -0.594060
0.220301 0.308739
0.193797 -0.677769
0.560416 0.697686
0.256895 -0.176081
0.006250 1.048446
-0.653167 0.404041
-0.003855 0.552888
-0.710635 0.365958
0.171231 -0.764737
-0.379894 0.414508
-0.283210 -0.804383
-0.430112 0.788274
-0.446673 -0.447848
0.236525 0.322247
-0.835499 -0.217435
-0.774843 -0.145434
-0.240307 0.080097
-0.626410 -0.287926
0.418182 -0.316881
-0.454971 0.163138
0.566828 0.143680
-0.266418 0.306015
0.099900 -0.167675
-0.747861 0.495439
-0.065274 -0.409146
0.459771 0.492555
-0.255603 -0.232394
0.498140 0.483923
0.094345 0.067542
0.170572 0.143008
-0.012466 -0.072659
-0.306628 0.104989
-0.200801 -0.487361
-0.039038 0.115168
-0.371259 -0.455331
-0.337870 0.170107
-0.040279 -0.231299
-0.220455 -0.447383
-0.079872 -0.054622
-0.269337 -0.382282
-0.482779 -0.120869
0.035748 -0.221431
-0.192032 -0.386579
-0.039209 -0.210861
0.116167 0.056666
-0.011221 -0.282508
-0.085173 -0.067625
-0.038520 -0.499466
-0.148893 -0.124954
0.252059 0.276105
-0.706397 0.005572
-0.251414 0.054950
-0.051012 -0.229365
-0.017107 -0.001528
0.185103 0.006441
-0.821592 0.489127
-0.143041 -0.286975
0.148017 -0.025961
-0.235517 0.118614
-0.084274 0.247674
-0.132770 0.016937
-0.060525 0.061783
0.181519 0.106349
-0.033852 0.364075
0.111478 0.132960
-0.029292 -0.444660
0.118102 0.223419
0.152193 0.165332
0.201888 -0.037551
-0.066286 -0.150390
-0.220286 -0.038892
-0.255112 -0.023200
-0.398484 -0.195264
-0.179579 -0.047758
0.038353 0.084610
0.228569 0.358950
-0.107843 0.084001
-0.442276 -0.022552
-0.149525 0.382508
-0.160260 -0.144367
0.027731 0.062712
-0.309295 0.082669
-0.048791 -0.033025
-0.014381 0.386316
-0.106846 0.069264
-0.120831 0.186128
-0.055685 0.105713
-0.274389 -0.302044
-0.250591 -0.278058
0.037234 -0.321629
0.031127 -0.016204
0.118969 -0.145113
0.031525 0.164881
-0.281330 -0.206374
0.008238 -0.179145
-0.142262 -0.115106
0.240526 0.123306
0.028382 0.190579
0.199250 0.177683
-0.127688 0.255377
0.034994 0.282558
0.215540 0.056968
-0.305424 0.495199
0.114458 0.043800
-0.024409 0.308602
-0.085752 0.052973
-0.121070 0.168760
-0.303449 0.161437
0.052102 0.144240
0.086061 -0.319719
-0.215821 -0.006983
0.008167 0.104663
-0.110032 -0.039493
-0.017972 0.130602
0.107081 -0.200261
-0.008543 0.044623
0.144341 -0.178288
0.220502 -0.092992
-0.165464 0.091432
-0.077051 -0.097040
0.211767 -0.061538
-0.237633 -0.034359
0.175641 0.065324
-0.144555 0.329390
-0.005153 -0.021313
0.229783 -0.128074
-0.055053 -0.137583
0.011443 0.020017
0.028929 0.023709
0.244516 -0.134959
0.021765 0.245571
-0.046594 0.001243
0.054866 0.186118
-0.178419 0.033480
0.325370 -0.223563
0.043966 0.344586
0.228424 0.004321
0.104166 0.147268
-0.051100 0.035936
-0.012768 0.077284
0.044457 -0.138861
-0.118425 0.047078
0.012582 -0.100154
-0.355273 -0.082031
0.219824 0.035690
-0.218516 0.095002
0.038517 0.177945
0.062302 0.148903
-0.119624 -0.097263
0.276500 -0.108510
0.173751 0.096978
-0.288946 0.038585
0.046599 -0.097389
0.106729 0.038278
0.071210 -0.053422
0.259567 -0.050176
-0.331016 0.147097
0.022357 0.101875
0.187525 -0.128931
-0.063233 -0.003796
-0.135481 -0.308934
0.135133 -0.012452
0.018373 -0.131819
0.075675 0.180209
-0.421993 -0.165794
0.097118 -0.095064
-0.203584 -0.166942
0.034087 -0.271282
-0.122525 0.558480
0.031171 -0.041908
0.069269 0.082792
0.055985 -0.126492
-0.027535 -0.048374
0.214229 -0.172188
0.212695 -0.213650
0.121529 -0.187520
-0.121254 0.140001
0.038805 -0.198431
-0.113034 0.120278
-0.102466 -0.377932
0.099722 -0.207439
0.144124 0.124246
0.107606 -0.246689
0.132557 0.278342
-0.203628 -0.071921
-0.391190 -0.107388
-0.011328 -0.193406
-0.162211 0.006460
-0.070249 -0.100118
-0.085442 0.326388
-0.136607 -0.071126
-0.268310 0.144795
0.050059 -0.013692
-0.132768 0.412043
0.186819 -0.007581
-0.123970 0.031924
-0.007823 -0.262413
-0.050070 0.145274
0.146975 0.086566
-0.064245 0.039712
-0.157260 0.373045
-0.074495 0.153600
0.163930 0.050316
-0.024659 0.258776
0.050730 -0.163652
0.232631 0.238433
-0.006507 0.114092
0.088124 -0.191299
-0.147058 0.168221
0.160563 -0.078941
-0.118603 -0.018750
0.015955 0.033810
0.127257 0.150764
0.154860 -0.073596
0.138097 -0.095954
-0.271742 0.065560
-0.123139 -0.216157
0.112973 0.126795
0.052228 -0.088554
0.005737 0.095981
-0.335082 -0.077313
-0.051470 -0.097737
-0.223855 -0.090523
-0.010337 0.270791
0.076172 -0.211058
0.002781 -0.143609
-0.183116 -0.272483
0.178975 -0.043172
-0.116232 -0.129288
0.248362 -0.040457
0.094677 -0.404654
0.066426 0.156325
-0.021262 -0.032343
0.077828 -0.296029
0.090554 0.104866
0.274166 -0.081684
0.328870 -0.232162
-0.000000 0.297940
-0.092096 -0.169113
-0.270011 0.051554
0.040222 0.225425
-0.009112 -0.182554
0.070908 0.076771
0.132713 0.186238
-0.091894 -0.247747
0.001267 -0.024494
0.008394 0.117030
-0.025543 -0.020268
-0.065283 -0.034123
0.050281 -0.161833
-0.375561 -0.058375
0.053747 0.240615
-0.069381 0.047845
0.067179 -0.063732
0.001118 0.117590
-0.101898 0.164398
-0.404826 0.103842
-0.279108 0.152628
-0.101999 -0.096429
0.155076 0.090700
-0.187439 -0.038780
-0.206429 0.040776
-0.143154 0.132855
-0.035466 0.197021
0.028378 -0.166590
-0.076267 0.022785
0.049664 -0.057644
0.168106 -0.170375
-0.017293 -0.046465
0.066954 0.195777
-0.021846 -0.243241
0.151669 0.106049
-0.090098 -0.073937
-0.027984 -0.093925
0.325668 0.179149
-0.174318 -0.131551
0.090939 -0.054220
-0.239463 0.151420
0.209253 -0.306820
-0.152849 0.044399
-0.053210 -0.044130
-0.071286 0.199833
0.052367 -0.047684
0.083598 -0.272484
0.164392 0.024199
-0.230979 -0.086872
-0.039630 0.168417
-0.271529 -0.258556
-0.133750 0.133717
0.102283 -0.196127
0.190949 0.204919
-0.095039 0.347645
-0.021356 -0.051026
0.077341 0.274076
-0.083520 -0.120879
0.271325 -0.236459
0.068138 0.098483
0.048302 -0.006978
0.210165 0.092243
-0.012022 0.208229
0.078950 -0.274739
-0.052818 0.388089
0.347561 -0.295414
0.121559 0.328244
0.053575 -0.452328
0.136297 0.155434
-0.072659 -0.012466
0.071117 -0.194017
-0.293460 -0.387544
-0.095194 0.011588
-0.176883 0.028295
-0.078055 0.254555
-0.415727 0.195283
0.007649 -0.071674
0.034103 -0.110678
0.296840 -0.147509
-0.237098 -0.109399
0.093125 -0.025205
0.105003 0.059981
-0.294276 -0.128783
-0.343533 -0.135395
-0.113712 0.015977
-0.088430 -0.084970
0.353845 0.057403
0.031008 0.138385
-0.343645 -0.150842
0.351698 -0.208723
-0.406409 -0.019595
0.076591 -0.087091
-0.292237 -0.052440
-0.207425 -0.111109
-0.129907 -0.023724
-0.038835 0.055383
-0.240121 0.206841
-0.011829 0.145920
-0.188691 0.051030
0.242108 0.174512
-0.194249 -0.112641
0.061391 -0.046594
-0.163947 0.099576
-0.144401 -0.359819
-0.026485 -0.016999
-0.053553 0.003082
-0.058974 0.082889
-0.036197 0.048413
-0.071758 -0.042237
0.059113 -0.067866
0.289430 0.065416
0.163573 -0.058805
-0.116763 -0.166349
0.081540 0.149499
0.001350 0.248907
-0.026776 0.269325
0.022259 0.011884
0.033619 0.209177
-0.094213 0.160896
0.330338 0.390652
-0.366575 0.195468
-0.177238 0.020578
-0.100964 0.146758
-0.231399 -0.109663
-0.038400 0.093497
0.015372 0.045042
-0.101652 0.103696
0.130502 0.008564
-0.268650 -0.268227
-0.156028 -0.124787
0.181807 0.194386
0.026783 -0.394746
0.185222 0.100684
-0.100287 -0.281271
0.131396 0.119471
0.090882 0.073024
-0.008721 0.007597
-0.218468 -0.011672
0.212814 0.000000
-0.156897 -0.033082
-0.115453 -0.043170
-0.019786 0.047905
-0.194838 -0.032630
0.158949 -0.143220
-0.197920 0.205487
0.022426 0.211560
-0.410654 0.394810
0.032487 0.063730
0.002741 0.164362
0.321151 -0.072344
0.372354 -0.018925
0.009632 0.361489
-0.035511 0.168294
-0.014636 0.201778
-0.357737 0.202947
0.009289 -0.038102
-0.058769 0.033348
-0.030224 -0.007303
-0.110635 -0.001941
-0.025026 0.190477
0.279163 0.047254
-0.275227 -0.254510
-0.256054 0.221712
-0.459339 -0.141877
0.219225 -0.175545
0.088769 -0.037866
0.227202 0.046490
0.134151 0.356486
0.030877 -0.002760
0.071550 0.201233
0.013837 0.218680
0.452829 0.167060
0.365026 -0.493409
0.376252 -0.061286
0.246498 0.194021
-0.064695 -0.091308
0.038853 -0.328504
0.048715 -0.121683
0.007001 -0.302838
0.244005 0.136924
-0.205759 -0.513740
0.187024 -0.126543
0.651246 0.137832
-0.332905 0.096064
-0.238270 -0.296412
-0.273034 -0.294159
0.162267 -0.104459
0.354546 0.018132
-0.094334 0.425839
-0.245516 0.117824
0.265508 -0.152317
-0.397402 0.193947
0.215701 -0.040177
-0.574214 0.151247
0.263090 -0.097703
-0.197787 -0.271289
0.093852 -0.030059
-0.003917 0.231118
0.117447 -0.142450
-0.532052 0.422295
-0.111767 -0.386449
-0.430770 0.216092
0.098895 0.081035
0.164747 0.045318
-0.064859 0.083251
0.016990 0.093815
0.260299 0.029188
-0.303104 0.377902
-0.016083 -0.308831
-0.348807 0.330433
-0.053837 -0.391943
0.182163 0.106369
-0.128041 -0.563511
0.003299 0.100794
0.475108 -0.572175
-0.196214 0.219192
-0.482883 -0.616326
-0.526812 0.230009
-0.227339 -0.292549
-0.400587 -0.311220
0.245927 -0.224577
-0.287304 0.228660
0.598164 -0.151207
-0.313467 0.134367
-0.241074 -0.356487
-0.659701 0.305995
0.475223 -0.414283
-0.154150 0.472845
0.033272 -0.745060
0.090534 0.428194
-0.211286 -0.493647
0.717378 0.670151
-0.257556 -0.090474
0.857361 -0.034420
-0.479960 -0.130669
-0.059381 -0.624385
0.143170 -0.306106
-0.392415 -0.382017
0.543969 -0.734924
-0.535810 -0.531601
-0.298454 -0.306004
-0.765977 -0.127872
0.333941 -0.193073
0.072321 0.021607
0.187871 -1.507842
0.368712 -0.635112
-0.285347 -0.021188
0.214448 -0.327741
-0.300157 -0.369970
-1.840936 0.947001
0.741786 -0.171225
-2.312977 3.216232
2.150643 -1.149791
-0.974893 2.413281
-2.448482 -3.422991
-1.499820 3.603322
-2.455247 -2.079041
-1.172072 2.946088
-1.382288 -3.529994
-5.243525 -1.862326
-6.198424 0.440492
0.520617 -7.411879
3.096357 4.165567
-4.656127 -8.166573
7.004224 -4.381641
-19.414071 -3.482455
-10.359675 -1.959887
-5.649774 1.187752
3.114395 2.349469
7.928421 12.628615
-2.454433 3.479054
-10.506998 96.674103
-13.482219 17.091582
52.152859 53.787630
1.438676 11.031877
-669.980380 -91.757581
