4456.833993 5539.473713
-1937.170849 24.003722
18.558391 -10.080961
-184.896483 15.654390
18.583786 -22.484683
-3.467062 33.465570
-2.126626 -33.270249
-20.644848 -60.697950
6.181354 -13.232533
-27.148898 -38.636572
2.089125 13.582966
0.895725 -4.018765
-1.479070 7.793577
-5.264796 6.322903
1.057057 -0.659851
-2.485433 12.191280
2.413457 0.787620
1.080235 1.737043
-4.051015 -4.451286
-2.856994 0.788621
-7.743151 0.284042
-1.232074 4.640342
-0.604724 0.318809
-2.144625 -0.375907
1.436446 -3.776777
-2.383696 -1.793039
1.557760 -2.285768
-0.066636 0.124659
0.532049 -0.329725
-0.204111 -1.230357
-1.995766 1.475531
-0.090148 0.678742
-0.096297 1.866071
0.803211 -0.438558
2.013049 0.951760
-1.266783 -0.061412
-0.614177 0.841620
-2.108026 0.201023
-2.163000 -0.319745
-1.327450 1.250025
-1.368512 -0.809598
1.361572 0.578150
-0.674035 -0.425509
1.320073 0.099847
0.268326 -0.399398
0.560686 -0.618899
-0.199025 -0.555918
-0.258182 0.108234
0.369999 0.047088
-0.092630 0.418874
0.473598 0.410898
-0.014500 0.928784
-0.089158 0.239912
0.619775 -0.097259
-0.051531 -0.083467
-1.126863 -0.915140
-1.028522 0.043379
-1.058941 -0.192483
-0.158526 0.367156
0.486171 -0.253173
0.306750 -0.358978
0.003209 -0.229229
-0.361921 -0.828825
0.469863 0.785506
-0.262481 -0.607567
0.043224 0.267894
-0.177180 0.201329
-0.182238 0.028156
-0.268644 0.167862
-0.120318 0.498905
-0.089629 0.122828
-0.262442 0.436084
-0.192127 -0.280914
-0.098425 -0.024132
0.270557 0.108583
0.031760 0.171203
-0.350287 0.127769
-0.049480 0.060874
0.170662 -0.010808
0.157434 -0.023246
0.241532 -0.702127
0.359737 -0.300468
0.086325 0.340445
0.138611 -0.046045
-0.457969 -0.202054
-0.296266 -0.204690
-0.330196 -0.057244
0.311776 -0.199554
-0.020517 0.102675
0.364013 -0.052354
0.008313 -0.171665
-0.441701 0.030886
-0.096828 0.163381
-1.015187 -0.086313
-0.004965 0.179149
-0.139632 -0.339872
-0.005494 0.425583
0.116004 -0.229387
-0.356464 0.217149
0.077524 0.031660
0.106355 -0.255759
0.258930 -0.164289
-0.015509 -0.274658
-0.561716 -0.149062
-0.186744 0.031364
0.215363 0.686206
0.192045 0.323039
-0.113182 0.138736
-0.178206 0.010801
0.161765 0.043016
-0.126349 0.140089
-0.194081 -0.041978
-0.131784 -0.415071
-0.062516 -0.194688
-0.216495 -0.001451
-0.285140 0.269156
-0.101478 0.362063
0.151424 -0.059831
0.369488 -0.015974
0.190117 -0.061811
0.137926 -0.157266
-0.038372 0.282644
0.116894 -0.133531
-0.302648 0.245066
0.034063 0.398732
0.012628 -0.108433
0.184891 0.250503
0.028687 -0.480613
-0.034743 0.115624
-0.268360 -0.377935
0.281379 -0.291651
-0.016468 0.456512
-0.168693 -0.104745
0.082652 -0.138153
-0.048126 0.183687
0.248215 0.090784
-0.452798 -0.042526
0.190076 -0.214401
-0.085186 -0.234116
0.194069 -0.051861
0.049694 -0.307892
0.057906 0.228268
-0.178652 -0.065808
0.151172 0.145526
0.017721 0.132147
-0.025565 0.035953
-0.481594 0.159021
-0.071898 0.007918
-0.095823 -0.292460
0.037031 -0.342145
-0.188633 -0.240939
-0.123373 -0.036369
0.143020 0.136554
-0.109631 0.196652
0.050772 -0.006077
0.131218 -0.019217
-0.014468 0.164192
-0.261582 0.232793
0.007181 0.022213
0.142193 0.067736
-0.029893 -0.047750
0.060854 -0.314063
-0.332033 -0.149266
0.130240 -0.181469
0.007675 0.273808
-0.246127 0.112319
-0.166344 -0.014386
-0.125734 -0.067667
0.272926 0.119056
-0.215232 0.243488
0.026331 0.247198
-0.040922 -0.269084
0.064003 -0.005124
-0.075064 -0.246780
0.207873 -0.108246
-0.185267 0.187874
0.054382 0.039975
-0.063676 0.092565
0.166911 0.180989
-0.257966 -0.031144
-0.127900 0.240238
-0.103963 0.319263
-0.140089 -0.167944
0.488906 -0.034081
0.190952 0.150663
-0.034144 -0.037371
0.270026 -0.033529
0.065112 -0.255572
-0.106046 -0.164387
-0.185304 -0.109817
0.097546 0.006427
0.086604 -0.098577
0.019500 0.329435
-0.085640 -0.189535
-0.045461 0.147567
-0.002819 -0.264915
0.071169 0.083831
-0.060210 0.188196
-0.097516 -0.153409
-0.045310 0.090912
-0.001620 -0.303894
0.021249 -0.077057
0.055825 -0.259329
0.027840 0.040943
0.043411 -0.012772
-0.158198 0.125902
-0.073239 0.039252
-0.170953 -0.117469
-0.144429 0.138927
-0.205728 0.014366
0.032378 -0.120968
0.155040 0.395259
-0.294904 0.006256
0.358643 -0.141653
0.008308 0.144581
-0.251950 -0.029364
-0.057054 -0.374564
0.343413 -0.057290
-0.106209 0.099062
0.122528 0.263605
-0.151187 0.049390
-0.189864 -0.071913
0.042438 -0.183864
-0.039190 0.264737
-0.012869 -0.003018
0.187816 0.121922
-0.049038 -0.021711
-0.330887 0.064571
-0.012689 -0.286388
0.119586 -0.137696
0.242509 0.057966
-0.384727 0.010789
0.256727 -0.014030
-0.117600 0.191454
-0.023422 -0.004856
-0.008037 -0.163583
0.235863 0.237691
-0.119583 0.089018
-0.284534 0.046191
0.103622 -0.106603
0.022093 -0.048772
-0.017159 0.262505
0.149810 0.029712
0.017454 -0.107467
0.074357 0.041106
-0.009688 -0.434355
-0.094942 -0.181061
0.194423 -0.164263
-0.128191 0.015367
-0.139333 0.234753
-0.247680 0.165335
-0.306724 0.155204
0.127341 -0.203747
0.119112 0.094503
-0.038556 -0.049773
0.241808 0.091594
-0.209379 0.289280
-0.247671 0.076351
0.003318 -0.038722
0.110971 0.073874
-0.008121 -0.287096
0.180664 0.154177
0.086084 0.267468
0.060942 -0.058835
0.220671 0.098324
0.231646 -0.032369
-0.194165 -0.057642
0.176143 -0.198752
0.047713 -0.156297
-0.027696 -0.059173
-0.033845 0.056042
-0.047191 -0.158328
-0.096853 -0.317105
0.085719 -0.104970
-0.058994 0.093803
-0.270629 0.078546
0.038031 -0.125775
-0.125550 -0.038195
-0.092233 -0.025515
0.070312 0.085270
-0.339546 -0.063261
0.306587 -0.087777
-0.083214 -0.025754
-0.108896 0.023375
-0.085017 0.313887
-0.025768 0.243146
-0.128967 0.025912
-0.010236 -0.021032
-0.042985 -0.178547
-0.133560 -0.123335
0.126607 0.104628
0.012245 -0.249001
-0.093984 0.021610
0.349903 -0.142974
-0.170604 0.158477
0.000544 -0.128925
0.064145 0.327057
-0.231764 0.207481
-0.190405 0.004798
-0.033152 0.193573
-0.380673 0.080589
0.001023 0.131095
0.214214 -0.090204
-0.223031 0.039758
0.341286 0.056031
0.001557 -0.253758
0.262173 0.155971
0.196208 -0.138549
0.195297 0.204144
-0.074402 0.169163
0.204133 0.066042
-0.096436 -0.030987
-0.091586 -0.064177
0.203925 -0.191076
-0.074400 -0.043975
-0.107850 0.011428
0.054691 -0.128766
-0.047578 0.034244
0.281319 -0.189503
-0.055725 0.056342
-0.293634 -0.240488
-0.099678 -0.253040
-0.051618 0.060493
0.069407 0.084651
0.070354 0.077934
-0.152931 -0.168756
-0.075225 0.012479
0.088349 0.105148
0.193016 0.143773
-0.199101 0.004549
0.189883 -0.181353
-0.243946 0.101011
-0.244773 0.098782
-0.070186 -0.230802
-0.091684 -0.025496
-0.084682 -0.062327
0.218059 -0.071499
0.000688 0.332145
-0.188386 0.102278
0.049667 0.016724
-0.000797 -0.122440
-0.158338 -0.247885
0.160569 -0.171309
0.020833 0.323156
-0.010934 0.199078
-0.019598 0.225017
-0.226853 0.026178
0.018056 -0.102282
0.040189 -0.074944
-0.022331 0.093939
0.231130 0.153389
-0.044278 -0.082415
0.290779 0.205652
-0.092578 -0.308990
-0.085555 -0.231378
0.207162 -0.155528
-0.112512 0.052203
-0.097269 0.142565
-0.358283 -0.192320
0.281680 -0.032523
-0.249336 0.167576
-0.048213 -0.002485
0.111564 0.055447
-0.078717 0.095736
-0.334441 -0.111451
0.139356 -0.160984
0.105866 -0.001958
0.145244 0.312038
-0.254813 -0.023858
0.121912 0.314797
0.125758 -0.014972
-0.106464 -0.128150
0.175312 -0.295165
-0.084883 0.080365
-0.108664 0.216863
-0.110672 0.217798
-0.159917 -0.119605
-0.196722 -0.210318
0.574862 -0.060628
-0.158375 0.293129
0.045465 -0.204251
0.300929 -0.085261
-0.033463 0.171844
-0.132372 -0.256541
0.016336 -0.140793
-0.035082 0.214763
0.006727 -0.146278
-0.111406 0.181961
0.042486 0.171593
-0.148406 0.168442
-0.112142 0.088339
0.039986 -0.050848
-0.088658 -0.206999
0.150305 -0.108687
-0.003790 -0.107259
0.232146 -0.030076
0.075127 0.083898
0.077697 -0.003535
-0.024474 -0.254833
0.182056 -0.095164
-0.014284 -0.139822
-0.040861 0.033073
-0.270125 0.009960
-0.394370 -0.163238
0.071006 0.289643
-0.110741 -0.194725
0.032813 0.205777
-0.259150 -0.152873
0.097412 0.183782
-0.077921 0.080574
-0.412202 -0.065777
0.341286 -0.299258
0.071935 -0.036563
0.085601 -0.021188
-0.182619 -0.212632
-0.216732 0.240602
-0.331235 0.237611
0.233487 0.202498
-0.108168 0.206479
-0.029621 0.050170
-0.157348 -0.067454
0.192267 0.217499
0.139364 -0.071995
0.326049 -0.000641
0.063991 0.206280
-0.255320 -0.227353
-0.193374 0.106804
0.190747 -0.199768
0.213548 0.204143
-0.215785 -0.129303
-0.288123 -0.055232
-0.089774 -0.239599
-0.007809 0.125527
0.131606 0.070362
0.138024 0.042937
0.149717 -0.004037
0.232340 -0.050821
0.066330 0.323354
-0.148081 -0.172517
0.076094 -0.086355
-0.159292 0.017439
-0.371944 0.013961
-0.333308 0.199874
0.020951 0.070571
0.097835 -0.098229
0.020490 -0.153780
0.408117 -0.151446
0.114748 0.171708
0.305451 -0.082652
-0.254825 0.159225
0.083247 -0.082296
-0.073305 -0.107738
-0.002393 0.071774
-0.378301 -0.090438
0.200845 0.027008
-0.087535 -0.148014
0.342318 -0.315720
0.138367 -0.189488
-0.095420 -0.065514
-0.265639 0.238944
-0.198424 -0.327217
-0.074089 0.072183
-0.319436 0.387396
-0.428863 -0.073360
0.045343 -0.092243
0.231872 -0.003025
-0.184375 -0.237149
-0.033976 -0.182665
-0.292089 0.104569
0.011838 0.231033
0.280143 0.397973
-0.049829 -0.175324
0.076013 0.306570
-0.032539 -0.097066
-0.198180 0.059066
0.107944 -0.023001
-0.268814 -0.272919
0.310888 0.073966
-0.276835 0.002168
-0.169447 0.079328
-0.246459 0.012586
-0.171872 -0.161417
0.288859 0.060859
-0.122130 0.257153
-0.109711 -0.049172
0.153217 0.270997
0.340170 -0.285966
-0.175461 0.246183
-0.311744 0.042898
-0.335402 -0.077011
0.198727 0.055313
-0.178615 0.020762
-0.145484 0.439827
0.233526 -0.189134
0.073026 0.246858
0.543664 0.167691
-0.047325 -0.100410
0.144540 0.187990
0.029896 -0.351418
-0.136799 -0.463985
0.287043 0.131516
-0.155770 -0.143811
-0.079560 0.603034
0.118331 -0.326652
-0.286854 0.073015
-0.090520 -0.378753
-0.239616 -0.315910
-0.120759 -0.397234
0.312108 -0.113968
0.189945 -0.209162
-0.156809 0.012224
-0.282762 0.679783
-0.313981 -0.216421
-0.417213 -0.115684
0.198480 0.082529
-0.262560 0.241476
0.234903 -0.091600
0.093580 0.032631
-0.469053 -0.068789
-0.591868 0.284584
-0.324793 -0.187480
0.094065 -0.083763
0.239444 0.049882
-0.192411 -0.161616
0.030431 0.139221
-0.228719 0.020639
0.171953 -0.116752
-0.050912 0.569035
0.117254 -0.208428
-0.002202 0.222629
-0.342139 0.339996
0.296056 0.274635
0.280789 -0.475591
-0.038785 -0.110495
-0.919629 -0.713908
-0.290906 0.060377
-0.139097 -0.098267
0.186351 0.279986
0.719431 -0.481339
-0.657405 -0.068247
-0.504705 -0.072359
-0.570821 -0.090056
0.040087 0.896460
-0.405787 0.005327
-0.052870 -0.005046
-0.371032 -0.452286
-0.220947 0.013258
-0.418771 -0.152655
0.068999 0.331516
-0.587250 0.317382
0.294371 0.310291
0.037333 -0.064264
-0.799793 -0.724901
0.027329 0.137171
0.280600 -0.871602
0.428578 0.970107
-0.337009 -1.135129
-0.793889 1.809862
-0.915313 0.745686
-1.815018 0.292823
-1.500261 0.723664
0.372292 -0.865405
0.087316 0.964987
0.700549 -0.854369
0.510229 -1.201538
-2.556483 -0.508743
-0.475357 1.011478
-2.071685 0.471638
1.273642 0.558574
1.583443 -0.263652
0.910144 0.136569
2.476321 1.278171
-2.267229 2.762750
4.075627 1.595658
-0.946994 -1.774564
-1.372633 -1.025365
-4.550022 -5.297901
-5.490272 5.359318
-3.291781 -0.522791
2.863863 1.672992
-4.419680 -10.947337
7.319420 -2.407656
-24.259479 -13.895499
-8.574743 -1.847791
-5.325262 -10.012142
-16.642228 -11.989079
7.493952 14.574339
4.089859 -8.711728
9.925164 129.683970
7.902013 29.064443
87.560177 83.416600
58.484522 45.333529
-664.388661 -115.989682
