4360.936215 5381.467326
-616.269766 -31.816639
-18.029751 10.721339
72.197813 44.951379
-26.238780 0.575924
19.909352 107.516035
-17.398738 9.885688
1.020506 11.811524
14.223995 2.144399
-8.111729 -5.771601
9.033741 -4.164547
-19.866396 2.933758
-5.784678 -12.095222
-10.146874 -8.321586
5.644513 -4.867506
-2.632940 -3.914272
3.842117 0.326736
-2.829772 3.403228
-3.908515 -3.547403
0.077176 0.519470
-2.546131 -4.274563
-2.335747 2.929310
-0.732423 0.154939
-2.976830 -0.317052
0.416095 3.201341
0.788453 -1.583470
-0.642057 0.172835
0.947632 0.123879
-0.644875 -1.752265
0.520851 1.142342
-0.432837 -0.183074
-0.816010 0.794415
-0.662123 -1.917153
-0.704577 -0.081553
-0.372504 -2.344550
0.877856 -0.313168
-0.006419 -0.337845
0.461673 -0.376150
-0.131690 -0.873616
-0.099284 -0.330641
-0.437558 -0.205216
-0.085784 0.190727
-0.668460 0.513830
0.210686 0.581482
0.044275 0.309419
-0.209400 0.279715
0.311602 -0.251164
-0.048297 -0.251847
-0.192239 -0.698603
0.218624 -0.314582
-0.589930 0.517334
0.001434 0.214513
-0.993484 0.400627
0.232578 -0.228646
0.274529 -0.572872
0.333865 -0.462015
0.261221 -0.121496
-0.158182 -0.542350
0.168589 0.356105
-0.272048 -0.324640
-0.174727 -0.368389
0.209289 0.688470
0.239841 0.047320
0.226112 0.256624
0.004989 -0.480767
-0.103979 0.086120
-0.557618 0.688824
-0.363816 -0.093948
0.021887 0.469414
-0.150642 0.305693
-0.167888 -0.234851
0.184828 0.109927
0.030808 0.401882
0.150605 -0.227401
-0.166584 -0.445298
-0.221694 -0.424189
-0.653989 -0.150412
-0.210753 -0.061456
0.077741 -0.085956
0.011009 -0.118257
-0.118059 0.100480
0.064242 0.168236
0.116091 0.111665
-0.313712 0.181294
-0.133183 0.105419
0.017955 0.255504
-0.140061 -0.095912
0.415028 -0.319556
0.003131 0.226717
-0.038115 0.148646
-0.182118 0.166367
-0.243145 0.149458
0.017782 -0.217696
-0.524311 -0.338124
-0.313338 0.017130
-0.305216 -0.555337
0.052197 0.316427
-0.268746 -0.175375
-0.115247 -0.197597
-0.051252 0.243624
0.119668 -0.044722
0.021553 -0.081354
-0.372834 0.050589
-0.061589 0.108603
0.013070 -0.213562
0.085292 -0.053161
-0.095202 -0.102326
-0.007044 0.166163
0.380803 0.163519
0.054532 -0.218171
-0.067067 -0.038510
0.000211 0.242452
-0.458099 -0.145192
-0.027000 -0.476859
-0.162689 -0.350803
-0.361227 0.335554
-0.098609 0.079609
-0.234702 -0.193930
0.238120 -0.179316
-0.190890 0.244037
-0.233207 -0.042969
0.003670 -0.285139
-0.021613 0.248212
0.216490 0.013849
0.002125 0.380351
-0.221948 -0.464639
0.224534 -0.354801
-0.054664 0.294015
0.103141 -0.070660
0.151465 0.029478
-0.111652 -0.166631
-0.144998 -0.125808
-0.313518 0.196677
-0.000097 -0.028605
-0.189413 -0.159969
0.215166 -0.086066
-0.043022 0.150653
-0.083456 0.078066
0.067222 -0.072497
-0.256865 -0.167491
-0.147234 -0.171086
-0.331069 -0.047626
0.090811 -0.101447
0.075911 0.251208
-0.001627 -0.063780
0.023650 0.246147
0.110655 -0.275351
-0.102039 0.434135
-0.399978 -0.003853
0.157267 -0.399674
-0.028096 0.285007
0.148917 -0.077732
0.104098 -0.027663
0.076674 -0.143367
-0.270354 -0.174111
-0.055400 -0.446947
-0.054074 0.482774
-0.240164 -0.135527
-0.164984 -0.173331
-0.212071 -0.059749
0.000198 0.085883
0.029763 -0.092319
-0.057062 0.062010
-0.145239 -0.024155
0.029801 -0.094520
0.046331 0.188533
0.022893 -0.012607
-0.017444 -0.002495
0.103575 0.224967
0.015243 -0.133576
-0.093017 -0.142033
-0.001705 0.102322
-0.028327 -0.158871
-0.198044 -0.021175
0.060526 -0.273588
-0.217972 -0.045251
0.210543 -0.040689
-0.235523 0.005847
0.043643 -0.158854
0.022788 -0.021522
-0.256654 0.048798
-0.035648 -0.256199
-0.491434 0.009018
0.190114 0.086539
0.207537 0.069754
-0.088794 -0.084436
0.347799 0.051324
0.037214 -0.010680
0.188467 0.158283
0.052300 -0.151799
-0.140207 0.074685
-0.315636 -0.075720
0.112769 0.026907
0.132146 0.021255
-0.027038 -0.206116
-0.078770 0.080910
0.022211 -0.399847
-0.382032 0.281314
0.020224 -0.013558
0.044549 0.207781
-0.163512 -0.108162
0.246645 0.000645
-0.054815 -0.226718
-0.100068 0.166083
-0.041594 -0.003633
0.067808 -0.204945
0.160570 0.019260
0.272941 -0.102259
-0.071923 -0.026095
-0.175660 0.236470
0.019788 -0.017175
-0.152009 0.262735
-0.016070 0.273338
0.213949 -0.137402
0.185425 -0.033425
-0.015220 0.037394
-0.424532 -0.223857
0.058145 0.282199
0.013316 0.299672
-0.094488 -0.026355
-0.249812 -0.109443
0.051751 -0.182574
-0.036583 -0.127234
0.101543 -0.035478
-0.274886 0.077947
-0.134865 0.279715
-0.180436 -0.049619
0.323242 0.009356
-0.000952 -0.046163
-0.071424 -0.050383
-0.195182 0.185800
0.205940 -0.161469
-0.009540 0.121627
0.127407 0.044314
0.004935 0.222308
-0.362072 0.002951
0.053780 0.017348
-0.054478 0.097097
-0.378268 0.248438
-0.003391 -0.274150
-0.030392 0.045637
-0.112329 -0.141546
-0.100503 0.099220
-0.155116 0.193790
0.093823 -0.190358
-0.206314 -0.193566
-0.126877 0.264129
-0.318081 -0.317892
-0.193353 0.204865
0.193053 -0.141357
0.181756 -0.100616
-0.024418 0.016320
0.141858 -0.041343
-0.316240 -0.087747
-0.074153 -0.034397
-0.036665 0.192654
0.193721 -0.251320
-0.147198 0.242899
-0.117001 0.260292
-0.149951 -0.337347
-0.123223 -0.213894
0.033426 0.153770
-0.286531 0.044699
-0.145554 0.133567
0.055025 -0.038859
-0.007654 -0.189504
0.088338 -0.001260
-0.037186 0.114018
-0.027114 -0.256390
-0.305034 -0.145395
-0.043033 -0.258199
0.153299 -0.163267
-0.035458 -0.121683
0.004265 0.048101
-0.132039 0.159725
0.049221 -0.292858
-0.137653 0.076675
0.122716 0.061618
0.172819 0.142185
-0.173087 0.151939
0.080129 -0.105705
-0.042821 -0.345389
0.203074 0.338348
-0.040542 0.128203
-0.056897 -0.239584
-0.149791 0.008991
0.149780 -0.050162
0.131081 -0.183172
-0.130345 -0.045328
-0.128878 0.094670
-0.159040 -0.144511
-0.323703 0.037729
0.249621 0.048163
0.144063 -0.137396
0.171092 0.034272
-0.029861 -0.005866
-0.078332 -0.371670
-0.057034 0.438026
0.117039 0.003998
0.007423 0.129649
0.035582 -0.056018
-0.028731 -0.056210
0.304004 0.062184
0.010020 0.248459
-0.218744 -0.210109
0.312348 0.141077
-0.169135 0.037023
-0.100238 0.181094
-0.086672 -0.011965
-0.092519 -0.075260
0.098525 0.075249
0.180094 -0.025937
-0.210310 -0.108363
-0.265599 0.031665
-0.146082 -0.016876
0.217841 0.331190
-0.068124 0.174674
0.081455 -0.006454
-0.271397 -0.049636
0.172945 -0.215739
-0.051768 -0.063408
0.236385 -0.069776
-0.299900 0.381243
-0.037067 0.285326
0.242241 -0.091414
-0.026590 0.037240
-0.216960 0.062258
-0.273615 -0.225778
0.049167 0.266007
0.078679 0.124950
-0.042863 -0.072497
0.120633 0.190464
-0.029348 -0.038675
-0.255446 -0.011736
-0.292326 0.057073
-0.000520 -0.114491
-0.112515 0.060696
0.112038 0.094345
-0.142190 -0.071009
-0.338274 -0.251950
-0.030091 0.241670
-0.162645 -0.131482
-0.114545 0.491334
0.308196 -0.058057
0.004135 0.052169
-0.016616 -0.193262
0.101723 0.009978
-0.356950 -0.100298
-0.030309 0.002939
-0.002032 0.007613
0.269973 -0.081371
-0.295621 0.058872
-0.020617 -0.044337
-0.109177 0.178410
-0.282503 -0.142173
0.120195 0.030057
-0.367821 -0.041410
-0.170041 0.195618
0.189775 0.021051
-0.002010 -0.118473
0.041488 0.123334
-0.136710 0.059885
-0.047962 -0.107772
0.003366 -0.043895
-0.081105 0.011130
-0.119747 -0.163308
0.067870 -0.125056
-0.111055 -0.095738
0.102372 0.074169
-0.139626 0.072024
0.113297 0.024808
-0.010757 -0.199498
-0.140322 0.233880
0.020127 -0.102831
-0.084347 -0.064341
-0.131870 0.155270
-0.030827 -0.069607
0.005482 0.063859
0.140730 0.131922
-0.189530 0.066685
0.048516 0.042257
0.009863 0.138124
0.041353 -0.400673
0.024964 0.158863
-0.214904 0.159716
-0.039381 -0.032542
0.005081 -0.476096
0.033282 0.264975
-0.302730 -0.249232
0.059593 0.152267
-0.172533 0.200248
-0.035542 -0.390322
0.179092 0.117806
0.086482 0.299854
-0.226624 0.030239
-0.090388 0.025842
0.084851 0.275332
-0.153226 -0.029092
0.078640 0.140620
0.184624 -0.286582
0.190939 -0.014021
0.029625 -0.216044
-0.220803 0.057354
-0.117213 0.229562
-0.208643 0.213978
-0.301232 0.086066
-0.062771 -0.225103
-0.017172 0.009752
0.075943 0.092268
0.118810 -0.167866
-0.090775 -0.128577
-0.164681 0.056309
-0.207539 0.123654
0.100172 0.420103
-0.221391 -0.220717
0.250262 -0.317960
0.036562 0.281137
-0.338551 0.160664
0.064506 0.018689
-0.270364 -0.092703
0.334218 -0.159054
-0.073588 0.436809
-0.099532 -0.088080
0.052076 -0.145671
0.084252 0.273352
0.191526 0.200859
-0.154026 -0.176263
-0.178256 -0.634984
-0.011259 -0.026496
-0.153570 0.218385
-0.223860 0.022821
-0.077961 -0.149469
-0.370644 0.194785
0.032530 0.189527
0.193737 0.009046
-0.125547 -0.092455
-0.068011 0.080164
0.003934 0.101884
0.186566 0.418919
0.021429 -0.016749
-0.248039 0.109087
0.118803 0.349304
0.131415 -0.395401
0.104344 0.005150
0.040105 -0.021959
-0.198738 -0.229944
0.387833 -0.166990
-0.104161 0.045445
-0.040761 -0.239209
-0.203897 0.359442
-0.033047 0.091832
-0.122746 0.111808
-0.415431 0.045157
-0.372649 -0.369515
-0.257777 -0.163640
0.125740 0.436025
0.017234 0.330629
0.456259 0.505947
0.033662 0.516131
-0.066563 0.355022
0.213546 0.435583
-0.206054 -0.131197
-0.264876 0.062577
0.012453 -0.041370
0.300814 -0.175886
0.247637 -0.198884
-0.155285 -0.629882
0.008364 0.081862
-0.390467 0.119917
-0.249381 0.281678
-0.418353 -0.423253
-0.272958 0.280384
-0.726427 0.532357
-0.107813 -0.235194
0.133948 0.913359
-0.069149 -0.067575
0.062346 -0.288789
-0.180097 0.252458
0.072329 0.248346
-0.276308 1.041548
0.326724 0.064395
0.033464 0.369644
-0.354317 0.963669
0.035006 0.096757
-0.739681 0.197503
-0.173218 -0.274654
-0.960661 -0.869022
-0.016381 -0.376137
0.229273 -0.222519
-0.075881 0.206970
-0.063048 0.132831
-0.673952 -0.060753
-0.341489 -0.708862
-0.598467 -0.176949
-1.041062 -0.235505
-0.303908 -0.116024
-1.194707 0.169770
-0.218937 0.185644
-0.524638 0.589791
0.745602 0.529420
-0.108427 0.630337
0.963505 0.698198
0.300578 0.901552
-0.347147 0.345975
0.056174 2.101022
-1.921708 -0.878722
-0.515353 0.145893
-0.565159 -1.951745
-1.050307 -0.277520
0.736466 -1.459814
-1.409050 -0.212510
0.618644 -0.408193
-1.083270 -3.304020
-0.403773 -0.325363
-1.344359 -1.398064
-2.540193 -1.745991
-2.766290 3.415375
-0.495656 -1.804373
-1.254733 2.696015
-0.513230 -0.432331
2.021666 -0.208059
-1.185134 -2.172675
5.670054 1.406289
1.008234 6.087560
0.553464 6.509926
-4.989532 5.799059
0.829052 2.609592
-6.944068 1.494800
11.924877 -5.016583
-4.110814 -1.818245
-7.377274 -0.056208
-11.891251 -38.425559
-20.407376 2.377302
-3.973665 -49.794903
3.834873 7.929821
-14.363749 31.772412
9.353263 -1.210925
-185.280359 -21.992241
1.615858 9.991277
-1716.452803 -83.368493
