4428.236473 5440.763554
-1771.749629 53.514779
-1.759182 9.511432
-186.981939 9.927619
3.017532 1.812605
-1.156164 36.166605
-11.473310 1.619136
-17.154493 -46.256424
-10.906710 -0.117155
-23.829704 -38.394440
-2.476088 10.515490
-1.040486 -7.567612
-1.280711 7.484295
-3.792402 -4.071004
-1.173552 4.155837
-3.716225 1.910162
7.195419 -0.208185
5.366309 3.579550
3.628543 -1.993166
1.833604 -2.748226
-2.792915 0.308916
-0.611704 -1.261202
0.789091 2.003696
-1.973100 -0.315554
1.015703 2.939681
-3.007492 -1.363763
-1.112349 -0.075802
-1.419979 -1.303665
-1.148860 -1.776166
-0.557172 -2.076851
-1.897008 0.810052
-1.222219 -0.842984
-3.160237 -0.259378
0.928181 -0.946309
-1.297108 -0.492600
1.493951 -1.492756
0.027566 0.423385
1.568960 -0.585874
0.871451 -1.135729
0.100511 -0.443328
-0.003769 -1.753740
0.136315 -0.299194
-0.330735 -0.650550
-0.230159 0.619036
-0.737523 0.322279
-0.711282 -0.049180
-0.263726 0.519103
-0.316081 -0.186536
-0.065950 0.622530
-0.772502 -0.707682
-1.205508 -0.309868
-1.242457 0.058551
-0.181393 -0.131123
-0.613369 0.665448
-0.402846 -0.439948
0.358764 0.796128
-0.224451 -1.025152
0.000709 -0.134830
0.284569 -0.663368
0.289947 -0.405769
0.100622 -0.363219
-0.484591 -0.033068
-0.065518 0.170180
-0.852272 0.329611
0.355561 -0.054452
0.326718 0.095376
0.471353 -0.054041
0.077701 0.383478
-0.357057 0.232792
-0.320734 -0.090289
-0.023240 -0.119118
-0.211668 -0.434531
-0.215179 0.455092
-0.249149 -0.280357
-0.159342 0.204572
-0.388481 -0.251326
0.104524 0.113140
-0.039558 0.074247
-0.277700 -0.452888
-0.138170 -0.323432
-0.300379 0.005558
-0.281858 0.220922
-0.328807 0.230605
-0.162770 -0.234028
0.482306 0.486559
0.497624 0.108672
-0.273263 -0.020378
-0.200341 -0.102535
0.241935 0.128848
0.125087 0.304925
0.274782 -0.320316
-0.136263 -0.245408
-0.348851 -0.062316
0.112446 0.289201
-0.011029 -0.128777
0.001818 -0.209134
-0.637616 0.184188
-0.295257 -0.008392
-0.143192 0.041841
0.502890 -0.389281
-0.081407 0.099895
-0.497603 0.196510
-0.559887 -0.219805
0.329842 0.032558
-0.278785 0.126865
0.725305 0.176610
-0.125051 -0.062956
0.153975 0.125312
0.142331 0.368651
0.137222 -0.226852
0.311090 -0.149679
-0.083860 0.065621
0.252388 0.227545
-0.067451 0.286000
-0.123665 -0.117408
0.202660 0.400680
0.058952 0.245810
-0.091721 0.039227
-0.307975 -0.141699
-0.256849 -0.023519
0.248545 -0.192909
-0.190462 0.049163
-0.140161 0.183223
-0.432450 -0.271092
-0.283059 0.096343
-0.123714 -0.069863
0.194942 -0.137274
-0.243291 -0.024618
0.266926 -0.370030
0.011043 0.006726
-0.172899 -0.160327
0.005724 0.089670
0.004000 -0.066383
0.044210 0.023503
-0.121052 0.106689
0.239009 0.069109
0.038365 -0.186026
-0.031024 0.009888
0.042563 -0.085126
0.112624 0.210509
-0.266430 -0.176768
-0.006422 0.166969
-0.208811 0.360965
-0.181299 -0.174449
0.118431 0.283581
0.011808 -0.155031
0.126069 -0.233465
-0.174426 0.582581
0.189563 0.333884
-0.266993 -0.135768
-0.192244 0.223119
0.315418 0.156221
-0.113039 -0.211898
0.038399 0.102916
-0.322820 0.139911
0.017158 0.135916
-0.078580 0.211025
-0.217121 -0.103041
0.022949 0.018709
-0.470758 -0.048212
0.224285 0.148716
-0.429044 0.203853
0.003381 -0.155835
-0.115150 0.034252
0.051549 0.111048
0.088390 0.096449
-0.016968 0.249533
-0.120608 -0.075716
0.106848 -0.092885
0.086082 0.258089
-0.004784 -0.059419
0.049378 -0.218383
0.111039 0.155010
-0.086205 -0.227952
-0.284591 -0.085353
-0.114667 -0.070767
0.031285 -0.154033
-0.097049 0.122947
-0.076052 -0.228232
-0.388011 -0.277143
-0.001571 -0.175429
0.167921 -0.158170
-0.197017 -0.255202
-0.050719 -0.183617
-0.000000 0.139093
0.002358 -0.096943
0.171696 -0.133887
0.059327 -0.094900
0.000830 0.006413
-0.031743 -0.305853
0.191545 0.104618
0.075873 0.046322
-0.088383 -0.130979
0.030807 0.362300
-0.194663 -0.017067
0.243928 0.063776
-0.145573 0.342256
-0.214679 -0.591403
0.082246 0.102114
0.125985 0.060895
-0.012007 0.142503
-0.039061 0.048835
-0.088420 -0.094631
-0.030448 -0.076114
-0.096862 -0.080914
0.300440 0.017428
-0.293605 -0.139310
0.140155 0.140155
-0.143338 -0.029466
0.101808 0.028759
0.142195 0.147377
-0.270870 0.287588
-0.009190 0.301767
-0.016527 -0.033910
-0.018844 -0.084773
0.310913 0.404316
0.009782 0.029992
-0.086906 0.090511
0.380504 0.275194
0.064609 -0.059683
0.066555 0.114891
-0.002409 0.198857
-0.098976 -0.123348
0.368733 -0.026274
0.428359 0.033455
-0.106911 -0.185046
-0.044394 0.192944
0.147755 0.162913
-0.255536 0.192601
-0.103069 0.126929
0.178600 0.076777
0.205076 -0.028126
-0.025764 -0.115253
-0.049771 0.246939
-0.395273 0.177990
0.256837 -0.025582
0.120998 0.102859
-0.162084 -0.164103
-0.114046 -0.086613
0.152509 0.023196
0.017552 -0.195667
0.050653 -0.031567
-0.034752 -0.159639
-0.039011 -0.092189
0.210433 -0.179332
-0.014700 0.025139
0.154591 -0.066878
-0.099651 0.109103
0.036715 -0.104443
0.045229 0.056800
0.056989 -0.175585
0.061729 -0.134335
0.482029 0.173362
-0.203166 0.019927
-0.120534 0.223361
-0.100751 -0.041596
0.148190 -0.230543
0.047923 -0.054893
0.095156 -0.145087
-0.249088 -0.046744
0.230194 0.024696
-0.215410 0.173677
0.211593 0.200649
-0.090501 -0.364111
-0.341419 -0.226867
0.154247 0.087790
-0.088929 -0.022571
0.186456 0.113788
0.156456 -0.028623
-0.076554 0.001647
-0.335020 -0.162151
0.026584 0.148619
-0.286081 0.197578
0.163039 -0.271087
0.176051 -0.168835
0.139772 0.182836
-0.000000 -0.042563
-0.290385 0.213884
-0.215111 -0.215235
-0.180975 -0.228238
0.144985 0.128325
0.115854 0.103632
0.074971 -0.213786
0.290606 -0.179453
-0.487017 -0.029661
-0.025341 -0.150789
-0.216348 0.019085
-0.119204 -0.149375
0.148080 -0.197543
-0.001282 -0.486733
-0.266567 0.157941
0.031671 0.185401
-0.177235 -0.095950
0.008479 0.066715
0.030180 -0.282962
-0.312436 0.108125
0.047109 -0.310007
-0.148260 0.113112
0.395093 0.230461
0.004624 0.105796
-0.159735 0.242585
-0.201735 -0.162604
0.229343 -0.068395
-0.147861 -0.086897
0.133775 0.057935
0.009210 -0.099600
-0.110535 0.183130
-0.068490 -0.174706
-0.235383 0.142058
-0.023582 -0.225621
-0.003634 0.148107
-0.079021 -0.076148
-0.075896 0.002823
-0.140731 0.058291
-0.015823 -0.024679
0.216183 -0.085538
-0.346214 0.084380
-0.167438 0.035453
0.123480 0.155704
0.140357 0.226611
-0.202488 -0.116031
-0.172434 -0.149596
-0.300996 0.062316
0.039805 -0.041358
0.239924 0.119049
-0.267917 0.040164
0.101822 0.052087
0.040499 -0.219399
-0.320771 -0.145964
-0.286737 -0.032813
0.259358 -0.308563
0.215420 0.104100
0.154072 -0.063094
0.148104 -0.299487
-0.113174 0.099933
0.162575 -0.225497
0.260009 -0.150236
-0.395534 0.151682
0.221281 -0.267094
-0.124411 -0.137063
0.067556 0.144262
0.204160 0.297569
-0.272877 0.070549
-0.047794 0.043595
-0.144128 0.031639
-0.019769 0.090289
-0.035087 0.055974
-0.192889 -0.068774
-0.142323 0.138771
0.100512 -0.110459
-0.019212 -0.024923
0.110707 0.132161
-0.051072 -0.050484
-0.001530 0.259044
-0.234442 -0.295846
0.404006 -0.334154
-0.134590 -0.055118
-0.027680 0.317524
-0.097097 -0.213101
0.148630 0.580780
-0.036303 -0.078755
0.014657 0.243465
-0.072655 0.289995
0.028360 -0.081976
0.258511 0.179673
-0.099750 0.197437
0.027687 -0.012501
0.007450 0.248788
0.000000 0.286535
0.153242 0.132997
0.007152 0.009818
-0.033939 0.042817
-0.262625 0.209110
0.420440 -0.186861
-0.148042 0.180962
-0.056220 0.223991
-0.169924 0.163967
-0.158540 0.178706
0.215379 0.082225
-0.126177 0.174348
-0.142688 0.192843
-0.065941 0.161179
-0.000682 -0.077311
0.044543 0.384132
-0.064860 -0.087011
0.193048 -0.295892
0.148605 0.313954
-0.262319 -0.343115
0.193680 0.192332
-0.319188 -0.382984
0.308844 -0.156016
-0.106948 -0.020670
0.023992 -0.007787
0.024763 -0.080832
0.016062 -0.262890
-0.050682 -0.066587
-0.131719 -0.062961
-0.146966 0.113949
-0.013192 -0.003824
-0.130550 -0.036160
-0.142120 -0.232645
-0.456010 -0.089582
0.145623 0.187990
0.039519 -0.436252
-0.069519 0.148635
-0.121575 0.300274
0.016334 -0.570411
-0.299112 -0.352228
-0.053769 -0.075196
0.013326 -0.267186
0.209104 0.115278
0.035141 0.130062
0.263127 -0.275857
0.092997 0.152675
-0.042563 -0.085126
0.301924 -0.100636
-0.089470 -0.117825
-0.030153 -0.052417
-0.010078 0.269500
0.028264 -0.042881
-0.158508 0.210317
-0.094300 0.104520
0.086474 0.166313
-0.277752 0.089057
-0.261033 -0.118180
-0.207026 0.124937
-0.167207 -0.040355
-0.442947 0.173269
0.247732 0.070060
-0.087411 0.048246
0.033600 0.132312
-0.115848 0.316934
-0.357369 -0.200939
0.194509 0.011208
0.267529 -0.111921
0.140290 -0.231282
-0.013790 0.273882
-0.195757 -0.038076
0.229565 -0.120009
0.034453 -0.071572
-0.125071 0.174027
0.174538 -0.064758
-0.224828 -0.277870
0.224279 -0.200350
-0.195207 0.169970
0.438585 0.129285
-0.152058 -0.256227
-0.103299 0.071018
-0.207939 0.056593
0.143910 -0.104251
-0.007794 -0.115617
0.805369 0.155107
-0.432072 0.299544
-0.266638 -0.310017
-0.293463 0.208797
0.523686 0.105880
0.211568 0.293021
0.193940 -0.143001
-0.405083 0.030198
0.008387 0.302769
0.093474 0.232568
0.196373 -0.254387
-0.197809 0.007907
-0.085349 0.264148
0.131529 0.252137
0.209310 -0.206582
0.654301 -0.223196
-0.576598 -0.031828
-0.396039 0.122699
-0.020133 -0.314451
0.093970 0.017889
0.059227 0.272718
0.010113 0.081417
-0.061953 -0.163814
0.206233 -0.274162
-0.168398 0.281933
0.060462 0.083128
0.099436 0.018454
0.365828 -0.152041
-0.096160 0.113367
0.327532 -0.065510
-0.051578 0.027764
0.121191 -0.571121
0.200348 0.200348
0.599201 -0.069786
-0.239687 0.282308
-0.076703 -0.249542
-0.819010 -0.304976
0.030599 -0.118556
0.011283 0.024766
0.313141 0.380848
-0.290431 0.043960
0.046170 0.206003
-0.500190 -0.157877
-0.141300 0.119681
0.370614 -0.286915
0.335794 -0.320292
-0.010045 -0.076402
0.338430 -0.021289
0.246851 -0.567550
-0.136463 -0.041615
0.060103 -0.775555
0.678940 -0.554510
-0.652919 -0.716625
-0.683273 0.028764
-0.714404 0.350265
-0.890763 -0.232568
0.192347 0.454966
-0.899784 -0.016663
-0.070854 0.901514
-1.359785 0.033718
-0.307324 0.101379
-0.942010 -0.124486
0.259515 0.395697
-0.765043 0.400524
-0.261073 0.494737
0.214449 0.680067
0.526640 -0.655569
0.016251 -1.564371
0.911500 -0.449121
-0.448910 -1.287199
2.018862 -0.165328
-2.880082 1.239196
0.016961 -0.615341
-2.517289 -0.202265
-0.378409 1.060276
-0.281886 0.570658
0.009409 1.696313
-1.291169 0.983422
-1.896054 3.389573
-1.894013 -1.696327
-2.870755 2.856148
0.969093 -2.379126
-3.272675 0.229532
-3.259118 -2.386388
-5.080652 2.608095
-1.989549 -1.089480
1.410862 -3.924278
9.319907 -2.335813
-7.418903 -9.049866
5.335801 -6.731199
-20.710718 1.725413
-4.721010 -6.698839
0.441521 -0.813539
-8.128234 -11.145055
6.930133 20.933456
-11.609380 2.907128
-1.651441 110.790305
-19.754857 12.520726
62.383306 43.912088
-4.362942 19.396591
-645.846182 -76.438924
