16822.740355 20176.642698
971.345386 -3731.418556
-2161.823550 -1864.306790
1178.609962 282.494648
525.835876 -90.587459
-542.011201 -707.074093
-581.591505 198.892283
269.720562 362.965123
94.812746 77.609966
-497.697929 -263.395337
-287.831024 -209.829143
-81.151077 -219.678388
-152.095852 7.895728
-288.312318 -453.006696
-150.475892 -448.560351
108.367924 -155.134289
156.937283 74.881980
-169.387865 -151.066795
-148.257613 185.278087
-199.163730 -205.938729
44.142867 -422.360020
136.451154 -150.826662
-17.081755 -158.500329
22.042205 108.011959
-144.202850 94.362795
-46.236345 -211.883464
-19.570255 -40.088977
-56.088944 -104.106435
-9.729843 -137.456011
-45.152096 -1.599586
-33.215820 -98.083227
92.739286 9.453493
77.524837 -51.506110
-73.825216 -164.219478
-117.594455 -62.589370
-88.577779 -148.980562
-55.095279 -11.983773
1.548561 -61.791074
-25.251212 -33.429487
-83.635434 34.115218
91.861057 -88.458453
-95.625031 -124.221432
-93.095552 -47.495269
-35.950062 7.518384
-71.007545 -75.910730
-1.836948 -86.201160
-122.222646 -45.896962
-35.195501 23.936744
-47.412996 54.748745
44.011986 -56.902348
-48.776774 14.098989
28.469390 -102.889157
-14.332399 -56.324263
-121.273215 -59.997070
13.791887 55.373775
41.550758 -51.905288
-29.425271 -80.764360
-53.036292 -3.304833
-41.098353 -0.294117
40.015674 -11.817722
-20.738748 -75.538903
-45.495731 -35.664059
-34.901773 10.534141
13.240599 -19.198851
12.790933 -58.983971
-45.693451 -48.770918
-22.081358 -0.941554
-9.142570 29.434958
-36.245091 -96.555762
-58.606228 -1.316627
-13.669286 -5.419221
29.748335 -15.245239
-3.260385 -51.013927
-88.767564 -6.298191
19.500409 14.757103
-34.456470 -64.730771
-36.612632 -3.860542
-38.999560 -16.208206
-33.632080 18.144926
2.922858 -9.541275
-9.216716 0.505721
14.507352 8.512547
-4.846929 -32.631356
-4.433567 -30.621822
-43.625112 -40.015990
-24.932993 -22.797935
-22.721705 16.185155
1.173770 6.863920
-1.507109 -13.722002
-15.678199 -2.924202
34.172179 -12.971254
-25.767051 -44.171436
-33.858497 11.778655
33.804283 -11.498416
-26.303846 -40.329344
16.748621 -8.142517
-33.050713 -39.175189
-19.151728 4.422825
-14.641007 4.908118
7.948027 -31.283898
-34.969576 -17.080009
-0.368840 18.504506
-8.376435 -45.291850
-26.926544 -2.247790
-23.690820 -13.469098
-24.810786 -2.346016
-36.764607 26.679179
30.613167 6.225363
-24.578914 -25.218665
-19.125696 9.860443
16.147842 11.730304
1.099971 -23.907950
-5.358660 -14.823006
-17.043834 -13.854393
-1.934318 -13.691697
-14.164949 2.691195
-9.392524 -19.821058
-30.769427 9.713130
11.633132 21.530385
24.768203 -34.620153
-10.173767 -18.773736
2.840404 -15.385847
-15.081384 -9.329588
4.726234 -20.565773
-24.986220 -25.076218
-28.428480 -0.581274
-8.515635 -2.159437
-5.479369 -2.530406
-10.911281 -11.923632
10.963217 -1.773089
-20.585098 -7.719839
34.699702 -7.447227
-28.864587 -38.167081
-32.740183 -22.655166
-15.682843 18.707404
-9.335815 -25.523785
-26.447704 9.170910
-12.508900 15.381626
8.635316 -0.770337
-4.556469 6.115721
2.482682 -31.884287
-24.808497 8.734278
4.066848 -2.014180
15.160651 -32.623801
-54.765653 -30.566476
-21.078494 22.183489
-6.171833 10.644279
-5.367782 -14.350806
-15.720704 6.444967
-3.154482 2.116558
-4.560756 -4.880674
-0.794072 -4.867580
-18.446503 -28.919544
-39.788483 18.288528
3.952259 18.471414
9.303817 -1.491477
-23.258118 -2.564149
5.446350 21.230842
7.515690 5.975798
8.461103 -3.703770
7.105317 -3.739132
-5.791545 -11.412881
10.848785 4.542144
5.014760 -27.171488
-27.275958 -16.276827
-20.862263 15.400479
-0.777239 15.021612
17.617277 -7.073162
-8.741769 -8.506735
4.519381 -6.752184
-9.156214 0.276652
-2.215736 -23.182913
-22.155405 3.253024
-14.084489 0.705220
-0.240183 4.412964
-15.550461 -0.717665
-10.630413 4.007047
-8.894665 15.867776
11.755968 6.520622
-0.134150 -5.559660
1.511897 3.327913
-1.807450 -4.963697
8.781533 -4.999783
-26.873393 -15.167068
1.876222 13.533597
-12.616702 -6.266043
9.785924 13.520353
-3.028789 -4.388478
1.961479 -5.959182
-9.084244 8.779706
7.494730 0.606268
3.156688 -7.819917
-9.341238 2.275495
13.133544 -4.402880
-16.041591 -7.739098
-1.082906 4.985129
0.633031 -1.125604
-7.163655 -2.148622
7.001913 8.718255
7.566208 -6.505277
-10.810508 -11.233521
-0.913618 9.889401
-2.345416 -15.086548
-4.182383 3.012352
-10.424778 -1.961015
2.879608 -6.665342
-14.919292 8.150403
5.289905 -2.317451
-7.856605 0.711388
-12.938151 7.170768
16.808892 11.675946
-4.175970 -15.836467
-3.924803 -4.789139
-7.823988 4.199008
-1.167848 -6.147514
-2.198115 2.257494
-8.974871 -3.082306
1.404319 3.459044
-6.930059 5.717836
5.301298 -8.538706
-13.667525 5.172629
3.196365 5.186077
9.009079 -0.540070
-4.542836 -8.028226
-9.269779 3.448755
-1.415551 11.855728
6.769006 -3.886016
-11.354941 3.412015
4.772329 10.518054
16.025186 -1.948062
-3.906998 -11.984623
-0.527386 0.492164
-6.605729 -0.353394
0.491468 8.148329
9.507708 -5.359485
-5.762284 -9.063135
-8.960701 -0.874471
2.937695 9.594759
-4.308138 -12.134398
-5.613263 10.189437
6.267384 2.520237
4.718865 -10.108110
-8.816190 0.625010
-2.022445 -4.542615
-7.122976 4.823235
-2.584268 -3.142082
2.723642 -2.932621
-16.702287 0.353518
3.907813 15.106694
12.121348 4.085108
-2.205777 -13.887355
-4.534488 7.829047
2.743278 -2.006545
3.776619 -8.832926
-12.728631 -3.796664
-8.370199 -1.200634
-6.495180 17.219194
6.895820 0.445987
-2.199073 0.992244
-9.482727 5.978327
13.310918 12.469703
6.047771 -6.500418
-4.673429 -9.525540
-4.966434 4.326673
-0.900770 0.241193
3.546635 -0.295981
-6.538375 2.204277
1.560214 4.898517
-1.513018 7.061883
8.763411 -2.302152
1.917430 -8.983291
-9.942580 -1.563302
3.397063 5.520097
2.296180 -2.150552
-7.363681 -8.894253
-7.707757 12.310845
-4.451231 -2.747184
2.011019 10.220254
0.952035 0.908552
6.510133 -2.380211
-0.468941 6.215604
6.254264 -3.196817
-0.586713 -4.665622
-10.533877 -3.121251
0.966108 2.351500
-4.194648 1.314368
-2.506051 -2.959567
-2.669082 7.334430
-1.811512 -0.309608
7.037085 6.941270
-1.271501 -8.104187
-4.070728 -0.101415
-8.879897 7.282364
4.252747 3.476316
-2.364924 -5.300807
-12.112593 6.348815
4.550982 12.201758
3.672764 7.441830
9.921671 0.585310
1.221952 0.134075
-0.602349 -0.659800
4.279567 0.270272
-7.071767 -7.569741
-8.073858 1.038168
-4.519563 15.437177
11.834732 1.602181
-2.754814 0.059582
-7.439904 3.364938
8.213465 8.228891
2.796921 -3.934373
5.187644 -5.683136
-6.803013 -4.904374
-8.565677 2.634376
-2.740696 7.097753
-2.620811 2.003605
-5.045033 5.377901
0.952146 20.959282
15.829961 -1.593520
2.352827 -2.630093
-2.532724 -3.122448
2.965996 4.189001
0.325405 0.397006
3.781764 -0.779192
-4.039665 -0.428104
-6.286401 2.428678
3.455020 7.349113
-6.015273 1.313608
0.209375 7.993546
6.712627 10.245449
9.139591 -4.068197
-2.671238 3.232272
1.133307 1.218441
0.012483 2.738511
-4.573860 4.925911
5.376968 4.227857
-1.752857 4.112795
4.464067 3.994019
4.786733 1.528436
-2.509071 1.855522
6.803510 7.074455
3.846517 1.382160
2.982874 -4.599617
-5.163465 1.358841
0.588953 1.491844
-2.858694 4.460400
-1.693738 13.175290
10.953784 7.709820
8.360948 4.467514
6.054442 -7.516723
-0.336163 3.176065
0.513696 -2.007994
-1.213512 2.682852
3.658848 6.691603
5.307149 -2.416127
2.250743 5.965716
1.318247 -1.195234
2.345122 1.130005
-3.578057 6.668962
13.735439 2.511528
1.006709 -2.276238
-0.651556 -3.689127
-1.321287 5.242896
-2.888246 -0.372007
3.972324 10.008984
5.214224 4.307863
3.669566 -0.943292
-0.965684 7.778814
6.089002 -3.710335
-4.835118 2.673364
5.224770 8.985410
9.399720 1.881633
3.742681 0.958411
1.189217 -3.032188
-1.013595 0.091171
-7.824331 4.341625
5.566967 12.491569
4.626135 0.538966
5.487918 1.935488
5.300586 5.619704
3.950071 -3.920587
3.002476 6.904614
3.314967 -5.164051
-0.953868 0.559638
0.674924 3.734424
4.886769 0.662559
1.007037 0.548534
-2.905887 3.465258
7.300527 7.897807
6.228347 1.776737
7.207605 -4.978452
-1.302840 1.599916
2.282462 -1.807107
1.038253 0.668827
-2.590155 -1.604169
-0.850109 7.264955
3.740974 6.986281
5.635026 0.128588
1.428269 2.672734
-3.017061 3.079152
6.461540 9.145804
8.607801 0.475095
4.588911 -2.036232
2.057032 2.780029
4.140089 -1.345612
1.418836 -1.114614
-4.698104 2.748942
1.814768 4.870027
3.467832 8.939258
8.134389 -1.087134
1.465007 0.924959
-2.881854 -0.582939
9.577495 8.369809
1.540333 -6.837200
-1.342333 3.852375
0.420644 6.651561
2.706639 2.142877
5.112479 5.056055
0.702695 0.240118
5.020435 9.133858
10.326030 6.467880
13.910263 -8.973606
-5.000406 -5.693465
-3.530601 3.431002
6.635277 3.759434
-2.250584 -0.022165
6.079304 4.073581
0.511485 5.090383
7.645664 3.663629
9.728604 4.106735
1.907444 -8.860583
-0.245741 3.921474
4.942890 1.505788
2.972502 -4.608274
-3.607832 1.921967
-2.535570 4.691667
4.567985 8.211534
6.862110 1.557771
5.070392 -1.157657
0.071960 5.686328
6.332615 2.031926
5.787260 -2.649593
-4.599050 -4.042202
0.088119 5.464487
-2.215159 5.587595
5.914957 3.164056
-1.372456 4.642377
2.993356 5.593787
8.466436 9.105264
8.102201 -1.561790
3.924525 0.358619
1.851239 0.501069
4.536946 -0.178919
3.008848 1.046030
-0.026457 -1.945832
-3.157698 4.860843
3.807193 10.819649
10.314515 0.480962
3.779613 3.223920
5.319313 0.154234
8.189898 -0.379107
-0.335675 -4.159315
3.542751 -2.564130
-7.058355 0.545889
-0.448041 7.438913
5.944940 8.603339
1.665266 -2.646125
2.175536 9.989180
9.331334 4.177960
9.101342 -0.280674
3.607809 -3.067427
0.636843 -0.273467
1.281655 1.917592
2.421610 3.432512
3.021444 0.461354
-2.660539 7.643716
9.123949 5.641695
7.863785 0.585015
-0.122521 -0.590641
4.767272 2.013779
-0.009768 0.839316
4.918560 0.137903
-2.938937 4.171069
3.435759 5.701787
5.235303 8.886269
6.697084 -0.640739
1.940720 3.493257
6.317228 8.693657
11.733582 0.536076
6.415481 -0.835101
3.203836 -2.882329
6.325553 2.123710
1.568815 -2.885750
1.048842 0.365554
-0.999566 6.920140
6.568585 5.220532
11.789371 3.046099
2.253245 -5.712692
5.322546 4.299631
2.912743 0.617355
7.902167 -0.073341
0.373913 0.234366
2.136816 0.476266
2.279999 5.988615
4.974793 0.487079
1.011215 3.587803
6.479039 9.275491
12.081457 1.852025
8.439050 -3.685243
0.979683 -5.033357
1.870730 -1.845092
-2.560631 2.735475
4.156859 3.848513
2.972815 4.693105
2.962590 3.265287
8.563328 3.321701
0.611756 -1.091489
4.486499 3.361479
2.975706 3.505730
7.432192 0.506958
3.778697 2.703638
3.304004 -1.954361
1.098054 5.563161
5.795890 3.769299
6.843038 0.709138
3.486944 2.093348
6.372027 4.067493
9.808873 -0.431086
1.630428 -2.537568
5.196504 -0.031192
1.250685 2.347278
7.843816 1.483630
5.333222 1.320603
-0.054676 -2.724586
3.684291 4.964390
2.689672 2.073701
6.969394 2.042390
2.831771 3.640605
8.205122 2.104233
6.751180 2.272428
6.164312 -4.013375
0.616468 -1.454319
1.443706 5.106702
6.963776 1.880882
6.030410 1.265587
1.270687 -2.496293
3.987334 3.736980
2.665899 1.758065
6.096542 0.407225
-0.023775 1.765455
4.416206 4.164554
7.601527 3.050648
2.225001 -3.854510
0.119630 3.873891
2.314503 5.379685
9.745478 4.495101
8.473973 -0.745210
3.132453 -1.275619
5.879738 4.174935
6.007303 1.866444
6.599980 -2.769609
1.516864 3.409490
8.431549 1.334306
7.989070 -1.082378
0.616603 -3.707276
0.833891 1.955988
0.174755 8.785118
12.333387 1.824944
7.523514 -0.093972
1.579904 -4.385145
5.638458 6.935549
6.052880 -2.881920
4.553246 -2.475425
-2.510154 1.176792
6.045206 6.050510
7.889316 1.559777
4.824947 -1.890077
2.051206 1.050729
4.239350 5.871281
11.909620 0.344265
5.718479 -4.808636
-1.010925 -3.238118
3.270015 3.801535
3.690793 1.826249
3.304528 -3.284956
-2.954206 5.594838
7.258996 6.644966
9.916064 4.799813
5.464514 -5.587645
1.694650 1.665272
2.513221 2.399715
9.212667 -0.103045
2.282218 -2.813203
2.490848 0.227048
4.612805 5.766802
6.527070 -0.212570
4.602361 -0.127486
2.356570 4.371888
8.483493 3.140560
11.149419 0.479365
4.442801 -6.937650
1.911416 0.637640
0.045956 0.933455
7.104270 2.227240
3.213697 1.162948
4.352577 2.702872
6.673795 5.017284
6.920705 -0.589716
6.455345 0.372052
3.547762 -1.038431
6.414766 0.812638
6.321887 -0.258964
5.639734 -2.872334
0.558819 -1.814884
0.088421 6.378587
8.908098 1.013101
6.378123 0.720843
4.644586 -4.283722
4.244485 2.996878
6.090349 -1.194219
5.116955 -1.604877
-0.824077 -0.453792
3.793547 3.400383
6.218920 3.849585
5.793397 -2.319101
1.965557 3.786023
6.105980 4.161184
11.021987 2.968926
7.450572 -4.262700
2.169879 -3.640245
3.199339 2.657716
5.521438 0.267959
4.896021 -1.268807
-0.430066 1.568057
5.811905 4.082015
7.376815 3.450505
6.207109 -2.896866
5.904099 1.827751
5.538043 0.931024
9.172241 -0.453212
1.765716 -4.174133
1.160083 -0.090244
4.545288 4.182612
5.407683 0.958439
8.362411 1.361425
2.592562 -0.144805
6.617634 1.525385
6.724643 0.241823
6.320415 -4.243223
3.128511 -0.168897
3.006387 0.563072
6.719766 -1.747303
-0.048276 0.185492
5.223247 2.269607
5.598670 3.670727
7.154735 -0.813696
5.809155 -1.033376
2.448600 -0.009622
6.621582 0.322157
2.563402 -0.682730
3.809619 -1.466634
3.009629 2.444281
4.875214 2.014950
6.861256 2.397539
4.795690 1.161906
3.489248 -0.671613
6.445118 2.123928
5.454450 -2.465269
4.691115 0.185638
2.362478 0.809695
6.467080 -0.237995
2.762020 1.743732
4.242678 -0.076696
3.912391 3.796532
6.018454 1.961844
8.805615 -1.331765
2.516230 -1.306626
6.269064 0.216658
4.746619 0.839179
4.890990 -3.052384
4.464938 2.407597
5.352310 -0.107684
6.331506 -0.383131
3.881175 -2.027501
2.293944 -0.363495
6.161226 3.478101
6.737160 0.583804
8.440439 -3.688849
-0.521827 -0.141346
5.865285 0.227109
3.485744 1.034901
4.234679 -0.527990
6.385452 3.070916
6.297433 -0.746970
7.892287 -1.881280
2.859549 -2.533625
2.978350 -1.005480
3.806578 2.563315
6.818626 -0.974067
4.835976 -3.585029
-0.069029 -1.432023
3.280758 1.709131
5.596619 2.879479
5.393997 -1.926725
3.234740 1.575840
4.103537 2.118755
8.493080 -0.578365
2.185395 0.438086
5.703935 0.537472
4.606072 3.987632
9.991316 -1.179929
6.740666 -2.476852
2.874870 -2.278426
4.066074 2.379723
6.016074 0.563098
2.522907 -2.760468
3.632562 2.542816
7.872048 2.134400
8.601294 -3.137187
5.300793 -3.475868
0.714007 -4.099290
3.408540 5.007938
6.501000 -1.711422
5.915661 -2.631431
0.038967 0.897042
7.626315 2.803394
6.396378 -0.190402
4.570869 -2.668059
3.820089 3.197921
6.664931 0.805893
10.196061 -3.162873
1.216156 -6.073432
-0.330076 -0.971220
1.894945 7.850131
11.168587 -0.434255
4.515336 -3.010971
2.312566 0.807877
6.583652 0.474834
6.162694 -1.851090
2.706437 -3.601434
2.183887 3.417957
7.524212 0.832163
8.483571 -2.501713
0.994416 -4.642173
1.059569 2.213728
6.753212 7.020734
11.096052 -0.899287
8.269762 -1.977272
2.827093 -2.711831
7.222007 0.224938
5.427479 -2.841613
2.246920 -4.287414
2.145206 2.041372
5.358078 0.468941
6.980445 0.665267
2.323715 -1.787938
2.847681 1.494073
5.898523 6.064446
10.459930 -3.082025
6.542781 -5.271607
0.305988 -2.391403
6.629974 0.067920
3.404950 -1.852726
2.758142 -1.057187
2.406584 3.223206
6.667145 1.318778
9.877941 0.055306
5.903610 -6.255044
1.094933 -2.749346
4.134871 1.218222
5.626076 -3.067326
1.315116 -1.526356
1.167304 1.487651
5.065476 1.109683
5.501685 0.870213
4.752713 -0.806367
4.152235 2.612765
5.526893 1.323684
11.402476 -0.316506
1.941755 -7.498291
1.551301 -0.435310
3.382983 2.090594
6.099739 -0.628327
4.675126 -1.078555
2.943147 -0.206194
6.797742 1.693178
5.833862 -0.990843
4.810738 -3.119190
1.109457 1.321040
6.239933 -0.773659
7.033253 -3.389648
2.561043 -4.787374
0.400905 -0.911097
2.665770 5.143760
6.936328 0.431687
7.607795 1.198415
5.542358 -0.577303
8.579611 -1.362226
4.623127 -3.499985
4.038609 -2.296398
3.738295 -0.852612
3.264828 -0.617244
5.999881 -0.041975
1.497984 -1.989267
4.363953 2.827841
6.611191 2.227645
6.328605 -4.457013
4.255212 0.377693
4.205592 -2.059926
6.597970 -0.822491
0.720771 -1.966672
3.756655 1.099313
2.088072 3.035961
8.244317 2.543567
7.845162 -0.411028
3.619494 -1.729435
7.642657 2.007866
7.826833 -2.774296
3.936154 -4.387568
2.845003 0.738814
6.216736 -0.273028
6.019987 -1.149215
2.895816 -0.650017
5.425183 -2.357250
3.917987 2.699793
7.089293 -0.366643
6.511030 -1.301759
3.129592 -1.284638
7.896529 0.685500
4.895738 -2.090979
3.716002 -2.729983
2.814349 1.205173
4.791220 -1.214425
6.128246 0.410603
4.646633 -1.476790
6.099229 -1.824835
4.925728 -0.794216
5.650452 -3.246211
4.764921 -2.313361
2.565371 -1.798026
4.433246 -0.352899
2.627870 -0.203508
3.363923 -1.092579
2.500917 3.122476
7.854739 0.911082
7.106848 -0.079714
5.115927 -2.280603
5.016307 -2.157780
3.356610 0.788922
6.363842 -2.791069
3.963153 -1.679817
2.622775 -0.128811
8.080331 2.699906
7.756574 -2.658166
5.164594 -2.934908
6.365439 0.296819
4.681989 -2.507998
5.561058 0.212098
4.108972 -3.178436
4.939570 -1.356312
3.256708 1.154256
7.367458 -2.027529
3.824540 -1.713594
2.178560 0.790199
9.108442 1.732104
6.421175 -1.717719
6.137376 -1.863529
4.145468 -0.143580
5.975015 -1.090950
7.398385 -0.492620
4.716379 -4.899958
3.498532 -0.950704
5.637204 0.540734
5.426013 -3.462320
3.564248 -1.093130
2.477673 0.835136
8.175600 0.989666
5.871643 -3.535091
6.676128 -4.271011
2.388231 -2.430080
3.187677 -0.723241
5.902324 1.099018
3.884011 -2.123510
5.544936 1.473409
7.781884 0.555716
10.175205 -4.664734
2.484188 -2.293718
4.887738 0.529548
8.912172 0.151564
6.127914 -4.961894
3.459652 -3.575473
2.294484 0.082618
4.233488 0.259788
8.221862 0.472107
3.189744 -2.648060
5.811765 1.753322
7.918394 0.527024
8.642084 -6.349234
0.948665 -2.205819
4.215232 0.539320
8.433976 -0.011138
5.840111 -4.372884
5.638798 -4.194497
3.158864 -1.105882
4.476036 -0.308231
5.847211 -1.823227
3.287665 -3.869626
5.137072 -0.804545
7.272196 -2.799998
5.489510 -6.336537
1.565967 -1.776769
0.658683 -0.893103
5.188772 2.102806
4.756600 -0.741794
7.369823 -2.068591
2.783790 -1.847879
6.585210 -0.654791
7.037948 -3.211080
3.710783 -4.449465
4.714499 -0.056698
4.718197 -2.424000
5.463781 -4.076806
0.884628 -1.195711
3.679266 0.949197
6.872730 1.769081
7.801577 -0.391612
8.484233 -5.291052
2.269988 -4.243646
3.749345 -3.455894
5.118191 -1.130724
2.440653 -2.931164
4.449619 1.307566
6.182492 0.187273
7.728645 -4.057021
4.101087 -1.667981
4.819655 -1.567976
6.716695 0.632724
9.238075 -3.955860
6.704700 -6.403433
-0.449345 -3.862443
3.557994 -0.515638
6.235961 -1.103964
2.041619 -3.869678
5.356332 1.682297
7.040099 -0.744868
7.961803 -4.008537
3.618365 -3.112676
3.130258 -3.153217
5.608079 0.382241
6.042212 -3.812011
4.758909 -4.782020
0.317831 -0.669791
5.828297 0.664714
5.596968 -1.116297
3.855157 -1.021929
8.177153 -0.000560
5.957783 -3.334081
7.714604 -6.098048
1.603583 -4.502596
2.413528 -3.513518
3.954743 0.639662
4.639200 -1.355244
4.260065 -1.551131
4.984660 1.398153
9.185525 -1.664148
5.810574 -2.242792
4.763282 -3.923333
7.038686 -0.950890
3.962118 -4.108383
4.706322 -3.374758
2.841582 -1.524536
3.318289 -1.600301
4.973012 1.849812
5.486623 -2.788159
6.672751 -2.895624
4.630061 -1.979632
6.398168 -4.304087
3.054705 -3.843794
1.737005 -2.049825
5.184568 -0.473871
4.756465 -2.665346
5.009548 -1.905856
2.536046 -0.575278
3.052402 -4.078028
6.263066 1.385660
6.760868 -3.687578
5.034154 -3.982669
2.850517 -2.983578
5.492506 -4.479523
1.121834 -3.457133
2.993651 -1.498957
4.912444 -0.483446
3.290473 -1.562664
6.682494 0.107800
5.539711 -2.567109
4.421110 -2.187384
7.126833 -0.705417
4.161598 -4.774166
3.374084 -2.168009
3.863402 -0.788018
4.697237 -4.190648
2.256680 0.998334
5.820779 -0.627068
5.747122 -0.902038
5.648760 -3.323795
7.213256 -2.994020
4.987100 -3.811352
3.790134 -3.024882
4.823288 -2.391470
2.875620 -2.997766
4.402613 -0.899827
4.847787 -0.294216
5.996589 -3.392078
3.620941 -0.472729
5.254103 -1.972854
5.444344 -2.348164
4.244826 -3.811183
6.105128 -3.081353
2.285118 -1.928994
4.587324 -1.904758
5.428283 -0.912567
5.822290 -4.233510
4.174979 -0.996658
6.404774 -1.567079
5.367396 -2.165218
4.084116 -3.232169
4.512743 -4.441015
4.362846 -3.139117
2.920438 -3.135039
5.427128 -3.142078
1.347646 -1.532204
4.717859 -1.250516
5.531951 -1.266874
3.103403 -3.152451
5.488470 0.928736
6.628510 -2.115409
5.315367 -4.770228
2.510094 -1.803423
6.221467 -2.961759
4.077079 -2.572601
5.693640 -2.614961
4.808264 -2.991909
2.550541 0.309463
7.953715 -1.188971
6.922873 -4.626801
1.882221 -5.449121
4.367698 0.762284
4.846067 -4.222136
3.354154 -4.258887
2.285198 -1.528659
6.139276 -1.990901
5.708203 -1.962348
4.793610 -3.943193
3.622224 -2.563660
3.132472 -0.306305
8.664083 -4.019457
4.770096 -4.963318
2.664281 -5.186150
3.898021 -1.405437
3.727826 -4.056959
4.178469 -3.825821
3.426021 -1.490008
5.056396 -1.763768
5.695628 -2.449551
3.893921 -4.112575
4.421990 -2.365645
2.435193 -1.696713
7.330331 -3.283209
2.957117 -3.653503
2.884331 -4.173647
3.610214 -0.736584
3.486751 -2.280798
5.570310 -1.277886
6.099609 -0.850976
8.941049 -4.944756
4.184514 -2.082159
5.823070 -5.846235
2.963085 -4.063647
3.297099 -1.125390
5.013984 -1.188727
5.157077 -3.690798
2.727063 -3.528493
5.022213 -1.258965
3.602150 -2.846535
5.799071 -0.707487
6.719870 -3.046566
4.286899 -5.251509
4.638907 -1.136675
5.036539 -5.426824
2.664786 -2.940667
0.578513 -0.511008
7.556230 -2.170219
5.169553 -2.883243
6.215770 -4.372373
3.984922 -3.709992
3.632979 -3.257683
6.451482 -2.546005
4.206360 -5.928576
2.702577 -4.744408
2.492042 -0.415134
4.287308 -4.726765
1.242152 -1.299732
2.883123 0.479710
7.254316 -1.688842
6.004831 -1.872726
5.917355 -6.850832
2.748203 -3.878599
2.159478 -3.446957
4.277807 -1.006865
2.988140 -3.921287
2.536358 -2.186122
5.069091 -0.593905
4.681389 -4.834445
4.685396 -2.599086
4.151211 -2.968327
6.616261 -3.648310
4.139679 -3.264471
4.713665 -5.849896
3.503791 -3.722460
0.958386 -2.457276
5.497058 0.142409
4.315832 -2.444234
6.549093 -2.285017
6.547750 -2.747566
5.586431 -7.194512
3.179883 -2.812465
3.865934 -3.235958
5.104433 -3.250328
3.850554 -3.462088
3.904325 -4.104455
1.462594 -3.243967
1.518071 -1.243585
5.457031 -1.306770
4.741801 -2.692147
5.602683 -3.209608
6.247128 -3.248645
2.845200 -6.449200
1.903405 -1.798762
1.953982 -3.192796
4.358169 -2.208299
2.807499 -0.758560
6.183435 -2.253402
4.378592 -2.651277
3.829761 -2.277111
6.427777 -2.765482
3.461204 -3.584738
5.348393 -3.415410
2.511634 -5.014875
1.797094 -3.223478
3.883201 -1.588967
3.810151 -2.926161
4.863073 -1.899319
5.788780 -0.746683
7.007676 -5.155075
3.398563 -3.365825
3.995771 -4.526923
3.985975 -2.650334
2.949887 -4.122840
3.816569 -2.287607
3.922531 -2.959862
3.307356 -2.798627
5.612892 -1.843609
5.306164 -4.607488
3.775256 -3.285469
4.394744 -2.223012
4.762674 -6.318055
1.752219 -4.411146
2.541069 -3.988042
4.912200 -3.788499
0.558516 -2.432054
4.655771 -1.120180
3.986807 -2.733313
5.449834 -4.178888
4.460814 -1.670093
3.421939 -4.116364
4.028829 -2.115573
3.943960 -5.067647
4.225733 -4.368581
2.783745 -2.830479
4.590417 -3.037832
4.034854 -3.128532
2.137632 -1.471349
6.235874 -1.505847
4.201402 -4.034338
4.732621 -4.824685
3.443897 -4.171531
3.288690 -4.036318
2.745773 -2.335137
3.152118 -2.551439
3.899596 -3.049539
4.122147 0.309064
7.591624 -4.465616
4.225427 -4.369607
2.984977 -3.138126
7.337533 -3.481837
3.171846 -5.387629
2.697075 -3.511176
3.047875 -1.437274
2.946790 -3.777491
4.098728 -4.118940
3.751675 -3.947124
3.009604 -3.565731
5.234055 -1.547492
5.261701 -4.637595
3.246937 -2.857284
2.274003 -3.049934
6.600840 -3.532994
1.259508 -5.293598
2.911274 -2.956746
3.814634 -0.766636
5.759278 -4.177973
3.992776 -3.789182
2.662701 -4.008418
3.735256 -1.912849
5.392402 -1.698948
5.830625 -6.250432
2.704820 -4.136026
3.271495 -4.386180
3.911346 -4.145665
2.230201 -4.415094
3.553586 -1.727786
5.694006 -1.241137
4.035815 -2.544464
6.198548 -2.970737
2.089415 -5.093164
4.161153 -3.280067
4.763855 -3.460399
5.581983 -5.757746
3.001171 -3.455119
4.106460 -4.108223
5.550497 -2.690348
3.766211 -3.426954
4.772001 -4.655806
3.275539 -4.431151
3.887909 -4.472686
4.155021 -3.983414
2.281431 -5.682956
2.571922 -2.717449
3.640249 -1.852749
6.167666 -4.442346
3.182662 -3.594714
3.357791 -4.264912
4.982752 -3.434190
3.791835 -3.233702
4.374306 -4.322001
2.828739 -2.950092
4.862688 -3.879981
5.162669 -4.171354
2.250433 -6.676719
1.674625 -2.480944
3.562791 -1.651716
4.699525 -3.220492
3.370236 -2.925278
2.905774 -3.621376
4.932701 -3.141207
2.864720 -5.062296
3.901833 -4.773394
0.448341 -2.547150
4.346083 -1.708089
6.442259 -3.298004
1.471370 -6.412251
2.995402 -1.008565
5.809692 -1.446908
6.848199 -4.476841
4.363048 -5.445255
3.185665 -6.287829
2.936140 -4.876894
3.652772 -3.722014
3.973845 -5.130812
1.472932 -1.937441
7.352603 -1.089397
6.618733 -4.262232
2.399920 -5.481643
4.060870 -3.409272
3.949306 -4.351756
4.731980 -4.704749
4.009505 -3.539515
2.748786 -5.903908
3.726553 -3.515455
3.320375 -4.101518
4.234448 -3.740972
1.628320 -2.532273
5.998580 -4.457042
4.653045 -4.257456
2.566973 -5.444095
3.291628 -3.795634
2.426959 -3.627571
4.252307 -4.341811
2.124184 -2.711249
3.738987 -3.705966
3.150823 -3.486246
2.758523 -2.483578
4.348437 -3.069278
3.501958 -3.708378
6.221116 -3.730041
4.219376 -5.301791
2.033655 -6.343568
4.260563 -3.969142
1.393092 -4.105790
3.571574 -2.703780
3.461194 -2.563541
5.174685 -3.836986
3.249771 -4.485894
4.819313 -4.909952
3.658593 -6.988344
0.258259 -3.695449
3.031900 -4.756229
3.319935 -2.757558
2.527727 -4.826854
4.066745 -3.929661
1.644594 -3.541271
4.722139 -2.136214
5.841350 -3.977914
3.684458 -7.121772
2.788647 -3.235280
2.768935 -5.845756
1.024105 -4.515865
0.951527 -3.878588
3.907317 -2.446666
3.726128 -3.354773
4.138523 -4.116633
3.201854 -5.388683
1.095418 -2.120854
4.921978 -3.324564
3.212052 -2.640925
3.342851 -4.998373
3.086279 -2.473546
2.452476 -5.589899
2.606857 -3.924479
0.607934 -3.522215
3.978447 -2.735897
6.762251 -2.566838
4.578849 -6.196503
2.365250 -3.496887
2.499910 -4.428348
4.359287 -5.831762
2.219240 -3.995703
1.630218 -4.085600
3.280825 -1.569583
3.425012 -3.468696
3.105495 -4.514543
2.343259 -2.099250
6.529118 -3.844193
3.735378 -4.955104
1.994991 -6.056492
2.761480 -4.555492
1.980708 -4.765607
3.074182 -4.784197
1.578810 -4.729210
2.448555 -2.017065
5.246548 -2.943597
3.973264 -6.325038
3.836254 -4.548931
2.125416 -3.802064
3.911424 -5.513294
1.166907 -3.585497
4.245665 -4.615112
4.021260 -4.199212
2.335264 -4.709148
3.725962 -3.756501
1.725493 -1.897017
4.909815 -1.673017
5.019059 -3.983837
3.523879 -5.435820
3.155485 -2.988684
2.607533 -5.337317
3.391321 -4.792586
2.358509 -3.431130
3.625672 -4.248379
4.040084 -4.403834
2.648293 -4.629879
3.771349 -4.510743
2.827373 -2.873221
5.215213 -4.544249
4.050883 -5.041197
1.387204 -6.164001
3.354072 -4.694664
1.752111 -5.115012
3.138656 -3.815445
3.171497 -1.822653
5.041817 -4.427971
4.345771 -3.058994
3.987709 -5.894343
4.463916 -5.902311
1.609885 -4.140035
3.581081 -5.331609
2.431502 -4.115620
1.887094 -6.121879
2.406930 -2.610891
2.811455 -4.502699
3.019118 -4.089972
3.306706 -4.869777
3.598661 -4.339344
3.485775 -4.023815
2.972269 -4.764350
3.570919 -5.111087
0.520744 -3.335282
4.231892 -3.423949
3.932015 -2.239512
2.316031 -5.065504
3.444210 -3.458603
3.843136 -4.965760
4.332843 -5.263072
2.662183 -4.838227
2.929089 -4.665733
4.193388 -2.601229
4.940206 -6.413199
1.537910 -6.986743
0.027796 -2.772431
5.056562 -1.824429
4.877330 -3.866533
4.135507 -5.584466
3.904716 -4.357322
2.538489 -4.730284
4.911686 -5.663253
1.523431 -5.903248
2.348602 -4.440472
3.595134 -1.872689
4.674841 -6.747021
1.794734 -5.353794
0.425067 -2.992718
6.072114 -3.745567
4.214279 -6.101418
2.772942 -7.276450
1.949349 -4.510006
2.865796 -4.057046
3.216385 -5.562134
0.928892 -4.180302
1.108147 -3.083732
4.023973 -1.982270
3.959057 -6.755757
2.567495 -5.478072
0.547317 -3.743565
5.741759 -4.788271
3.293117 -5.027360
2.379738 -7.201100
-0.107152 -2.588467
3.987219 -4.905763
3.520450 -5.485394
1.212428 -4.876353
1.624732 -3.841864
3.572467 -2.963212
4.001710 -7.680103
1.281013 -4.730218
2.496470 -4.326213
3.407270 -4.655717
2.398811 -5.951991
1.227528 -4.154193
2.305726 -1.808027
3.309876 -4.558548
4.371557 -6.093113
1.338873 -5.180505
2.668497 -4.926985
3.685669 -4.460155
3.254372 -7.703093
2.234373 -5.825672
0.400492 -4.694253
2.251254 -4.823121
0.689501 -3.831864
2.894100 -3.889133
2.698889 -4.182256
2.556185 -4.915115
4.507577 -5.868974
0.988748 -6.194912
1.741029 -5.460285
2.525117 -3.912507
2.448641 -5.794792
2.178661 -4.855272
1.543190 -4.489813
3.047369 -4.260602
2.350897 -3.318748
2.002104 -6.489331
1.143208 -5.173599
2.008897 -5.114179
2.872457 -5.508124
2.123565 -6.745929
0.569295 -4.617062
1.642506 -3.602122
2.877259 -5.522997
3.489214 -4.063552
1.665992 -3.938548
5.443526 -2.695380
4.111228 -5.650848
2.318978 -8.467340
0.259065 -4.126815
1.213958 -4.896175
3.703638 -5.074575
0.197318 -6.259128
1.592409 -4.158153
2.000937 -3.442768
4.443603 -6.074403
2.210307 -5.340443
1.993962 -4.720839
4.535805 -5.274074
0.486159 -7.476055
-0.443053 -6.460266
0.283999 -2.153218
3.517805 -4.290578
3.565829 -4.831020
2.324953 -5.658961
0.949714 -4.323729
3.595718 -4.182992
2.020649 -7.812683
1.941038 -3.938149
1.720684 -5.290409
3.276070 -5.687053
-0.159177 -6.383610
0.902772 -4.332822
1.329291 -2.554129
2.524260 -3.765015
4.090207 -5.434359
0.789980 -5.881227
2.916988 -5.055108
2.274994 -4.530027
0.913035 -5.874216
1.166000 -3.437749
1.641613 -5.156060
1.782193 -4.588589
1.286965 -3.626392
3.056248 -4.911685
2.858272 -3.219955
3.523162 -6.145115
3.170033 -5.337977
1.584868 -6.557415
1.584704 -6.811286
-0.278081 -6.476794
0.569493 -4.041520
1.301910 -3.409746
2.436127 -4.341856
3.129631 -4.147018
2.301794 -6.345316
2.163086 -5.341005
2.788197 -5.563893
1.429961 -6.801516
2.363193 -5.224686
0.609664 -5.598272
2.567555 -5.725881
0.450128 -4.730065
1.841904 -5.108126
1.710425 -3.658734
3.379205 -5.110841
4.029675 -5.323656
1.458457 -6.930912
1.274260 -5.658210
0.438999 -4.869519
1.610132 -4.198241
2.174776 -4.136532
1.006395 -5.015437
2.699102 -4.145877
1.797445 -5.576991
0.669087 -6.351594
2.147915 -2.228403
2.928211 -5.674351
3.572018 -6.155978
1.640355 -6.486302
-0.101618 -6.236436
-0.351672 -3.426268
2.634179 -4.127522
3.590109 -4.201962
1.667827 -4.702777
3.264200 -4.742935
1.976350 -5.916161
0.467131 -6.331975
1.193517 -5.012360
0.872200 -5.615192
2.932026 -4.517695
-0.727509 -6.130963
-0.165034 -3.492928
1.381173 -1.858672
3.626817 -5.691792
2.724262 -6.011849
0.533406 -5.444034
3.379528 -6.270866
0.273475 -7.041941
0.196203 -5.932871
-1.674097 -3.638643
2.742998 -4.111893
3.690046 -6.025923
0.476182 -7.841575
-0.123613 -3.941890
1.984448 -3.795368
3.456675 -7.091374
0.470616 -5.556603
-0.509248 -4.141627
3.180264 -2.811071
2.641256 -6.647394
-0.360639 -6.471515
0.354215 -2.615293
2.926892 -3.830101
3.079106 -5.997925
0.644640 -6.419386
1.755468 -4.623909
1.878874 -4.323916
2.483280 -7.250831
-0.574681 -5.292462
-0.377903 -5.327694
3.213204 -3.286884
1.063437 -7.937385
0.108817 -4.185134
1.237787 -2.700160
3.195418 -5.037253
2.558404 -5.715985
0.439151 -7.091165
0.343002 -5.463705
1.684740 -4.421202
2.045118 -7.214116
-0.369234 -4.956910
1.214152 -4.046614
2.790819 -4.175719
0.961985 -6.177701
1.714199 -6.080482
1.073426 -5.506443
1.466042 -5.193879
2.091544 -5.259885
-0.273498 -7.054102
0.528628 -3.430113
1.425222 -4.187224
2.220053 -5.861205
0.592487 -5.173339
1.004587 -4.972873
2.709182 -5.050989
0.129950 -6.154562
2.428022 -6.836272
0.275808 -4.414694
3.117954 -5.428475
1.594347 -6.042680
-0.141789 -7.371723
0.930286 -3.939613
-0.157342 -2.710020
3.673779 -5.613206
0.003880 -5.891673
-0.249490 -5.423686
1.876070 -4.851612
1.382547 -7.172168
0.174116 -6.925494
-0.836004 -4.104749
0.820897 -5.248789
1.620405 -4.965340
-1.291458 -5.743180
0.756274 -3.798452
2.198382 -3.543753
4.421385 -7.862789
-0.429156 -7.573340
-0.504267 -5.975782
1.309435 -5.813938
-0.720439 -6.521176
0.157984 -4.269941
-0.452250 -3.965962
2.734435 -4.599526
2.138659 -6.484926
-1.302861 -6.746205
0.513077 -3.627304
2.013815 -4.901264
1.521867 -8.549897
-1.815905 -4.496406
-0.334686 -5.046608
1.064474 -3.548383
0.603969 -5.646312
0.643829 -5.036524
0.186683 -4.039656
3.693063 -5.892766
0.626013 -7.363821
-1.912413 -5.622181
0.636501 -3.508440
1.464707 -4.601949
0.224715 -6.627675
-1.768125 -4.328013
0.856810 -4.169191
0.727681 -3.066943
0.730069 -5.789805
1.333469 -5.008745
1.818344 -4.196835
3.400104 -6.825691
-0.223765 -6.950355
-1.444674 -6.269697
0.534152 -3.484413
0.526554 -4.127437
1.534682 -5.464574
-0.371126 -4.842188
2.264549 -5.398640
1.122980 -5.358174
-0.888073 -6.763921
0.826044 -5.503276
0.552110 -5.678843
0.214129 -6.140854
-1.801188 -5.603519
-1.017932 -3.554916
2.003302 -2.723759
1.538059 -4.587737
2.217091 -5.939418
1.150560 -5.057012
0.500329 -7.660914
-0.864469 -5.194208
-1.537673 -4.403103
0.498480 -4.346743
0.551258 -3.881876
1.608554 -5.623014
-0.218506 -5.361526
-0.592195 -5.025057
1.667737 -3.465187
0.577819 -6.554785
0.754579 -5.142063
0.689691 -5.872202
-0.001115 -6.563946
-0.765486 -3.728974
-0.305545 -5.224757
0.844203 -3.908839
0.405682 -4.004562
2.387033 -6.584359
0.029939 -5.580193
-0.269705 -5.824135
1.265410 -4.223044
-0.335208 -5.813959
1.290495 -6.043207
-1.632660 -5.825708
-0.943070 -5.064131
-0.068718 -3.700059
-0.033710 -5.067215
1.089364 -4.362292
1.055410 -4.574735
2.280725 -7.224820
-1.560904 -6.391632
-1.112235 -5.538379
-0.911208 -3.224809
-0.017343 -5.002822
-0.047564 -4.864074
0.109368 -3.518035
1.144194 -5.303024
1.106381 -5.549130
-0.826437 -5.924338
0.652202 -3.992139
1.412758 -4.547326
1.569855 -6.873522
-2.431971 -5.681278
-1.220404 -3.717821
0.895064 -2.551607
1.233875 -5.862653
0.624991 -4.414152
-0.082997 -4.410529
1.282762 -5.332241
0.255368 -5.863078
-1.846869 -6.323401
-0.940653 -2.791122
2.208112 -4.564678
2.512233 -8.020164
-3.217391 -6.008206
0.151752 -4.663777
0.940226 -4.425351
0.569681 -5.908310
-0.022580 -5.340289
0.229493 -4.780357
1.256393 -6.054116
0.404615 -6.077641
-2.427759 -6.168750
0.202012 -2.352426
1.314854 -4.296257
1.115488 -6.680369
-1.969329 -5.706161
0.068584 -4.024593
1.613569 -4.358662
-0.195258 -5.844916
1.278402 -5.423619
-1.497450 -4.806318
0.967730 -5.314086
-1.976714 -6.211674
-1.443728 -4.345420
0.840659 -3.122478
1.810643 -5.815935
0.558731 -6.612826
-1.602480 -4.547895
-0.143948 -5.603544
0.063483 -4.864348
-0.899744 -5.848469
-0.108621 -4.902182
-1.311764 -4.110175
1.160742 -5.114826
-0.729257 -5.075081
-0.441393 -5.035145
0.346631 -3.103133
0.496935 -5.274758
1.259772 -6.865435
-1.223462 -3.711916
-0.222489 -6.395238
-0.201561 -5.060069
0.348751 -6.158912
-0.834127 -5.727671
-2.502431 -4.432356
-0.093987 -4.493667
0.788210 -5.060290
-1.515533 -5.224491
0.457239 -2.993965
1.073455 -5.800136
0.729245 -6.173368
-1.391914 -6.261681
-1.144227 -5.134074
-0.668414 -3.524868
0.499470 -5.663756
-1.004316 -5.272097
-1.904575 -2.787248
2.311103 -5.109335
0.400064 -6.493512
-1.270622 -6.985278
-0.583505 -3.142507
0.511029 -5.695110
-0.385296 -5.995525
-3.180644 -4.517912
-1.042825 -3.668775
0.542044 -2.807606
1.193751 -6.932348
-1.232323 -5.580029
0.054058 -4.141862
2.292568 -5.321143
-0.575785 -7.876450
-2.364811 -5.796284
0.401145 -2.848137
0.368054 -6.063648
-0.569192 -5.714086
-2.189252 -4.166823
0.184825 -3.886793
1.380025 -3.760529
0.783440 -7.691409
-1.886163 -5.999343
-1.767037 -4.630272
0.740111 -5.383671
-1.933425 -5.509025
-1.968558 -4.422646
0.425019 -2.797383
-0.691960 -6.362572
-0.675866 -4.979323
-0.949489 -4.477519
0.113870 -4.762523
0.852307 -5.120166
-0.741174 -8.588549
-3.109286 -4.615675
-1.799948 -4.367247
-0.737880 -3.357478
-1.199340 -3.998585
-0.233437 -4.216346
0.973450 -4.705868
-0.361667 -6.441134
-0.722232 -6.067131
-2.265318 -5.231254
-0.906896 -4.887561
0.155731 -4.417829
-1.923041 -6.147136
-0.752265 -3.442241
-1.256519 -3.134479
0.972889 -4.473026
-1.581180 -5.071557
0.919553 -4.868804
0.425151 -5.908725
-1.499594 -6.208895
-1.972432 -4.503089
-2.750178 -4.755753
-0.098281 -4.200891
-1.043901 -4.623020
-0.729351 -5.159596
-0.738822 -3.181590
0.390404 -3.855773
0.403536 -6.350150
-2.007882 -4.460841
0.218204 -4.833964
-0.622354 -5.240774
-2.075789 -6.515270
-1.465937 -3.578370
-1.895207 -4.654472
-0.469560 -3.300154
0.988970 -3.980909
0.067396 -6.768595
-0.856350 -4.644975
-1.577077 -5.368805
-1.564739 -5.250292
-3.051408 -3.531997
-0.597631 -4.011360
-0.832264 -4.386934
-1.367559 -5.243040
-0.776336 -4.111456
-1.926565 -4.353755
1.495191 -3.672472
0.305399 -5.861114
-1.354233 -6.850507
-1.738759 -4.395480
-1.644818 -5.323664
-1.171440 -4.352762
-1.922166 -3.803367
0.401917 -3.816821
-0.427729 -4.766379
-0.281235 -6.470401
-2.242915 -6.003503
-2.436852 -3.626803
1.957470 -3.419277
-0.386492 -6.134620
-2.095297 -6.479074
-1.711271 -2.359353
-0.086498 -5.288373
-0.491116 -5.427441
-2.836203 -3.245748
0.467998 -2.844807
0.952442 -4.931257
-1.072846 -8.057723
-3.136879 -4.688276
-3.378177 -2.379884
1.623241 -3.753323
-0.512181 -6.689035
-2.421217 -5.523400
-2.173006 -1.176407
0.420298 -4.952989
-1.734920 -5.299376
-2.843827 -3.624750
0.363887 -3.503829
-0.528755 -4.882251
-1.450402 -6.645542
-3.822551 -4.556213
-2.290259 -2.017337
1.024920 -3.909270
-1.474466 -5.336628
-1.791032 -4.081543
0.048362 -2.927190
-0.685346 -6.612009
-1.880934 -5.353395
-1.549159 -3.454915
-0.645598 -4.344416
0.194393 -4.017452
-1.583493 -6.711160
-2.446728 -4.194283
-2.120818 -3.583140
0.780003 -4.323633
-1.995953 -5.061716
-1.445565 -3.133908
1.020651 -4.095572
-1.592336 -6.324116
-1.319334 -4.475611
-2.205018 -4.312362
0.397937 -4.759368
-1.244046 -3.915117
-0.755600 -6.778610
-3.519965 -4.192844
-1.623308 -3.257144
0.186660 -3.487859
-0.590526 -4.875807
-0.655720 -4.651174
-0.673172 -4.666929
-1.547754 -6.422057
-2.616941 -5.032896
-2.470576 -3.521384
-0.881468 -3.278951
-0.584335 -3.411587
-1.303584 -5.359495
-1.720451 -5.119291
-1.767472 -3.858052
0.048345 -4.167783
-2.228707 -5.880491
-1.329641 -5.124638
-1.843719 -3.645193
-2.116714 -5.189398
-1.409445 -2.712544
-2.597821 -4.187587
-0.702102 -3.709457
0.366071 -4.147911
-0.475899 -6.496437
-2.511907 -4.176080
-1.929234 -3.798676
0.548715 -5.047633
-3.742357 -5.460625
-1.823970 -3.390679
-2.132298 -3.470398
-1.604658 -4.149647
-0.681565 -4.267634
-1.428316 -4.921261
-0.099251 -3.699539
-0.299443 -5.497133
-1.609291 -7.408507
-3.205083 -4.326027
-1.853196 -3.856035
-1.459749 -4.441959
-3.414690 -4.107606
-1.616713 -3.204247
-0.145231 -2.740271
-0.467956 -5.053409
-0.623805 -5.162793
-2.920616 -5.546552
-0.923886 -3.987959
-2.093373 -4.605831
-3.287662 -5.402624
-3.073145 -2.269887
-1.309335 -3.429691
0.555876 -2.956427
-1.781603 -4.254997
0.316646 -4.031048
-0.485883 -4.765657
-0.810933 -6.077989
-2.648218 -4.505860
-3.382706 -4.610529
-2.017705 -2.467031
-1.655548 -4.032048
-1.518446 -4.380179
-1.393478 -2.488232
0.607452 -3.879124
-0.506965 -4.812900
-1.773989 -3.769195
-0.319987 -5.529832
-2.127333 -5.290368
-2.436749 -4.371096
-2.106240 -3.805312
-2.252581 -3.690341
-0.410774 -3.647327
-2.250091 -4.868368
-2.142060 -4.786400
-0.615448 -2.435183
-0.580191 -6.501918
-2.705204 -4.619931
-2.857501 -4.095639
-0.968635 -4.920550
-3.771494 -4.123167
-2.137432 -3.005539
-1.398850 -2.516211
-1.954893 -3.543508
0.368125 -4.217265
-2.553403 -5.921775
-1.709225 -5.144163
-2.743972 -4.349886
-2.806507 -5.630290
-3.251363 -3.174499
-2.954541 -3.767880
-1.222823 -3.325721
-2.134128 -3.271447
-0.533552 -3.203700
-1.148807 -4.276922
-0.686802 -4.803884
-1.877787 -5.681717
-3.473147 -4.789998
-3.741587 -4.366592
-2.156826 -2.020463
-1.271694 -4.093235
-1.359782 -3.326647
-1.458345 -3.993655
-0.678726 -3.950638
-1.719504 -3.319309
-0.294299 -5.654693
-2.830991 -4.456720
-3.280218 -5.154005
-0.950653 -3.728642
-3.749686 -5.971624
-2.878560 -2.725635
-2.072185 -2.722410
-1.057958 -4.852597
-1.929264 -4.058427
-2.056383 -4.293180
-1.302682 -4.429488
-2.164266 -3.372705
-1.955919 -6.237659
-4.217069 -2.861623
-2.081792 -2.277208
-0.017443 -3.587335
-3.092029 -4.938466
-2.949338 -2.651919
-0.969910 -1.742620
-0.356515 -4.713715
-1.282261 -4.058552
-2.897930 -5.545729
-2.072954 -3.721958
-2.304765 -4.000394
-2.508052 -4.656821
-2.848836 -1.182651
-0.766263 -1.873672
0.699232 -4.415564
-2.939230 -5.702332
-1.709187 -4.023790
-1.635108 -3.161607
-0.937594 -4.452860
-1.846063 -3.628750
-3.042737 -3.793851
-1.032366 -2.320514
-2.526751 -4.651224
-1.814760 -4.563887
-2.532425 -2.354239
0.075208 -3.567345
-1.156068 -5.130432
-3.524284 -5.392232
-3.081841 -3.185548
-1.880083 -3.266867
-1.297821 -4.192760
-2.362241 -3.578770
-2.647184 -3.736797
-1.135454 -4.193940
-2.285581 -3.902272
-1.877673 -4.700220
-2.185049 -1.721491
0.174676 -3.877090
-0.596444 -5.809317
-3.871160 -5.775730
-1.654576 -2.873192
-2.202576 -3.691775
-2.584762 -4.026910
-1.918696 -2.546003
-2.229314 -4.369921
-0.961078 -2.140961
-0.663257 -4.614180
-2.390650 -5.083956
-2.657377 -2.960588
-0.990234 -4.351630
-1.863587 -4.560283
-3.834465 -4.135404
-1.716547 -2.937088
-3.230543 -2.407811
-0.752275 -2.514316
-1.150944 -3.430886
-2.176519 -4.058433
-0.291028 -3.258791
-1.755842 -5.180709
-2.993705 -4.973650
-3.218431 -1.623551
-0.528645 -3.921185
-1.575892 -3.417837
-2.369144 -3.991650
-1.935067 -3.262836
-1.658282 -3.084942
-0.262816 -4.082022
-1.707631 -4.119539
-1.450913 -3.670243
-1.215748 -3.638608
-2.621664 -5.150848
-2.167440 -4.725273
-3.476402 -1.948611
-1.221219 -3.136377
-1.493973 -3.717020
-2.463214 -4.296529
-1.404664 -3.342286
-1.775365 -3.000651
-0.488926 -4.206470
-2.923609 -4.255933
-2.239441 -4.279510
-2.592422 -3.238896
-3.150625 -4.467732
-3.930564 -2.727955
-2.368829 -0.340096
1.342651 -3.019065
-0.454054 -4.881341
-2.323560 -4.774794
-1.859321 -4.577858
-2.876359 -3.537773
-1.213186 -4.670473
-3.756654 -3.733979
-3.019430 -2.662468
-0.116712 -1.593524
-1.548496 -5.135420
-2.346490 -2.967095
-1.501766 -2.531799
-1.799140 -5.245255
-2.635836 -3.057684
-2.493015 -4.757145
-3.139609 -2.895917
-2.544471 -2.940522
-0.928610 -3.306490
-2.712795 -2.828733
-0.761355 -2.228004
0.002770 -4.618787
-3.141006 -4.792186
-0.756625 -3.842678
-2.399734 -3.927251
-1.933419 -5.615943
-4.070525 -3.241823
-3.017683 -3.175354
-2.224460 -1.541061
-2.239133 -3.000403
-2.261354 -3.227154
-2.233028 -2.437820
-0.063216 -4.370286
-2.186973 -4.211496
-3.143807 -4.825098
-2.085540 -3.851762
-2.680749 -3.237760
-3.435818 -3.349193
-2.957945 -1.013989
-1.255945 -1.974670
-0.024732 -2.333141
-2.031470 -4.167133
-1.769564 -3.837077
-1.973797 -3.703875
-2.073247 -4.594218
-2.176050 -4.199326
-4.416404 -4.295996
-1.884554 -1.306152
-1.972457 -2.890632
-0.664393 -2.935834
-1.827046 -2.434774
-0.677334 -4.232393
-1.685372 -4.233840
-2.341396 -4.279313
-1.847783 -3.987756
-3.293652 -2.797553
-1.813339 -3.501249
-2.986667 -3.160395
-3.492483 -2.341323
0.016166 -0.775895
-1.385183 -5.082386
-2.675443 -4.163621
-1.918288 -3.184885
-3.195242 -4.369462
-2.412794 -1.894956
-2.767856 -3.942341
-3.413579 -3.334068
-3.074060 -1.180485
-0.491693 -3.168002
-2.729957 -2.631098
-2.771022 -2.176616
-1.100730 -2.560637
-1.255183 -4.209302
-2.065220 -4.532430
-3.338137 -4.446834
-4.041284 -2.466007
-0.792533 -1.378355
-2.619186 -3.262032
-1.248677 -3.009453
-2.571063 -1.979674
-0.146784 -3.555819
-2.084452 -3.365859
-2.637974 -3.862903
-1.653247 -2.381274
-1.793627 -4.023566
-2.140119 -4.398260
-4.740444 -1.924585
-1.932132 -2.199258
-0.510090 -2.573496
-1.019275 -4.577158
-2.198584 -3.799090
-2.372999 -2.908815
-1.161997 -4.630208
-2.474354 -3.862259
-4.430807 -2.992760
-1.284646 -1.164378
-2.829126 -3.319647
-2.408578 -2.761937
-3.029205 -2.560642
-2.631832 -2.413520
-0.881519 -2.652646
-2.737820 -4.973320
-2.304151 -3.094958
-1.857657 -2.383374
-0.520021 -4.503605
-4.285706 -3.784154
-4.061581 -1.450330
-0.847862 -1.741558
-2.170465 -3.753389
-1.007992 -3.667509
-3.463744 -3.031790
-1.734704 -2.947125
-1.477546 -2.648670
-2.927822 -4.305869
-2.265822 -1.787660
-2.309766 -2.814863
-1.216436 -3.966429
-3.838595 -2.136983
-2.422948 -1.240485
-1.288633 -1.490012
-0.725967 -3.267420
-0.472103 -4.482387
-2.967111 -3.616800
-2.716535 -3.333038
-1.863794 -2.112511
-2.291092 -3.845910
-1.310004 -1.212612
-1.833062 -2.775770
-2.132986 -4.315575
-2.404772 -2.828280
-2.681201 -2.839165
-0.872994 -1.709631
-1.822580 -4.335233
-1.840540 -3.959065
-4.345858 -2.782426
-2.489304 -2.439269
-2.251906 -1.642024
-1.807583 -2.780324
-1.211154 -1.904615
-1.371727 -3.175539
-1.030647 -4.076655
-3.085587 -2.387322
-1.798837 -2.985046
-1.595363 -2.825233
-1.905928 -3.036462
-2.126945 -3.542789
-2.712141 -2.762077
-3.372837 -2.464088
-1.582300 -1.696193
-2.771527 -3.545506
-1.178345 -1.718528
-0.926453 -2.989888
-1.632742 -4.306833
-2.401525 -3.200913
-2.744080 -4.009777
-2.678115 -1.761267
-2.382748 -2.724740
-0.559504 -3.206463
-3.778820 -3.413260
-1.739172 -2.413514
-1.503076 -2.732515
-1.564525 -3.555492
-0.909212 -2.841236
-2.683688 -4.047083
-1.816899 -3.797111
-3.440173 -2.688505
-2.476613 -3.405986
-2.878542 -0.817954
-0.893895 -2.664506
-1.389064 -2.980354
-2.244871 -3.421937
-1.909061 -2.919555
-2.323852 -3.264431
-2.669214 -3.527274
-0.948993 -2.142710
-1.880243 -3.734758
-3.152579 -3.810027
-3.608755 -2.246485
-2.043228 -1.840873
-0.726232 -1.325073
-0.875545 -2.723090
-0.438982 -3.266265
-2.076166 -3.332086
-1.705083 -3.904305
-3.367378 -2.680403
-3.694123 -2.846053
-1.222725 -0.755128
-2.175882 -3.779687
-1.887656 -2.947578
-3.029462 -1.619611
-0.662356 -2.544733
-0.313879 -3.018720
-2.023464 -4.817287
-2.526148 -2.271264
-3.473506 -2.725878
-1.710511 -3.283591
-4.005547 -2.702902
-2.766434 -1.028853
-0.232511 -1.090343
-0.960156 -3.830508
-2.307029 -4.044070
-2.575893 -3.067471
-0.937511 -3.753755
-2.575081 -3.912142
-4.006046 -2.843194
-2.812002 -1.452295
-2.048605 -1.860751
-1.146834 -3.168790
-3.125796 -1.826791
-1.474853 -2.053871
-0.146228 -2.898457
-1.994658 -4.575376
-1.916276 -3.850482
-3.952873 -3.205054
-2.209691 -3.322846
-2.717656 -2.460643
-3.314055 -2.796409
-2.207766 -1.174544
-2.038376 -1.215258
0.016517 -3.626135
-3.251324 -3.142236
-1.980255 -2.819166
-1.498021 -2.844366
-2.904669 -4.680081
-2.488379 -2.788409
-3.442318 -2.262608
-1.758069 -1.646179
-1.120956 -1.700843
-1.496445 -3.669884
-2.250026 -2.391594
-1.284191 -2.526626
-0.752748 -4.645901
-3.714227 -4.647907
-4.157550 -2.533527
-2.916521 -1.118518
-2.481769 -2.241983
-1.581409 -2.890382
-3.659793 -1.698212
-0.556335 -1.546487
0.125115 -2.947648
-2.263167 -5.638456
-2.847656 -2.620596
-2.419103 -2.535562
-0.834914 -3.695029
-3.939814 -2.563035
-2.777762 -1.687615
-1.679771 -0.798734
-1.467451 -3.655982
-2.249438 -3.382174
-2.829130 -1.432090
-0.798376 -2.791822
-2.188021 -3.844698
-3.094763 -3.536007
-3.583697 -1.378322
-2.098340 -1.451063
-0.816909 -3.745220
-4.191706 -2.235126
-1.383919 -1.710375
-0.538458 -1.668168
-1.862026 -4.070751
-2.861558 -2.719452
-2.478997 -1.287306
-1.506401 -3.243910
-1.909785 -2.342878
-3.267637 -4.198888
-3.171315 0.279613
-1.159556 -1.600601
-0.940129 -3.340727
-2.925492 -2.089588
-0.891938 -2.495388
-1.221299 -3.321306
-2.844171 -4.874631
-2.050568 -2.607167
-3.705422 -1.624538
0.209947 -1.693444
-2.355497 -3.655295
-2.526566 -3.886616
-2.323398 -0.838906
-0.294326 -3.046573
-1.419566 -3.407243
-3.225122 -3.796194
-2.313930 -2.417637
-2.020685 -2.226056
-2.338982 -4.089800
-3.618982 -2.069254
-2.415356 -0.810360
-0.240083 -2.816872
-2.138476 -3.939471
-2.828212 -2.956018
-1.575678 -1.478083
-2.049128 -2.693656
-0.829511 -3.394844
-2.869197 -1.497269
-0.640106 -2.199565
-1.579360 -2.465685
-3.616948 -4.244369
-2.990727 -1.104471
-2.877144 -1.966311
-0.952602 -1.567219
-1.919698 -3.373882
-1.696800 -3.671655
-1.796748 -1.536762
-1.515876 -2.407610
-1.843189 -4.030997
-3.906350 -2.496325
-0.559540 -1.532767
-2.322356 -2.546176
-2.338310 -2.682022
-2.385973 -1.875071
-2.023643 -2.209732
-0.000026 -2.320769
-1.257483 -4.194409
-3.372670 -4.268732
-2.209077 -2.122057
-2.277252 -2.854046
-1.859790 -2.228637
-2.216690 -1.563728
-0.508585 -3.142517
-1.338964 -1.928275
-1.221198 -4.505495
-3.030909 -2.664722
-3.724095 -1.433144
0.606343 -2.604657
-2.272078 -3.988125
-3.620550 -3.588612
-2.078973 -1.930445
-3.069905 -3.453606
-1.451275 -1.560453
-2.990579 -2.820330
-0.645355 -0.827754
-0.843669 -3.056526
-2.162379 -4.193971
-3.308857 -2.059111
-1.939948 -1.653811
-0.673117 -3.725912
-4.716337 -3.094869
-1.535507 -1.778081
-2.372049 -1.374597
-0.667930 -2.368752
-2.116348 -3.324573
-2.510896 -1.196642
0.200055 -2.834924
-1.806333 -4.782608
-4.225636 -4.558522
-3.011587 -1.458411
-2.758747 -2.059727
-0.184107 -2.274823
-2.707987 -2.077528
-0.831171 -2.070512
0.471989 -1.424697
-1.223951 -6.004208
-3.667247 -3.188115
-2.669557 -2.237093
-0.755078 -3.660806
-3.498385 -3.485443
-3.429492 -3.093631
-3.132002 -1.480993
-1.128148 -2.176761
-0.315316 -3.734568
-3.116084 -3.290995
-1.142029 -1.678960
-1.017763 -3.704050
-3.868816 -5.190525
-3.809235 -1.567253
-2.785851 -1.827828
-1.174261 -2.189128
-2.510171 -3.070852
-2.336984 -3.456597
-3.573844 -1.391414
-0.281948 -2.409639
-1.586924 -4.190962
-2.964313 -1.747814
-1.302639 -2.664739
-2.039160 -3.879065
-3.622465 -4.402321
-2.964602 -1.746612
-3.127066 -1.446803
0.245344 -0.808549
-1.248891 -3.933272
-2.486812 -3.988570
-2.113562 -1.072314
-1.405097 -4.410560
-2.770772 -3.373841
-4.651680 -3.118423
-2.953189 -1.423217
-2.119985 -1.433930
-1.611322 -2.906428
-3.071539 -1.921378
-1.266213 -1.647814
0.058503 -3.369740
-2.501772 -4.251221
-2.335733 -4.393571
-4.006563 -2.260046
-1.961825 -2.122868
-1.936461 -3.007951
-4.435680 -2.176912
-1.456910 -0.615743
-0.140915 -2.076070
-2.168265 -5.007992
-2.690407 -1.706270
-2.244491 -3.165021
-1.464344 -2.464836
-2.104225 -3.746982
-3.724084 -3.700703
-2.927940 0.261837
-1.194110 -2.703288
-1.259726 -2.480497
-3.623264 -2.865682
-1.084006 -0.991743
-0.689269 -3.119211
-1.552124 -4.459851
-3.118109 -2.814315
-3.549308 -2.627817
-0.291155 -1.146915
-2.524853 -4.299291
-3.678697 -1.905264
-1.472342 -0.172063
-0.220527 -3.482080
-2.729087 -3.763235
-3.429360 -2.944236
-1.612904 -1.905660
-1.480547 -3.143160
-1.911496 -4.995198
-5.572182 -2.677573
-3.539582 -0.266817
-0.147574 -1.855522
-2.806861 -3.647786
-3.243808 -1.976068
-1.556402 -0.671515
-0.343097 -4.167344
-2.507799 -4.727925
-5.331393 -3.364735
-2.065265 -0.703682
-0.877173 -2.352997
-2.278004 -4.953862
-4.017668 -0.982585
-2.323213 -1.830444
-0.141751 -2.293098
-3.837260 -4.279152
-3.415963 -1.798463
-2.318881 -0.959830
-0.676536 -2.911477
-3.363744 -3.667373
-4.619164 -1.443225
-0.268790 -1.263736
-1.835387 -3.209418
-2.213260 -3.198672
-2.816666 -2.185779
-2.827825 -2.359929
-0.215675 -1.858180
-2.132716 -4.287147
-3.479815 -1.977915
-1.746616 -0.417738
-1.006147 -4.265709
-3.138988 -2.222722
-3.723446 -2.146542
-2.309869 -0.774859
-1.947826 -0.692486
-0.815706 -3.596053
-2.646058 -3.172860
-2.308251 -2.497628
-0.810608 -2.869829
-4.480657 -4.447400
-3.328175 -1.460268
-2.220670 -0.396308
-1.109430 -2.929856
-1.725977 -2.317924
-3.299834 -3.254715
-1.560768 -0.692227
-0.640080 -2.087788
-1.334252 -4.266175
-4.171235 -3.096755
-2.762364 -2.005956
-1.295531 -2.587546
-3.457039 -3.080387
-3.481293 -1.943307
-3.062307 -0.498599
-0.599863 -2.931143
-1.784902 -3.920603
-4.004053 -2.974801
-2.672662 -1.145819
-1.245814 -2.525433
-2.352846 -4.404985
-4.289526 -2.082927
-2.846023 -1.927925
-1.711126 -2.201311
-3.883988 -3.167107
-2.888884 -1.444337
-1.421203 -0.524862
-0.238002 -4.034426
-2.368298 -3.339957
-3.112279 -3.862888
-2.065748 -1.834777
-2.622870 -3.087584
-2.768937 -3.543903
-3.430880 -0.654437
-0.969601 -0.900131
0.305814 -2.393272
-4.316643 -4.668307
-2.310610 -1.537276
-1.790409 -2.533012
-1.890432 -5.176612
-3.875247 -3.506383
-3.649713 -2.226230
-2.038061 -1.334483
-2.572384 -2.759868
-2.684804 -2.789257
-2.806095 0.196796
0.872629 -2.638746
-2.051694 -4.696042
-5.039176 -4.449845
-3.051410 -1.241557
-2.205099 -1.890934
-2.556083 -3.165182
-3.481173 -2.510632
-3.616963 -1.461061
-0.380853 -0.968335
-2.003174 -4.457315
-2.959592 -2.778128
-2.023350 -1.131830
-0.504306 -3.589932
-2.426175 -4.060847
-5.137626 -3.153868
-2.355892 -0.684970
-2.240065 -1.040409
-0.720164 -3.093448
-2.907238 -2.028391
-1.490713 -2.447189
-0.262996 -2.692353
-2.031157 -4.475584
-3.442721 -3.800921
-2.607918 -1.198736
-1.344967 -3.721128
-3.477311 -3.275867
-4.474805 -2.084254
-2.312450 0.326041
-1.290382 -1.915906
-1.038901 -3.924192
-2.122771 -3.002164
-1.916966 -3.300406
-1.202760 -2.681792
-3.221178 -5.510030
-4.854503 -3.588050
-3.466375 0.136786
-0.075662 -2.119588
-2.200525 -3.373995
-3.230313 -3.658419
-1.488594 -1.932563
-1.587028 -3.572786
-2.072276 -4.212650
-4.140453 -3.105837
-3.678417 -2.688854
-0.261473 -2.139760
-3.936383 -4.869105
-4.232060 -1.894882
-3.198669 -0.429487
1.252880 -1.742236
-0.910245 -4.476138
-3.093528 -4.315865
-2.486706 -2.763908
-3.103585 -2.810408
-1.901827 -4.002986
-4.630274 -2.263087
-2.670423 -1.747202
-1.102811 -2.045125
-3.149933 -4.631042
-4.005335 -2.541423
-2.252203 -0.465160
0.137771 -3.518503
-2.685069 -4.518210
-4.249866 -3.417464
-3.172119 -1.522526
-3.243203 -2.436179
-2.382126 -3.600940
-4.099028 -1.733308
-1.787985 -1.339191
0.050734 -2.735179
-3.183527 -6.107332
-4.625788 -2.122119
-2.833343 -0.495435
-0.712335 -4.215150
-4.237946 -3.356801
-5.395619 -2.998396
-2.290956 0.099092
-2.181978 -1.909999
-1.408562 -3.237951
-4.519582 -1.357597
-0.527646 -0.842674
-0.185491 -4.132135
-4.333947 -5.706013
-5.076358 -2.078568
-2.579900 -0.822785
-1.440418 -3.179642
-3.211776 -2.726847
-3.576904 -2.742383
-0.985559 -1.224091
-1.487562 -3.894846
-2.927591 -4.553710
-4.777284 -1.031190
-1.230207 -1.856509
-0.926082 -4.103258
-5.091109 -4.857790
-3.886242 -1.305354
-3.782637 -0.680951
-0.998228 -2.489725
-2.871887 -1.729799
-2.564185 -2.807694
-1.066205 -2.562532
-2.265842 -3.976311
-2.653326 -4.144843
-4.343714 -2.142619
-1.291275 -2.396580
-1.560176 -3.831273
-5.151773 -3.801874
-3.066432 -0.638398
-2.255217 -1.388418
-0.472979 -3.315069
-3.268006 -2.259161
-1.989620 -3.347684
-3.106260 -3.002823
-3.048954 -3.106720
-3.569311 -3.334533
-4.681256 -1.269343
-1.887671 -1.725668
-1.289209 -2.409613
-3.554696 -4.309083
-2.940673 -1.233578
-2.522065 -2.267927
-2.026700 -3.091120
-2.228407 -3.098433
-4.116083 -4.420890
-3.109855 -0.561347
-2.465070 -3.663380
-3.185943 -3.301243
-4.939878 -1.271884
-1.022607 -0.869941
-1.998255 -2.353317
-2.229234 -4.112545
-2.822233 -2.438402
-3.182774 -2.382192
-0.893917 -2.376987
-3.967266 -4.341090
-5.067025 -2.552597
-2.820442 -0.193047
-1.643073 -3.262503
-2.554347 -3.603435
-3.785610 -1.168333
-1.127429 -1.988169
-1.956508 -3.456475
-3.681412 -4.093277
-3.008831 -2.041969
-2.966097 -1.973645
-2.097393 -3.550272
-4.187743 -1.146657
-2.937741 -1.394877
-0.707967 -1.240061
-1.488881 -5.216745
-3.200217 -3.784374
-3.568441 -1.048169
-0.933793 -2.362164
-2.799121 -3.743068
-4.484015 -3.310978
-2.273328 0.273557
-2.101663 -2.026240
-2.053007 -2.027528
-3.163714 -2.648120
-2.838216 -1.941474
-0.826884 -1.794105
-2.390012 -5.469426
-4.207117 -3.283957
-3.568342 -1.483309
-1.035928 -3.272837
-4.377297 -4.134943
-4.389963 -1.954732
-2.413334 -0.888481
-2.309178 -1.347307
-0.684904 -2.670444
-3.778012 -3.802448
-2.884188 -2.702958
-1.070966 -2.576640
-3.821670 -5.879505
-5.098138 -2.968152
-3.641154 -0.854344
-2.154721 -4.189863
-3.114408 -2.126936
-3.206548 -3.109683
-1.886673 -1.187388
-1.758510 -3.273151
-0.727118 -4.224013
-5.611352 -4.356246
-3.655770 -1.385863
-2.441991 -1.584461
-3.284324 -3.918244
-3.364210 -0.742740
-3.049246 -1.419282
-0.492912 -3.538896
-4.159921 -3.600727
-3.219602 -2.263859
-2.581489 -1.689689
-1.545261 -3.519499
-3.898701 -5.267973
-5.160174 -1.528154
-2.488811 -1.329730
-1.426659 -1.326687
-2.171974 -4.341543
-3.539842 -2.717475
-2.634053 -1.429829
-1.553584 -3.190008
-3.871557 -3.170373
-3.828546 -2.884270
-3.277569 -1.228930
-2.156220 -2.322077
-1.795538 -4.459107
-6.243831 -3.065197
-2.861155 -0.861980
-0.715550 -0.892836
-1.954369 -4.755431
-2.937844 -1.320158
-2.568334 -3.520473
-1.280683 -3.603716
-4.355800 -3.669253
-4.592109 -2.880638
-4.681022 -0.435319
-1.559167 -2.297287
-1.605419 -3.996519
-5.394618 -3.016143
-1.950551 -0.710952
-1.415600 -3.411142
-2.882021 -4.243686
-4.215067 -2.906494
-3.692165 -1.841260
-2.503042 -2.665922
-4.130440 -2.877829
-5.003125 -2.765187
-2.582070 1.825675
1.275152 -3.805145
-1.971283 -5.728742
-6.696940 -2.712567
-2.968906 -2.225129
-1.792971 -2.689076
-4.898630 -4.921287
-4.071156 -0.326108
-2.170405 -1.076283
-0.545819 -3.906428
-5.157546 -4.471136
-4.817961 -1.704768
-1.550060 0.861201
0.628019 -4.472328
-3.703142 -5.627880
-5.745802 -3.123827
-2.756253 -1.113484
-2.981583 -3.960643
-4.312594 -3.554256
-4.189951 -0.473242
-2.269322 -1.822300
-2.682658 -4.302072
-4.895449 -3.064222
-4.249940 -1.620608
-2.280236 0.289161
-0.857204 -5.004350
-4.348952 -4.840854
-6.576313 -1.576503
-2.567002 -1.078537
-3.497318 -2.538385
-3.777055 -2.601384
-2.156941 -0.384358
-2.598822 -3.726341
-2.326630 -4.021706
-4.979255 -4.633448
-5.404931 -2.422718
-3.271636 0.069105
-2.823844 -3.576480
-3.821151 -2.617205
-5.461383 -0.956704
-1.610325 -1.038350
-2.249761 -2.741717
-2.716659 -3.714227
-3.502975 -1.903697
-3.775819 -2.910653
-2.183196 -2.529878
-5.540775 -4.657167
-5.531558 -1.037398
-2.013306 0.667660
-1.273642 -2.887108
-3.499450 -3.928228
-4.496115 -2.415810
-2.248413 -2.519835
-3.088344 -2.323325
-3.634926 -4.359206
-4.712735 -1.020450
-3.458994 -1.811549
-1.336152 -2.499952
-4.727816 -3.774669
-4.955101 -1.751709
-2.640796 1.676671
-0.330834 -3.515664
-2.438502 -3.206972
-4.080703 -3.716643
-2.806556 -2.854517
-3.483144 -2.600715
-4.141999 -3.344162
-3.543248 -0.880581
-4.261946 -2.152441
-1.882625 -2.467259
-5.045772 -3.983151
-3.300255 -0.870352
-2.050166 -1.446932
-2.622875 -4.393300
-4.745560 -2.757580
-4.927300 -3.240589
-3.333509 -1.652285
-4.827056 -1.057746
-2.896398 -1.677510
-3.370661 -1.603903
-1.835852 -1.702285
-2.035101 -4.106368
-4.991134 -3.996827
-4.218193 -1.612201
-1.622879 -1.666445
-3.369677 -4.593742
-4.066718 -2.340562
-4.652235 -1.698824
-2.200675 -1.225526
-3.697711 -2.948969
-2.908866 -3.045529
-3.533912 -0.879304
-2.499756 -3.277312
-2.520787 -3.582375
-6.269653 -2.893691
-1.087574 -0.973880
-3.178762 -2.746981
-3.626475 -4.687898
-5.145087 -1.411642
-3.075310 -1.126559
-1.853426 -2.093106
-3.691443 -3.051921
-3.221278 -2.811702
-3.349983 -2.339289
-2.991404 -3.020917
-4.042848 -4.559853
-6.266924 -1.654779
-2.836124 -0.625448
-2.801709 -2.591729
-4.545595 -4.179509
-2.976674 -0.187552
-2.194426 -3.322955
-2.585128 -3.337742
-5.262608 -2.714265
-3.877225 -2.870195
-4.103397 -1.028364
-2.789012 -3.357389
-4.413717 -2.065024
-4.865296 -1.401841
-0.735201 -1.054737
-2.209394 -4.274612
-4.196557 -3.307926
-3.457966 -0.963955
-3.292580 -4.092990
-2.790955 -1.461921
-4.032073 -3.108023
-3.806081 -2.672011
-3.153231 -0.913462
-2.287519 -4.633780
-4.649463 -2.423558
-5.035962 -1.505090
-1.482064 -1.596827
-3.172256 -3.373552
-3.148953 -4.404726
-5.203021 -2.476213
-4.917027 -2.109675
-2.796664 -1.475903
-3.801924 -2.551789
-4.469229 -3.234099
-3.449801 -1.444616
-2.830771 -3.703097
-4.346770 -2.444918
-4.587231 -2.418822
-1.480768 -1.537450
-2.613245 -2.935767
-4.425666 -4.829834
-5.803439 -1.696718
-5.126124 -2.179815
-2.295376 -0.237509
-3.994290 -3.062035
-3.463952 -2.798571
-3.885227 -0.791477
-1.002799 -4.007740
-5.092611 -4.265124
-5.743211 -2.392629
-2.554693 -1.232977
-3.880512 -4.512084
-6.118011 -3.830422
-4.601582 -1.776216
-4.865929 -0.558361
-1.069260 -0.386691
-3.183927 -4.899787
-5.006613 -1.537254
-3.085052 -0.709911
-3.069849 -4.377633
-6.160718 -3.913482
-5.510491 -0.889664
-1.818354 -0.587109
-3.362223 -3.454664
-3.619233 -3.996151
-5.662019 -1.848972
-3.528700 0.090482
-0.882787 -2.421057
-5.355410 -5.188300
-5.346099 -2.060172
-3.349298 -1.984394
-4.994992 -4.806612
-5.957517 -0.858901
-5.099883 -1.245643
-1.242700 0.157512
-2.488958 -3.749548
-2.988613 -4.509221
-5.651349 -2.366694
-3.698325 -1.632806
-2.637530 -3.219690
-5.858876 -3.671491
-4.475749 -1.587338
-4.306158 -1.703722
-3.301042 -2.927457
-5.053854 -2.010659
-4.438354 0.116514
-1.356217 -1.929980
-1.886026 -3.984913
-3.585644 -5.888088
-7.447739 -2.667171
-5.516302 -1.782368
-3.629315 -1.000749
-4.190726 -2.689891
-4.877026 -1.434900
-3.078283 -0.990911
-2.213381 -5.022427
-6.861493 -2.198025
-5.030161 -0.900062
-1.905979 -1.102969
-3.766995 -3.204702
-3.959286 -5.154584
-7.748197 -2.137193
-5.431433 -0.395769
-1.466325 -1.120775
-3.918448 -3.933573
-3.769991 -0.852128
-3.422988 -3.367066
-3.784044 -4.283743
-5.815249 -2.651277
-5.986255 -2.551405
-4.243852 0.051939
-3.291322 -1.182694
-3.102907 -4.855026
-8.583945 -1.894402
-2.989238 0.432044
-2.209452 -2.411452
-4.563972 -3.774342
-3.852051 -2.808672
-4.256515 -2.540601
-4.304004 -2.903788
-4.599765 -3.081066
-6.648718 -2.175412
-3.761078 -0.005533
-1.831539 -1.423826
-3.360169 -4.319483
-5.709628 -0.574566
-3.493459 -2.433329
-3.578399 -2.284503
-5.049034 -3.565642
-4.786096 -2.076609
-4.919196 -0.892365
-2.836454 -3.459365
-6.286666 -1.899756
-5.803473 -0.478266
-3.423512 0.234380
-2.329621 -3.307379
-4.036972 -3.994329
-6.079703 -2.073142
-4.227850 -0.874022
-4.951224 -2.803554
-6.351539 -1.126021
-4.307385 -0.557147
-3.881634 -0.821272
-3.841611 -4.013389
-5.697188 -0.856234
-3.660003 -2.515630
-4.038364 -0.328933
-3.253429 -3.295589
-4.397219 -4.599002
-7.371168 -0.580170
-3.513198 -1.915147
-5.426061 -2.299685
-6.430381 -0.983570
-2.536850 0.046923
-3.853791 -2.824986
-3.627474 -2.259374
-4.593936 -1.682832
-4.810332 -2.773807
-3.357806 -0.695318
-4.677127 -3.979156
-4.511513 -1.994979
-5.608758 -0.214100
-2.449120 -3.454127
-5.930491 -1.455263
-3.477685 -1.467349
-2.996807 -2.020671
-5.359578 -3.048149
-4.087130 -1.782174
-4.782884 -2.556805
-4.574919 -1.783495
-3.238060 -2.487674
-5.707523 -2.843917
-5.350825 -1.314992
-4.608181 0.067144
-3.821022 -2.957299
-4.181573 -0.761444
-3.797201 -3.331301
-3.743307 -1.845917
-4.434085 -1.941309
-4.402566 -2.437465
-5.473135 -0.988726
-4.818611 -2.714217
-4.446002 -0.594483
-5.018535 -2.759054
-3.508078 -0.827357
-4.666335 -1.222856
-2.248733 -2.381707
-4.417311 -2.639354
-5.167048 -3.662549
-5.188275 -0.886715
-5.975824 -2.226932
-4.652860 -0.861597
-5.202416 -1.567000
-4.949183 -1.329855
-3.508530 -0.489177
-4.572068 -3.227256
-4.860125 -1.258844
-4.832714 -1.301530
-1.690977 -3.459790
-6.013657 -3.315836
-5.171092 -2.224078
-5.767693 -1.094321
-5.415500 -0.219569
-2.909373 -2.460453
-6.519294 -1.813630
-4.102296 -0.850643
-2.802115 -1.146208
-4.217534 -4.167715
-6.027039 -0.443919
-4.612206 -1.859235
-3.811163 -3.082575
-4.926404 -1.915984
-5.938913 -2.537052
-4.327718 0.760916
-4.680383 -2.265913
-2.863621 -2.261098
-6.921408 -0.896677
-1.784167 -1.984461
-3.681145 -4.243577
-7.456745 -4.590847
-6.364167 -0.286896
-4.696251 -0.086658
-2.997701 -0.935057
-4.424592 -2.239275
-4.883051 -0.371858
-3.664828 -1.052393
-3.857381 -2.980795
-5.198892 -2.767444
-5.686234 -0.263629
-3.105178 -3.301582
-4.833210 -2.898468
-7.638134 -2.932775
-6.418041 0.286787
-3.689054 -0.116760
-1.411967 -2.602610
-3.840817 -2.334160
-4.367365 -3.469972
-4.779367 -2.091413
-6.443752 -3.956004
-5.880421 -0.759032
-6.732866 -0.430825
-3.597566 -1.092038
-3.888636 -2.141676
-5.912364 -3.481297
-5.236411 1.028351
-4.066210 -1.906816
-3.132818 -3.032455
-5.615699 -1.944818
-4.952493 -3.664791
-6.467278 -1.671199
-5.922348 -1.809794
-5.642852 -0.920612
-5.263402 -0.022342
-1.640386 -1.068042
-4.083314 -3.564499
-4.832881 -3.406289
-5.681007 -1.467984
-5.378953 -1.063527
-4.547986 -2.681568
-5.695158 -2.370543
-7.440414 -3.599674
-6.797776 2.547055
-4.416133 -1.311386
-4.492596 -1.225266
-4.336350 0.550040
-1.767693 -2.071566
-4.079344 -3.849256
-6.233131 -4.729079
-7.421606 -0.721455
-7.461479 -0.800120
-3.200823 0.878960
-4.774224 -2.843046
-4.881058 -0.937131
-3.911513 0.812399
-3.013521 -2.920354
-4.991873 -3.187799
-7.260260 -1.978294
-3.812467 0.280105
-4.401481 -2.033620
-5.799241 -3.221226
-8.188071 -0.137142
-5.463558 1.600418
-1.228962 -0.921363
-3.538508 -2.498814
-5.194856 -3.579466
-4.033283 -0.774615
-4.825806 -3.938805
-6.022852 -2.488731
-7.239418 -0.324032
-4.143650 0.015495
-3.309390 -1.618878
-6.609078 -4.259566
-5.820531 0.726122
-4.156955 -1.082256
-1.878432 -1.075840
-4.319905 -3.656813
-6.074815 -2.910238
-5.818572 -0.539869
-5.086866 -3.156448
-7.457650 -1.556401
-7.661593 0.880436
-2.378704 0.339272
-4.341813 -1.861991
-4.697824 -2.926739
-5.859172 -0.917625
-3.955951 -0.677842
-2.556024 -1.936564
-5.064381 -3.727539
-7.511769 -1.281465
-4.818808 -0.788698
-5.440645 -1.726331
-6.684746 0.154086
-4.636410 1.486354
-1.723893 -1.806659
-4.681764 -1.707419
-5.593172 -4.209249
-6.755606 -1.477177
-6.315138 -0.576312
-3.644264 -1.445030
-6.223518 -1.967471
-5.143078 0.011813
-4.064910 0.490257
-5.357429 -3.534272
-4.187623 1.073358
-5.544505 -2.777613
-4.175180 -0.735571
-5.680810 -1.495389
-4.500683 -2.244679
-5.988315 -1.261041
-5.852506 -0.996905
-3.406879 -0.991057
-6.510005 -1.768096
-3.760124 -0.036639
-4.857663 -1.453267
-5.384199 -1.454861
-5.140900 -1.112768
-7.173082 -2.616631
-4.438754 -0.048983
-4.887314 -0.876539
-5.461186 -2.670338
-7.407505 -0.693569
-6.411672 -0.124146
-3.669162 0.233890
-5.155497 -0.924030
-3.660782 -1.352230
-4.489577 0.012877
-3.851387 -3.754195
-5.484577 -2.460918
-7.812842 -1.052204
-3.463443 0.996072
-4.236844 -1.581567
-4.981095 -2.779815
-6.334837 0.077510
-4.450721 -1.271468
-3.388164 -1.975247
-6.614423 -3.025548
-6.106902 0.108275
-4.703440 -1.254000
-4.499406 -2.693532
-6.715997 -0.194336
-5.482920 -0.519535
-4.230349 0.222704
-4.460390 -1.339495
-5.463446 -2.381532
-5.919246 -0.041251
-3.684841 -1.472777
-4.505152 -3.267397
-7.445468 -1.252485
-3.935037 -0.111457
-6.021736 -1.437944
-6.416249 -2.605010
-5.536692 0.409678
-6.597054 -1.460581
-4.289075 -0.349204
-5.819941 -2.182701
-5.086740 -1.609530
-4.900638 -0.282839
-4.968093 -3.970656
-7.011431 -2.618567
-7.287902 -0.315609
-4.415118 -0.265766
-6.269099 -0.570602
-4.327152 -0.281199
-4.247235 -0.587713
-4.760717 -1.287830
-3.784981 -2.115653
-7.515482 -2.893995
-6.269768 -0.220850
-5.338805 -1.342257
-5.630427 -2.746542
-5.781296 -0.189635
-6.369078 -0.054205
-3.462528 0.727445
-3.425832 -1.031456
-4.408189 -3.467962
-5.509808 -0.811911
-5.367906 -2.978240
-6.354197 -2.564538
-8.520538 -0.485974
-5.968950 0.201198
-4.941711 1.139857
-5.368929 -2.157468
-4.593731 0.079888
-6.410562 -1.629894
-3.347247 1.112316
-5.638201 -3.875407
-7.166696 -2.025384
-5.967226 0.001063
-6.641397 -1.742447
-5.356812 0.308088
-7.184396 -1.587981
-6.274526 0.567057
-4.978591 2.010901
-3.036918 -2.668242
-6.667561 -1.216323
-5.340944 -0.677779
-4.400875 -1.770051
-7.508518 -3.013682
-6.368340 -0.275459
-5.463573 0.270287
-6.396581 0.340968
-2.595790 0.872098
-6.664750 -2.381330
-4.840014 -0.038748
-3.799802 0.323290
-3.748498 -4.015344
-6.180900 -2.843180
-7.684521 -2.568100
-7.366812 -0.551895
-6.595250 0.497272
-4.696797 -1.780430
-6.440146 0.815953
-3.041426 1.090131
-2.743546 -2.750512
-7.437963 -4.900248
-6.710170 -0.227201
-6.903297 0.107704
-5.189594 -2.213225
-6.555422 -1.503588
-8.991857 -0.765014
-4.364303 2.946213
-4.003708 -0.565180
-4.895901 -2.074635
-6.222603 -0.109577
-5.123064 -1.790979
-5.828508 -2.010067
-7.226637 -3.275444
-8.492005 0.708951
-6.088901 2.649121
-3.762933 -0.641487
-6.375552 -1.495162
-8.020766 0.421752
-2.919706 1.297990
-5.779253 -1.591229
-5.796593 -2.564647
-8.147298 0.244831
-6.151580 -0.773678
-5.673392 -0.854636
-7.536269 -2.591279
-7.195578 2.242814
-4.577272 2.443316
-4.187759 -1.164680
-5.739114 0.400624
-5.235554 -1.160525
-5.026081 -1.876061
-8.086272 -2.510742
-6.606084 -1.158948
-8.705902 0.972009
-5.321716 0.827331
-4.725002 0.243361
-6.678105 -0.425285
-3.463383 0.060868
-6.470128 -1.013256
-4.801868 -1.329513
-5.700386 -1.201072
-6.685548 -2.294593
-7.703973 0.406132
-7.142588 -0.186565
-6.429340 0.319919
-6.855843 1.616332
-4.008176 -0.059412
-5.690843 -0.826058
-5.991669 -1.107760
-5.798300 -1.369029
-8.608844 0.523257
-4.121084 -0.039911
-6.286468 -0.340587
-6.452879 -1.419854
-6.236027 0.490250
-7.220777 0.601429
-5.679998 0.097542
-6.561247 0.793016
-5.116184 -0.278546
-4.607077 0.411052
-6.292274 -3.480911
-7.482479 0.478393
-6.427750 0.603634
-5.221339 1.116476
-6.196778 0.378953
-5.661932 -0.424694
-5.447314 0.792319
-6.107677 -0.853198
-4.603322 -0.311979
-8.084066 0.437242
-4.574133 0.682474
-4.885584 -1.972467
-8.250173 -1.765358
-6.756903 1.375514
-5.836696 0.009083
-5.851634 -0.516971
-6.236339 1.659926
-4.828616 -0.614357
-5.216750 1.427766
-5.642758 -1.279328
-6.945409 -1.356271
-8.093925 0.681422
-4.513953 -0.587822
-6.536468 -0.444672
-7.281913 -0.394044
-6.907784 1.056377
-7.028210 -0.082913
-6.130526 0.145571
-6.146914 0.404172
-6.542600 0.358301
-4.836081 1.537220
-5.621270 -2.631973
-7.121434 -0.850215
-8.167686 0.333796
-4.644795 -0.549727
-6.754913 1.705792
-5.303087 -0.149725
-6.028165 1.141077
-6.418297 -0.143194
-5.630111 0.985938
-6.089520 0.436514
-5.042805 -0.119331
-5.008538 -1.468405
-7.609747 -1.535072
-7.541524 0.235286
-6.639461 3.430253
-3.827228 -0.376072
-5.974889 1.607241
-6.700124 -0.423831
-3.137819 1.520274
-6.822887 -2.996289
-5.874069 -1.143187
-6.952101 1.112596
-4.876156 -0.476039
-7.343751 -0.034866
-7.954682 -0.492049
-6.559924 2.540621
-5.544816 0.131689
-4.877387 -0.230756
-6.159208 0.114596
-6.343217 -1.073896
-4.315332 -0.318167
-8.062003 -2.456211
-6.421185 0.212074
-8.019871 1.054065
-6.262748 0.548617
-5.268844 1.495166
-5.668761 -0.248023
-4.821476 0.947716
-5.769599 0.458855
-4.195898 -1.399613
-8.475860 -0.731909
-6.317199 0.437959
-6.471731 0.049894
-7.748651 -0.157833
-6.815871 0.176690
-7.496462 2.159770
-5.895295 0.441099
-4.654015 2.139312
-5.410227 -1.664194
-5.323304 0.118984
-7.343787 -1.234008
-6.214327 -1.359406
-9.097454 0.791220
-7.352064 0.463494
-5.671467 2.322598
-5.569965 -0.507521
-5.434684 -0.407187
-7.975058 0.018330
-4.498469 0.293976
-5.317127 -0.841851
-6.814021 -3.184679
-9.795120 0.764346
-7.539753 1.684492
-5.761930 1.032975
-7.284655 1.727615
-6.582263 1.278729
-4.488994 2.180508
-4.639690 -0.424462
-4.944802 -1.794286
-8.560076 1.044802
-5.120534 1.106444
-5.858924 -0.136245
-8.857345 -2.229255
-8.129054 3.000504
-6.429923 3.086311
-3.365460 -0.028366
-6.930626 -1.014774
-6.611825 -0.934422
-5.252985 2.723361
-5.249459 -0.949889
-7.047752 -0.973813
-10.237520 1.402807
-6.492026 1.843841
-6.874268 2.514722
-7.529703 0.531762
-6.208944 3.575429
-4.686035 -0.040459
-4.377659 -2.513342
-8.236902 -1.320071
-7.070376 -0.149122
-7.904053 1.924373
-6.495945 0.658487
-6.540709 0.196691
-8.497365 1.711926
-5.843270 1.072931
-6.258768 0.697083
-7.007610 -0.172656
-5.771377 1.829712
-5.368887 -0.054141
-6.981993 -2.039609
-8.800313 2.454691
-7.435249 -0.228531
-6.069063 4.001337
-5.487534 -0.255199
-5.322902 0.725964
-7.842603 -0.191969
-6.466238 -0.211072
-7.875721 0.691786
-6.912325 -0.174358
-6.342749 1.646222
-8.132504 -1.445030
-7.602246 2.068932
-6.781460 1.483818
-6.460145 1.279189
-6.783834 2.926480
-4.215966 1.315167
-4.492893 -0.269674
-7.296961 -0.439668
-6.854219 -0.020683
-7.562804 1.126893
-6.672867 0.581744
-7.879601 1.556459
-8.771869 2.030166
-5.050155 3.162475
-6.149149 1.122223
-7.105765 -1.295467
-7.134386 4.210346
-6.201534 0.406771
-5.688252 0.489879
-7.189387 -0.809464
-7.471666 0.330265
-8.652698 1.677823
-7.715804 1.590523
-6.626072 3.388079
-5.848869 0.862458
-4.441397 2.059531
-6.994911 -0.482818
-8.091226 -1.085069
-9.439092 3.718026
-5.138881 1.882690
-5.839722 1.477823
-7.661190 0.236130
-5.558680 0.671523
-8.463950 0.269139
-7.655772 2.542898
-5.962207 3.375358
-6.715137 0.733218
-5.144933 3.036031
-5.892216 0.116093
-8.180540 1.297937
-6.624519 4.070807
-6.137159 0.502696
-5.117781 0.799055
-7.726379 1.394139
-6.325801 -0.770544
-9.457581 3.539954
-6.211563 1.412652
-5.994178 2.944075
-7.448510 -1.248083
-4.955127 2.266619
-7.956091 -0.124318
-8.732549 1.099974
-8.025232 3.384400
-6.791290 1.518622
-5.500511 3.854252
-6.858188 0.991117
-5.663266 1.064838
-8.703233 2.547699
-3.576688 0.981083
-7.138043 -0.008664
-7.642488 0.017596
-6.804905 1.587448
-7.338047 1.026988
-6.084101 0.265998
-9.376352 2.116440
-6.035373 2.689998
-4.546558 2.854708
-6.871506 -0.625420
-7.543085 0.449707
-8.160340 2.405642
-5.921745 1.040283
-7.466361 1.584350
-8.625715 1.470177
-5.959206 2.713292
-7.101839 1.814498
-5.453765 0.096645
-8.508516 3.185112
-6.627300 1.130179
-4.580728 4.166501
-4.915702 -0.977217
-7.277323 -0.381195
-11.003691 1.316991
-6.258297 3.002554
-9.001759 2.315030
-7.804720 3.527956
-3.631066 4.630637
-4.554609 0.209350
-5.753799 0.138674
-8.689119 0.891111
-6.464979 1.002173
-6.043607 1.984160
-7.223148 -1.070682
-10.282285 1.341608
-9.103613 5.470137
-5.560625 3.453864
-6.017791 2.616333
-6.259757 3.761049
-2.567084 1.530088
-8.589331 -1.353826
-6.341530 0.509518
-9.917450 1.341914
-8.105828 1.760949
-7.037809 4.620714
-7.033454 1.071223
-6.878376 2.365966
-6.480587 4.225326
-4.556343 0.302118
-7.796262 2.833541
-4.957877 0.016328
-7.558442 2.094341
-8.888547 1.623184
-6.905633 3.696060
-7.264505 2.071795
-7.289641 1.896240
-7.165678 4.724370
-6.532378 2.587392
-3.596545 3.481790
-7.050897 -0.461475
-6.482177 1.772309
-7.219770 2.598486
-6.257636 -0.483927
-8.873016 1.428889
-8.916937 4.995013
-4.727525 3.133009
-5.550462 1.828431
-8.640178 0.743109
-6.329398 4.551856
-5.524789 1.486201
-4.788889 -0.598897
-10.754633 0.026957
-7.553331 0.863805
-9.650121 4.781271
-6.860380 1.488261
-6.084895 5.105056
-6.367882 1.677790
-2.890192 2.534396
-7.379111 -1.057593
-7.451169 0.237911
-8.546162 2.010489
-8.363578 1.003911
-8.672155 3.555239
-7.426043 1.130925
-7.681185 3.208864
-6.715382 4.237822
-5.519702 1.963825
-5.326381 1.131794
-9.162760 1.558254
-5.644299 0.996804
-10.441587 1.864101
-7.457724 3.622020
-7.473121 3.178184
-9.297140 1.870408
-5.632049 5.099980
-6.595210 3.028625
-6.478092 1.827695
-6.930787 4.124620
-4.708988 0.117920
-8.340466 2.160882
-8.249261 1.462827
-6.954272 3.110098
-9.207051 3.583690
-5.343189 1.693917
-10.018169 3.051450
-8.643790 4.364613
-4.329558 6.501505
-5.463215 0.536961
-7.064599 3.005885
-6.796246 2.426052
-6.747063 0.907648
-8.653821 2.138185
-8.897052 1.671790
-8.016180 4.917415
-7.435443 5.222852
-3.494906 2.296193
-8.903134 1.093656
-8.447005 4.072341
-4.577686 3.656792
-7.346099 1.658297
-7.716589 1.327174
-9.563224 5.080075
-6.120930 3.788229
-7.249432 3.612317
-7.393122 3.762058
-4.965375 3.679353
-6.767088 3.376804
-4.532095 0.456318
-9.778421 1.809966
-9.244702 2.564047
-6.042469 5.176966
-7.481784 2.453872
-6.372597 2.822066
-9.022374 3.939547
-5.273072 2.693226
-8.758361 3.699932
-6.703247 1.614192
-8.405609 3.566729
-7.713231 5.448334
-4.428253 1.927172
-8.838040 1.058174
-9.258301 4.087128
-5.171147 4.843984
-8.105792 1.315470
-7.401554 4.738705
-7.613059 4.254451
-7.414984 2.961213
-7.018611 5.108977
-7.519719 0.570424
-9.036405 4.480823
-6.590930 5.575589
-2.203668 0.700932
-11.057200 1.010747
-9.905535 4.138598
-7.146720 5.024220
-7.866094 3.647966
-5.089544 3.201305
-7.517568 3.926968
-5.944139 1.877835
-5.613902 3.963918
-8.593601 -2.882599
-11.705963 7.156426
-6.598646 5.946313
-4.392065 2.793916
-9.227176 2.628603
-9.001949 3.102324
-8.893091 7.472399
-4.422367 5.054068
-3.601438 2.741146
-8.356389 1.561663
-6.394485 6.301526
-4.074119 2.343602
-9.450717 -0.337512
-10.006026 4.710477
-7.994435 7.336114
-2.747904 4.298008
-7.755154 2.215760
-8.215159 3.239704
-6.707398 8.703969
-3.468126 2.729943
-4.528989 0.679540
-10.944658 1.894261
-7.311581 4.144477
-7.534902 4.062565
-7.948187 0.461572
-11.129025 8.553417
-3.985153 8.625118
-1.101878 2.173301
-7.494349 0.608743
-5.762902 2.375830
-6.695324 2.985109
-7.961830 1.197931
-8.444212 3.331073
-11.668892 4.374739
-5.560758 7.663100
-3.946635 4.560928
-8.684890 -0.150512
-8.078743 7.741663
-4.337258 4.860273
-4.780636 0.918177
-9.024981 1.577808
-8.778764 2.477500
-10.230413 5.393020
-6.395225 5.932448
-5.289488 3.209239
-9.032001 5.896801
-2.704223 7.175924
-3.893992 1.674687
-8.794238 -2.052278
-7.812909 4.337448
-9.278120 0.469641
-7.785785 4.201126
-8.154745 4.649260
-8.438375 1.080718
-10.634554 8.451625
-4.491025 5.035385
-5.232020 4.841835
-6.980765 3.535592
-2.632452 4.167993
-6.491328 1.119408
-8.275608 -0.164571
-11.308410 4.555750
-9.761554 5.248202
-3.985094 6.589876
-6.907232 2.873528
-6.634992 4.390466
-6.179921 5.986882
-5.160823 2.948389
-4.947184 0.834502
-10.277469 2.055797
-6.118066 3.247664
-9.088126 3.035628
-10.148267 2.740824
-10.294453 8.909580
-4.986765 6.745176
-3.906707 5.249605
-6.572168 4.241798
-5.063075 1.892974
-8.421997 4.838629
-5.387434 1.209822
-9.822216 1.048810
-12.680532 5.947740
-4.847487 8.349896
-6.188457 2.376766
-10.114015 5.221488
-5.720799 8.654697
-4.966574 1.054180
-5.748270 4.092088
-7.507011 0.689548
-8.190740 3.332152
-8.994738 6.754014
-5.215168 1.962587
-10.824098 4.441456
-8.185877 8.754995
-2.143548 4.895486
-8.811763 1.520453
-7.201997 5.182046
-5.956522 3.155265
-9.222979 2.581269
-6.961628 4.993026
-8.797508 3.067710
-8.928892 6.023672
-3.974779 6.071318
-8.324195 0.208435
-10.439226 8.416881
-4.583041 7.240325
-2.479144 2.673077
-10.964419 1.284004
-8.181372 3.608002
-9.057856 6.038031
-7.290200 1.807629
-10.516931 4.038390
-10.573388 6.494102
-5.785195 8.289968
-3.395724 4.666388
-8.246676 0.978431
-8.923034 7.038787
-5.757395 4.324421
-4.695799 1.790754
-10.975719 1.646340
-10.780507 5.126827
-6.819806 9.367104
-6.711241 2.341866
-7.961195 6.048511
-8.261789 5.785815
-5.428170 6.026033
-6.137365 6.144559
-6.018668 0.301876
-11.910481 5.363940
-6.539032 5.543992
-6.622723 2.282250
-12.160107 4.454541
-7.898107 7.928377
-5.656161 6.067907
-9.126877 2.474918
-6.556946 6.103836
-10.327979 2.950045
-7.535613 6.117453
-7.052150 6.440452
-8.891822 0.826407
-10.786863 9.439164
-6.460799 4.249079
-7.896499 5.043003
-11.569371 6.461894
-5.254669 7.544276
-7.436909 6.042703
-6.113457 5.451710
-6.713662 3.119901
-12.860847 4.332730
-5.643010 11.328169
-4.549916 3.049885
-10.345975 2.035016
-10.585146 10.245055
-5.789543 6.943952
-5.200418 4.271939
-9.602984 4.905972
-7.485540 4.607986
-7.375832 9.735355
-3.320015 2.919518
-9.886167 2.679117
-12.715826 6.386480
-4.879001 9.924180
-5.094434 4.374445
-8.797378 2.636483
-8.962192 10.289896
-5.993848 6.260252
-2.629972 5.313829
-8.996935 1.639678
-10.213976 6.157154
-7.099891 10.666550
-2.962189 1.936906
-9.593056 2.724612
-12.067063 5.946431
-5.016105 10.835612
-3.862525 3.135660
-10.089719 1.484566
-10.098498 11.041081
-3.144597 6.402026
-5.030825 3.295465
-14.200372 1.714254
-9.075066 10.800357
-6.398365 8.781665
-4.332034 6.144242
-8.050682 2.283024
-13.346764 8.175991
-1.724807 10.606116
-3.642030 1.381480
-11.343079 2.901762
-8.906604 10.195192
-4.466867 4.545630
-8.575031 2.301108
-14.974118 5.017282
-10.646943 9.108671
-7.377283 14.756399
-0.004820 3.284471
-9.460268 3.543782
-12.049213 8.680987
-0.830019 8.745016
-9.500292 1.253631
-7.853231 6.256429
-8.885681 6.683405
-7.380791 6.020573
-6.087500 6.765017
-10.178531 4.719657
-10.372704 10.585770
-3.312226 13.064574
-0.910563 1.674920
-8.639912 3.545679
-11.363052 4.987873
-7.093393 7.933588
-9.519613 5.514135
-6.481302 6.586811
-9.664511 9.976892
-6.818806 9.966811
-2.751626 8.126870
-8.025679 2.598383
-8.334498 8.315256
-4.741701 9.544979
-5.610367 3.053337
-7.280507 5.346881
-11.407390 7.155803
-6.855180 9.117891
-9.011580 8.061005
-6.306314 6.207626
-7.981159 10.880466
-2.516467 4.913191
-4.786176 6.866691
-10.574965 0.587364
-10.803473 9.894743
-7.349167 9.951659
-2.624181 5.361844
-11.043996 4.728088
-8.630289 10.778116
-4.077186 9.453783
-5.226329 4.563198
-9.100478 6.071898
-6.445912 10.420285
-3.684526 6.896409
-2.855565 2.746741
-13.966517 1.442112
-12.584609 11.407224
-6.078515 13.555990
-1.588170 3.557894
-10.267309 7.000732
-6.142068 8.772254
-2.653544 6.729413
-9.527637 5.200185
-6.650275 5.392062
-11.397939 8.173787
-4.038759 7.404710
-5.851028 3.163976
-14.385568 2.783736
-11.139510 17.376482
-0.813269 11.080214
-4.814439 1.623488
-9.934680 9.166221
-6.357182 6.285642
-5.746668 6.897012
-12.718086 3.121555
-10.845779 9.212330
-9.923844 12.567017
-1.814458 8.574054
-6.947715 4.143559
-14.273780 8.686207
-4.409461 13.474731
-3.572509 5.798221
-6.617175 3.556063
-8.680007 8.303970
-6.733903 6.092514
-5.782627 7.705488
-10.513136 4.227821
-11.930599 10.696312
-7.277807 13.729459
-1.960843 7.288910
-5.801278 4.325090
-13.733711 7.852658
-3.898847 12.954673
-6.384157 7.133679
-5.415231 2.598846
-12.796061 10.878213
-5.258135 9.324528
-4.350793 9.114200
-10.173045 2.652229
-8.937890 12.931725
-6.176065 12.133234
-0.400250 5.570232
-8.092890 3.808363
-10.891386 5.070492
-6.649303 12.558603
-6.300936 4.487705
-10.759432 6.854347
-9.067965 11.689773
-4.510984 8.897191
-5.573787 6.318191
-9.622885 9.237745
-6.749243 9.270183
-8.915764 13.653258
1.177708 6.915189
-8.028039 1.873889
-15.754390 8.065990
-2.558594 15.500792
-7.575829 5.213678
-8.308759 9.052494
-9.571947 12.730681
-2.538244 7.961838
-4.421104 8.315460
-8.527778 4.524924
-11.826739 9.744807
-6.519156 16.056116
0.361788 3.613322
-12.516609 4.140084
-13.513129 12.134712
-0.890243 17.477570
-5.108046 3.954230
-5.202170 8.069554
-11.761007 7.193348
-6.371445 13.678609
-0.464597 7.793750
-11.703982 0.290678
-13.373900 13.868737
-4.958473 16.024807
-0.756637 4.185236
-12.769307 5.236681
-11.896616 14.026311
-1.167908 13.628655
-3.543105 5.743902
-6.381416 1.525597
-16.157213 12.220961
-3.334081 13.124086
-4.213339 7.179953
-12.744278 2.628918
-12.234083 16.160574
-4.594998 16.232662
0.835288 5.297521
-13.418599 7.568216
-9.923568 14.929108
0.805367 14.822661
-0.885257 -0.769293
-14.381314 3.585206
-14.711095 16.152615
-2.947372 13.417663
-4.199463 9.232169
-11.093100 4.524460
-11.529227 18.480153
0.716299 16.356909
1.224826 2.000315
-16.142693 4.971350
-10.590536 17.859169
3.173998 12.100238
-6.965300 3.061942
-11.963339 7.949665
-12.576927 16.248271
-2.167373 14.629919
-2.210186 6.821792
-11.202100 5.482664
-7.309274 15.723968
0.511251 13.975729
-1.867366 -1.273106
-17.036490 10.998176
-5.944904 13.179634
-4.478757 12.586667
-6.166399 7.649521
-5.674462 7.752163
-14.058449 14.027753
-0.760040 15.965637
-0.619499 9.998457
-8.550556 3.278084
-5.691663 16.099439
-3.606096 5.563196
-8.563614 6.948783
-11.699531 8.881727
-10.762202 14.819974
-4.172108 17.970996
-0.415282 12.223879
-3.356593 6.660955
-10.001223 12.785706
-2.014562 9.679915
-6.448741 7.534934
-11.822835 6.879286
-6.837964 12.875550
-7.223173 13.771016
-2.132925 6.432343
-14.091639 13.092052
-7.121490 15.057580
1.860905 18.876642
-0.331239 -0.480720
-7.261628 5.769406
-13.009376 10.786310
-3.830364 13.129895
-5.989755 12.296639
-7.206591 5.038015
-7.459031 18.697636
1.916223 9.508321
-5.300357 1.799501
-15.078238 13.623829
-3.449528 15.864921
0.507447 12.517713
-4.230724 2.182862
-10.106558 7.510917
-15.137337 13.077326
-1.981749 18.097528
-6.020415 8.355864
-12.892932 13.212717
1.538016 23.914685
3.193849 4.900376
-6.051965 4.540907
-12.183764 10.447914
-6.073823 11.963209
-4.583432 12.853595
-6.245946 4.930816
-12.599629 8.194246
-14.086058 22.164814
4.941947 13.344571
-9.842349 9.881730
-7.337708 14.860009
2.722022 17.925909
-2.276703 3.469020
-7.929193 5.858392
-17.393211 12.062288
-4.330820 21.719972
0.256995 16.215289
-4.339294 5.451669
-9.687881 15.777512
-2.465199 17.232970
4.460609 7.203378
-8.855068 5.543966
-11.039218 13.720582
0.374211 17.858115
-0.066312 4.761589
-11.077320 0.836397
-19.694736 17.946206
-0.359140 22.654120
3.153964 12.448130
-7.403524 2.994654
-4.382035 14.466413
-5.106631 12.712827
1.363709 6.020305
-14.749444 8.533153
-9.254749 16.749562
0.138477 20.262181
2.003515 0.332804
-12.460396 6.444390
-12.802284 17.926147
-0.867735 16.162814
1.173866 13.223942
-4.597783 0.727390
-9.710887 11.926146
-9.072283 11.156104
-4.362944 8.980843
-17.835881 11.058741
-7.824942 20.584938
1.043233 20.225380
-1.909912 3.631471
-9.849659 9.596000
-11.563580 16.102853
-0.756333 18.005408
-0.484024 11.354991
-6.891670 3.725489
-14.799095 16.686704
-3.371669 19.557249
-0.628247 8.032368
-12.540920 15.389140
-4.707459 16.824297
1.979820 18.690730
-1.595916 5.075659
-6.986180 8.102448
-20.085985 14.328514
2.937628 21.226549
-2.840059 8.792612
-8.924958 4.775312
-14.379538 21.962727
1.297759 22.905742
3.973816 8.699091
-12.483171 7.206292
-10.050513 17.959825
2.678385 22.570143
4.235616 -0.396488
-15.771098 4.314825
-17.739455 21.261224
2.710710 24.198484
0.936513 8.708224
-15.220851 5.390873
-13.207456 28.508324
6.324000 20.332542
6.952524 2.769351
-16.360608 4.476540
-10.492473 24.631891
6.861988 21.333595
-0.057280 -4.787879
-17.697455 7.573765
-17.719361 25.871800
9.027131 25.195662
2.132097 8.156197
-11.829800 4.901411
-12.854136 26.118530
6.704742 19.051963
3.056085 2.018079
-20.390793 10.740698
-8.820554 24.547545
9.042722 22.537565
-1.102661 -2.314775
-15.253340 14.313809
-10.319107 27.554324
12.266770 21.163296
0.554500 3.760781
-13.569476 5.029775
-8.597779 28.354244
2.708497 11.410313
-1.593016 6.637652
-19.947055 9.225455
-7.036174 25.714462
2.993636 22.330240
1.591871 3.378030
-14.587942 12.300527
-11.580879 27.276990
12.219565 20.142829
-1.139498 4.585274
-12.617547 2.289173
-12.757304 26.184443
2.257883 18.595475
1.573655 11.847232
-17.381365 12.306680
-5.327344 24.639387
-1.418679 20.915144
-1.061777 6.661754
-9.984975 18.739659
-6.098014 22.743031
9.915476 18.810783
-3.125349 3.178530
-14.941087 10.855666
-12.447895 29.165686
0.936109 21.996662
6.846314 10.774430
-12.967481 12.488970
-0.015566 24.585287
2.952736 21.085609
-0.718157 4.095136
-14.291171 17.235774
-11.466347 20.692564
9.360050 27.013179
-1.942618 7.094022
-10.046553 17.238273
-4.347119 27.377185
8.609673 19.387695
6.488706 9.814996
-6.483982 9.936547
-4.239971 16.657322
-0.992323 16.471416
-6.785602 2.675861
-16.049464 18.860632
-10.290650 27.921695
12.664038 28.855284
-0.695320 12.018302
-0.280564 12.008891
-7.881309 25.174472
8.654163 14.223830
-1.435956 11.088019
-10.746712 12.157685
0.532359 24.181602
3.892230 13.581357
-6.022341 5.488554
-15.410910 23.880942
1.251572 33.297245
18.004625 17.360874
2.415223 2.626566
-13.273031 4.917203
-6.811385 26.820260
3.379797 8.179671
-8.707655 17.877701
-11.230315 21.437028
6.098757 26.658971
0.329272 11.685843
-4.949890 8.068603
-11.729346 26.556427
7.492817 30.216946
16.041818 9.841510
-9.461685 2.562951
-11.012136 17.760620
-5.018334 28.399580
3.328972 14.417638
-5.241867 17.613084
-6.297249 26.538582
19.135768 21.572403
5.396493 2.469867
-12.786250 0.418520
-18.060038 35.208320
10.350211 17.144960
5.660882 4.048749
-22.611562 7.197453
-7.259144 28.349397
-2.832765 31.748901
8.259978 14.248647
-5.990580 20.941819
2.822187 22.322647
19.250822 23.598042
0.728682 -9.577227
-17.820923 13.036054
-9.248488 25.191772
4.943049 24.101434
4.695513 8.265341
-15.799108 16.462262
-6.502788 29.651990
8.624092 26.655630
0.590402 6.089816
-6.580701 21.753569
-1.113323 25.140084
8.258918 9.920795
-11.251701 15.962432
-5.996579 16.898507
-11.268388 35.822361
13.751511 25.421417
6.391088 14.272590
-5.386170 10.108688
-1.954659 23.015286
4.737714 17.607700
-4.358008 4.062360
-11.155495 18.693136
-10.080798 23.325232
4.293550 27.959214
0.793290 20.089030
-9.869602 7.384946
-10.078722 43.431741
16.032990 25.033469
22.432884 14.695513
-10.872000 -1.607983
0.319437 28.025194
1.598071 15.716213
-0.165444 10.809089
-17.609021 25.420469
-1.081083 37.357669
23.053554 20.396784
1.056196 -1.608091
-8.154329 19.110130
0.479700 34.217061
7.965029 20.678507
6.134912 7.621874
-20.120326 12.988798
-0.726198 26.518694
0.530136 28.927865
6.660610 10.816457
-12.891678 21.957978
-4.265652 32.576446
29.412754 29.110001
4.190898 -2.116687
-13.035742 2.813743
-21.879841 38.075499
17.366907 23.184625
1.279508 -0.184112
-25.106813 13.712823
-7.752248 50.253110
21.825536 30.102068
0.450462 0.345135
-9.475350 23.140596
-5.867152 24.856011
18.792566 27.827434
-8.072006 -5.314662
-18.875653 20.147585
-19.183010 43.376776
24.918062 31.758226
1.687103 2.281023
-27.197806 24.525692
12.714524 50.683660
23.666708 23.531608
2.148465 -5.488073
-18.101363 19.172365
-10.548891 36.054842
30.943463 32.285454
-6.910078 -6.783338
-28.274568 29.834104
0.897041 61.910017
36.396151 9.923193
-8.147673 -1.669997
-19.088155 25.472852
-0.733110 40.309374
9.720433 29.696437
6.401112 -2.096279
-36.909702 36.342113
0.728813 53.064372
18.580626 33.828535
-1.878356 8.925926
-10.516634 34.346143
20.797350 46.646687
31.999296 21.534331
14.478658 8.397937
-25.179740 9.209027
-4.478856 31.465846
2.271983 34.793055
15.779850 12.580559
-19.088635 34.731218
11.522894 54.193125
41.543301 27.872580
6.533359 7.214454
5.260589 -2.381420
-28.853978 52.623581
42.223273 22.709837
-4.586859 3.223906
-16.518389 13.133921
-2.256486 62.816196
14.464995 33.393530
29.334916 26.115744
-9.779819 19.376929
6.367971 31.402648
26.440018 40.737540
19.228969 -3.278054
-17.054792 15.759472
0.839868 57.163108
34.267175 2.439550
-8.000133 9.828759
-26.153280 11.922468
-6.292294 69.362417
36.280977 46.786224
31.826929 14.056437
-11.978724 0.930334
6.787805 42.648581
15.347768 -5.128375
-16.941895 8.094652
-22.238122 37.174125
-1.259411 55.074838
18.757434 20.173737
-13.649724 16.191242
-17.406912 38.440277
11.914348 60.418520
41.752455 36.820876
24.454285 -29.901436
-34.753685 28.515438
1.364879 33.772976
6.177894 32.499070
-33.658531 17.072831
-20.560895 68.223688
20.926080 62.458788
51.473260 19.383836
-8.437701 31.850955
-7.245569 42.207732
8.222773 68.014032
35.874168 13.442302
-5.432156 21.044051
2.177573 31.157293
16.856454 46.849662
17.720092 -2.682790
-31.007776 41.531460
-3.595989 39.869756
19.980197 90.409560
22.458782 -15.307520
-21.847006 60.646539
11.211003 26.475737
19.911246 62.412691
10.242424 29.570207
9.943656 26.045943
-8.474033 77.001325
40.178385 25.809080
17.357462 11.909366
-29.662350 15.109191
5.715184 71.760962
56.864746 30.230550
-1.713854 1.700582
-18.717570 34.524061
-28.217961 44.273564
33.686359 53.074820
7.325776 38.502861
15.083161 91.070321
58.412744 71.335515
61.107279 6.387421
22.597196 13.136510
-16.710419 -23.991984
59.541935 80.115223
5.185567 -21.565989
-13.152993 31.242279
-8.971219 24.752175
-62.471036 45.545089
35.085369 105.445213
-8.932562 35.806984
-13.809106 62.772483
53.653435 121.396376
82.561366 -45.539467
-40.772388 32.882487
-35.506947 97.503653
28.859606 81.985265
-17.492117 65.799461
54.571058 38.956915
-7.399069 46.663860
-40.520762 30.877553
42.951636 176.027611
71.628903 4.391225
-27.012171 -11.083289
-9.777075 82.326720
23.807172 8.756281
-52.082870 87.070055
-15.905649 49.560021
40.483137 137.638035
70.055354 147.032095
113.679779 -15.504175
-5.969259 104.334286
81.080210 72.136335
159.425301 63.830641
-32.288281 -126.387576
-86.190961 65.829854
-43.119791 233.463923
149.656660 103.624162
-14.884808 51.937083
45.356361 68.450107
57.505441 93.127424
171.795248 14.318580
96.705980 -42.835053
-239.441248 86.224968
23.509568 163.459804
-27.535962 168.016169
-7.543974 -83.091680
91.143702 188.884057
90.800897 369.984037
236.022662 135.328611
-136.002907 158.520719
-310.774176 -31.806265
261.216348 349.902310
-86.868708 218.977938
84.504527 -249.309298
-107.699574 187.655976
-158.263358 281.318176
60.336399 91.168576
39.168202 53.168327
-226.123182 460.462982
129.583521 335.102590
389.252045 -365.010888
175.240771 -220.759076
154.326394 327.783390
359.034047 987.887279
-202.836982 626.533960
-256.515711 -233.307870
-148.981561 1118.379180
-475.549676 1625.358382
-565.270265 135.539259
-443.535350 -983.206217
-177.428238 1859.811737
-1572.779558 1247.486821
936.495251 -4840.024456
1779.397411 -3723.386489
