3978.702490 3251.254927
-1199.726269 -151.369677
-1.613450 -1.251357
-88.012400 -61.254497
-1.328769 -40.934281
-65.981169 -21.742148
11.770210 -7.226040
13.080938 -25.386840
-7.748091 13.632414
4.214966 -10.699224
-14.529089 7.216842
2.812854 14.477442
-3.106619 10.308282
-8.715751 -12.877243
-1.135773 -3.564487
-5.544371 3.092423
-2.618169 -4.523479
2.313648 3.196848
6.610531 -5.470945
-1.590216 3.703579
-4.539613 -0.957008
-0.359190 2.543036
-0.749237 1.367410
-0.559911 0.117004
2.064680 -1.060091
-0.878565 -0.852657
-0.898353 -0.599261
-0.180490 0.230175
-1.586565 -0.957562
-1.385975 1.704431
-0.548570 0.117497
1.848496 0.325495
-0.593603 -0.080666
0.893871 -0.549407
0.272553 -1.774169
0.333105 0.272008
-1.868737 0.592590
-0.367451 -0.111743
-1.698159 1.214445
0.978321 0.627564
0.917077 0.252541
0.971808 -1.245830
0.248290 -0.117077
-1.162091 -0.051166
0.022941 0.154328
-0.083855 0.842190
-0.125724 -0.296917
-0.131330 0.082722
-0.143732 0.021514
0.137041 0.245561
-0.143364 0.427183
-0.100091 -0.026922
0.318367 -0.044125
-0.792296 -0.211423
0.017341 0.445298
-0.092629 0.118267
-0.174154 -0.057689
0.153533 0.135757
-0.562933 -0.399947
-0.271812 0.227619
0.155704 -0.048257
0.207299 0.208895
-0.507894 0.201172
0.017599 0.169323
-0.004193 -0.167852
-0.093632 0.105675
-0.298513 0.209195
0.117964 -0.278737
0.183419 -0.577428
-0.165346 -0.345860
0.137951 0.035176
-0.061241 0.111075
-0.041977 -0.085019
0.429015 -0.292683
0.359104 0.103443
0.170431 0.211370
-0.343755 -0.063202
-0.099958 -0.309673
0.339147 0.182275
0.106767 0.257476
-0.249727 -0.236047
-0.202180 0.131444
-0.111666 0.049657
-0.189065 0.054713
-0.364221 0.002246
0.145377 -0.360227
-0.304380 -0.009048
0.027524 0.104556
0.097328 0.173797
-0.097390 -0.091992
0.026961 0.097467
0.316065 -0.171921
-0.046939 0.149575
0.113880 0.130968
0.014296 0.147527
0.205122 -0.060931
-0.311276 0.161383
0.051483 0.305342
0.062420 -0.010750
0.189760 0.355346
0.001785 0.195436
0.194418 -0.125487
-0.268055 -0.070619
-0.019021 0.007549
-0.107525 -0.062603
-0.212290 -0.223741
0.180469 0.049839
-0.121273 0.003295
0.150950 -0.123263
-0.176432 -0.036689
-0.056408 0.038955
-0.052938 0.030084
-0.145127 0.053028
0.079770 -0.233762
-0.304716 0.010549
0.176013 -0.109560
0.038235 -0.171126
-0.080068 -0.219804
-0.068791 -0.041730
0.184144 0.103794
0.016995 0.138344
0.073478 0.253109
0.080924 -0.043119
0.117055 0.029698
0.136190 0.090015
0.045241 0.038524
0.185759 0.058990
-0.103323 0.075033
0.005550 -0.039332
-0.192964 -0.282504
0.242926 -0.006674
0.347732 0.087694
-0.012260 -0.027394
-0.202902 0.031000
0.167881 -0.139934
0.484656 0.019078
0.092130 -0.295865
-0.129788 0.149784
-0.017789 -0.146548
0.009199 0.069922
0.004555 0.041131
0.072044 -0.064647
-0.035886 -0.008494
-0.257562 -0.032861
-0.014036 -0.107915
-0.103837 -0.256346
0.250676 0.019662
-0.266610 -0.087184
-0.161318 0.049519
0.106230 -0.114014
0.179384 0.018350
0.352816 -0.056153
-0.128907 -0.092062
-0.042934 0.002924
-0.225636 0.104245
0.026034 -0.037607
-0.179646 0.139522
-0.019022 -0.155993
-0.182387 0.039185
0.027293 -0.057875
0.013546 -0.047985
0.033507 -0.387146
0.287990 -0.289878
-0.070118 -0.065398
-0.287505 0.061116
-0.311671 0.065394
0.074022 -0.299572
0.006600 -0.137611
0.072622 -0.253205
-0.036889 -0.190927
-0.015603 0.048560
0.062318 -0.072911
0.213925 -0.173997
-0.060801 -0.110970
-0.123233 0.201093
-0.130142 -0.012099
0.186401 -0.087904
-0.001217 -0.187460
-0.326004 0.238453
-0.095697 -0.084613
-0.259437 0.086113
0.050251 0.263648
-0.005239 -0.163777
-0.006317 -0.081062
-0.050084 -0.169589
-0.056604 0.186179
-0.404667 -0.226680
0.089706 0.109098
-0.285312 -0.168517
0.000453 0.329677
-0.161833 -0.096906
0.137903 0.024144
-0.160387 -0.252648
0.027369 0.158524
-0.205033 0.013726
0.155689 0.221975
-0.492052 -0.108676
0.013024 0.180533
-0.182120 0.146899
0.157748 0.009363
-0.020494 -0.135011
0.047881 -0.050459
0.024543 0.152788
-0.254187 0.385773
-0.098233 0.003509
-0.154846 0.198032
0.014889 0.005281
-0.010911 0.031600
-0.078257 0.107167
0.306113 0.036147
-0.003161 -0.251866
-0.088247 -0.205395
-0.058538 -0.147460
0.071758 -0.068969
0.023001 0.062462
0.242919 -0.083688
0.117737 0.015642
0.312322 -0.000923
0.128061 0.264237
-0.210942 -0.172586
0.064562 -0.144803
-0.291063 -0.202400
-0.009683 0.151557
-0.332803 -0.467777
0.092050 -0.246907
0.213815 -0.017130
-0.115986 0.274922
-0.074553 -0.149748
0.113461 0.045666
-0.101205 0.073639
-0.381724 0.036964
-0.179923 -0.065678
0.197595 -0.156012
-0.117505 0.369901
-0.147566 -0.176791
-0.030348 0.450444
-0.178818 0.139672
-0.335940 0.347460
-0.260560 -0.258542
0.092852 0.059637
-0.198985 -0.001716
-0.236492 0.001682
0.142224 0.131940
0.174723 0.004203
-0.012012 0.199200
0.033868 0.043462
0.077453 0.116761
-0.148335 0.129705
-0.008777 -0.191187
-0.082085 0.167253
0.189474 -0.043337
-0.216452 0.077151
0.138362 -0.127363
-0.029464 0.456928
0.195352 0.037156
-0.156304 0.059490
0.250242 -0.413716
-0.069520 0.061055
0.148496 -0.057021
-0.170343 0.057009
0.046837 0.132660
-0.217398 0.129396
0.016942 0.184771
-0.088636 -0.105931
0.141439 -0.104669
0.021671 -0.148705
0.130427 -0.178760
0.101504 -0.343318
-0.015229 0.018770
0.125626 0.132608
0.110887 0.355747
-0.073588 -0.107540
0.225950 0.141022
0.130049 -0.270665
-0.025173 -0.304428
-0.234389 0.255415
-0.025360 -0.155180
0.212669 0.260492
0.133578 -0.069243
0.162119 0.266389
-0.347044 0.176233
-0.140402 0.025727
0.078744 -0.152531
-0.083350 -0.327374
-0.133753 -0.170934
-0.490137 0.235353
-0.066447 0.204143
0.043832 0.142549
0.125145 0.033363
-0.006229 -0.299942
-0.192997 0.029599
0.108031 -0.040726
-0.023578 0.068959
-0.128089 -0.197111
-0.134776 -0.254118
0.187990 0.099593
-0.259542 0.349803
0.254649 0.235465
-0.052299 -0.011746
0.079990 -0.304272
-0.075205 0.234270
-0.222792 -0.264360
-0.069709 0.208635
-0.160538 -0.114216
0.024401 -0.321563
-0.108141 0.003469
0.132057 0.002751
0.044003 -0.101568
-0.299591 -0.048080
-0.000733 -0.098229
0.224692 0.016095
0.048510 0.098972
-0.258782 0.135390
-0.297137 0.329103
0.091764 -0.382380
-0.053608 0.334984
-0.087641 0.082511
-0.130641 -0.033775
-0.188209 -0.012954
-0.051629 -0.094704
-0.027552 -0.043399
0.030328 0.041298
0.368292 0.259753
-0.101457 0.237282
-0.056327 0.282636
0.138711 0.240584
0.030690 0.023233
0.091256 -0.069081
0.021948 0.040301
-0.026680 0.050418
-0.011370 0.093971
0.010251 0.264349
0.008602 0.236938
-0.044533 0.147641
-0.028845 -0.261767
-0.192693 -0.012419
-0.200537 0.196917
0.033186 -0.045614
0.275034 0.064468
-0.035689 -0.094452
-0.158514 0.043002
-0.070603 -0.045641
-0.254348 -0.023167
-0.268919 0.164060
-0.022169 -0.206196
-0.205447 -0.103358
-0.104599 0.181772
0.183776 0.023780
0.245292 0.077855
0.141607 0.137530
0.108362 -0.222039
-0.009033 -0.118442
0.016272 0.167446
-0.116526 0.055736
0.504184 0.264426
0.172015 0.035044
-0.105441 0.590463
-0.253974 -0.088923
0.246843 0.200978
0.106595 0.039932
0.291555 0.042113
-0.092841 -0.457083
0.121901 -0.017010
-0.311854 -0.054041
0.039560 0.078436
-0.059255 0.096388
0.237210 -0.450629
0.424599 -0.292045
0.138731 -0.144437
-0.073919 0.489543
-0.097703 -0.260262
0.406718 -0.273746
0.219015 0.262290
-0.286503 0.442966
0.006270 -0.118764
-0.152927 0.105540
0.196698 0.299892
0.140130 0.153029
-0.099338 -0.103755
-0.437307 -0.097604
-0.590710 0.095142
0.143232 0.203901
0.164895 0.152180
-0.418068 -0.245415
0.023912 -0.043303
0.409525 0.105555
-0.104486 0.423208
0.233813 -0.098398
0.194998 -0.392637
-0.404983 -0.356951
-0.225518 -0.400351
-0.753771 0.158311
0.713290 0.304308
-0.245085 0.306844
0.083878 -0.421675
-0.077114 -0.167429
-0.713161 -0.509558
0.718576 -0.034903
0.726433 -0.591055
0.104944 -0.169679
0.553096 -0.192318
-0.132951 -0.072006
-1.382916 0.044368
-0.915675 1.037123
-0.421096 -0.759249
1.044893 0.602813
0.615931 -0.494535
1.029845 -0.861753
0.880352 0.538054
-0.675851 -1.033534
-0.357931 -0.392835
-0.867609 0.095182
-0.972644 1.159081
-1.414947 0.995484
1.421782 0.430999
2.728204 -0.798744
-0.513706 0.139213
-0.488928 -2.861648
-1.608602 -0.202904
-3.269246 0.875681
-0.836253 -0.155732
-0.665966 0.832965
5.038331 -1.428095
0.233863 -0.487059
0.756108 0.533989
-2.289008 1.797531
-3.024878 -1.379517
-2.307478 3.142110
3.320571 -4.518501
-10.319453 1.064157
2.292957 -5.247240
6.938003 3.146525
-3.805163 6.355452
6.881816 3.778459
-6.682062 -14.370774
-10.202121 2.512668
-1.389178 12.826740
-13.280463 -44.073740
29.254941 -2.265826
0.350879 -28.136154
-35.291574 9.397474
-28.938865 66.026842
-387.290849 123.765583
