4150.313093 3276.614059
-1302.936872 -46.770100
32.071582 -28.254302
-128.646914 -38.173423
-26.792692 -48.718217
-69.197804 13.206196
29.962928 -23.858487
-3.049648 -12.374484
-7.973241 8.774347
-15.184611 -9.090120
-1.936098 20.044035
17.337941 11.921263
-1.328421 2.158801
-15.325115 -3.691968
-0.743987 0.541714
-5.036718 3.220414
-0.676857 1.349253
0.926622 -1.065757
-2.182586 -3.030575
2.638202 0.757735
-0.917799 -0.742380
0.093772 0.617582
-3.971845 2.477111
0.524565 -1.389508
1.216157 -0.309310
-0.140329 -1.899805
-1.778916 -0.465169
-2.757808 -2.803905
-0.116762 1.059046
0.504574 0.620418
-1.051300 -1.113433
-0.091962 -0.185980
0.981788 -2.884246
-0.323809 -0.496901
-0.013412 -0.994770
-0.022560 -0.141072
-0.719366 0.276500
0.482026 1.052171
-0.372043 -0.154317
-1.037959 0.780847
-0.582324 -0.523210
-0.364524 -0.814628
-0.617756 -1.258832
-1.032263 -0.758701
-0.907829 -0.345976
-0.031371 0.702211
0.819583 0.428175
0.544107 -0.485143
-0.132437 -0.219497
-0.238714 -0.569589
-0.683917 0.351462
-0.405293 0.563790
0.298484 1.027232
-0.029929 -0.348524
0.186973 0.581662
-0.471759 0.159526
-0.720366 0.078869
-0.412548 -0.018082
-0.222700 0.135738
-0.125534 0.013189
-0.421398 -0.268999
-0.028657 -0.388874
-0.337054 0.118936
0.275329 0.513191
0.026927 -0.001013
0.038421 -0.030128
-0.011150 -0.214190
0.037227 0.099956
-0.535205 0.249540
-0.213333 0.071816
0.138218 0.230440
0.117803 0.072056
-0.123704 0.091562
0.175168 -0.416790
-0.273248 -0.196270
-0.053965 -0.027063
0.083713 0.057225
0.068158 -0.399165
-0.161788 -0.027646
-0.136376 -0.347019
-0.131102 0.188775
0.212659 -0.173097
-0.116287 -0.445010
0.118531 -0.124011
0.051740 -0.102137
-0.159625 -0.392171
-0.096360 0.159096
0.010847 0.361056
0.065010 -0.080077
-0.117400 -0.001425
-0.181428 0.079823
0.056167 0.245744
-0.146251 0.046685
0.389575 0.002247
-0.084580 -0.109751
-0.204024 -0.114523
0.134811 0.028356
-0.468601 0.105921
0.316284 0.279409
0.452542 -0.177073
-0.045528 0.032583
0.298529 -0.052312
0.106334 -0.151119
-0.141755 -0.110921
-0.235911 0.518786
-0.371440 -0.179471
0.103368 0.276115
0.065409 -0.150131
-0.352878 -0.084637
0.113401 -0.066934
0.002459 -0.266563
0.160762 0.034201
-0.225678 0.321693
-0.027076 0.066945
0.112481 0.011380
-0.084548 0.096195
-0.194511 0.072755
-0.231125 0.092450
0.150594 -0.097055
0.088100 -0.059219
0.057493 -0.134968
0.005669 -0.207443
-0.004242 0.001394
-0.085219 -0.331328
0.053655 -0.042009
0.176670 0.101356
-0.204188 -0.054292
0.056249 -0.085336
0.231672 0.085071
0.121459 -0.075067
-0.353495 -0.026743
-0.101790 -0.357823
-0.296079 0.122948
-0.045998 0.071891
0.078954 -0.162443
-0.019317 0.175696
0.396111 -0.029958
0.056916 -0.308653
0.077472 0.039560
0.050066 0.286652
-0.180148 0.053562
0.199544 0.013249
0.086818 -0.058554
0.000470 0.140278
0.034607 -0.076365
0.010723 -0.208281
0.134700 -0.040103
0.117870 0.003352
0.019554 -0.145642
-0.073117 0.009293
0.076645 0.023203
0.093791 -0.143098
-0.038530 0.114115
-0.258529 0.060093
-0.009444 0.094119
-0.116861 -0.121047
-0.023113 0.040032
-0.242637 0.044722
-0.178517 -0.102143
0.203463 -0.153389
-0.333686 0.054815
0.157879 0.046508
-0.086916 0.052426
0.081248 0.018891
-0.153109 0.098617
-0.065999 -0.073318
-0.006704 0.102928
-0.162999 0.163307
-0.057191 -0.118012
-0.073091 0.031186
0.070737 -0.000167
-0.200960 0.124441
-0.093046 -0.116584
-0.090035 0.038468
-0.249258 -0.059140
0.157146 0.186730
-0.162633 0.042935
0.142541 -0.060833
0.046698 0.071999
0.203884 -0.135083
-0.138898 0.194453
-0.087811 0.014676
0.121967 0.114104
0.031103 0.213982
0.143029 -0.025024
0.108230 0.268509
0.249357 -0.009937
0.109457 -0.076115
0.126020 -0.080246
-0.050055 0.162145
-0.134657 0.044296
0.207050 -0.106843
0.027564 0.166060
0.320251 0.025134
0.034513 -0.135341
0.483259 -0.179922
0.030386 0.096487
-0.064848 -0.090635
0.102796 0.073349
0.211687 0.151407
-0.175994 0.013963
0.008005 -0.067485
0.026679 -0.075933
0.181666 0.162910
0.138484 -0.176364
-0.153250 -0.276129
0.141477 -0.049395
-0.238900 0.162912
0.059183 0.070469
-0.123627 0.001163
-0.211166 -0.001003
0.050254 0.129771
-0.330408 0.101681
0.118920 -0.119492
-0.352750 0.067817
-0.076051 -0.055902
-0.170546 0.215149
0.040628 -0.186419
-0.545135 0.295870
0.122080 0.160977
0.026401 0.305566
0.378198 0.064110
-0.271889 0.063907
-0.115046 -0.090507
0.184058 0.503037
-0.137206 0.045553
-0.203563 0.151817
-0.116662 0.001421
0.273371 0.116421
-0.326446 0.006604
0.179862 -0.324685
-0.108235 -0.258028
0.139477 -0.096851
-0.207061 -0.053224
0.046225 -0.184900
-0.019734 0.089551
-0.010668 -0.147117
-0.298299 0.052452
0.071530 -0.091797
-0.330157 -0.141858
-0.296021 -0.104523
-0.150006 0.055925
-0.045178 -0.011305
-0.323673 0.117837
-0.220317 -0.169005
-0.153745 0.251814
0.085420 -0.017534
-0.384155 -0.051168
-0.263959 -0.205687
0.088790 0.101407
-0.060548 0.007797
0.131892 0.016091
-0.090922 0.039643
0.153411 -0.081777
0.019456 0.108004
0.020717 -0.039111
-0.192110 0.085985
0.101138 -0.170862
-0.094015 -0.277827
0.215367 0.163175
-0.375246 0.017751
0.431056 -0.025776
-0.110489 -0.056516
0.230771 -0.105460
-0.373734 -0.084232
-0.095043 0.042189
-0.024588 -0.201810
0.001955 -0.030626
0.230526 -0.138110
-0.063686 0.182701
0.127413 -0.263909
0.175245 -0.057546
0.161047 0.134922
-0.206798 0.075975
0.099902 -0.226911
0.202559 -0.022435
0.127376 0.144109
0.025905 0.001177
0.225641 0.033689
0.151941 -0.001274
-0.097412 0.311507
-0.086592 0.010746
-0.064345 0.117309
0.109376 -0.084795
-0.022455 -0.463429
-0.129815 -0.091502
-0.059879 -0.068362
0.398538 -0.032858
0.313299 0.073572
0.262945 -0.101764
-0.041579 0.175326
0.265992 -0.104753
-0.034213 0.163251
-0.015403 -0.118172
-0.247468 0.127644
0.058796 -0.072240
-0.096903 0.075985
-0.070342 -0.037855
-0.068151 0.043946
-0.175339 -0.286906
-0.090245 -0.312595
-0.092908 -0.023273
-0.353670 -0.351432
-0.000791 0.244062
0.312029 -0.296055
0.091010 0.143116
-0.161535 -0.107403
-0.200738 0.090609
-0.161689 0.214335
0.063480 0.200488
-0.233839 -0.011970
-0.017774 -0.109782
-0.023113 -0.040032
-0.026417 -0.298519
-0.181180 0.257116
-0.115589 -0.034154
0.076809 0.157034
-0.160870 0.160779
0.251488 -0.008894
-0.047465 -0.118236
-0.153543 -0.382437
-0.089627 -0.056267
-0.065950 -0.147985
0.131992 0.182091
-0.025167 0.053191
0.034168 0.024385
0.372619 0.350122
0.179640 -0.002699
-0.154085 0.107465
-0.011575 0.035868
0.096483 -0.072626
-0.236328 0.188451
-0.131833 0.301172
0.042546 0.142408
0.153761 0.079896
0.420652 -0.057450
-0.095764 -0.151342
-0.032929 -0.036787
0.067164 -0.258038
0.078576 0.044959
0.359560 0.155747
0.093066 -0.136770
-0.205318 -0.030848
0.179465 0.092376
-0.000336 0.317737
0.169154 0.220214
-0.305916 -0.278015
-0.158320 -0.171048
-0.041016 -0.029012
-0.367220 0.143915
-0.256035 -0.027042
0.138675 0.092450
-0.126694 0.068309
0.167767 0.169419
-0.205987 -0.206076
-0.255910 0.372703
0.275644 -0.242548
-0.233401 -0.159088
0.277580 -0.052687
-0.350230 0.063681
0.038950 -0.007081
0.453154 0.240566
-0.082792 0.151119
0.065803 0.061423
0.187077 -0.025458
-0.319960 -0.281118
-0.347620 -0.028500
-0.090071 -0.200060
-0.005151 0.075028
-0.057752 0.106458
-0.246104 -0.318919
0.594597 -0.025785
-0.119898 0.085446
-0.059902 -0.113213
-0.080125 -0.100111
0.253893 -0.006690
0.135613 0.029027
-0.168162 0.412889
0.199192 0.187402
0.187814 0.215246
-0.037507 0.034240
0.073077 0.131725
-0.221837 -0.190749
-0.281207 -0.093688
-0.012252 -0.273203
0.218536 0.240124
0.523700 -0.251357
-0.054208 -0.086190
-0.307078 -0.095235
0.343949 0.273029
-0.161788 0.212546
-0.141764 0.050261
-0.218594 -0.096883
-0.069434 -0.044476
-0.238154 0.244021
-0.123597 0.028546
-0.084812 0.402572
-0.114837 0.163897
-0.538948 -0.189882
-0.252997 0.045686
-0.090355 0.172058
-0.256239 0.186326
0.012957 -0.456716
0.433149 -0.052256
-0.163379 -0.099237
-0.112823 0.489984
-0.183051 0.207395
0.098683 -0.036520
-0.006405 -0.263508
-0.164021 0.014046
-0.267711 -0.105265
-0.213717 -0.170920
0.104428 0.007918
0.109479 0.130697
-0.676666 0.160228
-0.193537 -0.369134
-0.765637 0.055322
0.009338 -0.278260
0.191461 -0.927768
-0.169189 -0.423185
0.011109 -0.030731
-0.097198 -0.192191
0.180345 0.271927
-0.004804 0.860004
-0.397562 0.379558
0.123972 0.445019
-0.171517 -1.221928
-0.508221 -0.241548
-0.630497 -0.633760
-1.087503 1.357000
-0.841282 1.384626
0.518493 0.155140
0.394938 0.855342
-0.327147 -0.455037
-2.472689 -0.588287
-1.326663 -0.874877
0.570635 0.404699
-0.651243 1.072800
1.307530 1.759014
-1.118815 -0.512725
-0.174845 2.202471
-0.176501 0.915366
-0.215642 2.368308
-1.257563 0.392215
-2.725517 -2.178299
-0.804055 -0.701882
-0.530515 3.280775
-0.636588 4.571819
-0.363873 -1.669531
0.757760 -2.973396
-3.574137 1.335187
-2.734276 2.933658
-5.393009 0.707667
7.404783 1.132177
0.511594 -6.439850
-2.842468 -2.353167
-0.802904 4.338291
-14.948895 4.469472
4.350844 7.157146
12.311575 -10.361514
-5.207196 -9.630602
-12.286583 10.433133
8.785314 -44.279848
26.971045 -0.807782
17.934188 -11.058591
-51.050747 -4.659792
-19.622515 72.858013
-413.082866 105.154708
