4079.373001 3307.669418
-1225.889016 -23.500397
3.482566 -3.578991
-113.531263 -50.418575
-18.735478 -41.685852
-59.577044 19.259221
18.021726 -18.060542
-4.003653 -25.276458
-5.729143 15.073023
-3.900004 -2.428174
-7.344803 18.182782
12.279539 1.202341
5.473318 3.497122
-15.662096 4.438176
-5.298407 -0.864170
5.055313 2.751374
-2.138785 -1.547522
4.742817 2.235705
-7.980763 -2.683621
4.876774 2.223841
0.763900 2.955925
0.157737 1.484978
-0.944882 1.394824
0.271354 -0.866147
-1.774520 0.031679
-0.133798 -1.554292
-0.208330 3.087704
-1.504290 1.278957
0.161885 1.861802
-0.180830 -1.241711
-0.032341 -0.635646
-1.134892 -0.111381
-1.975861 -3.019458
-0.942315 -1.737083
-0.740513 1.334794
-0.514531 1.179953
0.350398 0.256670
0.221076 0.138640
0.304091 -2.127140
-1.159633 0.319859
-1.141348 -1.239481
-0.605841 -0.538374
-1.264212 0.266507
0.660240 0.914985
0.473847 1.132309
0.335360 0.290238
-0.211719 -0.597865
-1.504185 -0.415171
-1.338674 -0.288685
-0.805519 0.302667
-0.689423 0.178159
0.083058 -0.415553
-0.087368 -0.701015
0.363919 -0.697886
-0.458439 -0.130209
0.089217 -0.572595
0.029118 0.144947
0.062138 -0.299296
-0.487008 0.282439
-0.413860 -0.010177
0.195419 0.239678
0.299558 0.130233
0.116342 -0.226396
-0.509405 -0.153633
-0.233972 -0.410071
-0.357071 -0.266545
0.013795 -0.390395
-0.307353 -0.568946
0.088646 -0.511375
0.070009 0.035454
0.239444 -0.090325
0.021710 -0.106995
0.210500 -0.301665
-0.090816 0.087544
-0.601441 -0.364482
-0.038802 -0.037824
-0.441566 -0.198304
0.404728 -0.102504
0.085426 -0.103542
0.549090 -0.349040
-0.084446 0.263961
-0.103226 -0.384097
-0.008878 0.096796
0.117735 -0.015823
0.071206 0.012626
-0.129537 -0.118394
0.102098 0.079801
-0.188162 -0.160743
-0.085095 -0.183286
-0.106477 -0.357847
-0.155855 -0.468646
-0.235526 -0.204234
-0.102766 -0.085164
0.038888 0.091046
-0.053452 0.021773
0.170937 0.116409
-0.014321 0.032046
0.117199 0.162504
-0.050236 0.094143
0.364914 0.021869
-0.093959 -0.302811
0.025044 0.048665
0.250318 0.074963
-0.164511 0.184003
0.170663 0.057268
0.211897 -0.168915
0.091837 -0.162693
0.334215 0.205061
0.258137 -0.084373
-0.058085 -0.154648
-0.155963 -0.005066
-0.097690 -0.172641
-0.330461 0.030176
-0.149291 -0.185231
-0.252431 -0.261158
0.049183 0.069046
0.078577 0.131759
-0.093440 -0.130407
0.278341 -0.213234
-0.097358 0.062237
0.173227 0.187313
0.087522 -0.029834
-0.126181 -0.205986
-0.084943 -0.059850
-0.139769 0.267487
0.084614 0.131311
0.102564 0.200708
0.045512 -0.218488
-0.038444 0.037686
0.039408 0.142909
0.035819 -0.024227
0.261254 -0.068708
-0.013498 -0.026578
-0.210576 0.043699
-0.028909 -0.069905
-0.125587 0.142604
0.087532 0.264897
0.134719 0.212325
-0.125073 0.027576
0.220366 0.060737
-0.269714 -0.170755
0.038903 -0.195575
-0.142611 -0.072202
-0.051419 -0.080221
-0.092537 0.128888
0.047190 0.165171
0.050753 0.061040
0.074831 -0.016727
0.109549 -0.083322
-0.158166 -0.116120
0.080835 -0.074871
-0.225342 0.055243
0.104515 0.396225
0.282901 0.219412
0.199695 -0.089557
0.165785 0.025357
-0.341192 -0.013802
-0.226662 0.089510
-0.063692 0.042285
0.288707 0.005453
-0.077612 -0.036956
-0.270487 0.280357
-0.133941 -0.114024
-0.016404 -0.170896
-0.032117 0.142678
-0.271876 -0.022799
-0.202329 -0.165454
-0.019043 -0.130558
0.060171 0.308430
-0.344704 0.110839
-0.193974 -0.032215
0.289817 -0.045287
-0.116334 0.142924
-0.194455 0.218368
0.023399 0.088953
0.337195 0.069521
-0.030841 -0.080053
-0.123132 0.073963
0.030829 0.045080
-0.043611 0.175903
0.012757 0.131612
0.022261 -0.235142
-0.024444 -0.006161
-0.042033 0.360348
-0.070935 0.015421
-0.135640 -0.127324
-0.085843 0.046338
0.141230 -0.027241
-0.332542 -0.026853
-0.134540 -0.124398
0.084272 0.136239
-0.170923 0.167965
0.010060 0.062361
0.113501 -0.279763
-0.091817 -0.313301
-0.234405 -0.004533
-0.075406 0.095178
0.065319 -0.132447
-0.070910 0.227596
0.175360 -0.182558
-0.077429 -0.210489
0.082263 0.150860
-0.164701 -0.041258
-0.253302 -0.176214
-0.313284 0.191233
-0.014299 0.232379
-0.284537 0.162771
0.055761 0.402324
-0.162059 -0.193028
-0.018334 0.241982
-0.248331 0.072774
0.273704 0.103865
-0.343225 0.229418
0.175722 0.052837
-0.020320 0.156741
-0.010419 0.150372
0.245980 -0.091619
-0.057535 0.254478
0.251976 0.038038
0.266368 0.420525
0.352672 -0.160871
0.017079 0.137292
0.010934 -0.271924
0.048159 0.033353
0.253050 -0.070492
0.177874 0.104685
-0.009156 -0.082223
0.082788 -0.131231
0.248611 0.093921
0.106948 -0.152121
-0.000438 0.142165
-0.002775 -0.135369
0.244003 -0.278093
0.237460 0.070495
-0.053629 -0.220621
-0.083606 -0.026046
-0.247861 -0.164913
0.062694 0.143134
-0.428240 -0.001573
0.063656 0.124281
0.191849 -0.327238
0.045660 -0.071807
0.140787 -0.314378
-0.200663 0.157968
0.161577 -0.087073
-0.077294 0.044727
0.245736 -0.320398
-0.202354 0.372275
0.149908 0.265539
-0.094288 -0.040581
0.213330 -0.123222
-0.231185 -0.133088
-0.143314 0.117473
-0.168252 -0.281742
0.043603 -0.217677
-0.091072 -0.469542
-0.175260 -0.019706
-0.159510 -0.224477
0.280293 -0.135292
-0.063766 -0.147554
0.096623 0.057839
0.013113 0.177172
-0.051780 -0.268660
-0.047281 0.234245
-0.257384 0.203465
-0.140494 0.183891
-0.073430 0.292028
-0.067900 -0.221870
-0.276485 -0.408083
-0.174166 0.098680
0.075725 -0.027280
-0.067541 -0.097533
-0.110970 -0.009934
0.182993 -0.163455
0.023869 0.140120
-0.179843 -0.088243
0.265007 -0.105753
-0.175140 -0.170173
-0.158181 0.129976
0.000121 -0.061801
-0.286272 -0.061184
-0.016899 -0.112393
0.335577 0.130295
0.086035 -0.158738
0.082958 -0.225578
0.081196 0.080471
0.088691 -0.290277
0.163515 0.637454
0.113483 0.139867
0.115242 -0.063976
0.101282 0.054623
-0.089322 -0.153821
-0.048761 -0.024047
-0.457760 -0.028349
-0.085642 -0.126900
-0.144898 -0.073226
-0.323950 0.054108
-0.014912 -0.363553
0.121679 -0.170885
0.348665 -0.263814
-0.114509 -0.158064
-0.140315 -0.060271
-0.062712 -0.101502
0.028010 0.473269
-0.012768 0.220872
0.314877 -0.148173
0.309370 0.056285
-0.093386 0.127694
-0.082336 0.045102
-0.179483 0.215196
0.339822 0.360291
-0.020409 0.197891
-0.272468 -0.036102
-0.161462 -0.030831
0.107768 0.088199
-0.042906 0.095792
0.118395 -0.207810
-0.251395 -0.113795
-0.149020 -0.010699
-0.149630 0.325484
0.045453 -0.104410
0.197423 -0.162961
0.041901 0.072092
0.086386 -0.018565
0.050153 0.133535
0.191592 -0.224049
-0.118859 0.139847
-0.282672 -0.131485
-0.083770 0.125736
-0.128405 0.311191
-0.005418 0.099900
-0.153255 0.163181
0.030085 -0.165251
0.026707 0.096545
0.033970 -0.116838
-0.124018 0.048743
-0.215132 0.178767
-0.134757 -0.128445
-0.129828 0.133252
-0.017043 0.074632
-0.346129 0.219655
-0.187310 -0.189593
0.193482 0.349472
0.284837 -0.227068
0.039937 -0.211587
-0.027397 -0.177503
-0.150403 -0.368056
-0.456847 0.209548
-0.184817 -0.083186
-0.312229 0.142264
-0.071844 0.027274
0.064474 0.257958
0.199615 -0.116310
-0.187513 0.170694
-0.440784 -0.312289
-0.180468 0.098799
-0.302347 -0.078470
-0.018577 -0.048106
-0.018998 0.253958
0.162285 -0.214694
0.123043 0.174037
0.260003 -0.211081
0.208706 -0.168805
-0.090945 0.086591
0.498904 0.139446
-0.068084 -0.258182
0.240237 -0.100927
0.018257 -0.135925
-0.086984 0.161902
-0.157570 0.265659
-0.061931 -0.385505
-0.112958 -0.279348
-0.268320 -0.231525
-0.570215 -0.218122
-0.002772 0.029467
0.078922 0.112000
-0.021852 -0.046779
0.160971 -0.080506
-0.065639 -0.268213
0.170347 -0.082215
0.484463 -0.248082
0.240567 -0.257210
-0.128439 0.537638
-0.420778 0.304319
0.151245 0.595705
0.785350 0.362322
0.374366 -0.082144
-0.196407 -0.463541
0.000431 -0.371931
-0.387296 0.229890
0.314323 0.367753
0.300751 0.437779
-0.158463 0.520948
0.170329 0.397923
-0.269338 0.116117
0.289672 0.168085
0.091868 -0.146239
-0.500504 -0.104666
-0.023614 -0.028123
0.135231 0.448251
0.253788 0.638371
0.579444 -0.018435
0.222759 -0.216018
0.002051 -0.156371
0.693137 0.249199
-0.494372 0.512820
0.479252 0.432229
-0.153642 0.174081
-0.375575 0.512608
0.259589 0.509552
-0.696348 1.127918
-0.983897 0.780800
-0.765198 -0.286631
0.335010 -0.244488
0.249222 -0.439129
-0.217927 -0.506953
-0.519737 -0.605552
-0.130154 -0.240756
-0.112202 2.410571
-0.747031 1.928267
1.437189 0.279642
-0.375029 1.500680
-0.792212 -2.114050
-1.439202 -0.297041
-1.051876 0.356323
-1.102585 1.338321
-1.691076 0.952976
-0.587046 0.831858
0.533911 1.742376
-1.470727 2.941390
-1.474715 -3.732699
-0.660638 -2.959290
-0.863908 1.228140
-2.653917 -0.837698
-1.525956 6.859179
1.347687 -1.017385
2.080246 1.681442
-0.988726 -1.540419
-0.181583 -2.813935
-5.984820 -0.536385
1.010236 2.446675
-0.385150 -5.498773
4.303444 1.426763
-7.321722 8.184253
-4.681202 -0.866134
2.791680 10.034943
13.647824 -15.933242
-11.232319 -4.144004
-10.785840 -3.374016
-1.484247 -36.185992
28.109130 23.753626
4.731986 -21.368307
-32.809188 -7.744079
-29.067552 68.881956
-425.893831 70.740893
