5792.962682 5987.356903
-739.270454 197.558896
-52.493779 18.845509
-120.454009 -54.374014
7.777876 -38.922278
15.409731 -177.814374
59.330495 -3.341182
-45.579139 -22.334479
-133.213903 -22.694786
4.958432 19.016104
27.585473 20.299878
-10.512476 -8.788302
2.990722 -4.322601
-3.222349 21.274809
1.847592 9.320248
-1.693248 2.928264
-15.100620 1.256907
-5.229362 12.553495
-2.679866 3.369572
1.742440 -6.393406
5.251273 16.498618
2.597076 0.242236
-8.216015 2.527504
-4.482081 1.249732
-2.507237 5.452831
0.731105 4.049446
2.939827 -5.149582
-3.738376 6.486891
-5.229817 -1.342837
3.206967 -4.118338
-1.540990 3.838982
-2.274506 3.128936
2.851212 1.131373
-1.549153 -2.058002
-2.365686 -3.507609
1.330721 -1.460825
1.458716 -0.905953
1.695515 -3.964027
-1.798992 1.356004
0.914206 1.753751
-0.523063 -0.377330
-0.258897 0.149842
-0.597104 -2.968376
-0.553733 -1.897119
0.863729 -2.447600
-0.128214 -0.057294
-0.666105 -0.006480
1.687374 0.591830
-0.976837 -0.592041
-1.408052 0.295505
-1.441040 -0.759188
-0.590351 0.215161
-0.625717 1.272246
-0.195213 -0.029718
-1.032442 -0.011010
0.136854 -0.229354
0.323505 0.718312
-0.708266 0.679625
0.318411 0.422406
-2.009952 0.089240
0.061239 -0.170704
0.399414 0.364300
0.661042 0.886963
0.071040 0.865122
-1.082699 -0.808316
-0.246151 0.563319
-1.103915 0.320316
-1.039175 -0.200768
0.379233 0.191687
-0.232720 0.219960
-0.534994 -0.422394
-0.084036 -0.024446
-0.537220 0.016303
-0.945661 0.483876
0.410319 -0.500838
0.069325 -0.238620
-0.137040 0.200953
-0.006340 -0.190496
0.549472 0.465599
0.538597 0.032440
-0.354487 -1.236114
-0.349150 0.235172
0.243215 0.126932
0.275614 -0.593230
-0.363777 0.107081
0.174525 -0.664257
0.362646 -0.423966
-0.341603 0.133198
0.147553 0.083275
-0.010309 0.386962
-0.317316 -0.426951
-0.501749 -0.702121
0.148568 0.010705
-0.118114 0.302664
0.263150 -0.333421
-0.078472 0.144206
0.219724 0.246099
-0.455345 -0.091954
-0.090923 -0.451899
-0.164364 0.415858
0.410816 -0.262032
1.042547 -0.134494
-0.457586 0.383707
0.629050 0.340394
0.263073 0.727089
0.194072 -0.480806
0.135564 -0.611193
0.276291 0.374206
0.047074 0.565685
0.008936 -0.378229
0.497834 0.140519
-0.033246 0.005909
0.360108 -0.584122
0.143654 -0.073174
0.091133 0.466667
-0.437187 0.155931
0.057164 -0.296071
0.244959 -0.198232
-0.037491 0.077114
0.516030 0.035331
-0.030348 -0.102158
0.036090 -0.037022
-0.195074 -0.177187
-0.153014 -0.240642
0.175822 0.116424
0.278553 0.201392
0.409634 0.326054
0.108066 0.086784
-0.107123 0.054688
-0.323121 0.303815
0.082791 0.017215
-0.004661 -0.401927
0.082863 0.246689
0.145830 0.251514
-0.025519 0.295521
-0.094174 0.304128
-0.083558 0.253579
0.117021 -0.153280
0.231312 0.037537
0.106516 0.081174
0.012411 0.196135
-0.083957 -0.293030
0.040601 0.088000
0.008695 0.062837
-0.092817 0.086687
-0.092600 0.297374
-0.040907 0.231210
-0.245511 -0.331742
0.075117 -0.229017
0.177604 0.306259
-0.227616 -0.033417
-0.177026 0.041630
0.219950 0.016588
-0.098429 0.314243
-0.227483 -0.356463
0.194166 -0.353673
-0.229948 -0.050705
-0.139901 -0.253185
0.237464 -0.007267
-0.172812 -0.112076
-0.188098 0.187660
-0.165900 0.097435
-0.082146 -0.193291
-0.239578 -0.242181
0.095069 0.018864
0.099428 0.058343
0.148665 -0.086810
-0.026585 0.297402
-0.043444 -0.169604
-0.001677 -0.168700
-0.006746 -0.220005
-0.255304 0.051550
-0.306415 -0.179488
0.078187 0.332616
-0.153479 0.026987
0.268709 0.216623
-0.028291 0.387919
-0.056163 -0.149153
-0.075774 -0.237779
0.306389 0.277943
-0.088790 -0.090787
-0.034310 -0.337130
0.061722 -0.027650
-0.016722 -0.010276
0.115611 -0.268179
-0.134735 -0.076015
-0.026311 -0.317126
-0.175271 0.125015
-0.015457 -0.416778
0.189505 0.052669
0.211054 0.014830
0.200782 0.000512
-0.104089 -0.166839
-0.103567 0.201322
-0.011273 -0.144773
0.059726 -0.135599
-0.088128 -0.232079
-0.027837 0.001853
-0.053874 0.004595
-0.030911 -0.106253
-0.172330 0.046810
-0.029365 0.276696
-0.251145 0.307984
-0.115102 0.087839
-0.092558 0.405183
0.038858 0.379925
-0.295733 0.307227
-0.126081 0.055486
-0.258815 -0.148118
-0.133703 0.175725
-0.108372 0.023787
-0.121561 -0.063560
-0.058749 -0.062632
-0.208636 0.254536
0.013525 -0.092963
0.057329 0.272942
-0.015671 0.190983
-0.016937 -0.302453
-0.057062 0.075796
0.008010 -0.249793
0.217770 -0.014781
0.171693 0.080356
0.055252 0.285067
-0.266807 0.254871
-0.376185 0.082123
-0.130989 -0.067701
0.031606 -0.249639
-0.095066 0.148198
-0.452151 0.052861
-0.118234 -0.107701
0.082261 0.244726
0.005693 -0.151771
0.003035 0.341368
-0.140009 0.063673
-0.273671 0.294353
-0.129719 -0.350635
-0.282558 -0.100715
0.055867 -0.090836
-0.042220 0.054085
0.037034 -0.265537
0.008926 0.052545
-0.148762 -0.047156
-0.134884 -0.193023
0.017774 -0.053255
0.201459 -0.084893
-0.232000 0.111003
0.004383 0.259797
-0.022287 0.076835
-0.085229 -0.041719
-0.114463 -0.003543
-0.248783 0.095391
0.206135 0.221439
0.033390 0.001550
0.010410 -0.020433
-0.321631 0.302387
0.200381 -0.001794
0.129331 0.080332
-0.249011 -0.317624
-0.003304 -0.147897
0.153971 -0.196804
0.230787 -0.037834
-0.016001 -0.418476
0.122933 -0.073881
0.194184 0.008765
-0.076749 0.160383
0.135007 -0.121804
-0.063554 -0.109854
0.008045 0.013599
-0.177821 -0.229870
-0.006080 -0.046239
-0.273940 -0.196879
0.022673 -0.051349
0.058157 -0.122226
0.102954 0.188394
-0.082757 0.106479
-0.046426 -0.165880
0.081414 -0.159663
0.176295 0.093486
0.202336 0.250268
-0.143483 0.234840
-0.060297 0.130340
0.267339 -0.162693
0.318411 -0.119538
-0.110310 0.265675
-0.007020 -0.153905
-0.026761 0.062803
-0.252618 0.111056
-0.032259 0.217244
-0.206767 -0.031767
0.115622 -0.244262
0.011790 -0.034373
0.008022 0.020319
-0.083662 0.155649
-0.091916 -0.120282
-0.070469 0.182175
-0.224236 0.327352
0.004061 0.359246
-0.292187 -0.166978
-0.014982 -0.258545
-0.205481 -0.127511
0.099474 0.032111
0.000356 0.172187
-0.268793 -0.261168
0.059659 -0.275692
0.146808 0.299749
-0.073570 0.263424
-0.097770 -0.128215
-0.213102 0.032213
0.073283 -0.170966
0.012213 0.624349
-0.019112 -0.103342
-0.379469 -0.084780
-0.147907 0.183090
-0.161866 -0.055594
-0.255597 0.223239
-0.140849 -0.350535
0.458448 0.255501
-0.193309 -0.348877
0.635676 0.290362
0.161519 -0.196493
-0.242790 -0.195794
0.137428 -0.060903
0.201763 0.217261
-0.096554 0.116514
0.205441 0.061798
0.133019 0.138731
0.167018 0.102522
-0.033596 0.007579
0.017827 -0.094358
-0.361116 -0.308828
-0.113428 -0.010210
-0.183717 0.077987
-0.116934 0.168214
-0.585206 -0.378504
-0.116356 0.015107
-0.094090 0.188501
-0.227140 -0.284850
-0.145903 0.032099
-0.182146 0.069724
-0.241412 -0.369014
0.058956 -0.012059
0.072312 -0.006525
0.112415 0.109089
-0.276033 -0.223160
0.246562 0.439771
-0.024063 -0.288223
0.269570 -0.075319
0.038529 -0.235803
-0.081325 0.183837
-0.275090 0.068552
-0.288032 -0.059583
0.072231 0.106752
-0.209177 0.297315
0.251907 -0.068314
0.095825 -0.015127
0.199306 -0.037435
0.080522 -0.159646
-0.176721 -0.203888
0.316715 0.207186
-0.122345 0.427232
-0.257589 0.191176
0.092773 0.588146
-0.076899 0.153412
-0.087931 -0.068059
-0.138224 0.582306
-0.101959 0.213134
-0.385506 0.392678
-0.399714 0.042028
0.311836 0.204366
-0.000153 -0.087499
-0.110422 0.173253
0.310973 0.057617
-0.021090 -0.127697
0.198919 -0.051228
-0.195671 0.459219
0.087453 0.060706
-0.259145 -0.122754
0.347244 0.294772
-0.099546 -0.130631
0.091540 -0.062717
-0.220646 0.004645
0.216249 0.090516
0.086065 -0.311693
-0.142451 -0.262722
0.217009 0.021207
-0.219777 -0.454916
0.083118 -0.140427
-0.090262 -0.070035
0.015558 -0.222222
-0.141802 -0.285872
0.113227 0.332476
0.240104 0.078664
-0.519578 0.239340
0.065718 -0.119058
-0.100044 0.060405
0.192569 0.179059
-0.035852 0.244992
0.066544 0.295978
-0.309189 -0.012769
0.075452 0.142207
-0.279318 -0.157477
0.037185 0.282959
-0.420174 0.148808
-0.239594 -0.166737
0.055612 -0.012757
-0.069130 -0.226295
-0.187484 0.004801
-0.130358 -0.335845
0.129885 -0.035274
-0.305491 -0.285581
0.012904 -0.175367
0.127690 -0.181385
0.057366 0.268409
0.009180 -0.042518
-0.069353 -0.048664
-0.268240 -0.027065
-0.127962 -0.099621
0.032325 0.248565
-0.109165 0.052489
-0.176026 -0.016804
-0.316537 0.014384
0.078544 -0.074943
0.093499 -0.237163
0.053986 -0.218935
-0.092957 0.263271
0.030705 -0.279395
0.161786 -0.008296
0.213543 -0.116463
-0.103680 0.140583
0.104164 0.046909
0.043331 0.136570
-0.071788 -0.029778
-0.202891 -0.051507
-0.004126 0.002109
0.069903 -0.123139
0.118707 -0.119349
0.098071 -0.019446
-0.216390 0.122885
0.200745 0.116856
0.018302 0.100168
0.011685 0.038458
0.025579 -0.007128
0.174652 0.043186
0.107390 -0.125647
-0.171247 -0.171961
-0.067264 -0.186571
-0.134777 0.196146
-0.119540 -0.214370
-0.012598 -0.240596
-0.125754 -0.074775
-0.076545 -0.014884
-0.045593 -0.242231
-0.132821 -0.307698
-0.179778 -0.215611
-0.271545 0.097404
-0.080609 0.083995
0.028658 -0.113021
0.144074 0.059655
-0.199976 0.213719
0.145598 0.096604
-0.335085 -0.140109
-0.123752 -0.116156
-0.149228 0.050773
-0.142328 -0.053098
-0.051480 -0.019984
-0.060564 -0.104247
0.182981 -0.157317
0.176928 0.013574
0.412829 -0.067166
-0.029659 -0.123863
-0.144237 0.076449
-0.116303 0.068605
0.109773 -0.063438
-0.183071 -0.124497
-0.120794 -0.074871
0.041944 0.027959
0.006508 0.184821
-0.085729 0.091196
-0.266020 -0.134499
-0.002004 -0.137790
-0.113540 0.220192
-0.256462 0.096805
-0.148762 -0.175987
0.005025 -0.102595
-0.056794 -0.052326
0.156720 -0.137228
0.009514 0.019138
0.099604 -0.102665
0.221447 -0.058423
-0.048141 -0.225273
0.191525 0.118087
-0.077486 0.009167
-0.138137 -0.001241
0.140819 -0.087562
-0.077583 -0.115152
-0.259977 -0.137077
0.088959 -0.111019
0.060191 -0.116393
0.112961 0.143832
-0.082752 0.226350
-0.011360 -0.067237
-0.279471 0.169574
0.173888 0.040183
-0.171179 0.140447
0.086085 0.085262
-0.175038 -0.209510
0.014964 0.020518
-0.039380 -0.158461
0.292195 -0.120683
0.233111 -0.159415
-0.196409 -0.038062
-0.001468 -0.159804
0.109951 0.189590
0.078023 -0.131322
0.168932 -0.226907
0.372884 -0.002861
0.322522 0.128265
0.095048 0.079003
0.149000 -0.162784
0.039264 -0.096025
0.173830 0.221614
-0.135695 -0.079024
0.108681 0.209274
-0.290468 0.203068
-0.200349 -0.213480
-0.093193 -0.030385
0.100797 -0.194531
-0.069532 0.109704
-0.064830 0.033586
0.211141 0.111683
0.270871 -0.047729
-0.085168 0.113287
0.134157 -0.059187
-0.098288 -0.160874
0.030399 -0.234375
-0.153316 -0.171884
-0.057197 -0.323390
0.054771 -0.114408
-0.020691 0.083800
0.174076 -0.096041
0.000639 0.035655
0.046162 0.045404
0.145488 -0.298088
0.193252 0.078157
-0.001003 -0.165635
0.200078 -0.126697
0.060235 0.044776
-0.055510 -0.206438
0.173028 -0.000655
-0.107117 0.023603
-0.180001 -0.104664
-0.262156 0.059682
-0.102104 -0.249526
0.021304 0.085342
-0.189401 0.159339
-0.077461 0.137386
-0.065189 -0.162114
0.288723 0.562880
-0.258991 -0.236346
-0.145732 -0.098061
0.230705 -0.033748
-0.124529 -0.062894
-0.156903 -0.206545
0.257557 0.037579
-0.224046 -0.000204
-0.277639 0.020867
-0.064782 0.169453
-0.011827 -0.116363
0.063961 0.207181
0.143019 -0.048801
0.182258 -0.102686
0.030924 0.076908
-0.020389 -0.152599
0.063462 -0.301433
-0.053158 -0.203176
-0.206078 0.066415
0.016664 0.169367
-0.103567 0.220528
-0.116858 -0.104752
0.210736 -0.100789
-0.458279 -0.087351
0.116449 -0.070829
-0.062430 -0.071481
-0.248182 0.153106
-0.226349 0.158442
0.016356 0.027817
-0.141268 0.094012
0.065397 -0.165648
0.071366 0.068875
-0.386757 0.002165
0.051159 -0.347652
-0.341621 -0.231079
-0.346806 0.359068
0.109065 -0.081828
0.029769 0.341821
-0.446262 0.076440
-0.321272 -0.044449
-0.150088 0.240354
-0.072047 -0.238664
0.118472 -0.185227
-0.258460 0.032982
-0.329720 -0.011714
-0.281341 -0.034080
-0.033559 0.007020
-0.044981 0.073223
-0.562071 -0.240474
0.272214 0.076749
0.086091 0.019372
-0.165035 -0.350534
0.383051 -0.109970
-0.051270 0.474147
-0.343539 0.139621
-0.653706 0.064384
0.140698 -0.235181
-0.271820 -0.073854
0.225424 -0.166525
0.341769 0.032148
-0.378403 0.334414
-0.112326 0.292505
-0.065455 0.065728
-0.042544 -0.227950
-0.245336 0.163282
-0.371501 -0.257982
-0.754113 -0.385111
0.065573 -0.418153
-0.378259 -0.102675
-0.463142 0.161056
0.048089 0.469760
-0.126254 -0.080116
0.097309 0.283980
-0.467062 -0.122255
-0.525885 -0.280399
-0.298084 -0.153876
-0.184892 0.190330
-0.213436 0.195934
0.052695 0.841048
-0.192551 0.360788
-0.119701 0.384216
-0.386914 0.086644
0.001119 -0.281859
-0.176202 0.145033
-0.296688 -0.204870
0.358643 0.267377
-0.152019 0.777737
-0.584646 -0.322771
0.292303 -0.261322
0.236979 -0.035884
-0.467410 0.085165
0.301391 0.060256
-0.640389 0.262652
-0.363759 -0.841707
0.179445 -1.049056
-0.467174 -0.017691
-0.900129 0.370678
0.810792 -0.198367
-0.400235 0.258393
-1.195929 0.803744
0.681933 1.369816
-0.149742 0.329812
-0.434816 -0.301816
0.443194 -0.416162
-0.384463 1.233472
-0.918887 -0.259631
0.254108 0.571368
-0.975027 1.166426
-0.351445 -0.349579
0.526133 1.573972
-1.704900 0.472032
0.528257 0.109299
-0.763806 -1.477520
-0.003704 -0.920524
1.370254 -0.417928
-0.637644 0.732786
-1.649784 -0.075125
-1.196240 2.026066
-2.407747 1.041230
0.059309 0.793775
-0.828965 -0.776339
-1.302163 -2.120722
1.296941 0.359460
1.989634 -1.711687
-0.247109 -2.047181
-3.617992 1.146833
-2.195566 -0.211086
-0.903123 0.245576
-0.092346 0.410375
-1.731566 -1.665656
0.787883 -4.401130
1.436665 1.308992
-1.629092 -1.607002
1.117047 -3.499051
-2.695862 -0.947845
-4.251415 -1.457327
-1.238035 0.565199
-2.708723 3.337231
-3.162096 -1.624082
-3.198551 -5.438797
11.466347 5.909117
0.680321 6.686581
-3.107588 -0.451769
-14.283666 4.058740
-10.795896 -5.820846
5.152199 2.676949
-5.034057 11.795467
-10.774337 3.422391
-3.254208 18.580918
11.674029 11.860214
9.662870 -3.910242
-7.036088 7.314205
-22.309476 -13.552692
-35.499081 11.209629
8.551362 27.761723
-22.573310 -14.008377
-41.102796 15.263304
-27.965030 35.195430
74.502309 2.384681
-22.360966 4.532337
-70.649885 73.956814
-58.028795 -159.373017
22.269991 26.392737
-272.601070 -147.010125
82.290267 1.560713
-1459.643351 -510.558775
