5908.777778 6015.888889
-1409.028419 -561.289794
55.990066 55.518556
-248.040835 -191.691494
-26.584207 33.180067
-60.034840 -129.346848
-67.208514 86.208460
70.770920 13.848516
63.579889 50.725297
-66.859468 15.911860
-15.829330 6.177261
-9.430899 2.648434
-26.050349 23.477759
-27.859561 -20.023351
-2.962479 14.825446
10.946271 6.659922
20.907888 11.473704
-16.223131 18.089415
-14.054961 1.442512
5.136797 7.525413
2.107911 8.859131
-2.125975 -3.054734
-13.669840 -6.773896
-4.028716 10.988460
9.210658 7.089789
-6.766299 -3.417710
3.031888 1.898114
0.725522 -1.175991
-7.890770 4.202919
3.030296 -0.317313
-0.476641 3.303283
-2.750365 -1.573565
-2.589908 3.000348
-0.394268 0.880524
-4.349308 -0.636672
-1.610797 1.425546
2.544751 -0.228450
1.071811 -2.662521
0.422373 1.774103
-0.648231 0.052342
-2.907808 0.932631
-2.286538 1.064062
-1.376863 -1.888631
-3.186258 -2.415853
-0.299376 -0.591474
0.079350 -0.807484
1.931498 -0.280855
-1.894947 -0.234527
-2.486997 0.666012
-0.948468 -1.895243
-1.576486 0.806765
-0.066910 0.072592
-2.410415 -1.437841
0.072704 -0.593109
-0.051011 0.688741
0.313646 1.022980
-1.049512 -1.155376
-0.810889 -0.288901
-0.085174 -0.517056
-0.004151 -0.529349
-1.455191 0.696347
-0.930172 -0.825971
-0.012866 0.839197
-0.289499 0.287131
-1.110968 -1.023337
-0.157278 -1.522953
0.181139 0.010906
-0.236469 -0.338534
0.239554 0.961852
-0.317876 -0.075044
-1.111693 0.252910
-0.177868 -0.089092
0.011054 -0.134366
-0.533927 -0.727728
0.505243 -0.625192
0.341589 -0.403410
-0.428200 -0.078125
0.212584 -0.456956
0.247718 0.282557
0.064212 0.290658
-0.044033 -0.586944
-0.196881 -0.550502
0.118136 -0.402624
0.197535 -0.499632
-0.100564 0.485210
0.193559 -0.233842
0.139218 -0.583268
0.250314 0.055701
-0.242198 -0.129089
0.511206 -0.021815
-0.722019 -0.111005
-0.570564 -0.014967
0.389965 -0.398888
-0.288647 -0.030018
-0.412354 -0.246930
0.334190 -1.048944
-0.575198 0.227302
-0.168038 0.398559
-0.058050 0.331514
-0.235671 0.212496
-0.345218 -0.372083
-0.243963 0.000346
-0.518607 -0.050870
-0.515795 -0.000590
0.341421 -0.134522
-0.028253 0.605168
0.062426 -0.076094
0.149139 -0.041201
0.324941 0.196762
-0.036249 0.340758
-0.225358 -0.007322
-0.313606 0.072173
-0.232415 -0.120533
0.240806 -0.132777
0.330992 0.085562
-0.211659 -0.643144
0.510529 -0.421791
0.526520 0.206540
-0.031098 0.385988
0.197456 -0.094612
-0.044503 -0.118250
0.059763 0.095633
-0.046278 -0.039879
-0.311529 0.129377
-0.194582 -0.503727
0.285290 -0.391970
0.083028 -0.381285
0.159278 -0.254088
0.191532 0.117284
0.116335 -0.209740
0.021677 -0.042260
0.345101 -0.462348
-0.019805 0.208643
-0.085041 0.032093
-0.152498 0.037416
0.157116 0.006264
-0.034166 -0.194279
-0.005293 -0.126988
0.141657 -0.214040
-0.113060 -0.014703
-0.104714 -0.336057
-0.200896 -0.054555
0.022104 -0.125706
0.042599 -0.097184
0.007401 -0.140628
-0.201370 0.026750
-0.022249 -0.354257
-0.112023 0.031889
-0.147391 0.045130
-0.133060 -0.065125
-0.037153 -0.027621
-0.626745 0.078976
-0.124214 0.135544
0.092601 -0.048742
-0.455784 -0.007582
0.119654 -0.143410
0.275181 -0.290357
0.145035 0.127049
0.033020 -0.183998
-0.153553 -0.021057
0.271795 -0.030293
0.051811 -0.164877
0.343656 0.338109
-0.008500 -0.237934
0.415983 -0.260530
0.193194 -0.070679
-0.072752 -0.066446
-0.059910 -0.213306
0.010918 0.012805
0.001209 0.025774
0.180655 -0.267365
0.079473 -0.226561
0.100480 -0.002786
0.196214 0.191810
-0.197508 -0.280480
0.074272 -0.194569
0.047536 -0.046497
0.116830 0.107287
-0.128114 0.025548
-0.056807 -0.013020
0.177110 -0.230788
-0.204595 0.210712
-0.060362 -0.091735
-0.222059 -0.092373
-0.065018 0.010638
0.052324 -0.304338
-0.177294 -0.042573
0.041867 0.088329
-0.077219 -0.119128
0.008796 0.001594
-0.096848 0.090103
0.041042 -0.106994
-0.079752 -0.093158
0.176129 0.137365
0.023327 0.018433
-0.268272 0.080790
0.147741 0.081148
0.026918 -0.069293
-0.017674 0.009891
-0.150240 0.197880
0.141719 -0.322591
0.027889 -0.012901
-0.002156 0.126817
-0.014705 0.132854
0.132281 -0.040903
0.182627 0.023080
-0.069527 -0.013099
-0.000612 -0.130865
-0.141056 0.215228
0.107555 -0.162342
-0.112586 -0.017367
-0.115834 -0.091119
0.023744 0.036265
0.033059 0.105393
0.072321 -0.201915
-0.045202 -0.108746
0.139242 0.041907
-0.441808 0.075111
0.075842 -0.114306
-0.341360 -0.034809
0.155744 0.070793
0.089444 0.244039
-0.116420 -0.358594
-0.147519 -0.031495
0.307559 -0.009678
-0.177890 -0.333128
0.153491 -0.042806
-0.177111 0.066110
-0.042620 0.098837
-0.113302 0.109890
0.107018 -0.134833
0.003660 -0.198478
-0.060360 -0.168281
-0.331434 -0.000548
-0.016913 -0.113831
-0.146479 0.005356
-0.059813 -0.071590
-0.024039 0.227110
0.092852 -0.012129
0.011046 0.131316
-0.042016 0.079708
0.111826 -0.164051
0.104146 0.175446
0.113414 -0.008594
-0.275115 0.203062
0.234870 0.228163
0.251393 0.062204
0.090590 -0.301280
0.031511 0.217352
0.259719 -0.310995
-0.105191 -0.084272
0.202183 -0.065415
-0.237442 0.074670
0.102756 -0.206642
-0.018089 0.030425
0.140535 -0.225468
0.021487 -0.141037
-0.175382 -0.089624
-0.178208 -0.010288
0.030226 -0.319526
-0.125992 -0.036761
-0.228348 -0.131852
0.120696 -0.090637
-0.007877 -0.021980
-0.080764 -0.206083
-0.230830 -0.063701
0.168808 0.025521
-0.107580 -0.196467
-0.052317 -0.419202
-0.194769 0.105992
-0.025973 -0.304648
0.085750 -0.104347
-0.195861 -0.119202
-0.002232 -0.015285
0.449011 -0.156752
0.171123 0.084008
-0.138247 -0.391216
-0.105759 0.165040
-0.348012 -0.036052
-0.079192 0.116333
-0.033123 0.053540
-0.116207 -0.025289
-0.036219 -0.083624
-0.005711 0.122945
0.004923 -0.258614
-0.081397 -0.247925
-0.107260 0.201212
0.056164 0.235626
-0.059463 0.132901
-0.322719 0.278463
0.183094 0.168217
0.206662 0.038261
0.008360 0.142108
-0.338097 -0.026626
-0.096584 -0.022207
0.036049 0.142837
-0.059238 -0.286340
-0.049581 0.150970
0.152919 0.090770
0.151924 0.101659
0.041662 0.000021
-0.137489 0.112805
0.036191 -0.188972
-0.012683 0.198578
0.016408 0.184939
0.079651 0.069097
-0.001673 0.269830
-0.172886 0.229659
0.010068 0.076327
-0.105207 0.150502
-0.018891 0.302048
0.127301 0.179196
0.129015 0.141101
-0.249203 -0.191752
0.201117 0.062200
-0.103653 -0.021641
-0.152473 0.022186
-0.095742 0.155481
-0.049304 0.211145
-0.017313 0.206819
0.261407 -0.007792
-0.440294 -0.024831
-0.154827 -0.052625
-0.269080 0.083647
-0.303442 -0.001159
-0.217153 0.122862
-0.108225 -0.120782
0.099285 0.057593
0.060636 0.240509
0.176873 -0.105963
0.187382 -0.003181
0.226104 -0.056017
-0.110537 -0.083623
-0.217000 -0.044464
0.007629 0.063953
-0.005014 -0.191951
0.136398 0.250861
-0.193610 -0.287595
0.128470 -0.379388
-0.014115 -0.157342
0.099432 -0.240029
-0.320217 0.106214
-0.046136 -0.067707
-0.305999 0.200812
-0.142469 0.011427
-0.092465 0.161643
0.055844 -0.175110
0.028219 0.012794
-0.368953 -0.054252
-0.101739 0.072905
0.140062 -0.081658
0.125884 -0.150828
0.091216 -0.145948
0.023930 -0.246766
0.151120 0.220386
-0.146195 0.076491
0.006346 -0.021585
-0.105023 -0.259468
0.184356 0.006150
-0.004379 -0.260469
0.001818 -0.182507
-0.151304 -0.013747
0.288035 0.094707
0.257519 -0.030023
-0.143721 -0.005548
0.244354 0.066545
0.084102 0.195912
0.143223 0.126543
0.471105 -0.045797
0.160901 -0.053503
0.061609 0.184179
-0.007759 -0.073065
-0.123764 0.017423
-0.138862 -0.097964
0.137350 -0.056013
0.064286 -0.054178
0.283807 0.012712
-0.005279 -0.030100
0.009734 0.014750
-0.077689 -0.082591
-0.301793 0.032148
0.013198 -0.064955
-0.150020 -0.018486
0.193977 0.298525
0.061571 -0.037237
0.097871 -0.046292
0.031346 -0.115944
-0.073497 -0.212496
-0.074762 -0.246494
0.361875 -0.153743
0.349662 -0.269790
-0.257011 0.012252
-0.017973 0.195443
0.016093 0.032967
0.095527 0.128976
-0.165421 -0.338645
-0.122936 -0.237071
-0.211430 -0.305249
0.087373 0.333695
-0.075542 0.113583
-0.026069 0.210173
0.216371 0.336313
0.278829 0.161143
-0.294559 -0.066284
-0.106519 0.158623
-0.015764 0.442149
0.184106 0.055282
0.041907 0.173862
0.030454 -0.305200
-0.132407 0.279203
0.020812 -0.152874
0.128488 -0.448940
0.057024 -0.234461
0.203862 0.151944
-0.027848 0.329026
0.169703 -0.064958
-0.171742 -0.167356
0.053716 -0.099128
-0.127605 0.035854
-0.120071 -0.541214
0.043862 0.172746
0.253977 -0.070798
-0.023137 0.081405
0.069111 0.046943
0.228233 -0.477951
-0.085017 0.060117
0.112416 0.099115
0.041016 -0.401984
0.362878 -0.385013
-0.211448 0.188540
-0.075225 -0.101566
0.088189 0.246618
0.037464 -0.114404
0.105534 -0.147984
-0.188011 0.002125
-0.444065 -0.056689
-0.150403 -0.146017
-0.054958 0.409733
-0.225840 0.019557
-0.031861 -0.268339
-0.275159 -0.028829
-0.070023 -0.127787
0.008563 0.080051
-0.050662 0.112273
-0.092360 0.048672
0.121475 0.292744
-0.095822 0.109950
-0.262176 -0.029931
-0.092983 0.148521
-0.190018 -0.073180
-0.228998 -0.115748
-0.114382 0.020774
0.098076 0.120809
-0.098308 0.173742
0.066756 0.071993
-0.102118 -0.154422
0.101771 0.022417
0.036341 0.225117
-0.093762 0.265702
-0.239416 0.054919
0.267793 0.013168
-0.459097 0.310767
0.174424 0.326247
0.148603 0.078011
-0.083730 0.122374
-0.173321 0.045463
0.174846 -0.071165
-0.163338 0.096220
0.133192 -0.035647
-0.191068 0.480637
0.179577 -0.015298
0.095601 0.087057
0.006837 0.051905
-0.106889 -0.028314
0.246834 -0.128254
-0.403430 -0.031957
0.248966 0.121698
0.083511 -0.074425
-0.436697 -0.136124
-0.114035 0.062378
0.202732 0.189140
-0.333720 -0.066272
0.126420 0.151153
-0.020688 -0.117860
-0.285424 0.013756
0.051672 0.051052
-0.335636 0.119706
0.017705 0.029052
-0.148143 0.263285
-0.006828 0.042670
0.013150 0.077210
0.465333 -0.108755
0.124806 0.229863
-0.025818 0.003362
-0.088106 0.078580
-0.144509 -0.334831
-0.066492 0.462284
-0.075402 -0.189503
0.316937 0.037308
0.124467 -0.423325
-0.135119 0.016712
0.276341 0.028391
-0.044428 -0.172315
-0.289199 -0.100482
-0.120630 -0.131614
-0.085717 -0.076184
0.460837 0.330889
0.284107 0.205506
-0.346347 -0.228115
0.106779 -0.135847
-0.075813 0.005593
-0.206750 0.186460
0.318995 -0.099328
-0.130068 -0.049909
0.148384 0.138524
0.179945 0.060229
0.093302 -0.023436
-0.174444 0.051585
0.071074 0.026766
0.035917 -0.026618
-0.310446 -0.165105
0.119409 0.124934
0.171241 0.130918
-0.076520 0.279006
0.014728 -0.050947
-0.184161 -0.000094
-0.313083 0.011332
0.202130 0.099966
0.237955 -0.090029
-0.288166 -0.004449
0.088249 0.340701
-0.050794 0.393055
-0.199941 0.297885
-0.059149 -0.204824
-0.163159 -0.222124
0.152459 0.218096
0.003277 0.139674
0.027219 0.185553
-0.130324 0.020104
0.007379 0.039166
0.008373 0.272654
0.105255 0.085520
-0.015893 0.202265
0.070572 0.108656
0.061693 0.052033
-0.137586 0.034933
-0.052736 0.008892
-0.434858 0.224704
0.164526 0.141554
-0.069287 -0.356093
0.114985 0.096940
0.249736 0.080828
-0.053047 0.071835
-0.297235 -0.038468
-0.073876 -0.091401
0.173837 0.248177
-0.238710 0.063735
0.161182 -0.233766
0.143326 -0.024526
-0.219911 0.095427
0.034008 0.140747
-0.002120 0.140222
-0.168859 0.039848
-0.291668 -0.233720
0.204229 -0.081239
-0.289452 -0.078327
-0.207847 0.247715
0.100536 -0.051473
-0.246727 -0.004292
-0.054023 -0.037040
0.022896 0.190352
-0.076681 0.040899
0.097048 0.325699
0.033873 0.260849
-0.598095 0.242082
0.004254 0.168607
0.020631 0.161828
0.074886 -0.006264
-0.099143 -0.293787
-0.224009 0.215624
0.431676 0.283193
-0.164753 0.190297
0.136868 -0.339306
0.343751 -0.022573
-0.076618 -0.044106
-0.112687 -0.115697
-0.037010 0.061797
0.184168 0.297916
0.004661 -0.095930
-0.105992 -0.016474
0.118118 0.161628
-0.015510 0.329055
-0.336195 0.150108
0.125319 -0.215764
-0.015218 -0.085654
-0.400095 0.399082
-0.256347 0.101292
-0.176555 -0.005169
0.259725 -0.133195
0.095444 -0.044122
0.522444 0.211434
-0.095089 0.276837
-0.238026 0.091739
-0.076456 0.042140
-0.618024 0.408030
-0.217381 0.126095
0.036928 -0.306994
-0.310639 -0.076350
-0.072033 0.053595
-0.169449 -0.469061
-0.280777 -0.260494
0.283963 -0.221622
0.147477 -0.289023
0.149700 0.107049
-0.188647 -0.108177
0.091233 -0.096384
-0.052109 0.314889
-0.243954 -0.280991
-0.090565 -0.068321
0.259411 -0.138599
-0.221014 -0.459625
0.225132 -0.080425
0.381655 -0.123194
0.128872 -0.072615
-0.180399 0.301194
0.332357 0.184263
0.685933 -0.064513
-0.148044 -0.073768
0.334616 -0.224368
0.347348 0.626838
-0.018001 -0.158723
0.346195 0.141050
0.429267 -0.313895
-0.250753 -0.322983
-0.026594 0.078926
0.592034 -0.130222
0.234939 0.278051
-0.454312 0.365599
0.093015 -0.273273
-0.062232 -0.064876
-0.569734 -0.164858
-0.213586 -0.264277
0.325267 0.001424
-0.349439 0.142314
-0.280022 0.219562
-0.856921 0.342718
0.430679 -0.267859
-0.335492 0.027769
-0.150328 0.156210
0.275382 0.018420
-0.674476 0.186089
-0.365427 0.347623
-0.171405 0.110345
-0.568353 0.007695
-0.494632 0.550931
0.547278 -0.056821
0.142466 -0.212591
-1.192764 0.585340
0.240894 0.552038
-0.116296 0.055498
-0.485279 0.049851
1.000489 0.160426
-0.293621 -0.031824
-1.254223 -0.004394
1.092702 -0.297299
0.112585 0.815739
0.434178 0.404006
0.712208 0.301605
-0.963696 0.026817
-0.243026 -0.598872
-0.341529 -1.208304
1.014276 0.369938
-1.239758 1.188460
-0.508373 0.397167
0.988966 -0.279731
-0.295366 -0.025041
0.315970 -2.402328
0.295739 -0.072125
-0.676524 1.870369
-0.791779 0.721775
0.350596 -0.020296
0.545179 -1.281653
0.198601 -0.705410
-1.623967 -1.344533
1.117973 -0.820241
1.684143 -0.081743
-1.938774 0.298589
-0.643643 -0.937963
-1.833577 -1.510336
1.616683 -0.440737
0.305287 -0.486076
1.237923 -1.451640
-1.687845 -0.112389
-2.268038 0.688792
3.735835 -2.322720
-0.946130 0.566390
1.418915 2.925249
3.589188 -0.635232
-1.039592 1.933647
0.383263 4.144124
6.291999 -1.776936
-2.323357 0.325489
1.711094 5.225005
-0.398228 2.742412
-1.102525 -0.251459
6.613894 2.991855
5.443639 0.737394
4.024838 7.810217
-23.496740 11.215166
7.920034 10.254954
9.136287 7.795066
-11.254384 1.641536
-2.748193 -15.017771
-2.199648 3.058428
-0.963307 18.595957
-7.185420 15.008662
3.832838 34.500945
0.899914 1.049334
-27.674848 -12.740269
-2.365587 -18.141718
50.156051 -16.600143
-83.114315 24.360223
-107.591365 -9.238780
36.414565 12.660220
8.532923 -144.905340
32.439321 -75.230264
-80.376550 -59.389708
17.906721 4.458370
-714.580076 252.491519
