6344.717060 2453.843085
-3174.227836 -1019.830723
200.510926 38.146849
-153.460777 -180.933701
33.500940 149.715672
-61.158292 40.649290
-75.547827 49.778346
-74.408075 6.096172
-40.723903 -31.447423
-40.306686 -12.324818
4.870915 -18.405131
-27.659681 -0.061678
-6.225929 -2.222032
-20.399065 -9.801531
-2.503605 -2.528085
-4.949623 -5.021226
-3.591237 -2.557163
-2.861188 7.171524
-6.595177 -2.035879
-11.034163 4.856415
-4.723772 -6.551004
-10.747573 -0.537758
-0.425210 -5.365244
-3.011675 -2.027266
-4.674431 -0.736791
-5.035125 -0.818141
-4.913844 -6.215975
1.974096 -0.837863
-0.199781 -3.698858
-2.972931 3.183136
-2.388096 -2.949213
-2.257942 0.700526
-2.317344 0.075983
-2.760615 -1.485157
-0.924757 -0.914586
0.800694 1.389270
-3.164233 -0.561965
-0.965083 -1.019138
-0.019775 -2.321013
0.189996 -0.104700
0.219453 -0.313194
-0.625411 -0.923368
-1.284983 -0.037299
-0.261324 -0.679677
-1.847389 0.165373
0.270475 -0.147627
-1.867880 -0.232357
-0.135520 -0.137035
-0.894343 -0.453147
0.528687 0.256146
-0.175216 -0.766421
-0.392551 -1.368857
-0.334174 -0.330550
-0.225543 -0.898562
-0.542384 0.792743
0.525328 -1.379633
-0.650063 -0.398426
0.084392 0.154408
-0.641975 0.282875
-0.636236 0.411426
0.298499 0.071530
-0.430467 -0.312805
-0.473668 0.826633
-0.707033 -0.677492
0.211668 -0.507620
0.970505 0.016273
-0.335135 0.107405
-0.425989 -0.230068
0.151806 -0.046256
0.226810 0.229692
0.159488 -0.048662
-0.397615 -0.434924
-0.077403 -0.099490
-0.261960 -0.111009
-0.331921 -0.041841
0.051357 -0.804811
0.139239 -0.075943
0.227929 0.365830
0.529911 -0.491775
0.180583 0.221789
0.219236 0.035478
-0.523059 0.616685
0.152775 -0.058862
-0.133553 -0.460411
0.340731 -0.323317
-0.529852 0.530991
-0.122130 0.137711
0.097480 -0.066838
0.037756 0.124605
-0.130903 0.126406
-0.286672 0.413142
-0.037496 0.187878
0.177104 0.150177
0.170771 0.296228
-0.134925 0.186455
0.141542 -0.111541
-0.127195 0.269091
0.070436 0.078259
0.416173 0.075227
-0.011886 0.093123
-0.387059 -0.129224
0.161730 -0.065565
0.295213 0.598571
0.300718 0.459706
-0.505502 -0.145176
-0.212764 -0.038774
0.001780 0.243418
0.168587 0.649805
-0.111526 0.278201
0.097243 0.037192
-0.313256 0.188117
-0.158791 -0.027693
-0.267737 -0.057733
0.020551 -0.012353
0.093243 0.228590
-0.216897 0.395313
-0.346046 0.270836
-0.303678 0.148894
0.159569 0.329149
0.015507 -0.263111
0.116163 0.134901
-0.197636 0.208086
-0.039956 0.328534
0.440969 0.399012
0.013659 -0.003878
-0.116096 -0.155529
-0.069810 0.138677
-0.163071 0.282125
0.158575 -0.073257
0.163794 0.359406
-0.115086 0.134191
-0.022881 0.047153
0.431081 0.225241
-0.146234 -0.123270
0.017013 0.007397
-0.238548 0.097966
-0.296831 0.159664
-0.198714 0.129386
0.177911 0.032078
-0.074583 -0.180093
0.230279 0.010569
-0.099462 -0.044568
0.088832 0.012683
0.263402 0.325312
0.120994 0.106500
-0.100870 0.107665
0.066159 0.155854
-0.246679 -0.002167
-0.182033 0.042779
0.327577 -0.132000
-0.010858 0.190946
0.013005 0.318666
-0.002108 -0.042012
0.409121 0.138378
0.230699 0.219295
-0.083618 -0.333712
-0.149015 -0.169635
-0.033251 0.250107
-0.138503 0.046524
0.225129 0.088315
-0.019253 -0.266897
-0.258786 -0.091167
-0.025229 -0.154595
0.134552 0.085762
0.402116 -0.199253
-0.006401 0.024573
-0.251920 -0.343887
0.002564 -0.257223
0.134996 0.238956
0.000514 -0.109221
0.012986 -0.190120
0.044212 0.086813
-0.389014 0.157004
0.171156 0.157969
0.298306 -0.078046
0.054532 -0.271412
0.048584 -0.291686
-0.249371 0.017966
0.153896 0.131741
0.214703 -0.176090
-0.052087 -0.284977
-0.055192 -0.217131
-0.034083 0.021090
0.021459 0.236748
0.150022 -0.164132
0.036708 -0.181860
0.174865 -0.143777
0.335044 -0.132472
0.079846 -0.144646
0.076590 -0.169038
-0.031524 -0.148246
-0.094766 -0.086785
0.032591 -0.052021
0.051742 -0.178843
0.172462 0.047669
0.331211 0.008431
-0.026586 0.003794
-0.167304 -0.097242
0.074530 0.133450
-0.064042 0.117226
0.032638 0.166414
0.100706 -0.090037
-0.283642 -0.038790
0.167497 -0.136343
-0.033090 -0.076302
-0.017971 0.190371
-0.017845 0.050791
0.273563 0.069256
0.147182 -0.086770
0.286563 0.016592
-0.165184 0.064084
-0.206039 0.108851
-0.123876 -0.024368
-0.244895 -0.055080
0.059475 0.096889
0.238846 0.091271
0.082139 0.184915
0.067683 -0.098699
0.005127 -0.021336
-0.154675 0.139743
-0.105740 0.038907
-0.235435 -0.033634
0.030259 -0.069310
0.041765 0.025569
-0.104440 0.100248
-0.403699 -0.067641
-0.361267 0.042637
-0.245248 -0.010352
0.099252 0.063277
0.164868 0.080676
-0.070584 0.165796
-0.121197 -0.142016
-0.005043 -0.038728
-0.091046 -0.193055
-0.081559 -0.065304
-0.040953 -0.042325
0.122201 0.117779
-0.039462 0.110388
-0.087489 -0.031099
-0.166881 -0.230649
0.058375 -0.080401
-0.142915 0.098905
-0.076235 -0.091709
-0.077472 -0.043003
0.177413 -0.050696
-0.032324 -0.016789
0.022724 -0.019574
-0.118977 -0.198338
-0.156767 -0.192858
0.045994 -0.213381
0.168118 -0.010902
0.039017 0.066624
-0.200452 -0.126840
-0.056417 -0.265509
-0.057206 -0.086047
0.012717 0.043948
-0.005127 -0.164044
-0.058824 0.071283
0.088718 -0.090983
0.054806 0.038612
0.190757 -0.065280
0.162575 -0.015260
0.058932 -0.011810
0.057686 0.072040
0.065569 -0.187260
0.071971 0.152086
-0.204724 -0.106017
-0.042674 -0.084103
0.046415 -0.212536
-0.017935 -0.000047
0.100533 -0.168096
0.078205 0.044915
0.006527 0.086572
-0.034100 -0.120933
0.032715 -0.058398
0.124013 -0.054028
0.065735 -0.044087
-0.054550 0.087316
-0.030391 -0.076131
-0.003176 -0.336078
0.103231 -0.207728
0.002531 -0.078328
-0.149187 0.183454
0.045250 0.125253
-0.102698 -0.051602
0.006806 -0.083863
-0.204464 0.068633
0.068190 0.087608
0.068048 -0.070903
0.130038 0.046067
-0.101028 0.006268
-0.051766 0.001166
0.113515 0.082149
-0.019294 -0.303381
-0.047049 -0.142059
0.046425 -0.088608
-0.234195 0.067497
-0.077144 -0.101679
0.024511 -0.038412
-0.023336 0.037222
0.071002 -0.072713
0.154129 -0.176637
0.070637 -0.002346
0.003999 0.097896
-0.158341 0.049520
-0.079569 -0.104413
0.061017 -0.115248
0.122812 0.028185
-0.070124 0.083213
-0.094055 -0.101074
-0.141867 -0.033745
-0.018964 -0.046870
-0.001625 0.052617
-0.048467 0.081860
-0.166112 0.042707
0.004488 -0.010795
0.184546 0.034879
-0.035132 0.049828
-0.062354 0.005579
-0.158970 0.186330
0.021077 0.083389
0.091145 -0.010119
0.207065 -0.063376
-0.137744 -0.119908
0.116781 -0.164100
0.121522 0.005599
-0.087926 0.212602
-0.237638 0.017177
-0.041399 -0.010021
0.077807 0.078181
0.116440 0.354261
-0.142254 0.074053
-0.099269 0.009252
0.130100 -0.171227
-0.128232 0.072627
-0.100656 0.059952
0.091126 -0.044774
-0.022176 0.073605
0.032034 -0.014801
-0.215283 -0.085356
-0.200105 0.125626
-0.150983 0.055808
-0.048267 0.015921
0.114334 0.139146
0.061690 0.126010
-0.037108 0.074803
0.040264 -0.086971
0.194019 -0.024925
-0.047055 0.031378
-0.155402 0.183005
-0.117790 -0.002455
-0.068137 0.027569
0.201890 -0.003974
0.018530 -0.112707
0.064980 -0.000837
0.074208 0.080284
-0.174248 0.088693
-0.225748 0.000109
0.025620 -0.123453
0.033370 0.108166
0.104392 0.032885
-0.093468 0.007417
-0.231183 -0.066294
-0.119372 0.010683
-0.047600 -0.137754
0.206564 -0.058143
0.209536 -0.052711
0.000226 0.220769
-0.176017 -0.108669
-0.033303 -0.087483
-0.039634 -0.087406
-0.123969 0.071870
-0.025911 0.073155
-0.077886 0.150789
0.089025 0.136587
0.013432 0.033258
-0.006719 -0.022987
-0.028856 -0.178275
-0.083860 -0.046546
0.145315 -0.003814
0.075070 -0.003796
-0.116079 0.036492
-0.164395 -0.228258
-0.032037 -0.005373
-0.079566 0.127941
-0.088822 -0.187265
-0.121801 -0.042430
0.054673 0.027917
-0.152225 0.009955
0.043635 -0.196198
-0.063749 -0.220135
0.099754 -0.106900
-0.111037 0.160442
-0.036738 -0.105348
-0.126365 -0.130333
-0.025832 0.012862
-0.085059 0.021844
-0.071992 -0.029992
-0.118952 -0.077491
-0.020622 -0.147906
0.038881 0.037715
-0.002509 0.104735
-0.167470 -0.159903
-0.223558 -0.155907
0.032978 -0.102920
0.022028 -0.063935
0.006717 0.102759
-0.011196 -0.153909
-0.075154 -0.076354
0.087881 -0.219761
0.123482 -0.179342
-0.007802 -0.085873
-0.006332 -0.012881
-0.019476 0.006973
-0.124387 0.161721
-0.206827 -0.249551
0.188550 -0.354212
0.110483 -0.088121
-0.026042 0.003939
-0.130915 0.071097
0.139465 0.076828
0.070379 0.040346
0.072299 -0.090294
-0.152075 -0.164070
0.170817 0.003715
0.001379 0.216929
-0.293894 0.008048
-0.085468 -0.224343
0.032577 0.072246
0.005200 0.201782
0.247739 -0.176650
0.177583 -0.095686
0.052872 -0.003054
-0.236513 0.037781
-0.014164 0.205785
0.115562 0.015953
0.275162 0.073692
0.156265 -0.010249
-0.148833 0.014719
-0.084261 0.047206
-0.067663 -0.082459
0.156105 0.154238
-0.000000 0.067267
-0.149480 0.121319
-0.017801 -0.016864
0.179923 -0.032944
0.019442 -0.008822
0.052312 0.048998
-0.349471 0.012582
-0.077059 0.262208
-0.028352 0.104627
0.055320 0.130882
0.071686 -0.113497
-0.241343 -0.177252
-0.051525 -0.028428
0.013876 0.218632
-0.130725 0.321119
0.027443 -0.213837
0.110974 -0.044004
0.030901 0.202875
-0.075464 -0.104138
0.144275 -0.004402
0.044567 0.004123
-0.300634 0.105379
-0.103569 0.139800
0.055331 -0.078502
0.156821 0.119992
-0.013167 -0.014784
-0.233873 -0.089218
0.033845 -0.064983
-0.100090 0.159372
-0.178704 -0.099284
0.096354 -0.182406
0.107380 -0.135613
0.077129 -0.017991
-0.082307 -0.000719
-0.048714 0.126593
-0.158495 -0.032267
-0.114960 0.028623
-0.095967 0.017317
0.048619 -0.111135
0.053834 0.010971
0.153654 -0.076261
-0.231999 0.054532
-0.034690 0.043957
0.081768 -0.248364
0.162600 0.082633
0.161058 0.164808
-0.137433 0.211772
-0.121479 0.173751
-0.118600 -0.226840
-0.001059 -0.118902
0.101824 0.103363
-0.022864 0.019307
-0.078579 -0.092519
-0.083134 -0.041370
-0.134025 -0.052581
-0.017692 0.114350
0.028845 -0.191809
0.134483 0.073072
0.006949 0.135151
-0.172281 0.205939
0.013181 -0.263271
-0.002379 -0.031632
-0.120417 -0.013735
-0.020478 0.045461
-0.082996 0.096484
-0.004290 0.049076
-0.321228 -0.092984
-0.165116 0.098330
-0.112418 -0.092653
0.025708 0.189717
0.177213 0.188239
-0.053444 0.144082
-0.102072 0.191693
-0.167809 -0.277272
-0.053653 -0.028380
0.110672 0.001609
-0.318788 0.040117
-0.095652 0.025955
-0.149396 0.008592
-0.049267 0.058598
0.044405 -0.056381
-0.025680 -0.173463
-0.139691 0.096613
-0.000505 -0.015730
-0.153292 0.057651
0.205454 -0.040027
-0.024934 0.119772
-0.112121 0.029359
-0.073802 -0.027830
-0.099471 -0.087479
-0.159805 0.144315
-0.185939 -0.005988
0.019890 0.166055
-0.058657 -0.082552
-0.051147 0.082873
-0.152196 -0.286596
-0.059205 -0.042346
0.138317 0.058414
-0.082581 0.200814
-0.192213 0.251609
0.002964 0.068414
-0.083046 0.082513
0.152947 0.125761
0.004741 -0.211537
-0.031842 -0.068859
-0.027097 -0.069293
-0.026912 -0.080032
0.121776 0.072758
0.164868 0.079654
-0.205711 -0.057560
0.086407 -0.036754
0.002682 0.158767
-0.097657 0.241860
-0.209276 0.159720
0.094053 -0.143164
0.080915 0.109069
0.187680 0.041310
-0.279723 0.067581
0.087292 -0.296079
-0.000033 -0.047314
-0.014151 -0.049250
-0.268593 0.048980
0.026175 0.124722
0.013913 0.137967
0.074423 -0.050891
0.050436 -0.004818
-0.114350 -0.008398
0.057328 0.074610
0.173527 0.072549
0.009099 0.186199
-0.088067 0.022908
0.009511 -0.062024
0.093434 -0.141103
0.242979 -0.087953
0.066271 0.028628
0.019673 0.196439
-0.132347 -0.142007
0.087212 0.049682
0.090165 -0.046686
0.028726 0.121173
-0.044289 -0.045286
-0.010438 -0.137631
-0.123501 0.024944
0.148426 0.134335
-0.239397 -0.020231
0.197724 -0.047808
0.106334 -0.077100
0.135280 0.008488
0.083960 -0.207228
0.100367 -0.130467
-0.105887 0.147152
0.031712 0.031468
0.082415 0.087227
-0.006014 -0.028294
-0.098676 0.105926
0.117394 0.145506
-0.011206 0.253974
0.051486 -0.027940
-0.132662 -0.120019
0.084863 0.067317
0.209922 0.069792
0.235070 0.018143
0.027636 -0.051228
0.036720 -0.102363
-0.037160 0.123780
-0.069072 0.156568
-0.123822 0.006041
-0.171113 -0.084569
0.024320 0.004129
-0.015633 -0.128457
0.081185 0.179530
-0.129051 -0.030391
0.084945 -0.022520
0.052091 -0.034746
0.102815 0.135935
-0.023955 -0.031084
0.103006 0.229970
-0.215839 0.052929
-0.167797 -0.093277
-0.009044 -0.079003
0.021236 0.090858
-0.083565 0.042853
-0.155308 0.139526
-0.154784 0.101552
-0.083143 0.038899
0.000952 0.009840
0.083431 0.018461
0.007817 0.056894
-0.019393 0.169058
0.024684 -0.241247
0.023506 -0.088626
0.041745 0.075793
-0.154734 -0.073740
0.055632 0.041024
0.191570 -0.133631
-0.092069 0.106205
-0.066160 -0.062426
-0.227362 -0.021486
-0.014489 -0.150857
0.088486 -0.055618
0.274950 0.083936
0.101729 0.300682
-0.166110 0.112095
-0.025478 -0.147681
-0.012329 -0.121058
0.018256 0.098487
-0.000300 0.091857
0.057437 0.133966
0.064532 0.079159
-0.072187 -0.051681
-0.151886 -0.081967
0.069456 -0.168494
0.106583 0.016082
-0.060065 0.226536
-0.004798 0.081635
0.140867 0.282312
0.330672 0.059281
0.159673 0.018487
0.147212 0.039270
-0.131467 0.003613
0.055872 0.012783
0.168168 0.033634
0.002447 0.138126
0.023739 0.115516
-0.087218 -0.140285
-0.019443 -0.196920
0.089707 0.130196
-0.111370 0.227817
0.030495 0.334598
0.082990 0.160832
-0.085629 0.141808
-0.066322 -0.008967
0.023491 -0.031901
-0.243869 -0.269193
-0.076741 -0.088003
-0.040774 -0.003192
-0.039199 0.237449
0.171733 0.243821
-0.206155 -0.003588
-0.006805 -0.069087
0.082780 -0.106302
0.024602 0.115340
-0.209805 0.051139
-0.018643 0.304816
-0.173281 -0.113804
0.097753 -0.120346
0.176738 -0.194926
-0.219817 0.028080
-0.034177 0.136944
-0.027265 -0.008429
-0.168201 0.025449
-0.003879 -0.028811
-0.062759 -0.319439
-0.068922 -0.189664
0.053133 -0.250710
-0.320710 -0.064869
-0.101975 -0.053049
-0.106434 -0.182442
-0.222942 -0.105119
0.016935 0.148955
-0.045427 -0.006625
0.165873 -0.195157
0.009590 -0.373253
-0.199848 -0.108937
-0.059593 0.030053
0.230057 0.022231
0.127625 -0.187429
-0.083164 -0.301984
-0.348631 0.175086
-0.178493 0.023880
0.159268 0.213967
0.130281 -0.046860
-0.110076 -0.304913
0.182955 -0.003175
-0.099552 0.156812
-0.098212 -0.127168
0.379963 -0.386406
-0.146496 -0.110067
-0.166008 -0.061311
-0.111069 -0.118011
0.081452 0.227529
0.307538 -0.232474
-0.219395 0.000580
-0.160846 -0.097470
-0.055375 0.066414
0.182770 0.108694
0.093412 -0.139439
0.187538 -0.411792
-0.307095 0.271804
-0.277577 -0.002607
-0.024056 -0.032690
0.266040 0.314774
0.008006 0.290845
-0.215610 0.144898
0.016722 0.118742
-0.001013 0.184260
-0.222405 -0.031715
-0.149719 -0.041002
0.022177 -0.172829
-0.231729 0.127056
0.244023 -0.036229
0.230449 0.018650
-0.028979 0.187107
-0.019701 0.071690
-0.212860 0.146248
-0.147944 0.248020
0.266055 0.026864
-0.072008 -0.012066
0.178154 -0.176638
-0.025869 -0.239740
-0.158236 0.200395
-0.158619 -0.037551
0.333803 0.178614
-0.294871 0.217461
0.045179 0.063560
0.114499 0.219237
0.039803 0.390343
-0.014641 -0.197094
-0.312208 -0.027195
-0.457955 0.228355
-0.042433 -0.010137
0.402793 0.278513
0.017943 -0.035283
-0.138268 0.104560
-0.208593 0.216511
-0.153995 0.124384
0.403893 -0.059468
0.169748 0.024549
0.231544 0.169934
0.224984 -0.019248
0.220397 0.228383
0.090397 0.128207
-0.108353 0.126751
-0.213330 -0.101560
-0.043782 -0.061761
-0.056812 0.505947
-0.038525 0.130147
0.288229 -0.114755
0.256090 -0.261049
-0.123136 0.247742
-0.470597 0.314159
0.265161 -0.078076
0.314183 -0.290230
0.220164 0.409692
-0.638352 -0.041926
-0.224875 0.234486
-0.104851 0.003814
-0.252733 -0.274603
0.006295 -0.091942
-0.073612 0.075892
-0.301551 -0.133001
0.251397 0.076134
0.254764 0.032347
0.324651 0.199486
0.162659 -0.239294
-0.107308 0.149142
0.513959 0.007344
0.196380 0.732238
-0.048828 -0.114619
-0.566521 -0.576858
-0.222520 0.136608
-0.115659 -0.216378
-0.231517 -0.146561
0.049256 -0.910198
-0.088637 -0.527785
0.605016 0.037430
0.105261 0.426293
0.224081 -0.393117
0.008168 0.279402
-0.103085 0.061767
-0.150341 -0.254191
0.018996 -0.647110
-0.162917 -0.181393
-0.474166 -0.201829
-0.202074 -0.258140
0.646133 -0.794872
0.573919 -0.212621
-0.269176 0.094612
0.140772 -0.422691
0.820762 0.150913
0.390053 1.013487
-0.204234 0.087743
-0.437230 -0.032525
0.345970 0.209474
0.540452 0.345837
0.118518 0.181930
0.054365 -0.415707
-0.300176 -1.023912
-0.004276 0.099448
0.392016 -0.317039
0.528976 -1.013615
0.287846 -0.705908
0.593332 -0.627807
-0.613465 0.577619
0.698015 0.528033
0.560860 0.344379
0.250855 0.902440
-0.050906 0.922968
-0.797359 -0.197051
0.016929 0.173457
-0.022306 -1.914386
0.607124 -0.238785
0.305537 -1.032103
-0.404497 0.817674
0.051106 -1.061369
0.620327 -0.488208
1.975805 1.274208
-0.712129 2.438317
-1.231651 1.232337
1.154673 0.524226
-0.991619 1.626421
-1.507713 0.370786
-0.001701 -2.350588
0.988732 -0.029796
-1.045639 -0.968462
-1.527089 -3.147214
1.277565 -1.675729
5.502103 -1.270577
0.251291 2.394882
2.325426 0.129582
-2.387848 0.003564
3.562204 3.698521
-2.247130 2.452536
-3.471909 1.320155
-4.666065 3.677313
-5.496886 -5.509080
-5.704771 1.444241
3.585157 -10.050782
-8.120791 2.382468
8.049520 -5.729698
1.095584 -1.034576
2.441825 3.287990
3.709061 5.628122
-9.245359 -0.084697
4.355548 37.561219
-42.494691 -3.422368
-62.774757 67.403086
-92.433111 -54.100817
-151.325167 -0.899576
-84.362884 -176.648261
-107.370406 -163.470167
-1464.953003 173.716035
