5393.174131 2108.875264
-2843.898224 740.576155
117.960893 6.725468
-176.787542 166.755404
67.218513 -82.039783
-21.892931 -8.728098
-21.771400 -61.440160
-40.378931 -35.265258
-36.947912 -2.268770
-38.914992 -15.033678
-12.405088 16.163357
-24.434687 -10.282547
-2.019347 1.322891
-17.995286 -7.698966
-6.774172 -6.232065
-15.299419 -1.127304
-10.801658 1.573165
-2.243463 -0.396675
-7.303881 4.299413
2.175945 -4.323573
-5.252706 -0.429623
-2.509547 -6.223049
-3.425923 1.976015
-3.264662 -4.653372
-2.081000 0.193511
-0.550333 -1.338430
-3.270493 -4.061474
0.436901 -1.051474
-3.547971 -3.260485
-0.548712 -2.368442
-4.477904 -0.687774
0.562793 -0.858601
-1.563259 0.811512
1.180765 -1.354526
-0.393498 -2.682850
-2.282929 -0.514153
-0.788021 -1.717672
-1.025895 0.477454
-1.161559 -1.543623
0.969608 1.043305
-1.681879 -2.090361
1.451358 -0.967182
-0.269296 -0.878476
-2.319737 -1.702066
-0.325901 -0.116025
0.517834 0.081893
0.687446 -0.474196
-0.314595 -0.074274
0.949096 -1.196713
0.250047 -0.017790
-0.250314 0.205173
-0.610158 -0.148124
-0.536870 0.594554
0.159000 0.243151
0.215452 0.564598
-0.058214 -1.195737
0.892958 -0.165313
-0.576256 -0.747187
0.186592 -0.897866
-0.220013 0.133368
-0.491920 0.945901
0.310226 0.561041
0.252950 0.137302
0.542461 0.318203
-0.251019 0.606933
0.161025 -0.325291
0.073653 0.135623
0.242175 0.236647
-0.261980 0.592318
0.016557 0.235930
0.312782 0.350549
0.191659 0.780982
0.032053 0.050930
0.692430 0.223426
0.118081 -0.050659
0.152970 -0.224895
-0.263717 0.241639
0.001879 -0.038923
-0.002385 0.121302
-1.056026 0.393463
0.099838 0.163710
-0.088469 0.553096
0.054975 -0.074487
0.308451 0.140730
0.072623 -0.247261
-0.143061 0.011263
0.151192 0.262955
-0.346165 0.456787
-0.219450 0.609904
-0.081211 0.296015
0.027081 0.299832
-0.264440 0.271974
0.150638 -0.145923
-0.097096 -0.556411
-0.533234 -0.530374
-0.382414 -0.091414
-0.575424 0.669239
0.186044 -0.167585
0.166196 0.048303
-0.481950 -0.293817
-0.368198 0.185355
-0.220160 0.230095
-0.475060 0.150718
0.061529 -0.134916
-0.255479 0.394300
-0.311760 0.136292
-0.187492 -0.092949
-0.027547 0.020627
-0.407936 0.225363
0.115275 0.224145
-0.257993 -0.075516
0.013217 -0.164748
-0.205970 0.034849
-0.299982 0.150447
-0.365945 -0.211019
0.109216 0.058371
-0.360359 -0.142893
0.061619 -0.095532
-0.151446 -0.134429
-0.094935 -0.009356
-0.146639 0.132025
0.015999 0.223988
-0.026615 0.318669
0.015371 0.107497
0.000846 -0.101575
-0.286972 -0.019762
-0.048209 -0.009036
-0.065166 -0.010505
0.145283 0.075054
0.190004 -0.107516
0.126802 -0.068130
-0.126331 -0.112939
0.109081 0.204212
-0.379418 -0.036215
0.054655 -0.053378
-0.008000 -0.026596
0.014611 -0.131129
0.032037 -0.234357
-0.009476 -0.031309
0.202496 -0.147370
0.147552 0.285196
-0.156083 -0.034729
0.115492 0.299033
0.016858 0.088490
-0.090301 0.130907
0.169188 -0.057303
-0.003046 0.024672
-0.146642 -0.312697
0.141397 -0.027566
-0.000497 -0.143931
-0.266565 0.280003
0.044764 0.067258
0.286767 0.008884
-0.031220 -0.053689
-0.005255 0.111389
-0.224366 -0.091036
0.127676 -0.062062
0.151320 0.235478
-0.072070 0.065885
-0.070480 0.009611
0.217658 0.186380
0.047439 0.325650
0.148886 -0.016617
0.025802 0.020082
-0.043853 0.127108
-0.055763 0.081595
0.076508 0.092751
-0.019968 0.084847
0.159439 -0.142850
-0.234405 -0.017504
0.073836 0.048520
0.299468 -0.024421
-0.011428 -0.025855
-0.147076 -0.003384
0.271008 0.281028
0.039319 0.220993
0.248151 0.196745
0.020628 -0.040711
0.121666 -0.091425
-0.136324 0.087224
0.044652 -0.115895
0.029405 -0.007848
0.052344 0.144943
0.287127 0.135403
0.319410 -0.155019
0.018643 -0.128391
0.057662 0.079895
-0.008333 -0.016369
-0.125170 -0.350665
-0.021196 0.051285
-0.111020 -0.007270
-0.015463 0.052653
0.175949 -0.121858
0.313361 -0.141935
-0.127725 -0.059762
-0.025725 0.094533
0.126687 -0.059391
0.095896 0.042492
0.122991 0.000044
0.043886 -0.008571
0.000000 -0.212132
-0.080316 0.017003
-0.046131 0.099238
0.043804 0.161893
0.125471 -0.235568
-0.114229 -0.106750
0.019338 -0.291786
-0.019394 -0.166965
-0.118005 -0.130562
-0.024484 -0.094044
0.074641 -0.102780
0.003785 0.283915
0.214296 0.065470
-0.045875 -0.054677
-0.138190 0.050449
0.090624 0.171748
-0.063283 -0.043574
-0.022589 -0.082088
0.051050 -0.057238
-0.012680 -0.226767
-0.074162 0.117110
0.012113 0.033694
0.152460 0.049031
0.101564 0.007539
0.094069 -0.100814
0.039318 -0.208662
-0.137241 -0.045731
-0.041787 -0.131889
-0.054868 -0.019954
-0.109083 0.019912
0.042927 0.084810
0.145536 -0.005039
-0.057004 -0.092023
-0.050627 -0.063237
0.018680 0.027453
0.121564 0.102998
-0.005313 -0.154898
0.010405 -0.133581
-0.122338 0.047246
0.052691 0.097932
-0.045432 0.007232
0.006731 -0.066366
-0.007881 -0.177672
0.008991 0.007727
-0.097401 -0.081197
-0.017954 -0.309325
-0.080935 -0.044602
-0.066362 -0.040161
0.012059 -0.192961
-0.189496 0.054309
0.000210 -0.052543
0.077891 -0.020385
0.028332 0.099149
0.015684 -0.077592
-0.107415 -0.122496
-0.253411 0.155829
0.012437 0.052788
-0.218223 0.070909
-0.140208 -0.020357
-0.000295 -0.151399
-0.050671 -0.203376
-0.007664 -0.002979
0.026961 -0.248178
-0.022969 -0.090268
0.035709 0.124301
0.100334 0.096449
-0.064373 0.097441
-0.021138 -0.004524
-0.081222 -0.100034
-0.223953 0.026292
-0.157030 -0.013762
0.020277 -0.082119
0.064796 -0.052586
0.043779 -0.076858
-0.025247 -0.070652
-0.010485 0.086227
0.023261 0.152221
0.026676 0.182350
0.064810 -0.128494
0.015527 -0.076758
-0.148955 0.029277
-0.075198 -0.069663
0.082290 -0.158060
0.011986 0.075042
0.004266 -0.093513
0.101350 0.104310
0.127757 -0.095192
0.282173 -0.087795
-0.088028 -0.100902
-0.056994 -0.129126
0.005382 0.080795
-0.027799 0.092196
-0.052205 -0.059428
0.083688 0.101468
0.014339 0.047136
-0.101472 -0.210291
-0.029870 -0.063680
0.110818 -0.001627
-0.194409 -0.069297
0.006791 -0.046626
0.176777 -0.035355
-0.002150 -0.128267
-0.045478 0.201970
0.040851 -0.111098
0.060553 -0.106793
0.127531 0.252011
0.002844 -0.095202
0.016800 -0.188008
-0.045149 0.153855
0.035428 -0.078933
-0.200774 -0.078755
-0.062453 0.060610
-0.202119 0.026889
0.060878 -0.039161
-0.000492 0.016681
0.015991 -0.151298
-0.055509 0.069146
0.080876 -0.059915
-0.064312 -0.022138
-0.002625 0.125281
-0.249981 0.071863
-0.000996 0.124228
0.102595 0.211265
0.076641 -0.234890
-0.091134 -0.015664
0.109057 -0.037141
0.036887 -0.160702
-0.185865 0.017911
0.069189 0.126618
0.053956 0.112235
-0.022928 -0.003020
0.097773 -0.094167
-0.173527 -0.221296
-0.250459 -0.005851
-0.139751 0.089596
-0.055554 -0.024965
0.017730 0.091057
0.023856 -0.022792
0.153048 -0.150548
-0.165165 -0.109025
-0.174092 -0.084001
0.062944 0.044094
0.039354 0.031065
-0.090381 -0.033585
0.053483 0.153078
0.042204 -0.079713
0.178945 0.100476
-0.098641 -0.113051
-0.142571 -0.284995
-0.295910 -0.159653
-0.031685 0.084019
-0.257384 -0.186627
-0.047643 -0.079560
-0.048240 0.015965
0.068771 -0.046243
0.012439 -0.075139
-0.037177 0.009506
-0.166549 -0.179194
-0.114873 0.028224
-0.246327 0.019515
-0.071631 0.156887
-0.031283 0.000793
-0.000866 -0.028146
0.061095 -0.000813
0.016755 0.007895
-0.042295 -0.089364
-0.029573 -0.012415
0.033994 -0.158676
-0.303121 0.057916
-0.077296 -0.019667
-0.002213 0.077409
-0.184202 -0.043306
0.066106 0.022256
0.045705 -0.065354
-0.205583 -0.180194
-0.081660 0.020162
-0.122729 0.028607
0.026195 0.161148
0.041188 0.074625
0.064149 -0.031102
-0.070709 0.062634
-0.041869 0.204258
0.034640 -0.040129
0.029042 0.110781
-0.064079 -0.062155
-0.016366 0.085243
0.041076 -0.153327
0.127173 0.051006
-0.111621 -0.006895
-0.047000 0.002860
0.076567 -0.057080
0.001580 0.156485
-0.104662 -0.067015
-0.162433 -0.144690
0.040435 -0.004501
-0.097708 0.107217
0.034985 -0.043031
0.035869 0.085416
0.202748 0.011679
-0.086023 0.066373
0.000000 0.070711
-0.106347 0.089946
-0.095520 0.152004
-0.146046 0.057749
0.177135 0.015395
-0.050824 -0.026537
0.057432 -0.045958
-0.066700 -0.224281
0.055748 -0.023366
-0.124392 0.186354
-0.127901 0.095448
0.097246 -0.048747
0.064608 0.148319
-0.095396 -0.155991
-0.147254 0.031685
-0.059334 -0.098086
-0.014895 0.197318
-0.068109 0.040110
-0.018516 0.161945
0.102718 0.127112
0.043365 0.110792
-0.019310 -0.161657
-0.221220 0.103389
-0.046285 0.078810
-0.080621 0.166609
0.070017 0.024723
0.131862 -0.033464
-0.030918 -0.033896
-0.065971 0.018655
0.167002 0.004802
-0.080962 -0.062784
0.017974 0.102090
0.096396 -0.062652
-0.066261 0.057270
-0.167995 -0.006685
0.105828 0.138458
-0.051137 0.051830
0.042217 0.096394
0.075478 -0.128093
-0.023911 -0.038749
0.039397 -0.057480
-0.038814 0.075611
-0.028018 -0.053585
-0.088493 0.111990
0.045544 0.090751
-0.024063 0.181141
0.131000 -0.080700
0.017368 -0.035325
0.135984 -0.280021
-0.113771 -0.285979
-0.049686 0.036248
-0.167122 0.071875
0.230968 -0.130545
-0.031092 0.244747
0.126211 0.074353
0.011004 -0.023741
0.046319 -0.127981
-0.075351 -0.161586
-0.255190 -0.074436
-0.345548 0.100094
0.062292 0.118889
0.088363 0.031995
-0.014171 -0.038303
-0.014771 -0.072197
0.006903 -0.034231
-0.095350 -0.112528
-0.076494 0.058881
0.115978 0.092761
0.026341 -0.052748
-0.017165 -0.011449
0.033640 0.086971
0.007026 -0.005070
-0.130805 0.083062
0.042196 -0.045317
-0.165901 -0.144323
-0.202630 0.135660
0.075717 -0.010574
0.050512 -0.076325
-0.136692 0.016150
0.108757 0.110900
-0.022545 -0.145762
-0.044525 0.163172
-0.260452 -0.001263
-0.069660 0.134633
-0.040862 0.167178
0.138479 -0.009028
-0.000576 -0.080717
0.044580 -0.020209
0.038944 -0.156625
0.072902 0.124602
-0.047519 -0.110885
0.036116 0.045367
-0.086548 0.234055
0.112903 -0.156920
-0.023449 -0.055089
-0.087522 0.194694
-0.062598 -0.129681
-0.098212 -0.125653
0.023962 0.136381
-0.060632 -0.071893
-0.268198 -0.114645
-0.039945 0.053264
0.038516 -0.060355
-0.073403 0.128551
-0.054458 0.050883
0.235693 -0.141841
0.011412 0.108202
0.022388 0.040659
0.019183 -0.108781
0.000962 0.046557
-0.163377 0.089059
0.052767 -0.025317
-0.032156 0.032197
-0.102864 -0.000461
-0.149619 0.009911
0.093064 -0.021598
-0.072301 -0.057752
-0.036721 -0.120316
-0.214793 -0.041082
-0.075319 -0.086258
0.118718 0.237347
-0.062629 0.045558
0.026062 -0.004688
0.030075 0.256775
0.019948 0.157637
0.038357 0.092085
-0.026365 -0.034390
-0.063937 -0.057398
-0.088354 0.066730
-0.040641 -0.041208
0.213041 0.087818
0.203888 0.063942
0.132913 -0.075411
-0.003301 0.035652
0.032915 0.100730
-0.114288 0.132886
-0.142299 0.199167
0.015110 -0.075539
-0.120789 -0.055207
-0.004444 -0.013327
0.063568 0.043594
-0.030490 -0.193490
0.233682 0.158658
0.131220 0.022440
0.042500 0.155067
0.133572 0.180281
0.108499 0.000531
-0.052494 0.012779
0.006752 0.237641
-0.020853 -0.007901
0.042301 0.002839
0.167777 -0.041729
-0.075703 -0.183645
-0.097613 -0.047912
-0.046183 0.043729
-0.086520 -0.123615
0.039729 0.040874
0.089027 0.202320
-0.029621 -0.156651
0.146475 -0.031114
-0.112682 -0.012391
-0.012671 0.070582
-0.093155 0.149699
-0.027946 -0.083067
-0.082519 0.031496
-0.088523 0.193031
0.027167 0.113385
0.106382 -0.025394
0.075637 -0.157720
-0.149395 -0.014053
-0.145748 -0.012820
0.018737 0.030938
-0.111677 -0.021185
-0.092576 -0.037194
0.047628 0.064651
-0.119428 -0.033691
-0.022998 -0.014736
-0.082865 0.149804
-0.042725 -0.039434
-0.002092 0.068605
0.008255 -0.056309
-0.064642 -0.188030
-0.254246 -0.059040
-0.002829 0.043276
-0.007691 0.136325
0.042610 0.209429
0.243577 0.144363
0.139894 -0.251792
-0.191871 0.003778
-0.144762 0.051152
-0.223860 -0.076760
-0.182346 -0.126792
0.017977 0.085945
-0.010373 -0.119881
0.044002 -0.069985
0.180887 -0.199282
-0.028663 -0.116664
-0.068571 -0.014776
0.107848 0.189398
-0.005051 -0.091988
0.070711 -0.141421
-0.087879 -0.058324
-0.085662 0.012903
-0.095213 0.009644
-0.162900 -0.027928
0.094010 0.072095
0.112047 0.026224
-0.173500 -0.250706
-0.159050 -0.086081
0.059733 -0.181058
0.027686 0.009090
-0.117930 -0.091227
0.005467 -0.163893
-0.068016 0.067145
0.038360 0.373112
0.148270 -0.084087
-0.049310 -0.047005
-0.143527 -0.086120
0.087465 0.087225
-0.169961 -0.249388
-0.023683 -0.038972
-0.076265 0.097622
0.077537 0.098599
-0.048059 0.043114
0.095368 0.189388
-0.041844 0.156684
-0.113014 0.100274
-0.015551 -0.049949
-0.021439 -0.053542
-0.442516 0.113402
-0.003713 0.201917
0.269399 0.125593
0.044470 -0.055304
0.068062 0.093633
0.064333 0.101913
0.013671 0.109095
0.149264 0.214366
-0.000547 0.121240
0.061480 0.072437
0.056232 0.311020
-0.015843 0.135006
0.013078 -0.119816
0.118985 0.014483
-0.394043 0.263372
-0.069994 0.041793
0.063050 0.149287
0.247976 0.188231
0.014017 0.158107
-0.043814 -0.135586
-0.139075 0.204379
0.299790 0.093964
-0.189985 0.143379
-0.148156 -0.032261
0.117538 0.133181
0.187969 0.043919
0.003621 0.255179
0.319773 -0.069057
0.072538 0.169902
-0.106078 0.004827
0.030135 0.054951
-0.281637 0.170940
-0.351580 0.081336
-0.021905 0.009252
-0.091141 -0.026473
0.052707 -0.130286
-0.102947 0.074374
-0.036749 -0.077883
0.156305 0.103599
-0.096421 0.273842
-0.051482 0.122796
0.000215 0.016431
-0.258994 0.077357
0.008972 0.031470
-0.017960 0.076819
0.085519 -0.123646
0.177303 0.085850
-0.044294 -0.192992
-0.030348 0.214114
-0.068814 0.184463
0.015944 0.203573
-0.132975 -0.036284
0.026991 -0.077749
-0.304495 -0.131264
-0.136428 -0.040750
-0.013042 0.063658
-0.011481 0.140889
0.158986 -0.056612
0.468647 0.086224
-0.039364 0.051998
0.069495 -0.270176
-0.047359 -0.018378
0.003169 0.185336
0.245808 0.276709
0.229824 -0.139316
0.085784 -0.288886
0.308018 -0.175942
-0.051932 0.060225
-0.331062 -0.226845
0.094858 -0.043427
0.102856 0.453482
0.176777 -0.035355
0.632628 -0.191663
-0.421878 -0.432086
-0.205757 -0.289284
-0.003816 0.316053
0.148156 0.029482
0.127505 -0.398660
0.209365 -0.198695
0.097940 -0.078837
0.743628 0.189085
0.319854 -0.303221
0.189461 -0.332986
-0.059479 -0.158266
-0.104793 0.010032
-0.659524 0.125331
-0.192952 -0.017638
-0.008172 -0.030486
-0.300328 -0.081580
0.416268 -0.277458
-0.161300 -0.054912
0.058276 -0.406039
0.325459 0.054662
-0.203250 -0.180032
-0.550754 0.268104
0.244223 0.351594
0.056715 0.199132
0.316199 0.006425
0.006401 0.039410
0.536188 -0.371418
0.215333 -0.076999
-0.162141 -0.450786
-0.325898 -0.579802
-0.143477 0.010621
-0.721208 0.180323
-0.458526 0.108358
0.099808 0.005605
0.320417 0.603596
0.209570 -0.040454
-0.290416 -0.266717
-0.331877 -0.363841
-0.064732 0.890314
-0.614122 0.074106
-0.228038 -0.075206
0.476687 0.279087
0.377868 0.253353
1.109334 -0.668119
0.970602 -0.571105
0.560048 -0.303696
0.160935 -0.777670
0.422386 -0.506633
-0.592579 0.198824
-0.293494 0.173173
-0.782350 -0.789619
0.397784 -0.280536
-0.527195 -0.963159
-1.327394 -0.020918
-0.780619 -0.384932
1.565075 -0.367899
-1.013282 0.281018
-0.361823 0.648026
1.246147 -0.492730
0.867202 0.798948
0.723646 -0.179272
1.360308 -0.708055
0.341658 0.151805
1.866601 -0.551783
0.965328 -1.292257
-0.672687 -1.014722
1.356425 -0.230228
-0.231718 -1.406968
0.391612 -2.236178
-0.417499 -2.383345
-2.928615 -1.440133
-1.387462 0.322010
-1.488448 0.292480
-0.521074 0.275379
-1.069576 3.382800
0.435740 -1.179048
-0.523756 3.690915
0.957628 1.832764
0.740615 0.304126
1.869237 3.840936
0.976923 2.257984
6.587003 0.748928
-0.875507 -0.613916
9.978334 -3.755756
-5.404732 -3.627043
1.922666 -6.248771
-3.141461 -1.136350
-3.896981 -5.034300
-3.453212 -7.103568
-16.432043 2.693461
-24.186866 -23.453773
-40.057407 27.029722
-70.478331 -17.880652
-47.973349 89.861782
-103.526367 43.489008
-20.801846 131.608409
-32.062704 125.622674
-1255.904667 -137.653318
