6058.389398 2039.846427
-3020.795742 -1193.824628
204.264198 65.050664
-97.570355 -175.378632
1.318347 156.404393
-67.767729 48.438386
-78.998678 16.869652
-71.869814 -1.676060
-19.469997 -28.456371
-38.258984 -9.387701
-1.720657 -0.541897
-31.822864 -11.671451
-11.702767 -3.322131
-8.330277 -17.758629
-2.179393 -10.669690
-0.618440 2.659998
-1.503463 -2.432855
-14.192450 3.762750
-1.193968 -5.600950
-11.480558 -2.801801
1.177063 -1.397751
-5.970716 -2.160986
-4.974712 -1.563251
-4.983161 -1.909330
-2.200805 -8.368275
-3.214751 -0.186058
1.099320 -4.969152
-1.979945 -1.029777
1.611384 -0.959625
-2.362677 -1.842601
-0.801789 -2.368649
0.750190 -0.992523
-1.059565 -0.203551
-2.050896 1.625891
-0.376649 -2.326788
-1.397203 0.189716
-0.419771 -0.669989
-1.263423 -2.066076
0.818634 -1.004162
0.520306 0.533856
-0.680073 -1.240785
0.293606 -0.283701
-0.494882 -2.021225
0.676149 1.282085
-0.255026 0.051656
-0.944762 0.336633
0.214010 0.166488
1.725173 -0.294075
-0.978488 -0.389898
1.184454 0.508001
-0.257352 -1.036157
0.562477 0.335717
-0.216063 -0.210673
-0.000847 -0.098673
0.294781 -0.475744
0.510122 -0.019462
0.194806 0.056861
0.060944 0.446623
-0.326118 -0.110250
-0.440249 0.218812
-0.745613 0.476163
-0.806298 0.077790
-0.176356 -0.272890
0.161885 -0.645300
0.192989 0.678622
0.419256 0.088366
-0.321354 0.586804
0.064086 0.623687
0.069814 0.270595
-0.038010 0.068967
0.360927 -0.168288
-0.297074 0.055169
0.236815 0.810636
-0.653839 -0.218412
-0.228693 -0.004130
0.118774 0.165088
-0.389461 -0.176444
0.071699 0.275502
-0.282873 0.473080
-0.102659 0.676063
-0.122422 0.545451
-0.188618 -0.252382
-0.705292 -0.002426
0.507874 -0.053943
-0.872368 -0.398292
-0.482906 0.124301
0.230926 -0.299369
0.033537 -0.178038
0.249186 0.842829
-0.516036 0.101691
-0.147995 0.187620
-0.321211 -0.019355
-0.515495 -0.290978
-0.208872 0.097458
-0.079681 -0.032626
-0.781918 0.356496
0.093436 0.138362
-0.399192 0.103665
-0.603307 0.079907
-0.224633 -0.233389
-0.306856 -0.231466
-0.146724 0.060433
-0.028576 -0.053725
0.124618 0.008865
-0.122976 0.223315
-0.505612 0.118477
-0.143187 0.265955
-0.363034 -0.277157
0.078805 -0.001238
0.326716 -0.049623
0.115667 -0.188547
-0.169917 0.106949
0.148235 -0.289742
-0.087546 0.054392
0.236572 0.042100
-0.086159 -0.421925
-0.153404 -0.131982
0.253515 0.026613
-0.538336 -0.323274
0.009504 0.377604
-0.253860 0.166609
-0.122258 -0.015574
-0.071767 -0.070264
0.149289 -0.092621
0.300601 0.115734
-0.140615 -0.083911
0.052808 -0.224312
0.356026 -0.192326
0.335871 0.375089
-0.045969 0.194073
0.371721 0.234760
-0.102392 0.244983
0.189753 0.144852
-0.029060 -0.131756
-0.154624 0.069357
0.048327 0.429319
-0.123748 -0.262156
-0.146174 0.104495
0.268036 -0.049750
0.118018 0.191910
0.127588 0.074041
0.068858 0.358152
0.251813 0.154798
0.198778 0.085566
0.033202 -0.039469
-0.092857 0.097149
-0.153456 0.094011
-0.128917 -0.219373
-0.117753 -0.207347
0.497594 0.096466
0.176254 -0.079928
-0.260332 0.243792
-0.048967 0.028107
-0.087402 0.030671
-0.210647 -0.000286
0.272642 0.048517
-0.144332 0.116305
-0.347848 -0.003837
0.049863 -0.406276
-0.032207 -0.008350
-0.151956 0.146464
-0.112155 -0.147971
-0.217401 0.043878
0.014250 0.110296
-0.162444 -0.134664
0.100009 -0.253638
0.380835 -0.159851
0.207297 0.032109
-0.083901 -0.039069
0.094767 0.124505
-0.084302 -0.061956
0.017262 -0.223527
0.018778 -0.027126
0.209122 -0.177071
-0.108806 -0.273091
0.079071 0.162117
0.003829 -0.216956
-0.112015 -0.218648
-0.051151 -0.267082
-0.044940 -0.196033
-0.078872 -0.060927
-0.019356 -0.036056
0.064860 0.047923
0.224022 0.113025
-0.015957 -0.047396
0.062617 -0.159240
0.032929 -0.093572
0.043090 0.019496
-0.119566 -0.077822
0.235384 -0.239489
0.010165 0.145359
-0.021330 0.035224
-0.116900 -0.152831
-0.072109 -0.088741
0.121371 0.198359
-0.110185 0.025972
-0.072004 0.177957
-0.099122 -0.071635
0.031533 0.319869
0.002795 -0.189045
-0.048041 0.026371
-0.030756 0.029077
0.001674 -0.127195
0.023886 -0.030528
0.009771 0.028048
0.187498 0.196132
-0.057957 -0.018963
-0.118263 -0.063977
0.053325 -0.098682
-0.051901 0.155748
-0.098089 -0.213485
0.082259 -0.051888
-0.046208 0.129689
-0.076040 0.032299
-0.229909 -0.004824
-0.157202 0.221731
-0.065671 0.129068
-0.087754 -0.121924
-0.123709 -0.050205
-0.024192 -0.098238
-0.124848 -0.263705
-0.037596 0.072404
-0.003383 0.175730
-0.187666 0.043326
0.135392 0.028910
0.057597 0.121244
0.002882 0.221195
-0.065187 -0.025947
-0.000360 0.096311
0.029518 0.073831
-0.135471 -0.113032
-0.046709 -0.117323
0.186232 -0.039752
0.135572 -0.132960
-0.039164 0.268735
-0.038221 0.019870
-0.222526 -0.064971
-0.070537 0.038079
-0.133314 -0.020978
0.132802 -0.109241
0.044373 0.163059
-0.008852 0.057986
-0.275148 -0.009286
-0.022442 -0.082654
0.123153 -0.210717
0.094333 0.162960
-0.077962 -0.026118
0.044095 -0.164442
0.060652 -0.073121
0.003870 0.181973
-0.009967 0.051871
-0.024781 -0.034953
-0.034234 -0.009477
-0.129217 0.011928
-0.385152 -0.095796
-0.010997 -0.167523
-0.052921 0.090066
0.002445 0.149900
0.018372 0.102891
-0.027638 -0.187362
0.069594 -0.038293
0.102960 -0.073848
0.091095 -0.014109
-0.110303 -0.251128
0.266325 0.080472
-0.032105 -0.061060
0.006595 0.127838
-0.106149 -0.232862
0.050387 0.095162
0.076808 -0.163898
-0.047884 -0.195162
-0.012812 0.040895
0.069349 -0.093699
0.066994 -0.164270
-0.096210 0.022918
0.108514 -0.048916
-0.042375 -0.149404
-0.003571 0.043470
-0.044727 0.048670
0.028148 -0.005973
-0.024009 -0.044301
-0.075328 -0.010644
-0.116172 -0.005794
-0.016381 -0.248983
0.142989 0.087967
0.157091 0.009642
0.114425 -0.048787
0.103310 0.165131
0.088934 -0.061614
-0.101582 0.212735
0.050136 0.281101
-0.191862 -0.081125
0.076229 -0.015989
0.125489 -0.021949
-0.081540 -0.074235
-0.136173 -0.015836
0.092625 -0.050845
-0.138306 -0.015306
0.014891 0.240693
-0.014834 -0.072440
0.031879 0.235700
-0.140241 0.101098
0.029270 0.021874
-0.006502 -0.196490
0.170579 0.037588
0.022374 0.036842
-0.009551 0.157658
-0.219220 0.051814
-0.192082 -0.067387
-0.019211 -0.192158
0.110533 0.003857
-0.032015 0.208670
-0.252094 0.080770
-0.079619 0.041080
-0.014262 -0.101288
-0.127246 0.159894
-0.111983 -0.009695
-0.146862 0.045866
-0.014238 0.183597
-0.136944 -0.086014
0.124625 -0.075925
0.177343 0.115068
-0.020310 -0.042896
-0.172110 0.057914
0.063514 0.010993
0.077193 -0.065109
0.115201 -0.043949
-0.039155 0.110452
0.142398 -0.130259
-0.139659 0.013152
-0.004380 0.047313
-0.098759 0.092714
0.070777 -0.010045
-0.166547 -0.052368
0.122133 -0.004487
-0.032972 -0.132718
0.249640 -0.049681
-0.055299 0.066382
-0.069288 0.040611
-0.094832 -0.039467
-0.103607 -0.195231
0.061417 0.060221
0.200723 -0.001405
0.012250 0.295426
-0.129903 -0.121125
0.038307 0.075581
0.096244 -0.093376
0.060090 0.018467
-0.023131 -0.071370
0.218665 0.062308
-0.147762 -0.082055
0.070043 0.111926
0.044465 0.084936
-0.068027 0.148257
-0.097966 -0.010692
-0.022349 -0.113923
-0.139176 -0.237499
0.037157 -0.083950
0.135627 -0.167655
0.193162 0.233481
-0.000369 0.098620
-0.103577 0.041282
0.083074 -0.258538
0.082161 -0.005427
-0.039141 -0.045769
0.170886 0.016650
-0.124789 -0.113286
0.065175 -0.095563
-0.011275 -0.189109
0.082352 -0.188292
0.027413 0.047652
-0.087207 -0.043915
-0.205169 -0.043880
0.011712 -0.159997
-0.078676 0.027795
0.036294 -0.093839
0.065849 0.139856
-0.001167 0.040594
-0.146431 -0.134404
0.099746 -0.139796
0.064356 -0.151764
0.178443 0.006448
-0.001285 -0.089361
0.099746 0.053839
-0.080052 0.002172
0.050175 -0.165198
-0.013982 0.003791
0.293922 0.004607
0.029998 0.092611
-0.007043 -0.135255
-0.078752 0.037840
0.017803 -0.164770
-0.127121 0.145313
-0.064049 -0.150458
0.085054 0.031185
0.160495 -0.013642
0.007680 0.002495
-0.284511 -0.080816
0.214694 -0.119100
0.011741 -0.001575
-0.053783 0.073124
-0.080729 0.029283
0.104393 -0.000495
-0.201289 -0.092719
0.031097 0.143149
0.045345 0.033116
-0.121797 0.025113
-0.053563 0.083134
-0.044206 -0.010600
-0.095938 -0.095331
0.106108 0.062767
-0.044230 0.023236
-0.116079 0.088834
-0.184364 -0.003331
-0.026868 -0.165043
-0.095673 0.169955
-0.003778 0.064114
-0.175774 0.063699
-0.083389 0.062094
-0.164190 -0.060851
0.008170 -0.149854
0.220779 -0.000368
0.100909 -0.009256
0.010218 0.099698
-0.103006 -0.098453
-0.094464 -0.096332
-0.010253 0.007117
-0.068439 0.102658
-0.097693 0.046087
-0.111620 -0.134972
-0.065086 -0.199511
-0.048510 -0.065741
-0.052783 -0.107704
-0.134844 0.107559
-0.064555 -0.028599
-0.069471 0.116557
-0.144022 -0.011794
-0.053153 -0.051269
0.000573 -0.091635
0.057601 0.114865
-0.002413 -0.133127
0.061974 -0.019451
-0.020163 0.015460
0.022112 -0.075734
-0.120603 -0.010226
0.120728 -0.029543
-0.077210 0.003430
-0.068557 0.123244
-0.035325 -0.127224
-0.068557 -0.005677
-0.045236 -0.002405
0.167690 -0.000692
-0.149044 -0.106046
-0.070665 0.035176
0.106835 -0.070017
-0.067658 -0.066485
-0.129334 -0.063499
0.214688 -0.125908
-0.126674 0.065536
-0.140382 -0.174235
-0.162552 -0.018365
0.248573 -0.137216
0.020184 0.182303
-0.055934 -0.040333
-0.113046 -0.099528
-0.018556 -0.252907
0.064411 -0.073263
-0.111730 0.025894
0.050576 0.158493
-0.097995 -0.040971
-0.132886 -0.000772
-0.110769 -0.090345
0.044641 -0.197865
0.040653 0.016140
-0.065338 0.050962
-0.099024 -0.022547
-0.138389 -0.088727
0.064325 -0.071463
-0.140895 -0.001115
0.222395 0.007822
0.060621 0.064186
-0.037808 0.069385
0.118142 -0.090600
0.026656 -0.065368
0.083588 0.050490
0.002453 -0.143502
-0.001271 0.036517
-0.105614 -0.016620
-0.024301 -0.048016
-0.163946 0.008411
0.060384 0.012059
-0.119887 0.092189
-0.149847 -0.084737
-0.072524 -0.064849
-0.041856 0.127421
-0.038357 0.006616
0.011036 0.055060
0.175300 0.097698
-0.021763 0.195086
-0.192577 0.060210
-0.248758 0.089689
-0.104687 -0.057352
-0.107585 0.057342
0.047082 -0.055074
0.154477 0.081872
-0.090043 0.093835
-0.060225 0.130435
-0.052606 0.150736
-0.221700 0.098264
-0.211953 0.143947
-0.023981 0.004364
-0.132993 0.154145
-0.277062 0.121395
0.012880 0.010145
-0.078229 0.001527
0.044896 0.062051
-0.200756 -0.020203
-0.047056 0.058997
-0.159132 -0.230434
0.009167 -0.030782
0.081500 0.176560
-0.115848 0.130061
-0.166013 0.208857
-0.275237 -0.030927
-0.031798 0.038822
0.013260 -0.165476
-0.021478 -0.020514
-0.121921 0.081219
-0.121397 0.151250
-0.307083 -0.224109
-0.098957 0.112543
0.126164 -0.126547
0.009720 0.063947
-0.207377 0.109805
-0.162139 -0.019061
-0.020472 -0.062859
0.072834 0.216364
-0.071882 0.011661
0.154512 0.142708
-0.111411 0.002812
-0.082618 -0.010585
0.033275 -0.232873
0.231091 0.041860
0.200424 0.151063
-0.070713 0.048338
0.004675 -0.002252
0.107621 -0.049220
0.019988 0.087211
-0.006600 0.010133
-0.039920 -0.011590
-0.046283 -0.031586
0.002945 -0.012734
-0.026169 0.007041
-0.112553 0.262156
-0.010187 0.015325
-0.185891 -0.138370
0.275515 0.054332
0.124697 -0.013190
0.184701 0.019572
0.070513 0.122913
0.186116 0.001545
-0.273977 0.116975
0.020860 0.000158
-0.051151 0.022054
0.011712 0.285580
-0.163040 0.092273
0.021848 -0.152091
-0.039525 -0.061657
0.135730 -0.021260
0.084929 0.125393
-0.061182 0.292940
-0.019356 0.046927
0.023403 0.038764
-0.089940 0.088687
0.051501 -0.107500
-0.079928 -0.000093
0.095432 0.076633
0.034582 0.052579
0.029233 -0.136777
0.028452 0.011958
0.092074 0.025424
0.074997 0.032332
-0.118943 -0.088688
0.094593 0.271597
-0.012063 -0.235440
-0.000311 0.124612
-0.141531 0.041944
0.046809 0.099669
-0.100163 -0.079973
-0.076709 0.133764
-0.088099 -0.160536
0.084315 -0.032574
0.150077 0.066072
-0.279511 0.164150
-0.096030 0.093462
-0.125426 -0.205956
-0.014589 0.086924
0.127070 0.194985
0.095326 0.216053
0.019727 0.118970
0.226858 0.001123
-0.043611 0.138321
-0.046470 -0.090753
-0.018138 -0.022013
0.047118 0.074779
-0.022655 0.236255
-0.089519 0.002880
-0.017361 -0.165127
0.076170 0.092703
-0.005482 0.265566
-0.283711 0.026479
-0.037797 0.004010
-0.050630 0.011912
0.078721 -0.042134
-0.159502 0.072496
0.127565 0.016974
-0.017041 0.074172
0.051708 0.303958
-0.102675 -0.175055
-0.017564 -0.001929
0.031962 -0.009701
0.081445 -0.063570
-0.062643 0.027107
0.074037 0.210782
-0.063292 0.010547
-0.235657 0.197408
-0.194214 -0.068648
0.002809 -0.062107
0.034939 0.058990
-0.077741 0.160773
-0.054672 -0.009775
0.121737 0.025726
0.104514 0.207719
0.065966 0.022542
0.174757 -0.090265
0.054662 -0.053434
-0.032709 0.119379
0.012373 -0.107903
-0.140256 0.073615
0.113524 0.103043
0.238550 -0.164872
0.178726 -0.085608
0.210305 0.149661
0.048840 -0.033222
0.135634 -0.006143
0.056408 0.211992
-0.203616 0.042453
0.073409 -0.143252
-0.073754 -0.031390
-0.090167 0.021612
-0.040068 0.025701
0.236878 -0.101807
-0.081904 -0.054120
0.279973 0.153874
-0.145312 -0.001963
0.096909 0.015974
-0.118377 0.097146
0.089217 0.089168
0.235060 0.005524
0.041432 0.119837
0.063586 0.257005
-0.001829 -0.112813
0.148316 -0.036923
0.079883 -0.049003
-0.024634 0.191647
-0.096934 -0.201514
0.122853 -0.046755
-0.009376 0.130993
-0.038089 -0.058993
-0.090760 -0.136909
-0.005512 -0.037163
-0.171079 0.073898
-0.041029 0.006937
0.152047 0.017308
0.205630 -0.033188
0.040511 -0.019045
0.101065 -0.099990
-0.088343 -0.249557
-0.062438 -0.121774
-0.004899 -0.141118
0.134760 -0.170019
0.167643 -0.164106
-0.160256 0.202847
0.020216 0.043555
-0.218959 -0.144091
-0.199248 0.039585
0.199591 -0.264567
0.031048 -0.062623
-0.195951 0.104003
0.038916 -0.054789
-0.169942 0.104852
-0.071126 0.152931
-0.019710 -0.208144
0.212576 -0.163297
0.326462 0.007247
0.052621 0.102194
0.057072 -0.255136
0.291084 -0.047628
0.092425 0.289078
-0.196913 0.005006
0.031465 0.106900
0.057876 0.033807
-0.084766 -0.101504
0.281178 0.050452
0.033218 -0.118909
-0.240338 0.033930
0.162564 0.184758
0.213950 -0.054465
-0.293269 0.260534
-0.000472 0.116694
-0.254243 -0.399654
-0.232709 0.021462
0.050227 -0.076385
-0.137856 0.266428
0.218543 0.295939
-0.112303 -0.021828
-0.240859 0.390745
0.303584 -0.019668
-0.174581 0.017041
0.026075 0.457378
-0.126014 0.013230
-0.050351 -0.155517
-0.225946 -0.001620
0.036454 0.051353
-0.271163 0.169703
0.204038 -0.007066
-0.159311 0.416985
-0.168830 -0.068347
0.091945 -0.041021
-0.090927 0.127748
-0.240053 0.332968
-0.557366 -0.306874
0.073441 0.210489
0.033262 -0.492914
0.018971 0.405865
0.235772 0.018737
0.306754 -0.439816
0.127984 0.042911
0.289198 -0.258287
0.109055 -0.045733
-0.132583 0.203449
-0.330680 0.119253
-0.212175 -0.217515
0.072172 -0.185551
-0.079622 -0.135664
-0.214228 0.074246
-0.209233 0.121270
-0.047728 -0.055775
-0.038072 0.042970
0.068785 -0.236630
0.395302 -0.058561
0.042903 -0.335711
0.383328 0.152472
0.345103 0.360566
0.178986 0.110448
-0.243264 0.232404
0.259466 -0.026662
-0.383802 -0.056353
-0.023887 -0.231614
0.538885 -0.175106
0.388870 0.040401
0.259996 0.025500
0.276207 -0.046450
-0.035906 0.034828
-0.158059 -0.233073
0.208500 -0.202233
0.219467 0.509581
-0.081684 -0.305345
0.045532 0.274905
0.178954 0.113412
0.169390 0.098315
-0.839635 -0.349143
-0.244773 -0.324571
0.048959 -0.637189
-0.390286 -0.339478
0.229511 0.210407
0.495087 -0.326633
0.514822 0.235572
0.644345 -0.182915
-0.000056 0.890580
-0.342768 -0.031286
-0.067707 0.149046
-0.636660 0.032474
-0.317930 -0.168356
-0.262605 -0.572910
-0.560685 -0.346618
-0.572963 -0.023592
-0.268448 -0.508108
0.122146 -0.514674
0.716882 -0.582885
0.554091 0.186610
0.527698 0.401596
0.221980 0.187033
-0.358336 0.805052
0.003635 0.308812
-0.711411 -0.741728
0.100866 -0.867343
-0.064049 -0.811349
0.124495 -0.363593
-0.235188 -0.807228
0.053664 -0.346998
0.167050 -1.001579
0.260549 0.323697
0.172742 -0.808765
-0.113923 -0.320205
0.176860 0.197790
0.045796 0.285324
-1.271246 0.367081
-1.475748 0.155129
0.238130 0.183025
-0.316856 -0.412587
-0.853629 -0.055977
0.271574 -1.953730
0.680442 -1.605906
0.377661 -1.282330
1.295928 0.389759
-0.132252 -0.679949
2.010852 -0.199500
0.752858 1.381094
-0.673863 1.457961
-0.895403 -0.332720
0.252516 0.433522
-0.359635 1.000738
-1.277329 -1.360787
-0.708710 -1.899243
0.171464 -1.872420
-0.732439 -1.749625
0.214313 -2.485307
3.003291 -1.467609
1.986386 0.159528
1.617378 -0.015527
1.517308 -0.813279
0.428705 3.287354
1.375946 0.291700
-3.269834 2.824763
-1.173524 1.147829
-3.035610 0.245032
-4.205706 -5.147728
-1.076207 1.007221
-2.291851 -11.781941
1.437493 0.754182
7.897005 -10.721712
-0.624472 8.793559
6.551155 4.574662
-1.148038 6.347405
-11.033447 7.228134
8.850314 21.830532
-40.237899 5.826624
-39.058516 58.736523
-99.412640 -38.889436
-144.980412 13.120985
-87.826993 -196.849758
-107.270699 -176.588442
-1208.022077 183.088555
