1305.471681 2727.560300
-861.975198 -489.750232
-35.429741 9.097440
1.171644 93.010477
-5.119835 14.688972
50.104618 -42.638833
7.995091 -2.800338
-20.340496 -16.348342
-3.800555 -6.677760
-9.144757 0.945243
-1.707724 -13.029424
-7.733435 6.222742
-2.978531 1.054529
0.175419 6.434998
-8.040191 1.082475
-0.526614 -5.015679
2.886047 1.007470
-4.172099 0.102164
-0.943348 3.133701
0.709333 0.502820
2.003298 -0.783221
-0.702581 0.823848
0.073740 -1.050060
2.704715 0.569079
1.129387 0.388138
-2.844946 -0.823874
1.345906 0.182334
-0.665065 0.273253
1.234487 -0.677532
-1.622051 1.481007
1.966383 -0.363663
-0.308256 0.578460
-1.661428 1.687621
0.249736 -1.385504
0.001586 1.325015
-1.131702 -0.473123
0.477156 0.155286
-0.610784 -0.261111
-0.121119 0.196004
0.624867 0.068059
0.096290 -0.362464
0.490906 -0.089146
-0.257061 0.309845
0.230148 -0.332087
-0.066678 -0.429755
-0.142160 0.337909
-0.395528 -0.577958
0.694460 -0.099548
-0.709389 -0.461262
-0.258721 0.064699
0.125749 -0.190607
-0.169253 0.053812
-0.146782 0.079147
-0.202293 0.250190
0.254964 -0.317618
0.237526 -0.112240
-0.188972 -0.370438
0.219297 0.115332
0.396433 -0.014900
-0.107866 0.146623
-0.156861 -0.359442
-0.071860 0.356969
0.130120 0.051896
0.033176 0.131075
-0.074434 0.008165
0.188980 -0.101274
-0.462475 0.318634
-0.164604 -0.347210
-0.010285 0.420590
-0.228876 0.154934
-0.477308 -0.049312
-0.099748 0.020170
0.095519 -0.251070
0.129396 0.241772
0.236022 -0.004018
-0.212559 -0.119165
0.004374 -0.146719
-0.029717 -0.338605
0.449531 0.008455
0.026408 -0.025495
0.254356 -0.180081
0.211603 0.347035
0.237749 0.291605
-0.468445 -0.129310
-0.248472 -0.317473
-0.301319 0.108302
-0.264868 0.035766
0.123188 -0.042299
0.009514 -0.368856
0.258590 -0.018414
0.093116 -0.059298
0.090342 -0.166507
-0.244016 0.016892
0.144761 -0.099423
0.315355 -0.121211
-0.114761 -0.078204
-0.152122 0.095861
0.037215 0.331560
-0.117534 -0.085081
-0.392153 -0.150260
-0.028728 0.067342
-0.014011 -0.164966
-0.187869 0.032745
0.137409 0.106978
0.273596 -0.029154
-0.309887 -0.169167
0.011625 -0.256504
-0.331769 -0.239673
0.002971 0.584716
0.082254 -0.084462
-0.005837 0.204269
-0.027685 0.070894
-0.238327 -0.196901
-0.208994 -0.111578
0.279111 0.281453
0.107641 0.239459
-0.084213 0.103234
-0.213257 0.134898
-0.008535 -0.069854
0.368288 -0.201114
-0.031018 -0.014031
0.105741 0.080504
-0.098254 -0.268546
-0.383977 -0.005310
0.137013 -0.037725
0.046786 0.079840
0.071303 -0.085470
-0.079660 -0.244060
-0.115121 -0.102940
0.074126 0.199902
-0.202548 0.327323
-0.198071 0.010627
0.160941 -0.150488
0.350547 0.084560
0.101533 0.219630
-0.036763 -0.126318
0.180425 0.076701
0.110033 0.040947
0.034714 -0.225466
0.179509 0.311018
0.386448 0.143190
0.033391 0.226597
-0.247468 -0.202406
-0.296367 -0.077222
0.178073 -0.388166
-0.228094 0.219538
0.077961 -0.219508
0.423778 -0.055268
-0.160501 -0.187994
0.324311 0.345237
0.062952 -0.225477
-0.156208 -0.272867
0.187394 -0.419203
-0.274267 -0.058336
-0.130772 -0.186072
-0.165662 -0.128773
-0.198927 -0.086378
-0.046210 -0.287568
-0.146677 -0.037411
-0.044769 -0.094418
0.183435 -0.002865
-0.131909 0.073606
-0.045975 -0.286986
0.010798 0.156203
0.065359 0.045430
-0.238424 0.101773
-0.334293 -0.177340
0.243006 -0.126140
-0.249085 -0.093595
0.336529 -0.275359
-0.132610 0.309181
0.110474 -0.179924
-0.375776 0.370446
-0.166034 0.348967
0.164454 0.181542
-0.061415 -0.041802
-0.152332 -0.080117
0.188684 0.325878
-0.204711 -0.028813
-0.203334 -0.296704
0.019287 -0.137970
-0.286193 -0.044828
-0.079301 0.035065
-0.275879 -0.054658
-0.091524 -0.044312
-0.032326 0.153834
0.154869 -0.162975
-0.137673 -0.086678
0.252796 0.077844
0.216446 -0.173089
0.004840 0.284382
0.074139 -0.202042
-0.266477 0.079240
0.402047 0.091313
-0.262864 -0.181459
-0.050637 0.050637
-0.065139 0.226063
0.394505 -0.263199
-0.240893 -0.445464
-0.132929 -0.005293
-0.039158 -0.216378
-0.019746 0.278145
0.314811 -0.148889
-0.183430 0.113632
-0.143003 0.014197
0.064540 -0.278534
-0.217935 0.270443
-0.297875 0.020004
-0.257433 -0.016915
-0.388992 0.002978
-0.178749 0.322964
-0.357129 0.325815
0.150917 0.125657
0.029434 0.045506
-0.192299 -0.241812
-0.018724 0.286560
-0.116131 -0.136709
-0.019240 -0.328215
-0.297840 -0.045050
0.234832 0.128362
-0.008181 -0.010239
0.186335 0.077091
-0.011749 0.107553
0.208577 0.277147
-0.267913 0.102907
0.068946 0.044510
0.059616 -0.012361
0.033098 -0.205580
-0.034829 0.033970
0.090387 0.087322
0.106473 -0.017585
0.262512 -0.087185
-0.028992 0.172987
-0.374624 -0.040944
0.030497 -0.026850
-0.401559 0.221929
0.096821 -0.007463
-0.130778 0.196805
-0.054309 0.230567
-0.017257 0.040958
-0.208677 0.382125
0.277597 -0.688716
-0.006821 0.228551
0.233940 0.159530
-0.114473 0.084471
-0.197599 -0.030645
0.051398 0.348773
-0.195507 -0.073477
-0.236302 0.120088
-0.259581 -0.222715
0.321076 -0.008526
-0.071704 -0.014584
0.120789 0.174735
0.317160 -0.022285
0.124122 -0.001893
-0.054522 -0.047218
0.121815 0.013846
0.145983 -0.012886
0.010817 0.094971
-0.006727 0.101767
-0.202548 -0.023501
0.310038 -0.181278
0.161360 0.029749
-0.192533 0.180175
-0.170645 -0.214561
-0.080969 0.131311
0.256944 0.251263
-0.077936 0.281728
0.113676 0.163622
0.157786 -0.418952
-0.141824 0.018217
0.102460 0.036403
0.263609 0.153148
-0.130992 -0.006894
-0.226805 -0.142043
0.143819 -0.314832
0.248200 -0.106706
-0.036430 0.021681
-0.034935 -0.150477
0.014040 -0.176141
-0.537067 -0.261178
-0.150068 0.306803
0.145618 -0.244288
-0.083513 0.298559
0.439486 -0.189407
-0.413318 -0.050793
-0.119908 -0.009276
-0.211365 0.073460
-0.106973 0.274267
0.205310 0.113261
0.137591 -0.139410
-0.363531 -0.087320
-0.174930 0.314194
-0.147411 -0.271173
-0.106811 -0.357946
0.045351 0.144729
-0.075272 -0.011941
0.356200 0.192764
-0.177973 0.368661
0.117463 0.159405
0.257361 -0.313515
0.116234 -0.249188
-0.062981 0.365867
-0.259669 0.224647
0.047820 0.069635
-0.248660 0.243081
-0.461306 0.043513
-0.219754 -0.332429
0.133646 -0.027760
-0.020365 -0.461836
0.216398 0.300407
0.092145 0.233583
0.174632 0.104772
0.027896 0.108203
0.230584 0.080384
-0.294026 0.419579
0.064712 -0.090287
0.107023 -0.023225
0.152308 0.317482
-0.270925 0.081562
-0.333748 -0.237844
0.044200 0.099575
-0.209349 0.065767
-0.165636 0.057521
-0.093880 -0.034540
0.013568 -0.101274
0.067541 -0.115935
0.201703 -0.019895
0.250417 0.177967
0.068432 -0.117824
-0.280344 -0.062094
0.364718 -0.236009
0.218637 -0.011151
0.438059 -0.253656
0.168073 0.416928
0.089555 0.139632
0.284698 -0.081374
-0.425010 -0.481435
0.113615 -0.282247
-0.080397 0.022725
0.137412 0.209428
-0.293401 -0.605389
-0.746356 0.502197
0.059788 -0.282739
-0.497291 0.076949
0.276695 0.042140
-0.820267 0.712312
0.407859 -0.125141
-0.459306 -0.202793
-0.121644 -0.150478
-0.028617 0.002250
0.276388 0.512855
-0.051364 -0.213670
-0.793913 1.185608
-0.390732 -0.549540
-0.759357 -0.018609
-0.148255 0.200091
-0.842558 0.804429
0.216862 -1.190246
-1.185746 0.956585
1.130223 -0.808197
-0.468914 -0.946220
0.141244 1.594129
0.801748 -0.413295
1.300881 1.256334
-2.373700 0.099826
2.053088 0.733663
1.581626 -0.667174
2.240986 -0.676205
-0.361610 0.824231
1.520210 -0.183189
0.993805 0.933382
-0.137493 -3.091513
-1.460206 0.126956
2.687818 -2.731360
1.274988 -0.076173
-8.433464 1.983823
-4.161349 -7.395489
-0.518628 -0.738659
-6.449441 -6.264012
-0.472941 11.214930
-9.925179 -1.569439
-0.720659 1.125185
-13.570537 17.330251
-5.598226 -8.048503
27.696150 25.958679
-17.150587 -1.025962
9.048540 31.495476
-12.690551 0.893110
384.384056 -317.075434
