4765.385388 3978.030589
-1082.675442 1310.293047
-38.310223 64.794976
81.539031 -43.310110
-36.389260 -66.393549
-59.573293 -122.400205
-72.616824 31.449602
-79.365465 -20.305845
49.812121 -27.971258
-48.297315 24.472436
-15.082129 32.663626
-5.096808 -26.076288
-8.195099 -3.367631
4.450600 -13.513405
-0.012776 -8.929704
-22.932656 -20.449196
14.854984 2.087400
-8.450261 4.671053
-8.917793 -1.877277
-4.931735 -5.066161
-2.628598 -7.173806
-1.427787 -3.309737
5.172049 -1.061514
-10.935610 -6.907111
4.391499 1.356327
-6.173399 0.056770
-4.781357 -2.198887
-4.526409 -3.898982
-1.076181 -2.180725
-1.109200 -4.333148
-1.811679 0.089684
-5.696987 2.607764
2.286780 -4.009573
-10.395189 2.064887
1.934578 3.085399
-1.014416 -6.510569
-4.234366 2.231633
2.673958 -2.032552
0.374324 -1.480524
-2.613128 0.800943
-1.149667 0.319156
-2.353989 -0.474368
-1.857013 -1.509044
-1.068111 1.853099
0.167991 1.393151
-0.681933 -2.250528
-0.187367 1.370955
0.548944 2.205415
-3.006198 -0.225675
0.125755 0.404147
0.711473 0.272433
1.340175 1.358800
-1.517123 0.120909
0.884806 -0.581352
0.818802 -0.052785
-0.281863 1.060269
-0.843824 -0.513205
-0.737733 -0.612780
0.784495 0.353593
0.729796 0.492874
-0.745484 0.580257
1.326529 -0.131900
0.999572 0.243717
-0.006589 1.725645
0.802589 -0.822845
-0.213753 -0.794656
1.554442 0.213125
0.790504 -0.134621
-0.269454 0.675517
0.516516 -0.543575
-0.295766 0.754350
0.206375 0.079453
-0.562581 -0.815667
-0.169721 0.624796
1.056826 -0.996183
-0.395448 0.477271
-0.250072 0.529052
0.642602 -0.095336
-0.264866 -0.288938
-0.090503 0.478401
0.009773 -0.148912
0.206599 0.104145
0.243455 -0.627203
0.291400 1.027802
0.039478 -0.570837
0.053444 0.342163
0.055608 -0.381103
0.353904 0.072712
-0.278952 -0.195326
-0.035404 0.341382
0.622565 -0.033880
-0.188411 0.435384
-0.292436 -0.306848
0.152029 0.130813
-0.174607 -0.329694
-0.306801 0.488600
0.228006 -0.208581
-0.046432 0.211965
0.281350 0.090882
-0.261952 0.303479
-0.144117 0.649943
0.425810 0.186986
-0.787054 0.024174
0.249654 -0.008475
0.161705 -0.306253
-0.346722 0.168896
0.223132 0.204750
0.121438 0.383189
-0.337175 0.049507
-0.241423 -0.176768
-0.085703 0.279408
0.159815 -0.526951
0.068625 0.438484
0.098703 0.434223
0.225666 -0.261156
-0.091451 0.163819
-0.261208 0.182326
-0.284233 -0.201028
-0.512966 0.237785
0.066620 -0.102169
0.125535 -0.178947
-0.551525 -0.311449
0.023597 -0.000341
-0.159386 -0.231183
-0.024959 0.544159
-0.128599 -0.188555
-0.019301 -0.110147
0.161940 0.026900
0.329726 0.294137
-0.082811 0.166572
0.090465 -0.160512
-0.055945 0.303312
0.100110 -0.051717
-0.068161 -0.361098
0.047965 -0.073675
0.378320 -0.442440
0.207712 0.144330
-0.090283 0.081837
0.100920 0.044438
0.188977 0.011762
-0.170242 0.030030
-0.001826 -0.244554
-0.341583 -0.137718
0.098885 0.113373
0.100700 0.565179
-0.126043 0.297901
0.160391 -0.286837
-0.078593 -0.140757
-0.395100 0.111783
0.093183 -0.459922
0.083938 0.389759
0.090291 0.010904
0.035106 -0.022469
0.116628 -0.010844
-0.136341 0.102752
0.027131 -0.058376
-0.060944 0.086412
-0.263658 -0.087500
-0.220433 -0.087633
-0.227778 -0.413137
-0.216421 -0.200086
-0.219209 0.064039
0.199270 0.107892
-0.134136 -0.232751
0.186180 -0.022580
-0.254382 -0.204959
0.020880 -0.246822
0.153798 0.301042
-0.120326 -0.176242
-0.231245 -0.046972
-0.216881 0.105635
-0.152944 0.076472
0.027080 -0.050041
0.025874 -0.198750
0.140685 -0.115706
-0.165198 -0.134234
-0.209756 -0.296139
-0.096709 0.178369
0.272334 -0.266021
-0.133950 0.089299
0.185075 -0.233062
0.132641 0.020257
0.071429 0.264857
0.285381 -0.058564
0.016697 -0.104452
0.018200 0.295254
0.121120 -0.015967
0.088848 0.005395
-0.083470 -0.083461
-0.310621 0.247449
-0.042011 0.176296
0.171533 -0.055636
0.162162 -0.054834
0.084125 -0.058999
0.041447 -0.258713
-0.205275 0.130102
-0.123810 0.231088
0.063915 -0.078826
0.241684 -0.332099
-0.035374 -0.000599
0.149444 0.286325
0.603954 0.149353
-0.023228 0.060538
-0.156066 0.153396
0.132389 0.189581
0.143755 0.053600
-0.018884 -0.090747
-0.051675 0.077988
0.095909 0.020209
0.153246 0.239084
0.037248 -0.127205
-0.079063 -0.132924
0.370120 0.055491
-0.087755 -0.148898
0.201352 -0.281759
-0.037437 -0.014024
0.075795 0.244194
0.176904 0.034936
-0.003546 -0.090008
-0.202624 -0.079917
-0.020096 -0.058823
0.148420 0.319088
0.113762 -0.063705
-0.063800 0.108963
-0.121629 0.254629
-0.027283 0.026207
0.233208 -0.153547
-0.176344 -0.323520
-0.013995 0.034486
0.168044 0.049778
-0.013547 0.016154
-0.026294 -0.025617
0.037679 -0.214584
0.339224 -0.125107
-0.349291 -0.381912
0.017842 -0.021282
-0.041356 -0.020840
0.003814 -0.045773
-0.256629 -0.292462
-0.167262 0.044348
-0.107966 0.079391
-0.069491 0.012705
0.232829 -0.066362
-0.158022 -0.096130
-0.102741 -0.109292
-0.232890 -0.259275
-0.048579 0.006954
0.037504 -0.057483
-0.009611 -0.303744
0.269791 0.219738
0.295289 0.124973
0.060428 -0.298641
0.042754 -0.098061
-0.216205 0.047222
0.150458 -0.102298
-0.014995 -0.346828
-0.238529 0.065429
-0.214578 -0.049160
0.101694 -0.097939
-0.022364 0.101490
-0.147194 -0.027976
0.244234 -0.086731
-0.096381 0.013849
-0.213150 -0.158575
-0.237420 -0.058202
0.207387 0.242317
-0.035207 0.081827
-0.104621 0.039792
0.151093 -0.099988
-0.413953 0.099773
-0.242320 -0.384182
0.249667 0.107658
-0.116082 -0.246770
0.106628 -0.247000
-0.133709 -0.136943
-0.435278 -0.067601
0.105397 0.102126
-0.004344 0.048926
0.335406 -0.104353
-0.178412 -0.033092
-0.149737 0.155821
-0.034108 0.253367
-0.089633 -0.076981
-0.284879 0.002684
-0.240287 -0.312198
-0.141694 0.115713
-0.194225 -0.002626
0.245229 -0.298601
-0.023212 0.072674
-0.028359 -0.229759
0.018532 -0.213350
0.042000 0.180710
-0.150700 -0.213666
0.209417 -0.094997
-0.151709 0.153668
0.060459 0.079776
-0.093648 0.115201
0.231319 0.116461
-0.251080 0.065603
0.249644 0.360473
-0.267501 -0.009692
0.013529 0.026319
-0.027032 0.219869
-0.194012 0.096500
0.196418 0.058216
0.117996 -0.065211
-0.249014 0.070257
-0.019243 -0.069188
0.017685 -0.036810
-0.161579 -0.243798
-0.150733 0.002147
-0.122206 -0.062581
-0.051134 0.387010
-0.188129 -0.326731
0.265806 -0.079635
-0.225727 0.131589
-0.074722 0.037579
0.057683 0.210586
-0.107739 0.214406
-0.264103 0.277295
0.200735 -0.009980
-0.043055 -0.134499
-0.124839 0.097981
0.066505 -0.136719
-0.209307 0.044738
-0.253529 0.162960
0.098269 -0.350412
-0.064763 0.052976
-0.261941 -0.273338
0.149662 0.272237
0.004283 -0.156489
-0.082606 -0.122649
-0.059800 -0.079398
-0.250309 0.030077
-0.011134 -0.173464
0.150743 0.010533
-0.087285 -0.106193
0.018372 0.262978
0.088791 0.062240
0.230522 0.188606
-0.144569 -0.213692
-0.004363 -0.245846
-0.191180 0.191180
-0.051803 0.001907
0.368288 0.055009
-0.075482 0.067965
-0.039720 0.067037
0.013039 -0.188794
-0.191163 -0.213840
0.037600 0.187837
-0.209063 -0.121471
0.034532 -0.010622
0.060779 0.067392
0.161523 -0.204735
0.014508 -0.003059
-0.039750 0.035645
0.258207 -0.362917
0.009617 0.119681
-0.365641 -0.059463
0.320326 -0.155479
-0.006653 -0.062047
0.047211 -0.126031
0.051177 0.052168
-0.126221 0.129869
0.002652 0.067873
0.175797 0.057523
-0.287139 0.169716
-0.230265 0.119995
-0.065622 0.097120
0.216997 0.333664
0.000720 0.242888
0.197467 -0.286682
-0.238316 0.230632
0.033242 -0.117966
0.013561 -0.175350
-0.114712 -0.145277
0.046497 0.303360
0.122619 -0.111033
0.211812 0.366159
-0.175656 0.101578
-0.430742 -0.160690
0.142567 -0.086730
0.009501 0.342183
0.070504 -0.011379
-0.101394 0.283861
-0.205253 0.536776
0.277257 0.228501
-0.247336 0.141304
-0.178205 -0.012629
0.049099 -0.119467
0.006250 0.351071
-0.027339 0.155431
-0.069168 0.013038
-0.064966 0.019553
-0.131689 -0.175349
0.035382 -0.040584
-0.040236 0.099169
0.074564 -0.589014
0.012897 -0.109190
-0.084977 0.263902
-0.081024 -0.035357
0.127902 -0.018579
0.304162 0.110431
0.143851 0.130975
-0.201747 0.042069
0.065889 0.154673
-0.116926 0.187820
0.048670 -0.148102
-0.265563 0.200563
0.174913 -0.258570
0.028154 -0.024505
-0.145129 0.025352
0.417131 -0.094130
-0.128499 -0.381615
-0.143812 -0.537472
0.120874 0.158152
-0.381749 0.344134
-0.021617 0.242534
0.298700 0.043706
-0.112046 0.140969
0.073298 -0.103111
0.074081 -0.139141
0.071238 0.266368
-0.033170 -0.035095
0.001398 -0.052089
-0.160515 0.008121
-0.156466 -0.295706
0.249002 0.180096
0.213948 -0.000168
0.092283 -0.221269
-0.098834 -0.124973
-0.106844 -0.063614
-0.237568 -0.007104
-0.086035 -0.352968
-0.325126 0.124780
-0.098573 0.454730
0.133629 -0.416392
-0.013143 -0.025042
-0.133277 0.015489
-0.149279 -0.475407
0.161269 -0.050955
0.192491 -0.151627
-0.134047 0.054337
0.165209 -0.118087
-0.080792 0.129021
-0.025620 0.081373
0.033968 -0.090979
0.020963 -0.315777
0.295359 -0.113163
-0.151140 -0.202064
0.154617 -0.149640
-0.465570 0.009357
-0.187232 0.122046
0.136438 -0.163906
-0.009424 -0.170502
-0.362394 -0.171030
0.052231 0.233166
0.062149 -0.020436
-0.064179 0.117321
-0.066001 -0.022672
-0.028176 0.235492
0.023767 -0.029985
0.098818 -0.045497
-0.258835 0.351767
0.155611 0.066080
-0.059908 0.103903
-0.072453 0.041250
-0.306209 0.265343
0.256373 0.133429
-0.161702 -0.277591
-0.046650 0.101412
0.090113 0.179366
-0.146198 0.298777
0.059305 -0.098834
0.141014 -0.290024
-0.128208 0.047969
-0.148730 0.136959
0.202096 0.219470
0.436428 -0.053737
-0.351490 0.042028
-0.313309 0.386478
0.228501 0.056173
0.089544 -0.053436
-0.406343 0.153861
-0.232827 0.518376
0.117850 0.088975
-0.125485 -0.059018
0.205982 0.060806
0.210800 -0.113448
0.146177 -0.270919
-0.278931 -0.123018
0.319485 0.214831
-0.017091 -0.009577
-0.269250 -0.160427
0.066479 -0.045298
-0.070052 0.061418
-0.076691 0.246531
0.073070 0.077184
0.018642 0.069206
0.164526 0.146805
-0.194932 0.198387
-0.540269 -0.046033
-0.031543 0.043645
-0.284940 0.188532
0.044079 0.014568
-0.068145 -0.025308
0.030664 0.000117
0.157773 -0.177854
-0.203700 0.039581
-0.233297 -0.186001
-0.108391 0.019350
0.185964 0.216857
0.082903 -0.077490
0.076472 -0.076472
0.136995 0.259232
-0.012574 0.304493
0.225285 0.055656
-0.246962 0.153012
-0.045713 -0.263162
0.187987 0.196381
-0.289245 0.002617
0.422558 0.142283
-0.041921 0.281751
0.131686 -0.021713
-0.085682 -0.406179
0.217350 0.226420
0.524043 -0.294450
0.274117 0.119105
0.193150 -0.107994
0.062457 0.056653
-0.241247 0.194014
-0.434905 0.219531
0.252334 0.039508
-0.002452 -0.020874
-0.303295 0.225517
0.072333 -0.140187
0.156509 0.112512
0.043603 0.315713
0.067633 0.197856
0.420201 -0.053821
-0.056084 0.069654
-0.220405 -0.096663
0.154660 -0.196205
-0.209083 0.116291
0.074976 0.488241
0.210380 -0.385625
-0.383889 0.111253
-0.283010 -0.276571
-0.567099 0.127443
-0.146878 -0.016037
0.011261 0.024633
-0.013827 0.135480
-0.005587 -0.138421
-0.055405 0.092688
0.258637 0.174459
-0.095435 -0.363998
-0.210742 0.001059
-0.238875 0.162327
0.011713 -0.044827
0.064558 0.017137
-0.210812 0.100048
-0.213499 -0.244828
0.341062 -0.045526
-0.211935 -0.058732
0.699510 -0.015471
0.075714 -0.324494
0.486098 -0.057808
-0.119082 0.132265
0.316660 -0.010021
-0.050532 -0.126950
0.424346 0.069977
0.063098 -0.038203
-0.197678 -0.465650
-0.333021 -0.243897
-0.016697 -0.065423
-0.225540 -0.038522
0.297407 -0.008111
0.114721 0.013854
-0.076354 0.011153
0.046853 -0.352706
-0.313585 -0.331371
0.078321 0.084188
-0.020269 -0.314644
0.051151 0.215158
-0.368988 0.075685
-0.258870 0.281469
-0.041306 0.030887
0.116551 -0.018986
-0.038441 0.286882
0.264631 -0.207147
-0.846488 -0.589507
0.359861 0.385762
-0.254219 -0.198084
-0.161761 -0.185378
0.230447 -0.088013
-0.141202 0.010943
-0.454937 0.557532
-0.913103 -0.362109
0.119512 0.045978
-0.209115 0.328880
-0.607559 0.374497
0.096005 0.120880
0.756706 0.245152
-0.348486 0.700539
0.381370 0.460843
0.159412 -0.534701
0.832869 0.415306
-0.128709 -0.469537
0.196955 0.015215
0.315298 -0.042825
0.224942 -0.202818
-0.517825 0.253412
0.285524 0.239177
0.458436 -0.096236
0.300965 0.361856
0.128468 0.383429
0.968552 0.637777
-0.115072 -0.012612
-0.037853 -0.295370
0.809826 0.150394
0.566202 -1.064102
-0.522885 -0.238223
-0.671978 -0.606847
0.801185 -0.203724
-0.907888 -0.927387
-0.649397 0.201650
0.188408 -0.606257
1.040876 0.462582
-1.477150 -0.760475
-0.399683 1.136611
1.277925 -1.735274
-0.655092 -0.334632
0.041618 1.267465
1.164658 -0.499908
-0.263205 0.036805
-0.653367 0.081083
-0.538964 0.999641
0.632308 -1.654337
-3.149711 -0.895782
3.201271 2.556119
0.150023 -1.209477
-2.952508 -0.082526
1.253495 3.032738
0.427661 -1.763114
-2.586348 3.194226
0.412961 -2.818974
0.943625 1.912240
3.643818 -2.246622
-5.407166 3.463174
1.638040 0.775384
1.140870 -1.764699
-2.827969 3.120420
2.525350 2.884411
2.458110 -4.262961
4.764286 5.463441
2.655716 2.523355
-1.256503 1.544814
2.006196 -4.792483
0.767181 -2.667679
-2.012686 1.184069
5.537804 -4.444939
-1.070350 1.554348
2.907050 3.607773
-8.887267 3.907765
0.978058 -2.580738
-2.677941 3.462639
2.152385 -5.401480
2.112041 4.933330
20.729357 -3.655245
-10.383274 10.891056
5.472274 -2.310467
15.442028 -21.521217
-11.122583 -21.180091
0.784958 -0.626122
-0.557809 -55.678723
-16.348406 2.045098
-15.352724 7.660167
-63.510904 67.998405
-51.046190 -76.458996
-2.964202 52.094517
-64.612930 137.960233
3.886619 -90.169208
-209.589709 242.723246
-369.338520 -16.974904
