595.923986 248.574635
-52.135616 -118.080786
-44.084353 -48.999394
-36.447458 -20.942747
-24.771418 -32.122126
-13.363390 -49.139359
-21.282504 -23.844636
4.970675 -37.724933
-15.301719 4.266477
-14.590745 6.056681
-10.736099 1.415550
-14.241974 0.724926
-15.686600 -1.200582
2.704041 -5.401433
-1.771835 1.739806
3.036708 3.932751
0.087110 4.020734
0.029898 4.628111
3.605402 4.949122
5.817424 3.442614
-5.123985 -2.350044
3.663146 -3.163716
6.175298 -4.323179
7.194934 -2.092949
4.950448 1.196546
0.671900 0.356080
-1.688205 -3.446527
0.561134 -4.894356
-0.045153 -6.568775
1.910431 -4.504716
0.751291 -3.884001
-1.062619 -3.363663
-2.703432 -2.388527
-2.924329 -0.220613
-5.041287 -0.764086
-4.378267 -1.046538
-3.279112 -2.682876
-1.232700 -0.918125
0.199053 1.429136
-1.648457 2.594901
-2.541481 2.028117
-2.467949 2.164676
-1.019050 0.591660
0.172054 0.161604
0.812793 0.072882
1.527621 0.521108
2.243364 1.029276
2.628443 1.137664
1.178784 1.171271
1.093894 -0.595665
-0.254874 -1.205653
0.470532 -3.041652
2.040878 -3.205391
1.596834 -2.044348
1.055038 -0.891921
-1.559696 -1.576061
-1.124280 -1.846469
-1.165332 -2.270910
-1.782936 -1.813449
-1.552451 -1.725788
-1.201292 -1.224516
-1.472203 -0.977752
-1.827402 0.359314
-1.637846 1.007905
-2.897381 1.167126
-2.915090 0.187554
-1.329750 -0.076168
0.333468 0.688287
1.244160 1.836898
0.231231 2.124640
-0.433186 1.615616
-0.066865 0.859105
0.401800 0.655733
0.793390 0.043965
0.893672 -0.166540
1.638491 -0.916750
2.180816 -0.155461
1.456671 -0.505382
0.317612 -0.435089
-0.092887 -1.038498
-0.601041 -2.013806
-0.000955 -2.738150
0.840089 -2.290602
-0.213342 -1.164081
-0.685101 -0.402677
-1.600361 -0.801920
-1.908648 -0.844964
-2.082820 -0.428767
-2.170783 -0.330883
-1.792028 -0.835472
-1.206174 -0.287776
-0.428418 0.324136
-0.642056 1.315273
-1.624111 1.764149
-1.934084 1.120075
-0.854530 0.306890
0.085690 0.381185
1.329676 0.709031
1.321912 1.042435
0.770128 1.141107
0.607815 0.657250
0.673006 0.163715
0.658837 0.004467
0.435405 -0.878755
0.368982 -1.103541
0.935422 -1.308864
1.343114 -0.913050
0.541289 -0.467695
-1.082284 -0.408815
-1.209839 -1.023172
-1.463256 -1.886139
-0.863848 -1.645066
-0.636054 -1.080475
-1.275574 -0.520943
-1.055336 -0.244583
-1.479371 0.422946
-1.964337 0.602312
-1.759431 0.733194
-1.851429 0.527381
-0.882714 0.074957
-0.276474 0.518036
0.197277 1.272251
0.068345 1.910040
-0.373778 1.727444
-0.499929 0.788591
0.329925 0.318046
0.755929 0.125988
1.249792 0.027834
1.206024 0.191301
0.830153 0.055669
1.076692 -0.269244
0.572505 -0.481362
-0.082157 -0.627162
-0.459075 -1.112071
-0.571087 -1.852108
0.403442 -1.591797
0.148077 -0.809835
-0.505085 -0.350154
-1.480439 -0.115869
-1.804936 -0.580686
-1.815756 -0.830588
-1.446581 -0.458911
-1.383221 0.026946
-1.155785 0.548619
-0.838639 1.022490
-0.711173 1.318136
-1.158051 1.784049
-1.387525 1.665426
-0.956017 1.038424
-0.069314 0.626582
0.957211 0.522609
1.322629 1.548802
0.848603 1.653051
0.172520 1.051611
-0.076342 0.031839
0.821494 -0.407115
0.938729 -0.906116
0.852605 -0.914885
1.003770 -1.100124
0.982030 -0.957161
0.711831 -0.508844
-0.390472 -0.436630
-1.531885 -1.189536
-1.302232 -1.610971
-0.887338 -1.826010
-0.486649 -1.105394
-0.237650 -0.155248
-1.440885 0.687426
-2.212626 0.906630
-2.566835 0.334745
-1.625906 0.608575
-1.647852 1.039317
-1.190777 1.273118
-0.351718 1.264078
0.233144 1.465810
0.021784 2.836556
-0.302183 2.249018
-0.550448 1.850271
0.041562 0.226229
1.336091 -0.091592
2.239422 0.209208
1.744805 0.805234
0.851389 1.081475
1.279856 -0.386648
0.422981 -0.559047
0.314326 -0.926061
0.208731 -1.156132
0.042875 -1.792843
0.324741 -2.181147
0.125988 -1.007905
-0.683501 -0.753670
-2.130572 -0.157482
-3.132596 -0.506568
-2.501745 -1.103164
-1.378377 -1.174820
-0.787333 0.018784
-1.411166 0.923664
-1.555198 2.270334
-1.560959 2.567942
-1.426925 2.919244
-1.568686 2.709469
-0.849272 2.002157
0.027075 1.045060
1.641852 2.085965
1.991971 1.555408
2.549231 2.951936
1.028928 2.457075
1.010059 0.724734
1.676650 -1.161895
2.201622 -1.420968
2.908872 -0.717648
2.206968 -0.166422
0.894934 -0.927565
0.958583 -1.603772
-0.204357 -2.108359
-1.365949 -2.275547
-2.039756 -2.638379
-1.032293 -3.143901
-1.292636 -3.508324
-1.992466 -0.365170
-3.224967 0.881954
-5.319285 1.161550
-6.521001 1.298831
-4.341293 0.209000
-1.770951 1.843354
-0.467590 3.320716
-1.492941 4.557384
-1.149340 4.804115
-0.053097 4.381687
0.381581 5.384834
-0.011302 4.532183
-0.187327 2.429189
4.965287 0.456830
7.574232 0.717165
5.497028 1.340559
4.517246 0.981643
6.240848 2.339782
6.154570 -0.616562
-3.671583 -8.912851
4.762771 -7.988879
6.247066 -5.243142
8.416849 -5.153026
0.836093 -11.481585
-7.396319 -11.537583
-5.226473 11.344497
-37.142298 -23.876562
-20.971142 21.299248
-39.448660 -19.342444
-40.652216 -43.864851
-40.325943 1.628980
-51.090367 107.793865
-74.623044 282.102204
