2362.594203 1304.482256
-1193.628231 578.433457
-396.283880 -326.330845
54.732997 -252.275642
107.813245 -24.021056
40.739064 27.935976
-15.181494 -135.772370
-129.074939 54.533018
-41.843154 -56.030267
16.693898 -1.777791
-8.533484 8.562958
12.538412 -2.084981
-9.187830 -51.279943
-36.772167 10.234352
-3.726955 -18.539557
5.313802 5.381908
-10.963982 6.228654
-4.432045 0.964640
-5.639769 -7.381634
-10.902210 -7.721297
2.057048 -12.913007
10.123554 4.624024
-2.346555 8.062612
-8.617352 1.614978
-4.967294 -6.204837
-4.332270 -6.799279
7.885342 -3.121335
3.895904 6.477161
-3.687080 3.449433
-5.215664 -0.071452
0.608233 -0.115673
4.977211 -1.661511
5.008614 5.952317
-1.853434 1.427270
-1.775683 3.304255
1.890982 -1.712857
3.174992 -8.569171
2.738927 1.496873
0.655251 0.963931
-4.596559 5.401766
-6.229776 1.581471
-3.241240 -0.904074
-1.523000 -6.110408
3.444015 -2.259244
-0.454081 0.749782
-5.995008 2.452720
-4.005459 -5.753759
4.732449 -0.852830
2.501726 1.665351
0.757776 3.439357
-2.153965 1.215351
-4.985861 -0.372297
-1.748194 -3.903529
1.274969 -0.509495
-0.558487 -1.408175
0.570121 1.809151
-1.323773 0.811296
-3.502271 -2.383571
1.560179 -1.726636
3.537274 2.017714
0.839537 1.514571
-0.576114 3.095486
-1.907031 -0.753531
-0.971790 -1.991111
0.614543 -0.453985
2.709498 1.476136
0.875801 1.051546
-1.961617 1.653974
-2.042694 -1.784699
0.841616 -2.348328
1.702268 -0.549510
0.082985 2.351456
-1.394869 1.525019
-2.771684 0.120751
-0.153814 -2.270294
1.874268 -1.627065
2.324942 2.025435
-0.418498 2.342089
-2.074872 0.238700
-1.503259 -1.700084
0.756317 -1.257894
0.926362 -0.167243
1.121843 1.574119
-0.430827 1.065325
-0.716454 0.024972
-1.283435 -1.533957
1.085455 -0.907437
1.697178 0.599154
0.334698 1.744572
-2.213887 0.130395
-0.691239 -0.890704
0.799841 -1.886781
1.288390 0.096102
0.895555 1.493368
0.168066 1.646763
-2.254252 0.071194
-0.304486 -1.541050
1.263578 -1.603358
0.325751 0.902113
0.135163 1.147702
-1.164812 0.581081
-1.954623 -0.666909
1.089351 -1.370279
1.403138 -0.078043
0.320121 1.442069
-0.179402 0.574639
-1.109626 0.244262
-0.502614 -1.680912
1.863686 -0.415235
1.429160 0.035529
-0.147996 1.750382
-0.312539 0.751607
-1.272418 -1.321226
0.025772 -1.333557
1.575226 -0.172395
0.515441 1.325794
-0.869223 0.586349
-1.276381 -0.389553
-0.841022 -1.085323
0.859708 -0.605289
1.000641 0.688950
0.169587 1.086002
-1.925796 0.841730
-0.864170 -0.404347
0.247113 -1.511995
1.228080 -0.291602
0.621482 1.068724
-1.269542 1.216558
-1.495889 -0.140316
-0.208632 -1.155927
0.636625 -0.452073
0.508444 0.495317
-0.182479 1.235742
-1.696370 0.114164
-0.402832 -1.156032
0.605781 -0.958902
1.110915 0.123505
0.564047 1.094462
-1.121474 0.808859
-1.109386 -0.470942
-0.436700 -0.900910
0.547384 -0.033722
0.842970 0.588297
0.160035 0.949683
-1.639603 0.721792
-1.171496 -1.073508
0.451189 -1.373388
1.085770 -0.636798
0.178441 0.512821
-0.498201 1.027815
-0.660954 0.195617
-0.237912 -0.842533
0.934042 -0.408204
1.018855 0.529682
0.248795 0.709618
-0.614093 0.005698
-0.846745 -0.296968
0.623927 -0.839959
1.568622 -0.203342
0.683466 1.082004
-1.061481 0.980602
-0.988356 -0.288418
-0.205109 -0.494875
0.667762 -0.596632
0.853006 0.466238
-0.017648 1.144667
-1.027362 0.428965
-0.223757 -0.435950
0.712850 -0.607158
0.767862 -0.425521
0.442918 0.700294
-0.678752 0.628502
-1.189945 -0.710865
-0.048162 -0.518215
0.604751 -0.531387
0.802598 0.136732
0.032784 0.984991
-0.737766 0.764264
-0.733194 -1.005681
0.616892 -0.770776
0.425940 -0.185606
0.471819 0.625447
-0.452064 0.705965
-1.063968 -0.144984
-0.180537 -0.892016
0.785403 -0.718366
0.436670 0.210527
0.013762 0.745541
-0.502959 0.282395
-0.586419 -0.893261
0.373434 -0.409392
1.043019 -0.187612
0.429220 0.624496
-0.371184 0.731109
-0.891505 -0.454304
0.047620 -1.057209
1.073182 -0.500196
0.791911 0.926137
-0.092762 0.852335
-0.501435 0.237795
-0.841672 -0.433654
-0.064903 -0.583004
1.005225 0.129244
0.404687 0.311370
-0.608643 0.533545
-0.560172 -0.399580
-0.306467 -0.779013
0.535801 -0.697295
0.843080 0.373641
-0.146446 0.798594
-0.917932 0.297699
-0.448627 -0.195707
0.027521 -0.610543
0.981170 -0.036027
0.660494 0.924373
-0.376330 0.788844
-0.973757 -0.537018
-0.122426 -0.903979
0.505844 -0.437071
0.599094 0.438248
-0.209633 0.693624
-0.712382 0.573756
-0.318703 -0.487350
0.206669 -0.755258
0.962382 -0.541619
0.447596 0.564703
-0.345620 0.578944
-1.051885 -0.001310
0.044988 -0.512646
0.691399 -0.692857
0.655785 0.362912
-0.316804 0.579853
-0.785403 0.532764
-0.591285 -0.781803
0.254361 -0.709884
0.683031 0.036053
-0.108757 0.790096
-0.732764 0.385794
-0.734225 -0.054726
-0.227812 -0.746976
0.443226 -0.333529
0.714750 0.702481
-0.183096 0.864327
-0.567599 0.490726
-0.274683 -0.580400
0.116065 -0.886003
0.728689 0.103284
0.029504 0.717277
-0.783119 0.502158
-0.514081 -0.418248
-0.190093 -0.449905
0.569184 -0.316529
0.526347 -0.043944
-0.150635 0.569716
-0.488354 0.317503
-0.356340 -0.447980
0.160739 -0.911447
0.698965 -0.152335
0.427961 0.818970
-0.144898 0.740440
-0.760089 -0.455200
0.066863 -0.638904
0.623052 -0.237025
0.498313 0.420153
-0.053342 0.396433
-0.675376 0.289487
-0.344585 -0.558615
0.541266 -0.678500
0.956421 -0.073490
0.301104 0.365886
-0.383219 0.471382
-0.630904 -0.409042
-0.006035 -0.865853
0.613869 -0.676127
0.253374 0.302137
0.095570 0.921461
-0.557530 0.385584
-0.521330 -0.862190
0.030913 -0.783649
0.352174 -0.077429
0.239285 0.217156
-0.664014 0.664080
-0.660881 -0.252616
-0.115308 -0.455803
0.565551 -0.491465
0.637249 0.550375
-0.111454 0.593834
-0.785485 0.420703
-0.771873 -0.200037
0.347076 -0.776384
0.592114 0.246739
0.295119 0.265507
-0.122368 0.642535
-0.730126 -0.365550
0.121529 -0.466897
0.466214 -0.514690
0.717381 0.266389
-0.191894 0.593512
-0.836969 0.231515
-0.087356 -0.373676
0.189621 -0.676342
0.361799 -0.094448
0.348487 0.656775
-0.549013 0.590211
-0.315670 -0.337950
0.133923 -0.631493
0.677319 -0.501775
0.797509 0.403672
-0.118167 0.430802
-0.317960 0.230313
-0.839853 -0.477319
0.290846 -0.821866
0.055573 -0.140326
0.308081 0.905206
-0.537730 0.584089
-0.909744 -0.379608
-0.046421 -0.693491
0.535784 -0.343055
0.743797 0.135988
-0.147159 0.426021
-0.424835 0.424341
-0.348380 -0.694145
0.003030 -0.432199
0.446068 -0.188861
-0.037629 0.861148
-0.404971 0.483258
-0.420066 -0.057955
-0.027521 -0.878724
0.844650 -0.188351
0.248079 0.509600
-0.052917 0.921840
-0.387081 0.420982
-0.391957 -0.541294
0.231246 -0.777964
0.793328 -0.210745
0.181943 0.921986
-0.549561 0.333515
-0.695449 -0.097842
-0.351031 -0.807088
0.640788 -0.444221
0.444055 0.087112
-0.134733 0.401143
-0.702079 0.570081
-0.589224 -0.418323
0.291884 -0.356722
0.873041 0.202713
0.304588 0.787813
-0.974794 0.503561
-0.438497 -0.200548
-0.071232 -0.623979
0.561783 -0.582888
0.541639 0.185227
-0.524644 0.336338
-0.795944 -0.007484
-0.426456 -0.273319
0.199078 -0.287735
0.786951 -0.332464
0.173218 0.575257
-0.612754 0.631038
-0.840186 -0.431215
0.000566 -0.296495
0.388350 -0.282958
0.506901 0.200660
-0.191121 0.681086
-0.771556 0.313467
-0.045958 -0.268275
0.172249 -0.870049
0.041769 -0.147658
0.069342 0.191600
-0.685136 0.516445
-0.420106 0.041976
0.175646 -0.810169
0.627462 -0.070387
0.628308 0.041370
0.378034 0.730586
-0.704219 0.183879
-0.227241 -0.518550
0.319542 -1.178789
0.757602 0.136247
0.038866 0.661470
-0.510933 0.261565
-0.519777 -0.210690
-0.000595 -0.610069
0.553919 -0.444739
0.698412 0.319260
-0.438080 0.832727
-0.703517 0.349963
-0.727203 -0.072446
0.269570 -0.674767
0.479320 0.074837
0.321864 0.424129
-0.392264 0.443473
-0.500004 -0.350927
-0.237433 -0.778618
0.601365 -0.305028
0.104778 0.572973
0.017067 0.373638
-0.744487 0.135644
-0.088373 -0.829101
-0.069196 -0.503219
0.561285 -0.028201
0.470279 1.174971
-0.369843 0.839648
-0.442029 -0.109722
-0.317000 -0.540604
0.653420 -0.541021
0.632826 0.323250
-0.182689 0.847574
-0.941486 0.153501
-0.557481 -0.704215
0.350140 -0.445150
0.239562 0.009440
0.171832 0.543918
-0.204504 0.360829
-0.964953 -0.038254
0.411058 -0.801104
0.777106 -0.568816
0.633798 0.001410
-0.116569 0.568719
-0.738016 0.478056
-0.344262 -0.725134
0.069126 -0.631786
0.585886 -0.040362
0.389571 0.751450
-0.433059 0.633360
-0.591770 -0.179575
0.201003 -0.397907
0.513402 -0.276600
0.545079 0.659842
-0.120585 0.375525
-0.751506 0.131529
-0.610000 -0.108681
0.520655 -0.565282
0.556856 0.058350
0.305188 0.864948
-0.336697 0.407309
-0.996824 -0.375653
-0.094096 -0.413597
0.147079 -0.463091
0.851489 0.479910
-0.185647 0.278374
-1.202661 -0.054879
-0.715293 -0.793776
0.244471 -0.734484
0.862295 -0.012001
0.012037 0.802755
-0.451074 0.600445
-0.604692 -0.225927
-0.232139 -0.670915
0.556167 0.021875
0.709583 0.758882
0.123780 1.049727
-0.734837 0.201317
-0.612596 -0.382372
-0.078451 -0.641029
0.535159 0.401089
-0.194745 0.878509
-0.543031 0.523234
-0.611315 -0.811254
0.080612 -0.561263
1.057515 -0.476629
0.585199 0.449185
-0.346514 0.632522
-0.138583 0.452960
-0.800815 -0.086942
0.196725 -0.602675
0.527797 0.214975
0.163621 0.820158
-0.675218 0.518800
-0.445711 -0.680012
-0.294776 -0.575346
0.909331 -0.557262
0.922679 0.535484
-0.076556 0.782318
-1.168215 0.065635
-0.743936 -0.286188
0.202736 -0.249637
1.100481 0.067350
0.337384 0.565634
-0.105064 0.382227
-0.880402 -0.417378
-0.155285 -0.567281
0.563316 -0.639522
0.338707 0.115105
-0.319605 0.490543
-0.801992 0.216859
-0.442717 -0.828774
0.258096 -0.774877
1.024379 -0.060818
0.057386 0.401921
-0.545444 0.442088
-0.805673 -0.270083
-0.057716 -0.407798
0.987168 -0.697639
0.875909 0.691771
0.303439 0.629618
-0.886140 0.551500
-0.723451 -0.361150
0.628431 -0.436979
0.700340 0.073928
-0.058176 0.835744
-0.774814 0.643639
-0.912645 0.210192
-0.048519 -0.727236
1.081530 -0.742512
0.798592 0.506484
-0.295172 0.727355
-0.639764 -0.030648
-0.327111 -0.739379
0.977300 -0.613693
0.917585 0.373040
0.170071 0.950286
-0.862306 0.784005
-0.469507 -0.177917
-0.510334 -0.776908
0.694897 -0.322524
0.827815 0.613957
-0.319708 0.529989
-1.040616 -0.005938
-0.557664 -0.584772
-0.125650 -1.040234
0.819998 -0.268702
0.315567 0.639236
-0.527361 1.123954
-0.861419 -0.577193
0.067939 -0.789522
0.829009 -0.507291
0.905755 0.871134
-0.187555 1.100475
-0.764935 0.287797
-0.706504 -1.342778
0.229840 -0.680301
0.849677 0.206298
0.615374 0.896241
-0.883770 0.901542
-0.861832 -0.298085
-0.162081 -0.654027
1.026972 -0.012166
0.746713 0.640119
-0.735955 1.024805
-0.680904 0.499069
-0.421574 -1.090174
0.576263 -0.951240
0.795793 0.200582
0.195047 0.953602
-0.890536 0.976993
-0.760584 -0.194245
-0.285504 -1.019898
0.759400 -0.625128
0.834231 0.458629
0.067142 1.070653
-0.974857 0.365683
-0.324796 -0.361232
0.677199 -0.761860
1.314541 0.008826
0.252409 1.057410
-0.498721 1.329387
-1.425399 -0.208934
0.297961 -1.058205
0.738071 -0.567865
0.671138 0.493234
-0.666662 1.451414
-0.580580 0.657101
-0.631869 -0.975814
1.131391 -0.553165
0.815972 0.332619
-0.077534 1.112589
-0.955368 0.771202
-1.123772 -0.538254
0.693739 -0.792922
1.417078 -0.698590
0.925867 1.035111
-0.270483 1.186918
-1.285340 -0.171988
-0.884366 -1.034489
0.745208 -1.241760
0.929969 0.390408
0.672438 0.660926
-0.802028 0.616611
-0.920775 -0.178712
0.270530 -1.294066
0.420580 -0.591957
0.648619 -0.056555
-0.335615 1.390586
-1.007921 0.623467
-0.720292 -1.128084
0.729835 -0.701656
1.977507 -0.338661
0.600404 0.756840
-1.128882 1.046138
-1.616710 -0.335055
-0.338663 -1.885249
1.081634 -0.970253
1.457676 0.504962
-0.989787 1.311672
-1.385036 0.219905
-0.215584 -2.078099
1.317142 -1.945932
1.795717 0.528560
0.812615 0.958187
-0.650734 0.742402
-0.751766 -0.627446
-1.388833 -0.822275
1.234224 -0.121825
1.519625 0.689705
-0.383773 1.077122
-1.934979 0.552940
-0.814618 -1.573828
0.829155 -1.762553
1.513513 1.099441
0.586265 1.993552
-1.028891 1.547135
-1.683060 0.575606
-1.026822 -1.796148
2.009276 -1.075037
1.511542 1.276738
-0.757742 1.053037
-1.458246 0.261698
-0.440092 -1.734037
0.354580 -2.515815
1.425469 0.523092
0.891124 2.139664
-1.361642 -0.322404
-1.898026 -0.084443
-0.199649 -2.454651
2.301327 -0.819800
1.546520 1.915488
-0.297812 1.839044
-1.857735 0.018931
-1.397042 -1.199867
1.594925 -1.514030
1.326303 0.668253
0.977656 2.152611
-0.860435 0.752870
-0.891635 -0.940762
0.274774 -1.350215
1.627667 -1.059035
1.090887 2.463370
0.092956 3.022528
-3.669787 1.472917
-2.066923 -3.183911
0.593603 -3.058710
3.907862 -0.326689
0.497291 1.925915
-2.368443 1.979591
-0.346938 -0.680794
2.303851 -3.145730
2.174108 1.061225
1.450182 1.478778
-0.477353 1.062965
-3.959058 0.766810
-2.543118 -2.790185
-0.421833 -4.936806
4.559136 -2.092551
0.411519 4.796307
-2.606107 4.352313
-0.095317 -2.569113
0.333144 -1.435148
4.681994 0.483756
1.276704 4.362454
0.089168 2.088148
-3.825738 -1.496715
-3.099954 -1.980629
0.123594 -4.955100
4.664825 -0.920137
2.543716 2.633875
-5.098768 2.477699
-2.137201 -1.065409
-1.310755 -3.560374
5.611976 -5.603361
2.398207 3.696621
-3.216639 3.456289
-2.829388 -0.612552
-0.724937 -4.921507
2.536414 -6.989791
5.847636 -6.006965
-0.371963 8.314555
-10.339458 -5.415231
-13.299409 -3.998801
5.248129 -3.138171
5.121812 -5.543103
6.305491 -4.837523
0.196539 4.997962
-5.987731 -4.803325
-16.845671 1.283067
2.220234 -4.820440
13.593185 9.822283
-9.021635 16.709519
1.277989 5.977620
-13.856717 42.180704
39.885410 -32.260829
25.807483 -9.146702
13.810462 5.994082
10.324546 7.403449
-48.105065 9.570747
-20.479723 -237.541174
-147.678073 67.495994
-41.977737 -19.743337
12.041632 -14.135752
-89.594448 54.876255
-414.797018 -211.598973
