16115.508879 11809.360532
-6176.159377 7502.639593
-3555.071437 -1230.467003
-78.215430 -1775.821024
-101.911312 160.971166
488.860696 18.650815
-298.184508 -855.181949
-849.281283 401.568883
-13.286263 -187.107577
-237.417777 348.108177
-382.116308 -40.761683
272.668888 190.146058
-54.883428 -249.884051
-28.739833 -6.623143
-212.726403 -35.261411
-205.872114 210.225966
81.254818 65.431846
-18.629579 85.744730
-23.104255 -19.979609
-15.751245 -4.247277
24.842706 65.565811
90.430675 -126.389669
-55.374156 38.316815
-25.340175 -27.334693
-10.889505 -71.309073
-42.211787 25.161575
-73.047729 -31.392874
-18.504686 -16.642774
-19.804249 4.366865
-20.679883 10.344268
20.581538 -31.111121
-6.257614 24.668422
13.342178 -40.446515
28.351777 -3.390359
-7.321535 -29.547763
13.205157 2.740762
10.449160 -26.228779
4.517636 19.663384
19.748100 -18.146986
-0.179530 1.437939
-18.555610 -28.262451
-22.521221 20.631073
10.804024 15.393223
5.373038 14.755471
39.707919 -10.636619
28.145022 2.478628
-0.443481 4.691232
26.441603 -1.634816
13.789454 21.181895
6.177860 -18.930669
-18.650827 -0.563698
-7.089735 1.868211
-8.800603 -3.789931
-10.313310 -6.886156
-2.451291 -9.083710
-10.450381 6.317290
13.122842 3.993338
-5.883318 -8.968456
-3.300384 2.400668
-3.879373 7.855319
-7.439540 4.913702
4.404486 -17.635587
-8.335616 7.650473
0.233298 -10.636559
3.029878 0.834484
1.139513 -11.003628
-4.883678 3.873275
5.194372 8.455106
6.051892 -6.996991
-10.141696 -7.377380
2.541328 7.570949
-5.986973 -5.139510
-8.566865 0.826183
4.249908 2.597947
-11.290606 -1.209734
-4.721456 -3.310086
-2.007202 3.413652
-10.111765 -0.562606
2.500782 1.327658
-5.018683 0.914141
-2.558728 -1.512377
-2.740097 4.187114
-5.960133 -0.032668
0.071509 8.053070
1.674212 0.244800
0.084145 0.625085
-4.271689 2.005160
3.080919 3.500117
2.213944 -1.575920
-7.038321 4.211469
3.860913 2.046637
-1.258712 3.168353
-0.995782 -0.460616
4.104243 3.919048
0.386284 1.910956
2.439290 0.390765
1.326832 3.570695
-2.021442 2.461974
1.185909 -1.160887
-5.480620 -1.068366
-0.851810 -0.193785
-2.376779 -3.556822
-3.926296 -3.372281
0.293902 0.840947
1.250253 -4.083637
-1.859001 -1.438031
-2.028918 1.730259
-0.273145 1.409316
-1.551140 1.797609
0.587465 -0.093914
0.825235 -0.073439
-1.669348 -2.395380
1.844004 0.819665
2.574874 -0.358264
0.742425 0.735620
1.141007 -1.968615
1.691743 1.785622
-0.051338 -1.050990
0.122602 0.360736
-1.037018 0.343714
-0.123084 1.346971
-0.047039 0.204381
-0.038520 -0.589344
0.765768 0.261819
-0.149438 -2.204028
2.523265 0.879845
-1.056059 0.777662
1.543108 0.829301
1.102803 1.863019
-0.304577 1.326076
0.697964 -2.486769
-2.170443 1.670650
0.148864 -1.352988
1.263666 -0.409027
-0.538660 1.477916
1.056299 -0.733717
0.847599 0.096987
-0.592954 1.383857
-0.378568 1.004657
1.507653 -0.472188
0.582906 -0.169412
-1.413181 -0.930760
-0.635676 -1.335780
-1.067809 0.208277
1.718847 -1.456043
-1.059418 0.984143
0.952045 -1.237711
-0.375764 -0.255139
-0.334590 0.873892
-1.344891 -0.631759
-1.070201 -0.878092
-0.003811 -1.143400
-0.006341 0.813595
1.036319 -1.898821
0.137521 0.426271
0.923762 0.001559
1.215570 -0.219995
-0.036096 0.847471
0.344073 -0.384651
-0.051498 -1.043835
-0.934131 0.478829
-0.361371 -0.111323
1.830955 0.064804
-0.644064 -1.424188
0.722627 -0.331782
0.029422 -0.304649
-1.454987 -0.336385
-0.130925 0.341687
-0.291444 -0.601121
-0.670658 0.217227
-0.926107 1.008148
2.078716 -0.441436
-2.057695 0.452269
0.789525 0.320412
0.459706 0.663849
-0.033090 -0.360819
0.446942 -1.388808
0.338046 -0.929708
-0.995787 -0.569421
0.117362 1.203210
2.104801 0.307541
-0.069012 -0.791675
-0.200149 0.541505
0.031415 -0.298915
0.474583 -1.152447
0.435898 -0.899363
0.255884 -0.835270
0.428556 -0.149055
1.134616 -1.362042
-0.445871 0.187596
0.941933 0.193942
-0.561718 -0.829949
0.499766 -0.183306
-0.338986 0.600632
-0.368229 -0.301431
-0.511362 -0.500179
0.046773 -0.651822
-0.112980 -0.398786
-0.803070 -0.306540
-0.437981 0.875811
0.829085 -0.030786
-0.564198 -0.515937
-0.579517 -0.825039
-0.767156 -0.326546
0.135959 -0.133623
-0.178177 0.191999
-0.286935 0.051080
0.088939 -0.508556
-1.158632 0.150476
-0.902649 0.363238
0.421085 0.620836
0.878114 -0.109297
0.022089 -0.190479
0.094708 0.038784
-0.339898 0.393280
0.539733 0.193326
-0.231391 -0.098280
0.134328 0.339720
0.223259 -0.205475
-0.052432 0.508596
-0.461981 0.402165
-0.690582 -0.054204
-0.527549 0.111516
-0.485797 0.197204
-0.240550 0.010223
-0.003854 -0.294136
-0.466832 0.191486
0.024866 0.585931
-0.660739 0.038061
0.032357 0.648013
0.201895 -0.863108
0.240300 0.081964
0.033087 -0.680276
0.167504 0.029473
0.397041 0.460120
-0.248439 0.131860
-0.157781 -0.198583
-0.249026 -1.047958
-0.450739 -0.244311
0.099934 -0.265492
0.251660 -0.523702
-0.677538 0.578025
1.048241 0.600258
-0.075700 0.178046
-0.002812 0.158326
0.459156 0.298333
0.149648 0.923160
0.467507 -0.268682
-0.243699 0.448606
-0.453309 -0.047370
0.077002 -0.165481
0.369203 0.797135
0.514710 -0.537094
0.136730 0.730315
0.014914 -0.159501
-1.169722 -0.314396
0.098890 0.234824
-0.799163 -0.184649
-0.168895 -0.032454
1.119655 -0.536307
-0.326256 0.101987
0.066051 0.508110
0.887765 0.305704
0.332552 0.039836
-0.206342 0.118895
0.828789 -0.043521
-0.688003 -0.130680
-1.105794 -0.584908
-0.542963 0.600541
-0.455309 0.445800
-0.237592 0.259497
-0.248379 0.327298
-0.252802 0.324936
0.599634 0.390510
0.662823 -0.069870
-0.430639 -0.399269
0.330041 -0.078547
0.399631 -0.496095
-0.119515 0.627507
0.811919 -0.694577
-0.079096 0.150115
-0.273232 -0.398914
0.256156 0.003343
-0.522285 0.320018
0.284044 -0.358828
-0.332345 -0.723648
0.070934 -0.026638
-0.715403 -0.028958
0.154582 0.325935
0.130039 -0.243822
-0.120783 0.151758
0.230245 -0.246593
-0.376972 0.231532
-0.135106 0.065811
-0.554378 -0.516201
-0.329108 -0.112721
-0.408664 0.196231
-0.274139 -0.272074
0.034190 0.717503
0.208997 -0.203228
0.388245 -0.046086
0.068953 -0.151794
0.028399 -0.146133
0.036315 0.535142
0.288188 -0.187240
-0.371828 0.343244
0.384901 0.050857
-0.056423 0.185294
0.324643 -0.624773
-0.275427 0.156577
-0.092594 -0.172397
0.868568 0.019397
-0.148905 -0.064890
0.062211 0.166077
0.223713 -0.203225
-0.124546 0.344477
0.134928 0.235536
-0.479518 -0.343654
-0.223727 0.512997
-0.235915 -0.106846
-0.255300 -0.455215
-0.558661 -0.106116
-0.478286 0.401111
0.368900 0.318295
0.370561 -0.073104
-0.427121 -0.786197
-0.235313 0.305184
0.516872 0.276662
0.048621 0.142068
0.003021 -0.257280
-0.951366 0.572847
0.887261 -0.033917
-0.154430 0.129323
0.319914 -0.107635
0.060372 -0.425630
-0.247038 0.307184
-0.283500 0.899908
-0.233199 -0.020391
-0.034445 -0.358636
-0.557493 0.229021
-0.092123 -0.155007
0.021302 -0.004220
-0.190907 -0.117914
0.269842 -0.162782
-0.220630 -0.864609
-0.069198 -0.003729
0.724992 -0.393564
0.191005 -0.807854
0.289693 -0.025971
0.111469 -0.031162
-0.036574 -0.296794
-0.070127 0.378206
-0.065772 0.052302
0.024371 0.047383
0.608083 0.419497
0.187778 -0.200372
-0.256015 -0.012572
-0.594994 0.433316
0.007653 1.164466
0.305029 0.400387
-0.048506 -0.194785
0.088949 -0.228375
-0.460895 0.446047
-0.067936 0.039093
0.526416 -0.017356
0.252039 0.148053
-0.115618 0.122215
0.164362 0.029697
0.583672 -0.085304
-0.153360 -0.255871
-0.247551 -0.025588
-0.157636 -0.106911
0.236803 0.096487
0.359597 0.265102
-0.485780 0.680593
0.101659 -0.389026
-0.399163 -0.235195
-0.723951 0.635479
-0.065082 0.109259
0.131476 -0.548293
0.550923 -0.044479
0.278716 -0.051288
0.314268 -0.774515
-0.229995 0.246446
0.555699 -0.379810
0.514045 0.576466
0.181810 -0.350970
-0.546779 0.407165
-0.152149 -0.127015
-0.137494 0.022352
-0.064200 -0.175869
0.027523 -0.204818
0.146607 -0.194076
0.052704 0.561445
0.404982 1.057993
-0.106212 -0.476951
-0.207020 0.066581
0.179692 -0.127196
0.153566 0.469780
0.445806 0.379528
-0.289540 -0.094185
-0.018843 -0.005674
0.692812 0.177361
-0.361628 0.241633
0.309964 0.175559
0.128241 -0.015451
0.005472 0.086282
-0.019350 -1.044941
-0.230953 0.112851
0.285901 -0.524157
-0.550003 0.337349
0.175145 -0.042443
1.178251 -0.135186
-0.453137 -0.040984
-0.233755 0.322189
-0.361518 0.066850
0.120882 -0.821558
0.490301 0.047335
-0.178112 -0.114653
-0.211604 0.004368
0.309893 0.133459
-0.424164 -0.279432
-0.204724 0.158165
-0.419382 0.091264
-0.122680 0.353485
-0.170110 -0.392727
0.196445 0.199058
-0.218841 -0.000763
0.035877 -0.385863
-0.015452 0.272418
-0.525922 0.307423
0.125005 0.893853
0.075659 -0.162211
-0.169360 -0.617503
0.534122 0.062350
0.255708 -0.032824
0.099472 -0.377771
0.374711 -0.316756
0.266754 0.305769
0.002817 0.049620
-0.052272 -0.190510
-0.333851 -0.179388
0.202620 0.299106
-0.660757 -0.278194
-0.159073 -0.024405
0.032888 -0.332519
-0.017545 0.083111
0.317555 -0.085502
-0.504241 -0.464161
-1.041957 0.508796
0.067251 0.212019
-0.162996 0.324106
-0.392638 0.630038
-0.323509 -0.601931
0.123924 0.000068
-0.337248 0.011343
-0.385942 -0.334212
-0.125195 0.137230
0.167756 0.219734
0.156674 0.276439
-0.163748 0.241745
-0.627965 0.302584
0.155547 -0.339405
-0.673615 0.392543
0.316522 0.074190
-0.204443 -0.716951
-0.312853 0.021945
0.669045 0.225730
-0.032586 0.067018
0.402746 0.078577
0.440045 -0.061689
-0.024151 0.032247
0.084414 -0.320369
-0.021614 -0.110092
0.088678 0.394107
0.167876 -0.157394
-0.028134 0.097442
0.099358 0.229937
-0.052846 -0.174231
0.166651 0.276281
0.173395 0.137077
0.381888 -0.424763
-0.543414 0.040231
-0.424897 -0.088275
-0.351600 -0.023264
0.244231 -0.176362
-0.097211 0.131197
0.255483 0.290708
0.251075 0.335732
0.236678 0.250266
0.002353 0.286596
0.313809 -0.026546
-0.095213 0.213895
0.112393 -0.176288
-0.154589 0.212443
0.257991 0.175034
0.089014 -0.144780
0.294917 -0.140356
0.129284 -0.278111
-0.108897 0.439780
0.243769 -0.367678
-0.017836 -0.287704
-0.112769 0.024370
0.159828 -0.415304
-0.142351 -0.320263
0.124383 0.453640
0.240730 0.112567
0.727867 0.034687
-0.070139 -0.479893
-0.070478 0.143164
0.675927 0.224037
0.084986 0.143982
0.297209 0.128957
0.026286 0.017731
-0.403097 0.115628
-0.072591 -0.379625
0.202731 -0.021140
0.057248 0.032382
-0.547491 0.032689
0.113692 0.152770
-0.040897 -0.223714
0.104416 0.140240
-0.109844 -0.226132
0.488476 -0.250702
-0.051283 -0.019097
-0.145047 -0.180348
0.028084 -0.091293
-0.040558 0.110497
0.417935 -0.007910
0.247691 -0.152622
-0.184791 -0.386160
-0.065898 -0.230770
0.018018 0.266287
0.307095 0.067623
-0.463305 -0.379791
-0.476679 0.442594
0.131416 0.105543
-0.554185 0.041947
-0.467822 -0.351494
0.039280 -0.098385
-0.003624 -0.109881
-0.427905 -0.056389
-0.046829 0.051018
-0.231877 -0.342634
-0.100488 -0.201244
-0.271833 0.096075
-0.153014 -0.088656
-0.304789 -0.303868
0.268141 -0.407325
-0.071560 0.443857
0.213663 -0.034835
0.269817 -0.434872
0.709599 0.490774
-0.332103 0.011852
-0.375984 -0.129703
-0.228928 -0.101754
0.129304 -0.203177
0.116994 -0.098496
-0.480483 -0.425195
0.178024 -0.073658
0.092766 0.400698
-0.098415 0.064101
-0.149055 0.089914
0.295977 0.051510
0.007445 0.013471
-0.170831 -0.057918
-0.166569 -0.027791
0.006408 0.381611
0.141860 -0.032698
0.165381 -0.033582
-0.050262 -0.140684
-0.156763 0.306397
0.114715 -0.193715
-0.177359 0.006285
0.052833 0.168609
-0.133190 -0.155583
-0.104376 -0.224972
-0.086050 -0.150135
-0.043501 0.013192
0.085739 -0.491792
-0.125787 0.096555
0.136376 -0.266751
0.181163 -0.447156
-0.097964 -0.178464
0.139404 -0.273663
0.223125 -0.110939
-0.080380 -0.358541
-0.085420 0.213506
0.330779 0.579531
-0.076124 -0.025347
-0.055706 0.027965
0.158103 0.218434
0.188923 0.554306
-0.197888 0.069183
-0.086874 0.076012
0.538370 0.242023
0.212098 -0.142671
-0.143370 0.030512
0.134839 -0.520460
0.091090 0.091636
-0.160036 0.249123
-0.023119 -0.074132
-0.478611 -0.276281
0.009358 -0.082128
0.170856 -0.115431
-0.159977 -0.141318
0.078754 -0.071351
-0.360600 0.205321
-0.129941 -0.133087
-0.201051 -0.095542
0.097098 0.210009
-0.233266 -0.466129
0.188391 -0.140669
-0.142267 0.049314
-0.172521 -0.299735
0.207162 0.126490
-0.416273 -0.048031
-0.084988 -0.227204
-0.144257 0.153715
0.085677 0.057561
-0.063588 -0.125623
0.021336 -0.453562
0.213386 -0.047416
-0.143271 -0.000634
-0.603364 0.154375
0.110671 0.073921
0.080970 0.173053
-0.443673 0.067773
0.123081 -0.639182
0.123875 -0.371472
0.078666 -0.155784
0.365363 -0.001698
-0.013638 0.160027
0.142295 0.194035
-0.197012 0.049119
-0.242246 0.109575
-0.213641 0.184350
-0.173523 0.336262
-0.111851 0.151663
-0.294249 -0.178606
0.241012 0.219375
-0.224794 0.380874
-0.034685 -0.361407
0.354306 -0.165942
-0.117022 0.036506
0.173415 0.047987
-0.058669 -0.049609
0.182479 -0.050399
0.193584 0.281869
-0.222377 0.248644
-0.405565 0.058904
0.074991 -0.162400
0.144267 0.057096
-0.241220 0.300166
-0.146142 -0.134435
0.582555 0.328143
-0.240838 0.205158
-0.587431 -0.162655
0.475080 -0.090556
-0.069054 0.133454
0.082190 -0.122255
-0.089728 -0.136556
0.017440 -0.083415
-0.208700 -0.160905
0.075727 0.001085
-0.196799 -0.305500
0.008448 -0.058095
0.520947 0.168982
-0.324511 0.152800
-0.125558 0.057208
-0.033537 -0.040155
-0.169421 0.101762
-0.124642 -0.065080
0.201143 0.039338
0.389749 -0.069876
0.261372 -0.100977
0.316657 0.147096
-0.138883 0.219852
-0.252097 0.073226
-0.133718 0.230942
-0.353938 -0.041358
0.427134 -0.190522
-0.669133 -0.259788
0.074307 -0.118561
-0.055835 -0.384795
-0.271561 -0.133636
-0.224794 0.203235
0.227772 -0.149548
0.027411 -0.367434
-0.122115 0.199387
-0.142940 -0.152521
0.000331 0.196284
-0.160498 0.143422
-0.113722 0.149754
0.100241 0.046521
-0.071462 -0.084724
-0.405090 -0.240382
0.026269 -0.217381
-0.333408 0.002985
-0.244367 0.076524
-0.468516 0.473647
-0.261833 -0.109474
-0.218205 -0.107629
0.182003 -0.124146
0.132007 0.020697
-0.203454 -0.078297
-0.006402 0.182147
0.260199 0.228069
-0.008050 -0.440462
0.078795 0.195633
0.273213 0.266009
-0.221886 -0.325323
-0.381497 -0.337561
0.096927 -0.205558
0.149705 -0.084099
-0.324461 0.299685
0.747974 0.002383
0.176917 -0.068957
-0.004753 -0.162686
-0.063127 0.246466
0.437110 -0.095805
0.063241 -0.151203
-0.141775 -0.199038
0.225760 -0.352945
-0.116282 0.345635
0.089610 -0.289505
-0.094154 -0.261853
0.074565 0.067022
-0.108533 -0.043081
0.117191 0.290356
0.118068 0.210915
-0.179798 0.116620
0.007876 0.063804
0.165674 0.042245
0.122799 -0.188133
0.464518 -0.045833
-0.124783 -0.442959
0.205615 -0.219796
0.117644 -0.164963
0.166650 -0.115269
0.086435 0.238784
0.231362 0.416159
-0.098574 0.149669
-0.080919 0.042313
-0.281464 0.221253
-0.186763 0.286517
0.173687 -0.396513
0.551323 -0.076751
-0.095703 0.026279
-0.195026 -0.381635
-0.128978 0.150545
0.375238 0.418497
-0.466364 -0.212642
-0.209788 -0.025409
-0.194200 0.313983
0.032453 -0.221594
-0.071801 0.128606
0.038601 -0.265638
-0.202360 0.361023
0.081416 0.101213
0.047870 0.226243
-0.114374 0.326722
0.322303 0.084124
-0.118014 0.160159
0.341941 0.119793
-0.030791 -0.156066
-0.172303 0.194988
0.073949 -0.013476
0.011940 0.162870
0.307058 0.186744
0.111290 -0.058641
-0.173442 -0.038674
0.051493 0.186268
-0.089011 0.260079
0.192831 0.319548
-0.164888 -0.013030
0.063206 0.436595
0.220884 -0.075244
0.042534 -0.370749
-0.165410 -0.089097
0.035901 0.027547
0.225863 0.168176
0.157867 0.262520
0.060250 0.078071
-0.086189 -0.414583
0.105407 0.182586
0.011246 0.054542
0.556329 -0.204207
0.361991 -0.052593
0.053922 0.084736
-0.118820 -0.167136
0.142682 -0.137188
0.017442 -0.387108
-0.211782 -0.116705
-0.085403 -0.167530
0.325334 -0.151531
-0.424193 -0.116220
0.021430 -0.071537
-0.065356 -0.152567
0.059515 -0.203457
0.152953 0.080542
-0.012819 0.129562
0.034707 0.072149
-0.010322 -0.328834
0.003417 0.152790
-0.134164 0.068139
0.433270 0.548226
-0.004731 0.014489
-0.351652 0.052350
0.187250 0.091297
-0.089448 0.182769
0.093372 -0.104310
0.083812 -0.224224
-0.098778 -0.036158
-0.053145 -0.024279
0.243827 0.093139
0.028137 0.073819
0.166659 -0.020482
-0.128224 -0.284697
0.281957 -0.141222
-0.213653 0.120782
0.092402 -0.070574
-0.039686 0.092182
-0.232453 -0.041232
0.323203 0.069605
-0.341102 0.266691
0.133430 0.355921
-0.465096 0.401722
-0.127064 0.197244
0.143557 -0.420369
-0.417097 -0.130917
0.149772 0.047732
0.158631 0.170516
-0.160573 -0.037678
0.102528 0.105542
0.067784 0.336033
-0.045106 -0.267103
-0.069070 0.081299
-0.059310 0.474265
0.129053 0.233291
-0.169943 0.272637
0.016032 -0.036731
0.089473 0.001808
0.007573 -0.006234
0.136221 0.072335
-0.008824 0.104752
-0.032680 0.286172
-0.465224 -0.115217
-0.318686 -0.077492
0.102770 0.085850
-0.174175 -0.319197
0.163887 -0.037848
-0.176581 -0.028100
0.242892 0.346864
0.217765 -0.047211
0.171533 -0.371683
0.162002 -0.076141
0.227613 -0.186414
0.255568 0.183042
-0.061734 0.031919
-0.055509 -0.140399
0.021967 -0.106862
-0.005875 -0.532951
-0.417923 0.346529
0.402655 -0.078504
0.166237 0.162088
-0.049034 -0.003077
-0.114885 -0.016461
-0.037112 0.103880
0.095767 0.031744
0.085349 -0.305776
0.125604 0.474081
-0.009501 -0.103315
0.246916 0.313382
-0.045801 0.537430
0.083607 -0.127486
0.101986 -0.190698
-0.539916 0.213413
-0.163873 -0.303692
0.227419 -0.150481
0.060787 0.009522
-0.381659 0.054751
0.162842 -0.094900
-0.138334 0.257202
0.058720 -0.310818
0.200985 0.074405
0.254863 0.077739
0.184273 -0.187212
-0.456541 0.052703
-0.313965 0.185271
-0.277826 0.121153
-0.238287 0.158630
0.018364 0.149704
-0.079424 -0.073919
-0.278062 0.658542
-0.101142 -0.173864
-0.110275 -0.019853
-0.018634 -0.052066
0.190803 0.071388
0.241571 0.083383
0.379481 0.018482
-0.472831 -0.010702
0.150466 -0.032041
0.193430 -0.014523
-0.136005 0.080942
0.231290 0.081762
0.123294 0.018274
-0.230821 -0.143405
0.180045 -0.023098
-0.308624 -0.340018
0.119377 -0.209680
-0.091622 -0.211670
0.187141 -0.086083
-0.077023 0.134574
0.176604 -0.274194
-0.417933 0.064838
-0.289944 0.217227
0.008635 -0.025310
-0.143608 -0.097265
0.107968 -0.173917
0.124714 0.443783
0.031562 -0.050634
0.026355 0.190229
0.130809 0.096322
-0.383327 0.011693
0.013524 0.091182
-0.079909 -0.189752
-0.240312 -0.337658
-0.196071 -0.106821
-0.205377 -0.078140
-0.127002 0.244998
-0.062564 0.052352
-0.031772 0.183722
0.021042 -0.041383
0.281575 -0.047888
-0.041697 -0.068444
-0.094620 0.064300
0.214537 -0.099758
-0.102193 0.092256
-0.004794 -0.105424
-0.109850 -0.009073
0.110395 0.023023
0.157515 -0.151915
0.558622 -0.020133
-0.179729 -0.124179
0.003465 -0.082912
0.022466 0.069362
0.020084 -0.283979
-0.463002 -0.008022
-0.039879 -0.094969
-0.098842 0.100809
0.088285 -0.271486
-0.086818 0.077084
0.087023 -0.053803
0.478947 0.022241
0.084021 -0.339527
-0.001226 -0.402640
-0.088995 0.038298
-0.223625 -0.017823
0.163848 -0.115585
-0.054084 -0.106007
0.233335 -0.008015
0.156707 0.028043
0.094104 -0.301967
-0.087586 0.035382
0.190039 0.143262
-0.097697 -0.123315
0.117982 0.016894
0.082274 -0.259253
0.154860 -0.060926
0.184549 0.017765
0.108177 -0.028469
0.215715 0.157038
-0.504644 -0.114950
-0.055411 0.108627
0.064359 -0.006476
-0.087551 -0.310979
-0.195103 -0.062093
0.081916 0.103149
0.009370 0.066752
-0.039594 0.031657
-0.240692 -0.325439
-0.050308 -0.080879
-0.264477 -0.148343
-0.046251 -0.040514
-0.067381 0.001287
0.328887 0.050906
-0.133897 -0.227590
0.362190 0.130808
0.085254 -0.018915
-0.089638 0.171442
0.039159 -0.118930
-0.013970 -0.182498
-0.039354 0.042981
0.003313 0.002684
-0.025982 -0.246354
0.262747 -0.064216
-0.000174 -0.154764
-0.084091 -0.217733
0.280115 -0.396228
0.125429 -0.213426
-0.312945 -0.298267
0.298567 0.174330
-0.233385 0.037804
-0.013008 -0.381355
-0.005698 -0.033034
-0.357778 -0.272613
-0.086663 -0.204953
0.008807 0.156408
0.087715 -0.331470
0.243733 0.009036
0.029968 0.273614
0.202473 -0.191679
-0.013790 0.272867
0.313941 0.205655
-0.114273 -0.017796
0.320419 -0.500526
0.154040 -0.121546
-0.056019 0.147635
-0.179903 0.166870
-0.063566 -0.012515
-0.009228 -0.197541
0.174781 -0.044743
-0.135501 0.156309
0.045715 0.302923
-0.247782 -0.056351
0.047173 -0.170960
-0.365462 0.169498
-0.426979 -0.231364
-0.041733 0.294902
0.336414 0.064891
-0.043505 -0.096088
-0.069051 -0.045495
0.292177 -0.098478
-0.187235 -0.349260
0.097668 0.238103
-0.251189 -0.432304
-0.093278 0.265095
-0.282965 -0.259971
-0.108761 0.034309
0.004286 0.156682
-0.177777 0.187587
-0.116233 0.085980
-0.251283 -0.195904
0.026240 0.382796
0.024481 -0.102520
0.106226 -0.144392
-0.032296 -0.011245
0.125928 0.068514
-0.096527 0.407346
0.020625 0.224631
0.045678 -0.524526
-0.144731 0.280108
0.092051 0.018120
0.030387 -0.064353
0.057160 0.006388
0.167370 -0.237826
0.009959 0.189708
0.016706 -0.053034
0.196626 -0.250410
-0.217545 -0.255556
-0.250594 0.166185
-0.144269 -0.070247
-0.373196 0.101596
-0.449498 -0.071393
0.160727 -0.048361
-0.098124 -0.215782
0.035770 0.088607
0.134046 -0.143641
0.189874 -0.041704
0.205764 -0.104990
0.408962 0.204033
0.122521 -0.328598
-0.014998 0.013991
0.050467 0.123751
0.109299 0.289127
-0.017341 0.230609
0.485399 0.052077
-0.083904 0.005750
0.216727 0.327268
-0.068976 0.331598
0.371516 0.239460
0.143280 -0.486846
-0.028545 -0.220133
0.322181 0.302215
-0.240028 0.101616
-0.270570 -0.262752
-0.428099 0.330676
0.060523 -0.090392
-0.197857 0.040882
0.315334 -0.042497
-0.136563 0.313131
0.369120 0.239870
-0.559066 -0.261114
-0.109896 0.017840
-0.097667 0.068989
0.280031 -0.235150
0.546263 -0.023260
0.575626 0.110973
-0.113196 -0.111928
0.092859 -0.108990
-0.352626 -0.053872
0.212716 0.265628
-0.290106 -0.029040
-0.568821 -0.382156
-0.469745 0.089263
0.151351 0.127709
0.049857 0.221631
-0.148657 0.165931
-0.149346 -0.766135
0.389277 -0.471565
0.356368 0.123110
-0.242526 0.073801
-0.152731 0.033724
-0.248495 -0.059269
0.406504 -0.087434
0.222376 0.103242
-0.193560 0.154470
-0.623996 -0.052583
-0.285452 -0.824653
0.156329 -0.526235
0.672952 -0.153548
0.095572 -0.048733
-0.632943 0.003697
-0.219447 0.253706
0.248175 0.005162
0.415060 0.031189
0.432652 0.566247
-0.238893 0.184740
-0.181179 -0.304885
0.440501 -0.207494
-0.238432 0.365300
0.061992 0.186257
-0.273467 0.288605
-0.080098 -0.050731
-0.090357 -0.173986
-0.216695 -0.328307
0.201185 -0.268832
0.016844 0.137217
-0.344877 0.395301
0.139709 0.181412
-0.364500 -0.456465
-0.479138 -0.237872
0.099642 -0.153557
-0.238051 0.093979
0.113078 -0.136973
0.189384 0.254435
-0.252039 -0.356629
0.054292 0.225825
-0.220030 -0.016093
-0.238959 0.201074
-0.255808 0.448005
-0.154467 0.205660
-0.059550 -0.215279
0.238305 0.129188
-0.409831 0.135565
0.322461 0.220084
-0.338896 0.247290
0.141923 -0.158251
0.057550 -0.097251
-0.076477 0.064611
0.597402 -0.202271
0.304335 -0.379403
-0.060890 0.076914
0.349574 -0.061027
0.238384 0.166257
-0.149411 -0.371477
0.097975 0.413729
0.193315 0.318769
-0.356035 -0.119132
0.481567 -0.249558
0.046407 -0.191759
0.268504 -0.083778
-0.171868 -0.235225
0.157054 -0.068741
0.220608 0.003680
-0.209199 -0.109981
0.004865 -0.034562
0.023578 -0.228080
-0.134767 -0.010694
-0.040328 -0.301159
-0.542288 -0.358357
-0.307849 0.383197
-0.147344 0.039291
0.045283 0.380644
0.142047 0.248436
-0.521126 -0.091523
0.177045 -0.176533
-0.026497 0.328861
0.177174 -0.169125
0.287200 0.087750
-0.216877 0.378509
-0.135114 0.122080
-0.087729 0.581384
-0.427262 0.014799
-0.018716 0.383843
0.147116 0.163932
0.313154 -0.066348
0.088278 0.064738
0.432899 -0.256264
-0.010126 -0.172496
0.004574 -0.201703
-0.158141 -0.001167
-0.143016 0.043825
-0.215650 0.054887
-0.312821 -0.053517
-0.074253 -0.156097
0.461250 0.265463
-0.043064 0.025591
0.258440 -0.129241
0.356615 0.163133
-0.181221 -0.339378
-0.200057 -0.107979
0.078824 -0.091779
0.114506 -0.347031
-0.151687 -0.367081
-0.284822 -0.104242
0.362839 -0.121999
-0.219930 0.085614
-0.184302 -0.275731
0.103446 -0.423697
-0.019820 0.226345
-0.151319 -0.114907
0.285672 0.142007
0.170605 0.373684
-0.488901 -0.539392
-0.228732 0.302232
0.046383 0.079267
0.065876 -0.172536
-0.384637 0.100891
-0.278119 -0.028456
-0.143659 -0.039398
-0.028642 0.042281
0.351488 0.327758
0.338674 0.180742
0.007824 -0.156912
-0.312749 0.061209
-0.340261 0.283012
-0.310843 -0.284952
-0.765374 -0.025383
-0.146175 0.506967
0.044254 0.141378
0.180946 0.189514
0.019280 0.189418
0.014749 0.105552
0.352241 -0.089249
-0.030064 -0.201927
0.067118 -0.018503
-0.215003 -0.208616
0.040217 0.000351
-0.559311 0.170454
0.028615 -0.025269
0.178240 0.396623
0.284313 -0.565167
0.060522 0.196852
0.150332 -0.172030
0.028755 0.091275
0.005643 0.252137
0.053030 -0.335614
0.349744 -0.138611
0.059381 -0.207934
0.058122 -0.087078
0.096959 0.117536
-0.271135 0.110209
-0.028555 -0.412841
0.266188 0.010363
-0.197620 -0.307263
0.434935 -0.048786
0.364098 -0.345292
0.068075 -0.000009
0.041027 -0.245736
-0.019930 0.109164
0.063360 -0.309234
-0.192544 0.055455
-0.061767 0.361666
-0.408332 -0.125233
0.229516 -0.078335
0.018845 -0.124447
-0.099294 0.273020
0.205633 0.264296
0.538856 0.419024
0.101662 0.254682
0.028028 -0.069256
0.229447 -0.374487
-0.540947 0.049051
0.052796 0.163904
-0.198962 0.023568
-0.083431 -0.056990
-0.277192 0.009476
-0.070151 0.075007
0.078122 0.196292
0.156449 0.042866
0.270225 0.049382
0.105940 0.125323
-0.339544 -0.062318
0.177799 -0.007307
-0.342481 -0.023124
0.170100 0.472003
0.189096 -0.088059
0.253412 0.231387
0.074532 0.072742
-0.066745 0.158029
-0.100659 0.172900
-0.024027 0.097239
-0.321553 0.074847
0.215861 -0.282774
0.023745 -0.010131
-0.036883 -0.045498
-0.318082 -0.157607
-0.240170 -0.344441
0.029106 0.129602
0.131210 -0.211124
-0.184586 0.047032
-0.068997 -0.017561
0.340348 0.019461
-0.149670 0.444517
-0.073379 -0.384285
0.139267 -0.012735
-0.056050 -0.243061
-0.101018 -0.018479
-0.509005 -0.095990
0.030109 -0.335730
-0.128288 0.004001
-0.488534 -0.094933
-0.376449 -0.132125
-0.060107 -0.066025
-0.322707 0.055556
-0.461002 -0.243739
-0.150009 -0.098658
-0.167905 -0.482053
-0.157537 0.074105
0.410565 -0.046254
-0.202911 -0.491160
0.102082 -0.090909
-0.264838 -0.025262
-0.114666 -0.172999
0.102491 -0.050640
0.029679 0.153383
-0.282527 0.266607
0.068207 0.088406
-0.093630 -0.006158
-0.074998 0.044330
0.044890 0.142695
-0.107564 -0.077218
0.149074 -0.116922
-0.214907 0.303929
-0.408756 -0.021923
0.008202 0.326685
-0.451239 0.216292
0.053940 -0.031692
0.236566 -0.160895
-0.023701 -0.074186
0.005011 -0.078098
0.154697 0.247281
0.044122 0.238151
0.251263 -0.341097
0.103832 0.124865
-0.020401 -0.282265
-0.122577 -0.170534
-0.100817 0.145459
-0.280622 0.369399
-0.079140 0.155975
-0.164616 -0.210164
0.282737 0.066799
0.135213 0.305730
0.092614 -0.517303
0.347518 -0.136206
-0.147772 -0.427353
-0.059263 -0.338585
0.239816 0.226718
0.075814 -0.388834
0.008570 0.218183
-0.272534 0.130542
0.046721 -0.017730
-0.078126 -0.458708
0.030553 -0.077859
-0.158226 -0.241287
-0.112069 -0.056328
0.393950 0.066794
-0.201177 -0.121372
0.231236 -0.071606
0.284160 0.015794
-0.073761 -0.021452
-0.183259 0.048069
-0.196028 0.297474
-0.572941 -0.249121
-0.329598 -0.097097
0.011503 0.280976
0.061355 0.197744
0.440800 0.109640
0.058426 0.108383
-0.009304 -0.274219
-0.464647 0.199894
-0.756465 -0.097093
-0.026271 0.307644
-0.156953 0.156594
-0.171027 0.076711
0.173651 0.493516
-0.215986 0.253829
0.272014 0.350943
0.164592 0.219305
0.499461 0.308251
-0.015123 -0.407069
0.009287 0.069503
-0.233589 0.054822
-0.235465 -0.108714
-0.507805 0.037683
-0.256235 0.175994
0.031023 0.283669
0.411756 0.065982
-0.166415 0.000561
-0.013996 0.428769
0.203408 0.092057
0.168224 -0.296563
0.077833 0.398456
0.191633 -0.081831
0.089791 0.084822
-1.008224 0.382925
0.131759 0.084609
0.224800 -0.248620
-0.357414 -0.046523
0.015228 0.008021
0.149268 -0.045342
0.195530 0.027476
-0.434437 0.059952
0.216439 -0.025397
-0.034324 0.068732
-0.185934 0.058768
0.031118 -0.237941
-0.286343 -0.296458
-0.025855 -0.026578
-0.503961 -0.310459
-0.282367 0.091563
0.180785 -0.053634
-0.432532 0.146892
0.172365 0.083816
-0.053586 0.139734
0.142417 0.181491
-0.094724 -0.494904
0.021151 -0.061467
0.202285 -0.300109
-0.017929 0.215405
-0.171157 -0.024332
0.050646 0.133999
-0.132598 0.191062
-0.017490 0.254956
0.409723 0.283826
0.053805 0.016187
0.359542 0.259819
0.551558 0.111086
-0.202930 -0.092040
-0.051740 0.188918
0.234587 0.276056
0.135478 0.420132
0.229614 -0.101904
-0.215073 0.226427
0.418513 -0.011118
0.231439 -0.161479
0.502967 -0.235557
0.133985 -0.092374
-0.140127 0.296911
0.357473 -0.093170
-0.047819 0.287375
-0.150795 -0.276722
0.159340 -0.118718
0.058621 -0.132910
0.095114 -0.036085
0.024457 0.219163
0.230309 -0.379453
0.074687 0.170604
-0.368815 0.057051
0.299300 -0.385511
-0.298426 -0.286934
-0.478491 -0.339839
-0.314086 -0.370475
-0.131796 -0.001634
-0.227854 0.004863
0.199616 0.327028
-0.410959 -0.329526
-0.361890 -0.016649
-0.124288 0.216279
0.095206 0.017927
0.277432 -0.045532
0.071165 -0.100974
-0.097723 -0.034894
0.357480 0.235809
0.080232 -0.396079
-0.090227 0.009252
0.317284 0.220734
0.167579 0.093114
0.226554 0.479610
0.399877 -0.163737
0.260976 0.150352
0.191435 -0.095522
-0.222051 0.272708
-0.701773 0.243683
0.219014 -0.205226
-0.177737 -0.444318
0.043749 -0.423248
0.065665 -0.031118
0.192323 -0.008336
-0.139882 0.125760
0.388603 -0.063585
-0.540979 0.178320
0.297553 -0.478184
-0.136025 0.180440
-0.207427 0.271797
-0.233382 0.545020
-0.077855 -0.150560
-0.019228 -0.241479
0.349244 -0.094569
-0.365179 -0.059763
-0.229773 -0.013597
-0.456856 0.252910
-0.573622 0.084151
0.437606 -0.780518
0.385889 -0.047523
-0.346757 0.070305
-0.248017 0.146484
-0.377400 -0.067410
0.336605 -0.330727
0.443970 0.123919
0.013201 0.499419
-0.939585 0.149929
-0.417542 -0.082926
-0.090765 -0.392871
0.986165 0.074209
0.048698 0.219057
0.092228 -0.468691
-0.180030 -0.384546
0.063001 0.120308
0.182574 -0.045224
-0.350722 0.288327
-0.105514 0.219180
-0.052999 -0.277930
-0.248904 -0.321814
0.336438 0.177186
-0.286224 -0.125587
-0.146748 0.035736
-0.038137 0.321631
0.029708 0.252132
0.402293 0.283802
-0.231555 0.039482
0.077929 0.208447
0.292728 -0.425092
0.466702 0.205684
0.107850 0.234460
0.067570 0.107424
-0.223076 -0.115410
-0.243911 -0.112281
-0.479985 -0.122912
-0.146812 0.120389
0.441216 -0.097762
0.468562 0.057657
-0.107762 0.195243
0.061141 -0.189055
-0.201846 0.276447
0.016909 0.075787
0.332617 -0.074217
-0.264338 0.257130
-0.142312 0.709810
-0.044677 -0.061478
-0.327596 0.104766
-0.022297 -0.006663
0.055620 0.037465
0.209559 -0.410882
-0.096623 -0.327265
0.086707 -0.046933
0.313783 0.086440
-0.046786 -0.124126
0.002323 0.167982
-0.176210 -0.059637
0.026580 0.207420
0.000154 -0.062109
-0.007036 -0.326568
0.042482 -0.377426
-0.027898 -0.221650
0.007920 0.203954
0.015598 0.134469
-0.318228 -0.363910
0.270531 0.330855
-0.093283 -0.128124
0.045730 0.151899
-0.064228 -0.035786
0.110462 -0.114494
0.018802 0.095516
-0.046855 -0.025254
0.134805 -0.543359
-0.172513 -0.409399
-0.140591 -0.356593
0.034974 -0.030540
0.001994 -0.287845
-0.108199 -0.025113
0.006423 -0.194569
0.212183 0.181440
-0.213896 -0.064868
0.203446 0.242655
-0.372533 0.001096
0.077853 0.564675
0.382982 0.099581
-0.129101 0.187232
0.029900 0.153069
0.481505 0.333219
0.136786 0.375762
-0.110077 0.164268
-0.089510 -0.123180
-0.335325 -0.117880
0.152911 0.081962
-0.272020 0.006940
0.017845 -0.246827
0.258494 -0.005594
-0.117968 0.092459
-0.003350 -0.142220
0.052712 -0.063147
-0.163414 -0.010720
-0.138530 -0.308988
-0.418869 0.115655
-0.264378 -0.138355
-0.150783 0.094470
0.249953 0.273437
0.139855 0.582803
0.015693 0.493502
0.014074 0.177066
0.122571 0.010537
0.028889 -0.129416
0.154785 -0.127343
0.241252 0.313067
-0.039537 0.062467
-0.071524 -0.116569
-0.199633 0.394531
0.092118 0.065502
-0.297606 0.080214
-0.029450 -0.221095
-0.127911 0.166794
-0.130038 -0.030013
0.157054 0.221747
-0.009853 -0.139566
-0.210106 0.022684
0.148134 0.040913
-0.492143 -0.279518
0.332846 -0.388411
-0.048309 -0.178114
-0.012983 -0.394665
0.043569 -0.027401
0.018982 0.196014
-0.023840 -0.056060
0.148034 0.236198
0.166859 -0.137634
-0.136703 0.004686
-0.180888 0.049214
0.101736 0.121444
0.157141 0.307771
-0.187064 -0.037051
0.350753 0.002513
0.089030 0.049142
0.138014 0.213452
0.195788 0.090984
0.222208 -0.171820
0.134928 -0.091706
0.008085 0.251328
-0.310009 0.114583
0.089068 0.225197
-0.415931 -0.083629
-0.068238 0.254098
0.230862 -0.319170
0.043638 0.075892
0.180717 -0.061171
0.131597 0.014215
0.088677 0.387133
-0.311662 0.233533
0.117234 0.144522
0.014017 0.250311
0.130865 -0.202720
-0.130382 0.412214
0.234373 -0.168338
0.110941 -0.063606
0.018107 -0.101281
-0.120536 0.201488
-0.080981 -0.163905
-0.157867 0.476579
0.047814 0.060398
-0.155277 0.200258
0.166916 0.055546
-0.376186 0.115690
0.028409 0.161937
-0.219186 0.218466
0.135915 0.117822
-0.212473 0.135408
-0.166668 0.056240
-0.194348 0.012961
0.111184 0.154837
-0.000147 -0.145672
0.072863 -0.176034
0.066725 -0.109746
0.034919 0.052776
-0.296452 0.063130
0.062270 0.001018
-0.458974 0.236357
-0.123628 0.098888
0.344441 0.229609
0.139967 0.058698
0.392034 -0.033347
0.070283 -0.050791
0.063786 -0.049995
-0.159549 -0.215027
-0.119343 0.412234
0.084647 -0.051581
-0.220869 -0.112275
-0.093931 0.138687
-0.163284 0.207180
-0.203582 0.275640
-0.066697 0.238213
0.108993 0.225004
0.346202 -0.071233
-0.058405 0.405285
0.110823 -0.005975
0.091103 0.034579
-0.080385 0.186258
0.026761 0.196529
-0.201751 -0.176262
-0.190808 0.047448
0.128673 -0.311329
-0.224033 -0.095826
0.034607 -0.121359
0.175278 -0.128188
-0.217507 -0.095879
0.043655 -0.101735
-0.065466 -0.313260
-0.224244 -0.202370
0.196636 -0.111314
-0.291515 -0.227786
0.143718 0.079572
-0.293619 0.155406
0.037928 0.009457
-0.200067 0.251000
-0.355929 -0.173106
-0.049880 0.106172
0.013970 -0.025122
-0.098643 0.102701
0.311727 -0.041409
-0.383413 0.156900
-0.111829 0.109823
0.001807 0.031730
0.248505 -0.289235
0.053701 0.153705
-0.323771 0.275031
0.241221 0.307856
0.090532 0.143267
-0.112996 -0.254981
0.333148 0.212759
0.228561 -0.040672
0.126625 0.000627
-0.381519 0.193533
-0.050942 0.332313
0.126600 0.244761
-0.017037 -0.263388
-0.008927 0.155978
0.382971 0.243736
0.062015 0.041842
-0.243118 -0.015830
0.161341 -0.140348
-0.088145 0.170936
0.067477 -0.156834
0.580185 -0.208847
-0.196025 0.213566
-0.181332 0.015924
0.161045 0.114363
0.105676 0.592239
0.134199 -0.191426
0.092934 -0.080074
-0.031159 -0.054548
0.077287 -0.158376
0.158153 -0.048129
-0.437542 0.009488
0.094354 0.078391
-0.015970 -0.030672
-0.077174 -0.179551
-0.071406 -0.091777
0.284166 -0.282852
0.050007 0.335761
0.299869 -0.140781
0.077365 0.088181
-0.125956 -0.075813
0.014637 -0.276563
-0.003039 -0.216867
0.089555 0.010838
0.042345 -0.213838
-0.219537 0.075254
0.053157 -0.293203
-0.272132 -0.249135
0.162074 -0.491891
0.265971 -0.135918
-0.056611 -0.545597
-0.004292 -0.031554
-0.014798 0.284385
-0.028737 0.176039
0.340280 -0.159471
-0.071888 -0.282286
0.322965 -0.277705
-0.358034 0.476554
0.052554 0.198720
0.233476 -0.106788
-0.383266 0.092896
0.129495 -0.357287
-0.261025 -0.133639
0.039279 -0.145026
0.159364 0.306484
0.158838 -0.235851
-0.012079 -0.051831
0.063824 -0.191277
0.200662 0.046074
0.367618 -0.201709
0.156318 0.069664
-0.044316 0.094414
0.126519 0.210416
-0.117988 -0.271577
0.044757 -0.176236
0.013518 -0.085209
-0.096568 -0.120067
-0.491826 0.141954
-0.108322 0.202373
0.122634 -0.351588
-0.083079 0.022205
-0.042472 -0.252120
0.227087 0.026434
-0.297216 0.151050
0.423385 -0.293985
0.132296 0.103022
-0.031968 0.120716
-0.035624 -0.106170
0.057132 0.026344
-0.060292 0.306775
0.068273 -0.159766
-0.223351 0.360015
-0.254669 0.130728
0.109714 0.045133
0.119090 -0.085965
0.229418 -0.038795
0.012687 0.018978
0.065989 -0.087700
-0.168748 -0.169880
-0.075789 -0.084321
-0.005958 0.091233
0.217287 -0.175800
-0.168755 -0.213921
-0.272429 -0.212349
-0.050794 -0.134957
0.276316 -0.364988
0.500197 -0.231175
0.042305 0.027485
0.125448 -0.074140
0.300220 0.173199
-0.154530 -0.111345
-0.440722 -0.060711
-0.100854 -0.391881
0.357285 -0.087793
-0.188839 -0.222298
-0.067072 -0.464896
-0.270459 0.225332
-0.061453 -0.184179
-0.208368 0.302187
0.143655 0.155575
0.026905 0.250415
0.007682 -0.067364
0.078049 0.356947
0.038931 -0.183499
-0.117950 -0.217760
0.027750 -0.105240
-0.075974 -0.008852
0.313807 0.117482
-0.175515 -0.214182
-0.054376 0.131593
-0.073586 0.032831
0.079639 -0.120189
-0.587723 -0.133587
0.038105 0.410428
-0.169613 -0.082584
0.386477 0.003652
0.188707 -0.179422
-0.087113 -0.309359
0.305294 0.003362
-0.176755 -0.095054
0.183397 0.005329
0.047252 0.068484
-0.227441 -0.136694
0.398064 -0.125975
-0.190871 -0.099516
-0.121229 0.273226
0.166330 -0.379952
0.034541 0.038402
0.258183 0.507716
0.291184 -0.513955
0.164101 -0.230047
0.055235 0.260567
0.059339 -0.294234
0.106067 -0.306111
-0.089399 0.092046
-0.086464 0.387426
0.003347 -0.131377
0.160370 -0.119833
-0.530204 -0.026118
0.128925 0.137643
-0.070136 0.147044
0.098501 0.063875
0.023204 -0.026003
-0.280284 -0.114853
-0.042675 -0.087917
-0.067229 -0.321856
0.058019 -0.075921
0.085108 -0.012440
-0.064743 0.052030
-0.170748 0.139922
-0.038774 0.183534
0.403672 0.141595
-0.309500 0.373944
0.103803 0.293164
0.156391 0.136147
-0.120225 -0.008625
-0.261839 -0.289109
0.202515 0.032150
-0.098344 -0.319881
-0.217541 0.010394
0.201268 -0.348000
0.097925 0.249567
-0.203702 0.113717
0.073481 -0.110848
-0.272718 -0.050773
-0.250832 0.193904
-0.299279 0.348882
0.073552 0.253667
-0.085696 0.101516
-0.246278 0.151294
-0.011013 -0.346933
0.201561 0.212417
-0.115855 0.530885
0.084019 0.412578
0.133421 -0.107895
0.029888 -0.198650
0.173337 0.123286
0.379399 -0.254464
-0.238506 -0.063825
-0.353900 0.156204
0.372848 0.349605
0.228281 -0.047890
0.172832 0.451226
0.325440 0.281073
-0.084799 0.238322
-0.278807 0.025083
-0.075118 0.128124
-0.203298 0.126279
-0.323422 -0.131630
0.292282 -0.129979
0.150223 -0.180527
-0.039067 -0.233311
-0.167852 0.149266
0.261627 0.176108
-0.270277 0.137949
-0.174691 0.135896
-0.094076 0.270147
-0.249057 0.023370
0.131500 -0.141413
-0.363777 -0.185967
-0.006181 0.024878
-0.534834 0.069044
0.106910 0.166800
0.009926 -0.082866
0.232561 -0.330395
-0.424484 0.117030
-0.089303 0.224521
0.170512 -0.134855
-0.303048 0.199715
-0.269507 -0.195479
-0.049333 -0.169963
-0.017830 -0.056248
-0.109166 -0.247772
0.280148 -0.201461
0.231111 0.324899
0.065202 -0.071579
0.067058 0.393845
-0.135604 -0.000638
0.238469 -0.437842
0.189704 0.046741
-0.262503 0.079152
0.150003 0.074721
0.443218 0.205662
0.019626 0.664750
-0.680407 -0.119282
0.014346 -0.206842
0.188424 0.044254
-0.161615 -0.172279
-0.341663 0.083126
0.223630 -0.224838
-0.298722 0.172639
-0.139244 0.056718
-0.103627 0.012000
-0.064139 -0.202335
0.060117 -0.025572
0.208790 0.153191
0.050422 -0.334641
0.288446 -0.302609
-0.066121 0.536985
0.136754 -0.017933
-0.065009 -0.114293
0.328629 0.428534
-0.054564 -0.076526
0.187822 0.021765
0.342380 -0.014699
0.105578 -0.015128
-0.113695 0.257954
-0.371059 -0.069176
-0.159302 -0.023667
-0.064577 0.052964
-0.181715 0.286379
0.000978 -0.490767
0.000667 0.029060
-0.332366 -0.039606
0.142481 -0.430920
0.139662 0.051663
-0.025512 0.047753
-0.258750 0.036407
0.297077 0.084891
-0.120735 0.029978
-0.083467 0.106820
-0.517999 -0.361345
0.288139 -0.012242
0.181795 0.224309
0.005862 -0.029972
0.448904 0.010504
0.028203 0.071698
0.434395 -0.088562
-0.187272 0.079199
-0.045197 -0.176690
-0.354139 -0.057343
0.137331 0.285637
0.166078 0.217137
-0.207867 -0.167265
0.069159 -0.441149
0.178845 0.318957
-0.140589 0.308094
-0.185030 0.238424
-0.417057 0.032041
-0.058635 0.095821
-0.216065 0.059951
-0.191877 0.038560
0.210375 0.057000
0.047926 0.142045
0.000838 -0.079651
0.058997 0.291622
-0.003669 0.042722
0.119158 0.144076
0.016223 0.003266
0.461629 -0.288598
0.003408 0.312228
-0.553447 -0.049204
0.293296 0.002254
-0.039535 -0.006991
0.159867 0.053188
0.007627 -0.236387
-0.103127 -0.261234
-0.037164 0.025560
0.585380 0.470871
0.422116 -0.129627
-0.097429 -0.660420
0.177531 0.291874
0.024808 0.371448
0.130984 -0.134728
-0.179414 0.163919
0.061685 0.024162
0.230223 -0.249253
-0.378655 0.161309
0.019058 -0.024225
-0.180444 -0.025382
0.106058 -0.093673
-0.259881 0.056843
-0.203823 0.118638
-0.202221 -0.448679
0.190943 -0.332998
-0.305051 -0.032201
-0.201368 0.202435
0.517819 -0.427771
0.170046 -0.045571
-0.178110 0.157936
-0.142471 -0.068867
0.126668 -0.133259
0.359794 0.143974
-0.133679 0.296854
0.139588 0.064597
-0.011262 -0.290492
-0.096313 0.116941
-0.324387 -0.036789
-0.181331 -0.394847
0.096948 -0.115467
-0.125561 0.509400
-0.150754 -0.361808
-0.288114 -0.178190
-0.450624 0.531407
0.124263 0.038602
0.190962 -0.286980
-0.598194 -0.011928
-0.030525 0.190070
0.100601 0.186417
-0.033163 0.072161
0.039479 -0.142704
0.313674 0.353542
0.003935 -0.026165
-0.048994 0.305910
-0.346820 -0.402295
0.129071 0.368523
-0.082730 0.003881
-0.340287 0.107206
0.128184 0.205884
-0.227193 -0.274170
-0.243017 0.205876
-0.412894 -0.259916
-0.464771 -0.169045
-0.269880 0.132886
0.218966 0.074879
-0.158719 -0.395951
-0.724097 -0.133154
0.665495 0.175514
-0.007025 0.181608
-0.022700 0.209077
-0.225113 0.341851
0.166641 -0.187447
-0.172984 0.668523
-0.222604 -0.103090
0.647907 0.358690
0.083098 0.234699
-0.003676 -0.114942
0.102451 -0.179492
0.019687 -0.440959
-0.018915 0.099785
0.424136 0.256052
-0.180894 0.013153
-0.214904 0.058985
-0.305414 -0.239993
-0.476021 0.261223
-0.007886 -0.186596
0.175657 -0.321214
0.413349 0.164567
0.163723 -0.353224
0.182399 0.402993
0.526267 0.345017
0.055523 -0.019861
0.296531 -0.055487
-0.490569 0.242531
0.141399 0.007571
-0.215420 -0.264926
-0.010397 -0.120016
0.554435 -0.156132
-0.657598 -0.176527
0.244559 0.497303
-0.058663 0.227812
-0.282212 0.079890
0.135535 0.108601
0.068500 -0.300598
0.389998 -0.149024
0.412925 -0.509420
-0.116128 -0.041899
0.128911 0.095799
0.358073 -0.307855
0.627570 -0.183461
-0.287322 -0.161532
-0.285008 0.077717
0.109140 0.622256
0.299743 -0.753733
-0.499797 -0.177523
-0.314503 0.143558
-0.293236 -0.097010
0.394294 -0.125451
-0.318089 0.495275
-0.357834 0.273594
0.048604 -0.097601
-0.085042 -0.206615
-0.110267 0.292663
-0.109188 -0.004250
-0.049955 -0.367245
-0.175912 0.222424
-0.039350 0.366320
-0.157679 0.418552
-0.300627 0.224003
-0.197232 0.315545
0.419671 0.187468
-0.517018 -0.137727
-0.032100 0.239969
0.071113 -0.016250
-0.094059 0.597218
0.007336 0.097497
-0.409193 -0.460776
-0.061394 0.540598
-0.084282 -0.128640
0.333981 0.003407
0.491337 -0.333969
-0.243012 -0.195099
0.243703 -0.241660
-0.091722 0.077847
-0.276868 0.255057
-0.078040 0.027922
-0.653786 0.150745
-0.174273 0.484626
-0.386061 -0.172844
0.367222 -0.094497
0.379075 -0.298065
-0.383701 0.011785
0.099567 -0.286955
-0.010307 0.074116
-0.396105 0.387297
-0.323223 0.264871
-0.052291 0.673128
-0.119421 0.030869
-0.262111 0.016671
-0.511985 0.480701
0.191231 -0.354635
0.560874 0.497155
0.217069 0.038323
0.094673 0.232188
-0.082920 0.506410
0.381491 0.358305
0.372544 -0.386066
-0.719961 -0.141248
0.610799 0.412119
-0.234932 -0.397601
0.404195 -0.301865
-0.031672 -0.188838
0.262978 -0.469533
0.027003 0.083661
-0.209497 0.057053
-0.124414 0.227672
-0.245990 0.019396
0.275835 -0.893539
0.872721 -0.207684
-0.253369 0.127372
0.452452 -0.218610
-0.254544 -0.048062
1.032651 0.093047
0.333770 0.191754
-0.601290 0.216954
0.232089 -0.929229
0.107324 -0.351538
-0.334273 0.462098
0.088597 0.464496
-0.151343 0.020051
-0.129379 0.449895
0.672491 -0.134371
0.582794 0.213984
-0.032939 0.088228
0.075775 -0.305471
-0.008857 1.021936
0.355356 -0.211391
0.138530 -0.491530
0.350308 0.039013
0.397529 -0.149232
-0.249204 -0.444317
-0.054890 0.766376
0.061408 -0.837717
0.382068 0.222046
0.150333 -0.601298
-0.230025 0.087175
0.234577 0.162048
-0.095925 -0.194589
-0.205141 -0.065625
0.112755 -0.005580
-0.331596 -0.882497
0.301881 0.243687
0.712768 0.597626
0.042558 -0.456394
0.428160 -0.525965
-0.178895 0.316787
0.001395 -0.213124
-0.507995 -0.260682
0.224798 -0.082300
-0.002267 -0.240627
-0.611152 -0.125072
-0.229820 0.539575
0.037715 -0.283265
0.561913 -0.071144
-0.057905 0.533309
0.013701 -1.107098
0.682476 -0.119817
-0.162307 -0.350656
0.047956 0.307076
0.715768 -0.204247
-0.105582 0.397302
0.607950 -0.152309
-0.792628 0.147616
-0.079411 0.519109
-0.050658 0.203413
0.171772 -0.037790
-0.211284 -0.288068
-0.105348 0.251792
-0.338908 -0.004664
-0.505049 -0.327215
-0.341709 0.135964
-0.022839 -0.348193
-0.319453 -0.281027
0.565972 -0.651671
0.266364 -0.727190
-0.512593 -0.542905
0.580340 0.076597
-0.403870 -0.254428
0.233186 -0.192434
0.727186 0.002643
-0.182233 -0.220307
-0.400235 -0.024979
-0.503282 -0.504624
-0.819392 0.975079
-0.217052 0.145341
0.082212 -0.174890
0.837700 -0.075690
-0.419600 -0.371004
0.486368 0.019553
-0.879081 0.324458
0.701564 0.130485
-0.100868 -0.569890
-0.576231 0.071751
-0.064714 0.122713
0.555137 0.258325
-0.285074 0.369458
0.310650 -0.181323
0.291392 -0.107456
-0.659637 0.083273
1.261525 0.179025
0.116277 0.101034
0.202343 -0.390348
-0.188354 -0.303579
0.347942 0.844771
0.200324 -0.207984
-0.584080 -0.236684
-0.280827 0.132147
-1.006863 0.030172
-0.676462 0.053711
-0.177419 0.235278
-1.354785 -0.152298
0.521691 0.689509
-0.724794 0.293293
0.422401 0.232125
0.001049 0.299499
-0.316633 0.296310
0.400108 0.148299
-0.036608 0.251283
0.187120 -0.432549
-0.604732 -0.318512
0.114266 0.505461
-0.267099 0.045317
0.431240 -0.659966
-0.395758 -0.050223
-0.328968 0.066957
-0.347222 0.323713
0.684445 1.121251
-0.394323 -1.384267
-0.207306 0.003819
0.281152 0.676524
-0.126381 -0.201771
0.953816 -0.023949
-0.218127 -0.675051
-0.054198 0.173720
0.687325 -0.496082
-0.900004 -0.130351
-0.528221 -0.515675
-0.688999 0.841980
0.248180 0.035893
-0.271130 -0.252938
-0.470793 -0.177476
0.284251 -0.019942
-0.016495 -0.515999
0.112187 -0.051227
-0.172985 0.117873
0.806155 0.018656
0.829217 0.161448
0.096935 -0.503240
0.372487 1.221667
0.392970 0.260424
0.468003 0.367592
0.263163 0.011090
-0.509573 -0.624101
-0.618393 0.793456
-0.238129 -0.905034
0.183558 0.608532
0.003085 0.351755
0.278191 0.097825
-0.109324 0.636502
0.181468 -0.081615
-0.145725 0.672704
0.526216 -0.383862
0.306733 -0.622012
-1.191923 -0.737271
-0.398445 0.605320
1.261772 -0.164027
-0.286656 -0.821111
0.139251 -0.722228
0.099521 0.073306
-0.388493 0.458026
-0.122531 0.511424
-0.082072 -0.427896
-1.111062 -0.860156
-0.337561 0.290751
0.637357 -0.370083
0.293344 -0.045564
0.501630 -0.657488
-0.087765 -0.347365
-1.153304 0.557360
1.130427 -0.583870
0.099954 0.101220
0.488298 -0.768620
0.273741 -0.648221
-0.820181 0.364011
1.048069 0.187738
-0.162727 -0.355465
0.487829 -1.371154
-0.465087 0.221915
0.008551 -0.432197
-0.053684 1.047019
-0.386069 -0.313959
0.213444 0.106413
-0.872245 0.438047
-0.033615 0.311117
0.714764 -0.725675
-0.805044 0.416997
0.779182 -0.021701
-0.428898 -0.493894
-0.610423 -0.195233
-0.870694 -0.847261
-0.837011 1.008002
-0.118468 -0.029013
0.220677 0.191682
-0.435074 0.509641
-0.957745 0.863826
-0.265992 0.406970
0.437134 -0.174660
-0.925771 -1.417100
-0.177113 -0.574340
0.264593 -0.001490
0.350442 -0.590995
0.482794 0.117757
-1.238958 0.410958
0.318151 0.081211
0.330026 0.167990
-0.946828 -0.596396
0.193721 -0.057283
0.785253 -0.284908
0.208437 0.099885
-0.121398 -0.490702
-0.000932 0.941034
1.280383 0.491776
-0.040627 0.530547
1.099446 0.715334
-1.504402 -0.906090
-0.335551 0.870634
0.147018 0.338200
0.314554 -0.544556
0.465269 -2.622135
-1.206090 1.492929
-0.483405 0.692059
-0.428306 -0.524589
-1.631772 1.545592
-0.889707 0.875925
-0.145545 0.394371
-1.687499 0.892866
-0.796433 0.650494
0.947366 1.325317
0.206644 -0.124818
-0.941510 -1.049705
1.246865 -0.543779
-2.310557 0.350996
0.941153 0.695305
-0.573407 -1.308359
-1.741541 1.181277
-0.963856 0.972095
1.894732 0.868458
-0.641802 0.135769
0.571602 -1.319436
-0.877089 1.206815
1.346944 0.180331
-0.128253 -0.256042
1.151784 0.070114
-0.860464 -0.135459
1.205521 1.559520
1.832128 -0.218331
-0.664564 1.605201
3.484426 0.278580
-0.439552 0.384138
0.712563 -0.265194
-0.399524 -0.852922
-2.271832 0.734457
0.316497 1.286924
0.584847 -0.234735
-1.602739 1.562134
0.126398 1.282022
1.284613 1.411113
0.036713 1.045735
0.435017 -0.648190
0.343600 0.457751
-0.663851 -0.466173
0.911187 0.870116
-0.540131 -2.100441
-0.689894 -0.174121
-0.093682 2.117086
1.580119 -0.194131
-4.074947 0.863929
2.003771 0.681795
-0.796645 2.076296
0.069938 -0.092960
0.705850 -2.424551
-1.215878 3.291716
3.367930 0.810016
-1.957526 -0.012469
2.261939 0.443599
-1.802626 -1.108141
1.151948 1.296951
1.637089 -0.526952
0.208389 -2.177373
-0.000732 -1.089533
-1.470180 2.118959
-0.772352 0.148266
0.331010 1.197648
-1.630828 0.208238
1.107446 0.536122
-1.698136 0.338931
0.323454 1.572107
0.443852 1.364275
3.197699 2.041325
1.925734 -0.619543
1.163616 -0.229253
1.463484 -0.099664
1.490375 1.918691
0.780111 -0.804649
0.820492 -0.269950
-3.763681 -2.581764
-0.331083 3.224033
0.612330 -1.027782
-1.665620 -1.919742
2.023269 2.505508
-2.185231 -0.693885
1.256103 -0.104263
0.363921 0.436879
-1.259613 -0.585108
2.098970 -4.864260
-0.804942 0.704688
-0.824675 -2.510793
4.686944 -1.325320
0.054478 -4.046542
1.102496 -2.747226
-2.185572 -4.225462
-1.961413 0.148889
-4.407510 0.607867
1.463792 1.356732
-2.140254 -4.178977
-6.274444 0.637439
-0.693968 2.863705
1.523357 1.289160
-3.367579 -1.312107
2.686990 1.116265
0.114274 -1.628061
0.043076 0.030720
7.341519 -0.136890
0.126146 -0.700357
4.145865 -3.153373
-3.246724 0.726988
-1.350270 2.565840
1.415243 -3.524129
-10.253634 0.648410
-2.200304 5.645572
-0.203402 -1.554050
-2.309736 1.063959
2.869998 9.716754
4.115478 -2.096158
11.030870 2.481983
-7.772222 -0.791199
10.071956 9.077816
0.186550 -8.777363
-4.575966 -10.602255
-4.535998 -3.520272
-19.958407 -5.924583
2.188128 -4.977050
-7.824192 -5.451477
-8.842044 -2.764207
3.677986 3.188671
0.591469 -4.168882
5.211503 3.003652
-7.173204 -3.858892
-1.257581 0.706203
-1.959602 -0.546303
6.508033 -17.503281
-18.952789 -6.389821
-1.638719 0.924910
22.794220 10.095584
6.948448 6.535357
13.712098 -4.954499
-3.497425 13.248407
5.520128 9.772687
-26.095225 6.011767
-0.133005 -6.684499
-31.256048 15.650964
-2.566164 10.421150
0.992409 -18.764186
-12.187605 24.567391
12.494260 0.869600
4.399117 9.408599
21.313458 -10.107710
-28.056757 -10.859697
-2.292513 17.972275
-16.480411 -20.399878
-22.252005 -11.497206
-14.076994 -0.875958
-69.554122 5.172118
22.957301 51.215681
9.375119 -4.633913
21.658138 19.163057
8.613561 -37.560178
11.016366 39.384903
37.952925 -2.428697
74.804516 -56.827522
6.759327 -9.814506
-38.629537 -59.359831
18.905706 43.949541
12.176399 -8.283236
30.049412 31.533898
-45.628371 -38.482798
45.111786 11.351013
-29.889154 -20.081128
26.995540 1.509271
-36.943322 -16.900883
18.179958 18.126418
41.669806 30.585838
-122.258735 5.055511
62.887705 163.816868
42.242105 -14.365788
83.537297 29.216386
-13.286044 41.664949
38.152597 67.435436
168.719897 87.115174
78.261382 -221.886768
-94.340136 244.703867
-941.085877 -563.078554
-206.853830 523.499121
-246.942882 150.796635
-558.652335 -666.497884
-282.803652 340.372683
-2137.922792 242.663475
