6496.427609 4707.686315
-3018.484728 -1444.815418
-968.754242 -934.594350
343.241809 287.459069
-8.532673 -249.635671
-168.843872 50.318233
73.778756 69.695637
-93.520105 -84.010807
-37.032452 -25.543637
-0.550289 -10.220717
-2.009966 25.356244
31.259527 -25.606574
-38.949386 -5.840280
-26.025388 19.787897
-4.019069 -8.150487
9.811155 -1.738523
-1.801662 -17.567353
-12.616392 -5.859784
-3.496950 16.688717
-4.706143 -2.887899
-3.315686 -0.194227
2.955620 -8.228508
-9.033748 -7.321673
-2.232194 2.911133
3.581073 6.918383
-1.427231 -1.645450
-2.662581 -3.181177
-7.591906 0.743738
-4.418735 0.792097
5.354917 -1.243221
-0.353439 -2.650155
-2.752797 0.930965
-3.405282 1.497149
-1.394668 3.492942
0.294938 -2.305685
-0.560320 -3.898005
-2.102208 1.312243
0.190332 -1.165772
-0.776787 4.132301
1.435328 -0.846949
-3.829982 -2.480029
-1.237982 0.435087
-0.531472 -0.676636
-1.347870 0.719154
1.617048 0.630824
-3.204568 0.406129
-0.049784 0.664334
-0.341450 -1.453481
-0.628299 -0.194877
0.609099 -1.018060
-1.316881 0.015187
-0.391639 1.161807
-1.842021 -1.403175
-1.230755 1.093637
-0.470600 -0.986638
-1.156265 -1.363379
-0.622481 1.602364
0.424568 -0.899853
-1.519598 0.535062
0.438693 0.473625
-1.255421 -0.853597
-0.524161 0.398922
0.203007 0.852296
-0.715412 -0.483246
0.287042 0.984000
0.643058 -0.338506
-1.264400 -0.077472
0.075603 0.666114
-0.351145 0.109809
0.249171 1.129116
0.262217 -1.550039
-2.265658 -0.070387
-0.330615 0.904523
0.636582 -0.984457
0.107286 -0.440594
-0.138778 -0.740364
-0.649492 -0.051219
0.488627 -0.175540
-0.625255 -0.258531
0.599785 -0.285219
0.086399 0.205411
0.005307 0.255221
-0.265219 -0.049904
-0.698110 0.264798
-0.077873 0.100618
-0.259750 0.065705
-0.399154 0.495883
0.469198 -0.004146
0.127953 0.371341
0.053322 -0.095095
-0.014528 -0.595317
0.711324 0.787801
-0.635878 -0.110970
-0.045754 0.371572
-0.437631 0.277416
-0.337045 -0.112587
-0.299514 0.046071
-0.075451 0.313706
-0.788169 0.138986
0.348839 0.544247
0.369642 0.128998
-0.345165 -0.517238
-0.366840 0.414298
-0.659296 -0.113548
-0.167779 0.070402
0.916818 0.299839
0.072372 -0.697323
-0.353914 0.535200
0.560660 -0.241861
-0.471380 0.524403
0.780772 -0.238253
-0.228384 -0.159599
-0.470680 0.513449
0.130159 -0.080594
-0.089960 -0.177796
0.579508 0.494904
-0.506742 -0.556518
-0.358982 -0.017978
0.649269 0.022811
0.433107 -0.118796
-0.094771 0.349944
-0.232596 0.091388
-0.026285 0.278747
0.097501 -0.108925
-0.122095 -0.243189
0.258024 0.418641
0.215794 0.406382
-0.457847 0.181267
0.324593 0.023531
0.236410 -0.002153
-0.217118 0.617224
0.610914 -0.096924
-0.263731 -0.139988
0.301919 0.619252
-0.225859 0.410510
-0.238083 -0.145035
-0.616494 -0.001900
-0.164976 0.068757
-0.331471 0.203464
0.347199 0.067764
0.210973 -0.109568
-0.194762 0.074958
0.258826 0.265713
0.447561 -0.166690
-0.193491 -0.212478
-0.215281 0.306284
0.132671 -0.121390
0.080299 0.289335
0.371097 -0.108544
-0.121946 -0.016427
-0.401947 0.155145
0.108071 -0.118274
-0.170839 -0.042120
0.209501 0.199342
-0.063628 -0.466345
-0.100683 0.242593
-0.050048 0.316756
-0.076181 0.064931
0.144320 -0.026060
0.205375 0.135260
-0.066804 0.242850
-0.234446 0.111354
0.014354 -0.167399
-0.157293 0.129138
0.012694 -0.286514
-0.112837 -0.148583
0.160475 0.244712
-0.012981 -0.231870
0.389445 0.008312
0.028853 -0.296533
-0.214600 0.169625
0.064245 0.046266
-0.196481 0.031303
0.222817 -0.441525
-0.046424 -0.167185
-0.168149 0.167937
0.088400 -0.196470
-0.357588 0.152986
-0.032353 0.048008
-0.133865 0.134406
-0.051119 0.333702
-0.016827 0.354657
-0.015438 0.191926
-0.339204 0.258235
0.168813 -0.235506
-0.173468 0.115479
-0.019905 0.225222
0.120098 -0.268770
-0.117571 -0.034683
0.055290 -0.067435
0.252989 -0.272601
0.213568 0.488055
0.375677 0.257181
-0.121875 -0.170161
-0.227402 0.062575
0.139958 0.008026
-0.139108 -0.258644
-0.013101 -0.073444
-0.088653 -0.220144
0.140213 0.075698
0.151016 -0.308657
0.090568 -0.155365
0.176053 -0.050296
-0.227404 -0.330266
-0.132570 -0.053857
0.302868 -0.432182
-0.085745 -0.018291
-0.156503 -0.149502
0.197485 0.055291
0.019125 -0.202338
-0.218563 -0.183240
0.149220 -0.244054
0.312944 0.088283
-0.038669 -0.023470
-0.069670 0.054333
0.014599 -0.136473
-0.218959 -0.176968
0.244749 0.009023
0.016014 0.028191
-0.121718 0.046174
-0.178672 0.095464
0.219033 0.009084
-0.168065 0.051865
-0.041871 0.023970
-0.085694 0.084195
0.109266 -0.184775
-0.138607 -0.199432
0.114410 0.162245
-0.174431 0.053799
-0.300832 -0.073688
-0.268214 -0.501547
-0.249854 -0.038650
-0.023719 0.202581
-0.009227 0.259986
0.035616 -0.107713
-0.111028 -0.177004
-0.318338 0.123547
0.196645 0.130928
-0.090426 0.123545
0.027626 -0.025055
0.017846 -0.013699
0.367968 0.388620
0.062485 0.089882
0.013999 0.161911
0.177045 0.081778
-0.100571 0.097305
0.135953 -0.107201
0.193756 0.070488
0.194466 -0.104603
-0.262749 0.101458
0.356123 0.118594
0.137203 0.002743
-0.306472 0.080197
0.270375 -0.194785
0.259299 -0.112382
0.168356 -0.087489
-0.159282 -0.061252
0.129889 0.045449
-0.078990 -0.028221
0.264803 0.116273
0.202624 -0.065862
-0.154746 -0.030949
0.269861 0.421369
-0.364961 0.020423
0.043430 0.216764
0.314729 -0.227346
-0.179717 -0.086378
-0.074233 -0.101189
0.393616 0.266607
0.032205 -0.245241
-0.014900 -0.056419
0.145254 -0.114838
-0.234572 0.178274
0.195130 0.015438
0.044811 0.137189
0.001876 -0.021426
0.056081 0.028071
0.173263 0.036577
-0.021802 0.168170
-0.162551 -0.031188
0.151608 -0.235505
-0.062394 -0.112667
0.138264 0.160009
0.057786 -0.152388
0.232726 0.028172
-0.254668 -0.084065
-0.113281 0.138040
0.306582 -0.249106
0.028358 -0.106193
-0.061448 -0.053217
-0.235834 0.094292
0.090469 -0.082091
-0.219171 -0.018928
-0.020213 0.115376
0.102227 -0.071970
0.018519 -0.141843
-0.119050 -0.174228
-0.190796 -0.249445
0.183359 -0.209191
0.182166 -0.089439
0.127242 0.049854
0.005076 0.024309
0.086141 -0.137087
0.001428 0.205848
0.019325 -0.217597
-0.211175 0.183960
0.297892 0.012571
-0.072505 -0.152453
-0.160776 -0.191779
0.037426 -0.099695
-0.006516 0.016564
-0.066944 -0.046191
-0.123246 0.016042
0.191336 0.099059
-0.389173 -0.015511
-0.143721 -0.090684
-0.178209 0.227687
-0.076425 0.007533
-0.244954 -0.132992
0.228461 0.007133
-0.129166 -0.131401
-0.197726 -0.169139
0.101737 -0.019889
-0.128090 -0.105465
0.107199 -0.212922
0.000133 -0.077287
0.039642 0.314123
-0.236027 -0.160999
-0.013306 0.042567
-0.081537 -0.037748
-0.278249 -0.318310
-0.029630 0.035112
-0.086330 0.024870
-0.133607 -0.200526
-0.029419 -0.168207
0.095481 0.253789
-0.140871 -0.211615
0.219842 0.039433
0.144020 -0.154512
-0.047539 -0.045181
-0.164088 0.124586
0.031100 0.047898
0.066726 -0.069957
-0.058384 -0.055595
-0.169649 -0.081882
-0.004187 0.103707
-0.022734 0.004024
-0.058319 -0.168170
0.308381 -0.142307
-0.087984 -0.051195
-0.160713 -0.274200
0.027243 0.219848
0.159556 -0.120017
-0.119773 0.203915
-0.081522 0.072072
-0.361781 0.095826
-0.147785 -0.257823
0.139533 0.007248
-0.097713 -0.032767
-0.062111 0.209938
-0.051570 0.088113
0.117729 -0.029777
-0.090452 -0.160260
0.071606 -0.202287
-0.133934 0.097316
-0.015576 -0.017851
0.162810 0.041633
0.225163 -0.161549
-0.191976 0.067318
0.009038 -0.076019
0.034232 0.167461
0.107273 -0.120536
0.149925 0.002056
0.156738 0.201591
-0.219006 -0.109604
-0.328351 0.103429
0.307092 -0.056820
-0.235232 -0.232634
0.085879 -0.039783
0.254764 -0.070471
-0.003716 -0.022610
-0.208859 -0.048526
0.023050 -0.321439
-0.055985 -0.048699
-0.046946 0.089668
0.049583 -0.239201
-0.208426 0.138612
0.018407 0.155194
-0.074953 -0.152906
-0.008682 -0.280462
-0.130777 0.183117
0.103692 -0.199623
0.173712 -0.103666
-0.036760 -0.017837
0.040022 0.436336
-0.111777 -0.017848
0.026784 0.266780
-0.340886 -0.102672
0.178496 -0.051409
-0.023934 -0.010132
0.279282 0.201190
-0.294297 -0.044216
0.165453 0.219389
-0.016035 -0.078673
-0.111949 -0.144794
-0.012759 -0.137704
0.090372 0.127561
-0.014351 0.319038
-0.174606 -0.032448
-0.127404 -0.049399
-0.071893 0.142942
-0.346359 -0.270608
-0.081470 0.434316
0.412091 0.030370
-0.267578 0.064827
-0.104395 -0.121660
-0.117581 0.079666
0.078815 0.044882
0.119237 0.077919
0.212877 0.004670
-0.103670 0.159268
0.096854 0.244673
0.050098 -0.108029
-0.003505 -0.116750
-0.064976 -0.082557
0.086425 0.154599
-0.122228 -0.001813
-0.041059 -0.234249
0.201087 0.089327
0.091021 -0.347702
-0.135377 0.063579
0.279527 0.097822
0.118021 -0.124299
-0.042889 -0.305049
0.129450 0.122548
-0.066858 -0.057752
0.111024 0.133174
-0.300194 0.142360
-0.164072 -0.062868
-0.006147 0.042564
0.033087 0.022313
-0.105468 -0.113376
-0.042593 0.020319
-0.131514 0.204078
-0.212363 -0.257604
0.093460 0.105246
-0.028562 -0.058862
-0.259164 0.151927
-0.049574 0.010462
-0.304124 -0.087637
0.175220 -0.038062
-0.072782 -0.077641
-0.009553 0.309145
-0.126386 0.112331
-0.071927 -0.052558
-0.263577 -0.073852
0.258636 -0.006076
0.105393 -0.026736
-0.056325 -0.098136
-0.066840 0.125495
-0.039965 -0.049213
-0.025838 0.301012
0.157845 -0.407670
-0.132547 0.007921
-0.059636 0.097538
-0.049131 0.167001
-0.099258 0.044243
-0.112334 -0.105772
-0.204717 -0.314855
0.139222 0.159168
0.091737 0.201007
0.054440 0.149772
-0.205599 -0.036856
-0.105029 0.078068
0.223565 -0.138169
0.212380 -0.040109
-0.161373 0.086457
-0.149481 0.104370
0.097790 -0.229737
-0.142717 -0.058801
0.204486 0.114268
0.194114 -0.168145
0.227620 0.251293
-0.055519 -0.318559
-0.121488 0.156848
0.327305 -0.029765
-0.107035 -0.149473
-0.051368 0.089333
0.068899 0.139849
-0.170634 -0.198162
-0.144616 -0.242341
-0.076582 0.210228
0.198785 -0.144289
0.114183 -0.070256
0.074761 0.066245
-0.197206 0.162360
0.023720 -0.262485
0.108937 0.300900
-0.042897 -0.139297
0.026203 -0.057830
0.189554 -0.260939
-0.132469 0.300224
0.063395 -0.233961
0.103202 0.212090
0.010150 -0.253813
-0.233210 -0.060982
0.111218 0.125416
-0.030487 0.125708
0.089695 -0.234857
-0.190274 -0.069503
-0.174776 -0.007252
0.111898 -0.301534
0.097823 0.126771
-0.000157 -0.004944
0.096739 -0.076046
0.038127 -0.316317
-0.049732 0.047984
0.186053 -0.405820
0.061689 0.107083
0.158550 0.118640
-0.146951 -0.035217
-0.124205 -0.348249
-0.185695 0.123797
0.326942 0.023322
0.189394 -0.286361
-0.005862 0.251652
-0.257392 -0.220027
-0.055944 -0.015963
0.290266 -0.172753
-0.168104 -0.017628
0.118602 0.020788
0.042203 0.237692
-0.438533 -0.150096
-0.264143 0.363342
0.476961 -0.121383
-0.135179 -0.249558
-0.171103 0.017981
-0.183065 0.219982
-0.121566 0.019126
-0.004558 0.021251
0.114968 -0.401342
-0.337807 -0.068402
0.120911 0.134555
0.020200 0.007577
-0.044640 0.119783
-0.149956 -0.253877
-0.072094 0.057268
-0.205009 0.041256
-0.182697 0.110845
0.449506 -0.128632
-0.151087 -0.007309
-0.281571 0.040238
0.010489 0.058931
0.123313 0.123190
-0.125569 -0.026311
0.169489 -0.036021
-0.182868 0.064250
-0.218538 -0.001424
-0.168174 -0.129105
0.140004 -0.065310
-0.167736 -0.274366
0.215704 0.020528
-0.100392 0.126985
-0.243694 0.168755
-0.083682 -0.034597
-0.064236 0.144119
-0.024316 -0.026083
0.149303 -0.065404
-0.101662 0.365886
-0.270867 0.210522
-0.094519 -0.347769
-0.349861 0.037414
0.211032 0.126651
0.020196 0.002545
-0.025748 0.441712
-0.206247 -0.033932
0.016685 0.058784
0.163545 -0.085056
-0.266759 0.021540
0.057362 0.267647
0.063368 0.099513
-0.043057 -0.265576
-0.306261 -0.161143
0.036255 0.335942
0.083531 -0.101562
0.056292 0.011330
-0.036916 -0.084067
-0.247685 0.291959
0.041762 0.017077
-0.093560 0.091749
-0.046140 -0.159920
-0.066765 0.265488
-0.082776 0.188868
-0.029969 -0.041760
-0.017256 0.056982
0.262738 -0.140949
-0.407531 0.005409
0.313031 0.478924
-0.188431 -0.021568
-0.026497 -0.416937
-0.141383 0.084085
0.169779 -0.080581
-0.109288 0.276740
0.280408 -0.120728
-0.380486 -0.152417
-0.172041 -0.006994
0.126249 0.072697
0.004791 -0.248109
0.136695 0.163583
-0.025989 -0.276023
-0.039972 -0.239521
0.067631 -0.134826
0.033680 0.093474
0.203976 -0.072811
-0.221859 0.023801
-0.122688 0.168272
-0.036420 -0.032537
-0.061002 -0.089113
-0.023012 0.171558
0.039317 0.029437
-0.398055 0.174345
-0.029308 -0.128741
-0.154073 -0.101623
-0.075859 -0.033062
-0.108659 0.009117
-0.012467 0.197364
-0.033715 0.034748
-0.079213 0.253930
0.023270 0.083806
0.046986 -0.086149
-0.186526 0.079338
0.051717 0.335597
-0.194650 -0.049859
0.170966 0.172863
-0.059481 0.066594
0.037466 -0.092525
-0.140737 -0.148488
0.246543 0.065502
-0.207153 0.034891
0.125185 -0.106447
0.155721 -0.095456
-0.064748 0.145626
-0.088189 -0.217232
-0.222447 0.124066
0.331457 0.116637
-0.291973 -0.105679
0.240893 0.092520
-0.043194 -0.011377
-0.121515 0.137030
-0.074036 0.104924
0.193768 -0.106791
0.188261 -0.209176
0.007564 -0.112111
0.416071 0.264577
0.077718 0.178791
-0.083572 0.199661
-0.056499 -0.172357
-0.160749 -0.086319
0.076235 0.333114
0.399080 -0.225766
0.102837 0.037011
-0.180954 0.081176
-0.021616 0.083647
0.132635 -0.296032
0.119431 0.098304
-0.244800 -0.154574
0.096639 0.026034
-0.144104 0.235312
0.013012 0.182652
-0.243139 -0.186812
0.168345 -0.001501
-0.314620 -0.132172
0.070971 -0.055133
-0.020713 0.004788
0.223064 0.196649
-0.009223 -0.084481
-0.191882 0.085630
0.048450 0.201534
0.074629 -0.269619
0.053874 0.116725
0.095936 0.291661
-0.051702 0.186261
-0.092884 -0.078164
-0.137261 0.049515
-0.067901 -0.033955
0.080043 0.130274
0.092701 0.341156
-0.130796 0.063674
0.160699 0.054161
-0.090383 -0.089140
-0.016761 0.038257
-0.181066 -0.001485
0.244974 0.036205
0.158436 -0.296476
0.251623 0.021556
-0.090795 0.163274
0.093959 0.018510
-0.231849 -0.035566
0.044588 0.022093
0.079249 0.167610
-0.101878 0.040082
0.041740 0.012700
-0.073840 0.064083
0.035432 -0.094581
-0.091769 -0.152951
0.290611 0.238462
-0.129969 -0.028046
0.169297 -0.157028
-0.099729 0.230436
0.051118 0.229133
-0.032894 0.023098
0.105647 0.091531
0.185883 0.237466
-0.111028 -0.044685
-0.056102 0.211264
-0.031735 -0.183869
-0.215557 0.051030
0.117814 -0.087313
0.150437 -0.047578
-0.126471 0.011736
0.003148 -0.041916
0.195092 0.130797
0.007121 0.029729
-0.096437 -0.029937
-0.049578 0.109051
-0.086152 0.127124
-0.256459 -0.155444
0.042503 0.313623
0.031641 0.045803
-0.202525 -0.232507
0.063593 -0.001920
0.112184 -0.024700
-0.080814 -0.202421
0.199329 -0.206741
-0.057970 0.173623
0.057413 -0.091450
0.112245 -0.261333
-0.020922 0.067361
-0.155652 -0.150551
-0.232358 -0.056173
0.167688 0.153086
-0.014166 -0.293406
0.034943 -0.162728
0.150583 0.006934
0.099250 -0.085324
-0.067922 0.200525
0.050744 0.093614
0.255201 -0.068788
-0.031820 -0.035265
-0.295880 0.144730
-0.328470 0.108288
0.168464 0.004341
-0.283154 -0.078477
0.123438 -0.113856
-0.055444 0.027069
0.275524 0.050272
-0.294070 -0.180637
-0.057040 -0.108205
-0.103796 -0.123066
-0.012808 0.009183
0.042777 0.123935
-0.078550 -0.285872
-0.094689 0.035638
-0.021989 0.106410
-0.193128 -0.105317
0.070598 -0.086380
-0.079453 0.221190
-0.298750 -0.140762
-0.098769 -0.243464
0.070218 0.124914
-0.054639 -0.010552
0.106326 0.020667
0.034640 0.128078
-0.161082 -0.126654
0.225642 -0.166882
-0.162300 -0.093635
0.060461 0.201453
0.028481 -0.106636
-0.180014 0.255774
-0.069762 -0.022864
-0.316684 -0.209098
-0.059719 0.289460
0.257366 -0.183320
-0.216645 -0.030949
0.171671 -0.156859
0.020903 0.078056
0.039261 0.011277
0.089929 0.016206
0.242242 -0.004774
-0.171934 -0.002421
0.038288 0.071230
-0.215512 -0.246545
0.066630 0.271147
-0.091495 0.075146
-0.216010 0.147181
0.004656 -0.255284
0.156955 0.267567
-0.127432 -0.068683
-0.057241 -0.100045
-0.171826 0.427000
0.048355 0.094851
-0.148658 -0.224929
-0.070862 0.125130
-0.068842 0.315293
0.340436 -0.028253
0.079164 0.188837
0.159612 0.456593
-0.049099 0.193424
-0.007531 0.261682
0.247351 -0.184751
0.053123 0.009342
0.169340 0.257035
0.096366 0.462313
0.122458 0.182818
0.160625 -0.174717
0.122976 -0.146354
-0.026837 0.070837
-0.066080 0.004024
-0.025882 -0.277279
0.082524 0.013741
0.054788 0.059245
-0.009725 -0.026972
-0.113043 0.082822
-0.041820 -0.136980
0.013133 -0.070546
0.503694 -0.033386
-0.036301 0.128868
0.102008 -0.212766
-0.183677 0.046458
0.361369 0.116407
0.253326 -0.463190
-0.150650 0.134280
0.078739 0.130215
0.062832 -0.089497
0.361058 -0.145666
-0.062536 0.233612
0.118373 -0.092943
-0.139928 0.074632
0.203150 0.123423
0.018264 -0.066017
0.076884 -0.294885
-0.011509 0.184227
-0.038904 0.058962
-0.247927 -0.125583
-0.114220 -0.068843
-0.006595 0.031218
-0.053708 0.123669
-0.152206 0.174832
-0.165760 0.136892
-0.223409 0.021837
-0.397003 -0.466192
-0.140990 -0.004999
0.088242 -0.118427
-0.368949 0.194545
0.258942 0.023792
0.040021 0.064602
-0.051734 0.062588
-0.248244 0.383407
-0.030060 0.294098
-0.217014 -0.145668
-0.408713 0.074212
-0.083737 -0.010957
0.013002 0.218048
-0.017037 0.153801
-0.182058 -0.146402
0.143283 0.088723
0.218982 0.106774
0.354411 -0.212201
0.242340 0.012603
0.101764 0.096848
-0.046424 -0.328002
-0.090775 0.068146
0.070279 -0.161197
0.078747 0.002322
0.026737 0.065047
-0.251601 -0.276006
0.030051 -0.061448
0.014313 -0.018109
0.125315 0.092969
-0.160659 0.077426
-0.170956 0.349600
-0.074279 -0.107248
-0.213417 0.027327
-0.181294 -0.284116
0.000122 -0.056117
-0.298690 0.190670
-0.058800 -0.245548
0.191115 0.034421
0.162052 0.176026
-0.316577 -0.094398
0.237520 0.087955
0.107870 -0.115955
-0.114202 -0.010509
-0.080005 -0.106494
-0.003220 0.175952
-0.082251 -0.169088
-0.051284 -0.112846
-0.313263 -0.409400
0.124181 0.223834
0.190675 -0.095587
-0.026050 0.259485
-0.145318 -0.225000
-0.284284 -0.213279
-0.021869 0.055567
-0.078739 0.073016
0.054462 0.409361
-0.126376 0.399651
0.071413 0.342496
-0.436536 -0.345918
-0.244154 -0.234294
-0.051823 -0.216471
0.181998 -0.080498
-0.007984 -0.668394
-0.110560 -0.289795
0.054565 0.659374
-0.262854 -0.067727
0.218679 -0.270378
0.178656 -0.511221
-0.171660 0.372442
0.175328 0.631106
0.398681 -0.422642
-0.242235 -0.137316
0.172584 -0.058127
0.033697 -0.034387
0.206013 -0.106825
0.322331 0.500016
-0.041217 -0.709204
-0.074290 0.173322
0.616058 0.344507
-0.393096 0.207861
-0.376941 0.016846
0.268985 -0.242701
0.150335 0.120830
-0.250423 -0.065622
0.035089 0.034678
-0.059802 -0.017445
0.398056 -0.215076
-0.200500 -0.105480
0.210552 0.521300
-0.313023 0.068330
-0.020577 0.609866
0.225606 0.076963
-0.172558 0.084594
0.077754 0.215131
-0.747929 -0.470792
0.335734 0.320463
-0.135463 0.143179
0.086328 0.275778
0.024999 0.197291
-0.013787 -0.071553
0.119443 -0.337675
0.229397 -0.727644
-0.578890 0.472617
0.634865 -0.382122
0.182238 -0.317702
-0.031153 -0.606339
0.140004 0.236578
-0.562046 0.956906
0.462648 0.281837
0.120342 -0.424401
-0.305842 0.601040
0.540658 -0.568197
0.352453 -0.409748
0.389512 0.868597
0.169671 -1.068096
0.003085 0.182538
0.154072 0.045369
0.700860 0.288465
0.517631 0.065796
0.455712 0.368359
-0.996635 -0.835102
-1.224767 1.469064
1.051377 0.470743
-0.274000 -0.879618
-0.600967 0.275541
-0.465258 -0.413142
-1.359676 0.266026
0.668323 0.668814
0.756247 -1.441930
-1.617908 -0.435000
0.019589 1.421180
1.340600 0.055505
-0.828674 -0.124376
0.265172 0.876792
-0.953342 -0.581498
0.492215 1.045824
1.370571 -0.726026
-0.543519 -0.435184
-0.177306 1.010296
0.465796 0.559786
-0.906618 0.918929
1.566157 -0.833910
-1.120397 -2.017177
-1.313104 0.705900
1.707922 -0.422803
-0.676658 0.371955
1.705329 -1.239566
-3.336777 -2.462371
-1.162241 2.107389
0.323159 0.706745
1.117673 -1.054300
-0.117522 0.230169
-1.222359 -2.705081
-1.752717 3.129548
2.765161 -1.044249
-0.595268 -2.715321
-2.347332 -1.817925
0.020372 1.259245
-1.915200 -0.019653
5.228428 2.123864
-2.647917 -5.434323
-5.053509 1.525574
1.121266 0.800567
-0.415596 -0.483000
2.345973 -0.110246
0.883877 -5.613385
-5.187909 3.581660
1.112807 1.420030
-1.983196 -1.209062
-0.606302 -1.047686
1.700016 -10.162750
-5.319374 4.264574
7.653005 1.689995
-2.956731 -2.000377
1.720563 -0.989793
-14.361506 -5.743793
-0.241499 4.863837
7.549046 -2.171720
-0.320888 -11.455717
-5.253296 1.738926
-7.341176 -7.525049
-20.853502 17.820377
22.719519 -20.282429
-26.024652 -5.677307
9.617083 -34.653914
-16.133596 23.322164
11.288094 -31.790094
-34.397646 70.523827
34.954655 -149.653575
-216.913692 139.286305
167.047901 -307.215363
-237.492627 47.602316
62.601850 -285.687785
-584.593895 578.449395
