8855.708694 7022.168552
-3849.037395 -2196.856198
-1740.783761 -1601.997513
500.130502 353.363432
72.768550 -130.154196
-322.433958 -25.988603
25.218196 113.936265
-1.254027 -102.959745
-90.634492 -38.915364
33.996085 -45.652498
-70.591367 18.650939
-1.223774 75.204961
24.630212 -47.553152
-27.227300 -17.176567
-26.277119 -14.011368
-23.934542 -5.574258
17.598838 23.347853
-3.342363 -8.284061
-7.857784 1.360184
-5.883059 -14.407331
-20.213541 -2.617549
1.122032 7.875608
0.295377 -1.266371
0.431637 16.800787
1.842855 -11.393739
-10.481784 -3.540546
-5.096459 1.822542
0.775861 0.425454
1.084611 1.753050
-0.584895 -2.772517
-4.364443 -2.879966
-5.853814 -2.966512
-3.158393 3.356084
-0.060820 -2.445616
-0.437635 0.580319
0.025239 0.975262
-2.065575 -2.652432
-2.476832 3.261593
-2.032838 -2.018128
-2.605341 1.529607
1.073095 0.771456
-1.276527 -1.806113
-2.122600 1.568859
-1.030346 -1.711535
-4.939179 2.668093
0.710999 -3.226323
-1.949898 1.143457
0.970950 4.677241
1.659864 -2.557719
-4.079702 2.082854
0.619565 0.523974
-3.789225 -1.137233
2.451188 2.541789
0.430607 0.852101
-3.015718 1.101773
0.548579 -0.893902
-2.434267 -0.485846
0.618957 0.874611
1.083940 0.297988
0.051423 -0.019740
-1.190335 -0.615400
-1.704771 -0.209190
1.569653 0.481347
-0.996761 -0.138133
0.213478 -0.332043
-0.687632 0.511981
0.357026 0.298116
-0.942084 0.204560
-0.721531 -0.682015
0.465079 1.775659
-0.438526 -0.151024
1.419497 -0.722602
-0.910337 -0.260651
-1.139278 0.019159
0.182613 -0.185036
-0.608166 0.075520
0.444385 1.448751
0.031160 -0.246731
-1.421027 0.048106
-1.628952 -0.260690
0.032725 0.413748
0.363940 0.606585
-1.561518 -0.632672
-0.124429 0.231665
0.713624 -2.103117
0.389381 0.756827
-0.562080 -0.624569
-0.842930 0.078396
0.853419 1.139538
-0.146478 -0.892882
-1.222572 1.821124
0.434655 0.287395
-0.518586 -0.350520
-0.368208 -0.434092
-0.212669 -0.560834
0.142758 -0.534345
0.133655 -0.268089
-0.948459 -0.150676
0.012352 0.846903
0.959697 0.276534
0.497064 1.065967
0.541798 0.651326
-0.554895 0.175162
-0.187235 -0.019429
0.009677 0.241757
1.462702 0.051870
0.199682 -0.259879
0.420190 -0.104850
-0.034960 -0.495591
0.011747 0.667051
0.447152 -0.374007
-0.088408 1.032787
0.317524 1.149822
0.002198 0.274640
-0.591206 0.801246
0.187866 -0.458951
0.024089 -0.333119
0.687402 -0.363708
-0.343359 0.235421
0.080872 0.059783
-0.228471 -0.742299
-0.127998 -0.325305
0.782486 0.664459
0.512250 0.183637
0.331164 0.271919
-0.120938 -0.797239
-0.605138 -0.126791
0.076611 0.263506
-0.187849 0.297250
0.372257 0.408512
-0.195558 -0.640080
-0.069759 -0.339301
0.001918 0.379266
0.019650 0.203369
0.029123 0.302916
0.186580 -0.548521
-0.245646 -0.647200
0.393798 -0.203407
0.027736 0.761559
-0.501085 -0.011047
-0.388182 0.387982
-0.263930 0.215160
-0.511064 -0.517896
0.677037 -0.219750
0.253920 -0.389520
-0.066756 0.333179
1.095638 -0.351933
-0.210773 0.816854
0.123557 0.402438
-0.588709 -0.006984
-0.036727 0.277984
0.450943 -0.149168
0.135775 -0.199762
-0.137226 0.344657
0.538128 -0.259264
0.091485 0.770924
0.665255 -0.674179
-0.432861 -0.022020
0.412161 0.056870
-0.450870 -0.272800
-0.314064 -0.185898
-0.342191 0.375192
-0.271672 0.687967
0.434189 -0.030669
-0.203996 -0.076401
0.153486 0.426071
-0.147529 0.000642
0.017764 -0.420533
-0.110643 0.166349
0.041933 0.143713
0.225238 0.367705
0.274510 -0.439973
0.383146 0.126247
0.185188 0.111100
0.099995 -0.151432
0.303124 0.128290
0.189983 0.350946
0.570817 -0.462785
0.055327 -0.313004
-0.024521 0.022425
-0.245179 0.029411
-0.012587 0.134903
-0.094597 0.244857
0.012917 0.342767
0.378123 0.047580
-0.357633 -0.434928
-0.273569 0.313308
0.241539 0.042418
-0.375409 -0.337394
-0.068510 0.112863
0.125531 -0.686915
-0.297268 0.297416
0.269292 -0.459311
-0.117348 -0.087663
-0.292235 0.064888
-0.012123 -0.784293
0.389756 -0.011565
0.004477 -0.457068
-0.336047 -0.192008
-0.019039 0.084085
-0.323673 -0.184994
-0.369116 -0.511136
0.028193 -0.034173
-0.516850 0.423951
-0.134935 -0.058345
-0.458098 -0.082983
0.237891 0.261148
0.007490 0.110628
-0.063344 -0.166735
0.009459 -0.194763
-0.067561 0.184208
0.044667 -0.199293
-0.255885 -0.146877
0.007598 -0.222432
0.115701 -0.033879
0.065299 0.360313
0.358323 -0.271629
-0.178290 -0.518472
-0.009509 0.227679
-0.297446 0.186250
0.328576 -0.034299
0.255269 -0.070414
-0.208133 0.237935
0.066843 -0.037013
-0.048115 -0.408910
-0.209762 0.250858
0.223000 -0.326493
-0.277315 -0.364469
0.039699 0.229495
-0.242378 0.156106
-0.118225 0.013437
-0.057834 -0.179144
0.100520 0.338406
-0.195454 -0.044815
-0.327295 -0.037104
0.070853 -0.210000
-0.220863 -0.038610
0.033355 0.032504
-0.411399 -0.071050
0.102385 0.082465
0.109903 -0.039189
-0.441917 -0.113278
-0.087832 -0.026134
-0.064508 -0.039068
-0.270186 0.465391
-0.016268 0.068754
0.374111 -0.370286
0.029701 0.096946
-0.107521 -0.023770
-0.034469 -0.129260
-0.058680 -0.278273
0.195622 0.191052
0.089864 -0.005812
0.011533 0.392762
0.046218 -0.092194
0.366076 -0.003854
-0.297154 0.015982
0.224474 -0.193306
-0.052438 0.113594
0.361827 0.114198
-0.250758 -0.233331
-0.148154 -0.114492
0.109477 -0.120201
0.029850 -0.178960
0.286520 0.105458
-0.029846 0.007992
-0.085764 0.176699
-0.045340 -0.226976
0.253227 -0.005759
0.140399 -0.241968
-0.020795 -0.179104
0.086344 0.272553
-0.081822 -0.178756
0.092567 -0.173474
-0.339117 -0.324027
0.082678 -0.041669
-0.050727 -0.057460
0.043854 -0.085541
-0.014630 -0.081736
0.176388 0.431604
-0.381608 -0.089525
0.009770 -0.282250
0.014511 0.025073
0.129485 -0.038234
0.222620 -0.019672
0.201051 0.019776
0.115991 0.242810
0.182666 -0.045307
-0.379509 -0.172217
-0.051192 0.208856
0.423926 -0.096023
0.077020 -0.205095
0.013198 -0.052515
-0.230743 -0.087189
-0.262943 0.270584
-0.181435 0.302178
-0.124828 0.065159
-0.270677 -0.141261
-0.021117 -0.044114
-0.075396 0.047346
0.100097 0.119424
0.052786 -0.111557
0.095884 0.073071
-0.009971 -0.125073
-0.110318 -0.048203
-0.100310 0.298768
-0.059001 -0.136991
-0.032714 -0.025881
-0.056076 -0.094281
-0.023952 0.070347
-0.020204 0.088702
-0.061863 0.346961
0.050460 0.263637
0.036475 -0.198457
-0.223021 0.025390
0.130422 -0.124939
-0.095119 0.020049
-0.155653 -0.233058
-0.069949 0.083518
0.100972 0.047470
0.117977 0.174433
-0.053822 -0.438672
0.004047 -0.187694
-0.143372 0.224580
-0.076289 0.110023
-0.126783 -0.212896
0.093006 -0.211980
0.100288 -0.120192
0.026682 0.055911
-0.001472 0.341103
-0.038199 0.320158
0.291768 -0.016640
0.121545 0.027769
-0.175429 0.170286
-0.055504 0.053547
0.094866 -0.070547
0.028062 -0.140843
-0.276747 -0.012754
0.121455 0.105076
-0.069777 0.134448
0.165373 0.187570
0.064589 -0.100845
-0.300525 -0.158212
-0.427654 0.306359
-0.092200 -0.197271
-0.192827 0.319888
-0.056163 0.294606
0.006031 -0.032405
0.233355 -0.114873
-0.460426 0.121789
0.151202 0.021029
0.190786 0.228473
0.332921 0.126827
-0.183711 -0.235651
0.167974 -0.052721
0.144537 -0.230513
-0.078409 -0.023646
-0.245448 -0.075191
-0.236595 -0.277279
-0.000687 0.286223
0.332032 0.115770
-0.060297 0.046224
-0.045582 0.196218
-0.034054 -0.002956
0.047712 0.080702
-0.075482 -0.135918
-0.117386 -0.238415
-0.228404 0.021981
-0.192013 0.184071
-0.100068 0.062411
0.085826 -0.020090
0.113154 -0.028272
-0.236593 0.116572
0.190018 -0.086622
-0.041020 -0.081967
-0.021117 0.126569
0.055350 -0.134783
0.160020 -0.126844
0.078793 -0.122018
-0.056303 0.009718
-0.095753 0.075782
-0.105146 -0.021279
0.177070 -0.020212
0.053845 0.019769
0.199098 0.074269
0.077938 -0.104393
-0.301980 -0.196567
-0.192338 0.135244
-0.092746 0.094403
0.140164 -0.256352
-0.149563 -0.128086
0.196320 0.205785
-0.217757 0.008855
-0.019530 0.010244
0.204960 -0.276358
0.335368 -0.052571
-0.063463 -0.017032
0.062419 -0.099068
0.103977 0.039292
0.053091 -0.115412
-0.194412 -0.117259
-0.069137 0.114758
-0.028343 0.029280
0.035203 -0.067328
0.029997 0.009919
-0.018170 0.074234
-0.014164 -0.002952
-0.059630 0.040246
-0.006034 0.055191
0.176346 -0.140621
-0.092385 0.207011
0.049758 0.315305
-0.244963 0.104462
0.057421 -0.067949
-0.076539 -0.091948
0.062866 -0.153084
0.291988 -0.071677
0.110350 -0.128955
-0.219155 0.152737
0.009742 -0.023957
0.205646 0.146268
-0.290089 -0.110429
-0.126944 0.049630
0.190049 -0.031346
-0.180929 -0.014106
-0.056382 0.135553
-0.026222 -0.207288
-0.083389 -0.057627
0.289112 -0.021619
0.193393 -0.225926
0.010598 -0.078663
0.309251 0.090899
0.149599 -0.187713
-0.031552 -0.054256
-0.214545 0.034661
-0.046062 -0.066594
-0.090910 -0.036188
-0.108909 0.033051
0.262445 -0.300935
0.218956 -0.254395
-0.004793 0.260609
-0.011270 0.331109
0.331864 0.228332
-0.125319 -0.199540
0.093892 0.058673
0.166607 -0.183857
-0.111819 0.061359
-0.160226 0.013331
0.327585 -0.276676
0.127779 -0.004342
0.085588 -0.128708
0.147612 0.118406
-0.239108 -0.032302
-0.153191 0.102495
0.230710 -0.104639
0.206227 -0.248880
-0.166483 0.015247
0.038908 -0.127129
-0.425250 -0.020510
0.148704 0.017838
0.034288 -0.009724
-0.105436 -0.110413
0.019005 0.081659
-0.029516 0.131964
0.073599 -0.389086
-0.267302 -0.084154
0.128516 0.043658
-0.050391 0.244001
0.160354 0.069040
0.037826 -0.037466
-0.288422 -0.078170
-0.082422 0.055175
0.131154 0.049178
-0.104011 -0.006099
-0.205839 -0.101728
-0.050904 -0.011580
-0.006878 0.106122
0.051266 0.015247
-0.076374 0.120050
-0.105029 0.100489
-0.089965 0.085735
-0.043773 0.076033
-0.054423 -0.404680
0.076730 -0.108703
-0.083857 0.346961
0.025928 -0.231410
0.097219 -0.177788
0.048063 0.233311
0.003290 0.210476
-0.168970 -0.248713
0.183599 0.281171
-0.095573 0.232784
-0.061429 -0.207358
-0.025041 0.013637
0.226544 -0.149428
-0.392733 0.179065
-0.067318 -0.350981
-0.015244 0.067112
-0.114927 -0.138191
-0.195138 -0.028076
0.097551 0.114688
-0.150730 0.192952
-0.312849 0.040577
0.046309 -0.229367
0.101816 0.089980
-0.152436 -0.226805
0.008456 0.047946
-0.138108 -0.022668
0.009801 0.087943
0.101434 0.118667
0.210935 0.258191
-0.029480 0.276010
0.107856 0.057961
-0.053998 0.027686
-0.201271 0.255347
0.327467 -0.082060
0.147555 0.211059
0.133391 0.018390
-0.150627 0.132900
0.074352 -0.169349
-0.205762 0.075992
0.162078 0.211168
0.325609 0.026850
-0.137102 0.055450
0.124171 0.006567
0.052390 -0.196481
-0.222177 -0.077024
-0.014895 0.136319
0.055212 -0.198675
0.030907 0.153800
-0.020055 -0.077635
0.135636 -0.061039
-0.136458 0.062929
0.107540 -0.042089
-0.061408 -0.209668
0.078336 -0.043878
0.412861 -0.151243
-0.192556 -0.127120
-0.017290 -0.152743
-0.041722 -0.221411
0.031074 0.046487
-0.126675 -0.198599
-0.038601 -0.046129
-0.250582 0.121870
-0.132188 -0.066556
0.152552 -0.188927
-0.036630 0.090749
0.054030 0.091566
-0.197744 -0.450535
0.133166 -0.141117
-0.035628 0.099958
-0.295990 0.198927
0.036818 0.300382
0.099381 -0.106072
-0.105327 -0.379196
0.061597 -0.133306
0.079904 0.137908
-0.058579 0.099498
0.159398 0.025928
0.150953 -0.128577
0.131874 -0.109936
0.108599 -0.034052
0.056877 -0.100801
-0.022542 0.108694
-0.111420 0.052243
0.139285 -0.083369
-0.075355 0.217520
-0.003771 -0.045510
-0.314803 -0.122140
0.308727 -0.035580
0.156644 -0.038520
-0.159079 -0.208834
0.068787 0.012591
0.056543 -0.099427
0.171761 0.148466
-0.042562 -0.185115
0.008912 -0.252878
-0.138124 0.034953
0.255256 0.013251
0.283209 -0.077229
0.087829 -0.372670
-0.496548 0.300189
-0.120817 -0.268293
0.413783 -0.303209
0.007274 -0.089247
-0.049699 0.010948
-0.034673 -0.227203
-0.030881 0.072744
-0.063070 0.122396
0.285792 -0.229848
-0.248287 0.116210
-0.339168 0.036431
-0.326421 -0.157383
0.200628 0.065720
0.098858 -0.392126
-0.101631 -0.134917
0.091802 -0.112237
-0.005605 0.089438
0.012393 0.071996
-0.012136 0.077734
-0.066689 0.075430
-0.037504 -0.390071
-0.526525 -0.002462
-0.002523 0.154499
-0.137533 0.239536
0.069748 -0.285647
-0.445914 -0.182531
0.118947 0.119880
0.216393 -0.113302
-0.081420 0.204733
0.100629 0.161503
-0.010349 -0.145679
0.094355 -0.246203
0.064670 -0.299372
-0.114470 -0.053635
-0.139936 0.219083
0.076938 -0.031086
-0.192303 -0.140431
0.004255 -0.183454
0.164093 -0.049768
-0.076381 -0.022538
-0.139911 0.043706
0.121498 0.006588
-0.092117 0.032027
0.123784 0.137473
-0.140416 -0.149488
-0.140652 0.294140
0.067775 0.142648
-0.231507 -0.019830
-0.086976 -0.353476
0.060120 0.283212
-0.007821 -0.075153
-0.123950 -0.210771
0.162218 -0.137471
0.009043 0.243327
-0.565073 0.167529
-0.157065 0.041266
0.030642 -0.264490
0.033960 0.326075
-0.288666 0.349055
0.107679 0.024630
-0.275941 0.041479
0.022712 0.045389
-0.154757 0.012718
0.084633 -0.081082
-0.164628 0.527846
0.103226 -0.274395
-0.155198 0.143914
0.347912 -0.093253
-0.302095 0.360583
0.187313 0.167544
-0.136460 0.116770
0.094966 -0.084517
0.002047 -0.094447
0.070505 0.171492
-0.000329 -0.324505
-0.324259 0.095661
0.164109 -0.007645
-0.116988 0.069511
0.164862 -0.060868
-0.133461 -0.028431
0.300829 0.003630
-0.217201 -0.144918
0.327666 0.023395
-0.120590 -0.306776
-0.154610 0.032704
-0.085139 0.147617
0.038278 0.024811
-0.165179 -0.354835
0.032096 -0.101806
0.212287 0.300455
0.149370 0.097271
-0.132953 0.063750
-0.316859 -0.002076
0.142677 -0.077725
0.203345 -0.106763
0.115888 0.249679
-0.406572 -0.047944
-0.098574 0.153122
0.097771 -0.438268
-0.349930 -0.181498
-0.074826 0.053221
-0.013407 0.055455
-0.148666 -0.137952
-0.040768 -0.258058
-0.037877 0.187170
-0.079703 -0.044097
-0.174395 -0.026484
0.248407 -0.281937
-0.082040 0.338801
0.259663 0.018903
-0.165895 -0.021430
-0.374894 0.063920
0.075665 -0.122272
0.234764 -0.342917
-0.166929 -0.007233
-0.147692 0.226120
-0.151021 -0.013194
-0.221518 0.100538
-0.146617 0.040461
0.078920 -0.066488
-0.042567 0.069599
0.109514 0.162688
-0.320058 -0.146594
-0.400675 0.010195
-0.138013 0.071814
-0.068644 -0.122090
0.110885 -0.007298
-0.388158 0.387574
-0.003230 -0.036583
-0.202840 -0.015321
0.335135 -0.141313
-0.254354 0.206573
0.046375 0.411216
0.023399 0.050720
-0.179876 -0.067336
-0.293553 -0.084323
0.078054 0.250862
0.304246 -0.093115
-0.122158 0.380331
-0.158339 -0.197379
0.064524 0.094828
0.318754 -0.052199
0.054401 0.207729
-0.099065 -0.411704
0.219358 -0.196894
0.113997 0.297635
-0.023797 -0.053907
-0.469063 0.158543
0.213401 -0.149521
0.044665 0.165941
0.010486 -0.268015
-0.229321 0.035788
0.250409 -0.051002
-0.173515 0.167194
0.289158 -0.319115
0.134029 0.123083
0.258979 0.025815
-0.117440 0.022378
-0.120244 -0.017561
0.019156 0.060437
0.080921 0.080571
0.389862 -0.006809
-0.173310 -0.225716
-0.096033 0.097642
-0.148860 0.017846
0.189733 -0.128602
-0.170445 0.076324
-0.048657 0.003713
-0.143090 0.226993
0.084291 0.158991
0.066651 0.044951
0.062956 0.217899
0.057964 0.164941
-0.089788 -0.146482
-0.312750 -0.007113
0.349553 0.195144
0.054608 -0.286970
-0.110600 -0.253538
-0.058249 0.179988
0.178131 -0.288394
-0.002118 0.086171
0.354856 -0.000411
-0.088717 0.301444
-0.120426 -0.056790
0.019086 0.001462
-0.262616 0.053456
0.068479 0.008694
0.009575 -0.059764
0.048162 -0.395838
-0.103446 0.047367
0.421008 -0.045907
0.042848 -0.065624
-0.237766 0.034113
0.016268 0.102961
-0.017662 -0.060007
0.342536 -0.276645
-0.323647 0.194019
-0.203429 -0.152382
-0.090248 -0.196823
0.101848 0.232963
0.139516 0.020777
-0.123202 -0.212978
-0.116980 0.157266
-0.350410 0.168220
0.105855 -0.169695
0.299673 -0.066681
-0.249094 0.167647
-0.209641 0.114049
-0.091244 0.045300
0.107053 0.087008
-0.402524 0.047150
-0.033881 -0.170019
0.067205 0.033781
0.199456 0.091123
0.100628 -0.243984
-0.342950 0.007367
0.189489 0.202101
-0.288065 -0.218606
0.116123 0.073264
0.140249 0.349036
-0.168931 0.132295
0.142929 0.104717
-0.187700 -0.105131
-0.131568 0.200227
-0.050156 0.154826
0.226468 0.284242
-0.159027 -0.045343
0.006850 -0.142489
0.229895 -0.021958
0.147528 0.124421
-0.045737 0.317113
-0.313676 -0.212571
-0.095473 0.164980
0.120034 0.114799
0.203673 -0.053204
-0.011378 0.069305
0.102847 -0.103177
-0.078197 -0.146039
-0.194353 -0.097424
0.177379 0.043095
-0.098149 -0.106002
-0.203739 0.103653
0.081691 -0.120021
-0.312641 0.124765
-0.196604 0.284576
-0.030890 -0.227532
-0.104873 0.140687
0.010747 -0.097189
-0.032456 0.141405
-0.155770 0.119432
-0.113676 0.088652
-0.067631 -0.117908
-0.125653 -0.182347
-0.125668 -0.076288
-0.178095 0.111202
-0.065062 0.274380
-0.279585 -0.029864
0.155106 0.060965
0.030707 -0.107706
-0.133236 -0.054385
-0.327819 0.081430
0.123859 0.237272
-0.198483 -0.042544
-0.012411 0.112145
0.087946 0.113557
-0.116137 0.000553
0.018374 0.008738
0.052809 0.239233
0.246485 0.135061
0.120768 0.157164
0.449965 0.125138
-0.130761 0.254297
-0.064504 -0.015092
-0.036137 0.026662
0.011104 0.089662
-0.064269 0.296400
0.259344 0.066333
0.012592 -0.093135
0.079643 -0.001426
0.074646 -0.008469
0.006460 0.049745
0.067150 0.108621
0.028397 -0.047564
-0.332028 -0.247016
0.016257 -0.057456
0.053599 0.097352
-0.157397 0.087807
-0.033776 -0.041048
0.298735 0.025736
0.052715 -0.154754
-0.174607 0.027746
0.220939 -0.073306
0.272627 0.344601
-0.054820 0.109310
-0.212421 0.003019
0.142905 -0.247693
-0.155368 0.241467
-0.229527 0.231039
0.341985 -0.316525
-0.112344 0.196581
0.025559 0.039006
0.128836 -0.143753
0.322722 0.008193
-0.200491 0.171755
-0.051617 -0.071671
0.052758 0.039799
0.103723 -0.102521
0.128522 -0.333463
-0.189864 -0.052029
0.145634 0.324786
0.092212 0.015152
0.219320 -0.171657
0.206824 -0.055463
-0.087756 -0.120458
-0.017680 0.151298
0.012448 -0.020363
0.001160 0.106510
0.092350 -0.206496
0.118713 0.044905
0.364962 -0.151252
-0.111201 -0.089779
-0.271627 -0.082791
0.032917 -0.065492
0.056559 0.006038
0.145066 -0.231901
0.090947 -0.018524
-0.184431 -0.072051
-0.072935 -0.114554
0.225319 -0.051565
0.169172 0.044144
-0.158796 -0.076213
-0.045386 0.229576
-0.237091 -0.171699
-0.295851 -0.255647
0.228414 0.094871
0.221939 -0.060966
-0.076191 0.018047
0.111897 0.076347
0.383458 0.129568
-0.212569 -0.111040
0.130562 0.431203
0.132681 0.006867
-0.202872 -0.330083
-0.074967 -0.004286
0.240580 -0.105679
0.038613 -0.135521
0.104444 -0.167656
-0.051791 0.189522
-0.139439 0.222848
-0.144481 0.299089
0.137282 -0.071827
-0.002126 0.088666
-0.296217 0.140885
0.055383 -0.098401
-0.090863 0.121165
0.102237 0.096812
-0.184730 -0.173986
0.146106 -0.016734
-0.090677 -0.262813
0.059470 0.102425
0.233609 0.131672
-0.099295 -0.097704
-0.220381 0.118065
-0.133454 0.082691
-0.224784 0.051356
-0.050696 0.057514
0.104883 -0.073715
0.152946 -0.041147
0.020790 -0.246211
-0.002289 0.217886
0.011683 0.198524
0.051160 -0.002786
0.054051 -0.227738
0.110540 -0.085740
-0.118880 0.205354
0.247759 0.025503
0.000147 0.095783
0.025881 -0.196869
0.022197 -0.288302
0.096785 -0.236785
0.022734 0.276885
0.118403 0.085540
-0.256121 -0.087524
-0.098807 0.095080
0.191764 0.124019
-0.053405 0.135322
-0.132275 -0.071903
0.007467 0.175640
0.058585 0.181393
0.058060 -0.079778
-0.193197 -0.112434
0.109357 -0.192262
-0.173327 -0.077794
-0.028154 0.028024
-0.059332 0.093775
0.095093 0.048490
-0.034075 -0.039682
0.088573 0.066303
-0.104674 -0.037285
0.017915 -0.177193
0.013912 0.090184
-0.125648 0.173985
-0.105563 0.049813
-0.102178 0.018914
0.007036 0.061881
-0.180697 0.012918
-0.028837 0.247718
0.016824 -0.047126
-0.086714 0.220734
0.153875 0.148303
0.012489 -0.272828
-0.190443 -0.129895
-0.131784 -0.000633
-0.052091 0.044072
-0.125785 -0.264350
0.014092 -0.035024
-0.174975 0.101675
0.032133 0.255646
0.510906 -0.084409
0.068835 -0.117464
0.039470 0.027906
-0.612494 -0.179905
0.145452 -0.132291
0.000680 -0.207859
-0.210614 0.132353
-0.270947 0.175966
0.024655 0.113859
-0.335779 0.101735
0.195091 0.097985
-0.039703 0.059890
-0.191618 0.096692
-0.002381 0.229265
-0.078677 0.187253
-0.018718 -0.148674
0.305007 -0.099353
-0.101052 -0.269560
0.006900 -0.171705
-0.294823 -0.167452
0.134705 0.319306
0.101261 -0.063657
0.084871 -0.153034
-0.036877 -0.082576
-0.000046 -0.107938
-0.253031 -0.057078
-0.233761 -0.039686
-0.056738 0.028461
0.104679 -0.265331
0.323913 0.191850
0.252640 0.184079
-0.014332 -0.144672
-0.121093 0.032439
0.228593 0.213745
0.064263 0.145538
0.146533 0.000376
-0.126808 -0.279050
-0.232696 -0.064980
0.094675 0.057579
-0.020441 0.289290
0.000898 0.004417
0.051727 -0.151060
0.045561 0.012132
-0.362741 0.133422
-0.205111 0.008924
0.107840 -0.026676
-0.103382 -0.106833
-0.290224 -0.030786
0.054260 0.028686
0.151117 0.282671
0.140582 -0.140402
0.061188 -0.046537
0.007379 0.100681
-0.062663 -0.048852
-0.161243 -0.164985
-0.008851 0.169773
0.214666 -0.159865
0.004596 -0.119954
-0.051826 0.155285
-0.021528 0.153693
-0.285875 0.146284
0.095265 0.160395
0.051399 -0.061397
-0.151005 0.015380
0.050344 -0.089055
0.270931 -0.366831
0.023576 -0.259953
0.083423 -0.106008
0.093937 0.052933
-0.076552 -0.138904
-0.114307 -0.022920
-0.043909 -0.153495
-0.008421 -0.004156
-0.110967 -0.285727
0.480564 0.148631
0.105736 0.107581
-0.180333 0.099852
-0.136645 0.192519
0.039377 0.239706
0.220385 -0.164437
-0.169507 -0.198270
0.224744 -0.004967
0.180191 0.023464
0.214412 0.542413
-0.222530 -0.306544
0.090189 -0.047580
-0.085068 -0.190659
-0.122667 -0.271012
0.044717 0.233994
0.127603 0.060605
-0.299384 -0.096355
-0.000873 -0.047232
-0.228757 0.048745
0.203626 0.020890
-0.165760 0.051612
0.101460 0.094062
-0.043649 0.154851
0.141650 -0.123130
-0.178120 0.046175
-0.296448 0.005892
-0.079256 0.125776
-0.011165 -0.118092
0.066067 0.120392
-0.139910 -0.109373
-0.321099 0.127098
-0.110186 0.126517
0.382880 0.198686
-0.159203 0.106167
0.016408 -0.009063
0.416615 0.193647
-0.199509 0.224308
-0.155315 0.108548
-0.368744 -0.090293
0.095947 0.237372
-0.052887 0.436495
0.202639 0.326035
-0.117041 0.133108
0.155788 -0.270165
-0.131780 0.172724
-0.002488 0.224355
0.183173 -0.099596
0.004041 0.184312
0.066241 0.329170
-0.360893 -0.385647
0.113135 0.019261
0.175983 0.339956
-0.183607 -0.183211
-0.304010 0.024782
0.273823 -0.117972
0.083422 0.154887
0.045122 -0.007624
0.288787 -0.018738
0.163123 -0.183646
-0.243332 -0.040570
-0.240973 -0.058177
0.083312 0.174244
0.111215 -0.312424
-0.338287 -0.136644
0.070812 0.280033
0.173393 -0.010903
0.161638 0.086914
-0.033329 0.034732
0.112696 -0.257748
-0.042229 -0.019274
0.073745 0.560538
-0.163180 -0.037666
0.164720 0.021475
0.109929 0.312757
-0.246099 0.118762
0.022533 -0.236391
-0.034691 -0.011282
-0.149523 0.576403
-0.218790 -0.006360
-0.021021 0.311994
0.650189 0.166759
-0.061920 0.063015
0.110978 -0.035424
0.051848 -0.028845
0.209402 -0.055128
0.377471 -0.340049
0.144635 -0.027364
-0.304761 -0.205770
0.308586 -0.322338
-0.434947 0.083280
0.116356 0.177380
0.121670 -0.069047
-0.302137 0.038835
-0.421473 -0.295051
0.017099 -0.068624
-0.139908 0.286598
-0.195926 -0.161097
-0.129272 0.066003
-0.466798 -0.217423
-0.264846 -0.264798
-0.201145 -0.277912
0.031270 0.018904
-0.481900 0.042415
0.310346 0.023672
0.382784 -0.332843
-0.259184 -0.582522
-0.176946 -0.087398
0.375885 -0.237709
-0.420497 -0.282027
-0.252773 0.047590
-0.202436 0.272728
0.260044 -0.234114
-0.206838 -0.084378
-0.208242 0.153963
-0.008752 0.277606
0.220516 0.539246
-0.466546 -0.036886
-0.237462 0.112194
0.518647 0.059096
-0.328885 -0.003788
-0.355941 0.053290
-0.312019 0.250551
0.311864 0.330657
-0.048089 0.139787
0.491079 -0.263673
0.305360 -0.220762
0.050446 -0.356354
-0.424082 -0.158834
0.089585 -0.247123
-0.215170 -0.344390
-0.002262 0.051344
-0.189302 0.060368
0.580025 0.432123
-0.491735 0.217970
-0.350698 -0.015546
0.062268 -0.350328
0.011485 0.436636
-0.131135 -0.719298
0.294138 0.054685
0.929167 0.169713
0.240118 0.092269
0.021430 0.243809
-0.770132 0.910313
-0.193945 0.200332
0.351874 0.320477
0.054904 -0.481523
0.345363 -0.474948
-0.207424 -0.132561
0.436381 0.252560
0.123676 -0.383426
0.083470 0.420597
-0.366560 0.278041
-0.541673 -0.660313
0.481839 0.198084
-0.115343 -0.655546
0.335252 0.954730
0.016419 0.134340
-0.307785 -0.139549
-0.309234 -0.708853
0.263667 -0.753655
0.094137 0.183904
0.468117 0.227415
-0.398400 -0.011107
-0.420728 -0.131761
0.105330 -0.270772
0.496640 0.406457
0.220039 0.172194
-0.464254 0.400243
-0.362109 -0.651176
-0.922506 -0.346798
-1.158934 0.123819
0.339179 0.707180
-0.001424 -0.126699
0.420887 -0.907952
-0.301446 0.061618
0.553440 -0.278598
0.615202 0.000150
0.537348 -0.129248
-0.179859 -0.115502
-0.502604 0.311199
-0.759714 0.285637
0.033190 0.305374
0.147772 0.044585
0.083211 0.189856
-0.783420 0.067226
0.418127 0.389749
0.641886 0.511558
1.672258 0.209081
0.013951 1.009220
0.832831 0.524502
-0.421402 -0.532817
-0.804516 0.727755
0.646183 0.479544
-1.190385 -0.758459
-0.083069 0.458727
-0.245718 0.855524
0.547593 -0.627646
1.616393 -0.260853
0.346045 -0.277112
-0.210891 1.055392
-0.049278 -0.308006
-0.446590 -0.310743
0.269913 1.671218
-0.002704 0.638218
-0.788182 -0.184654
-1.195024 -1.017351
0.061011 0.465391
1.159118 0.325259
-0.285024 -0.805245
-0.726519 -0.719510
0.287060 0.000384
0.874451 0.335861
-0.981143 -1.437656
0.854663 0.971338
-0.759588 -0.472553
-0.495548 -0.771716
-0.295592 0.871015
-1.051951 -0.783880
0.852720 1.729217
1.097687 -1.649180
-0.049747 -0.038864
-0.998633 -0.105969
-0.543425 -0.124009
-0.854495 1.343012
1.874669 -1.399972
-0.292259 -0.008571
-0.596204 -0.617287
-2.718050 1.228361
-0.392287 1.193974
1.866233 -1.762426
-1.654058 1.215607
-0.547587 -1.754244
-2.707588 2.951354
1.877498 -0.720099
0.211970 -1.985204
-0.716964 0.816999
1.177652 -0.505990
-3.823051 0.939572
4.165812 -0.405291
-2.120372 2.576543
4.305049 -1.934609
-1.252244 -0.325233
-2.581727 0.600336
-0.229309 -0.210988
1.642364 -1.369556
2.802215 -1.424088
-5.443178 -1.048756
2.029167 0.235922
-2.459756 0.618979
2.535731 0.125832
2.893793 -5.945857
-1.975004 1.803877
-0.877257 0.373930
-4.139137 1.209645
4.253010 2.053940
0.214449 -8.532690
-3.011201 -2.250746
1.905803 -2.490010
-15.840448 0.335319
6.139936 7.895786
-1.058938 -9.617878
-2.099261 1.740561
1.283532 -13.071201
-16.729652 5.978070
11.945939 16.339820
3.540100 -16.443028
1.271371 10.601628
-1.890274 -34.832013
-30.358274 16.549036
25.710613 -9.560357
-20.078955 23.474864
25.217275 -21.821437
-28.571931 -10.946984
-31.469814 -26.301270
6.223356 -3.271895
-32.414746 22.947608
92.901550 -31.697624
-146.795624 -17.103737
133.645126 -59.916466
-357.380065 31.676900
317.635752 -223.722059
-534.840648 32.365122
370.772928 -526.932843
-796.100163 570.264205
