14990.322809 17470.628251
-7991.302559 2765.242721
4576.827110 534.002739
887.770642 -1892.492377
2259.376173 -1802.007329
489.176522 -1608.490716
1103.199145 -1473.264613
533.354918 -1226.041055
142.068083 -269.609781
-354.509882 -420.049579
-185.226224 -667.023339
477.798956 -435.128780
363.173141 -628.659643
316.173347 -320.072106
-389.781736 -389.011969
-5.531131 -415.062031
-281.656542 33.017584
-14.206755 -102.790096
102.087784 -106.153269
106.275850 -72.624076
293.773599 -131.781624
221.158802 -229.038706
55.577276 -391.823278
-0.117572 -283.987457
-67.356114 -239.261593
-100.790153 -174.730074
27.579462 -127.897865
60.610105 -193.687177
24.752166 -262.950731
-17.678872 -103.807135
-190.855888 -173.819428
-188.192112 -148.501217
-131.294775 -31.904899
-64.470885 42.636868
31.058342 128.480533
160.903904 -14.133006
136.821893 -38.927648
124.185190 -94.522588
103.894780 -164.649848
-22.897472 -209.398418
-33.109116 -50.063075
51.162227 -39.722340
122.239331 -63.477743
56.959453 -122.830353
17.906969 -150.864618
13.953173 -119.179495
-79.541718 -118.624711
-89.244434 -97.742868
-83.711062 -16.194466
-17.263301 25.292072
43.052761 63.409971
90.679390 2.747867
81.504128 -65.855882
55.890296 -88.822917
35.575765 -66.330036
41.506570 -72.083379
36.085284 -45.372069
60.993657 -59.691877
70.922993 -76.322410
34.033394 -92.744558
39.566018 -101.754888
25.932267 -128.657500
-50.446054 -154.865278
-71.505089 -77.939220
-65.917301 -34.981409
-32.044247 -18.030771
-15.584558 12.546590
47.069757 24.108377
38.372689 -44.128023
18.149357 -73.885317
9.991927 -49.593961
11.214811 -34.631655
22.866311 -28.301982
35.509534 -38.693808
45.632450 -73.373581
21.357513 -65.179775
34.988271 -91.239391
-4.548209 -108.955489
-59.303238 -102.359166
-58.262045 -47.701747
-46.302489 -16.685981
-33.309001 5.798908
3.753901 3.719139
10.348394 -11.238135
0.937124 -23.975599
0.620146 -22.148807
-1.143702 -17.411260
5.743931 -9.173937
23.803087 13.577923
37.161073 -5.604121
55.645765 -24.701581
48.727469 -62.592173
30.351395 -82.910880
-17.231186 -82.178203
-43.295847 -53.511633
-45.855864 -14.803362
-16.800368 23.982248
21.765718 17.822042
28.509994 -0.726778
36.576212 -10.932027
45.513285 -29.416786
34.361238 -58.684400
2.853272 -35.911173
16.042210 -28.185833
19.226131 -21.246625
19.663420 -19.135539
42.595238 -21.348828
54.143299 -57.612994
22.985672 -77.072689
0.249807 -73.076181
-19.492419 -59.655104
-24.789763 -44.636281
-27.227532 -22.697495
-12.992801 -18.610509
-0.334003 -13.864958
10.731883 -24.387877
2.203651 -42.876525
-8.677135 -39.244873
-15.190970 -30.306032
-14.878787 -13.026953
-1.922911 0.693269
31.738996 -5.186800
37.423890 -44.439565
17.491141 -63.641462
-6.606947 -67.664077
-30.205446 -57.229761
-41.727047 -41.270826
-35.355924 -14.800164
-22.626014 -9.696984
-13.864934 -3.728086
-8.397188 -6.641260
-2.486142 -12.971791
-3.730377 -18.628214
-20.250822 -20.736082
-21.606713 -2.808338
-14.541353 19.009452
14.764624 23.669791
28.672508 10.776485
41.661038 -20.262820
27.116983 -43.595146
1.341799 -50.816048
-19.332401 -36.119607
-18.360442 -19.756336
-16.179135 -9.720597
-12.002348 -1.932959
2.605017 6.179028
11.476360 -2.546166
12.931510 -24.599882
1.941296 -24.383750
-12.715293 -21.717637
-17.608320 -5.568251
-9.798827 8.140285
4.686589 15.015997
20.216203 7.350386
31.357923 -8.445004
29.053375 -28.694596
16.719262 -34.767248
0.774597 -34.693177
-9.111973 -25.215152
-10.059193 -15.187700
-2.588972 -7.358074
15.165046 -4.581016
17.101517 -22.068401
14.308162 -38.987356
-6.505537 -37.424425
-19.492528 -32.601068
-28.133283 -13.586782
-20.024714 -0.643298
-5.241904 5.167236
8.321885 0.467330
12.865341 -7.789321
14.813337 -19.436865
5.901180 -28.167413
-6.975904 -23.520184
-14.857132 -13.752350
-11.479623 -5.023304
3.852949 0.242003
17.461882 -3.459391
14.999799 -25.434574
0.514102 -32.069920
-12.946472 -29.019546
-21.138428 -18.865228
-21.908644 -7.523213
-18.073990 3.846607
-4.719240 6.981383
4.822637 4.228219
9.360528 -4.163137
3.811368 -11.300019
-2.629028 -13.808875
-10.441439 -6.916463
-5.563692 5.669336
1.236694 7.447229
17.804660 3.379167
21.457331 -6.526717
16.771052 -21.985966
3.812917 -28.247359
-9.817967 -24.929357
-18.679921 -16.009564
-18.115378 -0.761600
-11.574848 10.272602
2.204933 16.596987
17.522176 8.261464
21.821569 -7.285034
13.010772 -19.084800
0.846438 -19.048664
-6.011754 -12.648920
-6.583886 2.250337
4.749731 7.853154
22.364399 5.396116
27.179056 -9.507162
23.719549 -23.798984
14.376769 -32.569182
-0.472007 -35.253130
-14.376675 -28.735851
-19.017186 -14.147484
-14.445542 -0.862316
-4.247566 3.814926
7.397216 -2.719826
5.479398 -10.646486
0.421822 -15.396710
-6.059721 -12.437474
-9.096281 -4.635929
-7.063523 3.074819
3.142038 4.883095
11.143361 0.248792
15.402834 -5.520413
15.852445 -15.685845
7.999945 -23.652789
-4.533157 -26.168528
-14.526670 -17.385708
-15.428605 -8.325992
-11.416650 1.421505
1.705776 2.661478
6.192500 -5.771010
1.043680 -14.453392
-8.888495 -13.774154
-13.848422 -7.245778
-15.231236 2.236095
-7.976572 10.721417
2.284573 13.126214
12.476535 10.303602
20.006716 0.716222
19.228368 -10.535859
7.345919 -20.598154
-4.620319 -20.365809
-11.738377 -10.575438
-7.930918 1.099737
1.152248 6.041238
8.842078 1.954323
8.707638 -6.192520
5.875840 -9.115822
-1.142001 -10.083150
-4.691552 -4.071698
-3.002366 3.156627
4.630470 7.658101
12.406536 9.409846
22.061825 2.398836
26.316618 -8.996868
20.001247 -21.174106
9.255536 -26.824315
-2.381170 -24.246830
-6.372704 -14.797626
-2.580541 -5.948274
5.099787 -6.422205
5.466046 -10.649289
3.377661 -15.244818
-1.036040 -14.986986
-5.693019 -14.615673
-10.018883 -9.189974
-8.622416 -3.366636
-5.221027 2.397009
3.954407 6.223602
14.327397 -0.256868
15.411713 -12.648292
9.258988 -23.252547
-1.232297 -24.647806
-11.220013 -18.551701
-12.002057 -8.852103
-7.753354 -5.324552
-3.299480 -4.133908
-1.880994 -7.032665
-3.050478 -11.386736
-7.262328 -12.463437
-12.696290 -10.880924
-18.062778 -2.587992
-17.269826 7.204895
-9.426998 15.323706
2.220905 16.643549
12.794814 8.918301
14.501945 -1.819442
7.754035 -7.629050
1.062810 -9.251187
-3.392310 -4.726159
-3.326408 2.761851
3.073225 4.774652
8.127871 1.409075
10.520913 -5.087813
6.171582 -11.720134
-1.246199 -14.727007
-10.455630 -11.568425
-17.452013 0.164953
-13.495223 12.670604
-0.995905 19.697376
11.859049 15.912526
19.437161 8.481750
20.712447 -1.432382
17.773124 -8.071363
11.917257 -11.638466
7.067639 -11.743167
5.661851 -10.041274
4.041281 -8.542692
4.867059 -7.363293
6.056762 -10.088333
5.732686 -13.911561
-0.434343 -16.022654
-9.089435 -14.117199
-12.238518 -5.332886
-9.208083 3.000350
-2.864393 7.469276
5.266891 6.564499
10.105604 0.238457
8.861953 -3.555640
7.587744 -7.735722
3.328367 -8.891813
0.679534 -8.197958
-0.422720 -5.056918
-0.220854 -2.242038
5.330856 -2.267793
6.166417 -9.368966
0.231847 -13.956452
-5.949212 -12.650598
-12.819034 -6.906080
-13.872115 1.440366
-6.744042 9.547805
0.947714 9.936349
7.306182 7.425024
10.857441 1.486158
8.871980 -4.327438
5.193064 -7.962117
-1.162169 -6.908248
-4.205668 -0.517483
-0.691180 5.950198
5.864081 6.626535
14.198611 2.254303
14.539855 -6.009280
7.705212 -12.259941
0.075450 -12.594468
-5.601192 -6.560285
-6.048502 0.629587
-0.998756 4.884744
2.563150 7.275122
9.573086 6.476104
13.530021 0.839811
12.237713 -6.627043
8.574894 -9.490660
3.276387 -9.545947
0.077115 -4.611905
2.324347 -0.536687
7.239878 0.177625
12.299872 -3.020970
12.169214 -9.720367
7.194372 -13.910937
2.678218 -14.097115
-1.964888 -13.454461
-6.462458 -8.778505
-4.973715 -2.400273
-1.834741 1.247562
3.599686 0.982034
7.942216 -2.280371
7.006578 -8.012358
2.544077 -11.498249
-2.652465 -9.622950
-5.487677 -4.705653
-2.034720 -1.862652
2.973147 -1.571211
5.379394 -3.568738
4.376826 -8.584979
0.556021 -12.423599
-4.897150 -12.664342
-9.894319 -8.406476
-11.307438 -1.223772
-8.032403 5.335145
-0.472861 7.321847
5.512508 3.628865
6.117729 -2.632271
1.014364 -5.165084
-3.999472 -4.011675
-5.973503 0.900172
-2.355952 5.177152
2.473152 5.067634
6.256466 2.390403
5.898584 -0.641509
4.170415 -4.614038
0.643952 -5.843878
-3.170372 -3.267540
-3.860235 1.227724
-2.218802 5.795544
2.188073 6.746957
8.449683 5.416416
9.686721 -1.459617
5.793041 -6.625682
-1.015286 -6.721131
-4.109879 -3.274912
-4.433430 2.140842
-1.759073 7.526461
3.556450 9.386228
9.629570 8.239503
14.207631 4.399637
15.600148 -2.214286
13.457595 -9.092722
6.775558 -10.461387
1.542765 -7.421819
0.615321 -2.733149
3.394933 0.277533
7.738541 -0.821353
8.725701 -4.374006
6.326343 -8.161279
1.313119 -9.632576
-3.227081 -6.823534
-3.504655 -1.181816
-1.874335 3.193194
1.875928 6.602383
8.776509 5.748300
12.446595 -0.689652
11.562262 -6.788458
7.348220 -10.283999
1.056615 -9.071351
0.093242 -4.979020
1.292954 -2.940607
4.179017 -2.906302
4.783754 -6.589118
2.633328 -8.589375
-1.287785 -8.401005
-4.611209 -7.492857
-7.221478 -2.487183
-6.836989 1.909566
-2.633746 6.520631
2.384912 8.728164
7.481276 6.367007
9.832707 1.795561
8.811611 -2.111168
5.333584 -3.046852
3.337931 -1.404259
4.713401 0.925279
6.428536 1.870757
8.811927 0.565381
9.760229 -3.406588
8.969124 -6.762994
6.596507 -8.930429
3.038369 -9.597135
-3.870801 -7.316050
-6.428972 -1.533526
-3.856429 5.456084
2.498331 8.104870
9.132148 7.307288
12.059208 2.880233
12.392218 -1.183593
9.162188 -3.364674
8.469683 -1.733048
9.411755 -1.527541
10.567229 -1.640730
13.322801 -3.398895
14.837172 -7.469427
13.492269 -12.731997
8.570599 -17.494273
1.215374 -18.185122
-5.508103 -13.633629
-7.082461 -6.596205
-3.369812 0.021601
1.531686 1.297552
6.623566 -1.306386
5.309442 -4.613804
4.246446 -6.487267
2.041409 -6.177177
1.073566 -3.225364
1.952343 -1.888122
4.405678 -0.791955
7.172056 -3.087756
8.860193 -5.956289
7.440993 -10.083021
2.878071 -13.017733
-4.050406 -12.513430
-7.724240 -7.266455
-6.664048 -1.728286
-4.268119 1.357635
-0.424140 1.988896
0.770341 0.942706
2.298293 0.490253
2.205776 -0.892518
1.876891 -0.646003
0.718191 0.524210
0.505328 2.399002
2.786862 3.703716
6.966134 3.906821
10.958206 -0.014772
10.899920 -4.590916
8.037647 -7.806546
3.363646 -7.927969
-1.347007 -5.879252
-1.692868 -2.251162
-0.060846 1.477549
2.928353 2.851032
5.991382 1.447307
8.167632 -0.909755
7.260156 -3.669609
3.937242 -4.321508
1.178097 -2.190826
1.432007 2.434193
7.300896 5.326358
13.797697 4.270171
17.713720 -1.166688
16.956598 -8.847771
12.560674 -13.510308
7.294290 -15.208908
1.374809 -14.068630
-1.453498 -9.963062
-1.915937 -5.737969
0.304991 -3.819560
2.187240 -2.756782
3.808475 -3.059180
3.148290 -6.015284
1.146138 -4.221489
0.668388 -0.984450
2.928948 1.275716
7.526368 0.421420
9.633011 -1.779297
10.015703 -5.753226
7.689275 -8.673333
4.912982 -10.512257
1.746489 -10.644477
-0.975597 -8.842098
-3.601638 -6.298830
-3.164699 -3.375339
-0.092338 -1.329711
1.646848 -1.786663
2.095524 -3.928946
0.193802 -3.803395
-1.447442 -1.701362
-1.620408 1.406966
2.012720 3.704390
5.254858 4.551026
9.278649 3.040092
11.005593 -1.240976
10.959222 -5.340871
7.690929 -8.255937
3.242073 -9.497513
0.328766 -6.321601
-0.557331 -0.674409
3.834897 1.894106
7.824632 1.159174
10.162365 -3.595393
8.333847 -7.799684
3.115958 -9.572515
-0.620861 -6.683186
-2.327539 -2.079701
0.044069 3.775343
5.304001 5.590057
11.854558 4.178999
15.393718 -0.872298
15.803210 -7.220344
11.513275 -11.613053
6.245781 -12.240267
3.162623 -9.797544
3.181541 -7.214079
5.284678 -6.905065
6.275406 -8.307145
4.055938 -10.763063
1.119805 -10.796179
-1.995274 -8.959761
-3.666761 -4.794307
-1.669497 -1.076181
0.568844 0.955184
5.074979 1.835170
8.830316 0.606948
11.118159 -4.313580
9.826080 -8.805019
6.841609 -11.083786
3.465717 -10.530902
0.904869 -8.611707
1.913859 -6.866575
2.563548 -7.174507
2.229571 -7.679068
1.562057 -8.153584
-0.017108 -8.165750
-2.186494 -7.212696
-4.313690 -5.696446
-3.787113 -1.686727
-1.251763 1.303438
2.540044 2.831693
6.700099 1.055990
7.732798 -3.415772
5.993995 -6.614090
2.386483 -7.082430
-0.221621 -4.707507
0.750675 -1.481555
4.791543 0.164611
7.074802 -1.735409
8.961268 -4.302155
7.742897 -7.715989
5.273584 -10.412471
1.232399 -10.083647
-2.927256 -6.861819
-2.565052 -2.259637
1.367037 1.219754
6.128708 0.633800
9.552829 -3.089446
7.937699 -8.109528
2.646506 -10.070885
-0.913928 -6.922269
-0.917426 -2.502269
0.973672 0.899640
5.894628 1.724288
10.724426 -0.875469
12.342485 -4.737362
12.343467 -10.016474
8.195228 -14.565759
2.252151 -15.477745
-2.352340 -12.447813
-3.573971 -7.356373
-1.004504 -3.814025
2.311431 -3.747782
4.060544 -5.911209
3.250908 -8.440379
0.540082 -9.391682
-1.034329 -7.831424
-0.902499 -6.133032
-0.873256 -4.095035
1.044619 -2.646426
4.313184 -2.235125
6.581987 -5.272375
6.481366 -9.036553
2.574309 -11.979931
-2.065742 -10.585622
-4.007052 -7.840267
-4.096735 -3.903387
-1.303337 -1.574362
1.988912 -3.054770
2.179879 -5.457539
1.094494 -6.875906
-1.270827 -7.182548
-3.966882 -5.367761
-4.808240 -1.974443
-2.849982 1.200857
1.342047 3.347108
5.432049 1.870371
7.429392 -2.551742
5.610594 -6.500407
1.430178 -7.232049
-1.598953 -4.618634
-1.192032 -0.958335
2.025191 1.099690
5.391394 -0.078013
7.186317 -2.469759
7.111603 -6.014738
4.679710 -8.326398
1.059705 -8.731678
-1.742581 -6.186298
-1.928950 -2.572564
0.154598 1.417637
4.778692 2.742527
8.960737 0.126124
10.443913 -4.240302
8.921619 -8.048572
5.834632 -9.197919
3.634282 -9.242660
2.267289 -7.769247
3.149547 -6.603713
3.507850 -7.135447
4.117267 -8.038986
3.561966 -8.795612
1.139418 -10.148444
-1.770262 -10.702237
-4.589989 -7.055063
-4.404026 -2.098279
-0.312907 1.172913
4.717287 1.260515
8.663555 -1.581008
9.316729 -6.842198
6.488108 -10.518822
2.974558 -12.685700
-1.606159 -11.147502
-3.124215 -7.884649
-2.408660 -5.068084
0.100762 -3.591461
2.388148 -5.204924
2.841074 -8.440509
-0.453854 -10.181694
-4.995175 -8.972113
-7.126419 -4.468413
-6.299559 1.133939
-0.909797 4.563756
4.975591 3.503131
8.047786 -0.089148
7.571626 -5.649195
5.417963 -7.962081
1.467785 -9.036629
-1.110346 -6.232360
-1.247007 -3.590584
1.769661 -0.502297
5.879091 -1.474694
7.659812 -5.468665
5.665342 -9.715230
1.258901 -11.204636
-2.909213 -9.385214
-4.688811 -4.770924
-2.287900 -0.469064
1.597612 1.385079
5.459055 0.341699
8.023734 -3.291844
7.923350 -6.096088
6.377027 -9.588062
2.235359 -10.467975
0.301459 -8.734405
0.395817 -5.349350
2.633082 -4.243184
6.276247 -5.877847
6.999161 -9.526411
3.488515 -13.975906
-1.372017 -13.662208
-5.383767 -12.342069
-7.225906 -7.830852
-6.787677 -3.461338
-3.387006 -0.178862
0.546016 -0.256761
3.174897 -2.039657
4.266785 -5.393944
2.252431 -8.138784
-0.645938 -8.092148
-1.736619 -6.034695
-0.147874 -4.045909
2.930167 -3.579755
5.181462 -7.689359
3.260167 -11.181591
-1.705288 -13.352108
-6.142114 -11.175551
-8.821893 -7.687778
-9.563506 -2.809876
-6.595279 1.569249
-2.337118 3.915675
1.713470 1.765931
3.795559 -1.816344
2.628474 -4.297505
-1.017057 -5.432385
-3.241994 -2.989456
-2.212285 1.131666
2.124158 3.026359
6.773523 1.036308
8.277747 -3.657754
6.957821 -8.192676
3.398661 -11.208381
-1.716852 -10.430170
-4.417648 -7.897871
-5.785903 -3.162274
-4.130756 0.287060
0.719926 2.504113
4.672920 0.333696
6.073540 -3.231953
3.567328 -6.855794
0.098869 -7.643080
-2.936587 -4.044832
-1.403380 0.146588
1.836796 1.909292
6.369237 0.609222
8.562157 -1.718787
9.865955 -6.241707
7.416386 -10.128599
3.405165 -12.285944
-1.618708 -11.164468
-2.990650 -7.783659
-2.715958 -4.121740
0.384198 -2.682361
3.081774 -4.400080
2.663696 -6.851197
-0.020679 -8.691074
-3.081131 -6.576564
-3.295236 -3.227538
-1.369276 -0.274870
2.133792 0.361513
5.359936 -1.184281
6.950523 -4.821329
6.389085 -8.045162
2.894003 -10.886133
-1.298719 -11.281778
-4.521765 -7.957733
-4.611790 -3.924456
-2.106777 -1.500129
1.836554 -1.986355
3.347197 -5.334003
1.957866 -7.273360
-0.834662 -6.858950
-1.396717 -5.342119
-1.740275 -3.415935
-0.390360 -1.545898
2.146696 -1.485925
3.740711 -3.190833
4.740290 -6.266361
3.222365 -8.628041
-0.284545 -10.173273
-3.479277 -7.668814
-4.748810 -4.487105
-3.261335 -0.695440
1.237524 -0.114407
4.126789 -2.082611
4.831838 -4.928577
3.535978 -7.227220
1.169084 -8.121023
-1.164659 -6.608827
-1.920092 -4.535761
-0.558875 -2.426576
1.960153 -1.771634
5.390850 -2.471632
6.625699 -6.003245
5.098343 -10.008505
0.611050 -11.600102
-2.465031 -9.700972
-3.573704 -6.276221
-1.882352 -4.316606
-0.484965 -3.665992
1.809500 -4.516498
2.417450 -6.546433
1.580781 -8.039685
-0.473468 -9.543230
-2.879275 -8.385842
-4.070993 -6.388265
-3.313839 -3.633238
-0.610613 -1.575676
2.260625 -3.359842
3.666460 -5.638209
2.620056 -8.171110
0.529171 -9.539269
-1.604866 -8.812642
-3.131754 -7.576516
-2.681825 -6.423410
-2.817757 -5.971543
-1.921206 -5.374567
-1.629216 -5.786258
-2.527207 -6.869367
-4.036732 -6.608806
-5.436732 -5.034238
-5.261165 -3.045027
-3.687368 -0.551114
-0.767838 -0.151482
1.436720 -2.230959
1.693409 -3.902514
0.101183 -6.166616
-1.610130 -6.021266
-3.037869 -5.271803
-3.248292 -3.410741
-1.882394 -1.825823
0.062976 -1.255574
1.681118 -2.827075
2.272328 -5.210560
0.736880 -7.393388
-2.738581 -7.553562
-4.819920 -5.132359
-4.565423 -1.590539
-1.884487 0.498646
1.024578 0.781625
2.899963 -1.263652
3.261089 -3.601055
1.865043 -5.282537
0.396007 -5.275679
-0.563486 -4.761910
-0.534665 -2.860958
1.401917 -2.036081
3.387034 -2.476664
5.242710 -5.385130
4.084663 -8.760737
1.930546 -10.622613
-1.342776 -10.590634
-3.339463 -8.577503
-3.520673 -6.334795
-3.724432 -5.003226
-2.278717 -4.544648
-1.827587 -4.275051
-1.670150 -4.649566
-1.509359 -4.513769
-2.848050 -4.544178
-2.141989 -3.218462
-1.174325 -1.701924
1.215093 -1.539857
3.637713 -3.814081
4.400437 -6.490349
2.637319 -10.224446
-0.608856 -11.532804
-4.439551 -11.058594
-6.495852 -9.016947
-7.615291 -6.226428
-7.024033 -3.273895
-5.522692 -1.616859
-3.067002 -1.136310
-1.793232 -2.501972
-2.468034 -3.295331
-3.563376 -3.195594
-4.080689 -0.872732
-2.100244 0.844349
1.171431 1.518725
4.167501 -1.246773
4.854132 -4.604833
3.404291 -8.468576
0.397653 -9.787881
-2.850819 -9.432434
-4.970359 -6.941698
-5.307163 -5.030724
-4.752243 -2.253745
-2.503094 -1.895333
-1.135139 -2.798087
-1.073427 -4.374147
-3.344851 -4.829956
-4.636958 -3.052985
-4.094205 -0.438143
-1.029515 1.553968
2.173418 1.426219
4.977529 -1.298693
5.317234 -4.117489
4.513127 -7.643848
2.784266 -9.430121
0.077745 -10.076274
-2.807395 -9.375420
-3.985955 -7.696280
-3.991507 -5.710607
-3.089704 -5.569099
-2.769480 -6.303163
-3.936469 -7.506478
-6.019012 -6.253315
-7.004574 -4.377327
-6.208707 -1.229857
-4.119994 0.833264
-1.662351 0.955639
0.833114 -0.117316
2.067774 -2.341881
2.670652 -5.212215
0.982641 -7.740648
-1.726244 -8.553358
-4.499852 -6.916500
-4.857176 -5.062460
-3.385784 -3.413246
-2.113181 -4.350640
-2.936880 -6.661122
-5.192304 -6.765291
-7.361324 -5.614982
-8.381573 -2.792465
-7.300302 0.712870
-4.524965 2.393191
-1.465948 2.406199
1.225852 0.346035
2.906437 -3.123303
1.223194 -5.870281
-1.597240 -7.483714
-4.528789 -5.232536
-5.543390 -2.448509
-3.463915 -0.558423
-0.603624 -0.007181
0.420250 -2.297529
0.264433 -4.822771
-2.507711 -5.711411
-4.447379 -5.287735
-5.713558 -3.013360
-6.110930 -0.571412
-4.531017 1.350962
-1.100267 2.984238
1.928768 1.459991
3.743215 -1.473060
3.101098 -4.936637
0.437238 -7.280754
-2.580629 -6.268168
-3.928309 -4.697031
-3.831267 -3.016119
-2.657003 -2.555069
-1.128427 -2.509321
-1.039499 -3.528963
-1.211149 -4.753630
-2.766816 -5.629323
-4.201902 -4.999959
-5.793603 -3.292635
-5.461439 0.076024
-2.638351 1.448204
0.633247 0.699565
2.063675 -2.036986
1.139949 -4.771596
-1.097024 -5.615838
-2.639353 -5.257853
-3.116869 -3.288835
-2.615393 -2.949667
-1.148525 -2.835992
-0.837992 -3.883411
-1.623404 -5.719961
-3.325614 -6.735277
-6.047031 -6.689072
-8.451476 -4.452932
-8.853550 -0.357671
-6.338428 2.561936
-3.097848 2.759676
0.142762 1.377240
-0.102640 -0.980646
-0.919151 -2.170741
-2.342959 -2.033245
-2.716451 -1.559487
-2.134285 -0.618331
-1.466117 -0.056492
-0.556851 -0.902006
0.336780 -2.490342
-0.401520 -4.419243
-2.201440 -5.385635
-5.090024 -4.653063
-6.975829 -2.212173
-6.492018 0.602573
-4.499569 2.962730
-1.731719 2.762283
0.441483 1.633804
1.071728 0.353486
0.431450 -1.946408
-0.588489 -2.079461
-1.799267 -1.426492
-2.071566 -0.079978
-0.934117 1.492932
1.928757 1.564342
4.536271 -0.789581
3.912325 -4.640401
1.419962 -7.068880
-2.199892 -7.207088
-5.009747 -5.111880
-5.300950 -1.764958
-3.770261 0.752336
-1.237883 1.531470
1.228632 0.002221
2.179401 -2.509234
0.647576 -4.461670
-1.525163 -4.803505
-3.791492 -3.160582
-3.967248 -0.699071
-1.428600 1.061329
1.934645 0.368207
3.162546 -3.070040
2.208911 -6.398661
-1.193846 -7.343798
-3.832975 -6.556246
-5.197070 -4.403945
-5.605256 -1.895910
-4.505743 -0.676354
-2.047404 -0.703128
-1.726558 -1.267735
-1.647943 -2.676648
-3.338106 -3.215072
-4.550526 -1.835706
-4.811495 0.040446
-2.604701 2.267484
-0.162776 2.150440
1.918947 0.139040
1.861341 -2.549127
0.242549 -4.014784
-1.512028 -4.282648
-3.136834 -3.284040
-3.813207 -1.588482
-3.590193 -0.041145
-1.796438 0.488026
-0.319255 -0.097182
1.263968 -1.468244
0.230123 -3.612433
-2.139335 -4.449201
-4.587989 -3.034182
-5.503949 0.146120
-3.193241 3.228670
-0.121730 3.897357
3.106087 2.329519
4.115129 -0.601003
3.281262 -3.086486
1.334862 -5.407738
-1.199864 -5.233481
-3.111632 -3.504926
-2.243730 -0.997761
-0.266209 -0.258331
2.349189 -1.686797
2.779251 -5.265198
-0.567271 -7.491863
-4.044670 -7.265436
-6.713835 -4.228155
-6.273392 -0.298987
-3.885665 1.787951
-0.741822 1.605095
1.191907 -0.001720
1.544975 -2.845672
-0.551817 -4.576481
-2.697487 -4.829222
-4.459097 -2.824427
-4.239998 -0.468633
-2.092808 1.273526
0.999061 0.109538
1.910794 -2.764793
0.328687 -6.110581
-3.454018 -6.969177
-6.815833 -5.089609
-8.116150 -1.822753
-7.048438 2.019535
-4.709982 3.504072
-1.981987 3.927388
0.257300 2.257160
0.363213 0.507344
-0.337769 -1.501307
-2.008396 -1.567783
-3.727254 0.132736
-2.738001 2.163569
-0.439839 3.659123
2.559200 2.152353
3.497922 -0.897762
2.336235 -4.040641
-0.549193 -4.939678
-3.426783 -4.072857
-5.453193 -1.335173
-5.202247 1.969578
-3.046828 4.225902
0.306779 5.039887
3.132448 2.810587
3.940782 -0.427830
2.080404 -2.671233
-0.277032 -2.896945
-1.856765 -0.761383
-0.731992 1.613246
1.891771 2.134620
4.673835 0.106338
4.888932 -3.456534
2.869080 -6.274110
-0.514724 -6.540571
-3.105025 -5.656431
-4.621201 -2.960831
-3.970779 0.142937
-1.584683 2.277389
1.537059 1.639881
2.835950 -0.951853
1.799116 -3.627581
-0.250167 -3.904747
-1.914550 -2.192164
-1.922707 -0.665130
0.046146 0.427947
2.271563 -0.411567
3.769478 -2.723520
2.502346 -5.350537
0.471096 -7.020533
-2.287753 -6.612389
-4.852527 -5.271480
-5.881679 -2.605590
-5.446546 0.189197
-2.747989 1.837671
-0.615975 0.651061
0.484345 -0.759711
-1.193157 -1.989761
-2.572409 -1.561556
-2.648755 0.274673
-1.500762 1.672076
0.722169 2.314743
3.245696 1.103079
4.123117 -1.320371
3.644626 -4.762255
1.627485 -6.965041
-2.059319 -7.987940
-5.298996 -5.582410
-6.888051 -1.954605
-5.103357 1.879007
-1.974351 3.291960
0.962481 2.054951
1.664764 -0.694570
0.133502 -2.377296
-1.721001 -2.342779
-2.800143 -0.606669
-2.055709 1.434998
0.044806 3.304490
3.049033 2.261836
5.273013 0.104554
5.134999 -3.488383
2.903763 -6.745267
-1.162553 -7.334454
-3.947261 -5.245188
-4.629222 -2.529831
-3.231343 -0.158475
-0.777287 -0.146052
-0.041953 -0.987198
-0.279099 -2.229717
-1.311610 -2.595567
-2.549457 -1.372367
-2.311686 -0.530770
-1.186218 0.701949
0.477900 1.250880
2.006963 -0.112713
2.962593 -2.320453
2.202050 -4.769335
-0.415903 -5.908360
-3.265400 -4.934765
-4.324351 -2.908499
-3.258117 -0.859112
-1.929754 -0.361211
-0.881417 -0.685575
-0.639221 -2.021668
-1.657180 -2.766039
-2.902470 -2.854444
-4.584262 -1.743488
-5.282296 0.569207
-3.921514 2.830006
-1.151183 4.042727
1.294331 2.719967
2.844113 -0.458673
1.532152 -2.738295
-0.919749 -3.827346
-2.768150 -2.388054
-3.298667 -0.371855
-1.955201 1.786281
-0.230029 1.937014
1.334970 1.129268
2.038187 -0.822238
0.429639 -2.948458
-2.089658 -3.214882
-4.569626 -1.227744
-4.889514 2.546615
-1.955520 5.448947
2.379798 5.659011
5.687532 3.400813
6.012191 -0.609758
4.533521 -3.483751
1.906760 -4.012069
-0.424433 -2.527087
-0.814374 -0.832559
0.375246 0.113813
2.001470 0.235617
3.019920 -0.789955
3.132791 -3.243180
1.524784 -4.724736
-0.622173 -4.402672
-2.607632 -2.338282
-2.520670 0.470494
-0.460923 1.899637
2.490280 1.466842
3.824767 -0.462527
4.070835 -2.828551
2.826076 -4.765152
0.704573 -4.945841
-0.633224 -4.983578
-1.752316 -3.606300
-1.182768 -1.665801
-0.287695 -1.171130
0.780548 -2.262974
1.211871 -3.745549
-0.419173 -5.163403
-2.519157 -4.313638
-3.825964 -2.359283
-3.512447 -0.374566
-1.520344 0.771905
0.467912 0.446319
0.975170 -1.116850
0.877999 -2.427252
-0.524557 -3.237132
-1.783185 -2.700917
-2.571331 -1.155817
-2.555623 0.938504
-0.404680 2.282629
2.078267 1.188351
3.605603 -1.154535
1.778252 -4.062091
-0.626777 -5.055516
-3.238766 -3.046494
-4.071678 -0.577225
-2.462024 1.858349
-0.174132 2.936909
2.012293 2.491453
3.414257 0.715144
3.333651 -1.488592
2.431166 -2.633461
0.984314 -2.501867
-0.200387 -1.569470
0.273975 0.176019
2.327030 0.457287
4.215754 -1.031107
3.771829 -3.614965
2.471644 -5.481304
0.205194 -5.585650
-1.668338 -4.585239
-1.731007 -2.927125
-2.154394 -1.260330
-1.138559 -0.332602
0.381186 -0.104596
1.341575 -0.315335
2.257528 -1.961382
1.290032 -3.095278
-0.129092 -3.142889
-0.688369 -2.799001
-0.208656 -1.507520
1.393665 -1.127239
2.045427 -2.713341
2.151237 -4.475971
0.426790 -5.308081
-1.333424 -5.769656
-2.944206 -4.854616
-3.590008 -3.244264
-3.886812 -1.112185
-2.318846 0.346483
-0.699445 0.270824
0.286248 -0.858888
-0.040946 -2.807164
-1.896401 -3.284290
-3.514646 -1.755833
-3.497306 0.461473
-1.577518 2.462920
0.394984 2.360583
2.234932 0.898079
2.689877 -0.287905
2.249578 -1.808599
1.304893 -2.798457
-0.022915 -2.847927
-0.749307 -2.090875
-1.040723 -1.021411
0.055049 -0.501252
0.916526 -0.776630
1.074734 -2.146181
-0.393004 -2.412916
-1.408982 -2.082852
-1.923051 -0.535463
-0.898687 1.168929
0.467907 2.228883
2.162993 1.656544
3.431314 1.337169
4.355069 0.134250
5.126407 -1.763252
4.330685 -3.664248
2.818025 -4.992269
1.343502 -4.663419
0.783764 -3.707159
0.781622 -3.813308
0.528586 -3.907288
-0.093103 -4.445383
-1.120353 -3.926691
-1.956596 -2.873394
-1.978892 -1.984545
-1.605650 -1.286915
-0.812379 0.349688
0.529325 0.574006
2.627269 0.299201
4.023506 -1.319994
3.808892 -3.664140
2.395209 -5.287036
1.000591 -5.221850
-0.302798 -4.426762
-0.209429 -3.887353
-0.046381 -3.626992
-0.333262 -3.994045
-0.907370 -4.501046
-1.762103 -4.489108
-3.467224 -3.850774
-3.950943 -2.529441
-3.692450 -0.751110
-2.792951 1.187160
-1.262696 1.690934
1.122535 1.301003
2.042661 -0.136497
1.571166 -1.565048
0.396618 -2.267388
0.097309 -1.810305
0.477865 -0.779043
1.681681 -0.974681
2.650615 -1.804526
2.463542 -3.244550
1.423593 -4.755049
-0.154082 -5.458639
-2.624652 -4.830492
-3.923184 -3.408174
-4.820519 0.086655
-3.147209 2.492691
0.070536 4.016218
3.151948 2.771867
4.579245 0.902687
4.371092 -1.791806
3.944547 -3.074502
2.676463 -3.311906
2.492134 -3.302813
2.119845 -3.172961
2.149807 -3.374072
2.410282 -4.097553
2.242498 -5.427582
0.571086 -6.431875
-1.334393 -6.135861
-3.574190 -4.305690
-3.117739 -1.746677
-1.730999 0.255243
0.586619 0.842790
2.308314 -0.715756
2.535457 -2.207848
2.624048 -2.932083
2.302299 -3.580051
2.187175 -4.069987
1.320408 -4.513633
1.278667 -4.383090
1.584254 -4.734505
1.170820 -5.868240
0.284292 -6.995442
-2.087221 -6.859166
-4.358681 -5.880071
-4.954706 -3.053147
-3.659200 -0.984983
-1.971284 -0.236470
-0.216087 -0.430604
0.582321 -1.839703
0.349592 -2.598339
-0.039954 -3.240673
-0.841672 -3.502743
-1.511562 -2.698121
-1.002776 -1.379102
-0.363853 -0.935626
1.534067 -1.179763
2.405931 -3.540748
1.131662 -5.374058
-1.258671 -6.065370
-3.580739 -5.020764
-4.564511 -2.378948
-4.050268 -0.120336
-1.846190 0.831414
0.106914 1.115825
1.829530 -0.133854
2.186482 -1.741813
1.412666 -2.930767
-0.081199 -3.241823
-1.007134 -2.061945
-0.122502 0.028730
2.621443 0.247691
4.912834 -1.062569
5.028437 -4.915383
3.509880 -7.368505
-0.041442 -8.120652
-2.463496 -6.721213
-3.946893 -4.886003
-3.543320 -2.028972
-1.970965 -0.961813
-0.393215 -0.275589
1.488306 -1.842193
1.671017 -3.494409
0.388323 -4.909515
-1.435914 -4.023536
-2.049047 -2.672772
-0.010429 -1.404708
1.840514 -1.606554
2.951142 -3.517726
2.535609 -6.097212
0.642757 -7.568747
-1.773153 -7.659233
-4.112724 -6.936930
-5.019727 -5.017499
-4.865977 -2.873750
-3.884015 -1.147697
-1.843838 -1.112498
-1.159265 -1.993807
-1.336290 -3.526137
-2.511105 -3.789699
-3.714390 -2.138304
-3.711988 -0.510107
-1.905737 0.797560
0.215309 0.909456
0.977517 -0.575985
1.875425 -2.143055
0.709261 -3.560476
-0.623338 -3.859715
-1.893059 -3.022740
-2.458014 -1.621833
-1.472758 -0.124173
0.829115 0.168132
1.868602 -1.496635
2.067104 -3.910644
-0.443257 -5.565827
-3.198205 -4.500573
-4.340150 -2.194231
-3.898594 1.044968
-1.350822 2.323688
1.509922 2.392268
3.989833 0.639887
5.215246 -1.258452
4.470940 -4.067420
2.520478 -5.750479
0.431853 -5.324798
-0.126600 -3.763824
0.319879 -2.650037
2.200949 -3.123794
2.912818 -4.751624
1.999993 -6.780504
-0.347644 -7.468837
-2.725934 -6.444040
-3.666199 -4.708549
-3.455186 -2.823622
-2.019446 -1.114886
-0.076584 -0.861507
1.811692 -2.007963
2.349968 -4.549212
1.082327 -5.862698
-1.167930 -6.819074
-3.253768 -5.946895
-2.927384 -3.221557
-1.871963 -2.469923
0.156484 -2.499197
0.647311 -4.243943
-0.059055 -6.037084
-1.519568 -6.463735
-3.511160 -6.201302
-4.939745 -3.997429
-4.841573 -1.802164
-3.125127 -0.242789
-0.573640 0.265513
1.111723 -1.918519
1.056175 -4.473778
-1.287506 -5.767043
-3.964538 -5.192380
-5.051155 -2.504769
-3.724472 0.066003
-1.142674 1.083391
1.562484 -0.199937
2.631214 -2.726164
1.885050 -5.397799
-0.296391 -6.812546
-3.165210 -6.239418
-4.928882 -3.875927
-4.730785 -1.187765
-2.764420 0.595737
0.277698 0.062168
1.418938 -2.013742
0.746743 -3.933334
-1.568787 -4.645144
-2.541639 -3.177126
-2.563587 -1.666591
-0.820634 -0.344174
1.242245 -0.638265
2.823962 -2.572017
3.080879 -4.829144
1.379423 -7.074063
-0.868670 -8.167249
-3.991195 -7.141340
-5.461121 -4.776811
-4.775270 -1.854552
-2.398327 -1.221515
-0.965908 -1.646499
-0.142696 -3.433455
-1.518596 -4.584213
-2.909087 -4.600392
-3.862668 -3.340418
-4.108117 -1.426759
-2.145059 -0.523956
-0.472535 -0.293177
1.300443 -1.794278
1.712379 -4.534607
-0.108902 -7.009455
-3.437941 -7.427604
-6.244813 -5.743839
-6.944128 -2.234658
-4.878947 0.708827
-1.631601 1.017328
0.236985 -0.757305
-0.148156 -3.504239
-1.843809 -4.430803
-4.122527 -4.101083
-5.238235 -2.089177
-4.652562 0.805715
-2.486339 2.648856
0.725987 2.385035
2.676026 -0.635594
2.385655 -4.073379
-0.526870 -6.294079
-4.011737 -5.827376
-5.596318 -2.531535
-4.562441 0.322969
-1.849347 1.845933
0.649450 0.863798
1.892641 -1.891851
0.695202 -3.882392
-1.116897 -4.716339
-3.619357 -4.014974
-4.282416 -1.610449
-3.814788 1.448196
-0.857733 3.296557
2.965368 2.629902
5.187355 -0.406481
4.985250 -4.216806
2.901446 -7.098343
0.015205 -7.298193
-2.339464 -6.068755
-3.357386 -4.359617
-2.478997 -2.933654
-1.691941 -2.563740
-0.647617 -3.026880
-1.110203 -3.988046
-2.017366 -4.279703
-3.586354 -3.430401
-4.215645 -1.306792
-3.013843 0.720884
0.738912 1.711079
3.559987 -0.019632
5.064898 -3.613851
3.384114 -7.024152
0.062783 -8.337886
-2.433053 -7.932864
-4.089015 -6.104265
-4.314727 -4.057854
-3.229792 -3.054814
-1.919273 -3.673548
-1.983823 -4.856740
-3.396887 -5.958664
-6.058099 -5.491856
-7.445437 -2.762782
-7.007753 0.781070
-3.498922 3.553486
0.442863 2.784887
3.139285 -0.042807
3.074999 -4.006248
0.729043 -6.230074
-2.209254 -6.259817
-4.064785 -4.854891
-4.208711 -2.589387
-3.271917 -1.111038
-1.331823 -1.038717
0.286739 -2.767875
-0.264031 -4.866304
-2.747895 -6.207666
-5.557585 -5.513501
-6.852797 -2.408515
-6.126682 0.442957
-3.817588 2.475344
-0.548691 2.049679
1.241844 0.692392
1.361139 -1.536072
1.199230 -2.945425
-0.378005 -3.719401
-0.571980 -3.698106
-1.668520 -2.930972
-0.823742 -2.307701
0.043415 -2.535014
1.099075 -3.812699
0.342567 -5.871171
-1.868377 -6.747263
-4.182455 -6.274129
-5.634093 -3.994848
-5.393968 -1.611585
-3.848164 -0.156458
-1.948641 -0.016955
0.075098 -0.525204
0.660679 -2.915775
-0.128665 -4.531634
-1.867373 -5.165043
-3.578812 -4.448682
-3.701778 -2.450049
-2.650699 -1.554120
-1.354231 -2.326656
-0.525019 -3.885932
-1.965385 -5.493202
-3.762210 -5.751134
-5.797817 -4.440767
-6.093958 -1.952291
-4.837978 -0.386952
-3.223586 0.523726
-1.820781 0.144486
-0.694695 -1.461427
-1.063341 -3.430170
-2.579527 -4.045939
-4.510757 -2.766725
-4.687770 -0.881348
-3.185324 0.248069
-1.235492 0.194034
-0.072231 -1.185451
-0.400008 -2.795849
-2.316559 -3.846410
-3.505217 -3.710614
-4.403641 -1.751722
-4.073123 -0.311664
-3.140043 0.851768
-1.125795 1.011985
0.393954 0.034081
0.785473 -1.742440
0.360301 -3.925872
-1.540753 -4.301328
-3.457710 -3.750887
-3.417049 -1.881350
-2.791702 -0.066379
-0.674037 -0.036148
0.958267 -0.957117
1.229732 -2.832069
0.472881 -4.605870
-1.035774 -5.344812
-2.866497 -5.032512
-4.043054 -3.837462
-4.098983 -2.121753
-2.673643 -0.743507
-0.836207 -1.350604
-0.046486 -3.298716
-0.985671 -4.741972
-3.129414 -5.096859
-4.186643 -3.618954
-4.050544 -1.505668
-2.288483 -1.044925
-0.467345 -1.487132
0.410858 -3.182120
-0.367870 -4.769467
-1.200629 -6.500483
-3.650707 -6.677029
-5.808375 -5.219041
-6.289931 -3.177807
-5.296590 -0.661439
-2.859381 -0.190908
-1.504498 -1.779118
-1.832316 -3.029656
-3.512024 -4.175014
-5.066484 -3.285374
-5.198835 -1.544335
-4.311454 0.060730
-2.908264 0.479155
-1.105691 0.267603
-0.349316 -1.091203
-0.200804 -3.163473
-1.477164 -4.370978
-3.513152 -4.848462
-5.122506 -3.652999
-5.660179 -1.423530
-4.257798 -0.035180
-2.412069 0.175762
-1.200098 -0.804758
-1.059436 -2.479279
-1.917642 -3.388811
-2.744979 -3.386463
-3.862230 -2.567532
-4.520500 -1.195050
-4.126161 0.276469
-2.370464 1.443328
-0.144980 0.390126
1.065495 -1.955928
0.303374 -3.974434
-2.239174 -5.138078
-3.909158 -4.065474
-4.018355 -2.626326
-3.404329 -1.373515
-1.947625 -2.105710
-1.931241 -2.816002
-2.310631 -3.842886
-3.504323 -4.275168
-5.194264 -3.456988
-6.002455 -1.615984
-5.781486 0.245867
-3.527391 2.063183
-0.387634 1.706016
1.579436 -0.600658
1.450970 -3.715170
-0.545106 -5.731326
-2.780060 -5.509266
-4.290633 -4.177201
-4.178228 -3.166657
-3.480633 -2.695260
-3.092452 -3.030920
-3.365960 -3.611407
-3.831473 -4.052952
-5.468827 -4.515440
-7.001397 -3.481850
-7.721692 -1.355521
-7.165021 1.251180
-4.744866 2.458605
-2.202582 2.445330
-0.444601 0.530496
-0.508390 -1.380690
-1.579331 -2.531224
-2.698443 -2.955702
-3.506918 -2.274433
-3.427987 -1.506631
-3.329351 -1.142120
-2.057815 -0.905200
-1.285156 -2.267745
-1.694053 -3.980843
-3.711901 -5.700273
-6.536248 -4.811797
-8.654797 -2.458442
-8.715527 0.761716
-6.636242 3.041194
-3.843423 3.392184
-2.001641 2.405011
-1.324166 0.844122
-1.511138 -0.645275
-2.263067 -0.898829
-2.701671 -0.826479
-3.134849 0.311023
-1.840040 0.933618
0.047074 0.549187
1.031695 -1.139568
0.774577 -3.856740
-1.855336 -5.731123
-4.249667 -5.582565
-6.346353 -4.035829
-6.868166 -1.887095
-5.829213 -0.086618
-5.090156 0.572890
-4.084298 0.959398
-3.012700 1.239924
-2.491070 0.719942
-1.901327 0.014514
-1.927542 0.165580
-1.682598 -0.080611
-1.009126 -0.219423
0.092744 -1.300464
0.004810 -3.314278
-1.658548 -4.568564
-3.118750 -5.064825
-4.817059 -4.657326
-5.555734 -3.344715
-6.465275 -1.783734
-6.524721 -0.582605
-5.541974 0.460687
-4.675259 1.094155
-3.335920 0.842549
-3.451342 0.148537
-4.323806 -0.221289
-4.593318 1.230545
-3.642805 2.502592
-1.618262 2.420920
0.054178 1.344038
0.346854 -1.262283
-0.180404 -3.084533
-3.109980 -3.860446
-5.091034 -3.590869
-6.598427 -1.414260
-6.677251 0.810274
-5.131815 2.627694
-3.235692 3.212150
-1.371036 1.954261
-0.882806 0.480726
-2.122024 -0.406340
-3.795876 0.049051
-3.909716 1.878847
-2.146269 2.907064
-0.317370 2.967374
1.609530 1.911083
2.102097 -0.172895
1.221648 -2.672754
-0.226328 -3.703593
-2.182740 -3.598917
-3.705332 -2.987045
-4.661291 -1.203655
-4.030102 0.321469
-2.301297 0.800641
-1.411195 -0.126537
-1.680956 -1.355631
-2.994613 -1.114917
-3.573233 -0.114532
-2.510410 1.000793
-1.647846 1.238566
-0.096002 1.274029
0.799438 -0.484171
1.515784 -1.957801
0.784352 -4.316653
-1.139932 -5.457334
-3.571099 -5.712607
-5.821755 -4.460245
-6.476154 -2.150962
-5.674684 -0.213125
-4.600970 -0.009944
-3.877881 -0.657869
-3.998066 -1.462325
-4.721550 -0.709437
-5.069079 0.181795
-4.740723 1.183919
-3.357226 2.502475
-1.783165 2.463936
-0.028475 1.447833
0.457680 -1.059323
-0.447975 -3.351942
-3.214963 -3.664566
-5.530079 -2.998497
-6.316701 -0.224604
-4.838295 1.344382
-3.392356 1.978373
-2.342675 0.803059
-2.272107 -0.513164
-3.353059 -1.075470
-4.792362 -0.559611
-5.851141 1.420001
-4.881183 3.484446
-2.760558 4.668753
0.124697 4.289865
1.984974 2.066415
2.191553 -0.913215
0.381418 -3.677866
-2.749066 -3.658469
-4.607289 -1.517077
-4.599374 0.495863
-2.824085 1.880441
-1.404460 1.623787
-0.169250 0.120257
-0.269330 -1.144382
-1.883568 -2.162073
-3.654685 -2.108582
-5.135012 -0.654592
-5.287409 1.792737
-3.275066 3.529500
-0.513723 3.563092
1.776876 1.276579
1.528790 -1.436248
-0.491042 -3.399794
-3.186615 -3.246221
-4.251502 -1.344900
-3.730170 0.606731
-2.367813 1.464028
-0.734428 1.075086
-0.346264 -0.294634
-0.749812 -2.433805
-2.705154 -3.666563
-5.698894 -3.109444
-7.386928 0.059222
-5.936905 2.944555
-3.537801 4.777958
-0.552470 4.156541
1.040635 1.136137
-0.015028 -1.213640
-2.138911 -1.997454
-4.013905 -0.849127
-4.600819 1.508411
-2.991185 3.097022
-0.769863 3.275121
1.493171 2.655640
2.121426 -0.521120
0.846196 -3.000525
-2.072843 -4.149705
-5.500364 -2.842228
-6.778719 0.744713
-5.058070 3.573917
-2.344055 5.202187
0.452614 3.966786
1.547141 1.650844
0.727834 -0.103086
-0.841115 -0.681184
-2.040703 -0.036406
-2.303147 1.377191
-1.704813 2.770134
0.807862 3.092129
2.981544 1.802319
3.576079 -1.128179
2.643649 -3.416933
-0.348060 -5.049879
-2.977889 -3.876097
-4.403732 -0.971594
-3.033146 1.081846
-0.618343 1.549390
0.533436 0.032381
0.454037 -1.397933
-1.035109 -2.604086
-2.902785 -2.629969
-3.993328 -0.530554
-3.957913 1.518291
-2.012741 3.648935
1.408009 3.226115
3.677328 0.939444
3.559508 -2.815609
1.741106 -5.552001
-1.856831 -5.930699
-4.076385 -3.969475
-4.457806 -1.174738
-3.395016 -0.091607
-1.386896 0.128948
-0.430779 -1.299885
-1.127074 -3.119859
-3.098406 -4.028647
-4.845842 -3.216413
-6.821274 -1.052560
-6.205674 2.241141
-3.486943 4.211303
-0.323005 3.608498
1.871633 0.956276
1.222624 -1.940074
-0.819574 -3.693724
-3.672753 -3.606924
-4.980980 -1.327289
-4.686971 0.840346
-3.527961 1.883153
-1.741681 2.113983
-0.104022 0.372411
-0.323707 -1.197746
-2.012622 -2.755529
-4.961467 -2.112102
-6.116957 0.875387
-5.079399 4.184893
-2.128478 5.695612
1.342839 4.437587
3.265996 1.662792
2.566681 -1.109657
0.947808 -2.787858
-1.774317 -3.236815
-3.081890 -1.923596
-3.560959 0.104998
-2.434899 1.625887
-0.415123 1.454359
0.450375 -0.194068
0.405590 -1.937639
-2.008000 -2.476553
-3.954430 -1.403971
-3.891584 1.115267
-3.083867 2.997431
-0.097575 3.537839
1.923744 2.154153
2.514912 -0.084134
1.868300 -2.137620
-0.034791 -3.328459
-1.530977 -2.868664
-2.538072 -1.831829
-2.140753 -0.610608
-0.668279 -0.022126
-0.066016 -1.391362
-0.109878 -3.106574
-2.453501 -4.927801
-5.407087 -3.728649
-6.892554 -1.217296
-6.296983 2.235423
-3.614597 4.121052
-1.114915 4.236744
1.058131 1.899112
0.972394 -0.044039
0.003378 -1.604053
-1.636558 -2.496707
-3.467501 -1.151740
-3.592188 0.584452
-2.452596 3.041934
0.316902 2.692803
1.813387 0.488679
1.307319 -2.773219
-1.377096 -4.584978
-4.801376 -3.475615
-6.959628 -0.781081
-6.245997 3.004362
-4.247804 5.450664
-1.061514 6.113990
2.245766 5.109958
3.883501 2.396480
3.415600 -0.495143
1.524013 -2.286445
-0.845716 -1.292129
-1.011210 0.785734
0.372757 1.949811
2.438331 0.702022
3.403801 -1.496250
1.868402 -4.345471
-0.823218 -4.520579
-2.723391 -3.660639
-4.569386 -1.480259
-3.933557 0.651343
-2.510752 2.491908
0.217810 2.852881
2.388849 1.153991
2.605742 -1.111173
1.141280 -3.319042
-0.753686 -3.020919
-1.709064 -1.319907
-1.098796 -0.350721
1.113963 -0.000360
1.656516 -1.786469
1.638493 -3.738066
-0.039770 -5.449633
-2.342756 -5.701780
-4.766877 -4.658759
-5.425746 -2.936627
-6.150710 -0.078551
-4.559325 1.494009
-2.206875 1.776482
-0.737509 1.051890
-0.598920 -0.749966
-1.877832 -1.811438
-3.125274 -0.478706
-2.904383 1.296477
-1.841830 2.203643
0.382105 1.195414
1.426931 0.371643
1.237944 -2.044644
0.200390 -3.560706
-2.104234 -4.359046
-5.100108 -3.509171
-6.201278 -0.666493
-6.030624 2.498997
-2.967625 4.372856
-0.101865 3.963946
0.747608 1.184930
0.063609 -0.567815
-1.021499 -0.526604
-2.600184 0.392583
-1.924745 2.291563
-0.344154 3.087217
1.844901 2.307496
3.492720 0.954281
4.005364 -2.077366
2.352989 -4.217697
-0.488558 -5.168020
-3.564101 -3.678872
-4.625859 -0.897964
-3.454423 1.592640
-0.633719 2.089186
1.099409 0.926786
1.160214 -0.972961
0.046256 -1.991939
-1.221034 -1.652049
-1.235562 -1.262793
-0.948561 -0.457945
-0.516805 -0.001814
0.511732 -0.796476
1.341458 -1.115073
1.176690 -2.817847
0.114757 -3.932021
-2.088947 -4.355355
-3.807358 -2.843009
-3.775087 -0.461216
-2.842078 0.270666
-1.479493 -0.144130
-0.475048 -0.788495
-0.700123 -1.214613
-1.565930 -2.186507
-2.606355 -2.054359
-3.023937 -1.139644
-3.337029 -0.027009
-2.319651 1.371749
-0.865073 1.452488
0.798156 0.127114
1.151578 -1.705372
-0.568120 -2.914098
-2.797308 -2.833411
-4.219385 -0.979473
-3.998306 0.432988
-2.162258 1.762347
-0.638183 1.207714
-0.411421 0.605743
-0.408941 -0.940930
-0.546779 -1.379120
-2.465572 -1.316369
-3.365455 -0.269306
-3.103578 1.760073
-1.034249 2.985967
0.687680 2.794002
2.293190 0.834591
1.862666 -0.873940
0.480758 -1.613804
-0.821974 -1.312779
-0.219783 -1.032539
-0.552928 -0.927435
-0.127959 -1.329084
-0.205621 -1.188309
-0.394246 -1.437113
-0.703116 -1.659605
-1.076776 -1.552860
-1.724436 -0.833931
-1.432941 0.127618
-0.418278 0.826838
0.589230 0.553853
1.847114 -0.409639
1.899725 -1.985000
1.186309 -2.672269
-0.004007 -2.901280
-0.616624 -2.546617
-0.806521 -2.189821
-1.209086 -1.801478
-1.071420 -1.633840
-0.366116 -1.264744
0.346835 -2.358445
-0.149265 -3.000816
-1.625242 -4.394915
-3.535925 -3.823738
-4.658201 -1.870159
-4.119683 0.098030
-2.732082 1.003535
-1.226956 0.933735
-0.101985 -0.340799
0.166949 -1.141326
-0.770795 -1.419547
-1.862950 -2.144978
-2.469021 -0.962033
-1.720024 0.490811
-0.101125 0.559407
1.944789 -0.491455
2.055624 -3.261731
0.276126 -5.154897
-2.852815 -5.020495
-5.006791 -3.451649
-6.030576 -1.274008
-4.968559 1.309325
-3.307806 2.315478
-1.662901 2.871003
-0.248743 2.319258
0.666978 1.591841
0.666611 0.734881
0.734559 0.398382
0.723085 0.357481
1.175550 0.536726
3.078698 0.275709
3.475661 -1.792101
3.167290 -3.593319
1.609900 -4.884730
-0.245848 -5.003818
-1.764460 -4.470350
-2.723999 -3.560617
-2.997586 -2.090141
-2.679193 -0.656938
-1.280635 0.151549
0.767173 0.260071
1.574908 -0.732303
1.311753 -2.144840
0.660592 -2.509266
0.134310 -2.760474
0.366063 -1.801507
1.321977 -2.378361
2.028491 -3.582277
1.321014 -4.956027
0.349472 -6.076492
-2.027152 -6.648001
-3.595887 -6.259351
-4.621964 -5.018263
-4.786649 -2.710513
-4.106071 -1.417028
-2.642679 -1.360445
-1.518281 -2.895148
-2.311895 -3.594469
-4.551127 -3.520438
-5.798114 -1.488489
-4.586706 1.314319
-2.627563 2.205664
0.863967 1.188314
2.137292 -0.909125
1.414037 -3.743659
0.142167 -5.469396
-2.314727 -6.309986
-5.081019 -4.774798
-6.504895 -2.654415
-5.694852 -0.146618
-3.953470 1.106719
-1.852090 0.133981
-1.693006 -1.026751
-2.729801 -1.905438
-4.559376 -1.575044
-4.918468 0.815913
-4.376706 2.565093
-1.587125 3.541039
0.775528 3.302638
2.675780 2.013957
4.167188 -0.234101
4.321976 -3.391839
2.323125 -5.495573
-0.990805 -6.039787
-3.025345 -4.735540
-3.429944 -2.527986
-2.418802 -1.376064
-1.188494 -1.441013
-0.942374 -2.021554
-1.583176 -2.840872
-2.085790 -2.395040
-2.696220 -1.849139
-2.809055 -0.472551
-1.940589 0.827286
0.451284 0.947525
2.717337 -0.580019
3.310748 -3.090324
1.689096 -5.953388
-1.448917 -7.389244
-4.331740 -6.153677
-4.940555 -3.426988
-3.917752 -1.953083
-2.471530 -1.386298
-1.482632 -2.490619
-1.996058 -3.798603
-3.256083 -4.213706
-4.154479 -3.520162
-5.266963 -1.623041
-5.176495 0.221758
-3.732020 1.099991
-0.794298 2.017651
0.329846 0.232046
0.697158 -2.358831
-0.943696 -4.029747
-2.166387 -3.709744
-3.605850 -2.344949
-3.166901 -1.096416
-1.987501 -0.589047
-1.034263 -0.779362
-1.022709 -2.231178
-1.841493 -2.808743
-3.275114 -3.583428
-4.787307 -2.766672
-5.667587 -0.650673
-5.225955 2.238648
-2.285930 3.755774
0.822044 3.922040
3.558481 1.734739
4.243688 -1.227952
2.792862 -3.549162
1.035145 -4.650750
-0.943002 -4.598244
-1.287510 -3.370335
-1.702330 -2.596339
-0.375934 -2.737837
0.137259 -4.105255
-0.458130 -5.857294
-2.758751 -6.482278
-5.356194 -5.853793
-6.674869 -2.573990
-5.955125 1.005080
-2.288691 2.626811
1.217219 2.144541
3.582975 -0.782791
3.184521 -3.925976
1.212536 -6.435705
-0.402551 -6.711192
-2.533069 -6.125325
-3.131920 -4.913993
-2.797764 -4.078745
-2.130319 -4.039453
-1.662424 -5.610884
-3.168614 -7.240416
-5.741895 -6.830036
-7.949627 -5.078319
-8.339525 -1.769453
-6.580153 0.321329
-4.037197 1.421604
-2.196301 0.393035
-1.513958 -1.564732
-2.655960 -2.770753
-3.534180 -3.638979
-4.881722 -2.996535
-5.149362 -1.390290
-4.559734 -0.432233
-2.598651 0.252420
-0.564831 -1.071927
-0.581636 -3.325230
-2.077163 -5.736219
-5.054144 -6.106130
-8.055535 -4.339801
-8.699673 -1.017541
-7.241272 1.101583
-5.126852 2.624424
-2.486334 2.430307
-0.910087 1.104185
-0.690970 -0.979726
-2.089582 -2.473294
-4.317806 -2.441961
-5.120677 -0.088152
-4.389376 1.872027
-0.772798 2.282679
1.865005 0.263516
2.041113 -2.907262
-0.316420 -5.538266
-3.246688 -6.022272
-6.326396 -4.356109
-6.050121 -1.266032
-5.140697 0.640239
-3.077291 1.231330
-1.053361 0.237918
-0.712620 -1.813483
-1.582259 -3.507548
-3.797450 -3.689543
-5.463773 -1.274057
-4.254902 0.875009
-1.302558 2.083722
1.072306 0.641824
2.020555 -2.892279
0.504666 -5.798895
-2.737243 -7.419368
-6.015281 -6.176583
-7.358272 -2.814084
-6.443890 -0.432969
-4.318360 0.662570
-1.952621 -0.012936
-0.508441 -1.705626
-1.293909 -3.752331
-3.548718 -5.873767
-7.304593 -5.054851
-8.723711 -1.211194
-7.499217 1.814862
-4.303277 3.578201
-1.588373 2.857306
0.110364 0.494646
-0.279340 -2.020841
-2.054258 -3.521236
-4.644435 -3.379122
-5.501113 -1.403962
-5.739872 0.265107
-3.722053 1.959280
-0.651615 1.326265
0.687522 -1.447026
-0.620263 -4.632960
-3.853289 -6.000212
-7.865106 -4.213585
-9.062837 0.202321
-7.169272 3.487573
-4.104642 5.368322
-0.349198 4.743066
2.045669 2.131377
2.197708 -1.050428
1.081103 -3.890531
-1.965860 -4.473783
-3.991132 -2.810299
-3.496362 -0.217783
-0.810826 0.916556
1.817663 -1.266947
1.810164 -4.514159
-0.860973 -7.132254
-5.194797 -7.068577
-7.696090 -3.881738
-7.492888 -0.305618
-5.103183 2.350484
-1.922216 2.782129
0.494362 0.971424
1.559660 -2.479287
0.192318 -5.251066
-2.782388 -6.239665
-5.450346 -5.050492
-5.232983 -2.450278
-4.262497 -1.138250
-1.925421 -1.297761
-0.943399 -4.238452
-2.386406 -6.189192
-5.256964 -7.402142
-7.974232 -5.736564
-9.440043 -3.186364
-8.699447 -0.130925
-6.846741 1.896182
-4.051626 1.970494
-2.114754 0.095966
-2.290392 -3.033080
-4.324044 -4.502677
-7.437354 -3.752721
-9.591030 -1.078672
-8.170918 2.778973
-4.089925 4.649674
-0.685752 2.781510
0.871334 -1.193556
-0.649913 -4.090942
-3.978543 -6.171165
-7.591243 -4.636338
-9.883180 -2.355571
-9.910377 2.338074
-7.444394 5.184851
-3.536112 5.860475
-0.140365 3.673415
0.722689 -0.195479
-0.830970 -2.054212
-3.198134 -2.232700
-4.630579 -0.154058
-3.567474 1.549651
-1.042634 2.029642
0.787288 -0.230775
1.383452 -2.838605
-0.604160 -5.219491
-3.846814 -6.035341
-6.952255 -4.951827
-8.565824 -2.263593
-8.367395 1.577668
-4.986690 3.092433
-2.600278 3.346787
-0.533501 0.683306
-0.660446 -1.259268
-1.994237 -2.181492
-3.623911 -1.901388
-2.838005 -0.125880
-1.652714 -0.257324
0.193575 -1.524438
-0.022152 -3.902912
-0.904620 -5.701212
-3.041911 -8.129420
-6.665884 -7.640062
-10.036165 -5.729366
-10.701246 -1.677478
-9.616909 1.581874
-6.638282 2.846842
-3.836802 2.182950
-3.156502 0.258039
-3.954979 -1.721409
-5.897845 -1.465486
-6.831752 -0.045065
-6.316441 1.684790
-4.111031 3.448900
-1.582494 3.503155
0.449798 1.151529
1.223031 -1.924233
-1.028120 -5.765876
-5.378923 -5.883814
-8.735426 -3.387018
-9.093529 -0.072023
-6.929964 2.892428
-4.079721 3.495458
-2.282662 1.428342
-3.074231 -1.066452
-4.752116 -2.005323
-6.304110 -1.284716
-7.269874 1.298919
-6.258528 4.071545
-3.801959 5.942852
0.207194 5.599840
3.096430 1.411080
3.179588 -2.063351
0.809671 -5.595190
-3.069652 -6.826576
-6.165507 -4.597685
-6.504336 -1.417114
-4.320113 -0.218313
-3.433132 -0.077597
-2.786576 -1.579137
-3.759527 -2.637283
-4.719248 -2.777778
-6.021832 -1.819231
-6.773506 0.197848
-6.577134 2.666452
-3.560163 4.142135
0.222402 3.094382
1.789172 0.441811
1.691673 -4.096016
-1.061464 -6.227014
-4.793068 -6.701752
-7.184357 -4.984213
-7.891360 -2.281996
-6.766651 -0.826507
-5.958807 -0.562592
-4.842253 -0.959256
-4.485117 -1.331145
-5.679352 -1.821284
-6.934779 -1.579263
-8.091146 0.516152
-7.457169 3.189400
-4.123553 4.050879
-1.364864 3.273133
0.526049 -0.629159
-0.966192 -3.861114
-3.977535 -5.343566
-7.173103 -4.210429
-8.430838 -1.567628
-7.739384 0.901051
-6.129603 2.181528
-3.769142 2.096793
-2.205806 0.954851
-2.880172 -1.559545
-4.289498 -3.152625
-7.816272 -2.583690
-9.615528 0.230313
-7.841258 3.163860
-5.454930 5.113838
-1.848636 4.344007
0.085388 2.465859
0.445269 -0.566992
-0.977409 -2.320537
-3.245297 -2.692428
-4.956374 -1.693234
-4.653940 -0.066641
-4.995900 0.818737
-2.803646 1.182176
-1.876262 -0.971934
-3.156492 -2.873257
-5.232241 -3.844640
-8.192702 -2.033021
-8.467908 0.313418
-6.822977 2.782729
-3.599764 3.256566
-1.402527 2.307380
-0.323037 -0.468478
-1.241778 -2.796275
-2.327424 -3.371594
-5.051251 -4.028826
-6.305891 -2.216232
-6.686495 -0.089451
-4.801512 1.081397
-2.308116 -0.222832
-2.529908 -2.079041
-4.378240 -4.196041
-6.995772 -3.875115
-8.796009 -1.896199
-9.118496 1.437438
-7.058475 3.054020
-4.105903 3.141926
-2.681243 1.930151
-1.477145 -0.729694
-2.571766 -3.225408
-4.795492 -4.486426
-8.341957 -3.942088
-10.113862 -0.862059
-9.365788 1.894314
-6.929430 2.974249
-4.945671 2.065790
-3.519504 0.991988
-5.668214 -1.620298
-7.152382 -1.097019
-8.089349 0.083600
-8.577357 1.922316
-7.521508 3.471259
-5.843805 4.884591
-3.935578 4.117842
-2.136281 2.918732
-2.283659 0.413940
-4.286868 -0.476664
-6.263038 0.496005
-5.930081 1.702570
-6.077305 2.777889
-4.185764 3.361965
-2.500589 1.774501
-2.455050 1.163013
-3.070019 -0.691223
-4.003632 -1.484144
-5.922766 -1.187098
-7.226486 0.605734
-7.019312 2.547385
-5.298300 3.996239
-3.320798 3.370698
-2.416892 2.372041
-2.967938 0.671842
-4.886773 0.195641
-5.085803 1.742147
-4.228734 2.731445
-2.543076 2.696199
-1.163264 2.066506
-0.590006 0.285757
-0.836332 -2.284371
-3.123101 -3.111141
-5.807275 -3.411289
-7.190545 -2.630901
-7.689579 -0.317436
-7.587938 0.904214
-6.174917 2.320232
-5.460523 1.006269
-5.859514 0.088150
-7.068812 0.881483
-8.127081 2.198811
-7.106450 4.698839
-5.121721 5.222933
-3.302600 5.421595
-1.226015 4.022986
-0.502883 1.711783
-0.863685 -0.713761
-3.076326 -2.305911
-6.059361 -2.844555
-7.557282 -1.882157
-8.927944 0.944990
-7.281369 3.238308
-4.977898 2.951336
-4.603989 1.881707
-5.286335 0.757190
-6.151379 0.637911
-7.898806 1.891921
-8.047202 3.661800
-7.686169 6.320733
-5.407101 8.704956
-1.539044 9.114623
2.316758 7.313887
3.928218 2.999435
2.494709 -1.203752
-0.653610 -3.491070
-3.180229 -2.983064
-4.767597 -1.442836
-4.047578 -0.346757
-4.313236 -0.732143
-4.779273 -0.859991
-5.562180 -1.305822
-6.704341 -1.011123
-8.259152 0.550519
-8.845562 2.589933
-7.722291 5.293677
-4.912336 7.174089
-1.219058 6.739949
0.942351 3.838950
1.397503 0.468316
-0.546697 -2.288485
-2.452325 -2.140075
-3.822570 -2.093222
-4.213849 -0.539058
-4.374004 -0.702681
-4.901111 -1.420297
-5.179435 -1.668307
-7.043466 -1.786938
-8.333413 -1.410654
-11.146869 0.418967
-11.500290 3.675516
-9.301525 6.698802
-6.595911 7.834838
-3.043228 6.872517
-1.030346 4.395684
-0.941471 0.652872
-3.475699 -1.072442
-5.152555 -0.167478
-6.759942 -0.192409
-7.226949 2.273436
-5.588332 3.621486
-3.649603 4.209441
-2.830341 1.908694
-3.730546 -0.749396
-7.146987 -2.092467
-10.472342 0.868825
-11.872658 4.211761
-10.248970 9.173382
-5.340632 10.880398
-1.865884 10.358419
0.965396 7.022258
0.478268 3.431102
-1.191669 1.241063
-3.337979 1.616799
-5.090732 2.874114
-4.375221 5.889656
-1.882104 6.259750
1.095845 3.902016
1.376499 0.692740
-1.322448 -2.874595
-5.771751 -3.486166
-9.838826 -0.487501
-10.742235 4.495580
-8.467161 9.223474
-4.209111 10.489592
-1.121529 9.222334
1.773716 6.560076
1.716117 3.524460
0.261542 0.985304
-2.808236 0.153333
-3.653822 1.825134
-3.865437 5.079439
-1.123078 5.710818
1.324170 4.263080
2.595259 0.298595
-0.109425 -3.208550
-4.404581 -4.323848
-8.075951 -1.614023
-9.332770 2.384346
-7.687066 5.710271
-4.737952 8.714777
-1.118512 7.721687
1.751241 5.198951
1.021889 1.619362
-1.510276 -0.901565
-4.990350 -0.142554
-6.076711 3.734605
-3.883983 7.222657
0.859691 7.369412
2.785413 3.498767
2.831906 -1.858506
-1.634810 -4.553556
-5.932085 -3.962708
-9.854820 -0.404799
-9.710519 3.999748
-7.181832 8.117399
-2.914795 9.296883
0.893575 8.171282
2.993724 2.894145
0.927574 -0.253733
-3.698554 -1.134407
-5.517074 1.517583
-5.665178 5.775710
-2.759186 8.088725
1.474887 7.069066
4.084501 3.913024
3.319728 -0.508077
0.906107 -2.507969
-2.934113 -3.368691
-5.713768 -1.411029
-6.465899 2.753075
-5.121162 5.283119
-2.236151 5.566589
0.217836 4.471330
0.882719 2.008474
-0.788205 -0.138282
-3.445467 0.478625
-4.045881 2.579417
-2.340111 5.006886
0.610523 5.875075
2.836350 3.961251
4.940472 1.328209
3.835989 -3.511827
1.396376 -6.367612
-3.761295 -6.716926
-7.964949 -4.159671
-8.803657 -0.330499
-6.709967 4.142499
-2.618124 4.150672
-1.365457 1.282603
-1.435947 -1.385280
-4.974165 -2.969734
-8.774292 -1.414019
-9.705827 3.123035
-7.228132 7.165034
-2.785261 8.484268
1.812269 6.996378
3.861770 2.137199
2.940496 -2.277474
-0.809140 -6.388826
-6.759344 -5.854002
-10.718198 -1.193102
-10.037412 3.853493
-6.888117 7.354500
-1.118367 6.020485
-0.049564 2.082421
-2.921011 -0.856487
-6.259608 -0.838352
-8.762214 1.690503
-9.685768 5.640324
-7.170293 9.322904
-3.518022 10.742719
1.310963 9.568199
2.652037 6.258277
2.163988 2.339110
-0.751521 0.824757
-3.446539 1.074888
-4.661718 5.070583
-2.458367 6.438246
0.776342 5.921378
2.460910 3.070848
2.022282 1.365003
0.219562 -1.673256
-2.650570 -1.072365
-4.721929 0.438280
-5.027123 3.879633
-3.402090 5.510060
-0.566392 7.015708
2.533184 5.160543
3.494266 1.406496
2.630483 -1.449497
-1.225124 -2.149515
-3.910353 -0.718700
-3.328143 2.545487
-1.171458 4.396741
1.560603 2.899787
3.227589 0.560552
2.863465 -2.318014
-0.710993 -5.361057
-4.221077 -4.597114
-8.132850 -3.246999
-8.976346 1.406480
-6.381235 6.085869
-1.631626 6.621305
1.192867 3.394130
0.768017 -0.707056
-2.951383 -3.236096
-6.938846 -0.863616
-7.821335 2.691592
-5.993409 6.899838
-1.642208 7.581552
1.996404 5.560617
4.556251 1.143241
2.524792 -3.266978
-1.957729 -5.103961
-7.400244 -4.844032
-10.911532 -0.594617
-10.652826 5.190191
-6.584889 9.635114
-1.190960 9.192355
1.690657 5.943129
1.759540 1.458531
-1.157822 0.189217
-3.222625 0.775157
-4.758058 2.957345
-4.067559 5.659674
-1.481784 7.476509
2.564600 7.572173
5.971807 4.524347
5.829028 -0.957219
2.405109 -4.626371
-2.213664 -4.970206
-6.099318 -1.853175
-6.398845 2.257871
-3.507622 5.061775
-0.719545 4.688987
1.206202 2.524510
0.805898 -0.548920
-0.760610 -1.408791
-3.347564 -1.420818
-4.441725 1.985799
-3.140610 4.951324
0.849119 5.406811
4.654857 3.906112
6.502780 -0.591779
4.691700 -6.495959
-2.003815 -8.873047
-6.467962 -6.314586
-9.197651 -2.015735
-7.917801 2.229784
-3.724092 3.150811
-1.602699 1.452419
-2.361918 -0.935729
-3.791308 -2.338818
-7.755816 -1.774897
-9.539881 1.099975
-9.074460 6.421356
-5.464068 10.478790
1.695533 10.289410
6.043536 5.487987
6.811205 -1.743598
2.610925 -7.138229
-4.139058 -7.978478
-9.069111 -3.899281
-9.121910 0.036994
-7.858361 3.191826
-5.542466 4.787260
-3.544742 3.791322
-3.246448 3.026764
-3.359943 1.236180
-5.832258 1.427791
-6.922777 4.254067
-6.091261 7.911782
-2.638367 10.938326
2.794917 10.646486
7.727828 5.423895
7.069703 0.488712
4.196101 -3.724436
-0.868687 -5.020927
-4.145007 -3.279240
-5.767414 -0.159558
-5.763760 2.299853
-2.731630 4.118987
-0.310988 3.957717
0.697387 1.540071
-0.976524 -1.566266
-5.080322 -1.609982
-6.949419 1.908536
-5.840079 7.025802
-0.599344 9.982228
5.352844 8.005135
8.774301 1.803081
7.647057 -3.633753
3.776367 -7.800925
-2.032629 -7.071736
-5.484021 -5.267390
-6.228615 -1.803094
-5.215479 0.305733
-2.290593 1.413885
-0.480658 -1.183587
-2.941491 -4.542285
-6.151824 -4.500772
-10.043551 -1.670946
-10.790837 3.453726
-7.028614 7.604803
-1.996961 8.650256
2.356779 5.917403
3.128195 1.351446
1.830297 -1.839188
-0.680000 -3.936271
-3.844805 -3.494060
-6.131303 -2.145636
-6.233567 0.475367
-3.231182 2.561947
-1.771586 1.186157
-1.338752 -2.686121
-4.749919 -4.840541
-8.668113 -3.473816
-11.906275 0.402792
-11.546333 5.143095
-8.668122 9.295157
-4.258589 10.438539
0.598093 9.415819
3.193399 7.163172
4.290117 3.381312
2.557927 0.116477
-0.306203 -1.214053
-3.788941 0.932658
-2.513741 2.620882
-0.292124 3.589159
1.446260 1.940061
1.576779 -0.300906
-1.098494 -2.570211
-4.810904 -2.698720
-6.181604 1.132479
-5.571662 4.919245
-3.832700 6.936365
0.087081 7.634646
2.885325 5.810657
4.898450 2.028444
3.790790 -2.404624
0.474556 -3.837099
-2.553584 -1.715366
-2.911146 0.341424
-0.181694 2.353233
2.912495 0.821331
4.113908 -2.617759
1.995507 -6.173916
-1.650639 -7.596983
-5.221920 -6.604560
-7.289895 -2.772415
-7.804700 -0.202373
-5.194179 3.175925
-1.867400 4.085251
0.615065 1.022395
1.926873 -2.640883
-0.632323 -5.187706
-4.509063 -5.581878
-7.767005 -2.237967
-6.728558 1.009879
-4.813469 2.338803
-0.994529 2.270308
0.008915 1.093202
-0.004222 -2.069921
-2.374924 -4.874301
-5.074432 -5.961231
-9.267030 -4.772172
-12.762646 0.052350
-11.401380 5.575149
-7.231381 8.758771
-1.594179 8.505729
2.130737 4.667884
1.676744 0.550486
0.138602 -1.521884
-2.546973 -0.859211
-3.564688 0.997900
-2.438167 3.063966
0.393116 3.323032
1.997821 1.376532
2.977145 -2.216075
0.309923 -6.201614
-3.171302 -5.923377
-7.307790 -3.591658
-8.560607 2.392329
-5.308195 6.614268
0.615371 6.016291
4.620390 3.548494
3.426457 -2.250658
0.479603 -3.237003
-1.722741 -2.744157
-2.757743 -2.544520
-2.931173 -0.151725
0.276969 0.562895
2.526487 -0.723308
2.506856 -3.884362
1.983820 -7.472957
-2.397787 -10.592776
-7.030437 -8.998474
-9.399161 -5.161331
-8.972475 -0.912327
-5.403152 0.085395
-3.143423 -1.140290
-2.525958 -3.830113
-4.628440 -4.870960
-7.292850 -5.496876
-9.263591 -3.953402
-9.874810 -2.580340
-10.876970 -0.094191
-8.351616 3.098588
-4.482756 3.515949
-0.959990 1.490308
-1.437783 -3.864412
-4.795849 -6.465434
-9.322553 -6.299057
-13.249544 -2.803521
-12.060370 2.637897
-9.848837 5.657106
-5.560048 6.187612
-3.796204 3.404552
-2.972351 0.191156
-5.841457 -2.539569
-9.627512 -2.802426
-12.960554 1.732759
-12.480678 9.401864
-8.101167 13.046941
0.402408 12.895044
6.636477 7.912805
7.202119 0.353630
3.096511 -4.175877
-1.867951 -6.423123
-6.290286 -4.242671
-6.954014 -0.251795
-6.973573 1.725935
-4.675285 4.251558
-0.421217 3.219613
-1.197600 -0.474584
-3.503873 -1.671160
-5.528407 -0.600412
-8.373168 1.571168
-5.796964 6.618735
-1.368766 7.715394
2.243128 7.177020
5.708930 3.239624
4.691261 -1.331570
3.317500 -4.421354
0.567471 -4.789259
-0.941524 -5.520266
-2.576189 -4.140665
-2.888288 -3.288478
-0.389717 -3.598823
0.879013 -7.214489
-2.043788 -11.611074
-7.854839 -11.943553
-14.399999 -8.684130
-16.179719 -2.252287
-13.582289 4.178368
-6.941393 6.123160
-3.183935 5.072012
-0.340922 2.265188
-1.477355 -1.089728
-2.142998 -3.890847
-4.882201 -2.782713
-6.482095 -0.362289
-4.977247 3.292488
0.320690 2.465986
3.500661 -1.622956
3.218137 -9.054143
-2.474983 -14.479019
-12.250868 -15.006262
-20.129790 -8.707429
-21.356356 -0.480598
-18.761730 6.382862
-12.836335 10.358989
-7.457692 11.077213
-2.105698 8.317262
-0.697245 5.109659
-0.500458 1.982623
-1.632120 0.632681
-2.054873 1.713630
-0.275015 2.146043
2.501487 -0.083582
3.766962 -5.711231
0.342221 -10.600708
-5.551916 -12.439986
-11.625021 -11.454242
-14.994521 -6.458244
-15.746527 -0.510292
-12.693678 4.834563
-8.625080 6.994768
-4.575510 6.851375
-0.674406 3.906210
1.115581 0.294388
-1.988004 -2.368591
-5.667375 -2.598251
-4.695635 -1.177900
-2.462789 0.435416
0.175716 -0.761330
1.145588 -6.326474
-1.734388 -11.704487
-6.560384 -13.789967
-12.288170 -13.145694
-16.604264 -10.090245
-19.473862 -5.067302
-18.458895 0.445358
-14.238104 3.552521
-8.910343 3.549315
-7.222637 -0.198848
-8.975788 -3.325050
-13.142656 -2.712372
-14.991506 2.037991
-10.999649 4.682558
-6.628203 5.660979
-2.384387 2.929549
-1.581970 -3.698053
-4.665447 -9.430187
-11.046524 -12.096365
-17.928362 -9.472779
-24.730301 -3.637484
-25.045999 2.592749
-21.299172 9.190201
-14.929246 12.643594
-8.667797 8.791506
-9.133816 6.054849
-11.459100 4.170854
-14.734795 7.250739
-13.573896 11.149966
-6.484205 14.435779
-1.542800 14.567157
3.623053 10.169879
6.528003 2.322602
4.188791 -4.843668
-1.083622 -11.775910
-11.750207 -11.246941
-19.694429 -5.033926
-20.085582 3.483991
-15.800091 9.167972
-8.829092 12.726695
-3.783366 8.193006
-4.250625 5.692591
-5.547079 3.553170
-7.580146 4.523246
-7.366650 8.152770
-1.003383 10.972626
4.480399 8.511349
7.944114 3.646783
10.618899 -6.203823
4.872539 -13.521132
-3.659226 -18.047978
-14.362828 -15.471849
-20.422522 -6.788971
-17.241512 1.600914
-10.054229 3.976087
-5.741996 0.125189
-5.785252 -4.042740
-9.967475 -6.911419
-13.982878 -6.865261
-18.587277 -4.257984
-20.175800 2.285614
-16.859399 9.547656
-8.419220 12.763004
0.745749 7.700908
2.927972 -1.610589
-1.960358 -12.471916
-11.674263 -14.817544
-22.161101 -9.105973
-24.928440 0.764966
-19.006229 7.797213
-11.832508 8.732539
-7.292998 5.220669
-7.231723 0.218433
-9.917870 -4.848166
-15.935110 -7.062693
-23.939371 -3.807753
-27.709953 6.464773
-25.488510 17.349639
-14.052141 24.376316
0.888666 22.222650
6.455864 10.953819
5.567926 -0.231865
-0.987053 -5.055252
-7.489134 -6.047207
-11.851908 0.231909
-9.110711 3.569336
-6.404606 3.312915
-2.720875 1.442168
-3.077952 -4.364111
-7.847450 -8.340929
-15.806468 -9.607897
-22.887430 -2.549640
-23.837479 7.733568
-16.447376 18.226984
-3.252627 18.225127
8.491588 10.560995
8.556649 -4.765569
0.405776 -14.663197
-10.391460 -15.063300
-18.548296 -7.830400
-17.469110 -0.309143
-13.603297 3.938069
-6.369525 2.459424
-0.907437 -4.473103
-5.563697 -15.752200
-17.227179 -19.874717
-29.843895 -15.292681
-35.390683 -4.902248
-29.759058 9.273265
-20.072864 13.963592
-9.649641 9.530405
-8.646170 2.030043
-12.408141 -5.939160
-20.019078 -6.051573
-26.324853 -1.051254
-27.629350 6.692210
-22.825332 15.131129
-14.640727 17.763897
-4.759925 14.900640
3.474019 3.733395
-1.823507 -10.456083
-15.159286 -17.187503
-30.793865 -13.196581
-39.240148 -0.204352
-36.420350 15.020701
-25.899814 23.143483
-13.622765 22.440634
-7.737262 15.444397
-10.773708 8.220062
-14.740625 3.812023
-22.197257 8.045002
-25.446810 16.057443
-17.444584 29.473744
-2.934155 28.925821
8.785482 20.100996
14.854529 6.799726
8.469197 -7.743916
-3.923752 -17.126777
-20.967744 -12.113667
-26.154776 -1.467894
-24.386163 8.728950
-16.683608 14.675378
-7.548715 14.449437
-3.098149 5.829602
-8.391596 -3.601724
-14.067776 -4.027406
-23.744843 -0.272901
-25.720233 11.685275
-18.345202 21.493497
-5.251780 19.175513
2.060145 8.328651
1.630519 -2.900616
-9.022687 -9.455019
-19.982083 -5.622363
-22.973805 1.002793
-22.631025 9.075533
-15.016672 11.153186
-8.054257 9.868707
-4.165501 0.957410
-6.205600 -6.350818
-15.396053 -13.511922
-31.483825 -11.434913
-38.602163 2.912347
-35.511658 18.516825
-22.769582 25.280241
-10.196475 22.167707
-1.554738 11.648813
-4.953605 1.346106
-14.394667 -2.021942
-25.171893 -1.149920
-27.878669 5.943833
-29.831710 12.246885
-23.685273 17.410078
-15.813414 22.746818
-5.019791 16.753931
-5.042443 2.609021
-15.128623 -6.511236
-33.541096 -1.740623
-41.969889 10.557072
-36.146573 28.574981
-21.247099 39.976399
-4.801920 38.180655
8.077723 26.391376
10.647373 9.387996
2.622888 -0.655327
-13.169390 -6.614855
-19.735674 -0.803150
-23.337003 7.668064
-18.081870 14.336354
-5.786807 16.899427
-3.181291 6.186861
-13.482387 -10.124730
-29.233746 -6.364471
-37.535572 6.311136
-39.939012 22.699932
-27.080759 39.130963
-4.473608 42.809565
11.033597 30.740620
13.001337 18.494447
18.729621 3.897989
8.066676 -13.313911
-7.566928 -16.869431
-20.339342 -7.342499
-23.758362 -0.581316
-19.037946 9.166573
-9.992082 8.428563
-11.290655 0.036436
-17.665432 -7.984438
-27.950575 -10.841530
-39.214704 -2.175236
-41.516114 14.373464
-33.495056 27.356381
-24.538538 33.081797
-10.686454 29.421469
0.488191 21.856018
4.313139 11.125234
-1.196869 -4.605518
-14.661045 -6.183465
-27.669372 -1.643124
-27.569899 10.117911
-17.183632 14.938856
-9.467619 10.168831
-11.970051 -3.831464
-18.440055 -13.828495
-36.048122 -14.220132
-54.655231 -4.575111
-61.061030 17.289193
-55.401400 39.182162
-32.987820 51.868832
-13.372393 50.720164
6.150014 36.074217
7.530646 21.062594
-2.972536 6.483675
-19.885410 8.045709
-24.648883 19.617538
-13.011376 23.588913
4.064837 19.908058
6.392576 5.878676
0.940307 -11.294231
-21.792094 -22.336381
-39.947712 -17.952806
-52.696145 -2.366083
-60.946395 24.073667
-46.990165 41.047495
-22.749356 52.998476
-0.634759 45.271044
11.796796 32.121732
2.742835 1.533507
-10.555214 2.785227
-18.454320 7.739937
-16.487158 6.966373
-15.056586 7.070058
-11.726967 13.575174
-1.608823 1.710895
-6.810217 -14.094040
-28.883060 -27.421257
-47.059401 -23.470867
-60.033935 -12.273935
-71.899351 18.095563
-57.727111 45.085117
-33.754774 42.664630
-15.573335 29.095661
-14.850825 13.675375
-24.218199 -4.067433
-49.988817 -0.266557
-55.304787 18.421073
-56.033388 37.229028
-40.094509 45.907103
-22.666471 49.475481
-4.859763 27.440568
-2.775815 10.467180
-27.184273 -12.617973
-52.450022 -20.718263
-84.287893 11.343606
-86.871158 41.350403
-66.217065 73.762121
-40.909561 67.379661
-16.497486 50.904789
-15.050787 30.369748
-34.157255 27.672201
-46.503094 33.373454
-52.424081 55.748623
-41.678830 59.437333
-24.908072 72.920793
-9.737784 63.038011
11.433589 45.784848
13.466577 38.094428
-8.625411 13.586635
-19.463571 9.009133
-43.416079 23.021529
-26.966974 38.380368
-28.615167 41.010298
-8.261252 28.668168
-16.393566 17.767447
-25.142173 11.147085
-32.010409 26.775102
-40.056645 33.387744
-50.865733 48.663793
-23.027701 61.867915
14.854456 49.630642
12.720896 35.545872
3.676235 0.695180
-4.162670 0.857106
-37.162253 -10.446029
-56.975707 -6.281816
-80.306904 8.631594
-72.314954 54.731915
-39.363692 60.879707
-28.853270 63.753402
-9.491650 48.654368
17.118579 20.693846
-34.828591 -36.406663
-102.145679 5.156031
-97.323384 55.800966
-79.744880 55.530550
-50.713981 79.944711
7.101862 91.103953
41.867172 -2.934599
-64.254116 -29.493456
-107.400827 -21.031875
-109.273001 26.543541
-131.114941 56.571550
-120.265604 117.172597
-49.619163 141.798607
5.260844 95.964028
-0.016624 39.875094
-28.984040 -4.192300
-75.755726 8.955513
-150.149752 44.040099
-104.631808 83.211311
-101.371528 106.357072
-72.017480 142.041013
44.838428 129.611353
29.017895 49.339105
-26.104411 48.191833
-90.527183 44.392000
-44.107258 8.170016
-68.983665 58.741949
-121.148231 84.212664
-122.587645 149.848739
8.903458 170.953050
-17.408307 46.376084
-62.504770 13.870013
-178.389291 76.957044
-172.836404 124.554494
-210.441909 168.742604
-101.142757 179.616372
-72.071754 266.040338
4.749989 254.558271
98.822226 193.291025
86.656699 82.585169
-86.243031 -27.212400
-101.550865 4.897859
-265.242274 19.038915
-54.471270 171.028200
-148.114842 117.722012
-111.870330 -31.677374
-287.349650 33.874785
-296.567147 -204.669491
-516.108982 111.492014
-855.644994 384.823313
-510.981728 248.126953
-734.351115 733.077150
-308.082410 344.151203
864.827766 784.379708
-576.717679 986.303084
-543.765267 196.128872
-1065.773275 -768.914774
-1130.452088 963.684074
-1453.686659 369.685543
-844.208398 -341.807034
862.497422 3295.714412
2387.850531 -1561.402334
