16483.540293 22161.060769
-9090.953873 3865.043723
4170.558771 -3598.687957
-1361.346083 -891.716823
364.180988 -3492.153265
-1536.504472 552.355723
1149.470853 557.476967
583.523266 197.725976
52.933587 132.939266
848.265502 285.469380
1520.436337 698.603805
873.314229 933.993889
1061.945123 -252.523209
1044.350526 -242.413227
470.609471 -603.469356
501.479584 -1424.742737
252.886968 -888.907459
244.132783 -504.684720
-17.745782 -531.631436
-107.873204 -315.527223
-214.224157 -738.510917
-416.610698 -136.123927
-339.042147 1.525740
-182.522233 211.935918
68.790852 145.805940
-68.554513 47.568503
-57.543026 142.313527
228.613861 7.849681
124.514461 -10.140062
294.072467 -43.337262
75.143720 -140.502674
154.548734 -4.590054
167.329604 -3.189866
266.792495 -216.443736
291.006561 -182.844803
132.727628 -214.557681
142.389525 -378.720846
146.608636 -488.970341
28.706628 -341.004913
-68.940251 -347.746553
-119.845438 -141.984203
-120.271558 -222.830082
-150.497775 -133.851841
-236.950082 -137.074927
-243.447217 35.635853
-79.512027 144.468710
-19.208369 158.234090
73.512495 117.083575
88.886096 53.304951
75.336844 67.318893
246.853456 35.359168
240.636486 -96.481590
256.283990 -124.416310
144.002010 -216.339965
58.777863 -226.061743
53.109857 -199.862150
4.845769 -194.422656
-38.419234 -201.436758
-54.194571 -175.323871
-114.630739 -114.992778
-106.424075 -102.877492
-108.375277 -25.476605
-80.205192 42.668552
-47.839822 64.644564
-18.856765 64.214394
37.900963 18.376806
61.888206 14.574319
60.546228 18.377453
91.516522 9.298737
102.936497 -12.730895
93.596463 -47.883429
99.918213 -54.130298
100.023344 -64.726992
133.350161 -88.996633
88.221136 -134.959540
73.269258 -140.758859
-9.995919 -136.548301
-25.511215 -91.738058
-31.988211 -109.250916
-25.246505 -61.770271
-62.414577 -18.089842
-36.651761 -6.014215
-4.964478 30.771372
31.613246 20.846700
28.328987 31.603918
59.656553 48.280654
73.059578 53.481910
144.476028 14.601598
141.496770 -24.250199
175.767763 -74.550975
122.283811 -96.817377
121.426908 -132.205162
75.987947 -146.987071
43.136748 -156.517732
-4.022469 -156.147694
-15.444606 -125.099917
-22.504336 -112.629148
-41.849182 -87.240015
-50.619348 -61.409988
-44.686754 -73.442877
-39.115353 -46.047855
-45.584456 -35.019330
-58.600456 -7.047559
-18.067665 45.417765
17.329543 43.126896
54.855507 21.238780
59.560579 -19.379429
44.619615 -9.069614
60.118939 -10.412613
67.231450 -12.138221
95.664805 -60.756972
71.956061 -75.843708
54.552927 -95.242776
48.331757 -77.842798
46.940276 -99.357563
13.623552 -106.215139
-13.090224 -128.044842
-55.196443 -101.552400
-65.176397 -73.689337
-72.292319 -30.756070
-55.158987 -10.934110
-42.162509 24.311937
-14.232535 28.311785
-1.491004 33.377018
25.059435 33.326611
30.901276 45.538175
70.222876 35.932540
92.835451 0.937361
99.388255 -37.683072
77.414241 -78.098298
56.114479 -78.119088
45.038684 -92.981275
34.783375 -103.797464
-1.733488 -108.806016
-39.472579 -92.550316
-54.931848 -59.684658
-49.544287 -20.692422
-32.391531 -15.131430
-36.188038 -10.452106
-27.052926 -8.143077
-25.060990 15.403086
-4.997425 18.533306
15.874000 24.262468
28.475391 19.852142
40.931875 18.781852
52.697205 1.722767
49.162708 -3.113433
45.587661 -25.994490
38.624140 -21.438003
59.311602 -28.601610
56.136047 -42.054355
52.587013 -64.358074
29.054636 -75.571052
11.447486 -70.135514
4.651169 -63.055571
-9.316912 -63.716171
-28.642856 -57.207429
-45.870313 -31.290722
-48.349632 7.965337
-28.830124 28.833751
-1.181392 34.001479
24.430208 30.572485
43.989703 25.970548
60.610836 21.211481
73.290182 0.003719
80.960055 -15.725641
78.166321 -38.998296
79.694017 -55.597305
65.707801 -78.600618
37.355736 -91.579929
14.157745 -100.670039
-9.873957 -83.432585
-13.722733 -71.280824
-22.795557 -65.031037
-27.866178 -53.659647
-32.870783 -34.388294
-31.657506 -18.259450
-16.546675 -17.270457
-15.853770 -23.344202
-22.911840 -11.907003
-25.623338 0.928427
-14.892511 19.974388
9.208163 23.320829
24.751858 10.639925
39.962948 3.924912
47.210099 -3.298270
54.040585 -15.772084
53.866044 -30.835157
43.699833 -48.467347
36.004712 -58.353395
23.755007 -59.447837
11.510822 -69.721250
-1.493531 -71.643794
-20.880552 -67.277509
-36.118125 -58.276687
-45.802381 -40.484832
-51.713996 -24.966131
-46.687015 4.949770
-35.455163 24.999681
-8.092042 36.044983
14.424385 33.439460
23.831594 19.282027
35.967358 7.783291
41.821635 2.414372
42.522526 -14.288372
42.194470 -31.980175
31.104256 -37.641989
23.546324 -33.532151
25.470426 -31.071184
24.938344 -41.235905
17.838069 -52.135761
-4.259389 -53.361291
-16.376723 -48.428291
-20.135776 -36.285796
-21.591808 -30.515712
-24.756904 -23.294180
-26.668727 -12.743168
-29.349849 6.998783
-13.485692 15.677253
-4.220599 23.427061
10.247549 27.775070
23.181044 24.955660
39.329893 18.355584
48.592842 3.204118
54.322470 -11.547048
54.687776 -20.308296
57.237985 -40.266885
48.483012 -52.334737
32.862918 -69.564510
7.023551 -69.146807
-6.779615 -62.468097
-18.546198 -57.258632
-26.805629 -47.124637
-41.819414 -33.174578
-44.260873 -12.245047
-29.328857 14.964302
-5.258683 20.404417
14.065857 16.350125
17.502717 10.454047
22.197929 6.138839
28.508458 2.027767
36.429600 -6.596020
36.474795 -21.970414
32.029779 -30.467858
32.404460 -34.916125
30.561117 -37.939732
27.669035 -46.097139
20.863537 -55.254077
9.003340 -57.014141
-5.174255 -58.646662
-18.634115 -53.879831
-30.121708 -44.951611
-35.723158 -31.295431
-29.521003 -21.713939
-22.979801 -16.536098
-27.109691 -12.626902
-29.595993 -3.553880
-23.558406 12.519257
-9.558947 25.494713
7.233742 20.830069
15.428003 16.824301
21.584535 9.862692
29.808741 5.371185
41.686142 -9.211780
45.785944 -29.381818
32.017827 -44.815615
16.872881 -48.292125
6.311999 -42.984372
1.171116 -35.990364
-3.044267 -38.984044
-13.625104 -38.618482
-23.572634 -31.704186
-29.944024 -24.097881
-31.754173 -10.380514
-25.340590 0.242251
-14.626266 9.741040
-1.414314 14.862607
6.827448 14.591053
13.963574 10.994627
19.761345 8.547554
27.861089 0.703246
32.836220 -9.884878
28.500673 -23.209694
17.933041 -26.631912
14.707796 -27.666294
17.443976 -26.084251
19.430829 -34.073934
12.033728 -40.945205
-3.154531 -42.470428
-11.377536 -31.952110
-15.138305 -23.571032
-17.677964 -22.357945
-19.132475 -19.866953
-24.004815 -8.141212
-18.081209 2.318527
-7.736703 10.841123
1.846833 8.325759
9.353258 6.908242
12.369433 7.888323
21.781351 9.792433
27.471919 3.607629
34.533037 -5.916494
39.893551 -19.279084
36.373720 -31.590244
28.269867 -44.072447
14.909191 -51.023627
-0.491627 -47.812143
-8.401344 -42.858253
-13.829501 -38.660862
-22.900207 -33.491478
-31.189348 -22.300461
-30.512128 -5.000775
-21.198734 9.638020
-6.009798 12.165704
1.984982 7.557164
7.630876 7.467557
12.761616 6.685410
22.437279 4.431348
28.420725 -7.756597
26.236256 -18.827454
20.214413 -23.842584
15.283046 -24.226568
17.722619 -24.208618
15.448586 -32.676974
11.646958 -37.780261
3.767340 -39.068675
-4.057402 -38.800144
-10.077661 -35.619588
-18.064087 -32.872372
-23.353762 -25.670683
-22.785505 -19.419891
-25.869584 -14.193089
-23.677152 -8.532663
-25.523973 1.906920
-17.903416 11.472976
-8.328647 17.753947
4.387729 15.592742
9.234917 15.682181
17.801006 12.131541
26.238288 6.416270
35.997454 -6.928180
33.747003 -24.396532
23.810292 -36.811565
9.320079 -39.606402
-0.744886 -35.376878
-10.696954 -33.491652
-15.378659 -29.027246
-21.521390 -18.843077
-21.951447 -8.142636
-16.431551 -2.294895
-11.891094 1.739602
-10.965478 3.579824
-5.420348 8.311529
3.310190 8.455149
10.198363 8.666524
14.423781 2.269402
14.097536 -0.576996
17.438749 -3.446498
18.054517 -7.450457
18.536688 -15.174799
13.495752 -17.576302
10.657935 -16.984011
11.052575 -17.675785
13.507461 -21.088784
10.089674 -26.782189
3.433525 -28.988291
-3.669860 -27.525646
-10.222189 -26.436585
-15.381938 -22.339472
-22.707902 -16.853113
-24.937374 -3.170839
-17.039236 8.175122
-6.683217 16.171060
3.231100 17.151493
11.021453 13.880504
20.676001 11.164428
29.583968 4.044562
33.473178 -7.611273
30.869212 -19.720763
25.124721 -26.101335
18.245075 -32.697574
12.487875 -37.251207
4.166063 -38.330607
-8.405894 -36.200871
-13.759750 -30.669186
-17.702753 -20.942219
-18.484630 -16.282958
-19.204289 -9.373278
-15.452525 -2.993278
-10.468221 1.645877
-3.514235 2.462303
-2.021854 0.803806
0.560966 0.122027
2.806028 4.156150
11.746384 0.853968
15.006630 -2.152159
13.769968 -9.383691
12.432594 -10.574942
13.234030 -11.679632
16.048374 -16.216558
16.611824 -22.961808
11.148901 -29.078947
3.158175 -32.575674
-2.934775 -32.287471
-11.535963 -31.275348
-18.674500 -26.611199
-24.236092 -19.715973
-25.148540 -10.420475
-23.566862 -1.616858
-21.790260 4.963847
-14.961710 11.719401
-5.424907 16.043792
4.886269 16.448527
13.801201 9.418927
14.737469 4.192894
14.745463 0.461396
17.999218 -2.565363
20.767098 -9.672088
18.111834 -19.086267
10.705438 -25.398361
1.760495 -23.167067
-0.788190 -19.958478
-2.161984 -18.559832
-6.148711 -17.682602
-9.264758 -13.542019
-11.887116 -7.369135
-7.593263 -0.737108
-4.652158 -0.109554
-1.947443 -0.909229
-0.108509 -1.502847
0.812839 -0.068600
2.181598 0.929708
6.998841 1.421897
9.791227 3.409857
15.293360 0.589076
19.627948 -6.651340
18.667902 -12.889688
14.127308 -17.240839
10.330742 -17.186961
10.222902 -17.503861
8.830406 -22.814937
1.787847 -26.645950
-3.126840 -25.744625
-7.976143 -19.485218
-7.847224 -15.979406
-10.016935 -14.718261
-13.754070 -13.237945
-17.249451 -2.933429
-12.759428 4.544044
-4.220259 11.161890
5.534836 10.647804
11.162658 6.340464
15.811571 2.639668
19.361840 -4.009245
21.009660 -10.665841
18.881878 -15.873019
13.503354 -20.202632
10.438319 -22.586310
6.914708 -25.010609
1.655502 -26.580554
-3.220810 -24.984946
-6.329627 -21.687272
-8.729720 -19.233299
-11.813265 -17.252305
-15.750852 -13.106096
-13.833808 -5.314717
-10.070038 0.721015
-3.420146 1.467419
-1.210311 1.058948
-1.018207 0.408445
2.265443 1.667109
8.006971 0.393273
11.329646 -3.791780
10.147484 -7.884530
8.964719 -8.753383
10.608067 -9.868967
12.245523 -13.194958
12.145126 -20.015246
6.578779 -24.839332
-0.250552 -25.233690
-4.827554 -24.458041
-8.992735 -23.376433
-14.038660 -22.143221
-19.533705 -17.449302
-22.994632 -8.866667
-22.051345 0.102156
-17.013567 7.823973
-9.842528 12.882016
-2.345411 14.026176
5.915629 10.936026
10.743266 7.252063
11.902199 2.726366
14.119066 0.002991
16.848619 -5.019353
15.801192 -12.476265
10.453899 -17.300835
4.421910 -18.112927
0.611488 -13.799225
1.453035 -12.338605
-0.838703 -13.833600
-4.754316 -13.960472
-9.421383 -8.094822
-7.438184 -0.949644
-0.667533 2.682698
5.597069 -1.430626
5.592347 -4.760561
1.917551 -6.360867
2.430010 -3.821799
4.140975 -2.687691
5.821588 -2.213692
7.642132 -3.641840
8.778476 -4.448246
11.378198 -5.932574
13.368501 -7.819317
14.082547 -12.604426
14.764803 -16.570268
11.616151 -21.858065
4.725937 -26.512305
-3.301155 -26.088981
-8.299036 -20.738180
-9.594648 -14.416572
-7.251446 -13.123145
-9.846023 -12.508171
-14.241381 -8.099644
-14.097891 0.217322
-7.143722 7.362182
2.221487 8.152204
7.862739 2.515163
10.720312 0.130888
12.845924 -3.298166
15.334351 -6.851074
15.191007 -14.872309
10.659794 -20.441194
2.697268 -21.599536
-1.158977 -17.598554
-2.892642 -15.372824
-2.964322 -13.645744
-2.260093 -13.326705
-2.950684 -13.230239
-3.550437 -13.357629
-4.572514 -13.232388
-9.641283 -11.981560
-10.586893 -8.517499
-10.209364 -4.767657
-7.432456 -1.419262
-6.458895 0.141162
-3.210225 1.266000
-0.166597 4.159926
4.891920 2.804735
7.253091 -0.848254
8.925869 -3.155117
9.234268 -4.159517
11.435531 -6.406787
12.997794 -11.683996
10.022035 -19.553731
3.514189 -22.143674
-2.174515 -22.261437
-6.456809 -18.559547
-9.362395 -16.001146
-13.890381 -12.081696
-15.616608 -5.269012
-12.506752 1.777446
-7.450250 5.030699
-2.941380 4.593208
0.722839 4.026993
3.220279 3.169341
5.023826 2.813677
9.965092 -1.194261
9.622224 -4.648051
8.386007 -5.488582
7.766016 -6.705458
7.132660 -8.216157
5.578307 -9.825062
4.608632 -10.559165
3.608023 -9.331488
4.666917 -11.032732
4.155679 -12.213342
1.605988 -14.053077
-2.047101 -11.605245
-2.202840 -9.249173
-2.005454 -6.513119
-2.878966 -7.273038
-3.478715 -4.762153
-3.065974 -1.407138
1.319804 1.094915
6.393556 -1.743589
8.500568 -5.086487
8.570498 -7.161316
8.012239 -7.172517
10.678573 -9.633889
10.068483 -13.496503
7.554524 -17.645732
2.733475 -20.267028
-1.622531 -20.504765
-5.192058 -20.328358
-10.039283 -18.450201
-12.791078 -12.985392
-12.855202 -7.314421
-10.376174 -2.396400
-7.537644 0.250828
-4.954195 0.996243
-3.417602 2.948865
0.691160 1.452373
3.052017 -1.346371
2.282333 -4.224320
1.037976 -2.972658
3.854014 -2.658107
7.358933 -3.046071
9.275234 -6.541553
6.744635 -10.173671
3.924359 -11.515250
3.200978 -9.776226
2.340521 -11.747389
0.455406 -13.461373
-2.778310 -13.465448
-4.287624 -11.394235
-3.542243 -10.104707
-3.801508 -10.290481
-5.145901 -10.654259
-7.967549 -7.449747
-8.626711 -4.373804
-7.305033 -1.663157
-6.728019 1.396538
-4.232966 3.751206
0.118873 5.257655
7.197443 3.794774
9.708473 -1.634948
9.890553 -5.849963
7.655582 -7.371943
7.521159 -9.421178
6.621892 -10.876122
4.813388 -14.901344
-0.672529 -15.693489
-3.688338 -14.468088
-6.199752 -11.816202
-6.274098 -10.851488
-8.899656 -9.333633
-9.901902 -5.087665
-9.045444 0.458154
-5.031354 2.738615
-1.269550 3.878738
1.770087 2.497962
3.340972 2.147553
5.319811 -0.247523
6.291575 -2.558001
4.850517 -5.579489
4.287661 -5.195116
5.913511 -6.001936
7.053580 -6.617069
5.029042 -9.340258
2.126888 -9.817377
1.174918 -7.747540
2.091626 -7.141657
2.620290 -9.273641
1.366381 -11.041981
-1.966956 -9.585748
-1.887401 -8.037115
-1.168988 -5.852211
-0.316512 -6.952223
-2.883141 -6.459661
-2.865722 -3.540078
-1.584913 -0.982040
1.592237 -0.326068
5.202563 -0.023382
8.036665 -2.836648
10.049910 -5.527488
10.873513 -9.550274
9.385736 -14.553443
5.954574 -16.987787
2.955959 -18.046791
-1.247569 -18.858799
-5.654994 -18.195345
-10.620343 -16.213057
-13.632281 -9.918612
-12.949804 -5.055066
-9.030715 -2.047526
-7.357211 -0.998166
-5.757878 0.782941
-3.475684 2.824360
2.320336 3.507861
5.415017 -0.152474
5.529515 -4.854958
2.581646 -6.641706
1.187393 -5.753712
1.915993 -4.466674
3.149755 -5.634580
1.911405 -7.526587
0.947684 -7.189459
0.622590 -7.073837
2.163940 -7.167135
1.579973 -8.392451
-0.056781 -9.372088
-0.312953 -9.193613
-0.974392 -9.816552
-2.388588 -9.906960
-4.755568 -9.805944
-6.241442 -7.164348
-7.464302 -5.799706
-7.398045 -3.200467
-7.480623 -0.726106
-5.078535 3.637678
-0.420179 5.598290
5.598815 4.537836
7.538991 -0.501058
7.644914 -3.690062
6.953312 -5.874871
6.477721 -7.473721
5.417063 -10.784944
1.784944 -13.572607
-3.590117 -12.097489
-5.469550 -7.287130
-3.298321 -3.374678
0.401113 -3.412421
-0.690697 -4.805413
-1.661773 -4.712366
-1.736741 -2.852708
-0.205655 -2.745329
1.307601 -3.499829
0.885994 -5.403688
0.561874 -3.755115
0.591942 -3.459932
2.278215 -2.882138
3.385633 -3.335014
3.483173 -3.778063
4.684217 -4.694210
3.994510 -5.907827
3.347618 -6.772220
3.758255 -6.159419
3.824922 -6.906793
5.813974 -10.095959
4.482929 -13.785097
-0.632647 -15.107196
-5.336807 -11.705534
-5.996778 -7.070016
-5.231461 -4.333362
-4.265254 -3.482188
-4.340175 -1.406201
-2.467889 1.059908
2.873807 2.635748
8.822426 -1.421039
9.515027 -6.610731
7.247942 -9.822139
5.239896 -10.437201
3.848302 -10.983343
2.575863 -11.838617
-0.932196 -13.543367
-4.385510 -12.858313
-5.986903 -11.535462
-7.308829 -9.280630
-7.456781 -7.663589
-6.850672 -4.084540
-5.117226 -3.038887
-3.089259 -1.840436
-2.475337 -2.368199
-2.683214 -1.778235
-1.816312 -0.933826
-0.003103 -1.620973
0.004364 -3.532174
-1.215179 -4.126643
-2.927556 -3.177498
-0.786635 0.463886
2.043950 1.135699
5.408846 -0.662715
5.006236 -3.468760
5.339020 -3.717630
5.855502 -5.786582
5.333972 -8.087200
2.751448 -11.696723
-0.486953 -12.113084
-2.420557 -9.509958
-2.547670 -7.917257
-2.686252 -7.928265
-3.301576 -5.837150
-4.519750 -4.141404
-4.221972 -2.062154
-2.535720 0.077939
-1.379906 -1.366187
-0.332684 0.037066
1.369299 -0.023086
4.803228 -1.116223
5.153064 -3.766050
5.082856 -4.971426
3.864194 -6.173450
3.015391 -6.742535
1.409655 -8.237021
-0.926448 -8.185968
-2.938061 -5.879191
-0.837942 -3.882797
0.562230 -4.098132
1.645350 -5.929505
-0.684127 -6.006308
-0.468067 -4.607637
0.232429 -2.757643
2.174227 -3.571658
2.259221 -5.053047
0.404574 -5.296338
-0.766373 -4.124155
0.907966 -2.458630
2.622115 -3.536951
2.774241 -5.754076
2.209911 -5.114698
2.738776 -4.141415
2.884057 -4.140553
4.453483 -5.212035
4.082876 -7.529289
3.127166 -9.035185
2.310895 -10.056078
0.471916 -11.336149
-1.498752 -10.631295
-3.584357 -8.349164
-2.691315 -7.041310
-2.862698 -5.833772
-4.465295 -4.725886
-4.688821 -2.187666
-2.375395 2.001385
2.441307 1.773214
5.944163 -1.958063
5.722850 -5.040668
5.563912 -6.428638
4.389762 -6.279951
5.486281 -8.204794
4.381243 -11.687265
1.834285 -13.961647
-3.293792 -13.622590
-4.896236 -11.368816
-5.957509 -9.350554
-5.539209 -8.050355
-6.041088 -6.911355
-5.501945 -5.664142
-4.819273 -3.698798
-4.898231 -3.078988
-4.319899 -1.203233
-2.923004 -0.582762
0.051264 -1.086023
-0.225832 -3.716124
-1.737276 -4.938052
-3.695043 -2.987233
-2.394062 -0.347495
0.113603 0.674052
1.896450 -0.299407
2.201772 -1.423921
2.586251 -0.699115
4.911644 -0.934330
6.893841 -4.124268
5.578466 -8.696935
2.668799 -10.541653
-1.203235 -9.506968
-2.830102 -8.283081
-2.925286 -6.143767
-2.644015 -4.305736
-1.999389 -2.586738
-0.688525 -2.914856
-0.844709 -3.189767
-0.839063 -3.592823
-1.264853 -2.064717
0.549945 -1.747777
2.838710 -2.605801
3.376527 -4.773424
1.693434 -5.080721
0.933233 -3.852328
1.950722 -3.644465
2.605640 -4.803021
1.338354 -6.198390
-0.778249 -5.202030
-0.596942 -3.047317
2.330933 -2.195225
5.852813 -3.089319
5.565786 -6.526123
4.732174 -8.646425
2.334864 -9.795456
-0.019618 -10.053031
-2.679651 -9.028671
-4.214041 -7.226734
-3.608423 -3.850547
-1.721486 -2.137608
0.263922 -2.213128
1.606178 -2.936552
2.847456 -2.284861
5.457606 -3.104671
6.399044 -5.200191
5.633619 -9.156593
2.505259 -10.036179
1.026212 -10.280684
0.299721 -10.457754
-0.810430 -11.587393
-3.287765 -12.076324
-6.088784 -9.175910
-6.387659 -5.038199
-5.032510 -3.108344
-2.724851 -1.678287
-1.409432 -1.407824
0.576774 -1.756134
2.272472 -2.985165
2.709799 -5.769620
0.538579 -7.801826
-1.173398 -7.113733
-0.604327 -5.777721
0.206280 -5.571254
-0.509474 -6.100269
-1.252749 -5.548657
-2.158004 -4.575304
0.023332 -3.849592
0.907186 -5.434479
0.631213 -7.384476
-2.156454 -8.447442
-3.044037 -7.748564
-3.523992 -6.543049
-3.479716 -6.402916
-4.778886 -5.398426
-6.125268 -3.908188
-6.438606 -1.806073
-5.970951 0.120211
-3.923111 2.555774
-1.800239 3.745900
2.431761 3.236793
5.440957 0.546228
5.395651 -2.848456
3.632503 -4.355551
3.853669 -3.281581
4.512861 -4.313964
5.165211 -5.827641
2.037798 -8.531165
-1.257662 -7.211583
-2.117899 -4.599046
0.666440 -3.199527
2.877929 -4.144168
2.637320 -6.141487
1.611336 -5.488647
1.192717 -4.619218
2.146799 -4.845399
2.597302 -6.861569
1.943682 -8.778065
-1.170431 -9.541132
-3.960080 -8.173799
-5.070387 -5.547811
-4.241676 -2.540782
-1.271438 -0.581165
2.019398 -0.956934
3.019829 -3.237361
1.629229 -4.770984
2.163628 -4.056934
2.860234 -3.545626
4.319271 -6.066490
3.417043 -8.364676
0.366927 -10.739767
-2.503019 -8.776767
-2.623824 -7.017831
-1.042362 -6.781466
-1.753684 -8.805295
-5.287398 -7.332887
-5.858558 -3.212089
-4.165974 0.730651
-0.143725 1.716104
3.705945 -0.454881
4.466991 -3.457616
4.377952 -4.973288
3.377283 -7.333126
3.115641 -8.781735
1.000947 -8.471883
0.286033 -8.775253
-1.213333 -8.318656
-2.200942 -8.213480
-3.632944 -7.383003
-3.455257 -6.225469
-2.873613 -5.285863
-3.076054 -6.080807
-3.935393 -6.047880
-5.194129 -5.144070
-3.817477 -2.166272
-0.875452 -1.268184
0.973451 -2.507904
0.160268 -4.684823
-0.873849 -3.889871
-1.390416 -2.665358
-0.638090 -2.500642
0.094750 -3.386211
-0.236490 -3.834216
0.133974 -3.245874
2.253911 -3.347971
2.675187 -5.816472
2.507330 -7.630786
-0.609148 -8.186248
-1.669174 -7.183351
-2.327017 -6.788443
-3.457603 -7.813533
-5.565523 -6.452644
-6.120584 -4.574640
-6.070501 -2.742447
-4.672409 -1.917700
-4.677489 -0.164515
-3.744613 1.371972
-1.145135 2.733660
1.024877 3.054357
3.245787 1.834171
3.401808 0.382187
4.604668 -0.795389
5.252793 -2.995358
5.465774 -5.718191
3.427189 -7.369817
2.265009 -5.717131
2.496028 -5.085445
3.817052 -5.168451
2.785365 -7.544679
0.481182 -8.246188
-0.862552 -7.371288
-0.616480 -5.760252
0.816965 -7.400916
0.433984 -9.241437
-2.195049 -8.833042
-3.594228 -7.207766
-4.051373 -4.252571
-2.810101 -3.804994
-2.550638 -3.071189
-2.625488 -1.715175
-1.615629 -0.160371
0.634696 -0.490832
2.777859 -1.045996
4.852748 -3.683312
5.286867 -5.997552
5.094963 -9.176854
2.235348 -10.693779
-0.991014 -10.176169
-3.346136 -8.064763
-2.653234 -7.309898
-3.473863 -8.128351
-5.749744 -7.836384
-7.613039 -4.784181
-6.598468 -1.066971
-2.242990 1.002747
0.348097 -0.320712
1.041414 -1.608193
1.291559 -1.742563
2.414710 -0.781715
3.651380 -3.157150
3.913530 -6.492755
0.947665 -8.605753
-1.232207 -8.330753
-1.983382 -6.138968
-0.679928 -5.257234
0.251543 -5.117334
1.020337 -5.703457
0.415131 -7.050219
-0.738077 -8.903731
-3.129727 -8.550737
-5.949786 -7.788776
-7.091130 -5.774707
-6.575621 -4.141754
-6.320205 -2.983183
-6.963725 -1.488537
-5.132204 1.816133
-2.055431 3.857625
1.187641 3.672039
2.903665 1.051695
3.331118 0.870261
3.949026 0.259403
6.056616 -1.519142
8.219645 -5.857787
6.555783 -10.349274
2.648137 -12.860916
-1.006461 -11.674750
-4.275313 -10.527526
-6.191326 -8.255694
-8.043409 -4.818418
-7.366804 -1.503030
-5.087926 0.816298
-2.416565 1.098316
-1.055061 0.505084
0.482875 -0.169691
1.964412 -0.526294
2.854868 -2.317830
1.983217 -3.311582
0.277702 -3.622469
0.391573 -1.528349
2.037752 -1.155693
3.122742 -1.678135
3.051618 -3.962098
2.597012 -3.586523
3.369452 -3.658706
5.099733 -4.384640
6.073891 -7.289923
4.919733 -9.347294
2.156689 -10.822544
0.615432 -11.573937
-1.469821 -11.447519
-4.735130 -10.903473
-7.142367 -9.402420
-8.398433 -6.609522
-7.748519 -3.293748
-6.109300 -1.042029
-4.769407 0.779615
-1.819500 2.344046
1.644081 2.510668
4.161266 -0.292072
4.613315 -2.882487
3.897486 -4.553927
3.865789 -6.466077
3.296296 -8.032429
1.488303 -9.950248
-1.869302 -10.976734
-4.472501 -8.147788
-4.954269 -5.642694
-4.622579 -4.997256
-4.084633 -4.558367
-4.609306 -3.160642
-4.547131 -2.223650
-2.635093 -0.995054
-2.188612 -1.320403
-1.682386 -1.271200
-1.484217 -0.705086
0.290856 0.527266
2.078995 -0.166763
4.050985 -1.912303
3.299169 -3.353736
4.050485 -5.063753
3.895263 -6.450105
3.354646 -8.146905
1.700818 -8.554004
0.530000 -9.346111
-0.883978 -9.027125
-1.719497 -10.227875
-4.164574 -10.312930
-6.489051 -9.123781
-8.677290 -6.238838
-8.338532 -3.617271
-8.456065 -1.299167
-7.480853 1.374168
-5.363846 4.531265
-1.259514 4.897562
2.567015 3.555272
3.829891 0.936254
3.820204 -0.401857
3.707366 -1.108914
5.322967 -2.161365
6.060988 -4.915226
5.135780 -7.068228
2.828182 -8.535563
1.586088 -8.285220
0.320319 -9.489654
-1.570617 -10.299369
-4.770576 -9.882478
-6.641116 -7.057683
-6.853180 -3.742100
-5.266677 -1.620870
-3.747978 -0.501545
-2.156809 -0.908537
-1.970771 -0.584634
-0.990416 -0.434785
-1.105143 -0.075592
-0.545096 0.739131
1.420817 1.831579
4.094427 0.684126
5.888576 -1.439056
5.783806 -3.714109
6.055147 -4.953450
6.283527 -6.319513
5.359878 -8.605810
3.039270 -11.295915
-0.093343 -11.215428
-2.523456 -9.820465
-1.925753 -8.245526
-1.824901 -9.349456
-3.383055 -9.819319
-6.902846 -8.433443
-7.997267 -5.079217
-7.250054 -1.439313
-4.567099 0.654478
-2.893159 1.438037
-0.778533 1.479484
1.406306 1.197086
4.190581 -0.659135
5.018963 -3.237841
5.260487 -6.023001
3.846505 -7.764308
2.385943 -9.304148
0.065851 -9.343404
-1.896963 -9.049691
-2.914637 -7.698173
-2.899193 -7.453504
-4.251263 -7.687852
-6.449411 -7.154050
-7.127037 -4.732665
-6.525636 -2.143260
-4.047580 -0.618830
-2.902132 -1.039492
-2.976345 -1.101427
-3.341635 0.761002
-1.006469 2.365251
1.325882 1.791214
3.227734 -0.276429
3.394109 -1.816788
3.726833 -2.533480
4.902849 -3.759031
5.617060 -6.175563
4.940111 -9.001643
2.395305 -10.780648
-0.655952 -11.364738
-2.712684 -11.683893
-5.677074 -11.059584
-7.602636 -9.729817
-9.729912 -6.256285
-10.453263 -3.678503
-10.593075 -0.445927
-9.095279 2.933221
-5.559831 6.432769
-1.259501 7.648622
3.119043 6.415219
5.425262 3.101731
6.023392 0.986288
6.462206 -1.288108
6.959231 -3.978521
6.369181 -7.162694
3.357271 -8.476557
1.065381 -8.296090
0.944170 -6.481196
0.868622 -7.600708
0.217610 -8.661441
-1.920657 -9.382035
-3.841907 -7.767395
-4.528151 -5.845242
-4.054385 -4.769380
-3.642801 -4.613269
-4.051357 -3.478372
-3.594045 -2.157748
-2.838120 -1.178187
-1.978966 -0.731161
-1.454562 0.165053
-0.134669 1.046045
2.223816 1.022845
4.228707 0.241914
6.708157 -2.011193
7.640343 -4.812669
7.969084 -8.039020
6.163538 -11.386462
2.768897 -14.574761
-2.195821 -14.413788
-5.525819 -12.733103
-6.377909 -9.981166
-7.776661 -8.803941
-8.948758 -6.585529
-9.198118 -4.323144
-7.777690 -0.647457
-5.148594 0.925990
-2.983664 0.608617
-1.942509 0.161267
-0.736293 0.502063
1.221696 0.304678
3.124673 -2.068417
3.379773 -4.679709
2.539307 -6.159318
0.593132 -6.544688
0.379862 -6.625855
-0.617501 -7.063923
-1.396767 -7.139966
-2.223301 -7.201812
-2.539382 -7.103460
-3.607938 -7.110327
-5.033702 -7.902970
-7.003543 -6.496254
-7.886170 -4.527803
-7.822506 -2.341439
-7.782043 -1.029150
-7.575133 2.331817
-5.318205 4.906853
-1.412752 6.054634
2.135911 5.034461
4.560901 2.709276
6.146870 0.484585
7.954984 -1.224714
9.900519 -5.167255
9.145626 -8.970063
5.121481 -12.939018
1.251690 -13.412375
-2.402938 -13.173406
-4.102879 -11.961893
-6.583808 -11.596755
-9.785005 -8.835589
-10.805060 -5.375309
-10.220606 -2.266180
-8.285261 0.889399
-6.185204 2.515071
-5.070248 4.137571
-2.067907 5.063543
0.777775 4.329655
2.545465 3.062320
4.050648 1.252937
5.506416 -0.303454
6.433386 -2.987849
6.222407 -5.470402
4.616482 -7.054752
3.045919 -6.961384
3.097346 -7.255631
3.062505 -9.741886
0.601759 -11.195359
-3.453016 -11.715368
-5.664224 -10.058011
-6.650943 -7.712983
-7.010548 -5.950952
-7.826926 -5.071463
-8.099666 -1.741044
-6.341549 1.571087
-3.240799 3.191214
-0.949973 2.743631
0.958145 1.972110
1.800057 0.399846
3.519294 -0.394476
4.855879 -2.183985
5.218225 -4.534636
5.388817 -6.270289
5.536007 -8.600271
3.118148 -11.302354
0.364434 -12.261680
-3.893200 -11.793198
-6.079913 -9.810374
-6.865215 -8.206691
-7.139291 -7.880964
-7.876006 -6.453153
-8.654698 -4.146381
-7.238415 -0.711663
-5.107106 0.318767
-3.706870 -0.047841
-3.059964 -0.285592
-3.259365 1.031504
-1.679895 1.858829
1.295037 0.801835
2.853674 -1.209406
3.351206 -3.441371
3.136869 -5.583512
2.085528 -6.386799
0.727488 -7.574996
-0.771581 -8.352698
-1.724256 -8.090958
-2.765056 -8.545748
-5.301996 -8.716213
-7.763257 -8.255433
-9.710725 -5.659390
-9.293639 -2.148493
-8.281647 0.034415
-7.597611 0.774733
-7.308949 2.781578
-5.034121 5.866987
-1.516995 7.958992
3.037655 6.715479
5.215565 3.723954
6.654679 0.568975
6.795813 -1.204215
8.271910 -3.800873
8.362939 -7.556204
6.094455 -11.390710
2.488805 -13.823281
-1.690995 -13.297773
-4.938911 -11.528120
-7.971908 -9.810542
-9.092515 -6.737534
-9.315451 -3.941030
-7.559625 -2.030157
-7.904924 -0.766797
-6.340525 0.815368
-4.621028 2.579889
-1.802379 3.988769
0.455223 2.964982
1.782913 1.309762
1.669045 0.283358
3.510359 -0.026027
5.201834 -2.136775
5.472807 -4.450201
3.928326 -6.629229
2.140380 -8.030101
1.540460 -6.972090
1.972925 -7.872434
0.673042 -8.999082
-0.817098 -10.227694
-3.511257 -10.411274
-5.131369 -9.579363
-7.671610 -8.706420
-9.897516 -6.197544
-10.576489 -2.411143
-8.876376 1.466653
-6.002003 3.856426
-2.356552 4.350283
0.560827 3.718124
2.487439 2.121938
4.927292 0.356114
5.784573 -2.775290
5.401713 -5.726519
4.537384 -7.903402
3.157682 -9.523995
0.802349 -11.192704
-1.940948 -12.515888
-5.523769 -11.569316
-7.532681 -9.375310
-8.982548 -7.075133
-9.405142 -4.750545
-9.535697 -1.774963
-8.496146 1.259847
-4.817316 2.773132
-2.184952 1.029136
-1.594319 -0.515323
-2.921534 -1.700264
-4.182559 0.260533
-2.201424 1.903450
0.106111 1.635111
1.462172 -0.222106
1.641326 -1.035976
2.018424 -1.802619
3.187847 -2.793178
3.763053 -6.070630
1.792174 -8.352245
-0.739861 -10.022918
-3.952011 -9.032288
-6.105470 -7.873614
-7.393177 -5.654089
-7.860767 -4.376659
-8.045479 -2.451038
-9.017149 -1.208268
-9.081732 1.734951
-8.263828 5.560977
-3.867099 8.474306
1.480343 8.745566
6.140793 5.376755
7.416892 2.293589
8.053628 -0.864807
8.673928 -2.607669
9.232758 -6.597578
7.024835 -10.533594
2.307159 -13.192176
-2.077859 -12.255182
-4.122495 -9.337805
-3.687152 -7.784104
-4.197071 -7.787672
-5.895752 -7.648115
-8.075582 -6.236194
-8.393927 -3.428294
-7.452803 -0.919963
-6.183103 0.535413
-4.943560 0.806345
-3.523394 1.488943
-2.905373 2.013451
-1.715504 2.824917
0.478710 3.134555
3.413112 2.655919
6.062625 -0.022871
6.118146 -3.137384
4.687105 -5.635287
3.846933 -6.633073
3.013958 -8.226138
2.117926 -10.840544
-1.444280 -12.703537
-6.229861 -11.711496
-8.633889 -8.606945
-8.594291 -5.623964
-8.024548 -3.792546
-8.319183 -2.225494
-8.646405 0.188937
-7.128373 3.100821
-3.584845 4.778585
-0.516661 4.245409
2.239773 3.390346
4.087489 1.174057
5.935734 -1.435003
5.527526 -4.507579
4.459426 -6.750131
1.742212 -7.991608
0.463468 -8.469824
-0.922320 -8.819011
-2.425694 -8.987273
-4.085483 -8.017814
-5.352705 -7.004062
-5.915854 -6.187595
-6.608401 -5.696912
-7.759661 -4.371535
-8.603555 -2.543639
-7.724359 0.533798
-5.896029 1.593595
-4.120078 2.390389
-3.127117 2.948856
-1.255521 2.981160
0.679568 2.398776
1.456063 1.053858
1.867725 -0.711431
2.485303 -0.966625
3.715251 -1.615167
4.941188 -3.902051
3.873146 -7.884517
0.695798 -9.369415
-2.217895 -9.871924
-4.423469 -8.047152
-5.780414 -7.223346
-7.661730 -5.430114
-8.760937 -3.407508
-8.748940 -0.385596
-7.203980 2.409290
-4.598620 2.862212
-3.467580 3.674978
-1.613191 4.040614
0.010866 4.100452
2.276965 4.169639
4.187723 2.814649
6.245036 1.097176
7.875026 -1.890844
8.176527 -6.034066
5.551160 -9.258735
2.035120 -10.720329
-0.364522 -9.405686
-1.694861 -8.827031
-2.545545 -8.559067
-4.072784 -8.968612
-6.333101 -7.145004
-6.632349 -5.088666
-6.175783 -3.148661
-5.898647 -3.271499
-6.701765 -2.408779
-7.254876 -0.283479
-6.260564 2.622534
-3.285011 3.889977
0.138745 3.643410
1.694297 1.712325
3.189567 0.151346
3.542692 -0.896378
3.609773 -2.837515
3.456079 -4.175467
3.654809 -5.683529
3.008935 -7.553974
1.831980 -10.019423
-1.707212 -10.965986
-5.069135 -9.985903
-7.595494 -7.994873
-8.045267 -6.017066
-8.547826 -4.309410
-9.248087 -2.309076
-8.635759 1.149202
-5.906614 3.833698
-2.087707 4.212638
0.631638 2.030405
1.254123 1.209530
1.801400 -0.374089
2.716983 -1.238730
3.764772 -2.999680
3.190200 -5.548544
1.450252 -7.362511
-0.468767 -7.895484
-2.313332 -7.549960
-3.945137 -7.344126
-5.256396 -6.460734
-5.434346 -4.902579
-5.093169 -4.117149
-5.425096 -4.239884
-6.403473 -3.384281
-6.916226 -1.641318
-6.347093 0.079279
-5.210209 1.162252
-5.164616 1.438551
-4.128459 2.372681
-2.939719 4.170538
0.291684 4.630456
3.279102 2.509774
4.602714 0.310074
4.381578 -1.570300
4.391868 -2.980331
4.308514 -4.440501
3.392983 -7.223570
1.061655 -8.726570
-1.350933 -9.375207
-4.000975 -8.991260
-6.033761 -8.270319
-8.231569 -5.491773
-9.456369 -2.283394
-7.581391 1.266095
-5.127295 3.391417
-2.460221 3.526881
-0.840337 3.556410
1.198209 3.223154
3.276245 1.774540
4.250044 -0.617139
3.270736 -3.117112
2.700716 -3.676878
2.290062 -3.758435
3.089098 -4.650372
3.070866 -6.279088
1.849327 -7.882432
0.136768 -8.241798
-1.129478 -8.210737
-2.745758 -8.451888
-4.265480 -8.552417
-5.485689 -7.596418
-6.381027 -6.282256
-6.623015 -4.948993
-7.013425 -3.751462
-7.705408 -2.103769
-7.581139 -0.317916
-5.950356 2.366443
-3.885509 3.449807
-1.818530 3.694314
0.638604 3.166580
3.258288 2.107554
5.582411 -1.185954
5.749588 -4.439353
3.446750 -7.304606
1.390884 -8.358323
-0.721560 -9.100571
-2.668945 -8.959274
-5.745045 -8.874139
-7.616033 -6.525277
-8.173325 -3.808712
-7.149783 -2.403224
-6.455048 -1.098877
-5.857608 -0.284185
-5.421262 1.505807
-2.497865 2.224327
-0.349002 1.358505
0.565393 -0.174061
0.065262 -1.248207
0.099837 -1.178057
0.363237 -1.089089
0.873143 -2.933912
0.751710 -4.047313
0.105827 -4.840276
-0.486762 -5.101455
-0.527433 -5.192199
-1.470847 -5.857805
-2.733319 -6.616125
-4.255907 -6.712284
-5.564697 -6.009712
-7.263840 -4.813999
-8.517064 -3.048044
-8.171123 -0.683579
-7.210576 1.116390
-5.313551 2.675797
-4.591553 3.110132
-2.363202 4.915593
-0.205924 5.262687
3.878478 4.060984
5.251169 0.681529
4.925052 -2.403312
3.544054 -4.211653
2.877735 -4.726384
2.813036 -6.003073
1.412776 -7.920484
-1.181927 -8.824282
-4.243436 -7.935800
-5.398010 -5.050899
-5.188858 -4.253887
-5.462338 -3.398537
-6.045212 -2.359928
-6.134930 -0.599906
-5.246819 0.912913
-2.749858 1.846703
-0.948432 1.189962
0.733560 1.079840
1.173601 -0.303475
0.914155 -1.047162
0.370761 -1.710707
1.078987 -0.873114
2.404127 -1.606942
4.086306 -3.183455
2.929175 -5.685273
1.300149 -7.331236
0.382007 -7.305586
-0.194225 -7.707830
-1.398830 -8.957085
-4.597095 -9.476555
-7.731870 -7.574980
-8.786635 -3.877639
-7.392840 -1.999173
-5.787827 -1.627922
-6.137122 -1.681285
-5.782165 -0.656307
-5.032121 1.202100
-3.533247 2.042272
-0.967081 2.212952
-0.213728 1.512414
1.369597 0.395321
2.278980 -0.973462
2.100337 -3.206558
1.818809 -4.972706
0.203902 -6.676279
-1.485428 -7.697016
-3.334940 -7.456163
-5.342857 -6.217495
-6.055127 -4.319173
-6.142882 -2.367398
-5.176116 -1.258265
-5.064481 -1.337069
-5.124024 -0.715769
-5.366887 0.954284
-3.569068 1.777220
-2.216931 1.042078
-1.163446 0.525768
-1.206166 0.007289
-0.415117 0.618813
1.067841 -0.202437
2.008545 -2.206351
0.719757 -3.810789
-0.566997 -4.397062
-0.812197 -3.977709
-0.594700 -4.019674
-1.057175 -5.469617
-2.695623 -6.208634
-3.907235 -5.376381
-5.201187 -4.256375
-5.699684 -2.963313
-6.069210 -2.294251
-6.431715 -0.299250
-6.564012 1.425736
-4.958789 2.978673
-3.325995 4.049711
-0.622050 4.490457
2.081012 3.609906
3.964899 1.924554
5.003725 -0.722296
4.480048 -2.800220
3.430930 -4.403618
3.231744 -5.641027
1.841638 -7.477218
-0.143024 -9.015043
-3.673274 -8.399133
-4.782501 -5.884048
-5.102354 -4.012455
-4.485084 -3.786696
-5.149872 -3.117305
-5.485361 -1.516735
-5.058094 0.570688
-2.430048 0.999010
-0.671775 0.565888
-0.119916 -1.100263
-0.826391 -1.881943
-0.705315 -1.783786
-0.711191 -1.638923
-0.558542 -2.311346
-0.379867 -2.380338
0.142482 -2.480900
0.529608 -2.720767
0.099291 -3.569363
0.357344 -4.539180
0.406152 -5.560617
-0.320875 -6.945564
-1.927856 -8.513277
-4.815591 -8.884170
-7.840939 -6.355947
-8.217739 -3.790057
-7.951399 -2.072773
-6.846549 -0.858881
-7.243080 0.171015
-6.044846 2.385256
-3.484731 3.556582
-0.689515 3.176502
0.809181 1.309156
0.996185 -0.449676
1.105540 -1.016685
1.819572 -2.189238
1.426182 -4.323398
-0.616480 -6.153959
-2.470864 -5.814933
-4.262794 -5.049369
-5.182708 -3.630062
-5.650153 -2.276054
-5.462663 -0.522134
-4.397647 0.957027
-2.515754 0.523073
-1.813570 -0.340683
-1.854754 -0.736503
-2.380538 -0.409778
-1.925715 -0.241861
-1.456828 -0.850569
-1.415298 -0.828431
-1.928138 -0.120500
-1.121768 0.861567
0.448846 0.801998
1.740221 -1.057772
1.706127 -2.096101
1.373167 -3.683113
0.875749 -4.295841
0.928412 -5.307151
-0.954922 -6.397440
-2.807879 -6.554225
-4.752784 -5.238532
-5.581134 -3.951586
-6.229377 -3.701977
-7.244222 -2.201177
-7.307304 0.148274
-5.697796 2.875304
-2.886071 4.067959
-0.855538 3.738022
0.817054 3.065853
2.359306 2.106051
3.995380 0.612527
4.320186 -1.935716
3.031636 -4.562909
0.977048 -5.273542
0.020802 -5.181620
-0.935770 -5.640736
-1.687870 -5.666949
-2.604447 -5.364441
-2.946810 -3.741884
-2.609655 -3.161470
-2.693927 -3.449852
-3.552870 -3.912351
-4.505793 -2.756753
-4.815432 -1.448665
-3.359760 -0.680017
-2.759279 -1.183367
-2.589938 -0.147159
-1.948800 0.376384
-0.928698 0.816899
0.302861 0.123797
1.320560 -1.236788
0.586296 -2.144262
0.797487 -2.274036
0.730845 -3.630732
0.364218 -4.848058
0.131032 -5.567572
-1.285115 -5.731031
-1.942296 -6.161572
-3.300038 -6.796447
-5.106628 -5.664470
-6.616401 -4.080274
-6.246823 -1.330120
-5.189299 -0.510609
-4.309503 -0.453162
-3.881057 -0.177857
-3.207181 0.651332
-1.488637 1.173983
-0.014853 0.051529
-0.206284 -1.744389
-1.427745 -2.559313
-2.173581 -1.814465
-1.366599 -1.532864
-1.145281 -1.718802
-0.900227 -2.777992
-1.614134 -3.488046
-2.531133 -3.532202
-3.055398 -2.860403
-3.452978 -2.370794
-3.553556 -1.813383
-3.134867 -0.951452
-2.859817 -1.029841
-3.435641 -1.070753
-3.431121 -0.090270
-2.966226 0.777939
-1.160023 1.141704
-0.079730 0.133612
-0.169117 -0.637557
-1.294622 -0.462199
-0.291864 0.787474
1.478194 0.412136
2.932723 -1.920722
2.172266 -4.448416
0.383936 -5.042916
-1.019606 -4.919833
-0.882143 -4.786010
-1.679812 -5.648986
-3.119096 -5.703824
-4.690533 -4.779568
-5.876746 -3.280425
-5.781635 -1.571332
-5.535183 -0.431127
-4.746662 0.696400
-3.012314 1.607788
-2.166320 1.984313
-1.252242 1.536719
0.007515 2.428615
1.985306 1.246848
3.434813 -0.018925
3.544948 -2.853133
1.483527 -4.170291
0.555567 -4.564136
0.432064 -3.846242
0.468462 -4.850031
-0.496995 -5.845418
-2.505579 -5.498108
-3.241132 -4.003536
-3.350091 -3.302529
-2.543904 -3.249190
-2.716181 -3.543972
-3.666198 -3.460954
-3.892797 -2.507957
-3.856132 -1.851517
-3.208154 -1.598572
-3.181655 -1.135221
-2.886879 -0.381128
-1.934141 -0.182858
-0.416777 0.292520
0.016656 -0.719725
0.103428 -1.570666
0.454960 -2.486407
0.857295 -3.727682
-0.012304 -5.075610
-1.165486 -5.483098
-2.368934 -5.181964
-3.466575 -4.611908
-4.242521 -4.835461
-5.552393 -4.351316
-6.463925 -2.492433
-6.616132 -0.416229
-5.246170 0.489083
-4.003730 1.327239
-3.343548 1.525563
-0.986431 1.992132
0.992976 1.270775
2.096333 -1.017019
0.726503 -3.905161
-1.191385 -4.143723
-2.926651 -3.528896
-3.219035 -2.444930
-3.142152 -2.105001
-3.290396 -1.635807
-3.170605 -0.864072
-2.007403 0.244472
-0.481667 -0.035767
-0.048742 -1.202154
-0.960890 -2.291054
-1.710120 -2.092679
-2.184068 -1.949792
-1.967862 -1.271149
-1.794788 -0.996522
-1.483326 -0.906011
-1.597651 -1.235087
-1.366188 -1.621857
-1.788572 -1.096131
-1.438992 0.346966
0.228772 1.648230
2.598966 0.286573
3.091695 -1.624297
2.648547 -4.217566
1.580602 -4.708529
1.199125 -6.138791
0.455512 -7.508395
-2.694575 -8.570629
-5.350456 -7.210422
-7.480068 -3.961003
-5.916969 -1.129550
-4.689778 -0.386981
-3.637826 -0.941504
-4.022481 -0.313596
-3.133231 0.200532
-2.511222 0.455474
-0.914696 0.229254
-0.655638 -0.573242
-0.382630 -1.026538
-0.047050 -1.396337
0.095974 -2.125260
-0.280570 -1.842719
-0.428283 -2.083063
0.214282 -2.409135
-0.122785 -2.882927
-0.523523 -3.847485
-1.232477 -3.865904
-0.513560 -3.716058
-0.568780 -4.932380
-1.376015 -6.043251
-3.781402 -6.242808
-5.662357 -4.478924
-5.705614 -2.439111
-4.401621 -1.501111
-3.977063 -1.133995
-3.762381 -0.835099
-3.501541 0.275130
-1.669116 0.656012
-0.021472 -0.501753
0.618271 -2.043713
-0.005020 -3.318588
-0.421029 -3.248991
-0.732882 -4.088826
-2.308118 -4.763439
-3.541088 -4.278827
-4.809544 -4.091742
-4.976998 -2.487681
-4.513689 -2.031634
-4.352155 -0.947468
-3.644681 -0.114380
-2.860486 0.450055
-1.599408 -0.725980
-1.244302 -1.414807
-2.540019 -1.605517
-2.469692 -1.206510
-2.126748 -1.092120
-1.833017 -1.348748
-2.371573 -2.121284
-3.000447 -1.462537
-2.535618 -0.789681
-1.493934 -0.812716
-1.618031 -1.197517
-1.487099 -1.229666
-2.201707 -0.864512
-0.525366 -1.112282
-0.315729 -2.224015
-0.469967 -3.066949
-2.287961 -3.629397
-3.136349 -2.930627
-3.474638 -1.918111
-3.381389 -1.550698
-3.578185 -0.120071
-2.397693 1.023692
-0.961144 1.736555
0.980450 0.789387
1.425010 -0.617746
0.944644 -1.931020
0.717601 -2.210869
0.933962 -3.244397
0.443728 -3.411783
0.384327 -4.130386
-0.536468 -4.212380
-0.357617 -4.599410
-1.213336 -4.938199
-2.732334 -5.482220
-4.420393 -5.096021
-4.807237 -3.113089
-3.622679 -2.127026
-3.577142 -2.024182
-2.794120 -2.016791
-2.793474 -1.631983
-2.204861 -1.798907
-1.824031 -2.398729
-2.687413 -2.694572
-3.958729 -1.899885
-3.765356 -0.470616
-3.207755 0.496645
-1.360261 -0.078670
-0.484544 -0.722637
0.484307 -1.367949
0.405950 -2.239261
0.846048 -3.111984
-0.284181 -4.227997
-1.340651 -4.209321
-1.843736 -3.825851
-1.597300 -4.107902
-2.041949 -4.635122
-3.487529 -5.342713
-4.782565 -4.535621
-5.633817 -3.187042
-5.145756 -2.238116
-4.826862 -1.459047
-4.962494 -0.242992
-3.720224 1.176406
-1.516676 1.516069
-0.156986 0.112143
-0.231616 -1.659291
-1.084620 -3.173053
-1.773927 -3.521268
-1.924605 -3.717363
-2.956580 -3.804111
-4.285860 -3.197823
-4.599283 -2.095160
-4.409700 -0.870025
-4.318921 -0.167659
-4.159465 0.250891
-3.397583 0.789042
-2.501376 1.125795
-1.291261 -0.060518
-0.479596 -0.500045
-0.845938 -1.198539
-0.590783 -0.677819
0.057148 -1.246584
-0.848641 -1.581432
-2.035378 -2.737122
-3.173330 -1.470043
-2.823103 -0.326519
-1.540124 0.218687
-0.539586 -0.747149
-0.634660 -1.134175
-0.412026 -1.147523
0.771861 -0.924791
1.365450 -1.835301
1.223489 -3.586774
-0.470121 -4.897176
-2.427338 -4.891151
-3.582278 -4.135697
-3.680745 -3.442147
-4.371855 -2.524552
-3.671288 -1.354006
-2.783880 -0.383910
-1.659663 0.209248
-0.623360 0.511936
0.575946 0.023334
1.254557 -1.026354
1.709860 -2.892721
0.289957 -4.446777
-1.185697 -5.154194
-1.977373 -4.312976
-1.677609 -4.234086
-1.175896 -4.640496
-2.291692 -4.915857
-3.777772 -4.274186
-3.639680 -2.765583
-2.639408 -2.140118
-2.795834 -3.145872
-2.986191 -4.061877
-4.804659 -4.140447
-4.718412 -3.029100
-4.592421 -2.529871
-4.101555 -2.698396
-5.723586 -2.012341
-5.739507 -0.398196
-5.819270 1.553600
-4.026734 3.068047
-2.022621 3.424506
0.112275 2.241388
1.090533 0.828853
2.068523 -1.316437
1.558878 -2.931863
0.623703 -4.175952
-0.423282 -4.215826
-0.778193 -5.448043
-3.142491 -5.663356
-4.941362 -4.908768
-6.083279 -2.164164
-5.160780 -0.996572
-3.765922 -0.837994
-3.771092 -1.644946
-4.123546 -1.045941
-3.693004 0.194301
-1.535564 1.238403
-0.273397 -0.128431
-0.788804 -2.417630
-2.448857 -2.469972
-3.093007 -1.849432
-3.246971 -1.372790
-2.574245 -1.233257
-2.914568 -1.552300
-3.032176 -0.357933
-2.294164 0.091898
-0.957028 0.124724
-0.534450 -0.393753
0.107987 -1.201780
-0.459233 -2.151586
-1.399944 -2.795445
-3.410014 -3.311520
-3.904257 -1.938642
-3.656513 -0.659992
-2.096368 -0.343504
-2.089256 -0.477124
-1.887808 -0.160548
-1.808199 0.464599
-0.332139 1.396766
1.011586 -0.020918
1.161178 -2.353394
-0.230360 -3.052144
-0.776895 -2.613171
-0.447240 -2.100648
-0.302060 -3.334899
-0.744950 -4.168315
-2.181598 -4.680727
-3.379183 -3.115040
-3.599399 -1.806121
-2.539276 -1.885843
-2.496853 -1.759903
-2.203364 -1.673480
-2.209208 -1.687398
-1.735824 -1.815403
-1.637999 -2.372885
-1.667574 -2.307917
-1.990565 -2.200840
-2.478055 -2.206144
-2.838030 -1.824407
-2.818429 -1.046946
-2.387374 0.062631
0.048349 0.173782
0.989178 -0.921686
0.990126 -2.856254
0.403071 -3.988561
0.197786 -4.602342
-0.517425 -5.196742
-2.070298 -6.938198
-4.634795 -6.493856
-6.544623 -5.175430
-6.355942 -2.582578
-6.011509 -2.026433
-5.790932 -1.789665
-6.513159 -1.154626
-5.655476 0.939131
-4.451123 2.542457
-2.118681 2.719727
-1.264093 1.999287
-0.380381 1.432980
0.525369 0.437880
1.757937 -0.706963
0.782955 -2.499593
0.365624 -3.524275
-0.893967 -3.924337
-2.036315 -3.538990
-2.480592 -3.732594
-3.172251 -2.727089
-3.244949 -2.302440
-2.427488 -1.778480
-2.856780 -2.357515
-3.230643 -2.881232
-4.045001 -1.631547
-3.220745 -0.735240
-2.396996 -0.481589
-2.173940 -1.417120
-3.145704 -1.468299
-3.527870 -0.828076
-2.846465 0.427098
-1.482560 -0.225675
-1.363686 -0.732511
-2.103282 -1.666235
-1.830443 -0.409637
-1.451193 0.235621
0.127474 -0.636541
0.072238 -2.217032
-0.666447 -2.941491
-1.812929 -3.727659
-2.180681 -2.474821
-2.709833 -3.293738
-3.168574 -2.152380
-3.594335 -1.649258
-3.250344 -0.670484
-3.176659 -0.536641
-2.621969 0.635159
-2.094078 1.140671
-0.146492 1.345440
1.012854 -0.100431
1.977264 -1.491335
0.821196 -2.067371
1.359237 -2.306199
1.349586 -3.248645
1.154132 -5.175148
-0.562643 -6.613980
-3.024780 -6.280498
-3.463314 -4.720268
-3.662852 -3.492307
-3.039418 -3.550006
-3.934933 -3.842227
-4.662509 -3.090560
-4.742965 -2.100492
-3.852279 -1.300277
-3.423931 -1.062760
-3.493865 -0.929761
-3.119910 -0.515740
-2.582118 -0.735393
-2.511053 -0.786820
-2.611720 -0.608536
-1.960610 0.063200
-0.309507 0.217241
0.544340 -0.732647
0.876754 -2.446489
0.070190 -2.935271
0.509058 -3.484018
0.724896 -5.191568
-1.376191 -7.667474
-4.078125 -7.809871
-6.693922 -6.939221
-8.039821 -3.778299
-7.897199 -1.765713
-7.315684 -1.135559
-6.990451 0.538272
-6.448378 1.854872
-5.256956 3.087491
-3.234469 3.378317
-2.214751 3.744859
-0.248662 2.956970
1.287243 1.867353
2.591807 0.105117
2.168259 -1.566921
1.504806 -2.479112
0.360989 -3.429758
0.300486 -4.015142
-1.361725 -4.582004
-2.977662 -4.400741
-3.335068 -2.988612
-2.338546 -1.903916
-1.550246 -2.266878
-2.010714 -4.156620
-3.615761 -4.096637
-5.546570 -2.870682
-6.013112 -1.300796
-4.827039 -0.050125
-4.126754 1.071043
-3.218007 1.512423
-1.805242 2.214280
0.281718 1.588630
1.358730 0.015702
1.036869 -1.138223
1.008275 -1.791678
0.914613 -3.283619
0.562861 -4.151241
-0.938361 -5.385419
-2.039347 -5.187487
-3.426872 -4.655619
-4.045963 -4.707520
-5.584332 -4.089661
-6.753332 -2.451861
-6.986904 0.447148
-4.762868 2.229006
-2.795871 2.635098
-1.373254 1.813213
-0.140537 0.800898
0.455217 -0.180781
0.777347 -1.280425
0.625125 -2.551432
-0.636447 -2.787318
-0.624500 -2.230122
-0.354099 -2.256341
0.112037 -2.870418
-0.904695 -3.017509
-1.069148 -3.585373
-0.420578 -3.493012
0.101653 -4.655652
-0.910563 -6.216702
-2.715001 -7.341723
-4.854778 -5.680748
-5.480410 -4.857870
-6.003378 -3.674397
-7.422620 -3.176689
-8.226706 -1.126205
-7.697314 0.745432
-5.805182 2.861710
-3.572858 3.868182
-0.923808 3.556337
0.859875 2.547267
2.262864 0.879625
2.724562 -1.352611
2.427578 -2.280308
1.596492 -4.080742
1.156117 -5.601447
-0.385044 -7.755412
-3.055465 -9.026329
-6.080608 -8.195208
-7.900400 -5.842822
-7.622913 -3.402915
-6.700770 -2.107411
-7.316768 -1.169347
-8.021924 -0.316922
-7.163982 2.772298
-4.617157 3.462491
-2.327691 2.493503
-2.452905 0.470632
-2.885130 0.372040
-2.759702 1.634763
-1.096023 2.702401
1.089394 1.915169
2.239769 0.314324
1.996656 -1.745527
0.985645 -3.168176
-0.098399 -4.171368
-1.048987 -4.419615
-1.670028 -4.530996
-2.069910 -5.391702
-3.578516 -5.477508
-5.193857 -5.302533
-7.061998 -2.737897
-6.303379 -0.694100
-5.438228 0.435903
-4.950807 0.345874
-5.860815 0.965131
-5.087744 3.100516
-1.936614 4.316288
1.805116 2.954735
3.673529 0.059603
2.720824 -3.049913
1.070478 -3.611344
0.289904 -3.285753
-0.510419 -3.981267
-1.172559 -5.423766
-2.750005 -5.204000
-3.689535 -5.216115
-4.971198 -4.002209
-5.144064 -3.645707
-6.159157 -2.260123
-5.889564 -1.510995
-5.530038 0.398053
-5.108512 1.398691
-3.709365 2.390881
-2.839663 2.931393
0.335373 2.251167
0.759524 0.118114
0.742434 -1.806608
-0.233158 -2.274188
0.042979 -2.075994
1.048193 -2.006766
1.390434 -2.997557
0.858324 -4.284534
-0.472313 -5.201312
-0.472776 -5.276351
-1.148771 -6.735835
-3.339291 -8.191728
-5.728235 -8.081526
-7.339285 -6.080005
-7.827778 -4.112461
-7.995785 -2.827834
-8.239443 -1.775306
-8.524304 0.245326
-7.865101 2.268908
-5.966294 3.726472
-3.646411 3.676162
-2.377840 3.454244
-1.446132 3.129349
0.949567 2.685754
2.449255 1.096831
3.099354 -1.427649
2.669245 -3.949396
0.880725 -5.845884
-0.903696 -6.507549
-3.034464 -7.015305
-5.907902 -6.227601
-6.662933 -5.102221
-7.245063 -3.833332
-7.970933 -2.841267
-8.872449 -0.934953
-8.361887 1.943456
-6.341207 4.263474
-3.359565 3.589759
-2.684961 2.674428
-2.872625 2.025490
-2.656878 2.869433
-0.607517 3.598356
1.372810 2.585216
2.119160 0.032180
1.829367 -0.806673
1.032701 -0.981797
1.838214 -1.494496
2.486713 -2.944424
2.067744 -5.625759
-0.668422 -7.244095
-3.441531 -7.223449
-5.587225 -6.006647
-6.815031 -4.175038
-6.811591 -3.025715
-6.499527 -1.293808
-6.973684 -0.453391
-6.693159 0.853965
-6.157348 3.422940
-3.147171 4.790203
-0.310869 4.890971
2.566634 2.621603
2.746892 -0.044555
2.524167 -1.592772
2.778639 -2.456513
3.178572 -4.661390
1.527476 -7.526592
-1.900644 -9.031989
-5.651807 -7.647828
-7.153937 -4.662168
-6.468288 -2.743967
-5.565288 -2.253497
-5.874384 -2.659682
-6.518513 -1.414353
-6.795842 -0.115711
-5.352107 1.371131
-4.768415 1.907937
-3.807732 1.352709
-2.702717 1.974476
-1.832763 1.679429
-1.307260 1.580971
-0.231980 1.326908
0.836931 1.447258
1.920564 -0.483774
2.329540 -2.523912
1.293768 -3.899561
0.578716 -4.152491
0.667545 -5.632915
0.619983 -7.702709
-2.099158 -10.150905
-6.421621 -9.964756
-10.347510 -7.293491
-11.239058 -3.983304
-10.913825 -1.624278
-10.480812 1.147268
-9.903927 2.693945
-7.564215 5.103970
-4.737321 6.166494
-2.319144 5.419394
-0.391384 4.225787
0.910878 2.889725
1.765289 1.928499
2.168960 -0.534567
1.050445 -1.696578
0.830736 -2.858605
0.026894 -3.656064
-0.929269 -5.153895
-2.626823 -5.571031
-4.816877 -4.900625
-5.212200 -2.835833
-5.113909 -2.069094
-4.646516 -2.122345
-5.330432 -1.984417
-6.737812 -1.435080
-7.078941 0.243854
-6.744113 1.971700
-5.604955 3.172777
-5.132207 3.897311
-3.201543 5.241814
-0.575242 5.288230
2.134483 4.638583
3.605648 2.519276
4.637504 0.419728
4.287268 -1.140756
3.817760 -3.873904
2.832396 -6.272845
0.119938 -8.244772
-2.438841 -8.336675
-4.023445 -7.733109
-6.117119 -7.130818
-8.057668 -4.910517
-9.987077 -2.346193
-9.373025 0.985907
-7.548882 3.372360
-4.925908 4.311532
-3.218530 4.087144
-1.429621 4.024341
0.594061 3.361882
2.083765 1.256162
2.765691 -0.243477
2.396557 -2.003110
1.921055 -2.749356
1.660706 -4.255887
0.967909 -5.966523
-1.728602 -7.162869
-3.523827 -6.764324
-5.570141 -5.453507
-5.574311 -4.856352
-6.453676 -4.353405
-7.312818 -2.937844
-7.716034 -1.273498
-6.381372 -0.035783
-5.970960 0.330051
-6.095271 1.117322
-6.581933 2.236996
-4.823226 4.329754
-2.625287 4.671993
0.083614 4.411804
1.862099 2.643832
3.212843 1.048029
3.960907 -1.727819
3.247065 -3.966183
0.963483 -5.593691
-0.604815 -5.921870
-1.657769 -5.928877
-2.540562 -6.787419
-4.329983 -7.261261
-6.629633 -6.888677
-8.835466 -5.147215
-8.869928 -3.648361
-9.626830 -2.218170
-10.517117 -0.015775
-10.342743 3.189010
-7.992573 6.081987
-4.975221 7.394172
-1.894101 6.221187
-0.065565 4.211164
0.125769 2.903069
0.975348 2.318340
1.598364 0.990803
1.669133 -0.155521
2.104517 -1.183732
1.572674 -2.517307
0.734871 -4.051766
-0.428807 -5.235787
-2.108588 -5.514124
-4.060931 -5.186653
-5.187834 -4.776073
-6.697428 -3.419960
-7.628773 -2.224585
-7.930925 0.846740
-6.085644 2.868865
-4.063125 3.159415
-3.645771 2.585382
-3.153513 2.823882
-2.712776 4.293718
-0.038918 5.329881
3.201985 4.532335
4.591595 0.929600
4.727329 -1.450758
3.777398 -3.552060
3.188679 -4.674006
1.712241 -7.352151
-0.167519 -8.720976
-3.368368 -9.092395
-5.547649 -7.848307
-7.448503 -5.941422
-8.831131 -4.112612
-8.850702 -2.033017
-8.628520 -0.214210
-7.426462 1.401905
-6.247642 2.845254
-4.910060 4.295960
-2.751569 5.139399
0.431504 3.935071
2.109904 1.556730
1.791612 -1.239966
0.912335 -1.950424
0.483920 -2.227999
0.846104 -3.203775
0.115946 -4.903709
-1.919123 -6.225949
-3.660031 -5.470099
-4.228727 -4.970542
-4.270542 -4.519768
-5.237433 -5.155215
-7.589551 -4.700733
-8.572972 -2.968059
-8.995532 -0.399580
-8.567003 1.211440
-7.676916 2.253529
-7.248591 3.429009
-5.440004 5.483506
-3.096488 6.097993
-0.538306 6.028531
1.640383 4.967796
3.773754 3.007736
5.274752 0.194687
4.902180 -2.806697
2.995522 -6.038805
0.374635 -7.069120
-1.407784 -8.403634
-3.858300 -8.051403
-5.815025 -7.513104
-8.350237 -5.588097
-8.852600 -3.282276
-8.698545 -1.041339
-8.499778 -0.189014
-8.678534 1.255161
-8.341754 3.466434
-5.731369 5.650971
-2.798455 5.537614
-0.690380 3.884586
-0.479506 2.567241
-0.335626 2.047748
0.407229 1.540360
0.945686 0.406155
0.286473 -0.864716
-0.089500 -0.953636
-0.576474 -0.790156
0.987823 -1.709210
1.394131 -2.873334
0.344395 -5.673472
-1.738211 -6.509036
-4.084220 -7.013549
-6.927338 -5.619437
-8.594051 -3.305280
-9.220059 -0.081709
-8.482236 1.735323
-6.553685 3.479127
-5.159528 4.347339
-3.230220 5.356770
-0.787743 5.690045
2.511275 4.292776
4.029661 1.933753
3.820053 -0.433522
3.250054 -2.027873
3.374141 -3.527932
2.530298 -6.178412
0.757428 -8.701541
-3.163523 -9.720723
-6.592769 -8.323404
-8.165116 -5.411069
-7.805114 -3.226543
-7.922720 -1.686819
-7.973470 -0.170921
-6.829794 1.519145
-5.988420 2.538833
-4.478800 2.613853
-3.337793 1.836519
-2.737629 1.720709
-2.299349 1.689689
-1.139289 1.810295
-0.593843 1.821153
0.365019 0.873978
1.962878 -0.063772
2.002923 -1.901027
1.302149 -4.605356
-0.466930 -5.680076
-2.320973 -6.244284
-3.105668 -6.796002
-4.879169 -7.425589
-7.379351 -7.106364
-10.060489 -4.859941
-11.072993 -1.952505
-10.152934 1.212491
-9.252525 2.419053
-8.430087 4.158166
-6.945698 6.053636
-4.571114 7.372108
-0.830209 7.065001
1.715417 4.975885
3.235425 2.526490
3.506227 0.218479
3.960291 -1.517307
2.919307 -3.942138
1.630669 -5.768591
-1.643900 -6.705881
-3.273280 -6.276446
-5.328983 -5.709754
-6.476745 -4.943706
-7.392350 -3.706126
-7.467698 -1.971589
-6.775669 -0.658242
-7.349285 0.204854
-7.719379 0.781356
-7.259723 2.497054
-6.120160 4.043512
-3.787108 4.411008
-3.032703 3.703562
-2.572043 4.059236
-1.013604 4.222420
1.150157 3.646207
2.742696 1.484560
2.156573 -0.266351
1.780489 -1.556694
0.736484 -1.941465
0.670338 -3.103489
-0.119633 -4.953841
-1.945245 -6.226772
-4.103314 -5.784751
-5.952183 -5.004541
-6.826433 -3.176621
-8.137313 -2.089934
-8.062779 0.658256
-7.131518 2.663908
-5.157584 4.009910
-3.340890 4.733992
-1.826634 4.380400
0.181972 3.962263
2.271438 2.997925
2.887321 0.165226
2.830047 -1.389668
2.229276 -3.064864
2.250941 -3.959588
1.484678 -5.126611
0.106284 -7.383383
-3.670592 -8.065155
-5.609474 -6.911385
-7.477859 -5.372375
-7.387987 -3.660231
-7.949029 -2.894805
-8.212222 -1.560184
-7.943801 0.603771
-7.308924 1.678153
-5.807458 2.415090
-4.928434 2.845700
-3.922048 3.245054
-2.301290 3.048580
-1.521606 2.451569
-0.493378 1.754469
-0.186524 0.749279
0.702980 0.026637
1.368543 -1.058622
0.850035 -3.973543
-0.591946 -4.832685
-2.321003 -5.444336
-4.034272 -5.053112
-4.651573 -6.195657
-7.142735 -5.746671
-9.439048 -4.458211
-10.823535 -1.340265
-10.812647 2.170298
-8.951116 3.814318
-7.930363 4.902630
-5.994733 6.401838
-3.881405 7.042644
-1.013799 7.151198
1.222132 5.776056
2.866797 3.921186
3.136992 1.866239
3.877793 -0.621581
3.682433 -3.021230
1.701233 -5.320062
-0.817733 -5.587566
-2.187749 -6.124273
-4.619127 -5.856997
-6.150322 -5.162379
-7.448044 -2.720301
-7.381631 -0.612970
-5.743680 0.760462
-4.886419 0.571997
-5.458778 -0.160190
-5.906250 1.387686
-5.485173 2.238714
-4.422847 2.725982
-3.434519 2.711974
-3.252431 3.362103
-1.611015 4.092096
0.239433 4.084976
2.239361 1.807760
2.024067 -0.388487
1.486548 -2.047835
1.005574 -2.815524
0.121439 -3.518635
-1.232642 -5.051453
-3.155326 -5.310010
-4.853294 -4.449318
-6.001888 -3.419446
-6.989512 -2.704868
-7.879871 -1.604828
-8.349251 1.326674
-7.470464 3.168616
-5.019433 5.150670
-2.745540 5.283696
-0.514447 5.165835
1.485732 3.363781
3.395164 1.106784
3.230221 -1.937963
1.602340 -4.093555
-0.712329 -4.376009
-1.847758 -3.851749
-2.599679 -4.372431
-3.280487 -4.763147
-4.728471 -4.409077
-5.256907 -2.802589
-5.782151 -1.947837
-5.121712 -2.110852
-6.242003 -2.512747
-7.635844 -1.507428
-7.638568 0.516372
-6.309506 1.840410
-5.466757 2.613470
-4.708545 2.193482
-4.526148 2.994084
-3.977055 3.687514
-1.862399 3.782908
-0.680905 3.919176
1.116653 2.690681
2.192114 0.892319
2.263465 -1.842448
0.987288 -3.849789
-0.508335 -5.503851
-2.663635 -5.978528
-4.327940 -5.391075
-6.669070 -6.000937
-9.571691 -4.019944
-10.936212 -1.104671
-9.954491 2.878248
-8.050888 4.230074
-5.468010 5.091176
-5.005062 4.624365
-4.280457 5.607639
-1.881036 6.792400
1.310925 5.864601
2.729727 3.337242
2.449648 0.679276
1.220471 -0.478803
0.629751 -1.335990
0.512530 -1.737622
-0.302170 -2.981414
-1.326232 -3.245819
-2.039957 -3.356700
-2.911548 -3.671524
-3.802284 -3.206828
-4.127174 -2.485410
-4.371286 -1.659778
-5.164297 -2.072761
-5.977003 -2.207270
-6.968846 -0.248136
-6.854012 2.180460
-4.912107 4.057055
-2.899671 3.750941
-2.263268 3.370717
-1.612687 3.581153
-0.556764 4.320398
1.789853 2.791980
3.662548 0.729641
2.849218 -2.349826
1.064010 -3.790418
-0.353933 -4.229025
-1.540126 -5.136597
-3.041028 -4.981543
-4.736304 -4.828604
-6.506459 -2.856544
-6.250240 -1.452944
-6.296714 0.597416
-5.355638 0.555350
-5.100949 1.550640
-4.184882 2.020536
-2.997611 2.259806
-2.400085 2.485462
-1.433392 2.845315
0.164814 2.090512
1.302612 0.953896
2.000577 -1.107564
0.443398 -3.373467
-1.187525 -4.397977
-2.087527 -3.852243
-2.869809 -4.676791
-3.887782 -4.389373
-4.852311 -3.753669
-4.904485 -2.556263
-5.338639 -2.321436
-5.105116 -3.070436
-7.195913 -3.450026
-9.021974 -1.237940
-9.267465 1.495223
-7.677320 3.161758
-6.119212 3.753802
-4.848669 4.439384
-3.480355 5.132609
-1.702389 5.185887
0.497646 3.985917
0.646655 1.274972
0.736884 0.360243
-0.248360 0.087702
-0.099811 -0.166994
0.786144 -1.457330
-0.398548 -2.775534
-1.137747 -3.938857
-3.000639 -4.692887
-5.062243 -4.362962
-7.112703 -3.048825
-8.263045 -0.415897
-7.675778 2.065561
-6.235982 3.325033
-5.241995 4.121186
-4.513201 4.193982
-3.223965 5.104325
-0.625965 5.005350
1.556145 3.380746
0.845640 2.219167
0.780598 1.357170
0.895738 1.597501
2.391068 0.353049
3.065251 -2.037736
1.386722 -4.209218
-0.803716 -4.585921
-2.305792 -4.156211
-2.741230 -3.177213
-3.364435 -3.275427
-4.440529 -3.195104
-4.894746 -2.620633
-5.012428 -1.711049
-5.572890 -1.570011
-6.221386 -0.172637
-5.957590 0.785998
-5.390530 2.456888
-4.049158 2.469294
-2.806231 2.695486
-2.068314 2.829604
-0.074414 2.677663
1.492890 1.572126
2.175724 -1.147042
0.390079 -2.986807
-0.777878 -3.855888
-1.587955 -3.479573
-2.206743 -3.781009
-3.799289 -4.516257
-5.717959 -4.086616
-7.614191 -2.324258
-7.058618 0.393770
-5.728331 1.449514
-4.835748 2.080802
-4.245566 2.707045
-2.650358 3.267498
-1.402499 2.340194
-0.661827 1.341229
-0.735751 0.539386
-0.432632 -0.408725
-0.027372 -1.212764
-0.416422 -2.249994
-1.792336 -3.254940
-3.025406 -2.456386
-2.495523 -1.640071
-2.310985 -1.681651
-3.033607 -2.762405
-4.266701 -3.086721
-4.955374 -1.745027
-4.707555 -1.635614
-5.002235 -2.004431
-5.653844 -2.118462
-7.097086 -1.341716
-8.575055 0.299618
-6.918361 2.600366
-6.081544 3.831730
-4.868111 5.390227
-3.255084 6.239485
-0.764570 5.427572
1.316574 3.693239
2.344906 1.431635
1.808584 -0.772972
1.676984 -1.626119
0.747366 -3.001082
-0.821658 -4.060181
-3.013865 -4.304679
-4.477735 -3.136876
-5.266260 -1.575680
-5.402283 -2.048083
-6.285983 -1.076555
-6.635516 0.368152
-5.489552 2.640427
-3.398599 3.023943
-1.270025 2.590161
-1.463369 1.026279
-1.665127 1.009086
-1.855031 0.619004
-1.258635 0.367980
-1.836832 -0.163372
-2.570007 0.610779
-2.069249 1.339732
-0.551971 1.855929
0.726154 0.283824
1.277629 -1.181431
1.046738 -2.284750
0.374015 -3.396142
-1.209146 -4.527019
-2.773563 -4.886219
-5.363668 -4.488547
-6.235146 -3.414990
-6.776472 -2.025314
-7.024605 -0.983885
-6.907731 1.082699
-6.130371 2.246620
-4.269394 4.254739
-2.147730 3.407774
-1.048269 3.006739
-0.195041 2.275193
0.797689 1.345028
1.825584 -0.812472
1.390031 -3.656248
-1.124862 -5.627608
-3.269217 -4.508642
-4.330624 -3.745643
-5.099240 -2.872253
-5.694120 -2.286686
-6.705468 -1.210435
-7.363062 0.732075
-5.516818 2.200472
-3.835049 2.282096
-3.081609 1.593860
-2.805397 1.083327
-2.882568 0.494415
-2.683631 0.500658
-2.211800 0.309459
-2.623066 0.197393
-2.153677 -0.153009
-2.009245 -0.313568
-1.983186 -0.232469
-1.462186 -0.666691
-1.450364 -1.111227
-0.480538 -1.916109
-1.486752 -3.827990
-3.250548 -4.942201
-5.777721 -4.396609
-6.789196 -2.707316
-6.451077 -1.598006
-6.441215 -0.952412
-7.811649 -1.146266
-9.084276 1.697247
-8.301071 3.270697
-5.357603 4.544402
-3.837246 4.137445
-3.523230 4.061647
-2.790488 4.822068
-1.021718 5.194579
0.843861 3.573338
1.817180 1.667352
1.260232 -0.812480
-0.327035 -1.685111
-1.307538 -2.183067
-2.205774 -2.280182
-2.752985 -1.525144
-3.009488 -0.962246
-2.937002 -0.815320
-3.103184 -1.394246
-3.576363 -0.722975
-4.030720 0.112025
-3.542193 0.451347
-2.767676 0.716051
-3.354513 0.413908
-4.197280 0.393047
-3.769186 2.518294
-2.082307 2.308441
-0.869526 1.653441
-0.933305 -0.080221
-1.603993 0.055474
-1.652851 0.697928
-0.069711 0.823391
0.824792 -0.553528
-0.239308 -2.056824
-1.131532 -3.241097
-1.842133 -3.123348
-1.745240 -3.575938
-3.030889 -4.352062
-4.916020 -4.411948
-5.983575 -2.928684
-6.581955 -0.735102
-5.770397 0.102862
-5.781255 1.117997
-4.701178 1.600998
-4.006856 1.977022
-2.450069 1.568680
-2.325314 1.221543
-1.819599 0.976183
-1.415232 0.489146
-0.413396 -0.951039
-0.984494 -2.436844
-2.109600 -3.097924
-3.418404 -2.935387
-3.818276 -2.468468
-4.660682 -2.461325
-6.389560 -2.834731
-7.510943 -0.490566
-7.335849 1.175087
-4.857410 2.931062
-3.611002 1.771283
-3.121098 0.801583
-3.579698 1.175258
-2.864380 1.872124
-2.369542 1.850913
-1.895282 0.795804
-3.431852 0.409855
-3.722036 0.606651
-2.984369 1.451712
-1.189597 1.644461
-0.290025 0.504303
-0.265777 -1.174994
-1.012887 -2.069185
-2.521056 -3.002481
-3.684361 -3.219289
-4.528339 -3.446606
-5.661995 -2.591112
-6.456919 -2.636814
-7.560998 -1.283940
-8.384315 0.709900
-7.893381 2.724248
-5.971914 3.943086
-4.307915 4.038558
-3.719927 3.632407
-3.075378 3.881563
-2.314304 4.706561
-0.106042 4.542072
1.970952 1.720676
1.248798 -0.665781
-0.909346 -2.608820
-2.456367 -1.493738
-2.943302 -0.774761
-2.419075 -0.516096
-3.245343 -0.754954
-3.581922 0.443433
-3.466950 1.940180
-1.801185 1.606661
-0.820052 0.977128
-0.075588 -1.358784
-0.681017 -2.198760
-2.326698 -3.181687
-4.079456 -3.179578
-5.240361 -1.455024
-5.610618 0.221880
-4.141746 1.399866
-3.938650 1.206030
-3.735554 1.268653
-3.622915 2.500567
-1.240349 3.261381
0.940942 2.119640
1.856821 -0.150050
0.349817 -2.260847
-1.260671 -2.907554
-1.524591 -2.667438
-1.738414 -3.821836
-3.526935 -5.133391
-6.480330 -4.402448
-8.317076 -2.303741
-7.890875 0.414228
-6.651250 2.338133
-5.166835 3.010920
-3.422580 2.841955
-1.868198 3.095249
-0.766698 1.621044
-0.832202 -0.738508
-1.511850 -1.420936
-2.402780 -1.720266
-2.598017 -2.284125
-4.001976 -2.661490
-4.824574 -2.629473
-5.500634 -0.856382
-4.678692 0.093681
-4.190695 0.208594
-4.422245 -0.382215
-5.086559 -0.464978
-5.253432 0.162012
-4.428624 0.389841
-4.276636 0.384250
-4.646934 0.101993
-5.692946 0.846867
-4.592582 2.134620
-4.005522 1.860403
-4.264163 2.229105
-3.958345 2.718291
-2.967675 4.160828
-1.424138 3.973208
0.639530 2.397007
0.490312 0.437137
0.196926 -1.122607
-0.277107 -2.245644
-0.615753 -3.331610
-2.944994 -4.269884
-5.178938 -4.151033
-6.876943 -2.277029
-6.885813 0.267925
-7.091808 0.889677
-5.996228 1.690040
-5.320650 2.620167
-4.669657 2.918393
-3.371013 3.013605
-2.726251 2.518261
-2.999502 2.556342
-2.505466 2.438923
-1.735876 2.083187
-1.723040 1.142233
-1.841189 0.705971
-2.282267 1.244978
-1.299925 2.210439
-0.079906 1.044209
-0.306518 0.053686
-1.005024 -0.675710
-1.299434 -0.162219
-0.712861 0.435726
0.229917 -0.924124
-0.077595 -3.012984
-1.724558 -3.471036
-3.206923 -3.528223
-3.714653 -2.818891
-5.070036 -1.922804
-4.586935 -0.879131
-5.058181 0.162264
-3.089241 0.754038
-2.590574 0.744487
-2.403396 0.095700
-2.272353 -0.480970
-2.245537 -0.743434
-1.167790 -1.493184
-2.111165 -2.784601
-3.411818 -2.021797
-3.792962 -1.140493
-2.957768 -0.643086
-1.998063 -1.504757
-3.499624 -3.216381
-5.388887 -3.322203
-6.783778 -0.952485
-6.314044 0.620646
-5.359773 0.611494
-3.892306 0.250370
-4.131954 0.341275
-4.527699 0.554749
-4.159977 0.831837
-4.519043 0.701083
-4.561884 0.861308
-4.004294 0.554429
-3.876685 0.887279
-4.248293 1.026621
-4.276406 0.988891
-3.316580 1.847373
-1.021373 1.092139
-1.412537 -0.544740
-3.277094 -2.128291
-5.778402 -1.584621
-6.479664 0.546000
-4.600304 1.546604
-3.574750 0.419717
-5.043897 0.246562
-6.737472 1.605744
-6.301072 3.446330
-3.957811 4.870976
-2.171833 4.026787
-1.217229 3.007154
-2.219993 2.373376
-0.795973 2.992567
-0.345427 2.525005
0.990190 1.354715
1.303695 -0.409876
0.531616 -2.326940
-1.268558 -3.260303
-2.647602 -2.879247
-4.035454 -2.040987
-3.970921 -1.359594
-3.523028 -1.244176
-4.786872 -2.252626
-5.798296 -0.581313
-6.419374 1.436687
-3.998143 2.570425
-1.777276 2.570162
-1.413383 -0.496163
-3.059304 -1.099966
-4.691815 -0.526105
-4.687901 1.087858
-3.320141 1.082168
-3.629393 1.386854
-4.138560 1.505296
-3.496507 2.814548
-1.739233 3.360556
0.528893 2.863370
0.850299 1.077579
0.756558 -0.262522
0.347606 -1.441885
-0.088167 -2.621542
-1.152950 -3.533257
-1.804777 -3.166607
-3.572004 -3.311673
-3.607733 -3.318881
-5.899168 -3.571221
-6.871638 -2.502488
-7.369927 -0.187121
-6.327231 1.314561
-4.525821 2.432913
-3.879205 1.691367
-2.334923 1.709454
-0.788194 0.729093
-0.616015 -1.012133
-1.974398 -3.024106
-4.113141 -3.364918
-5.646096 -1.621266
-5.096865 -0.620095
-4.213185 -0.865218
-5.398264 -1.012479
-5.167908 -0.033706
-5.672152 0.666743
-3.809126 0.704624
-3.552508 -0.234926
-4.695840 -1.079207
-5.470838 0.209286
-5.503047 0.825055
-3.859162 1.356705
-3.993522 -0.210670
-4.977661 -0.209256
-5.841413 1.076473
-5.719337 3.000405
-3.757664 5.222971
-1.769357 4.509355
-0.012538 4.559538
1.579395 1.359766
1.458374 -0.728260
-0.122804 -2.889424
-1.694306 -3.887513
-3.060877 -4.360619
-4.760838 -4.333915
-7.149144 -3.459156
-9.264946 -0.715166
-9.287210 2.599941
-6.683916 5.141216
-3.753980 4.499436
-3.279639 2.793335
-3.792634 2.639910
-3.362940 4.280852
-0.391509 4.521987
1.947091 3.042962
2.377508 -0.077388
0.140930 -1.609212
-1.593543 -2.107409
-1.578362 -1.222088
-2.522123 -1.867863
-2.662774 -1.617233
-3.549031 -2.033818
-3.850559 -1.569861
-3.014462 -0.804955
-2.487246 -0.770316
-2.446444 -0.915752
-2.713359 -2.292653
-4.399272 -3.361870
-6.860542 -3.538087
-8.646308 -0.673436
-7.640537 1.420542
-6.346303 3.205095
-5.155961 2.057172
-5.410047 2.567643
-4.825856 4.193806
-2.428864 5.625586
1.299343 5.112789
2.208013 1.753053
1.798714 -0.740464
0.056112 -1.549689
-0.854729 -2.237730
-0.541293 -3.118218
-1.707238 -4.149830
-3.300523 -4.832884
-4.857726 -3.475887
-4.815452 -2.079809
-4.770965 -1.698027
-5.013671 -1.186709
-5.293381 -1.403626
-5.134117 -0.946605
-6.260547 -1.870203
-6.583471 -1.503496
-6.710273 0.048115
-5.278593 1.490855
-4.698674 1.689025
-3.706911 1.076324
-4.576402 0.551454
-4.496423 1.717028
-3.496494 2.161979
-3.164738 0.875496
-2.510823 -0.062733
-3.164657 -1.068694
-2.816455 -0.925990
-2.693598 -2.262416
-4.410237 -3.384710
-7.477055 -3.394688
-9.591495 -1.791026
-9.857920 1.099228
-9.342454 4.122388
-8.680240 4.889912
-6.541903 6.597727
-4.137477 6.954696
-0.841540 6.371795
0.457515 4.177874
-0.293395 2.242832
-0.018866 1.858289
0.196558 1.556383
1.056811 0.796652
0.771923 -1.621394
-1.274837 -3.508710
-2.889439 -3.807410
-4.143893 -3.915256
-6.281838 -3.712885
-7.315207 -1.494983
-7.844578 0.584844
-6.469693 2.241916
-4.674627 3.132348
-4.552080 2.740143
-4.077165 2.331759
-3.059698 2.579313
-2.548638 1.733315
-2.687160 0.932448
-3.524907 0.491706
-3.117777 2.836822
-1.580117 3.757436
1.110693 2.055944
1.068354 -0.101368
-0.377938 -2.007949
-2.148517 -2.213077
-1.873370 -1.888163
-2.029028 -2.281115
-2.839015 -4.033190
-4.588940 -4.535342
-4.959689 -3.938004
-6.527300 -3.449169
-7.503419 -3.001005
-9.456084 -1.977799
-9.735746 0.505536
-10.063541 2.666382
-8.308120 5.031359
-6.860465 5.493828
-4.778823 6.936286
-1.268820 6.790188
1.492923 4.156299
1.587227 2.100739
0.765211 0.195752
-0.508541 0.048422
-0.299061 -0.846078
-0.093240 -3.069234
-2.208377 -4.945878
-5.095612 -4.561813
-6.374141 -3.130814
-6.719524 -1.802522
-6.493610 -1.758795
-6.914745 -1.268258
-8.011780 0.732603
-6.916856 2.038220
-5.630113 1.587828
-5.229175 1.401222
-5.229943 1.073853
-5.471697 0.841038
-6.167779 0.797851
-5.581355 1.534062
-5.576403 2.362504
-4.573729 3.681686
-2.823705 3.494990
-0.955118 1.576374
-2.167569 0.329030
-2.609994 -0.551208
-2.630722 -0.846163
-2.314509 -2.454287
-4.152915 -4.055162
-7.364953 -4.677361
-10.445521 -2.428108
-11.270959 0.742285
-10.729815 3.330827
-9.539234 5.574164
-8.858979 7.488081
-6.495802 9.522095
-3.534006 9.685063
-0.023275 7.877927
2.490409 6.207301
3.406722 3.364602
3.903537 0.504238
2.533920 -1.735359
1.118939 -3.655457
-1.217794 -4.300261
-1.962613 -5.095700
-4.111234 -5.178211
-6.691928 -5.770362
-9.628984 -3.703462
-10.463268 -0.533416
-8.726729 2.352262
-6.663284 2.903348
-6.380288 2.750154
-6.382091 3.271716
-5.777570 4.185123
-4.092990 4.380538
-3.620966 3.048311
-4.082065 2.685021
-4.797679 4.318832
-3.344399 5.854223
-0.101578 6.371460
2.508881 3.260440
3.645806 0.706412
2.956119 -2.442688
1.317091 -4.788200
-0.739449 -6.374169
-3.959716 -6.688756
-6.162161 -6.069335
-8.277080 -5.153770
-9.536502 -3.906070
-11.122165 -1.893905
-11.137682 0.797844
-10.419477 3.590287
-8.565255 5.312626
-7.048548 5.141900
-6.592394 6.312912
-4.500026 7.350501
-1.041000 7.578803
2.327002 5.307806
2.316966 2.010611
0.295013 -0.797009
-1.258956 -1.101466
-1.170568 -1.265117
-1.150611 -1.712049
-2.437212 -2.776133
-4.023734 -2.807334
-4.513182 -1.884824
-3.958313 -1.853065
-3.879452 -3.469862
-6.574288 -3.704948
-8.289158 -3.692453
-10.367494 -1.507453
-10.346399 0.183264
-10.795201 2.702303
-9.620405 4.207309
-8.648124 6.460897
-5.537741 7.499582
-4.328106 7.912272
-2.077426 6.987061
0.586704 6.346448
2.389875 3.872395
3.026745 0.050090
0.798302 -2.520797
-1.107251 -3.581888
-2.518817 -4.149512
-4.644613 -4.901869
-7.451616 -5.280165
-11.247852 -2.950158
-13.204050 0.485416
-11.824085 4.216899
-9.388707 6.357977
-8.660158 6.681486
-7.751496 8.661229
-4.894585 10.149767
-1.013791 10.404418
1.818675 8.867824
2.980416 5.888942
3.044365 4.021680
2.643823 3.084901
3.668238 1.582129
3.670770 -0.783643
2.897669 -2.992662
1.484678 -4.030462
-0.498487 -6.172648
-2.719530 -6.237282
-5.008134 -6.377197
-6.640851 -5.350169
-8.178670 -4.344378
-9.992842 -3.160611
-12.012113 -0.249493
-11.368080 2.758443
-9.807406 5.978571
-6.630713 6.821563
-4.970186 6.424760
-4.524410 6.517578
-2.808258 8.417876
0.899698 8.493444
4.338735 5.780794
5.685763 1.432588
3.888290 -2.137860
2.437070 -4.339446
1.144273 -5.657971
-0.556911 -7.775665
-4.417800 -8.782138
-8.079667 -8.478528
-10.938568 -4.849364
-11.408810 -1.971730
-10.775571 -0.393976
-10.956609 1.196638
-9.996102 2.518938
-9.831093 3.469044
-8.832625 5.051440
-7.795548 6.689805
-5.236011 7.608592
-2.804197 7.318287
-0.596134 6.236372
-0.340091 3.355671
-0.964958 2.826157
-0.331787 1.808446
0.377439 0.648758
-0.550709 -1.830605
-1.886046 -2.741777
-4.577892 -1.709124
-4.517062 -1.126759
-3.974404 -2.005429
-5.135098 -3.899166
-8.394701 -4.063117
-11.043329 -1.651227
-11.797367 1.598374
-10.721464 3.084716
-9.847261 4.956073
-9.383072 6.681260
-7.653128 8.219995
-4.391625 9.943355
-1.564045 9.558644
0.635152 7.782494
2.474878 6.173307
4.168286 3.084321
3.417422 -0.347281
2.594214 -3.532133
-0.017728 -4.530031
-2.639407 -5.818837
-4.686612 -6.417352
-8.819799 -5.876180
-11.676408 -3.061329
-13.357742 0.603724
-12.230634 4.688344
-10.556209 5.887220
-9.759732 7.334153
-8.497039 9.740197
-5.341077 11.723641
-0.965381 11.912693
3.393934 9.453620
4.112950 7.017478
3.850213 4.313716
4.506025 2.160136
4.895710 0.288972
3.564775 -2.694298
1.470255 -4.550479
0.612173 -4.415860
-0.981188 -5.355051
-2.186825 -7.104233
-4.319802 -6.944339
-6.060964 -6.256923
-9.178735 -5.385699
-10.794483 -4.551436
-13.169385 -2.606611
-14.960050 1.464931
-13.717123 6.649901
-10.016493 8.975974
-6.445617 9.630946
-3.601447 9.784747
-1.380620 10.049968
1.957753 9.061832
4.129219 6.303239
5.636487 2.189217
4.761363 -1.722246
3.742158 -3.718200
1.580726 -6.623701
-0.738749 -9.282925
-5.097809 -9.810803
-9.505539 -8.990838
-12.068532 -5.263175
-13.402471 -2.049231
-13.867943 1.353381
-12.902125 4.073027
-10.736008 6.770199
-7.929010 6.593846
-6.140297 5.341948
-6.025578 5.353078
-6.314898 6.636110
-4.570560 7.627030
-1.654299 7.517515
-0.471898 5.608031
-0.159616 4.472971
-0.016849 4.039371
1.892176 1.996054
1.932415 -0.883023
1.192469 -4.247615
-1.927720 -5.226278
-3.614515 -5.683703
-5.135736 -5.548738
-8.225270 -5.754941
-11.526982 -4.647464
-13.611994 -0.878012
-14.727036 2.619584
-14.152363 5.082510
-13.131084 8.607475
-10.628538 12.332749
-5.903682 14.115055
0.390399 13.605725
3.938304 10.049086
5.100404 6.631701
5.147454 4.196828
5.099209 0.393054
3.854732 -3.330175
1.160195 -5.797596
-2.427983 -6.555279
-5.625930 -5.608320
-6.661218 -4.584236
-8.179522 -4.057151
-10.096826 -2.140055
-10.891495 0.508649
-10.033752 3.138003
-9.985657 4.641018
-9.466985 5.433907
-9.468510 7.291431
-7.203314 9.585228
-3.975689 9.803270
-1.945970 8.827178
-0.891044 8.505988
0.861043 8.646480
3.807577 8.865768
7.681335 4.537482
8.951699 0.256850
7.156505 -3.947282
4.670870 -6.631084
3.311454 -9.179152
-0.445981 -12.047386
-4.593810 -13.140652
-10.657946 -12.654593
-14.195283 -9.774117
-17.770985 -5.300712
-18.513696 0.116637
-18.548494 5.569470
-15.166260 10.280135
-9.998269 11.976896
-6.706603 11.295972
-3.446631 11.322452
-0.851392 10.815790
4.020240 8.334566
5.455640 2.957589
4.188277 -1.398195
0.412212 -3.159899
-1.220895 -3.344234
-1.270776 -2.893142
-1.901286 -4.801121
-5.334253 -7.515301
-9.712004 -6.935878
-12.858058 -3.769986
-13.266637 -0.555915
-12.522432 1.657008
-12.030037 3.140528
-11.854516 4.979941
-11.184617 6.624708
-9.963188 8.317318
-7.843407 9.060881
-5.655702 10.658588
-4.573104 9.463437
-2.855797 9.276959
-1.582805 8.698612
0.615493 8.983496
4.063888 8.089741
7.223910 3.108080
5.298203 -3.586571
1.055208 -6.800143
-3.814136 -6.749741
-6.101572 -5.023802
-6.518109 -3.321919
-9.176952 -3.888902
-12.720380 -2.085397
-13.780858 2.327909
-12.577887 5.652693
-9.915971 7.742307
-8.238039 8.624120
-7.068951 9.939027
-4.824408 11.753090
-1.414811 11.626868
2.269506 11.235107
4.833933 7.138282
6.230043 3.932791
6.233229 -0.016755
4.338516 -4.049687
1.021899 -6.037576
-2.659277 -5.956988
-4.007739 -5.547047
-6.115461 -5.352091
-8.542581 -5.168657
-11.396220 -3.985827
-12.675432 -0.752681
-12.102204 2.003202
-11.873098 3.014464
-13.271125 5.216173
-11.805783 8.607939
-8.976604 11.535896
-4.971002 12.239653
-1.832152 10.964830
-0.650716 9.658333
1.763534 9.373898
4.967420 8.721138
7.348137 4.383935
7.235062 -0.201204
5.635372 -3.662235
4.581093 -6.272600
2.282545 -9.285022
-0.902877 -11.805928
-7.029064 -13.116755
-12.856581 -11.113704
-16.882095 -6.708339
-18.421093 -1.992605
-18.496004 1.379169
-17.765446 5.670314
-15.184761 9.058640
-11.951744 11.979754
-7.503182 13.718150
-4.067875 13.864447
-0.012425 12.019564
2.888258 9.005155
3.550512 4.733988
2.634568 1.883622
1.197618 0.182242
0.790085 -1.173985
0.144497 -4.474084
-2.676761 -7.327794
-8.101464 -7.382654
-11.206824 -2.749458
-10.955549 0.618444
-9.398112 1.433904
-10.326297 0.663774
-13.131454 1.403020
-15.062922 5.534576
-12.151984 8.910648
-9.090271 10.021512
-6.260043 9.299693
-5.978881 9.525054
-5.285096 11.086701
-2.715388 12.766103
1.233335 12.535037
4.926295 10.526468
7.267099 5.444207
7.251792 0.427619
5.194846 -4.352751
2.028404 -7.192077
-1.919902 -8.728668
-4.304511 -9.208605
-9.983761 -9.890673
-15.952496 -6.880142
-18.993730 0.194159
-17.973599 7.316440
-13.279321 11.481008
-9.014737 11.051784
-8.251705 9.709596
-7.463870 11.643542
-3.822496 14.316231
1.736898 13.654928
6.156143 9.462787
6.272936 4.681115
4.329532 2.275339
2.971765 0.603136
3.117390 -1.623501
1.500105 -3.619170
-2.792098 -6.026184
-4.978513 -5.529564
-7.441551 -4.064611
-8.173325 -2.014542
-8.411297 -1.096194
-8.071977 -0.312098
-9.166639 -0.553806
-12.226621 -0.258344
-15.594104 3.276442
-16.105226 8.455824
-12.431054 13.456820
-6.583252 14.739483
-2.442770 14.324035
0.462361 12.705721
3.569471 12.604128
8.138988 9.280651
10.597007 4.635522
8.987102 -2.164902
5.835121 -6.288633
2.596528 -8.077058
-0.185564 -10.343855
-4.211224 -12.582767
-9.292033 -12.196057
-14.067989 -9.865110
-18.037326 -4.787859
-18.720993 0.124617
-17.998812 3.995147
-16.451348 8.985996
-12.449218 11.768910
-9.317234 12.335386
-5.723975 10.247431
-4.643198 10.009625
-3.699805 10.148623
-1.677796 8.803220
1.053968 7.643368
1.184146 5.111036
0.225658 3.603870
0.306728 2.431603
-0.658768 0.437464
-0.664424 -1.756971
-4.632030 -3.748571
-7.425095 -3.497487
-9.552042 -2.383699
-10.370408 -1.094369
-12.776046 0.159267
-14.981385 3.194949
-14.879007 7.471019
-13.388858 11.413063
-10.425777 13.430434
-8.346110 15.255699
-4.115018 17.488573
2.241357 16.800727
6.537882 12.626154
8.948205 7.378972
7.294031 3.299976
6.011064 0.188422
4.740032 -0.943020
2.205990 -3.693802
-0.811683 -5.587073
-4.410260 -6.497556
-7.201482 -5.067008
-9.538823 -4.022309
-11.866076 -2.067400
-13.542987 1.420684
-13.324619 6.910115
-10.052496 9.076392
-7.195708 10.821901
-4.569086 10.237217
-3.145286 10.154276
-1.660319 9.578093
1.281066 8.317207
0.942580 5.324950
0.720263 4.604809
1.759148 5.525118
3.558744 4.664383
5.617620 0.531129
4.912903 -3.708208
0.552278 -6.839474
-3.323148 -7.238253
-5.879065 -7.291511
-10.051321 -6.260836
-12.616258 -3.394921
-13.566620 -0.814195
-13.820566 1.441579
-13.057140 3.793994
-13.278850 6.914031
-13.489732 10.507993
-9.948040 13.433517
-6.074392 14.631325
-2.425518 14.390912
1.432123 13.771522
5.172632 12.184990
9.421982 7.719792
10.711885 1.179570
7.148593 -5.649012
2.183149 -8.097280
-1.809620 -7.195530
-2.536451 -6.295663
-5.146504 -6.697013
-8.643337 -7.225880
-13.250101 -6.215014
-14.882427 -2.958053
-17.002732 0.527135
-16.334876 4.195956
-16.007001 7.081558
-13.959255 10.852272
-10.646794 12.806298
-6.028489 13.569088
-3.236991 13.263439
-0.591990 11.624545
2.298960 8.593331
0.720593 4.869801
-0.989699 3.749648
-2.471171 4.483536
0.305552 5.536784
3.242233 3.478135
1.903296 -1.955425
-2.583435 -5.361749
-6.908082 -3.560185
-8.333357 -1.873395
-9.263275 -0.294323
-11.503814 0.309176
-15.095212 2.987340
-15.461142 8.142390
-12.454679 12.815972
-8.073201 14.219556
-4.366518 14.373156
-1.728179 14.777562
2.078666 14.217111
5.073841 13.017087
8.745784 9.085414
9.252210 3.883415
8.925504 -0.449584
6.788040 -5.294831
1.995651 -8.513210
-3.574506 -8.631451
-7.029101 -7.158334
-8.938065 -5.309328
-10.294316 -4.331048
-14.085046 -2.175251
-16.375006 3.014897
-15.728858 9.220638
-10.484980 11.232171
-7.049710 11.702550
-5.331407 9.569245
-3.988289 10.829002
-0.630806 11.423670
1.894048 8.802543
2.686297 4.862919
0.759599 3.741322
-0.051022 5.008632
1.985045 4.910460
4.134264 3.133340
4.474065 -0.564721
1.996760 -5.995699
-0.525844 -7.189124
-3.035754 -8.448352
-7.830018 -9.341237
-12.614405 -6.811510
-16.186433 -3.842742
-18.795361 1.820807
-18.001530 5.928574
-16.383288 10.055852
-13.296546 13.845150
-8.487667 16.156318
-3.295259 14.748487
-0.253690 13.824433
2.123081 12.109303
6.348252 10.571600
8.996516 5.628931
8.223150 -0.713019
3.732481 -6.532594
-1.688821 -6.780258
-4.490781 -6.423730
-7.048324 -6.224006
-9.644515 -6.278096
-14.223922 -3.968544
-15.342678 1.546188
-12.464498 5.747099
-9.185394 5.956743
-7.241677 3.713646
-10.016140 3.098462
-13.202721 4.689292
-12.833607 8.260610
-10.239093 10.500006
-7.448529 11.605206
-5.348799 11.863109
-2.473640 11.967576
-1.085755 11.182930
0.570909 9.944101
2.165919 8.191215
3.027663 5.389477
3.012564 1.019039
0.518487 -2.631458
-1.863047 -3.441088
-5.208248 -2.682365
-6.258107 -2.601208
-9.864354 -3.118009
-14.831461 -0.874490
-17.937643 6.334654
-16.537274 14.435164
-8.679828 19.031626
-2.294782 17.583151
1.274084 14.929996
4.017774 13.291660
7.705932 10.101336
9.374154 4.930603
9.786015 -1.062770
5.003211 -5.513966
0.232075 -5.103321
-2.107049 -4.256847
-3.447504 -4.148126
-5.210570 -3.821344
-5.897563 -4.218998
-8.810240 -4.198041
-10.493945 -3.766543
-11.600214 -0.650211
-12.674880 2.914394
-12.456858 6.560656
-9.247559 5.751883
-9.423611 6.306578
-9.202591 7.323011
-8.026178 9.631798
-4.586237 10.530162
-1.492381 9.502831
-0.409061 6.556008
-0.783740 7.102766
1.418986 7.081876
5.832777 4.660243
6.452642 -2.027023
4.131703 -7.639581
-3.038772 -10.125251
-7.226333 -8.925174
-11.053601 -8.336930
-14.580118 -7.142875
-19.716699 -3.504404
-21.706426 2.501540
-19.371362 8.687166
-15.187584 11.907960
-13.036272 13.976713
-9.680584 14.650818
-5.788602 14.731397
-1.817824 14.015520
0.081549 10.756600
0.171604 9.186881
1.771540 7.420966
2.719096 4.688678
1.804308 1.074027
-1.376175 -1.628088
-3.961068 -1.030917
-6.014079 -1.547939
-5.585728 -1.298908
-8.728849 -2.048734
-11.459242 0.390554
-11.564224 4.706846
-9.640532 6.056428
-8.182956 4.570367
-9.544301 3.033565
-12.905671 5.445613
-12.327627 9.499116
-9.696457 11.671225
-6.663233 11.938809
-5.939230 10.960157
-3.963538 13.043169
-0.919873 12.871057
2.359417 10.844851
4.398323 6.832663
3.398767 3.220522
1.737013 0.938589
0.707485 -0.682722
-2.287257 -2.840361
-5.225913 -2.329576
-8.330408 -2.438705
-9.472343 -0.315549
-11.792331 0.845278
-14.710020 3.829046
-14.883811 9.009767
-11.590102 13.870123
-7.954665 15.258567
-4.208036 13.859896
-1.618396 13.960874
2.273621 14.151963
7.672392 12.248259
10.611646 5.628690
9.617951 -1.660875
4.066182 -5.001494
-0.005426 -5.803204
-2.237848 -5.325052
-4.138576 -6.760190
-8.199744 -7.243445
-10.868245 -5.129793
-12.296034 -2.422862
-12.850478 -0.409390
-13.512940 1.397160
-14.200773 3.638971
-14.106536 7.287877
-11.627709 7.848286
-12.577202 8.563636
-11.420611 10.042072
-10.328719 12.499533
-5.642222 14.949491
-1.652182 13.103326
0.280288 9.628913
0.370344 8.244924
1.374767 8.460282
4.172803 5.933087
4.938067 1.222785
2.355997 -3.581224
-1.665663 -6.993477
-5.829967 -6.306539
-9.087813 -8.219566
-14.325078 -6.244378
-18.447188 -2.256187
-21.586435 3.386906
-20.843396 9.801740
-16.880184 14.525268
-14.262528 16.791228
-8.530869 19.730415
-2.744308 18.260039
1.616360 13.803131
2.490406 8.497472
1.553803 6.158192
0.043248 5.787844
0.387717 3.913629
-0.576490 0.071259
-4.362971 -0.966571
-8.657459 0.267591
-7.554135 3.492512
-6.535702 4.310038
-6.264198 1.899338
-8.754790 2.150598
-9.098887 4.798045
-7.524913 6.383977
-5.801314 5.919695
-6.665548 4.015728
-10.128150 3.515787
-11.469539 5.693755
-11.950607 7.485766
-11.685640 9.939162
-10.455744 12.648104
-5.658394 16.540370
-0.489000 16.797271
4.555749 12.351057
4.780525 6.854905
3.775475 2.671316
0.857418 0.558918
-1.570398 -2.598354
-6.136220 -3.023517
-9.830596 -2.346282
-12.459062 3.463919
-11.406988 7.638887
-9.222197 8.777958
-9.515402 9.708970
-9.175792 11.761410
-7.225511 13.655504
-2.227505 14.451284
1.393207 10.700484
1.829307 8.759622
2.351950 7.445091
3.966156 5.388229
4.763149 2.442524
1.958068 -1.070593
-2.183260 -2.628097
-4.892341 -0.657682
-4.246520 1.606976
-2.737887 -0.353154
-3.287803 -2.200636
-4.922808 -3.764038
-6.104304 -4.707681
-7.388401 -4.388962
-10.858095 -5.094204
-16.052496 -3.595468
-19.156977 0.841860
-21.917227 4.833638
-21.317598 10.859664
-18.475205 16.152570
-12.048416 19.394093
-3.466684 19.383969
1.188848 15.868187
3.477852 11.843312
2.418009 9.934036
5.285812 6.434389
5.775970 1.191218
1.771791 -6.228693
-7.288965 -10.551655
-15.068566 -6.331465
-16.526581 0.195706
-14.089222 4.065412
-14.590931 4.644609
-15.570965 5.288808
-17.493068 10.669672
-13.814058 15.636156
-9.392409 16.176880
-6.122980 15.400399
-4.333791 11.982810
-4.013541 10.991581
-3.458808 9.835254
-4.246314 8.714884
-2.290865 8.361096
-2.404067 9.120747
-2.379164 7.086389
-5.112614 6.607551
-6.894555 8.624661
-5.209161 10.963296
-0.827320 9.901343
2.236597 3.246358
-1.725395 -2.510634
-8.173789 -1.229861
-10.737099 1.907046
-10.480656 7.505413
-9.669848 6.989776
-13.041425 6.540415
-14.574993 11.492388
-11.450942 16.801193
-5.140634 17.983000
1.519566 14.332992
1.367846 8.127096
0.860234 8.547458
0.795491 7.756598
1.771497 7.682981
2.359087 4.950068
-0.105972 1.419585
-1.476729 -1.328236
-6.556390 -3.456112
-11.018999 -3.585232
-15.828547 0.579541
-14.953243 6.698911
-11.412895 10.901341
-8.315977 12.261942
-6.252881 11.001172
-6.108233 13.268822
-4.097908 14.367130
-2.837624 12.636167
-2.330260 9.929466
-3.016773 8.456613
-2.093057 9.168758
2.659385 9.872916
6.682814 4.422828
4.835145 1.299224
1.776026 -1.542913
-1.101001 -1.579376
-0.570506 -2.133017
-5.002112 -4.937526
-8.791076 -5.873483
-11.847270 -2.759644
-11.552589 -1.162069
-10.180990 -2.568279
-12.660353 -4.802493
-17.990005 -2.417782
-22.925073 2.583044
-22.779663 9.659279
-20.329406 14.145500
-17.376783 18.117138
-14.370634 19.309588
-9.144619 20.358820
-3.220498 18.142930
-0.703637 14.064655
0.132081 12.483582
2.062660 9.325541
2.584731 7.201292
1.787346 4.209767
-3.732398 2.344205
-5.568741 2.691923
-6.936707 2.089756
-8.573814 -1.126948
-12.688667 -1.379390
-18.353101 3.346694
-16.636657 11.075641
-11.212581 13.412030
-7.095749 14.591929
-7.311510 11.382445
-9.258346 12.593035
-6.437355 13.460659
-3.199245 14.068492
-1.831161 10.054415
-3.031356 7.362516
-4.460445 4.889243
-3.990769 6.493797
-5.387742 5.996192
-3.529215 6.601407
-4.329238 6.704619
-3.244293 6.863631
-2.743207 3.304187
-7.802294 2.239852
-9.869112 3.040072
-10.835912 5.600353
-10.041654 4.914129
-10.495245 4.712148
-15.059668 6.956543
-13.893515 13.874688
-8.963349 18.983785
-0.085325 18.063335
2.032783 12.940847
-0.224205 9.444873
-0.362894 7.187675
0.678144 6.904829
0.623305 3.645766
-2.208545 -0.870601
-6.041997 0.520492
-9.996178 2.955370
-6.799302 3.089093
-7.922849 2.874844
-10.425633 4.678788
-11.748650 7.767202
-8.658081 10.335576
-7.349823 12.032579
-4.876139 9.097958
-5.384589 7.165173
-0.211806 6.258616
-1.113175 1.190037
-4.105014 -1.911626
-12.601624 -2.135620
-16.443079 6.127021
-13.048320 11.606239
-7.286582 14.780063
-3.926991 11.958243
-1.137802 9.245772
1.673048 6.671466
5.114913 1.731300
3.452771 -6.377974
-2.792154 -10.887023
-9.715215 -11.965195
-14.883991 -9.834474
-17.790125 -6.443317
-25.198743 -6.910709
-29.324907 -3.037205
-32.391540 6.243062
-28.618268 14.274880
-27.337901 18.212190
-21.937237 22.824283
-16.531100 26.735007
-7.665755 27.351679
0.375277 21.784713
1.809508 14.875436
-2.875059 9.191637
-6.737632 9.254216
-8.235458 7.623231
-10.717902 5.704936
-13.743729 8.103377
-12.339341 12.400814
-9.157795 18.366391
-3.015271 18.220914
-1.297781 12.360525
-3.702385 9.540554
-6.795859 8.815731
-7.122307 7.869353
-8.369669 6.341397
-9.610838 4.982711
-13.872381 6.442284
-13.042795 10.981186
-10.378242 12.759575
-9.680139 14.787835
-8.132608 19.200696
-6.529478 21.269667
0.304070 17.812173
4.956664 13.636159
4.392967 7.630320
2.241652 3.940196
3.909835 -0.355368
-1.645226 -5.790531
-8.052086 -7.116691
-16.669203 -4.881687
-18.113155 6.796579
-16.658446 12.360978
-13.325152 14.276018
-13.454952 15.676190
-11.979673 16.764568
-4.458529 16.122960
4.044526 13.024892
5.422864 5.075753
2.492704 -0.038379
-2.836959 1.312496
-3.931249 0.646857
-7.877648 -1.119462
-11.506074 -2.299675
-17.248137 -0.377958
-19.475604 3.378977
-14.438991 8.199995
-13.533653 5.931485
-10.618325 5.826928
-8.621857 6.710178
-9.388684 6.222849
-9.937599 3.963459
-13.168203 3.853941
-15.921542 4.586158
-16.771578 4.815385
-17.756310 0.666110
-21.483026 0.913550
-30.381803 7.264304
-26.837168 17.235139
-18.123709 22.840667
-8.041592 22.542462
-5.469505 20.400437
-5.198763 20.400578
-0.986420 19.198759
3.368169 9.669132
1.344122 -2.032989
-7.500020 -11.074530
-16.813978 -5.333015
-18.018184 -3.107685
-15.319185 1.046121
-17.769730 1.312702
-26.471613 0.822374
-31.046505 6.208978
-32.567890 12.877647
-31.678319 16.236576
-32.801322 22.833178
-30.832835 27.942255
-21.190631 31.037304
-10.642165 31.142753
-7.204315 32.162888
-3.603268 25.788549
-1.627488 25.084851
1.009709 20.955812
-4.551020 14.735796
-9.170484 16.214278
-6.626302 19.643204
-2.505122 21.829908
4.701985 13.365651
2.854248 3.776002
-3.882668 1.994304
-8.645827 2.483279
-3.783253 4.423557
-11.432070 3.075795
-19.331038 0.988791
-27.792954 10.223290
-25.613845 16.005814
-15.834244 19.429435
-10.684682 18.212330
-13.204686 14.905819
-9.794445 19.956376
-10.875098 24.471307
-1.885435 20.225357
0.559107 15.100575
0.777239 9.660638
-4.502039 6.461525
-8.941081 2.423278
-9.426991 1.015980
-14.843133 3.000030
-16.378429 5.712799
-17.624956 5.240674
-21.388658 9.965758
-27.687889 18.207379
-22.391051 24.174206
-10.706021 26.606784
-4.380412 19.739552
-7.057077 13.503454
-12.392977 10.702822
-14.881207 17.295893
-8.322547 17.199904
-6.333998 7.736964
-8.150806 4.074593
-20.213182 13.398185
-24.110086 19.035102
-13.229378 24.975330
-4.472930 20.852371
-5.432728 11.193511
-1.521535 3.925347
-4.252240 3.938530
-7.216213 -3.475559
-14.883535 -4.784154
-24.562197 -7.439815
-35.976844 -3.976245
-44.769187 6.795832
-49.885128 16.044482
-44.775313 29.171051
-36.571291 40.295314
-23.268038 42.123629
-18.855128 37.960942
-10.873096 37.382782
-3.415333 43.826924
8.702820 38.731817
18.183067 20.859476
15.915830 4.340034
-3.754009 -6.418020
-15.504226 -2.317821
-18.364099 1.767000
-22.988487 0.683587
-29.885318 -2.539282
-34.885328 8.894623
-36.351491 25.087326
-25.654768 26.393926
-15.059733 25.498543
-24.138296 17.800704
-33.791023 22.842214
-38.409376 28.783450
-37.031249 28.813217
-27.850407 38.447734
-27.423978 41.484602
-22.747889 48.597664
-10.111117 52.064727
-3.049754 49.610053
7.184532 48.603654
11.994529 45.572480
23.420057 33.216187
27.061908 17.377214
16.816827 4.290265
7.687239 -10.896726
-9.730277 -14.415497
-15.202283 -18.437262
-31.213493 -18.956351
-52.733123 -2.443855
-56.851365 23.626058
-46.029696 47.508985
-22.869326 50.875575
-5.426884 48.177653
0.212552 44.389439
-1.924584 31.259219
14.719597 23.419711
11.868239 6.948409
-0.877161 -8.081013
-10.823114 -9.066569
-20.227558 6.970675
-25.060586 8.434615
-23.295730 9.588813
-28.495085 10.048400
-30.097831 17.524690
-27.426322 23.996118
-19.710542 26.977355
-20.891691 16.461860
-19.779206 20.941360
-22.489213 8.753304
-22.224993 14.161534
-26.375316 6.199913
-33.346228 15.093517
-44.547076 22.636476
-46.489617 31.961214
-40.577915 39.614207
-44.367096 60.633089
-23.688129 58.292525
-1.262609 72.194988
11.099060 39.903856
18.782956 22.587542
16.137043 2.785615
-1.377283 7.199665
1.860752 -6.500574
-13.111990 -18.794655
-37.708298 -23.173709
-65.096093 -9.250699
-68.972331 0.600032
-67.035490 29.843786
-53.676323 39.415336
-63.942435 46.912504
-51.043691 49.447122
-48.114623 60.937699
-26.750457 64.327641
-24.142514 56.901451
-1.135148 73.163389
-1.994411 62.356202
11.782848 65.466722
7.125967 38.101992
17.367195 39.531595
11.205976 20.007636
24.537524 8.651495
12.337875 -12.306086
-19.000737 -22.236642
-32.517598 -13.063573
-26.932524 5.660843
-39.312855 7.151601
-43.841027 -3.231864
-85.306762 -10.339761
-102.083783 25.857269
-94.953312 62.940203
-92.182944 97.786225
-62.591592 95.151175
-38.973668 114.843871
-10.349227 126.304293
3.150405 101.246814
47.152009 87.670580
58.088618 54.461087
56.475833 50.314190
49.164350 16.434623
29.962083 -2.993694
-16.320452 -9.528535
-6.473533 -19.998980
-10.631870 6.396283
-0.409623 -10.640195
-28.829294 -48.052882
-53.843310 -29.940962
-103.012728 11.898292
-78.685487 69.329676
-48.281160 47.869625
-30.833944 47.539886
-29.564591 23.195860
-41.646254 47.990405
-36.182949 55.771641
-21.004946 59.768966
0.900834 33.719307
-19.800364 32.168234
-16.459136 37.946523
0.128377 49.270525
14.647537 47.059288
33.462857 28.848791
12.259313 -18.830994
-43.097042 -25.648053
-88.762418 -43.556185
-116.212342 17.738210
-102.937713 17.456025
-91.397361 43.564497
-97.234717 38.835740
-156.722544 36.202791
-148.227495 90.278238
-133.327429 162.748396
-79.304357 189.323056
-39.972432 177.021677
-4.409783 126.800608
-26.217894 152.388008
53.504187 177.429719
42.287736 133.640299
87.216224 113.018255
84.636556 -17.835312
23.757774 -46.872316
-19.792022 -26.180711
-47.372106 -47.784048
-71.944633 -13.934775
-117.623586 -33.439004
-167.812125 -24.838423
-251.415045 -8.531367
-296.151709 55.382585
-144.233641 125.124230
-104.282286 205.971027
-137.806723 185.395217
-52.114192 150.038954
-64.214770 188.236613
-46.709270 214.576963
11.230954 203.325124
45.453128 173.203171
12.738846 170.662251
25.074795 199.002146
126.341375 169.927097
102.392488 180.927731
123.804083 5.660717
60.176528 13.267224
63.004907 -34.651957
-149.979616 -127.655525
20.493532 -20.161205
-215.845521 -83.918091
-145.263467 83.335941
-336.046869 11.710134
-385.474065 83.331908
-464.093090 172.759621
-477.536937 416.360510
-329.004815 885.583041
156.513803 766.680415
131.770699 1011.891707
577.630530 617.870886
267.347460 321.331880
407.548926 308.319797
176.562188 115.246629
124.554288 -155.010101
51.466093 -413.692098
-218.167154 -73.565378
258.625923 -163.878538
-293.937010 567.458363
-1753.241005 959.322182
-1229.804190 -886.940423
-584.470343 70.460966
-1434.206552 1223.691326
568.065836 123.709781
-2316.952664 -115.933132
-471.265122 1879.432834
2104.046645 2043.658622
-648.303290 198.402147
888.510262 4181.611294
