14434.120013 14241.992379
66.761240 192.791330
125.593254 58.759949
1174.020117 -147.533843
158.359152 42.213530
-157.767284 95.611812
273.242299 128.511631
-1010.477726 602.433385
306.318082 20.412325
356.531972 -285.821220
297.316919 -78.538061
168.345365 97.744677
295.908222 -63.167444
272.346876 -185.174920
255.888652 -151.763757
238.418857 -96.762257
265.653854 -176.504111
259.553796 -232.176287
167.342340 -182.174906
203.644026 -323.737063
186.258028 -186.808348
142.468535 -99.998286
191.714170 -200.622110
104.879909 -166.948950
124.252758 -196.447758
80.864799 -226.310883
96.708972 -236.892511
94.287676 -162.962632
87.835856 -232.325095
-1.768201 -205.318286
47.672647 -245.758856
68.588477 -220.970931
10.375869 -215.156749
-35.470149 -259.317015
-17.698073 -197.261127
18.497939 -209.177817
-17.193538 -206.501067
10.875525 -190.758066
-13.428855 -179.241555
-23.843985 -153.018844
-35.766616 -156.552290
-26.706895 -153.902794
-36.853394 -171.845449
-38.385482 -121.043283
-28.029014 -148.894685
-53.422036 -126.826164
-63.751059 -143.585043
-68.830954 -127.714534
-66.523663 -116.913072
-96.494388 -111.998557
-68.956666 -108.921286
-69.325188 -143.142178
-63.661978 -111.464206
-53.328457 -89.710369
-54.707092 -98.809013
-57.727466 -101.107112
-68.931206 -88.671692
-56.426659 -88.226989
-63.043882 -102.860637
-45.976684 -74.947076
-71.057661 -94.758640
-64.447592 -65.399056
-78.448340 -65.358599
-66.371597 -62.792967
-82.054267 -69.520590
-72.000005 -66.383085
-74.047275 -57.269588
-73.838521 -53.449616
-68.651314 -62.487212
-57.838970 -59.383713
-50.706223 -42.114782
-66.635770 -39.633328
-67.735754 -51.216006
-58.956637 -40.212123
-70.788497 -39.815558
-82.956602 -35.448861
-63.303428 -14.269957
-48.485465 -29.534743
-67.592382 -29.803654
-52.376187 -26.322962
-47.128591 -8.685235
-64.677362 -23.068194
-37.257968 -17.126705
-35.152238 -17.848561
-53.561837 -14.593711
-44.383059 -12.366853
-35.712986 -6.911843
-32.483074 -1.606179
-35.921278 -14.111140
-35.605396 -3.403821
-30.184241 -21.719894
-34.489695 -3.620560
-22.066156 -12.838441
-35.620508 -19.938242
-29.592998 -12.789012
-0.955598 -22.107115
-33.818574 -25.040626
-4.354374 -22.824881
-24.519793 -30.071107
-22.556463 -13.396847
-24.944437 -28.901060
-20.234482 -16.039194
-22.582778 -23.722509
-18.575052 -19.601450
-29.743455 -26.796054
-26.693577 -24.528577
-25.677590 -26.889331
-33.297057 -16.517737
-30.931886 -30.462486
-21.119616 -35.486219
-36.097106 -17.948981
-24.484212 -31.467691
-45.078847 -25.761539
-33.779966 -24.661164
-42.263922 -18.665306
-31.765722 -28.942291
-38.867533 -26.962528
-36.529618 -26.568039
-31.638588 -26.134607
-30.389410 -4.938409
-36.564070 -22.767846
-48.397020 -9.160217
-42.146594 -14.342398
-45.034492 -13.722985
-38.663547 -21.399458
-40.415407 -5.135759
-38.822469 -15.857122
-46.456287 -14.217014
-43.068017 -22.183495
-38.617379 -14.721068
-37.994951 0.322281
-47.918741 -16.095493
-34.828578 -10.048219
-34.363799 -10.822878
-25.965822 -4.732269
-42.047486 -9.200420
-37.568530 -7.442991
-23.492221 4.893067
-15.615100 4.856306
-38.278753 -4.371185
-24.097123 7.066251
-37.045039 2.651804
-14.420199 0.016521
-18.286210 10.537476
-18.825423 -9.894615
-17.363535 -2.670005
-18.121374 -4.571639
-29.217888 3.325105
-33.260367 -4.736806
-8.477013 3.659681
-20.443764 5.322473
-24.600092 -1.113251
-12.084607 10.228326
-18.262731 1.961739
-8.466319 -5.316715
-11.420693 -6.764158
-10.274553 -3.194444
-15.142319 -3.199304
-20.203919 -3.709352
-18.025165 -4.183557
-16.212115 -6.629416
-15.133168 -11.429545
-13.345108 -3.282456
-12.983377 -10.951590
-9.742291 -7.774140
-10.381953 -10.542640
-5.771677 -11.372671
-16.048248 -15.023613
-11.639400 -12.904433
-19.905498 -9.223548
-9.680519 -20.175459
-13.580022 -19.047956
-21.407681 -12.105339
-18.936505 -14.705876
-20.803183 -14.125761
-21.049195 -13.191357
-19.822942 -17.526020
-17.130465 -13.165626
-28.576591 -17.764455
-22.302601 -18.100095
-26.199728 -14.853533
-31.530379 -13.189717
-25.614323 -5.429631
-24.597459 -10.656286
-27.944209 -16.414422
-34.840595 -7.551035
-30.009519 -13.212923
-33.657704 -9.099264
-38.493050 -3.499522
-35.157799 -6.644971
-34.724436 -5.112912
-34.840114 -6.034406
-37.208224 -3.606223
-30.822673 0.084239
-34.652785 2.502598
-30.148560 7.321174
-35.547616 6.362926
-32.190563 5.753074
-33.538805 6.083077
-31.900056 5.142187
-27.576896 11.934012
-29.535976 14.257581
-30.649558 11.479645
-23.160655 12.371021
-26.133828 14.324594
-26.733182 15.709201
-28.023248 16.213400
-18.334140 12.650643
-14.929558 16.497916
-17.656609 18.489473
-12.602899 17.567585
-16.168744 17.001753
-14.924998 16.736048
-11.786497 9.929319
-10.573991 12.016524
-11.160306 18.070229
-9.794222 13.318285
-7.573954 9.364757
-5.880833 16.741046
-3.918203 12.013405
-6.051488 11.662855
-7.918411 6.637411
-4.941163 8.549187
-4.385942 6.560864
-0.363937 5.022275
-1.647804 0.444420
-0.312225 4.532975
-2.873442 1.020788
0.213915 -0.730515
-0.992687 -2.774356
-1.107418 -2.021053
-4.112795 -3.048134
-5.185554 -2.367647
-2.348340 -4.239379
-5.038343 -5.747460
-5.625448 -11.817435
-8.574514 -6.355055
-8.711083 -9.661767
-8.010181 -9.869767
-12.145092 -10.782067
-13.637406 -9.130550
-17.474530 -9.622943
-14.859957 -11.533162
-17.991230 -7.827564
-16.310011 -7.305753
-22.011705 -8.985955
-16.501353 -5.286504
-22.195058 -7.322073
-20.151282 -9.774377
-26.574722 -3.428277
-21.337803 0.902478
-25.215357 -2.949743
-25.857152 -0.161807
-25.915622 2.302866
-22.800656 6.113673
-22.539617 4.711815
-23.725803 5.621446
-25.517137 7.482363
-23.966207 11.442730
-25.522000 10.788435
-22.306885 13.102595
-19.205567 13.250227
-22.881844 13.399011
-20.129908 17.026762
-15.863675 17.073085
-17.395362 16.583558
-17.783219 13.663586
-16.684050 16.924773
-12.131185 17.571373
-12.463129 18.291012
-11.841293 18.169775
-11.135315 14.160108
-8.566646 16.444839
-7.690963 15.923951
-4.096890 12.276254
-5.697867 14.576754
-2.544971 15.401341
-4.703861 13.129574
-1.471653 11.290336
-2.642727 11.004995
-0.219650 8.338005
-1.200510 9.042642
-1.365416 6.429575
0.143319 7.426914
-1.895732 5.120690
0.477388 0.582840
-2.395131 1.786542
-3.947988 3.467896
-2.330458 1.259477
-4.347235 0.668964
-5.864502 -0.022533
-6.821654 0.076919
-5.011517 3.489152
-6.144607 0.728686
-6.852459 -0.896932
-9.046175 2.253419
-9.638713 0.735787
-8.962635 0.035270
-12.173080 1.640604
-10.319898 1.340708
-10.193151 2.912313
-12.654859 3.091073
-12.352330 1.408762
-11.360684 3.989172
-11.965497 2.201679
-12.239465 4.348357
-12.426844 5.473326
-13.473485 6.392830
-12.632779 7.785101
-13.569656 6.765436
-13.486344 6.567830
-10.057133 9.867121
-10.121676 8.761134
-9.955866 10.291506
-10.287943 8.642311
-10.092889 9.985703
-10.789936 9.550100
-9.297817 9.071632
-8.514616 11.138041
-8.095308 9.475344
-7.278819 12.180358
-9.630532 10.855071
-6.474506 11.336574
-7.612624 10.491690
-6.381923 14.067050
-7.444317 10.319999
-7.670721 11.419384
-8.624699 10.427928
-6.204473 10.826696
-5.561304 11.496760
-7.211822 13.309161
-7.878915 11.505445
-6.958785 11.213568
-6.132384 12.434773
-3.860989 11.763943
-4.712034 13.546659
-7.444491 13.284883
-3.976227 14.787739
-1.378998 14.531419
-3.430091 14.751044
-2.939123 15.011358
-1.210742 15.113267
0.582876 15.648754
-0.296711 16.150860
-1.191398 16.127410
0.079137 16.118002
1.031648 16.069834
1.646521 16.553347
3.930737 13.527258
5.266060 15.064001
6.002877 14.518179
4.310250 14.676893
6.743834 12.014294
6.190545 13.960580
8.448012 11.062759
7.238174 12.872083
10.219186 11.071829
8.629089 11.030165
10.934373 8.992647
10.196568 8.822036
9.933998 7.733201
9.253937 6.073923
9.195061 4.983463
10.534865 3.816882
8.613780 3.700573
9.102358 0.788894
8.067076 1.799583
10.236902 0.776315
9.326217 0.816656
8.916782 -1.873877
6.705190 -0.770158
6.297828 -2.760998
6.023657 -1.723109
5.835157 -2.458322
4.793473 -3.584732
3.040351 -3.016419
3.049460 -3.956610
3.674635 -3.627256
0.554406 -3.848139
0.432936 -3.100915
-0.471206 -2.167975
-0.022220 -2.082664
-2.026271 -2.020381
-2.906321 -2.118030
-2.397204 -0.174485
-2.700490 0.678153
-2.662815 -0.820165
-4.144709 0.428742
-4.313956 0.896923
-4.011516 2.964940
-2.906657 2.365309
-3.546971 4.309159
-3.548590 3.928499
-3.016364 5.331137
-2.020111 5.592666
-2.088926 6.836655
-1.730983 5.393160
-1.013525 7.281429
0.503295 6.813409
-0.147655 7.304242
0.030537 6.382059
0.404821 8.015358
2.201530 7.802636
2.573679 6.796075
3.447830 6.773320
3.920234 8.222638
4.328189 6.402849
3.332298 6.488556
3.699123 4.451774
4.777125 4.968680
5.130919 4.582647
6.511237 4.870177
6.035629 4.498284
5.734228 3.911878
5.730238 2.352515
6.823399 1.245886
5.487217 2.236094
6.413330 1.319910
4.755163 0.398527
4.844873 -0.553891
4.641699 -0.937327
5.628258 -1.972011
4.536202 -2.179059
5.030856 -2.926499
3.307798 -3.779171
3.457217 -3.405980
2.890629 -2.787323
3.978801 -2.325764
2.841409 -4.110581
2.347646 -3.383768
1.911780 -3.446134
1.039444 -3.391825
-0.285020 -4.486339
-0.917783 -2.858902
0.974196 -2.676782
-0.832247 -2.356472
-1.096155 -2.993582
-1.425255 -2.353808
-0.993470 -3.151772
-3.023090 -2.430167
-2.464278 -2.114203
-1.337182 -1.220052
-3.296691 -1.193205
-2.782246 -0.185454
-3.542153 0.062375
-2.783333 0.681111
-4.318621 0.162617
-2.497129 0.228834
-3.262752 0.605881
-3.427624 2.592915
-4.535334 1.729730
-2.768567 3.092106
-3.187790 2.822467
-2.239207 3.335232
-1.848662 3.890311
-2.359585 5.637593
-2.274044 4.822564
-0.792778 4.404148
0.149601 5.190328
0.872201 6.353840
1.430304 5.557309
2.252491 5.102942
0.820148 4.848803
2.706316 6.153623
2.928670 6.063859
3.873814 4.837427
2.840084 5.922387
3.054583 4.991694
5.073801 5.871141
4.293485 4.423171
4.843185 5.272514
5.019985 4.073217
6.413348 3.862847
6.437310 2.869329
5.940189 3.230292
7.570505 2.868533
6.437543 2.248397
7.055127 1.288341
6.951077 1.183320
7.972201 1.381994
7.774034 1.691140
8.426494 0.351250
7.559606 0.096379
8.532103 -1.042521
7.304489 -1.524190
8.912979 -0.592813
7.896298 -1.957985
7.252144 -2.904990
7.360603 -3.161460
7.936919 -2.056853
8.137520 -3.663066
6.908070 -4.298193
6.862185 -3.630826
6.379446 -5.130959
6.632830 -4.784719
6.654013 -4.782722
6.464282 -5.647547
5.865596 -6.595136
6.547529 -6.592692
6.846528 -5.676318
5.585568 -6.114640
5.713274 -5.813367
3.511151 -6.619135
4.021090 -6.966837
4.086595 -7.921525
3.404415 -6.973910
2.801504 -8.058371
2.730874 -7.401509
2.502568 -7.461761
1.823856 -8.058921
1.564283 -7.166078
1.882572 -7.733516
0.447627 -7.152626
0.594205 -7.991872
1.789017 -6.603709
1.398276 -7.895106
0.635345 -7.780805
0.039058 -7.873148
-0.530259 -7.503469
-0.830458 -7.511551
-0.491857 -7.344445
-1.065601 -7.588710
-1.709047 -6.341155
-1.406044 -7.032413
-0.989491 -6.077388
-0.757183 -5.217549
-1.631454 -5.908864
-1.920122 -6.523480
-1.055179 -5.222137
-0.559898 -5.190736
-1.776814 -4.349551
-1.897779 -4.965627
-2.195021 -4.610939
-1.659434 -4.746049
-1.964834 -4.846827
-1.356041 -4.297259
-2.037325 -3.758976
-1.216201 -3.744598
-1.113833 -2.925123
-1.327938 -3.444985
-1.102718 -3.046039
-0.727373 -3.317081
-0.734640 -3.930249
-0.709022 -3.317170
-0.590692 -3.668811
-0.724083 -4.449257
-0.467641 -3.951919
-0.836911 -4.029379
-1.283628 -4.360149
-0.053597 -4.055948
-0.338074 -4.426877
-0.405577 -4.936389
-0.497628 -4.730679
-0.620456 -4.486198
-0.029399 -5.010415
-0.700644 -5.348081
-1.993816 -5.047742
-1.202896 -5.904252
-1.363295 -5.302342
-0.205329 -6.093944
-1.748717 -5.479995
-1.514042 -6.281569
-1.448020 -5.025826
-1.732194 -6.519330
-1.733934 -4.895409
-1.877383 -5.550249
-3.226217 -4.981938
-2.445811 -5.260355
-2.828263 -4.574264
-2.450761 -5.086651
-3.889965 -6.202669
-3.006197 -6.178864
-3.208396 -5.961340
-3.401662 -5.320497
-3.402434 -5.714785
-3.482029 -6.392744
-3.689204 -4.968239
-3.723600 -5.629138
-2.957663 -5.218952
-3.856745 -5.298694
-4.036277 -5.498499
-4.109864 -5.302673
-4.656366 -5.202801
-4.773844 -5.303791
-4.571944 -5.418701
-5.034114 -4.825000
-5.260379 -4.689557
-5.318245 -5.766133
-5.657972 -5.015357
-5.542011 -5.055880
-5.736065 -3.688985
-6.833183 -4.117592
-6.630330 -3.069066
-7.216162 -3.610960
-6.670919 -2.552406
-6.812691 -2.653886
-6.223166 -1.986992
-6.906645 -1.822267
-6.724666 -1.066577
-5.959459 -2.095767
-6.927434 -0.627271
-6.060427 -0.348427
-6.064476 0.025581
-5.021142 1.206395
-5.087989 1.469107
-4.268119 1.693449
-4.037367 0.995354
-4.000840 1.560753
-3.235602 1.022626
-2.856128 1.611305
-2.821143 2.273745
-2.515146 1.467886
-1.802471 2.364851
-0.928354 0.902712
-0.040813 2.051301
0.179745 1.330168
0.831343 1.540812
0.413398 0.906019
0.886761 0.544839
1.776034 -0.202642
2.496825 -0.536737
2.017789 -1.512080
1.973485 -2.105250
3.132141 -2.487665
3.083108 -3.487204
2.717755 -3.999661
3.383233 -4.419776
2.694214 -4.822989
2.611696 -5.681109
2.775771 -5.526765
1.418866 -6.285443
0.843491 -6.987119
0.855962 -7.859926
0.361172 -9.193347
-1.286913 -9.307036
-1.133515 -9.176286
-1.752351 -9.731745
-2.812026 -9.679640
-2.877291 -10.437180
-3.770297 -10.221007
-3.850180 -10.035546
-4.970684 -9.494215
-5.129653 -8.451044
-7.073165 -8.584977
-7.791116 -7.868977
-8.381891 -8.601435
-9.330721 -7.626993
-9.723546 -7.031335
-10.237441 -5.998891
-10.542120 -6.351591
-10.550346 -4.893952
-10.346194 -3.934369
-10.786924 -3.506042
-10.380822 -2.887215
-10.189308 -3.133596
-10.305902 -0.782768
-10.660430 -0.929144
-10.110863 0.108025
-9.031549 0.276826
-9.410460 1.526366
-8.702974 2.034517
-7.901758 1.968000
-8.008797 2.698354
-7.251587 2.099054
-6.743002 2.127788
-6.346925 2.729048
-5.589703 2.665971
-6.016424 2.775762
-4.367674 2.909031
-4.494330 2.207050
-4.130677 2.822095
-3.591717 2.647653
-3.004004 1.972521
-2.271047 2.250585
-2.586851 1.475580
-1.741722 1.186485
-1.009885 1.001687
-2.495403 1.113399
-1.574929 1.171038
-2.408504 -0.018903
-1.777638 0.597979
-1.783461 -1.177035
-1.717987 0.214476
-0.832931 -0.403129
-2.272766 -0.924045
-2.221720 -1.823133
-1.528943 -1.589382
-2.114733 -0.992615
-2.332474 -1.474559
-2.241529 -1.603974
-2.441643 -1.937575
-3.528826 -1.649264
-2.836745 -2.190968
-3.170418 -2.547009
-2.911331 -2.047094
-3.894435 -2.743416
-3.513430 -2.454066
-3.846771 -1.768564
-3.089909 -1.818487
-3.348050 -1.668336
-3.756227 -0.951494
-3.221047 -1.775393
-3.841196 -1.995692
-4.171809 -1.919646
-4.582491 -2.451222
-4.915731 -1.197379
-4.547095 -1.722932
-4.973430 -1.441555
-4.219208 -1.305556
-4.868637 -0.992421
-4.966250 -0.867664
-4.782239 -1.343138
-4.362377 -1.113384
-4.827059 -0.515332
-4.570912 -1.257637
-5.000753 -0.731611
-4.972996 -0.138461
-4.321707 -0.681924
-4.642784 -0.763673
-4.825644 -0.569892
-4.414709 -0.657443
-4.243462 -0.405305
-4.066651 -0.546952
-4.999116 -0.564090
-4.632253 -0.874743
-4.700588 -0.402970
-3.664812 0.272259
-5.375190 0.151673
-4.386998 -0.339363
-5.096983 -0.042461
-4.814675 0.229838
-4.247343 0.035370
-4.602396 -0.143552
-5.002912 0.185190
-4.477987 0.548745
-3.727559 0.143376
-3.876330 -0.021100
-3.718460 1.068780
-3.342017 1.134979
-4.016624 0.868501
-3.686266 0.946823
-3.286864 0.658916
-3.127087 0.099728
-3.438709 0.829631
-2.716991 0.732914
-3.455532 0.292693
-2.629074 0.435971
-2.744317 0.558651
-2.523963 -0.142935
-2.109787 -0.318390
-1.978054 -0.201951
-2.303721 0.144446
-2.981802 -0.362453
-2.277304 -0.459983
-1.574476 -0.999959
-1.855671 -1.092929
-1.709773 -0.973938
-1.855974 -1.139454
-3.102310 -2.298618
-3.342783 -1.976997
-2.360545 -2.268883
-2.866000 -2.055807
-2.883617 -2.998564
-2.426127 -2.843612
-2.936493 -2.126541
-4.026011 -2.552667
-3.718636 -3.769694
-3.832906 -2.812123
-3.733459 -3.584117
-4.761834 -3.232045
-4.621635 -3.165014
-5.332046 -2.635868
-4.679447 -2.360418
-5.869930 -2.806332
-6.064317 -2.491887
-6.027383 -2.707004
-6.602500 -2.514754
-6.446852 -2.550078
-7.157139 -2.724910
-7.643134 -2.238611
-7.810686 -1.980495
-7.805476 -1.626884
-7.870157 -0.823013
-8.344674 -1.063641
-7.715045 -0.787420
-8.521085 -0.028583
-8.406942 0.702471
-8.127114 0.711982
-9.491509 1.635838
-8.739412 1.490129
-8.607325 2.070141
-8.558077 2.349990
-7.746346 3.025883
-8.171272 3.079431
-7.708322 3.749936
-8.516910 4.259451
-7.499245 4.267218
-7.496581 4.496646
-7.306521 5.133266
-6.352516 4.857382
-5.644051 5.012632
-5.044195 5.896085
-5.132367 6.030946
-4.208113 6.552650
-4.648886 5.752552
-3.568312 6.564881
-3.703222 5.620403
-2.387462 6.160356
-1.891615 5.847686
-2.081039 5.720566
-1.853820 5.392283
-1.347425 5.369727
-1.034200 5.364268
-0.511573 4.967552
-0.612415 4.558000
-0.480530 4.575159
0.555761 3.058648
0.078451 3.886956
0.446397 2.949098
-0.030359 2.879004
0.319673 2.522119
0.576624 1.719052
0.173645 1.128977
-0.035710 1.074918
0.066739 1.484477
0.678758 0.277402
-0.444455 0.981799
-0.068958 0.575903
-0.807931 -0.198569
-0.591610 0.514505
-0.615979 0.602497
-1.013841 0.282661
-1.125753 -0.519658
-1.269202 -0.229980
-1.880784 -0.629353
-1.374006 -0.380051
-1.198276 -0.619574
-3.015365 -0.367678
-1.983467 0.080905
-2.346018 0.053235
-2.978035 -0.384154
-2.336478 -0.015562
-3.138234 0.182739
-2.632701 0.679344
-3.264888 0.764016
-2.577809 0.743761
-3.358689 0.081696
-3.499212 0.586817
-2.444077 0.108417
-2.579782 0.758359
-3.090598 1.183866
-2.516866 1.290439
-2.957945 0.823420
-2.672612 1.360787
-2.700620 1.061908
-2.173480 0.572383
-2.471633 1.739061
-1.898669 1.964925
-2.430303 1.780210
-3.000027 2.094162
-2.065091 1.524518
-1.679810 1.546348
-1.356776 1.238542
-1.801284 1.744687
-1.909089 0.610732
-1.703761 0.592068
-1.558055 1.662933
-1.474627 0.849454
-1.674552 1.253538
-1.358124 1.575762
-1.904089 0.382921
-1.915443 1.381363
-1.609827 0.796926
-1.536822 0.709340
-1.273458 1.465077
-1.125452 1.156620
-1.307264 0.188988
-1.234099 0.304860
-1.461811 0.670254
-1.385358 0.354651
-2.036914 0.607414
-0.873142 1.164143
-1.083162 0.749403
-1.323554 0.319627
-0.835529 0.272304
-1.008149 -0.544510
-0.858376 0.061316
-1.400010 0.143449
-1.174932 -0.120586
-1.250295 0.442394
-1.402869 0.050836
-1.435203 -0.427186
-1.528284 0.123486
-0.686143 -0.614295
-1.311436 -1.034141
-1.526959 -0.804386
-1.469572 -0.856249
-1.846570 -0.505773
-1.185457 -0.594836
-1.590251 -0.845305
-1.832229 -0.757704
-2.516318 -1.392318
-2.366869 -0.985961
-2.394090 -1.628014
-2.771500 -1.075878
-3.202733 -0.906548
-3.068270 -1.439077
-3.246724 -0.930213
-3.351460 -1.066722
-3.368786 -0.892589
-3.659021 -0.712412
-3.760478 -0.150397
-3.701508 -0.396159
-3.139917 -0.590771
-4.544619 0.180166
-3.692000 -1.030911
-3.858797 0.321249
-3.292845 -0.183761
-3.718371 0.113466
-3.373852 0.483166
-4.149054 0.426597
-3.472583 0.547382
-3.200022 0.251915
-3.150868 1.185480
-3.426714 0.888564
-3.260010 0.629295
-3.440743 1.033943
-3.590618 0.826886
-3.246048 1.311625
-3.433850 1.038292
-2.847140 0.960987
-3.581326 0.095824
-3.202699 0.749554
-2.678484 1.000859
-2.960929 1.342556
-2.681724 0.299926
-3.027414 1.136064
-2.995232 1.369468
-2.787544 0.975805
-3.690838 1.393258
-3.329425 1.090679
-3.402677 0.474456
-3.785422 0.776549
-3.170678 1.156157
-3.759835 1.320155
-2.938742 1.593533
-3.411848 1.591992
-2.872375 1.925171
-3.354285 1.550343
-2.939188 1.636779
-3.303284 2.055301
-2.709616 2.344142
-2.966996 2.471025
-3.064214 2.119841
-2.405638 2.475584
-2.316075 2.146883
-2.264193 2.242714
-2.596646 2.557439
-1.156656 3.099461
-1.790880 2.268669
-1.891722 2.838271
-1.136562 2.915227
-1.151329 1.997890
-0.967935 2.116369
-1.094624 3.030243
-0.650164 2.400071
-0.042597 2.835620
0.109011 1.558158
0.290986 1.964059
1.005399 0.992573
0.953401 1.044033
0.664924 0.782311
1.296636 1.254777
0.549831 0.333749
0.830650 0.023247
0.913852 0.545641
0.715676 -0.290897
0.324990 -0.594027
1.118314 -1.097099
0.402753 -1.511584
-0.038524 -1.242161
0.213916 -2.038316
-0.392418 -2.225339
-0.938337 -2.497473
-0.751813 -2.284929
-1.359960 -2.240210
-1.703722 -2.183122
-2.043285 -2.844642
-2.058176 -2.541706
-3.049869 -2.360736
-3.048832 -2.604492
-2.891278 -2.581016
-3.288655 -1.886691
-4.103947 -1.704474
-4.365278 -1.477292
-4.891038 -1.646398
-4.332924 -1.121543
-4.287378 -0.981478
-4.599472 -1.216287
-5.002281 -0.251046
-4.876182 0.527899
-5.169721 0.717515
-4.535960 1.397083
-4.625644 0.797391
-4.084172 1.653683
-4.181326 1.684293
-3.223544 2.167486
-3.966361 2.196563
-3.537480 2.327852
-3.058915 1.985853
-2.921045 2.042033
-2.321680 2.468166
-1.927458 2.126716
-1.742215 2.191051
-1.406730 2.473861
-1.796054 2.211399
-1.310677 2.398403
-0.993037 2.251766
-0.941010 1.971930
-0.521159 1.104984
-0.173764 1.542302
0.353858 0.400244
0.030669 0.388117
0.321364 0.462668
0.186424 0.289268
-0.602125 -0.623401
0.117115 -0.670674
0.053261 -0.967221
0.009254 -1.246053
-0.397724 -0.849753
-0.052536 -1.625379
-0.984565 -1.564551
-0.406642 -2.379026
-0.963571 -2.960740
-1.231072 -2.580844
-1.558490 -2.922928
-1.273657 -2.679385
-1.705230 -2.777527
-2.156937 -3.395374
-2.131064 -3.320556
-2.674236 -3.617227
-3.163856 -3.567201
-3.612738 -3.067830
-4.128065 -2.496051
-4.338443 -2.767373
-4.744768 -3.064203
-4.303314 -2.809911
-5.587918 -2.690584
-5.757017 -2.467379
-6.240927 -2.666259
-6.230111 -1.525284
-6.480368 -1.688773
-5.978919 -1.227848
-6.245930 -0.877119
-6.395401 -0.724222
-6.810039 -1.060189
-6.599236 -0.549100
-6.531003 0.076825
-6.525414 0.793536
-6.433634 0.827037
-6.524006 1.134545
-6.803585 0.962820
-5.943366 1.712378
-6.968536 1.645531
-6.148106 1.935700
-6.426999 2.166630
-5.733683 2.683514
-5.194155 2.717423
-5.955785 2.282208
-5.238637 2.914836
-4.997893 2.831369
-4.339465 3.320611
-4.482939 2.934022
-4.990779 3.469601
-4.021507 3.520249
-4.267884 3.383022
-3.835138 2.983327
-3.663829 3.160169
-3.297737 3.363683
-3.759315 3.527866
-2.998211 3.130961
-3.332730 3.271500
-2.790733 3.214887
-2.595531 3.089491
-2.398193 2.882206
-2.622962 2.306096
-1.899885 2.698927
-1.649758 2.362315
-2.197287 2.661358
-2.240749 1.710423
-1.913888 2.178378
-1.875185 2.223263
-1.898054 1.770170
-2.040985 1.478580
-1.638949 1.508198
-2.282974 1.099092
-1.787387 1.483250
-1.708398 1.069892
-2.227162 0.572443
-1.597614 1.539515
-1.962429 0.418795
-2.704947 0.787999
-1.625009 0.867476
-2.083740 0.680966
-2.747414 0.764896
-2.900457 0.267061
-2.855821 0.074605
-3.008338 0.267012
-3.182377 0.527842
-3.496134 0.547673
-3.155773 0.681263
-3.437622 0.717672
-3.481415 -0.056284
-2.833662 0.292982
-3.348292 -0.248330
-3.791357 0.822928
-3.518910 0.486377
-3.859989 0.660716
-3.775799 -0.193345
-3.667334 0.446452
-3.502229 -0.141071
-3.341637 0.955214
-4.442599 0.918942
-4.260691 0.752626
-3.818609 0.163434
-3.964997 0.090176
-4.751610 0.572115
-4.316819 0.694612
-4.394804 0.960748
-4.683043 0.678256
-5.022196 0.937377
-4.904535 1.220553
-5.527011 1.028545
-5.058899 1.909314
-5.090319 1.880088
-5.318263 1.470036
-5.331960 1.921830
-5.589307 1.708984
-5.479718 3.046482
-5.418795 2.708603
-5.321497 2.507000
-5.215881 2.807486
-5.008440 3.718824
-5.270698 3.869271
-4.581663 3.565433
-4.718483 4.065165
-4.791389 4.276084
-4.474607 4.455369
-3.655135 4.605585
-3.965012 4.143614
-3.479787 4.183540
-3.428676 4.412588
-3.190104 4.543787
-2.561995 4.094311
-2.190129 3.956566
-2.217666 4.416840
-1.631290 3.963671
-1.830575 3.872100
-1.638090 3.764116
-1.275661 3.989164
-1.887064 3.449706
-1.250018 3.522874
-1.683667 3.219454
-0.851895 2.180495
-0.845735 2.716447
-0.826781 2.135782
-1.017504 2.136555
-1.248952 1.811994
-0.931800 1.632738
-1.889072 1.554979
-1.482580 1.040610
-1.926476 1.036605
-1.651588 0.971484
-2.115670 1.183229
-2.051292 -0.079788
-2.221853 0.124729
-2.382001 0.056700
-2.967898 0.510443
-3.146772 0.795000
-2.714014 0.535129
-3.373158 1.151224
-3.981393 0.272133
-3.788880 0.382553
-4.305055 0.837564
-4.560222 0.927068
-4.764668 1.098501
-4.836858 1.491461
-4.987388 1.348073
-4.427381 1.993864
-4.568109 2.051940
-4.707874 1.947388
-4.750098 2.002730
-4.928418 2.650946
-4.908412 3.514947
-5.156327 3.351829
-4.800178 3.681292
-4.737602 4.264887
-4.352058 3.971632
-4.757362 3.795238
-4.218096 4.841735
-4.471205 3.771095
-3.989092 4.375772
-4.067262 4.883769
-3.860049 4.280394
-3.738537 4.597437
-3.114862 4.123123
-3.124700 4.610014
-2.271306 4.662761
-2.324826 3.989512
-2.418346 5.119829
-1.960976 4.199655
-2.367877 4.186988
-2.044643 3.887558
-1.400312 3.988948
-2.050289 3.947854
-0.912260 3.714389
-1.964500 2.971848
-1.359242 3.850718
-1.643777 3.084048
-0.766840 3.661198
-0.985129 3.431724
-1.002941 2.578724
-1.266314 2.720939
-1.519831 2.829249
-1.188134 2.849791
-1.169544 2.635681
-1.557233 2.719924
-1.314005 2.221974
-1.128276 2.344834
-1.567971 1.727731
-1.302381 1.990126
-1.656311 2.148857
-1.733766 2.287878
-1.821649 2.279588
-2.318453 1.334927
-2.054972 1.727951
-2.132078 0.966174
-1.913373 1.523413
-2.298073 1.492797
-2.757235 1.591853
-2.917674 1.307666
-2.807140 1.111462
-2.997298 1.127616
-2.917499 1.727195
-2.989968 1.499993
-3.064523 1.429802
-4.063457 1.272826
-3.556278 1.646556
-4.028195 1.512017
-3.573218 1.717055
-3.909843 1.998645
-4.214694 2.411004
-4.287476 2.685181
-4.204683 2.483375
-5.061294 2.623361
-4.220597 3.279227
-4.788339 3.125733
-4.646864 3.524990
-4.869017 4.027625
-4.678696 4.137324
-4.786471 3.921075
-4.171131 3.788996
-4.498608 4.200159
-4.155093 4.654527
-4.082993 4.809481
-3.751593 5.208883
-3.608699 4.857353
-3.607017 4.763952
-3.255178 4.799748
-2.954418 5.025567
-3.240172 5.161323
-2.490671 4.745201
-2.902174 5.096913
-2.404035 5.397479
-2.299341 4.945014
-2.413676 5.350988
-2.008549 4.987624
-1.778065 4.904534
-1.724583 4.943774
-1.792712 5.147087
-1.219058 5.118297
-1.697854 4.252810
-1.535035 4.813497
-0.998731 4.298357
-1.216798 5.051463
-1.278231 4.226414
-1.580755 4.129480
-1.321863 3.688270
-1.682965 4.199652
-1.180797 3.768654
-1.686690 4.185220
-1.411577 4.155698
-2.064761 3.989220
-1.518159 3.940955
-1.704479 4.059992
-1.974938 3.534802
-1.877018 3.634407
-2.111051 3.619341
-1.510513 3.733695
-2.149990 3.676532
-1.868447 4.571571
-2.047361 4.230984
-2.101641 4.298349
-1.762635 4.036517
-2.123715 4.072998
-2.100883 4.682267
-1.495029 4.203547
-1.824728 4.768958
-2.158341 5.240401
-1.898108 4.992904
-2.089129 4.339728
-1.812225 4.902361
-1.096997 4.780597
-1.346867 4.806090
-1.104149 5.130253
-1.809616 4.928840
-1.399226 4.411646
-0.812807 4.651521
-1.035032 5.054511
-0.561328 5.004999
-1.123811 4.892572
-0.850650 4.711811
-1.156011 4.925307
-0.980303 4.512415
-0.736929 4.466815
-0.801962 4.167944
-0.740160 5.049638
-1.158263 3.774204
-0.366436 4.442724
-1.236964 3.785092
-0.771139 4.410819
-0.841821 4.046111
-0.636664 4.674243
-0.706459 3.430685
-0.910221 3.533177
-1.277474 4.210026
-0.928629 4.007488
-1.409923 4.311971
-1.116060 4.368954
-0.969790 4.574644
-0.681483 4.863587
-1.098678 4.483904
-1.168061 4.780882
-0.988385 4.350332
-0.968713 4.711631
-1.392908 5.216636
-1.303144 5.179899
-0.934817 5.361234
-0.591244 5.292779
-1.202003 5.388911
0.054086 5.226901
-0.143433 5.001487
-0.262604 5.763548
0.006219 4.955486
0.273277 5.341052
0.488235 6.062295
0.536508 5.801097
0.523151 5.058243
0.543545 5.001332
0.363017 5.734237
1.050683 4.674925
1.137537 4.741290
1.265690 4.802133
1.430806 4.547410
1.424762 5.059013
1.154399 4.348808
1.836932 4.150075
2.324609 3.629739
2.454630 3.861390
2.215218 3.803157
1.650463 3.867055
1.660879 3.043528
1.861111 2.828827
1.913361 2.116637
1.120892 3.114137
1.541605 2.442769
1.768494 2.578506
1.680690 2.336936
1.446294 1.846642
1.216890 1.851278
1.648449 2.147875
0.388002 1.745056
0.892427 1.559067
0.589617 1.620083
0.458506 1.443286
-0.360299 1.098195
0.186071 1.612946
-0.466198 1.574257
-0.795129 1.224454
-0.509297 1.541305
-1.574129 1.496693
-0.691651 1.641448
-1.688559 2.303486
-1.406033 2.162195
-1.340157 2.473346
-1.281151 2.438507
-1.850276 2.611680
-1.771208 3.218677
-1.446345 3.185039
-2.259232 3.662172
-1.373299 3.366681
-1.990005 3.600505
-1.812466 3.627616
-1.791868 4.331119
-1.176675 4.381907
-1.264616 4.640873
-1.862007 5.370762
-1.066192 4.992719
-1.275691 5.556218
-1.235655 5.509141
-0.610862 5.418779
-0.604712 5.723858
-0.171168 5.435386
-0.563298 5.564875
1.098023 5.297581
0.103331 5.953192
1.125747 5.578717
1.025024 5.217573
0.835581 5.261085
1.215779 5.439405
1.590297 5.246541
1.554346 5.179400
1.703459 4.882803
2.520474 4.891629
2.050098 4.731714
2.017909 4.538789
1.798371 4.625348
2.115139 4.288123
2.707302 4.257046
2.695857 3.967315
2.599259 3.666585
2.547770 2.912050
2.320452 3.456339
1.792216 3.017201
2.490753 2.817001
2.005901 2.942429
2.021055 2.997474
2.066368 2.673522
1.622017 2.654690
1.364606 2.508719
1.278573 2.568952
0.999563 2.476996
1.165204 2.063316
0.943270 2.167878
0.652619 2.488498
-0.078280 2.513108
0.325975 2.526303
-0.027043 2.322355
0.184465 2.687398
-0.184293 2.993205
-0.147789 3.105622
-0.554264 3.355970
-0.107917 3.050262
-0.319187 2.976484
0.294160 3.526847
0.051783 3.572159
0.971419 4.257366
0.007205 4.150955
-0.102438 4.233063
0.371500 4.518938
0.768913 4.236101
0.615565 4.796913
1.297404 4.893297
1.203193 5.142525
1.594094 4.849352
1.536449 4.869893
1.368416 4.838223
1.859455 5.115491
2.156563 4.934572
2.728253 5.212213
2.371831 5.033536
2.844554 4.112479
3.253680 4.699464
2.530494 4.443749
3.546025 4.055052
3.378726 4.242385
3.369260 4.088515
3.409734 3.528784
3.233776 3.601690
3.099950 3.970619
3.617074 3.038164
2.891093 3.171871
3.929920 2.793712
3.506966 3.207886
3.890436 2.311616
3.413042 2.625431
3.868240 2.222809
3.155639 2.129297
3.068761 2.032024
3.609749 2.669712
3.273241 1.979108
3.135886 2.544789
3.009200 2.508624
3.456756 1.952729
3.193578 1.889384
2.763560 2.285412
2.944500 1.738647
3.440731 1.437279
3.393294 1.462478
3.048090 1.462117
3.120336 1.103784
2.911699 1.245155
3.512182 0.887960
2.785360 1.201128
3.692541 1.560741
2.492661 1.175940
3.191779 1.135098
2.937363 0.893863
3.539287 0.337288
2.658327 0.610142
2.875505 0.607891
2.934465 0.421549
2.897560 0.603602
2.765048 0.676700
2.607925 0.536654
2.994142 -0.053666
2.820220 0.255611
2.379514 -0.115869
2.280305 -0.238946
1.607623 -0.286403
1.735051 -0.441375
1.760881 -0.390144
2.286133 -0.203593
1.884819 -0.657907
2.022731 -0.373419
1.574051 -0.324349
1.311004 -0.089389
1.127054 -0.062915
1.104237 -0.140852
0.936396 0.049354
0.462449 -0.445046
0.693263 0.082343
0.483120 0.398777
0.440613 0.063839
0.523380 0.186889
0.269073 0.495697
0.228071 0.515169
0.175316 0.560814
0.408808 0.395066
0.473110 0.953260
0.099384 1.043996
0.305358 1.324507
-0.051008 1.184179
0.354334 1.691280
0.596463 1.021435
0.651980 1.683786
0.793420 1.437469
0.887392 1.555864
0.724132 1.573331
0.940334 1.417706
1.177215 1.883696
1.437005 1.579742
1.311599 1.412541
1.313215 1.961698
1.579066 2.266391
1.610843 1.898918
1.904336 1.120327
1.240746 1.375111
2.004573 1.139157
1.804707 1.428188
1.763341 1.578740
1.656776 0.683559
2.238767 1.337997
2.148665 0.740108
2.092346 0.633580
2.142329 0.633822
2.128699 0.392415
2.127104 0.937670
2.311153 0.866859
1.761113 0.638569
2.275957 -0.038841
1.944817 0.518194
1.780206 0.346768
1.861081 -0.012260
1.520145 -0.252383
1.835923 -0.449263
1.937334 0.035562
1.886089 0.398471
1.824762 0.022759
1.421431 -0.212145
1.450857 0.427702
1.460720 -0.563650
1.304238 -0.378939
1.028669 -0.219570
0.810206 -0.553799
0.570165 -0.340400
0.709878 -0.074831
0.447166 -0.153890
0.227594 -0.459116
0.304771 -0.486022
0.377819 -0.109071
-0.042114 0.090184
0.324907 -0.042557
0.074052 0.315683
-0.349938 0.128897
-0.104326 0.028964
-0.349228 0.220871
-0.136818 0.711736
-0.214921 0.442061
0.038212 1.065898
-0.201845 1.163465
-0.436463 1.239617
-0.165221 1.471437
-0.476198 1.675728
0.255142 1.754581
0.112856 1.929598
0.259800 2.056938
0.758447 1.955374
0.936539 1.991811
1.463632 2.143919
1.122461 1.645148
1.329073 2.352312
1.250043 2.116885
1.621652 2.377062
1.710104 2.185135
2.160986 2.470079
2.500419 1.642633
2.565896 2.189156
2.890957 2.011674
2.932536 1.899319
3.019563 1.281816
2.946212 1.003233
3.042681 0.048286
2.863605 1.170044
3.365846 -0.230557
3.239609 -0.058314
3.432511 -0.124861
3.192196 0.012287
3.032988 -0.881037
2.921113 -1.182343
3.161496 -1.090555
3.403543 -0.978262
3.220117 -1.953511
2.682210 -1.983998
2.396090 -2.297821
2.316057 -1.771929
1.855731 -3.086257
2.198857 -2.559794
1.595296 -2.746087
1.931125 -2.929139
1.256383 -2.421094
0.664793 -2.427668
0.191581 -2.738707
0.983122 -2.548770
0.452342 -2.926049
-0.103030 -2.516860
-0.489234 -2.039618
0.161803 -2.193468
-0.942740 -2.519045
-1.303747 -2.325822
-0.898829 -2.746136
-1.392076 -2.026859
-1.692804 -1.632532
-1.025534 -1.695176
-1.383218 -1.186916
-1.657257 -1.349174
-1.496538 -0.839159
-1.117300 -1.168592
-1.602482 -1.047488
-1.032135 -1.191942
-1.536300 -1.106838
-0.882679 -0.755739
-1.691297 -0.608526
-0.883550 0.245331
-1.291971 -0.361098
-1.143597 -0.576327
-1.028597 -0.181618
-1.344214 -0.422765
-0.769554 -0.459305
-0.594334 -0.421964
-1.106865 0.349926
-0.729872 -0.214015
-1.068938 -0.135960
-1.221591 -0.302358
-0.988122 -0.863964
-0.490014 -0.374980
-1.266810 -0.666859
-0.897387 0.007619
-1.271716 -0.606485
-1.118688 -0.134448
-0.939232 -0.761375
-0.970715 -0.144093
-1.352638 0.040632
-1.173085 -0.754873
-1.581785 -0.154291
-0.832348 0.016950
-1.387420 -0.057002
-0.891592 -0.803218
-1.361114 -0.675363
-1.235470 0.183771
-1.326296 0.017891
-1.599889 0.237443
-1.307438 0.359466
-1.175267 -0.195035
-1.014850 0.560145
-0.977567 0.147767
-1.392189 0.033774
-0.906853 -0.144061
-1.844023 -0.240054
-1.360224 0.156187
-1.163462 0.729525
-0.793690 0.168219
-1.058115 0.405347
-0.816173 0.467006
-0.976246 0.494127
-1.309466 0.165670
-0.361926 0.251396
-0.474721 0.270562
-1.250882 0.793758
-0.990503 0.052984
-0.933435 0.627832
-0.396722 0.316103
-1.058305 -0.313258
-0.886932 -0.327355
-0.977021 -0.100181
-1.145869 -0.114182
-1.434408 -0.048437
-1.227985 -0.317953
-0.751156 0.140755
-0.805771 -0.119011
-0.496169 0.086256
-0.865914 -0.256540
-1.440023 -0.000085
-0.881936 -0.210669
-1.594629 -0.183777
-1.221091 -0.506774
-0.593749 -0.854765
-1.242707 -0.545515
-1.671356 -0.214433
-1.069428 -0.378948
-1.886926 -0.218515
-1.500767 -0.452928
-1.686573 -0.255750
-1.753699 -1.255872
-1.808366 -0.172038
-2.133373 -0.419110
-2.388022 -0.498956
-2.201145 -0.448919
-1.965162 0.002005
-2.092518 -0.334795
-2.336758 -0.046472
-2.331582 -0.119670
-2.474606 -0.283495
-2.763258 -0.204739
-2.372903 0.175970
-2.824029 -0.043282
-2.541409 0.264636
-2.392676 0.012036
-2.661425 0.728287
-2.809165 0.295876
-2.738343 0.803261
-2.908467 1.354731
-2.839622 0.764254
-2.852933 0.941169
-2.597518 0.955641
-2.667663 1.155297
-2.375830 1.484176
-2.226126 0.919664
-2.599975 1.804778
-2.059957 1.064214
-2.364204 1.046063
-1.977125 1.617050
-2.088531 1.521646
-1.789010 1.588976
-1.793909 1.548545
-1.321574 1.928326
-1.434296 1.622980
-1.798758 1.100072
-1.419606 1.161362
-1.670181 1.166878
-1.331663 1.547037
-1.468364 1.323836
-1.556184 1.695707
-1.042042 0.828493
-1.328311 0.711092
-1.314798 0.368306
-1.366329 1.021350
-1.294873 0.365105
-1.659100 0.353635
-1.945666 0.030257
-1.631079 0.049691
-2.061946 0.052247
-2.104137 -0.318454
-2.525158 -0.583271
-2.568527 -0.116386
-3.330059 -0.295615
-3.214052 0.184364
-2.969784 -0.041690
-3.623960 0.225044
-3.458070 -0.037668
-3.517773 0.750711
-4.342169 -0.233447
-3.928286 0.541149
-4.190075 0.232820
-4.268869 0.727952
-4.818299 0.988242
-5.033412 0.780476
-5.184742 1.400842
-4.934343 1.279025
-4.674035 2.029695
-4.944119 2.314276
-4.573819 2.421635
-4.854385 2.898202
-5.147038 3.174600
-4.944001 3.070364
-4.355615 3.454084
-4.285265 4.004931
-4.666075 4.270799
-4.351408 4.721144
-3.929171 4.464519
-3.601618 4.847961
-3.668822 4.880251
-3.108823 5.094942
-3.140965 5.342909
-2.733461 5.149778
-2.788650 5.042681
-2.324247 5.501102
-2.014778 5.415185
-1.833751 5.085398
-1.783396 5.524094
-1.360067 5.399419
-1.368457 5.440115
-1.193454 5.473867
-0.581497 4.975165
-0.321900 5.037578
-0.624119 4.712185
-0.489342 5.071778
-0.247034 4.831597
-0.450239 4.199560
-0.288073 3.761065
0.192704 4.569415
-0.014472 4.009478
0.607496 3.800412
-0.084590 3.860119
0.023332 3.685385
0.184626 3.221333
0.474041 3.095332
0.318521 2.929989
0.555103 3.082189
0.170533 3.074588
0.144949 2.425832
-0.176074 2.482615
0.243483 2.288793
0.165333 2.706747
0.228393 2.429548
-0.133249 2.456584
0.213308 2.540938
-0.393650 2.151413
-0.471381 2.214248
-0.528671 1.628300
-0.393415 1.737075
-0.315379 2.475180
-0.405158 1.655674
-0.847152 1.629726
-0.668343 1.602223
-1.457923 2.325162
-0.805088 1.981367
-1.305541 1.825351
-0.945003 2.015341
-1.481967 1.365959
-1.130222 1.928802
-1.986111 1.865153
-1.625735 2.342184
-2.065959 1.165678
-1.921389 1.712580
-1.891291 1.697852
-2.366600 2.116702
-2.085769 1.899385
-1.603682 2.434738
-2.636854 2.443769
-2.884745 2.419097
-2.742954 2.646700
-2.549687 2.778762
-2.709526 3.205714
-2.501315 2.992453
-2.424682 3.169996
-2.765433 3.247088
-2.856653 3.219374
-2.987363 3.358645
-2.644063 3.602640
-2.655827 3.845661
-2.737212 3.938868
-2.719192 4.416394
-3.097246 4.229284
-2.545136 4.452947
-3.139155 4.724801
-2.551186 4.937211
-2.684007 4.984843
-2.546558 4.995568
-2.567199 5.010807
-2.100715 4.829795
-1.949951 5.148156
-2.026328 4.997033
-1.891387 5.323692
-1.370093 5.301275
-1.482417 5.649889
-1.345951 5.666215
-0.893722 5.540792
-0.724706 6.078031
-1.315240 5.827472
-1.009630 5.390270
-1.174228 5.697916
-0.262957 5.820070
-0.887010 5.890063
-0.368687 5.315635
-0.166696 5.506799
-0.474415 5.160891
-0.345753 6.382402
-0.480836 5.658098
0.021812 5.757254
0.443796 5.247278
-0.353948 5.825227
0.123693 5.374099
0.368928 5.781348
0.251106 5.371277
0.193720 5.196139
0.701109 5.067107
0.119494 5.188884
0.698051 5.110692
0.294102 4.667049
0.441230 4.734190
0.093238 5.274218
0.450794 4.855541
0.409678 4.867613
1.021899 4.638165
0.307110 5.122117
0.699644 4.212112
0.235255 4.947310
-0.174619 4.332576
0.204341 4.759540
0.034764 4.363191
0.124319 4.448613
0.194734 4.717884
0.169637 4.840820
-0.036810 4.491525
0.418498 4.696861
-0.084820 4.832906
-0.538226 5.329908
-0.736033 5.242316
-0.648381 5.298526
-0.956842 5.244645
-0.845217 5.815316
-0.763167 6.098957
-0.927719 5.848967
-1.075480 6.160124
-0.830764 6.556210
-0.494223 6.631164
-0.635862 6.919936
-0.163327 7.402913
-0.297496 7.930433
-0.153406 7.817072
0.090810 7.795580
0.769092 8.115754
0.978955 8.150817
1.502651 8.114638
1.873475 8.957330
1.960620 8.707553
1.956855 8.768244
3.023090 9.087383
3.539135 8.572151
4.155409 9.057148
4.263885 8.137928
4.997669 8.352678
4.275677 7.906719
5.700291 7.674299
5.516955 7.928732
6.088526 7.195532
7.037362 7.439591
7.647385 6.656903
7.192548 6.506218
7.404175 5.618592
7.854597 4.886431
8.017357 5.074137
7.802858 4.175629
7.642519 3.921958
7.861143 3.490550
7.600079 2.661324
8.196126 2.061877
7.762750 1.571349
7.352891 1.603268
7.050664 0.938335
6.640033 0.393265
6.642135 -0.280798
6.598152 -0.252881
5.875854 -0.769794
5.439447 -0.513782
5.060324 -1.274606
4.605763 -1.362214
3.812165 -1.281575
3.732125 -1.745514
3.479365 -1.917628
2.865420 -1.508718
2.408232 -1.378289
2.301284 -1.237238
1.847332 -1.492972
0.948868 -1.272585
0.903180 -1.404724
0.272160 -0.602389
0.227889 0.039427
0.189953 0.202667
-0.795542 0.073518
-0.811908 0.739528
-0.551186 0.848961
-1.404577 1.395073
-0.662330 1.551924
-0.995620 2.645242
-0.873888 2.500867
-0.750504 2.655833
-0.945926 3.199387
-0.019576 3.706875
-0.515982 3.301618
-0.795138 3.966509
-0.268627 4.291602
0.188001 4.561951
-0.302363 4.426500
0.199342 5.059737
0.528006 5.091389
0.739861 5.095439
1.890811 5.114472
1.859746 4.924293
2.041250 5.250857
2.171908 4.508665
2.452008 5.148730
2.857003 5.233460
3.199992 5.198080
3.032070 4.871139
3.522241 4.733146
3.428632 4.611293
2.842811 4.917639
3.750796 4.448474
4.086072 4.294378
4.298449 4.438713
3.751835 3.873130
4.050253 4.018078
4.201536 3.361907
3.988900 3.466690
4.265276 3.525597
4.542422 3.367292
4.035233 3.344884
4.190251 2.932705
3.939135 2.488442
4.477372 2.251019
3.977424 2.459092
4.050148 2.193770
3.405152 2.529261
3.958261 2.425225
4.235199 1.650979
3.630677 1.829627
3.125718 1.950139
3.394835 2.253626
3.322298 1.628698
3.341950 1.723542
2.915887 2.127885
3.216001 1.828509
2.831029 1.823077
3.164805 1.730873
2.760621 2.313738
2.633268 2.053492
2.557010 2.277448
2.624491 1.772079
2.444321 2.342645
2.127783 2.539908
2.281184 2.568405
2.814635 2.680448
2.055519 2.725344
2.582673 3.203135
2.920473 3.274027
2.489417 3.149330
2.185032 3.561961
2.413551 4.199983
2.547378 4.019942
2.992688 4.023675
3.206961 3.592696
2.966339 4.080329
3.202982 3.861708
3.302370 3.526702
3.379543 3.791080
4.359327 4.210101
3.814049 4.561156
4.655679 4.398938
4.631155 3.776042
4.481308 4.043319
5.269677 4.236529
4.964897 4.135932
5.181283 4.093150
5.914788 3.846686
5.536904 3.500625
6.276793 3.507312
6.138526 2.886398
6.901531 3.359860
6.573993 2.936780
6.673601 2.352192
6.894814 2.900523
7.108605 1.928346
7.084171 2.068899
7.309069 1.558044
7.424878 1.126352
7.388866 1.231881
7.253857 1.035941
7.322263 0.540863
7.518024 0.263292
7.258441 -0.335485
8.005020 0.050013
7.661583 -0.478213
6.876595 -0.733703
6.816829 -1.002486
7.079558 -1.820160
6.982595 -2.170728
6.833039 -2.206618
6.074511 -2.438777
6.596288 -2.634831
6.174913 -2.837305
5.922683 -3.221381
5.913425 -3.269855
5.344892 -3.238515
5.812151 -3.166228
4.948603 -3.789439
4.788639 -3.690498
4.795758 -4.258421
3.671638 -4.405574
4.217049 -4.426948
3.209040 -4.413612
3.210759 -4.442085
2.986440 -4.510369
2.282801 -4.535971
2.165135 -4.280926
1.563603 -4.179867
1.781357 -4.380376
0.903063 -3.891826
1.088201 -4.206437
0.691999 -3.868141
0.494004 -4.231757
0.104260 -3.144076
-0.413488 -3.145324
-1.033192 -2.966604
-0.853305 -2.626837
-0.926598 -2.411077
-1.510304 -2.411131
-1.594755 -1.432190
-1.555882 -1.864119
-1.308875 -1.142183
-2.122927 -1.173294
-1.782947 -0.353323
-1.900177 -0.568814
-1.543250 0.709166
-0.885578 0.449159
-1.456876 1.343590
-1.261882 1.280676
-1.047900 1.246811
-1.117393 2.196497
-0.442793 2.363006
-0.304209 2.400104
0.310786 2.572532
0.315061 2.984077
0.821979 2.793576
1.139843 2.949107
1.235038 2.844021
1.224106 2.874205
2.121608 2.792124
2.225140 2.860526
1.812832 3.389577
2.290093 2.747278
3.160896 2.933958
3.160512 2.459494
3.025149 2.608918
4.149635 1.847796
4.238557 1.414373
3.823564 1.701782
4.032871 1.129280
4.059636 0.546771
3.943075 0.412181
4.188190 0.518739
4.798877 -0.013048
4.160379 -0.308329
4.445135 -0.226378
3.913590 -0.627737
4.572481 -1.170222
3.637334 -1.543704
3.650549 -1.501415
3.633700 -1.724035
3.604158 -1.451854
3.188798 -1.137343
2.696938 -1.633957
3.097359 -1.894891
2.572657 -1.767470
2.413009 -2.137823
2.075826 -1.726565
1.915955 -1.865202
1.889292 -1.809815
1.466496 -1.946205
1.517354 -1.510198
1.249570 -1.815952
1.100463 -1.093715
1.335151 -1.926908
0.967879 -1.285688
1.253527 -0.892344
0.887612 -1.497547
0.307116 -0.435781
0.509884 -0.524173
0.296259 -0.512234
0.251329 -0.176945
0.339697 -0.612473
0.444801 -0.288769
0.461743 0.097972
0.897845 -0.415086
0.241112 0.135149
1.206067 0.051100
0.752416 0.508609
1.287390 0.270808
1.253506 0.564360
1.303975 0.375959
1.407162 0.674760
1.447325 1.076292
1.549369 0.270635
1.321977 0.301035
1.712139 0.425344
1.888430 0.465980
1.765767 0.866412
1.488956 0.076724
2.331544 0.857011
2.646261 0.709638
1.899590 -0.041548
2.944926 0.157862
2.295966 -0.133659
2.734680 -0.893886
2.682821 -0.075284
2.560764 -0.300762
2.969846 -0.595357
3.263623 -1.214466
2.390448 -0.523943
3.087947 -1.103643
3.256426 -1.560553
2.958395 -1.752805
2.470335 -1.946070
2.861152 -1.872743
1.971045 -2.504420
2.357212 -2.694045
1.933415 -3.256366
2.153919 -2.864713
1.948359 -2.936854
1.748780 -3.229948
1.393258 -2.822596
1.707083 -3.602302
0.869386 -3.507936
0.780100 -3.852356
-0.529304 -3.419425
0.317822 -3.422235
-0.391616 -3.155982
-1.042313 -3.299515
-0.922287 -3.475914
-1.222608 -3.505273
-1.786841 -3.317566
-2.076782 -2.392381
-2.615435 -2.563460
-2.313114 -2.466725
-2.389325 -2.092297
-2.529308 -2.208016
-2.711658 -0.778942
-2.420299 -1.244076
-3.454347 -1.386320
-2.950553 -1.255289
-3.145284 -0.700650
-3.157939 -0.069834
-2.800694 -0.004052
-2.848998 0.406915
-2.819176 1.323363
-2.163838 0.612813
-2.047111 0.830048
-2.043839 1.291611
-2.279019 1.335962
-1.525645 1.976549
-2.122430 2.326748
-1.430133 1.623897
-1.872926 2.359799
-0.851529 1.960853
-0.880638 2.045848
-0.120024 2.289817
-0.760540 2.487330
-0.097330 1.763071
0.176333 1.338634
-0.203021 1.497290
-0.149551 1.481523
-0.041642 1.646066
-0.620492 1.874633
-0.110828 1.449551
0.667032 1.122538
-0.280064 0.466162
0.201367 1.240031
0.318840 0.823156
0.258666 0.565092
-0.070040 0.650177
-0.652843 0.357056
-0.370162 0.322144
-0.029313 0.469948
-0.416637 0.620001
-0.683742 0.959649
-0.021551 0.241866
-0.357050 1.431286
-0.009573 0.966200
-0.984629 1.437103
-0.608273 1.377440
-0.877715 1.939312
-0.885106 1.856177
-0.612335 1.995888
-0.890051 1.344556
-0.970468 2.110410
-0.354230 2.280674
-0.255429 2.283525
-0.305928 2.193775
-0.247838 2.508674
-0.048453 2.348820
0.528551 2.747389
0.271763 2.621793
0.368152 2.536756
0.972677 1.911056
0.576967 2.276595
1.211302 1.828077
1.545774 2.052427
1.300908 2.072089
0.731649 2.233895
1.659028 1.870230
1.667306 2.060226
1.621714 1.070635
1.187642 0.509067
1.711143 1.026684
1.719087 1.041263
1.730916 0.188065
1.509999 -0.371900
1.209740 -0.061208
1.033008 0.125217
0.474362 -0.862109
0.803201 -0.152707
0.406525 -1.001611
0.974694 -0.358436
-0.092198 -0.783389
0.349250 -0.463665
-0.084981 -0.537624
-0.994889 -0.411112
-1.084814 0.112729
-1.543704 0.219382
-1.135060 0.193832
-1.270409 -0.342800
-2.301400 0.221601
-1.776487 1.157664
-2.536066 0.510770
-2.931797 1.442190
-2.740934 1.093675
-2.652916 1.595498
-2.576898 1.518910
-2.129895 2.465082
-2.307978 2.009257
-2.100170 2.348740
-2.008154 2.324185
-1.974474 3.043069
-2.709902 3.273926
-1.286916 3.303456
-1.750083 3.916966
-1.128565 4.504455
-1.282807 3.274903
-0.726536 4.316079
-0.949121 4.339852
-0.895754 4.251919
0.408633 4.177052
-0.372279 4.843799
-0.164097 4.337695
0.794608 4.200630
0.172795 4.403482
0.798098 4.179169
1.375301 4.437014
1.846740 3.996950
0.973763 3.361344
1.559555 2.956821
1.876038 3.430804
1.628239 3.381294
1.339105 2.825006
2.023947 3.441843
1.542898 2.558598
1.722947 1.807684
1.180117 1.970835
1.716297 1.922007
1.583679 1.767332
1.567162 1.639040
1.202384 1.562329
1.275535 1.572372
0.913027 1.207237
1.080548 1.166514
0.869757 1.360249
0.379075 1.128795
0.268273 1.444470
0.145726 1.145331
0.292242 0.476035
0.023863 0.919936
-0.336890 1.843291
-0.018486 1.521084
-0.790394 1.909802
-0.943359 1.838384
-1.228413 1.886898
-0.950836 2.451602
-1.239007 2.241799
-1.463196 2.671100
-1.495055 3.244653
-1.617988 4.054211
-1.496752 3.673844
-1.331366 3.318642
-1.474936 4.212319
-0.890232 4.497428
-0.785157 4.261666
-0.739193 4.839653
-1.293289 5.201659
-0.830876 5.632968
-0.840783 5.437212
-0.548467 6.044657
0.060069 6.007498
0.283847 6.127045
0.216427 6.070311
1.183346 5.690859
1.769501 6.095749
1.500492 6.564278
1.929673 6.342278
2.796336 6.457435
2.712840 6.163319
2.494256 5.591968
3.720023 6.604683
4.591564 6.114837
3.707914 6.388028
4.408412 5.949517
4.236613 5.667001
4.046932 5.381645
3.962594 4.169635
4.420781 4.700139
4.430005 5.070677
4.609928 4.882114
4.994787 4.142292
4.926762 4.337224
4.309700 4.368471
5.618097 2.946865
4.940851 3.317249
5.315661 3.555476
4.695089 3.460188
4.539801 2.799314
3.935921 2.801576
4.758322 2.629749
4.380236 2.745190
4.444003 2.626076
3.911230 2.251613
4.383156 1.751664
4.451862 1.890221
4.704065 2.029584
4.536360 2.013830
4.333295 2.682886
4.286080 1.723234
3.926325 2.727629
3.972294 1.841424
3.868128 2.891919
3.593595 2.013689
4.450574 2.541195
3.515564 2.972785
4.168643 2.207255
3.930101 2.784229
4.889698 2.373681
4.127046 2.137170
4.524682 1.964461
4.599231 2.313526
4.137755 1.610393
4.064499 2.022034
4.600042 1.733550
4.276767 2.021779
4.794264 1.219667
4.273523 1.543757
3.935886 1.932464
4.191701 2.272376
4.294928 0.734419
4.357727 1.259068
4.538075 1.082598
4.192436 0.606366
3.496075 0.804500
3.687013 0.880283
4.000670 0.832409
3.768957 0.982243
3.947788 0.504135
3.309601 0.668505
3.852859 0.600702
3.047058 0.474952
3.576514 0.655013
3.751681 0.670698
2.842039 0.697328
3.576182 1.213327
2.931397 1.203805
3.006207 1.404622
2.640454 1.001314
2.445721 1.604422
1.718334 1.272440
2.757441 1.929018
2.908187 1.227024
3.186357 1.867446
2.206952 1.633210
3.023573 1.979219
3.132561 2.027240
2.855406 2.033551
3.345264 2.463084
3.271326 2.382360
3.265876 2.295897
3.661007 2.877699
4.070663 2.040941
3.555740 2.193095
4.164632 1.651771
3.858950 2.284186
4.259580 1.763965
4.435809 1.095732
4.448294 1.237763
5.021404 2.281116
5.041365 1.712647
4.451711 1.831398
4.944799 1.120614
4.606818 1.140364
4.159978 0.458395
4.640611 1.728201
4.873026 0.858506
4.993661 0.828077
4.439268 0.673809
4.540630 0.256934
3.904512 0.287014
3.696083 0.241825
3.739599 0.968607
3.586151 0.877748
3.740588 0.629564
3.088503 1.029798
3.872504 0.441827
2.753970 -0.122396
3.189437 0.009076
2.712461 0.270201
2.953453 0.875682
2.971014 0.887401
3.358068 0.576228
3.779181 1.189464
3.221631 1.137637
3.869436 0.836805
2.971118 1.241273
3.820040 1.286014
3.082590 0.843362
3.793519 2.126459
2.911967 1.446554
2.754258 1.349665
4.175169 1.472857
3.822075 2.350451
3.363419 1.611732
4.483155 1.671041
4.747877 1.843898
4.370489 2.315829
3.870168 1.902299
4.857667 2.215852
4.017387 1.455108
4.326707 1.435413
4.966103 2.268381
4.173425 1.648571
4.456720 1.255964
4.488032 1.414908
5.212097 1.239668
4.393665 0.851923
4.514230 0.184105
4.743082 2.212303
4.886478 1.568069
5.314155 1.077560
5.525903 0.888195
5.003633 1.854749
4.971975 0.711772
6.131878 1.204036
5.090998 1.040159
5.560765 1.616082
5.425027 0.949730
5.663995 1.522832
6.121186 1.149551
6.827386 1.286450
6.750855 0.310519
6.336895 1.269249
7.087783 0.453140
7.323483 0.252546
6.635655 0.447989
6.676723 0.186140
7.228807 -0.365747
7.465814 -0.098504
7.254185 -0.989300
7.600333 -1.566667
7.379293 -1.306983
7.696537 -2.765374
6.748290 -1.785336
7.652502 -2.244895
6.969733 -3.162537
6.944248 -2.860201
6.594373 -3.019260
6.938675 -3.421991
6.019843 -3.639931
5.785002 -3.354841
5.390807 -4.424198
6.169347 -4.388203
5.338810 -4.203249
4.332100 -4.716212
3.705580 -5.019268
4.630619 -5.435824
3.306331 -4.577032
2.725672 -4.844370
3.449569 -4.179005
2.679036 -4.228029
2.488630 -4.179017
2.585140 -3.659667
1.590190 -3.632560
1.687776 -3.252381
1.695635 -2.512105
1.195200 -2.627278
0.933769 -3.162339
0.832531 -1.637302
0.603023 -2.016816
0.305744 -1.389214
0.880441 -1.446420
1.565793 -0.689193
1.473707 -0.560530
1.493156 -0.109844
1.006945 0.132311
1.860126 -0.230460
2.295128 0.098436
2.284469 0.165477
2.189678 0.313297
2.341009 0.332339
3.221263 0.212683
3.426166 -0.089055
3.806412 0.832646
4.285013 0.609228
3.765681 -0.671430
4.114327 0.191310
4.615676 -0.400756
4.704285 -0.228262
3.474780 -1.892464
3.753160 -1.031452
5.045398 -1.544021
5.527006 -1.738294
4.350079 -1.571820
4.593208 -1.403826
5.013046 -1.679237
4.709959 -2.566518
4.228960 -2.711825
4.622900 -2.866803
2.930870 -2.639914
4.184447 -2.704152
4.082305 -2.943062
3.656895 -2.715325
3.122336 -3.533879
3.092450 -3.048298
2.392773 -3.488207
3.246819 -3.702649
2.408309 -3.023505
1.891560 -2.602704
2.174328 -3.248536
2.137570 -2.265579
1.838983 -2.310051
2.274163 -2.275760
1.576117 -2.384404
1.377662 -2.730282
2.652273 -2.549760
2.364143 -1.038139
2.399813 -1.581555
2.775012 -2.632343
1.818078 -1.668731
3.085378 -1.644654
3.288363 -2.140103
4.167622 -2.363481
3.836557 -0.688647
2.845051 -1.685659
3.539526 -3.176098
3.723891 -2.812882
3.149242 -2.163983
2.520780 -3.458046
3.748929 -2.149624
3.623929 -2.757544
2.764761 -2.615402
3.357784 -2.797983
2.264572 -3.330535
3.418796 -3.437172
2.092230 -3.600364
2.866315 -4.386199
1.750620 -4.256384
2.748496 -3.585526
1.090061 -3.271858
2.209565 -3.118700
1.219525 -4.219140
1.554716 -4.768671
0.329332 -3.742935
0.994788 -4.151726
0.531974 -3.196771
0.700548 -3.882500
0.505580 -3.112137
0.301298 -3.704138
-0.343369 -2.472498
-0.344855 -2.634806
0.280924 -1.841449
-0.805525 -2.580012
0.202566 -1.612080
-0.253346 -1.522392
-0.344125 -0.372472
-0.715803 -1.337332
-0.945929 0.428193
-0.857708 -0.304398
-0.259372 1.048047
0.170343 0.893526
0.973618 1.851560
0.235671 0.090626
0.481695 1.739462
1.347275 1.288031
2.829771 0.396727
2.488087 1.344885
3.019013 1.365287
3.611506 2.091740
3.473276 1.316332
4.341791 1.557356
5.618878 1.611452
5.139277 0.825500
5.107064 0.227044
4.972076 1.185557
6.430473 -0.065325
5.334320 -0.410539
6.517190 -1.407802
6.447521 -1.619779
7.448031 -3.320087
7.460876 -3.383994
7.952041 -4.185282
7.392957 -4.944750
6.631698 -4.230209
7.524428 -5.566920
6.927997 -5.105770
6.171906 -7.196034
4.954590 -7.267110
5.566278 -7.777208
4.658612 -7.228948
4.632964 -8.865175
3.624373 -8.641038
2.592424 -8.959708
1.958158 -8.638485
0.983158 -10.060400
0.454452 -8.759569
0.056417 -9.839220
-1.064405 -9.120995
-1.828636 -8.515438
-2.840302 -8.504167
-2.313304 -8.708616
-3.718978 -7.792801
-3.701284 -8.476992
-3.926135 -5.750018
-5.204798 -5.686498
-5.694616 -5.260934
-5.531285 -3.988351
-7.290012 -2.716420
-6.381867 -2.777201
-4.659376 -1.421271
-6.248965 -1.294461
-6.218394 0.027882
-7.046559 0.182410
-5.410101 1.259952
-5.275677 2.158771
-4.458609 3.844691
-4.125947 2.808180
-4.349634 4.966642
-2.952372 5.245616
-0.820842 6.475509
-1.297091 5.268571
-0.323461 6.157633
0.360988 6.671718
1.678026 5.968905
2.237728 5.983668
2.950263 7.403529
4.384431 4.882113
5.181509 5.813223
5.680719 3.363198
5.710773 5.355737
6.891296 3.678993
9.510581 3.145889
8.357131 2.906787
8.550077 1.465413
9.039092 0.654454
10.196804 -0.864023
10.705491 -2.594486
8.338644 -3.452294
10.447753 -3.835587
10.185096 -4.654449
9.941722 -7.453579
9.068198 -5.675671
8.629979 -7.475239
7.581129 -8.368866
6.144154 -10.067244
6.020781 -10.322728
6.528691 -11.279805
3.989327 -9.843184
2.443813 -9.208419
3.132411 -10.238922
1.119921 -10.401142
-0.837861 -12.475130
0.363155 -9.828702
-1.816266 -9.224722
-2.536220 -10.851179
-3.569849 -10.668002
-4.814376 -9.187082
-5.088289 -9.273147
-7.469742 -8.336981
-4.222830 -8.452739
-6.284810 -7.423908
-4.296865 -7.993549
-8.313962 -7.642345
-5.629237 -5.518739
-6.726842 -4.844080
-6.976945 -5.512663
-8.904061 -3.421020
-6.854536 -2.007657
-6.882476 -2.525056
-5.599108 -2.405011
-7.361677 -1.670872
-6.940387 -1.062709
-5.886920 -0.771142
-5.822853 0.769351
-6.256108 -0.245980
-5.699690 -1.386053
-5.466434 2.370324
-5.887835 1.855895
-2.615485 3.566520
-3.972504 3.437048
-1.969050 4.346094
-4.230685 1.988512
-1.929853 3.356320
-1.849520 2.948693
-1.167442 3.235391
-1.164406 1.759705
-1.099234 2.948795
-1.462858 1.935733
0.644342 3.795290
0.460710 3.011843
-0.015317 1.626842
1.550891 3.062181
-0.984660 1.762040
0.352898 1.191120
1.421819 1.550986
1.858250 3.036527
2.656858 0.053841
3.036831 1.467917
2.911297 0.451160
2.995676 1.775405
2.995990 -0.002669
3.485839 -0.695538
5.307566 -1.748105
4.309458 -0.593154
4.360754 -3.122107
3.715602 -3.171719
3.494013 -0.992012
2.146052 -4.319125
4.587464 -3.225450
3.963707 -2.414232
2.166229 -3.525499
0.871413 -5.972694
0.917612 -5.281178
1.655831 -6.527919
0.655937 -5.143491
-0.860941 -6.810329
-1.804917 -6.917849
-3.245671 -6.303581
-0.682033 -8.183192
-3.367792 -9.105875
-3.944250 -8.759461
-4.579718 -9.348929
-2.616877 -5.990188
-6.740346 -9.476706
-6.196579 -8.662242
-10.475599 -8.677980
-7.144840 -5.224442
-8.663798 -6.246372
-10.226520 -5.867968
-9.585259 -8.089536
-10.233732 -3.106030
-11.039373 -5.428653
-11.187869 -4.809359
-11.871323 -0.593708
-13.067993 -2.298406
-11.927199 1.023755
-12.312748 1.350338
-10.533194 3.068592
-12.165726 2.793198
-12.033791 3.839681
-10.284324 4.840661
-8.449873 4.977270
-10.096406 6.501429
-11.197020 6.941877
-8.660411 4.988795
-4.741973 8.855491
-8.658521 12.397885
-4.078715 10.868072
-3.828493 11.093219
-5.456190 7.990255
-5.271006 8.135017
-0.094750 11.696051
-1.386576 10.639843
2.326905 8.703096
0.761222 10.249521
1.689531 9.317224
1.473824 8.779823
4.019562 9.000037
4.735831 7.620831
0.367389 4.377694
-0.394815 4.176327
4.779486 5.339917
2.690773 5.220420
4.050729 4.206821
3.932578 5.019757
3.849888 1.727451
5.600570 3.349464
6.870372 4.679258
5.481310 0.865113
4.175763 -2.318832
2.521091 0.937670
6.201367 -0.978989
3.946509 -2.431890
8.217436 0.051220
1.124520 2.254505
1.568706 -5.734146
3.889400 -6.354735
1.850775 -2.166037
0.479143 -1.076200
3.502904 -3.293789
3.016191 -7.039885
-3.974011 -2.430223
0.937576 -2.548316
-1.604712 -3.290760
-1.354778 -4.181014
-1.901787 -5.433691
-2.700924 -6.621415
-3.881074 -5.197627
-2.566138 -2.672790
-10.594011 -4.499339
-4.868506 -3.728664
-1.831454 -2.562299
-7.145607 -6.831073
-4.710854 -3.635087
-7.211370 -2.403036
-9.315284 0.145651
-4.832964 -1.725820
-7.487078 3.965553
-7.278453 2.257465
-6.098268 -4.959527
-11.124777 0.771257
-6.749637 2.000721
-8.367959 2.228789
-10.117318 0.349636
-10.178886 1.354321
-9.091437 5.644504
-9.122896 4.855398
-11.266092 4.426350
-5.484666 5.919191
-0.944683 5.781636
-9.737105 8.793531
-5.214142 9.690418
-6.715196 9.491547
-6.261503 7.182154
-4.422669 14.228204
-8.458913 12.672781
2.522800 11.486299
2.758719 8.280825
-3.009041 8.805414
-2.422324 6.487229
-2.920638 14.616188
0.820964 15.150491
1.903058 7.253493
-2.275615 8.127242
5.663832 7.454616
11.769440 9.401962
6.915438 4.197863
6.048023 10.617206
12.216733 8.612905
9.907808 3.573494
8.306348 2.287005
15.403283 5.092950
14.064035 1.849176
3.824575 -7.625587
12.818781 -7.614714
7.012395 0.530892
9.337040 -2.607830
8.681112 3.459387
18.228907 -11.706813
20.594931 2.853574
7.519212 -7.534654
11.719407 -16.626117
9.777192 -3.385651
7.324667 -15.441208
11.646409 -16.434550
-5.077529 -20.525617
-5.987988 -12.974241
-9.447838 -14.268162
1.586365 -6.524732
-9.843322 -17.699588
-12.624918 -27.680412
-9.392259 -12.170166
-13.119323 -23.211473
-16.689292 -16.667892
-15.820465 -20.023272
-20.692361 -18.317970
-18.083429 -19.945145
-26.391802 -6.765095
-25.186576 -21.324947
-32.513900 -7.591888
-29.221432 -15.024386
-22.550430 -18.924469
-19.998245 -12.929304
-33.027777 -4.837372
-29.701837 -3.758995
-40.218118 -5.866021
-27.671442 -3.158445
-34.849625 3.315232
-31.525581 -1.153269
-37.430750 -5.660426
-14.738703 6.616295
-35.194061 8.580689
-19.522848 16.676974
-38.397502 14.597796
-28.924075 11.482489
-28.639777 16.609588
-19.461921 21.097157
-24.468650 18.606636
-25.052754 25.428925
-31.513268 22.413044
-28.561518 14.939269
-20.652055 21.173874
-21.176059 17.586340
-20.238854 34.538253
-13.682587 14.026641
-18.708145 30.245524
-7.936763 30.540038
-15.447469 33.996294
-18.709760 34.470363
-11.058465 30.357805
-10.405546 26.622423
-7.352786 19.521556
-21.898801 19.754898
-7.195680 23.025409
-19.323314 23.773888
-11.908929 25.088762
-6.577233 24.999403
-17.935958 20.411923
-1.181324 22.959325
-17.989555 23.812282
-18.081141 21.687833
-10.992683 23.347412
-23.747834 24.004969
-21.507832 39.453453
-11.180094 30.081855
-21.453046 24.813854
-23.883442 24.186943
-34.236226 7.773950
-23.572607 32.117987
-27.270013 47.686455
-26.359408 14.638400
-13.945175 46.905199
-28.186499 28.926067
-23.890470 36.514434
-24.704291 41.683512
-19.028129 50.818237
-21.261702 51.513375
-24.221933 49.172476
-31.302835 52.859677
-9.909886 47.914911
-20.769860 62.070052
-10.753641 69.916165
-24.377247 61.278428
-20.961170 64.037641
-14.641296 71.697141
10.895282 65.393223
-11.132132 63.315293
10.788994 68.088741
8.232096 70.458893
1.864759 72.028153
30.751935 78.346094
17.911583 81.912999
27.156655 75.065309
35.898508 60.463494
31.846178 72.224475
34.230823 65.865261
40.347755 59.822454
33.872405 64.713112
30.912997 71.422824
51.113622 44.503163
17.677541 25.789298
38.833490 31.566486
46.879174 13.880944
39.160598 39.160024
50.989355 5.884681
60.614374 36.341417
45.219302 5.732736
41.672341 22.965695
22.965967 15.070078
19.343574 -8.018351
15.391364 -6.362474
20.001394 15.079974
11.067905 1.886800
6.475171 8.191319
0.900270 40.853969
-32.504441 -4.033204
-59.545689 42.736688
-36.830770 23.165582
1.374709 36.560506
-29.297832 64.012118
-75.174652 28.722996
-22.315746 51.243906
-6.989792 19.356141
-52.993593 82.557317
-59.635513 91.518975
-41.604459 74.984300
-70.985938 78.808576
15.709229 108.003129
-49.154713 34.474988
-38.622702 143.002208
-43.360662 225.786318
-62.343442 159.929583
42.227587 237.380228
53.069714 185.032129
50.668689 112.059139
73.669755 198.267866
77.291614 300.828345
115.215827 185.241044
17.369091 37.980555
162.673117 245.146396
215.237570 501.644158
205.518145 136.135043
-1053.544558 -589.731510
220.519625 39.026146
-317.554720 61.754676
118.104706 146.025269
827.475762 340.601346
142.422762 181.223077
495.723260 272.043847
222.885245 30.278455
-8326.752570 -456.927989
