14796.062483 14866.626137
-6158.146907 1503.643700
-29.176158 53.275900
-384.078617 -253.122519
57.745592 204.329611
-672.416086 -1045.417516
-69.478025 -240.649702
-58.566360 298.532841
194.407090 -136.214617
-710.742646 1044.812715
-64.185784 192.051872
43.866452 -80.128550
53.517577 1.714856
-206.045058 13.882920
-26.700710 -1.256359
29.351538 24.809869
25.856636 -2.355454
-32.092048 74.054405
27.072163 40.333832
-22.176734 -38.812950
11.302256 9.661721
-54.858525 -15.223792
-30.001320 -49.405546
27.620922 52.074833
29.275748 -17.660041
24.034945 82.738444
18.476275 61.359397
10.330057 -28.527785
21.707276 -32.336782
-31.157432 26.904421
-4.346397 15.135022
15.292143 -7.227800
16.156109 2.500100
-2.907084 -0.487845
11.083011 14.587650
2.411639 -14.137601
4.428605 -10.620590
-8.671058 2.330599
-13.239444 -0.880602
17.307906 -8.055099
11.610014 6.936780
14.211187 -12.990427
14.985145 2.670838
4.077877 -5.190356
0.006914 -23.276188
-1.739911 4.905639
13.491259 14.381212
7.087492 -11.567021
11.591078 3.098084
-1.914309 -3.566961
5.173892 3.751939
3.595643 -5.735832
3.346231 -8.006644
-3.602140 -3.980604
4.524429 9.779436
4.734321 -11.195614
11.279018 4.336487
0.677307 -4.095147
-2.472061 -5.988277
6.282358 -0.963674
0.277719 -4.289180
-0.004274 -3.854849
14.793819 1.654621
7.510908 -6.854163
9.970750 -1.654586
3.894838 2.462621
5.058798 -0.210861
5.020841 -2.747313
4.844853 -3.632489
-0.963394 -3.103257
8.715872 3.558351
7.308630 -3.484709
9.064384 -1.702048
7.612097 1.885620
-0.529121 2.947857
6.611177 -4.355419
7.002736 -0.045412
3.592406 -2.195883
5.038753 -5.191293
8.424693 -4.589780
7.807289 -5.448453
8.395414 0.418280
5.827517 -1.873684
6.046957 -4.506343
4.784515 -2.767546
5.152981 -2.184342
5.418082 -1.506169
10.506994 -3.501687
8.341117 -3.460169
8.676300 -3.597451
7.855073 3.440657
5.957842 -6.031814
7.202637 -4.038547
8.566972 -2.585478
1.540122 -2.886367
6.916835 -3.205339
5.570990 -5.066997
7.858888 -3.907506
4.547398 -2.046110
4.831827 -5.288284
4.216168 -1.352110
7.941149 -2.462387
5.551471 -2.482472
7.840699 -4.074771
9.240307 -4.696893
5.508463 -4.595127
7.747154 -2.253806
5.419861 -4.763520
3.402073 -4.774338
7.696086 -4.422874
5.108954 -1.009196
6.924564 -2.358048
6.078159 -2.330065
6.150189 -4.157459
4.921440 -2.033405
4.630359 -2.554111
5.915008 -2.132017
8.084330 -2.850010
6.388611 -3.974619
6.357774 -3.598026
8.182776 -5.809959
6.472651 -2.966078
4.497355 -3.658748
5.227889 -2.860946
3.878970 -3.292648
5.911312 -3.316882
7.687011 -2.911614
8.072431 -4.088731
6.981592 -2.151072
6.716198 -2.763625
5.847140 -3.268569
6.426807 -0.936427
7.627807 -3.719551
8.278515 -3.314176
5.639353 -5.350277
6.200597 -3.792897
5.904320 -5.026428
8.395069 -3.415511
4.378287 -2.865479
5.195866 -1.698999
6.572581 -3.122850
5.826415 -3.667794
7.193154 -3.949195
7.055892 -5.257087
6.788483 -4.966549
7.580066 -2.763934
5.479324 -4.618581
7.220575 -3.472511
6.551691 -4.443687
7.355084 -5.129642
5.109889 -4.078435
5.380648 -4.378762
5.362122 -3.721323
7.319476 -4.156404
5.718810 -3.567917
5.951685 -1.243255
7.513873 -3.858834
6.250739 -3.939200
6.571810 -4.231636
5.569835 -4.220590
5.924689 -5.291350
7.195078 -3.776566
5.665782 -3.993795
5.568899 -4.892518
5.854136 -4.066458
6.275301 -5.265523
5.580087 -4.097530
5.326366 -3.175306
6.143296 -3.458446
6.139351 -4.469469
6.219399 -4.283600
6.053566 -2.602842
7.136213 -4.365816
6.423492 -4.134333
5.573476 -5.081222
6.274333 -3.207611
6.130623 -4.362239
6.313029 -4.286611
6.581912 -3.279574
4.756436 -4.118732
5.339462 -4.324081
6.387510 -3.974653
6.517749 -4.804760
5.696692 -3.550096
6.598297 -3.958720
6.228806 -4.581742
6.008554 -4.231835
6.401766 -4.066290
6.738368 -4.681761
6.435843 -4.722711
4.652813 -4.864833
5.624560 -4.610374
7.126331 -4.438101
5.436453 -4.570393
6.507194 -3.994252
5.757553 -3.346607
5.355737 -4.480644
6.538161 -4.469071
6.402697 -5.352650
5.922164 -4.497364
6.230411 -4.372551
6.367073 -5.090202
5.684590 -4.613900
5.765591 -5.006619
6.016760 -4.630054
6.111913 -5.408600
5.587833 -4.329528
4.782759 -4.515045
6.245298 -5.283721
5.831463 -4.666863
5.596891 -4.581241
6.385545 -4.015628
6.057215 -4.623508
5.634048 -5.438999
6.191648 -4.522197
5.242551 -5.331928
5.770721 -4.206621
6.308358 -4.362962
5.743469 -4.356265
5.026032 -4.799712
5.738658 -4.643886
5.371053 -5.534253
5.614888 -4.206958
5.153471 -3.898735
5.433586 -4.842971
5.772120 -5.092564
5.656142 -4.422465
5.748854 -4.791365
5.868335 -4.914013
4.854056 -5.379020
5.772332 -5.196420
5.426224 -5.132847
5.646382 -4.378274
6.057610 -4.758279
6.281495 -5.251237
4.650573 -4.405854
5.839079 -5.254024
5.289844 -5.481811
5.639498 -5.174199
5.911758 -4.695603
5.292114 -4.589507
5.709128 -5.729742
5.837614 -4.950588
5.650548 -4.853719
5.359334 -5.409112
4.689365 -5.152241
5.122394 -4.890667
5.476541 -5.523979
5.402833 -4.828041
5.627444 -5.299710
6.161502 -5.133773
5.267174 -5.060640
4.820590 -5.191869
5.480168 -4.980497
4.989254 -5.314509
5.042318 -5.494594
5.661130 -4.859321
5.383792 -5.334428
5.083556 -5.304781
5.273685 -5.192903
4.421729 -5.156057
4.799409 -5.075121
5.165550 -5.128364
5.485151 -5.258332
5.045450 -5.482678
5.116005 -5.608882
5.118520 -4.942273
5.005108 -5.261448
4.699487 -5.030484
4.878694 -5.262596
5.357901 -4.874871
4.725419 -5.520445
5.281192 -5.088482
5.646148 -5.302561
4.823188 -5.396021
5.290655 -5.609631
4.800442 -5.250373
4.802867 -5.276682
5.134892 -5.040933
4.749140 -5.378498
4.962560 -5.427561
4.706470 -5.487663
5.295408 -5.250482
5.350460 -5.457929
4.147253 -5.354205
4.652135 -5.197804
5.598140 -5.624391
4.760077 -5.342758
4.998764 -5.395355
5.350239 -5.638697
5.069876 -5.338122
4.806290 -5.604948
4.725531 -5.627829
4.746110 -5.493077
4.997087 -5.545260
5.142397 -5.705376
4.829489 -5.371069
4.911368 -5.128830
5.203961 -5.842400
5.281051 -5.604309
4.504660 -5.242640
4.747224 -5.329230
5.088819 -5.701906
5.119538 -5.658125
4.710489 -5.965747
4.872874 -5.857844
4.679132 -6.199136
4.719644 -5.583470
4.111391 -5.850226
4.399030 -6.180923
4.268624 -5.803335
4.992204 -6.157231
4.433836 -5.902291
4.558049 -5.958793
4.795101 -6.004537
4.525561 -5.718922
4.395211 -5.906093
4.471273 -5.143406
4.593370 -5.714137
4.955501 -6.392890
4.251762 -6.424744
4.407067 -5.813750
4.349950 -5.889638
3.896012 -5.458995
4.098011 -5.479734
4.541937 -5.646029
4.558634 -6.081475
4.545389 -6.338364
4.420768 -6.132141
4.242913 -6.058247
4.446578 -6.328778
4.137920 -5.894373
4.186150 -5.652850
4.285903 -5.788756
3.992092 -6.060042
4.794939 -6.221890
3.788632 -6.161117
4.197794 -6.183344
4.463012 -5.617928
3.937764 -6.136729
4.399960 -5.883140
4.724588 -5.664965
4.208981 -6.195496
3.933853 -5.877565
4.335124 -6.372576
3.808289 -5.850393
4.091710 -6.535228
3.909003 -5.807151
4.040145 -6.008676
4.082245 -6.195692
4.426651 -6.077604
4.304326 -6.100324
3.741739 -5.965351
4.332510 -5.968509
4.185906 -6.068395
4.336296 -5.892107
3.954924 -5.876194
3.726099 -6.273111
4.313782 -6.752780
3.640013 -6.237077
3.675164 -6.637897
3.865767 -6.235714
3.686670 -6.186028
3.754535 -6.508632
3.602320 -6.323312
3.566722 -6.125159
3.731877 -6.652296
3.181660 -6.688106
3.914703 -5.887787
3.904543 -6.030013
4.266752 -6.325745
4.033898 -6.433212
3.462012 -6.366764
3.639590 -6.351325
3.928335 -7.163487
3.724629 -6.383801
3.303357 -6.271324
3.608004 -6.543181
3.698090 -6.520519
4.056158 -6.868943
4.186892 -6.534816
3.215022 -6.067382
3.772353 -6.666276
3.071310 -6.501815
3.573858 -6.434757
3.577695 -6.748031
3.619354 -6.533997
3.278657 -6.394253
3.711209 -6.440481
3.114234 -6.546710
3.348677 -6.398812
3.468872 -6.585014
3.317850 -6.290390
3.165117 -6.186113
3.593149 -6.667429
3.224295 -6.236937
3.043781 -6.597764
3.306170 -6.870552
3.086890 -6.584485
3.311002 -6.754217
3.112862 -6.800992
3.147616 -6.470766
3.146304 -6.469168
3.477529 -6.532957
3.377834 -6.519051
3.274016 -6.585468
3.275946 -6.412426
3.107965 -6.982493
3.237371 -6.699820
3.228788 -6.144121
3.310862 -6.577917
3.092456 -6.721900
2.930702 -6.650273
2.906952 -6.598950
3.289117 -6.800948
2.742794 -6.732320
3.129585 -6.511432
2.321213 -6.682799
2.865886 -7.046461
2.831302 -6.793264
2.876458 -6.794107
3.031256 -7.072082
2.496420 -6.728946
3.164955 -6.706125
3.267656 -6.779459
2.728269 -6.882421
2.805369 -7.002515
3.169457 -7.280782
2.556831 -6.275727
2.909847 -6.816089
2.487436 -6.625431
2.777249 -6.945404
2.785952 -7.273216
2.545810 -6.961303
3.005834 -6.313879
2.972514 -6.854674
2.715037 -6.514876
2.590448 -6.513409
2.318715 -6.818262
2.754381 -6.950003
2.869468 -6.967341
2.542118 -7.149637
2.738817 -6.946988
2.521715 -6.728731
2.555398 -7.281993
2.215422 -6.805508
2.682336 -6.654950
2.792937 -7.009405
2.518207 -6.517673
2.324314 -6.682724
2.467593 -7.013566
2.492569 -6.720353
2.158830 -7.351679
2.315145 -6.862212
2.082887 -6.202061
2.221926 -7.118208
2.501877 -6.593636
2.539408 -6.755731
2.327372 -6.875319
1.989751 -7.078603
2.887433 -7.045617
1.878573 -6.822108
2.113374 -6.394078
2.111121 -6.722919
2.325761 -6.814865
2.201577 -7.235023
1.767031 -7.247308
2.629224 -6.781593
1.871882 -6.992395
2.051447 -6.712538
1.829931 -7.083992
2.084554 -6.782869
2.503610 -7.147614
2.159970 -7.459969
2.084499 -7.507988
1.811763 -7.069954
1.702508 -7.731000
1.911042 -6.980237
1.666092 -7.130725
2.238687 -7.415829
2.273507 -7.187660
1.810058 -7.400673
1.826458 -7.067037
2.054760 -6.940564
2.011892 -7.003077
1.820607 -7.532915
1.778562 -6.836395
1.574561 -7.168400
1.831756 -7.468727
1.435834 -7.113221
1.953880 -6.637196
1.908191 -6.775551
1.912387 -6.778815
1.394096 -7.215794
1.933568 -6.909053
1.840684 -6.925915
1.513161 -7.455023
1.685750 -6.897384
1.912761 -7.106064
1.622219 -7.764774
1.810428 -7.238791
2.230918 -7.005046
1.141729 -7.420567
1.636651 -7.141288
1.675179 -6.904918
1.450797 -6.856376
1.950352 -7.111301
1.404036 -7.279675
1.516263 -7.613169
1.714345 -6.781005
0.965906 -7.149511
1.603140 -7.113378
1.328190 -7.109594
1.256096 -7.401201
1.543002 -6.929294
1.197071 -6.741451
1.506251 -7.203384
1.224214 -6.786900
1.319658 -6.829088
0.886003 -7.232358
1.396059 -7.020820
0.926692 -7.325682
1.451485 -7.258834
1.375374 -7.066342
1.334240 -6.989353
1.230173 -6.882321
1.063400 -7.153681
1.309027 -7.406154
1.349633 -6.911264
1.110188 -7.535490
0.596622 -7.667048
1.083342 -6.810579
1.183248 -7.330223
0.964043 -7.348524
0.996032 -7.318303
1.148859 -7.312328
0.574242 -7.434979
1.197118 -7.564517
0.987583 -6.512051
1.140442 -6.997467
0.816556 -7.163259
1.049995 -7.784940
0.685981 -7.608765
0.638774 -7.725700
0.934443 -7.372933
0.512521 -7.502718
0.536704 -7.258031
0.890159 -6.739954
0.585940 -7.438921
0.745019 -7.417470
0.823156 -7.147577
0.594493 -7.755543
0.768979 -7.154656
0.195728 -7.165709
1.090632 -6.963565
0.800173 -7.347758
0.842204 -7.680352
1.066532 -7.068201
0.602410 -7.321507
-0.173545 -7.386599
0.625689 -7.318176
0.462629 -6.825554
0.291898 -7.536624
0.596908 -7.095444
0.983669 -7.191703
0.678675 -7.364546
0.652471 -7.178035
0.000941 -7.836447
0.429993 -7.512898
0.519617 -7.125259
0.613043 -7.318918
0.697426 -7.245573
0.475008 -7.085083
0.584118 -7.879518
0.459340 -7.591354
0.200299 -7.484211
0.087666 -7.272577
0.430423 -7.084024
0.336240 -7.541580
0.345346 -7.722108
0.220448 -6.700011
0.116043 -7.253019
-0.143799 -7.541156
-0.135648 -7.348091
0.179112 -7.294264
0.029755 -7.225930
0.338149 -7.283882
0.103709 -7.337776
0.511326 -6.834830
0.053465 -7.039977
-0.183498 -7.554946
-0.091773 -6.946309
-0.105511 -7.788285
-0.072461 -7.024332
0.228375 -6.955742
-0.394536 -6.957559
-0.063245 -7.519542
-0.271795 -7.047007
-0.142939 -7.151022
-0.335752 -7.027565
-0.167662 -7.246974
-0.181108 -7.441601
0.068430 -7.107381
-0.055773 -7.027963
-0.210773 -7.501274
-0.124473 -7.121191
-0.122074 -7.675422
-0.271934 -7.126013
-0.172402 -7.181290
-0.002371 -7.176273
-0.312142 -6.900125
-0.315105 -7.473534
-0.373908 -7.433036
-0.548401 -7.771517
-0.120664 -7.010163
-0.183607 -7.420362
-0.762887 -7.125215
-0.736079 -7.407146
-1.020620 -6.951966
-0.439042 -7.166141
-0.259681 -7.529863
-0.639015 -7.811898
-0.771156 -6.723933
-0.944502 -7.753724
-0.725107 -7.508947
-0.346596 -7.309256
-0.705577 -7.282735
-0.733810 -7.571853
-0.632402 -7.562110
-0.891877 -7.508185
-1.065454 -7.028482
-0.885332 -7.189335
-1.166306 -7.360847
-0.849753 -6.954896
-1.018375 -7.299655
-0.840252 -7.394694
-0.520327 -7.521366
-1.022528 -7.027079
-1.060916 -7.082295
-1.194730 -7.046999
-0.855453 -7.482137
-1.060666 -7.174542
-1.023069 -7.566420
-1.161151 -7.404284
-0.970355 -7.176358
-0.832865 -6.807789
-1.428387 -7.391369
-1.153635 -7.221429
-0.954764 -7.502956
-0.849951 -6.932876
-1.289044 -7.585630
-0.866203 -7.661784
-0.337591 -7.302760
-1.170954 -6.907656
-1.236899 -7.191026
-1.211878 -7.276917
-1.001904 -7.432364
-1.097949 -7.072432
-0.957572 -7.164330
-1.426603 -7.567775
-1.563065 -7.107048
-1.181283 -6.885696
-1.287869 -7.149283
-1.925200 -7.239154
-1.257582 -6.835754
-1.125500 -7.615539
-1.158380 -7.339699
-1.560858 -7.240532
-1.605356 -6.941895
-1.442377 -7.191905
-1.317755 -7.427479
-1.587450 -7.705346
-1.365466 -7.317999
-1.546233 -7.546609
-1.363144 -7.242620
-1.522852 -7.317071
-1.549755 -6.898697
-1.457543 -7.057062
-1.320807 -7.227123
-1.513207 -7.430405
-1.645533 -6.783451
-1.582992 -7.377820
-1.480989 -7.087630
-1.122445 -7.182426
-1.468191 -6.716755
-1.889011 -7.098467
-1.750529 -7.553008
-1.614566 -7.534227
-1.493101 -7.039060
-1.699810 -6.868552
-1.590004 -7.218279
-1.731776 -7.335581
-1.601475 -6.748881
-1.665699 -7.007277
-2.132826 -7.370896
-1.473764 -7.341593
-1.618209 -7.034587
-1.391261 -7.441490
-1.907396 -7.209844
-1.688718 -6.786205
-1.995399 -7.339013
-1.783048 -7.348350
-2.331687 -7.060992
-1.864650 -6.835064
-2.126408 -7.118366
-1.655029 -6.857868
-2.081739 -7.222587
-2.189011 -6.963483
-1.905810 -6.986119
-2.028595 -7.044694
-1.835459 -6.977009
-1.860040 -7.102780
-2.063715 -6.902898
-1.720335 -7.268783
-2.164187 -7.074600
-1.967572 -6.934856
-2.286003 -7.118761
-2.246278 -7.184660
-2.088538 -7.281734
-2.001349 -7.007875
-2.277134 -6.904743
-2.260296 -6.811104
-2.107987 -7.276680
-2.295810 -6.698560
-2.473869 -6.794605
-2.376262 -6.968779
-2.289425 -6.857999
-2.049366 -6.857140
-2.417490 -6.847970
-2.091139 -6.879085
-2.546158 -6.761729
-2.349342 -6.961971
-2.198549 -7.112888
-2.806747 -7.286347
-2.278748 -7.210834
-2.293833 -7.075214
-2.269053 -6.990190
-2.507472 -6.562331
-2.485903 -6.903953
-2.795184 -6.894409
-2.512604 -6.708661
-2.702841 -6.556579
-2.586419 -6.893101
-2.642583 -7.157333
-2.451301 -6.822490
-2.426127 -6.883976
-2.837266 -6.721234
-2.372435 -6.763912
-2.724126 -6.333233
-2.893987 -6.965657
-2.320271 -6.750489
-2.946489 -6.600245
-2.956619 -7.142049
-3.078775 -6.805056
-2.695327 -6.896922
-2.666024 -6.514040
-2.704578 -6.938871
-2.867596 -6.420493
-2.853458 -7.035027
-3.129294 -7.007718
-2.759881 -6.743337
-3.059206 -6.718795
-2.981516 -6.593006
-2.775693 -6.831568
-2.988037 -6.940545
-3.024839 -6.733574
-3.138679 -6.676850
-2.991932 -6.960828
-2.872004 -6.592955
-3.046743 -6.700223
-3.263889 -6.510848
-2.970139 -6.620595
-3.194096 -6.483709
-2.978962 -6.542040
-2.813879 -6.610366
-3.321383 -6.925799
-3.203785 -6.443426
-3.406786 -6.417539
-3.040937 -6.810721
-3.208863 -6.889851
-2.534300 -6.336576
-2.941740 -6.586643
-3.244232 -6.707068
-3.534403 -6.596510
-3.104041 -6.427744
-3.263490 -6.626460
-3.262126 -6.816819
-3.427075 -6.361995
-3.111887 -6.397241
-3.428029 -6.643832
-3.065906 -6.406836
-3.155459 -6.669692
-3.466481 -6.288804
-3.132203 -6.392833
-3.340186 -6.278356
-3.449182 -6.733520
-3.758426 -6.812235
-3.999096 -6.475974
-3.322619 -6.471097
-3.725603 -6.655572
-3.534369 -6.405619
-3.402769 -5.906608
-3.799069 -6.438759
-3.801947 -6.479954
-3.775425 -6.516094
-3.583812 -6.394958
-3.214776 -6.057063
-3.459558 -6.516247
-3.826145 -6.545382
-3.849568 -6.425634
-3.660501 -6.405202
-3.516003 -6.580725
-3.793504 -6.450810
-3.583613 -6.252386
-4.036270 -6.333067
-3.492156 -6.170842
-3.609298 -6.557296
-3.200309 -6.463701
-3.364245 -6.553095
-3.893641 -6.259312
-3.486714 -6.553402
-3.700565 -6.215062
-3.952407 -6.030986
-4.340074 -6.071259
-4.047198 -6.071138
-4.079354 -6.253208
-3.945811 -6.123147
-3.885220 -6.377753
-3.646295 -6.064036
-3.945642 -6.238758
-3.914733 -6.040810
-3.716676 -6.430956
-4.129979 -5.816598
-3.932485 -5.924368
-4.153638 -6.273439
-4.129191 -5.950266
-3.949107 -6.095717
-3.733186 -6.455589
-4.032883 -6.518306
-4.235494 -5.759141
-4.359287 -6.103236
-4.039250 -5.846515
-3.676859 -6.029135
-4.120004 -6.265201
-4.825154 -6.093329
-4.146104 -5.884113
-3.921695 -6.011320
-4.112138 -6.099725
-4.394362 -6.151274
-4.643812 -5.746599
-4.288985 -5.851066
-4.375050 -5.926364
-4.141192 -6.082980
-4.197188 -5.645393
-4.446852 -6.181312
-4.186232 -5.962837
-3.964118 -5.928154
-4.234326 -5.672436
-4.488342 -5.855247
-4.266675 -5.928100
-4.399738 -5.667165
-4.341377 -5.812203
-4.395794 -6.159659
-4.329076 -6.036948
-4.679834 -5.877725
-4.520552 -6.146973
-4.397300 -5.862000
-4.220556 -5.730887
-4.412052 -5.902193
-4.723156 -5.719425
-4.835190 -5.880225
-4.498279 -5.357031
-4.807404 -6.057526
-4.716818 -6.043092
-4.506879 -5.645444
-4.914858 -5.752346
-4.879336 -5.982641
-4.479043 -5.788089
-4.734731 -5.544136
-4.694207 -5.339570
-4.295355 -5.621103
-4.652483 -5.700258
-4.800533 -5.984096
-4.841053 -5.857969
-4.415739 -5.280255
-4.515975 -5.521348
-4.748256 -5.376867
-4.637405 -5.169073
-5.252894 -5.533062
-4.799130 -4.975971
-5.039145 -5.381769
-4.663333 -5.517334
-4.740139 -5.411303
-4.819182 -5.838962
-4.878533 -5.657529
-4.672468 -5.734814
-4.666045 -5.305817
-4.965271 -5.519877
-5.056422 -5.319257
-4.758939 -5.149787
-4.943099 -5.377413
-4.735678 -5.886589
-4.928727 -5.549346
-4.904146 -5.314188
-4.568802 -5.188007
-4.873786 -5.125505
-4.881829 -5.276344
-5.028423 -5.200168
-5.060263 -5.058967
-5.178249 -4.744410
-5.196667 -5.205204
-5.331435 -5.311683
-5.210375 -5.607938
-5.029193 -5.247942
-4.900160 -5.359623
-4.912750 -5.418259
-4.823316 -5.256113
-5.016640 -5.180690
-5.385120 -5.618056
-5.063018 -5.150566
-4.554895 -5.088967
-5.187619 -5.504897
-5.411306 -4.852897
-5.146779 -5.112491
-4.919103 -4.718362
-5.203504 -5.149935
-5.133686 -5.206951
-5.111991 -5.297720
-5.176122 -5.224687
-4.869678 -5.005478
-5.540915 -5.115584
-5.747227 -5.252089
-5.449805 -5.400512
-5.410575 -5.130514
-5.346596 -5.098783
-5.604350 -4.958668
-5.277509 -4.950691
-5.201997 -4.798000
-5.406064 -5.334358
-4.873324 -4.586705
-5.253018 -4.919921
-5.150760 -5.054014
-5.532126 -4.642160
-5.698678 -5.210274
-5.357685 -5.078481
-5.443297 -4.620046
-5.066245 -5.017661
-5.559706 -4.847095
-5.527862 -5.014050
-5.654427 -4.818058
-5.626367 -4.390194
-5.666291 -4.384498
-5.831229 -4.903355
-5.171249 -4.936167
-5.515797 -4.610957
-5.262150 -4.707479
-5.367069 -4.869241
-5.462808 -4.777133
-5.770412 -4.558130
-5.889610 -4.484198
-5.778397 -4.618569
-5.590672 -4.399913
-5.526694 -4.602927
-6.150702 -4.526608
-5.569989 -4.568981
-5.889200 -4.907460
-5.460454 -4.274717
-5.715804 -4.485630
-5.760628 -4.972331
-5.768576 -4.781385
-6.065273 -4.728087
-5.753452 -4.644520
-5.696264 -4.496963
-6.128606 -4.785683
-6.321493 -4.476868
-5.736643 -4.368854
-5.763095 -4.395768
-5.874129 -4.533407
-6.233997 -4.332699
-5.628850 -4.450963
-5.774020 -4.061142
-5.712114 -4.529006
-5.519159 -4.795500
-5.709292 -4.183783
-5.807155 -4.725690
-6.244987 -4.146175
-5.530943 -4.199958
-6.177870 -4.493620
-6.157698 -4.183085
-5.930492 -4.407622
-5.893551 -4.148799
-6.099541 -4.058096
-6.062555 -4.358989
-6.166370 -4.154591
-5.726461 -3.991858
-6.044075 -3.930221
-5.629630 -4.099011
-5.686528 -4.492166
-6.174396 -4.073332
-6.309589 -4.048497
-6.120311 -3.719141
-6.161690 -3.909761
-5.910236 -4.065265
-6.106718 -4.225386
-6.262417 -3.882924
-6.297057 -3.812523
-5.912853 -3.693182
-6.018139 -4.012546
-5.943873 -4.180984
-5.960491 -3.818015
-6.408251 -3.903706
-6.418520 -3.661429
-5.783425 -3.997189
-6.409671 -4.267679
-5.981099 -4.186523
-6.243618 -3.440826
-6.437620 -4.159682
-6.424771 -3.658169
-5.858661 -4.003849
-5.966107 -3.640148
-6.012667 -3.495297
-6.240276 -4.083939
-6.332028 -3.683334
-6.185564 -3.825010
-6.228096 -3.785160
-6.111664 -3.550143
-6.430726 -3.761632
-6.528357 -3.364182
-6.119981 -3.915136
-6.175997 -3.799238
-6.475246 -3.736464
-6.099707 -3.496668
-6.345207 -3.289110
-6.716215 -3.604128
-6.591487 -3.754418
-6.503751 -3.556424
-6.714776 -3.653676
-6.634359 -3.203297
-6.521451 -3.414035
-6.291949 -3.369433
-6.320502 -3.201800
-6.475585 -3.359581
-6.058359 -3.760869
-6.697976 -3.095875
-6.604344 -3.149494
-6.482059 -3.524348
-6.177703 -3.314479
-6.348876 -3.842541
-6.593106 -3.693676
-6.634558 -3.230363
-6.514170 -3.184638
-5.950378 -3.202149
-6.507317 -3.701591
-6.648381 -3.078429
-6.474259 -3.273326
-6.657828 -3.308537
-6.647625 -3.568884
-6.659161 -2.709959
-6.856266 -3.563161
-6.977167 -3.407365
-6.380675 -3.349707
-6.720659 -2.811633
-6.560747 -3.353288
-6.780500 -3.108846
-6.488246 -2.899823
-6.144107 -3.332496
-6.929994 -3.248269
-6.703345 -3.103742
-6.746533 -2.985595
-6.559545 -3.025241
-6.571816 -3.395931
-6.348677 -2.841479
-6.558589 -3.425096
-6.898178 -3.049082
-6.589134 -2.848022
-6.718771 -3.478928
-6.696798 -2.788007
-6.513489 -2.738440
-6.731941 -2.774569
-6.606369 -2.624989
-6.757093 -3.265096
-6.771546 -2.358584
-6.866408 -2.569534
-6.829687 -2.314647
-6.987914 -3.028858
-6.966750 -2.651607
-6.472209 -2.836021
-6.593794 -2.863624
-6.801495 -2.665028
-6.943724 -2.913866
-7.006229 -2.459792
-6.756430 -2.869730
-7.192625 -2.775771
-6.566536 -3.038382
-7.003885 -2.269907
-6.774366 -2.525483
-6.616693 -2.485672
-6.824890 -2.476888
-6.745243 -2.333096
-6.719964 -2.282454
-6.893800 -2.707401
-6.982960 -2.331604
-7.113007 -2.581063
-6.819063 -1.670750
-6.861553 -2.667894
-7.126738 -2.676149
-6.725750 -2.134884
-7.204401 -2.628691
-6.717536 -2.092120
-7.485825 -2.427513
-6.855437 -2.763519
-7.260557 -2.769609
-6.652149 -2.438165
-6.952299 -2.702422
-6.668073 -1.818298
-6.632014 -2.656738
-7.104982 -2.101410
-6.900861 -2.079746
-7.003188 -1.922507
-7.200581 -2.036222
-7.190525 -2.468668
-7.060845 -2.173005
-6.611368 -2.154748
-6.888204 -1.526313
-7.044967 -2.046470
-7.000632 -1.877371
-6.828045 -2.233227
-6.951203 -1.960115
-7.115832 -2.182047
-7.365947 -2.275901
-7.261672 -2.165697
-7.206222 -2.194759
-6.767437 -2.660503
-7.119251 -1.981191
-7.224050 -1.678059
-7.020101 -1.692164
-6.691061 -1.730340
-7.235737 -2.090004
-7.462289 -2.095770
-7.239292 -1.546522
-7.299236 -1.816140
-7.442468 -1.565236
-7.393110 -2.034016
-7.001764 -1.777110
-6.785160 -1.613355
-6.844175 -1.972607
-7.058661 -2.226252
-7.147495 -1.574262
-6.832050 -1.653310
-6.775465 -1.511600
-7.023461 -1.758641
-6.691551 -1.608884
-7.201355 -1.724039
-7.091308 -2.112295
-7.158872 -1.822000
-7.045152 -1.690979
-7.271184 -1.814028
-7.210746 -1.811430
-6.892521 -1.346884
-6.894362 -1.241826
-6.906581 -1.602613
-7.299012 -1.531178
-7.127313 -1.723233
-6.619227 -1.396331
-7.308517 -1.244218
-7.318675 -1.399931
-7.259108 -1.070748
-7.538964 -1.612772
-7.590538 -1.007994
-6.788771 -1.737981
-7.267550 -1.398894
-7.088684 -1.484941
-7.042604 -1.834133
-6.831499 -1.603923
-6.996278 -1.314526
-7.697234 -1.340380
-7.141484 -1.005600
-7.664090 -1.504666
-7.321695 -1.184244
-7.289835 -1.415947
-7.235812 -1.444453
-7.378301 -1.062012
-7.457710 -1.620065
-7.096958 -1.428096
-6.773747 -1.240948
-7.548135 -0.860847
-7.197668 -0.842655
-7.593514 -0.738333
-6.980048 -0.913796
-7.952630 -1.065138
-7.482062 -1.137358
-7.245943 -0.896375
-7.298818 -1.077004
-7.627757 -1.421109
-7.183616 -1.199182
-7.364264 -0.852888
-7.066369 -0.976061
-7.358681 -0.710400
-7.052556 -1.057939
-7.428472 -0.888573
-6.994862 -0.659489
-7.226677 -0.418884
-7.332325 -0.507097
-7.362540 -0.940652
-7.644534 -0.598424
-7.205913 -0.696263
-7.276435 -0.648176
-7.342842 -0.670830
-7.160865 -1.020806
-7.608241 -1.021279
-7.285591 -0.912191
-7.408428 -1.060055
-7.235535 -0.517924
-7.162161 -0.457841
-7.635741 -0.727771
-7.377463 -0.470366
-6.931448 -0.568020
-7.637114 -0.823472
-7.270734 -0.647025
-8.155870 -0.328294
-7.321533 -0.200652
-7.277772 -0.289233
-7.339448 -0.461404
-7.344343 -0.332876
-7.186466 -0.429117
-7.562346 -0.204027
-7.157045 -0.447937
-7.281407 -0.448330
-6.998553 -0.049741
-7.427596 -0.387879
-7.226870 -0.478924
-7.222725 -0.439856
-7.229301 -0.645171
-7.493803 -0.063899
-7.200601 0.158142
-7.216447 -0.350606
-7.211549 -0.506747
-7.150697 -0.324041
-7.062947 -0.610174
-7.924813 -0.030635
-7.462725 0.070400
-7.080931 -0.099337
-6.901926 -0.219121
-7.796362 -0.064237
-7.615962 0.166198
-7.205216 0.099500
-7.196144 -0.152504
-7.632032 -0.200585
-7.172120 -0.536580
-7.315586 -0.077812
-6.790715 0.084170
-7.110388 0.109201
-7.609079 -0.021124
-7.311120 0.309144
-7.360146 0.017136
-6.638415 0.174491
-7.599058 -0.292974
-7.874122 0.393274
-7.354630 0.490252
-7.151677 -0.336457
-7.354342 0.108442
-7.797227 0.217408
-7.229348 0.168502
-7.054414 0.338880
-7.245805 0.079190
-7.284149 0.371743
-7.273748 0.555374
-6.777731 0.198618
-7.413594 0.540622
-7.181455 0.447640
-7.300435 -0.032695
-7.392348 0.247590
-6.934593 0.351215
-6.772911 0.747529
-7.534573 0.114674
-7.543374 0.591250
-7.436989 0.173885
-7.279939 0.497392
-7.619474 0.065205
-6.833447 0.443238
-6.837713 0.657394
-6.838245 0.915578
-7.308417 0.360116
-7.338332 0.639260
-7.235327 0.522168
-7.480233 1.050058
-6.792069 0.900370
-7.307632 0.192278
-7.174878 0.712612
-7.403027 0.525428
-6.781829 0.886487
-7.192669 0.384354
-7.544667 0.918949
-7.220276 1.056659
-7.263039 0.591117
-7.223448 0.495604
-7.818074 1.228850
-7.218025 1.328866
-7.246065 0.823518
-7.508320 0.734677
-7.307745 1.061931
-7.498296 1.147038
-6.880372 0.996255
-7.417445 0.707981
-7.164231 0.998963
-7.431060 0.744610
-7.069795 0.950344
-7.394269 1.211271
-7.054961 1.212011
-7.645796 1.038901
-7.114357 1.052301
-7.549984 0.848189
-7.023340 1.139956
-7.825228 1.112314
-6.964218 1.280059
-6.924664 0.827062
-7.313114 1.256738
-7.218164 1.209714
-7.169295 1.110236
-6.905397 1.182186
-7.619816 1.267475
-7.063274 1.122301
-7.120991 0.966238
-6.967962 1.500057
-7.016418 1.482710
-7.245415 1.713524
-6.930144 1.272350
-7.735115 1.718127
-6.891384 1.624162
-7.468173 1.487771
-7.060681 1.380949
-6.975950 1.588120
-6.756746 1.385157
-6.976208 1.277438
-7.529844 1.227561
-7.000478 1.973506
-7.071729 1.885500
-7.442387 1.428204
-7.515712 1.505850
-7.196196 1.399020
-7.259016 1.583400
-7.253479 1.775494
-7.204083 1.587967
-7.106867 1.805475
-7.635730 1.357048
-6.829642 1.647911
-7.070611 1.681769
-7.017972 1.997009
-7.324287 1.773138
-7.136381 2.182361
-6.743934 1.321701
-7.645006 1.803870
-7.144012 1.714817
-7.019139 1.911106
-6.884664 1.451565
-7.364408 1.673317
-7.411210 1.921339
-7.014461 1.598313
-7.279665 2.140995
-6.987034 1.639104
-7.040466 2.087482
-7.069107 1.834738
-6.700704 2.351945
-6.868022 1.990711
-7.235482 1.950557
-7.261140 1.917207
-6.841230 2.430769
-6.576391 1.918598
-6.691106 2.058822
-7.609136 1.561791
-6.929679 2.318112
-6.876280 1.927003
-6.952180 1.753649
-7.344705 1.900900
-6.776470 2.542508
-6.811025 2.033499
-6.517158 2.032779
-6.747723 1.971725
-6.931816 2.354831
-7.538647 2.527468
-7.034894 2.588645
-6.975429 2.187696
-6.881095 2.111413
-7.052519 1.704782
-6.957801 2.500668
-6.404090 2.386498
-7.037988 2.177088
-7.256780 2.434314
-6.307519 2.291521
-6.922878 1.827811
-6.713324 2.609728
-7.068076 2.247334
-7.060433 2.541542
-7.050572 2.559713
-6.550417 2.149290
-6.573516 2.740671
-7.041186 2.395448
-7.400335 2.364980
-6.748263 2.691095
-6.883258 2.193341
-6.940238 3.036289
-6.799455 2.589208
-7.025782 2.580634
-6.965197 2.794190
-6.680999 2.783857
-6.967442 2.945746
-6.399828 2.279422
-6.426915 2.563422
-6.965551 2.845270
-6.315430 2.575909
-6.741143 2.519420
-6.903184 2.298213
-6.632140 2.907502
-6.677994 2.856111
-6.283761 2.720022
-6.636481 2.567970
-6.575853 3.011958
-7.013402 2.903825
-6.757497 2.968126
-7.063819 2.878788
-6.814916 2.863407
-6.990066 2.743819
-6.937120 3.050703
-7.084164 2.748880
-6.504834 2.887384
-6.656850 2.896590
-6.669353 2.965478
-6.849159 2.984802
-6.258667 3.000800
-6.776187 3.184428
-6.454528 3.148298
-6.546729 3.116840
-6.567676 3.496266
-6.530814 3.383619
-6.632053 3.171967
-6.604589 3.274015
-7.140510 2.958032
-6.968969 3.704643
-6.604926 3.023462
-6.647413 2.956595
-6.369455 3.093102
-6.464800 3.109237
-6.044497 3.594690
-6.416066 3.589941
-6.729979 3.117244
-6.655851 3.527156
-6.446690 3.103587
-6.428844 4.023219
-6.612213 3.077156
-6.425027 3.419892
-6.388048 3.292276
-6.708832 3.000698
-6.074698 3.408505
-6.201867 3.278484
-6.249849 3.510837
-6.907834 3.496530
-6.476598 3.745589
-6.149586 3.947761
-6.520764 3.955385
-6.718480 3.999221
-6.471919 3.418986
-6.461297 3.427995
-6.042418 3.407443
-6.140031 3.681218
-5.967305 3.437422
-6.736536 3.899478
-6.599430 3.841992
-5.972265 3.614975
-6.290273 4.010510
-6.214143 4.084428
-6.393899 3.608581
-6.166127 3.674766
-6.259614 3.578261
-6.289881 3.429765
-6.330945 3.803626
-6.416867 3.637725
-6.592009 3.736374
-6.220637 3.957552
-6.185696 3.445751
-6.172565 3.737992
-6.147879 3.992972
-6.143434 3.745729
-5.999406 3.914714
-6.281695 4.157309
-6.281372 4.498959
-6.153714 4.130852
-5.983705 3.817281
-6.033097 3.586415
-6.285259 3.743640
-5.855284 3.484226
-5.756453 3.978034
-5.728358 3.638178
-5.793142 4.158548
-5.877292 4.046542
-5.570917 4.350743
-6.018757 4.128997
-6.387971 4.020321
-6.148466 3.872611
-5.916997 4.073990
-6.069473 3.983130
-5.963897 3.839874
-6.514065 4.388397
-6.089189 4.389513
-6.421399 4.434547
-5.451713 4.268032
-5.965967 4.087325
-6.253848 4.377492
-6.289842 4.121767
-5.595860 4.246498
-6.049260 3.965812
-5.858182 4.386653
-5.876959 4.283430
-5.782804 4.437163
-5.834083 3.979150
-5.549583 4.448054
-5.826866 4.547439
-6.142379 4.370911
-5.969460 4.252842
-5.919202 4.484005
-5.507882 4.382805
-5.906934 4.766575
-6.181032 4.126483
-5.907018 4.225903
-5.916231 4.860143
-5.748742 4.013433
-5.427628 5.088573
-5.533009 4.333115
-5.723699 4.577907
-5.863850 4.541812
-5.844861 4.800123
-5.899425 4.643463
-5.510770 4.660895
-5.413672 4.704066
-5.955263 4.631670
-5.186561 4.882364
-5.553509 4.518124
-5.736855 4.898475
-5.850243 4.351618
-6.058006 4.403470
-5.511801 4.922994
-5.474675 4.731259
-5.837781 4.620786
-5.841707 4.996368
-5.470952 4.640431
-5.507506 4.706876
-5.231856 4.863441
-6.049022 4.697348
-5.154105 5.178504
-5.716528 4.655764
-5.331837 4.899165
-5.483840 4.716507
-5.391607 4.939080
-5.036565 4.999727
-6.129710 4.664196
-5.652505 5.077729
-5.634898 4.539954
-5.554332 5.445581
-5.585801 4.578759
-5.853609 4.874333
-5.409174 4.421432
-5.573543 5.218864
-5.040939 4.783430
-5.549932 4.679014
-5.694376 5.268622
-5.066890 5.210753
-4.868421 5.016183
-5.224510 4.842683
-5.423787 5.164364
-5.204833 5.116074
-5.255420 5.039694
-5.091148 5.226849
-5.192823 5.175281
-4.940787 4.903238
-5.412643 4.698042
-5.618267 5.494806
-5.199880 5.349162
-4.822622 5.135834
-5.117046 5.228181
-5.282733 5.438003
-5.227853 5.021541
-5.061322 5.271703
-5.397845 5.113114
-5.635655 5.218173
-5.308753 5.359767
-4.685710 5.363852
-4.838953 5.063847
-5.195754 5.425037
-5.238859 5.299428
-4.724485 5.893158
-4.494756 5.429804
-4.778080 5.363506
-4.689024 5.574561
-4.892404 5.292271
-5.063227 5.383292
-4.585030 5.323194
-5.041030 5.122574
-4.728558 5.437277
-5.004864 5.360043
-4.968311 5.712845
-5.237666 5.631645
-4.897587 5.552955
-4.634207 5.236851
-4.922788 5.461137
-5.055832 5.407409
-5.181110 5.689038
-4.865790 5.121373
-4.634784 5.192106
-5.105173 5.400274
-4.570687 5.608070
-4.776296 5.915217
-4.748660 5.542998
-4.616167 5.336629
-4.873564 5.389396
-4.875137 5.613612
-4.969538 5.965300
-4.630174 5.442281
-4.567709 5.596588
-4.486877 5.389396
-4.774329 5.370190
-4.990274 6.241486
-4.536811 6.096579
-4.732043 5.379324
-4.378777 5.712771
-4.696250 5.670175
-4.898379 5.840949
-4.556612 5.710138
-4.347293 5.957704
-4.917940 5.673353
-4.052668 5.912497
-4.623603 5.531933
-4.632554 5.877119
-4.664966 5.719751
-4.439437 6.039252
-4.194693 6.041385
-4.552665 5.917099
-4.514623 5.959181
-4.288422 5.769136
-4.299509 5.783171
-4.910395 5.764405
-4.458444 5.999819
-4.191450 5.618149
-4.641157 5.916685
-4.087922 5.368911
-4.405905 6.086594
-4.369368 6.003389
-4.319807 5.705117
-4.532096 6.024917
-4.374402 5.885076
-4.254049 5.913429
-4.328459 6.177089
-3.725542 5.693043
-4.203324 6.127117
-4.248018 6.099417
-4.385481 5.661672
-3.774071 6.040424
-3.917467 5.759980
-4.113415 5.934976
-4.043297 6.230843
-4.091298 5.714923
-3.807566 6.200577
-4.400712 6.005245
-3.885525 6.077148
-4.205759 6.192366
-4.332790 6.122475
-4.213531 6.080194
-3.636138 6.033557
-3.977260 6.397982
-3.963944 6.299100
-3.839069 6.292681
-3.976219 6.091046
-4.123687 6.198227
-3.754628 6.305881
-3.843484 6.437064
-4.049103 6.642584
-3.790032 6.421365
-3.952925 6.363804
-3.836775 6.329359
-3.851580 6.380373
-3.948747 6.192643
-4.045429 6.288600
-3.824755 6.284743
-3.802111 6.072102
-3.952551 6.505317
-3.388215 6.278144
-3.739693 6.608060
-3.980691 6.080816
-3.660985 6.211757
-3.656964 6.493266
-3.432005 6.324849
-3.575535 6.633947
-3.637216 5.945163
-3.502013 6.336757
-3.158940 6.650103
-3.335291 6.856336
-3.475159 6.605359
-3.901041 6.281877
-3.420325 6.480531
-3.714842 6.060282
-3.398862 5.951878
-3.359022 6.325633
-3.527844 6.634550
-3.290544 6.407570
-3.486291 6.755759
-3.297072 6.123504
-3.316076 6.334547
-3.594780 6.428480
-3.154514 6.376583
-3.515661 6.024517
-3.347194 6.673031
-3.014751 6.702104
-3.123247 6.347624
-2.953820 6.708670
-3.159552 6.640353
-3.260230 7.019922
-3.613673 6.644163
-3.558919 6.653846
-3.138686 6.139942
-3.110589 6.202504
-3.104644 6.352236
-3.120984 6.588798
-3.059016 6.258334
-2.927674 6.667098
-3.254771 6.848931
-3.066019 6.616047
-2.930422 6.814093
-2.914329 6.681805
-2.957080 6.652769
-2.999963 6.198553
-3.305235 6.551176
-2.590123 6.898551
-2.767187 6.657160
-3.069599 6.346405
-3.004125 6.370043
-3.476252 6.608901
-3.171337 6.829279
-3.271925 6.609229
-2.915081 7.030053
-3.114503 6.560599
-2.785901 6.793948
-2.477267 7.177689
-2.918268 6.271779
-2.349018 6.434644
-2.462342 6.849320
-2.841776 6.519757
-2.905018 6.747553
-2.592214 6.758566
-2.945912 6.652180
-3.003434 6.734109
-3.061899 7.003191
-2.377613 7.215127
-2.650061 7.053088
-2.658496 6.536969
-2.841765 6.473976
-2.730832 6.839450
-2.498594 7.032068
-2.277104 6.629209
-2.331438 6.155492
-2.804427 6.558944
-2.666858 6.803531
-2.204433 6.457571
-2.492643 6.923883
-2.442683 6.934173
-2.612275 6.767006
-2.512083 6.864915
-2.594021 7.199641
-2.628462 6.850862
-2.185279 7.040433
-2.458224 6.949180
-2.686127 6.999925
-2.282190 6.816115
-2.095630 6.906353
-2.345779 6.980663
-2.431765 6.746269
-2.658357 6.899750
-2.406873 7.271261
-2.009002 7.452400
-2.485448 6.875190
-2.072841 6.738490
-2.361651 7.354124
-2.061838 7.051627
-1.707844 6.947269
-1.933653 6.874416
-2.252145 6.829544
-1.961476 6.903403
-1.703038 6.796582
-2.159604 7.175883
-1.982507 7.047816
-2.176689 7.040990
-1.827458 6.909354
-2.019564 7.021378
-2.198647 7.082835
-2.319993 7.059332
-2.168791 7.497208
-1.818771 6.867141
-1.466535 7.101617
-1.651407 7.162649
-1.977883 6.968606
-2.038792 6.756663
-1.784595 7.246326
-1.712317 6.841207
-2.141332 7.299341
-1.868958 7.276758
-1.668124 7.189586
-1.824120 7.069233
-1.837832 6.947904
-1.432858 6.731606
-1.612084 6.968615
-1.714655 7.030382
-1.813834 6.847905
-1.755364 7.176251
-1.440146 7.297851
-1.731824 7.179013
-1.895998 7.078740
-1.971378 7.113420
-1.687620 7.013582
-1.686940 7.231621
-1.573750 6.879797
-2.051540 7.148949
-1.491400 7.013187
-1.346051 6.724281
-1.312818 7.272095
-1.581563 6.996526
-1.316050 7.616076
-1.248761 7.494479
-1.095711 6.879209
-1.163292 6.855583
-1.378739 7.031492
-0.821676 7.444825
-0.967344 7.377243
-1.372912 7.210153
-1.583587 7.359246
-1.190774 7.183162
-1.283124 7.161398
-1.475342 7.244367
-1.048716 7.331726
-1.266221 7.124670
-1.184103 7.326155
-1.456277 7.526757
-1.189610 7.212090
-1.096695 6.965464
-0.927389 7.399805
-1.064193 6.987939
-1.392433 7.224128
-1.190529 6.925651
-1.521303 7.133830
-0.672108 7.377518
-1.079348 6.888115
-0.893489 7.524648
-0.839933 7.585106
-0.888858 7.281716
-0.770083 7.088217
-0.792021 7.116631
-1.122589 7.408589
-1.119613 7.318926
-0.825196 7.518746
-1.140053 7.186669
-0.521966 6.887885
-0.908859 6.911735
-0.740117 7.499313
-0.709060 7.454202
-0.704803 7.387821
-0.689035 7.220038
-0.749482 7.333686
-0.849142 7.126757
-0.918872 6.629572
-0.620791 7.244178
-0.357451 7.133011
-0.467464 7.123462
-0.566898 7.044135
-0.756334 7.532113
-0.604898 7.100597
-0.581179 7.676467
-0.557079 7.098958
-0.657398 7.571502
-0.767625 7.222539
-0.132009 7.374060
-0.582111 7.262889
-0.335424 7.184797
-0.563381 7.822435
-0.700300 7.309227
-0.381900 7.223304
-0.609273 7.470556
-0.402704 7.263124
-0.601897 7.359395
-0.519184 7.396411
-0.302174 7.505772
-0.240744 7.193394
-0.233752 7.613961
-0.613446 7.356783
-0.285916 7.034597
0.055761 7.227649
0.241087 7.480522
-0.162407 7.055434
-0.071522 7.180303
-0.459988 7.562001
-0.218951 7.367180
-0.317441 7.328703
-0.472849 7.562659
-0.042366 7.401400
-0.225401 7.463749
-0.224005 7.233803
-0.078823 7.585703
0.172339 7.200668
-0.000827 7.391377
0.341260 7.335700
-0.084888 7.546825
0.143670 7.152534
0.103358 7.168819
0.163635 7.429397
-0.025896 7.140120
-0.260477 7.138127
0.358011 7.216356
0.213804 7.047657
0.159231 7.293977
0.214736 7.253871
-0.051363 7.514096
-0.049783 7.433374
0.140732 7.492568
0.493644 7.386496
-0.041259 7.242442
0.389387 7.188975
0.254383 7.414278
0.472245 7.396641
0.263907 7.252612
0.313577 7.349236
0.349113 7.444367
0.545118 6.960496
0.199615 7.011705
0.263407 6.837236
0.397676 6.998719
0.808193 7.497322
0.190456 7.343088
0.377101 7.525976
0.195055 7.484419
0.631722 6.868212
0.561205 7.395287
0.477235 7.533723
0.420306 6.851025
0.818703 7.341016
0.920001 7.516740
0.263890 7.778137
0.500282 6.785220
0.491344 7.013411
0.760864 7.264994
0.446605 7.790321
0.448623 7.117946
0.713045 7.195441
0.764120 7.363126
0.910868 7.129005
0.722446 7.056293
0.816331 7.294421
1.167415 7.039168
1.134042 7.356062
1.081742 6.901155
0.887064 7.212451
0.882263 7.067934
0.835796 7.450272
1.031371 6.767610
0.939417 6.816498
1.124782 6.987986
1.013952 7.579995
1.428736 7.394220
0.743771 7.132254
0.952853 7.442010
1.171864 7.497372
1.441897 6.687138
1.087709 7.057088
1.154372 7.243564
1.073158 6.866168
1.081676 7.052987
1.238149 7.395051
1.182556 7.572776
0.638261 6.722220
1.109593 6.763360
1.302824 6.916144
1.117776 7.435505
0.977162 7.562953
1.215985 7.224970
1.276255 6.899057
1.244345 7.418528
0.957077 7.170825
1.230123 7.065490
1.537963 6.691226
1.474612 7.735447
1.204553 6.783069
1.283780 7.247737
1.667069 7.180504
1.482353 7.308863
1.289889 6.977327
1.618737 7.257672
1.582362 7.407173
1.604591 7.423311
1.461194 7.442510
1.513664 7.215324
1.654135 7.319644
1.687892 7.233714
1.888494 6.723588
1.871871 7.222652
1.662163 7.231296
1.511258 7.151948
1.664968 7.070038
1.543618 7.280025
1.888064 7.498454
1.905312 6.952238
1.728742 6.959567
1.487191 6.945154
2.157226 7.915519
1.729365 6.932729
1.740484 7.344084
1.864501 7.032986
2.026035 7.113618
2.049613 6.846311
1.964069 6.876853
2.057471 7.203739
1.569579 7.759326
1.831493 7.020278
2.080678 6.998327
1.597367 7.380621
2.217422 7.100284
1.935179 7.216891
2.135354 7.194757
1.935475 7.230069
1.595835 6.990314
2.112424 7.156681
1.835338 6.876479
2.251558 7.564672
2.060126 7.142230
1.889611 7.212888
2.046479 7.071344
2.126514 7.229891
2.069096 7.083707
2.424629 7.117008
2.404275 6.663875
2.471238 7.070005
2.475956 7.259232
2.440333 7.165990
1.805317 6.611177
2.401467 7.237831
2.044436 6.850358
2.281103 7.256269
2.368872 7.344535
2.338938 7.113953
2.552498 6.922168
2.089302 7.023751
2.247086 7.698353
2.140717 6.734668
2.455862 6.525362
2.230454 6.644336
2.635557 7.298910
2.016148 6.460424
2.406344 6.516884
2.630795 6.656838
2.531106 6.872524
2.225410 6.528320
2.467712 6.990289
1.886418 6.941152
2.626549 7.008075
2.794996 7.043291
2.582716 6.623527
2.256963 6.833594
2.648899 6.701330
2.489212 6.872502
2.918082 7.147491
2.134483 6.940022
2.669533 7.057606
2.682007 7.251472
2.417514 6.614845
2.594259 6.791043
2.877874 6.527762
2.974966 6.441699
2.823379 6.518115
2.909219 7.619908
2.473774 6.545394
2.853317 6.941793
2.904938 6.864951
2.869510 6.677768
3.176002 6.561216
2.764950 6.723516
3.289985 6.942709
2.611176 6.684873
3.242974 6.282452
3.451747 7.051358
3.104189 6.881024
3.129003 6.236676
3.038339 6.652420
2.879210 6.658520
2.605159 6.268366
2.974355 6.196654
3.336997 6.745867
2.992157 6.904424
3.547166 6.785550
3.179803 6.576708
3.101778 6.286483
2.909164 6.754625
3.767725 6.498381
2.968839 6.611921
2.893598 6.612535
3.532119 6.312604
3.147426 6.440511
3.209367 6.526312
3.149162 6.869988
3.275360 6.429735
3.397710 6.260120
3.506026 6.506758
3.111445 6.959392
3.517893 6.873629
3.069828 6.989578
3.529891 6.301726
3.322729 6.527143
3.299730 6.540535
3.375860 6.385930
3.821261 6.718997
3.181852 6.850885
3.651658 6.132129
3.566556 6.775217
3.263141 6.409439
3.883968 6.251846
3.330342 6.427920
3.625065 5.915835
3.061127 6.733441
3.172079 6.382519
3.444494 6.157020
3.880339 6.753149
3.364550 6.015079
3.824871 6.102665
3.955648 6.063722
3.354157 5.951708
3.287998 6.614370
3.821332 6.727179
3.110185 6.090548
3.340301 6.138918
3.656714 6.462099
3.652003 5.967289
3.437953 6.340801
3.466301 6.478419
3.803047 6.150718
4.028388 6.275690
4.098437 6.605608
3.949036 6.466596
4.165487 5.665219
3.384671 6.084450
3.684410 5.765630
3.912779 6.444467
3.853811 5.984181
3.815539 5.903513
4.198979 6.201822
3.804818 6.044148
3.674128 6.110962
4.335748 5.985583
3.899972 6.298586
3.964950 5.602501
4.365575 5.955080
3.668593 5.371133
3.790277 5.864974
4.153879 5.726681
3.597371 5.858424
4.094731 6.473871
4.015718 5.797556
4.554762 5.823802
4.463924 6.029299
4.060545 5.995896
4.323859 6.508792
4.199645 5.906989
4.285363 6.138911
4.154281 5.820078
4.635155 5.871197
4.560849 6.376366
4.278683 5.838673
3.971050 6.315224
4.049329 5.703807
3.967526 6.433466
4.311285 6.086481
4.648709 6.037232
4.159134 5.817053
4.562677 5.781227
4.106539 6.020488
4.180578 5.665668
4.648676 5.543720
4.106912 5.519325
4.575904 5.513212
4.966638 5.604573
4.025584 5.935652
4.542844 5.660050
4.692006 5.792949
4.592995 5.428145
4.290045 5.863410
4.182613 5.977750
4.400301 5.792077
4.246280 5.523476
4.302297 5.806447
4.282662 5.513129
4.537045 5.909981
5.091222 5.600104
4.500841 5.446377
4.564490 5.774536
3.999791 5.345251
4.183798 5.560644
4.479061 5.443527
4.739889 5.412928
4.645632 5.663692
5.016533 5.100128
4.503147 5.383342
4.392547 5.689419
5.032878 5.115254
4.834170 5.523755
4.817972 5.701684
5.258228 5.266652
4.907923 5.878176
4.395809 5.466528
4.930404 5.406795
4.534897 4.921063
4.698669 5.595573
4.867749 5.593926
5.323553 5.279695
4.480193 5.763410
4.889873 5.505816
4.842186 5.222519
5.298088 5.041166
4.682707 5.600588
4.930584 5.643976
4.874513 4.836216
4.634323 4.961708
5.070786 5.609970
5.012693 5.400212
5.134296 5.422197
4.887318 5.543591
5.133217 5.161120
5.041317 5.239930
5.294723 5.514323
5.036155 4.906434
5.382157 5.222677
4.635229 5.171533
5.322663 5.066561
5.244219 4.807148
5.056142 5.274291
5.332388 5.220175
5.031878 5.019397
5.069832 5.217719
5.180197 5.249834
5.493369 4.783426
5.130389 5.123002
5.342939 5.616906
5.171698 5.004930
4.798002 5.022455
5.305288 4.795634
5.370031 4.399792
5.280322 4.691588
5.283239 5.200153
5.285541 5.235958
4.630407 4.761506
5.292213 4.519821
5.254741 5.081340
5.422875 5.142274
5.149546 4.763951
5.026436 4.638719
5.181944 5.036387
5.372461 4.444385
5.884104 5.043812
5.712470 5.248708
5.219758 5.004631
5.731875 4.846093
6.000664 4.701564
5.581032 4.469741
5.519997 5.067385
5.796388 4.888474
5.487473 4.377221
5.684449 4.526175
5.631162 4.921499
5.658469 4.685979
5.696682 4.739167
5.586842 4.752094
5.655636 4.258716
5.653707 4.776754
5.567588 4.511401
5.755258 4.670211
5.730890 5.009271
5.257214 4.555343
5.867273 5.061218
6.387976 4.542489
5.461126 4.646124
5.723977 4.808654
5.464512 4.465700
5.431616 4.277276
5.523480 4.369694
5.765761 4.131023
6.294796 4.125751
5.710989 4.190213
5.893983 4.302448
5.566041 4.609357
5.356039 3.828146
6.367335 4.677151
5.747843 4.383548
5.576004 4.569492
5.531965 4.402839
6.562807 3.760677
5.902365 3.798595
5.966915 4.514842
5.910126 4.622990
5.556290 3.930314
5.788136 4.234508
5.813716 4.492497
5.492193 3.792646
5.533601 4.444064
5.739751 4.510578
5.870834 4.090882
6.147179 4.047212
6.168250 4.084508
5.817317 4.087921
6.157824 4.073439
5.673504 4.385428
6.098832 3.792565
6.411936 3.801033
5.645668 4.081331
6.623021 4.669684
6.166776 4.519538
6.109615 3.577100
6.554146 4.296285
5.611439 3.741439
6.231496 4.041252
6.199226 4.273628
6.148960 3.996540
5.867499 4.171283
6.336538 3.660832
6.240137 3.412263
5.953242 3.839772
6.402932 3.638597
5.987028 4.017551
6.028411 3.821189
6.038355 4.302093
6.735072 4.043520
6.715541 4.159839
6.030351 3.590166
6.319357 3.905297
6.479232 3.714539
6.305673 3.530689
6.922229 3.904825
6.545040 3.994478
6.091841 3.520628
6.422496 3.413566
6.347338 3.163043
5.885583 3.670119
6.297283 2.947227
6.356910 3.988122
6.255462 3.634082
6.668101 3.435080
6.540645 3.500704
6.811159 3.245837
6.321514 3.298445
5.704934 3.471518
6.857570 3.090381
6.750985 2.761020
6.521787 2.755035
6.802280 3.609887
6.185554 3.333437
5.919172 3.357420
6.301948 3.343769
5.911350 3.434358
5.709035 3.857227
7.128891 3.564416
6.557557 3.598963
6.596544 3.509854
6.390122 2.906454
6.448868 2.842047
6.759048 3.110907
5.604408 3.788520
6.542045 3.646218
6.221346 2.769898
6.028891 2.777463
6.769483 2.962167
6.610107 3.480579
6.204347 3.158259
6.307687 3.473906
6.504987 3.092003
6.775525 3.913962
7.032635 2.612480
7.261758 3.350160
6.370221 3.428986
6.747381 3.100477
6.138751 3.645241
6.584230 2.547706
6.667219 3.674200
6.294420 3.274826
6.443052 3.096037
6.503009 2.951534
6.475207 3.463088
6.992437 3.393722
6.262675 2.881248
6.767750 2.987605
6.217795 2.423540
7.333947 3.199504
7.317359 2.228831
7.071783 2.189999
6.402226 2.848490
6.888805 2.954433
6.930600 2.883399
6.154446 2.481796
6.984818 2.889210
6.968423 3.249394
7.024532 2.749521
7.472397 3.240875
7.307676 3.109779
6.993877 3.013753
6.834755 2.939422
6.857746 2.507803
6.336603 3.359455
6.797862 2.227532
7.313278 1.808086
6.726358 2.395696
6.579405 2.190997
6.353935 3.289016
7.434817 2.500180
6.347397 3.303230
6.360079 2.418850
6.923522 2.715243
7.492302 2.390092
7.441551 2.351886
7.586703 2.240955
6.770051 2.543392
6.811767 2.405413
6.661593 2.385730
6.880500 2.766692
6.851186 2.961928
6.045080 1.515598
7.357176 2.303311
6.972910 2.265317
6.365077 3.599639
6.983503 1.651200
7.103687 2.822427
6.484270 3.050627
7.225867 2.910795
7.209540 1.265218
6.971257 1.735042
7.341476 1.493422
6.500488 2.602437
7.087830 2.604235
7.540793 2.485942
7.308917 1.957942
7.618659 2.265255
6.765713 2.571118
7.706880 1.856290
7.279012 2.385735
7.911204 2.989067
6.753567 2.648537
7.713082 1.891262
7.580877 2.523928
7.418711 2.500878
7.071584 1.081495
6.098940 1.664391
7.358526 1.622014
6.867708 2.960788
6.481892 2.471683
7.204551 2.217767
7.784044 1.263223
6.540131 1.326531
8.234734 2.143427
7.654234 1.411506
7.192610 1.797663
7.787315 1.386926
7.457484 2.761134
7.524624 1.236917
7.804400 1.347843
7.297374 2.184068
7.040564 0.952545
6.323720 1.533022
7.490051 2.059727
8.137645 2.626388
7.144400 2.313998
6.195377 2.434359
7.746068 0.961670
4.657372 1.531550
7.281207 1.433088
7.912830 1.312835
6.804627 1.869681
6.330198 1.569640
7.621994 2.297488
7.940181 1.650305
7.448997 1.010805
7.254880 1.402733
6.841358 2.052034
7.185331 1.573246
8.093031 1.690274
7.998391 1.298995
8.167947 0.778396
6.980853 3.299332
7.408831 1.280204
7.050330 2.449210
5.462938 2.285166
7.861317 0.710179
8.887522 1.831041
5.256130 3.063893
7.745021 3.145710
8.220330 0.012396
7.285648 0.895280
7.569892 0.724871
7.007935 2.178131
7.833422 1.272801
7.304556 1.316185
7.652468 1.058025
6.588978 0.247545
8.627844 1.638844
7.994778 2.985124
8.589825 -0.173627
6.410439 2.428355
7.359644 1.626764
11.589212 -0.670091
7.248662 2.859704
8.106150 4.929189
7.134866 -1.079671
6.673398 -0.646591
6.280489 -0.283751
7.800963 2.057794
7.285443 0.225584
6.206918 1.260330
6.889065 1.166413
5.283067 3.542130
7.995949 -1.382252
9.391641 2.786735
6.483015 -1.140735
6.018165 -0.521568
7.184307 2.611504
10.573051 -2.664293
9.645169 -0.304186
8.719898 3.528320
7.147151 2.208927
4.357588 -1.545050
3.684046 0.526722
7.760435 3.776109
7.814432 0.480594
7.142284 4.116064
7.374964 2.785881
8.900625 4.771159
6.016760 0.207120
9.333074 -1.073624
6.699560 2.418629
1.099803 0.436698
8.725834 1.906092
6.811585 -0.914470
10.189632 -3.997161
4.921894 0.449612
10.076478 4.877223
5.556308 0.685603
1.100909 2.205692
9.167199 5.313703
11.583616 -0.286652
10.655813 2.855589
10.955664 5.373541
10.685674 -0.016561
8.348265 0.168484
5.339901 -3.135898
12.248723 1.150212
1.920216 8.421779
8.860462 -0.665571
5.692348 2.385249
9.301732 -4.753821
-1.590623 2.242418
8.677119 5.912837
11.618105 1.364096
2.733639 3.884074
7.249135 3.165441
15.822468 -3.907919
13.512872 -7.561505
14.406088 4.464231
5.327756 -1.670668
3.261706 -6.315274
-2.124956 0.306727
10.045079 -5.824033
12.925772 9.621171
4.692618 0.999875
8.426231 4.450132
6.752941 -1.056097
2.161908 8.731446
6.216576 14.270760
10.902011 -3.434932
11.201515 3.626828
-5.972682 1.372309
10.918621 -3.256535
8.391668 -23.416739
9.800956 -1.614220
3.459545 11.881664
-12.743572 0.021639
-9.845011 8.074133
-0.965781 5.517604
21.604528 -11.076812
-0.133391 11.588987
15.942241 2.948553
12.388692 9.523115
11.261360 3.882849
26.795247 18.986140
-0.666271 3.579346
23.461798 -3.566785
-17.712657 10.045408
-2.281695 20.621456
-1.761969 -32.015932
-4.464161 -6.780269
13.777485 33.731853
-7.702544 45.673380
-20.500687 14.127346
8.472748 55.427711
15.608314 -48.301188
1.689579 21.450594
23.726692 1.346416
53.514996 4.472026
-8.973135 -15.654603
20.628916 -52.490554
11.275394 27.333007
19.294528 -15.630892
-7.086422 14.247329
9.424929 80.006498
-9.517473 -20.734077
-17.871455 -18.725070
20.620896 62.037232
87.711196 199.795862
-38.703765 6.954730
91.166456 158.736913
-12.996083 -118.802219
-60.769661 -101.270211
28.547022 34.226219
194.639190 -160.631090
-145.828988 5.397496
-1586.530996 83.489498
142.426001 -80.009815
-154.533051 89.088985
64.121613 -88.498923
73.103250 -793.289513
-0.996045 56.448977
247.303660 -180.008538
