11614.964937 11576.225383
-54.875926 -30.953450
-29.635549 6.778583
19.354121 -41.050001
-1256.427723 990.888675
-28.867752 -0.529971
3.737052 -20.316169
15.586836 -74.401029
12.150025 24.905904
5.853354 -221.168592
-4.576450 -37.327613
-18.840181 -10.499592
16.777977 29.904856
-11.806970 -27.091026
-73.188228 82.282917
-11.442283 -6.718786
0.949658 6.402687
-9.204672 -6.200110
18.456892 6.827105
-87.420723 -61.584353
14.097837 -33.902259
11.233966 12.398697
18.842635 23.042200
-4.888581 -8.352587
3.924160 25.740223
9.896384 -4.582095
-19.656933 27.987095
-13.966516 -1.836779
-1.306638 -2.768027
-32.344241 17.523208
-14.009401 1.375764
5.250544 -8.945947
3.114087 -1.934995
12.175482 11.004215
4.246369 1.291841
9.791713 5.574264
-1.664472 22.385700
-7.829202 22.764310
-10.889602 -15.525444
-0.295370 1.579714
4.436506 -6.414345
-1.059649 0.277700
-0.656918 -1.439381
4.632770 1.967270
-9.791699 -7.483716
-9.213033 -14.551352
-7.331757 -2.774290
-2.039315 1.729649
-16.018461 -11.283333
-1.970643 4.558133
0.802013 -7.462768
-6.992312 5.550344
-1.055150 2.501411
-1.389462 -3.144920
-11.000744 1.331649
-14.446954 -9.059240
3.441249 1.137925
-1.331845 -1.458819
4.822685 -2.821279
-2.514070 -4.760331
9.802591 2.920328
-0.705937 -6.342786
-16.654622 -5.854915
-2.415762 -7.356581
6.636318 -0.489232
-6.596793 5.783341
-0.543904 5.991479
-2.122082 -8.242733
4.419749 4.966541
5.897141 4.965442
2.581575 2.726151
5.148583 -3.991637
-0.237162 2.766026
-0.325792 -2.620369
-4.488476 1.901466
-2.670541 -14.950575
1.553808 10.339033
5.808121 -8.278921
2.917950 -5.398380
8.871887 6.656937
6.701241 4.571904
-5.787186 3.133659
1.413001 -0.556739
-4.933421 1.368276
1.776979 3.340979
8.293174 6.756647
-3.852990 2.817353
-8.403418 5.706282
-0.088868 -1.037809
3.076216 7.874626
-5.583295 -1.968394
4.698009 -3.360052
0.338833 -2.741364
-4.019885 4.216474
10.633204 -5.026767
2.951457 -14.590046
-1.294007 10.466702
-7.999033 0.661747
-7.811843 -6.721934
0.322058 5.870446
1.735516 -3.083041
-0.189731 1.780580
6.439463 2.811182
1.454419 6.975536
-5.201082 -6.652354
-0.402077 -3.792121
-4.320379 4.311349
-2.273660 -0.813901
3.426011 1.585438
1.312489 -8.592338
4.175905 -3.653461
0.530477 -8.170215
2.001088 -0.070371
-1.724120 -3.998584
3.146806 -2.866925
3.202414 -6.307512
-4.922086 2.813037
1.212161 1.968023
1.847982 -3.020453
-2.923189 -3.321132
3.860537 3.785574
-1.206122 -2.489703
1.272286 0.833666
-1.117919 -2.997475
-5.717414 0.989298
0.300003 -4.125361
2.525127 -2.690074
0.298735 -1.106064
5.913872 1.123782
4.054870 -2.926496
4.982171 -0.367109
2.284043 -0.823491
-2.357794 -0.747881
-1.504650 2.191471
-1.904125 0.258524
-0.437269 -1.993324
-1.003069 0.600789
4.533343 0.668160
1.300814 0.937474
4.482174 -1.429140
-2.776882 -0.003212
-2.454508 -1.014314
-0.699580 0.240576
1.387139 2.230171
0.549933 -2.159446
1.904017 -2.083378
0.357605 0.525856
-0.949401 -2.653592
-2.303300 -0.632155
-2.422647 0.541370
0.032882 0.642591
0.079410 4.998794
-0.431958 -0.988993
1.051731 -1.596965
0.145104 0.360752
-0.065848 1.242577
3.266312 -0.546836
0.208322 0.691491
1.271324 -1.105163
1.078869 0.198284
-2.084837 -1.616051
0.778608 2.003571
-1.346007 1.554133
0.064530 1.475136
-2.194027 0.218187
3.339664 1.004744
-0.979761 1.745868
-2.221153 1.190122
0.591532 -1.027981
-0.865509 -1.245827
0.250011 0.447138
0.589031 -0.013019
0.941694 0.513998
0.018214 -0.322591
-0.482598 0.204332
-0.448114 0.867575
-1.182176 1.162544
-0.564062 -1.210028
-0.909954 -0.017084
0.156879 -1.340402
1.952349 2.075685
-0.338906 1.552982
1.094096 2.039292
-2.434060 1.066547
1.317126 1.287976
1.555141 1.056391
-0.520723 -0.144044
0.923499 0.698018
-0.920967 -1.513659
0.665060 -0.242967
0.003888 0.346988
-0.174156 1.075212
1.823443 0.848025
-1.163748 -0.846072
0.067540 -0.293096
1.443283 -0.146286
0.395885 -0.459685
0.543715 0.205123
0.403230 -0.418481
-1.627508 0.295029
1.154492 1.153689
0.254664 1.315609
-2.856497 -0.556574
0.052914 1.225194
1.192300 -0.042929
-0.157974 0.432360
1.181247 -1.096235
0.707203 -0.011075
-0.150306 0.622205
0.269327 -0.702525
1.184188 0.035622
-1.239109 0.348014
-0.815770 0.961409
0.772854 -0.530289
0.867389 -0.585876
1.779757 -0.743775
0.876976 0.306677
-0.887848 0.568631
0.941472 0.570309
-0.364349 0.973397
-0.602475 0.760710
0.015556 -0.337285
0.123469 0.073728
-0.621937 -0.229688
-1.373533 -0.202868
-0.158043 0.009738
0.638158 1.320715
0.553539 -0.361314
0.013140 0.061537
0.951040 -0.115499
0.694559 -0.075356
-0.372512 -0.072597
-0.220402 -0.247152
0.914745 -0.685021
0.254552 0.084598
0.813446 0.495944
-0.030652 0.894412
-0.140489 -0.612410
0.884547 0.693993
-0.357106 -0.015470
0.234397 -0.773007
-0.211915 0.445809
0.149677 -0.456280
0.279362 -0.036255
1.124801 0.493103
-1.144082 0.535512
0.266552 0.051622
-0.241879 0.274864
-0.705564 0.747383
-0.275282 -0.593754
0.296971 0.128003
0.930273 1.043714
0.504232 0.041036
0.263981 0.724690
0.269679 -0.297965
-0.023715 1.093781
-0.313191 0.039696
-0.504804 0.216069
0.706697 -0.471724
0.844498 -0.002308
0.212010 0.064629
0.469041 0.663717
0.263390 0.767758
0.138534 0.278842
0.285640 0.640426
0.133784 -0.201672
-0.264224 -0.323918
0.731835 1.128450
0.341367 0.334042
0.573700 -0.090424
0.598001 0.160455
0.702218 -0.214267
0.047476 -0.348527
0.058558 -0.280632
0.089787 0.001057
0.376365 -1.044383
-0.209028 0.654404
0.503092 0.509774
-0.040612 0.834483
0.666528 0.276378
0.383029 0.302815
-0.002417 -0.224955
0.395601 0.050449
0.040440 0.721219
0.905586 -0.362273
-0.435463 -0.912695
0.399466 0.244195
0.162302 0.018349
0.345340 -0.315849
0.212839 0.025951
0.711745 -0.032681
0.222048 0.283002
0.238926 -0.552103
0.018129 0.103774
0.294699 -0.063863
0.004318 -0.415900
1.346617 0.113052
0.944058 0.395809
-0.117696 0.367624
-0.656199 0.181167
-0.083891 0.884789
-0.022345 0.044543
-0.265125 -0.259979
0.284900 -0.064786
0.350125 0.204417
-0.017567 0.292788
0.846185 0.052496
0.139472 -0.369458
0.385130 -0.301328
0.104752 -0.129927
-0.376437 -0.031504
0.115585 -0.524377
0.838596 0.043142
0.282021 -0.018816
0.356815 -0.169356
0.342529 0.074598
0.154837 -0.711248
0.080895 -0.973344
-0.605474 0.432644
0.498341 0.405776
-0.087282 -0.578388
0.273236 0.564091
0.165711 -0.215178
0.227707 -0.377469
0.000733 0.455374
0.361638 0.128407
-0.828704 -0.111641
-0.124991 0.190454
0.564082 -0.078840
0.091974 -0.316807
-0.330936 -0.013494
0.461107 0.227485
0.755474 -0.016898
0.529834 0.275462
0.676573 0.175215
-0.122688 -0.080690
0.381143 -0.193022
0.002560 0.205295
0.277117 0.024745
0.108618 -0.922308
0.830490 0.049438
0.476363 0.047210
-0.377631 -0.534249
0.197949 0.396894
0.367726 0.465534
-0.305725 0.424355
0.224937 0.077434
-0.295780 0.238883
0.663208 0.606592
0.176981 0.223141
-0.377778 0.059731
0.184663 0.023774
0.142365 0.521931
0.602087 0.192844
0.170063 0.077684
0.691927 -0.215044
0.794123 -0.261385
0.081141 0.250500
0.444992 -0.116869
-0.244753 -0.057553
0.379843 -0.151295
-0.023107 0.448687
-0.318041 0.174537
0.461876 -0.225333
0.029547 0.002986
0.566317 -0.371746
0.417832 -0.197064
0.357265 -0.146895
0.291014 0.331594
0.077713 0.392215
-0.082971 -0.401632
0.318211 -0.388918
0.002929 0.324733
-0.048917 0.256927
0.110866 0.053768
0.684802 -0.264227
0.206844 -0.228889
-0.260074 0.552691
0.639248 -0.633488
0.398442 -0.025144
0.029201 0.555391
0.860988 -0.282261
0.449582 -0.365716
0.095345 -0.063769
-0.069527 -0.027913
-0.321464 -0.226495
0.041585 0.000218
0.578798 -0.606459
-0.223870 0.032517
-0.051962 -0.408291
0.508630 -0.151732
0.026983 -0.317578
-0.065072 -0.401843
0.282752 0.161637
0.202318 0.096424
-0.189131 -0.048843
0.675007 0.412652
-0.030484 0.437603
-0.162189 -0.407573
0.115155 -0.685495
0.124865 -0.007370
0.126543 -0.228572
0.549420 -0.096091
0.493184 -0.566193
0.085015 -0.396488
0.102487 0.111139
0.221237 0.026108
0.330427 -0.452753
0.180285 0.047434
-0.042627 -0.380263
0.191395 -0.887685
0.737526 -0.323493
0.211620 -0.051901
0.187662 -0.100544
-0.069187 -0.086033
0.633568 -0.300252
0.649830 -0.307814
0.293269 -0.553734
0.473727 -0.342842
0.151014 0.122433
0.026097 0.002837
-0.115376 0.224530
0.314286 0.069186
0.020914 -0.100688
-0.197351 0.421350
0.383566 -0.459964
-0.091465 -0.221077
0.276437 0.071170
-0.250052 -0.694499
0.530531 -0.191220
-0.154324 0.240053
0.385188 -0.127347
0.308882 -0.173144
-0.543578 -0.237683
-0.618488 -0.026628
0.237919 -0.570099
-0.387194 0.095665
0.061666 0.136778
0.187138 -0.758574
-0.128346 -0.091430
0.480401 0.029169
0.408322 0.026740
0.150845 -0.167519
-0.163560 -0.259305
0.196814 -0.167603
0.253507 -0.093492
0.697679 0.143695
-0.036443 0.342409
0.047278 -0.145572
-0.028591 0.072343
0.088478 -0.156436
0.125946 0.086199
-0.293253 -0.122140
-0.000355 -0.282011
0.554483 -0.635250
-0.086022 -0.491251
-0.072809 0.168041
0.447841 0.109468
0.112887 0.334862
-0.163841 0.586281
0.035355 -0.625308
0.247105 0.349876
0.234730 -0.055325
0.321518 -0.050333
-0.056395 -0.282709
0.609696 -0.112750
0.800439 0.149599
0.095654 -0.280551
-0.253629 -0.040262
0.113734 -0.139197
0.233069 0.490120
-0.036512 -0.016508
0.486710 -0.218614
0.036985 0.003899
0.473237 -0.429415
0.608564 -0.048176
0.213634 0.226418
-0.049603 0.476776
0.170358 0.073382
0.171530 -0.317619
0.200834 -0.269153
0.432045 -0.413816
-0.076897 -0.214673
0.155575 -0.581865
0.102301 -0.279554
-0.296396 -0.270604
0.221235 0.033722
0.071776 -0.385624
-0.152832 -0.037721
-0.582406 -0.605623
0.095762 -0.394805
-0.236303 -0.549386
0.157768 -0.003905
0.436015 -0.050666
-0.224141 -0.212099
-0.271614 -0.407811
-0.031300 -0.140872
0.398266 -0.187765
0.381669 -0.096910
0.177091 0.048849
-0.376949 0.336665
-0.513869 -0.135189
0.254999 0.127872
0.302763 -0.365386
0.415949 -0.198115
0.209677 0.040254
-0.051482 0.233326
-0.067844 -0.319436
0.019503 0.281019
0.032324 0.024167
-0.304073 -0.090969
0.134537 0.246030
-0.142915 -0.303121
0.093611 -0.446854
0.210210 -0.081735
0.282667 -0.449604
-0.059641 -0.109815
-0.389818 0.166162
0.145533 -0.076766
-0.385027 0.370312
0.415317 0.557592
0.317754 0.033233
-0.451805 -0.126630
-0.478869 0.299000
0.106887 -0.051318
-0.010615 -0.509300
0.301343 0.063458
0.409955 -0.428643
0.796091 -0.213641
-0.348720 -0.018015
0.155568 -0.227574
0.149918 -0.497602
-0.622566 0.088333
0.099762 -0.241197
-0.080634 -0.752636
0.361162 -0.233349
0.103283 -0.152116
-0.279724 -0.554766
-0.363476 0.098535
0.015993 -0.585705
-0.252810 -0.230434
0.334014 -0.249352
0.614548 -0.289459
0.550478 0.056586
-0.144737 -0.160300
-0.474407 -0.319942
-0.034513 0.132573
-0.004847 -0.011585
0.299717 -0.435318
0.036280 -0.133885
-0.160432 -0.235487
-0.056645 -0.290824
0.491044 0.138171
-0.254820 -0.498464
-0.071065 -0.591327
-0.263598 0.054464
-0.165746 -0.267682
0.265505 0.125269
-0.340785 0.618155
0.193421 -0.081263
-0.279793 -0.281569
-0.828251 -0.193429
0.237933 -0.202163
-0.234124 0.169810
0.146436 -0.529703
-0.250168 -0.745781
-0.122669 0.031382
-0.448147 -0.138084
-0.048339 -0.722406
-0.007611 -0.428991
-0.141215 -0.562721
-0.091669 -0.238444
0.278708 -0.244673
-0.103506 0.347839
0.284168 0.022804
-0.130470 -0.763413
-0.113308 -0.834806
0.123392 0.041293
-0.317542 -0.356132
0.073862 -0.072561
0.067645 0.008620
-0.125829 -0.107254
-0.144681 0.356461
0.403346 0.036671
-0.131624 0.052795
0.093887 -0.438934
-0.874839 -0.121176
-0.649893 -0.509500
-0.189161 0.060250
-0.064959 -0.019441
-0.195559 0.002256
0.097752 -0.263534
0.257317 -0.173874
-0.039797 -0.460183
-0.355596 -0.317195
0.067517 -0.463136
0.308897 -0.140466
0.151989 0.276724
0.173675 -0.218851
0.366523 0.044454
-0.307962 0.003185
0.047990 -0.313748
-0.195116 -0.004232
0.112303 0.341770
-0.356443 0.008058
-0.099203 -0.341318
-0.040899 -0.413348
0.112577 -0.167027
0.135880 0.376137
0.130306 0.331808
-0.159272 -0.065954
-0.560782 -0.443502
-0.288080 0.193895
-0.102817 -0.188290
-0.339420 -0.166812
-0.383093 0.297689
-0.183599 -0.340409
0.260968 -0.134847
-0.142295 -0.317849
-0.178300 -0.053378
0.300410 -0.128883
-0.134068 -0.325081
0.005268 0.238446
-0.301318 -0.329235
-0.070485 -0.086829
0.085941 -0.096698
0.471380 0.100002
0.166290 0.163282
-0.656271 0.041328
0.302379 -0.310493
0.108073 -0.369658
-0.061215 -0.117969
-0.026793 -0.041167
0.006086 0.279217
0.056635 0.361972
0.014843 -0.301597
0.167585 -0.144419
-0.313422 -0.244165
-0.167123 -0.009101
0.120253 -0.124750
-0.471579 -0.352526
-0.213094 0.173216
0.052142 -0.251946
0.042345 -0.728703
0.257219 0.082637
-0.226540 0.351471
0.146990 -0.448026
0.009499 -0.657734
-0.173487 0.776748
0.008397 -0.569877
-0.460202 -0.051453
0.017133 -0.007896
0.019414 -0.224495
-0.215586 -0.137473
-0.574464 -0.182311
0.276737 -0.271763
-0.020203 -0.381443
0.018249 0.049782
0.109095 0.059517
0.228886 -0.017061
0.174855 -0.027371
-0.361674 0.003741
0.098479 -0.217627
-0.078397 -0.044387
0.157292 -0.286736
-0.064080 -0.468830
-0.280388 -0.474102
0.279746 -0.148577
-0.125377 0.186313
0.184881 0.251163
-0.181811 0.072306
-0.177692 0.302831
-0.438108 -0.224382
-0.069339 0.225193
0.670999 0.251717
0.011877 -0.231610
-0.083683 -0.210662
-0.348510 0.044206
-0.732876 0.049245
-0.497697 0.146600
0.321046 0.326015
0.267254 -0.101690
0.018022 0.103868
-0.223854 0.063534
0.145459 -0.166504
-0.531278 -0.325843
0.107725 -0.378759
-0.242420 0.109223
-0.742183 -0.171854
0.495675 -0.363873
0.008575 0.188719
-0.339811 0.177852
-0.154984 0.203015
0.026645 -0.201268
0.046658 0.000144
0.017971 -0.276550
-0.240594 0.203929
-0.161426 -0.216513
-0.197835 0.252765
0.208355 -0.045882
-0.222811 0.334137
0.788596 -0.045193
0.118624 -0.241824
-0.177143 0.254853
0.016294 0.132720
-0.068736 0.118991
0.271287 -0.005609
-0.151339 0.205780
-0.085029 -0.062575
0.050077 -0.313657
-0.211961 -0.010924
-0.529035 -0.200001
0.256577 0.038252
-0.572556 -0.196680
-0.142424 0.142856
-0.392677 -0.688142
-0.201818 0.352112
-0.137609 -0.315299
0.120713 -0.009864
-0.483412 -0.169513
-0.264102 -0.502182
0.137183 -0.015237
-0.459313 0.044434
-0.153788 0.192373
0.110232 0.054919
0.088077 -0.138223
0.039298 -0.278285
0.351270 -0.240558
-0.243644 -0.318225
0.047953 -0.313464
0.290738 -0.524142
0.149077 -0.087781
-0.246300 -0.264298
0.387005 -0.510283
-0.068719 -0.659378
0.262433 -0.202715
0.239394 0.424954
0.145321 -0.173052
-0.033479 0.272635
-0.153844 -0.037829
-0.043481 0.113142
-0.049393 -0.216508
0.032897 -0.047488
-0.316518 -0.073915
-0.719001 -0.148440
0.287265 0.004287
-0.367145 -0.182196
-0.535680 -0.487611
0.496060 -0.219593
-0.124855 0.040854
-0.069754 0.259765
0.082867 -0.084481
-0.212572 0.106253
0.095689 -0.519516
-0.093534 0.005885
0.600042 -0.065283
0.054554 -0.191623
-0.379394 0.129103
-0.084743 0.497430
-0.012106 -0.255296
-0.037442 -0.020276
-0.282885 -0.592172
-0.107587 -0.082805
-0.399904 -0.161883
0.042989 0.232268
0.238665 -0.244359
-0.254481 0.059013
-0.318372 0.472775
-0.058366 0.076268
-0.253983 -0.187901
0.046393 -0.440639
-0.046471 -0.341638
0.195567 -0.216341
0.328033 -0.043973
0.056432 0.183218
-0.464302 -0.233389
-0.077754 -0.306603
-0.013011 -0.237354
-0.161648 -0.258235
-0.369735 -0.384120
-0.012713 -0.219385
-0.207031 -0.051749
-0.056753 -0.270657
0.043887 0.039778
0.094316 -0.310601
-0.073440 0.155222
0.089690 0.095141
-0.270521 -0.146092
0.549207 -0.185051
-0.471014 -0.419490
-0.267582 -0.078701
-0.201336 0.279260
-0.016905 0.202080
0.130688 -0.616659
-0.226988 -0.040528
0.249192 -0.090207
-0.011312 -0.160998
-0.116567 0.317270
-0.446148 0.083465
0.118264 -0.065286
-0.260219 0.319035
-0.352120 -0.043934
-0.002463 0.055905
-0.418655 -0.134523
-0.511137 -0.374039
0.036959 -0.084823
-0.001252 -0.279832
0.007060 0.055647
0.129258 -0.093304
0.260365 -0.134183
-0.173135 -0.595619
-0.373734 -0.050666
-0.185478 -0.032410
0.190463 0.363753
-0.184808 -0.361747
0.436599 -0.654602
0.039191 -0.113835
0.178683 -0.216308
-0.139870 -0.029333
-0.093163 0.193535
0.325465 -0.041693
0.051629 0.039606
-0.283916 0.314836
0.158157 0.122154
-0.229926 0.009748
-0.299448 -0.026080
0.192668 0.042372
0.382448 0.138790
0.464869 0.430627
-0.247674 -0.425585
-0.361443 0.052855
-0.188326 -0.178290
0.076658 -0.402780
-0.303732 0.187508
0.183721 -0.232414
0.043778 0.673534
-0.038979 0.429453
-0.071133 -0.070305
-0.323175 0.021287
-0.140699 -0.181397
-0.040020 -0.370203
-0.185913 0.474735
-0.032990 0.235030
0.028522 -0.211542
-0.461742 -0.023659
-0.323323 -0.223204
0.053769 -0.068552
-0.029486 0.222763
-0.116341 0.518326
-0.003380 -0.161510
0.037527 0.189520
-0.203741 -0.477873
0.192791 -0.214962
0.438902 0.208513
0.034218 0.349596
-0.039139 -0.344010
0.102047 -0.191430
0.191483 -0.213503
-0.362528 -0.551445
-0.092396 0.270460
0.019098 0.084002
-0.186766 0.100839
-0.229509 -0.393993
0.229986 -0.042064
-0.032425 0.048707
-0.126547 0.178994
-0.233031 -0.052377
-0.335931 0.100965
-0.259368 -0.059387
-0.374040 -0.354669
0.100391 -0.034647
0.276045 0.004651
0.007303 -0.293659
0.176484 0.211753
-0.153368 -0.238880
0.013709 0.211303
-0.035972 -0.147169
0.484992 -0.244531
0.031380 0.368252
-0.122512 -0.341283
0.212319 -0.182698
-0.043037 0.129262
-0.221747 -0.039743
-0.455529 -0.027464
0.003630 -0.107469
0.075627 -0.067109
-0.607602 -0.002368
0.135165 -0.293614
0.160424 0.254070
-0.114444 -0.302433
-0.006889 0.468906
0.293535 0.347562
0.236546 -0.013372
0.069476 -0.226330
0.005863 0.032934
0.260130 0.429085
-0.114535 0.294441
0.070716 -0.125112
-0.068409 0.245568
0.026139 -0.253897
-0.260351 0.319221
-0.469365 0.196796
-0.430740 0.190570
0.059109 -0.150574
-0.631337 0.087297
0.201618 0.305826
0.437250 0.232612
0.170678 0.141690
0.213060 -0.144953
0.292297 -0.146039
-0.568828 0.412113
0.163464 -0.166329
0.107302 0.396916
-0.391863 -0.238941
-0.050374 -0.224615
-0.259818 0.196331
0.111743 0.116190
-0.324033 0.093572
-0.300245 0.017815
0.398603 0.037374
0.171479 0.277855
0.693206 0.035708
0.049370 0.072208
-0.090593 0.227937
-0.227162 0.136657
-0.201583 0.286299
0.222501 0.082583
-0.240899 0.043915
0.144747 -0.003884
-0.058302 -0.471549
-0.102907 -0.144173
-0.120135 -0.050537
-0.009556 -0.041437
-0.331207 0.369400
0.197582 -0.181969
0.088384 0.233407
-0.139065 -0.185790
0.074102 -0.139854
0.123741 0.110754
0.442574 -0.099612
0.347602 -0.128380
0.056241 -0.163463
0.086570 -0.034460
0.225763 0.069998
-0.002714 0.092721
-0.168815 -0.088067
-0.018528 0.062495
-0.314428 0.019001
0.026449 -0.183573
0.089055 0.056253
0.062357 -0.256160
-0.303074 0.350647
0.129668 0.037182
-0.687612 0.081230
-0.006290 -0.192889
0.364416 0.522342
0.208500 -0.041818
-0.038968 0.005128
0.164387 -0.247376
0.117554 0.262578
0.074457 0.065458
0.175651 0.351912
-0.166600 -0.234893
-0.014576 -0.045104
-0.158378 0.171110
-0.307846 -0.295690
-0.067050 -0.303875
-0.070513 -0.168519
0.052314 0.160072
-0.488187 0.037620
-0.165472 0.142845
-0.058184 -0.177326
-0.574809 -0.032577
-0.188584 0.217882
-0.716596 -0.120378
0.142899 -0.357670
-0.034769 -0.291171
-0.053513 -0.170198
-0.197728 -0.246393
-0.181066 -0.273973
-0.048280 -0.323679
-0.009048 -0.281782
-0.083584 -0.177584
0.395829 0.057433
0.340188 0.074051
0.161688 -0.559450
0.384799 -0.341657
-0.364052 0.042367
-0.320661 0.178010
-0.160651 0.401560
-0.468643 0.245772
-0.535856 0.175711
0.028849 -0.207024
-0.065990 -0.575013
0.361108 -0.101385
0.227194 0.132105
0.065091 0.026535
-0.059837 0.427286
0.008134 -0.082280
0.061744 0.080302
0.162518 -0.323392
0.018766 -0.312948
-0.386294 0.334392
-0.750746 -0.032651
-0.102865 -0.011671
-0.406651 0.181572
-0.298496 -0.089087
0.003885 -0.231244
0.332271 -0.096632
0.054914 0.045413
0.353496 -0.109228
0.218191 0.338354
0.072227 -0.267697
0.069389 0.164325
-0.125800 0.132238
0.153832 -0.140466
0.114900 -0.010293
-0.380131 -0.182529
-0.038580 -0.141726
-0.171997 0.174805
0.232507 -0.092698
-0.188974 -0.452148
-0.029749 -0.090989
-0.074405 -0.069715
0.244903 0.317143
0.277703 0.540524
0.494176 -0.276658
0.457926 -0.034040
-0.268409 -0.188891
0.183254 0.485583
0.141747 0.003700
-0.314646 0.162626
-0.071302 -0.163405
-0.239862 -0.002912
-0.127427 0.103298
0.429597 -0.287339
-0.219037 -0.475571
0.298060 -0.581444
0.161699 0.063492
-0.211814 -0.490678
0.268293 -0.099011
0.008575 -0.137828
0.229445 0.486049
-0.418273 -0.463890
0.590666 0.100810
-0.194388 -0.218780
0.131621 -0.262137
-0.384176 0.246765
0.010432 0.242591
0.010372 0.178136
0.418457 0.074509
0.019344 -0.051267
0.297889 0.104106
0.442384 0.034799
0.397419 -0.201666
-0.016508 -0.332567
0.129183 -0.027783
0.336542 0.426088
-0.060099 0.192383
0.131584 -0.007577
-0.491153 0.133670
-0.001506 -0.249261
-0.074129 -0.050978
0.066111 0.032402
0.429007 -0.098250
-0.160102 0.230713
0.174418 0.053944
0.105057 -0.249150
-0.080926 0.065712
0.492912 -0.102340
-0.090680 0.159026
-0.218951 0.166217
0.198725 -0.020616
-0.400142 -0.025319
-0.134368 -0.322251
-0.219550 0.167747
-0.388328 0.067189
-0.366254 -0.240688
-0.027427 -0.017815
-0.026916 0.045196
-0.067884 -0.536950
0.435668 -0.082920
-0.127034 -0.162132
0.300648 -0.117484
0.139167 0.171630
0.036990 0.002376
0.025860 -0.177982
-0.005322 0.019720
-0.213295 -0.087951
0.203790 -0.169222
0.019003 0.079437
0.042241 -0.312604
-0.089234 0.341024
-0.214369 0.145004
0.089619 0.246382
-0.099743 -0.232560
0.243824 0.278618
-0.348340 0.222488
0.136206 0.023038
-0.421131 0.288013
-0.135196 -0.107561
0.090488 -0.457616
0.035475 0.085579
0.132376 -0.307566
0.058858 0.009526
0.119865 -0.515445
0.394606 0.264127
-0.000171 -0.085610
0.226364 -0.185823
0.538047 0.167247
0.182039 -0.095194
-0.321532 0.008921
0.061253 -0.080423
0.076434 -0.417172
-0.006332 -0.229364
0.184469 -0.124500
-0.004127 0.133915
-0.373548 0.113546
0.125499 0.076467
0.059480 -0.518726
-0.151172 -0.391120
0.052285 0.088860
-0.190075 0.019022
-0.009002 0.014683
0.436569 0.139659
0.026499 -0.190133
0.361232 -0.220990
0.375427 0.402575
0.379179 0.379449
0.284854 -0.272794
-0.051794 -0.114865
0.122538 -0.487020
0.090656 0.412738
0.034673 -0.178514
0.115551 -0.083367
0.070067 0.192823
0.068799 -0.226110
-0.158415 0.214241
0.040770 -0.444933
-0.378976 -0.229053
-0.510128 -0.144603
0.142998 -0.146258
0.080303 -0.059513
0.148860 0.156614
0.131006 -0.000779
0.189247 -0.108650
-0.405044 -0.441586
0.139244 -0.054415
0.095165 -0.201507
-0.380953 0.183983
0.227045 -0.215304
0.325767 -0.024133
0.281937 0.070853
0.129263 0.443797
-0.336687 -0.125800
0.073692 -0.145113
-0.100842 -0.285172
0.008162 -0.306302
0.029700 0.069886
0.080840 -0.245905
0.089399 -0.164170
0.210048 0.343446
-0.139665 -0.411251
-0.060577 -0.076982
-0.460816 0.300921
0.002719 0.301646
-0.046958 -0.217846
-0.436590 -0.227517
0.272626 -0.168726
0.333068 -0.083741
0.263440 -0.333149
0.277336 0.130976
0.165394 0.124185
0.213055 0.072257
-0.194524 -0.000429
0.057794 0.055996
-0.356764 -0.146330
0.463495 0.247417
-0.499430 -0.426125
0.039458 -0.012549
0.161467 0.035840
-0.190140 0.089967
-0.234725 0.201744
0.351856 -0.333066
-0.290114 0.056629
0.323372 -0.063134
0.076330 -0.074800
-0.171516 -0.134952
-0.012156 -0.292334
-0.007215 -0.247281
-0.137254 0.234946
-0.279857 -0.332669
0.305366 0.302313
-0.238064 0.266284
-0.151044 -0.088366
-0.228611 0.183951
0.444739 -0.092339
0.508110 -0.141314
0.183390 -0.142933
-0.151165 0.230556
-0.086336 0.247279
0.107449 -0.007571
-0.166842 0.027500
-0.118454 -0.515142
-0.095329 -0.508317
-0.208820 -0.062281
-0.290035 0.096715
-0.161348 0.062074
-0.025398 0.286363
-0.498993 -0.157384
-0.089407 -0.025512
0.018132 0.078813
-0.197039 -0.120827
-0.154185 0.315388
0.066532 -0.061576
-0.041408 -0.411143
0.119334 -0.085278
-0.120009 -0.008183
-0.162155 -0.020555
0.033287 -0.223231
-0.475487 -0.181867
-0.233327 -0.326924
-0.009095 -0.257653
-0.011976 -0.410589
-0.047418 0.039750
0.157626 -0.033419
-0.265359 -0.527219
0.279153 -0.211081
-0.226196 -0.565786
0.111219 -0.064525
0.097483 -0.364499
-0.178718 0.310724
0.110284 0.287618
-0.137371 0.251224
-0.152012 -0.022621
-0.173137 -0.206561
-0.094939 -0.191353
0.232458 -0.263164
-0.589424 -0.784565
-0.512894 -0.577947
-0.398773 -0.212858
0.053393 -0.209633
0.063260 -0.023161
-0.017368 -0.021048
0.016470 0.091359
-0.451933 -0.690429
-0.107859 0.021054
-0.211502 0.214146
0.264688 -0.069717
-0.194378 -0.050844
-0.032744 -0.157094
0.466714 -0.329633
0.093964 0.285913
-0.136625 -0.212189
0.099648 -0.061900
-0.072032 -0.477464
-0.209994 -0.280401
0.296870 -0.159881
-0.038365 -0.099521
-0.033554 0.030911
0.007226 -0.190542
-0.003998 0.018385
0.019958 0.109176
0.064119 -0.043169
-0.500992 -0.054353
0.077833 0.240091
-0.237909 -0.298752
-0.144922 -0.092773
-0.107023 0.201274
-0.126769 -0.320433
0.041209 -0.495034
-0.433935 -0.268651
0.260618 -0.214764
-0.253872 -0.259896
-0.249967 0.189039
-0.095380 0.193113
0.155821 -0.100362
0.185291 -0.302573
0.131842 -0.332178
0.072010 -0.012166
0.078186 0.210411
0.204756 -0.181338
-0.015006 -0.406883
-0.363135 -0.305386
-0.227810 -0.152215
0.059294 -0.090840
0.185472 -0.241816
-0.419170 -0.059501
0.166300 -0.481396
0.027530 0.004284
-0.120247 0.047884
-0.369227 -0.133629
-0.036273 -0.332317
-0.287476 0.287516
0.068848 -0.250748
0.270669 -0.028647
0.176048 -0.030351
-0.015284 0.119872
-0.242868 -0.245975
0.037727 -0.283185
-0.413512 -0.373240
-0.129398 -0.177254
0.479440 -0.427292
0.021406 0.378985
-0.024030 -0.275495
0.048307 -0.370815
-0.133410 -0.101586
-0.511006 0.098488
-0.008020 -0.146152
0.109440 -0.089100
0.263471 -0.051305
-0.022510 -0.229580
-0.030837 -0.005944
0.008711 -0.157339
-0.291948 -0.478562
0.204213 0.231947
0.127320 0.363307
-0.130130 0.069706
-0.152963 -0.126231
0.293154 -0.059289
-0.339855 -0.381939
0.135473 -0.144037
0.007131 -0.115268
-0.201192 -0.155446
0.156694 0.045598
-0.153820 -0.328282
-0.092766 -0.296584
-0.162019 -0.235482
-0.241462 -0.227296
-0.004149 -0.355677
-0.511873 0.368957
0.215326 0.071244
-0.472340 -0.610574
0.057302 -0.127767
-0.249756 -0.418605
0.120058 -0.258761
0.057473 -0.272084
-0.068616 0.347711
-0.152135 -0.439669
0.158370 0.114735
-0.029362 -0.372370
-0.108435 -0.043445
-0.384280 -0.251024
0.014016 0.366356
0.133636 -0.104927
-0.107246 -0.609794
0.300044 -0.385043
-0.426920 0.126317
0.223184 -0.225687
-0.281023 -0.028785
0.108090 0.167158
-0.068118 -0.339649
0.277211 -0.064843
-0.098774 -0.252352
-0.195455 -0.328513
0.063511 0.029718
0.382535 0.075623
-0.042196 -0.011987
-0.231576 -0.228155
-0.446539 0.319864
0.258377 -0.394983
0.061761 -0.177593
-0.375278 0.212440
0.122516 -0.381291
0.024670 -0.354383
-0.035697 0.197080
-0.202644 -0.228112
-0.206780 -0.208944
-0.337866 -0.149195
0.093578 -0.221018
0.019177 -0.773777
-0.127019 0.091823
0.129599 -0.352247
-0.477050 -0.408707
-0.507973 0.137849
-0.034860 -0.088628
-0.060313 -0.000362
-0.150066 -0.500555
-0.316768 -0.126024
0.256932 -0.299698
0.155955 0.392199
0.101746 -0.110417
0.163370 -0.569646
0.150825 0.140832
-0.478098 -0.273247
-0.130675 0.055671
-0.243350 -0.252516
-0.226362 0.034355
0.141732 0.250491
0.171362 -0.149362
-0.067062 -0.291792
-0.115924 0.238064
-0.706586 -0.250812
-0.323219 -0.111755
-0.113641 0.293349
-0.047884 -0.937629
-0.537672 -0.376990
0.051056 0.054072
0.007551 -0.076334
-0.274562 -0.123587
0.272291 -0.224057
-0.424610 -0.178507
-0.026225 -0.179553
-0.369891 0.086710
-0.011981 0.283143
-0.006766 -0.230015
-0.231188 -0.502765
-0.000044 0.146482
-0.098304 0.008610
-0.347003 -0.163251
-0.381981 -0.477298
-0.463799 0.157002
-0.447109 -0.338191
-0.660983 -0.253806
-0.164855 0.117266
-0.053315 -0.154189
-0.070427 -0.570258
-0.054401 0.209772
-0.497059 -0.065473
-0.450442 -0.539616
-0.062877 -0.080324
-0.011467 -0.078703
-0.059688 0.303339
-0.187881 -0.513145
-0.590894 -0.144674
0.121469 -0.046052
-0.266560 -0.089402
-0.068208 -0.121336
0.024279 -0.085604
-0.369588 0.163101
-0.003392 -0.698418
0.422530 -0.476775
-0.175390 -0.755942
0.003778 -0.241341
-0.138935 -0.088391
-0.115845 -0.145375
-0.172078 -0.429439
-0.371186 -0.358939
-0.404899 -0.217732
-0.457078 0.051526
-0.065843 -0.033734
-0.311374 -0.246970
-0.008388 -0.784147
0.084257 0.036943
0.240443 0.039720
0.009305 0.135950
-0.501237 -0.278420
-0.025531 -0.050825
-0.371654 0.094058
-0.111594 -0.511245
-0.518805 -0.223419
0.372707 -0.078995
0.132470 -0.155445
-0.609153 0.113745
-0.158349 -0.334891
-0.204922 -0.199922
-0.476026 0.286051
-0.482479 -0.243191
-0.125916 -0.074232
-0.017248 -0.139889
-0.329131 -0.247349
-0.003153 -0.450612
-0.358526 -0.580673
-0.639910 0.050658
-0.880361 0.164779
-0.260875 -0.276572
-0.060762 -0.251016
-0.112362 -0.176427
-0.344811 -0.433543
-0.093454 -0.251601
-0.185370 0.001091
0.097418 0.171097
-0.240845 -0.062977
-0.194928 0.504404
-0.613833 -0.061594
-0.630355 -0.275337
-0.039448 0.323286
-0.203984 -0.189119
-0.315604 0.017042
0.061512 -0.122808
0.043216 -0.192155
-0.051040 0.236710
-0.151654 -0.153032
-0.374875 -0.368331
-0.545671 -0.147927
-0.813722 -0.016949
-0.098062 -0.339125
-0.141359 -0.106936
0.034116 0.290228
-0.429353 0.578523
-0.407545 0.016447
-0.129046 -0.366209
-0.648575 -0.302033
-0.099685 0.251285
0.041318 0.169216
-0.161491 -0.270312
-0.194386 0.554379
0.043176 0.162314
0.004864 0.308366
-0.146675 0.156913
-0.091867 -0.288746
-0.251567 -0.289407
-0.148773 -0.322229
-0.391267 0.235586
-0.070638 0.134067
-0.364755 -0.209858
0.255698 -0.453607
0.066531 -0.294247
-0.534759 0.146283
0.194365 -0.227752
0.078007 -0.218149
-0.252710 -0.256299
0.088741 -0.225679
-0.562955 0.224593
-0.064105 0.085819
0.063881 0.346694
-0.365157 -0.127723
-0.317688 -0.733180
-0.348895 0.343169
-0.404726 -0.253558
-0.146758 -0.083315
0.254950 -0.026060
0.374772 -0.255423
-0.197980 -0.017357
-0.173883 -0.112841
-0.434718 0.256700
-0.264204 -0.428000
-0.463241 0.416664
-0.395338 -0.441550
-0.145311 -0.296669
0.265099 -0.487548
-0.059325 -0.061681
-0.098033 -0.149890
-0.674664 -0.243937
-0.614178 0.036867
-0.692407 0.279283
-0.182138 0.198328
0.301482 0.062863
-0.126464 -0.280949
-0.142590 -0.116263
-0.305065 0.226255
0.031052 0.499005
-0.330723 0.386192
-0.301109 0.350370
-0.526433 0.238520
-0.582428 -0.545122
-0.435175 0.174710
0.265595 -0.105918
0.001793 -0.501426
-0.269791 0.164216
-0.324221 0.038158
-0.339952 0.586754
-0.493793 0.429546
-0.159336 0.008150
-0.179149 -0.140231
-0.678931 0.303479
-0.274132 0.045963
-0.337879 -0.007194
-0.348192 -0.415720
0.077110 0.096449
-0.060957 0.014125
-0.343388 0.459902
0.047223 -0.017556
-0.205892 0.168717
-0.475876 -0.116197
-0.328435 -0.079817
0.036908 -0.419232
-0.331040 0.493892
-0.359597 -0.309584
-0.637864 -0.128677
-0.069878 0.311415
0.042285 0.025888
-0.451028 -0.281852
-0.092769 -0.200888
-0.134521 -0.346903
-0.093722 0.071641
0.313497 -0.024333
-0.474850 0.301262
-0.116940 -0.134796
-0.488084 -0.408604
-0.122018 0.032103
-0.388929 -0.041626
-0.052648 0.195697
0.236641 -0.140664
0.143106 -0.201332
0.041679 0.378148
-0.035998 0.256390
-0.260453 0.037472
-0.553771 0.103441
-0.513113 -0.014154
-0.193055 0.408249
-0.195389 0.176358
0.281291 0.117568
0.025634 -0.184630
-0.070347 0.290224
-0.505316 0.501840
-0.177394 0.252307
-0.005050 0.545476
-0.412730 0.433923
0.191021 -0.089149
-0.341882 -0.257548
0.038119 0.279492
0.038211 0.340524
-0.014902 -0.535166
0.004917 -0.213774
0.247820 0.216023
-0.470382 0.150149
-0.243680 0.247662
-0.308747 0.040942
-0.047396 -0.187395
0.183505 -0.075603
0.280375 0.256527
-0.272984 0.069125
-0.486818 -0.376629
-0.478027 0.245066
-0.198040 -0.116456
-0.010624 0.146727
-0.892679 0.161294
-0.089310 0.133172
-0.099255 -0.112133
0.146230 0.048547
-0.188908 -0.277932
0.021867 0.427579
-0.131964 0.189733
-0.533214 0.042163
0.167070 0.013014
-0.577789 -0.311893
-0.099845 -0.300804
0.030959 -0.464025
-0.574187 -0.077423
-0.336682 -0.391752
-0.774332 -0.561034
-0.285579 -0.085885
0.055685 -0.067042
-0.005207 -0.431665
-0.287612 0.057768
-0.257219 0.194388
-0.174546 -0.183570
-0.531843 0.045353
-0.031616 0.420079
-0.322077 0.186246
-0.996382 0.597596
-0.668389 0.190264
-0.241081 -0.401616
-0.328303 -0.205338
-0.045906 0.137144
-0.582917 0.528408
-0.301352 0.054808
-0.495363 0.090536
0.026656 0.305689
-0.589682 -0.708212
-0.513179 0.072427
-0.306818 0.042048
0.151967 0.231800
-0.313507 -0.147888
0.121950 -0.055106
-0.179213 -0.403860
-0.824533 0.011697
-0.234030 0.118464
0.072906 0.024590
-0.658587 -0.183874
-0.071864 0.129047
0.151524 -0.064804
0.289246 -0.059330
0.040204 0.145693
-0.577736 0.101424
-0.388620 0.410364
-0.262192 0.064472
-0.371365 -0.166175
-0.482799 0.211052
0.428493 0.109121
-0.038206 0.081747
0.318007 0.017528
-0.150675 0.269029
-0.444425 0.829712
-0.172336 0.619954
-0.266300 0.123727
-0.569285 0.180608
-0.378730 -0.095767
-0.096402 -0.019881
0.246783 0.153000
-0.406639 -0.115896
-0.192484 0.291882
0.167525 0.024553
-0.387595 -0.094971
-0.746030 0.101774
-0.446029 0.275169
0.343128 -0.310332
0.223961 0.110197
-0.069212 -0.068430
0.180214 -0.342090
0.021180 0.167194
-0.401055 0.060958
-0.460272 0.233919
-0.457532 -0.419552
0.085129 0.228403
-0.235137 0.347917
0.222208 -0.093560
0.095528 0.277094
-0.247806 0.411643
0.020691 -0.311569
-0.465226 0.232478
-0.605125 0.028500
-0.431466 0.242880
-1.010655 0.445001
-0.456055 0.058667
-0.008656 -0.100327
-0.373403 0.139643
0.098295 0.717991
0.739376 0.734214
-0.574870 0.387306
-0.007919 0.115138
0.350994 0.201403
-0.040361 0.323101
-0.248664 0.434359
0.103836 0.100447
0.261295 0.413711
-1.023031 0.467567
0.391246 0.257248
-0.388381 0.244693
-0.077183 0.704855
-0.748589 0.512419
-1.115972 -0.175576
0.167307 0.420176
0.000201 0.436325
-0.322713 -0.121574
-0.014264 0.411503
-0.369068 -0.134758
-0.454413 0.523949
0.226964 0.191967
-0.054379 -0.227603
0.173861 -0.545547
0.193429 0.108457
-0.420592 0.115607
-0.378766 0.035291
0.113426 0.033398
0.025331 0.117151
-0.576830 0.307749
-0.163192 -0.088531
-0.188105 0.396522
-0.441010 0.326822
0.529080 -0.269958
-0.458555 -0.261837
0.646043 0.030644
-0.050027 0.351525
-0.660881 0.456292
0.132098 0.092625
-0.811374 0.038230
0.226809 0.508056
0.446670 0.539489
-0.098443 0.202864
-0.281648 0.509577
0.489728 -0.022737
-0.093938 0.571769
-0.176602 0.673245
0.375661 0.162720
0.671474 0.093155
-0.078080 -0.225643
-0.156441 -0.510791
-0.406670 0.151774
0.523230 -0.007017
-0.224660 0.098578
-0.036840 -0.275160
0.131465 0.290035
-0.622992 -0.366498
0.028793 0.189245
0.536513 -0.260060
0.590857 -0.195541
0.442798 -0.098604
0.000859 -0.189195
-0.242510 0.013689
-0.246650 0.562124
-0.128361 0.716111
-0.051910 0.568866
0.075426 0.628493
-0.270418 0.204048
-0.068361 1.160824
0.272541 -0.117546
0.156523 0.232016
-0.066932 0.194466
-0.446809 0.211089
-0.198823 -0.080160
0.070199 0.137576
-0.311385 0.164915
-0.077867 -0.249092
-1.192916 -0.336966
-0.146391 -0.816355
0.816708 -0.056436
-0.007478 0.404087
-0.116770 -0.281084
0.117583 -1.118122
-0.449379 0.531530
-0.063752 0.772416
-0.583112 0.086318
-0.306008 0.317401
-0.293425 -0.003461
-0.126274 1.117472
0.776945 0.038254
-0.040475 0.005553
0.433887 0.350755
-0.379419 -0.269302
-0.970010 -0.326492
0.768874 0.108204
-0.071401 0.990470
-0.801873 0.076475
0.839203 0.101719
-0.084532 -0.035286
0.087600 0.749971
-0.809125 0.307642
-0.751385 0.058117
-0.550195 0.667042
-1.443872 -0.165203
0.124964 0.053127
0.573025 -0.054879
-0.170009 0.002509
-1.609190 0.437477
0.565440 0.315203
0.838216 0.360329
-0.222583 -0.049318
-0.431747 0.694191
-0.145845 0.206863
-1.206216 0.808126
0.314751 0.251835
-0.589697 0.076841
-1.520912 0.844776
0.031607 -0.036423
0.085073 0.318450
-1.337068 0.143427
-0.725037 0.874658
-0.622937 0.527206
-0.281950 0.809807
0.237555 -0.033249
-1.128230 -0.645946
-0.389090 0.359046
-0.980425 0.585176
-0.383606 0.233602
-0.521927 0.104422
0.050392 0.343151
-0.292554 0.264898
-0.300465 -0.547161
-0.017805 -0.067163
-1.677859 0.429975
-0.130084 0.983235
-0.585697 -0.536156
-0.670495 0.592856
-1.123556 -0.024015
-0.703225 -0.746597
-0.102231 1.528872
0.356890 0.217371
-0.532068 0.972438
0.476049 0.615279
-0.061923 2.219374
0.112237 -0.389602
2.012134 1.568528
0.027613 0.022290
-1.419948 -1.445064
1.001847 0.589448
0.336316 0.371204
-0.511237 -0.889632
-1.316134 0.885291
0.391635 -1.082860
-0.092920 0.084789
-0.015223 0.608010
-0.080647 0.047471
0.447218 1.056570
0.723978 1.106997
0.455074 0.875494
0.886219 -1.202748
-0.197838 0.970023
-0.964882 0.796010
0.353227 1.101795
-1.672396 1.456641
-0.474673 1.161379
-1.072336 -0.474036
0.830834 0.285001
-0.651883 1.307031
0.395360 0.438923
0.996105 1.081335
-1.128230 1.982896
-0.880295 1.352010
1.167675 1.254894
0.896684 -0.837409
-0.886651 -0.194917
0.222605 -0.640895
-0.093731 -0.264660
0.955581 1.340321
-1.455503 1.025528
-0.443159 -0.236436
-3.331321 -0.002217
-0.315039 -1.267638
-0.009876 -0.092319
-1.234890 -2.587014
-1.063821 1.628481
-0.909818 0.243425
1.900636 0.346996
1.376664 1.256133
-0.636675 0.819031
-1.006335 0.454293
-0.756722 1.281894
1.181014 1.414051
-1.026237 -0.139306
-1.790051 3.796758
-1.997330 0.497863
-0.890082 2.641677
-3.021218 0.662047
-0.069471 -1.713036
4.017702 -0.463791
-0.574109 -1.106352
-0.894656 -2.089572
-3.352873 -0.844467
-1.873852 1.733753
0.888575 2.780584
-1.517571 -1.340485
0.857976 -0.354711
0.706131 2.114994
-1.259744 -0.342677
-0.514787 -0.280789
0.192902 -1.926921
-0.528792 2.067283
2.646353 1.816908
0.448550 1.161165
3.238739 3.513699
-1.204303 0.490843
0.817137 2.832797
0.812538 1.679867
-1.218177 -1.162519
-1.685526 1.036608
-0.351656 5.019965
-2.068907 -0.022243
-3.372950 2.254754
1.760060 2.032948
-0.397090 4.668857
-1.437343 2.516631
0.456436 -2.104609
-5.062106 3.418822
3.971455 3.510195
1.300614 -1.516977
1.652705 3.643477
-0.253960 0.948087
-3.119975 1.662862
2.523308 0.009005
3.919690 0.315510
-2.063816 -3.662852
-1.502746 4.666283
2.186242 -6.487740
-7.825332 0.273741
-1.275961 3.876115
-4.636762 -0.376058
-6.038334 -4.479668
2.535592 1.666749
2.037820 0.583774
5.407350 -7.382171
-1.326505 2.775033
-5.452707 1.954931
7.062460 -6.789039
-1.207940 5.768515
10.696870 -3.486202
-4.268373 -3.572528
0.570372 1.995112
-0.459668 2.810630
-3.625538 -8.125891
6.627710 -6.244728
-2.148627 1.460564
-7.376135 2.814939
1.165262 -3.337989
-3.037577 -6.276949
-0.614897 -2.347011
-1.754914 5.467154
2.688212 0.817515
-3.236279 -4.011207
5.140612 -2.626311
9.389186 -4.477087
3.447416 2.829647
7.664519 -1.471086
1.645688 -5.387072
-7.952095 8.060820
-4.967193 -1.000297
7.473485 2.510254
-3.260414 6.037622
3.261839 6.200313
-5.579168 -5.148265
12.262426 -5.306202
-8.686597 3.121507
-10.288017 -2.431674
-6.939706 1.732605
-8.452215 -11.898873
2.783050 2.118418
3.974231 -3.140290
-1.146529 -0.541073
4.141905 1.424571
-1.239320 -4.132491
-4.173564 10.246991
7.330559 -0.628817
-6.257667 -0.035589
2.272184 -0.359122
-16.745920 -3.159846
-4.631949 -4.007728
-0.877362 6.773360
5.574150 -6.037922
-5.000295 -1.450943
0.865631 10.920355
3.479232 10.777287
-5.001699 1.922991
-0.997092 -1.828789
7.092954 -6.304921
1.903296 3.889457
6.322397 -6.856635
-2.250213 3.227868
10.193678 -15.384478
-7.319556 -3.902767
-5.270684 6.889447
-6.111716 4.946275
-7.702687 -4.448800
3.004640 -0.511278
5.162123 -2.272964
-4.638176 -2.477546
-9.552917 -14.293255
-0.013898 14.703560
-7.836926 -2.315914
-5.178997 -10.812947
5.846027 8.353725
7.406834 2.354389
-0.890224 9.202407
11.118162 -17.589563
1.214360 -7.151236
-1.937480 20.576866
-41.589094 6.455481
-1.455384 12.257731
3.286842 -13.233485
-8.156446 -1.183698
5.071224 -5.008799
9.771993 -7.544968
-2.004879 2.902052
12.209277 -17.878008
7.032418 -8.750517
17.192653 -9.032425
-22.275247 31.841011
11.911773 -6.354164
-8.904284 -0.589733
12.077806 -35.850868
-3.991629 -16.373742
-27.594426 -51.213794
-16.766495 20.468808
-12.295467 -46.589891
1.549206 -32.843280
-24.765773 31.742862
-59.869245 -29.846634
-15.485383 6.520401
34.546879 -6.589392
1.287149 -49.752854
-45.825783 63.549150
-1385.438492 -198.670823
4.913562 51.316564
66.181456 -12.829694
-58.004283 6.856788
4.680617 45.379566
-6597.372776 2604.535401
