13868.100666 13831.632525
1038.631659 826.581714
-22.456917 76.945021
-1990.624089 859.312929
21.513645 -36.588472
-132.256379 -1125.691201
-6.160526 36.191687
11.120342 29.870319
15.339678 2.503094
2.481306 69.203850
-7.188884 -7.263570
-176.407240 -143.007241
19.817704 3.232903
108.141687 -61.867466
-4.826831 -0.892548
16.573184 -0.908492
3.449756 3.545588
-36.005446 1.648972
5.128163 -9.374609
19.578530 -89.009399
4.784997 12.906696
33.493371 10.045930
8.109229 -4.058300
5.172249 -1.010470
0.258244 -1.573002
-18.129936 -30.794012
16.191372 1.942579
44.817300 -13.904135
1.637038 -2.516000
7.716478 4.833204
6.421978 -0.339874
-1.218481 -0.662518
8.106416 -6.523178
20.487011 -27.011962
5.850901 4.648664
21.071304 9.626126
5.710712 -3.796988
7.221592 0.547711
5.095357 -0.847396
4.221037 -13.388572
12.958755 -0.520868
26.163891 -3.298059
2.537749 -0.839671
7.162645 5.875309
9.430247 -0.723619
5.457406 -2.477063
9.178550 -5.503103
15.615519 -10.170580
6.594126 2.541032
14.743932 8.403438
6.842606 -3.910854
5.926312 0.383081
6.823786 -1.639580
8.155354 -5.180093
10.721780 -0.366746
18.880957 1.146062
4.619815 -0.250463
6.473278 3.997349
9.970297 -1.868726
6.658484 -2.043968
8.731994 -3.008434
13.302931 -3.800467
8.504787 2.043406
10.511340 5.619804
7.758363 -4.567384
5.147012 0.242863
7.660417 -1.262598
9.018355 -2.712518
10.354343 -0.525843
12.783180 2.100728
5.456354 -0.958843
5.808591 3.612304
9.735394 -1.803489
7.804887 -1.916944
8.837933 -1.819119
11.084545 -1.557860
8.410081 1.006328
8.425729 3.652676
7.718252 -3.568131
5.528433 -1.064719
8.812015 -0.697782
8.207400 -2.178607
9.652516 -1.134483
9.504737 2.086608
5.661001 -1.016854
5.739293 1.549395
9.678278 -1.440645
7.009734 -2.058109
8.678388 -1.247757
9.564947 0.017260
8.126499 0.333979
7.727160 1.611658
7.889342 -2.907143
5.741112 -1.861196
9.049519 -0.831750
8.308647 -1.760970
8.500460 -1.334631
8.243508 0.391413
6.210821 -0.902990
5.224695 -0.514615
9.382402 -1.889373
6.858830 -1.817844
7.567000 -0.980093
8.786419 -0.513124
7.847608 0.185573
6.406418 -0.010582
7.843074 -2.660685
6.514947 -1.535013
8.540511 -0.589537
8.752692 -2.281938
8.289859 -1.201788
7.210003 -0.880855
6.820313 -1.606741
6.096763 -1.643788
8.641631 -2.178034
7.086881 -2.925089
7.269231 -1.107096
7.299625 -1.226873
7.387982 -1.038129
6.277441 -0.683744
6.944582 -2.462826
7.141522 -2.239322
8.094828 -0.414639
7.819558 -2.257416
7.847527 -1.606800
7.336132 -0.893597
6.738636 -1.813057
7.157811 -2.652716
8.311525 -2.056709
7.250962 -2.852402
7.187396 -1.601517
7.893839 -1.874543
7.076072 -1.732879
6.476796 -2.538173
7.053523 -2.453660
6.872240 -2.465516
7.747387 -1.458055
7.782508 -2.173009
6.860049 -2.072102
7.436083 -1.831333
6.902281 -1.630522
7.239195 -3.024959
8.297847 -2.460826
7.483389 -2.491701
6.936534 -2.290036
8.112360 -2.448616
7.039608 -2.281233
6.806010 -3.065003
7.005571 -2.838363
7.525737 -2.726948
7.289285 -2.025103
7.488477 -3.014434
6.972655 -2.456242
6.951521 -2.224547
7.040834 -2.497541
7.586266 -2.889229
7.449416 -2.839503
7.516936 -2.710578
6.941046 -2.322484
7.701991 -2.702535
7.481991 -2.797702
7.163418 -2.941663
7.002340 -3.422916
7.858118 -2.885464
6.986420 -2.686971
7.284407 -3.224947
6.977606 -2.939973
7.221854 -2.625656
6.881780 -2.922873
7.459461 -3.321178
7.208438 -2.948636
6.965565 -2.570908
7.133893 -2.948129
7.693877 -2.655322
7.053953 -3.080844
7.322390 -3.110000
7.099770 -2.988668
7.590382 -2.787316
7.517573 -3.207155
7.323839 -3.073618
7.094995 -3.456002
7.508626 -3.036871
7.020601 -3.178451
7.196178 -3.420090
7.130259 -3.508459
6.921306 -2.525548
6.941193 -3.239173
7.615188 -3.078437
7.202510 -2.943642
7.111286 -3.043188
7.315172 -3.317475
7.643965 -2.749183
7.388288 -3.533415
7.202060 -3.450926
7.415612 -3.393012
7.318895 -3.094984
7.239088 -3.572103
7.263680 -3.302117
7.050856 -3.821677
7.004944 -2.883762
7.232720 -3.550128
7.478293 -3.460879
7.097451 -3.447705
7.038557 -3.176153
6.815127 -3.532120
7.480221 -3.040606
7.313644 -3.397870
7.022330 -3.682653
7.625832 -3.462618
7.374901 -3.199653
6.972169 -3.735970
7.331286 -3.636198
7.111220 -3.719698
6.887984 -3.361128
7.494068 -3.841233
7.599651 -3.864241
6.797086 -3.564769
6.891875 -4.079282
6.918023 -3.560900
6.543432 -3.543989
7.402419 -3.910280
6.726442 -3.600633
7.164801 -3.625818
7.203045 -3.496347
6.714957 -3.679909
6.980455 -3.721429
7.030770 -3.877433
6.859640 -3.702183
7.347209 -3.754225
7.182263 -4.111760
6.845431 -3.617877
6.804582 -3.875072
6.752944 -4.048467
6.891175 -3.942060
7.038888 -3.930089
6.651326 -4.380906
7.083909 -3.490693
6.655958 -3.899737
6.690658 -3.947695
6.667932 -3.826401
6.952912 -4.233849
6.765958 -4.018231
7.024571 -3.931580
6.945223 -4.312548
6.573381 -3.685824
6.674183 -4.111415
6.752743 -4.351584
6.667562 -4.320588
6.897320 -4.282239
6.430460 -4.492405
6.658194 -3.830968
6.631388 -4.017629
6.240981 -4.195734
6.641620 -4.330438
6.818115 -4.298815
6.337940 -4.427415
6.897368 -4.198574
6.647167 -4.209902
6.141016 -4.194276
6.614617 -4.286592
6.284745 -4.575786
6.527929 -4.379517
6.641268 -4.252605
6.714527 -4.609015
6.377121 -4.025941
6.487081 -4.589198
6.027725 -4.432586
6.390743 -4.439325
6.742419 -4.475888
6.520955 -4.673620
6.660263 -4.418815
6.505202 -4.598262
5.962133 -4.517673
6.603428 -4.652539
6.261872 -4.932805
6.328296 -5.054806
6.444067 -4.647536
6.115736 -4.805330
5.948816 -4.414060
6.320122 -4.570375
5.893808 -4.749165
6.340693 -4.810822
6.525148 -4.901701
6.236779 -4.923297
6.113529 -4.600766
6.299523 -4.791887
5.857756 -4.684087
6.318725 -4.996010
6.225322 -5.326336
6.008862 -5.155655
6.090186 -4.893883
5.984569 -4.864879
5.691669 -4.670682
6.164221 -4.893542
5.786342 -5.087384
5.995138 -5.080078
6.256803 -5.063711
5.961545 -4.913395
5.906643 -4.741919
6.128604 -4.943825
5.713118 -5.097860
6.035509 -5.045075
5.883764 -5.332407
6.188074 -5.096919
6.129564 -4.654237
6.008299 -5.436114
5.973586 -5.067312
5.689783 -5.162316
5.796583 -5.548792
6.039372 -5.184137
6.185101 -5.260187
5.738246 -5.450047
5.822079 -5.189610
5.651766 -5.103960
5.479746 -5.524176
5.902913 -5.279509
5.749406 -5.343614
5.718707 -5.344319
6.129926 -4.875989
5.705273 -5.278439
5.843286 -5.544385
5.703827 -5.336469
5.581736 -5.788346
5.784118 -5.331427
5.892343 -5.237247
5.760418 -5.402269
5.802965 -5.179028
5.750220 -5.551608
5.772473 -5.746624
5.627101 -5.692005
5.874057 -5.806013
5.486802 -5.522882
5.627299 -5.430109
5.521486 -5.482673
5.408066 -5.362821
5.675379 -5.611340
6.138815 -5.636440
5.590224 -5.816730
6.037455 -6.046560
5.312351 -5.652055
5.226478 -5.761837
5.516634 -5.708630
5.439113 -5.837457
5.400672 -5.888921
5.673853 -5.738283
5.330245 -5.678985
5.703592 -5.634256
5.322672 -5.841271
5.297932 -6.073034
5.300047 -5.849403
5.437396 -5.892037
5.330782 -5.873354
5.592640 -5.775216
5.135614 -5.832690
5.296923 -5.848592
5.221362 -5.924797
5.354552 -6.145224
5.121458 -5.888651
5.396776 -5.912305
5.240108 -5.700337
5.404969 -5.991627
5.229960 -6.001781
4.853138 -6.298472
5.204417 -5.981095
5.111848 -5.809440
5.273648 -6.013104
5.300833 -5.935337
5.132634 -6.102550
4.915867 -5.952073
5.064803 -6.342494
5.219072 -6.108280
4.804790 -6.121660
5.024539 -6.112789
5.035394 -5.899535
4.959118 -5.840816
4.957736 -6.276650
5.075433 -6.203689
4.874586 -6.161282
4.989377 -6.233677
4.866804 -6.112060
4.835539 -6.070653
4.831384 -5.943348
4.815811 -6.067423
5.196956 -6.265140
4.972921 -6.272082
4.862627 -6.546498
4.771936 -6.186896
4.567617 -6.288369
4.800022 -6.091221
4.546275 -6.190876
4.851795 -6.385221
4.793911 -6.111754
4.732720 -6.327100
4.788828 -6.223945
4.716463 -6.292438
4.733945 -6.195972
4.614285 -6.476934
4.791374 -6.458657
4.564716 -6.387179
4.656436 -6.313115
4.629258 -6.379148
4.788618 -6.414939
4.439379 -6.543919
4.429968 -6.560404
4.422805 -6.377797
4.699407 -6.316961
4.586580 -6.449068
4.664771 -6.704589
4.368275 -6.597520
4.307825 -6.553737
4.376941 -6.497568
4.468031 -6.691443
4.476642 -6.584145
4.182078 -6.640190
4.302950 -6.756197
4.249052 -6.427730
4.092538 -6.714801
4.170931 -6.547078
4.183238 -6.471085
4.347222 -6.430656
4.349056 -6.599659
4.376080 -6.638796
4.249784 -6.866962
4.183338 -6.619728
4.106399 -6.862729
4.236383 -6.769511
4.035374 -6.798852
4.157013 -6.736954
3.891252 -6.957304
4.137982 -6.834373
3.721399 -6.717132
3.791587 -6.884540
4.035424 -6.530282
3.938024 -6.704855
3.898879 -6.868691
3.883052 -6.790111
3.848646 -6.639349
3.799371 -6.638669
4.211425 -6.747071
3.876065 -6.843655
3.917253 -6.992940
3.819941 -6.724451
3.874594 -7.011278
3.906867 -6.787315
3.846019 -7.106503
3.681971 -6.864360
3.630816 -7.026500
3.922591 -6.939992
3.416821 -6.953563
3.557774 -7.113377
3.709881 -6.676437
3.440103 -6.621188
3.989622 -6.925941
3.848631 -6.925841
3.648809 -7.076593
3.668528 -7.083577
3.782175 -7.173751
3.526808 -7.022725
3.600346 -7.313295
3.321221 -6.963808
3.430078 -7.071991
3.677371 -6.965857
3.440481 -7.311623
3.449105 -7.174558
3.270212 -7.235397
3.311611 -6.825343
3.300835 -6.960163
3.625043 -7.193847
3.336218 -7.066972
3.362730 -7.209856
3.325474 -7.246617
3.398344 -7.052962
3.306558 -6.981183
3.203836 -7.253958
3.511931 -7.159806
3.421990 -7.104725
3.075862 -7.580661
3.480880 -7.346314
3.046722 -7.043903
3.064879 -7.367142
3.304820 -7.178719
3.142321 -7.398810
2.900919 -7.321678
3.142884 -7.310010
3.140800 -7.169630
3.129175 -7.272451
3.082848 -7.304433
2.929716 -7.517286
2.836707 -7.156343
3.007226 -7.365355
3.042154 -7.223739
3.017986 -7.376851
3.103335 -7.330039
2.738037 -7.373099
2.832138 -7.330598
2.923789 -7.439577
2.811923 -7.268408
2.881286 -7.435812
2.969848 -7.479393
2.742674 -7.296153
2.599839 -7.345137
2.733780 -7.525444
2.702055 -7.133222
2.735581 -7.461601
2.858654 -7.453247
2.718400 -7.305291
2.738489 -7.426788
2.591905 -7.416703
2.495155 -7.471154
2.701632 -7.534145
2.307636 -7.247404
2.630489 -7.451539
2.810748 -7.073391
2.479940 -7.314722
2.829275 -7.425450
2.585488 -7.521336
2.540458 -7.558148
2.626640 -7.573490
2.521159 -7.594866
2.395097 -7.487584
2.440040 -7.428751
2.193299 -7.420906
2.504866 -7.454491
2.521594 -7.398207
2.425809 -7.780498
2.518338 -7.460744
2.174790 -7.647494
2.296763 -7.401335
2.171075 -7.393789
2.426122 -7.644115
2.252345 -7.570285
2.323492 -7.621689
2.152959 -7.623543
2.244263 -7.378486
2.133815 -7.398888
2.278768 -7.666428
2.257524 -7.517771
2.187771 -7.818606
2.183433 -7.800098
2.014013 -7.485295
1.981003 -7.673394
2.073735 -7.458610
1.978459 -7.571558
2.104926 -7.782520
1.977621 -7.730044
2.064986 -7.600415
1.934279 -7.750372
1.970260 -7.635153
1.749967 -7.729999
1.735259 -7.680902
1.638588 -7.593550
2.141621 -7.577313
1.847203 -7.594675
1.998938 -7.907250
1.784058 -7.704722
1.481207 -7.835332
1.588542 -7.734824
1.645592 -7.771257
1.451002 -7.641526
1.621480 -7.646598
1.631219 -7.366862
1.563518 -7.530434
1.800324 -7.573489
1.632408 -7.735433
1.602805 -7.753370
1.744967 -7.849796
1.594478 -7.682716
1.379933 -7.904489
1.521885 -7.679703
1.090017 -7.669903
1.459894 -7.693431
1.442061 -7.566922
1.446169 -7.682601
1.599834 -7.631986
1.535060 -7.604169
1.370985 -7.887075
1.488538 -7.813899
1.112234 -7.905781
1.353053 -7.823813
1.314795 -7.699396
1.371305 -7.855257
1.169310 -7.813349
1.107444 -7.793650
0.992522 -7.740473
1.251235 -7.670722
1.262757 -7.770906
1.255685 -7.862209
1.189597 -7.882583
1.156896 -7.676256
0.856805 -7.971309
1.316891 -7.892049
0.754684 -7.808995
1.062268 -8.065105
0.997459 -7.661304
0.982370 -7.927022
0.906479 -7.736498
0.778726 -7.951301
0.934166 -7.896147
0.805923 -7.755861
0.696084 -8.081920
0.939920 -7.863109
0.495216 -7.543333
0.724885 -7.826818
0.848262 -7.629083
0.803553 -7.847155
0.694007 -7.858809
0.697114 -7.934373
0.773766 -7.679420
0.657214 -7.767357
0.580474 -7.801869
0.618961 -7.902044
0.634056 -7.572885
0.505390 -7.856107
0.921296 -7.850044
0.541559 -7.751381
0.553388 -7.845047
0.481531 -7.696424
0.686071 -7.798203
0.632895 -7.753930
0.563055 -8.013559
0.635594 -7.926426
0.539130 -7.782210
0.453692 -7.966412
0.525943 -7.956886
0.220777 -7.986276
0.436648 -7.871498
0.242410 -7.771728
0.627669 -8.035375
0.327600 -7.793532
0.211717 -8.145006
0.156383 -7.683263
0.185545 -7.885723
0.542237 -7.697128
0.284329 -7.932056
0.454254 -8.160728
0.337383 -7.938346
0.018536 -8.006073
0.173145 -8.235775
0.050342 -7.961318
-0.135983 -7.995710
-0.018470 -7.905697
0.102942 -7.948022
0.069839 -7.813074
-0.242147 -8.088012
-0.099073 -7.926912
-0.203319 -7.654277
-0.006781 -7.790133
0.087680 -7.852452
0.069454 -8.006194
-0.145710 -7.976373
-0.262575 -7.941194
-0.217941 -7.943345
-0.176788 -7.929723
-0.385056 -7.823837
-0.318880 -7.936281
-0.257407 -7.612673
-0.189429 -7.726216
-0.062687 -7.741577
-0.298803 -8.130447
-0.065986 -7.990586
-0.706493 -7.828062
-0.508490 -8.103387
-0.265020 -7.497010
-0.588033 -7.641043
-0.267935 -7.882532
-0.216041 -7.774890
-0.488686 -7.820530
-0.565729 -7.846698
-0.288655 -7.766311
-0.390167 -7.610112
-0.385800 -7.955620
-0.329771 -7.956930
-0.703467 -7.945520
-0.568584 -7.829153
-0.649124 -7.640869
-0.580769 -7.874876
-0.315001 -7.665382
-0.732903 -7.751493
-0.476295 -7.989509
-0.426834 -7.692152
-0.696619 -7.941281
-0.662005 -7.911073
-0.628609 -7.853780
-0.621259 -7.715948
-0.697131 -7.848315
-0.484716 -8.087768
-0.726901 -7.881823
-0.925164 -7.969866
-0.748635 -7.931733
-0.769590 -7.910123
-0.741786 -7.872171
-0.994000 -8.167978
-0.841449 -8.054471
-1.080220 -7.825592
-1.134281 -8.011974
-1.073028 -7.990549
-1.020380 -7.766007
-1.423292 -7.907172
-1.020404 -7.841133
-1.196031 -7.562310
-1.076422 -7.811224
-1.058875 -7.661825
-1.030315 -8.002639
-1.163579 -7.836971
-1.397864 -7.848302
-1.225412 -7.856592
-1.165402 -7.506438
-1.217297 -7.802015
-0.977969 -7.963468
-1.501941 -7.962664
-1.375296 -7.969076
-1.724356 -7.636829
-1.344096 -7.668327
-1.281561 -7.435512
-1.229689 -7.855021
-1.436032 -7.700328
-1.393893 -8.033071
-1.522297 -7.433835
-1.639166 -7.824044
-1.028091 -7.641436
-1.539811 -7.608427
-1.389165 -7.946468
-1.354505 -7.852954
-1.576670 -7.782817
-1.576963 -8.077361
-1.610138 -7.993693
-1.991235 -7.861628
-1.858283 -7.659253
-1.920855 -7.531843
-1.616270 -7.532064
-1.686779 -7.643488
-1.694285 -7.833249
-1.812343 -7.590980
-1.726282 -7.768904
-1.694739 -7.566113
-1.941673 -7.728139
-1.781048 -7.884546
-1.903786 -7.480957
-2.043237 -7.721855
-1.633897 -7.901261
-1.992324 -7.485545
-2.255118 -7.842797
-1.899379 -7.651724
-2.154136 -7.342890
-2.079683 -7.756066
-2.014704 -7.629506
-2.137974 -7.450465
-2.069182 -7.372091
-2.051197 -7.549572
-1.822569 -7.456341
-2.201469 -7.499870
-2.104021 -7.726186
-1.825797 -7.418441
-2.109210 -7.523696
-2.089111 -7.835191
-1.963578 -7.502548
-2.330075 -7.500175
-2.101979 -7.846434
-1.903639 -7.752694
-2.646601 -7.818211
-2.517561 -7.967155
-2.485582 -7.080201
-2.696326 -7.432661
-2.057041 -7.314877
-2.391099 -7.457037
-2.343356 -7.496066
-2.335636 -7.514229
-2.063853 -7.360739
-2.515269 -7.627443
-2.205299 -7.691464
-2.688162 -7.522667
-2.525165 -7.516937
-2.574617 -7.504932
-2.260039 -7.525690
-2.722820 -7.325622
-2.400436 -7.685441
-2.466191 -7.336861
-2.664262 -7.587147
-2.672010 -7.757630
-2.646488 -7.513564
-2.925818 -7.340282
-2.583124 -7.492040
-2.772525 -7.312572
-2.679755 -7.445960
-2.956996 -7.303367
-2.679101 -7.527631
-2.659459 -7.149111
-2.820134 -7.582202
-2.760598 -7.335756
-2.860198 -7.285403
-2.865881 -7.171016
-2.708471 -7.412689
-2.644919 -7.330199
-2.883554 -7.580771
-2.796066 -7.345064
-2.919362 -7.415884
-2.834761 -7.349927
-3.036267 -7.476017
-3.012287 -7.459618
-3.163899 -7.321174
-2.991891 -7.251861
-2.865731 -7.327276
-3.014712 -7.231778
-3.200503 -7.618237
-3.001053 -7.132218
-3.558399 -7.138989
-2.724696 -7.393916
-2.957095 -6.988616
-3.104806 -7.570941
-3.038420 -7.448181
-3.272949 -7.302064
-3.411675 -7.276068
-3.212670 -7.438333
-3.292389 -7.222317
-3.351848 -7.308776
-3.344632 -7.166846
-3.316159 -7.283321
-3.287318 -7.113887
-3.619886 -7.342555
-3.349020 -7.236555
-3.507990 -6.985659
-3.274115 -7.251348
-3.312583 -7.107805
-3.538921 -7.480900
-3.549059 -7.166003
-3.963119 -7.115493
-3.548496 -7.197687
-3.567856 -6.840257
-3.802427 -7.050737
-3.500390 -7.058560
-3.634682 -6.625580
-3.659486 -7.018477
-3.350729 -6.930671
-3.660658 -7.081337
-3.503610 -6.996666
-3.791875 -6.943546
-3.394702 -6.963857
-3.614567 -6.726900
-3.592297 -7.203719
-3.401930 -7.106155
-3.690254 -7.100259
-3.834562 -7.391002
-3.670734 -7.227019
-4.133405 -6.900860
-4.150290 -7.219251
-3.817169 -6.839839
-4.270015 -6.730876
-4.003346 -7.120575
-3.789365 -6.509906
-4.217571 -6.719482
-3.563058 -6.892351
-3.937424 -6.555341
-3.992447 -7.189484
-3.837313 -6.781085
-4.221486 -6.889058
-3.871680 -6.833521
-4.067280 -6.782169
-3.964591 -6.888679
-4.211894 -6.801557
-4.163404 -6.920328
-4.137968 -6.713730
-4.166726 -6.761010
-4.218029 -6.906265
-4.092388 -6.778764
-4.505980 -6.611864
-4.322967 -6.853561
-4.269049 -6.523693
-4.388045 -6.677720
-4.506501 -6.581001
-4.290091 -6.573349
-4.281679 -6.065394
-4.297314 -6.529753
-3.869775 -6.490851
-4.201729 -6.610292
-4.252577 -6.595646
-4.228538 -6.795531
-3.918248 -6.539050
-4.559685 -6.771210
-4.250581 -7.117591
-4.688084 -6.464720
-4.779788 -6.682546
-4.377828 -6.409840
-4.494260 -6.526714
-4.408763 -6.606699
-4.647355 -6.583820
-4.652213 -6.544949
-4.596176 -6.416468
-4.626718 -6.459430
-4.637388 -6.514738
-4.545421 -6.466308
-4.662644 -6.386830
-4.696523 -6.532009
-4.615849 -6.495124
-4.851913 -6.440533
-4.848980 -6.437260
-4.828996 -6.435319
-4.782337 -6.278590
-5.086573 -6.186924
-4.727694 -6.337523
-4.732138 -5.812220
-4.767846 -6.357452
-4.425547 -6.376364
-4.897982 -6.417116
-4.959501 -6.414561
-5.084729 -6.295427
-4.907145 -6.020407
-4.998878 -6.011682
-4.775646 -6.168729
-4.723129 -6.084639
-4.705473 -6.202938
-4.934177 -6.427090
-4.831284 -6.476358
-5.260727 -6.114783
-5.364848 -6.316727
-4.916975 -5.847154
-5.161920 -5.885266
-4.913883 -6.186572
-4.899485 -5.985170
-5.186882 -5.991732
-4.987405 -6.130720
-4.728445 -5.793310
-5.185466 -6.268164
-4.692541 -6.420094
-5.397892 -6.006354
-5.379241 -6.437548
-5.219002 -5.755136
-5.272632 -6.008155
-5.133331 -5.904157
-5.254255 -6.178054
-5.161187 -5.996515
-5.541020 -5.960907
-5.338043 -5.983596
-5.283811 -5.879323
-5.409770 -5.740011
-5.408584 -5.980918
-5.226290 -5.845592
-5.498730 -5.765747
-5.455236 -5.839030
-5.483828 -5.775800
-5.302173 -5.529648
-5.391014 -5.574486
-5.166319 -5.891245
-5.164066 -5.718372
-5.514236 -5.865016
-5.489201 -5.906673
-5.369485 -5.610611
-5.488693 -5.661995
-5.365012 -5.802659
-5.344039 -5.731868
-5.494300 -5.801419
-5.575240 -5.791423
-5.542907 -5.760575
-5.656914 -5.684755
-5.603433 -5.604198
-5.550753 -5.577610
-5.452782 -5.669617
-5.544925 -5.626405
-5.580051 -5.855817
-5.711420 -5.697623
-5.788080 -5.761111
-5.768111 -5.622463
-5.947177 -5.606758
-5.817785 -5.460693
-5.812018 -5.372261
-5.791263 -5.359552
-5.615609 -5.591004
-5.716602 -5.459671
-6.042174 -5.642071
-5.759440 -5.466967
-6.019446 -5.235616
-5.913536 -5.399568
-5.798614 -5.363089
-5.939829 -5.269970
-5.982313 -5.257022
-5.721753 -5.321931
-5.680111 -5.166961
-5.922057 -5.446625
-5.761568 -5.660328
-6.128918 -5.230199
-6.277625 -5.482989
-5.925802 -5.208170
-6.210535 -5.056161
-6.003512 -5.301553
-5.963360 -5.028749
-6.209722 -5.133170
-5.851163 -5.282391
-6.133287 -5.068072
-6.225487 -5.361553
-6.129743 -5.071959
-6.226775 -4.952116
-6.160303 -4.863060
-5.954575 -5.258882
-6.029266 -4.940437
-6.515465 -5.362470
-6.118050 -5.048536
-6.579345 -4.767088
-6.062191 -4.893645
-6.291672 -4.739471
-6.149071 -5.110997
-6.230684 -4.778521
-6.449818 -5.001581
-6.219059 -4.911268
-6.276143 -4.799720
-6.546956 -4.825421
-6.423235 -4.800240
-6.411829 -4.503733
-6.341581 -4.568220
-6.219539 -4.620595
-6.125293 -4.841233
-6.311548 -4.581595
-6.476597 -4.759130
-6.206795 -4.608594
-6.350714 -4.560718
-6.313689 -4.759707
-6.398165 -4.776439
-6.420812 -4.597028
-6.455938 -4.487694
-6.360338 -4.598387
-6.290113 -4.564325
-6.514137 -4.676654
-6.535251 -4.653803
-6.568910 -4.488854
-6.430378 -4.431244
-6.530273 -4.450499
-6.377317 -4.470308
-6.634026 -4.404608
-6.378472 -4.474161
-6.561597 -4.355752
-6.323660 -4.749151
-6.704150 -4.322519
-6.764534 -4.755360
-6.671919 -3.993597
-6.918934 -4.297486
-6.379526 -4.130858
-6.614408 -4.210332
-6.519898 -4.204446
-6.545458 -4.347609
-6.435282 -4.073763
-6.669104 -4.271825
-6.482342 -4.235681
-6.581747 -4.295698
-6.458912 -4.131352
-6.668549 -4.476257
-6.408493 -4.348407
-6.883906 -4.275121
-6.805074 -4.234560
-6.813655 -4.193644
-6.505778 -4.041913
-6.915520 -4.276600
-6.568934 -4.442382
-6.971525 -4.025093
-6.978228 -4.174826
-6.853338 -3.951666
-6.806659 -4.025111
-6.827981 -4.047878
-6.843580 -4.095570
-6.873988 -4.129579
-6.867729 -3.965690
-7.131349 -4.003114
-6.906609 -3.927000
-7.066167 -3.760749
-6.801537 -3.914092
-6.978483 -3.873196
-6.875292 -4.063539
-7.122478 -3.628621
-7.082251 -3.851059
-6.771642 -3.537185
-6.943044 -3.839245
-6.822698 -3.963357
-7.084418 -3.887844
-7.102251 -3.781306
-7.084815 -3.663851
-7.023655 -3.687614
-7.087007 -3.684645
-7.158074 -3.725125
-7.056463 -3.589062
-7.145856 -3.580557
-6.967320 -3.675458
-7.179598 -3.454902
-7.193637 -3.610290
-6.960309 -3.362720
-7.076457 -3.467324
-6.945911 -3.813929
-7.018072 -3.612531
-7.534202 -3.613280
-7.183200 -3.564424
-7.340806 -3.092243
-7.263016 -3.452088
-7.105702 -3.295545
-7.186154 -3.336576
-7.230658 -3.227834
-7.036967 -3.359347
-7.109793 -3.094882
-7.128278 -3.529710
-7.023164 -3.257086
-7.446521 -3.516315
-7.154006 -3.389463
-7.444630 -3.108474
-7.366753 -3.184418
-7.137006 -3.118594
-7.218330 -3.014274
-7.325651 -3.248768
-7.150546 -3.229203
-7.247805 -3.102120
-7.426437 -3.113147
-7.316793 -3.230816
-7.262394 -2.770671
-7.428010 -2.904040
-6.953354 -3.146890
-7.118490 -3.050269
-7.479197 -3.366641
-7.419922 -3.108262
-7.639454 -2.758178
-7.203120 -2.841250
-7.298103 -2.811891
-7.290927 -3.225404
-7.491021 -2.824126
-7.539909 -2.933027
-7.250194 -2.538527
-7.306278 -2.993149
-7.152426 -2.886939
-7.717083 -2.946392
-7.450639 -2.951711
-7.458288 -2.591362
-7.597428 -2.729598
-7.379674 -2.937332
-7.549698 -2.347771
-7.700109 -2.745802
-7.091548 -2.446440
-7.597387 -2.605450
-7.240623 -2.808844
-7.617485 -2.571790
-7.394940 -2.536198
-7.530743 -2.512879
-7.203931 -2.694983
-7.671428 -2.516592
-7.491372 -2.869019
-7.654814 -2.286045
-7.603788 -2.609461
-7.426095 -2.290871
-7.665446 -2.589994
-7.427502 -2.431494
-7.756805 -2.395620
-7.631209 -2.480450
-7.510170 -2.326837
-7.713633 -2.332174
-7.727606 -2.460488
-7.748711 -2.261109
-7.840470 -2.084326
-7.826549 -1.951591
-7.460326 -2.104770
-7.431950 -1.892708
-7.666292 -2.187131
-7.506558 -2.208125
-7.573075 -1.919702
-7.642892 -1.917992
-7.426338 -2.172745
-7.379542 -2.024117
-7.593394 -2.069968
-7.662162 -2.217721
-7.482882 -2.072056
-7.747970 -1.901218
-7.692358 -2.122762
-7.676057 -1.822266
-7.527956 -1.951885
-7.610566 -1.676242
-7.655498 -2.164198
-7.284827 -1.817090
-7.843747 -1.813964
-7.533121 -2.119722
-7.444881 -1.954621
-7.810266 -1.882586
-7.917054 -2.159278
-7.699938 -1.829844
-8.026805 -1.577060
-7.868255 -1.740836
-7.685484 -1.639343
-7.755837 -1.394637
-7.812675 -1.639552
-7.446941 -1.539686
-7.703400 -1.461733
-7.501799 -1.780848
-7.674782 -1.571962
-7.736396 -1.770569
-7.673306 -1.499657
-7.893467 -1.563868
-7.585796 -1.539925
-7.716141 -1.409707
-7.769874 -1.575433
-7.576397 -1.492153
-7.726803 -1.393133
-7.701070 -1.605780
-7.586856 -1.509761
-7.900393 -1.551489
-7.829952 -1.521336
-7.833054 -1.345706
-7.783083 -1.366808
-7.790777 -1.373605
-7.811623 -1.499429
-7.940100 -1.289386
-8.013911 -1.267303
-7.791523 -1.182369
-7.857996 -1.167815
-7.777582 -1.220676
-7.989077 -1.185121
-7.844016 -1.116001
-7.879736 -0.847104
-7.751219 -1.099660
-7.629467 -0.973380
-7.649108 -1.147440
-7.734389 -1.054113
-7.768046 -1.261795
-7.677049 -1.051848
-7.992758 -1.137172
-7.859026 -1.039088
-7.834883 -0.989379
-7.690607 -0.762205
-7.799770 -1.062756
-7.435973 -1.171760
-7.961509 -1.056662
-7.987084 -1.292700
-8.062024 -0.935262
-8.003155 -0.834780
-7.890928 -0.703108
-7.836331 -0.970827
-7.753709 -0.873558
-8.067656 -0.892267
-8.060534 -0.949661
-7.960085 -0.701914
-8.027971 -0.661395
-7.960137 -0.765384
-7.895412 -0.658579
-8.007158 -0.656506
-8.033105 -0.641293
-7.960497 -0.612761
-7.951436 -0.504014
-7.981267 -0.584365
-7.798203 -0.547850
-7.998611 -0.538668
-7.969620 -0.616720
-8.011978 -0.452164
-8.037161 -0.450942
-7.967582 -0.400116
-7.878513 -0.479197
-7.959941 -0.354712
-8.108350 -0.466783
-7.907966 -0.334132
-8.106592 -0.167975
-7.942453 -0.358237
-7.906482 -0.262119
-7.946715 -0.316391
-8.086330 -0.173092
-8.063674 -0.333077
-7.940846 0.100525
-8.153999 -0.048498
-7.758423 -0.085861
-7.827609 0.025768
-7.842310 -0.109240
-7.900653 -0.211858
-7.885980 -0.033416
-8.118119 0.003344
-7.950468 0.114495
-7.896513 0.201040
-7.581636 0.196663
-7.727740 0.058542
-7.572579 -0.222539
-7.894171 -0.032255
-8.025914 -0.090358
-7.960175 0.155528
-7.811497 0.105628
-7.778232 0.174471
-7.867448 -0.058095
-7.844468 0.101196
-7.984471 0.182659
-7.887098 0.181952
-7.880804 0.083629
-7.871209 0.151324
-8.114244 0.162548
-7.958470 0.229610
-7.982122 0.455558
-7.958176 0.349983
-7.964536 0.358290
-7.924726 0.388244
-7.998685 0.551658
-7.877202 0.432622
-7.735138 0.606017
-7.892052 0.464118
-7.783445 0.501215
-7.955326 0.545630
-7.720406 0.556356
-7.822770 0.726293
-7.641910 0.355135
-7.529267 0.635099
-7.965455 0.373485
-7.702014 0.298535
-7.915852 0.627858
-8.068350 0.451750
-7.838283 0.445309
-7.958262 0.795101
-8.142921 0.637378
-7.798207 0.832859
-7.905963 0.922322
-7.741407 0.814488
-7.814341 0.689062
-7.637077 0.716623
-7.934897 0.782998
-7.784252 0.637850
-7.966035 0.798972
-7.920293 0.773900
-8.092220 1.035912
-7.943286 0.821318
-7.706469 1.130022
-7.971239 1.132162
-7.875657 0.884250
-7.524542 1.236458
-7.919464 1.286992
-7.552839 0.735438
-7.504001 1.063185
-7.859309 0.892778
-7.877065 0.940657
-7.704953 0.968473
-7.737098 1.273168
-7.947278 0.902174
-7.630449 0.931520
-7.906773 1.132932
-7.940437 1.056674
-7.890895 1.109529
-7.800473 1.194948
-7.927200 1.378236
-7.934890 1.084960
-7.631218 1.258708
-7.990137 1.294761
-7.822345 1.077183
-7.998946 1.349187
-7.935760 1.290106
-8.070376 1.623690
-7.962000 1.334092
-7.697674 1.734316
-7.969296 1.478481
-7.678126 1.516494
-7.818859 1.630836
-7.779803 1.654697
-7.668300 1.528075
-7.627014 1.636643
-7.891164 1.325364
-7.672513 1.631604
-7.990001 1.709064
-7.602425 1.665802
-7.666067 1.651721
-7.751777 1.601679
-8.043644 1.497485
-7.635345 1.951182
-7.981542 1.921892
-7.209347 1.637777
-7.833119 1.852387
-7.766734 1.250879
-7.894048 2.098718
-8.012326 1.806362
-7.547318 1.954218
-7.681731 1.908445
-7.825380 1.869986
-7.820014 1.904063
-7.650097 2.177037
-7.646223 2.130474
-7.646591 1.874223
-7.412937 1.942115
-7.782298 2.151181
-7.615018 1.774363
-7.471684 2.090895
-7.886528 1.915978
-7.768389 2.018218
-7.786593 2.292558
-7.570741 2.234370
-7.424934 2.251504
-7.583366 1.943151
-7.620638 2.020213
-7.892476 2.223483
-7.682508 2.347418
-7.651267 2.393994
-7.278144 2.290113
-7.572075 2.324965
-7.532844 1.962363
-7.508312 2.321971
-7.772363 2.275852
-7.666662 2.209929
-7.475060 2.375453
-7.822374 2.453232
-7.593477 2.238364
-7.560596 2.703743
-7.682632 2.478807
-7.362916 2.542256
-7.415446 2.499561
-7.541375 2.418190
-7.426317 2.312695
-7.531180 2.608998
-7.711349 2.281343
-7.432363 2.579557
-7.909571 2.637211
-7.522638 2.618696
-7.499760 2.975081
-7.434583 2.605790
-7.311334 2.659248
-7.589751 2.636988
-7.562951 2.718090
-7.495893 2.902852
-7.269733 2.825984
-7.380666 2.741308
-7.366718 2.539682
-7.514593 2.835231
-7.632426 2.748539
-7.380332 2.962076
-7.500818 2.889734
-7.381861 2.938487
-7.431853 2.989533
-7.326377 2.931226
-7.285421 2.944089
-7.437082 2.980774
-7.431120 2.850334
-7.299182 3.212893
-7.340716 3.017863
-7.216054 2.980413
-7.380291 2.807590
-7.411496 3.165191
-7.746858 3.073010
-7.115221 3.283291
-7.399753 3.406659
-7.235407 3.094649
-7.269361 3.223006
-7.264498 3.300718
-7.365694 3.338930
-7.176000 3.349159
-7.179334 3.363143
-7.054354 3.539474
-7.157781 3.264312
-6.804956 3.273083
-7.251305 3.287225
-7.094803 3.225897
-7.276779 3.375932
-6.864680 3.480156
-7.221227 3.410478
-6.833121 3.096408
-7.290077 3.516762
-7.146133 3.200349
-7.152839 3.716394
-7.011730 3.345443
-6.912097 3.609222
-7.097344 3.317100
-6.930155 3.440765
-7.073567 3.411522
-7.153279 3.395082
-7.088962 3.336591
-7.302124 3.705989
-7.257649 3.527903
-6.931330 3.905763
-7.116170 3.717228
-6.858655 3.653001
-7.026803 3.638229
-6.970240 3.755188
-7.072407 3.756405
-6.788101 3.695038
-6.931876 3.836239
-6.987594 3.647602
-6.927943 3.748626
-6.888177 3.862936
-6.867590 3.842159
-6.833768 3.631334
-6.818252 3.734457
-7.076564 3.795312
-6.995009 3.810745
-6.904732 3.910511
-6.795699 3.900557
-7.067115 3.886639
-6.839725 3.753791
-6.898081 4.251483
-6.901968 3.868207
-6.621679 3.997373
-6.947842 3.686140
-6.905238 3.973393
-7.333289 3.969252
-6.735284 4.158465
-6.998303 4.472854
-6.773491 3.994562
-6.673192 4.205546
-6.889913 4.224397
-6.819413 4.056938
-6.643661 4.261179
-6.948219 4.180832
-6.699393 4.150918
-6.922500 4.435240
-6.742404 4.280951
-6.635732 4.362173
-6.627180 4.277264
-6.882206 4.197953
-6.700512 4.211311
-6.957293 4.761143
-6.818430 4.380571
-6.285052 4.729093
-6.688437 4.530131
-6.400814 4.144138
-6.583037 4.519536
-6.778242 4.383370
-6.558327 4.526701
-6.645223 4.542509
-6.592562 4.547410
-6.672528 4.577847
-6.500017 4.679413
-6.478996 4.715827
-6.343140 4.576776
-6.446456 4.551593
-6.518258 4.492973
-6.552303 4.589351
-6.567797 4.663471
-6.581650 4.604276
-6.472572 4.772840
-6.671306 4.906398
-6.371667 4.809883
-6.269186 5.008354
-6.343238 4.721109
-6.286279 4.663911
-6.405816 4.751056
-6.474891 4.856656
-6.427011 4.871536
-6.368263 4.981649
-6.352413 5.002678
-6.280555 5.084232
-6.181849 4.956761
-6.017069 4.996492
-6.222360 4.932167
-6.196708 4.854643
-6.189123 5.013592
-6.178278 5.106430
-6.141190 4.995848
-5.952401 4.975180
-6.011710 5.001255
-6.078072 4.925943
-6.123314 4.814569
-6.062229 4.986830
-6.326424 5.110075
-6.118381 4.990506
-5.862389 5.136552
-6.023378 5.135976
-6.123989 4.730902
-5.962842 5.017743
-6.447676 5.196038
-6.112480 5.102411
-6.052436 5.294371
-5.920204 5.205964
-6.200350 5.201627
-5.981213 5.046273
-6.130240 5.621727
-6.141296 5.295051
-5.676702 5.488542
-5.832728 5.449038
-5.780309 5.159933
-5.676772 5.235457
-6.004777 5.364795
-5.846454 5.056169
-5.835461 5.563696
-6.164527 5.217129
-5.610938 5.461239
-6.024563 5.656046
-5.615206 5.318737
-5.695835 5.630565
-5.743504 5.378719
-5.627241 5.564709
-5.579221 5.387063
-5.528113 5.379155
-5.694341 5.117287
-5.887597 5.398352
-6.072607 5.449731
-5.645922 5.900386
-5.743286 5.793421
-5.184669 5.478986
-5.513232 5.550687
-5.628777 5.218113
-5.662426 5.525086
-5.775723 5.526710
-5.720865 5.691239
-5.722121 5.695026
-5.552366 5.788590
-5.477818 5.828567
-5.438742 5.729717
-5.394268 5.575308
-5.400906 5.768811
-5.623051 5.645099
-5.374168 5.564296
-5.505178 5.781037
-5.652346 5.671771
-5.552436 5.783544
-5.413268 5.943286
-5.462262 5.975194
-5.516140 5.711790
-5.299978 5.854148
-5.632514 6.187730
-5.484457 5.866820
-5.023305 6.216263
-5.395593 6.172557
-5.161996 5.936787
-5.032912 6.113183
-5.054658 6.099283
-5.052141 5.816819
-4.990936 5.810572
-5.278653 5.858391
-5.204856 6.063668
-5.271346 6.000279
-4.829937 6.049590
-5.237609 6.082175
-5.024935 5.741415
-5.127100 6.182279
-5.044820 6.032998
-5.040721 6.089820
-4.929366 5.774664
-5.149100 6.101725
-5.403784 5.830442
-5.087938 6.305228
-5.230777 6.296297
-4.908677 6.303029
-5.088920 6.207692
-4.856810 6.248986
-5.181039 6.453648
-4.757696 6.202017
-4.706160 6.559415
-4.864439 6.056548
-4.566385 6.183509
-5.033719 6.245374
-4.848366 6.015171
-4.790562 6.402737
-5.159813 6.205105
-4.716816 6.208542
-4.979966 6.695632
-4.939859 6.228393
-4.535489 6.598765
-4.903153 6.510948
-4.634851 6.351023
-4.597139 6.543240
-4.693053 6.422221
-4.621503 6.314662
-4.719042 6.549129
-4.812632 6.451181
-4.511551 6.702983
-4.607839 6.692614
-4.384605 6.446131
-4.328521 6.587992
-4.544180 6.535692
-4.363771 6.282583
-4.335334 6.602439
-4.670957 6.301616
-4.393361 6.459714
-4.667758 6.605674
-4.272013 6.530659
-4.538450 6.685877
-4.333978 6.201442
-4.363462 6.741035
-4.808470 6.430185
-4.264902 6.501398
-4.570458 6.805919
-4.622599 6.589818
-4.459524 6.760859
-4.379406 6.981418
-4.356172 6.945865
-4.126641 6.732799
-4.172507 6.767990
-4.288406 6.826455
-4.352668 6.840515
-3.952815 6.870640
-4.043730 7.051979
-4.047409 6.462231
-3.942174 6.722392
-4.392681 6.717625
-4.140775 6.765833
-4.147552 6.986476
-4.052900 6.853111
-3.994689 6.860687
-4.089650 6.944696
-3.977783 6.788497
-3.835282 7.049386
-4.161102 6.751557
-3.736127 6.815905
-4.208138 7.147439
-3.806865 6.833503
-3.706163 7.144548
-3.787749 6.767473
-3.866815 6.818125
-3.869659 6.856429
-3.959877 7.173138
-3.684497 6.866414
-3.590959 7.091212
-3.817231 6.794419
-3.722622 6.952014
-3.677472 6.958631
-3.644610 7.081352
-3.673590 6.669653
-3.614122 6.896732
-3.935156 6.972447
-3.834592 6.970628
-3.500644 7.032327
-3.780950 7.297696
-3.711626 6.700162
-3.427945 7.321315
-3.831505 7.058680
-3.458072 7.075858
-3.633178 7.076607
-3.505995 7.359982
-3.644328 7.175326
-3.082203 7.255311
-3.379299 7.185608
-3.267556 6.966580
-3.357323 7.001847
-3.225013 7.142878
-3.487482 6.907408
-3.214065 6.869130
-3.750301 7.115030
-3.555038 7.046412
-3.420679 7.510319
-3.344739 7.337278
-3.164821 7.209239
-3.129836 7.337932
-3.352737 7.262875
-2.936809 7.126182
-3.131710 7.307246
-3.239152 6.922455
-3.225825 7.275083
-3.300273 7.329348
-2.980272 7.440105
-2.983291 7.270671
-2.931122 7.071290
-3.071884 7.162568
-3.186909 7.282101
-3.055097 7.205935
-2.832976 7.346982
-3.129765 7.290461
-2.973119 7.044457
-2.911486 7.427009
-3.138718 7.275703
-2.827665 7.222390
-2.998681 7.398579
-2.884137 7.252301
-2.910649 7.453769
-2.933196 7.126947
-2.754580 7.400646
-3.160775 7.426828
-2.776344 7.293251
-2.665578 7.609140
-2.865306 7.332472
-2.778922 7.158077
-2.863200 7.464310
-3.045774 7.601354
-2.715484 7.515835
-2.528393 7.711018
-2.682849 7.491115
-2.558617 7.507722
-2.585901 7.513477
-2.363686 7.612042
-2.634028 7.311453
-2.294565 7.222022
-2.946496 7.578972
-2.646997 7.326732
-2.548718 8.016532
-2.462829 7.520005
-2.144105 7.648795
-2.440161 7.409643
-2.425710 7.439951
-2.421616 7.521648
-2.449614 7.736210
-2.356400 7.492132
-2.158579 7.689638
-2.299034 7.555391
-2.239031 7.466348
-2.169260 7.394753
-2.382394 7.624640
-2.431352 7.381374
-2.227153 7.779989
-2.332007 7.622955
-2.032059 7.715249
-2.275279 7.504788
-2.029916 7.485156
-2.354766 7.732675
-2.324700 7.575530
-2.059909 7.778045
-2.120044 7.905253
-2.049193 7.630308
-1.916789 7.673573
-2.036362 7.639253
-2.071502 7.757181
-2.159517 7.671911
-1.828486 7.787633
-2.010977 7.936973
-1.986610 7.655441
-1.797282 7.759489
-1.866170 7.990058
-1.917672 7.873876
-1.551170 7.745553
-1.579999 7.880203
-1.775759 7.667223
-1.718909 7.651839
-1.602900 7.813011
-1.604694 7.927471
-1.528305 7.566676
-1.434463 7.594990
-1.785402 7.540432
-1.704219 7.725457
-1.837371 7.886476
-1.307158 7.724201
-1.351329 8.003262
-1.637184 7.381363
-1.282965 7.503744
-1.734056 7.851469
-1.636105 7.624850
-1.413790 7.734552
-1.352302 7.731159
-1.580705 7.769070
-1.500527 7.478857
-1.367241 7.881701
-1.616325 7.778776
-1.302407 7.773957
-1.374880 7.802945
-1.180229 7.667800
-1.346137 7.762570
-1.475843 7.484061
-1.285070 7.672633
-1.572715 7.935119
-1.488518 7.716618
-1.172381 7.954955
-1.281141 8.008178
-1.113000 7.823270
-1.056325 7.760785
-1.073270 7.619932
-1.241924 7.739344
-1.410736 7.631844
-1.142191 7.827657
-1.270844 7.964530
-1.188030 7.812817
-1.177261 7.863279
-1.059107 7.985326
-1.105931 8.020464
-0.932923 7.827962
-0.965981 7.823904
-1.021335 7.950442
-1.139377 7.987910
-0.668988 7.957986
-0.791084 7.974206
-0.763599 7.592702
-1.079108 7.814785
-1.001321 7.781002
-0.873103 8.300545
-0.861409 7.922204
-0.481122 7.938175
-0.762011 7.992700
-0.710561 7.838872
-0.537894 7.932427
-0.659885 7.860293
-0.575062 7.784247
-0.743446 7.982503
-0.524723 7.810860
-0.413511 8.021842
-0.571910 7.641997
-0.519954 7.795152
-0.750168 7.804996
-0.402015 8.017692
-0.593607 7.959753
-0.267614 7.680747
-0.477749 7.980658
-0.511910 7.806325
-0.305070 7.914368
-0.252102 7.786411
-0.360844 7.783665
-0.468275 7.713919
-0.353131 7.850891
-0.210392 7.920082
-0.349146 7.785206
-0.224830 7.513725
-0.375642 7.891928
-0.531595 7.768804
-0.290596 7.863622
-0.239535 7.906431
-0.365691 7.958044
-0.195665 7.809476
-0.170457 8.042104
-0.118055 7.733071
-0.172962 8.004966
-0.317683 7.647210
0.047804 8.125250
-0.367214 7.973286
0.133614 7.792661
-0.074899 8.091438
-0.122418 7.911772
0.137215 7.949138
0.110708 8.023675
0.091543 7.763311
0.068196 7.931480
-0.017213 7.848612
0.207550 8.091120
0.059581 7.924106
0.350196 7.904714
0.155126 7.983428
0.288169 7.910399
0.302223 7.899240
0.405602 7.840342
0.205503 7.862690
0.279696 7.772157
0.362174 7.957548
0.281024 7.913455
0.359287 7.734186
0.376401 7.955799
0.139206 7.944252
0.521186 7.970663
0.464039 8.189699
0.599910 7.840950
0.787292 7.930769
0.571923 7.812679
0.613952 7.586548
0.640578 7.751856
0.283844 7.775590
0.534456 7.664691
0.493967 8.013445
0.439860 7.816624
0.520838 7.936817
0.608337 7.957114
0.617368 8.183098
0.813419 7.835826
0.961881 7.997368
0.714921 7.635733
0.796396 7.808443
0.527176 7.756773
0.789738 7.938297
0.654322 7.945063
0.816929 7.935669
0.786934 7.923374
0.923781 8.058168
0.855193 7.910609
1.134789 7.911027
0.883046 7.824002
0.986363 7.757464
0.809114 7.949425
0.913138 7.928215
1.089828 8.061977
1.107597 8.008591
1.195843 7.780816
1.208310 7.886663
1.053499 7.776729
1.173606 7.839727
1.104832 7.852870
1.180726 7.850323
1.188314 7.867728
1.213655 7.908630
1.281833 7.744570
1.376038 7.892409
1.119526 7.752181
1.358120 7.712842
1.267440 7.939470
1.254300 7.792415
1.389870 7.755577
1.388093 7.838237
1.286575 7.784683
1.377144 7.772225
1.321699 7.887128
1.445867 7.854770
1.516699 8.035310
1.587855 7.686051
1.847704 7.740319
1.361888 7.593824
1.503328 7.525586
1.336372 7.864868
1.544364 7.808690
1.600989 7.861750
1.640202 7.668593
1.608663 7.712694
1.705676 7.858711
1.555101 7.764202
1.995375 7.470818
1.666209 7.800113
1.406072 7.320484
1.733187 7.688812
1.481696 7.898228
1.669298 7.715558
1.808896 7.798873
1.788075 7.727826
1.807546 7.741002
1.722049 7.598618
1.883409 7.730633
1.716163 7.807656
1.981802 7.745635
1.927775 7.733119
2.023223 7.544216
1.810567 7.679283
1.889898 7.621621
1.977471 7.796675
2.092054 7.613954
2.032860 7.661649
1.892167 7.518382
2.018808 7.691737
2.054434 7.732947
2.055592 7.637711
2.090090 7.468349
2.117966 7.784158
1.897441 7.763592
2.325142 7.638965
2.309512 7.777389
2.172812 7.562887
2.287672 7.575558
2.347224 7.644286
2.381407 7.581554
2.267321 7.555595
2.247885 7.384193
2.450817 7.781696
2.204769 7.580853
2.707399 7.352454
2.363299 7.544024
2.339191 7.359742
2.278488 7.539775
2.523374 7.533621
2.324468 7.589142
2.515616 7.362599
2.459791 7.696918
2.593992 7.443241
2.621896 7.549425
2.544552 7.359298
2.438203 7.533006
2.621701 7.553211
2.770273 7.668806
2.876580 7.244309
2.775834 7.291016
2.515055 7.248150
2.508501 7.451890
2.667963 7.548415
2.728228 7.485009
2.868906 7.412911
2.740670 7.530292
2.996104 7.325010
2.985981 7.518097
2.844516 7.153946
2.920316 7.203831
2.760397 7.373650
2.856883 7.301571
3.048210 7.309706
2.884546 7.313816
2.946282 7.244118
2.873082 7.359048
2.998188 7.306236
3.010632 7.300546
3.027031 7.205039
3.045028 7.370803
3.050087 7.273554
3.186442 7.259390
3.057637 7.298914
3.027804 7.091334
3.140328 7.303739
3.139357 7.315312
3.187665 7.228790
3.259548 7.121265
3.181841 7.388636
2.972931 7.070339
3.384717 7.356096
3.121883 7.328968
3.457847 7.195718
3.306988 7.273251
3.468069 7.128564
3.143945 7.305291
3.363651 7.168673
3.504007 7.514162
3.528704 7.142346
3.896567 7.086453
3.446551 6.960772
3.405015 6.869584
3.369055 7.210655
3.419838 7.168730
3.517044 7.104239
3.684699 6.984883
3.373433 7.154801
3.456365 7.040462
3.638118 7.389131
3.554929 7.191318
3.763629 7.227462
3.743693 7.043116
3.868093 7.191207
3.759218 7.077424
4.044312 6.967617
3.788559 7.089034
3.858324 6.823615
3.843810 6.941181
3.762921 6.847694
3.900039 6.964230
3.788756 6.817085
3.941066 6.989874
3.680957 6.881228
3.879985 6.862290
3.724789 7.123161
3.935308 6.893501
4.067394 7.027291
4.034818 6.982682
4.096614 6.785747
4.050916 6.908060
3.978089 6.707546
4.036676 6.770232
3.763407 6.729366
4.121998 6.933877
3.930019 7.024131
4.253432 6.858697
4.247215 6.834597
4.084613 6.665155
4.021130 6.636940
4.175376 6.784713
3.969274 6.756697
4.216516 6.809245
4.089554 6.864156
4.210881 6.826776
4.268163 6.836754
4.325493 6.579521
4.246217 6.617964
4.126224 6.714213
4.187009 6.658717
4.273653 6.956508
4.268662 6.735390
4.390494 6.686484
4.374033 6.694348
4.438056 6.703551
4.392140 6.513402
4.437889 6.669240
4.353105 6.616600
4.252973 6.710142
4.567194 6.556045
4.549773 6.772434
4.400964 6.310007
4.616024 6.630552
4.359631 6.480196
4.473156 6.720559
4.473601 6.445359
4.694530 6.624685
4.367185 6.467456
4.746965 6.445057
4.487543 6.557427
4.526315 6.508718
4.670277 6.532023
4.529365 6.693283
4.702555 6.402470
5.013425 6.629882
4.636111 6.420639
4.990991 6.208628
4.889821 6.388378
4.530327 6.268092
4.796456 6.119546
4.668608 6.464266
4.567044 6.319105
4.895840 6.563864
4.843230 6.439651
5.204139 6.458555
5.021822 6.254593
5.044677 5.884566
4.902401 6.155568
4.730333 6.109254
4.898267 6.260098
5.010326 6.307060
5.109245 6.138515
5.025412 6.120865
4.974397 6.108963
5.163488 5.915131
5.182817 6.215228
4.835908 5.750642
5.205562 5.753546
4.725665 6.286385
4.839378 5.940820
5.257119 6.152334
5.113555 6.139042
5.218340 5.840685
5.026132 5.893735
5.129815 5.877644
5.040479 6.161992
5.117440 5.889779
5.335801 6.100766
5.287301 5.775677
5.245482 6.005410
5.097866 5.715500
5.448996 5.974529
5.265426 5.985452
5.413354 5.721861
5.494623 5.587660
5.214045 5.895351
5.231431 5.553151
5.459292 5.902974
5.318858 5.582373
5.478869 5.664820
5.161787 5.585047
5.311763 5.743026
5.346266 5.766329
5.339432 5.864056
5.455258 5.627846
5.559243 5.819683
5.579124 5.591164
5.583329 5.667410
5.453972 5.386194
5.443798 5.722931
5.403962 5.679682
5.577771 5.735210
5.761705 5.443441
5.655530 5.648577
5.443001 5.445586
5.600524 5.679249
5.713122 5.688750
5.672575 5.718735
5.784886 5.355206
5.910828 5.564811
5.845164 5.470800
5.756421 5.381619
5.859844 5.334849
5.595692 5.535180
5.809728 5.376711
5.755988 5.596149
5.967836 5.140515
5.985995 5.644781
5.714363 5.440020
6.078604 5.374859
6.131760 5.476393
5.923737 5.309093
5.982530 5.010860
6.176989 5.208427
6.087650 5.399924
5.772995 5.042871
6.178892 5.150240
5.876280 5.465819
5.931398 5.070562
6.196614 5.014128
6.105328 5.046571
5.804278 5.197333
5.923756 5.396695
6.126279 5.234506
6.228348 5.393466
5.935527 5.031425
6.264490 5.010583
6.284306 5.314429
6.425261 5.256169
6.185932 4.833482
6.204849 5.075445
5.989636 5.065576
6.193359 5.163570
6.297755 4.881340
6.669446 4.942744
5.942667 5.117569
6.241410 5.028996
6.378673 5.150448
6.202171 5.026925
6.365657 4.828919
6.347665 4.875852
6.541684 4.967700
6.573033 5.176960
6.210993 4.638898
6.328843 4.953141
6.342850 4.987819
6.370481 4.765052
6.677037 4.602542
6.529609 4.741756
6.180613 4.883790
6.284675 5.202058
6.640427 4.667843
6.516085 4.702988
6.306468 4.575229
6.324270 4.420293
6.765785 5.112148
6.386926 5.147685
6.663148 4.338788
6.297757 4.892882
6.585109 4.462499
6.440688 4.627953
6.533475 4.351019
6.790725 4.718916
6.159952 5.121705
6.391456 4.810426
7.221290 4.599799
6.339262 4.402822
6.685618 4.266746
6.557249 4.333147
7.043415 4.936938
6.447847 4.830194
6.875374 3.881473
6.275229 4.611044
6.744423 4.288094
6.585041 4.133145
7.037251 4.201872
6.613886 4.466697
6.353906 4.344585
6.306809 4.679222
6.974794 4.088500
6.389583 4.104589
6.759015 4.160011
6.777245 4.180785
6.858886 4.506686
6.587227 4.537688
6.501124 3.832011
6.347064 4.146078
7.017737 4.386991
6.737026 3.752884
7.074053 4.070125
6.876142 4.246114
6.429743 4.267133
6.466619 3.955784
7.294053 3.643034
6.234386 3.467022
6.635711 3.827432
6.845227 3.950152
6.566206 4.399621
6.500331 4.176983
6.543144 3.689126
6.351494 3.858604
7.131177 4.118815
7.093603 3.506867
6.753144 4.070641
7.142595 3.867391
6.565990 4.233659
6.383038 3.406536
7.460318 3.218768
6.474040 3.335793
6.559060 3.906456
7.405655 3.520652
6.760869 4.113791
6.373809 3.661522
6.476695 3.098321
6.645706 3.510678
7.106383 4.140365
7.177894 2.977785
6.881043 3.898082
7.038784 4.172119
6.484043 3.601280
7.153743 3.308240
7.366767 3.164275
7.093456 2.719921
6.940338 4.009575
7.701506 3.241877
6.928829 3.388665
6.691289 3.382659
6.553380 2.614827
7.221381 2.944648
7.406141 3.774364
7.469784 2.549235
6.615129 3.339403
7.272139 3.847645
6.499318 3.278076
7.041153 2.730585
7.883602 2.800184
7.241181 3.134720
6.912260 3.417020
8.639221 3.314814
6.706585 3.044382
7.016284 2.754293
7.327559 2.343594
7.549298 2.645646
7.819678 2.934534
7.818291 2.455280
6.358743 2.723739
7.562238 3.623610
6.822069 2.559044
7.144145 2.347104
7.950417 2.342393
7.635980 3.197282
7.023797 3.325310
8.639461 2.973545
7.167498 2.304797
6.714422 3.227153
7.709968 1.644645
8.696678 2.908396
7.863621 2.790881
8.076033 1.908935
6.918861 2.397510
7.478073 3.736863
7.504410 1.360158
7.508928 2.128530
7.773618 1.967233
7.675264 3.186132
7.180955 3.269021
8.465228 3.153862
7.412435 1.741393
6.942464 3.580205
8.155398 1.949948
9.186079 2.709863
8.807250 3.069382
7.765589 2.300846
7.794043 1.610268
8.351744 4.012632
8.015917 0.999907
7.731968 1.148856
8.941474 2.188883
7.321006 3.391485
7.788376 1.972280
8.593841 2.813245
7.170342 1.460879
6.333313 3.137929
9.163792 2.255119
8.612686 3.043623
8.637625 2.635986
7.491692 3.044455
7.924314 2.384282
8.739172 3.977968
9.497214 1.513370
7.391951 1.312645
9.626858 2.178271
8.262438 3.929671
8.083599 2.065476
8.716646 1.098058
8.505909 1.896065
5.246562 3.113422
9.729012 1.530595
8.969833 2.793061
7.473306 3.199922
6.269185 2.189685
9.112527 3.352967
8.156296 4.365897
9.128830 1.683375
7.207572 1.307388
9.355116 4.463806
7.991778 3.933683
9.727442 2.462321
8.424245 0.781756
8.756907 2.651123
5.892401 3.284595
9.736425 2.400830
9.125184 0.938494
7.310377 3.716310
4.511544 1.618404
9.797356 3.730568
8.738812 4.193211
6.825339 2.972749
6.158640 0.079540
9.156851 6.385454
7.306943 4.210865
8.964547 2.033277
8.682559 -0.258631
6.821530 7.454367
5.777455 3.043729
10.306938 3.287095
8.913167 -0.398781
5.500734 3.822576
4.001726 0.926087
10.772192 6.503467
9.635670 2.375872
2.507058 3.449138
3.351522 -0.857769
7.203643 7.148421
7.955222 5.264713
7.446336 1.637404
9.496758 -3.019008
1.910077 13.347463
4.697987 3.929659
4.746185 0.367870
10.436769 -1.611013
0.431722 7.066343
4.257733 -1.314958
12.873756 11.557925
10.974052 0.741049
-13.324361 3.536240
1.386773 -2.091374
8.830944 7.121827
9.494673 3.715249
4.545246 -6.015685
8.277037 -5.964020
-16.670923 28.490548
5.851919 8.968365
-5.223014 -23.210766
15.385275 -7.502728
-18.589836 0.563090
2.381099 -4.357232
3.965174 29.890829
18.054182 1.280851
-81.105153 -7.846404
-0.405772 -9.899773
11.805361 -14.441669
8.766119 -1.647637
-12.918115 0.471725
5.681209 -7.508775
-61.127817 104.502059
11.832535 22.525471
-86.007153 -379.270411
20.143677 -25.862568
-106.497901 -2.074157
9.708874 17.497897
180.402507 -263.239272
124.946448 -19.671235
-4994.563749 -2495.400543
-91.384183 -185.480036
-3370.854852 2799.014699
