9452.945465 9458.398952
-6823.708247 -70.200831
26.009954 9.527834
11.274991 -1.386526
23.747633 3.835819
-23.737202 -2.372773
11.235828 5.836757
20.845742 -2.001582
17.952221 10.435843
-387.362556 -38.485047
8.456512 18.416803
18.480929 0.821335
18.461478 -0.565460
-22.928234 -6.638113
10.341544 9.443331
18.840712 -0.635508
16.507151 -2.348348
28.361245 0.669585
13.751067 3.016090
17.187661 1.002779
17.776153 0.549363
40.882199 4.266348
15.305613 -1.363300
17.606510 0.897967
17.437696 5.621354
-18.069903 -9.702293
16.068164 2.075877
16.896979 1.420705
18.781485 3.343644
8.767468 -3.114934
17.863285 0.432705
18.529755 -0.362401
17.867080 0.407214
16.294420 -1.135618
18.851980 -0.788295
18.756022 -1.118007
18.226588 -1.333586
25.269526 1.828498
18.939670 -3.094764
19.030048 -1.626194
17.952626 0.059027
6.323901 -6.980185
17.416928 -1.362738
17.716183 -1.797711
19.320507 -0.886997
11.580434 -5.993841
17.826346 -2.021149
17.990684 -3.467881
18.887453 -2.144518
14.378839 -5.762633
17.457460 -2.161338
17.178069 -3.418324
18.392466 -3.287047
22.127997 -1.871019
17.238205 -4.097942
17.948988 -3.853801
16.296676 -2.137907
12.514312 -8.200044
15.522367 -3.429910
17.773695 -3.945770
17.007655 -1.756484
13.125945 -8.227851
15.135810 -3.891824
18.077022 -4.447367
17.526490 -3.045111
14.631725 -7.556796
16.493602 -4.411856
18.391991 -5.550051
18.242706 -5.294792
20.290553 -3.354173
18.092926 -6.255554
18.373455 -5.869777
16.896282 -5.764126
16.517214 -7.106224
17.099713 -6.341353
17.185799 -6.024148
16.759953 -5.658864
15.360409 -8.522321
15.895965 -6.635466
16.973967 -6.788203
16.746951 -5.990075
15.007910 -9.587558
15.371471 -6.753696
16.766150 -7.123976
17.274121 -7.198890
17.331639 -7.012066
16.570507 -8.004641
17.389280 -7.679362
16.346497 -7.767817
16.196011 -8.728950
16.882705 -7.956125
16.318200 -7.818802
16.109212 -8.115616
15.599859 -9.605806
16.495594 -8.139794
15.880332 -8.711226
16.140153 -8.727073
15.705812 -9.386121
16.003015 -8.388073
16.168195 -9.227471
16.497228 -9.531763
16.497006 -7.859400
16.353960 -9.404098
16.723912 -9.592529
16.037998 -10.101575
15.754184 -8.887932
15.725230 -9.915373
15.987839 -9.577499
15.249786 -9.706045
15.072885 -10.391839
14.965142 -10.413771
15.582013 -10.261820
14.693869 -9.641852
14.749649 -11.558935
14.016454 -10.633853
14.920819 -11.003699
14.636105 -10.153631
15.299683 -10.283327
14.679118 -10.972315
14.700346 -11.132552
14.061920 -10.850408
14.682735 -10.960530
14.710060 -10.988367
14.872326 -11.251550
13.780740 -11.675134
14.093974 -11.821366
13.931513 -11.584669
14.096037 -10.902002
13.538417 -11.694729
13.669515 -13.300246
13.479969 -11.908087
13.912962 -11.846552
13.915910 -12.046868
13.846796 -12.773148
13.808146 -12.302098
13.631038 -12.527907
13.679632 -12.510964
13.515364 -12.756740
13.666967 -12.424522
12.905364 -13.204661
13.927271 -13.048468
12.836698 -11.964359
13.500920 -13.211745
12.484674 -13.154890
12.768542 -13.675554
12.171345 -14.303638
11.812943 -13.237697
12.047587 -13.950701
12.958232 -13.667952
12.006744 -12.425189
12.358034 -13.544120
11.889305 -13.977807
11.948354 -13.836377
11.603829 -13.420895
11.425283 -14.286838
11.171370 -14.224289
11.683094 -13.706607
11.181920 -13.339372
11.674350 -14.952811
11.584461 -14.256285
10.281734 -14.570954
11.300082 -14.983453
10.188986 -14.832969
10.167403 -14.449775
10.414905 -14.521042
11.225705 -15.677965
10.373724 -15.312027
10.685277 -14.763961
9.975409 -15.210281
11.123739 -15.913591
10.059524 -15.724557
9.893705 -15.321373
9.872507 -15.435923
10.235113 -15.752203
10.079280 -15.920979
9.564856 -15.508478
9.384343 -15.593919
9.541633 -16.092556
9.517028 -16.542678
9.279676 -15.426495
8.589911 -16.080748
9.054028 -16.595951
8.546328 -16.400605
8.996090 -15.847754
8.255656 -15.961447
8.398968 -16.046204
8.275974 -16.195260
8.492418 -15.894971
8.019002 -16.021730
8.162995 -16.254995
8.219805 -16.483032
8.385671 -16.114818
7.842534 -16.428267
7.833369 -16.275421
7.606097 -16.770894
7.533432 -16.558335
7.587197 -16.620796
7.002023 -16.408577
7.303403 -16.881472
7.008248 -16.608019
6.698925 -16.948933
6.636152 -16.890343
6.377196 -17.089817
6.546436 -16.767300
5.854159 -16.941634
6.099932 -16.457340
6.344976 -17.184031
6.031547 -17.031436
5.875318 -17.431800
5.871149 -17.015137
5.917543 -16.856465
5.372031 -17.314039
5.302214 -17.240836
5.628628 -17.140302
5.546277 -16.936512
5.035192 -17.357311
4.839638 -17.401741
5.149406 -17.617075
4.632285 -17.746667
4.579805 -17.540560
4.723725 -17.376022
4.332206 -17.641345
4.617656 -17.561781
4.610065 -17.456202
4.512226 -17.501943
3.623409 -18.058786
4.144134 -17.660590
3.733244 -17.218483
3.425246 -17.495699
3.727239 -17.548613
3.401033 -17.735487
3.581406 -17.275860
3.187341 -17.734729
3.036193 -17.608534
2.725137 -17.975195
2.620589 -17.520682
2.375235 -17.495109
2.656937 -17.557900
2.594396 -18.135761
2.626127 -17.647781
2.541924 -17.934565
2.305498 -17.946221
2.207231 -18.282725
1.690014 -17.885656
2.318264 -18.039788
2.120483 -17.533368
1.364614 -17.430973
1.100950 -18.222705
1.635548 -17.649907
1.937953 -18.303062
0.568493 -17.738162
0.990509 -17.669380
0.451600 -17.015494
0.117527 -17.424741
0.641046 -17.495993
0.264679 -17.620158
0.237509 -17.777565
0.042559 -18.191770
0.220483 -17.931000
0.055942 -16.811261
-0.109332 -17.784038
-0.800933 -16.915304
0.044546 -17.279740
-0.314136 -17.905862
-0.560214 -18.042966
-0.390807 -18.130077
-0.842025 -18.076653
-1.285800 -17.757973
-1.077970 -17.694250
-1.235961 -17.228264
-1.853953 -17.411543
-1.535533 -18.014272
-1.968960 -17.024801
-1.576781 -17.623445
-1.676022 -17.170857
-1.731879 -17.241130
-1.832514 -17.579003
-2.387612 -17.197849
-2.622587 -17.559226
-2.376822 -17.619793
-2.814316 -16.933417
-2.409033 -17.399810
-2.304493 -16.743832
-2.782905 -16.432662
-2.417832 -17.465752
-3.014164 -17.009907
-3.103002 -17.149868
-3.667405 -17.074304
-3.785329 -17.159828
-3.790275 -16.772467
-3.849003 -16.844153
-3.484136 -16.844747
-4.228105 -16.824087
-4.075339 -17.316123
-4.198483 -16.474625
-4.082280 -16.255858
-3.889603 -17.004933
-4.809882 -16.138478
-5.095846 -17.004339
-4.123995 -16.930226
-4.885370 -16.435425
-4.622957 -16.609342
-4.793326 -16.144543
-4.691291 -16.334876
-4.583169 -16.490616
-5.194471 -16.410289
-5.390647 -16.687508
-5.877935 -16.863893
-5.759009 -16.195930
-5.764294 -15.481628
-5.624898 -16.266945
-5.674702 -16.337977
-6.615687 -15.882777
-5.581081 -16.232772
-5.435220 -15.477003
-6.178549 -15.293788
-5.401995 -15.799098
-6.702125 -15.888972
-6.537337 -15.618598
-7.064106 -16.053636
-6.945028 -15.458617
-7.134408 -15.206489
-6.921579 -14.750234
-6.804656 -15.465897
-7.641872 -15.367833
-6.835548 -15.339832
-6.761520 -15.064870
-7.436761 -14.788277
-7.643849 -14.810844
-7.231997 -15.229465
-6.993399 -14.803625
-8.052392 -14.170715
-7.344620 -14.078069
-8.158501 -14.750326
-7.938578 -13.766744
-8.513312 -14.808720
-8.052992 -14.644053
-7.906600 -14.361403
-7.821256 -14.500757
-8.297841 -13.899142
-9.148439 -14.348542
-8.709402 -14.336304
-8.134509 -13.673404
-8.639188 -13.930691
-8.346818 -13.630953
-8.787064 -14.103881
-9.053507 -13.655773
-9.425365 -13.636182
-9.166815 -13.532458
-9.852847 -13.350151
-9.344265 -13.707469
-9.507223 -13.335001
-9.539260 -13.146290
-9.427051 -13.077844
-9.854024 -12.605041
-9.700831 -13.028399
-9.335403 -12.832450
-9.774389 -12.525556
-10.004484 -12.787753
-9.451658 -12.543267
-9.935211 -12.705816
-9.908484 -12.127810
-10.215525 -12.559881
-9.893679 -12.152531
-10.294802 -12.242297
-10.033600 -11.976742
-10.340721 -12.449852
-10.540752 -12.050883
-10.815153 -11.805871
-10.718447 -11.584770
-10.328977 -12.179659
-10.667892 -11.128825
-10.788975 -11.113147
-10.798785 -11.725405
-11.232449 -11.450894
-10.935653 -11.435741
-10.852230 -10.816841
-10.893920 -11.139455
-11.456870 -11.311471
-11.376066 -11.405598
-11.688740 -11.240889
-11.473394 -10.617462
-11.282300 -10.778810
-11.587269 -10.518996
-11.653279 -10.579807
-11.658053 -10.443447
-11.876827 -10.341098
-11.933994 -10.050032
-11.393995 -9.960304
-11.850350 -10.148542
-11.879788 -10.177284
-12.020274 -10.034458
-11.747591 -9.875399
-12.007025 -9.709809
-11.975011 -9.735200
-12.154868 -9.586880
-11.963064 -9.407682
-11.889649 -9.280657
-12.597672 -9.028822
-12.486084 -9.223022
-12.243169 -9.081207
-12.407691 -9.168794
-12.255708 -8.959770
-12.454131 -9.228592
-12.640388 -9.022322
-12.491514 -8.709499
-12.025839 -8.437381
-12.762222 -8.133230
-12.672375 -8.215961
-12.297816 -8.486862
-13.138948 -7.652712
-12.597309 -7.990237
-12.453262 -7.954562
-12.453234 -8.181630
-12.786155 -7.567364
-12.840316 -8.068422
-12.790110 -7.711340
-12.893097 -7.781189
-12.916803 -6.973145
-12.850122 -7.741401
-12.936940 -7.019800
-12.843770 -7.128124
-12.998771 -6.662497
-13.135040 -6.943843
-13.133270 -7.158736
-12.790720 -6.622397
-13.084588 -6.294475
-13.012406 -6.626771
-13.052416 -6.039901
-13.235315 -6.239205
-13.595250 -5.910523
-13.247320 -5.855089
-12.770394 -6.269309
-13.002190 -5.899043
-13.031087 -5.515089
-12.897743 -6.001489
-12.951126 -5.346341
-13.292394 -5.680434
-13.112521 -5.301715
-12.939711 -5.670176
-13.197650 -5.476165
-13.417200 -4.907511
-12.883959 -4.712447
-13.446401 -4.819459
-13.322900 -4.786895
-13.346452 -4.612225
-13.746223 -4.514176
-13.305562 -4.637699
-13.175540 -4.617588
-13.261397 -4.711491
-13.683300 -4.360314
-13.195440 -4.488686
-13.225678 -3.921941
-13.081342 -4.349598
-13.606887 -4.163761
-13.372295 -3.943165
-13.097207 -3.793054
-13.329493 -3.670283
-13.217804 -3.347867
-13.442558 -3.385072
-13.033923 -3.435468
-13.458715 -3.228414
-13.424614 -2.701838
-13.096787 -2.958750
-13.034376 -2.991058
-13.095819 -2.591966
-13.583440 -2.654079
-13.093422 -2.944841
-13.382911 -2.617618
-13.296832 -2.748756
-13.524623 -2.069423
-13.211582 -2.085410
-12.924968 -2.075819
-12.707463 -2.542652
-13.041323 -2.140583
-13.165727 -2.020719
-12.888626 -2.086909
-12.903213 -2.044184
-13.321020 -1.765872
-13.278367 -1.304611
-12.956362 -1.330891
-12.818901 -1.372012
-13.287361 -1.628513
-12.594943 -1.433609
-13.078274 -1.232253
-12.893985 -0.974567
-12.955367 -0.752749
-12.753313 -1.136830
-13.154705 -0.743930
-12.821956 -0.735222
-13.291783 -0.641807
-13.249583 -0.591728
-12.546487 -0.588174
-12.846104 -0.191183
-13.039676 -0.354627
-12.553542 -0.023922
-12.347526 -0.030718
-12.616230 -0.453303
-12.216346 0.293213
-12.318775 0.440030
-12.344330 0.356527
-12.417747 0.178998
-12.454008 0.382302
-12.877066 0.896318
-12.392042 0.508236
-12.304452 0.721878
-12.536620 0.465100
-11.979058 1.052372
-12.229055 0.419825
-12.455151 1.101897
-12.238200 1.500168
-12.513777 1.109506
-12.157298 1.430450
-12.128834 1.157375
-12.426344 1.058915
-11.845075 1.142283
-11.915072 1.340228
-11.953527 1.668002
-11.511319 1.710936
-11.817145 1.445298
-12.010821 1.522255
-11.896673 1.329650
-11.824870 1.960091
-12.108968 2.258243
-11.429171 2.044560
-11.507533 2.132152
-11.623017 1.830160
-11.706908 2.469076
-11.533370 2.277796
-11.292083 2.336607
-11.577202 2.525233
-11.330514 2.654212
-11.160879 2.469936
-11.251732 2.651669
-11.266134 2.726312
-11.169250 2.789030
-11.092613 2.852993
-11.313972 2.805802
-11.094777 3.292574
-11.340548 3.154698
-11.055977 3.524637
-10.895676 3.052569
-10.688364 3.009951
-10.586345 3.456061
-10.728389 3.218072
-10.662070 3.095828
-10.511260 3.762686
-10.646869 3.451183
-10.808692 3.779310
-10.431186 3.655324
-10.355011 3.257510
-10.168119 3.612940
-10.086533 3.662168
-10.233697 3.838582
-9.882161 3.987914
-10.090855 3.743241
-10.222119 4.015077
-9.943490 3.654942
-9.901587 3.964448
-10.063488 4.140875
-9.782399 4.302937
-10.037688 4.089950
-9.558587 4.551780
-9.811585 4.401478
-9.980820 4.603832
-9.689383 4.440421
-9.510030 4.375326
-9.292477 4.567612
-9.159102 4.184989
-9.353028 4.375371
-9.358119 4.950102
-9.093792 4.612781
-9.122734 4.630568
-9.297548 4.630314
-9.319596 4.809728
-9.259359 4.797518
-8.818465 5.438673
-8.762425 5.093748
-8.175096 4.830201
-8.326975 4.875107
-8.782310 4.804772
-8.241713 4.867928
-8.376045 5.261510
-8.319632 4.820379
-8.606820 4.687400
-8.118418 4.934781
-8.436890 5.222401
-8.367022 5.118801
-7.730055 5.268364
-8.410490 5.467897
-7.851009 5.390128
-8.087622 5.492835
-7.670551 5.152133
-7.841609 5.401636
-7.832481 5.152949
-7.909087 5.412229
-7.688790 5.309193
-7.518917 5.441761
-7.635802 5.238259
-7.238515 5.526318
-7.434254 5.537992
-7.724792 5.879972
-7.187671 5.830653
-7.232520 5.485543
-7.372180 5.697707
-6.699594 5.333785
-7.004020 5.621536
-6.700663 5.703753
-6.920708 5.881343
-6.815035 5.685259
-6.744522 5.624997
-6.893293 5.885299
-6.675479 5.810258
-6.503416 6.054283
-6.357667 5.975923
-6.394699 5.786280
-6.449559 5.722214
-6.276796 6.022028
-6.118365 5.712692
-6.220385 5.555221
-6.098085 5.842591
-6.143839 5.643183
-5.978035 6.139867
-6.083796 6.306391
-6.358436 6.043138
-5.973332 5.986253
-5.978627 5.930565
-5.941644 6.009587
-5.668113 6.483211
-5.454698 5.927419
-5.409067 5.988476
-5.255382 5.953156
-5.141351 5.930319
-5.621169 5.897121
-5.742766 6.045484
-5.369076 5.897826
-5.066068 6.008216
-5.166137 6.351801
-5.156990 6.293021
-5.070998 5.766232
-5.162758 5.914120
-4.833374 6.061056
-4.625579 5.782841
-4.989563 5.899836
-4.424438 6.075059
-4.345072 6.040188
-4.775055 6.202122
-4.571281 6.259185
-4.290478 6.055140
-4.657141 5.878645
-4.541843 6.029244
-4.589954 5.987408
-4.345625 6.035271
-4.729635 6.193196
-3.928654 6.006460
-4.274676 5.202457
-3.882903 5.938165
-3.510288 5.822318
-3.996094 6.122305
-3.615864 6.005533
-3.882972 5.908815
-3.487821 5.871867
-3.805672 5.703402
-3.842828 6.344165
-3.656746 6.043537
-4.172882 6.244403
-3.601941 6.098115
-3.879272 5.322211
-3.823010 5.808674
-3.132993 5.858892
-3.093420 5.684584
-3.535191 5.835607
-3.210730 5.923229
-2.805595 5.595496
-3.154842 5.749162
-3.061461 6.203914
-3.157329 5.708933
-3.250637 5.457464
-3.242966 5.609593
-2.800287 5.490880
-3.144752 5.488146
-2.763665 5.435205
-2.733237 5.456135
-2.569121 5.268632
-2.821139 5.442551
-2.327632 5.383211
-2.429772 5.291503
-2.715391 5.613192
-2.364490 5.227811
-2.541816 5.767540
-2.693976 5.068196
-2.448354 5.876791
-2.748956 5.315608
-2.811884 5.144719
-2.364841 5.294545
-2.501623 5.373003
-2.457908 5.004260
-2.131642 5.190860
-1.954273 5.112502
-2.023131 4.973689
-1.782107 4.967204
-1.116695 5.012341
-2.034822 5.164472
-1.910678 5.715789
-1.616595 4.664971
-2.091288 4.947979
-1.973167 4.917492
-1.632892 5.278228
-1.787207 4.736617
-2.171069 4.647489
-1.452781 4.801943
-1.528792 4.368441
-1.572451 4.992503
-1.098756 5.044926
-1.452052 4.963909
-1.468015 5.028467
-1.261774 4.452842
-1.305016 4.365702
-1.339938 4.718036
-1.748630 4.735327
-1.138577 4.777802
-1.674158 4.436343
-1.554691 4.502166
-0.867280 4.153226
-1.652721 4.147702
-0.980818 4.313851
-0.831155 4.235741
-0.955993 4.495693
-1.170834 4.550458
-1.275990 4.285681
-1.279754 4.284156
-0.990525 4.406248
-0.837405 4.236590
-1.246174 4.192209
-1.391776 4.170901
-1.190297 3.851450
-1.089402 4.010431
-1.170799 4.273003
-1.181049 4.160626
-0.763309 3.533960
-0.860158 3.986283
-0.489929 4.291373
-0.997264 3.832252
-0.756967 3.910707
-0.715963 3.878212
-0.306280 3.473360
-1.227256 3.504786
-0.922102 3.584969
-1.074295 3.487973
-0.635573 3.583845
-0.918634 3.731790
-0.543213 3.461401
-0.598965 3.557997
-0.796753 3.678219
-0.594752 3.282483
-0.174681 3.487916
-0.748318 3.532611
-0.810714 3.394489
-0.888548 3.290845
-0.497898 3.029324
-0.606474 3.227367
-1.004229 3.160526
-0.519416 3.114302
-0.863866 3.226245
-0.795102 3.415500
-0.565864 3.115571
-0.470349 3.275728
-1.058052 3.000901
-0.518499 2.754001
-0.728284 2.714257
-0.229002 3.024478
-0.993266 2.635163
-0.780694 2.653253
-0.866143 2.646600
-0.396220 2.747281
-0.363553 2.462839
-0.811878 2.772731
-0.048681 3.170107
-0.719101 2.560798
-0.620192 2.689888
-0.512182 2.376041
-0.586564 2.401458
-0.542437 2.309369
-0.471704 2.525959
-0.339572 2.348803
-0.586192 2.179920
-0.416397 2.262011
-0.932278 2.478237
-0.841364 2.326732
-0.522732 2.199112
-0.535785 2.668580
-0.295193 1.941977
-0.262402 2.038088
-0.654023 2.007527
-0.098413 1.842591
-0.818325 1.866560
-0.714540 2.110359
-0.801943 1.977340
-0.864998 1.737013
-0.820579 2.033971
-0.772834 1.466458
-0.663094 2.191728
-0.885309 2.241486
-0.371331 2.038857
-0.322575 1.844554
-0.620984 1.619378
-1.234995 1.593364
-0.549955 1.710982
-0.561695 1.602214
-1.075819 1.447554
-0.916325 1.275745
-0.968214 1.568277
-0.959712 1.423171
-0.979683 1.723944
-0.851947 1.490795
-1.165630 1.480120
-1.121207 1.191695
-0.884280 1.722933
-1.036004 1.503233
-1.126260 1.358756
-0.832699 1.308384
-1.116879 1.060272
-1.059324 1.075840
-1.186112 1.095558
-1.120388 1.259816
-1.160469 1.184539
-1.116094 1.037760
-1.174681 1.061820
-0.964086 1.080254
-1.036807 0.968425
-0.727554 1.261197
-1.361165 0.923563
-1.409214 1.549003
-0.976508 1.031280
-1.412007 0.967837
-1.955258 1.055527
-1.188012 0.970998
-1.258111 1.075731
-1.416634 1.296116
-1.286551 0.838544
-1.277643 1.143526
-1.553436 1.228831
-1.865676 0.546607
-1.600805 0.839844
-1.276407 0.459561
-2.065542 0.855246
-1.517793 0.561315
-1.585600 0.747167
-1.975923 0.915172
-1.949783 1.040077
-1.676701 0.585807
-2.121565 0.731941
-1.944984 0.365837
-1.602351 0.851887
-1.870305 1.207943
-1.483433 0.629876
-2.184471 1.461398
-1.175233 0.647843
-1.676455 0.581241
-2.423288 0.171975
-2.223757 0.461445
-1.958342 0.954128
-1.835429 1.026338
-1.925477 0.492685
-1.833728 0.227769
-2.372940 0.506087
-2.033659 1.104557
-2.297786 0.814377
-2.586327 0.475581
-2.538779 0.392886
-2.560351 0.579693
-2.543586 0.996191
-2.469647 0.455341
-2.442972 0.444834
-2.550415 0.444661
-2.045904 0.465446
-2.644146 0.749373
-2.650779 0.592334
-2.353430 0.722632
-2.767681 0.148929
-2.651144 1.137030
-2.663717 0.700855
-2.269003 0.686597
-2.929113 0.117823
-2.137795 0.506449
-2.928075 1.395420
-2.589433 0.541319
-2.256357 0.731117
-2.583816 0.728478
-2.926857 0.775352
-2.563916 0.273667
-2.841011 0.532222
-3.707673 0.646359
-3.251929 0.722546
-3.146642 0.367617
-3.197375 0.951595
-3.460104 0.567492
-3.025560 0.581155
-3.119414 0.815413
-3.387191 1.095328
-3.330769 0.662801
-3.127941 1.199385
-3.586283 0.625051
-3.690574 1.292819
-3.713045 1.064129
-3.012246 1.084478
-3.534119 1.054809
-3.763101 1.318122
-4.161471 1.286306
-3.043435 1.141066
-3.580761 0.787002
-3.910625 0.711609
-4.103366 0.577287
-3.882462 0.845649
-3.974402 1.343704
-3.961739 0.888021
-3.775377 0.725017
-4.046807 0.686899
-4.113235 0.975204
-3.506137 1.194760
-3.547341 0.756320
-4.129912 1.085748
-3.677602 1.327172
-3.621060 1.367453
-4.066955 1.074728
-4.046872 1.386585
-3.472510 1.001238
-4.147477 0.962934
-4.553266 1.125712
-4.067174 1.249206
-3.948645 1.357677
-4.604887 1.039600
-4.648699 1.332115
-4.658762 1.429783
-4.610755 1.179480
-4.377479 1.759520
-4.710699 1.404078
-4.857673 1.351157
-4.784246 1.592758
-4.848644 1.691641
-4.457210 1.548957
-5.131025 1.451312
-4.506533 1.694320
-4.523932 2.078078
-4.977848 1.756111
-4.873329 1.997954
-4.357432 1.833407
-4.578663 2.110345
-4.594382 1.716298
-4.474556 2.189370
-4.448492 2.273578
-4.738644 1.960598
-5.124538 1.413734
-4.948292 2.083874
-5.110752 1.757524
-5.027966 2.341115
-4.469435 1.585437
-5.013036 1.910497
-5.358808 2.408641
-5.085938 2.521455
-5.279473 1.705906
-4.833248 2.180212
-5.164979 2.095940
-5.207841 2.454437
-5.253632 1.779897
-5.029134 2.853093
-5.192403 2.906832
-5.407503 2.871942
-5.188181 2.315500
-5.365365 3.491663
-5.196362 3.036044
-5.561702 3.021354
-5.874380 2.122306
-5.267016 3.526660
-5.736240 3.039338
-5.851140 2.695885
-5.623569 2.495248
-5.199016 3.125393
-6.245217 3.378461
-5.552535 3.595042
-5.267406 3.313974
-5.491853 3.372078
-5.981047 3.488228
-5.718797 3.794861
-5.929669 3.579891
-5.269358 3.662804
-5.326197 3.161353
-5.634006 3.629232
-5.704576 3.697455
-5.689747 3.879000
-5.438458 3.721476
-5.837418 3.608279
-5.487025 3.974429
-5.661899 3.720797
-5.232173 3.808844
-5.839586 3.937500
-5.891001 3.908639
-5.803345 4.040473
-5.449401 3.991794
-5.823619 3.610811
-5.856463 3.933748
-6.002913 4.014995
-6.173040 4.553678
-6.092992 4.397894
-6.147773 4.527343
-5.968243 4.353015
-6.034849 4.311304
-6.295764 4.791268
-6.608076 4.673843
-5.639144 5.009297
-5.835862 4.060965
-5.729171 4.353469
-6.048280 5.498407
-6.220648 5.002047
-5.902499 4.511934
-5.713701 4.599819
-5.915175 5.441299
-5.509735 5.160028
-5.956942 5.227197
-5.499445 5.128893
-5.913225 5.560266
-5.872257 4.890068
-6.128472 5.832512
-5.533132 5.412745
-6.264809 5.832190
-5.546495 5.080760
-4.864053 5.432453
-5.587335 5.665632
-6.236533 5.236236
-5.723462 5.507482
-5.539900 5.319207
-5.323845 5.342907
-5.756399 6.485797
-6.017416 5.539497
-6.560463 6.319556
-5.767276 6.190226
-6.383029 6.561177
-6.049457 5.944977
-5.590372 6.477407
-5.930265 6.629328
-6.128498 6.039745
-6.036110 6.746930
-5.569145 6.495445
-5.683858 6.265795
-5.219660 6.819733
-5.103332 7.188914
-5.535477 6.885161
-5.490120 6.859260
-5.039236 6.404281
-5.529406 6.970301
-6.080354 6.497653
-5.734408 7.341003
-5.222805 7.449942
-5.665512 6.963062
-5.127867 6.829548
-5.943109 7.444598
-4.946322 7.786444
-4.832789 7.906181
-5.125317 7.482479
-4.833630 7.181169
-4.849121 7.294028
-4.743430 7.565367
-5.843982 7.971179
-5.439147 8.512966
-5.118646 8.093033
-5.519623 7.673118
-4.506556 8.475570
-5.472849 7.876756
-4.099872 8.032256
-4.861292 8.742471
-5.400852 8.465717
-5.199543 8.600559
-4.278662 8.767880
-4.939234 8.294503
-5.199462 8.770209
-5.420304 8.939331
-4.523916 9.005858
-4.799750 9.008358
-4.223001 9.124912
-4.796787 8.547365
-4.154285 8.320856
-4.724826 9.627373
-4.704630 8.795054
-4.196548 9.465071
-4.561198 9.493401
-4.913368 8.658194
-4.095275 9.576718
-4.429309 8.912660
-3.908187 9.574444
-3.867873 9.600369
-4.683564 9.492596
-4.162982 9.830799
-4.364926 9.876444
-3.931195 9.336297
-4.435526 10.272093
-4.525954 9.904038
-3.822751 9.875525
-3.956785 10.265747
-3.427856 10.594778
-3.493756 9.290379
-3.338917 9.237289
-4.470868 9.859615
-3.912344 9.891327
-3.694588 9.728644
-3.870021 10.668370
-3.839266 10.813840
-3.553700 10.439990
-3.085021 10.655898
-3.314762 10.430288
-3.081246 10.585177
-3.668487 10.218061
-3.298952 11.480396
-3.336492 10.379815
-2.415674 10.840765
-2.231332 11.185328
-3.034533 11.228712
-2.490936 10.837946
-2.560110 11.096440
-2.380878 11.116762
-2.621552 11.446995
-2.322409 11.308407
-3.083353 10.508419
-2.393719 10.984927
-1.754035 10.611805
-2.603889 11.604185
-2.233864 11.270754
-2.584877 11.270664
-2.466508 11.293278
-2.309116 11.100941
-2.411217 11.233720
-1.738836 11.459501
-1.337358 11.069035
-1.776409 11.262842
-1.150402 12.474471
-1.406153 11.533834
-1.644921 12.071815
-1.442850 11.318161
-1.163649 11.804030
-0.908214 12.003907
-1.036516 12.085552
-1.160437 12.426555
-0.754374 11.939233
-1.367716 12.200787
-1.364256 12.411898
-0.777702 12.453895
-1.182710 11.609396
-1.146654 12.085716
-0.788444 12.043059
-0.289870 12.047753
-1.036837 12.264092
-0.102847 12.230110
-0.166601 12.193363
-0.343603 12.078204
-0.090631 12.118351
0.191206 12.457537
0.550852 11.862885
-0.088733 12.759899
0.553053 13.024535
0.224386 12.447886
0.528681 12.486306
0.462582 12.624932
0.659309 12.676757
0.568664 12.578917
0.568047 12.760648
0.952985 12.821260
0.586311 12.653866
0.806866 12.539991
0.642609 12.903420
1.286304 12.300616
0.951944 12.108053
1.079080 12.505631
1.397682 12.563136
1.356108 12.529962
1.380686 13.252227
1.691643 12.878388
1.296741 12.801630
1.568924 13.270269
1.815867 12.878596
1.725476 13.052276
1.866708 12.876572
1.785244 13.820295
2.284489 13.583274
2.110226 13.298611
1.818691 13.030503
2.683166 13.350083
2.396342 12.419140
2.814292 13.127983
2.777652 13.221028
2.540664 13.171865
3.047462 13.226987
3.051867 13.216733
3.383486 13.091120
2.718237 13.624189
3.648951 13.831790
2.961938 13.068709
3.999720 12.786253
3.433786 13.638829
3.630188 13.922670
3.574650 12.934990
3.547251 13.151344
3.987916 13.275362
4.215842 13.315935
3.915584 13.500918
4.589962 12.894193
4.744122 13.405941
4.568843 13.102957
4.609957 12.953847
4.142699 12.933284
4.117828 13.158689
4.878262 13.439966
4.013570 12.981043
4.842594 12.819429
4.458277 13.583415
4.893484 13.314708
4.336455 12.924921
5.426123 13.090391
5.304203 13.631355
5.289351 13.015191
5.368098 13.077075
5.698764 13.070422
6.107991 12.946010
6.067747 12.392925
6.254330 13.313167
6.620532 13.351208
6.449463 12.650786
6.516199 13.234143
6.530221 12.797894
6.482646 12.888671
6.084224 13.011606
6.444602 14.321651
6.290045 12.535425
6.549799 12.534908
7.547448 12.960668
7.114057 11.920214
7.237768 12.510265
6.986850 12.718058
7.396443 12.614927
7.653509 12.594222
7.419909 12.904456
7.891128 12.497705
7.888701 12.709635
8.176927 11.729204
8.218130 12.471796
8.043005 12.250237
7.119008 12.405314
7.775117 13.674429
7.603028 12.080653
8.371993 11.972256
8.281176 12.379973
8.445684 12.174811
8.327041 12.074571
8.776733 12.544776
9.123292 12.209154
9.167072 11.831171
8.995747 11.983511
8.734887 12.164792
9.121936 12.337014
10.013613 11.133108
10.049043 12.044545
9.866509 12.219501
8.650954 11.747511
8.809122 13.969637
9.582669 11.264951
10.017398 11.022330
9.540577 11.743098
9.291956 12.814476
9.944892 11.549387
10.738436 11.308303
10.324086 11.608755
9.945166 12.122856
10.255320 11.528246
10.843895 11.269572
10.905935 11.443223
11.570022 10.645748
10.786991 10.968439
10.910596 11.471954
10.155877 10.664649
10.163768 13.300132
10.572480 9.598446
11.116547 10.387123
10.470300 10.692397
10.254374 12.916116
10.821118 9.158764
12.373634 10.237140
11.168373 10.875637
11.490637 10.624939
11.760169 9.678761
12.337427 10.101698
11.900367 10.703154
13.701498 8.247015
12.727130 10.253340
12.151778 10.308298
11.908439 9.407853
11.672799 10.809247
12.366113 9.213104
12.529486 9.463354
12.201364 9.234052
10.866759 11.442112
12.156683 8.632088
13.420422 8.931898
12.591946 9.261000
11.762114 10.496932
12.630971 8.399464
13.919015 8.939267
12.836104 9.404648
15.191247 7.410962
13.667592 8.734261
13.278026 9.172697
12.048740 8.022466
11.612065 10.472139
13.475159 7.452206
12.875041 8.182441
12.345880 7.596910
10.776245 10.806469
13.410049 7.228949
13.914227 8.341948
14.065869 7.853013
11.791501 9.587443
14.018089 7.544030
14.498803 7.488162
15.396348 8.782299
20.546356 3.823021
15.761248 8.815089
15.059947 8.353384
15.621461 7.396072
13.576602 7.386904
15.340598 7.489159
15.004396 6.942615
14.406074 6.208124
9.968805 8.605788
14.505510 5.821681
14.957171 5.762113
13.477887 5.118741
3.427491 11.026062
13.224623 4.255418
15.839495 5.395172
14.108938 6.864454
24.137952 2.816703
14.504771 6.337021
15.343863 6.863524
14.036405 5.482007
17.396744 5.769931
15.713338 5.570227
14.506480 6.171747
13.193685 3.872646
6.370904 9.070229
16.368699 4.682102
14.415438 5.961090
12.094865 1.506021
-28.687369 16.843026
14.606583 3.124691
16.828279 4.750965
12.718991 4.302573
28.390751 3.245334
14.632365 8.086549
17.423339 6.807045
14.726119 2.817690
15.234530 5.005295
15.836567 7.353408
16.712571 6.289073
16.753732 2.160727
-29.266365 9.090598
19.564798 2.323493
13.823761 4.699008
20.130471 -0.126183
-433.278006 35.002538
18.609875 -10.772448
16.192600 -1.502225
20.502009 13.077551
129.105364 -2.294375
14.030969 -3.029686
17.420342 5.522930
