14185.197741 14232.036275
70.353820 1.438975
28.961301 15.863791
50.753074 -29.828457
43.856225 4.972327
51.636982 51.682369
19.646511 -3.793756
86.344237 -0.934067
-52.100228 -23.212097
-1786.137763 460.177041
113.681260 -56.549804
33.280622 14.946641
71.938395 -10.789400
66.453694 56.885298
47.578010 -7.528605
85.958053 -51.945606
42.881367 3.435640
49.225364 -7.118244
46.773552 11.222871
99.470560 90.452256
45.814762 -14.124979
61.098533 -2.967423
50.409356 -18.691834
24.554192 -39.125126
52.578778 -5.966842
41.263317 7.352984
43.112264 -7.272988
53.670641 -1.281083
19.861510 -13.734449
-116.506375 10.213191
74.726659 -23.992160
43.211908 -11.151026
57.790524 -9.670338
51.977719 7.279444
49.633801 -16.309596
70.555270 -26.050012
48.262037 -3.524530
54.100118 -17.254281
48.352793 1.469866
58.792449 20.137219
50.125029 -19.959147
53.390222 -10.998154
47.119190 -22.766910
37.622100 -28.083191
50.857681 -12.131615
41.405420 -12.746260
44.788720 -10.791973
48.825713 -12.148994
34.581964 -14.402679
2.738142 -1.659381
60.348585 -24.039428
48.263765 -16.946699
52.546379 -15.159975
47.098866 2.533256
52.164458 -26.240257
60.546221 -27.492635
49.002136 -11.940602
50.321268 -22.751990
47.217179 -0.724347
62.579536 9.890112
40.331723 -25.556104
50.889957 -17.592866
43.554368 -26.492868
47.733974 -27.780548
45.625681 -20.404436
37.825722 -20.448090
47.555370 -19.899317
44.930881 -19.685628
42.778831 -25.398267
30.167081 -21.603991
53.042860 -24.821715
44.745191 -24.275466
45.835533 -19.966223
42.155916 -11.913316
50.110739 -30.022262
54.789490 -27.679265
44.779971 -20.070305
48.316414 -26.912792
44.571451 -10.467128
52.474751 -9.555329
39.355358 -29.656570
46.843714 -24.568738
43.177667 -32.131777
46.924485 -30.082547
37.700042 -28.822739
33.515096 -29.666983
46.226961 -25.814314
42.314475 -25.649489
44.026070 -28.558410
38.784625 -26.480061
46.949018 -31.196595
42.920670 -31.297200
40.153258 -24.135298
39.723149 -22.403291
43.563066 -33.295289
47.074399 -30.470271
41.497501 -28.102517
43.589436 -31.167892
40.944874 -23.554871
44.135307 -26.944735
36.264853 -32.511313
40.768977 -30.141314
40.275028 -35.724241
40.989036 -33.544120
36.031390 -33.425163
34.148350 -34.449958
39.121946 -31.997330
36.261884 -32.477561
40.067629 -33.050621
36.534246 -31.666625
41.968437 -35.740109
39.161752 -35.152996
35.666989 -30.915523
35.842887 -30.207259
37.789292 -38.489500
40.462707 -34.272453
36.711748 -32.775342
36.741863 -34.845841
36.537416 -29.824936
38.366681 -35.056517
31.592182 -36.749852
35.270997 -36.298112
36.203401 -39.044182
36.499763 -38.851480
29.338901 -37.849890
30.604170 -38.649702
34.337706 -38.138409
31.024671 -37.192461
37.117716 -38.246445
32.380199 -36.248462
35.154439 -38.973394
32.399136 -39.436610
30.208515 -34.673335
31.143436 -36.612805
30.762259 -40.075862
33.030823 -37.372272
31.992489 -38.271278
32.103664 -38.728576
29.413568 -37.555156
31.040374 -40.273754
26.640844 -40.594621
28.070442 -40.698836
31.540774 -41.358030
30.581236 -41.016700
24.392496 -42.286863
26.531927 -43.036055
28.837932 -40.944311
25.866219 -40.629155
30.591165 -41.439529
25.827210 -39.407501
28.668287 -42.071185
26.135889 -41.439084
24.107620 -39.404776
25.570626 -41.663463
24.359742 -41.811313
26.289711 -41.489112
25.407751 -41.363167
25.185539 -41.475670
23.900936 -41.934482
24.906772 -43.812496
20.531874 -43.591486
22.479157 -43.568266
24.682396 -43.909953
22.466802 -43.886431
19.409519 -44.062562
21.320538 -44.825958
22.079931 -44.357644
21.036772 -43.537681
23.703767 -43.150929
18.916151 -41.925644
22.837719 -44.127741
18.714864 -43.361957
17.740864 -42.153865
19.323630 -43.823648
17.650288 -43.678118
19.262447 -43.486709
18.929950 -43.049230
18.501431 -43.758449
16.968166 -44.650195
18.273243 -45.674115
14.652625 -46.268026
16.079584 -44.239381
18.664584 -44.266663
14.841785 -44.766454
13.460892 -44.629244
14.989944 -46.026539
15.192741 -46.218308
14.969385 -44.817279
15.846320 -43.974442
12.676518 -43.668589
14.792907 -44.835977
12.242739 -43.914698
12.435026 -44.236347
12.044153 -43.967677
11.678435 -44.912997
12.330058 -43.947791
11.419833 -42.905858
11.561707 -44.646400
11.829605 -46.165854
11.389363 -46.289771
7.877745 -46.017667
10.263057 -45.070078
11.052610 -45.226350
8.852763 -45.021718
8.339307 -44.531688
8.717652 -45.672529
9.107474 -45.927080
8.025348 -44.982802
7.999688 -44.423379
5.891114 -42.843903
8.548846 -43.966241
5.738382 -43.402723
5.397032 -43.940919
5.729162 -44.274179
4.614623 -44.439281
6.006227 -44.389831
5.123065 -43.262789
5.353728 -44.691416
5.032561 -45.820615
5.020792 -45.123471
2.277057 -45.243824
4.277281 -43.717486
3.555264 -44.144558
2.417211 -43.993557
1.509313 -43.392602
2.514367 -44.758638
3.076341 -44.933475
1.441680 -43.234508
1.392191 -43.853652
0.877220 -42.706340
1.961945 -43.558017
0.459624 -42.769604
-0.655666 -43.319863
0.547104 -42.631377
0.354327 -42.042839
-0.402274 -42.626550
-1.922090 -43.292171
-1.333819 -43.589674
-1.913930 -43.499017
-1.333113 -43.409248
-3.550435 -43.053601
-1.680814 -42.562961
-1.780764 -42.988438
-3.573286 -41.688664
-3.521534 -40.675279
-3.951609 -42.413862
-2.778275 -43.124877
-4.983058 -40.939004
-5.611832 -39.981776
-5.202476 -41.230785
-4.691697 -41.810436
-5.662428 -40.710678
-6.105535 -40.467204
-5.470909 -40.229484
-6.961121 -40.639159
-6.141253 -39.904836
-6.531130 -40.139486
-7.006172 -41.070307
-7.161897 -40.729417
-6.650121 -41.159020
-8.579410 -40.497996
-7.297463 -39.996040
-8.203427 -40.214839
-8.563643 -39.735507
-9.452573 -38.393207
-8.605495 -38.780600
-8.346238 -39.276181
-9.977152 -37.858499
-10.124286 -38.086011
-10.951362 -38.826726
-10.387354 -38.223989
-10.845674 -37.909168
-10.750847 -37.711629
-10.956321 -37.665620
-11.827432 -37.747523
-11.485232 -37.628690
-12.748143 -37.231509
-11.212937 -37.641479
-11.365325 -36.421524
-11.669659 -36.924362
-12.632988 -37.187185
-11.734251 -35.823935
-13.393978 -36.477060
-13.229848 -36.359485
-13.777693 -35.167980
-13.633641 -36.624938
-12.993202 -35.882008
-14.570095 -34.540930
-14.551462 -34.342727
-14.618333 -34.592507
-14.160867 -34.168005
-14.923435 -33.813585
-15.050393 -33.635774
-14.926343 -33.908171
-15.689754 -34.034414
-15.819058 -33.207784
-17.109908 -33.474746
-15.352658 -33.421754
-15.230118 -32.409166
-15.820356 -33.077774
-16.486959 -32.398532
-16.090262 -32.048596
-17.076248 -32.134602
-16.956332 -31.573881
-17.398792 -30.690549
-18.031576 -31.951684
-17.298716 -31.229083
-18.816958 -30.359276
-18.381615 -30.617035
-18.684901 -30.444675
-17.834437 -29.814443
-18.062618 -30.228860
-18.533598 -29.012850
-18.092985 -29.578242
-18.362405 -29.861876
-19.080108 -29.342187
-20.032400 -29.370956
-18.120396 -28.994670
-19.268310 -27.919448
-19.042252 -28.238659
-19.442991 -27.589662
-19.453575 -28.338457
-19.258888 -27.741872
-19.676658 -26.434164
-20.044125 -26.504589
-19.952756 -26.393908
-19.764214 -26.629008
-21.113691 -25.187758
-20.594121 -26.100052
-20.782400 -25.547803
-20.018063 -25.313695
-20.275006 -25.742694
-20.832367 -24.439152
-20.687529 -24.514274
-21.019588 -24.443928
-21.706611 -24.519831
-20.816321 -23.853026
-20.421582 -23.478804
-21.204552 -22.806833
-20.524290 -23.390453
-21.510727 -23.156666
-21.681532 -23.564577
-21.683557 -23.364595
-21.758588 -22.616281
-21.794109 -21.840049
-21.202285 -22.683621
-21.281514 -20.655080
-22.790990 -21.069906
-22.264416 -20.288099
-22.284099 -20.314192
-21.723099 -20.387006
-22.240090 -19.076510
-22.114229 -20.008442
-21.341381 -20.056790
-21.935870 -20.536318
-22.276501 -20.393304
-21.913395 -19.300939
-22.394003 -18.395191
-22.926477 -17.536897
-21.586875 -18.774025
-22.645244 -17.747232
-22.060032 -18.461549
-22.406578 -18.425025
-22.846448 -17.136654
-22.685571 -16.846831
-22.985101 -17.791441
-22.521724 -16.583366
-22.733275 -15.320665
-22.536748 -16.246039
-22.746618 -16.171113
-21.869801 -16.214034
-22.525089 -15.686600
-22.817655 -14.755164
-21.445937 -14.859243
-22.827676 -14.405976
-23.251161 -14.991688
-21.933075 -14.106003
-22.268112 -14.276489
-22.543997 -13.736829
-22.745862 -13.189021
-23.375904 -13.475657
-22.229658 -14.189272
-22.380888 -13.134972
-22.801782 -12.653317
-21.918739 -11.601842
-23.018744 -13.082030
-22.535666 -12.140970
-22.644616 -11.420300
-22.489683 -11.467617
-21.790873 -12.384280
-21.582848 -11.238952
-22.033926 -9.984881
-21.755448 -9.835184
-21.601596 -11.085229
-21.943117 -10.203875
-21.775443 -9.873253
-21.941123 -9.752601
-21.793293 -10.400622
-21.959036 -8.439622
-21.427989 -9.298937
-22.488638 -9.232473
-21.301473 -8.748715
-21.300812 -8.577109
-21.592670 -8.911069
-21.466967 -7.664361
-21.918576 -7.711227
-21.602508 -7.386988
-21.622484 -7.425145
-21.366424 -7.658480
-21.133922 -7.458287
-20.522792 -6.854593
-21.063496 -7.099401
-20.842075 -6.653357
-20.378448 -6.196168
-20.103102 -6.450360
-20.489730 -5.864459
-20.308280 -5.566798
-20.323624 -6.637607
-20.233152 -4.844504
-20.692162 -4.817846
-20.249853 -5.019083
-19.673286 -5.168447
-19.500272 -4.655335
-20.157800 -4.104094
-19.757033 -4.441757
-20.582795 -3.965507
-18.544365 -3.768425
-19.350043 -4.130791
-18.951497 -3.338333
-19.100260 -3.655291
-18.630015 -3.023657
-18.955770 -2.679593
-18.954226 -2.223027
-18.340128 -3.107430
-18.080390 -2.261425
-17.865048 -2.003975
-18.013339 -2.791484
-18.107815 -2.924424
-17.993544 -1.408979
-17.672053 -1.961613
-18.064002 -1.696849
-17.579351 -1.975527
-17.545784 -1.552864
-18.419238 -1.995069
-17.370180 -1.120841
-17.320833 -1.015940
-17.212914 -1.103248
-17.333904 -1.147685
-17.189794 -1.041604
-17.050960 -0.290097
-15.787954 -1.229707
-16.825771 -0.292672
-15.737046 -0.090034
-16.221604 -0.351063
-15.759157 0.287402
-16.146565 0.438412
-15.468419 0.530554
-15.151708 0.034076
-15.658940 0.612514
-15.887545 1.249386
-15.249423 0.087575
-14.274408 0.866132
-14.795444 0.883469
-15.064233 1.214377
-15.110070 1.030280
-14.094774 1.029898
-13.525788 1.448266
-13.947430 1.752510
-13.691084 1.677847
-13.753911 1.844065
-12.871192 1.624861
-13.052365 1.377957
-13.519941 2.132631
-13.470566 2.146871
-13.420607 2.136953
-12.449558 1.925777
-12.088151 2.271241
-12.625089 2.026757
-12.498572 1.842391
-12.246301 2.407907
-12.479959 2.275650
-12.039647 2.349007
-11.739581 2.528977
-11.568702 2.702624
-11.281538 2.804565
-11.229452 2.036074
-10.496695 2.409981
-11.428604 2.798795
-11.057711 2.892903
-11.000008 3.261957
-10.945680 3.289426
-10.722147 3.123819
-10.054278 3.818014
-10.156970 3.882567
-9.725414 2.877044
-9.871347 3.646864
-9.286313 2.846427
-9.409440 3.301085
-9.420815 3.059292
-9.053353 3.371696
-9.255727 3.665656
-9.056821 3.828475
-8.565989 3.592009
-8.657176 4.301337
-7.644692 3.262708
-8.189835 4.190617
-7.533442 3.723117
-8.023390 3.818004
-7.633133 4.048643
-7.427498 4.277863
-7.547470 3.569474
-6.805444 3.965234
-7.094570 3.928525
-6.723237 3.950202
-6.841518 3.943527
-6.321233 4.221494
-6.219182 3.591049
-5.921412 3.699980
-5.959153 3.744351
-6.261080 3.720963
-5.951686 3.092515
-5.946660 4.160762
-5.889434 4.027855
-5.327603 3.122109
-5.299989 3.349836
-5.023525 4.279363
-4.723487 3.922213
-4.281851 3.989908
-4.804131 3.620152
-4.699127 3.730375
-4.084277 3.053479
-4.284568 4.234676
-4.449499 3.666562
-4.717688 3.432843
-4.295595 3.399542
-3.856221 3.600639
-3.402571 3.295020
-3.503083 3.037268
-3.272479 3.365811
-2.826113 3.106567
-3.396438 3.021516
-3.012824 3.241795
-2.539082 3.042690
-2.511105 2.911291
-2.736612 2.678637
-2.499225 2.987932
-2.584946 2.547911
-2.807028 2.937181
-2.287207 2.960375
-1.623502 3.163576
-1.817048 2.578997
-1.226267 2.501572
-1.510555 2.763049
-1.558896 2.525743
-1.245078 2.610051
-1.938171 1.735860
-0.890884 1.791077
-0.914659 2.211706
-1.472829 2.178707
-0.503151 1.749459
-0.577701 2.421625
-1.235458 2.247764
-0.348410 2.053935
-0.166365 1.839912
0.122492 1.350299
-0.407619 1.920060
0.188348 1.336488
0.341508 1.185276
-0.591052 1.356522
0.595713 1.273496
0.403423 1.652128
0.726522 0.838534
0.708587 0.897807
0.410278 0.617393
-0.235911 1.623434
0.324541 0.410290
1.124348 1.518744
0.850991 0.579278
0.851399 0.143096
0.659021 0.427286
0.880087 0.142175
1.710992 -0.247979
1.719758 0.101792
1.874949 0.578391
1.455519 0.219192
1.668568 0.077292
1.677369 0.249187
1.764309 -0.707732
1.803551 -0.446014
1.178383 -0.753296
1.830634 -0.265485
2.140333 -0.386314
1.318955 -1.126810
2.020950 -1.302983
2.404305 -1.522025
2.193988 -1.232848
2.197905 -1.166470
2.420908 -1.751430
2.879919 -0.593533
2.778538 -1.591300
2.366901 -1.713887
2.234455 -2.142653
1.758963 -1.818792
2.648825 -1.902640
2.512896 -1.952667
2.783985 -2.563877
3.106851 -2.842988
2.774587 -1.890191
2.913009 -2.861811
2.506597 -2.710857
2.876218 -2.231220
3.317932 -2.478657
3.526048 -2.692876
3.485123 -3.123477
2.363239 -3.269727
3.185196 -4.273240
3.580518 -3.652051
3.054398 -3.252020
2.635168 -3.334033
3.127641 -3.759501
2.669282 -3.314167
3.372162 -3.711737
3.128189 -4.543925
2.614258 -4.376760
3.783497 -3.809982
3.146516 -4.716092
2.822767 -4.664308
3.200125 -4.172444
3.366564 -4.666785
3.164883 -4.841710
2.952158 -4.569800
3.594292 -5.535277
2.663202 -5.873344
3.135903 -5.511127
2.943669 -5.802392
2.617236 -5.717884
2.962111 -5.733432
3.263106 -5.818423
3.044994 -6.079883
3.317599 -5.530306
2.928876 -6.026715
2.945130 -6.066424
3.054166 -6.450822
3.250393 -6.604237
2.970824 -6.602824
3.285018 -6.402906
3.192500 -7.489325
2.864444 -6.707947
2.466096 -6.714548
2.811832 -7.432632
3.156618 -7.291908
2.670858 -6.484025
2.846105 -7.492376
2.424515 -7.662383
2.389678 -8.092562
2.814834 -7.697331
2.556232 -7.846212
2.066494 -8.558052
2.586920 -7.737156
2.250112 -7.916533
2.479712 -8.794363
2.616322 -8.362109
2.100802 -8.607633
2.549800 -8.514226
2.257195 -8.574382
2.304739 -8.980354
2.442343 -9.189702
1.975776 -8.828675
2.384386 -9.267439
2.198755 -9.271467
1.840649 -9.025907
1.798720 -9.570025
1.983177 -8.476319
1.990727 -9.832465
1.680632 -10.102741
2.019091 -9.903617
2.746253 -10.077964
1.736676 -9.673531
1.225091 -9.988781
1.542867 -10.594405
1.014530 -10.217297
0.883583 -10.416886
1.250784 -10.553380
0.840303 -11.002274
1.535105 -10.389134
0.915603 -10.993723
1.305124 -10.608942
0.809615 -10.882047
0.611361 -11.201388
0.879653 -11.332580
1.286410 -10.601961
0.244227 -11.085227
0.745612 -10.648866
0.398366 -10.382285
0.660396 -11.135449
0.078640 -11.877713
-0.267946 -11.655778
1.048602 -11.759345
-0.070440 -11.573957
-0.065776 -12.062336
0.020458 -11.920443
-0.054268 -11.898991
-0.425848 -11.606303
-0.080792 -11.741310
-1.033022 -11.380336
-0.676218 -12.023558
-0.925088 -11.913888
-1.134569 -11.942030
-0.663578 -12.172121
-1.334817 -12.374738
-1.220317 -12.111590
-1.614588 -12.887804
-1.900674 -12.355515
-1.626658 -12.906000
-1.155210 -12.007113
-1.894616 -13.164498
-1.640420 -12.675103
-0.782231 -12.032421
-1.880404 -11.896828
-2.108625 -12.906221
-1.925299 -13.083797
-2.237337 -12.670900
-1.747157 -11.965083
-3.044054 -13.302072
-2.637674 -13.440833
-2.281569 -12.967805
-2.974837 -12.717625
-2.372628 -13.102736
-3.278469 -12.392815
-2.360604 -13.049419
-2.895630 -13.050499
-3.034096 -12.376247
-3.585725 -12.478722
-3.488694 -13.008066
-3.506767 -13.163439
-3.544579 -12.968277
-3.910092 -12.334931
-3.823918 -13.403102
-3.400563 -13.334862
-4.129721 -12.850118
-3.863919 -13.434925
-4.105155 -12.826924
-4.996584 -13.116577
-4.418945 -13.263244
-4.724287 -13.842172
-5.464744 -12.949693
-5.189843 -12.531987
-4.949947 -12.955636
-4.732997 -13.484191
-6.129171 -12.744881
-5.221569 -14.097572
-5.832181 -13.744843
-6.088850 -13.759173
-6.134650 -12.755967
-6.421596 -12.934086
-6.230408 -12.996910
-6.427365 -13.399082
-6.053922 -13.207795
-5.625185 -13.156901
-6.439009 -13.512174
-6.972259 -12.805817
-6.892924 -13.431545
-6.366663 -13.447772
-7.108463 -13.257386
-6.838785 -13.225420
-7.438755 -13.131518
-6.974105 -12.598947
-7.358136 -12.988652
-7.346568 -12.199984
-7.049265 -13.020491
-7.367332 -12.463223
-7.171703 -12.822735
-7.530321 -13.225187
-7.834461 -13.282130
-8.424450 -13.339963
-7.828240 -12.792602
-8.592454 -12.469923
-8.783507 -13.107416
-8.907610 -12.667513
-8.481729 -12.887970
-8.667184 -12.221303
-8.307668 -12.683727
-8.756699 -12.316243
-9.406603 -12.543972
-9.446549 -12.417772
-9.164480 -12.305268
-9.484898 -12.313914
-9.946084 -12.355532
-9.566275 -12.276156
-9.793230 -12.106025
-9.267834 -12.051180
-9.950681 -12.348554
-10.080552 -12.580335
-9.883943 -11.739240
-9.959482 -12.062769
-10.175733 -11.881414
-10.400265 -12.009147
-10.285327 -11.897615
-10.765374 -12.521267
-11.365249 -11.365245
-10.736671 -12.196982
-10.633176 -12.039829
-11.114366 -11.500879
-11.105136 -11.151710
-11.397132 -11.664474
-11.187996 -11.491502
-11.345421 -11.174024
-11.371054 -11.053996
-11.801515 -11.455465
-11.916271 -10.777840
-11.664986 -10.613591
-11.841745 -10.954101
-12.139625 -10.479709
-11.883344 -10.305150
-11.757510 -10.388743
-12.555558 -10.516681
-11.888049 -10.459042
-12.581893 -10.403307
-11.638800 -9.839702
-12.416794 -10.083031
-12.694682 -9.982184
-12.451498 -9.216811
-12.598085 -9.594229
-13.028997 -10.230144
-12.879843 -9.469333
-12.639484 -9.411385
-12.959391 -9.148343
-12.973172 -9.059649
-12.545529 -9.721060
-13.082358 -9.274728
-13.246072 -9.225875
-12.930167 -8.841682
-13.868438 -8.802693
-13.611315 -8.436289
-13.205376 -8.399388
-12.817645 -8.836402
-13.198470 -8.451496
-13.967431 -8.431408
-13.810590 -8.093047
-13.515579 -8.529334
-13.310169 -8.289085
-13.753378 -7.989697
-13.698442 -7.906400
-13.036609 -7.901708
-14.277469 -7.931694
-14.170296 -7.836332
-13.602661 -8.026163
-14.306776 -8.073468
-14.066015 -7.395501
-14.449794 -6.976058
-14.059508 -7.696646
-14.253676 -7.041633
-14.215739 -6.945288
-13.684278 -7.067988
-14.559968 -6.620845
-14.823718 -6.905741
-14.829266 -6.479260
-14.443392 -6.595994
-14.979787 -6.181358
-14.643221 -6.165180
-15.476529 -5.997668
-14.751654 -5.983330
-14.243972 -6.402204
-14.872038 -5.958592
-14.189672 -5.536678
-14.544943 -5.573570
-14.749694 -4.962777
-14.713978 -5.239290
-15.230800 -5.062119
-15.437757 -5.289930
-14.801351 -4.536982
-14.378341 -4.505765
-14.710306 -4.637010
-15.056960 -4.875164
-14.262428 -5.021919
-15.163327 -4.420153
-14.779623 -3.770875
-15.304269 -4.476544
-15.267477 -3.997141
-15.091485 -3.986876
-14.810245 -4.076505
-14.774031 -3.516183
-14.759373 -4.199461
-15.520970 -3.244296
-15.203892 -3.919428
-14.433200 -3.029810
-14.828495 -3.471280
-15.372227 -2.945835
-14.960144 -3.220924
-15.187712 -2.615811
-15.100811 -2.539851
-15.316431 -2.458585
-15.451023 -1.775742
-14.701171 -2.281019
-15.534882 -2.067798
-14.968762 -2.299192
-14.891174 -1.941390
-14.460021 -1.673944
-15.107542 -1.920449
-14.505421 -1.797610
-14.274446 -1.590165
-14.870311 -1.490647
-14.897881 -0.561855
-15.387037 -2.082676
-14.785368 -0.761597
-14.357408 -0.885583
-15.291656 -0.868603
-15.133448 -1.137034
-14.500245 -0.518974
-14.893844 -1.214184
-14.443278 -0.280001
-14.631452 -0.587568
-14.555430 -0.358336
-14.920404 -0.306263
-14.259423 -0.423294
-14.884595 0.143121
-14.013761 0.038823
-14.802841 0.429788
-14.644812 0.263625
-14.072712 0.614023
-15.033359 0.174181
-15.099284 0.512834
-14.186748 0.694105
-13.963094 0.467066
-14.081262 0.969711
-14.428934 1.364425
-13.931296 1.216577
-14.192148 1.005395
-14.148200 0.914467
-14.151575 1.168138
-14.541889 1.642913
-14.172791 1.051564
-14.189092 1.495126
-13.921828 2.061099
-13.847981 2.161238
-13.703057 2.450287
-13.642222 2.267541
-13.678605 2.317550
-13.660646 2.480216
-13.774269 2.553133
-13.219698 2.575611
-13.810772 2.490207
-13.014625 2.717289
-12.453997 3.059049
-13.778666 2.562384
-13.251633 2.813374
-13.098195 2.695237
-12.534659 2.529156
-12.517852 3.233785
-12.988791 3.310882
-12.865536 3.094244
-12.653034 3.804153
-12.867073 3.233561
-12.509705 3.980995
-12.516700 3.254918
-12.375268 3.891282
-12.161263 3.688782
-12.255522 3.689018
-12.050503 3.865154
-12.007163 3.929557
-12.150833 4.146188
-12.174637 3.816760
-11.901977 3.747066
-12.051898 4.219706
-12.409550 4.261705
-12.471255 3.973497
-11.808286 4.905397
-11.411529 4.330819
-11.368623 4.566501
-11.520208 5.053404
-11.046083 4.729733
-10.879420 4.837472
-11.179014 4.338527
-11.183898 4.885370
-11.056109 5.326596
-10.761328 5.311420
-11.154137 4.859996
-10.809952 5.177618
-11.288183 4.925121
-10.528976 5.526805
-10.412621 5.470605
-10.458209 5.201984
-9.992756 5.829101
-9.983667 5.149673
-10.363984 5.582540
-10.276166 5.026413
-9.777802 5.619670
-10.017242 5.878345
-9.877867 5.591468
-10.089441 5.434307
-9.726846 5.881678
-9.678022 5.495611
-9.909063 5.936701
-9.912540 5.795499
-9.119876 6.032227
-9.004023 5.998789
-8.754162 5.965355
-8.015659 5.770852
-8.987558 5.551108
-8.939522 5.908335
-8.463245 6.034692
-8.694067 5.867088
-9.031431 6.318884
-8.419902 6.305372
-8.266149 6.561068
-7.960019 6.759030
-8.046382 6.246019
-7.943284 5.948772
-7.777004 6.440326
-7.945855 6.685068
-7.635407 5.918570
-7.348580 7.107923
-7.734258 6.636611
-7.229449 5.929637
-7.213939 6.311693
-7.355880 6.292761
-7.393528 6.474591
-7.180654 6.244671
-7.177745 6.791418
-7.342867 6.232995
-7.056809 6.682992
-6.565569 6.642145
-6.703612 6.588565
-6.681168 6.632178
-5.895080 6.081165
-5.935614 6.899076
-6.206503 6.844900
-6.210660 6.345963
-6.249435 6.933720
-6.115952 6.752587
-5.975696 6.326949
-5.535312 6.469597
-5.672384 6.392718
-5.982596 6.688622
-5.346501 6.825134
-5.866484 6.042169
-5.249333 6.089594
-5.047952 6.482998
-4.853365 6.475886
-4.588589 6.480398
-5.021879 6.657401
-4.824171 6.389362
-5.362331 6.623998
-4.642898 6.000582
-4.933426 6.186339
-4.793776 5.984864
-4.493565 6.026047
-3.963345 6.210477
-4.242837 6.265428
-4.279438 6.045925
-4.203138 6.252368
-4.189548 6.537495
-3.718947 6.385893
-3.878755 6.397795
-3.629166 6.117691
-3.593946 6.230469
-3.649508 5.936345
-3.525731 6.127707
-3.505379 5.811418
-3.558786 5.998681
-2.869037 6.249686
-3.219262 5.962830
-2.856540 5.435333
-2.967386 6.012211
-3.047227 5.795437
-2.711207 5.780947
-2.971600 5.794112
-2.862427 5.317566
-2.676097 6.032989
-2.706268 5.185429
-2.631306 5.401417
-2.538087 5.897619
-2.347181 5.751471
-2.893162 5.653141
-2.278763 5.349344
-2.023557 5.384749
-1.923378 5.114386
-1.700570 5.364645
-2.185023 5.217897
-1.960000 4.825675
-2.328784 5.043892
-2.254144 5.296386
-1.606237 5.633667
-1.618308 5.130731
-1.619314 4.920423
-1.630963 4.852885
-1.343841 4.874474
-1.698396 4.884519
-1.689663 4.626415
-1.346463 4.665927
-1.352086 4.786412
-1.037338 4.370716
-1.121983 4.365136
-0.907141 4.157038
-0.747731 4.221261
-0.986851 4.527149
-0.772895 4.312121
-0.642542 4.308504
-0.759868 4.343051
-0.728208 4.035935
-0.772550 3.931431
-0.339671 3.903172
-0.541095 3.985710
-0.951178 4.036802
-0.713246 3.857346
-0.358280 3.498867
-0.762929 3.739780
-0.164913 3.760372
-0.373686 3.443715
-0.420163 3.370949
-0.027719 3.693180
-0.308021 3.468752
-0.353240 3.157947
0.017862 3.174260
-0.243575 2.973457
0.029063 3.517482
0.236844 3.394310
-0.185181 2.869274
-0.238983 2.614397
0.006042 2.961751
0.569761 2.962649
0.140925 2.816918
0.249720 2.725483
0.441979 2.672119
0.113457 2.516157
0.392285 2.474299
-0.287981 2.526891
0.657017 2.287541
0.300937 1.820601
-0.257396 2.489299
0.310043 2.098815
0.615949 2.115419
0.199119 1.597034
0.547595 1.889955
0.405231 1.846012
0.861154 1.447155
0.135804 1.469390
0.488871 1.221791
0.486748 1.164542
0.250039 1.677395
0.504301 1.575237
0.495846 1.504399
0.874619 1.549278
0.529438 1.371194
0.664295 1.128820
0.608538 0.596604
0.524170 0.746918
0.603742 0.791276
0.747554 0.694584
0.948112 0.185082
0.535870 0.405385
0.365808 0.182411
0.919154 0.231252
0.641232 0.784896
0.936794 0.760300
0.905453 0.187653
1.085995 0.315234
0.627416 0.018104
0.081485 0.443917
0.702226 -0.248618
0.435607 -0.048795
0.569854 -0.399735
0.626388 -0.197822
0.346861 -0.455561
0.454502 -0.089222
0.167604 -0.257509
0.678077 -0.963258
0.357898 -0.962702
0.977498 -0.698721
0.544972 -0.937079
0.690622 -1.040730
0.695497 -0.867506
0.466328 -0.694588
0.237898 -1.248999
0.474736 -0.888193
0.265497 -0.967622
0.473722 -1.203122
0.330678 -1.305688
0.641873 -1.362629
0.200643 -1.929319
0.413246 -1.660868
0.256702 -1.536906
0.350155 -2.056680
-0.216398 -2.049536
-0.177092 -1.440755
-0.132269 -1.627313
0.243766 -1.636699
-0.517040 -1.895043
-0.227632 -2.020291
0.582420 -1.904828
-0.021759 -2.445798
-0.069923 -2.564158
-0.338411 -2.571126
-0.505170 -2.292741
-0.108072 -2.667421
-0.744744 -2.083570
-0.544570 -2.004554
-0.730466 -2.295861
-0.328412 -2.692940
-0.238582 -2.946075
-0.610382 -2.570923
-0.361552 -2.845870
-0.011247 -2.895012
-0.567688 -2.768656
-0.619620 -3.207041
-0.839678 -2.221491
-0.827605 -2.912758
-0.632436 -2.701665
-0.976287 -3.041562
-0.949521 -3.250696
-0.858781 -3.244299
-1.001574 -3.741704
-1.164503 -3.609249
-1.251282 -3.226067
-0.963161 -3.389838
-1.476256 -3.022879
-1.451544 -2.911260
-1.226229 -3.429097
-1.470114 -3.415849
-1.418640 -3.528245
-1.525151 -3.184210
-1.564776 -3.253501
-1.580223 -3.735754
-1.738344 -3.787265
-2.137995 -3.321520
-2.143713 -3.813456
-2.096279 -3.791832
-1.651434 -3.684902
-2.132698 -3.736320
-1.733019 -3.790393
-1.761473 -3.869907
-1.881577 -3.795902
-2.292618 -4.288123
-1.990044 -3.844043
-2.139977 -3.924913
-2.385200 -3.839638
-2.353153 -4.536373
-2.458234 -3.968350
-2.481528 -3.936435
-2.903730 -4.244354
-2.859235 -4.299533
-2.284829 -4.076241
-2.683698 -4.013533
-2.784230 -4.441091
-2.927914 -3.974822
-2.654760 -4.718958
-3.359488 -4.127419
-2.956869 -4.179875
-2.803330 -4.451533
-3.352838 -4.279578
-2.728368 -4.259125
-3.190058 -4.298310
-3.455948 -4.611049
-4.121161 -4.752882
-3.550203 -4.341890
-3.930079 -4.873288
-3.581568 -4.758443
-3.536785 -5.095556
-3.484662 -4.285500
-3.739147 -4.666934
-3.868796 -4.465300
-4.314035 -4.338942
-3.624387 -4.131379
-4.226203 -4.195943
-4.022592 -4.603490
-4.116491 -4.472824
-4.462237 -4.622569
-4.907189 -4.666420
-4.590974 -4.998283
-4.715858 -4.423232
-4.615020 -4.629047
-4.560291 -4.512828
-4.488383 -4.585945
-5.217256 -4.870318
-5.671517 -4.711640
-5.122880 -4.968605
-4.882718 -4.581836
-4.797779 -3.962468
-5.033005 -4.096210
-5.205916 -4.148618
-5.190720 -3.962817
-5.713873 -4.457301
-5.726152 -4.629882
-5.836681 -4.266480
-5.855657 -4.566276
-5.499527 -4.578716
-5.589245 -4.192776
-5.712745 -4.321031
-6.040400 -3.665909
-5.860703 -3.992892
-5.964777 -4.303224
-6.161668 -4.681008
-6.080761 -4.193884
-6.387486 -3.869271
-6.290029 -4.377940
-6.116950 -4.030317
-6.476162 -4.287102
-6.509516 -3.764079
-6.626348 -4.397317
-6.798177 -4.162436
-6.335412 -3.976073
-7.102112 -4.142743
-6.898365 -3.546467
-6.815019 -3.793389
-7.176476 -4.397511
-6.772005 -3.791515
-6.979956 -4.043240
-7.248420 -3.781927
-6.936521 -3.295808
-6.777065 -3.725703
-7.507630 -4.160920
-7.237991 -3.794005
-7.568194 -3.903160
-7.454554 -3.639814
-7.523874 -3.702159
-7.232806 -3.383527
-7.405609 -3.088547
-7.174435 -3.931706
-7.446343 -3.259706
-7.550199 -2.989802
-7.862025 -3.136724
-7.783303 -3.393404
-8.269317 -2.813048
-8.162611 -2.935829
-7.815500 -3.259480
-7.839843 -2.851495
-8.059739 -2.975851
-8.156561 -2.480349
-7.509224 -3.058778
-8.062687 -2.761439
-7.964058 -2.611776
-8.587493 -2.861700
-8.014470 -2.514833
-8.032899 -2.499541
-8.607903 -2.409069
-8.355251 -2.770767
-8.352413 -2.716509
-8.806180 -2.721820
-8.272179 -2.712973
-8.418523 -2.472879
-8.582567 -2.131288
-8.347339 -2.234445
-8.877368 -2.161613
-8.483786 -1.994118
-8.731687 -1.957668
-8.757420 -1.693098
-9.193309 -1.982931
-9.116909 -1.555723
-8.898173 -1.948319
-8.790662 -1.476981
-9.326137 -1.777816
-9.319065 -1.420461
-8.846234 -1.242145
-9.499024 -1.363333
-9.498845 -1.575268
-9.307723 -1.396514
-9.495559 -1.458071
-9.387115 -0.899300
-9.583051 -0.915127
-9.191137 -1.173065
-9.572767 -1.299669
-9.309171 -1.144968
-8.923132 -0.839312
-9.203365 -0.572485
-9.529761 -0.688610
-9.237037 -0.618650
-9.818106 -0.757220
-9.344420 -0.039144
-9.944072 -0.980237
-9.621368 -0.481829
-9.606972 -0.515130
-9.231281 -0.232001
-9.594742 -0.016874
-9.428691 -0.670348
-9.583750 -0.374673
-9.763108 -0.016971
-9.745787 -0.379261
-9.727652 0.320051
-9.914012 -0.066835
-9.712902 0.587091
-9.872754 0.503798
-9.711264 -0.097085
-9.991649 0.630699
-9.831812 0.601601
-9.763877 0.550472
-9.524247 0.605268
-10.016242 0.609585
-10.035943 0.887182
-9.693088 0.540676
-9.744526 0.948884
-9.099203 0.940951
-9.793210 0.780404
-9.660374 0.951124
-9.541241 1.126571
-10.005097 1.527108
-9.915976 1.489651
-9.751203 1.250125
-9.641354 1.587919
-9.881627 1.648572
-9.531622 2.005918
-9.371705 1.518193
-9.427240 1.836258
-9.857021 1.756787
-9.697464 1.700272
-9.597278 2.183349
-9.768583 1.994165
-9.916256 2.155088
-9.307524 2.445676
-9.797405 2.202067
-9.454713 2.502965
-9.410597 2.271695
-9.690849 2.476860
-9.410923 2.747805
-9.244108 2.662169
-9.458882 2.131573
-9.498582 2.436614
-9.600195 2.979003
-9.311434 2.679897
-9.262933 2.741775
-9.950763 3.194989
-9.202773 2.953655
-9.309292 3.405539
-9.470089 3.029081
-9.593789 3.515073
-9.165575 3.139962
-9.616055 3.107169
-9.239274 3.299163
-9.717895 3.839744
-9.301639 3.636966
-9.151447 3.468077
-8.976503 3.627182
-9.325818 3.528380
-9.334020 3.757693
-8.979000 4.134197
-9.343950 3.435895
-8.940113 3.783500
-9.145758 4.355039
-9.158613 3.796996
-9.182762 4.019148
-9.115429 4.202583
-8.955439 4.131875
-9.331805 4.647004
-9.079122 4.734754
-8.755662 4.725766
-8.498772 4.573084
-8.906842 4.583288
-8.974126 4.832573
-8.630304 4.670280
-8.881529 4.942419
-8.958121 4.598017
-8.781385 4.503584
-8.393662 4.878836
-8.170131 5.142020
-9.206002 4.728214
-8.445515 4.949984
-8.148106 5.295857
-8.093983 5.160409
-8.526554 4.903906
-8.015877 5.034205
-8.201004 5.428284
-7.719104 5.047822
-8.088225 5.383488
-8.073916 5.340168
-7.999505 5.666908
-7.856226 5.429131
-7.673534 5.468851
-7.779004 5.880902
-8.104568 5.715720
-7.659432 6.034165
-7.808365 5.931470
-7.493253 5.956946
-7.623863 6.187751
-7.508879 5.942893
-7.705130 6.184596
-7.504559 6.010457
-6.994952 6.041889
-7.387524 6.053992
-7.307953 6.224865
-7.232689 5.951170
-6.868007 6.126707
-6.960924 5.941743
-7.515633 6.165809
-7.087709 6.015800
-7.070407 6.171216
-6.846741 6.506980
-6.841595 6.598410
-7.363002 6.119740
-6.895898 6.725753
-6.659273 6.696071
-6.640574 6.760107
-6.553860 5.380338
-6.676837 6.874996
-6.486912 6.780492
-6.450985 6.865232
-6.038079 6.717675
-6.262951 6.351257
-6.443784 6.857494
-5.695157 6.467037
-6.144105 6.598331
-6.138116 6.785090
-5.906944 6.864072
-5.879183 6.985101
-5.418508 7.058809
-6.012763 6.392567
-5.687094 6.606959
-6.032796 6.965036
-5.678359 7.114420
-5.829708 6.909906
-5.243570 7.159443
-5.327119 7.225597
-5.556845 7.114027
-5.648940 6.746381
-5.096193 6.864130
-5.461850 7.187477
-5.263519 7.042870
-4.924529 7.016083
-5.463480 7.040753
-5.039074 6.772450
-5.302899 7.013977
-4.987224 7.397104
-4.266182 7.067200
-4.685806 7.432998
-4.803867 7.282037
-4.478177 7.127422
-4.767683 7.330715
-4.430891 7.193636
-4.458031 7.223545
-4.006452 7.567696
-4.092743 7.557071
-4.596988 7.183414
-3.717565 7.237404
-4.332349 7.547313
-3.891014 7.114112
-4.035083 7.227489
-3.567274 7.112345
-3.536502 7.559770
-3.724952 7.171060
-3.349901 7.370848
-3.395054 7.177357
-3.553625 7.350302
-3.353627 7.113751
-3.635772 7.177830
-3.613047 7.199532
-3.060371 7.199605
-3.370439 7.083935
-3.131502 7.386624
-3.650949 7.145535
-2.807930 7.018967
-3.080493 7.361640
-2.880617 6.712185
-2.832733 7.054180
-2.721677 7.187555
-3.115411 6.750707
-2.508856 7.182896
-2.589069 6.627514
-2.618368 7.286300
-2.230482 7.340823
-2.213168 6.742685
-2.349491 6.640495
-2.414026 7.220400
-2.054916 6.630090
-2.248304 6.513587
-2.515623 6.939230
-1.960015 6.575691
-2.205723 7.140965
-2.052674 6.593911
-2.056506 6.953069
-1.296787 6.729279
-1.689016 6.579450
-1.638915 7.034831
-1.624916 6.643332
-1.517484 6.691159
-1.758863 6.602455
-1.041784 6.847202
-1.286737 6.628862
-1.369234 6.657379
-1.606665 6.646709
-1.159387 6.521824
-1.287607 6.544800
-1.206775 6.296748
-1.198139 6.952201
-1.250381 6.266809
-1.219279 6.435301
-1.418443 6.278992
-1.073208 6.330929
-1.025463 6.215489
-0.612379 6.465102
-0.877409 6.674556
-0.655517 6.827494
-1.030796 6.148726
-0.387144 6.226064
-0.375392 6.424803
-0.622432 5.789505
-0.397444 6.231437
-0.368402 6.069579
-0.377075 6.118594
-0.276834 5.975046
-0.306392 5.640363
-0.608155 5.838687
-0.093120 5.396668
-0.671003 5.956706
0.182182 5.810374
0.039290 5.530501
-0.109997 5.610220
-0.031125 5.430171
-0.012021 5.640975
0.570808 5.814013
-0.126130 5.432515
0.703129 5.244063
0.592932 5.556007
0.157086 5.269336
-0.194489 5.028740
-0.015035 4.809693
-0.041718 5.537980
0.220203 5.134111
0.290096 5.450985
0.475528 4.808478
-0.061417 4.799522
-0.006828 5.058633
0.551943 4.556852
0.536094 4.876380
0.404238 4.583107
0.293773 4.645547
0.591111 5.182475
0.580719 4.807176
0.171434 4.247571
0.600348 4.883445
0.777677 4.976844
0.884209 4.451243
1.012313 3.604096
0.547796 4.309758
0.630214 4.236440
0.534739 4.491993
0.854570 4.141955
0.782709 4.424232
0.685594 3.867421
0.756622 4.159145
0.915966 3.971487
0.869538 4.185017
0.749610 3.566463
0.637548 3.864050
0.749801 3.759564
1.049648 3.769492
0.375726 3.886014
0.667842 3.426031
1.129245 3.735032
0.776640 4.052542
1.026015 4.006499
0.835445 3.806476
1.053494 3.347236
0.829707 3.450926
0.666816 3.585122
1.051272 3.326968
0.650624 3.115486
0.908097 3.410262
0.743959 2.929882
0.983583 3.135163
0.551239 2.937321
1.245444 2.614305
0.891910 2.619855
0.567735 3.091058
0.936649 2.737186
1.309101 2.250434
0.732717 2.733992
0.771008 2.892307
0.823308 2.341331
1.373434 2.579270
0.882252 2.812308
0.892512 2.672352
1.443939 2.393980
1.225423 2.267219
0.985123 2.680111
0.967014 2.213403
0.892621 2.501484
1.135283 2.263760
0.509432 1.855631
0.843392 2.130111
1.117244 2.156123
0.866433 2.112714
1.116724 1.874640
0.641251 2.028177
0.997561 1.572627
0.849925 2.158149
0.830005 2.001023
1.038171 1.245771
0.810292 1.553246
0.541264 1.640914
0.734420 1.568951
0.754439 1.479401
0.337842 1.243619
0.765818 1.373706
0.714641 1.588018
0.842911 1.845860
0.643109 1.017781
0.701344 1.292581
0.384750 0.972687
0.777829 1.342786
0.030988 1.179869
0.511434 1.194041
0.312046 1.035456
0.434032 1.303198
0.360307 0.713969
0.003122 1.042945
0.576819 1.064671
0.558127 0.946031
0.225612 0.686319
0.146872 0.794942
-0.130710 0.759937
0.114583 0.524149
0.193978 0.723220
-0.248024 0.823732
0.250685 0.779893
-0.156892 0.807909
0.376128 0.442084
0.222113 0.839235
-0.176954 0.553856
-0.018391 0.527639
0.054286 0.497801
-0.373242 0.401108
-0.244847 0.119402
-0.174582 0.725042
-0.000994 0.386836
-0.115774 0.353875
-0.162123 -0.093625
-0.176695 0.257606
-0.540979 0.595067
-0.490465 0.032105
-0.650523 -0.019315
-0.329142 -0.186754
-0.454789 -0.131896
-0.570273 0.250309
-0.422521 -0.013741
-0.246332 0.281110
-0.269164 -0.175791
-0.596968 -0.224947
-0.516692 -0.152990
-0.456969 0.018015
-0.636028 -0.002245
-0.590305 -0.301281
-0.790252 -0.257744
-0.960561 0.019537
-0.684125 -0.354525
-1.178516 -0.340195
-0.510195 -0.375407
-0.971857 0.118220
-1.047153 -0.290017
-0.875633 -0.463005
-1.301500 -0.567791
-1.277644 -0.028794
-0.919578 -0.587597
-1.305092 -0.496166
-1.000722 -0.445246
-1.687388 -0.113718
-1.358584 -0.511639
-1.633223 -0.407020
-1.343578 -0.270243
-1.481271 -0.187979
-1.451815 -0.439573
-1.238106 -0.033108
-1.157631 -0.700177
-1.730882 -0.454361
-1.843091 -0.437953
-1.590253 -0.488117
-1.920418 -0.342903
-1.580540 -0.538150
-1.452165 -0.474904
-1.852062 -0.251301
-1.692805 -0.532245
-1.517162 -0.003694
-1.815415 -0.572573
-2.183738 -0.246851
-2.339246 -0.712708
-2.183763 -0.580373
-2.153619 -0.414256
-2.628890 -0.346571
-2.436767 -0.540030
-2.687792 -0.501871
-2.376304 -0.763146
-2.227867 -0.667126
-2.591369 -0.518606
-2.548623 -0.731585
-2.538009 -0.530940
-2.704074 -0.406051
-2.964202 -0.564466
-2.953691 -0.790439
-2.713068 -0.282479
-2.772393 -0.544876
-3.409630 -0.447182
-2.096426 -0.243188
-3.136305 -0.595370
-3.013303 -0.348578
-3.186651 -0.515138
-3.178052 -0.186291
-2.894897 0.031540
-3.311437 -0.307571
-3.139797 -0.552235
-2.877450 -0.089219
-3.131049 -0.268408
-3.437516 -0.771549
-3.125904 -0.209196
-3.468371 -0.141175
-3.513197 -0.220812
-3.475373 -0.579499
-3.596603 -0.319579
-3.622337 -0.312821
-3.230284 -0.435531
-3.664505 -0.213211
-3.445555 -0.122593
-3.548756 -0.619884
-3.493924 -0.618720
-3.719265 -0.233538
-3.861749 -0.250098
-3.835330 -0.102672
-3.480074 -0.121012
-3.752794 -0.204626
-3.570409 -0.225473
-3.932598 0.082765
-4.200066 0.021677
-3.272561 0.207425
-4.385327 -0.182344
-3.627475 0.169084
-3.826855 -0.076297
-4.175157 0.252366
-3.967786 0.306370
-4.531544 -0.121456
-4.222040 0.127143
-4.134276 0.268419
-4.034228 0.127436
-4.109686 -0.088613
-4.256622 0.277483
-4.474370 0.410996
-4.487698 0.627313
-4.306883 0.547762
-4.624482 0.339949
-4.075835 0.005504
-4.168654 0.803744
-4.489359 0.891109
-4.378603 1.106778
-4.712597 1.017688
-4.913415 0.731785
-4.452886 0.384323
-4.255349 -0.094327
-4.784621 0.340085
-4.752032 0.378117
-4.729501 0.366278
-4.648144 1.143782
-4.559484 0.772855
-5.092902 0.773867
-4.430771 0.865737
-4.618145 0.865350
-4.853431 1.001902
-4.853859 0.493188
-4.613354 0.964148
-5.064564 1.330867
-4.857208 1.210629
-5.185203 0.979864
-5.389039 1.252231
-5.209808 1.463431
-4.978052 0.869880
-5.291103 1.207688
-4.830898 0.986984
-5.418374 1.384876
-4.795156 0.968893
-5.205653 1.200863
-4.754945 1.452294
-5.387051 1.964906
-4.923904 1.417887
-5.274322 1.784945
-5.552501 1.407644
-4.996961 1.470057
-5.391556 1.276755
-5.079118 1.728967
-5.099465 1.769635
-5.200082 2.146119
-5.325364 2.212418
-5.466950 2.077622
-5.407057 2.035271
-5.291743 2.170552
-5.302805 1.975572
-5.155924 1.911715
-5.258289 1.875517
-5.286764 2.442165
-5.501702 2.136876
-5.147184 2.003866
-5.287761 2.807039
-5.458410 2.413329
-5.367462 2.742348
-4.793108 2.322194
-5.269711 2.607003
-5.548840 2.247789
-5.619413 1.984044
-4.676826 2.643565
-5.354899 2.539794
-5.173630 3.017848
-4.974479 3.151401
-5.184887 3.389164
-5.258896 2.964818
-5.372643 2.753291
-5.264022 3.116466
-4.978401 3.159882
-5.178180 2.832388
-4.975481 3.309875
-4.984415 2.800924
-5.197237 2.942101
-5.277684 3.122257
-5.101006 3.038880
-5.321712 3.391731
-5.166785 3.106989
-5.061048 2.992105
-5.303721 3.263932
-5.186675 3.484913
-5.117964 3.092302
-5.290457 3.594656
-5.402407 3.627177
-5.199927 3.809346
-5.010991 3.574008
-5.154569 3.528803
-5.415150 3.370557
-5.212879 3.604923
-4.793341 3.809648
-5.246530 3.755633
-5.207758 3.398552
-4.367113 3.912864
-5.023819 3.976448
-4.850312 3.666525
-4.720545 3.689694
-4.975788 4.046247
-4.651391 3.858537
-4.880292 3.862238
-5.089388 4.075672
-5.252221 4.304652
-4.707233 4.032375
-4.437950 3.897217
-5.145312 3.902677
-4.933611 4.091814
-4.803374 4.323781
-4.575892 3.988990
-4.988307 4.323194
-4.796080 4.505551
-4.659633 4.534744
-4.519794 4.507878
-4.928704 4.453051
-4.715741 4.094767
-4.801743 4.286083
-4.883384 4.721271
-4.732647 4.596755
-4.450340 4.338211
-4.961488 4.989828
-4.675302 4.408312
-4.607599 4.315307
-4.265654 4.887140
-4.636704 4.823243
-4.359429 4.441542
-4.371254 4.897857
-4.304297 4.996731
-4.250059 5.075122
-4.439442 4.941939
-4.086174 4.786474
-4.160911 4.679099
-4.453994 5.078180
-4.008963 5.276911
-3.992721 5.694978
-4.276886 4.923063
-4.403044 5.083345
-4.307607 4.572366
-4.028695 4.912727
-4.632152 5.110488
-4.104872 5.299586
-3.761734 5.470622
-4.275224 5.146698
-3.901879 5.009897
-4.065469 5.153460
-3.576725 5.282265
-3.727234 5.521758
-3.756707 5.257440
-3.374634 5.176609
-3.765911 5.331301
-3.760836 5.412759
-3.676510 5.410347
-3.650031 5.364460
-3.527023 5.678325
-3.564318 5.515013
-3.619413 5.516154
-3.308252 5.382718
-3.730438 5.593112
-3.020618 5.426873
-2.829299 5.570647
-3.102349 5.199449
-3.543825 5.563292
-2.779339 5.376844
-3.247138 5.621765
-3.125254 5.644868
-3.513429 5.784795
-2.970345 5.827263
-3.050876 6.063675
-3.169673 5.570965
-2.979793 5.722102
-2.982155 5.371787
-2.792409 5.544962
-3.068731 5.947706
-2.765461 6.031855
-2.617249 5.655711
-2.869016 5.845948
-2.845991 5.718823
-2.668964 5.920004
-2.655345 5.828228
-2.512101 5.537092
-2.296440 5.515116
-2.641519 5.871646
-2.322776 5.582900
-2.417585 5.509941
-2.382039 5.814922
-2.335712 5.859477
-2.253831 5.744949
-2.311614 5.526327
-2.290328 5.693314
-2.192524 6.020640
-2.437387 5.716520
-2.633537 5.771272
-1.862607 5.642510
-1.901111 5.685656
-2.026971 5.904997
-2.104100 5.630457
-2.093429 5.325661
-2.075768 5.730690
-2.250885 5.667316
-1.824421 5.522341
-1.684312 5.562343
-1.495651 5.677272
-1.682345 6.018766
-1.836844 5.555780
-1.620322 5.470165
-1.791855 5.785677
-1.553484 5.740561
-1.233909 5.510691
-1.288099 5.645258
-1.452327 5.709712
-1.562952 5.662925
-1.289347 6.126926
-1.475993 5.440427
-1.337524 5.576706
-1.254386 5.764168
-1.042460 5.416013
-1.412629 5.739293
-1.167328 5.514171
-0.975502 5.142907
-1.164288 5.385219
-0.951914 5.703018
-1.246679 5.468417
-1.221103 5.495900
-1.094935 5.449906
-1.238082 5.402318
-0.838802 5.321675
-1.141390 5.355048
-0.869829 5.374266
-1.102068 5.636559
-0.803453 5.580040
-0.874911 4.806373
-0.729099 5.193664
-0.872087 5.380032
-0.792912 5.674788
-0.822828 5.359474
-0.876105 5.560890
-1.063853 5.287539
-0.561325 5.306446
-0.714121 5.083129
-0.336258 4.754001
-0.633789 5.381059
-0.617845 5.500066
-0.287726 4.960066
-0.684648 5.099932
-0.422780 4.842717
-0.587352 4.845955
-0.219399 4.962411
-0.208963 4.972047
-0.354184 5.250003
-0.488504 4.752711
-0.375576 5.221815
-0.462450 4.929218
-0.278851 4.800176
-0.049775 4.486077
-0.063500 5.082157
-0.088922 4.792558
-0.085016 4.649419
-0.317381 4.658167
-0.619395 4.628781
-0.253390 5.177911
-0.318494 4.898187
-0.405043 4.825099
-0.055087 4.722188
0.429383 5.197813
-0.215579 4.956165
0.552327 4.570077
-0.086391 4.862862
-0.308224 4.408685
0.027742 4.445166
-0.015419 4.158965
0.413027 4.652138
-0.112026 4.506542
0.384326 4.448541
0.354565 4.392609
-0.370256 4.269329
-0.087854 4.161472
0.259686 4.342709
0.130160 4.957055
0.070769 4.498828
0.304249 4.034124
0.186026 4.762006
0.293798 4.086029
0.162756 3.680593
0.169570 4.260663
0.316384 4.054060
0.102849 3.921787
0.368679 3.998636
-0.081519 4.403065
-0.041317 4.144730
0.211445 4.007866
0.473838 3.949977
-0.231601 3.605886
0.030217 4.122438
0.327291 3.958864
0.249574 3.650948
0.499818 3.649652
0.588708 3.425893
0.626054 3.298063
0.430390 3.725326
0.651235 3.267811
0.525027 3.688227
0.144634 3.645540
-0.009773 3.804252
0.446254 3.220860
0.315420 3.585480
0.633285 3.377654
0.407239 4.105600
0.474877 3.072709
0.588284 3.461126
0.190003 3.248359
0.449712 2.718664
0.434499 3.563903
0.096825 3.182846
-0.053150 3.513342
0.538887 3.752837
0.427335 3.101718
0.557411 3.107401
-0.030239 3.306535
0.228226 3.287923
0.868831 3.159731
0.244988 2.606008
-0.221218 2.977611
0.544902 2.902877
0.507098 2.670417
0.522762 3.023131
0.250972 2.794246
-0.208495 2.762797
0.529471 2.410493
0.416042 2.967436
0.227132 3.137164
0.090104 2.644386
0.264440 2.676724
0.310385 2.943196
0.450030 2.484850
0.079204 2.460819
0.162588 2.524668
0.212347 2.044732
-0.291917 2.861184
0.076664 2.335457
-0.142126 2.684472
-0.251955 2.616268
-0.429602 2.626988
0.045431 2.172651
0.073437 2.410964
0.092226 2.153158
-0.392614 2.562628
-0.195108 2.310456
0.212773 2.351362
0.113677 2.650457
-0.148927 2.411793
-0.221913 2.513576
0.074765 2.119660
-0.016280 2.314268
0.126134 2.229100
0.120564 2.090605
-0.311579 2.808718
-0.253586 2.017767
-0.578731 2.145685
-0.314555 2.462465
0.150162 1.872856
-0.217724 1.910609
-0.121905 1.627534
0.173779 2.293158
-0.147172 2.064433
-0.241426 2.017330
-0.456261 2.015433
-0.588452 1.781966
0.064730 1.664893
0.039440 1.443754
-0.783087 1.917238
-0.779262 1.703486
-0.455201 1.930409
-0.784735 1.817585
-0.180666 1.814587
-1.011571 2.026754
-0.618170 2.240722
-0.932045 1.563514
-0.754060 1.655307
-0.484125 1.696310
-0.369563 1.642499
-0.938595 2.080702
-0.775175 1.395558
-0.713503 1.687541
-0.680988 1.569901
-1.183984 2.130844
-0.449924 0.999153
-0.802508 1.893732
-1.134516 1.640414
-1.547832 2.170156
-1.439605 1.321812
-1.293449 2.088036
-1.463927 1.940404
-1.090127 1.690246
-1.352882 1.859169
-0.674490 1.775981
-1.544188 1.676622
-0.704231 2.249023
-0.791791 1.407968
-1.264934 2.036962
-1.299550 1.837160
-1.332524 1.362999
-1.390218 2.002542
-1.478332 1.469977
-1.772452 1.891611
-1.285993 1.411828
-0.843652 1.837850
-1.569382 1.356282
-1.691784 1.741604
-1.630120 1.437080
-1.481010 1.789350
-1.959365 1.192139
-1.748887 1.582242
-1.820198 1.646302
-1.526769 1.897603
-1.634884 1.479523
-1.411194 1.379220
-1.893275 1.998011
-1.850289 1.716875
-2.383244 1.802763
-1.657523 1.316768
-1.837155 1.756899
-2.126473 1.987694
-1.861742 2.315028
-1.803614 1.782162
-2.387017 1.779848
-1.824394 1.487491
-2.556650 1.627887
-2.373620 1.792571
-1.619382 2.074166
-2.139669 1.526817
-1.922610 1.547983
-1.984161 1.928745
-1.460780 1.722755
-2.188056 1.822216
-2.231570 1.902920
-2.279677 1.503482
-2.541750 1.785750
-2.241696 1.607479
-2.107722 1.930180
-2.571566 1.796553
-2.478550 2.197182
-2.722407 1.775974
-2.627884 1.269297
-2.063253 1.812110
-2.711945 1.623520
-2.789332 1.927511
-2.991897 1.575740
-2.824329 2.073382
-2.598495 2.321013
-2.874182 2.011465
-2.552301 2.364993
-2.644199 1.814855
-2.987086 2.272374
-2.911492 1.840763
-2.982901 2.350974
-2.647465 2.696867
-2.543827 2.150987
-3.309820 2.112730
-3.116506 2.309933
-2.515518 2.384728
-2.732581 2.502396
-3.149568 2.683379
-2.653498 2.638597
-3.031671 2.459000
-3.104382 2.341663
-3.050020 2.135734
-3.000230 2.542661
-2.705747 3.215625
-2.751445 2.336348
-2.939159 2.340690
-3.571131 3.032040
-2.917429 2.399768
-3.215987 2.664809
-2.707034 2.633266
-3.389580 3.034563
-3.158872 2.641151
-3.083073 2.719545
-2.605563 2.838325
-3.150292 2.889477
-3.370157 2.985367
-2.918192 2.878594
-3.090660 2.637151
-3.435543 2.584106
-2.880090 2.532835
-2.991136 2.505947
-3.195216 2.907855
-2.974483 2.966591
-3.554122 2.794742
-2.731200 2.686575
-2.970209 3.056307
-3.476466 2.418234
-3.314752 2.913340
-3.376986 2.652524
-3.346229 3.017382
-3.231961 3.091799
-3.518218 3.214825
-3.334811 2.436387
-3.236619 3.003673
-3.810841 2.998877
-3.370502 3.479006
-3.354202 3.212715
-3.338600 3.284487
-3.439925 3.710932
-3.485319 3.448042
-3.390247 3.733687
-3.024889 3.632231
-3.374267 3.550117
-3.462088 3.377172
-3.104539 4.060997
-3.373377 3.508491
-3.583395 3.370940
-3.489387 3.140180
-3.192740 3.720952
-3.919546 3.499095
-3.034976 3.941585
-3.619677 3.476527
-3.525846 4.006985
-3.868707 4.094387
-3.429383 3.926927
-3.736910 4.085526
-3.198682 4.122399
-3.238731 3.836111
-3.560054 4.784525
-3.673144 3.744603
-3.966726 4.208483
-3.664566 3.708248
-3.902365 3.942549
-3.060465 4.131414
-3.050150 4.736463
-3.664326 4.320762
-3.527065 4.299312
-2.880445 4.323605
-3.053963 4.237869
-3.286953 4.467885
-3.213802 4.578033
-2.979388 4.343950
-3.244395 4.213695
-3.283487 4.078224
-3.081376 4.260843
-2.957062 4.898152
-3.226272 4.507493
-2.941605 4.803782
-2.969665 4.245331
-2.676936 5.384998
-2.814361 4.191831
-3.606928 4.969303
-3.181227 4.811023
-2.972788 4.782755
-3.602854 4.648542
-2.980915 5.086842
-3.706384 5.280057
-3.320420 4.776621
-2.973332 5.469601
-3.624189 5.411156
-3.147081 4.717600
-3.285205 4.943146
-2.585487 5.132430
-3.229637 5.511663
-2.876407 5.161112
-3.491099 5.238294
-3.363070 5.631749
-3.208715 5.024115
-2.943577 5.632343
-3.487801 5.572213
-2.595818 5.385248
-2.871550 4.957444
-2.864742 5.577305
-3.085494 5.221896
-2.855007 4.763154
-2.573034 5.135708
-2.801121 6.082759
-3.246824 5.594870
-2.624380 5.453027
-2.724165 5.056878
-2.943452 5.422711
-2.942805 5.049394
-2.702100 5.572336
-2.273559 5.354029
-2.732786 5.692891
-2.374830 5.563951
-2.213713 5.972947
-2.044015 5.353432
-2.266359 5.936309
-2.477440 5.679356
-1.794628 5.715929
-2.406647 5.351536
-2.201097 5.439201
-2.471370 5.733969
-2.156139 5.633732
-2.385707 5.536187
-2.804034 6.206864
-3.019974 5.906378
-1.830124 5.312813
-2.540748 5.528414
-1.942704 5.867812
-2.560730 6.069130
-2.189839 6.104481
-1.595556 5.676923
-2.337364 6.192439
-1.869538 5.940717
-2.285024 5.569315
-2.189742 5.673382
-1.893136 5.765399
-1.871577 5.792699
-2.212222 6.252849
-1.712168 6.001134
-2.132603 5.589106
-1.235072 5.672230
-1.673795 5.971653
-1.668814 5.061033
-1.595429 5.597480
-1.611582 6.112700
-1.630167 6.319435
-1.856165 5.958370
-1.946245 5.383575
-1.880769 5.975485
-1.694448 6.095252
-1.514628 5.913153
-1.073048 6.015799
-1.335170 5.954636
-1.464110 6.164008
-1.069933 6.207832
-1.858702 6.023871
-1.514620 5.741636
-1.770812 5.774399
-1.547557 6.349338
-0.809595 6.308320
-1.251322 6.171705
-1.020692 5.408545
-0.804307 5.912577
-0.777650 5.815034
-0.835429 5.513402
-0.996179 5.766036
-1.218441 6.421873
-0.749748 5.742517
-0.456347 6.215406
-1.124072 6.081523
-0.443735 6.577196
-1.039728 5.402683
-0.495867 5.598666
-0.585686 6.246718
-0.864457 6.121839
-1.002946 5.378768
-0.843005 6.197264
-0.692173 5.752404
-1.023813 6.238001
-0.638037 5.769387
-0.445245 6.099796
-0.504639 5.842214
-0.714567 6.195051
-0.226871 5.551595
-0.467379 5.529456
-0.617302 5.593574
-0.139545 6.171151
-0.798673 5.147569
-0.834090 5.968010
-0.112576 5.523330
-0.089528 5.513332
-0.106677 5.614648
-0.237543 5.980096
-0.305686 5.641022
-0.698457 5.311015
0.227302 5.698111
0.189868 5.690031
-0.892088 6.258832
0.110469 5.601969
-0.246813 4.538095
-0.204520 5.304473
-0.344441 5.687172
-0.461747 5.655996
0.077816 5.577011
-0.128188 5.984375
-0.124334 5.769471
-0.156854 5.230931
-0.138886 5.382993
-0.056253 5.161541
-0.859453 5.442249
0.201295 5.359001
0.302555 5.546171
-0.105352 5.035757
-0.109037 4.955993
-0.089648 5.230678
-0.412092 4.756995
-0.248821 4.855313
-0.025515 5.210090
-0.036816 5.633335
0.332350 4.805690
0.274986 4.898019
-0.242644 4.943104
0.223791 4.994362
0.132035 5.356140
0.299059 4.777187
0.032868 4.858408
0.090834 4.507906
-0.615765 4.939415
0.467027 4.024246
0.902194 4.555373
0.508346 4.821546
0.053973 4.953986
0.481490 4.643685
0.137142 4.731004
-0.446743 4.111102
0.234691 4.566178
0.223170 4.650225
-0.247892 4.335734
-0.040284 4.842914
-0.047390 4.210486
0.396794 4.560481
0.285236 4.700425
1.056390 3.984979
-0.430089 4.436492
0.171079 3.631781
0.197465 4.923833
0.062413 4.023551
0.965952 4.508425
0.075200 4.195641
-0.244855 4.107191
0.085137 3.494217
0.024858 4.157569
0.556866 3.790481
0.325905 3.708979
-0.249914 3.607804
-0.174414 4.381426
0.436204 3.962698
-0.036703 4.309143
-0.202556 3.530330
0.094844 3.342704
0.572020 3.688374
-0.418213 3.912287
-0.329179 3.471986
-0.057459 3.591311
-0.103396 3.867875
-0.455454 3.714627
0.370121 2.915599
-0.221799 3.984048
0.145287 3.349215
0.045312 2.906430
0.041916 2.941347
-0.649427 3.898759
-0.214427 3.690070
-0.270197 3.402603
-0.247874 3.162846
0.196107 3.081494
-0.095259 3.304238
-0.676853 3.620962
-0.428717 2.938494
-0.486439 2.586150
-0.548958 2.876193
-0.216400 3.338878
-0.689784 2.791584
-0.623911 2.899185
-0.393213 2.868236
-0.606224 3.146762
-0.434803 2.950918
-0.614222 3.223016
-0.455469 2.847892
-0.642979 2.804612
-0.736405 2.980727
-1.255132 2.885707
-0.382569 2.802110
-0.759163 2.599612
-1.486712 3.120118
-1.006517 3.145048
-0.485867 3.070938
-0.965496 2.728588
-1.417795 2.363462
-0.814035 2.589353
-1.149575 2.712422
-1.658682 2.522274
-1.350326 1.636545
-1.284893 2.724917
-1.974308 2.659215
-1.398730 2.741268
-1.415592 3.511650
-1.403930 2.500239
-1.676386 2.489936
-1.715478 2.471936
-1.483370 2.378677
-2.030201 2.302764
-2.113723 2.425028
-1.865244 2.223223
-2.264766 1.705618
-1.644809 2.949666
-1.704509 3.055626
-2.361379 3.013016
-2.036230 2.312051
-1.890988 2.110715
-2.378931 3.068711
-2.334810 2.506410
-2.641734 2.159813
-2.644727 1.675466
-2.219431 2.196388
-2.478456 2.191895
-2.321992 2.141032
-2.892304 1.546521
-2.300418 2.458325
-2.682590 2.267323
-2.220744 2.534395
-2.359996 2.731668
-2.848030 1.811951
-2.553711 2.453499
-3.155379 1.328374
-2.845969 1.977177
-3.031585 1.755405
-3.318266 2.090405
-3.511784 2.168194
-3.766100 1.684661
-3.301384 2.054820
-3.113899 2.540224
-3.550157 1.767934
-3.373359 1.565270
-3.613186 1.937501
-3.710073 2.222226
-4.022916 1.213324
-3.817582 1.868109
-3.922631 2.103595
-3.900599 2.478659
-4.189727 2.215329
-4.108326 2.909049
-4.442678 2.139605
-3.988063 1.832197
-4.926695 1.989134
-4.930040 2.328255
-4.870399 2.034874
-4.532153 2.126613
-4.711910 2.402209
-4.463691 2.370430
-5.166419 2.665571
-4.323449 2.733526
-4.759658 2.314515
-4.985791 2.183465
-5.284579 3.096711
-4.984357 2.530482
-5.226031 1.970883
-5.136613 2.503127
-5.491238 2.124835
-5.467195 2.678808
-5.352497 3.005136
-6.267337 2.450871
-5.471548 2.873103
-5.453017 2.005575
-5.364612 2.935879
-5.233397 2.893932
-5.617176 2.376217
-5.599012 2.917913
-5.560914 2.391913
-6.115953 2.978061
-6.513985 2.750703
-6.480750 3.038991
-6.474342 3.114399
-6.067131 3.242743
-6.632178 3.250570
-6.438393 3.104844
-7.565024 2.782845
-6.743477 3.619277
-6.902945 3.180328
-6.630611 3.966712
-6.682571 4.049268
-7.601175 4.164948
-7.473287 4.068086
-6.971515 4.157368
-7.514764 3.637128
-7.326876 3.953044
-7.364600 3.577796
-7.376592 3.398083
-7.561591 4.271148
-8.081778 4.290558
-7.204404 4.154508
-7.833706 4.718314
-7.743778 4.867037
-7.653028 4.950517
-8.091992 4.266454
-8.019860 4.334138
-8.117486 4.699344
-8.182605 3.958040
-7.474061 4.715123
-8.100080 4.746450
-8.389588 4.281441
-8.611285 5.063717
-9.111208 5.309379
-8.190041 4.884542
-8.176351 4.967472
-8.329237 5.323890
-8.816727 5.741689
-8.348444 5.639167
-9.111556 5.730769
-9.009822 5.592580
-8.483882 5.558584
-8.537437 5.759601
-9.274124 6.101206
-8.924938 6.417883
-9.188288 5.503062
-8.863358 5.980518
-9.649764 6.599907
-9.121006 6.447044
-9.484598 6.215930
-9.353435 7.107575
-9.612182 6.994640
-9.795991 7.030627
-10.481912 6.932869
-9.719098 7.106587
-9.443149 7.261575
-9.711773 6.786590
-10.218347 6.939136
-9.750893 7.697084
-9.341940 7.804623
-10.310187 7.583121
-9.866284 7.462815
-9.798666 8.057380
-10.067159 8.220212
-10.026455 8.410256
-10.064100 6.997826
-10.195960 8.083441
-10.325995 8.809448
-9.999669 8.501791
-10.694064 9.461756
-10.633096 8.879386
-9.742413 9.120050
-10.192474 8.963694
-10.589164 10.009948
-10.878315 9.224683
-10.585235 9.053041
-11.030305 9.444617
-10.933178 10.043327
-10.542804 10.327092
-10.806562 10.164771
-10.639364 9.846246
-10.579356 9.552673
-10.733402 10.195836
-11.448630 10.438600
-10.377597 10.439912
-10.622200 11.430151
-11.288269 10.705146
-11.006188 11.223629
-11.233003 11.176890
-10.380977 11.579388
-11.307160 11.430716
-11.051109 11.906241
-10.550872 11.756522
-11.227225 12.131738
-10.650267 12.420539
-10.508296 12.502305
-11.923753 12.524289
-11.445996 12.787576
-11.333925 12.738052
-11.438576 12.351040
-11.608181 12.599778
-10.901122 13.051817
-10.721534 13.071865
-11.313780 13.665809
-10.757191 14.209799
-10.672238 13.322650
-11.536390 14.129694
-10.862939 13.663025
-11.255294 14.135844
-10.570006 14.483366
-11.347350 13.613733
-10.664848 15.082195
-10.834027 15.194289
-11.645535 15.257860
-11.136442 14.988913
-10.817969 15.131503
-11.869666 15.987548
-10.922289 16.094675
-11.042058 15.596778
-10.314035 16.181246
-10.829325 16.010830
-10.566512 16.198340
-10.752590 16.007046
-11.293090 16.852294
-10.618505 16.462725
-10.835821 16.728848
-11.111524 17.097316
-10.439888 17.443777
-10.854240 16.963208
-10.064158 17.188964
-10.358964 17.460754
-9.564160 17.281007
-10.141494 18.177566
-10.412290 18.210081
-10.140645 18.644584
-10.735018 18.103943
-9.998205 19.083328
-10.232710 18.474602
-10.401752 18.787198
-9.354197 19.025047
-10.280018 18.897272
-9.193549 19.391836
-9.724744 19.723502
-9.160729 19.910152
-9.851370 20.452061
-9.872518 20.620961
-9.097472 20.416689
-9.481230 20.433771
-9.933968 20.719403
-9.345561 20.507920
-9.566058 21.085242
-9.089826 20.686813
-9.003137 21.285937
-8.718066 21.583762
-9.064578 21.704165
-9.472546 22.109304
-8.474407 21.877736
-8.615278 22.190863
-8.955065 22.376080
-8.787291 21.985911
-8.653557 22.411135
-8.252096 21.795740
-8.293250 23.256705
-7.804547 23.050181
-8.440079 23.182117
-8.585402 23.600970
-7.269666 23.294550
-7.201094 23.785877
-8.038718 24.060439
-7.398458 23.338711
-6.730676 24.285264
-6.992061 24.451618
-7.043564 24.660589
-7.594428 24.802364
-7.294516 24.792515
-6.851654 24.733891
-5.722007 26.026252
-5.616630 25.886794
-6.303294 24.694027
-6.500860 24.782357
-6.579417 25.826759
-5.801434 25.246356
-5.840992 26.693557
-5.938030 26.208619
-5.522867 26.007643
-6.143409 26.968349
-4.970966 27.084335
-5.071148 27.607022
-5.180883 27.027846
-4.663821 26.800371
-4.278506 27.707961
-4.048609 27.067523
-4.245437 27.407438
-4.610839 27.885399
-4.197889 27.962097
-3.863542 27.996642
-3.343247 28.391206
-3.758263 29.067826
-3.126812 28.552928
-3.672695 28.545226
-2.925750 29.150091
-2.473244 28.589726
-3.379071 29.460975
-2.090548 29.051332
-2.263787 30.095498
-1.817916 30.005714
-1.940784 29.016852
-1.950508 30.700389
-2.135302 29.205992
-1.611074 29.379751
-0.770933 30.179141
-1.676675 29.803126
-1.221632 29.949120
-1.506919 30.274254
0.158051 31.232850
-0.463111 31.071524
-0.025574 30.713288
0.121825 31.967970
-1.121661 30.345001
-0.831480 31.691413
0.859681 31.196482
0.631076 30.659265
1.821036 31.847432
2.141867 31.642804
1.485155 32.502750
1.952428 32.832522
3.721586 31.442461
2.381800 32.759644
0.882194 32.075093
2.241891 32.250922
2.643761 32.224043
2.706911 32.608156
3.610173 33.322334
3.384274 32.334812
3.972473 32.480122
4.413002 33.403012
5.273103 32.891614
5.090342 34.061764
2.866073 33.236673
4.597477 33.595245
6.386981 33.725174
4.767203 32.993273
4.764695 34.316152
6.282838 34.312132
5.583804 33.756048
6.768183 34.332162
7.730361 33.241642
7.664491 33.510247
5.092993 33.285204
6.890405 34.723352
7.216630 33.949493
7.555956 34.303926
8.847186 33.680578
8.450360 34.595529
8.657874 35.100629
9.922495 34.345169
10.025776 34.541233
9.270898 35.202634
7.682163 34.931937
9.433727 35.103909
10.825892 34.084894
9.964338 34.581398
9.654164 35.482469
11.618319 35.675839
10.883368 35.017658
12.211774 35.134671
13.103165 33.258136
12.937662 34.731209
10.317530 35.435123
13.204345 35.064916
12.356863 34.032564
12.301040 34.889919
13.438336 35.643225
12.812912 34.642066
14.666188 35.108499
14.945979 35.191037
14.996786 35.236858
14.535157 36.576855
11.754221 35.779361
15.648599 34.569203
16.358358 34.268976
14.984913 35.366961
14.542530 35.763507
17.773365 35.602505
16.471059 34.984689
17.582710 34.514897
17.916303 32.880086
18.220057 34.947710
16.475945 36.066196
18.595005 34.642612
17.016985 34.109808
18.190503 34.707974
19.569666 35.804300
18.444637 33.471989
20.881557 34.990871
18.878077 35.167778
19.644846 34.458612
20.863973 36.751013
17.524435 35.294215
22.565972 34.824744
21.276886 34.008855
21.215701 34.472985
20.401528 35.744570
22.785961 33.784105
21.932258 33.361149
23.435757 33.921614
23.188331 32.890876
23.938970 32.953577
21.506427 36.092891
23.919607 32.860788
21.392438 30.859265
24.811962 36.244438
26.078171 35.915925
25.555956 31.503067
27.233807 32.306053
24.468995 33.026859
26.356691 33.014590
24.626441 34.410724
22.502467 35.917518
28.548735 32.617212
26.287426 33.259179
27.498122 32.215178
24.380929 34.339214
28.450880 30.768241
27.119020 28.541301
28.393265 32.169759
29.443708 31.515414
31.396336 31.183458
29.057263 35.505483
29.220870 29.416609
26.892601 30.157333
31.121725 32.213580
31.137413 32.934813
31.207894 29.571158
31.933743 29.710036
28.729904 29.750373
30.808494 29.216236
28.132402 32.103005
29.094729 34.124247
33.169619 29.789036
31.055452 33.197130
34.302116 28.861663
30.030010 31.638180
35.390227 25.414111
32.997823 23.158772
34.972573 30.454046
33.758745 27.594445
38.996116 30.662629
35.560245 33.767779
33.109569 21.202751
32.379766 26.933242
36.652343 27.529840
38.262536 31.531757
31.615998 22.426009
34.083239 26.638893
35.217587 25.356783
36.656750 24.928758
31.669089 28.937541
35.140236 30.793688
34.640569 27.004262
34.640548 30.520856
41.722869 26.734729
37.130566 29.867249
40.729648 15.293925
37.086904 16.299870
40.883712 25.367754
38.737577 22.342327
42.902345 29.413867
40.258593 32.764527
37.791578 13.745463
39.470146 23.481015
40.567742 23.719112
44.897824 28.884561
27.567801 12.568302
36.058645 21.739427
38.923325 22.595813
39.311631 21.358241
36.864566 24.129415
41.641364 24.774886
41.053328 24.845566
39.462058 28.281985
44.766935 18.188317
40.921244 26.529755
43.161924 -0.698778
39.926593 9.885578
44.955858 22.325880
42.963161 16.353388
53.546540 26.010369
49.320737 29.968667
34.760117 0.856001
43.914958 17.983672
43.063685 16.022897
55.913924 22.630821
2.638795 18.015809
32.911750 21.554107
43.855123 15.587584
42.003314 17.196673
36.563346 20.175062
46.686507 19.057723
38.747149 25.934678
44.462998 29.320767
50.372217 9.299403
43.542343 27.449838
56.042050 -52.990003
42.848010 -6.377328
51.376940 17.391873
43.116539 4.038838
69.704737 28.096701
50.465279 24.648397
35.818063 -12.856497
52.617188 17.113462
41.023986 14.028921
77.931860 28.230241
-121.057464 -17.213204
16.601698 16.282293
50.653244 5.993911
41.639254 7.654577
36.811658 5.881536
51.784156 12.383869
31.478241 46.337145
54.697577 26.005451
57.732898 4.524284
48.100515 21.742310
43.917581 -145.750391
40.143880 -18.139147
42.436048 10.533947
38.028768 -1.190747
94.495332 43.911902
54.833767 15.839974
18.622803 -27.084705
82.558707 14.468307
28.177831 -2.379498
143.080292 25.876350
-1575.167388 238.043030
-39.888234 59.143481
78.227561 -10.780876
15.740140 15.951794
71.169339 -12.309633
44.588361 5.265386
40.065031 -7.655489
60.708100 -0.041802
39.229125 -12.456197
97.944457 44.741692
-9973.666022 -881.829377
