13563.066289 15588.461075
-4474.413854 2970.771720
-324.399037 1476.173301
-3201.344797 -285.221052
-301.423560 -50.794504
572.263999 1273.745592
404.859224 -227.171006
-386.843424 309.466753
49.901807 88.848395
-236.336458 -140.103638
-31.458960 53.512030
109.239661 3.895557
-182.690412 164.325488
11.431879 -38.368480
-86.887981 -33.910349
-18.976560 25.300358
11.244877 65.477571
32.461088 21.325396
-41.462188 -0.402525
-53.562263 -18.747830
38.108864 14.463320
-17.979839 -12.427100
-15.097622 20.680458
-10.568746 8.970693
-25.244044 0.838291
-0.094565 9.756906
-3.031519 -19.379574
-16.809165 34.551307
8.141600 3.670028
1.664921 -6.265417
-24.295617 1.721644
6.962423 6.215333
-3.895633 -10.397164
-1.114034 5.812976
-13.092595 3.957469
-7.923538 6.567374
-0.546781 3.384909
-4.939835 -7.656250
3.651664 5.089825
-7.097165 7.262228
2.179379 8.094647
-9.906544 -12.253856
-1.120177 3.488766
4.927213 1.968768
-0.432344 -4.905107
-13.228397 8.838079
-3.015881 0.084927
-3.271348 -2.625364
5.931010 2.533551
-0.103504 -0.331786
-11.326557 4.927512
3.298105 2.875189
-5.459666 -5.013688
2.783479 -1.398122
-0.311068 3.695268
-1.608712 0.820833
-8.000325 -2.623343
-4.028225 1.495846
2.581770 4.740782
0.613644 -2.896696
-0.007192 3.210173
-4.201858 -0.870213
-3.987446 0.457778
2.752771 2.380719
-0.461268 -3.290615
-3.971687 2.592226
2.898065 -1.178493
-5.330499 0.231950
-4.633754 -0.759430
1.477613 3.825164
0.963388 -0.676786
0.055172 -0.393745
-1.357094 -1.056062
-3.963452 2.083272
-0.329207 0.408373
2.009170 -2.389348
-0.862776 2.231270
-2.475282 -1.475457
-0.922742 2.130599
-3.224049 -2.656609
-2.562004 1.861006
4.673959 1.051509
-0.729681 -0.195867
-3.763847 -0.090579
0.163755 -2.194923
-2.770185 1.556576
2.928153 -0.102369
0.259997 -0.664441
-3.347121 1.494485
-1.215231 -1.285530
-0.957605 -1.378978
0.131984 2.205779
-1.177739 1.231771
2.317686 0.400570
-3.181063 -1.449624
-1.037252 -0.865359
0.427603 -0.128846
-0.155358 1.427811
-0.285342 -0.399869
-1.165989 -1.218207
-1.618000 0.701290
-1.068450 -0.119815
1.221304 -0.289301
-2.206717 1.948442
2.141205 0.251069
-0.934680 -2.080391
-1.553955 0.808177
-0.949596 -0.651903
0.091636 0.015600
0.794172 1.062531
-1.658693 -1.528156
-0.660385 0.607502
-0.869248 -0.393823
-0.059489 -0.384228
0.391645 0.301470
-0.477156 1.025857
0.181676 -0.165393
-0.688279 -2.826717
-0.953365 2.096392
0.453125 -0.479277
-0.288421 0.602611
-0.554047 -0.019668
-1.314806 -1.788698
-0.007130 -0.077741
0.629574 0.875749
-1.080282 -0.177311
-0.968216 -0.063664
-0.157326 0.832638
0.129765 -2.407856
-0.119003 0.734562
-0.185731 0.755025
-0.730206 0.366296
-0.342957 -0.928578
-0.652833 -0.135710
-0.441507 0.018270
0.278560 -0.142486
-0.342081 0.851514
-0.110765 -0.809912
-0.586523 0.121194
0.730475 -0.049286
-0.503775 -0.965348
-0.971503 0.516901
1.059529 0.505390
-1.365050 -0.464574
0.417978 0.131342
-0.725456 -0.331251
0.330464 0.709260
0.134655 -0.116160
-0.394852 0.094800
-0.512641 -0.320670
0.002703 -0.306572
0.548318 -0.388100
-1.228534 -0.383545
-0.036363 0.825551
-0.664600 -0.168765
-0.133226 -0.821111
-0.425257 0.091996
0.646637 0.398373
-0.896014 0.063436
-0.221003 -0.221780
-0.125987 -0.481114
-0.561397 -0.090044
0.931140 0.270765
-0.712324 -0.685429
-0.813444 0.273903
0.048460 0.035483
0.050476 -0.212044
-0.241558 0.608139
-0.211514 -0.293523
0.075825 0.327124
-0.289521 -0.620709
-0.600932 0.116683
0.140812 -0.101908
-0.091594 0.215264
0.035803 -0.211861
-0.543855 -0.704274
-0.668855 0.715021
0.603086 -0.829485
-0.289116 0.151948
-0.386808 0.497314
0.016862 -0.167518
-0.589108 -0.530014
0.102267 0.109866
-0.256661 -0.525023
0.198398 0.383540
0.184687 0.232871
-0.630509 -0.461454
-0.482719 -0.155050
0.182213 -0.179486
0.388734 -0.052146
-0.254359 -0.328119
-0.371771 0.836820
-0.041174 -0.327359
0.181289 -0.270322
-0.086417 0.278954
0.372029 0.220941
-0.661407 -0.121279
0.015951 0.139832
-0.517072 -0.769352
-0.154136 0.061852
0.714290 0.480306
-0.131957 -0.427825
0.158074 -0.023366
-0.041891 -0.364308
-0.351718 -0.365718
-0.077218 0.006964
0.052730 0.152560
-0.310585 -0.122967
0.218783 -0.282131
-0.646309 0.181535
-0.316780 -0.519189
0.077161 0.053415
0.256526 -0.117680
-0.176442 -0.615689
-0.406460 0.158523
0.382000 -0.210391
-0.800923 -0.235357
0.217104 0.085103
0.215345 0.091073
-0.282943 -0.269741
-0.132730 0.139699
-0.566105 -0.004362
-0.056523 0.477555
0.007551 0.252393
-0.008127 -0.286617
-0.611494 -0.277158
0.040913 -0.155375
0.190592 -0.056175
-0.556019 -0.674317
-0.034393 0.262034
0.161235 -0.046640
-0.081492 -0.060887
0.044383 -0.423692
0.121986 0.560453
-0.343847 0.225720
0.567571 -0.247054
-0.000633 -0.441298
-0.629335 0.136707
0.504856 -0.162313
-0.276202 -0.136669
-0.110258 -0.041394
0.369056 -0.713993
0.135063 0.306040
-0.524587 -0.087294
-0.167816 0.130180
-0.030959 -0.027144
-0.028425 0.148273
0.158143 -0.513402
-0.026546 -0.127988
-0.299395 0.286211
0.271400 -0.225892
-0.333009 -0.217585
-0.160420 -0.099790
0.050510 -0.352123
-0.234563 -0.062327
-0.047091 -0.002089
-0.012411 0.078865
0.275456 -0.046373
0.147586 -0.329032
-0.113027 -0.411977
-0.433744 0.465195
-0.182752 -0.326481
-0.189669 -0.276652
-0.137803 0.234666
-0.000690 -0.201218
-0.065217 0.368144
-0.089568 -0.000405
-0.798556 0.096029
0.558371 -0.314202
0.031056 -0.045219
0.011295 0.121046
0.013891 -0.241797
-0.591426 0.090177
0.213561 -0.402877
-0.260420 -0.420882
-0.191641 0.482548
-0.180420 0.066170
-0.205639 0.081066
0.028825 0.164277
0.242670 -0.119451
0.226938 0.250929
0.088503 -0.073554
-0.176287 -0.103456
-0.079545 -0.063034
0.182432 0.023201
0.018336 -0.367536
-0.289534 0.266030
0.020078 -0.080732
0.176955 -0.345729
-0.188264 -0.664401
0.017676 0.097903
0.532967 0.098151
-0.082956 -0.221729
0.300346 0.199958
-0.335752 0.107006
-0.017539 0.086261
0.305683 0.009357
0.088000 -0.315690
-0.253038 0.251470
0.082895 -0.246603
-0.013490 -0.080792
-0.066585 -0.523863
-0.041955 0.090299
0.046348 -0.087108
-0.259787 -0.019739
-0.044539 -0.096977
0.341804 -0.123250
-0.023997 0.132466
0.377397 -0.093726
-0.257085 -0.124641
-0.146868 0.185933
0.225502 -0.306824
0.264307 0.049607
-0.080693 0.080522
-0.018901 -0.093332
-0.055766 -0.197650
-0.030881 0.086580
-0.022578 -0.098318
0.139333 -0.096611
0.172802 -0.065624
-0.312014 0.001014
-0.030453 -0.133528
-0.121095 -0.116043
-0.104449 0.021591
-0.127672 -0.162170
-0.143099 -0.098422
0.112631 0.060819
-0.161472 -0.421218
0.123508 -0.187824
0.091305 0.090554
-0.162633 0.016864
0.019367 0.267626
-0.252670 -0.553785
-0.360635 0.044234
-0.030277 -0.185305
0.026480 -0.121479
0.115652 0.094251
-0.323559 0.088703
-0.154675 -0.233555
0.142261 -0.189260
-0.141410 -0.054533
0.026553 0.138790
-0.072121 0.167745
-0.089795 -0.162655
0.259236 -0.203214
0.031242 0.249969
-0.357453 -0.122000
-0.436059 -0.114389
-0.046890 -0.047328
0.155420 -0.391932
0.074299 -0.162307
0.067253 0.223594
0.154803 -0.116822
0.053706 0.093122
0.124823 -0.038193
-0.311455 -0.052888
0.049195 0.265604
0.366457 -0.043851
-0.272517 0.042404
0.164188 -0.349110
-0.111034 0.041796
0.280310 0.152465
-0.283980 -0.410545
-0.018438 0.028729
0.041117 -0.045036
-0.014553 -0.255031
0.176860 0.120388
-0.142519 0.276002
0.143264 -0.209790
0.122315 0.195789
-0.120533 -0.071682
-0.328192 -0.148685
0.259924 -0.324693
0.299756 0.334443
-0.152291 0.083410
0.332422 -0.041864
0.031807 -0.328776
-0.146455 0.078092
-0.367274 0.280459
0.116502 0.310851
-0.088052 -0.049105
-0.090373 -0.085567
-0.080733 -0.042291
-0.048868 -0.077023
0.050255 0.093260
-0.261418 -0.249832
-0.123773 0.128790
0.733852 -0.159307
0.173715 -0.024720
0.127025 -0.035753
0.208523 -0.088809
-0.459074 0.032970
0.203118 -0.239363
0.132170 -0.101097
-0.319544 0.153282
0.166292 -0.055790
-0.023607 -0.179675
0.079892 -0.020818
-0.185889 -0.023972
0.225688 -0.171693
-0.159556 -0.176182
-0.006753 -0.194152
-0.149420 -0.051068
0.087506 -0.257449
0.326248 -0.043738
-0.056907 0.164015
-0.305497 -0.126502
-0.192455 -0.411597
-0.318526 -0.224623
0.224730 0.071567
0.204816 -0.424859
0.131137 0.001771
-0.260260 -0.027809
0.193348 -0.126377
0.015152 0.187389
-0.001141 -0.014388
-0.147633 0.073550
0.100965 -0.022965
0.009465 0.038739
0.255172 -0.426006
0.241077 -0.228348
-0.142808 0.309852
-0.138529 -0.140164
0.147110 -0.305964
-0.072218 0.041579
0.253540 -0.075609
0.009683 0.142042
-0.130165 0.094726
0.047476 -0.130738
-0.161608 0.022216
-0.036571 -0.529838
-0.006074 -0.036610
0.163947 -0.217451
0.121188 -0.003995
-0.185595 -0.410306
-0.080383 0.274549
0.216490 -0.033268
0.165297 0.057748
-0.239456 0.099656
-0.181946 -0.095976
0.148109 -0.101154
0.081541 -0.017701
0.048370 0.174591
-0.229929 0.232564
0.105998 -0.170588
0.112662 -0.077268
-0.210097 -0.072932
-0.041247 -0.107631
0.098580 0.119352
0.002032 0.032500
-0.028544 0.201727
-0.041441 -0.140111
0.024670 0.106774
0.037014 -0.249768
-0.047991 -0.033034
0.115519 0.165671
0.181298 -0.330326
0.243336 -0.001954
-0.068785 0.174370
0.141782 0.110470
-0.018315 -0.312702
-0.046200 -0.184152
-0.229340 0.146955
0.261532 -0.350759
0.204617 -0.082694
-0.064665 -0.057562
-0.115852 0.230914
-0.196840 -0.046503
0.064936 -0.302904
0.020808 0.223090
0.286788 0.140711
0.186399 0.029621
0.150695 0.139954
0.029980 -0.135579
-0.032539 0.241264
0.306591 -0.200072
-0.017651 -0.218550
-0.347693 -0.193486
-0.285524 -0.179552
-0.002616 -0.093904
0.320042 0.270718
-0.249206 -0.039858
0.372504 0.049127
0.421817 -0.113622
-0.137989 -0.111171
0.570775 -0.095491
0.100033 0.178757
0.129843 -0.088117
0.130880 -0.012797
-0.074807 0.001020
-0.005410 -0.044556
0.336603 0.255535
-0.041056 0.106124
0.057239 -0.056738
-0.281725 -0.216737
0.402908 -0.408727
-0.186301 -0.040867
0.018272 0.360450
-0.134821 -0.326963
0.004206 -0.004809
0.029440 -0.281107
0.040107 -0.192083
0.374645 0.176116
0.603552 0.127773
0.368511 -0.203773
0.008803 0.113420
0.014293 0.078871
-0.201124 0.194929
0.174356 -0.213745
-0.170617 -0.252211
0.012728 0.027593
-0.174028 -0.138321
0.094566 0.079496
-0.075204 -0.114626
0.361843 0.077648
-0.304217 0.016003
-0.108430 -0.325233
0.180724 0.081412
0.059805 0.131638
0.143713 -0.211953
0.136282 0.247010
0.334109 -0.065011
-0.372754 -0.146059
0.165630 0.028405
0.131208 0.174208
-0.109591 -0.349650
0.047644 -0.019953
-0.068924 0.079858
-0.249644 0.113958
0.162967 0.201347
0.028347 0.277694
-0.079563 0.087129
-0.580970 0.042658
0.041733 -0.159588
0.177362 -0.034785
0.245585 0.096895
0.257214 -0.029396
-0.125538 0.002797
0.348621 -0.040304
-0.153712 0.298605
0.101175 0.037732
-0.143510 -0.139828
-0.233365 0.364425
0.334512 0.016065
-0.030073 -0.007734
-0.202486 -0.210542
-0.037139 0.532084
0.161180 -0.160668
0.016383 -0.215678
0.260617 0.159613
0.045734 -0.060031
0.288005 0.399954
0.002881 0.259214
-0.052774 -0.121172
-0.114656 0.201102
0.125959 0.155389
0.022147 -0.173178
0.201109 -0.300480
0.184282 -0.175439
-0.085571 -0.017576
-0.069478 -0.151706
0.132831 0.079816
0.220035 -0.051124
-0.252037 0.282481
-0.252856 0.169452
-0.192040 -0.195118
0.543953 0.183601
0.322880 -0.219040
0.181286 -0.067193
0.023487 -0.036076
0.275243 0.245617
-0.250754 -0.015251
0.167824 0.095857
-0.174909 0.058888
-0.311605 -0.060155
0.444557 0.367885
-0.154123 -0.147835
0.068684 0.035441
-0.077960 0.282195
-0.092209 -0.123434
-0.139650 -0.370950
0.092170 0.005057
0.367384 0.187234
0.170252 0.230242
-0.388389 0.081072
0.234136 -0.101935
0.080501 0.293345
0.322668 0.108592
0.065744 -0.073482
0.232431 -0.251912
0.127949 -0.223351
-0.341956 0.053057
0.035078 0.043319
0.015216 0.428278
0.187445 0.133619
-0.196252 -0.132584
-0.712669 0.045786
-0.287870 0.030593
0.295109 0.275546
-0.101497 -0.496144
0.089509 -0.201262
0.086979 0.172319
-0.076308 0.131250
-0.081027 -0.286759
0.127325 0.496884
-0.018465 0.453835
-0.100700 -0.066318
0.070133 -0.096346
-0.079249 -0.383116
-0.161313 -0.088226
-0.385111 0.251741
-0.279381 0.088455
-0.143216 0.250432
0.021623 -0.122982
0.376368 0.062116
0.117583 0.242869
0.154174 -0.015149
-0.024575 0.154026
-0.224767 0.030007
-0.089686 -0.028057
0.333870 -0.037583
0.047246 -0.260049
0.164021 0.035070
-0.389128 -0.241550
0.230933 -0.130503
0.445335 0.103135
-0.138646 0.012719
-0.369322 0.044712
-0.014194 0.237995
-0.004664 0.094339
-0.081143 -0.076228
-0.103790 -0.493984
-0.029770 0.096437
-0.201997 0.070513
0.111444 0.045161
0.856111 -0.157474
0.248076 0.143519
-0.337197 -0.093765
-0.304967 -0.597595
-0.055058 0.182427
-0.189051 -0.110805
0.075817 0.029803
0.027662 0.036174
0.202765 0.122412
0.101646 0.224731
0.203929 -0.009545
-0.155025 0.078564
-0.370109 0.096498
0.193754 0.041605
-0.390433 -0.117460
0.013912 -0.011071
-0.060554 -0.139199
-0.063875 0.370683
0.097225 -0.243503
-0.225988 -0.059766
0.142496 -0.165290
-0.030570 -0.317184
0.048758 0.541447
-0.123126 -0.383589
0.031993 0.231913
0.015977 -0.053314
0.075926 0.089154
-0.228372 0.251347
-0.286623 0.227620
-0.395274 0.355600
0.405560 -0.234074
0.235534 -0.188049
-0.079247 0.000001
-0.204777 0.187098
-0.293897 0.007498
0.034355 -0.062618
0.145467 0.347165
0.152798 -0.465474
-0.062467 -0.229190
-0.105683 -0.036723
-0.078260 0.246573
0.125161 0.265516
0.687972 -0.269715
0.111008 0.209287
-0.561297 -0.090480
-0.572163 0.214879
0.194131 -0.335850
-0.198132 0.060322
-0.026369 -0.014296
0.075380 -0.263524
0.899423 -0.077534
0.131233 -0.009850
-0.066802 0.279075
-0.082683 -0.748888
-0.419903 0.653236
-0.026313 -0.293648
0.310054 -0.029821
0.186415 -0.642903
0.115673 -0.168077
-0.178009 0.437364
0.207788 -0.100024
0.103342 0.400292
0.126780 -0.143039
-0.189895 0.013143
-0.286081 -0.045067
0.139011 0.024108
0.044163 -0.107933
-0.099728 -0.596497
0.449548 -0.185690
-0.219003 0.521156
0.356983 -0.251764
-0.035701 -0.262562
0.130971 0.120761
0.017874 -0.518019
-0.504599 0.319598
0.033580 -0.121211
0.111470 0.016142
0.145297 0.096640
0.007301 -0.262367
0.452329 0.383696
0.002436 -0.034370
-0.043504 0.471604
-0.456696 -0.311133
0.005351 -0.054296
0.134519 0.233758
-0.105771 -0.304275
0.827662 -0.084529
-0.019581 -0.196273
-0.308523 0.371275
0.411947 -0.033801
-0.169427 -0.024102
-0.063737 0.090948
-0.114437 -0.208017
-0.144563 -0.253573
0.193714 0.284413
0.210170 0.093544
0.400453 -0.117598
-0.075464 -0.261090
0.294223 0.136741
0.868662 0.255811
-0.304389 -0.471938
0.097760 0.060733
-0.638059 0.164066
0.265533 -0.108429
-0.138392 0.092892
-0.257985 -0.006800
0.118457 -0.323691
-0.209194 -0.338258
0.393660 -0.003050
-0.060768 0.010584
-0.136178 0.290202
0.012080 -0.280671
0.219245 -0.284892
-0.030844 0.041457
-0.075518 0.231865
0.139586 0.489096
0.066817 -0.016934
0.165309 -0.037660
-0.420913 0.049254
-0.394554 -0.110762
-0.170892 0.015869
-0.336417 -0.104219
-0.047101 0.430838
0.176713 -0.007009
0.277653 -0.232034
-0.492999 -0.070803
-0.293003 0.030483
0.135546 -0.012856
-0.203287 -0.014421
0.087648 0.439144
0.410927 0.277028
-0.234642 -0.101754
-0.531054 -0.311629
0.535473 0.239744
-0.344202 -0.219672
-0.197425 0.076140
-0.240022 0.402286
-0.073439 -0.024664
0.072037 -0.364087
-0.253348 0.233422
-0.313000 -0.000922
-0.206294 -0.196160
-0.245578 0.116457
-0.208133 0.174795
0.214263 -0.362116
-0.018402 -0.208124
-0.129426 -0.107538
-0.254630 -0.153421
-0.121371 0.016932
-0.285883 -0.110570
-0.204891 -0.203341
-0.119514 -0.134431
-0.159081 -0.305720
0.003595 -0.145232
-0.257199 0.235787
-0.300180 0.047572
-0.335462 -0.097464
-0.414364 -0.141861
0.196067 0.060304
-0.007170 -0.139565
-0.289545 0.056313
0.007224 -0.136686
-0.135600 -0.460119
-0.459288 -0.120073
-0.474372 0.075727
-0.173065 -0.169704
-0.232012 -0.094970
-0.213720 0.234951
0.148461 0.170548
0.246749 -0.243573
-0.161167 0.167354
-0.102352 -0.098821
0.025443 -0.261311
-0.295026 -0.076190
-0.095359 -0.002547
0.032718 0.130088
-0.151318 0.036299
-0.099865 -0.150833
-0.053524 -0.046205
-0.062267 0.131778
-0.016593 -0.143704
-0.109571 0.129826
-0.301861 0.202775
0.068685 -0.067669
0.018292 -0.253543
-0.166830 0.090114
0.055355 0.353058
-0.051710 -0.039567
-0.012852 0.004646
0.099375 -0.100025
0.152321 0.117811
-0.137751 -0.117174
-0.074728 0.165865
0.364560 0.287827
-0.248323 0.285996
-0.355196 0.356628
0.180322 0.190913
-0.095576 -0.379369
-0.155319 0.259144
0.330109 0.098789
-0.099413 0.266120
-0.360565 0.004512
0.335104 -0.251738
0.179275 0.177516
0.108966 0.255912
0.397381 -0.041169
-0.028205 -0.217194
0.050500 0.045915
0.219865 -0.064713
-0.292167 0.217033
-0.100175 0.334844
-0.017012 0.123685
0.355610 -0.096502
0.063989 0.385731
-0.064329 0.246781
-0.026081 -0.012739
-0.066840 0.104030
-0.042667 -0.178273
0.027566 0.130050
0.132567 -0.029731
-0.397017 -0.096157
0.103430 0.074467
-0.128256 0.112876
0.005626 -0.155341
0.005255 -0.192420
0.083218 -0.024403
0.341756 0.139032
0.265146 -0.131987
-0.106364 0.196448
-0.083923 -0.036799
-0.192573 -0.017106
0.218106 -0.044450
0.021832 0.196642
0.145097 0.014167
-0.044882 0.171508
-0.582628 -0.193652
-0.083955 -0.422460
0.122256 -0.365501
-0.115623 -0.154988
0.050117 0.395975
-0.411226 0.149914
-0.231968 -0.315147
-0.094210 -0.112540
-0.185691 0.167395
0.020508 -0.284010
-0.038266 -0.195791
-0.176470 -0.127691
-0.215450 0.353081
-0.281699 0.024564
-0.504076 -0.366499
0.200821 0.131549
0.146440 0.014807
0.086951 -0.143012
-0.583683 0.013856
0.016601 -0.012726
0.165459 0.029800
0.015652 0.407820
0.280596 0.121048
-0.113725 0.119988
0.058478 0.271148
0.384601 -0.122918
-0.446160 -0.146485
-0.251658 0.373980
-0.364077 -0.278818
-0.057783 0.294103
0.197564 -0.333809
0.149949 0.043615
0.101357 -0.241141
-0.080713 -0.104423
0.028757 0.011363
0.150099 -0.087336
0.183864 -0.201266
0.498199 0.233147
0.136226 -0.163331
-0.416102 -0.249227
0.545579 0.289417
-0.215439 0.484685
0.387781 0.037682
-0.729616 -0.148493
0.173478 0.102513
0.133906 0.081346
-0.382607 -0.415824
0.004954 -0.096808
-0.071065 0.205133
0.333732 -0.250449
0.268467 0.368489
-0.330259 -0.601854
-0.046362 0.690956
0.213148 -0.028391
-0.174508 -0.054612
-0.015496 -0.042343
0.052180 -0.305790
-0.170279 -0.112257
0.108639 -0.030385
-0.241336 -0.035733
0.076224 -0.290960
0.105080 -0.000894
-0.410457 0.037100
0.526216 0.243665
-0.455157 0.441499
-0.156578 -0.566428
-0.421059 -0.143333
0.044483 0.067286
-0.051145 0.028688
-0.030378 0.005932
-0.272297 0.294239
0.084377 -0.055902
-0.480834 -0.308743
-0.265869 0.099506
-0.012015 -0.500724
0.171979 0.165383
-0.105136 -0.534995
0.072793 0.379939
-0.447445 0.309611
0.061498 -0.275840
0.041916 -0.245083
0.165230 0.459595
-0.258587 0.063992
0.076742 0.077499
0.050637 0.200556
0.075965 0.101356
-0.058957 0.235575
0.354550 -0.302136
-0.007008 -0.424924
0.288772 0.268526
-0.045422 -0.112403
-0.509775 -0.076107
-0.178163 -0.216601
0.152206 0.148423
0.317918 -0.321069
0.552991 0.094206
-0.068580 -0.207483
0.509576 0.072544
0.007495 0.046739
0.169121 -0.087202
-0.111434 -0.220231
0.556891 0.422678
0.278294 -0.432748
0.165186 0.121567
-0.157608 0.087292
-0.119921 -0.020619
-0.136056 -0.386567
-0.255194 0.068395
0.074181 -0.289741
-0.200641 0.224007
0.126237 -0.163103
0.214953 -0.157444
-0.331135 0.033159
0.124409 0.381725
-0.136092 -0.025373
-0.141784 0.172099
0.022999 -0.266280
0.289509 0.010148
-0.234634 0.023151
0.258876 0.016007
-0.419363 0.130344
-0.037404 -0.087892
-0.027957 -0.016069
-0.144837 0.542959
0.130136 0.238954
0.056463 0.313752
0.162129 -0.078568
0.504040 -0.093504
-0.081620 0.113768
-0.004214 0.036270
-0.362659 0.015735
0.116234 0.262184
-0.293755 -0.239372
0.108412 -0.236749
-0.048689 0.318383
0.233877 -0.284623
-0.193607 -0.306689
0.143468 -0.471482
0.268988 -0.006205
0.179691 -0.188292
0.205736 -0.165528
-0.026046 -0.536692
-0.563669 -0.031851
-0.069030 0.029703
-0.424000 0.338684
-0.055128 -0.167992
0.178631 0.049588
0.197834 -0.196219
0.269800 -0.076436
-0.225185 -0.430799
-0.181081 -0.019322
-0.132773 -0.057060
0.042322 0.291047
-0.182925 0.071934
-0.103427 0.056509
0.089978 0.211242
0.141159 0.345773
-0.255927 0.247803
0.182558 0.046119
0.104556 -0.301864
0.144048 0.271474
-0.081457 -0.151538
0.230895 -0.412223
-0.171660 0.227029
0.358581 -0.162203
-0.174589 0.183367
0.094996 -0.136000
0.150947 0.084602
0.475719 0.164078
0.227196 0.332053
0.040818 -0.406590
0.071462 0.219210
0.094885 -0.377850
-0.140572 0.226796
-0.032140 0.360685
0.101597 -0.014487
-0.057374 0.251634
-0.328619 0.265507
-0.408594 -0.478442
-0.329613 0.005358
0.302637 0.483333
0.055055 0.266100
-0.508563 0.226819
0.250238 -0.112530
-0.055187 -0.206850
0.054415 0.084692
-0.195896 -0.176667
0.130750 -0.157919
-0.117841 0.108068
0.116182 0.107106
-0.456419 0.102269
0.324575 0.085265
0.445296 0.076169
0.021881 0.211878
0.021516 0.372434
-0.246174 -0.406895
0.509172 -0.136385
0.084857 -0.052655
0.194561 0.188002
-0.270069 0.074510
-0.311023 -0.325392
-0.239294 -0.058339
0.057456 -0.321906
-0.496729 0.384274
-0.136496 -0.393992
-0.067766 0.208356
0.369507 0.467282
0.478302 0.275814
-0.123377 -0.495151
0.125544 -0.253559
0.372909 -0.122438
-0.240120 -0.218633
-0.124169 -0.041383
-0.049247 -0.207185
0.020668 -0.282234
0.088534 0.349199
-0.071082 0.387220
-0.214254 -0.031122
0.188574 0.048841
0.783237 -0.183546
0.189803 -0.236454
0.099644 0.279062
0.136078 0.310858
0.445461 0.059610
-0.112841 0.137311
-0.327348 -0.306038
-0.259843 -0.243291
-0.367959 0.010223
0.214564 0.002063
-0.301092 -0.164536
-0.200344 0.119846
-0.486010 -0.205755
0.065950 -0.206349
0.008937 0.176279
-0.032421 0.255631
-0.365931 0.415807
0.125041 -0.034403
0.133624 -0.008884
0.201452 0.268462
-0.114420 -0.025625
0.287316 -0.441046
-0.347400 -0.013189
0.239350 -0.073610
0.061735 0.207360
-0.579771 0.277159
0.304897 0.287069
-0.012385 0.022737
0.146326 -0.069677
-0.557389 -0.192844
0.270377 -0.135413
-0.075221 0.355237
0.187536 -0.287595
0.192416 -0.070710
-0.208420 -0.358237
0.268507 -0.044874
-0.279094 0.006774
0.131575 -0.299863
-0.314566 -0.233970
-0.242050 -0.093232
-0.236071 -0.183655
-0.373109 -0.073017
-0.305139 -0.082318
0.118315 -0.483720
0.096168 0.125333
0.154094 -0.352601
0.051030 0.014359
-0.448303 0.259253
0.129161 -0.230800
0.267286 0.367502
0.204609 0.573321
0.230665 0.231206
0.474065 0.282787
0.638078 0.601398
0.219982 0.096026
-0.236530 0.387250
0.175774 -0.126268
-0.030360 -0.284791
-0.069681 0.218957
-0.487802 0.259066
-0.231927 -0.058794
-0.179046 0.075446
-0.232383 -0.282619
-0.215431 0.221927
-0.437089 0.184124
-0.108911 -0.424119
-0.386230 -0.101581
0.068628 0.774754
-0.630042 0.419374
-0.114319 -0.087026
0.177152 0.113821
-0.044587 0.100398
0.401160 0.205309
-0.166100 -0.369855
0.497630 -0.663506
0.331223 -0.520498
0.439861 0.056416
0.248807 -0.265077
0.274081 -0.720135
0.120475 -0.359555
0.573369 -0.069070
-0.005148 0.398362
-0.122742 -0.611106
0.062003 -0.438162
0.167828 -0.263355
-0.176778 0.095741
-0.389254 0.248039
0.331912 -0.187570
-0.184954 0.433925
0.671273 0.286576
-0.023390 0.605690
0.001268 -0.015054
0.428470 0.294094
0.192859 -0.111564
0.513613 0.772104
-0.228687 -0.056816
-0.420478 -0.072656
-0.178116 0.200045
0.216243 -0.169531
-0.569136 0.081142
0.017147 -0.757333
-0.176979 0.048156
-0.439362 -0.394812
-0.294469 -0.233894
-0.613990 -0.213613
-0.267217 -0.095295
0.001436 -0.209413
-0.015082 -0.063207
-0.166434 0.094962
0.431517 -0.012112
-0.118930 0.239769
0.005366 -0.339036
-0.074614 0.386806
-0.310910 0.052352
0.441194 0.174993
-0.034009 -0.014513
0.035241 0.129333
0.122968 0.167746
0.195818 -0.087967
0.473692 -0.394932
0.146200 -0.070444
-0.060528 0.175230
-0.023082 -0.193547
-0.001588 0.059039
0.045163 0.489006
-0.019123 0.004885
-0.062391 -0.166068
-0.020033 0.159964
0.238978 -0.499719
0.026196 0.249027
-0.267120 -0.029878
0.334316 0.072102
0.089448 -0.115598
0.182495 0.042038
-0.339282 -0.208872
-0.210048 -0.411806
-0.029447 0.000482
-0.077027 -0.034988
-0.231448 0.145166
-0.113971 -0.043735
-0.130905 0.393532
0.156253 0.242130
0.404018 0.273066
0.172701 0.119361
-0.275172 0.586940
0.503854 0.331559
-0.115999 0.250059
-0.123805 0.082016
-0.172434 -0.360135
-0.268860 -0.402085
0.377144 -0.039605
0.063312 0.200925
-0.342288 0.109042
-0.514388 -0.092812
0.289111 -0.034051
0.063150 -0.182729
-0.143151 0.130019
0.114718 0.483925
-0.207370 -0.715900
0.230665 0.237688
0.249084 -0.040918
-0.108923 0.249612
-0.169610 -0.137007
0.402374 -0.345326
0.084022 -0.251828
-0.107235 -0.115234
-0.089394 -0.292273
0.161446 -0.072947
-0.165040 0.378392
-0.078071 0.478093
-0.178841 0.444834
0.178500 0.041914
0.448727 -0.200024
0.576470 0.143173
-0.118433 0.086592
-0.105562 -0.066569
0.034569 -0.418791
0.010631 -0.210037
0.095534 0.232210
-0.364134 -0.349250
-0.286190 0.133701
0.087961 -0.108048
0.322812 0.199024
-0.044805 -0.003968
0.265756 -0.327200
0.138779 -0.096690
0.211468 0.359731
0.019605 0.062538
-0.161263 -0.607001
0.100803 0.082544
0.305683 -0.499304
-0.775959 0.509601
-0.094596 0.403910
0.130731 0.643959
-0.100382 0.289285
0.171904 0.179697
-0.015090 -0.171293
0.144718 -0.011333
0.042071 0.231528
-0.297033 -0.003986
-0.461549 -0.085174
0.181056 -0.128811
-0.410206 -0.000561
0.160126 0.247689
-0.242394 -0.010368
0.103110 0.175894
0.360208 -0.506830
-0.089855 0.153187
-0.150168 -0.165672
0.567703 -0.308725
-0.071990 -0.111952
-0.115600 -0.003956
-0.408540 0.055381
-0.003655 -0.395881
-0.327076 0.191357
-0.050208 0.144132
-0.229309 0.376205
0.096727 -0.363633
-0.075511 -0.227128
-0.259799 -0.123345
-0.176370 0.039813
-0.339092 -0.107564
-0.110832 -0.042024
-0.185298 0.047251
0.294063 0.411094
0.092486 -0.117329
-0.048969 0.279034
-0.434557 -0.229029
-0.201063 0.313101
-0.201036 0.044382
0.354398 -0.080232
-0.027567 0.025496
0.258345 0.078410
0.071492 -0.241004
0.008989 -0.091922
0.480816 0.020221
0.375870 0.192691
-0.200632 0.182252
0.506958 -0.047880
0.059183 -0.090610
0.167978 0.049350
-0.378199 -0.219264
0.120052 0.380569
0.001562 -0.051456
0.258194 -0.214127
-0.101832 0.100333
0.092936 -0.234148
-0.101080 0.171997
-0.287150 -0.406946
-0.064245 0.097669
-0.265758 0.007823
0.014386 0.116751
-0.141492 -0.116028
-0.185072 0.421665
0.500902 -0.126814
-0.074502 0.100642
-0.188306 -0.060868
-0.382011 -0.179783
-0.178624 0.077744
-0.107351 0.048582
0.290529 -0.336746
-0.474538 0.453834
0.263588 0.120602
0.096362 0.381207
-0.140634 0.095348
-0.105024 0.441664
0.091319 0.064071
-0.226259 0.180121
0.219238 -0.202472
0.269765 0.226842
-0.108280 -0.250361
-0.083490 -0.091324
-0.355985 -0.229202
-0.472971 -0.132835
0.132030 -0.077787
0.134841 -0.202513
0.464201 -0.072904
0.157623 0.160322
-0.000246 -0.323084
-0.377426 0.031776
0.294066 -0.290896
0.104345 0.007601
0.096314 -0.180814
-0.080308 0.180493
0.219624 -0.402341
0.053971 0.240391
0.159396 -0.204009
-0.646448 -0.433515
0.204960 -0.371996
0.081583 -0.018356
-0.407471 0.235277
-0.123935 -0.171294
-0.146575 -0.221576
-0.232757 -0.255944
0.323562 -0.275126
-0.250072 0.205443
0.629629 -0.094797
-0.169593 -0.023788
-0.035599 0.122014
-0.022188 0.134467
0.040924 -0.269196
-0.274009 -0.068915
0.364821 -0.400408
0.204707 0.563586
-0.409122 0.121753
-0.266062 -0.011829
0.074573 0.537528
-0.174896 -0.365761
0.288839 0.278953
-0.196453 -0.097387
0.051916 0.096342
0.127804 -0.256502
0.129090 -0.043281
-0.325179 0.188704
0.398819 0.479908
0.014882 -0.216384
-0.006145 0.016201
0.213270 0.180848
-0.685329 0.111544
0.391081 0.099189
-0.189931 -0.356888
0.455132 -0.394233
-0.015742 0.376132
-0.222094 -0.238579
0.140987 0.310310
0.223965 -0.000801
0.104243 0.218471
-0.348150 0.456330
-0.077358 0.009350
0.262397 0.172799
-0.430559 -0.316789
-0.122055 -0.031025
0.127204 0.061729
0.162940 -0.088485
-0.450621 -0.285402
0.200774 -0.075069
0.079745 -0.295888
0.111904 -0.165939
-0.334593 -0.148116
0.195573 0.295945
0.637018 -0.305755
0.185325 0.001894
0.194776 -0.094473
-0.261290 0.093470
-0.136443 -0.098739
-0.128887 0.098930
0.100861 -0.171287
-0.404789 0.443771
0.502973 -0.398675
-0.234430 -0.567096
-0.284520 -0.002550
-0.005653 -0.163475
-0.392829 -0.006607
0.014270 -0.301225
0.218680 0.022042
-0.046292 0.053974
-0.132462 -0.029365
-0.187164 0.135531
0.086307 -0.124998
-0.165989 -0.144122
-0.026356 0.039760
0.007447 -0.254737
0.284275 0.553351
-0.142598 0.247464
-0.249026 0.099256
0.138107 -0.150862
-0.111014 -0.515298
0.272144 0.301860
0.002360 0.440409
0.224222 0.164068
0.028585 0.152423
-0.131949 0.327589
0.083467 0.016364
0.361628 0.137893
0.081110 -0.125391
0.085013 0.259842
-0.186980 -0.010655
-0.279864 -0.057557
-0.249070 -0.331699
0.300650 -0.002624
0.262311 0.157573
0.081161 0.135951
-0.014977 -0.088419
0.050665 0.034602
0.129411 -0.148507
0.270672 0.107601
0.223476 0.246317
-0.017649 -0.225760
0.125990 -0.002032
-0.070797 0.059023
-0.184004 0.211571
0.212126 0.115966
-0.139330 0.068712
-0.024760 -0.028676
0.178073 0.061294
-0.033061 -0.189129
-0.232628 0.204778
-0.119003 0.087086
-0.038235 -0.367899
-0.242994 0.212163
0.219724 -0.177235
0.205638 -0.132894
0.022197 0.169124
0.099784 -0.245505
0.024348 -0.560188
-0.093582 0.022059
0.143247 -0.149793
-0.291892 -0.067436
0.081446 0.283231
0.150786 0.061608
-0.436154 -0.325425
-0.246478 0.284588
-0.121828 -0.045416
-0.056285 -0.405071
-0.214452 -0.303900
0.069569 0.253134
-0.152789 0.034263
-0.283703 -0.251108
-0.097895 -0.211214
0.102114 -0.170687
0.092318 -0.113322
-0.417461 0.034413
-0.196734 -0.147819
-0.069613 -0.191703
-0.058050 0.080747
-0.148851 -0.168398
-0.272465 -0.002661
-0.159972 0.038102
-0.068426 -0.111411
0.116496 0.117443
0.020847 -0.038336
0.010472 -0.367094
-0.297356 -0.263727
-0.256351 0.002688
0.020468 -0.000473
-0.280779 -0.002346
-0.242405 -0.076819
0.075373 -0.310944
0.113483 -0.382438
-0.087852 0.192125
-0.172761 0.086519
-0.061343 -0.285391
-0.331670 -0.172916
-0.054520 0.465527
-0.011176 -0.047824
-0.024024 0.004160
0.088708 0.154998
0.287911 -0.125487
0.147752 -0.109093
-0.523266 0.109846
-0.077494 -0.040094
-0.323354 -0.023211
-0.058385 -0.024409
0.003832 -0.005295
0.138846 0.479983
0.115882 0.227731
-0.046662 0.158782
-0.007538 -0.044656
0.070086 -0.140951
0.411773 -0.117129
-0.143519 0.241133
0.108830 0.230132
0.335384 -0.244024
-0.033249 -0.039156
-0.270735 0.163083
0.218271 0.102737
-0.028616 0.489904
-0.240245 0.179978
0.391927 0.428340
0.294741 -0.114157
-0.063339 -0.334059
0.067941 0.433708
-0.064893 0.266061
-0.237900 -0.182895
-0.232973 0.376039
0.384537 0.249564
0.039821 -0.252299
-0.221563 -0.068162
-0.209865 0.059167
0.072978 0.019634
-0.088784 0.352466
-0.108755 0.187960
0.181308 0.154183
0.127003 -0.411949
0.331175 0.256422
-0.148835 0.420834
-0.323470 0.017048
-0.386916 0.638132
-0.031674 0.193995
0.005639 0.432577
-0.015057 -0.059256
-0.140096 -0.019857
-0.170623 0.147689
0.160523 0.110764
-0.320636 -0.056719
-0.135314 -0.016569
-0.258870 0.105608
0.246109 -0.125366
-0.374791 0.142005
0.037034 0.461693
0.684660 0.579002
-0.300826 0.298293
0.234507 -0.024623
-0.115833 0.278447
-0.353941 0.023134
0.247956 0.225310
-0.292951 0.100120
-0.027216 -0.201578
-0.226277 -0.026576
0.284359 0.138364
0.351516 -0.142158
-0.286895 -0.207849
-0.209345 0.397174
0.231850 0.003555
0.292846 0.028560
-0.170063 0.392320
-0.756412 0.030604
0.198000 -0.548813
-0.148373 0.295343
0.385866 0.101556
0.402083 -0.405566
0.040740 0.592333
-0.182087 -0.356220
-0.357268 0.431779
0.230127 -0.278736
-0.476807 0.002225
-0.205505 0.261004
-0.094305 -0.529344
0.046942 0.563081
0.280397 -0.293369
-0.232972 0.163493
-0.395967 -0.066559
-0.140537 0.074720
0.271962 0.401666
-0.497119 0.093424
0.216478 -0.325713
0.284246 -0.058706
-0.300095 -0.047373
0.466908 -0.126044
0.068662 0.231619
0.271501 -0.298023
-0.505864 0.336045
-0.078424 0.158568
0.136371 0.452407
-0.176814 -0.442044
-0.370672 -0.183361
-0.009029 0.010643
0.011236 -0.070826
0.352585 0.525754
0.050626 -0.297891
0.571703 -0.102446
-0.302696 0.218398
-0.687039 0.143135
0.023228 -0.237599
0.070974 -0.393950
0.144004 0.157353
0.240355 -0.335817
0.473719 0.208534
0.409691 -0.034750
-0.167965 0.067260
-0.417641 -0.419697
-0.146434 0.209455
0.055654 0.584244
0.063864 0.006683
0.009474 -0.494692
-0.145539 -0.413675
0.476126 0.311640
-0.394460 -0.045708
0.417772 0.286715
0.170075 -0.296528
0.144517 -0.216033
-0.067101 -0.094079
-0.203360 -0.336943
-0.079980 0.305839
0.150384 0.052510
0.273991 0.105043
0.099084 -0.087049
-0.211815 0.149453
-0.296751 0.244180
0.027328 -0.356684
-0.177419 0.075707
-0.012280 0.013907
0.053912 -0.083137
-0.075024 0.053637
-0.329725 -0.324692
-0.001563 0.357000
0.199833 -0.015289
0.181415 0.012738
0.141286 0.070063
-0.211226 0.168754
0.396709 -0.264821
0.074902 0.038886
0.007637 0.162619
-0.245878 0.161320
-0.364504 0.237140
-0.309706 -0.138408
-0.097072 -0.072143
0.111155 0.079206
0.144394 0.534943
0.025668 -0.493578
0.307605 0.048727
-0.297927 0.100789
-0.540623 -0.024136
0.115272 0.198454
0.038331 0.349048
0.135672 0.037498
0.182367 -0.865572
0.153030 -0.186211
0.048169 0.257344
0.080068 0.390117
-0.064774 -0.016686
0.034491 -0.195423
-0.298987 0.215619
-0.098472 -0.019578
0.123541 0.243271
-0.028202 0.167378
-0.180816 -0.252337
0.159835 -0.167008
0.451745 0.145041
0.319576 0.159790
-0.035675 0.173759
0.156616 -0.415263
-0.017887 -0.085944
-0.184492 -0.179522
-0.056616 -0.050791
-0.171901 0.053924
-0.013682 -0.184580
0.436763 0.067929
0.062130 0.089400
0.051388 -0.391056
-0.383364 -0.011881
-0.146133 0.063556
0.239013 0.505915
0.177923 0.313992
-0.254357 -0.090054
0.194897 0.193870
0.026334 -0.055696
-0.366746 -0.396311
0.015814 -0.333088
-0.057195 0.176422
-0.044813 -0.073290
0.371757 -0.019277
0.187585 0.266968
-0.279109 0.058239
-0.268196 0.569084
0.151317 0.239438
0.327267 0.291660
-0.231643 -0.125339
-0.043583 -0.005027
-0.167993 -0.068979
0.075761 0.190914
0.156118 0.284920
-0.177726 0.049570
0.163908 -0.088532
0.116352 0.199039
-0.259975 0.089612
0.132941 -0.238638
-0.096712 -0.131554
0.088542 -0.146752
-0.103367 -0.135953
-0.076144 -0.041086
0.283334 0.400821
-0.307495 0.055138
-0.170406 0.027021
0.064835 0.221959
0.202903 -0.093505
0.249880 0.079604
-0.211088 0.734169
-0.053511 -0.242792
-0.142986 -0.279640
-0.310124 -0.087220
-0.218909 -0.038863
0.057500 0.133421
0.381892 0.071570
-0.053069 -0.076267
-0.121210 -0.043278
-0.101428 0.264212
-0.100013 -0.211419
0.122099 0.351868
-0.232871 -0.276441
-0.126030 -0.270658
0.120806 -0.080597
0.013007 0.484659
0.253390 0.067057
0.325715 -0.023136
0.231294 0.105284
-0.299478 0.021615
0.090356 0.083738
-0.028837 -0.122562
-0.300135 -0.425704
0.035725 -0.024801
0.049407 0.161550
-0.194489 -0.556244
0.117433 0.419664
-0.045434 -0.113449
-0.209955 0.189295
0.283308 0.104448
-0.025774 -0.307946
0.111505 0.167685
-0.339170 0.105012
0.125253 0.254829
-0.234067 -0.442375
-0.285183 -0.115012
-0.191997 -0.015346
0.164893 -0.196298
0.288711 -0.052894
0.051768 0.172109
-0.132023 -0.274921
-0.019611 0.176734
-0.170977 -0.012952
-0.069481 0.410610
-0.359963 -0.361953
-0.155571 -0.030550
0.073466 0.076365
-0.312846 0.134705
-0.034033 0.313299
-0.044663 0.131727
-0.050920 -0.022086
-0.124977 0.023119
0.274040 0.140907
-0.300558 -0.165101
-0.101027 -0.332911
0.206298 -0.093789
-0.198885 0.159955
-0.186408 -0.255324
-0.438689 0.156172
-0.018488 0.187656
0.184138 0.053557
-0.184727 0.107714
0.309184 0.113831
-0.023613 0.102142
0.301930 0.262284
0.064284 0.008579
-0.342012 0.168507
-0.263250 0.067901
-0.555566 -0.118156
0.083696 -0.086948
0.081327 -0.349511
-0.069233 0.096832
-0.019164 -0.072970
0.277009 0.124209
0.010243 -0.079690
-0.090369 -0.360595
0.067011 -0.029905
-0.067261 -0.017026
-0.048080 0.238059
0.015284 0.044483
-0.115146 0.201622
0.306730 0.186570
-0.218733 0.199900
0.082945 -0.180667
0.113812 0.223364
0.066827 -0.183461
-0.047863 -0.333360
-0.305884 0.069613
-0.285374 -0.421951
0.178806 -0.127592
-0.143491 0.021038
-0.144896 0.016688
0.073046 -0.215790
0.196260 -0.154390
0.024722 -0.095530
0.003103 -0.043882
0.078142 0.112218
0.140475 0.242996
-0.077828 -0.233596
-0.157923 0.078298
0.116730 -0.013155
0.015672 -0.017845
-0.226352 -0.557530
0.150056 0.127021
-0.028368 -0.180211
-0.140145 0.001373
-0.106476 0.067444
-0.336437 -0.299592
0.142259 0.112417
-0.022944 -0.003406
-0.022235 -0.129508
0.346120 0.074733
0.029269 0.155805
-0.234063 0.134286
0.016665 -0.434169
0.073806 0.039075
-0.099525 -0.116018
0.269017 -0.210765
0.144409 -0.095893
-0.294250 -0.370750
0.127851 0.201754
0.084006 -0.023751
-0.269900 0.078391
0.168355 -0.246034
0.091813 -0.118303
-0.221722 -0.032412
-0.005931 -0.262545
0.272560 0.331002
-0.213060 0.038872
0.090833 -0.182279
-0.147685 -0.109025
-0.049274 -0.201321
0.160495 0.105815
-0.254879 0.022211
-0.264112 -0.026195
-0.011204 -0.108313
-0.069039 0.265197
-0.216148 -0.038573
-0.097954 -0.230542
-0.093733 -0.042076
0.202407 -0.165317
0.254711 -0.165406
-0.112151 0.173502
-0.226035 -0.031577
0.423121 0.229308
-0.048702 -0.163421
-0.222701 0.105624
-0.282331 -0.069567
0.323217 0.014984
0.086229 0.057437
-0.063856 -0.072793
0.156391 -0.189381
-0.417713 -0.012816
0.182006 -0.148400
-0.006651 0.070114
0.409203 -0.029735
-0.079659 -0.064809
-0.145926 0.083180
-0.222233 -0.189350
-0.043642 -0.162352
-0.246362 -0.080627
-0.004584 -0.095756
-0.088496 -0.185210
0.277383 -0.004109
0.045468 -0.181664
0.246693 0.059776
-0.411791 0.404715
0.261556 -0.068601
0.039062 -0.266933
-0.067811 0.188981
0.042525 -0.163292
0.232831 -0.102658
0.440890 0.050311
-0.271221 0.060365
0.045218 -0.021443
0.003834 -0.092134
0.083824 0.060470
0.313771 0.178400
0.100126 -0.014276
0.154664 0.057980
-0.130225 -0.014472
0.225874 -0.074288
-0.099327 0.102526
0.037151 0.076298
0.089141 -0.120571
0.019614 -0.186991
0.380337 -0.416556
0.235154 -0.118395
0.186169 0.059735
0.128207 -0.338029
-0.289947 0.095109
0.047007 -0.169906
0.134091 0.214010
0.506480 0.524682
-0.208545 -0.082539
-0.167416 -0.426175
-0.120474 0.187315
-0.011279 0.268890
0.002082 -0.208530
0.330426 -0.116079
0.056740 0.039334
-0.092625 -0.279245
0.044321 0.001770
0.065219 -0.013185
-0.284614 0.334106
0.077053 -0.036109
0.147123 -0.247882
-0.239847 -0.270687
0.255523 0.107409
0.027988 0.057999
-0.079517 -0.045255
0.176489 0.011798
0.096956 -0.151716
-0.109079 0.110232
0.083819 -0.124472
0.146137 0.076689
0.320257 0.218261
-0.008798 -0.299042
-0.554570 -0.057332
0.171453 -0.211895
-0.164041 -0.054106
-0.005837 -0.278911
-0.149770 0.030922
0.179624 -0.190157
0.366175 -0.140685
0.320756 0.090738
-0.286822 -0.111336
-0.196455 0.327994
0.285627 0.028592
-0.138633 -0.363597
0.219629 -0.097496
-0.077175 0.040984
0.148671 -0.085043
-0.212319 -0.159038
-0.263407 0.220220
0.247875 -0.335402
0.058039 0.145974
0.098454 0.068300
-0.157576 -0.095156
0.201420 0.098555
0.155033 -0.010313
0.038284 0.322270
-0.096674 0.028348
-0.233118 -0.222389
0.090455 -0.025427
-0.157995 -0.044897
0.602128 0.317694
0.047232 -0.219340
-0.107406 0.302082
0.124335 -0.045597
0.133036 -0.022452
0.141282 0.367690
-0.054760 -0.135296
0.066806 0.072058
-0.014054 0.227134
0.045006 0.117438
0.103061 -0.136526
0.384056 0.333405
-0.053908 0.122705
-0.109252 -0.158455
0.265330 0.079835
-0.136551 0.112616
0.202214 -0.178593
0.195740 0.099471
-0.251878 0.033379
-0.154126 -0.149019
0.008346 -0.067828
0.068281 0.315046
0.197961 -0.296372
0.336412 0.283322
-0.100029 -0.278628
-0.221925 0.011079
0.322332 0.016020
0.149106 0.361426
0.162686 -0.096124
0.302693 0.233450
0.011162 0.086118
-0.107223 -0.131508
0.012384 0.017167
0.005093 0.377604
-0.170402 -0.157683
0.327952 -0.505679
-0.473413 -0.300109
0.097104 -0.171307
0.278370 0.515364
0.279516 0.425112
0.413105 -0.356488
0.139543 -0.115168
-0.076950 -0.025647
0.387656 0.005950
0.300227 -0.156896
-0.142036 0.093408
0.078202 -0.373899
0.070319 -0.222128
-0.427874 -0.120870
0.180713 0.177856
0.253356 0.165303
0.079468 -0.189767
-0.150672 -0.271055
-0.118838 -0.055171
-0.011461 0.264169
0.210089 0.187947
0.256846 0.106410
0.104862 -0.172539
0.108446 -0.262375
-0.016087 -0.311476
-0.143543 0.317144
0.132543 0.501600
0.066552 -0.133677
-0.468740 -0.193588
0.430269 -0.252547
-0.193276 0.197086
0.130411 0.867945
-0.055187 -0.056063
-0.322454 -0.030205
0.182076 0.112024
0.215190 -0.529744
0.211246 0.465989
-0.075668 0.266881
0.040150 -0.022845
0.330943 -0.451865
-0.094030 0.022610
-0.112964 0.342911
0.143261 0.301085
0.146093 0.355751
-0.088471 -0.319118
0.480653 -0.159891
0.298226 0.289539
-0.211243 0.263331
-0.370016 0.167932
0.074569 -0.045489
0.137742 -0.042131
0.004125 -0.294222
0.480994 0.488130
-0.168438 0.216976
0.249335 0.300784
0.416198 -0.149569
-0.149418 -0.125655
0.317542 -0.241162
-0.088232 0.039993
-0.242915 0.491342
-0.270312 -0.322413
0.438005 -0.027578
0.218452 -0.868489
-0.157578 0.313187
0.141604 0.559656
0.233902 0.036002
0.306342 -0.245682
0.230900 0.008987
0.282797 0.252319
0.380218 0.273806
-0.551170 0.013788
-0.487492 -0.071936
-0.046779 -0.049189
0.513544 0.141885
-0.376227 0.218677
-0.319127 0.515413
0.239184 0.168794
-0.035123 -0.113960
0.462932 -0.226451
-0.180809 -0.048086
0.599067 0.621106
-0.250525 -0.158025
0.068301 0.063904
-0.106401 0.331568
0.087695 0.376533
0.698080 0.000221
-0.600135 0.249961
0.352598 0.430570
0.048641 -0.142602
0.002289 0.505908
0.300491 -0.334152
0.462670 0.186684
0.409766 0.147050
-0.150543 -0.430544
0.346079 0.330427
-0.201547 -0.006405
0.117689 0.405229
0.092603 0.126202
-0.376861 0.501529
0.268146 -0.055185
0.264699 -0.517167
-0.010491 0.621874
-0.041093 -0.393556
0.296742 0.433175
-0.255475 -0.425294
-0.164532 -0.012906
0.276592 0.342668
0.111278 0.931093
-0.013908 -0.629836
-0.191872 -0.430023
0.690148 0.736591
0.005321 -0.344030
-0.103073 0.899867
0.207687 -0.039862
-0.478815 -0.243879
0.694880 -0.441413
-0.148079 0.401109
-0.400649 0.537736
0.641206 0.608418
0.101771 0.449341
0.372013 -1.107820
-0.286729 -0.060764
0.401305 1.246328
-0.268208 -0.006890
0.015046 0.317739
0.305133 0.081193
-0.252065 -0.642322
0.164862 0.183824
-0.694141 0.633072
0.012155 0.527407
0.577757 0.255939
0.671108 -0.220231
-0.882894 -0.356005
0.251917 0.537759
0.131365 0.701167
-0.129370 0.075129
0.490356 0.133041
-0.294482 0.061232
0.292537 -0.379136
-0.508568 0.668906
0.230020 1.421417
-0.267154 0.163395
1.116176 -0.220108
0.288858 -0.127495
-1.023474 0.138504
0.809531 1.658381
0.097688 -0.102754
-0.653722 -0.444291
0.816562 -0.339968
0.000157 0.221512
-1.164287 0.853182
-0.143795 0.160355
-0.022934 1.270562
0.776711 -1.024017
0.570472 0.168050
-0.497631 0.132458
-0.959721 0.939268
1.014246 0.046977
0.873175 -0.390100
-0.631706 -0.040122
-0.113010 0.443596
-1.008165 0.471311
-0.960753 0.292251
1.105387 1.054854
0.650389 -0.319914
0.462563 0.760213
-0.786720 -1.035196
-0.765711 1.392077
0.046176 0.783212
1.164257 -0.632137
-0.301847 0.228019
0.052878 0.857677
-0.098135 0.627671
-0.673175 0.604275
-0.570437 0.724283
0.956757 -0.250630
1.315460 0.142568
-1.045076 -0.140208
-0.084349 0.927970
-1.426774 0.485024
1.460113 0.491158
0.883170 -1.434447
-0.767891 1.107459
-0.191370 2.321605
-0.355069 -1.267615
-0.488079 0.707635
1.244740 0.455190
0.720747 0.918714
-0.589408 0.891271
-0.804577 -0.799596
-1.083190 0.718987
2.344129 -0.159493
-0.304031 1.357166
-0.649303 -0.477306
-2.337573 1.524520
1.557148 0.442903
0.093347 -0.690340
-0.124234 1.821317
1.322019 1.908282
-1.256620 -0.035698
0.360429 -0.988843
-0.387509 1.118021
-0.327407 -0.347086
-0.241388 2.013690
0.549866 -0.383371
-3.135559 1.604018
1.265732 0.990738
1.467804 -0.376387
-2.718385 0.307516
2.417435 1.745364
-0.155445 2.061971
0.034264 -0.213897
-1.205521 -1.814129
0.718480 1.409734
0.092483 1.088552
-1.811540 1.885174
1.146324 2.984190
-5.219486 -1.315321
5.574229 1.596894
-0.021351 -3.105864
-4.006128 6.770254
2.070427 1.519493
0.109019 -1.275117
-0.197458 -1.350145
0.040498 -2.479870
0.916968 7.065096
-5.641865 1.624706
0.962934 0.877016
-0.216891 -1.042205
2.189533 3.797436
1.168753 -1.487384
-3.922717 3.542415
-5.443535 5.782749
6.019633 -3.735240
4.611902 0.049792
-6.909189 -1.399416
-2.808736 4.957720
-1.431046 1.848073
-4.663777 5.567791
5.720006 -1.623950
0.721571 0.981824
-3.342645 9.591361
1.407673 -11.708804
-10.809946 16.092604
8.652387 2.480732
-0.073395 -8.461110
3.585585 0.752830
-14.469643 3.458348
-3.344138 9.975390
4.901592 2.791966
-10.110891 7.048353
15.885834 -12.328079
-5.704372 11.709590
-3.255242 7.745602
-15.111997 -3.755438
2.281127 11.642710
13.927350 1.768372
2.630105 -22.931180
-15.643809 21.372505
-30.317027 20.900993
8.144594 -10.671814
8.973659 10.030680
15.579391 7.827000
-15.444478 -2.660971
-10.696537 24.773903
-19.467548 -6.540359
-15.173514 -12.801350
69.690076 47.944671
-33.895816 -21.571685
-28.838342 -3.292645
-63.387161 9.128663
10.508024 77.435711
56.666804 -53.253304
-12.615018 62.989588
-1.385470 39.731890
-110.182382 -99.168991
69.330735 142.479635
-55.606518 -71.661143
-0.368139 119.691118
176.247785 28.728717
-156.853349 -109.853788
-378.583978 28.469464
25.417833 490.148967
-68.004833 301.130520
343.497333 -334.405327
-515.593112 1056.839575
-1545.340608 -264.178599
-1235.668607 -267.320414
1233.831389 933.254215
