11800.679536 11772.621448
-5754.197182 -1782.971871
13.579969 -6.812144
3.751228 -5.610726
6.844047 -3.949453
0.833292 -5.066935
-833.081353 -196.889567
18.122463 -16.009697
7.534782 -0.078094
7.355358 -1.857678
4.641555 -6.218518
42.082802 5.127605
10.747911 -13.676589
2.423792 -2.409498
5.124992 -1.464619
-0.804162 -18.225679
-211.165909 -20.065805
12.284630 -10.661476
2.781111 -5.517795
7.719449 -5.742258
-2.441494 -11.254898
-312.245905 -7.242649
17.307675 -22.058005
5.642598 -2.271422
5.149383 0.749099
9.394634 4.439373
85.520999 -4.828690
3.185678 3.573792
2.951974 -2.253132
12.021567 -6.807435
-0.908620 -15.158366
7.030572 -1.110263
7.435204 -13.221043
-0.009459 -3.104815
7.000066 -1.612862
8.148261 3.315885
30.730708 -5.751650
3.827535 6.162127
7.841047 -0.414385
6.905896 -6.108432
-6.486459 -13.800526
-101.736183 27.629170
9.437324 -16.829894
6.219822 -1.986941
5.576352 -1.281019
8.140761 2.228022
10.979599 -3.175537
5.182867 -0.070582
6.440648 -0.799001
6.443652 -2.899293
0.182955 -7.740854
6.962475 -1.903622
4.517167 -10.684621
4.284272 -1.114144
5.238244 -0.414926
7.607176 0.691058
11.512439 -4.661726
4.760309 -2.086029
8.148187 -0.903181
5.444689 -3.669142
-0.492831 -4.858881
-16.595079 12.102384
5.959692 -4.372878
5.502349 -2.153116
5.343269 -2.958910
1.127784 -4.407512
3.349763 0.116057
5.200811 -2.180623
5.910399 -1.476576
5.632935 -2.739479
3.235821 -2.949680
6.492805 -2.488823
4.437103 -3.372283
4.094106 -1.407416
5.166877 -1.605732
4.472349 -1.887609
2.302187 0.850750
3.533712 -5.626025
7.017298 -1.899389
4.775969 -2.255339
2.860481 -1.923935
-4.910895 9.117830
4.071896 -5.767381
6.442720 -2.359665
5.176869 -3.013287
3.051433 -2.793332
8.284735 -5.325625
4.753701 -2.165601
6.369935 -2.089014
5.044282 -3.301214
2.290926 -2.765022
5.900500 -2.859010
3.529797 -3.753314
4.750140 -1.470108
5.205581 -1.608409
5.906831 -1.616771
4.852096 -1.588198
5.322080 -1.679385
5.677475 -2.528386
4.176274 -3.449070
1.101335 -1.825003
0.113498 7.995098
2.770053 -5.731263
6.099587 -2.823358
4.953502 -2.465575
4.756396 -2.242804
6.258054 -4.862320
5.199084 -1.628087
4.838136 -2.002372
4.524138 -3.865076
2.753257 -2.291934
5.457369 -3.515373
1.861717 -4.461023
5.451363 -2.098913
4.985865 -2.550424
5.500467 -2.165503
5.165608 -2.968731
5.437637 -1.715251
5.094018 -2.505019
4.256226 -2.506939
2.339500 -1.342777
3.826413 4.497482
3.662439 -3.946008
5.314715 -3.131533
4.530760 -2.697182
3.755138 -2.154160
5.180103 -3.506846
5.100929 -2.254807
5.496878 -3.064969
4.464686 -2.940014
3.389475 -2.161186
5.009770 -4.253597
3.271975 -2.962013
4.852437 -2.260255
4.418309 -3.204155
4.890895 -2.488640
4.712010 -2.904978
3.872160 -2.656009
4.817702 -2.445011
4.207231 -2.938898
3.848367 -1.724439
5.277486 0.816449
3.888310 -3.422423
5.395426 -4.128163
4.168075 -2.909751
4.010251 -2.205164
4.678761 -4.387700
5.145890 -2.489233
5.180041 -3.458405
4.476552 -2.756970
3.718937 -2.198774
4.482188 -3.592769
2.962970 -2.802952
5.116911 -3.080191
4.757845 -2.764755
5.717014 -3.306463
4.686986 -2.178622
4.545820 -2.708065
4.749011 -3.141580
4.537335 -2.519026
4.183759 -2.056900
5.820862 0.403820
2.816715 -3.286134
4.485538 -3.115292
3.923916 -3.259757
4.136997 -2.524124
4.133354 -4.420691
5.373878 -2.980708
4.703325 -3.848127
3.752377 -3.349524
4.763151 -3.173079
3.957761 -3.877782
3.496175 -2.658263
4.735263 -3.304611
4.247509 -3.162228
5.062992 -3.484759
4.597410 -2.755756
4.775633 -3.079525
4.434880 -3.623211
4.504729 -2.702899
4.326487 -2.380036
5.810577 -1.387314
3.299996 -3.225540
4.290234 -4.359097
4.290309 -3.007602
4.473540 -3.170485
4.190775 -3.389690
4.564044 -3.188994
4.316548 -3.325936
3.622912 -3.331515
4.552400 -3.323870
4.412826 -3.173470
4.144210 -3.188703
4.261942 -3.637153
4.626305 -3.119833
4.312899 -3.317826
4.160237 -3.357405
4.475338 -3.410948
4.014473 -3.785278
3.511531 -3.126965
4.403287 -2.906663
5.171061 -2.740418
3.358402 -3.176119
3.825331 -4.229031
4.238468 -3.105175
4.073533 -2.689802
4.173903 -3.507806
4.475686 -3.580582
4.205270 -3.318533
4.132653 -3.472333
4.069991 -3.538044
3.800427 -3.531297
3.420744 -2.889357
3.839736 -4.178467
3.837195 -3.312705
4.176859 -3.237205
4.382796 -3.369000
3.795661 -3.324461
4.015129 -3.358635
3.522681 -3.240479
4.212136 -2.595395
5.010170 -3.454761
3.396743 -3.481238
3.479642 -4.244655
3.497779 -3.460914
4.029516 -4.111595
2.895125 -4.047486
4.666239 -4.163143
4.065378 -3.576324
3.925974 -3.692610
3.798952 -3.254298
2.826658 -3.997131
3.954313 -3.504168
3.711434 -4.139208
4.367639 -3.809133
3.909830 -3.676628
3.904651 -3.686762
3.854023 -3.618184
3.656271 -4.065802
4.325347 -3.836020
3.995364 -3.306796
4.669541 -3.704928
3.340058 -3.316679
3.651664 -3.831986
3.611010 -3.637991
3.905346 -3.586603
3.535745 -3.988868
3.817178 -4.094136
3.542649 -4.006425
3.689158 -3.799824
3.826851 -3.478479
3.299372 -3.994855
3.603258 -3.797323
3.492740 -3.988195
3.357463 -3.561237
3.873276 -4.097613
3.862551 -4.193793
3.673937 -4.673727
3.467980 -3.814545
3.272444 -3.464371
3.900161 -3.969173
3.995173 -4.249840
3.394852 -3.960676
3.177284 -4.239014
4.169527 -4.441230
3.840390 -3.660935
3.832844 -4.351463
3.398569 -4.854953
3.254440 -3.969154
3.530050 -3.991711
3.626106 -3.888744
2.912856 -4.157146
3.283809 -4.195708
2.472168 -4.452122
3.551812 -4.148033
3.060699 -4.784913
4.005281 -4.190353
3.445212 -3.968037
3.334800 -4.313233
3.530527 -4.611620
3.095445 -4.283133
3.280778 -4.091082
3.294046 -4.232319
3.033824 -4.219753
3.322397 -4.186868
3.261772 -4.138371
2.882976 -3.968861
3.374138 -3.884246
2.852938 -4.412309
2.962735 -3.841781
2.673730 -4.977943
3.544385 -4.431163
3.100202 -4.287172
2.552517 -4.224803
3.443261 -4.217122
3.284152 -4.526592
3.491103 -4.647028
3.021769 -4.155865
2.885211 -4.145760
3.099070 -3.584401
3.477313 -4.441862
3.240103 -4.686632
3.052469 -3.913969
2.644442 -4.271396
3.253568 -4.144020
3.597831 -4.401655
2.685339 -4.545555
2.748819 -4.826293
2.630754 -4.411676
3.036154 -4.642467
2.815894 -4.476303
2.731313 -4.076844
3.094916 -4.841899
3.440963 -4.738460
2.824227 -4.557466
2.778491 -4.621823
3.099846 -4.816571
2.857103 -4.291961
2.058581 -4.317124
3.135854 -4.934611
2.953654 -4.772621
3.186258 -5.228733
2.723549 -4.406996
2.664179 -4.488532
2.861023 -4.981040
2.953665 -4.524399
2.591116 -4.438098
2.474403 -5.077237
2.752517 -4.657006
2.666176 -4.950207
2.680905 -4.504642
2.907031 -4.631420
3.231947 -4.121930
2.345837 -4.612319
2.788097 -4.830263
3.145634 -4.825765
2.427828 -5.015293
2.003706 -4.981851
2.801850 -4.532240
2.792387 -4.766248
2.880029 -4.886605
2.509336 -5.102675
2.466944 -4.591216
2.436843 -4.665582
2.458780 -5.013104
2.703952 -4.764469
2.317488 -4.794568
1.962200 -4.963209
2.468643 -4.600059
2.523871 -4.670005
1.997595 -4.855671
2.357744 -4.851234
2.125904 -4.834206
2.098888 -4.421668
2.409877 -5.170597
2.481254 -4.887794
2.353889 -5.056904
2.441770 -4.617959
1.778100 -4.295852
2.170671 -5.586056
2.374265 -4.944558
2.307922 -5.396767
2.264556 -4.652228
2.275934 -4.643120
2.392581 -4.794897
2.346305 -4.880107
2.145276 -4.257862
1.851819 -5.064011
2.303659 -4.718284
2.714788 -4.605255
2.194243 -5.251754
1.990364 -5.028054
2.307535 -4.796505
2.151715 -4.853261
2.386786 -4.932941
1.817754 -5.234176
1.936023 -6.052618
2.359468 -4.874759
2.030324 -5.319487
1.603820 -5.196586
2.126493 -4.926078
1.972299 -5.140731
1.824290 -5.044486
2.015076 -5.242150
1.737330 -5.057413
1.704386 -4.861669
1.850548 -5.550148
1.989288 -4.946186
1.778308 -4.949905
1.414986 -5.281875
2.144160 -4.919017
2.025902 -4.842706
2.073130 -5.052183
1.702663 -4.784360
1.934533 -4.999592
1.538378 -5.009957
1.625365 -5.330006
1.899226 -4.923198
1.715103 -4.649240
1.573374 -5.416881
1.783267 -5.303736
1.520781 -5.122520
1.493373 -4.918624
1.812242 -4.951467
1.808160 -5.165752
1.438035 -5.062416
1.579452 -5.101285
1.299107 -5.031492
1.768617 -5.181280
1.833862 -5.148238
1.381098 -5.058738
1.506162 -5.504725
2.050047 -5.362892
1.349942 -4.990101
1.077067 -5.394074
1.826349 -5.575241
1.328861 -5.316750
1.602127 -5.177051
1.455812 -5.179382
1.248849 -5.370061
1.279281 -5.336389
0.867325 -5.575211
1.605258 -4.944999
1.637804 -5.222536
1.546261 -5.359651
1.554076 -5.683509
1.536179 -4.817030
1.244230 -5.232135
1.278492 -5.216479
1.179593 -5.329256
1.450562 -5.683140
1.185763 -5.211115
1.785974 -5.468471
1.182846 -5.043786
1.411397 -5.279347
0.914267 -5.276270
0.811264 -5.271855
0.840323 -5.022126
0.996724 -5.382253
0.399784 -5.184628
1.303257 -5.356352
1.088740 -5.238728
0.828247 -5.034690
1.102975 -5.373652
0.991938 -5.250155
1.199675 -5.383965
1.286396 -5.251612
0.858231 -5.423521
0.721242 -5.502454
0.957368 -5.103499
1.028830 -5.085282
0.799963 -5.534529
0.867356 -5.346795
0.806726 -5.480747
0.802044 -5.282434
1.033648 -5.669132
1.065530 -5.331139
0.758370 -5.567524
0.394020 -5.559890
0.527836 -5.025585
1.073089 -5.809176
0.645939 -5.469133
1.069494 -5.640583
0.741820 -5.238027
0.812331 -5.304731
0.705519 -5.408167
0.713664 -5.210041
1.046586 -5.479292
0.896358 -5.257934
1.159530 -5.547244
0.614157 -5.077047
0.770479 -5.419486
0.488481 -5.536857
0.370138 -5.290409
0.690837 -5.220375
0.667051 -5.583871
0.947650 -5.314318
0.511052 -5.513038
0.617749 -5.140459
0.393098 -5.447610
0.214812 -5.289694
-0.026571 -5.217696
0.573660 -5.354692
0.215282 -5.503175
0.413029 -5.219232
0.457920 -5.215702
-0.081827 -5.405039
0.422588 -5.396822
0.064285 -5.510605
0.679685 -5.282630
0.525276 -5.331897
0.730698 -5.321170
0.432927 -5.212981
0.884259 -5.218026
0.062105 -5.571989
0.078317 -5.234134
0.081285 -5.231857
0.532778 -5.709562
0.580944 -5.331485
0.182491 -5.596388
0.131353 -5.146721
-0.062888 -5.360690
0.260314 -5.781154
0.598882 -5.066294
0.030604 -5.339871
0.191501 -5.280462
0.034877 -5.532086
-0.030133 -5.677443
0.094903 -5.312154
-0.078651 -5.472137
-0.297093 -5.514613
0.117747 -5.191925
0.162542 -5.516124
0.514826 -5.282076
-0.476075 -5.227498
-0.320047 -5.582577
0.208486 -5.491257
-0.333734 -5.309825
-0.335469 -5.222814
-0.377823 -4.989162
-0.715835 -6.081472
0.096144 -5.270173
-0.074945 -5.306401
-0.174110 -5.420313
-0.401293 -5.258698
-0.490708 -5.435010
0.444989 -5.324014
0.041774 -4.866770
-0.176057 -5.616671
-0.416647 -5.494342
-0.371092 -5.436219
-0.219090 -5.625459
-0.665751 -5.128416
-0.808500 -5.104094
0.016291 -5.527558
-0.123716 -5.339153
-0.604664 -5.465406
-0.616556 -5.268533
-0.939685 -5.285551
-0.294198 -5.699440
-0.512546 -5.219174
-0.713057 -5.118710
-0.664904 -5.657526
-0.268404 -5.040102
-0.304072 -4.936150
-0.346905 -5.616877
-0.865716 -5.484762
-0.896497 -5.549409
-0.412875 -5.152346
-0.489770 -5.539912
-0.399519 -5.028273
-0.695931 -4.993725
-0.398453 -5.392468
-0.789396 -5.555692
-0.915418 -5.236445
-0.842820 -5.215954
-0.835132 -5.089623
-0.996705 -5.889189
-0.061458 -5.279321
-0.711290 -4.835196
-0.932435 -5.483897
-0.802278 -5.274564
-0.649177 -5.192957
-1.221255 -5.340654
-0.877788 -5.702317
-0.709780 -5.166994
-0.741484 -5.385902
-1.052524 -5.571715
-0.278262 -5.378366
-0.772063 -4.959465
-1.115572 -5.631556
-1.067185 -5.648146
-1.082911 -4.878184
-0.697012 -5.034374
-0.681223 -5.154300
-0.650369 -5.476513
-1.322636 -5.242240
-1.271250 -5.420423
-1.095637 -5.349198
-1.309378 -5.841994
-0.909712 -5.073972
-1.032462 -5.461965
-0.806001 -4.551025
-1.523763 -4.676839
-0.792651 -5.047019
-1.390232 -5.482763
-1.168160 -5.352645
-0.922878 -5.114442
-1.400572 -5.326584
-1.403877 -5.295910
-1.206780 -5.139372
-1.271427 -5.179528
-1.238069 -5.145280
-1.733269 -4.870161
-1.336722 -5.665662
-1.394711 -5.366452
-1.466909 -5.340819
-1.773855 -5.434575
-1.087088 -5.557784
-1.790959 -5.621049
-0.836988 -5.000323
-1.311004 -5.251227
-1.305497 -5.121733
-1.837728 -4.955697
-1.801219 -5.460967
-1.273453 -4.972784
-1.389046 -5.147464
-1.575164 -5.179488
-1.338582 -5.305208
-1.508569 -4.923673
-1.553100 -4.979236
-1.373225 -5.223099
-1.419575 -5.264394
-1.922115 -5.137722
-2.073794 -5.250242
-0.889415 -4.934295
-1.379977 -4.912784
-1.570134 -5.292265
-2.076791 -4.977033
-1.978783 -4.887479
-1.700713 -4.651673
-1.395689 -5.048054
-1.657521 -5.172681
-1.786875 -4.894737
-1.558907 -5.023510
-1.841673 -5.159870
-1.875549 -4.913360
-2.048142 -5.030136
-1.804404 -5.060412
-2.160801 -5.190317
-1.776051 -4.755029
-1.589191 -5.272209
-1.658144 -5.167759
-2.127501 -4.627103
-1.867449 -4.954004
-1.568558 -5.004981
-1.566811 -5.118043
-1.804383 -5.471489
-2.196274 -5.463754
-1.940367 -4.704841
-1.847944 -5.071102
-2.045405 -4.866191
-2.297858 -4.953545
-2.034594 -5.020175
-2.103420 -4.997162
-2.138088 -4.953932
-2.221209 -5.278426
-1.922679 -5.022657
-2.181700 -5.339315
-2.132780 -4.748210
-2.144123 -4.928125
-2.450281 -5.153053
-1.999504 -4.703045
-2.054207 -4.996779
-2.042931 -4.775730
-2.186814 -4.833635
-2.122311 -4.644883
-2.185377 -4.828080
-2.288039 -4.728033
-2.108697 -4.622153
-2.346018 -4.437394
-2.243529 -5.225372
-2.384088 -5.028913
-2.536486 -4.642132
-2.167393 -4.526992
-2.460124 -4.370094
-2.548937 -5.326629
-2.435845 -4.872757
-2.476769 -5.051478
-2.499278 -4.699941
-2.372380 -4.709757
-2.612586 -4.950307
-2.234778 -4.685839
-2.299391 -4.671976
-2.474488 -4.784234
-2.265550 -4.849930
-2.376758 -4.936197
-2.305383 -5.049027
-2.680381 -4.756750
-1.931762 -4.462868
-2.487548 -4.417963
-2.400303 -4.874805
-2.751231 -4.832311
-2.636361 -4.473835
-2.442691 -4.684048
-2.623672 -4.676936
-2.710375 -4.914794
-2.558496 -5.034404
-2.920472 -4.657084
-2.845916 -4.610251
-2.803304 -4.914425
-3.168170 -4.610895
-2.190705 -4.766304
-2.697671 -4.517605
-2.598353 -4.518057
-2.786152 -4.320156
-2.992288 -4.734940
-2.707655 -4.716607
-3.001281 -4.525835
-2.303373 -4.284889
-2.508428 -4.560536
-2.516011 -4.597568
-3.035674 -4.511654
-2.703730 -4.051444
-2.868103 -4.471863
-2.880221 -4.306476
-3.006399 -4.612276
-2.876400 -4.677169
-2.982893 -4.318664
-2.986092 -4.379748
-2.996731 -4.354898
-3.320295 -4.458632
-2.642757 -4.638751
-2.714149 -4.157656
-3.326352 -4.395010
-3.139223 -4.329338
-3.061462 -4.208300
-2.798332 -4.415616
-3.043997 -4.479855
-2.995920 -4.323566
-2.961237 -4.194216
-3.060887 -4.368346
-3.048890 -4.231158
-2.743866 -4.125637
-3.100905 -4.379940
-2.991874 -4.307807
-2.831519 -4.531800
-3.401955 -4.434985
-3.087983 -4.007778
-3.239612 -4.298325
-3.313473 -4.145620
-3.560415 -4.212608
-3.286395 -4.210628
-3.278585 -4.075444
-3.255329 -4.041098
-3.115473 -3.902303
-3.502732 -4.173610
-3.252982 -3.998821
-3.328691 -4.295017
-3.364741 -4.133294
-3.163697 -3.753836
-3.837731 -4.113593
-3.231545 -4.025383
-3.697903 -4.602978
-3.479257 -4.233082
-3.550245 -4.352195
-3.067816 -4.087318
-3.274983 -4.306669
-3.278608 -4.120222
-3.353505 -4.176218
-3.309650 -4.063581
-3.337794 -4.266273
-3.604049 -3.884739
-3.094101 -3.915782
-3.831841 -3.910514
-3.719760 -4.217005
-3.387517 -4.124669
-3.735133 -4.117420
-3.546835 -3.794458
-3.871519 -3.590480
-3.866870 -4.115670
-3.745011 -3.669402
-3.456527 -3.734650
-3.777990 -3.962115
-3.535710 -3.745559
-3.410641 -3.936363
-3.897683 -3.899605
-3.593448 -4.277123
-3.577994 -4.035011
-3.769505 -4.040762
-3.665250 -3.676694
-3.862417 -3.752978
-3.740140 -3.880320
-3.834894 -3.790352
-3.648239 -3.771377
-3.816749 -4.074712
-3.900546 -3.892676
-3.918520 -3.856760
-3.506315 -3.629744
-3.659379 -3.840276
-3.797284 -3.869320
-3.962889 -3.767013
-3.897871 -3.725412
-3.941011 -3.739851
-4.024099 -3.635021
-4.009999 -3.519143
-3.661012 -3.552384
-3.839146 -3.932054
-3.960860 -3.639158
-3.867758 -3.472138
-3.914660 -3.690541
-4.044384 -3.467986
-3.879568 -3.760921
-3.611459 -3.705226
-4.069203 -3.219782
-4.283979 -3.799683
-3.709905 -3.868076
-4.094634 -3.673056
-3.864336 -3.533824
-4.066470 -3.390553
-4.130873 -3.462483
-4.113163 -3.268024
-3.936241 -3.317335
-4.096825 -3.332589
-3.902560 -3.142197
-4.235961 -3.615042
-3.994227 -3.349225
-4.119569 -3.975257
-4.101788 -3.660474
-4.206057 -3.320193
-3.989785 -3.378610
-4.335299 -3.211402
-4.354759 -3.589549
-3.962381 -3.370251
-4.092880 -3.794677
-4.071361 -3.408632
-4.250387 -3.398211
-4.125701 -3.070173
-4.358521 -3.119703
-4.161450 -3.481927
-4.160114 -3.241189
-4.204775 -3.152598
-3.953990 -2.971532
-4.412203 -3.014960
-4.045175 -3.238642
-4.732084 -3.416659
-4.202852 -3.269529
-4.433694 -3.490214
-3.943081 -3.421925
-4.088289 -2.619716
-4.558111 -3.252402
-4.123796 -3.357139
-4.223947 -3.418055
-4.454354 -3.399860
-4.456630 -3.090118
-4.533277 -3.224934
-4.475258 -3.563042
-4.369844 -2.785239
-4.319534 -2.950085
-4.461682 -3.269881
-4.511671 -2.952315
-4.334054 -2.838487
-4.271782 -3.015590
-4.298585 -3.047081
-4.221234 -3.009574
-4.386539 -3.251768
-4.561679 -3.198763
-4.484651 -3.089108
-4.718418 -3.193910
-4.817608 -2.689364
-4.289106 -2.718498
-4.554850 -2.901277
-4.705631 -2.714855
-4.514794 -2.560075
-4.649409 -3.141997
-4.485981 -2.773837
-4.510930 -2.499645
-4.482662 -2.697002
-4.365546 -2.737195
-4.526636 -3.051683
-4.781515 -2.822703
-4.645870 -2.717189
-4.428197 -2.620654
-4.522738 -2.691569
-4.592739 -2.779742
-4.998126 -2.551223
-4.649916 -2.883356
-4.567367 -2.568885
-4.490755 -2.630747
-4.638118 -2.760754
-4.631116 -2.577339
-4.549361 -2.951133
-4.369879 -2.692444
-4.891993 -2.251655
-4.658218 -2.532762
-4.575637 -2.541549
-4.588732 -2.616117
-4.731038 -2.583252
-4.553591 -2.596825
-4.420867 -2.544348
-5.207741 -2.361557
-4.752869 -2.670463
-4.749727 -2.655694
-4.924068 -2.606868
-4.800045 -2.308096
-4.550959 -2.563409
-4.951324 -2.713152
-4.831796 -2.300088
-4.788583 -2.201698
-4.916299 -2.362327
-4.674212 -2.234385
-4.570265 -2.194211
-4.651631 -2.352332
-4.647602 -2.320965
-4.553473 -2.405445
-5.229978 -2.080957
-4.902428 -2.380730
-5.076019 -2.249929
-4.806746 -2.494661
-4.940507 -2.310327
-4.873816 -2.188044
-4.746737 -2.154943
-5.138129 -2.208128
-4.869586 -2.442643
-4.717623 -2.161843
-4.867549 -2.253649
-5.118711 -2.506020
-5.085544 -2.160872
-5.015477 -2.275162
-4.967737 -2.011000
-4.572442 -2.428033
-4.713828 -1.931701
-4.780597 -2.145345
-4.876966 -2.030329
-4.590183 -2.077544
-5.130588 -1.939005
-5.046585 -2.072082
-4.989329 -2.082147
-5.140886 -2.174720
-4.845428 -1.863569
-5.203051 -1.685674
-5.127483 -1.762847
-4.564644 -1.883489
-4.879731 -1.842850
-5.071141 -1.810739
-4.801041 -1.887440
-4.659799 -1.723551
-5.338966 -1.595714
-4.850883 -1.812552
-4.915594 -1.957671
-5.019090 -1.866550
-4.595392 -1.637699
-5.325564 -1.820977
-5.155964 -1.613927
-5.012167 -1.731638
-5.188456 -1.722231
-5.249100 -1.617133
-5.443058 -1.239305
-5.066165 -1.481387
-5.416805 -1.371216
-4.751944 -1.671993
-4.902838 -1.726065
-5.117464 -1.433213
-4.886769 -1.938159
-5.108593 -1.905245
-5.147922 -1.638697
-5.215375 -1.889274
-5.523565 -1.655832
-5.302067 -1.340074
-4.749364 -1.585275
-5.250463 -1.710981
-5.193746 -1.391477
-5.180879 -1.471960
-5.078781 -1.095638
-5.465914 -1.205430
-5.149150 -1.352066
-5.214167 -1.291668
-5.146883 -1.138129
-5.065143 -1.346020
-5.215122 -1.255373
-4.986815 -0.817489
-5.731024 -1.573385
-5.185039 -1.273891
-5.339364 -1.620464
-5.251293 -1.345409
-5.236665 -1.503925
-5.057136 -1.251776
-5.438934 -0.802889
-5.365135 -1.370133
-5.280161 -1.102678
-5.152719 -1.547405
-5.268340 -1.307451
-5.270566 -1.116636
-5.136634 -1.182441
-5.309935 -1.211399
-5.300812 -1.247831
-5.260408 -1.172878
-5.488294 -0.719301
-5.628552 -1.285591
-5.342623 -1.019151
-5.348126 -1.068808
-5.422820 -0.951779
-5.262117 -1.021547
-5.798502 -1.240666
-5.169016 -0.935302
-5.432918 -1.341259
-5.327812 -0.792155
-5.089040 -0.908268
-5.346333 -1.010372
-5.142910 -0.796366
-5.204961 -1.360466
-5.280656 -1.051722
-5.214531 -1.125316
-5.395199 -1.085222
-5.160151 -1.218572
-5.524624 -1.020337
-4.982592 -0.823472
-5.270454 -1.117991
-4.959472 -0.535342
-5.286247 -0.462075
-5.046131 -0.717377
-5.350453 -0.744078
-5.084011 -1.072812
-4.814180 -0.878060
-5.438455 -0.819619
-5.584557 -1.211676
-5.327892 -1.004904
-5.640185 -0.429237
-4.594543 -0.284750
-5.412342 -0.583080
-5.424069 -0.449289
-5.249043 -0.445999
-5.285620 -0.758098
-5.481592 -0.549782
-5.296685 -0.447870
-4.912389 -0.156946
-5.524543 -0.364952
-5.254616 -0.595171
-5.086980 -0.519933
-5.311331 -0.421233
-5.121068 -0.466499
-5.576559 -0.480440
-5.352361 -0.400301
-5.254152 -0.590435
-5.699789 -0.240663
-5.182646 -0.055550
-5.832504 -0.158118
-5.687862 -0.411944
-5.885775 -0.076775
-5.234238 -0.721899
-5.042344 0.189023
-5.478650 0.138207
-5.342360 -0.472676
-5.598331 -0.167311
-5.316710 -0.082992
-5.655789 -0.385557
-5.263775 -0.270336
-5.521805 -0.311968
-5.249318 -0.000979
-5.306648 0.120090
-5.504953 -0.044084
-4.753302 -0.264704
-5.027397 -0.100828
-5.936631 0.015510
-5.113217 0.027401
-5.475471 -0.451738
-5.495864 -0.136082
-5.395067 -0.175026
-4.975162 -0.297284
-5.524304 -0.089101
-5.972825 -0.081979
-5.013638 -0.386886
-5.289302 0.213174
-5.058317 0.083083
-5.189038 0.307916
-5.389839 -0.048463
-5.228336 -0.152282
-4.973730 0.449937
-5.374974 -0.012532
-5.505846 0.139859
-5.480710 0.238475
-5.358050 0.188736
-5.102501 0.611067
-5.431653 0.459235
-5.141107 0.388692
-5.736914 0.104911
-5.314742 0.321801
-4.909534 0.425704
-5.702706 0.249025
-5.576776 -0.060666
-5.819426 0.274645
-5.416105 0.077306
-5.190960 0.745073
-5.487709 0.655738
-5.424688 0.005114
-4.981874 0.474464
-5.263610 0.594929
-5.283077 0.311544
-5.552673 0.472071
-5.495619 0.258732
-5.360405 0.473739
-5.448248 0.425597
-5.190772 0.853730
-5.056006 0.557901
-5.298102 0.475550
-5.228223 0.699184
-5.157084 1.279726
-5.302086 0.317250
-5.443582 0.612677
-5.394381 0.255247
-5.283328 0.415992
-5.558877 1.157885
-5.531447 0.684434
-5.284488 0.667211
-5.452557 0.591387
-5.678064 0.955919
-5.100388 0.704544
-5.630893 0.413138
-5.098154 0.356313
-5.034922 0.899092
-5.718501 0.603086
-5.602166 0.465839
-5.397349 0.878669
-5.299548 0.524600
-5.683668 0.841204
-4.928324 0.952672
-5.214278 1.172390
-5.489084 0.934177
-5.072830 0.747724
-4.915632 1.176519
-5.472387 0.913553
-5.487389 0.510534
-5.603425 1.014776
-5.129538 0.564968
-5.142725 1.374713
-5.132620 1.171013
-5.154197 1.149897
-5.189705 1.108938
-5.129424 1.029512
-5.246444 0.963038
-4.619320 0.537749
-5.333406 1.385609
-5.589691 1.271834
-5.332203 1.417807
-5.045635 1.555955
-4.981772 1.363818
-4.983492 1.373368
-4.947015 1.286953
-4.971384 1.353334
-5.461181 0.800699
-5.360449 1.287646
-5.038739 1.402425
-5.226240 1.106225
-5.449769 1.683352
-5.440512 1.336545
-4.832985 1.031931
-5.258793 1.419702
-5.137329 1.599834
-4.949426 1.847234
-5.206406 1.220069
-5.299143 1.708896
-5.050545 1.077116
-5.210949 1.185050
-5.216197 1.405408
-5.369412 1.244301
-5.567619 1.745887
-5.350612 1.284532
-4.820747 1.281761
-5.309548 1.409938
-5.254586 1.596546
-5.310968 1.758357
-5.298106 1.520571
-5.339730 1.745764
-5.156928 1.336973
-5.309732 1.655401
-4.913472 1.471367
-5.286010 1.374268
-4.857678 1.555442
-5.080007 1.275398
-4.731416 1.634114
-5.226194 1.793849
-5.332542 1.488461
-4.780253 1.456483
-5.190826 1.844866
-4.881680 1.860933
-5.078685 1.732193
-5.268544 1.767501
-4.718136 1.714117
-5.057998 1.673348
-4.594747 1.877767
-4.967012 1.759672
-4.632055 2.135837
-5.140607 1.947630
-5.098021 1.827868
-4.951526 1.976410
-5.017309 2.110539
-4.873277 2.032619
-4.857148 1.860898
-5.059125 1.855112
-4.764860 2.007666
-4.933156 1.884163
-4.626052 2.242138
-5.068077 2.222203
-4.949591 2.020639
-4.879345 2.116955
-4.832381 2.218740
-4.813929 2.021506
-4.693305 1.799112
-4.772021 2.212997
-4.863315 1.983730
-4.991899 2.177776
-4.406184 2.293246
-5.375865 2.527463
-4.990270 2.305430
-4.794700 2.177581
-5.029405 2.655316
-4.987580 2.377451
-4.796280 2.177671
-4.835889 2.571969
-5.106118 2.624650
-4.753040 2.296943
-4.980747 2.396069
-4.551144 2.268187
-4.749368 2.253119
-4.909227 2.513996
-4.519835 2.459891
-4.685075 2.125159
-4.850018 2.245541
-4.947291 2.158932
-4.812861 2.253911
-4.864818 2.610368
-4.530070 2.480094
-4.879449 2.471245
-4.822905 2.645559
-4.732016 2.712171
-4.482480 2.774308
-4.429061 2.422157
-4.776174 2.760631
-4.815805 2.257173
-4.878694 2.386944
-4.795390 2.730257
-4.981921 2.516963
-5.089547 3.141527
-4.843579 2.738070
-4.552162 2.434670
-4.871344 2.999781
-4.682227 3.012588
-4.582908 2.828738
-4.910371 2.800862
-4.639171 3.207171
-4.663903 2.197990
-4.608371 2.836577
-4.311385 2.826887
-4.631041 2.462344
-4.583929 2.733826
-4.403513 2.685894
-4.745519 2.568388
-4.716772 2.839046
-5.274746 2.525045
-4.560688 2.669303
-4.701671 2.773494
-4.532379 2.865053
-4.588184 2.695674
-4.369133 3.002472
-4.448890 2.844808
-4.718553 2.683086
-4.088868 2.810035
-4.497012 2.830682
-4.645197 2.978503
-4.363581 2.994525
-4.351803 2.956909
-4.270129 2.872926
-4.369774 3.141794
-4.329774 2.916231
-4.431491 2.791308
-4.460568 3.061336
-4.440083 3.022616
-4.423177 3.363320
-4.642522 3.085369
-4.398883 2.966519
-4.389793 3.260544
-4.197105 3.124507
-4.348925 3.243731
-4.449955 3.281200
-4.185498 3.269352
-4.521363 2.873173
-3.983698 2.922584
-4.344382 2.894868
-4.060697 3.144922
-4.375475 3.606357
-4.354952 3.051267
-4.173978 2.997532
-4.229486 3.458208
-4.285654 3.201483
-4.317099 3.077920
-3.974015 3.476174
-4.489318 3.404422
-4.482141 3.173533
-4.197917 3.422131
-4.281920 3.475790
-4.244096 3.487500
-3.964683 3.245126
-4.157922 3.522222
-3.659218 3.393865
-4.134372 3.395058
-4.337415 3.497509
-3.938528 3.576487
-3.858605 3.464624
-4.124145 3.376315
-4.041090 3.594304
-4.098397 3.312724
-4.224467 3.414757
-4.050777 3.608159
-4.072911 3.354134
-4.378527 3.423457
-3.998268 3.855926
-4.188565 3.912008
-4.257112 3.637175
-3.564114 3.697976
-3.929728 3.553935
-3.598781 3.907469
-3.655428 3.700600
-3.912997 3.514362
-3.993422 3.888366
-3.651077 3.311158
-4.005721 3.435441
-3.811718 3.557230
-3.431823 3.787684
-4.239109 3.613229
-4.048313 3.723663
-3.873454 3.788363
-3.880168 3.745086
-3.950553 3.811044
-3.781559 3.994921
-3.593156 3.605421
-3.841073 3.606260
-3.703278 3.571667
-3.792630 3.556127
-3.961794 3.703306
-3.710831 4.024407
-3.990113 3.663692
-3.956709 3.557890
-3.606305 4.124741
-3.706335 3.818755
-3.929361 3.842416
-3.455181 4.090242
-3.533442 4.238409
-3.577570 3.799542
-3.553870 3.694695
-3.632704 3.974806
-3.607621 3.878783
-3.729852 4.342196
-3.868158 3.874807
-3.748769 4.050566
-3.757399 3.904740
-3.578147 4.054276
-3.570310 3.998740
-3.514287 4.050366
-3.463016 3.882416
-3.689179 3.929819
-3.232767 4.005728
-3.503190 4.047555
-3.493744 4.133250
-3.527070 4.373770
-3.430438 3.891391
-3.176071 3.795361
-3.539831 4.278921
-3.172059 4.165448
-3.709145 4.404948
-3.598916 4.178019
-3.488575 4.313597
-3.363337 4.249818
-3.653918 4.201562
-3.294945 4.302524
-3.360012 3.966842
-3.382874 3.995238
-3.530483 4.029111
-3.176332 4.214662
-3.561136 4.261710
-3.607041 4.407433
-3.149105 4.401538
-3.342660 4.272277
-3.132183 4.558640
-2.871979 4.058046
-2.781866 4.452476
-3.023511 4.196242
-3.204389 4.215948
-3.691412 4.465143
-2.862214 4.001777
-2.993414 4.215889
-3.124094 4.332386
-2.776693 4.587779
-3.412781 4.083734
-3.327053 4.376896
-3.562110 4.135368
-3.068065 4.090131
-3.225920 4.548348
-2.914542 4.410818
-3.260169 4.569598
-3.138981 4.711810
-2.869445 4.581670
-3.077271 4.332977
-2.687729 4.525031
-2.829589 4.104215
-2.989098 4.450157
-2.650894 4.227247
-2.800314 4.521634
-3.035739 4.517320
-2.876394 4.303046
-2.479369 4.588036
-2.932969 4.563560
-2.929138 4.535548
-2.679551 4.615946
-2.619447 4.497490
-2.459338 4.404178
-3.002092 4.697218
-2.800467 4.461564
-3.217836 4.583525
-2.936249 4.603916
-2.865432 4.608431
-2.936380 4.767828
-2.660767 4.833354
-2.797081 4.663528
-2.937797 4.310841
-2.569357 4.860656
-2.422466 4.321901
-2.940277 4.547779
-2.210770 4.729559
-2.287966 4.451563
-2.045918 4.375427
-2.711651 4.774729
-2.292502 4.707182
-3.103239 4.815533
-2.715844 4.560982
-2.456075 4.558603
-2.828426 4.698145
-2.290571 5.120388
-2.803301 5.006329
-2.565659 4.958072
-2.409812 4.888890
-2.425524 4.696288
-2.203087 4.939079
-2.238593 4.533815
-2.474083 5.044021
-2.549618 5.082832
-2.196919 5.147119
-2.537448 4.609488
-2.322342 4.793384
-2.235289 4.790020
-2.280759 4.670117
-2.424583 4.818913
-2.366363 4.885947
-2.390623 5.103045
-2.122253 4.811196
-2.540253 4.723274
-2.430669 4.947301
-2.556751 4.829661
-2.309481 4.884935
-2.111360 5.071339
-2.189819 4.770169
-2.394382 5.109242
-2.255718 5.057990
-2.201125 4.887663
-2.426913 4.981958
-1.840904 5.092073
-1.929467 5.164357
-1.675093 4.972936
-2.294949 5.259239
-2.288608 4.999690
-2.164571 5.324009
-1.916700 4.682553
-2.218951 4.963553
-1.718222 4.663008
-1.885227 4.888572
-2.140525 5.094337
-1.787614 5.068117
-2.347942 4.794365
-2.090797 5.071197
-2.109929 4.866830
-1.995386 4.925325
-2.118208 4.920484
-1.925036 5.179306
-1.737927 4.766071
-1.807120 5.152805
-1.627550 5.126972
-1.430617 5.256955
-1.821106 4.772366
-2.080642 5.224540
-2.239773 5.072063
-1.811601 5.384082
-1.775263 4.779528
-1.678179 5.087012
-1.591215 5.224477
-1.965777 4.787248
-1.757204 5.085583
-1.717046 4.815117
-2.170704 5.031972
-1.739902 4.574873
-1.735768 5.049051
-1.631054 4.982632
-1.549865 5.225189
-1.804205 5.064887
-1.760126 4.881605
-1.515618 5.257896
-1.438879 4.967754
-1.394963 5.307008
-1.041767 4.762598
-1.876118 5.588227
-1.519694 5.649149
-1.424763 5.779479
-1.424824 5.041582
-1.343359 5.188767
-1.363365 5.063836
-1.114658 5.181666
-1.517908 5.225257
-1.482748 5.408677
-1.848545 5.841647
-1.166788 4.810446
-1.949892 5.114659
-0.899542 4.723978
-1.162232 4.953144
-1.442948 5.067172
-1.434977 4.890286
-1.412126 5.190204
-1.298332 5.195386
-1.645824 5.031502
-0.938680 5.169469
-1.230620 4.859464
-0.640372 5.229320
-1.004209 5.241814
-0.789017 5.195477
-1.634030 5.419808
-1.478400 4.649900
-1.257847 5.314342
-0.958633 5.128239
-0.830122 5.149410
-1.348805 5.162157
-1.321571 5.256608
-0.791642 5.393057
-0.938366 5.473013
-1.212850 5.091646
-0.782619 4.961425
-1.192063 4.977242
-0.584397 5.221804
-0.884009 5.481763
-0.738771 5.210554
-1.368742 5.606712
-1.048295 5.226501
-0.961930 5.258248
-1.024450 5.206846
-0.631026 5.466335
-0.857633 5.093794
-1.117919 5.574153
-0.572366 5.791222
-0.310874 5.256367
-0.433702 5.062441
-1.117218 5.556642
-1.436176 4.730554
-0.257645 5.194687
-0.673229 5.382277
-0.840631 5.313310
-0.640999 5.218053
-0.850608 5.299861
-0.347515 5.380144
-0.473201 5.196543
-0.090625 5.253440
-0.753986 5.334409
-0.851551 5.415930
-0.364215 5.568550
-0.360269 5.181397
-1.126341 5.313825
-0.126533 4.868995
-0.582835 4.919622
-0.223940 4.872645
-0.618781 5.262945
-0.006447 5.363819
-0.465748 5.304492
-0.315233 5.570154
-0.139677 5.398170
-0.232169 5.229513
-0.276485 5.296538
-0.214180 5.419588
-0.458097 4.972050
-0.379076 5.054055
-0.388960 5.479815
-0.152985 5.323293
-0.380883 5.479456
0.165148 5.648702
-0.444135 5.583318
-0.327752 5.433414
-0.343170 5.660631
0.179500 5.121357
-0.200633 4.968632
-0.168916 4.923323
-0.300076 5.467427
0.062299 5.451194
0.033813 5.706050
0.083561 5.233236
-0.465306 5.578574
-0.337445 5.326379
-0.106944 5.606062
0.187631 5.221626
0.164616 5.188581
-0.414908 5.796381
-0.600623 4.667572
0.547212 5.007782
-0.099914 5.507058
0.035703 5.530979
0.197473 5.486845
0.048988 5.143296
0.063696 5.390694
0.323618 5.182370
0.371718 4.937921
-0.543161 5.711262
-0.495903 5.198631
0.654621 5.054965
0.040721 5.912500
0.286936 5.768119
0.553478 5.525488
0.538803 5.259297
0.235435 5.183707
0.297009 5.567626
-0.189795 5.252125
0.178743 4.702329
0.340977 5.892563
0.786558 5.539385
0.822396 5.781997
0.084347 5.306607
0.427193 5.489723
-0.000809 5.003009
0.627450 5.074130
0.368570 5.160171
0.671432 5.180087
0.195060 5.278204
0.667014 5.923393
0.635036 6.002629
0.970398 5.051921
0.140179 5.021238
0.390192 5.066493
0.467146 5.283787
0.279511 5.528656
0.271807 5.019375
0.625199 5.359019
0.619133 5.513073
0.975455 5.376712
0.106619 5.740426
0.144607 5.202804
1.221110 5.515214
0.898825 5.062989
0.623750 5.334347
1.246748 4.905738
0.821356 5.049712
0.916967 5.130635
0.808870 5.477669
0.578818 5.241486
0.787534 5.380496
0.770419 5.261437
1.094330 5.326429
1.209129 5.703700
0.115363 4.913900
0.945436 4.779027
0.968531 5.356401
0.451097 5.497834
0.814534 5.053963
0.641077 5.347759
1.208883 5.123838
1.277282 5.179050
0.713458 5.183046
0.959447 5.451109
0.446897 5.241364
1.064658 4.914194
1.040007 5.319529
0.706767 5.622887
1.003721 4.736286
1.084375 5.074850
0.971457 5.043215
1.274641 5.508630
1.093848 5.491192
1.189223 4.857778
0.990961 5.046360
1.045736 5.194369
0.811930 5.040972
1.036927 5.248401
0.906584 4.912603
1.640427 5.198148
1.246957 5.059330
1.906560 5.543904
1.243070 5.309523
1.232797 5.163356
1.515827 5.241194
1.444194 5.065753
1.257370 5.063300
1.245204 5.197819
1.313435 5.312304
1.404318 5.383880
1.670861 5.482921
1.217183 4.832746
1.157814 5.083050
0.981772 5.064481
1.817651 5.310925
1.596632 4.732298
1.379428 5.209429
1.894218 5.146944
1.667146 4.631320
1.046382 4.964480
1.339393 4.976498
1.155592 5.103326
1.729060 4.728375
1.315241 4.968352
1.864353 5.183918
1.866979 4.609572
1.511789 4.643358
1.263152 4.978569
1.395107 5.196022
2.212137 4.825126
1.811872 5.453769
2.004954 5.037823
1.560950 5.005767
1.709359 5.460624
2.217098 5.265261
1.982599 4.397104
2.028380 4.703544
1.571634 5.070181
1.661731 5.115708
2.264636 4.769731
2.075075 5.478690
1.618282 5.117858
2.036660 4.574734
1.886861 5.011265
2.412565 4.680510
2.207874 5.089764
1.789756 4.848035
1.882778 4.972401
2.177408 5.045185
1.884925 4.929496
1.996491 5.342918
2.233263 5.217865
2.370468 4.727180
2.356652 4.826089
1.673389 5.454943
1.822046 4.244190
1.834944 4.704002
1.842683 5.027490
2.232882 5.112789
1.980745 5.181069
1.978398 4.904460
2.596645 4.992968
2.431972 4.569514
2.243214 4.713681
2.269348 4.780261
2.016690 4.437995
2.248653 4.666458
2.215010 5.297599
1.749752 4.814706
2.351731 4.721860
2.410753 4.965806
2.385873 4.894290
2.442497 4.509169
2.213568 4.611304
2.369578 4.536693
2.132746 4.547114
2.331591 4.745051
2.486780 4.833797
2.205597 4.515905
1.953189 5.169977
2.553122 5.102685
2.470382 4.764586
2.473397 5.062562
2.711470 4.820938
2.536775 4.661097
2.570323 4.762918
2.436948 4.728493
2.413263 4.688841
2.978649 4.753363
2.488098 5.430596
2.436417 4.562695
2.528290 4.600387
2.757380 5.340252
2.235397 4.930560
2.749826 4.593819
2.080725 4.404811
2.963488 4.385491
2.562010 4.402722
2.814363 4.630869
2.746966 4.510568
2.688143 4.635891
2.932548 4.520132
2.891667 4.629071
2.106908 4.822886
2.942335 3.721263
2.761941 4.263842
2.463946 4.547502
2.703874 4.771322
2.682110 4.766995
2.903528 4.230329
2.869633 4.535903
3.119869 4.351762
2.885380 4.159520
2.793221 4.292269
2.848920 4.712227
2.413107 4.321309
2.733298 4.536909
2.953625 4.582492
2.557197 4.630613
2.852079 4.430617
3.159810 4.557282
3.070825 4.489448
2.875679 4.133267
2.923194 4.243046
2.873282 4.453521
2.967385 4.425753
2.831340 4.725669
2.772489 4.309047
3.142567 4.292441
2.890955 4.418984
3.994107 4.616567
3.399442 4.314309
3.291784 4.231212
3.031654 4.255804
2.891839 4.048521
3.400757 4.407582
3.216413 4.260589
3.179282 4.427333
3.418951 4.401707
3.273948 3.910398
3.584389 4.105138
3.257532 4.287963
3.097564 4.135799
3.402286 4.129104
3.060061 3.721638
3.147560 4.233807
3.425850 3.924894
3.352747 3.999295
2.854210 4.469105
3.368581 4.465074
3.574019 4.191734
3.449417 4.509981
3.044312 3.938809
3.452291 3.815126
3.166856 4.090898
3.626744 4.241001
3.576764 3.689363
3.174518 3.965483
3.530925 4.213271
3.202573 3.316273
3.461190 3.666572
3.304493 4.514760
3.371039 4.064862
3.459920 3.891371
3.336904 4.045064
3.989208 3.871040
3.598333 4.143501
3.621209 4.052158
3.859917 3.674517
4.110894 4.077504
3.182846 3.807992
3.400394 4.624914
3.840457 4.274618
3.818957 4.036070
3.034517 3.411930
4.058568 3.793438
3.666909 2.943138
3.961359 3.517276
3.390932 4.032017
4.161147 4.236521
3.315788 4.163285
3.785132 3.810247
3.248794 3.649559
3.467828 3.791500
4.126028 4.188547
3.718396 3.836667
4.112590 4.495897
3.934251 3.613246
3.301568 5.254665
3.455732 3.879505
4.162509 3.452575
3.861899 4.073959
4.405347 3.781841
3.935850 3.642825
4.133664 3.843108
3.807939 3.844686
3.902096 3.742589
4.113883 3.673039
3.963586 3.768031
4.432806 3.764664
3.553426 4.020768
3.889267 3.871608
4.023959 3.888866
4.233518 2.970972
3.772250 3.254209
3.623312 3.725372
4.258721 4.150787
3.549727 3.909905
4.026388 3.288956
4.213727 3.613891
4.321592 3.137627
4.153997 3.580884
4.492067 3.330795
4.143435 3.518115
3.758926 3.490071
4.423977 3.276558
4.174364 3.058638
3.223436 3.643142
4.177362 4.124215
3.203919 3.322995
4.060097 3.223256
4.251578 3.641089
4.379428 3.383208
4.274465 3.235235
3.763282 3.241583
4.172902 3.262670
4.124722 3.186548
4.137607 3.177479
4.440815 4.262596
4.003936 3.456582
4.392128 3.306520
4.237658 3.057088
3.823246 3.448420
4.230078 3.389232
3.918238 3.363019
4.423987 3.269106
4.000694 2.802054
3.175038 4.083962
3.881744 2.549279
4.027993 3.101092
4.125943 3.351857
4.551435 3.336328
4.162774 3.377294
4.592787 3.356584
3.283833 3.176702
3.997731 3.245299
4.919727 3.626132
4.642501 3.059732
4.550499 3.169141
4.399130 3.043961
4.352778 2.775113
4.925038 3.277453
4.661379 2.961914
4.549749 2.877337
3.578691 3.261243
4.401887 2.758716
4.045324 2.891704
4.469915 3.088794
4.257685 2.523407
3.936797 3.067316
4.445055 2.808389
3.631997 2.731309
4.686207 2.392331
4.408339 2.647511
4.165234 2.815416
4.410598 3.290843
5.017085 2.959276
4.391469 3.082506
5.196214 3.479320
4.482881 3.018214
4.481095 2.253840
5.247132 2.741469
4.500756 3.097652
4.121689 2.399730
4.736748 2.590717
4.562852 2.702839
4.891070 2.755174
4.718938 2.722521
5.138423 2.882216
4.161874 3.108722
4.721639 2.618005
3.972738 2.633092
4.611718 2.586625
4.055631 2.284859
4.905604 2.213989
4.887235 3.312557
4.910601 2.799165
5.073471 1.964799
5.084279 2.411622
4.158628 3.018179
4.569611 2.213195
4.798869 2.373575
4.618775 3.312770
4.122110 2.376494
4.525495 3.077503
4.332832 1.461022
3.139407 2.783772
4.693145 1.833596
4.259883 2.136677
4.679704 2.165094
4.832740 2.685056
5.494537 2.129992
4.763617 2.440804
5.368682 2.583487
4.801328 2.685859
3.835109 1.188491
5.887299 1.874938
5.025482 1.601809
4.273508 1.801435
4.607393 1.954297
5.560161 3.221934
5.625850 2.033875
5.139081 2.411957
5.104345 2.078570
4.459365 3.374700
4.689249 1.819303
3.584437 2.914847
4.818607 1.760547
3.447418 1.974285
4.995166 1.369641
5.484398 2.540032
4.400283 2.519786
5.035551 2.083121
4.356139 1.908471
4.372212 3.630599
3.865351 1.501840
5.666604 1.363479
5.211371 2.661048
4.916005 2.043241
4.983535 2.029402
3.938168 1.484121
6.073074 1.040656
4.824860 1.087483
4.697172 1.679527
4.752900 2.012353
6.051060 2.500696
5.596536 1.336522
5.786275 2.998790
5.412401 1.815295
5.173649 2.754376
3.902314 1.273161
4.725412 2.397601
4.351902 0.117048
2.094040 2.119665
4.450429 2.278072
6.494747 2.625782
5.584306 1.490784
5.675077 2.158782
5.491655 1.498609
5.427447 3.616590
2.257818 0.790568
4.844067 1.529777
5.006643 1.780172
3.969274 2.252097
5.060950 1.154136
3.758531 1.349951
4.952498 1.745709
5.097985 1.659994
5.999902 1.158071
5.247861 1.507962
4.846316 1.397443
5.604569 0.205198
5.088433 1.426426
5.273876 1.307159
5.049229 1.846405
4.702512 1.966820
7.107537 -1.629335
2.466048 -1.884691
2.872092 1.886122
5.207990 3.107917
7.709565 1.295939
4.449751 3.293314
7.664117 3.264006
5.506155 1.573810
6.415938 3.078519
0.681330 1.594342
4.843676 3.292606
1.887244 -0.778922
2.752731 3.174217
4.438766 0.245341
5.983039 0.891242
4.219134 4.806499
7.787660 3.228811
6.890729 0.439127
5.697993 1.210043
-1.597753 3.179931
6.551664 -10.950268
2.198824 -0.989247
4.235082 1.130527
3.367759 -0.583693
9.154166 0.301302
5.789047 -2.126283
3.839632 0.027078
4.921118 0.986079
6.448880 2.386743
4.824103 1.022713
5.438377 2.070043
3.164646 0.154222
4.251051 1.996916
5.715685 1.660147
5.081678 1.024961
5.987518 5.276763
0.590883 0.032471
4.492337 2.210575
5.645858 1.092273
2.678091 1.952833
4.972734 1.668546
10.496919 1.773205
5.657518 1.068558
5.823987 0.937692
-3.617866 6.823675
1.737477 -13.085073
2.531482 0.134090
4.753561 1.036740
2.983748 -0.657116
8.530159 -1.566355
4.847203 -0.944802
8.348478 0.509726
5.797561 -0.719108
5.922961 1.003472
3.398384 2.964443
-0.779942 -16.063441
-2.733130 0.104952
3.764995 2.761751
4.490655 0.880357
9.864215 -3.239127
5.807338 0.015159
0.646748 0.653087
4.863898 2.084003
8.521393 1.395814
1.376537 3.351555
12.360999 14.258177
9.117333 0.443674
5.954418 0.273774
3.479251 -0.682018
-2.156673 9.781201
4.724385 -0.407651
-0.526233 2.231177
5.335041 0.822306
5.685839 0.400552
5.478574 -0.148533
2.254848 -2.890616
18.865771 -4.381446
5.498881 -1.939445
3.172478 0.787896
0.887818 13.947140
-75.854469 -94.796818
-17.250253 5.933979
3.094892 4.152051
6.516359 0.959651
14.652009 -20.413688
40.976349 35.571472
11.266824 -2.182184
6.637486 2.130525
2.566871 -1.129745
-0.297705 11.757935
8.803247 2.962402
-10.247948 9.364931
6.913753 7.726861
2.917177 -0.521592
5.469864 -6.703907
126.085062 92.155301
23.428762 -8.958673
5.944945 -5.371417
4.200460 0.250652
0.012336 31.272035
-242.044367 -161.814008
2.837555 -3.280321
3.415399 2.783134
-0.103028 3.104012
6.764284 11.519426
-314.286399 -179.324446
-13.641355 12.941622
3.396005 -1.038435
11.090699 -2.126173
4.521232 -3.623063
-1.884213 -3.633259
9.534226 -6.790137
4.835486 1.571923
8.621506 0.259340
6.956292 10.967281
-1083.539457 -423.032466
-11.622430 13.964125
6.285195 4.320674
2.558793 -2.026085
