11124.182393 9712.651582
-4415.243207 -4458.632008
-405.477370 729.104626
-521.532116 695.067858
-622.560278 -882.740312
-172.511112 14.793024
43.053747 -78.966552
28.987936 -192.596031
-35.578469 62.066726
-78.750025 -79.402741
10.256728 -22.093724
15.584730 -85.830703
4.940052 -1.074990
22.609356 1.460476
4.893724 3.092396
-9.122648 2.000078
-32.056241 -15.490343
33.484418 10.935884
-19.563041 -14.574864
-2.642010 2.037319
2.432152 17.717294
-24.504689 -8.035545
2.228128 -14.960805
-15.862987 8.384529
2.008276 -17.112591
2.824417 -1.965291
-10.515693 2.568175
-3.584312 -10.005114
1.675128 3.352424
-5.704827 -15.252990
0.438771 1.528699
6.817251 0.776154
-3.918828 -4.091318
-2.100483 2.242404
-2.274969 -1.905140
1.247072 -1.952355
-1.399219 -4.266000
1.997793 3.721584
-2.340618 1.006129
-2.380833 -1.553072
-2.564632 -1.647520
-4.885653 -0.768477
5.902173 -2.594059
-4.136485 -0.321395
-1.640622 1.174055
0.673666 -1.327482
-4.178015 -1.537091
0.452940 -4.083100
0.086347 1.045733
0.541478 -1.611429
-0.608148 -0.620972
-1.810842 0.020939
-0.584859 -1.538254
1.424202 -1.048920
-1.339126 -1.907154
0.762400 2.143193
-0.102148 -0.826476
-2.249351 -0.226060
-0.424790 0.113023
-0.798078 -0.780984
1.494334 -0.256358
-1.863369 -0.292106
-0.315089 0.765179
-0.531490 -0.262243
-1.490359 -1.404320
-0.737677 -0.917197
-0.054861 0.066776
0.459984 -1.400968
-1.524022 0.688108
0.013305 0.247666
-0.594730 -0.628789
0.292073 -0.234278
-0.313672 -0.994284
0.053489 1.240878
0.407080 -1.302257
-0.926161 0.379809
-0.731942 0.434554
-0.192165 -1.442223
-0.317404 0.059218
-0.794588 0.202520
0.280541 0.398761
-0.907125 -0.464012
-1.051136 -0.372504
-0.074289 -0.577604
-0.030806 0.096740
0.471847 -0.794246
-1.199689 0.584293
-0.272497 0.198012
-0.616452 -1.289896
-0.213754 -0.105560
0.214854 -0.208080
0.197576 -0.357489
-0.140040 -0.202649
-0.777854 0.099112
0.152585 -0.387367
0.029827 -0.363465
0.236293 -0.703934
-0.451000 0.144535
0.309993 0.391916
-0.813326 -0.813253
-0.305508 0.467646
0.170383 -0.358114
-0.210032 -0.024563
-0.272919 0.172934
-1.014902 0.360343
0.155403 0.071894
-0.088142 -0.785867
-0.185021 -0.036003
0.310175 -0.013968
0.200004 -0.002802
-0.274625 -0.327405
-0.467978 -0.115240
0.105715 -0.642052
-0.288430 -0.374281
0.106659 0.206119
-0.484102 0.062372
0.285671 0.087636
-0.227982 -0.126701
-0.350077 0.334661
-0.135376 -0.239195
-0.114436 -0.446178
0.188624 -0.032207
0.000917 0.089313
-0.178655 0.062042
-0.005821 -0.280335
-0.146654 0.097895
-0.014963 -0.336792
0.250895 0.017755
0.290008 -0.179044
-0.165529 0.049377
-0.166144 -0.626843
-0.293328 -0.530829
0.305655 0.175318
0.044097 -0.153829
-0.583794 -0.069666
-0.402840 -0.021523
-0.079609 -0.102407
0.169041 -0.358589
0.141956 0.319047
-0.006406 0.281577
-0.131755 -0.085934
0.044862 -0.205305
-0.499758 -0.126517
0.257702 0.159575
0.071299 -0.359828
-0.195966 0.219804
0.154069 0.180420
-0.058364 -0.500966
0.017757 0.005329
-0.116901 -0.144116
0.204255 -0.158646
0.044098 -0.186633
-0.068092 -0.100489
-0.396856 -0.135845
-0.070798 0.109939
0.079213 -0.297483
-0.029753 -0.049189
-0.265190 0.241636
-0.303358 0.103680
-0.096691 -0.060457
0.088667 -0.201938
0.134288 0.051410
-0.356918 -0.079018
-0.278952 -0.052226
0.081355 0.061629
-0.505883 0.118325
-0.172873 0.016618
0.321131 0.128189
-0.061498 0.190816
-0.413488 -0.402881
0.136528 -0.048836
-0.014778 -0.047129
-0.272557 -0.320156
-0.047109 -0.231738
-0.351578 0.021616
-0.049199 -0.138545
-0.300997 -0.207925
-0.100314 -0.030474
0.136391 -0.086527
-0.123058 -0.074127
0.146801 -0.452818
-0.412030 -0.044869
-0.180668 0.043485
-0.009584 -0.002910
-0.097652 0.067412
0.222319 -0.248695
0.227174 -0.113725
0.171455 -0.067782
0.108766 0.312838
-0.005048 -0.147614
0.009145 -0.210366
-0.033887 -0.305259
0.066408 0.131829
0.242407 0.452130
0.176385 0.002778
-0.110489 -0.119177
-0.051428 0.062288
0.064514 -0.578264
0.086907 0.089216
0.310663 0.185008
-0.306434 -0.260558
-0.328320 0.115388
0.572693 0.021257
0.152216 -0.031007
-0.072531 -0.091782
-0.032331 0.123146
0.080131 -0.267930
-0.221949 -0.129556
-0.432233 -0.031061
0.050821 0.162140
-0.437389 0.386292
0.136174 -0.199355
-0.157585 -0.120264
-0.085043 -0.269084
0.093522 -0.294489
-0.189988 0.097743
-0.513034 0.248109
-0.130734 0.055780
0.366797 0.084886
-0.113354 -0.229491
0.302253 -0.062976
0.210730 -0.015798
-0.434357 0.022067
-0.180039 -0.331974
-0.291470 -0.123084
0.059490 -0.232154
-0.218366 -0.238125
0.082421 0.118055
-0.118715 0.033788
-0.167959 -0.180098
0.063866 -0.108880
-0.110187 0.043825
0.046595 -0.406151
-0.050957 0.170419
-0.163832 0.020498
0.053248 0.370473
-0.066616 -0.070911
0.179470 -0.206750
-0.033130 -0.111783
-0.012644 -0.194167
-0.183368 -0.091645
0.170857 0.124719
0.159153 -0.003361
-0.062595 -0.422285
0.057740 0.138108
0.208298 -0.182837
0.232035 -0.131299
-0.328615 -0.069494
-0.106570 0.204423
-0.077800 -0.008878
-0.174962 -0.227713
0.087722 0.362763
-0.166897 -0.135576
-0.143285 0.391015
0.070128 0.005855
-0.247452 -0.121439
-0.201375 -0.262877
-0.185667 0.014377
0.039829 0.381450
-0.004381 0.163301
0.223565 -0.167962
-0.215449 -0.152702
-0.716109 -0.437388
-0.051736 0.015414
0.163046 0.327621
-0.230257 0.153869
0.110177 0.036016
0.130472 -0.052029
-0.053200 -0.321242
-0.388449 -0.266957
0.110738 -0.057486
-0.279881 0.328411
0.156689 0.427404
0.140846 0.135528
0.169639 -0.207574
-0.220309 -0.229050
0.181011 -0.244597
-0.048693 0.188536
-0.121697 0.441907
0.194536 -0.037265
-0.124353 -0.173043
0.532475 -0.189233
0.196347 -0.329798
-0.190327 0.022487
-0.218626 0.269008
-0.313304 0.039297
0.271031 -0.189432
-0.116144 -0.210312
0.321364 0.374236
-0.534848 0.154928
0.156297 0.033460
-0.227998 -0.021934
0.125866 -0.418599
0.072312 0.197289
-0.161498 -0.291745
0.196913 0.287709
-0.030397 -0.103746
0.051149 -0.051555
-0.111420 -0.264737
0.115619 -0.004737
-0.244405 0.319563
0.297230 -0.260169
0.087278 0.002993
0.085656 0.021538
-0.018000 -0.075773
-0.213165 -0.071744
-0.254933 -0.071032
0.135882 -0.161416
0.042925 -0.169457
0.202133 0.380798
-0.255452 0.203752
-0.020719 -0.031620
-0.112513 0.033690
-0.006435 -0.045638
-0.022933 -0.035337
0.146020 0.366138
-0.322299 -0.047471
0.116454 0.053296
0.008772 0.060667
-0.079868 -0.143559
-0.325653 0.133737
0.487786 -0.125613
-0.021574 0.087965
0.306123 -0.117946
-0.126544 0.079921
0.070574 0.209688
0.067160 0.048804
0.334740 -0.212203
-0.031210 -0.051385
-0.293276 -0.065116
-0.131767 0.237410
0.154899 -0.097750
-0.340532 -0.120343
-0.174071 -0.144376
-0.152450 0.062133
-0.058101 -0.218894
-0.089528 0.076322
-0.029675 -0.165446
0.076038 -0.234831
-0.150423 -0.103487
0.249176 -0.065951
0.125294 -0.277488
0.003541 -0.086231
0.165680 -0.166122
0.200048 0.066029
0.080210 -0.164244
0.151460 -0.083789
-0.031555 -0.081560
0.439630 -0.141570
0.185146 0.213526
-0.208301 -0.059544
-0.240130 0.002083
0.114720 0.139221
0.113704 -0.059779
-0.007634 -0.124724
-0.475318 -0.126533
0.257433 0.038267
-0.150422 -0.060238
-0.425296 -0.328766
-0.502835 -0.135875
-0.023729 0.215790
0.366806 -0.117763
-0.174799 -0.132621
-0.348981 -0.005605
0.021722 -0.074666
-0.081360 0.280127
0.130617 -0.190021
-0.348916 -0.232144
-0.033866 0.059380
-0.097284 0.073238
0.148544 0.218886
-0.023712 -0.099706
-0.169774 0.116412
0.483330 -0.261298
0.166034 -0.093706
0.032813 0.049885
0.001937 -0.023548
-0.051155 0.011152
-0.062124 0.385426
-0.389317 0.002914
0.075976 0.083759
0.004692 0.655235
-0.280847 0.111279
-0.184002 -0.281070
-0.391949 0.399982
-0.080242 0.134944
0.009193 0.017102
-0.333842 -0.228833
0.067480 -0.060302
0.210960 0.107255
0.531688 -0.202548
-0.221681 -0.261177
-0.186891 0.274486
0.404388 -0.517370
0.197167 -0.116376
-0.024585 0.016640
-0.100582 0.166464
0.167963 0.077216
0.305813 -0.023265
0.013751 -0.067653
-0.127170 -0.366210
0.011420 -0.071644
0.104577 0.053278
0.038563 -0.076402
-0.014325 0.027552
0.033560 0.022887
-0.092916 -0.174179
0.097864 0.237670
0.141273 0.089730
-0.193228 -0.373831
-0.221982 -0.229673
-0.287262 0.577876
0.123732 -0.009590
-0.294405 -0.240519
0.022165 0.059348
-0.195918 0.071084
-0.416072 -0.079437
-0.049880 0.279503
0.004180 -0.179608
0.438891 0.034055
-0.385015 0.063291
-0.082338 -0.034655
0.148970 -0.104346
0.068722 -0.017227
-0.280254 -0.021179
-0.245385 0.098549
0.078414 -0.213001
-0.057639 -0.093379
0.013837 0.170819
-0.226215 0.142856
-0.076941 0.251075
0.151218 -0.178621
-0.005579 -0.126777
-0.037778 -0.002473
0.303408 -0.279117
0.072377 0.139606
0.039446 0.038860
0.203708 0.332344
0.142172 -0.575336
0.372875 0.047423
0.159974 -0.005849
0.125570 -0.229487
0.305620 0.099952
-0.118166 0.018326
0.143503 0.057220
-0.336148 0.102785
0.032122 0.315928
0.184252 -0.031700
-0.165072 -0.103273
0.119680 0.196704
-0.061578 0.214379
0.032338 -0.210633
-0.095701 -0.030606
0.135914 -0.026825
-0.051505 -0.142245
0.045574 -0.123360
-0.046764 0.069115
-0.023223 0.218965
-0.010996 -0.195347
-0.489674 -0.008271
0.122184 0.179526
-0.208948 -0.255184
-0.227998 0.134498
-0.234187 0.451858
-0.315303 -0.191030
-0.171535 -0.272391
0.135922 -0.166770
-0.295131 0.041271
0.085244 0.164413
-0.036546 0.108093
0.108971 0.014555
0.587935 0.025485
-0.085797 -0.368211
0.061979 0.061628
-0.077811 -0.145118
0.191244 0.233290
0.089567 0.023217
0.229578 0.122677
-0.250181 0.088803
-0.079691 -0.034542
-0.038738 -0.062976
0.210773 -0.187603
0.288571 -0.348647
-0.101238 0.620169
-0.099369 -0.052529
-0.060487 -0.264532
-0.161183 -0.405046
0.189425 -0.306007
-0.308043 0.109179
-0.105175 0.005749
-0.254807 0.159056
0.176164 -0.333716
0.226707 -0.113547
-0.235742 0.096882
-0.338515 -0.535016
0.260196 0.522775
0.333883 -0.529209
-0.309739 0.204129
-0.080746 0.128239
0.296944 0.374095
-0.076437 -0.377813
-0.079958 0.091819
0.095610 0.062982
0.117169 -0.102349
-0.468272 -0.199551
0.076204 -0.158134
-0.084296 -0.302881
-0.467421 0.129825
-0.275011 0.317696
0.316679 0.069102
0.134766 0.099541
0.072195 -0.086627
0.167408 0.075395
0.019198 0.404326
-0.069356 0.068740
0.293884 0.219697
0.356153 0.020734
-0.165375 0.072383
0.103853 0.120676
0.347770 0.349741
-0.064870 0.059904
0.125931 -0.159443
0.510159 -0.041098
-0.037141 0.054354
0.266030 -0.223890
-0.501048 0.495249
0.822805 0.057919
-0.340519 -0.082587
-0.321552 -0.105889
0.084694 0.204261
0.125361 -0.179773
0.147333 0.153819
-0.301608 0.116478
-0.259658 -0.448513
0.042597 -0.149552
-0.086244 -0.594683
-0.492625 -0.537004
-0.202271 0.051484
-0.085467 -0.370474
-0.014727 0.107243
-0.096136 -0.247523
-0.223570 -0.336182
-0.120658 -0.528601
-0.192936 0.119219
0.033431 0.147195
-0.012538 -0.004252
0.168936 0.109789
0.246308 -0.009886
0.006732 -0.186430
-0.111993 -0.061507
0.110695 -0.191966
0.093809 0.113575
-0.417473 -0.091261
-0.107451 0.051747
-0.247757 0.227650
0.082588 -0.344521
-0.256522 0.558599
0.080223 -0.027434
-0.512764 0.114317
-0.218660 0.219857
0.026609 -0.027392
-0.009321 0.174148
0.332354 -0.198203
-0.468088 0.586350
-0.298127 0.378074
0.506291 0.043369
-0.158531 -0.016089
0.218124 0.042794
0.227413 -0.015051
0.307908 -0.122442
-0.055603 -0.091098
0.154155 -0.000861
-0.206013 -0.415347
-0.148464 0.098342
0.173734 0.082505
0.337837 0.061061
-0.029651 0.025553
0.143470 -0.631125
-0.037954 0.443665
0.191018 0.001320
-0.364596 0.007622
0.219822 0.110433
0.322883 -0.332427
-0.353768 -0.230268
0.130390 0.056313
0.074683 0.262400
0.441607 -0.423415
-0.049504 0.265044
-0.225005 -0.200535
-0.277556 0.039025
0.256823 0.175746
0.204879 0.390102
0.113260 0.047515
-0.506883 0.145603
0.110958 -0.068593
-0.187304 0.124679
-0.269964 -0.064744
-0.116747 0.362375
-0.484193 -0.356105
-0.154632 -0.101637
0.176870 -0.026891
0.012594 -0.046912
-0.229965 -0.251159
-0.067205 0.246827
-0.105327 0.148211
0.124906 -0.139894
-0.000864 -0.089890
-0.048493 0.254106
0.230585 0.257419
0.189917 0.125821
0.283887 0.056573
-0.507056 -0.255615
-0.064115 -0.041097
-0.013062 0.232880
0.194585 -0.146860
-0.022840 -0.025792
-0.026975 0.023500
-0.322891 0.063256
0.321567 0.460280
-0.273445 0.231789
0.529485 -0.459517
-0.252328 -0.172277
-0.005049 0.079914
-0.180926 0.209735
-0.031963 0.325214
-0.053873 -0.066905
0.036524 -0.120504
0.435814 -0.020171
0.141386 0.058015
0.109728 -0.005066
0.512381 -0.313005
0.194436 0.003687
-0.257107 -0.253242
0.147151 -0.110490
-0.081305 -0.354695
-0.072761 -0.111857
-0.078040 0.557183
-0.358600 -0.065526
0.048714 0.201586
0.069305 0.057445
0.129215 -0.179022
0.386582 -0.267196
0.124897 -0.174891
-0.062423 -0.043664
0.376893 -0.289392
0.053032 0.004719
-0.160069 0.009257
0.050679 -0.310864
0.342392 -0.121827
0.342422 0.106103
0.140826 -0.056756
0.322881 -0.238202
-0.172063 0.112988
-0.459228 -0.379543
0.111912 -0.140414
0.328192 -0.165959
-0.363391 -0.037789
0.375449 -0.034505
-0.228884 0.151914
0.262289 0.411393
-0.135999 -0.143508
0.121357 -0.353901
-0.399381 0.055771
0.119049 0.088961
0.135059 0.105601
-0.221990 0.319056
-0.025307 -0.033735
-0.676766 -0.017500
-0.522114 -0.047916
-0.009825 0.027745
-0.302377 -0.059034
-0.366035 -0.180604
-0.239700 0.463362
-0.068390 -0.226603
-0.161813 -0.130923
-0.433771 -0.120923
0.056088 0.234493
0.246923 -0.038030
0.177180 -0.325942
0.272071 -0.314722
-0.101961 -0.014156
0.104299 0.247409
-0.172859 -0.283168
-0.074369 0.206146
0.067371 0.139851
-0.279883 -0.209789
-0.176888 0.204972
0.037135 -0.028631
0.133721 0.054875
-0.047492 0.094830
-0.352405 -0.059363
-0.342785 0.116963
0.251666 -0.582284
0.407701 0.100534
-0.294099 0.121967
0.179482 0.326937
0.091402 -0.199258
0.053396 0.135151
0.120083 0.375790
0.304033 -0.091500
-0.173613 0.079906
-0.146884 -0.252644
-0.076610 0.033796
-0.092535 -0.169939
0.154162 0.062238
-0.306263 -0.439656
-0.288884 -0.131206
0.054854 -0.374551
-0.542224 -0.156807
0.013923 -0.143721
0.186904 0.237488
0.198864 -0.266758
-0.110184 0.227723
-0.015256 0.278136
-0.317675 0.135717
0.323973 -0.251302
0.380528 0.054734
-0.272703 0.315855
-0.143078 0.228040
-0.238142 0.211375
0.381057 -0.026719
0.299540 0.229204
-0.041199 0.250201
0.059613 0.054019
0.361539 0.261027
0.023089 -0.013896
0.198901 -0.042864
-0.123085 0.009849
-0.179845 0.006145
-0.220484 0.642615
-0.014069 0.018832
-0.239477 0.092255
-0.281243 0.005472
0.276449 0.109710
-0.654504 0.326110
0.295785 0.462117
0.531032 0.229424
-0.141865 -0.333817
0.220571 -0.110791
-0.143513 -0.292490
0.209440 0.229688
0.044907 0.488151
-0.348218 -0.404077
0.265199 -0.024153
-0.089930 -0.316212
0.184597 0.421885
0.228402 -0.218802
-0.221211 0.071765
0.097694 -0.538827
0.368892 0.207188
-0.207857 -0.066782
-0.074294 -0.199969
0.510685 -0.132608
0.156449 -0.078009
-0.490289 -0.208541
-0.042107 0.590359
0.071670 0.162576
0.163979 -0.115169
0.255063 -0.000531
-0.042900 -0.483276
0.337583 -0.248807
-0.057855 0.002894
0.133320 -0.137290
-0.425322 -0.421772
-0.150514 0.258786
0.023950 -0.513405
0.046301 0.052838
0.083672 -0.157222
0.264963 0.733230
0.131952 -0.385378
0.287460 0.297080
-0.297243 -0.176032
0.050786 -0.429461
-0.252060 -0.198296
0.188419 0.319164
0.190407 -0.120586
0.090976 0.344791
0.284470 -0.117142
-0.561374 -0.237078
0.082399 -0.210220
0.151911 -0.379777
0.084579 0.153277
0.012487 -0.197442
-0.078199 -0.311381
-0.089105 0.110935
-0.138239 0.217592
-0.080482 0.034820
0.233006 -0.054197
0.027680 -0.326520
-0.046860 -0.070887
0.259882 -0.529697
-0.426063 0.810463
0.030730 -0.120943
-0.256309 0.314796
0.049597 -0.184620
0.069307 0.039095
0.156837 -0.432744
0.201918 0.258255
0.229608 -0.273593
-0.154216 -0.206595
-0.153107 0.066846
-0.243067 -0.068586
-0.016998 -0.558606
-0.580042 0.104564
0.203112 0.390026
0.330145 0.392322
-0.204456 0.128567
0.031899 -0.309386
-0.151358 0.123428
-0.415502 -0.390989
-0.028118 0.282808
0.291176 -0.492006
-0.155006 0.256564
-0.196037 0.200067
-0.563581 -0.326667
0.239062 -0.174736
0.091154 0.280471
-0.105831 -0.105161
0.067098 0.550299
-0.767527 -0.415095
0.150350 0.250760
0.345826 0.110103
-0.373495 -0.176097
-0.501209 -0.033240
-0.457278 0.087119
-0.284243 0.447923
-0.285434 0.040468
0.511155 0.198036
-0.171897 -0.024718
-0.103898 -0.138460
-0.107757 0.386460
-0.022829 -0.306876
0.308136 -0.014144
-0.015901 0.034213
0.084933 -0.417002
-0.480508 -0.146216
-0.002817 0.108987
-0.142613 -0.176457
-0.014996 -0.063683
0.122110 -0.170524
0.124720 0.180164
0.108190 0.388496
0.019589 0.163495
0.264519 -0.295031
0.558291 -0.032808
-0.050344 0.409497
-0.133929 0.181165
0.293928 0.413616
0.097007 -0.275092
0.173429 0.313948
-0.152901 0.229338
0.124535 0.109360
0.148730 -0.031183
0.293416 -0.183776
0.132549 -0.394626
0.098145 0.209802
0.059087 -0.387652
-0.041261 0.064704
0.044714 0.222302
0.119632 -0.015175
-0.256286 -0.397247
-0.144843 0.284157
-0.105372 0.006108
0.094987 0.171097
-0.297518 0.355011
-0.222260 0.049320
-0.313797 -0.069130
0.298938 -0.399615
0.071265 0.124930
-0.228659 0.023740
0.308436 0.075040
0.102087 -0.469946
0.143830 0.235944
-0.010021 0.186415
0.212924 0.133712
0.179251 0.016120
-0.138298 -0.071415
0.548443 0.256927
-0.191411 0.114388
0.079498 0.112137
0.055082 0.027962
-0.159019 -0.035409
-0.149171 -0.054558
-0.722625 -0.029120
0.129304 0.244541
0.414836 0.204471
-0.073066 -0.302521
-0.054266 0.474095
0.009481 0.130818
-0.036517 -0.049313
0.118201 0.007389
0.106788 -0.203066
0.053262 0.144244
0.315431 0.054685
-0.045134 -0.396840
-0.222680 -0.047349
-0.102627 0.149656
-0.041990 -0.127744
-0.141184 -0.385239
0.144896 -0.346728
-0.168115 -0.489584
0.104694 -0.169587
-0.016925 0.114200
0.388912 0.004052
-0.278858 -0.383563
0.142683 -0.607376
0.368255 0.015180
0.541306 -0.238759
-0.008876 -0.383776
0.399005 0.155492
-0.211815 -0.101939
-0.344720 0.089814
0.125759 -0.149500
0.017940 0.328130
-0.226193 -0.192707
0.245146 -0.279371
0.007681 0.376494
-0.444899 -0.023111
0.073581 -0.307881
-0.583669 -0.047450
-0.018656 -0.186042
-0.111409 -0.069326
0.005114 0.355556
0.221256 0.228700
-0.043505 0.114604
0.347202 -0.094508
-0.051988 -0.082928
0.117487 -0.092183
-0.152720 -0.384741
0.034989 -0.046241
-0.075114 -0.021029
-0.519852 0.160762
-0.388019 -0.047220
0.019142 -0.105040
0.053656 0.222631
-0.438908 0.108964
0.201804 0.343609
-0.131400 0.158542
0.191512 0.110292
0.017169 -0.196762
-0.327909 -0.001918
-0.492449 -0.045796
0.078632 0.128153
0.036591 0.365183
0.408789 -0.107188
-0.585488 -0.079370
0.050765 -0.093731
-0.098797 -0.054727
0.372148 -0.063873
0.173501 -0.047866
0.074550 -0.065158
-0.327666 0.030361
-0.146892 0.591795
-0.070006 0.087080
0.268802 -0.110385
-0.183326 0.229742
-0.148287 0.228791
0.307939 0.166041
-0.252646 0.120890
0.016411 -0.302422
-0.157708 0.076249
0.099686 0.028721
-0.041844 0.123352
-0.131578 -0.376662
0.306163 -0.022328
0.018165 0.034239
0.220756 0.104345
-0.290208 -0.117870
-0.263782 0.097355
-0.009023 -0.479189
0.133944 0.226807
-0.174076 0.259056
0.500649 -0.133862
-0.209482 -0.855396
-0.208640 0.217884
0.211763 -0.083371
0.098431 -0.106895
-0.042056 -0.131171
0.322148 -0.239139
-0.202125 -0.040025
0.066530 0.029916
0.158637 0.182014
0.246153 -0.050780
0.259349 0.156122
-0.768087 0.014904
0.041985 -0.116583
-0.064456 0.026098
0.231660 0.207553
0.030299 -0.055460
0.122026 0.020854
-0.352731 -0.256490
-0.332180 0.042220
0.044972 0.122871
-0.319324 -0.227612
-0.183655 0.243114
0.106089 0.167164
-0.390278 0.665309
0.313569 -0.107158
-0.000618 0.222301
0.002216 0.084032
-0.203562 0.053229
-0.015498 0.336288
0.419857 -0.179270
0.009907 0.070254
0.110635 -0.049764
0.265621 0.293879
-0.214755 -0.082073
0.508016 -0.108260
-0.165532 -0.207390
0.517263 -0.100506
0.233668 -0.093074
-0.256774 -0.137537
0.201469 0.065774
0.000687 -0.368822
0.132164 0.103693
-0.086344 0.513256
0.214501 0.186195
0.422090 -0.115910
0.007870 0.192948
0.393467 -0.225837
-0.038856 0.012844
-0.080557 -0.020801
0.251059 0.413754
-0.146646 0.122409
0.151705 -0.396239
-0.093467 -0.386089
-0.210097 -0.267802
0.018922 0.097765
-0.382246 -0.027362
-0.259313 -0.380643
-0.323441 0.278253
-0.287885 -0.074327
-0.075358 -0.286284
-0.370255 -0.519180
0.142513 0.033277
-0.344547 -0.102173
-0.044399 0.022926
-0.353613 -0.346934
0.186988 -0.756569
-0.519342 0.086260
0.242100 0.016051
0.015915 -0.339779
0.012976 0.508748
-0.031690 -0.126998
-0.007881 -0.026803
0.172147 0.000961
-0.299054 0.462813
0.118337 0.282559
0.275808 0.082354
-0.298674 -0.021706
-0.361564 0.088279
0.314460 0.377770
-0.055645 0.077503
0.153033 0.114351
0.491095 -0.094542
0.210472 -0.235732
-0.218326 -0.268712
0.011053 0.012914
0.395902 0.010735
-0.000721 -0.403895
-0.333608 0.578734
0.302206 -0.280218
-0.074165 0.384030
0.096515 -0.135052
0.092641 0.212293
-0.010608 -0.160192
-0.106579 0.365042
0.001963 -0.246250
0.374121 -0.383684
-0.129524 0.201461
-0.249252 0.447629
0.186012 -0.040952
-0.054214 -0.173401
0.265559 -0.207878
-0.051679 -0.189719
-0.043191 0.005241
-0.382417 -0.068903
0.103165 -0.230993
0.057832 0.214865
-0.212740 -0.168556
-0.215950 -0.092691
-0.279526 -0.112696
0.456249 -0.069829
0.213480 -0.216020
-0.475868 0.420894
0.267001 0.290026
-0.387787 0.010605
0.139409 -0.386134
-0.084550 -0.122911
-0.029127 -0.057903
-0.101185 0.460899
-0.430737 0.189595
-0.134470 0.301863
0.262287 -0.165869
0.186321 -0.339828
-0.045281 0.460858
0.124476 0.099552
-0.230769 -0.065918
0.321232 0.164261
0.006597 -0.011370
0.099691 0.226120
-0.121133 -0.269180
-0.171921 0.169996
-0.027330 -0.060314
-0.034563 -0.429075
-0.244655 0.247376
-0.130359 -0.273425
0.048050 -0.413196
-0.384279 -0.179307
0.174884 -0.098792
-0.074168 -0.157499
-0.004898 -0.164165
0.133936 -0.033293
-0.191166 0.030366
0.255232 -0.255568
0.042989 0.098551
0.238420 0.128951
0.320058 -0.246736
-0.278325 -0.054726
-0.129334 0.106739
0.121356 -0.237534
-0.136386 -0.371349
-0.076123 0.215799
-0.090982 0.075698
-0.052883 0.051878
0.136913 0.027872
0.004730 0.318910
-0.223703 -0.169985
0.119704 0.074389
-0.082741 -0.056556
0.064164 0.347909
0.066869 0.358733
0.159460 0.122672
-0.032638 0.110387
-0.242605 0.074810
0.141702 0.140640
-0.003233 -0.255463
0.167519 -0.009095
-0.047696 0.359796
-0.299592 0.093342
-0.212953 -0.178698
-0.012573 -0.246673
0.027527 0.189741
-0.033888 0.165193
-0.167626 0.275394
0.341494 -0.302351
0.047533 -0.083857
-0.067631 -0.158107
0.017227 0.348483
0.055427 -0.131007
0.327773 -0.062238
-0.134417 0.095098
-0.101332 -0.649374
-0.195201 0.043658
0.205843 0.242615
0.049597 -0.322282
-0.213213 -0.063228
-0.048615 -0.161272
0.109219 0.021247
0.191572 -0.464688
-0.000921 0.046197
0.079674 -0.215285
0.052825 -0.412688
-0.130623 0.688003
-0.039913 0.122139
0.250532 -0.157589
-0.075280 -0.107752
-0.131116 0.161916
-0.017551 0.266661
-0.207628 -0.089823
-0.126592 -0.303822
-0.412558 0.495565
-0.118582 0.031627
-0.058669 0.132980
-0.189502 -0.119552
-0.237631 0.115191
0.371540 0.262224
0.071968 0.061922
-0.347500 -0.018067
-0.112351 -0.031502
0.157669 0.340008
0.039126 0.013032
-0.218046 -0.337969
0.268720 0.046841
0.158880 -0.179755
-0.190794 -0.174020
-0.045840 -0.494421
-0.030567 0.170241
0.045188 -0.313063
0.035400 -0.163999
0.352116 0.415892
0.255403 -0.024355
0.094059 0.340253
0.177869 0.149510
0.078575 -0.410588
-0.052776 0.304225
0.303283 0.432680
0.040846 0.250023
-0.216874 -0.123696
-0.467803 -0.237096
0.111801 0.347177
0.149472 0.012346
0.199363 -0.409902
-0.185135 -0.294369
-0.014658 -0.062662
0.079117 -0.091327
-0.133530 -0.445791
-0.099492 -0.426928
0.239924 0.024213
0.037134 0.115192
0.255907 -0.334063
-0.120917 -0.225617
0.138977 0.018033
-0.018968 0.002004
-0.001515 -0.132364
0.006571 -0.174574
0.173241 0.161238
-0.034193 0.096907
-0.040070 0.046776
-0.158492 0.083097
-0.064555 -0.156471
0.017036 0.172302
-0.103338 0.101874
-0.014530 0.136227
-0.265794 -0.146242
-0.200361 0.242229
0.290879 -0.143033
-0.062803 0.027401
-0.122412 -0.079463
-0.028027 0.011240
-0.219937 0.020769
0.064513 -0.123409
-0.070032 -0.206419
0.056177 -0.169343
-0.636442 -0.018883
-0.128313 0.303738
0.079566 -0.330233
-0.048970 -0.106255
-0.408653 -0.052022
0.157726 0.188075
-0.350805 0.013526
0.146792 -0.264244
-0.023728 -0.153881
0.311268 0.253836
-0.234718 0.148159
-0.095889 0.044724
-0.038359 0.076792
0.073155 -0.135075
-0.057328 -0.044233
0.122170 0.090721
-0.136685 0.227281
0.022129 -0.179812
-0.035058 0.077912
-0.014473 0.016814
-0.127343 -0.261316
0.333846 -0.306166
0.019680 -0.027131
0.214945 -0.083328
-0.106299 -0.004607
-0.320363 0.372633
-0.215858 -0.286946
0.356215 -0.088437
0.052867 -0.019782
0.272409 -0.040324
-0.458385 0.280761
-0.054084 0.053357
-0.100103 0.014187
-0.272699 -0.468120
0.536838 0.155231
-0.276009 -0.214686
0.050912 0.600176
-0.400086 -0.084448
0.115096 -0.172662
0.114303 -0.094933
0.027044 -0.117950
-0.097004 0.556203
0.019607 -0.227733
0.019032 -0.088954
0.002889 -0.461382
-0.138418 -0.293377
-0.149944 0.111364
-0.249729 0.213462
0.017705 0.049928
-0.049911 -0.076074
0.308055 0.184656
0.114910 -0.416891
-0.320237 0.057472
-0.093386 0.196322
-0.102788 0.410242
-0.177631 0.286275
0.568476 0.045145
-0.052818 -0.036986
-0.072807 -0.351903
0.025188 0.115393
-0.239825 0.135137
-0.392989 0.226878
0.218089 0.082315
0.130170 0.133860
0.209507 0.110534
-0.068550 -0.536589
0.004301 -0.211815
-0.518282 0.203509
0.007631 0.436583
0.240270 -0.298436
-0.218019 0.058794
0.117559 -0.356495
-0.102984 -0.190501
0.096123 0.188713
-0.037697 0.124296
0.021616 -0.160719
0.130087 -0.104119
-0.191346 -0.102050
0.434568 0.009715
0.136204 -0.218190
-0.133868 -0.150381
-0.110289 -0.045049
0.030817 -0.315911
-0.142114 -0.019464
0.169931 -0.230004
-0.038609 0.097164
-0.172007 0.165025
0.398533 -0.156242
-0.194590 -0.351431
0.071183 -0.017083
0.018839 0.400171
-0.195281 0.032021
-0.016654 0.385618
0.266519 -0.129324
-0.220867 0.056995
0.047658 -0.105468
0.015273 -0.003812
-0.217484 0.176099
0.069257 -0.164662
-0.093735 -0.050156
0.051531 0.050583
0.155148 -0.147584
-0.087341 -0.168411
0.094723 0.016882
0.011993 -0.204279
0.023360 -0.308382
-0.212976 0.349847
-0.318317 -0.081479
-0.461616 0.009755
0.015801 0.273909
-0.058571 -0.146127
0.342185 0.258478
0.177673 -0.507246
-0.507734 0.215181
-0.246833 -0.242861
0.014009 -0.391894
-0.234722 0.025633
0.264891 0.182891
0.516493 0.042754
-0.287132 -0.351230
-0.350672 -0.033296
0.225956 -0.466124
-0.433431 -0.147989
0.004314 -0.454968
0.134630 0.135823
-0.361142 0.314992
-0.017563 -0.305175
-0.032582 -0.460655
-0.070192 -0.318834
0.301267 0.120376
0.056626 -0.279057
-0.175957 -0.059852
-0.210148 0.077373
-0.080482 0.123193
0.046684 -0.076721
0.173592 0.075488
0.203410 -0.146861
-0.427107 0.019548
0.029149 -0.024613
-0.119810 0.164725
-0.052157 -0.145919
-0.072648 -0.122929
-0.271275 0.401671
0.348055 -0.025086
0.010666 0.240471
0.139818 0.048147
0.140897 -0.292522
-0.067834 0.075027
-0.195722 0.108833
-0.005920 0.332637
0.045291 0.001322
-0.389495 -0.001047
0.213233 -0.259669
0.164456 0.252369
-0.204562 -0.040061
-0.466410 -0.343184
-0.090654 0.468617
-0.383746 -0.525272
-0.325755 -0.269496
0.070192 0.161215
-0.261311 0.250298
-0.111307 0.193977
-0.204435 -0.402754
0.099101 -0.144352
-0.171218 -0.145557
0.239698 -0.458557
-0.073321 -0.163558
-0.391779 0.495575
0.144665 -0.368963
-0.150037 -0.201922
0.433438 -0.163901
-0.034158 -0.096406
-0.029142 0.187689
-0.149468 -0.075172
0.128451 -0.231001
-0.292822 -0.479547
-0.133766 0.018056
-0.098390 -0.227237
-0.028647 -0.183980
-0.032212 0.009712
-0.670027 -0.065162
0.039377 -0.073815
-0.291133 -0.463318
0.200088 0.094830
0.082880 -0.301739
0.049877 0.274121
-0.189755 -0.012295
-0.714461 -0.287670
0.302953 -0.120139
0.132196 -0.057968
0.230238 0.202810
-0.191155 0.300527
-0.101362 -0.080586
0.054706 -0.728976
0.012453 -0.150635
0.432388 -0.005922
-0.167962 0.380443
-0.470833 -0.683717
-0.813766 -0.231656
0.050612 0.043343
-0.112931 -0.520480
0.010566 0.183227
-0.064602 0.105043
-0.538708 0.307021
-0.219036 -0.490036
-0.392899 -0.439197
0.541903 0.041199
-0.329748 -0.139666
0.361269 0.128307
-0.388854 0.128867
0.010497 0.410656
-0.341708 -0.334442
-0.128923 0.128909
0.518870 -0.409689
-0.153343 0.288246
-0.259422 -0.165106
-0.732407 -0.435813
-0.068455 0.074200
-0.494088 -0.548695
-0.081950 0.131236
-0.208206 -0.159926
-0.555082 0.279963
-0.057105 -0.382765
-0.265005 0.122833
0.792257 -0.531956
-0.370382 -0.313383
0.190224 0.775563
-0.291929 -0.400776
-0.115128 -0.060865
-0.286802 -0.690954
0.004032 -0.420227
0.556805 -0.196162
-0.511634 0.226650
-0.160393 0.262764
-0.347994 0.132103
-0.469606 -0.625649
-0.493340 -0.866369
0.573697 0.811154
-0.000821 -0.267933
-0.655949 0.778270
-0.732099 -0.393586
-0.733282 -0.603930
0.523724 -0.500525
-0.682614 -0.189117
0.217888 0.486936
-0.533222 -0.256159
-1.052245 -0.545038
-0.275693 -0.973337
0.583143 0.077826
0.975236 -0.787972
-1.235268 0.436342
0.077217 0.003563
-1.180602 -0.648038
-0.074189 -0.602973
-0.647518 -1.395732
0.639906 1.115603
-0.122698 -0.225417
-1.851855 0.474234
-0.298952 -0.142197
-0.510109 -1.401157
0.595367 -1.265108
-0.494418 -0.182261
0.594425 0.324009
-0.952153 -1.217609
-0.943227 0.087148
-0.605740 -1.720744
0.550813 -0.301087
0.641421 -1.246736
-1.512405 0.964585
1.079647 0.520581
-1.429474 -1.686196
-0.749752 -0.952404
0.480713 -1.054713
0.710048 0.489705
-0.484060 -1.739613
-1.553363 2.241767
-1.095155 -1.416266
-1.344294 -2.600268
0.797447 -0.928853
-1.554602 -0.651997
2.769672 0.926155
-3.788206 -1.164456
-3.329611 0.104305
1.076889 -3.298546
-1.615697 -1.549987
2.055732 -2.652921
-1.072175 2.975985
-0.284830 -0.184628
-4.009203 -4.632319
-0.851109 -0.291399
0.201395 -3.241510
3.232694 0.097521
-2.220158 -0.578013
-5.335407 4.691097
0.728518 -5.450106
-6.204373 -3.714419
0.980568 -2.234677
1.268914 -1.572752
0.921011 4.735061
-11.034561 -7.468286
-3.492049 2.481736
-0.993898 -9.447693
-2.446955 -12.486010
7.747115 1.955645
-9.346134 6.418184
5.544085 -9.004998
-20.149573 -0.884634
-6.408691 -8.790582
16.162994 -17.228843
-4.034607 11.177685
-10.523561 -12.129249
-9.366464 30.405876
-24.978585 -31.104874
-24.995144 -47.730667
16.871031 14.546893
4.061965 -32.616658
3.343300 13.170927
-92.561781 9.239213
-39.581677 -56.569034
48.189913 -137.037281
-72.696674 -76.195908
201.085862 188.580222
-192.703472 158.513534
-4.810867 -59.845546
-2216.674179 -549.945532
102.198687 -293.367210
