10177.310399 10135.014630
-7093.761235 -253.202078
72.993415 -50.738168
174.983614 -48.209383
23.368249 2.790548
-190.011673 38.907910
-12.261141 -50.724117
-677.438822 321.599229
13.521952 -48.272915
64.393744 -13.872461
20.362706 -7.673737
-8.283969 11.691432
21.908491 -25.936582
-12.847014 -106.767356
35.190895 -11.595988
52.820956 -24.428965
15.148181 -6.262132
1.477201 4.979008
2.348324 -18.790653
-25.670894 51.662287
0.914442 -17.514950
17.779306 17.075936
16.333844 -18.023541
1.987353 -30.464601
16.663326 -19.322975
-29.783227 -5.356813
8.889279 -23.778171
11.240734 11.296396
12.663460 -12.460742
20.252627 -3.897856
5.604451 -14.403366
5.047708 1.110324
15.320500 -19.436408
11.748603 -24.226932
18.092889 -14.773097
6.070017 -9.963736
13.125066 -18.370772
1.970699 -11.330324
14.367287 -17.037514
24.812821 -16.105050
16.060502 -9.525200
8.577547 -13.612690
12.360626 -13.494448
13.950301 -10.510219
15.031149 -14.501379
14.418850 -9.218847
10.168890 -12.831129
11.405779 -9.342363
8.561841 -17.258343
7.330156 -8.589382
13.092860 -13.016952
18.941401 -13.299810
11.339935 -14.390217
9.977829 -11.478793
12.232792 -15.917503
14.312319 -16.297758
10.208463 -12.958325
12.178480 -10.973769
9.719856 -16.297407
7.626825 -13.755829
10.247302 -16.729369
12.252501 -10.875838
11.199074 -15.564930
13.454985 -17.158386
12.576618 -15.736725
9.521246 -12.999787
12.292556 -14.674642
10.623420 -16.370318
10.979760 -14.248062
14.371500 -11.009730
9.204988 -15.495115
10.302091 -15.240743
9.682919 -14.434656
13.964575 -13.888368
10.520464 -14.720205
8.967883 -16.100130
10.434164 -16.290789
10.861110 -13.799797
9.138075 -17.152368
10.171379 -15.851234
10.132478 -14.865782
12.131439 -15.592232
8.531253 -15.229313
7.809546 -14.204795
10.328946 -15.795378
12.045120 -16.069794
9.486345 -16.640100
8.126505 -15.220409
8.486372 -17.384607
10.337906 -16.266012
8.898170 -16.098932
9.809026 -14.652690
9.839842 -14.460593
10.146290 -17.543932
9.233911 -15.824462
8.804522 -15.203051
9.065228 -16.505797
10.193271 -17.790848
8.061357 -15.824295
8.159288 -15.321168
7.297968 -17.189417
8.784991 -17.027456
8.560587 -15.602342
8.110716 -16.739797
8.053690 -16.659565
7.494179 -16.968142
7.703863 -17.503907
8.232465 -16.327655
5.996181 -17.015274
7.511708 -17.546339
5.791912 -16.797705
8.241789 -16.685539
5.817555 -17.149697
6.696093 -17.405047
7.144207 -17.413866
8.004004 -16.900340
6.642885 -18.158746
5.924630 -16.699281
5.492058 -18.021108
7.186866 -16.757494
6.314895 -16.070777
5.449100 -17.818322
6.334527 -16.633120
6.240692 -16.494386
5.736421 -17.316697
5.099372 -17.002696
5.219475 -17.040129
5.826886 -17.897013
5.069135 -17.770791
4.535422 -17.492638
5.295691 -17.589777
5.145939 -17.710057
4.824449 -16.640824
4.255528 -16.998600
5.051724 -17.722139
4.382841 -18.223660
4.336863 -17.271916
4.078884 -17.261394
4.540674 -17.755396
4.171094 -19.044884
3.541221 -17.045216
4.462348 -17.404549
3.815390 -18.467210
3.631392 -18.494381
4.054326 -17.427708
4.157838 -17.788496
3.371158 -18.103538
3.673017 -17.929129
3.881824 -17.509536
3.271566 -18.222287
2.359074 -17.096990
2.945873 -17.578679
2.229759 -18.051511
2.669076 -18.061534
2.436769 -17.124022
3.204142 -17.718671
2.668370 -17.861307
2.304441 -18.245684
2.754164 -18.002606
2.590881 -17.319280
2.208362 -18.220102
1.315842 -17.456468
1.680754 -17.009313
1.615617 -16.740011
1.519849 -17.506896
1.690645 -17.934787
1.449829 -17.173647
0.709383 -18.446175
0.990262 -18.202639
0.891813 -18.370616
1.639067 -17.377191
0.856272 -17.625364
0.868248 -17.205893
1.140868 -17.863348
0.749510 -16.760437
0.778462 -18.131975
0.071967 -17.737529
0.367982 -17.645129
0.155364 -18.031737
-0.317260 -17.673323
-0.290064 -17.292234
-0.231108 -17.674418
-0.544070 -17.541654
-0.200218 -17.338644
0.013231 -17.719898
-0.338602 -17.950566
-0.965842 -17.207899
-0.238735 -16.970307
-0.801749 -17.951164
-1.255830 -17.506239
-1.017302 -17.274225
-0.866530 -17.413092
-1.526377 -17.409857
-0.579694 -17.452222
-1.662389 -17.290310
-1.895013 -16.345953
-1.514909 -17.113644
-2.001040 -17.203780
-1.825187 -16.837576
-1.499310 -16.643493
-1.365771 -17.208487
-2.009507 -17.551748
-1.903829 -16.921840
-2.865116 -16.716550
-2.268499 -16.979944
-2.914087 -17.787479
-2.681630 -17.127983
-2.618025 -17.183495
-2.804302 -16.832579
-2.996030 -16.768342
-3.449629 -17.317930
-2.834163 -17.000733
-3.370380 -16.280709
-3.165515 -17.679895
-3.530918 -16.517140
-3.290606 -16.745972
-3.383450 -16.780969
-3.350793 -16.249705
-3.629641 -16.971588
-3.703038 -16.625462
-3.793368 -16.319460
-3.605129 -16.262187
-3.982896 -16.442316
-4.266302 -16.056905
-4.068786 -16.456918
-4.052745 -16.233592
-4.446907 -16.853874
-4.180763 -16.237159
-4.389275 -15.927289
-4.456173 -16.343387
-4.445947 -15.841735
-5.498291 -16.237237
-4.853355 -16.290806
-4.975536 -16.323448
-5.325997 -15.650617
-4.851211 -15.670334
-5.008929 -15.897653
-4.987450 -15.942831
-5.185742 -16.071018
-5.378637 -16.727463
-5.987635 -15.523016
-5.804870 -15.696898
-6.126509 -15.320108
-6.510473 -15.511445
-5.881371 -16.065691
-6.292548 -15.458789
-5.927305 -15.843792
-6.028801 -15.342319
-5.794654 -15.719752
-6.022702 -15.128065
-6.744144 -14.467039
-6.046169 -15.149131
-6.557137 -15.697335
-6.534683 -15.313277
-6.788313 -15.144847
-6.943361 -14.939782
-7.255075 -14.683759
-6.814825 -14.880758
-7.202493 -14.895318
-7.303913 -14.334665
-7.403219 -14.403182
-7.711419 -14.406891
-7.674673 -14.647421
-6.989751 -14.243316
-6.823344 -14.043956
-7.099735 -14.519215
-8.164650 -14.385693
-7.831503 -14.569294
-7.536326 -13.977924
-7.715728 -14.097660
-8.255410 -14.178965
-8.211390 -14.190892
-8.262847 -14.380723
-8.306140 -14.282304
-8.540368 -13.428032
-8.301158 -13.765621
-8.751274 -13.909190
-8.442959 -13.921066
-8.071010 -13.373344
-8.322254 -13.218852
-9.250889 -12.787209
-8.272096 -13.336491
-8.904671 -13.534743
-8.238600 -12.967164
-8.535879 -13.534136
-8.733065 -13.293285
-9.282351 -13.140947
-9.034444 -13.232259
-8.626099 -13.166829
-9.701650 -12.640031
-9.323982 -13.131071
-9.018382 -12.326954
-9.658619 -12.688323
-9.390333 -12.900072
-9.742999 -11.820137
-9.157562 -12.250726
-8.917849 -12.503468
-9.956908 -12.134517
-10.171786 -12.415299
-9.134666 -11.731375
-9.840757 -12.091566
-10.531631 -11.506349
-9.707362 -11.690614
-9.688317 -11.792805
-9.466550 -11.909152
-10.228581 -11.850839
-10.036583 -11.638217
-10.390206 -11.707517
-10.295965 -11.285383
-10.320156 -11.215405
-10.412699 -11.178211
-10.355025 -11.070093
-10.923962 -10.959182
-10.643815 -11.115349
-10.297787 -10.578130
-10.934878 -10.898233
-10.212027 -11.246743
-10.797186 -10.287330
-10.492851 -10.669996
-10.897838 -10.216439
-11.044106 -10.124909
-10.789893 -10.301141
-9.903650 -10.303034
-11.384495 -10.884252
-11.120126 -10.798434
-10.991368 -9.992271
-11.269949 -10.410816
-11.308902 -9.821681
-11.442056 -10.265825
-10.860555 -8.958586
-10.809980 -10.102288
-11.529538 -9.371875
-11.409142 -10.251370
-11.648341 -9.614819
-11.813836 -9.396528
-11.778065 -9.267544
-11.370749 -8.714527
-11.323170 -8.808175
-11.444939 -9.330760
-11.054596 -8.940285
-11.989413 -9.365580
-11.572435 -8.759803
-12.236189 -8.630717
-11.669442 -8.474836
-11.655678 -8.134084
-11.803068 -8.728981
-12.006822 -8.256672
-11.841081 -7.770187
-11.927009 -8.441845
-11.924444 -8.308752
-12.336827 -8.450161
-11.837000 -7.830214
-11.734226 -8.130320
-12.451524 -7.921206
-11.826877 -8.226820
-11.868701 -7.614478
-12.217708 -7.863840
-12.212395 -7.215598
-11.828597 -7.405280
-12.288626 -7.554275
-12.238151 -7.317561
-12.301431 -7.129040
-12.799002 -6.933682
-12.749451 -6.708292
-12.448674 -6.519137
-12.340123 -6.978270
-12.592469 -7.382224
-12.606025 -6.765523
-12.222201 -6.684707
-12.434894 -6.946902
-12.028097 -6.881789
-12.571149 -6.476637
-12.102974 -6.383675
-12.211106 -6.570641
-12.422838 -6.036809
-12.641859 -6.128884
-12.818149 -5.610432
-12.227280 -5.786878
-12.405097 -6.176906
-12.562167 -5.829470
-12.652454 -5.949401
-12.610945 -5.379858
-12.242397 -5.925651
-12.531329 -5.302704
-12.442986 -4.897098
-12.911496 -4.995052
-12.361666 -4.526585
-12.313218 -5.606458
-12.705513 -5.098187
-12.685552 -4.667495
-12.874673 -4.494182
-12.480580 -4.730710
-12.625481 -4.685598
-13.017143 -4.557999
-13.056243 -4.493060
-12.232007 -4.608459
-12.577366 -4.871007
-12.196740 -4.881355
-12.846029 -4.248846
-12.200314 -4.367393
-12.635910 -4.098198
-12.183458 -4.030002
-12.424457 -3.962481
-12.391985 -3.384259
-12.580887 -3.085940
-12.897967 -3.667279
-12.581724 -3.566460
-12.693022 -3.395912
-12.584739 -3.026465
-12.685483 -3.551477
-12.562461 -3.005253
-12.987428 -3.288953
-12.455866 -3.087614
-12.813854 -3.404361
-12.309358 -3.291290
-12.078619 -3.292655
-12.646911 -2.655201
-12.181146 -2.503206
-12.408265 -2.381960
-12.092526 -2.239473
-12.426011 -2.580966
-12.054093 -2.398988
-12.337406 -2.406338
-12.208464 -2.487420
-12.531495 -2.158940
-12.570092 -1.597583
-12.433397 -2.101432
-12.379936 -1.654746
-12.135604 -1.691679
-12.419496 -1.898078
-12.417309 -1.826263
-11.916246 -1.902995
-12.308089 -1.610224
-12.665653 -1.379547
-12.355223 -1.480050
-12.284407 -1.967517
-12.287370 -1.802269
-11.895132 -1.496771
-11.809593 -1.009289
-11.950786 -1.011533
-12.005304 -0.994129
-11.551505 -0.974987
-12.182238 -1.083262
-11.849745 -0.326900
-11.913927 -0.781805
-11.809109 -0.885731
-11.947104 -0.262697
-12.090544 -0.388875
-12.105702 -0.766458
-12.432310 -0.807619
-12.144435 -0.243228
-11.988071 -0.129339
-11.745014 -0.188888
-11.693846 0.004257
-11.437203 -0.031624
-11.306428 -0.034781
-11.518658 0.158590
-11.622480 0.232068
-11.710837 0.094387
-11.346842 0.191745
-11.323415 0.486824
-11.326012 0.520259
-11.109964 0.865721
-11.039058 0.222007
-11.319523 0.340967
-10.576575 0.461784
-11.596996 0.826228
-11.248752 0.808428
-11.271631 0.852692
-11.191295 0.805389
-10.984292 0.848359
-10.892955 0.673103
-11.146949 0.962772
-11.234624 0.981544
-11.037419 1.451822
-10.852487 1.200696
-11.196236 1.217883
-10.563747 1.480491
-10.849024 1.508560
-11.038362 1.497662
-10.760181 1.635574
-10.828354 1.445264
-10.728049 1.741752
-10.628211 1.645842
-10.272602 2.144837
-10.840352 1.331662
-10.459193 1.904010
-10.245565 2.163642
-10.782662 1.865091
-10.082061 2.066831
-10.865159 2.196141
-10.339598 2.032791
-10.399608 2.301218
-10.147072 2.466973
-10.328325 2.112078
-10.302952 2.261661
-10.389375 2.661360
-9.857799 2.438391
-10.404634 2.458043
-9.642189 2.347798
-9.808242 2.556485
-10.420524 2.451092
-9.614470 2.518904
-10.330260 2.542373
-10.353343 2.844512
-10.020218 2.931207
-9.690980 2.816638
-9.077257 2.786547
-9.965605 2.627873
-9.656743 2.930142
-9.410215 2.675898
-9.678286 3.353974
-9.164705 3.219364
-9.551078 3.032410
-9.451440 3.258833
-8.840212 3.161013
-9.329685 3.090015
-9.444142 3.487452
-9.119180 3.476379
-9.279428 3.252447
-8.904099 3.098154
-8.845241 3.805185
-8.514429 3.795495
-8.989248 3.337363
-8.909084 4.044982
-8.354151 4.162342
-8.610557 3.702284
-8.939886 3.348938
-8.627778 3.990386
-8.650794 3.457634
-8.274849 3.456134
-8.469785 4.046724
-8.299970 3.435417
-8.458526 3.791779
-8.056131 3.906462
-8.418941 4.509958
-8.639282 4.251967
-8.326528 3.867196
-7.948405 3.685824
-8.090053 3.832772
-7.884618 4.140670
-8.294955 4.119313
-8.214177 3.756328
-7.679228 4.220961
-7.494299 4.095110
-7.310491 3.584557
-7.656836 4.040048
-7.720372 4.358825
-7.307831 4.645225
-7.913322 4.556063
-7.840934 4.589172
-7.091659 4.249239
-7.350887 4.285123
-7.257282 4.378981
-7.002197 4.645166
-7.260176 4.217858
-7.603436 4.881090
-7.077788 4.429427
-6.859988 4.775838
-6.866386 4.626629
-7.496391 5.173044
-6.816878 4.242462
-6.891746 4.170349
-6.642779 4.542414
-6.669139 4.991242
-6.535557 4.397058
-6.980357 4.878818
-6.224471 4.680749
-6.523630 4.788823
-6.565177 4.848525
-6.546649 4.699545
-5.931498 4.833918
-6.282038 4.806248
-6.027751 5.262726
-6.101546 4.822064
-5.872473 4.465946
-6.221543 4.946468
-5.761610 5.122600
-5.994358 4.965490
-6.284151 5.089273
-5.609020 4.966139
-5.903324 5.038737
-5.671648 4.920557
-5.940649 5.041971
-5.482599 4.924462
-5.460747 4.926405
-5.457580 5.461375
-5.437886 5.088187
-5.861813 5.042044
-4.989638 4.845439
-5.647589 5.039282
-5.410138 5.106633
-5.328440 4.994068
-5.225812 4.970464
-5.339354 5.091842
-5.391504 5.099866
-4.851854 5.068048
-5.100428 4.889926
-5.065518 4.592846
-4.892216 5.244639
-5.228408 5.052955
-5.188387 5.041047
-5.000324 4.958908
-4.524815 5.205989
-4.584089 5.506326
-4.660886 5.157291
-4.734340 4.686945
-4.765813 4.880799
-4.528308 5.606146
-4.242423 4.545073
-4.970897 5.313627
-4.228604 5.280863
-3.965214 4.924823
-4.557964 5.148553
-4.052172 5.024126
-4.318378 5.449673
-4.297609 4.630761
-4.456483 4.704549
-4.335668 5.268143
-4.130844 4.916884
-3.960734 5.051569
-3.690326 5.260467
-3.520092 4.671171
-3.976397 5.101612
-4.081952 5.273773
-3.342686 5.033826
-3.760130 4.939314
-3.331152 5.005843
-3.254443 4.928879
-3.366715 4.731239
-3.423493 5.222286
-3.095601 4.931074
-3.427898 5.073513
-2.974141 5.034309
-3.175355 4.740033
-3.545328 4.903947
-3.437460 4.994083
-3.078195 4.725656
-2.680779 4.798254
-2.984193 4.650276
-2.672571 4.901627
-2.954259 4.857483
-2.993151 5.229066
-2.933126 5.263475
-2.946228 4.549910
-3.155301 4.830110
-2.836275 4.543552
-2.706223 4.756911
-3.023239 4.994332
-2.547369 4.819733
-2.672844 4.528148
-2.747247 4.558528
-2.777640 4.293745
-2.360844 4.253233
-2.176579 4.342854
-2.586613 4.553151
-2.652947 4.693116
-2.945974 4.417195
-2.324746 4.737352
-2.187411 4.497148
-2.503448 4.361082
-1.907270 4.527105
-2.007147 4.222185
-2.140003 4.389628
-1.970273 4.322601
-2.135585 4.370891
-1.762592 4.223249
-1.919608 4.315552
-2.105685 4.386570
-1.627767 3.962723
-1.921482 4.147619
-1.824102 4.350324
-1.764802 4.212491
-1.912919 4.339833
-2.045790 3.895882
-1.531789 4.223614
-1.427320 3.922027
-1.398848 4.117053
-1.550689 3.497330
-1.620489 4.131023
-1.350767 4.417512
-1.670689 4.094495
-1.253300 3.905071
-1.469151 4.311066
-1.045805 4.083006
-1.011855 3.835409
-1.455947 4.124618
-1.450032 3.961656
-1.275966 3.799955
-1.565626 3.424012
-1.329332 4.181691
-1.027238 3.846811
-1.617531 3.807881
-1.218765 3.290792
-1.238537 3.486393
-0.914255 3.862959
-1.123950 3.375257
-1.124961 3.516664
-1.223021 3.234801
-1.314978 3.818140
-0.977489 3.335214
-1.105525 2.967540
-0.810819 3.715067
-0.822051 3.162850
-1.229075 3.394167
-0.806648 3.700490
-0.877761 3.283443
-0.849711 2.872456
-1.011674 3.250059
-0.848139 3.095623
-0.668161 3.057626
-1.127617 3.051271
-1.151545 3.313327
-0.654794 2.740266
-0.424650 2.717929
-1.094638 2.861156
-0.845113 2.979643
-0.805899 3.269081
-0.725158 2.772621
-0.544407 2.771511
-0.636968 2.654323
-0.499607 2.713177
-0.732283 2.718639
-0.710260 2.770600
-0.516167 2.474461
-0.674657 2.478656
-0.545020 2.455732
-0.395043 2.807990
-0.356268 2.627406
-0.477509 2.845612
-0.475159 2.475918
-0.423820 2.447315
-0.629852 2.011310
-0.931644 2.590317
-0.739040 2.548125
-0.271257 2.176366
-0.762647 2.364685
-0.494580 2.163215
-0.800710 2.327329
-0.183290 1.985089
-0.632301 2.470175
-0.351794 2.110848
-0.604968 1.682614
-0.462708 2.005692
-0.485021 2.040562
-0.796723 1.664157
-0.465340 2.070285
-0.705665 1.661226
-0.291073 1.717697
-0.245045 2.056227
-0.589281 1.808120
-0.745246 1.825632
-0.155387 1.676102
-0.294730 1.751036
-0.321741 1.645987
-0.106806 1.774646
-0.237822 1.934140
-0.195181 1.971727
-0.242757 1.606380
-0.464390 1.239775
-0.545843 1.688094
-0.448244 1.695071
-0.506625 1.392669
-0.311214 1.669474
0.157754 1.158261
-0.464940 1.796612
-0.732835 1.297990
-0.271669 1.170515
-0.475051 1.439722
-0.449846 1.135837
-0.161328 1.076755
-0.363637 1.523902
-0.290160 0.936995
-0.374118 1.349879
-0.037303 1.080928
-0.450822 0.778965
-0.275676 0.940824
-0.401731 0.725656
-0.452074 1.438361
-0.471213 1.277880
-0.568002 1.063293
-0.598144 1.196603
-0.282977 0.607333
-0.891554 0.592377
-0.807619 0.519334
-0.771905 0.570832
-0.632539 0.110008
-0.635209 0.438003
-0.195615 0.163940
-0.962135 0.704552
-0.639104 0.392690
-0.853340 0.227374
-1.127913 0.581498
-0.768606 0.394370
-0.603877 0.540765
-0.627693 0.494436
-0.664053 0.671631
-1.060769 0.331550
-0.448223 0.269111
-1.002930 -0.136055
-0.626077 0.778695
-0.925790 0.397727
-0.917333 -0.116120
-0.823457 0.249533
-0.878632 0.374893
-0.525845 0.021631
-0.930934 0.448258
-0.943368 -0.040979
-1.233134 -0.530321
-0.887371 0.015447
-1.082356 0.255934
-1.082269 -0.394350
-1.122411 0.147249
-0.668792 -0.095936
-1.508162 -0.615095
-1.194687 -0.036404
-0.780918 -0.352365
-1.171152 -0.369757
-0.866924 -0.202452
-0.799774 -0.575627
-1.251142 -0.820902
-1.129625 0.134833
-1.691502 -0.025099
-1.330571 -0.395784
-1.064096 -0.084850
-1.121738 -0.336210
-1.425555 -0.226998
-1.107733 -0.471569
-1.189205 -0.098780
-1.467581 -0.157509
-1.520217 -0.360806
-1.542313 0.018384
-1.937910 -0.344888
-1.589956 -0.710243
-1.867562 -0.256006
-1.741299 -0.863283
-2.062109 -0.808696
-1.609150 -0.178712
-1.943030 -0.979305
-1.604173 -0.124176
-1.644649 -0.755387
-1.623630 -0.407302
-1.354426 -0.975563
-1.794761 -0.737834
-1.734155 -0.442325
-1.888244 -0.125352
-2.080860 -0.650909
-2.166682 -0.665260
-1.815434 -0.988316
-2.116786 -0.826425
-1.822836 -0.579015
-1.786764 -1.197891
-1.988611 -1.315989
-2.736628 -0.614723
-1.931311 -0.586679
-1.984882 -0.989562
-2.340601 -1.063493
-2.099593 -0.912250
-2.107549 -0.917597
-2.163062 -1.344973
-2.536658 -1.043676
-2.346642 -0.846916
-2.116396 -0.988172
-2.501835 -1.456693
-2.541352 -0.891465
-2.276525 -1.561926
-2.478311 -0.997830
-2.726093 -0.613904
-2.260688 -0.971012
-2.314106 -0.808817
-2.570515 -1.109590
-2.669819 -1.157110
-2.317341 -0.892926
-2.836022 -0.922779
-2.842421 -1.476082
-3.089511 -1.104754
-3.104372 -1.220575
-2.636555 -1.054408
-3.224340 -1.471982
-2.815074 -0.663886
-2.916285 -1.270455
-3.296065 -1.046622
-3.249014 -1.222523
-3.476541 -0.881994
-2.902322 -1.256421
-3.432998 -1.077353
-3.268363 -1.404147
-3.453887 -1.131514
-3.191238 -1.116183
-3.346973 -1.039550
-3.409311 -1.068378
-2.873358 -1.058019
-3.340335 -1.252738
-3.135003 -1.019646
-3.382111 -0.793892
-3.364457 -1.217863
-3.743766 -1.429783
-3.567052 -1.240882
-3.459145 -0.796462
-3.951121 -1.272741
-3.816009 -0.709135
-3.707156 -1.354364
-3.993673 -1.122643
-3.454570 -1.075452
-3.920736 -1.078903
-3.983318 -0.920456
-3.925487 -0.950923
-4.051009 -0.912075
-4.354313 -1.274061
-4.301419 -1.329175
-4.122626 -1.064023
-4.081607 -0.446006
-4.288610 -1.151892
-4.025607 -0.969370
-4.165587 -1.015039
-4.460276 -1.152832
-4.183976 -0.869661
-4.413299 -0.978393
-4.216020 -0.528244
-4.793278 -0.841238
-4.721304 -0.394220
-4.190358 -0.973445
-4.822425 -0.446200
-4.424405 -0.250613
-4.947597 -1.045895
-4.898860 -0.884369
-5.140276 -0.670921
-4.972389 -0.695177
-4.717408 -1.025352
-4.780838 -0.352301
-4.740406 -0.742392
-4.915221 -0.750486
-4.885488 -0.726437
-4.991857 -0.960125
-5.306482 -0.937117
-5.111158 -0.680722
-5.161486 -0.292492
-5.145992 -0.521275
-5.372353 -0.741293
-5.164578 -0.789338
-5.459551 -0.625142
-5.698182 -0.533495
-5.052042 -0.755340
-5.751349 -0.792880
-5.721987 -0.336749
-5.168284 -0.444235
-5.602599 -0.244068
-5.538035 -0.033340
-5.686203 -0.339943
-5.939673 -0.320147
-5.167230 -0.503233
-5.323405 -0.161272
-6.016449 -0.481347
-5.596576 -0.324551
-5.324061 0.056212
-5.892479 -0.545484
-6.293874 -0.362673
-6.252714 -0.150935
-5.678707 0.037070
-5.896250 0.579746
-5.400169 0.382855
-5.716812 -0.075815
-6.259748 0.197282
-6.333949 0.028225
-6.265494 0.190489
-6.158247 -0.371142
-6.385461 0.450128
-6.126818 0.783725
-6.152649 0.379215
-6.792393 0.211389
-6.273900 0.574105
-6.096077 0.141137
-6.726809 -0.023978
-6.602053 0.349124
-6.589688 0.346040
-6.510250 0.567488
-6.658685 0.756412
-6.666843 0.791670
-6.644385 0.557385
-7.111580 1.038326
-6.750523 0.543161
-7.016150 0.735499
-7.433920 0.954071
-6.796190 0.502175
-6.742374 0.472695
-7.390739 1.016737
-6.218989 1.369565
-6.799982 1.080670
-7.235115 0.487438
-6.781064 1.433320
-6.746356 0.840211
-7.690422 0.988057
-6.799825 1.431597
-7.084991 0.917480
-7.006191 1.183343
-7.103252 1.414309
-7.218287 1.265954
-6.921478 1.455754
-7.104738 1.516429
-7.443154 1.288708
-7.032522 1.660673
-7.233723 1.197970
-7.342235 2.121225
-7.130975 1.734139
-7.265140 1.935993
-7.134951 1.563913
-7.861843 1.750185
-7.163155 2.226501
-7.557717 1.890408
-7.319380 2.081157
-8.002245 1.887506
-7.163997 2.334087
-7.104909 1.874720
-8.408303 2.211411
-7.808156 2.457359
-7.447994 2.497806
-7.549137 2.391005
-7.998218 2.673430
-7.637722 2.491880
-7.894268 2.479250
-7.842098 2.137811
-7.708038 2.650193
-7.768487 2.273171
-8.129512 2.987903
-7.939018 2.993301
-7.556607 2.592581
-7.811221 2.888500
-7.813794 2.988287
-7.683775 2.833894
-7.610059 2.431870
-7.992388 3.189026
-8.215126 3.240562
-7.753994 3.521084
-8.471079 3.091616
-7.692382 3.172572
-8.126007 3.540364
-7.956895 3.777949
-8.110282 3.624528
-8.146767 3.707680
-7.686219 3.125984
-7.857266 3.571852
-8.187593 3.588473
-8.009371 3.872401
-8.360433 3.580528
-8.208256 4.398917
-8.061579 4.052281
-8.031930 4.157152
-7.919757 3.588303
-8.226465 3.701361
-7.880017 3.678561
-7.881632 4.526782
-8.530338 3.783596
-7.879433 4.176529
-7.975900 4.677197
-7.664702 4.957652
-7.976131 4.530464
-8.169365 4.063376
-8.154038 3.994854
-8.107157 4.534892
-8.406373 4.472162
-7.824487 4.429019
-7.911798 4.654085
-7.647839 5.114724
-7.821810 4.770588
-8.409094 4.521288
-8.215279 4.560088
-7.906391 4.924273
-8.042042 5.223023
-8.238387 5.750278
-7.925891 5.267877
-8.244610 5.023905
-8.264891 5.258594
-8.036762 5.512989
-8.000090 5.529502
-7.980782 5.708649
-7.890796 5.667887
-8.411874 5.576676
-8.151406 5.943510
-8.430317 6.053715
-8.455672 5.790914
-8.151316 5.836212
-8.008080 6.275070
-7.881888 6.428051
-7.952780 6.037892
-7.880192 6.081466
-7.931209 6.933145
-7.510724 6.762887
-7.745115 6.616120
-8.314079 6.784451
-7.701242 6.362319
-7.978312 6.585081
-7.517099 7.259652
-7.481213 6.592689
-7.621066 6.673833
-7.708065 6.899764
-8.162652 6.939840
-7.196069 7.017467
-7.908924 7.431171
-7.299446 7.655952
-7.154344 7.058660
-7.843348 7.033045
-7.333010 7.490224
-7.376704 7.020549
-8.234183 7.183309
-7.322254 7.509883
-6.991927 7.514104
-7.276541 7.639722
-7.322371 7.676060
-7.314260 7.428350
-7.206717 7.832262
-7.569325 8.037075
-7.422689 8.106682
-6.919736 8.196260
-8.085055 8.308714
-6.724860 8.106255
-6.839851 8.714773
-7.149696 8.625593
-7.086357 8.116808
-7.051330 8.384212
-6.857742 8.612117
-6.815689 8.711676
-7.221024 8.637692
-7.085745 8.895907
-6.946055 9.006326
-6.872977 9.148181
-7.217546 8.796269
-6.885040 8.986084
-6.819423 8.784749
-6.734903 9.235038
-6.868690 8.834812
-6.881204 8.802809
-6.947020 9.086052
-6.665220 8.933808
-6.841024 9.787084
-6.517556 9.442516
-6.701331 9.361654
-6.510764 9.371808
-6.556711 9.468530
-6.257473 9.596270
-6.940451 8.808109
-7.011649 10.034368
-6.233808 9.809271
-6.108100 9.883281
-6.472469 10.112532
-5.989183 10.482668
-5.816479 10.112718
-6.124296 9.908323
-6.633595 10.084176
-6.510807 10.752747
-5.967708 10.065977
-6.201157 10.733801
-6.339830 10.873497
-5.557043 10.276219
-5.725566 10.279831
-6.070895 10.249360
-5.323845 11.077037
-5.943305 10.697549
-5.873442 10.868824
-5.914981 10.954809
-5.273911 11.177316
-5.011590 10.784465
-5.391416 11.054482
-5.468320 10.992413
-5.974199 11.284864
-5.618625 10.880932
-5.665321 11.475926
-5.452353 11.490798
-5.106443 11.447609
-4.807169 11.233623
-4.923389 11.205099
-4.175795 11.480040
-5.285677 10.921794
-4.933208 11.607893
-4.605294 11.271352
-4.551530 11.413094
-4.817787 11.529985
-4.559729 12.328225
-4.266336 12.295093
-4.306954 12.229109
-4.266412 12.291973
-4.312548 12.078643
-4.670015 12.150898
-4.491996 12.071555
-4.054143 12.509137
-4.516385 12.784732
-4.191623 12.959063
-4.097257 12.383756
-4.337988 12.107807
-3.889133 12.579962
-3.862206 12.182381
-3.893589 12.253170
-3.651548 12.906592
-3.873923 12.146843
-3.764895 12.396711
-3.647239 12.835460
-3.132784 12.281514
-3.401313 12.405872
-3.095508 12.325501
-3.111733 12.660347
-3.167946 12.963455
-3.400728 13.039695
-3.421977 13.784169
-3.189097 13.604516
-2.971420 13.019493
-2.918679 13.294804
-2.929010 13.502268
-2.715961 13.208045
-3.730812 12.909742
-2.612343 13.440846
-2.392297 13.405000
-2.369338 13.142455
-3.038442 13.348377
-1.204294 13.854146
-1.880577 13.068910
-2.121590 13.636300
-1.872535 13.410129
-1.747823 13.962673
-1.551127 13.751535
-1.765519 14.309132
-1.591210 14.051121
-2.517532 13.376777
-1.815776 13.934804
-1.655999 13.523237
-1.495849 13.512331
-1.530064 13.856907
-1.539241 13.982568
-1.400085 14.220217
-0.503291 14.120254
-1.462904 13.471424
-1.075800 13.985307
-1.640471 14.532062
-0.713330 14.205511
-0.922322 13.988288
-0.973432 13.847860
-0.435973 14.365102
-0.710788 14.185074
-0.272715 13.586346
-0.409341 13.598031
-0.488582 14.389708
0.081811 14.232793
-0.298564 14.142491
0.439640 13.947335
0.181534 14.421878
0.133264 14.790922
0.334338 14.619443
0.585213 14.609813
0.490881 13.915346
0.577831 15.355540
0.349638 14.716407
0.668542 14.151044
-0.075474 14.556176
0.694230 14.270016
0.597252 14.896335
0.849978 14.729411
1.535280 14.888522
1.415387 14.847439
0.875503 13.850232
1.654617 14.585091
1.012480 15.058019
1.342531 14.810246
1.855857 15.235980
1.279289 14.915953
2.637762 14.284201
0.732003 14.423945
2.078637 15.024905
1.970985 14.950452
1.768364 14.865096
1.626432 14.357735
2.326420 14.876403
2.842544 14.717870
1.741200 14.543387
2.287969 15.122141
2.396315 14.773560
2.297364 15.406976
2.567956 14.916341
3.012737 15.086668
3.750518 14.853041
2.986026 15.015270
2.927172 14.096242
3.675671 14.421388
2.724826 15.020565
2.789117 15.370821
3.816408 15.453041
3.996433 15.106369
3.666144 14.373320
3.344237 15.114434
3.419078 14.611838
4.286981 14.403144
3.217139 15.204914
3.572856 15.336095
4.615755 15.173386
4.167284 15.292046
4.068263 15.189603
4.626359 15.485843
4.711803 15.084489
4.525704 14.601956
4.599058 15.327683
4.979901 14.632778
5.084365 14.754200
4.609651 15.196581
4.900903 15.297929
5.679356 14.953585
5.455362 14.812834
5.031391 15.290093
6.049733 14.480017
6.095377 14.916155
5.071321 14.725389
5.538869 15.017147
6.311002 15.011238
6.056656 14.554109
6.869951 14.949161
5.966151 15.364436
6.208402 13.959264
6.169350 14.488806
6.499739 14.788577
6.664415 14.229660
6.864139 14.823113
6.316575 14.594484
7.547193 13.725657
6.941299 14.316775
6.890656 13.953902
7.133595 14.335461
7.125892 14.567901
6.659487 14.411770
7.434421 14.332871
6.991511 14.424215
7.242877 14.064148
7.356659 14.892198
8.037474 14.460644
8.236806 14.051587
8.384039 14.023588
7.803633 14.375077
7.945651 14.057845
8.824843 13.817053
7.883549 14.279867
8.247256 14.237886
9.361091 14.066495
8.521057 13.870961
8.152337 13.570604
8.460377 13.989631
8.917802 13.737250
8.752512 14.050557
8.974038 13.854902
8.502437 14.104223
10.041696 13.922551
8.874976 13.897539
9.374470 13.403781
9.678221 14.134591
9.982191 13.320316
9.647416 13.627128
9.836959 13.405410
10.222161 13.154589
10.126408 13.725989
9.493949 13.556102
9.762422 13.205653
9.791427 12.687976
10.058976 13.083421
10.230597 13.243345
9.777430 13.101057
10.555575 13.832724
10.800634 13.609693
11.195640 13.062451
10.538044 13.566028
10.999036 12.801320
10.106351 12.406352
10.972307 12.641869
10.979176 12.866076
11.358824 13.253225
11.483922 12.942667
10.717012 12.603804
11.153135 12.752114
11.674064 12.706338
11.459510 12.646688
11.264789 12.914660
11.153410 12.678060
11.957683 12.595317
12.000479 12.388682
11.981809 12.126229
11.952884 12.247018
12.651385 11.888974
12.452438 12.354185
12.185307 12.504652
12.825952 12.404786
12.274507 11.625287
12.614238 11.185903
12.788485 12.426263
13.028858 11.740167
12.756890 12.087217
12.808184 12.473127
13.346927 11.016370
13.331410 11.223472
13.005952 11.203046
13.104851 11.819768
13.126806 11.106224
13.408846 11.047211
13.132295 11.137304
13.924231 11.154227
13.772658 10.268733
13.551893 11.368865
13.868410 11.144640
14.040557 11.092818
14.067549 10.955802
14.018626 10.332776
13.649864 10.167895
13.738317 10.708734
13.995925 9.989520
13.847505 10.048441
13.831856 10.925741
14.300654 10.714068
14.443060 10.412737
14.742573 10.151491
14.439676 10.068619
14.951883 9.717374
14.909823 9.221916
14.922168 9.517258
14.262889 10.448255
14.306513 9.790922
14.075216 9.185387
14.880687 9.410013
15.128588 9.093820
14.730587 9.653707
15.086070 8.230043
15.184934 9.307186
15.230517 10.030019
15.936811 8.554474
15.456939 8.932790
15.405541 8.989965
15.841882 9.461912
15.592625 8.524924
14.858037 8.935835
15.805469 9.077357
15.603137 8.902100
15.871906 7.576031
15.136100 8.088974
16.109988 7.768648
15.957821 8.054830
16.182232 7.435660
15.936468 7.750476
15.644286 8.883388
16.774663 7.483273
15.708501 8.227160
15.755289 7.590615
16.876248 7.130190
15.977948 7.079633
16.464307 7.068198
16.168714 7.457623
15.948847 6.664706
16.179892 6.678997
16.895562 7.155497
16.614407 6.358517
16.270915 7.229599
16.295850 6.186219
17.053749 7.223622
16.924804 6.538875
17.184786 5.591011
17.039450 5.948995
16.325466 5.805232
17.151599 6.367547
15.978207 5.458405
17.224635 6.325606
17.938756 6.209333
17.715992 5.875372
16.992160 5.507396
17.027191 5.462921
16.763623 4.877355
17.981270 5.458328
16.861737 4.767646
17.654792 5.051593
16.743585 5.266353
17.656336 5.471192
17.699694 4.769998
17.628237 4.392324
18.231387 4.317524
18.132775 4.581993
17.863962 3.844796
17.139868 3.472652
17.884976 3.587547
18.670534 4.172687
18.289137 3.942896
16.897466 3.161381
16.751740 4.459897
18.289834 3.268208
18.230127 2.947159
17.847415 3.720511
18.137541 3.035020
19.262102 2.660978
17.466377 2.693822
17.256198 3.870627
17.566277 2.377549
18.989458 1.884949
17.897205 3.620178
17.683109 3.536296
17.992325 3.256144
18.545843 1.736886
18.485372 1.844438
18.202369 3.284175
17.867480 1.362731
18.418902 0.654840
17.052325 2.300568
17.643762 2.672822
18.906207 1.284357
17.887167 1.558607
19.746545 2.586594
18.636966 2.659043
18.017387 1.200214
18.370277 0.778561
18.429324 0.131467
19.077756 0.418543
16.871879 1.540579
16.730077 -0.308417
16.866189 0.162985
19.038274 1.596594
19.275511 0.000650
18.053306 -0.500548
20.073867 -0.309733
19.136388 -0.694935
18.074295 -1.243177
17.695272 -0.719054
17.472117 0.496159
19.611219 -1.658810
16.975800 2.671556
14.768847 -0.870153
18.085252 -0.264947
20.805066 -1.225905
18.843410 -2.789050
18.113428 -0.388992
17.067388 -1.925255
19.797502 -2.574523
18.041528 -1.493220
17.663274 -0.840798
19.067034 0.404022
17.210264 -2.929461
19.233920 -0.791871
15.883127 0.659955
17.980432 -1.880047
21.672943 -4.350639
15.975757 -4.216665
19.081321 -3.033676
15.165218 -2.701222
15.542655 -6.933156
17.454180 -3.909486
19.065273 0.704858
20.818005 -2.818025
15.834543 -2.650769
19.698143 -1.298366
19.429689 -1.630692
16.832705 -3.891265
17.049134 -6.871758
16.403574 -1.478913
14.662062 -5.866286
15.128045 -0.880975
16.088747 -4.376128
20.026447 -4.907907
22.544346 -1.301972
20.680877 -3.335353
15.174693 -3.098059
17.679636 -1.850540
18.073406 -4.515373
17.557856 -3.551149
15.513582 -5.373609
15.311525 1.781305
11.051302 -10.230785
12.531083 -1.647531
16.389945 -8.656764
17.540496 -6.388489
22.384220 -4.905397
14.585994 -6.550300
18.443895 -10.907439
13.264761 -9.112260
21.867574 -10.418398
17.142538 -4.991791
4.665692 -3.470053
19.926160 0.875856
0.695881 -1.045144
17.214018 -3.822605
24.962435 1.898281
17.514395 -9.809225
25.242637 -22.992931
10.717151 -6.134354
14.088306 -17.395411
18.887956 -12.978017
22.433215 11.050370
29.945070 -0.493558
-1.709635 32.788298
28.326154 0.766008
12.622766 2.302768
22.308941 0.300301
-6.725475 -24.867364
5.098301 3.124536
-59.215526 -79.593527
3.780551 3.967973
5.672047 -4.392589
17.794401 1.154674
-39.908322 -54.822926
19.346617 -7.431924
20.987411 78.505411
14.845650 -8.106819
-35.123466 -4.942011
12.470834 -12.822525
53.625422 9.191712
9.291852 21.795058
-887.007543 -54.350879
10.994822 21.497338
-37.196913 47.022866
1.090911 -7.809108
-64.855415 -42.506795
