10116.454001 9988.624066
-7122.897895 665.570139
471.334127 -237.232891
221.208356 -47.202254
258.183424 -17.765026
232.936662 -57.690367
252.163461 -107.957473
172.572033 -110.775525
93.800238 -64.183768
3.388415 141.292309
223.144601 -277.976248
210.741047 -87.206242
258.584690 -123.658740
185.496015 -161.140178
199.529818 -197.430644
187.449218 -180.118690
178.077690 -173.301929
155.403783 -185.651888
133.337947 -183.162417
136.571023 -189.532175
133.889989 -202.145080
96.998446 -205.156778
98.802800 -182.983885
84.209194 -204.296053
90.660965 -192.678952
66.462619 -197.062946
42.907570 -198.210522
55.092740 -216.319223
17.765486 -205.067177
26.896162 -190.731310
3.903701 -199.734498
7.174264 -204.074022
-8.336449 -181.599970
-12.799379 -184.767593
-24.569006 -174.900556
-36.804380 -159.503940
-40.441524 -162.447668
-53.566249 -161.809775
-46.388145 -164.470142
-53.614357 -144.009444
-58.418626 -133.953077
-63.540162 -120.787906
-72.721590 -123.648405
-90.255512 -115.209154
-69.588813 -94.820842
-90.180816 -98.993091
-86.265559 -77.299563
-76.713107 -83.896677
-72.933961 -82.653343
-86.387531 -61.621657
-85.552032 -57.757808
-84.558375 -58.334112
-74.837185 -44.594724
-78.057189 -41.229206
-63.405991 -36.338022
-67.873344 -29.033568
-68.080881 -20.341013
-75.771395 -7.009364
-54.171550 -7.570877
-49.264753 -3.221524
-55.956431 -4.135945
-45.691530 -5.383162
-44.621694 -3.201059
-25.581807 4.326225
-33.802280 6.129501
-25.484698 7.708642
-23.501010 -2.914305
-20.232207 13.861690
-12.800514 14.842008
-0.430200 5.657856
-3.347457 2.440915
0.562830 8.259778
15.704904 6.125283
17.459725 4.084259
10.936200 -3.712122
7.336001 -5.875119
15.762329 -9.793466
28.530550 -24.509820
20.523624 -18.350669
19.064816 -15.878504
26.953327 -20.318522
28.513734 -22.867533
23.500604 -34.579241
20.988225 -32.606354
20.649806 -28.596881
29.703482 -41.856965
27.309323 -35.962674
25.750455 -47.234647
24.915082 -49.227671
17.454488 -49.585059
14.082217 -57.593606
13.633351 -55.652231
11.281949 -57.847938
9.057461 -61.774198
2.552682 -64.994012
2.110383 -62.823732
-2.254132 -65.900702
-3.616750 -64.889542
-9.901513 -58.717983
-14.827330 -64.131282
-17.383759 -60.962478
-20.479439 -61.607245
-23.299851 -62.212944
-26.460862 -59.613637
-29.300709 -59.037176
-31.681734 -55.039754
-37.179401 -56.615806
-36.853020 -52.737791
-39.353043 -49.219850
-37.599636 -48.021467
-41.569748 -40.816364
-42.743439 -37.582365
-46.020080 -33.427455
-46.377612 -31.024060
-45.956957 -30.568198
-47.986108 -26.000902
-47.135732 -25.135723
-46.429587 -21.837899
-46.144566 -21.005814
-44.892385 -15.989327
-41.400957 -10.931262
-44.045812 -12.455577
-41.959245 -7.229459
-39.033821 -5.973246
-38.764189 -1.884908
-34.611398 -1.519040
-34.463563 1.753630
-30.952390 1.673468
-29.559630 2.924350
-26.328168 4.651997
-24.943319 5.756117
-23.857399 6.734275
-20.745816 7.491409
-18.344933 9.565233
-15.443059 8.264942
-11.607033 8.770688
-11.010392 6.134386
-5.088222 6.845017
-5.437151 3.776330
-4.827241 3.848117
-1.308967 6.358380
-1.529476 1.505266
1.854837 -0.424941
2.869887 -0.903943
4.907686 -2.124212
2.688073 -5.110102
4.199894 -4.803547
6.474653 -8.932651
6.182016 -9.700828
5.558339 -12.720349
7.617031 -11.921591
6.851986 -16.145894
6.228954 -17.432835
3.832087 -18.531716
4.221695 -22.375002
2.416275 -22.937410
1.961297 -24.766468
2.124098 -25.412212
0.323248 -27.809604
-1.256179 -26.519660
-3.437978 -29.509658
-4.956450 -29.863766
-6.333643 -29.970480
-7.885734 -30.266252
-9.521378 -29.705527
-11.910786 -30.057284
-12.367614 -32.521103
-15.342386 -30.147777
-16.299618 -29.988594
-17.801660 -28.956866
-20.101225 -27.566313
-21.155060 -27.816038
-22.432743 -26.460600
-24.435474 -25.400993
-25.950919 -24.175464
-26.095022 -22.422251
-27.429686 -21.685981
-29.408676 -19.263016
-28.500942 -18.581652
-29.489388 -16.683421
-29.587060 -14.279208
-30.168335 -12.936104
-31.048396 -11.817519
-30.218958 -9.531152
-30.323815 -8.371887
-29.440899 -5.684761
-29.045334 -5.454031
-28.593537 -3.056753
-27.988801 -3.642192
-25.800263 -0.912716
-25.818333 1.287037
-24.586827 1.715217
-23.092671 3.254523
-23.796702 3.024399
-20.553251 4.586844
-20.044986 5.197140
-18.345844 5.650901
-16.242749 6.369256
-15.732849 5.938664
-13.665939 6.484094
-13.415361 6.637789
-11.485832 6.675590
-9.975302 6.070826
-8.622432 5.291410
-7.622359 5.066345
-6.615507 4.777130
-5.571079 4.139031
-5.197621 3.733492
-3.811987 1.372115
-2.608290 1.249570
-2.740851 0.881768
-1.601271 -0.244333
-0.802839 -1.996254
-1.023449 -2.285137
-0.236483 -4.222925
-0.661944 -4.424196
-0.398637 -5.595248
-0.176691 -7.138709
-0.676418 -7.983936
-1.134845 -9.079464
-1.442786 -9.894358
-1.672208 -11.191957
-3.167983 -12.016607
-3.978217 -11.950715
-4.535562 -12.932087
-4.965474 -13.887503
-6.063414 -14.084899
-6.882619 -14.544900
-8.788826 -14.983357
-8.546552 -14.571110
-10.353075 -14.742691
-11.022468 -14.448658
-11.962185 -14.915307
-12.707294 -14.584460
-13.729052 -13.914489
-14.000644 -13.389830
-15.593110 -12.995568
-16.725561 -12.849789
-16.829203 -12.162066
-17.800960 -11.378705
-18.831039 -10.049532
-18.954879 -9.613340
-19.275600 -8.224650
-19.631544 -8.235140
-19.692215 -5.926695
-19.779151 -5.722761
-19.723270 -4.080200
-19.992282 -3.475068
-20.151939 -3.117915
-19.210115 -1.609570
-18.841062 -0.119951
-18.372867 0.086742
-17.951226 1.669751
-17.503744 1.666187
-17.130956 2.769062
-16.388911 3.617715
-15.555285 4.503034
-14.827784 5.230220
-13.854749 4.858404
-13.208616 5.814113
-12.296909 5.717426
-10.515368 5.798934
-9.908308 5.924351
-9.519386 5.600915
-8.348337 5.569099
-7.793487 5.734343
-6.186353 5.737160
-6.101907 4.880671
-5.438194 4.368482
-4.232461 4.314458
-3.635531 4.493963
-2.712806 2.950502
-2.839721 2.920461
-2.277753 1.402051
-1.512283 0.989449
-1.677117 0.385351
-1.587800 -0.139524
-1.281676 -0.689096
-1.751474 -2.122711
-1.327165 -2.520534
-1.647469 -2.731547
-0.957026 -3.436197
-2.049473 -4.333862
-2.642022 -5.383578
-2.871109 -5.794360
-3.409890 -6.926588
-3.286362 -6.634466
-4.332528 -7.400388
-4.853910 -7.917524
-5.521913 -7.948130
-6.502690 -8.497112
-6.910060 -8.905622
-7.326424 -8.187916
-8.521159 -8.675970
-9.107213 -8.551443
-9.692595 -8.233343
-10.094977 -7.492543
-11.042738 -8.676730
-11.504266 -6.827230
-12.097784 -6.783521
-13.134445 -6.564391
-12.958578 -5.415592
-14.230720 -4.974620
-13.541674 -4.594335
-14.219782 -3.800934
-14.173357 -3.100601
-13.963280 -2.540220
-15.291838 -1.386242
-14.281032 -0.589699
-14.713715 0.909123
-14.793972 1.114062
-14.675558 1.876484
-14.122131 2.222964
-13.626167 2.596318
-13.133968 3.756577
-13.085335 3.359908
-12.187649 4.750640
-11.869715 5.126838
-10.658226 6.167434
-10.241664 6.858761
-10.193522 6.478567
-8.941611 6.959127
-8.293395 6.741041
-6.930796 6.930438
-6.869288 7.035246
-5.535388 6.854977
-4.900844 6.988748
-4.231463 6.458820
-2.645247 6.289658
-2.791262 6.571561
-1.887213 5.818395
-1.306200 5.431230
-1.027078 4.976413
-0.288060 4.078151
0.142302 4.031110
0.063174 3.250766
0.935089 2.271898
0.761264 1.597118
1.559024 1.033763
1.440310 0.420500
1.835547 -0.718043
1.405618 -0.781126
0.987305 -1.236159
1.405825 -2.502152
0.735674 -3.404831
0.494076 -4.147934
-0.011973 -4.093300
-0.017271 -5.073791
-0.739321 -5.757827
-0.960372 -5.992850
-2.150770 -6.782525
-2.843077 -6.825925
-3.172153 -7.350812
-3.801578 -7.330262
-4.865087 -7.503718
-4.954057 -7.589966
-5.683538 -7.882435
-6.688322 -7.750009
-7.493008 -7.074128
-8.812360 -7.572631
-8.526485 -6.661989
-9.944150 -6.265497
-10.079081 -5.870977
-10.525331 -4.882470
-11.428227 -5.336853
-11.293260 -4.719593
-12.006657 -3.830821
-12.661687 -3.146889
-12.586923 -2.491223
-12.727388 -1.523229
-12.747079 -0.996784
-13.184910 -0.078726
-12.887760 0.601639
-12.894625 1.883920
-13.342949 1.694709
-12.150916 3.175566
-11.868407 3.524061
-12.387871 4.025079
-11.065109 4.467174
-10.802352 5.449982
-9.733273 5.395150
-9.721935 6.397549
-8.848657 7.060620
-8.247455 7.459835
-7.762309 7.534967
-6.593659 7.938807
-5.939781 8.300167
-4.768453 8.243327
-4.060988 8.356761
-3.615940 8.089787
-2.584167 8.271835
-1.582154 8.047678
-0.538273 7.620004
-0.570898 6.842280
-0.098390 6.544686
1.636965 6.359323
1.370928 5.483866
2.304417 4.944640
2.407993 4.642823
3.291696 3.428373
3.812609 2.849244
3.707752 2.243467
3.733012 1.329354
3.816764 0.878623
3.748822 -0.020503
3.842632 -0.531238
3.951831 -1.126010
3.962397 -2.487709
3.155828 -3.334574
3.170083 -4.059684
2.768236 -4.260718
2.424263 -4.883441
2.155933 -5.849458
1.819105 -5.798607
0.603629 -6.831179
-0.170622 -6.625927
-0.990867 -7.318133
-1.445351 -7.792401
-2.711575 -7.531269
-2.186605 -8.432478
-3.501876 -7.790235
-4.151357 -8.448880
-4.402792 -8.242036
-5.598191 -7.882890
-6.467650 -7.858059
-6.953948 -7.182450
-7.853498 -7.569787
-7.803360 -6.651437
-9.384179 -6.275540
-8.937792 -5.751674
-9.787893 -5.145140
-10.236242 -4.854460
-10.454199 -3.477733
-11.200283 -3.016240
-11.112241 -2.748785
-11.200833 -1.685052
-11.494657 -1.190774
-11.306588 -0.123619
-11.486997 0.359293
-11.132143 0.896726
-11.470343 1.932691
-10.696300 2.288241
-10.111900 3.277037
-10.113709 3.601448
-9.683669 4.823513
-9.471034 4.800185
-8.638126 4.948800
-7.945314 5.674807
-7.673726 6.036427
-6.715639 6.094990
-6.421467 7.226741
-5.771204 6.384055
-4.677349 7.409493
-4.312506 7.275163
-3.243146 7.086756
-3.097672 6.932435
-1.854605 6.482260
-1.402291 6.350909
-0.776746 6.407408
-0.362761 5.720201
0.278450 5.973084
1.143775 4.849658
1.476787 4.699151
1.949371 4.303183
2.837263 4.061345
2.718420 3.097151
2.817314 2.097300
3.566306 2.506177
2.952411 0.729520
3.570582 0.955918
3.490659 -0.047623
3.821914 -0.686457
3.904542 -1.774946
3.821483 -2.088252
3.551234 -2.530335
2.590751 -3.554519
2.654715 -3.780815
2.187076 -4.245839
1.981363 -5.077629
1.525316 -4.699166
0.676225 -5.781557
0.559237 -6.536884
-0.506830 -6.136111
-0.436921 -6.556958
-1.324751 -6.349694
-1.716063 -7.006312
-2.335663 -6.978265
-3.405638 -7.024235
-3.854953 -7.262188
-4.413446 -6.959720
-5.029646 -6.492160
-5.383092 -6.286406
-6.311100 -6.265069
-6.931594 -5.938482
-7.174454 -5.319194
-7.392428 -5.040950
-7.843252 -4.978200
-8.276478 -4.315615
-8.497585 -4.132540
-8.944069 -3.261935
-8.867376 -3.100604
-9.143003 -2.115269
-9.252743 -2.038741
-8.912981 -1.160619
-9.186665 -0.406023
-9.185910 -0.355783
-9.005536 0.850016
-8.727960 1.290234
-8.211219 1.930292
-8.736497 1.599338
-8.309800 2.197534
-7.669883 2.929100
-6.672461 2.837048
-6.495535 3.079314
-6.808992 3.628585
-6.369467 3.329657
-5.474634 4.103891
-5.361357 3.912257
-4.478669 4.272788
-4.452027 4.450603
-3.614371 3.861276
-2.848206 4.074711
-3.247462 3.802719
-1.997476 4.025367
-1.811349 4.304685
-1.545980 3.781043
-0.876497 3.517871
-0.484009 3.058482
-0.140023 2.894700
0.267070 3.179835
0.441897 2.503209
0.217270 2.136265
0.810306 1.642298
0.911832 1.167122
1.078864 0.783111
1.035132 0.316709
0.924515 0.278430
1.161779 -0.560456
1.464375 -0.858979
0.714193 -1.599684
0.545756 -1.780526
0.120467 -2.202987
0.399652 -2.197373
0.216519 -2.830623
-0.651229 -3.289085
0.315902 -3.072500
-0.775486 -3.605032
-0.994196 -3.797925
-1.154024 -3.943280
-1.957249 -4.437261
-2.146353 -4.248736
-2.792801 -4.265661
-2.973700 -4.544768
-2.807657 -4.571783
-3.368347 -4.809148
-3.636528 -4.482973
-4.104868 -4.014281
-4.228244 -3.817394
-4.639547 -4.029871
-5.288362 -3.934598
-5.299277 -3.603138
-5.854351 -3.546782
-5.523524 -3.090201
-5.912180 -2.801293
-6.335373 -2.399370
-6.459106 -2.162993
-6.870894 -2.328808
-6.313254 -1.320908
-6.940143 -1.686717
-6.539942 -1.143837
-6.420639 -0.410697
-6.848441 -0.421476
-6.401097 -0.012087
-6.101973 0.362980
-6.740865 0.156371
-5.973699 0.591488
-5.983948 0.467360
-5.576099 0.758023
-5.308712 1.224464
-5.519676 1.488633
-5.110130 1.392236
-4.863430 1.772541
-5.207514 1.516260
-4.251528 1.828110
-3.845134 1.605302
-3.084451 1.981500
-4.025269 1.477680
-3.826113 1.735157
-3.167164 1.720119
-3.597393 1.515866
-3.117906 1.233981
-2.427024 0.867282
-2.728868 1.683350
-3.029661 1.165306
-2.614005 1.066143
-2.000965 0.702790
-2.223967 0.573536
-2.022253 0.236549
-2.457318 -0.085763
-2.091100 -0.230811
-1.822108 -0.007223
-2.620614 0.128345
-1.949043 -0.552779
-2.221189 -0.197751
-2.136468 -0.773486
-2.322818 -0.695984
-2.272125 -1.492381
-2.345649 -0.994655
-2.856042 -1.204313
-2.357136 -1.655849
-3.453496 -1.434272
-2.740886 -1.499830
-3.361708 -1.644814
-3.052590 -1.361623
-3.216484 -1.818515
-3.340338 -1.708257
-3.384024 -1.525528
-3.815650 -1.353956
-4.314855 -1.854636
-3.820375 -1.142924
-3.987693 -1.168685
-3.985843 -1.851509
-4.512926 -1.068445
-4.665285 -1.265026
-4.936142 -0.848612
-4.859300 -0.825636
-4.758363 -1.147703
-4.877343 -0.495939
-5.026756 -0.359573
-4.300835 -0.357169
-4.748065 -0.170638
-4.945076 -0.272899
-4.568248 0.324119
-4.808749 0.014932
-4.307490 0.209426
-4.215020 0.204336
-4.312510 -0.068262
-4.495500 0.323859
-4.139324 0.454061
-4.105333 0.633740
-3.995137 0.335893
-3.226493 0.343211
-3.178209 0.365590
-4.071273 0.425368
-3.439069 0.425685
-3.380798 -0.085847
-3.293504 0.295413
-3.287338 0.587387
-3.309143 0.081052
-3.418455 0.405567
-2.858037 -0.075650
-2.949253 -0.259802
-3.230985 -0.121573
-3.158201 -0.273394
-2.639464 -0.111066
-3.420387 -0.123105
-3.145136 -0.538123
-3.329287 -0.536215
-3.941036 -1.013956
-3.394255 -0.773318
-3.006236 -0.976268
-3.503715 -0.922182
-3.700338 -0.887068
-4.239893 -1.293710
-3.400876 -1.199229
-4.173476 -1.134003
-3.747030 -1.237649
-4.266570 -0.843856
-4.533087 -1.203813
-4.131737 -1.209111
-4.456680 -1.206081
-4.776161 -1.010218
-4.753968 -0.948361
-4.791108 -0.690934
-5.110939 -0.668994
-5.065401 -0.230650
-4.959926 -0.282016
-5.412866 -0.452489
-5.534578 -0.281418
-5.889471 -0.422603
-5.898309 -0.134727
-5.800407 0.458552
-5.683786 0.035912
-5.756202 0.171722
-5.912260 1.093435
-5.732067 1.072767
-5.473522 0.894673
-5.215733 1.499719
-5.628933 1.240886
-5.359243 1.729931
-5.453919 1.551053
-5.043468 1.960938
-4.793902 1.894865
-4.589997 2.191476
-4.731442 2.553628
-4.265946 1.999360
-3.893370 2.549746
-4.020022 2.515739
-3.988086 2.406982
-3.868662 2.189310
-3.055054 2.324237
-3.257600 2.307707
-3.385655 2.213365
-2.728335 2.423879
-3.104903 2.452338
-2.685507 1.872151
-3.017841 1.651661
-2.231655 1.643101
-2.293704 1.542117
-1.827761 1.485570
-1.667044 1.608410
-1.849373 0.629834
-1.698712 0.834069
-1.450172 1.101581
-1.872716 0.495610
-1.707100 0.396334
-1.947058 0.213980
-2.231404 0.535257
-1.512301 -0.371471
-1.883485 -0.779113
-2.255650 -0.643206
-2.251272 -0.915741
-2.287701 -1.766375
-2.090909 -0.795338
-2.638554 -1.259052
-2.725269 -1.812813
-2.956207 -1.691323
-3.520715 -1.495720
-3.293951 -1.887181
-3.534993 -1.915668
-4.004342 -2.129387
-4.575715 -1.829271
-4.337117 -1.980404
-4.827874 -1.707483
-5.067075 -1.560362
-4.760007 -1.697654
-5.057078 -2.015128
-5.605523 -1.653867
-5.779308 -1.218175
-5.841494 -1.351293
-6.009628 -0.944376
-6.545723 -0.898374
-6.455451 -0.682262
-6.973137 -0.333461
-6.574945 -0.289123
-6.550765 -0.175177
-7.312045 0.354594
-6.819255 0.974333
-6.335064 1.396137
-6.627852 1.388275
-7.014413 1.335431
-6.595300 1.507230
-6.681829 2.068214
-6.912502 2.073470
-6.476698 2.054247
-6.226857 2.569024
-6.021614 3.361696
-6.381161 3.211804
-5.224189 3.152112
-5.436489 3.571060
-5.189200 3.665678
-5.077426 3.439380
-5.070685 4.148465
-5.186109 3.646504
-4.281148 3.993271
-4.001703 3.694795
-3.923632 3.816224
-3.328671 3.677161
-3.159640 4.239901
-2.700132 4.039146
-2.466291 3.836283
-2.917009 3.489085
-2.387596 3.569031
-1.617116 3.422524
-1.342090 2.904186
-1.928650 2.882531
-1.535911 2.636382
-1.415751 2.585213
-1.349005 1.992992
-0.920517 1.836750
-1.206493 1.913806
-1.044013 1.596312
-1.050758 1.411190
-1.046714 1.015837
-1.409183 0.897862
-1.714421 0.471929
-1.591439 -0.178549
-1.205018 -0.008280
-1.358140 -0.196181
-1.553485 -0.547088
-1.986415 -0.855787
-2.455846 -0.891644
-2.113534 -1.068203
-2.428031 -1.219773
-2.408687 -1.359615
-3.376943 -1.106213
-3.074348 -1.330951
-3.712327 -1.832539
-3.844716 -1.771174
-3.781554 -1.667268
-4.937108 -1.621466
-4.377350 -1.526873
-4.995649 -1.309097
-4.848391 -1.094605
-5.283533 -0.949681
-5.799666 -0.599650
-5.898550 -0.465014
-6.053813 -0.727860
-5.864919 -0.503345
-6.094972 -0.132575
-6.454658 0.508893
-6.321550 0.310265
-6.505567 0.545575
-6.556428 0.572126
-6.897956 0.940318
-6.695702 1.018455
-6.394625 1.396518
-7.013656 1.950323
-6.655499 1.793912
-6.577088 2.217796
-6.751768 2.265477
-5.973360 2.869798
-6.331377 2.815663
-6.170780 2.833695
-5.614218 3.435117
-5.945468 4.010260
-5.635842 3.543607
-5.073917 3.824795
-4.901157 4.157276
-5.151910 3.539935
-4.710749 4.160793
-4.215288 4.659230
-4.093137 4.166627
-3.898571 4.079105
-3.869314 3.709963
-2.763129 4.108649
-2.774918 4.069507
-3.043410 4.048128
-3.302177 3.686404
-3.025429 3.905572
-2.485854 3.727526
-2.315950 3.768844
-2.177035 2.987271
-2.046286 2.903716
-1.872260 3.085968
-1.821349 2.050813
-1.279095 2.308133
-2.125170 2.541220
-1.862098 2.012384
-1.663121 1.559338
-1.587081 1.810465
-1.798545 1.745215
-1.956254 1.257036
-1.907907 1.307299
-2.404929 0.883536
-2.053832 0.887037
-2.600790 0.868914
-2.334634 0.547910
-2.667055 0.367036
-2.861117 0.068277
-3.073776 0.916101
-3.093955 0.301311
-3.236094 -0.027843
-3.405665 0.155687
-4.071564 0.363233
-3.594500 0.116524
-3.243285 0.438601
-4.140334 -0.019659
-4.086376 -0.064952
-4.849319 -0.129212
-4.442487 0.435291
-4.584150 0.509657
-4.617122 0.788678
-4.427496 0.896429
-5.438883 0.983782
-4.945950 0.988756
-4.963230 1.654739
-5.542276 1.200245
-5.472958 1.527018
-5.131283 1.726706
-5.480750 1.641581
-4.884768 1.760700
-4.900308 2.280054
-5.318286 2.478233
-5.293716 2.612245
-5.182496 2.475182
-5.291788 2.693971
-5.375137 2.886697
-5.266323 2.622928
-4.612099 3.025910
-4.736921 3.206490
-4.830045 3.203242
-4.033919 2.859418
-4.557929 3.225398
-4.527103 3.236858
-3.594330 3.577280
-4.378268 3.039905
-4.201344 3.365170
-4.052887 3.209007
-3.863194 3.039200
-3.955892 2.561902
-3.629278 3.752798
-3.515727 2.698835
-3.727395 3.044086
-3.491146 3.113321
-3.114032 2.775241
-3.837430 2.648267
-3.166430 2.653115
-2.735655 2.225889
-3.345507 2.556639
-3.621264 2.171331
-3.270679 1.971420
-3.197504 2.650520
-3.693651 2.240602
-3.305588 2.430896
-3.160213 1.988367
-3.587110 1.812274
-3.226782 2.231765
-3.870145 2.226105
-3.734963 2.227966
-4.119242 1.970044
-3.998933 1.979684
-4.000348 2.081213
-4.346738 2.515572
-3.786778 2.157013
-3.897156 2.335763
-4.368266 2.413628
-4.550664 2.406271
-4.108105 2.018278
-4.222997 2.657741
-4.286571 2.070192
-4.267026 2.661902
-4.360966 2.862949
-4.626577 3.380245
-4.561461 2.859118
-4.802028 2.954057
-4.046927 3.345352
-4.431377 3.118197
-4.662999 3.381500
-4.460986 3.752091
-4.089942 3.704809
-3.846331 3.403998
-4.135087 3.784815
-4.131513 3.184304
-3.650691 4.150442
-4.297198 3.907972
-3.588545 3.288010
-3.441442 3.954813
-3.890995 3.866565
-3.081027 4.165626
-3.032119 3.979663
-2.865381 3.831791
-3.302295 3.209831
-2.945265 3.150990
-2.515395 3.407808
-2.149982 3.694240
-2.848562 3.011904
-3.047737 3.550183
-2.499308 3.314911
-3.104564 3.012628
-2.573791 3.273475
-2.658221 2.795281
-2.639503 2.383476
-2.709079 2.760875
-2.474368 2.596221
-2.727778 2.329603
-3.178981 2.303170
-2.778293 1.968577
-3.058345 2.005946
-2.997560 1.938177
-3.454673 2.041755
-3.566031 1.637503
-3.334526 2.226428
-3.854290 1.634321
-4.117607 1.807600
-3.825714 1.553906
-3.909029 1.532090
-4.184369 1.936070
-4.672137 1.769050
-4.415241 2.378493
-4.899972 1.928309
-5.067236 2.000986
-4.957542 2.084544
-5.790486 2.116309
-5.917369 2.417675
-5.792465 2.658571
-5.661636 3.158973
-5.979082 2.859251
-5.880807 3.451853
-6.076484 3.154892
-6.533939 3.460469
-6.466912 3.842718
-6.370332 3.788952
-6.678751 4.734141
-6.100076 4.252497
-6.019570 5.027728
-5.748870 5.202774
-6.078361 4.698847
-5.262055 5.469739
-5.584619 5.629943
-4.952920 5.616142
-4.713491 6.210621
-5.223651 5.486415
-4.730839 6.038770
-4.631373 6.544290
-3.989083 6.548182
-3.544983 6.537801
-3.559120 6.552621
-3.446822 6.945718
-3.301157 6.580999
-2.789925 6.868763
-2.448544 6.737493
-2.442978 6.590707
-2.674844 7.078855
-2.068543 6.562996
-2.255828 6.251723
-1.746624 6.093782
-1.308231 6.111193
-1.234789 5.416341
-0.720166 5.341497
-1.216448 5.523183
-1.106621 5.284580
-0.923491 4.736136
-0.725867 4.588534
-0.402207 3.860121
-0.532764 4.379139
-0.631452 4.165953
-0.661318 3.338900
-0.688945 3.293847
-0.215978 3.270248
-0.833406 3.176536
-1.329121 2.596517
-0.945677 2.423932
-1.587178 2.149185
-1.486770 2.184401
-1.526087 2.074206
-2.054168 2.014862
-2.004713 1.747048
-2.151037 1.378673
-2.298523 1.364499
-2.614640 1.236865
-3.005298 1.780380
-3.955996 1.675114
-3.710405 1.805981
-4.193060 1.266154
-4.519880 1.555534
-5.028681 1.852238
-4.814715 1.956021
-4.950784 1.595016
-5.169585 2.432018
-5.734039 2.815044
-5.978260 3.265024
-5.814295 3.098053
-6.214789 2.831954
-6.161537 3.990537
-6.452538 3.443075
-6.280779 4.809486
-6.166278 4.480377
-6.552971 4.580130
-6.363603 5.022385
-6.538704 5.710932
-7.110265 5.578887
-6.205383 6.432499
-6.141659 6.966976
-5.602836 7.049631
-6.477468 7.037107
-5.795546 7.108451
-5.601949 7.188549
-5.276728 7.777530
-5.268860 8.280120
-4.872147 7.779503
-4.736345 8.552183
-4.037852 8.318285
-3.925903 8.450338
-3.759364 8.566377
-3.379827 8.978110
-3.152699 8.858204
-2.918881 8.422319
-1.950373 8.472733
-1.712367 9.144092
-1.435552 9.044815
-1.532437 8.543804
-0.606577 8.446433
-0.482462 8.888824
-0.002789 8.505699
-0.551488 8.166141
-0.249737 7.985429
-0.177050 7.715290
0.539861 7.191910
0.792152 6.765272
0.635224 6.755340
0.692766 6.223098
0.702245 6.205442
0.772240 5.726760
0.704885 5.323888
0.588012 5.112876
0.992188 5.233527
0.218620 4.696011
0.491560 4.562426
0.224880 3.858367
0.647700 3.651438
0.188095 4.013235
-0.174533 3.461828
-0.161637 3.674314
-0.603195 2.972933
-0.662155 2.923717
-0.769294 3.194465
-1.010075 2.982321
-1.904186 2.575154
-2.280787 2.807492
-1.638477 2.704975
-2.505450 2.879990
-2.275625 2.658504
-2.626076 2.918857
-3.186811 3.415832
-3.306938 3.069599
-3.439710 3.270131
-3.655648 3.063849
-4.030141 3.463349
-3.782416 3.528151
-4.245065 3.311468
-4.326993 3.997142
-4.240124 4.340368
-4.683317 4.643255
-5.177073 4.376603
-4.597129 5.160493
-4.756599 5.073012
-5.001982 5.815324
-5.163078 5.957925
-4.864447 6.553131
-4.605163 6.410938
-3.795268 6.064260
-5.136629 6.846599
-4.413586 7.158538
-4.316044 8.155631
-3.863885 8.007547
-3.698793 8.597237
-3.711304 9.007763
-3.420071 9.061783
-3.312276 9.052961
-3.477323 8.657752
-2.977035 9.460689
-2.379195 9.174128
-2.735817 9.666512
-2.559200 9.844228
-2.138058 9.343911
-1.773751 9.449817
-1.417244 9.652724
-0.911771 9.788089
-1.065030 9.302323
-1.013188 9.216879
-0.465471 9.260662
0.198097 9.183614
0.034589 8.868575
0.405445 8.684777
0.444760 8.954165
0.659009 8.617054
0.843284 8.651141
0.680273 8.150482
1.288520 7.762050
1.490744 8.049949
1.593102 7.142663
1.462199 7.404910
1.780964 7.357192
2.177212 6.832646
2.106492 6.347570
2.057804 6.538815
2.084918 6.490595
1.304506 6.208387
1.270547 6.012710
1.863846 5.778332
1.411324 5.115317
1.215297 5.307120
1.856700 5.404991
1.056391 5.112541
1.313188 4.723297
0.674361 5.102150
1.211487 4.657212
1.056378 4.676293
0.902371 4.888617
0.854921 4.311857
0.721530 4.827250
0.555177 4.846258
0.295674 4.702606
0.072790 4.317594
-0.071930 4.396008
-0.326375 4.797795
-0.502539 4.333050
0.065861 4.772642
-0.092701 4.241681
-0.538991 4.943587
-0.758740 5.102083
-0.853117 4.944513
-1.007016 5.024139
-0.851486 5.028017
-1.235953 5.534126
-1.277022 5.129034
-1.197224 5.143856
-1.925644 5.915049
-1.884657 5.801016
-1.822006 6.021019
-1.608649 5.769465
-1.686319 6.093876
-1.848479 6.514146
-0.711727 5.816790
-1.726312 6.592192
-1.733409 6.264688
-1.680242 6.948678
-1.305281 7.038832
-1.423360 6.731843
-1.090259 7.307820
-1.904644 7.215044
-0.892063 6.971399
-1.196295 7.555121
-0.953231 7.789180
-0.923828 7.932186
-0.370476 7.448661
-0.513112 7.580409
-0.321046 7.989576
-0.215558 8.261822
-0.119063 8.750449
-0.169575 8.417741
0.141963 8.209179
0.115663 8.546777
0.212579 8.706609
0.340158 8.508236
0.384594 8.295601
0.883219 8.288000
0.956643 8.235693
1.323658 8.283612
0.656599 8.704158
1.285251 7.542116
1.655276 8.327671
1.220264 8.523376
1.598404 8.209651
1.795920 8.025120
2.181474 8.323309
2.614599 8.002988
2.968720 7.765309
2.977121 7.708734
2.855481 7.460641
3.040518 7.439611
3.321182 7.480604
3.206462 7.444512
3.471031 7.648759
3.156813 7.453072
3.614858 7.270903
3.594621 6.975462
3.679534 6.408675
3.833334 6.561175
3.522231 6.427476
3.931308 6.195305
3.901672 6.255332
3.700375 5.039443
3.722766 5.326449
3.745408 5.244143
3.981105 4.742126
3.630453 4.721031
3.687532 4.792077
3.432571 4.488503
3.365468 4.195431
3.698039 3.763279
3.913924 3.971327
2.872359 3.739481
3.488810 3.675796
2.919141 3.284535
2.664772 2.544753
2.940339 3.482772
2.123141 3.270566
2.144721 2.879583
2.277462 2.778730
1.345971 2.907898
2.487839 3.161337
1.760680 3.072746
0.828161 2.943263
0.619373 3.151656
0.973852 3.474423
0.236899 3.039546
0.218573 3.665479
0.170238 3.763500
-0.453212 3.465579
-0.631116 3.597086
-0.772648 3.701707
-0.806549 3.969618
-1.336155 3.999538
-0.786471 4.403060
-1.267653 4.459232
-1.014306 5.178527
-1.271261 5.618967
-1.108740 5.557332
-1.348760 5.605857
-1.300015 5.942438
-1.295660 6.316663
-1.185593 6.521176
-1.268853 6.960378
-1.273933 7.105301
-0.333450 8.336519
-0.014847 7.981320
-0.192133 8.343386
-0.473557 8.498426
0.428346 8.957468
0.020920 8.685859
0.428475 8.595572
1.325870 9.589726
1.242647 9.573134
1.274246 9.729586
1.960816 9.364773
1.874837 9.670139
2.142057 9.226218
3.104663 8.980230
3.348957 9.103208
3.699863 8.974005
4.267131 8.998855
5.054085 8.575989
4.632871 7.756341
4.872621 8.504620
4.933997 8.321534
4.493286 8.069115
5.114377 7.958044
6.463732 7.311758
6.097133 6.744514
6.568504 6.409795
6.635673 6.206858
7.014901 5.247243
7.226807 5.323623
7.168457 5.045731
7.105999 3.982547
6.709252 4.296839
6.650206 3.855552
6.942924 2.987858
6.292495 3.139236
5.442215 2.002842
5.989242 2.154487
6.139123 1.876409
5.797052 1.913704
4.886428 0.820921
4.549650 0.895234
4.256700 0.068629
3.516603 0.203957
3.605887 0.209705
3.048656 0.117668
2.515025 -0.765740
2.367589 -1.116423
1.475945 -0.013979
1.158304 -0.669181
1.046921 -0.417317
0.197086 -0.362477
-0.092507 0.305320
-0.979479 0.766579
-0.107347 -0.009281
-0.634688 0.594422
-2.306603 0.377279
-2.092988 0.985857
-2.711939 1.615260
-2.957478 2.124941
-3.830495 2.279610
-3.242573 2.346681
-3.511477 3.506935
-3.465353 3.994544
-4.254672 4.811149
-4.505112 4.898847
-4.722754 4.656744
-4.036638 5.747772
-4.066151 6.231215
-3.335563 7.650075
-2.926153 6.410948
-3.627418 7.121078
-3.584971 8.762999
-2.298774 8.656287
-2.596331 9.017787
-2.182178 8.873423
-2.084704 9.628320
-0.818375 9.331671
0.001142 10.399121
-0.312140 9.856180
-0.409129 10.656589
0.936714 10.419256
1.665225 10.788090
1.791048 10.044202
2.434009 10.390235
2.548290 11.097991
2.930948 10.478991
3.170757 10.337631
4.389982 10.452410
5.116860 9.097538
4.992195 9.583551
5.688562 8.585272
6.727683 8.934995
6.201396 7.638078
7.223797 7.473343
6.476590 7.762342
6.500642 5.969087
6.421479 5.803751
6.425348 4.291107
7.103103 4.303279
7.188664 2.338915
6.579036 2.723278
6.151780 3.302084
6.855738 1.852072
6.006973 1.406934
4.385327 0.653102
5.052054 0.160201
3.775147 -0.403736
3.308447 -0.258242
3.763551 0.068728
2.582939 0.234489
2.628970 -1.520460
0.353972 0.268576
0.170775 -1.661070
0.652707 -2.337664
-0.273810 -0.769919
-0.169459 -1.191097
-1.822091 -0.780314
-2.659957 0.001329
-2.890131 -1.297676
-3.540578 -0.392945
-4.747463 1.135250
-4.902975 1.330787
-5.894027 0.135772
-5.748271 2.806478
-5.705662 3.210504
-6.781068 3.548217
-6.487997 3.668385
-6.852463 3.719828
-7.390651 4.919164
-6.825665 5.020601
-7.512921 5.853245
-6.904526 6.507636
-8.243803 8.249536
-5.813816 8.885199
-8.315608 8.916582
-8.001971 9.990271
-7.290501 9.924864
-6.010147 10.332533
-4.158176 11.132895
-4.259099 12.186396
-3.671225 13.100581
-3.090574 12.527500
-3.708148 11.060670
-1.705419 11.870520
-2.160770 14.139585
0.410259 13.010699
-1.570421 12.095589
-0.520270 13.505971
1.006338 14.104232
0.458690 12.393777
0.264433 10.648904
-0.797174 11.118301
1.019055 11.877129
4.956750 10.912767
3.224104 9.668835
2.786499 9.921037
3.471912 9.450753
4.467157 7.952679
2.778902 11.201557
4.092310 8.510234
3.693204 10.686915
3.076559 6.408031
5.389950 8.320073
1.593384 5.590715
2.934174 3.562430
0.781226 4.918398
0.972391 4.634990
0.874667 2.631791
1.623685 3.686042
0.752664 4.229061
0.209227 3.017225
-1.924455 2.547645
-1.201571 1.753036
-1.948795 1.359026
-7.535024 5.243180
-3.780464 1.682090
-4.732298 2.840241
-4.910634 5.258339
-5.820845 5.574278
-7.237342 4.603959
-10.217825 4.786024
-12.351401 8.962668
-10.038407 3.862567
-10.968189 7.514749
-9.169096 6.012246
-10.936952 7.869579
-9.964526 11.569713
-16.528041 9.895891
-11.428932 16.812658
-14.757475 9.891805
-13.684197 14.115601
-12.938395 15.102760
-17.117236 20.096152
-15.656630 18.336165
-15.233071 16.491310
-15.529922 16.362631
-13.431024 22.093319
-10.441915 19.475497
-10.234840 23.700608
-8.401396 27.298713
-7.579698 27.645574
-7.867258 26.592185
-8.068535 29.754828
-7.022781 27.149640
-7.826211 23.155826
-5.400958 33.139781
-4.132067 28.750990
-3.639996 28.782686
1.622275 26.896588
-3.372393 29.229199
7.788348 31.684289
4.051991 33.399614
7.616821 30.954725
5.305193 22.991134
13.005969 20.389632
1.349051 21.619970
11.544211 24.847367
7.118678 24.728712
8.292977 13.922712
4.768491 14.181955
1.703031 22.484840
8.324352 13.748263
6.627952 11.070293
-1.498381 15.878243
7.692327 18.703610
11.866762 17.159558
2.558187 5.896195
6.004429 8.166982
-1.460090 6.731229
3.690053 11.278417
3.811925 -0.224539
-13.284375 14.640504
-13.195706 6.195442
-13.570982 11.684272
-10.092216 7.950366
-12.110207 5.557233
-20.708790 11.622066
-25.843081 6.271062
-20.814415 14.854338
-29.342428 26.425856
-22.084630 12.051937
-34.025818 19.274352
-45.310707 21.671374
-36.181635 22.762302
-41.826151 22.780070
-38.001601 46.213163
-43.601723 36.020030
-50.416299 37.701103
-42.315591 43.302780
-46.980451 49.794470
-61.327659 61.157474
-36.733256 62.798855
-49.112676 62.662507
-44.820140 66.011680
-51.288598 77.543057
-42.755557 77.090918
-47.264476 95.191764
-47.293184 97.159975
-30.497837 100.359797
-38.310932 101.091056
-27.672377 102.524593
-17.548833 112.495937
-8.462194 119.359950
-10.450039 130.744275
-8.891806 136.873949
-2.217352 130.036087
6.741095 155.156235
17.644384 138.701953
29.577594 161.895891
18.896313 147.530811
24.162450 142.784015
27.871240 165.521826
69.925976 175.837212
49.632028 169.972236
62.555444 139.873363
95.734739 124.673166
80.467457 133.054420
106.993802 157.357574
114.833334 159.437930
121.850042 142.995092
126.676564 138.186172
133.235885 132.289960
150.479360 152.306258
159.863052 144.324275
145.147703 100.269413
161.813489 155.033095
181.855554 108.198189
201.564169 103.027719
195.962414 59.698897
229.351969 209.094380
-159.945682 -203.259738
45.081181 37.835618
180.458797 87.204297
200.640759 -39.177958
221.049878 12.252229
161.750651 126.452659
252.310364 -5.830899
