11452.112409 11432.245398
-7750.521047 705.213240
910.009583 -257.119665
519.757128 -234.857704
465.278431 -260.262862
377.877174 -322.535107
270.126332 -305.433374
22.790432 -194.756687
435.532945 -566.730191
267.114841 -501.608945
197.646898 -499.101424
132.835125 -517.159600
73.431218 -502.691578
23.132707 -501.582360
-38.049451 -457.004570
-92.366294 -452.210291
-131.433000 -419.584928
-173.270057 -382.884931
-214.255316 -347.022459
-242.625892 -308.639729
-271.130469 -325.632806
-277.377208 -221.847066
-285.823469 -190.138682
-283.984559 -146.189318
-271.671218 -102.767968
-270.027364 -62.550745
-245.100640 -26.874766
-232.763663 3.416461
-206.664451 31.181186
-181.108673 51.068721
-157.268822 62.234463
-129.808151 75.048485
-105.753515 75.180575
-55.609881 81.974608
-44.809784 73.295249
-19.428891 62.274223
3.179149 55.306758
17.244759 38.138479
28.092513 20.932555
33.811595 5.489832
40.578500 -13.535763
38.104668 -31.406841
32.035815 -49.589058
28.795864 -64.429005
21.279467 -77.967995
14.167603 -93.533011
-7.990328 -92.287473
-18.205228 -101.044095
-33.408623 -100.696128
-47.731607 -98.525174
-62.276757 -95.496824
-71.713932 -84.555749
-84.761057 -75.315316
-93.202383 -63.557803
-98.081974 -51.799266
-102.173629 -40.931156
-103.772681 -26.790802
-101.981164 -13.567037
-96.004688 2.417838
-88.872992 9.207851
-81.084053 18.963700
-73.858873 29.471918
-64.091673 36.442035
-48.931133 40.506202
-42.048433 40.352791
-30.302853 41.562677
-23.033039 37.039257
-12.648780 33.956082
-5.027587 27.986416
2.554994 22.991179
8.810666 13.998010
8.498230 5.671333
11.572146 1.221064
11.073945 -6.132928
6.658719 -12.148095
8.523994 -20.030073
-1.638309 -20.190800
-7.005667 -27.800976
-10.401471 -27.151167
-16.348359 -30.070149
-22.366932 -29.076841
-27.593691 -27.672205
-32.663781 -21.296547
-37.584222 -16.045355
-37.085450 -12.012487
-40.419740 -5.269389
-38.617555 1.472072
-37.918934 5.328224
-36.093430 13.390799
-37.314510 17.028013
-25.976588 20.775009
-24.239416 21.757546
-17.151108 28.348013
-14.229443 26.001439
-8.236066 19.966985
6.318171 23.617084
7.214711 19.318561
26.772914 20.854135
21.312473 9.006794
14.389584 13.059913
12.299413 -6.209336
30.570761 -16.309422
29.797660 -22.440476
39.410923 -44.726622
9.428902 -39.970582
8.018793 -26.127467
7.378322 -48.535207
11.009263 -47.375112
-8.589924 -27.291424
-8.986553 -48.344945
-14.388204 -42.927395
-18.720104 -39.579018
-27.272424 -35.479781
-33.351239 -25.218900
-38.197607 -34.480496
-34.142187 -14.093461
-42.291803 -16.643481
-39.418643 -7.924716
-37.864537 -5.362196
-37.844293 1.913358
-29.217597 8.160990
-27.524141 6.657257
-18.187688 17.515488
-15.484688 13.846888
-10.084838 16.069608
-2.753685 15.146441
1.954344 20.346230
6.331743 12.694588
12.881453 7.434123
14.973223 5.153804
17.002306 -0.270695
19.239130 -8.970695
19.920988 -13.607199
19.473855 -19.594956
17.330287 -21.560684
15.607255 -30.459313
11.442056 -32.001272
8.812903 -36.622026
1.922684 -41.280894
-4.497645 -39.628119
-8.522807 -43.475024
-15.178297 -39.862121
-19.559037 -41.437976
-24.234267 -39.011440
-28.752598 -34.149099
-33.734002 -34.170476
-34.790280 -25.682540
-37.430980 -23.199529
-37.598821 -18.371305
-38.690612 -12.702821
-37.128868 -9.160960
-35.008833 -3.424274
-34.230216 -0.949509
-30.736928 4.194046
-28.186192 5.919449
-23.671920 6.913434
-20.539319 9.073663
-16.913440 9.166151
-11.200434 7.467420
-9.549902 5.757745
-6.877697 5.137230
-3.313303 3.231592
-1.332141 0.638533
-1.827168 -3.266562
-2.107789 -5.650588
-1.528085 -7.998160
-3.686228 -10.791577
-4.072210 -13.183506
-5.640270 -14.873808
-8.077126 -18.020659
-10.495545 -18.217763
-12.998819 -16.845578
-15.316004 -17.557151
-18.269403 -16.135680
-19.891749 -15.497687
-23.823179 -13.501342
-22.895435 -10.360285
-24.672969 -7.075190
-25.221556 -6.660787
-24.701750 -4.081651
-24.548963 -1.110829
-24.335448 1.953329
-21.591012 3.274545
-18.196166 5.919397
-18.653907 6.368893
-16.114428 6.624319
-12.905467 7.994826
-11.908665 8.132700
-8.624219 5.835645
-7.509942 5.908530
-5.186979 3.636287
-5.017972 0.546018
-5.027865 -0.201833
-2.666267 -3.384079
-3.298709 -6.737357
-3.277733 -7.949016
-3.415119 -8.568828
-7.690502 -9.649949
-10.919475 -11.722088
-12.222331 -13.236072
-13.608604 -10.870271
-14.458452 -13.257652
-16.104172 -11.737052
-20.709522 -6.909990
-20.629218 -5.573851
-22.123856 -3.636812
-18.212031 -1.844865
-23.116014 -0.659273
-22.238954 2.622920
-20.729171 5.028035
-20.773195 5.470229
-18.646961 9.063621
-16.337937 13.376808
-16.027743 10.749131
-12.451422 11.948505
-10.102310 13.656276
-7.865149 13.621871
-5.478666 11.458078
-2.416335 10.279528
0.169630 8.343312
3.131097 8.054913
2.193266 4.290927
5.149879 2.633550
4.315884 1.164089
5.938787 -0.419863
5.004972 -2.260312
5.027015 -5.923117
2.784131 -8.100026
-0.786870 -9.007942
-0.877336 -10.372971
-3.225130 -11.840560
-5.445926 -12.650391
-7.204603 -13.609464
-8.024116 -11.201620
-9.933221 -11.332380
-11.749464 -12.196187
-13.663057 -11.004512
-15.360333 -8.030137
-15.356841 -6.419061
-16.432592 -2.954956
-15.637214 -2.274797
-16.060771 -1.058763
-15.764590 1.703295
-13.453747 2.278969
-13.740443 2.425726
-11.988071 4.328780
-11.678820 4.886440
-9.418641 4.904381
-7.616134 4.753285
-6.507517 4.807639
-5.547577 4.168360
-3.387768 4.369885
-2.956607 4.001851
-1.441123 1.388608
-3.424373 0.827172
-0.711410 0.098998
-2.631162 -1.384079
-1.619334 -2.473491
-1.977789 -3.561569
-3.281612 -3.748651
-2.605046 -4.095066
-5.102125 -5.286951
-4.467710 -5.916619
-5.620764 -5.577783
-6.971469 -4.647124
-6.240873 -4.492920
-7.669073 -4.040943
-7.002409 -4.307070
-7.571352 -3.552414
-7.836946 -2.908743
-9.215188 -2.890265
-7.607848 -1.720350
-6.858711 -1.829652
-7.799715 -0.576296
-7.565482 -1.814230
-6.080298 -0.898959
-6.763293 -1.352045
-6.130528 -1.851538
-5.069695 -1.833099
-5.520454 -2.031886
-5.081940 -2.383607
-5.325765 -3.590090
-5.409626 -3.554388
-5.845157 -5.153119
-6.312984 -5.325124
-7.617628 -4.509378
-7.392431 -5.399593
-7.964162 -5.088033
-9.609125 -5.076268
-10.598501 -5.230141
-10.170848 -4.368913
-11.598934 -4.119674
-12.457460 -3.911856
-12.459877 -3.319546
-11.475115 -2.025243
-13.934506 0.379717
-13.051482 1.619083
-12.723587 2.722354
-11.526271 2.655840
-9.513859 3.236347
-8.629627 3.311057
-6.855567 4.753121
-7.655874 4.900645
-6.187325 4.833117
-4.695106 3.649267
-4.256859 3.346231
-5.034796 2.391815
-2.347928 2.437710
-3.759195 2.072813
-2.373244 0.511742
-0.125773 -1.202512
-1.650930 -2.125089
-1.525797 -2.684745
-1.448269 -5.642132
-2.415532 -5.418568
-3.383061 -5.344819
-4.363674 -6.597144
-6.689559 -7.540399
-7.055710 -8.386347
-7.667787 -7.500969
-9.852425 -7.256926
-10.602749 -6.038232
-12.112176 -6.606254
-11.665006 -4.815612
-12.570334 -3.452823
-13.870427 -3.158492
-14.255770 -2.002666
-14.592452 -0.208716
-14.507831 0.774867
-13.964004 1.138229
-12.864276 2.795246
-12.734062 2.428077
-10.601910 4.449496
-10.607865 4.204155
-9.615025 3.509369
-9.493019 5.076349
-8.206494 5.229289
-6.076021 4.731388
-5.835918 5.292068
-6.838722 3.401709
-4.737001 3.486474
-3.203474 2.199883
-4.797593 2.545523
-5.085071 1.399154
-4.389983 0.349948
-4.969580 0.134385
-5.351247 0.498444
-5.046893 -1.701834
-5.233718 -1.228505
-6.235603 -0.879117
-6.212044 -1.247300
-7.043309 -1.697047
-7.857884 -0.532596
-8.706349 -0.169913
-8.319043 0.052453
-9.076428 0.561320
-8.247904 1.250833
-9.177548 1.486533
-7.679189 1.937747
-8.364861 2.477966
-7.676216 2.665644
-7.941989 2.803071
-6.436717 2.954304
-6.579332 3.484887
-4.986081 3.472747
-5.249999 2.285201
-4.712446 3.007966
-4.281167 1.636391
-4.900135 2.834650
-4.521886 0.729558
-4.522378 1.161441
-4.788687 -0.549869
-5.409295 -0.040765
-5.722756 -0.329856
-6.099204 -0.975299
-7.025567 -1.025244
-7.657452 -1.908857
-8.450224 -0.376043
-8.156705 0.363171
-9.243448 -0.177625
-9.901530 1.424998
-10.288287 1.070796
-9.981352 1.402502
-10.797165 3.319462
-10.363079 4.892103
-9.427548 5.507116
-8.790183 6.120830
-7.851390 6.810953
-7.957877 6.966427
-5.448045 7.989298
-6.108363 7.838843
-4.693023 7.860618
-2.821842 8.786459
-1.846880 7.836557
-0.973654 7.326751
-0.227922 7.613173
0.323546 5.734141
1.320282 4.175278
1.337566 2.742449
1.217137 2.111331
1.408713 1.286560
1.727795 -0.924057
0.777273 -1.643244
0.985052 -1.523024
0.003456 -2.612635
-1.796451 -3.765518
-2.565007 -3.947153
-3.958977 -3.570385
-4.223246 -4.937406
-5.913069 -3.945512
-7.321833 -3.454630
-7.743437 -3.792157
-8.859968 -2.392494
-9.200307 -1.291615
-9.720904 -0.213193
-9.966195 1.611843
-9.702643 2.232633
-9.716543 3.055928
-9.844857 4.464193
-7.905545 4.957627
-7.928128 6.449938
-7.156393 5.770648
-5.071766 6.942764
-4.578577 6.936352
-3.830933 6.735902
-3.123996 6.454647
-1.589592 6.392684
-0.831804 5.757296
1.139414 5.121764
0.871264 3.667612
1.334032 2.634479
1.631314 2.431153
1.046804 0.992147
0.958079 -0.769792
0.946032 -1.226906
0.579232 -1.678995
0.628064 -2.531786
-0.873274 -2.920588
-1.856171 -3.926380
-2.537110 -4.579321
-3.628316 -4.383105
-4.135273 -4.062626
-5.949104 -3.783631
-6.772222 -2.590663
-6.053143 -2.818424
-7.240479 -1.799717
-7.653577 -2.238597
-7.575008 -0.857168
-7.819193 -1.029558
-7.578733 0.670826
-7.547600 1.295952
-6.708124 2.084353
-7.209146 2.707836
-6.053133 3.087441
-5.815337 2.865005
-4.957078 2.750679
-4.795232 3.212511
-4.126280 2.496272
-4.049702 2.851014
-2.672807 2.990860
-3.737810 2.710422
-3.385621 2.138508
-3.264135 0.657835
-2.722842 0.563685
-3.543562 0.721153
-4.288560 0.190578
-4.057456 -0.121933
-4.461953 0.641461
-4.647868 -0.163616
-4.603558 0.047512
-6.168975 -0.030719
-6.213176 0.630097
-6.553043 0.806412
-6.602020 1.337899
-5.973301 1.112129
-6.810836 2.744913
-6.902489 2.686838
-6.055896 3.467120
-5.403293 3.738091
-5.542522 3.607843
-5.177662 4.093986
-4.235661 4.537071
-3.546176 4.412214
-2.993040 4.090331
-1.866428 4.524152
-1.929728 3.368384
-1.234163 2.641096
-1.384768 2.743827
-1.260719 2.360135
-0.848229 0.833549
-0.967957 0.583523
-0.999658 -0.297637
-1.802629 -1.248600
-2.190325 -1.329489
-2.787328 -2.046543
-4.046533 -2.790609
-3.931847 -2.703788
-5.553954 -1.897765
-5.740207 -2.112718
-6.325095 -1.877770
-7.149553 -1.243441
-7.333597 -1.501463
-8.453940 -0.547666
-9.177359 0.453499
-8.972065 1.188349
-9.433932 1.249011
-9.604812 2.316719
-9.879705 3.889181
-9.055098 4.624001
-8.338626 5.026159
-8.026720 6.441784
-6.721782 6.766527
-6.862921 6.637395
-6.581310 6.949207
-4.910865 7.626561
-3.700840 6.921945
-3.276245 7.238145
-2.738218 7.329465
-1.702968 7.090763
-1.763904 7.003631
-0.294618 5.501438
-0.396617 5.080985
0.148006 4.818227
0.783044 3.764484
0.429611 3.706042
-0.232117 2.460952
-0.403876 1.609201
-0.007217 1.014180
-0.527604 1.043204
-0.716431 0.651218
-1.705025 0.164011
-1.926298 0.468675
-2.407014 0.208372
-2.743302 -0.045664
-2.732281 1.024296
-3.748275 0.041678
-3.807882 0.012408
-4.693292 1.241103
-4.098597 1.598799
-4.015952 1.576636
-4.135498 2.139174
-3.883038 2.231580
-4.006467 1.962244
-4.288777 2.854029
-3.405131 3.788803
-2.959355 3.605932
-3.426242 2.843931
-3.002586 2.708483
-2.151451 3.446419
-2.706714 2.874810
-2.304390 3.492325
-2.708637 2.659894
-1.811782 3.058927
-2.312225 2.310813
-1.937323 1.951141
-2.563026 1.706945
-2.438937 1.805927
-2.624859 1.812326
-3.113439 2.059249
-2.765053 1.892536
-3.168949 1.511906
-3.232742 1.810841
-3.177822 2.517387
-3.950567 2.092363
-3.306533 2.897362
-3.837302 3.041120
-2.600925 2.895480
-3.287558 2.839558
-2.562269 3.300428
-2.632830 3.193058
-2.917168 2.933106
-2.165906 3.368617
-2.087063 3.437681
-2.000019 2.542051
-1.682522 3.082574
-1.405855 2.879814
-0.580385 2.649781
-1.215396 2.190511
-1.302140 1.862521
-0.757096 2.143058
-1.340625 1.541340
-1.053436 1.010759
-1.186983 0.572173
-1.942762 0.749940
-1.775145 0.277223
-1.861964 0.122851
-2.540296 0.450078
-2.535348 0.090726
-3.286815 0.152608
-2.892027 0.511483
-3.678752 0.042984
-3.801667 0.652202
-3.768361 0.566043
-3.790366 0.942221
-3.879533 1.570585
-3.531721 1.897273
-3.539952 1.329080
-4.039745 2.204480
-4.056781 2.522077
-3.590098 3.097842
-3.507133 2.350443
-3.739254 3.053722
-3.350795 3.310839
-2.622107 2.946938
-3.054880 2.895404
-2.345258 2.557624
-2.016363 3.019517
-1.774861 3.274300
-1.922800 2.481634
-1.336119 2.167984
-2.305523 2.171311
-1.598170 2.567671
-1.595964 1.308072
-2.314590 1.084441
-1.942525 1.003163
-1.672662 1.393749
-2.113140 0.781956
-1.676124 1.130190
-2.343738 0.548070
-2.560972 0.875262
-2.483684 0.592307
-3.023265 0.892363
-2.979837 0.713024
-3.213739 0.687704
-3.718405 0.210744
-3.789107 1.135896
-3.810814 0.625519
-3.510673 1.215967
-4.094617 1.097758
-3.921014 1.016362
-4.516014 0.927188
-4.030328 1.013287
-4.619704 1.196470
-4.463673 1.554418
-5.027219 1.664137
-4.495371 2.338708
-5.134154 1.957865
-5.076529 2.058567
-4.965881 1.923862
-4.862664 2.830743
-4.729230 3.119132
-5.094814 2.722216
-5.540621 3.441232
-5.430925 4.089391
-5.130567 4.589672
-4.697287 4.386769
-5.138282 5.225046
-4.564876 4.966166
-3.851302 5.231612
-3.414858 5.539044
-3.470008 5.851258
-2.641494 5.707202
-1.964088 5.492492
-2.238954 6.197551
-1.831940 5.143821
-1.397952 5.363102
-0.180047 5.386863
0.057618 5.130644
-0.217793 4.846892
0.516932 4.394811
0.967762 3.683417
0.637816 3.104597
0.485420 3.097478
0.326088 2.133766
0.298681 1.931775
-0.257363 1.558730
-0.469404 0.917674
-0.426075 0.804990
-1.378981 0.403291
-1.902078 0.490995
-2.353228 0.061779
-2.511722 0.325445
-3.039735 0.684769
-3.758465 0.892201
-4.157541 0.830599
-4.782890 1.657240
-4.923704 1.831111
-5.094927 2.739431
-5.210542 2.659054
-4.909642 3.964991
-4.775409 4.069066
-4.585824 4.911896
-4.450710 5.745168
-3.673417 5.354976
-3.604697 6.250719
-2.799221 6.132766
-2.297929 6.452726
-1.325150 6.684844
-0.473561 6.655938
0.490866 6.421500
0.375191 6.201500
0.535732 5.301981
1.003527 5.419783
1.976572 4.825289
1.966221 4.238943
1.629614 3.604331
1.834851 2.692978
1.548911 2.300823
1.567513 2.305240
1.526305 1.353310
0.577564 0.812473
0.275543 0.876153
-0.040173 0.552188
0.159806 0.062355
-0.491037 0.011961
-0.960001 0.724388
-1.248615 0.993304
-2.344896 0.459402
-2.402447 1.667408
-2.455570 1.764707
-2.888737 1.945470
-2.601180 2.581737
-2.838632 2.757114
-2.481641 2.864418
-2.436518 3.372065
-2.223497 2.966002
-2.385839 3.581597
-1.788167 3.864383
-0.730745 3.683245
-0.870918 4.061177
-0.747694 3.611670
-0.382484 3.663278
-0.254248 3.275006
0.045569 3.216945
0.518779 2.754770
0.272198 2.613245
0.583913 2.254705
0.561641 2.193596
0.020565 1.804558
-0.190720 1.332628
-0.332616 1.509560
-0.653217 1.091612
-0.648643 1.390747
-0.970691 1.232179
-1.174846 0.881011
-1.162886 1.102856
-2.251542 1.553811
-2.186197 1.967227
-1.637206 2.282182
-1.500319 2.434236
-1.423066 2.918449
-1.919261 3.148035
-1.509448 3.142272
-1.520989 3.340030
-0.989328 3.613860
-1.227317 3.341262
-0.678888 3.635037
-0.008961 3.562158
0.651232 3.015384
0.936961 2.561591
0.799866 1.914987
1.375996 2.332862
0.981345 1.621364
1.069704 1.157696
1.309395 0.249198
0.924454 -0.097686
1.378136 -0.767533
0.596917 -0.387234
0.213206 -1.233058
-0.616476 -1.062867
-0.901209 -1.670421
-1.721548 -1.361176
-2.478162 -1.345794
-3.132685 -0.927234
-3.229525 -1.181992
-4.000021 -0.444728
-4.927903 -0.258552
-4.821552 0.258096
-5.219261 0.548985
-5.382690 1.214072
-5.537718 2.433844
-5.034714 2.947927
-4.581305 3.711290
-4.406287 3.755843
-4.014984 4.681564
-3.468077 5.204903
-2.586073 5.587693
-2.571894 5.147696
-1.643520 5.351113
-0.755226 5.585078
-0.598115 5.231363
0.385084 5.170062
0.553059 4.492129
1.138526 3.654322
1.251566 3.547531
1.602703 2.834189
1.870862 2.217935
1.186113 1.675645
1.643436 1.062237
1.045651 0.450647
0.836038 -0.414506
0.222172 -0.414214
-0.477187 -0.203556
-0.927691 -0.435138
-1.549655 -0.529328
-2.333150 -0.508023
-2.605660 -0.363355
-3.188734 -0.210460
-3.395617 -0.435178
-3.950676 0.554704
-4.096336 0.283942
-4.366502 1.341350
-4.642877 2.067463
-4.274425 2.315670
-4.435889 2.716317
-4.658185 4.460510
-3.662035 4.232788
-3.187371 4.342246
-3.595917 4.858168
-2.641524 4.933023
-2.431015 4.683697
-2.204480 4.685366
-1.515504 5.135173
-1.181711 4.826744
-0.968519 4.692426
-0.464742 4.787426
0.092674 4.358701
-0.093790 3.890309
-0.077144 3.721641
-0.366851 3.331906
-0.674790 2.975019
-0.667157 2.982911
-0.398156 2.645250
-0.669694 2.645130
-0.889231 2.768652
-1.131667 2.527136
-0.794659 3.623813
-1.712011 2.952016
-1.499165 3.332906
-1.859300 3.893801
-1.514649 3.833141
-1.686205 4.345008
-1.633098 4.085576
-0.715457 4.851909
-0.320056 4.595479
-0.439616 4.619078
0.221452 5.034070
0.090423 5.157452
0.822018 5.007743
1.027461 5.278216
1.343379 4.655521
1.557680 4.532768
1.741089 4.470176
1.865292 3.781774
2.613162 3.165511
2.133876 2.737014
2.699332 2.302229
2.555663 1.753276
2.005364 1.686532
1.197533 1.350671
1.482494 0.801938
0.911557 0.542246
0.556713 0.505282
0.058156 0.497345
-0.591416 0.535782
-0.591003 0.754621
-1.049904 1.254613
-1.123007 1.311974
-1.456526 1.877219
-1.787764 1.838861
-1.944286 2.491726
-1.968411 2.191914
-1.971382 3.164556
-1.392609 3.569698
-1.560845 4.013085
-1.189763 3.394650
-0.717203 4.536051
-0.049610 4.204411
1.162355 4.695489
0.740716 5.345506
1.336883 4.304499
1.926673 4.113393
2.372755 3.800275
2.596776 3.737655
2.779529 3.555340
3.018154 2.351839
3.303013 2.012599
3.436634 1.406503
3.232793 1.061607
3.090985 1.085459
2.596555 0.425078
2.073456 -0.267947
2.301239 -0.218452
1.784082 -0.465886
0.944566 -1.371651
0.280058 -1.225002
0.330479 -0.851611
-0.284667 -0.921700
-0.678166 -0.719839
-0.702747 -0.496840
-1.375700 -0.391417
-1.515371 -0.479859
-1.751155 -0.033145
-1.597855 0.070765
-1.880920 0.616271
-1.817940 0.803341
-2.213233 1.330436
-1.773628 1.781485
-0.928983 1.602076
-1.376304 2.200803
-1.246789 2.461593
-0.443767 2.299209
-0.752341 1.494552
-0.529611 2.124627
-0.477200 2.268995
-0.343064 1.935756
0.032604 2.033745
-0.263057 1.153468
-0.088089 1.727379
-0.384416 1.796160
-0.248218 1.418695
-0.083115 1.371131
-0.431975 1.432503
-0.047761 1.042599
-0.156830 0.785388
-0.661669 0.876593
-0.668610 1.505316
-0.946948 1.128353
-1.458226 1.256234
-1.142885 1.721020
-0.802126 1.250769
-0.900029 1.591427
-0.826694 1.128588
-0.999960 2.294125
-1.357430 1.731795
-1.202660 1.484953
-0.499958 1.368600
-0.873458 1.910523
-0.563158 1.865724
-1.108411 1.841077
-0.751189 1.454304
-0.518639 1.327620
-1.187995 0.874713
-0.857355 1.139161
-0.758094 0.959113
-0.949009 1.226296
-1.605157 1.678517
-1.394953 0.940580
-1.849248 1.286670
-2.511167 0.931951
-2.535202 0.804783
-2.627630 1.664664
-2.760573 1.583338
-2.866873 2.249655
-3.385069 2.279463
-2.931548 2.692525
-3.364553 2.728537
-3.160464 2.904264
-3.334885 3.750009
-3.165428 4.562942
-2.750291 4.620372
-2.854748 5.186869
-2.115200 5.202036
-1.700789 6.397073
-0.982626 6.442241
-0.731348 6.516299
-0.406524 6.422518
-0.301650 6.283426
0.768885 5.853552
1.392661 5.361646
1.462444 5.270522
2.154556 5.404363
2.066270 5.153567
2.517520 4.478646
3.048455 4.431805
2.912891 3.402964
3.225029 3.044363
2.717938 2.621218
2.894428 2.568080
2.608775 2.479099
2.886881 1.684953
2.011152 1.785344
1.363334 1.264070
1.040110 1.849435
1.189926 1.122351
0.973658 1.411722
0.557718 1.305969
0.409302 1.778202
0.200181 1.727871
-0.309870 1.900388
0.446769 2.149611
0.056913 2.774389
-0.145764 2.439734
0.075669 2.500900
-0.249602 2.533739
-0.060272 2.930979
0.290373 2.941396
0.856545 2.962516
0.859528 3.679705
0.782649 3.387767
1.040445 3.473597
1.482666 3.509937
1.402210 3.548477
2.105854 2.882936
1.873214 3.134396
2.239553 2.818893
2.262418 2.615420
2.562404 2.573890
2.553070 1.860628
2.405657 2.319934
2.696900 2.301230
2.247806 1.592408
2.229769 1.256438
1.784301 1.665994
2.545189 1.542456
2.451653 1.442760
2.287675 1.374106
1.877702 1.482922
2.214578 1.665662
1.593361 1.381940
1.902640 1.448111
2.180374 1.313444
1.989438 1.437485
2.352940 1.095944
2.183728 1.298770
1.811218 1.078837
2.270316 0.870494
2.372511 0.776055
1.959660 0.616774
2.749006 0.330101
3.238252 0.060228
2.091435 -0.391223
2.002650 -0.388289
2.124699 -0.502933
2.014639 -0.609980
1.509906 -0.792526
1.409383 -1.000234
1.134175 -1.385883
0.914408 -1.023286
0.349656 -1.669306
-0.135458 -1.442958
0.017150 -1.015541
-0.592719 -0.772630
-0.781335 -0.677204
-0.882421 -0.347565
-1.139831 -0.000075
-1.041021 -0.111064
-1.215587 -0.008415
-1.195065 0.556804
-1.770463 0.780849
-1.530841 1.460374
-0.766874 1.465432
-0.862245 1.746497
-0.781957 1.796306
-0.997790 2.192825
-0.185846 2.045089
-0.322963 2.376131
0.084488 1.912231
0.110844 2.336441
0.511985 2.254223
1.047385 1.901440
1.277593 1.627942
1.282044 1.393985
1.502241 1.196542
1.127230 1.024314
0.755178 1.170759
0.870523 1.054884
0.669451 0.406319
0.800353 0.121466
0.727231 -0.585198
0.416749 -0.284303
0.349923 0.583585
0.103987 -0.157411
-0.311587 0.035150
-0.270464 0.325248
-0.582728 0.378095
-0.988401 0.450871
-0.884813 0.390958
-0.760181 1.237679
-1.723393 1.526807
-1.221265 1.710747
-1.372892 0.869431
-1.319072 1.670889
-0.964384 1.206791
-1.025299 1.900411
-0.594089 2.614356
-0.409277 2.242304
-0.407594 1.953349
-0.295753 1.769351
0.020518 2.529568
0.050632 2.469336
0.676301 2.420868
0.399085 1.930784
0.789612 1.512636
0.278932 1.651347
1.181788 1.576902
1.259382 1.322827
0.864777 1.821111
1.093554 1.095369
1.020299 1.427361
1.365459 1.532478
0.683377 0.897953
0.977018 0.426065
0.745474 0.322645
0.265411 0.517860
0.712822 0.564743
0.536081 0.395986
-0.397767 0.757101
0.191687 0.895850
0.103423 1.165926
0.125149 0.998456
-0.427450 1.011183
-0.180431 1.006637
0.125611 1.243899
-0.202220 0.751317
0.121438 0.909754
-0.450379 1.114491
-0.396449 1.751252
0.206257 1.300666
-0.163508 1.538879
-0.198256 1.195223
-0.111366 0.880549
-0.270816 0.835518
0.007321 1.667068
-0.965992 1.252502
-0.375472 1.785265
-0.236239 1.637531
-0.021025 1.598303
-0.229388 0.806624
-0.758667 1.889246
-0.553025 1.537964
-0.704178 1.445916
-0.837552 2.043387
-0.158035 1.924095
0.131223 1.915704
-0.324855 2.319450
0.371330 1.702172
0.623661 2.312727
-0.012878 2.185436
0.670815 2.091987
0.967995 2.288698
0.707844 2.743863
0.786018 2.456415
1.031270 2.663888
1.197183 1.684445
1.372167 2.287719
1.048607 1.919099
0.915667 1.732445
1.015790 1.749096
1.395256 1.564268
1.547302 1.372983
2.127234 0.931217
1.639287 1.051161
1.427253 0.622775
1.120171 0.469124
1.023950 0.658959
1.545871 0.663600
0.856942 0.405888
0.971313 0.281858
0.657681 0.305432
0.752381 -0.063510
0.154363 0.023462
0.149265 0.244304
0.072361 0.501054
-0.191125 0.431069
-0.586225 0.323435
-0.321962 0.935231
-0.255558 0.664261
0.172787 1.506312
0.156368 1.253695
0.406329 1.446997
-0.018274 1.636977
-0.174887 1.540940
0.457487 1.729359
0.288255 2.167090
0.313343 1.817516
0.582966 1.354908
0.324198 1.771084
0.662491 1.679363
0.800941 1.194917
0.419967 0.909517
0.543529 1.320837
0.290150 1.357940
0.873299 1.087572
1.143029 1.217383
0.744602 1.082001
0.979122 1.107697
0.681879 0.912543
0.912718 1.230817
1.271966 1.366388
1.095375 1.440119
0.530574 1.339522
1.102031 1.383107
1.362250 1.968984
1.187584 1.406463
1.336765 1.533767
1.394685 1.434134
1.597884 0.994231
1.488627 1.663809
1.629511 1.325836
1.401703 1.146074
1.445015 0.979608
1.975072 0.374649
1.746813 0.728389
1.879768 0.774140
2.322523 0.224764
1.741807 0.500463
1.775723 -0.222210
1.651067 -0.323973
1.209651 -0.593135
1.434049 -1.279736
1.456071 -0.481712
0.935026 -0.588325
0.631747 -0.445403
0.256327 -0.746494
0.119256 -0.684145
0.492142 -0.122985
-0.075563 -0.643456
-0.144434 -0.026566
-0.448673 -0.810790
-0.510133 0.077921
-0.144436 0.185959
-0.506586 0.221049
-0.507241 0.620269
0.183887 0.884691
0.509190 0.263342
-0.266030 0.741701
0.225373 0.753941
0.295654 1.177184
-0.095929 0.735671
0.775338 1.041486
1.092081 0.937553
1.376140 0.425595
1.383827 -0.284232
1.100519 -0.189845
1.040145 -0.317577
0.631779 -0.259064
1.163086 -0.537338
1.457020 -0.865581
0.660430 -1.031086
1.139738 -0.781909
0.572650 -1.429308
-0.230588 -1.641514
-0.654523 -1.673998
-0.245780 -1.531450
-0.975947 -1.588665
-1.693972 -1.103293
-1.661919 -0.998722
-1.631023 -0.831783
-1.443705 -1.010266
-1.958234 -0.431058
-2.107622 -0.588774
-2.434578 -0.580093
-2.364485 0.391772
-2.001212 1.157733
-2.579531 1.081760
-2.553888 0.942000
-2.015846 1.029974
-2.583081 1.331835
-1.525274 1.779390
-1.011224 1.847830
-1.451134 1.738397
-1.237728 1.793631
-0.992103 2.309148
-0.274519 1.505170
-1.267113 1.692216
-0.749332 2.268413
-0.138901 1.416562
-0.644483 1.465062
-0.520911 1.352447
-0.496192 1.368564
-0.808377 1.309624
-0.808516 1.983940
-0.776873 1.695583
-0.683462 1.732111
-0.668253 2.030404
-1.350278 1.493132
-1.145439 2.081952
-0.921622 1.852976
-0.654398 2.314793
-0.435075 2.100588
-0.171884 2.647056
0.867266 2.535466
0.108670 2.732460
0.212390 2.378948
1.076647 2.149532
0.472728 2.742827
1.052058 1.984855
1.215256 1.968704
1.341696 2.043592
1.283049 1.405462
1.205058 1.361353
1.421189 1.582695
1.131401 1.406869
1.321830 0.465744
0.900297 0.442750
0.383498 0.191187
0.335751 -0.296921
0.290960 -0.005030
-0.139721 -0.199862
-0.317998 -1.105249
-0.963561 -0.369313
-1.678827 0.321136
-1.577737 0.540363
-1.968906 0.713257
-2.081140 0.866320
-2.419974 1.332583
-2.421987 1.940547
-2.262601 2.376523
-2.089674 2.991115
-1.629906 3.197909
-1.554003 3.641898
-1.008385 4.142243
-0.675613 4.699798
-0.327975 4.927180
0.161173 4.931514
1.075516 4.452086
2.017700 4.753594
2.406792 4.356092
3.210804 3.922731
3.470020 3.546240
3.287187 3.053700
4.453705 2.863311
5.022882 1.932312
4.486365 1.215585
4.773242 0.661211
4.541491 -0.112004
4.222810 -0.250370
4.104468 -0.576948
3.469258 -1.694445
2.967235 -2.075836
2.272541 -2.598213
1.966485 -2.014172
0.879381 -2.675937
0.505182 -2.335802
0.540968 -2.159981
-0.409381 -1.586545
-0.602434 -1.425177
-0.878686 -1.222282
-1.409964 -1.234687
-1.579372 -0.538369
-1.989307 -0.389392
-1.000474 0.282172
-1.116250 0.264003
-0.888308 0.689633
-0.870862 1.214310
-0.127787 1.196260
0.066817 2.061380
-0.001152 2.145465
0.918364 1.506253
0.763817 1.880033
1.112482 1.103303
1.753102 1.468455
1.962906 1.411180
2.239529 1.120449
2.243041 -0.133866
2.689200 -0.425612
2.429467 -0.034011
1.786812 -1.494778
1.510043 -1.406090
1.559456 -1.256554
0.655090 -2.224061
0.321029 -1.771907
0.672159 -2.831652
0.122029 -2.441795
-0.861420 -2.175538
-0.909207 -1.949518
-0.859465 -1.477827
-2.186063 -2.015878
-2.388264 -1.165865
-1.865496 -1.077055
-1.575410 -1.041484
-2.087561 0.101145
-1.532389 0.119402
-1.471940 0.406186
-1.602276 0.118216
-1.427570 1.223052
-1.094552 0.660662
-0.681312 1.321052
-0.258956 0.067223
0.068450 0.264221
0.515074 -0.302847
0.277103 0.409017
-0.370766 -0.595075
0.115861 -0.685376
-0.133710 -0.716114
-0.626980 -1.001097
-1.092466 -1.178247
-1.139697 -1.013692
-1.428825 -0.877669
-1.521395 -0.882833
-2.532482 -1.799385
-3.427763 -1.064036
-3.459251 -1.183780
-3.971601 -1.040616
-4.165446 -0.044084
-4.269572 0.199885
-4.208341 1.696284
-4.730123 1.204086
-4.529016 1.718025
-4.221239 2.721797
-4.213761 3.049946
-3.531657 4.086677
-2.496942 4.640958
-1.761156 5.049532
-1.489145 4.413596
-1.270278 4.299165
-0.197431 4.939447
0.445632 5.021476
1.326424 3.509336
1.724144 4.180576
2.172853 3.050076
2.641239 2.280795
2.562081 1.731845
2.551073 1.139805
2.447472 -0.300998
2.023646 -1.040087
2.269945 -1.339936
1.560280 -1.869195
1.286236 -2.098546
-0.125212 -2.272122
-0.595369 -2.456665
-1.520753 -2.819909
-2.499071 -2.673260
-3.238413 -2.583996
-3.889633 -1.614074
-4.538250 -1.287055
-5.125309 -0.367707
-5.764120 0.304249
-5.599532 1.383383
-6.730476 1.937806
-5.953851 3.468016
-5.646907 3.609529
-5.389421 4.679380
-4.476184 5.655802
-2.809326 6.226559
-2.946663 6.281648
-2.647149 7.288551
-1.229972 6.370256
-0.542999 7.152627
0.886443 6.682006
1.827374 6.331179
2.101344 5.989487
2.478552 5.985912
3.551514 4.699268
3.635899 4.268665
3.925118 3.523643
3.183573 2.810932
3.288304 1.751563
3.558382 0.768067
3.115022 0.155247
2.749067 0.493678
2.007493 -0.744166
1.147390 -0.749765
0.522694 -0.957864
0.161282 -0.184652
-0.021829 -1.010656
-1.447814 -0.204233
-1.333290 0.683462
-1.080548 0.851215
-2.394438 1.577246
-1.810808 1.879854
-1.772031 2.257344
-1.857127 2.809543
-0.882495 3.293075
-0.998687 4.121883
-0.106958 3.589520
0.147662 4.047315
0.348785 3.485905
0.993469 3.929454
1.936216 4.290923
2.733613 3.050844
3.143089 2.960063
2.618603 2.108480
3.578792 1.532694
3.228171 1.176129
3.134401 0.454465
3.848939 0.208067
2.564979 -0.656170
2.427734 -0.925406
1.833422 -1.946261
1.556209 -1.945779
0.944745 -2.052658
0.227168 -2.025157
-0.616279 -2.541859
-1.549864 -1.906222
-1.892309 -1.729076
-2.204062 -1.228161
-3.121278 -1.181663
-3.405353 0.597777
-3.457848 0.390642
-3.177185 0.720663
-3.228388 1.433236
-2.512024 2.801255
-2.576638 3.121381
-2.875696 4.143631
-2.425617 4.738199
-0.865891 4.747634
-0.737560 4.313144
1.018013 4.018928
0.668320 4.159729
2.042283 4.305674
2.745847 3.634495
3.125462 2.603937
3.385263 2.365413
3.803956 1.857215
3.617457 0.199797
2.982249 -1.140181
3.529315 -0.881638
2.766649 -1.729983
2.267348 -2.560698
2.207059 -2.798273
0.924862 -3.225948
-0.024337 -3.329157
-0.896834 -3.607192
-0.948497 -3.997277
-1.357584 -2.050659
-3.384747 -2.986733
-4.044585 -2.520465
-4.871388 -0.848398
-4.692535 -0.599002
-3.999025 0.023830
-4.772621 0.677041
-5.121975 1.489524
-4.477988 2.205150
-4.591389 3.596403
-2.980853 3.907776
-2.227079 3.877352
-2.391586 4.096727
-1.218099 5.243830
-0.979373 4.804169
-0.225344 4.074886
0.405461 4.475108
0.788710 3.361288
1.554202 3.252925
2.377193 2.381677
1.893487 1.962850
2.136132 1.678850
2.118031 1.228502
2.756154 0.498136
1.344745 0.219598
0.699216 -1.024258
0.703609 -1.703291
-0.001611 -1.526161
-0.690428 -1.366490
-2.006905 -1.995176
-2.199338 -1.095693
-2.250739 -1.029792
-3.046170 -0.904798
-3.264064 -0.458104
-3.639667 0.325787
-4.701917 0.165160
-5.282354 1.327834
-4.194642 1.431955
-4.281915 2.455727
-3.611801 3.081657
-4.377820 4.966864
-2.375967 4.217027
-2.431548 4.119492
-2.332566 4.770107
-1.205763 4.961437
-1.530453 4.647964
-0.095393 4.874676
0.315107 3.986212
-0.017813 4.118294
0.571569 3.699159
0.383029 3.346486
0.982674 2.754399
1.263571 1.571869
0.688533 1.967679
0.397687 2.157001
-0.054511 0.416709
-0.157375 1.041591
-1.402494 1.167652
-2.101245 1.499086
-1.844754 1.061067
-2.186365 1.611805
-2.091112 1.593413
-3.221105 1.762355
-3.218808 3.233608
-3.267433 3.845985
-2.906834 3.388130
-2.769601 4.884818
-1.747655 5.153932
-1.630892 5.759818
-1.147315 5.635029
-1.024172 5.675054
-0.150887 5.745027
0.771788 6.029344
0.890785 5.601507
2.718670 5.848491
2.396893 4.231430
3.555439 4.379479
4.340005 3.306083
4.119698 2.008020
3.834775 3.019370
3.517343 1.353018
3.511767 0.304584
2.623566 -0.254103
2.601481 -0.665763
3.026338 -1.758351
1.515236 -2.546094
0.758266 -1.879673
-0.083886 -2.034338
-1.496512 -2.538443
-1.849872 -1.593923
-2.930627 -1.649882
-3.770038 -1.039334
-3.896567 -0.772821
-3.524740 1.078566
-4.667642 1.410579
-4.363758 2.676343
-4.747705 3.672589
-4.678069 3.677167
-4.200401 5.115387
-2.767591 6.654735
-2.845987 6.461359
-1.375269 7.782172
-0.607067 7.864641
0.037098 7.678839
0.915385 7.213406
1.749500 6.805685
2.803017 6.193453
3.628273 6.789153
4.437577 4.670533
4.600555 4.798631
5.072629 3.138907
6.553169 3.622538
5.787687 1.941996
5.768568 0.850764
5.199322 0.587606
3.867151 0.164222
3.744438 -0.727041
3.476380 -1.080410
2.276533 -2.365294
2.615207 -1.931385
1.467323 -2.555926
-0.705604 -1.586924
-0.038272 -2.040417
-1.453664 -1.973697
-2.805382 -1.374721
-2.191494 -0.970754
-2.385662 -0.507168
-2.891376 0.254162
-2.745034 0.534038
-2.457882 1.729360
-1.985519 1.370356
-2.471339 3.046272
-1.676052 2.434616
-1.270423 2.387489
-1.021837 4.067890
-0.250325 1.855712
-0.407390 2.361174
-0.799550 1.981411
-0.427987 1.611055
-0.597662 2.447441
-0.353749 2.005315
-0.233445 1.790814
-0.341263 0.957776
-0.858259 0.351376
0.018952 0.805098
-0.251163 0.841752
-1.736997 1.042634
-2.406626 1.633938
-2.280781 1.355399
-1.666205 2.352968
-2.094053 1.400324
-2.743071 1.676743
-2.896705 2.666388
-2.990164 2.905114
-2.390988 3.760252
-2.206064 3.557421
-1.870398 3.834946
-1.213711 4.823211
-1.144173 4.926818
0.027045 4.304600
0.296343 4.244307
0.496145 4.158026
0.552527 3.868636
1.358174 3.419989
1.310302 3.937170
3.260035 2.288835
2.632920 1.934427
1.502937 1.283560
2.370632 -0.118840
1.272140 -0.319523
1.180782 -0.888578
1.178240 -0.485130
-0.212335 -0.987337
-1.128704 -2.084047
-0.769085 -2.521938
-1.621418 -2.247455
-2.864433 -1.870974
-5.219032 -1.791843
-4.545048 -0.906741
-6.685899 0.338731
-6.783156 0.650686
-6.904070 0.542500
-7.144738 2.506590
-8.389160 2.575243
-7.663514 4.289889
-6.315857 4.542822
-6.973074 6.660004
-6.221452 7.061260
-5.016423 7.537979
-4.380817 8.394329
-3.628914 9.340099
-3.018251 8.335001
-1.763933 9.236863
-0.954343 8.700056
-0.352695 9.677694
1.323234 8.151128
1.395925 7.826442
1.707700 7.085318
2.758950 6.995179
3.122710 6.146126
2.851966 4.184235
2.457690 3.526347
2.464050 3.124220
2.406241 2.209970
1.342673 2.082728
0.173726 1.133212
-0.668966 1.313379
-0.901950 1.687268
-1.424087 1.425118
-2.211999 0.925118
-3.027597 1.594242
-3.634018 1.947446
-5.111639 3.480451
-4.665118 3.783062
-5.294353 4.796100
-4.408528 5.074927
-4.678965 7.019921
-4.345364 6.572301
-3.810692 6.768690
-4.618409 8.097625
-2.779117 8.530351
-2.310565 9.145809
-2.896137 9.895982
-0.907162 9.809263
-0.550195 9.840606
0.422727 8.943163
1.350043 8.667030
0.991858 8.586101
1.353405 8.713235
2.343028 9.224922
3.034766 8.094006
3.020400 7.656968
2.553225 8.504135
3.937261 6.347229
2.143403 5.680866
2.267748 6.036036
2.003244 6.078363
2.136430 6.678911
2.244092 6.364269
2.262752 6.446532
2.644036 6.421680
2.221103 6.256368
2.657634 6.060539
2.820686 6.446143
2.108808 6.457390
2.902536 7.504781
2.725942 7.548923
3.396370 7.321513
5.397469 6.441542
4.643009 6.511963
5.065504 5.511062
5.363259 5.742914
5.835217 4.769840
7.166566 4.105408
6.222140 3.379429
6.725522 2.713431
6.334020 1.906578
5.924503 -0.709414
5.755455 0.005539
4.645048 -0.286496
3.169186 -1.130346
2.282481 -1.361923
1.332868 -1.683654
1.983301 -2.717196
0.111895 -1.953632
-0.470843 -0.834841
-1.862276 -0.502468
-3.546750 -0.665349
-2.734765 1.003279
-4.075255 2.078656
-4.018773 3.349945
-4.328011 4.063224
-4.426485 4.319146
-3.162172 5.286654
-4.552842 6.892600
-1.996710 7.987698
-2.939175 8.140385
-1.233206 7.987991
-0.240752 9.591933
1.875381 9.106534
1.353997 8.928294
2.652351 8.842100
3.912975 8.073611
5.738309 9.509546
4.744600 6.464669
5.527216 6.059501
6.248401 4.555805
6.658900 4.175867
5.884698 2.807082
5.504428 0.413626
5.910285 0.001789
3.693511 -0.335578
4.022400 -1.240208
2.802366 -2.184643
2.676230 -1.830991
-0.538334 -1.703331
-1.087771 -2.765275
-0.595708 -1.828043
-4.042838 0.464428
-4.872821 -1.815368
-6.161916 -0.625893
-5.539408 1.396491
-6.853028 2.526467
-5.666031 3.328179
-6.078968 2.889846
-5.591871 5.778178
-4.120534 6.899686
-5.928367 6.734418
-3.830545 8.545868
-5.283205 10.557346
-1.777999 8.561952
-2.650380 12.051124
-2.401662 9.815396
-0.775136 9.801805
-1.478699 7.616469
1.367027 9.148799
0.432683 8.556828
-0.813681 6.888325
2.729127 5.340770
0.932948 7.260572
0.546090 8.676644
1.037865 3.511244
1.082011 4.816406
0.637807 6.773595
4.610823 3.959437
-4.032612 2.443340
-5.432013 3.652573
-4.334653 4.252015
-1.191955 8.251259
-3.058324 9.145452
-4.776488 11.516666
-3.337028 10.262966
-4.827349 9.656174
-2.307095 10.155479
-2.970150 7.967985
-1.334477 10.634506
0.190973 13.446267
-0.736195 8.377459
-1.266136 11.031298
-0.652721 11.242417
0.006997 11.887406
1.280928 8.850415
2.098940 11.365745
2.082226 7.460248
4.549847 9.947181
2.715405 9.592199
2.399919 10.291149
5.162518 4.706234
3.969794 6.992062
0.737381 6.630386
2.622299 5.222053
1.841683 7.327848
0.739402 6.884861
-1.423048 6.423324
-0.116659 5.663825
-1.172324 8.996916
-0.112472 7.786186
-1.778512 7.794701
-2.850399 12.015621
-2.591465 10.859391
-1.555769 13.417345
-2.629688 14.852312
-0.931420 14.493238
0.185273 18.614436
0.115765 15.471440
0.633438 18.439310
2.700656 18.765079
6.225356 18.735393
5.109299 18.096413
6.118742 17.628372
9.944841 17.239324
8.595898 15.022601
11.889127 15.596444
10.571132 14.028742
13.233719 12.014138
12.642204 10.049110
10.450685 9.835627
11.228247 6.527984
12.148936 5.798538
10.179768 3.287648
8.026320 4.187937
6.687773 3.290077
6.811488 1.984859
5.269331 3.149851
5.042230 3.071693
1.325754 4.141401
1.750258 3.601648
-1.126047 4.509790
-1.527366 6.922433
-3.903859 5.260997
-4.305018 10.371325
-1.129560 13.067904
-1.057488 11.903978
-1.837782 11.273071
-0.053914 12.980744
0.926278 14.078514
3.515406 14.335084
-1.778005 15.902998
4.519540 20.342730
4.000388 16.056337
3.747969 16.930707
7.739413 14.218954
4.681460 17.060604
12.824911 10.657134
2.298225 8.746342
8.769527 13.465815
6.712548 10.447531
5.760789 11.332682
10.032679 8.272785
3.002836 21.748353
8.147096 1.461725
2.047468 15.052691
6.322611 14.153873
0.791427 11.265079
-4.724986 16.153590
3.843173 6.761952
-4.134962 34.180548
-9.768726 10.916328
2.199571 14.893270
7.825789 25.344030
11.104171 23.819039
4.247385 13.214766
-1.261856 3.148702
19.362763 24.080611
16.741816 36.470267
8.386177 20.406322
13.034172 42.429914
48.207505 46.455529
19.318913 20.076062
32.223021 24.131334
2.681257 16.266299
5.468758 -2.472440
33.616413 14.592289
47.712635 -9.379184
7.331910 1.524017
15.485480 0.090035
-2.337658 11.762363
-2.922440 -12.851237
1.422076 -7.876398
-0.282613 -2.956600
-4.082636 -1.927530
-9.457178 -3.583621
-10.277164 2.619854
-7.074265 -2.229503
-11.291461 -2.119414
-14.673429 6.331454
-15.187547 17.213169
-20.129381 16.448814
-13.310507 23.497559
-12.643384 28.910809
-6.249958 30.105642
-6.085899 38.076747
-3.220640 34.873330
0.805616 38.132798
0.910980 39.965388
16.394282 41.688918
14.492571 40.988690
25.988660 42.969455
29.178522 40.244175
30.226483 41.021129
37.122916 28.450232
34.625376 25.217879
37.193829 24.868138
39.319457 18.727336
36.365766 13.247504
37.612080 4.387197
34.601890 1.192132
31.726258 -4.064567
25.282747 -6.115928
20.472614 -9.068001
15.742324 -9.569552
8.936383 -8.696362
-0.186990 -12.908603
-4.845348 -5.809999
-12.076208 0.582865
-15.435210 4.633655
-18.132517 7.625922
-25.688982 14.719231
-23.279692 21.663203
-23.502997 30.485486
-20.137080 40.241655
-17.265257 48.883644
-14.705530 56.153918
-6.971552 57.788500
-4.519683 62.941274
13.906511 68.067950
13.904090 70.254957
19.933714 67.375869
26.963103 65.274718
35.196601 64.957089
43.605957 57.245588
46.459529 56.055125
54.481721 48.349133
58.432439 42.147475
58.087202 33.035523
53.181913 22.699812
47.514975 17.784813
51.003442 3.240309
22.803294 13.850941
15.009220 11.007217
19.582494 7.914153
9.778746 -0.607659
-2.036958 8.650138
-11.993736 20.074229
-19.115526 24.927476
-30.687177 41.764038
-42.535661 54.884855
-43.352340 85.614682
-35.500902 96.103517
-38.726268 111.327870
-25.267596 189.830476
-10.190078 144.317076
-0.613121 155.225383
15.099166 177.144347
50.879824 201.751357
83.154288 219.567901
94.717226 217.879488
147.176196 253.994194
176.381275 235.538826
210.161107 244.007162
248.910323 218.877013
294.881817 201.339604
450.135231 252.785889
-182.738044 -100.901266
225.385394 50.372746
278.244836 24.870030
317.613397 23.133485
262.616805 -23.864169
