14162.971769 13158.637734
75.186488 -13.586999
-0.907799 -25.099772
-239.730007 -32.810789
1.841867 -39.356285
-10.173216 -16.444531
-177.064758 5.661272
-1645.537976 -231.482650
112.868208 35.433853
15.947520 -16.646821
40.601327 15.491557
193.008695 118.777592
-15.170146 -24.789585
-8.913207 4.567466
32.123480 40.965221
129.681219 252.530749
1.764637 -57.312163
-1.726153 6.573405
-9.837920 -29.546574
-18.860539 -96.186851
-1.875187 25.411090
14.247142 -2.085255
12.817275 -7.440650
49.566661 -13.722366
-13.786349 -6.516828
10.661312 4.318885
14.406948 27.492118
11.432090 54.675742
3.663875 -17.924387
6.721836 5.179972
26.952219 28.442910
23.326863 59.353660
2.006942 -36.114445
0.227693 3.399972
14.245017 -28.793464
30.098722 -32.684691
-13.707861 15.934716
20.333495 4.453046
20.058619 17.652177
20.476827 26.097604
-5.363398 -27.557704
4.203701 9.558862
-5.104221 7.034971
-6.692588 3.700639
12.440141 -0.250832
7.117285 0.347435
16.919099 14.797792
8.248899 11.306782
6.980668 -18.851300
4.745464 -2.155931
21.091673 -14.418778
17.643195 -4.813243
-10.821445 2.171061
13.998580 8.384736
-0.025812 7.006023
1.951636 2.269963
10.351874 -14.131527
-1.757043 -2.099615
-1.711518 -7.996711
3.436065 -5.923122
7.536422 7.244280
11.417229 -7.458731
12.265717 6.062217
7.765377 -2.505798
5.333534 -8.945738
8.169466 -2.746840
13.143232 -6.782114
5.888481 -2.225496
-0.645319 -4.474541
4.610246 -1.556003
0.074166 -8.959343
5.962958 -4.051109
7.428789 -0.773790
6.290121 -11.639918
3.842813 -6.414955
7.953862 -2.618664
4.858924 1.756783
13.890784 -6.527384
8.006097 2.067689
5.982428 -5.411288
4.459962 -5.967739
6.232485 -3.546688
7.328737 -7.140409
5.010309 -3.438033
5.759645 -5.478955
6.711316 -10.671256
8.369389 -8.394723
5.256395 -0.737100
2.667765 -1.375791
12.087203 -6.423244
1.329747 -4.185679
8.492603 -2.120387
6.582651 -2.798332
8.274452 -4.039940
4.775414 -0.881585
5.141678 -6.236204
4.932175 -5.315724
5.550702 -5.389921
7.996363 -5.805784
5.797170 -3.016051
7.944785 -6.144818
9.135730 -9.119369
6.180168 -3.139460
1.688349 -3.218152
2.724897 -3.250071
6.017731 -1.292205
2.259199 -7.486258
8.679159 -1.675141
5.577145 -4.015625
4.409870 -5.416283
5.411135 -2.249486
5.705564 -7.125858
5.257379 -5.272297
5.689104 -4.876271
6.691783 -3.497266
4.865480 -3.909812
6.677654 -4.721759
5.981038 -6.122012
4.028138 -4.552143
2.295628 -5.424634
2.252387 -3.610987
2.063947 -3.931609
6.763101 -6.742843
7.001195 -2.395228
4.639353 -6.501445
3.562110 -5.808893
4.982578 -2.557624
5.836134 -6.821127
4.458393 -3.788704
4.772050 -4.643523
5.459765 -4.116063
3.956981 -5.573532
3.669209 -4.455430
4.931672 -6.070885
5.510702 -5.647434
2.948109 -5.222041
2.550247 -5.830946
2.597603 -5.993618
6.614505 -3.897543
5.229210 -4.573228
5.723811 -6.069265
4.321236 -4.879272
4.981247 -3.406800
5.694631 -5.143835
2.686667 -3.332339
4.813188 -5.054197
4.630867 -6.158435
4.078882 -6.418622
3.137378 -6.777802
4.746198 -5.076297
5.263228 -4.452341
2.005070 -5.830931
5.211266 -5.222029
3.320548 -6.224950
4.500130 -4.228938
5.451168 -4.413060
3.951048 -4.601815
4.158062 -4.112435
4.695596 -4.621291
3.787818 -4.392826
3.324333 -5.331686
4.238775 -5.727603
4.566762 -7.205012
4.436014 -6.111993
4.362844 -5.601832
4.176735 -4.039678
3.590389 -4.161622
3.191802 -5.443640
4.992559 -3.927113
3.114858 -7.078586
3.595049 -5.181342
3.554680 -3.663394
2.982536 -5.688936
3.441216 -4.423870
4.456111 -5.650848
2.748211 -4.801503
4.682508 -5.138375
4.269253 -5.867056
5.069590 -6.716677
4.515397 -5.136495
3.454677 -4.612014
2.956401 -4.240674
2.300769 -5.214290
2.996936 -4.832534
3.873730 -5.075747
3.315382 -7.773639
3.037221 -5.004162
2.435694 -4.275863
3.850331 -6.425580
3.292221 -4.982167
4.963129 -5.179659
3.772141 -4.966462
3.902140 -4.824392
3.282351 -6.076354
3.797541 -6.164646
3.404653 -5.168660
2.634337 -5.621031
2.604989 -6.011700
1.946584 -6.123800
2.962828 -5.128736
3.758239 -6.093300
3.912740 -6.156360
3.154577 -5.042554
3.135909 -5.632615
3.598984 -5.268816
2.833893 -4.785895
4.127203 -4.791248
3.103864 -5.430909
2.793833 -6.025821
2.591630 -6.612938
3.133669 -6.006598
3.859145 -5.520253
3.165566 -6.315641
3.651687 -5.864950
2.258924 -6.711924
3.249483 -5.736090
3.588048 -5.956587
2.357414 -5.173039
3.516372 -5.721117
3.603151 -5.837752
2.122807 -5.331582
2.978004 -5.350044
2.745909 -4.920725
2.533804 -5.657519
2.581639 -6.806656
2.774443 -6.077872
3.745283 -6.469621
3.306028 -5.388923
3.035425 -5.727346
2.878871 -5.685800
2.684246 -6.662428
2.825933 -5.799635
2.121606 -5.813301
1.482410 -6.068715
3.138853 -5.099576
3.302154 -6.018449
2.084506 -6.410478
3.166677 -4.812518
2.561857 -6.092565
2.944593 -6.524443
2.627965 -6.542155
2.246011 -5.964435
3.534763 -5.712437
2.333134 -5.420713
2.288369 -5.582251
2.382272 -6.544425
2.650248 -6.525818
2.120336 -5.851141
1.715640 -6.183355
1.801532 -6.188612
2.209403 -5.285451
3.022879 -6.409392
2.279766 -6.592934
2.475623 -5.125006
2.374922 -6.686899
2.726044 -5.805360
1.939007 -6.138375
2.382241 -6.326998
2.509811 -5.662349
1.300952 -6.646746
2.045302 -6.154749
1.975404 -6.304281
2.070645 -6.302896
2.441553 -6.185664
1.695876 -6.437040
1.319358 -6.379320
1.736384 -5.979404
2.540405 -5.787698
2.222646 -6.302369
1.922504 -6.039011
1.739341 -6.665751
1.678900 -5.868313
1.496927 -5.970684
1.953584 -6.415768
1.468380 -6.436399
2.155159 -7.039327
1.820330 -6.047113
1.708403 -6.828247
1.481646 -6.124482
2.248484 -5.615567
1.691386 -6.468122
1.120263 -6.660073
1.876211 -6.354571
1.303105 -5.640013
1.981880 -6.130950
1.516975 -6.303465
1.125109 -6.398788
1.604391 -6.590023
0.771720 -6.277327
2.037720 -6.432348
1.597036 -6.619563
2.199725 -6.339170
1.438722 -6.485107
1.003358 -6.769230
0.852615 -5.990080
1.248550 -5.636726
1.042641 -6.460663
1.326199 -6.615836
1.467135 -5.887696
0.687787 -6.132366
1.443472 -5.907416
0.863251 -6.312355
0.807217 -6.580851
1.622549 -6.334339
1.048382 -6.463326
1.383204 -6.399132
1.573581 -6.319314
0.874149 -5.959663
0.830649 -6.054492
0.606666 -6.569084
0.231488 -6.422788
0.708503 -6.409361
0.237587 -6.523961
0.763694 -6.344042
1.079604 -6.175331
0.313650 -6.861145
0.755841 -6.037070
0.780865 -6.471510
1.226062 -6.480173
1.242767 -5.872348
0.939106 -6.187002
0.422528 -6.244401
0.324723 -6.370059
0.428772 -6.935951
0.681430 -5.683664
0.046418 -6.116530
-0.131492 -6.577056
0.432186 -6.207428
0.150856 -6.013384
0.342270 -6.790796
0.532544 -5.992426
0.255468 -6.735066
0.158649 -6.347350
0.340418 -6.207445
0.908179 -6.443550
-0.068900 -6.288502
0.200499 -6.061119
-0.251528 -6.396468
0.427626 -6.803344
0.228537 -6.300082
0.255904 -5.949344
-0.260925 -6.426157
0.149640 -6.416421
0.002129 -6.385254
-0.399660 -6.782854
0.326476 -6.002117
0.004182 -5.736408
0.190103 -6.252647
-0.309032 -5.805637
0.019122 -5.663136
0.078265 -5.945890
-0.301512 -6.305492
0.298618 -5.924687
0.012022 -7.205886
0.107728 -6.406165
-0.086493 -5.897390
-0.059831 -6.746912
-0.301876 -6.172197
-0.155036 -6.870229
-0.573428 -6.237788
-0.474137 -6.458576
-0.295198 -5.835397
-0.292637 -5.971268
-0.122482 -6.375624
-0.535961 -5.941453
-0.665831 -5.937934
-0.115848 -5.987499
-0.289538 -6.189896
-0.468747 -6.083713
0.416006 -6.640191
-0.567766 -5.751262
-0.538765 -5.891781
-0.596612 -5.804892
-1.513663 -5.673348
-0.361637 -6.482466
-0.628977 -5.982468
-0.547235 -6.382821
-0.992567 -6.303932
-1.192782 -6.051731
-0.784486 -6.224710
-0.718111 -6.137092
-0.621121 -6.338826
-0.492085 -5.770410
-0.651721 -6.131850
-0.483464 -5.712332
-0.813922 -6.287555
-0.991457 -6.349423
-1.189123 -5.890532
-0.834045 -6.079226
-1.650191 -6.645645
-0.556395 -6.364916
-0.635114 -5.974165
-0.883656 -6.212557
-0.936193 -6.084669
-1.468925 -6.151449
-1.207425 -5.685758
-1.646309 -5.589107
-1.000283 -5.436134
-1.360330 -5.813982
-1.477104 -5.813114
-1.343142 -6.198535
-1.250286 -6.265854
-1.253010 -6.008237
-1.212821 -5.891060
-0.957783 -5.713846
-1.342722 -6.607717
-1.046157 -5.582551
-0.996084 -6.021264
-1.269120 -5.890570
-1.333480 -5.848560
-1.808670 -6.194962
-1.102203 -5.481368
-1.680104 -5.830013
-1.761377 -5.359529
-1.326729 -5.892320
-1.574350 -5.894822
-1.206321 -5.947896
-1.076181 -5.819313
-1.619519 -5.981418
-0.947797 -5.735272
-1.847314 -5.507254
-1.689325 -5.529409
-1.856276 -5.612799
-1.831708 -5.889841
-1.623545 -5.757467
-1.776466 -5.795875
-1.863979 -5.922691
-1.830479 -5.728013
-2.341205 -5.275285
-1.719671 -5.402658
-1.084442 -5.738911
-1.719983 -5.837873
-1.437768 -5.643482
-1.392964 -5.495620
-1.793305 -5.530836
-1.255316 -5.797289
-2.048615 -5.975859
-2.267621 -5.163730
-1.970189 -5.206973
-2.131478 -5.516303
-1.766962 -5.473085
-2.158753 -5.537941
-1.624478 -5.806818
-2.353863 -5.658229
-2.002566 -5.490703
-2.368167 -5.355791
-1.627561 -5.626788
-2.149607 -5.417787
-2.200966 -5.343201
-2.030036 -5.600684
-2.489685 -5.255044
-2.154381 -5.367917
-2.538184 -5.544974
-1.792074 -5.490133
-2.198711 -5.430886
-2.515220 -5.622741
-2.470414 -5.103921
-2.047660 -5.566354
-2.155303 -5.525408
-2.212912 -5.648026
-2.104180 -4.814841
-2.697110 -5.268918
-2.327535 -5.299057
-2.111099 -5.180040
-2.310368 -5.221382
-2.450242 -5.150350
-1.997988 -5.342677
-2.345384 -5.394179
-2.513805 -5.767389
-2.504425 -4.922020
-2.700997 -4.983372
-2.530456 -5.778613
-2.391775 -5.069816
-2.889071 -4.867317
-2.401767 -4.761457
-2.266954 -5.156377
-3.097924 -5.077616
-2.546881 -5.077554
-2.696593 -5.293295
-2.826920 -4.969015
-2.558207 -5.364755
-2.528510 -5.419675
-2.784432 -5.477599
-2.474435 -4.738887
-2.872890 -4.809615
-2.810454 -5.065808
-2.407206 -5.016897
-2.517363 -5.236026
-2.487968 -5.026565
-3.020320 -4.811769
-3.203013 -4.716787
-3.137885 -4.939824
-2.609026 -4.474070
-2.509438 -5.111313
-3.053360 -4.996375
-2.972943 -5.013387
-2.722922 -4.601557
-2.957770 -4.887438
-2.462709 -4.722317
-2.586283 -4.848571
-3.256174 -4.808253
-3.146605 -4.712741
-2.893344 -4.551241
-2.906074 -4.985336
-3.480681 -4.962764
-3.064104 -4.501432
-3.521920 -4.780974
-3.177874 -4.768451
-3.303875 -4.859173
-2.878718 -4.843559
-3.048411 -5.194515
-3.077193 -4.759334
-3.018827 -4.506290
-3.581164 -5.075831
-3.235602 -4.631203
-3.283021 -4.619323
-3.160920 -4.149946
-3.303719 -4.473833
-3.412294 -4.155816
-2.865519 -4.589334
-2.968409 -4.556572
-3.010483 -4.282039
-2.877085 -4.397968
-3.336281 -4.106331
-3.260836 -4.050112
-2.831102 -4.658175
-3.567339 -4.084496
-3.352772 -4.643973
-3.329305 -4.340746
-3.430062 -4.081115
-3.273168 -4.320022
-3.283364 -4.455950
-3.635650 -4.297171
-3.793579 -4.138429
-3.378417 -4.674833
-3.540480 -4.376678
-3.691297 -4.025349
-3.620395 -4.169669
-3.495455 -4.450912
-3.701591 -4.308224
-3.678105 -3.877339
-3.633533 -4.054606
-3.908143 -4.262312
-3.556836 -4.521165
-3.505743 -3.978817
-3.216603 -4.023669
-3.818341 -4.066809
-3.603991 -4.188498
-3.501372 -4.080904
-3.571232 -3.939901
-3.701248 -3.851647
-3.283834 -4.064732
-3.598925 -3.873470
-3.868615 -3.829074
-3.504741 -3.822980
-3.317514 -3.952852
-3.581880 -3.894909
-4.219324 -3.759696
-3.577914 -3.636637
-3.783292 -3.533441
-3.747637 -3.732694
-3.836647 -3.861781
-3.746654 -4.028740
-3.897199 -3.624161
-3.867922 -4.130094
-3.927051 -3.948500
-3.866821 -3.641788
-3.678747 -3.893104
-3.986280 -3.618695
-4.124754 -3.912310
-4.147339 -4.013640
-4.148886 -3.576451
-3.747292 -3.283499
-3.814349 -3.229434
-4.046535 -3.687309
-3.942708 -3.734787
-3.838389 -3.475160
-3.573197 -3.629433
-4.012959 -3.950040
-3.548137 -3.641687
-4.121202 -3.478191
-3.556459 -3.426742
-3.902020 -2.918882
-4.350301 -3.391477
-3.763803 -3.439075
-4.073569 -3.539152
-3.598242 -3.127369
-3.858857 -3.369046
-3.682515 -3.196836
-3.903420 -2.982155
-3.738677 -3.020803
-4.046540 -3.164097
-3.629144 -3.144489
-4.336594 -2.962642
-4.403080 -3.199818
-3.875874 -3.600063
-3.735882 -3.025006
-4.511654 -2.950855
-4.139941 -3.062197
-3.848795 -3.602273
-4.599636 -3.136569
-4.128115 -3.105139
-4.253799 -3.060889
-3.591120 -2.842080
-3.998178 -2.983576
-4.342643 -3.096710
-4.551665 -3.095922
-4.487151 -2.823581
-4.466009 -3.101131
-4.375048 -3.009599
-4.371834 -2.820884
-4.340696 -3.137405
-4.307438 -2.834808
-4.286704 -2.917762
-4.278512 -2.852571
-4.496569 -2.762840
-3.811652 -3.078501
-4.372288 -3.195592
-4.622770 -2.612509
-4.226057 -2.420370
-4.061935 -2.592261
-4.203287 -3.496662
-4.112915 -2.521781
-3.883934 -2.794273
-4.190595 -2.294243
-3.834769 -2.672751
-4.012043 -2.635417
-4.209038 -2.486923
-3.819034 -2.700161
-4.326521 -2.450864
-4.057206 -2.719668
-4.326640 -3.110870
-4.200008 -2.615059
-3.765300 -2.216227
-4.230394 -2.379283
-4.138702 -2.203696
-3.965280 -2.616150
-3.704293 -2.354210
-4.597699 -2.589928
-4.229581 -2.640577
-4.369377 -2.241566
-4.503914 -2.315242
-4.071720 -3.004360
-4.466193 -2.532627
-4.600623 -2.132444
-4.734235 -2.082751
-4.369268 -2.306413
-4.391685 -2.050452
-4.570005 -1.908905
-3.872943 -2.303959
-4.355952 -1.908854
-4.786472 -1.848522
-4.954412 -2.109997
-4.360101 -2.331949
-4.127422 -2.190400
-4.026400 -2.325710
-4.487095 -1.862642
-4.329725 -2.407390
-4.257064 -1.762491
-4.444499 -2.203000
-4.405823 -2.147129
-4.161810 -1.674001
-4.526759 -1.931839
-4.518514 -1.893121
-4.218263 -2.206205
-4.365251 -1.455780
-4.555870 -1.712817
-4.214234 -1.917906
-4.117976 -2.059016
-4.300229 -1.362873
-3.998961 -2.002687
-4.269015 -1.931652
-4.311864 -2.057701
-4.318188 -1.729180
-4.501989 -1.940605
-4.127617 -1.918124
-4.495243 -1.556651
-4.547905 -1.777337
-3.868407 -1.522107
-4.460631 -1.706471
-4.444184 -1.305765
-3.955427 -2.207305
-4.117128 -1.731847
-4.279842 -1.490608
-4.908357 -1.505247
-4.331240 -1.753676
-4.521012 -1.423467
-4.432263 -1.520849
-4.302665 -1.295127
-3.999598 -2.154237
-4.183858 -1.221824
-4.060186 -1.386347
-5.012919 -0.939685
-4.482966 -1.460284
-4.926745 -1.822489
-4.522004 -1.112528
-4.238493 -1.140183
-4.550294 -1.248702
-4.845940 -1.304678
-4.247267 -1.198328
-4.212572 -1.519531
-4.524612 -1.468998
-4.421633 -1.277315
-4.158925 -0.727079
-4.370831 -1.145921
-4.415053 -1.082968
-3.973625 -0.999412
-4.283129 -1.030206
-4.300617 -1.669362
-4.754319 -0.894499
-4.046581 -1.096254
-4.556166 -0.706832
-4.393136 -0.539564
-4.049817 -1.140807
-4.489309 -0.745341
-4.218999 -0.763452
-4.418999 -1.155398
-4.190367 -0.956592
-3.718374 -1.027445
-4.163553 -0.830436
-4.251080 -0.604310
-4.439812 -1.008807
-4.247247 -0.676837
-4.053806 -1.518873
-4.760272 -0.664244
-3.647659 -1.358973
-3.942798 -1.395115
-3.973529 -0.758852
-4.412450 -0.012915
-4.390432 -0.719791
-4.471004 -0.783182
-3.957656 -1.161198
-3.769488 -0.261030
-4.163213 -0.877456
-4.452450 -0.620138
-4.132804 -1.052381
-4.279559 -0.169470
-4.460566 -0.916400
-4.175756 -0.900635
-4.369918 -1.164222
-4.253725 -0.402762
-4.062209 -0.476186
-4.397576 -0.900820
-4.258158 -0.761026
-3.997179 -0.515303
-4.538397 -0.733673
-4.635693 -0.724258
-4.503607 -0.586054
-3.696809 -0.431635
-4.282338 -0.517172
-3.916214 -0.461035
-4.253478 -0.589046
-4.006207 -0.774949
-4.605066 -0.314815
-4.165709 -0.897923
-4.047136 -0.414495
-4.287909 -0.706439
-4.448078 -0.498165
-4.408096 0.101795
-4.757352 -0.165338
-3.912379 -0.693593
-3.887039 -0.766718
-4.150967 -0.268104
-4.234114 -0.099202
-4.127684 -0.100677
-4.255181 0.074401
-3.892529 -0.525050
-4.412400 0.026369
-4.642605 -0.548016
-4.206752 -0.256039
-4.280255 -0.005697
-3.995330 0.126315
-4.086520 -0.219153
-4.282637 -0.193641
-4.118746 0.030713
-3.854289 -0.184652
-4.263028 -0.121183
-3.844964 -0.048810
-4.055989 -0.069098
-4.350755 0.275605
-4.228998 0.282738
-4.018576 0.170019
-4.062446 0.078851
-3.910188 -0.045952
-4.229592 -0.074694
-3.906377 0.356433
-4.220323 0.090998
-3.611296 0.336196
-4.176309 0.490731
-3.916010 -0.010120
-3.872393 -0.197837
-4.234765 -0.042522
-4.204297 0.227380
-3.812995 0.195740
-4.074985 0.385032
-3.659850 -0.209601
-3.651357 0.607867
-4.061532 0.083665
-3.895120 0.029379
-3.668617 0.242569
-3.981732 0.427564
-4.016284 0.556345
-3.660014 0.089129
-3.614378 0.342222
-3.735408 -0.117673
-3.433624 0.483408
-3.986301 0.480161
-3.916131 0.351698
-4.427454 1.008209
-3.697663 0.304642
-3.849041 0.218529
-3.819520 0.624240
-3.556513 0.373094
-3.828619 0.325640
-3.453070 0.590987
-3.525615 0.258342
-3.455112 0.617832
-4.061331 0.558471
-4.027492 0.669991
-3.435429 0.741810
-3.946228 0.547135
-3.237106 0.634965
-3.667248 0.502345
-3.748216 0.170933
-3.784766 0.474086
-3.745018 0.368108
-3.426981 0.969662
-3.475502 0.666713
-3.324612 1.136227
-3.917909 0.764569
-3.748716 1.046020
-3.758278 0.925793
-3.330021 0.454515
-3.219493 0.396767
-3.703409 0.134761
-3.352894 0.826402
-3.976830 0.872842
-3.646139 0.876317
-3.536195 0.820425
-3.230688 0.646837
-3.480519 1.488644
-3.557023 0.829415
-3.358608 1.119429
-3.308411 0.655941
-3.397001 0.478850
-3.626368 0.813839
-3.351010 1.080660
-3.246674 0.569528
-3.520895 0.650212
-3.684548 1.095999
-3.459441 1.038089
-3.358961 1.198963
-3.675332 1.004711
-3.275425 0.845641
-3.631043 0.777857
-3.078779 0.935549
-3.181320 0.848882
-3.289350 1.168866
-3.463939 1.095494
-3.557912 1.121500
-3.303107 1.075286
-3.336869 0.789370
-3.140322 0.888443
-3.043369 0.709447
-3.123676 1.240895
-3.105144 1.008134
-3.253380 0.853646
-3.196480 1.298531
-3.333125 0.654391
-3.262319 1.223585
-3.310634 1.052253
-3.137566 0.748624
-3.276436 1.364020
-2.891168 0.745335
-3.214892 1.466625
-3.013940 1.099620
-2.787386 0.976831
-3.453859 1.168233
-3.121860 1.133214
-3.456715 1.135807
-2.996606 1.059507
-3.367851 1.698083
-2.958182 0.680037
-2.995555 1.221183
-2.829433 1.670308
-2.745945 1.134354
-3.385223 1.274511
-2.724479 1.423421
-3.015769 1.610276
-2.995013 1.016681
-2.993268 1.795432
-3.006666 1.428492
-3.025574 1.550597
-3.011227 1.093143
-2.759586 1.028330
-3.156100 0.955406
-2.804284 1.362132
-3.098808 1.333233
-2.987072 1.012255
-2.671983 1.463585
-2.977581 1.260684
-2.599693 1.183208
-2.756209 1.328371
-3.397331 1.070014
-3.145070 1.704992
-2.999922 0.844792
-3.037373 1.359820
-2.520611 1.625461
-2.871465 1.633233
-2.711507 1.691147
-2.660030 1.511686
-2.771521 1.425630
-2.815664 1.520354
-2.695737 1.092960
-2.968899 1.166878
-2.997257 1.249311
-2.740908 0.946554
-2.843629 1.805196
-2.963432 1.377543
-2.553383 1.561070
-2.412889 1.731462
-2.785043 1.139020
-2.517179 1.529179
-2.369366 1.387057
-2.568002 1.429251
-2.212556 1.288259
-2.604813 1.570473
-2.778110 1.660716
-2.284049 1.340743
-2.906582 1.399325
-2.543435 1.258769
-2.566285 1.268937
-2.635903 1.296503
-2.623778 1.767774
-2.810756 1.427901
-2.572965 1.051841
-2.847540 1.631029
-2.299633 1.299649
-2.366716 1.655041
-2.090557 1.603698
-2.089179 1.797244
-2.511090 1.687125
-2.303196 1.230427
-2.490345 1.566213
-2.018719 1.424211
-2.601202 1.933457
-2.425420 1.997290
-1.764800 1.793221
-2.517237 1.556137
-2.415196 0.987836
-2.199264 1.604123
-1.960815 1.633128
-2.359928 1.863664
-2.254690 1.513554
-2.358320 1.194582
-2.099695 1.409494
-2.183162 1.563821
-2.025932 1.904095
-1.726661 1.673586
-2.146314 1.735918
-2.528359 1.891219
-2.366401 1.459850
-2.567968 1.584815
-1.981082 1.602052
-2.286590 1.874830
-2.046799 1.933795
-2.346430 1.854503
-2.209267 2.046527
-1.778352 1.679174
-2.064209 1.242780
-1.803624 1.745056
-2.141620 1.559295
-1.850525 1.787764
-2.131912 1.507362
-2.270276 1.331103
-1.688379 1.568868
-2.185333 1.438889
-1.839494 1.845600
-1.766764 1.926390
-1.749358 1.861039
-2.390685 1.696418
-1.935055 1.736385
-2.351349 1.321077
-1.808011 1.633582
-2.163840 1.749527
-1.559960 1.633058
-1.605472 1.974082
-1.765856 1.618373
-1.637282 1.470335
-1.796289 1.708466
-1.874250 1.879119
-1.738653 1.898417
-1.623689 2.020076
-2.094668 1.927527
-2.014423 1.479178
-1.738843 1.774448
-1.337297 1.650713
-1.655535 1.670879
-1.858013 1.660403
-1.826247 1.822541
-1.591930 1.795064
-1.710792 1.799663
-1.749483 1.419454
-1.653439 1.668879
-1.601960 1.434434
-1.372260 1.541720
-1.457110 1.650345
-1.474585 1.927932
-1.293962 1.775755
-1.947595 1.787671
-1.391232 1.692283
-1.450253 1.710244
-1.613630 2.392840
-1.352110 1.549095
-1.463830 1.561248
-1.484628 2.037445
-1.647713 1.386291
-1.941092 1.751025
-1.595155 1.775474
-1.291608 1.713807
-1.214144 2.078534
-1.338570 1.671001
-1.185941 1.796606
-1.270367 1.639688
-1.277558 2.050267
-1.400322 1.505798
-1.142198 2.056888
-1.605279 1.472454
-1.538231 1.459062
-1.663178 1.922038
-1.547032 1.599941
-1.118032 1.835611
-1.852303 2.099347
-1.221598 1.243389
-1.316558 1.673635
-1.207193 2.203008
-1.522161 1.613113
-1.439141 1.952176
-1.223798 2.045511
-1.078172 1.267182
-1.030998 1.594156
-0.951871 1.206010
-1.233936 1.435805
-0.755888 1.608013
-0.886483 1.857121
-1.285177 1.713175
-1.301008 2.351008
-1.672885 1.875807
-1.586477 1.709863
-0.989776 1.904030
-1.373357 1.716009
-1.482189 1.634032
-1.537727 1.691696
-0.710687 1.706144
-1.028421 1.300595
-0.902801 1.323731
-1.471709 1.802120
-0.940868 1.513595
-1.220882 1.562577
-1.023271 1.472921
-0.893756 1.663022
-1.031062 1.581945
-0.876024 1.545932
-1.021485 1.804090
-0.976940 1.563468
-1.443375 1.261905
-1.066493 1.531583
-0.951351 1.445288
-1.039981 1.785929
-0.748028 1.319208
-0.882176 1.155623
-0.981964 1.531502
-0.932902 1.575133
-0.869183 1.501905
-0.509676 1.724103
-0.642238 1.314767
-1.040013 1.708887
-0.920197 1.476846
-0.880681 1.401297
-0.810586 1.694245
-1.075854 2.141578
-1.059445 1.299978
-0.653269 1.607200
-0.831239 1.240938
-0.426104 1.367937
-1.135580 1.394417
-0.809116 1.467288
-1.124775 1.439958
-1.027448 1.345640
-0.711358 1.132475
-1.143951 0.884410
-0.574376 1.343498
-0.929910 1.811802
-1.104458 1.598344
-0.197756 1.660504
-1.002639 1.745989
-0.700728 1.438153
-0.676492 1.522682
-0.721677 1.474965
-0.388944 1.722345
-0.495990 1.517456
-0.449722 1.696264
-0.679376 1.840072
-0.532334 1.394545
-0.816059 1.229895
-0.540317 1.509552
-0.924896 1.173500
-0.398679 1.384414
-0.703147 0.813700
-0.596483 1.990262
-0.377497 1.669043
-0.556634 1.355567
-1.220813 1.386162
-0.347438 1.280703
-0.841633 1.789348
-0.831434 1.746250
-0.191101 1.270196
-0.702033 1.555136
-0.297292 1.015277
-0.395438 1.674518
-0.865219 1.372392
-0.389194 1.050654
-0.652782 1.630678
-0.344765 1.290686
-0.446533 1.215331
-0.358184 1.463576
-0.346040 1.146571
-0.621898 1.656561
-0.048072 1.115091
-0.607240 1.604806
-0.463350 1.307852
-0.416517 1.114205
-0.725472 1.208916
-0.482414 0.901231
-0.279832 1.029326
-0.486794 1.335249
0.121224 1.096467
-0.331261 1.069434
-0.161935 1.257378
-0.395893 1.142899
-0.147008 1.063234
-0.527104 1.038014
0.020995 1.004570
-0.053588 1.331644
0.090724 1.218782
-0.124987 1.010945
-0.154404 1.338231
-0.473039 1.010617
-0.559150 1.129891
-0.673938 0.940455
-0.382110 1.333873
0.019129 1.361020
-0.229269 1.120072
-0.216260 0.958797
-0.410286 1.389371
-0.345103 0.852944
-0.360262 1.275707
-0.449317 0.920798
0.180900 0.960275
0.195910 1.374524
-0.426459 0.797386
0.095572 0.731286
-0.376150 1.427558
-0.354637 1.498760
-0.398539 1.197230
-0.161126 0.959217
-0.140566 1.126080
-0.234857 1.317986
-0.499810 1.188168
0.099848 1.197568
-0.351762 1.231589
-0.074657 0.734217
-0.118422 1.065892
-0.236754 1.134672
-0.086246 0.976280
0.014460 1.018145
-0.338706 1.224252
-0.113702 0.533477
-0.283059 1.052996
-0.274633 0.723461
-0.104367 1.094611
0.078029 1.050984
-0.286712 1.093761
-0.620172 0.985048
-0.250659 1.099492
-0.123767 1.338847
-0.322679 1.032418
-0.567220 0.882318
0.163846 0.946909
-0.004489 0.941493
-0.216279 0.630152
-0.153382 0.568382
-0.522877 1.235115
-0.002571 0.731122
-0.347741 1.080900
0.073234 0.822964
-0.049761 0.384617
-0.106634 0.730250
-0.457910 0.599480
0.147848 0.608187
-0.359106 0.735126
-0.428035 0.957533
0.212167 0.931311
-0.099782 0.757222
-0.490702 0.598040
0.010626 0.412232
-0.088710 0.770548
-0.079815 0.542505
-0.019903 0.924593
0.215464 0.899652
0.209698 0.633820
0.129412 0.790711
0.031092 0.418070
-0.194071 0.476354
0.057807 0.476970
0.068263 0.537046
-0.091847 0.423213
-0.243510 0.508542
0.192058 0.825689
-0.051333 0.634040
-0.185200 0.285797
-0.083337 0.705907
-0.035498 0.830547
-0.211642 0.545550
0.120688 0.571730
-0.101366 0.935409
-0.267111 0.993874
0.011897 0.588462
-0.288319 0.762391
0.270033 0.606430
0.035954 1.077564
-0.478362 1.117004
0.111345 0.420533
0.387007 0.393663
0.170688 0.718739
0.066059 0.408089
0.286781 0.140951
0.225252 0.455789
-0.649056 0.239368
0.237262 0.407696
0.250893 0.298718
-0.471174 0.484783
-0.088940 0.201560
0.232698 0.350406
-0.430450 0.333055
0.081588 0.846560
-0.102966 0.538465
-0.335898 0.299637
-0.072643 0.259402
0.027478 0.522906
-0.032109 0.342722
-0.030162 -0.014109
0.080500 0.306257
-0.253838 0.295518
0.269556 0.469387
0.105886 0.385353
0.006343 0.003848
0.010951 -0.101438
0.348495 0.273689
-0.398510 0.316637
-0.023848 0.310932
0.086677 0.342493
-0.082514 0.331981
-0.312769 0.233973
0.081775 0.072415
0.144265 0.410683
-0.212428 0.142095
-0.068845 0.253697
0.181184 -0.054052
0.134794 0.189857
-0.052282 0.345043
0.005190 0.610964
-0.208614 -0.026941
-0.259870 -0.118352
0.230018 0.215326
-0.217790 -0.026290
0.222955 0.417225
-0.055757 0.199073
0.183608 0.228537
-0.177127 0.190171
0.354961 0.233198
0.194927 -0.078673
0.090513 0.183452
-0.030055 -0.139000
-0.001116 0.238846
0.075560 -0.134032
0.048762 0.434433
0.032695 -0.055513
0.029832 -0.095916
0.310139 -0.159770
0.075950 0.067359
-0.235652 -0.100182
0.228013 -0.199470
-0.126879 -0.166620
-0.013935 0.104504
-0.112643 -0.181655
0.153851 0.208980
0.256014 -0.243994
-0.096488 0.057250
-0.046098 0.142054
-0.134090 -0.190826
0.094907 -0.314477
-0.315865 -0.115894
-0.198853 -0.122713
-0.075779 0.075082
-0.000010 0.246952
-0.086027 -0.073125
-0.026159 0.062919
0.022231 0.174972
-0.024756 0.326116
-0.358890 -0.074394
-0.113895 -0.129370
-0.133003 -0.098749
0.006327 -0.331923
0.051856 0.067286
-0.178721 -0.035755
0.055238 0.004783
0.050248 -0.183388
-0.498620 0.009360
0.174529 -0.112102
-0.410966 -0.014059
-0.141593 -0.122225
-0.062452 -0.132912
0.133350 0.003314
-0.637389 -0.080481
-0.059138 -0.273774
0.180422 -0.369387
-0.262047 -0.251648
-0.376531 -0.225859
-0.075803 -0.268872
-0.211584 -0.124799
-0.526340 -0.076873
-0.013853 -0.823603
-0.226551 -0.175402
-0.266046 -0.446332
-0.514292 -0.348426
-0.510915 -0.348664
-0.284974 -0.202113
0.005013 -0.623064
-0.178386 -0.170168
-0.253621 -0.150052
0.193569 -0.296866
-0.171342 -0.394289
-0.173789 -0.417530
-0.105814 -0.274830
-0.104830 -0.093692
-0.601118 -0.415759
-0.012519 -1.132257
-0.040033 -0.531615
-0.751577 -0.584464
-0.466119 -0.321850
-0.084173 -0.465569
-0.680775 -0.697093
-0.568781 -0.291442
0.056649 -0.332234
-0.398949 -0.204939
-0.533944 -0.466039
-0.221083 -0.130684
-0.225698 0.087724
-0.276016 -0.309973
-0.299938 -0.188664
-0.396185 -0.047967
-0.270039 -0.529741
0.038640 -0.274811
-0.324775 -0.337154
-0.568652 -0.474459
-0.178699 -0.573670
-0.377990 -0.443912
-0.112886 -0.254963
-0.386226 -0.634962
-0.560857 -0.478911
-0.590422 -0.702560
-0.174380 -0.648187
-0.697476 -0.568925
-0.455684 -0.660131
-0.386961 -0.583129
-0.467412 -0.486215
-0.605473 -0.441430
-0.674094 -0.550102
-0.474946 -0.694805
-0.957600 -0.611834
-0.680170 -0.466932
-0.287504 -0.667579
-0.685561 -0.283668
-0.109223 -0.388882
-0.146812 -0.679228
-0.738014 -0.645005
-0.618318 -0.682028
-0.538731 -0.669451
-0.794224 -0.653724
-0.606489 -0.808684
-0.164706 -0.398747
-0.461206 -0.786351
-0.414120 -1.023744
-0.874364 -0.523888
-0.686095 -0.742258
-0.753105 -0.686019
-0.930784 -0.154541
-0.231065 -0.958779
-0.656705 -0.744589
-0.583073 -0.392169
-0.754789 -0.729322
-0.213155 -0.571811
-0.690840 -0.705477
-0.569422 -0.517441
-0.870468 -0.464685
-0.460295 -0.587757
-0.655975 -0.702412
-0.577137 -0.720623
-0.783361 -0.897516
-0.682840 -0.824604
-0.839502 -1.040090
-0.527406 -1.028446
-0.825326 -0.362800
-1.093889 -1.062876
-0.807168 -1.015086
-0.584816 -0.348674
-0.810511 -0.835704
-0.783783 -0.528172
-0.598067 -0.861696
-0.709802 -0.483077
-0.482201 -0.776554
-0.776905 -0.514556
-0.518014 -0.949090
-0.877591 -0.567560
-0.835333 -1.035587
-0.836504 -0.368565
-0.990075 -1.015382
-0.725519 -1.140323
-0.628280 -0.744169
-1.172621 -1.011791
-0.570917 -0.967818
-0.785859 -0.284324
-0.955545 -0.990448
-0.844172 -0.633368
-0.505222 -0.708165
-0.851349 -0.747010
-0.500995 -0.846004
-1.039300 -1.195830
-0.623193 -0.712358
-0.815240 -0.665270
-1.048016 -0.712111
-0.662005 -0.544945
-0.944811 -0.968912
-1.212585 -0.769944
-1.264332 -1.016047
-1.283356 -1.013769
-1.114274 -0.688122
-1.236557 -0.682109
-1.034565 -0.648069
-0.697880 -0.931949
-1.094019 -0.936655
-1.230498 -0.864787
-1.049967 -0.999279
-0.966073 -0.752756
-0.850056 -0.843247
-0.946169 -0.982052
-1.152580 -0.543966
-0.781832 -0.893030
-1.270596 -0.611691
-1.512288 -0.294138
-0.940234 -0.774828
-1.353229 -0.834048
-1.030805 -0.942823
-1.290846 -0.866924
-1.150490 -0.760377
-0.898770 -0.496853
-1.509647 -0.584768
-1.049058 -1.034232
-1.281968 -0.176076
-1.264347 -0.899872
-0.969394 -0.841010
-1.443209 -0.739891
-0.900545 -1.016728
-1.102342 -0.622574
-1.457651 -0.518113
-1.082394 -0.448293
-1.282811 -0.600965
-1.141508 -1.025302
-1.317708 -1.006426
-1.466066 -0.553478
-1.198675 -1.185271
-1.609059 -1.127378
-0.964667 -0.611296
-1.117911 -0.406229
-1.653500 -0.920508
-1.364954 -0.868194
-1.492388 -0.857229
-1.442292 -0.587629
-1.923383 -0.472077
-1.307214 -0.765829
-1.244377 -0.569363
-1.230281 -0.706709
-1.290360 -0.741591
-1.307570 -0.624614
-1.641550 -1.253824
-1.141380 -0.488242
-1.776477 -1.051749
-1.004817 -1.337259
-1.013266 -0.929997
-1.099457 -0.982515
-1.793168 -0.795371
-1.385755 -0.852400
-1.223270 -0.738749
-1.582208 -0.980667
-1.679438 -0.850907
-1.173223 -0.934294
-1.711991 -0.712495
-1.222181 -0.678134
-1.877158 -0.671192
-1.718326 -0.716978
-1.513906 -0.368668
-1.761433 -0.728446
-1.550887 -0.618461
-1.617766 -0.901708
-1.914086 -0.943811
-1.905104 -0.843125
-1.668927 -0.978066
-1.617204 -0.611733
-1.581551 -0.751806
-1.621035 -1.318203
-2.114058 -0.858951
-1.360111 -0.627320
-1.841950 -0.486492
-1.414538 -0.671970
-1.925204 -0.690457
-2.120520 -0.628386
-1.754035 -0.903000
-2.035824 -1.048633
-1.713762 -0.756059
-1.936670 -0.734583
-1.939204 -0.768365
-2.077748 -0.652650
-1.796008 -0.767734
-1.649061 -0.809727
-1.914954 -0.942545
-2.021647 -0.561755
-1.625825 -0.721987
-1.650121 -0.639420
-1.639962 -0.381630
-1.958574 -0.594718
-2.020554 -0.592438
-1.920527 -0.502733
-2.183603 -0.540854
-2.155318 -0.609652
-2.534421 -0.838781
-2.512385 -1.189084
-1.709283 -0.724651
-1.736985 -0.966424
-2.485302 -0.973944
-2.139310 -0.548650
-2.193304 -0.822467
-2.314552 -0.185256
-1.477397 -0.792978
-2.265041 -0.440470
-1.857351 -0.775466
-1.677701 -0.816923
-2.157073 -0.774898
-1.859061 -1.069244
-1.848713 -0.529505
-2.373708 -0.379917
-2.070758 -0.769441
-2.252904 -0.792142
-2.375007 -0.533272
-2.163445 -0.273012
-2.335097 -0.879384
-2.175003 -0.714728
-1.975195 -0.489279
-2.190430 -0.573685
-2.395150 -0.750495
-1.952559 -0.744189
-2.154282 -0.507536
-2.403078 -0.362377
-1.742269 -0.548282
-2.300536 -0.333691
-2.194865 -0.601551
-2.203087 -0.604420
-2.378372 -0.587460
-2.317425 -0.489012
-2.323476 -0.309836
-2.594559 -0.217449
-2.075801 -0.706010
-2.131565 -0.467375
-2.545769 -0.502792
-2.474048 -0.740447
-2.215018 -0.657873
-2.102967 -0.527576
-2.023694 -0.605152
-2.646245 -0.350140
-2.594114 -0.476339
-2.332885 -0.198940
-2.465682 -0.410239
-2.193959 -0.279246
-2.167857 -0.378736
-2.355776 -0.427512
-2.268746 -0.096290
-2.379388 -0.294175
-2.873588 0.122060
-2.352058 -0.385609
-2.566479 -0.191980
-2.514107 -0.406514
-2.325858 -0.587357
-2.610943 -0.359290
-2.727528 -0.507222
-2.780712 -0.344210
-2.050789 -0.205559
-2.548386 -0.398692
-2.268977 0.048601
-2.400094 0.151760
-2.419310 -0.142802
-2.640753 -0.409338
-2.836377 -0.669670
-2.503310 -0.390967
-2.757306 -0.323132
-2.455552 -0.460886
-2.468929 -0.168809
-2.619584 -0.229687
-3.146218 -0.289214
-2.447793 -0.124719
-2.516080 -0.171134
-2.550216 -0.121796
-2.717539 0.011415
-2.338235 -0.128692
-2.788094 -0.112344
-2.772210 0.080982
-2.828355 -0.211518
-2.165354 -0.065568
-2.336550 0.147189
-2.533541 0.314408
-2.711613 -0.031194
-2.801833 -0.227312
-2.953028 -0.532272
-3.024906 -0.118289
-2.441822 -0.175225
-2.633689 -0.138766
-2.928918 0.025595
-3.109066 -0.070652
-2.824907 -0.304992
-2.567986 0.350181
-2.787551 -0.011946
-2.168424 0.178240
-3.082830 -0.175455
-3.071790 0.217862
-2.886293 0.439298
-3.012426 -0.066984
-2.653461 0.139113
-2.601690 0.341298
-2.872452 0.203880
-3.061165 0.413859
-3.001993 -0.101957
-2.789354 -0.051982
-3.070879 -0.348605
-2.708384 0.390003
-2.484138 0.193041
-2.665159 0.185765
-2.785476 0.466753
-2.777824 -0.020996
-2.804143 0.004009
-2.727516 0.070801
-2.866553 0.226662
-2.830844 0.331521
-3.181893 0.055213
-3.137785 0.512003
-3.446044 0.264798
-3.214914 0.184693
-3.032705 0.468674
-2.824180 0.579706
-2.800592 0.293223
-2.708512 0.396663
-3.249643 0.199041
-3.261636 0.037373
-2.973174 0.482045
-2.985578 0.549764
-3.119431 0.108292
-2.885723 0.397367
-3.065322 0.293487
-2.792418 0.677740
-3.014577 0.548516
-2.958375 0.666645
-3.215521 0.470112
-3.520792 0.342583
-2.890735 0.580640
-3.289538 0.206327
-2.924307 0.790210
-2.901358 0.515476
-3.270239 0.420394
-2.749173 0.580737
-3.420553 0.206043
-2.995826 0.469631
-3.213869 0.330533
-3.058783 0.194231
-3.516218 0.484605
-3.376322 0.696515
-2.935990 0.491592
-3.089495 0.567127
-2.850538 0.987663
-3.188912 0.389333
-3.448489 0.655701
-3.285550 0.827134
-3.339758 0.689529
-3.324668 0.787867
-3.077831 0.764230
-3.216757 0.849894
-3.405069 0.905613
-3.076490 0.888826
-3.461078 0.745034
-3.053758 0.590609
-3.087008 0.414366
-3.288124 0.894649
-3.220803 0.742481
-3.111796 0.828724
-3.133155 1.048283
-3.184830 0.935576
-3.114122 0.174753
-3.266520 0.722062
-3.442065 0.954527
-3.098538 0.629634
-3.320973 0.945848
-3.173871 0.857605
-3.353342 1.021119
-3.657832 0.965092
-2.974093 1.013640
-3.372022 0.823812
-3.215514 0.862611
-3.251010 0.832360
-3.285749 0.868440
-3.158416 0.852375
-3.158488 0.985462
-3.183454 1.003044
-3.396505 1.263665
-3.438808 1.376426
-3.518335 1.037700
-3.641302 1.388247
-3.075334 1.081369
-3.049055 1.133458
-3.047849 1.173150
-3.036087 1.060970
-3.298330 0.993205
-3.284537 1.261108
-3.297158 1.494466
-3.132967 1.386861
-3.568363 1.327036
-3.584734 0.864452
-3.583181 1.567038
-3.281387 1.286847
-2.902398 1.429546
-3.360105 1.256449
-3.458245 1.243711
-3.374325 1.503631
-3.532091 1.367403
-3.277515 1.538271
-3.347121 1.109465
-3.490089 1.568391
-3.663028 1.864053
-3.159591 1.459728
-3.194271 1.387698
-3.094194 1.050881
-3.353103 1.459372
-3.273878 1.709062
-3.339608 1.642561
-3.722341 1.571166
-3.590960 1.513979
-3.266552 1.514148
-3.449592 1.670573
-3.412595 1.918431
-3.332940 1.471274
-2.937209 1.614212
-3.215534 1.471273
-3.309073 1.446880
-3.548290 1.606185
-3.784375 1.707041
-3.381925 1.917993
-3.323185 1.812165
-3.603974 1.774110
-3.044939 1.811551
-3.155720 1.682523
-3.582026 1.669473
-2.917557 1.781988
-3.196298 2.063113
-3.233864 1.581370
-3.525091 2.015639
-3.546207 1.959054
-3.239818 2.141025
-3.420578 1.885271
-3.521651 2.025880
-2.972269 1.412221
-3.501014 1.941916
-3.297669 1.940454
-3.305974 2.068231
-3.532098 2.392524
-3.368751 2.127172
-3.117731 1.903234
-3.239913 2.051271
-3.485784 2.116407
-3.312633 1.643246
-3.408396 2.032717
-3.438497 1.898815
-2.827923 2.252893
-3.401770 2.476197
-3.144559 2.180451
-3.288835 2.386632
-3.331732 2.182939
-3.539227 2.576385
-3.283559 2.288208
-3.318640 2.498850
-3.003923 2.496698
-2.954455 2.296474
-3.258481 2.239645
-3.385746 2.451097
-3.295274 2.171651
-3.617344 2.547214
-3.229235 2.702719
-3.094521 2.328251
-3.242878 2.300241
-3.343419 2.603589
-3.342758 2.384982
-3.069220 2.730757
-3.170793 2.065721
-3.269991 2.757911
-3.368547 2.513252
-2.971774 2.407031
-3.155070 2.397640
-2.963227 2.724551
-3.297505 2.587556
-3.459813 2.871862
-3.513657 2.101391
-3.045080 2.603829
-3.165832 2.680246
-2.997412 2.580710
-3.425177 2.031149
-2.927868 2.905823
-3.472856 2.729539
-2.952707 2.641709
-3.596400 2.272640
-3.168714 2.471718
-3.070659 2.827632
-2.937205 2.899189
-3.423233 2.175539
-3.010988 2.550382
-3.412963 2.473641
-3.009011 3.143941
-3.633505 2.545674
-3.094977 2.938086
-3.001515 2.604605
-3.158112 2.859761
-3.451632 2.813908
-2.671673 2.348443
-3.162692 2.978503
-3.218239 2.700582
-3.099118 2.912029
-3.244689 2.530528
-3.178203 2.710624
-2.912082 3.276995
-3.088874 3.531549
-3.380141 2.764311
-3.051962 3.171109
-3.309604 2.805345
-3.266842 3.280978
-3.110606 2.856260
-3.243130 2.891937
-3.345143 3.050712
-2.967969 3.523637
-3.422743 2.989481
-3.335513 2.831860
-2.985992 2.934651
-2.451676 3.454307
-3.211682 2.851103
-3.517368 3.423940
-3.265685 3.239584
-3.069304 3.300992
-3.088326 3.507681
-3.109452 3.368079
-3.093196 3.306851
-2.803123 3.250527
-2.719136 3.606292
-3.059198 3.419120
-2.539041 3.587460
-3.175303 3.505821
-3.006416 3.776558
-3.339598 3.573310
-2.973730 3.721272
-2.681777 2.968545
-2.757416 3.522262
-2.859142 3.595550
-2.545318 3.483241
-3.429991 3.456221
-3.035511 3.873428
-2.603855 3.528812
-2.387108 3.580689
-2.770187 3.385413
-2.636015 3.650476
-2.238037 3.303008
-2.998638 3.664925
-2.693382 3.637923
-2.853582 3.813156
-2.288743 4.006465
-2.855740 3.435120
-2.797308 4.086455
-2.581777 3.664911
-2.740555 3.594551
-2.594597 3.316176
-2.438935 3.460189
-2.617723 3.834056
-3.062124 4.067080
-3.252840 3.290143
-2.355781 3.934166
-2.552275 3.752917
-2.469014 4.173951
-2.713458 3.344027
-2.713969 3.637675
-2.635315 3.951973
-3.066602 3.682477
-2.453213 4.003128
-2.637085 3.694553
-2.596937 3.789509
-2.697179 4.071368
-2.522360 4.179276
-2.559725 3.577968
-2.532563 3.991263
-2.383940 3.964765
-2.522859 4.223461
-2.907394 3.317160
-2.448242 4.099340
-2.381890 4.438023
-2.463197 4.562165
-2.456145 3.775342
-2.430583 4.049359
-2.283520 4.373147
-2.360748 3.961616
-2.204803 4.121518
-2.313238 4.330321
-2.456976 4.176683
-2.416002 3.847777
-2.060997 3.820595
-2.240167 4.012290
-2.403946 4.630852
-2.339360 4.131578
-1.939161 4.535191
-2.099184 4.662745
-2.248568 4.395332
-1.897890 4.224954
-1.954318 4.451793
-2.040072 4.394081
-2.254936 4.184809
-2.214982 4.486469
-1.997471 4.274507
-2.187038 4.244114
-1.878301 3.803268
-2.281759 4.732333
-2.377735 4.360157
-2.022885 4.356583
-2.261182 4.608139
-2.147059 4.676688
-2.509302 3.957338
-2.136058 4.346140
-1.994755 4.546939
-2.778233 4.817002
-2.358597 4.608809
-1.879596 4.304892
-2.334790 4.520616
-2.152340 4.672047
-2.108540 4.481138
-2.206545 4.665025
-2.156584 4.768200
-2.166522 4.626249
-2.229127 4.573321
-1.724418 4.884008
-1.791761 4.667906
-1.884650 4.133925
-2.209672 4.648027
-1.619184 4.788862
-1.776345 5.057165
-2.065972 4.474432
-1.936946 4.351724
-1.607693 4.752380
-1.577476 4.589332
-1.523504 4.978657
-1.664207 4.568361
-1.058237 4.845037
-1.598557 4.778040
-1.961967 5.060695
-1.167462 4.702548
-1.697053 5.162794
-1.567288 4.753973
-1.680507 4.716060
-1.652551 4.424177
-2.058093 4.630712
-1.530321 4.822641
-1.541877 5.110408
-1.385656 4.993336
-1.661003 4.736720
-1.389603 4.757042
-1.367855 5.461798
-1.670955 4.998211
-1.429902 4.712790
-1.741339 5.135869
-1.549759 5.238157
-1.718457 4.927741
-1.525537 5.201663
-1.687816 5.106412
-1.593222 5.113352
-1.566028 5.077965
-1.221629 4.967646
-1.442898 5.306347
-1.555985 5.224295
-1.055982 4.624373
-1.304137 5.350555
-1.709450 5.084481
-1.845910 5.018236
-1.518587 5.409253
-1.259615 4.649421
-0.704316 4.751835
-1.224753 5.287271
-0.799503 5.421085
-1.079914 5.108560
-0.915560 4.924690
-1.294650 5.369503
-1.059352 5.046987
-1.144556 5.272571
-0.774191 5.088623
-0.759116 5.025375
-1.222922 4.977156
-0.644346 5.227665
-1.078609 5.125764
-0.868151 5.227526
-1.042318 5.188140
-0.816529 5.283048
-0.714468 5.457974
-0.565828 5.283409
-0.751507 5.333344
-1.198081 5.653059
-1.203255 5.657210
-0.554698 5.542798
-1.052642 4.997987
-0.753722 5.356531
-0.740961 5.511972
-0.627497 5.319585
-1.219095 5.192096
-0.886336 5.350802
-0.552651 5.610965
-1.073202 5.735997
-0.835045 5.391504
-0.548084 5.131979
-0.355680 5.545427
-0.599144 5.285909
-0.376460 5.549657
-0.133978 5.454727
-0.515259 5.185189
-0.415306 5.444483
-0.626778 5.229653
-0.285423 5.461992
-0.509688 5.125952
-0.206509 5.469083
-0.306120 5.554486
-0.448418 5.550073
-0.608923 5.483362
-0.119426 5.733039
-0.123330 5.520468
-0.109594 5.468878
-0.347692 5.252469
-0.441041 5.544310
-0.358357 5.387008
-0.167857 5.757918
-0.395997 5.838314
-0.446681 5.393360
-0.764123 5.580723
-0.381049 5.750340
-0.110579 5.706675
-0.173826 5.578112
0.085723 5.998125
-0.141613 5.556972
-0.279579 5.475290
0.123585 5.437443
-0.277949 5.585096
0.160792 5.722963
0.409058 5.306965
0.338528 5.545535
-0.129963 5.496038
0.289189 5.365876
0.417063 5.018833
0.277121 5.466658
0.564293 5.340083
0.247696 5.378036
0.156009 5.692372
0.222956 5.842050
0.555515 5.699784
0.052450 5.674755
0.241618 5.895658
0.201148 5.783544
0.295303 5.435299
0.577773 5.646439
0.331333 5.760498
0.299674 5.766703
0.158292 5.995030
0.717013 5.444178
0.634476 5.535271
0.702787 5.569846
-0.027354 5.834987
0.596636 5.685044
0.725517 6.095133
0.384853 5.700490
0.488615 5.744869
0.718326 6.031028
0.406955 5.340079
0.517012 5.450077
0.587449 5.438105
0.484015 6.000156
0.681936 5.581268
0.874348 5.650250
1.053143 5.525583
0.808614 5.930471
1.014102 5.860175
0.787580 5.720790
0.862555 5.669904
0.757622 5.722613
0.921993 5.721618
0.997522 5.936292
0.459797 5.441358
0.587367 5.553544
0.733519 6.071374
1.303049 5.886021
1.116872 5.310688
0.869233 5.786782
1.068828 5.620194
1.137603 5.734689
0.870469 6.227231
0.716508 5.836683
1.249845 5.526949
0.976040 5.350508
0.786179 5.538545
1.048961 5.660786
1.665210 5.561762
1.180885 5.519367
1.196134 6.037955
1.247653 5.530823
1.479835 5.616008
0.900224 5.653660
1.762812 5.657117
1.486778 6.100902
1.581906 6.120239
1.292318 5.209650
1.150996 5.773640
1.380544 5.436962
1.622222 5.475084
1.793737 5.505636
1.352817 5.369094
1.916590 5.907601
1.883924 5.660574
1.757188 6.167492
1.228625 5.701689
1.274268 5.629828
1.408735 5.905162
1.343664 5.700389
1.605184 5.808464
1.589489 5.547091
1.702587 6.138149
1.847685 5.391492
1.919522 5.490494
1.793724 5.516130
1.805331 5.403860
1.533473 5.966303
2.109655 6.339508
2.021643 5.802852
2.264181 5.660384
1.774365 5.510473
2.017886 5.658321
2.030884 5.396160
1.915521 5.468868
2.110991 5.876700
1.736669 5.993524
1.764346 5.907239
2.311861 5.562384
2.133565 6.191410
2.383805 5.780500
2.000858 5.611837
2.073265 5.414690
2.046025 5.719446
2.090406 5.621972
2.066101 5.730507
2.430745 5.437849
2.278117 5.402673
2.036800 5.624833
2.128351 5.409654
2.153955 5.499534
2.214602 5.965489
2.090703 5.935681
2.434273 5.786018
2.601775 5.654481
2.433388 5.783504
3.068184 5.347831
2.870558 5.373484
2.501770 5.453510
2.569337 5.783508
2.607147 5.456755
2.615262 6.092055
2.871912 5.124706
2.265810 5.825526
2.601681 5.477853
2.399254 5.007330
2.385107 5.295375
2.697164 5.363914
2.627230 5.464807
2.779526 5.896615
2.702321 5.410870
3.212867 5.391726
2.625025 5.100417
2.755605 5.275544
2.904292 5.360073
2.821365 5.533467
2.884052 5.530285
3.196664 5.500621
2.968600 5.624958
3.127720 5.178526
3.116967 5.261074
2.571637 5.506750
3.161140 5.389706
3.168870 5.853645
3.157007 5.371941
2.928633 5.755371
3.088637 5.505993
3.411564 5.628153
3.227614 5.569220
2.935535 5.468939
3.298205 5.644592
3.007053 5.450155
3.286689 5.271020
3.290811 5.185006
2.985545 4.897419
3.894453 5.409584
2.861125 4.978908
3.190272 5.484614
3.745423 5.121826
3.289430 5.154066
3.488313 5.197270
3.604143 5.574927
3.549967 5.270086
3.416251 5.633144
2.859766 5.173113
3.395759 5.633849
3.898391 5.626783
3.721554 5.230752
3.240616 5.345060
3.634219 4.796481
3.728425 5.190002
3.813077 5.814204
3.897901 5.043074
3.895034 5.460867
3.700328 5.158378
3.795850 4.919186
3.722760 5.089455
3.909623 5.334325
3.565290 5.052894
4.059725 5.473302
3.282738 4.819569
4.076052 4.741189
4.274002 4.706804
3.991340 4.659617
4.223131 5.025304
4.604360 4.906614
3.666562 4.857311
4.067924 5.195775
4.001188 5.388749
3.545297 5.087909
4.391597 5.094022
4.296332 4.673194
4.005514 5.342148
4.424700 4.612768
4.191096 4.874604
4.242864 5.257169
4.198019 4.735543
4.073411 4.213035
4.293773 4.529146
4.279202 4.396849
4.289940 5.023920
4.383254 5.083653
3.751780 4.317342
4.427600 5.041566
5.148196 4.792674
4.653328 3.972680
4.420946 4.783393
4.821402 4.595665
4.675697 4.968511
4.289729 4.450299
4.360219 4.581453
4.692825 4.650723
4.202517 4.985502
4.759892 4.652509
4.698706 4.858688
4.561301 4.564523
4.511989 4.409428
4.605059 4.077633
4.840439 4.305594
4.800158 4.686429
4.910097 4.671457
4.685932 4.109163
4.331836 4.727738
5.029044 4.687855
4.781588 4.522953
4.463121 4.609160
4.996741 4.691901
4.842134 4.242876
4.844091 4.186609
5.141571 3.864938
4.791106 4.087811
4.652610 3.813289
4.916379 4.204189
5.161318 4.034850
5.336993 4.668925
4.795645 4.821758
4.313775 4.444905
4.436707 4.692387
4.537188 3.803994
5.452112 3.753153
5.145055 4.364672
4.840791 4.171736
5.528550 4.244433
5.151535 3.658139
5.173868 4.055531
5.298897 3.870544
5.382577 3.657730
4.744700 3.709662
5.098604 4.215593
5.128487 4.530849
5.438301 4.383096
5.031990 3.795322
4.800316 4.020977
4.493526 3.569146
5.394652 3.117382
5.563021 3.824142
5.506460 4.138411
5.526809 4.011374
5.438532 4.125695
5.169987 3.722760
5.217943 3.867239
5.313286 3.741265
5.632217 3.371734
4.867787 3.243230
5.423122 4.218825
5.236105 3.509449
5.844560 3.492658
4.982456 3.389404
5.084688 3.995356
5.332272 3.507529
5.848947 3.695413
5.694824 3.482086
5.755722 4.122459
5.626166 3.716276
5.461404 3.506269
5.283380 3.659202
5.430408 3.825450
5.934482 3.519853
5.607548 3.032726
5.465102 3.404874
5.505498 3.521202
5.546963 2.791693
6.008009 3.463682
4.926587 3.635290
6.028155 3.745075
5.559952 3.468990
4.870348 3.846631
6.280498 3.092997
5.900328 4.045511
6.098800 3.598007
6.514863 2.324209
4.666381 3.972600
5.931736 3.310294
5.642401 4.008230
5.313793 3.078991
6.333080 3.349685
6.366308 3.210994
5.972248 2.624626
5.255887 2.835906
4.998286 3.531926
6.041905 3.697050
4.908213 3.100452
5.496235 2.699588
6.389717 3.607697
5.620414 3.068904
5.417470 2.895990
6.852161 3.094315
4.839776 3.015941
6.655054 2.862818
5.150286 3.059256
5.641584 2.268533
7.279287 3.709942
6.222479 3.052980
5.994953 2.900233
5.157462 2.578907
4.865465 3.264850
5.908943 3.136185
5.488598 2.109261
6.434407 2.850601
6.706715 2.976938
6.469357 2.208203
5.966097 2.987226
6.865915 2.802031
5.796172 2.365840
6.544103 2.903365
5.191512 2.333627
6.496224 1.882845
6.597774 3.065099
5.880276 2.322075
6.492088 3.018511
5.356286 2.501735
6.225504 2.227921
6.535287 1.710323
6.660490 2.921606
6.532629 2.519344
6.803828 2.254702
6.241504 3.099365
6.296840 2.666540
7.092259 2.814389
6.319741 2.740188
6.548386 2.880720
6.541743 2.324199
6.413252 1.122178
6.672777 1.550569
6.214823 1.786822
7.353896 3.415505
6.134294 1.223893
7.087162 2.679080
7.088450 2.615753
5.596334 3.227706
6.870020 1.857422
7.826785 1.321878
4.934946 3.182198
7.728207 2.876412
6.503839 3.119581
6.833289 2.794967
7.248656 1.580167
6.365981 2.075700
7.361697 -1.023143
6.516202 1.125960
6.337831 3.229841
6.687593 2.938646
6.662390 2.143294
7.084321 3.308890
5.924799 2.198987
5.599861 1.780963
7.229176 0.474130
8.221091 1.702666
6.133924 0.983098
8.879706 3.717508
5.343182 1.856509
5.796808 1.851070
7.843830 2.216398
6.073128 -0.446313
9.020141 0.270980
7.008333 0.774955
5.269438 2.825046
6.745289 1.880896
5.225619 2.238890
6.506371 2.380218
7.521292 -0.528309
5.604332 -0.053848
7.471835 0.318220
7.999137 0.688851
7.994314 2.284548
8.304828 3.843490
5.161094 0.598129
7.854212 -0.022083
7.782795 1.061502
8.419261 -1.733961
8.179109 2.271800
7.739303 0.233415
6.527739 1.225264
6.039866 -0.983780
4.331128 1.062883
8.329911 -0.469840
9.259613 -0.037437
5.385484 0.419764
7.862346 0.006668
10.607071 1.799981
7.839161 2.943283
8.188469 1.749419
6.713612 1.043466
8.844547 -1.621160
6.914532 -0.394536
8.395125 -0.624256
5.008855 1.280621
10.061935 -0.525895
7.818848 1.299047
7.086025 -3.046522
6.172269 0.684505
10.574316 0.842430
7.193535 1.254379
4.164392 0.336480
9.936613 0.855901
8.586740 3.024480
8.078763 1.135129
9.702627 1.430610
5.029164 0.957939
10.389689 -4.553875
3.856247 -0.481024
6.273433 0.385709
7.031303 -2.514166
10.354009 3.230213
9.903749 -0.017463
9.536827 -3.031610
5.097084 4.312618
4.836310 -1.313883
3.088725 0.896189
2.504815 0.324710
10.720751 0.590341
5.226625 -0.783911
10.377005 2.749345
8.252678 2.980512
4.805744 -4.803850
10.835572 -4.602014
3.379753 -2.677569
6.568006 -1.444113
9.172003 -2.342534
2.205118 1.799485
14.154418 2.257060
6.734021 -0.969307
-2.395866 0.926088
1.974272 -11.013477
-0.073236 1.705675
3.799226 -1.681824
14.978455 -1.186168
7.308186 -3.743971
10.395859 6.172310
4.844608 -1.130743
8.983313 -8.928392
5.544960 -4.217104
9.993794 -0.606395
5.174727 -3.071954
3.655737 -6.040646
-0.990921 -7.925908
12.236335 8.431765
2.315780 -6.057633
-2.001078 -8.382269
8.433999 -12.995145
-2.463906 0.899769
10.325525 -4.360854
19.176664 1.807571
7.369069 0.657803
8.022938 3.520364
3.760676 -4.819545
9.358556 -3.191066
-0.256585 -6.460939
16.338521 15.976772
1.982682 -16.065090
3.474149 -23.397874
8.465866 -9.157472
5.104678 -5.862450
5.193332 0.754067
-0.863989 2.917540
8.460066 0.430969
1.733448 -4.850144
13.482171 4.895870
12.448115 14.830382
3.229048 4.418044
14.466095 -7.784695
-9.607199 11.514774
-3.650335 5.619314
-1.617992 -5.748220
9.974348 38.852784
18.646378 -58.699819
25.808855 -39.396754
14.688366 6.125888
34.286192 -58.789323
-70.566606 103.547331
-49.813076 42.748209
-1.687793 11.707720
12.735024 -9.874961
-23.156773 33.001768
-10.981210 26.032379
0.944052 4.242121
34.074693 -6.189262
-99.280305 52.551309
-9.706700 1.141966
1.145815 5.469364
3.171022 44.643158
104.522603 -130.961880
55.804945 -27.866751
19.717282 23.166059
175.816063 -174.644639
-1390.481572 807.016696
-305.325824 87.208405
-15.094801 20.824026
13.375616 38.502937
-74.925366 44.237200
-0.080601 16.757548
15.294838 26.266137
330.891012 -8.959713
-7437.562010 -975.600071
