4392.263204 3425.093441
-1751.812679 -1991.512216
235.499466 228.751000
564.549718 35.737486
374.449563 99.438144
270.170196 -197.857443
258.406985 17.255012
280.427807 -80.431536
57.280585 -203.169842
45.063731 1.608595
73.599638 -33.279648
5.021137 -15.637750
-7.759852 -117.107220
164.485961 6.098014
104.966355 -87.142503
72.128153 -81.458332
73.633766 -138.940855
76.341872 -103.177935
39.979670 -90.338738
12.374711 -56.346687
-12.714685 -51.877917
7.459500 -43.640872
11.615267 -40.546859
56.266110 -53.932840
24.568981 -34.679795
41.470143 -50.914753
19.106935 -45.054563
37.617218 -45.075006
5.959247 -7.191471
20.920666 -13.779610
24.782954 -13.489389
40.207738 -6.610356
46.320930 -14.036807
39.352975 -29.808598
42.831676 -45.101859
48.756204 -44.013374
36.380315 -51.575975
25.321520 -38.676928
26.634860 -39.770579
27.964038 -35.453048
34.061514 -33.079598
41.461139 -35.285373
42.900045 -33.215491
36.630442 -50.652224
29.503206 -54.670599
31.194770 -61.543675
14.038289 -46.989978
6.977828 -42.068206
6.484884 -32.886454
7.371893 -32.112445
13.543723 -20.981231
14.746341 -26.477556
19.786392 -36.156381
14.075968 -44.543835
10.694786 -49.898655
1.025232 -52.764974
-5.118864 -48.404427
-8.133760 -37.083757
-8.355322 -31.194642
-7.101198 -14.373503
0.620513 -8.057224
5.257766 -4.443991
7.135111 -9.371198
11.109052 -8.228476
10.467985 -15.728412
6.805843 -16.591817
7.653922 -19.245432
8.609933 -21.816968
8.618871 -16.127302
12.862290 -16.667229
17.443731 -19.251180
16.306681 -19.618498
18.845585 -16.624375
17.114182 -22.746484
12.848313 -24.592090
10.458714 -23.546013
7.745434 -25.118752
6.723574 -25.167310
6.872570 -27.947669
6.203293 -26.567018
7.306140 -28.359627
8.129837 -30.421565
7.786959 -28.863227
4.875852 -25.514681
3.588443 -22.711015
-0.092990 -22.105385
0.250622 -17.814138
-1.502726 -19.934951
-2.847954 -17.663023
-4.101641 -18.905608
-4.600084 -19.244321
-9.062427 -21.169106
-7.385891 -17.667967
-8.969990 -14.421890
-6.945808 -11.118323
-4.011579 -4.721398
2.070781 -3.974771
5.940648 -2.952743
11.041945 -6.305522
12.113876 -10.084270
11.565645 -14.137310
8.986170 -17.748477
5.529745 -17.204219
2.201403 -16.841724
1.477047 -13.939929
2.774954 -12.841942
4.406727 -10.285178
5.972749 -12.188910
6.505884 -15.272663
5.664626 -19.784734
3.395337 -21.068245
0.174207 -21.757843
-2.294349 -20.944499
-6.094599 -17.989164
-5.850169 -13.418960
-5.243706 -10.286845
-1.939827 -7.662538
-0.893089 -7.763114
0.690982 -9.121478
-0.292170 -9.618960
-2.107473 -11.814047
-5.737714 -11.659218
-7.462819 -10.596080
-7.799925 -7.160587
-5.940191 -2.833924
-2.746027 -1.927516
0.583291 0.820501
6.709639 0.417189
9.049794 -1.539943
8.932847 -2.387074
8.408485 -1.924796
6.436493 -4.111190
4.661198 -1.922661
5.932066 -0.767201
6.295677 -2.628475
7.611150 -2.245277
12.699781 -5.020599
13.985582 -9.128379
14.366559 -12.549902
14.818980 -15.202217
11.880054 -18.873130
10.509082 -17.129303
6.384599 -16.944498
5.746136 -14.286674
3.952560 -12.755982
4.381388 -11.888631
5.046309 -12.209824
4.655192 -12.253803
3.527479 -13.598322
2.823023 -14.029937
2.024200 -15.338281
0.683695 -14.326972
0.590847 -13.068166
2.295887 -13.071983
2.658988 -11.599120
4.149325 -10.795306
4.612843 -11.551825
3.694090 -12.027918
3.201753 -11.284416
2.012772 -11.457783
0.556109 -11.584373
1.131447 -9.381862
1.177422 -8.721615
3.027250 -8.386217
5.006532 -9.566071
5.757177 -11.448913
7.103495 -13.398533
7.376186 -15.705761
6.827870 -16.493991
4.409959 -17.615165
3.294105 -18.365782
1.199615 -17.056140
0.854251 -15.901898
-0.251805 -15.826858
-1.221597 -15.685351
-1.412009 -15.462722
-2.935927 -16.274836
-4.935306 -16.773810
-5.418579 -16.273167
-7.784254 -15.697296
-8.871734 -14.703955
-8.575707 -13.529946
-9.140711 -12.552133
-7.823214 -10.069405
-7.306505 -9.265676
-6.726658 -8.143625
-6.372920 -6.847491
-6.384972 -6.305418
-6.395886 -5.777481
-6.251259 -4.320486
-6.551912 -4.971585
-6.649455 -4.706853
-6.062740 -4.199442
-5.528484 -4.598827
-5.285487 -4.262798
-4.860008 -4.148154
-3.266789 -2.589385
-2.040679 -2.638055
-1.286168 -1.859748
-0.147594 -1.582475
1.288649 -1.804645
1.392288 -1.844073
0.761369 -3.235253
0.558183 -4.505401
-0.826465 -5.208255
-1.737213 -4.831209
-2.557691 -4.679584
-1.712172 -3.807688
-1.131168 -3.253326
0.250893 -3.046747
1.119559 -3.731023
2.345220 -4.072576
1.985976 -5.519664
0.729139 -5.854987
-0.405755 -5.708844
-1.338265 -4.301939
-2.339040 -3.146224
-1.754761 -1.455024
0.342497 -0.214395
2.813377 0.529734
4.952045 0.040715
6.593483 -1.749577
6.836278 -3.072624
7.033027 -5.013125
5.315787 -6.374796
3.925578 -6.128669
2.814808 -6.079333
2.071853 -5.122194
3.128492 -4.418597
4.547177 -4.036060
5.601723 -4.990881
7.337359 -6.277929
7.919452 -8.444941
6.526088 -9.940936
6.138717 -10.832921
4.718225 -11.715246
3.495796 -11.874521
2.369546 -11.138486
2.278582 -10.510060
2.790058 -10.773920
2.677226 -10.611246
3.045231 -11.171392
2.214856 -11.712737
1.768218 -11.837134
0.097501 -12.038014
-1.254241 -11.861862
-2.295831 -11.649924
-3.221970 -10.807661
-3.202588 -10.739556
-4.173376 -10.262179
-3.395371 -10.205140
-3.460690 -10.197380
-3.278344 -9.394789
-2.753199 -9.579615
-2.500231 -8.411733
-1.828436 -7.996060
-1.662915 -8.312844
-1.343020 -7.683797
-1.697486 -7.714888
-2.111118 -8.218336
-3.378332 -8.632666
-3.964106 -8.896987
-5.383312 -8.601073
-4.992474 -8.104033
-5.005448 -6.919647
-4.079040 -6.435670
-3.234508 -5.995055
-2.744285 -5.092053
-2.366225 -6.022783
-2.441912 -6.331313
-3.071843 -6.531311
-3.460553 -6.744784
-4.511458 -7.134293
-5.210978 -6.731163
-4.921835 -5.983899
-4.492642 -6.301091
-4.089542 -6.113947
-3.443731 -5.691033
-3.270228 -5.810904
-3.872155 -5.609218
-4.028101 -4.929886
-4.594544 -4.201628
-4.835323 -2.742481
-5.192368 -2.451961
-5.479948 -1.650392
-4.677073 -1.406690
-4.270421 -1.143757
-3.536542 -1.650263
-2.854855 -2.297956
-2.210238 -1.927417
-1.211697 -2.021730
-0.996403 -1.875672
-0.320734 -1.728731
0.010768 -1.876764
0.730893 -2.155956
0.943089 -2.661845
1.058033 -2.935632
0.289005 -3.134878
0.088586 -3.127385
-0.579258 -2.904535
-0.564078 -2.223883
0.286094 -2.006898
1.071701 -2.037737
2.637144 -2.850755
3.538966 -3.959814
3.680075 -5.838828
2.982642 -7.856731
1.941321 -9.111916
0.774065 -9.161862
-0.908565 -8.779413
-1.701137 -7.063078
-1.523817 -5.222295
-1.157936 -3.807119
0.016229 -3.713371
0.100290 -3.883862
0.637152 -5.707557
0.002762 -7.508804
-1.508891 -8.386639
-3.046831 -8.308184
-4.627120 -8.389761
-5.017134 -6.518162
-4.773981 -5.139947
-2.930002 -3.282084
-1.261952 -2.921360
0.398564 -2.692982
1.175374 -3.807928
1.336523 -4.853448
0.545297 -5.783040
-1.080426 -6.685124
-2.385754 -6.154134
-2.778386 -5.282610
-3.193809 -5.050893
-2.606801 -4.220845
-0.478524 -4.096783
0.450072 -4.432757
1.156382 -5.498309
1.590170 -5.915747
0.884582 -7.001882
-0.875026 -7.216507
-1.497514 -7.295974
-2.378412 -6.460955
-2.642115 -5.849884
-2.331082 -6.053928
-1.957727 -6.077051
-1.987598 -6.758160
-2.452512 -7.562374
-2.522943 -7.954866
-3.168412 -7.951800
-4.027859 -7.466094
-4.793415 -6.300030
-4.891240 -5.721335
-4.767669 -4.381040
-4.413836 -3.440742
-3.975551 -2.840910
-3.455505 -3.026233
-3.201234 -3.001356
-3.058067 -2.653717
-3.336897 -2.708223
-3.155177 -2.454473
-3.024755 -2.251956
-2.420253 -2.073910
-1.354017 -2.874646
-1.093018 -3.458753
-1.102623 -4.461788
-0.832670 -5.092447
-1.027897 -5.769135
-1.046481 -5.278700
-1.152700 -4.897927
-1.555098 -4.692877
-1.278897 -4.083385
-0.798846 -3.760374
-0.480481 -4.123471
-0.822915 -4.885138
-1.318737 -5.671153
-2.195146 -7.018016
-2.692251 -7.254477
-3.829374 -7.124405
-3.741905 -6.686882
-4.037174 -6.496440
-3.691784 -5.527212
-3.639027 -5.415595
-3.886887 -4.760174
-4.221028 -4.329373
-5.236315 -4.218006
-5.633223 -3.495854
-5.628634 -3.312270
-6.073569 -2.138018
-5.780929 -1.871711
-4.759906 -1.228709
-3.460781 -1.142813
-2.573105 -1.986342
-2.191024 -2.119564
-1.646418 -2.491872
-1.527998 -2.935542
-1.807850 -2.545274
-1.794713 -2.128079
-1.561946 -1.339056
-1.127483 -1.452529
-0.580847 -2.053225
-0.367720 -2.376597
-0.267767 -3.432711
-0.717051 -4.112359
-1.297675 -4.892547
-1.991117 -5.076630
-2.535322 -4.797333
-2.881500 -4.294822
-3.291322 -3.856518
-2.512433 -3.121828
-2.022042 -3.136463
-1.327340 -3.348981
-1.737616 -3.997615
-2.297236 -5.001384
-3.332981 -4.705910
-4.253686 -4.692885
-4.483498 -3.781833
-4.555275 -2.459606
-3.916845 -1.242718
-2.998867 -0.490197
-2.146143 0.129483
-1.167636 -0.952989
-0.530415 -1.699390
-0.800434 -1.661797
-1.166771 -2.059569
-1.744963 -1.907353
-1.772752 -1.368430
-0.957369 -0.862261
-0.047459 -0.449852
1.494015 -0.723926
2.371721 -1.811957
2.837638 -3.262822
2.775252 -4.575540
1.875023 -6.034346
0.980405 -6.730070
0.098606 -7.153017
-0.920739 -7.075192
-1.094983 -6.158271
-0.894600 -5.867446
-0.846863 -5.805892
-0.748614 -5.961992
-0.852604 -6.585931
-1.409429 -7.555273
-2.164734 -7.833174
-3.598207 -7.851633
-4.102510 -7.258599
-4.914212 -6.447678
-5.017149 -5.729319
-4.723326 -5.203877
-4.095161 -5.108653
-3.639784 -5.131446
-3.613484 -5.506177
-4.000141 -5.021307
-4.360473 -5.500885
-5.208909 -5.227382
-5.098846 -4.376244
-5.012016 -3.749871
-5.136265 -3.163121
-4.787167 -2.878418
-4.048216 -2.583945
-3.621307 -2.605231
-3.177654 -2.994528
-2.806207 -3.507143
-2.766207 -4.153296
-2.676998 -4.316288
-3.194172 -4.557668
-3.828761 -4.605339
-4.353871 -4.254932
-4.807051 -4.340749
-5.219796 -4.709521
-5.667919 -4.636706
-5.838458 -4.186877
-5.805044 -3.815177
-6.262411 -3.810888
-5.310328 -3.235618
-5.318507 -3.103194
-5.221801 -2.387664
-5.776100 -2.165594
-5.884492 -2.138767
-6.658686 -1.593887
-6.504458 -0.678872
-6.755293 -0.242205
-6.554002 0.401994
-6.340626 0.672449
-5.241003 0.641571
-4.148200 1.027369
-3.531602 -0.032366
-3.021248 -0.355230
-3.170575 0.028971
-2.815348 -0.324363
-3.195675 0.119150
-2.999456 1.166386
-2.218060 1.696340
-1.571466 2.213651
-0.991893 2.153215
-0.137402 1.818985
0.508303 0.849896
1.002298 -0.191646
0.489014 -1.232251
-0.093822 -2.183636
-0.540129 -2.448472
-1.059742 -2.819641
-1.160798 -2.132225
-1.194284 -2.794877
-0.793199 -3.154409
-0.450439 -2.658080
0.033310 -3.376375
-0.129300 -3.300926
-0.378675 -3.171993
-0.842036 -2.697602
-0.846589 -2.770033
-1.238815 -2.348783
-1.120565 -1.997877
-1.116099 -2.235669
-1.188168 -2.804693
-1.497776 -3.721295
-1.486210 -4.148530
-1.632355 -4.128420
-1.694384 -4.436822
-1.299955 -3.948119
-1.221236 -3.816406
-0.977402 -3.320376
-0.257778 -3.425587
-0.302683 -3.756089
-0.674133 -4.654197
-1.060726 -4.548375
-1.985236 -5.867536
-2.557562 -6.309288
-3.350862 -6.268095
-3.229254 -5.931736
-3.020765 -5.295022
-2.380058 -4.991481
-1.485033 -4.726305
-1.028494 -5.349145
-0.992637 -5.565112
-2.122596 -5.986328
-3.418644 -6.681708
-4.765535 -6.490133
-6.174134 -5.898823
-7.625672 -5.701864
-7.697731 -4.953929
-7.322107 -4.861071
-6.780082 -3.826915
-5.820019 -4.548115
-5.409712 -4.502990
-4.913230 -4.453050
-5.543294 -4.653293
-5.899118 -3.977330
-6.761088 -3.356676
-6.785915 -2.231383
-7.280395 -1.370822
-6.341372 -0.958561
-6.128239 -0.467978
-5.601489 0.069161
-5.217618 -0.663612
-4.712705 -1.118777
-5.194564 -1.103044
-4.959159 -1.674667
-5.214213 -1.507101
-5.675605 -1.322966
-5.841821 -1.040059
-5.348845 -0.901426
-5.206294 0.099771
-4.535213 0.029677
-3.534922 0.338169
-2.732752 0.760884
-2.263961 0.431726
-2.107260 0.201200
-1.647235 -0.019382
-2.785576 -0.225486
-2.608503 -1.450664
-3.880935 -1.748889
-4.514313 -2.257806
-5.489826 -2.056197
-5.821879 -1.651883
-5.392236 -0.698722
-4.797772 0.174992
-3.435555 0.565577
-2.198299 0.952981
-1.278507 0.451471
-1.132905 -0.168105
-1.827038 -1.101980
-2.828045 -1.551329
-3.461616 -1.730808
-4.174219 -1.121877
-4.483326 -0.778653
-3.537122 -0.016932
-2.903055 0.707971
-1.763573 0.635406
-0.255333 0.183624
-0.094439 -0.272558
-0.327552 -1.095975
-0.899626 -1.662763
-1.938651 -1.627434
-2.898025 -1.961607
-2.611041 -1.456770
-2.610099 -0.776432
-1.931455 -0.928701
-0.266522 -1.736358
0.030953 -2.544951
0.375633 -3.690009
0.395053 -4.127172
-0.544961 -4.653030
-1.807050 -4.153925
-2.846897 -4.604325
-3.024439 -3.578904
-3.313325 -3.544681
-3.119475 -3.517533
-3.050220 -3.642386
-3.296245 -4.245364
-3.551757 -4.973647
-4.691286 -4.861206
-5.341757 -4.861751
-6.040966 -3.789603
-6.154752 -2.908018
-6.046544 -1.883511
-5.530972 -1.682740
-4.844547 -1.750114
-3.910246 -2.084100
-4.093849 -2.793660
-4.208374 -3.053875
-4.876623 -2.768021
-5.456506 -2.204709
-4.846122 -1.344804
-4.972593 -0.325706
-4.057394 0.595682
-3.737614 0.515770
-2.867938 -0.284595
-2.462147 -1.116690
-2.536476 -1.923360
-3.119223 -2.307314
-3.909069 -3.075788
-4.789711 -2.806832
-4.571064 -2.032242
-4.410619 -1.405458
-3.737963 -0.672669
-2.841650 -0.873514
-1.958571 -2.173000
-1.985518 -2.598059
-2.661505 -4.178509
-3.886129 -5.038142
-4.598651 -5.255915
-5.984831 -4.538551
-6.806781 -3.614548
-6.931505 -2.223975
-6.295979 -1.212995
-5.815109 -0.381517
-5.346189 -0.268973
-4.978942 -0.540262
-5.140995 -0.267830
-5.249043 -0.993198
-5.584820 -1.043152
-5.881100 -0.494583
-5.321300 -0.258010
-4.848120 -0.324067
-4.310750 0.189155
-3.545355 0.266397
-3.216820 -0.159650
-2.930578 -0.014034
-2.801788 -0.235467
-2.946987 -0.280601
-3.302373 -0.308791
-3.410223 -0.433245
-3.629143 -0.248693
-3.718753 -0.997511
-3.393216 -1.316806
-2.702575 -1.628965
-3.150658 -2.341557
-3.230092 -2.659060
-3.481358 -2.526205
-3.373649 -2.027144
-3.466315 -2.472970
-3.731987 -1.870375
-3.985751 -2.052285
-4.332052 -2.211882
-5.051213 -2.517220
-6.470218 -2.361960
-7.072710 -2.180137
-7.701156 -1.480962
-8.109961 -0.271465
-7.450513 0.820451
-6.770677 1.813412
-5.852606 2.209324
-4.561554 1.662595
-3.898755 1.209931
-3.777936 0.532951
-3.535591 0.919158
-4.187371 0.496206
-4.203706 0.600215
-4.390750 1.602562
-3.862399 2.433763
-2.825424 3.019780
-2.096091 2.722792
-1.453918 1.847720
-0.620714 0.560430
-0.500449 -0.965885
-1.365027 -1.723408
-2.749361 -2.445748
-2.938881 -2.027034
-2.879841 -1.582428
-2.752071 -1.283187
-1.850706 -0.680901
-1.501828 -0.688539
-1.087754 -1.086658
-1.688271 -1.847064
-2.238672 -2.757276
-3.579736 -2.950817
-4.422886 -2.806623
-5.727808 -2.585700
-6.338278 -2.091401
-5.736568 -1.285314
-4.683901 -1.060186
-3.986021 -0.779434
-3.296994 -1.058487
-2.825547 -1.386523
-3.131987 -1.154185
-3.230474 -0.870087
-4.298115 0.005277
-4.432337 0.623752
-4.254255 1.198917
-3.653553 1.542468
-2.555591 0.774242
-1.650488 0.092395
-0.729839 -0.840151
-1.002658 -2.274556
-1.353830 -3.593151
-1.897494 -4.268467
-2.338822 -4.667988
-2.900157 -3.851517
-3.375097 -3.648897
-3.461369 -2.936916
-3.323826 -3.028134
-3.978416 -3.081237
-4.131370 -3.850685
-4.971278 -3.922719
-5.755693 -4.929553
-7.124242 -4.305912
-7.352451 -4.138017
-7.828550 -3.556948
-7.613096 -3.666436
-7.245009 -3.111986
-7.207249 -2.733198
-7.319589 -2.618631
-7.417343 -2.332307
-8.070146 -1.573601
-8.762813 -0.790680
-9.086051 0.208481
-9.565465 0.571695
-8.960056 1.668074
-8.342218 2.288006
-7.812388 2.674505
-7.119248 2.609267
-6.533834 2.133617
-6.247959 1.279280
-6.255304 1.633999
-6.092921 1.311569
-5.864161 1.744026
-4.985462 2.208927
-4.532405 1.798537
-3.700034 1.393305
-3.595034 1.658418
-3.561057 0.924781
-4.078058 0.820622
-4.710167 0.630020
-5.708584 1.171796
-6.517504 1.235636
-6.842379 1.595238
-6.469084 1.650903
-6.709435 1.840322
-5.374680 1.596928
-5.473537 1.529923
-4.966553 1.967721
-4.884505 1.908545
-4.572564 2.095777
-4.294547 2.644488
-4.089045 2.408380
-4.678695 3.262303
-4.053743 2.601093
-4.317732 2.621068
-4.271954 2.719677
-3.812183 2.979053
-3.668928 2.984114
-2.586082 3.098896
-1.834440 3.262021
-1.104096 3.693285
-0.333432 3.604875
0.104630 3.200232
0.427932 2.204705
0.344215 1.503984
-0.369136 0.663594
-1.331200 -0.207258
-1.661700 -0.450672
-1.506719 -0.587456
-1.181872 -0.595210
-0.741357 -0.690788
-0.068690 -1.869635
-0.025331 -2.756021
0.231631 -3.762968
-0.835317 -4.172014
-1.534918 -4.159898
-3.302859 -4.291576
-4.024968 -4.147291
-5.368035 -2.650764
-5.327923 -1.855786
-4.795860 -1.220459
-3.754095 -1.237534
-3.356587 -1.337315
-3.054117 -2.984341
-3.518698 -3.770560
-4.546929 -4.098928
-5.680323 -3.900645
-7.303687 -3.851203
-7.853882 -2.723342
-7.385999 -1.565383
-6.935435 -1.598320
-6.009811 -0.740664
-5.471974 -0.942639
-4.603170 -1.375039
-4.801003 -2.107177
-5.496144 -2.221535
-6.296865 -2.150821
-6.841039 -2.365028
-7.492265 -1.322747
-7.771955 -0.816829
-7.725843 -0.363718
-7.181854 -0.903963
-7.540264 -0.861488
-7.010992 -1.298367
-7.026897 -1.642368
-7.415543 -1.277412
-7.409446 -1.524865
-7.962886 -1.052795
-8.171810 -0.493749
-9.103947 -0.076084
-8.989420 -0.117054
-9.503893 0.415307
-9.821067 0.684881
-10.298066 1.381184
-10.066661 2.514193
-9.420036 3.096591
-9.224700 4.092833
-7.574258 5.284264
-7.342925 4.713605
-6.410156 4.697898
-6.652916 3.931567
-7.249057 3.414357
-7.893605 2.759096
-7.647922 2.498873
-8.270560 3.544904
-7.571365 3.803764
-6.840386 5.102552
-5.264798 4.907450
-4.016935 5.819281
-2.608773 6.030977
-2.346181 5.999990
-2.441620 5.498208
-2.939003 4.880506
-3.334408 4.976380
-4.116025 4.372461
-4.110545 3.628526
-3.770994 3.156280
-3.019913 3.079835
-2.730607 2.393990
-2.130203 1.444380
-2.037985 0.739965
-2.008275 0.455895
-2.157727 0.162649
-2.664488 0.565131
-3.601654 1.207700
-3.487589 1.256002
-4.160358 1.670010
-4.137006 1.934140
-4.485150 1.338380
-4.087117 1.173512
-3.890313 1.064491
-4.007877 1.499306
-3.933450 1.946854
-3.798998 1.167113
-3.720617 1.650340
-2.936990 1.518785
-3.495768 0.724158
-4.141890 -0.228502
-4.791770 -0.346889
-5.428221 -0.180597
-6.529658 0.485415
-6.509918 1.569544
-6.271706 2.330059
-4.869438 3.448447
-3.449874 3.621985
-2.155652 3.018061
-1.660752 0.416078
-1.239820 -1.088120
-2.166571 -2.899460
-4.214811 -3.682875
-5.155175 -3.415713
-6.554977 -2.199288
-6.785352 -0.191703
-5.815054 1.360020
-5.124631 2.679350
-3.828091 2.078509
-3.518584 1.318140
-3.801757 -0.860600
-5.708600 -2.879861
-8.385357 -4.608412
-10.715995 -4.625228
-12.674445 -2.989939
-12.212773 -1.140332
-11.938303 0.655253
-9.731228 3.153857
-7.378749 3.830094
-5.497828 4.022445
-4.958827 3.139443
-5.739936 2.361878
-6.838775 2.306708
-8.869212 1.930092
-11.087071 3.473566
-11.352206 4.414479
-10.379158 4.823840
-9.212848 6.271219
-6.693842 5.454548
-5.250760 4.798443
-4.621456 3.905570
-3.649832 3.457298
-4.672707 2.399457
-5.936348 3.560382
-5.660849 3.847910
-5.591843 4.317116
-5.521175 4.862690
-4.251776 4.187166
-4.097828 2.515904
-3.744078 1.895450
-3.905152 0.092653
-5.117974 -1.313514
-7.068208 -1.110452
-7.560329 -0.923272
-8.622172 0.175392
-8.755125 0.967955
-8.788476 2.141934
-9.297809 2.663055
-8.866032 2.570896
-9.374719 2.896881
-9.915126 3.221557
-10.134982 4.159486
-10.298560 4.932064
-10.068005 5.980918
-9.232541 7.818772
-8.027849 7.200762
-7.705514 6.969318
-6.120859 5.967253
-6.856367 4.969528
-6.577150 4.508246
-7.229148 4.083412
-6.583047 5.162201
-6.753409 6.535598
-5.671206 7.118774
-4.964093 7.806804
-3.754837 8.093280
-2.662222 7.287856
-3.580564 5.965179
-3.094288 4.320773
-4.050277 3.248620
-5.148557 1.753653
-5.726479 1.120655
-6.495753 1.148783
-4.852659 1.357209
-4.991975 1.190360
-5.253613 1.416071
-6.018347 2.301757
-7.356540 1.483746
-8.638956 2.457958
-10.456015 3.255797
-12.743928 4.481355
-12.642862 6.713034
-11.691616 6.859709
-10.813909 7.430605
-9.708865 7.519244
-7.709866 6.952567
-7.626013 6.841794
-7.094630 7.156727
-7.149653 7.183317
-6.736401 9.860453
-5.289994 10.760389
-3.755293 10.646667
-2.980920 11.709412
-1.054573 10.692731
0.143703 8.658096
-0.279381 6.024624
-0.153696 5.107428
-1.516392 3.444033
-2.673462 3.590602
-3.067794 3.681160
-2.665402 4.891611
-1.581935 4.792799
0.568151 4.068022
0.941662 2.024308
0.847892 -0.787886
-0.585796 -3.721198
-2.762374 -4.279565
-5.637873 -4.974325
-8.601428 -4.220724
-10.295790 -1.915728
-9.511176 0.598748
-9.500076 1.615886
-8.413789 2.524862
-7.772221 0.741454
-8.977069 0.239539
-10.439989 -1.168334
-12.162949 -0.742624
-14.684210 -0.745641
-15.471776 2.365371
-16.249435 4.721501
-13.725395 8.327799
-11.648892 9.790348
-8.089096 9.664158
-6.995743 9.184197
-4.448867 6.350797
-5.375381 3.771031
-6.840030 2.603509
-8.636289 1.915185
-11.029758 3.011068
-11.586174 4.102856
-10.250442 3.996916
-8.953597 3.564846
-7.959813 4.994649
-8.746444 2.701586
-9.384037 0.606256
-11.648939 -0.569183
-13.652883 -0.038296
-14.955939 0.236029
-17.700378 1.131932
-16.869309 3.870310
-17.964081 5.671090
-16.985198 6.558935
-14.896365 7.051254
-15.608358 6.398648
-16.378329 6.058161
-17.825505 7.107201
-19.998870 7.576360
-23.451110 10.959283
-22.819276 12.364984
-23.295115 17.144427
-21.557947 19.625921
-20.434525 20.913879
-17.455350 20.005276
-13.248595 21.229248
-10.301517 19.707432
-9.414015 21.026249
-5.924988 20.463344
-4.485688 21.598589
-5.493961 21.984028
-3.491660 20.838682
-4.392236 19.095815
-5.278802 19.063801
-5.700681 17.270923
-5.794197 16.640985
-5.288826 13.886686
-4.848756 14.619534
-2.671376 12.473205
-0.585533 13.888244
-0.433925 12.690892
0.245001 11.569532
0.096391 11.041453
-1.768648 10.232675
-4.141824 12.219378
-7.744780 11.250657
-7.877705 11.967054
-9.407116 14.576695
-7.480990 13.995978
-7.094650 13.865341
-4.240253 11.000601
-1.645349 10.572665
-2.422994 7.199776
-4.182040 7.568552
-5.135878 6.962041
-6.219800 7.979211
-7.905996 12.383156
-5.992287 15.801194
-4.544231 15.045882
-2.064892 17.848660
1.376581 16.939460
2.387443 13.098431
3.333790 7.715536
1.967750 6.558957
-1.375339 1.942207
-3.697083 3.159487
-3.605701 -0.443947
-7.959425 0.560239
-5.879070 -1.938509
-3.614888 -1.515879
-6.646283 -5.732026
-9.729573 -4.502990
-10.720695 -6.090255
-11.808735 -7.135982
-17.470784 -0.857830
-18.056806 -1.066921
-21.182950 2.012352
-23.109388 2.602535
-25.605286 3.487587
-27.863383 -1.611034
-32.373955 -1.391002
-31.679422 -1.335646
-35.396019 -0.687710
-34.624281 2.495504
-37.799472 8.671063
-30.892997 14.503279
-28.529660 15.697585
-28.485186 23.568240
-29.548592 20.898350
-29.012662 23.107669
-34.844009 19.674688
-39.823640 25.134612
-49.839941 21.098130
-47.553151 27.016902
-52.059071 33.079533
-46.368557 34.355538
-44.628391 36.371021
-29.836332 32.534036
-26.324453 30.859863
-16.723803 31.085746
-21.977929 31.656396
-29.488025 25.392854
-37.744906 30.988649
-38.028093 33.086282
-43.740294 52.505989
-45.353974 52.200018
-47.970460 56.292263
-33.840047 60.527048
-30.386879 62.392663
-39.464199 52.566957
-37.685705 55.432724
-29.610903 46.931315
-53.218203 60.558313
-40.716031 51.902896
-53.379353 63.261224
-37.682170 64.465402
-35.733204 92.836216
-35.482969 84.472813
-34.265934 88.340788
-29.451656 78.951316
-4.185082 78.562119
-10.526751 84.082056
-1.282747 77.219132
-26.265916 94.063760
-19.246709 82.931192
-7.471628 82.584761
-31.846097 127.442029
-29.978631 127.851854
-13.167338 130.506015
1.452263 173.814714
33.383768 168.268308
17.524685 169.659064
47.301743 207.659919
112.776649 138.481684
57.705607 147.542298
-47.730207 62.048600
26.030783 27.212068
-67.133671 -165.399980
-52.647399 194.320272
-174.484688 -27.397485
-32.474585 239.086884
94.883382 554.703468
-301.007902 -136.535875
-48.641473 -124.688919
-863.415325 257.208869
