4418.877593 3339.473634
-1603.684863 1158.498213
773.310658 -829.927089
-171.311142 -692.950524
-324.239127 -462.367911
-387.123080 -301.997010
-162.064541 -139.924625
-120.997778 -81.350388
-97.154664 -97.900535
-166.749462 -114.160168
-39.229550 -126.428848
-278.369960 -52.565718
-151.346981 -33.281012
-105.347744 -52.630207
-23.080620 38.599022
-1.785102 -110.193679
-8.318722 -84.030267
-22.886135 -100.200957
-70.826491 -110.000979
-73.216849 -8.349193
-45.648191 -23.288698
-20.612184 3.259997
-7.584136 -42.318366
-42.702543 -71.714862
-38.243780 -70.857305
-70.164124 -65.823287
-79.017385 -58.435109
-49.275981 -16.811770
-31.507586 -16.496971
-36.571324 -27.309175
-23.516232 -50.979170
-50.851578 -29.106795
-41.655899 -31.023696
-51.767748 -22.602839
-30.978211 2.591918
-13.829394 -11.554841
-7.614133 -5.897010
-3.296413 -34.797683
-16.609768 -34.501736
-17.887037 -30.629923
-37.522515 -45.584627
-26.470059 -20.235023
-25.580820 -31.711630
-28.167081 -27.029082
-15.506335 -32.292756
-35.864706 -25.930881
-21.428656 -19.980048
-32.258957 -24.760387
-31.127325 -9.231717
-27.978120 -14.770017
-28.953250 -8.873672
-19.307582 -12.905764
-24.316935 -11.956601
-15.259799 -6.235643
-13.709026 -11.841867
-8.444977 -9.832760
-8.908565 -14.195887
-9.258397 -16.879924
-11.404647 -20.460130
-15.895324 -17.706019
-17.768467 -18.490425
-14.140017 -16.406936
-11.820205 -18.649495
-16.757121 -23.607696
-17.574160 -22.035298
-26.032644 -24.154651
-34.093734 -11.940871
-27.436930 -7.035854
-27.426559 -0.429993
-13.677746 3.523295
-12.482051 -7.716185
-11.020964 -3.686367
-7.299966 -11.276609
-19.980783 -8.425544
-8.018787 -1.945898
-9.554598 -8.593371
-3.206191 -2.915676
3.512653 -20.658760
-10.952011 -21.595723
-7.270966 -23.385779
-24.456966 -24.971666
-22.562656 -6.903743
-19.403334 -10.777504
-21.499060 -1.259471
-9.969642 -7.308504
-18.659465 -13.764941
-17.484810 -6.979800
-20.060715 -11.542904
-22.671267 0.913230
-11.448346 2.243143
-10.769422 0.587655
-2.762775 -0.482916
-4.761812 -10.367877
-9.702231 -9.890037
-9.241582 -8.529676
-11.419613 -8.150146
-7.518450 -4.698168
-1.865524 -9.161835
-4.610680 -14.167411
-7.038902 -18.089605
-16.131425 -19.909614
-23.984469 -14.030094
-23.892504 -6.478530
-21.533894 -0.945849
-15.383968 3.406023
-8.153173 -2.827757
-11.823766 -4.618849
-9.632419 -5.166138
-16.038605 -4.842920
-13.883260 3.461083
-7.747107 2.345514
-2.924080 3.830012
5.287945 -2.715726
0.696658 -14.692689
-4.007305 -14.687860
-9.817184 -18.720994
-18.095098 -11.377083
-13.527361 -6.413394
-14.968161 -5.343043
-9.066452 -3.078180
-8.989392 -8.329357
-12.652133 -8.771539
-14.124899 -8.431380
-17.389789 -4.619532
-15.582847 -0.003547
-11.333341 1.534630
-9.265246 2.499226
-6.776212 0.389403
-7.459606 -1.008362
-7.337222 -2.298494
-7.313901 -0.442397
-3.621489 -2.016429
-3.147872 -3.276167
0.080907 -8.243682
-4.536661 -12.424792
-8.660957 -13.272913
-12.306376 -13.253742
-16.667046 -8.350130
-15.010804 -3.119232
-13.224737 -3.446295
-11.587421 -0.689791
-8.675963 -3.734644
-13.252862 -3.912473
-11.623623 -1.965908
-13.228473 -0.479964
-11.722148 4.011819
-5.957755 4.195409
-3.279214 1.423503
-0.542934 -0.417809
-0.833244 -7.008155
-6.717317 -6.903151
-4.726825 -7.547654
-10.282350 -7.103888
-8.288217 -3.672498
-7.491310 -7.125887
-10.094460 -5.414183
-7.727774 -6.058874
-12.292643 -9.084041
-12.832725 -2.501902
-11.258915 -5.151390
-15.532723 -0.410880
-8.732891 0.661408
-12.240007 0.059100
-8.934928 4.492345
-6.183750 0.456017
-6.447212 2.146472
-1.914309 0.921155
-3.339091 -3.856433
-3.882190 -3.035998
-3.797124 -7.399462
-8.591791 -4.930104
-6.775359 -3.795790
-7.405769 -4.367879
-6.792817 -3.248832
-5.086930 -6.274219
-9.281930 -9.021052
-11.532122 -5.667718
-14.208158 -6.340345
-17.032274 0.751685
-10.278423 3.963698
-9.970947 4.394481
-3.391599 4.691779
-2.126477 -1.526777
-5.602180 -2.080364
-4.740437 -2.877701
-8.153511 -4.328746
-7.195173 1.079387
-4.045681 -2.333261
-5.451477 -0.907765
-1.460293 -3.755337
-6.643653 -6.832044
-7.393308 -3.727788
-7.516705 -5.183689
-9.410144 -2.401195
-6.744312 -2.225178
-7.973393 -4.842334
-9.005201 -2.590331
-10.429261 -4.878624
-13.878838 -0.050668
-10.623822 2.851181
-9.068409 4.704444
-3.983263 4.733593
-1.810006 1.393846
-1.607936 -1.929437
-3.719778 -4.112355
-6.661483 -4.077345
-7.672968 -1.856130
-6.251306 0.153494
-3.839369 -0.222182
-2.445984 -3.443163
-3.622708 -5.579615
-6.770080 -8.125507
-12.020279 -5.887989
-12.077073 -2.438099
-12.745786 1.089417
-8.235791 4.661110
-4.802887 2.252971
-4.077907 0.484237
-3.831463 -2.254650
-7.732759 -4.177328
-9.002707 0.126781
-8.011131 0.207969
-7.725374 3.847598
-2.200925 2.280789
-3.267902 -0.447120
-1.933882 -1.856895
-4.321759 -4.918722
-7.074582 -2.552741
-6.227359 -1.666815
-6.325124 -1.908427
-5.733776 -1.253148
-4.936999 -3.154571
-8.188855 -3.925430
-8.314858 -2.665658
-9.580596 -1.849095
-10.353391 1.637371
-5.916105 2.888093
-6.022139 0.468269
-4.377086 2.261477
-3.922511 -2.599513
-8.243968 0.053422
-4.265926 0.858975
-7.288248 0.278572
-2.835374 4.275444
-1.338497 -2.000986
-3.464022 -0.879090
-1.251330 -4.156940
-8.107566 -6.218058
-7.889153 -0.996790
-7.968524 -2.920049
-9.050108 2.884964
-3.293230 0.955710
-5.578559 -1.677847
-4.067877 -0.430623
-6.092073 -3.775572
-9.539062 -0.564626
-6.485211 1.410267
-8.201336 0.798713
-5.347126 4.315367
-2.838104 -0.098287
-5.976378 0.791279
-2.134450 0.096804
-5.828103 -1.791412
-4.283846 1.497509
-3.392554 -1.694157
-5.311744 -0.092896
-2.429191 -0.871185
-5.540274 -2.889485
-5.620158 -0.940296
-5.053803 -2.579289
-6.708525 -1.423701
-5.704129 -0.868453
-6.973741 -2.133782
-8.143626 -0.398035
-7.737258 0.394129
-8.563626 1.789061
-5.932499 4.920534
-3.301955 2.084048
-3.581091 1.971588
-1.326468 -0.482415
-5.736912 -2.735342
-5.222992 0.111955
-6.127820 -1.642282
-7.159200 2.487536
-2.087759 1.565541
-4.016333 -0.309869
-1.680258 -0.460229
-3.882775 -4.552124
-6.990468 -1.815799
-6.215635 -1.828040
-8.665130 0.280676
-5.578024 1.761791
-5.641955 -0.296769
-5.813973 0.028631
-6.580331 -0.810072
-8.514565 0.586488
-7.221010 3.065983
-6.469657 3.854055
-3.381748 4.765344
-0.924010 1.841014
-1.643030 -0.535663
-2.663939 -2.056507
-5.305354 -2.724509
-6.193027 -0.073760
-5.407208 0.740016
-4.537127 1.312023
-2.285874 0.267776
-3.529179 -2.608648
-5.363965 -2.471847
-7.336939 -3.253062
-9.579882 0.346020
-7.829803 2.866568
-6.692955 3.217217
-3.280637 3.896305
-2.592931 0.761051
-4.625174 0.268399
-4.398913 -0.301440
-7.633546 0.868956
-5.510124 4.294694
-3.578558 2.676668
-1.702160 4.050112
0.936904 -0.218050
-2.400371 -2.229584
-3.269463 -2.471549
-6.388794 -3.234447
-7.172629 0.850314
-5.266704 0.327987
-5.597347 1.121161
-3.385985 0.346839
-5.310123 -2.351497
-6.908219 -0.563317
-8.452869 -0.157593
-8.797671 2.817770
-6.625457 5.360230
-4.090313 4.911452
-2.361856 4.325004
-0.865006 1.703049
-2.987300 -0.689340
-3.106846 0.537894
-3.425278 -0.583590
-4.636093 0.809979
-2.363893 0.683797
-3.674931 -1.495807
-3.371329 -0.186093
-4.661735 -3.067625
-7.817132 -0.539325
-5.662067 0.312965
-7.589194 0.742466
-5.607227 2.856440
-4.772886 0.698580
-6.112637 1.868688
-4.812980 1.543538
-6.366118 1.833707
-5.593270 4.266946
-2.977701 3.294394
-3.731122 3.420347
-0.539307 2.595043
-2.513208 -0.492351
-2.991179 1.049299
-2.660604 -0.802305
-4.870193 0.800068
-1.911672 1.322926
-3.620321 -1.908522
-3.351323 0.214127
-4.109311 -3.412001
-7.592283 -0.957956
-6.706469 -0.000237
-9.088876 1.004695
-6.609910 4.633871
-5.350937 2.792312
-5.135177 4.639469
-2.621900 3.200750
-3.724751 2.620655
-2.724656 3.404121
-2.317496 1.835967
-1.984602 2.345019
-1.494908 0.538571
-2.402344 -0.182589
-3.081599 -0.254470
-3.914935 -0.403863
-4.059434 -0.090081
-4.498501 0.515367
-3.892584 -0.348278
-4.846255 -0.755595
-5.777974 -0.240488
-6.906570 0.106870
-7.474896 1.962466
-6.002590 3.270025
-5.288077 4.044103
-3.243542 4.153750
-3.179118 2.269241
-3.469256 2.488277
-3.561972 1.790917
-4.549538 2.641629
-2.743695 3.442919
-1.617817 3.060348
0.083041 2.005112
-0.040736 -0.698700
-1.947325 -2.646610
-4.494306 -2.537304
-7.014804 -1.373199
-7.435377 0.842485
-6.789105 2.015051
-4.713176 3.341347
-4.117697 1.759213
-4.180899 1.889397
-4.636172 0.693307
-6.563903 2.657035
-4.398496 4.093123
-4.693696 4.247966
-1.621749 4.857264
-0.493875 2.168923
-2.209241 1.654713
-1.453399 0.040658
-4.293341 -0.088042
-2.958681 2.443751
-2.593297 0.089102
-3.138265 1.820506
-0.810837 -0.881516
-5.213173 -1.813029
-5.517205 -0.432055
-7.490907 -0.684562
-8.023186 3.926175
-4.057004 3.940192
-4.413507 3.981395
-1.655626 3.983866
-2.827852 -0.139426
-5.595360 2.575513
-5.221928 2.018032
-6.706376 4.402550
-2.519491 6.729497
-0.200296 3.947183
0.659626 3.065588
1.951307 -0.877335
-2.525001 -3.238779
-4.052433 -1.246477
-6.147309 -1.402798
-7.050880 2.079860
-4.368562 2.857639
-4.276220 2.200714
-4.027091 2.072650
-3.659604 0.542577
-6.145520 0.641088
-5.201137 3.458444
-5.297156 2.944721
-4.372825 6.078267
-1.473593 3.722859
-2.420015 2.894570
-1.401312 2.666392
-2.941520 0.522365
-3.246639 2.864843
-1.923517 1.759930
-3.197466 1.600129
-1.338118 2.040878
-2.504528 -0.874559
-3.970047 1.134051
-3.472969 -0.137067
-5.770622 2.021018
-3.449382 2.830410
-4.685713 1.043608
-4.331957 2.088105
-4.170496 0.875666
-6.324867 1.810897
-4.873941 3.761405
-5.130198 4.078348
-3.346273 6.201963
-1.279327 4.452750
-1.015330 3.813107
0.088121 1.666964
-1.857387 0.282179
-2.351228 0.909711
-3.484651 0.833083
-3.579521 1.841324
-3.420087 1.406250
-4.034823 1.682047
-2.977895 1.483361
-4.342854 1.012173
-4.228726 2.060389
-4.221768 1.958864
-4.894988 3.140749
-3.627533 2.918710
-4.183542 2.823786
-3.855634 3.463153
-3.123341 2.712008
-3.859896 3.724490
-1.910878 4.439437
-2.718572 1.780260
-1.901844 3.367449
-1.500489 0.622880
-4.518495 1.991874
-2.264699 1.739608
-4.255882 1.096446
-2.452400 4.115430
-1.172278 0.832579
-3.672118 1.011133
-1.663458 0.235166
-6.208554 -0.951958
-5.741388 3.142572
-5.532267 2.574301
-5.484641 5.544062
-1.484291 5.519139
-2.239922 3.235625
-2.025739 3.396595
-1.976504 1.102430
-5.130195 1.841644
-2.877071 4.470903
-3.168985 2.864432
-1.960420 5.579757
0.452421 2.079355
-2.457206 1.216812
-1.262292 1.809218
-3.659458 -0.903038
-5.683100 2.660406
-2.409344 2.681922
-4.971592 2.651663
-1.698200 4.169867
-2.964006 -0.645997
-4.994183 2.783022
-3.491526 2.190608
-6.225729 3.188646
-2.764301 5.979921
-1.507233 3.075399
-2.506980 4.044947
-0.463794 1.824258
-4.723516 0.216531
-4.153688 4.203301
-3.596156 3.175022
-3.409175 6.415099
1.268395 4.781319
0.115187 1.245783
0.239684 1.397240
-1.594863 -2.778031
-6.701645 -0.287769
-4.842722 2.538684
-6.868151 3.394684
-2.629280 7.189705
-1.061806 2.416666
-2.305094 3.436234
-0.995515 1.054233
-5.366465 1.083587
-4.208610 4.450323
-4.368942 3.929115
-3.075337 6.574546
0.109632 4.666611
-1.292243 2.616943
-1.082188 1.954636
-2.769851 0.476873
-4.096301 2.756611
-2.829229 3.421734
-2.120197 3.748090
-0.766573 3.274445
-0.726927 1.329460
-2.106663 0.353331
-3.673046 0.295714
-4.799117 0.920424
-5.394082 3.115859
-3.947703 3.982079
-4.051922 3.887640
-2.960612 4.539987
-3.160266 2.985334
-3.388572 4.854611
-2.086618 3.776885
-2.723151 4.716425
-0.075590 5.172668
-1.404350 2.841560
-0.093124 3.289492
-0.818813 0.741071
-2.635116 2.116490
-1.439030 1.785442
-3.841018 2.132357
-1.579979 3.169484
-2.773707 1.338834
-3.703960 3.099203
-3.142267 0.704320
-5.137994 2.588580
-3.344502 3.586079
-4.446345 3.234092
-3.039187 5.280108
-1.737372 3.792256
-3.347365 4.119742
-1.784398 4.083746
-3.132004 3.462706
-1.924603 5.508089
-0.198100 3.477777
-1.742227 3.735052
0.523033 3.163093
-2.151223 1.066916
-1.704862 3.159265
-1.306357 0.821870
-3.458326 3.041482
-0.642555 2.162009
-3.847610 0.620251
-2.913223 2.934172
-4.323194 0.636235
-6.887741 4.012873
-3.664486 4.862120
-4.694476 5.451857
-1.612911 7.545562
-0.610119 4.406510
-1.293572 5.138569
-0.223614 3.550622
-2.428984 2.823681
-1.992426 4.975788
-0.639902 4.081032
-0.240014 3.496146
0.927448 2.619713
-0.147673 -0.293288
-3.072121 0.446845
-3.242852 0.312205
-6.271002 1.917729
-3.940988 5.199777
-3.072520 3.758051
-2.628432 5.089987
-0.656154 2.793366
-4.471457 1.678140
-3.189154 4.271698
-5.113031 3.502232
-4.407492 8.255656
-0.224610 7.012468
-0.872670 5.942449
2.689163 5.026926
0.337085 0.802146
-1.430033 2.194589
-0.715039 1.420451
-3.539986 2.756213
-0.618153 4.147652
-1.023742 1.343530
-1.758390 1.683653
-1.856805 -0.133054
-6.044093 0.879151
-5.572237 3.636141
-5.843520 4.564130
-4.063948 7.117066
-1.431660 6.377064
-1.825999 4.861594
-0.709232 4.792225
-1.605415 4.319924
-2.780965 5.789807
-0.514993 6.269598
0.030656 5.463536
1.966422 4.334331
1.519308 1.319265
-0.640718 0.583050
-2.039215 0.299107
-3.993433 2.514105
-3.112800 4.077605
-2.334096 4.475047
-0.878096 3.434363
-1.042394 2.156992
-3.051023 1.199119
-4.646773 1.515266
-6.502608 4.414967
-5.235923 7.184912
-3.421340 8.384829
0.028457 8.695208
1.542808 6.079508
1.210557 4.641167
0.628053 2.788158
-1.762860 2.531308
-1.234958 3.823528
-0.946546 3.142684
-0.711587 3.865455
1.253956 2.174065
-1.270740 0.611356
-2.013155 1.304701
-3.758230 0.803746
-4.851933 3.645626
-3.848091 4.542961
-3.844285 4.977915
-3.093583 6.247894
-1.904097 4.502434
-3.453468 5.749265
-0.891936 6.640819
-1.935921 5.133706
0.597337 6.978526
0.859529 4.000351
-0.423347 4.254356
0.530136 3.335606
-1.505941 2.064491
-0.963441 4.785521
0.244800 2.556292
-1.283961 2.999192
0.552777 2.630797
-2.073189 0.299719
-3.074564 2.788344
-3.314856 2.076764
-5.579139 4.237235
-3.316708 6.492598
-2.705211 5.154308
-3.065519 7.496251
-0.029185 5.551280
-3.093894 5.226563
-0.138841 7.418614
-0.969582 4.731859
-0.554607 7.412735
3.090830 4.515321
-0.403560 3.093130
1.908441 3.726204
-0.444715 0.368358
-2.004154 3.445566
0.075991 1.880529
-3.316731 2.840564
-0.808581 3.627192
-3.325241 0.889437
-4.831237 4.580593
-4.066607 4.268775
-5.272326 6.876970
-1.743498 9.091840
-0.126234 6.397701
0.895440 7.097708
1.993782 3.276647
-1.619568 2.797751
-1.526592 4.531008
-3.311282 4.546757
-1.685835 7.999179
1.700351 7.018469
2.527689 4.913988
3.732894 2.454598
0.708491 -0.149614
-1.804236 0.232149
-3.999953 1.751729
-4.549735 4.491407
-3.414848 6.342629
-1.524553 6.300411
-0.567929 5.063056
-1.614422 4.289319
-2.415898 3.495245
-4.264589 5.539219
-2.843424 7.269877
-1.449511 8.417875
1.812219 8.455242
2.034411 5.750860
2.537812 4.238370
0.567310 2.297284
-0.797956 3.592185
-0.936555 3.556654
-1.088121 4.759878
0.857799 4.268707
-0.247033 2.471752
-1.009220 3.135233
-2.963634 1.755609
-4.860796 5.479305
-2.334943 6.475792
-2.894641 6.651410
0.931145 7.937809
0.679901 3.511416
-1.141403 4.944058
-0.885481 3.482293
-4.881971 5.410209
-1.568723 9.502855
0.181467 7.171145
1.099571 9.398399
5.646322 4.666157
0.725804 1.877329
1.213371 3.215199
-1.537034 0.232795
-3.840513 6.074073
0.413088 5.633190
-2.140985 5.282216
2.326682 6.708697
-0.026455 0.933112
-3.441156 4.473471
-1.719068 2.836614
-6.723414 5.838921
-1.021471 9.059223
-0.884628 6.655767
0.367898 8.838741
3.178418 4.864450
-0.648713 4.426932
0.634081 6.025209
-0.300514 3.809176
-1.179559 7.482945
2.500051 5.930855
0.790248 3.872506
1.271122 5.036425
0.149599 2.227724
-2.788612 4.245788
-0.257045 6.262771
-0.973714 4.241399
-0.640880 6.908668
1.216393 3.432327
-3.317183 3.657478
-1.132240 5.860844
-3.500217 4.216179
-2.868235 9.125728
1.576137 7.338243
-1.932792 7.283926
2.799108 8.141028
0.898563 3.735677
-0.706338 8.250499
2.653047 5.143250
-1.345809 6.807735
3.823598 7.866054
1.743887 2.712303
1.211621 5.608759
1.732545 1.474015
-3.109720 2.462735
-1.307969 5.930042
-2.885928 4.401491
-2.279656 8.206073
0.365916 6.239818
-2.375583 6.180899
-0.019390 7.838841
-0.778714 5.846352
-0.844017 8.325821
2.475617 7.456309
0.682735 6.005646
1.400624 6.975040
0.689472 3.678893
-2.198375 6.938930
0.267084 7.254726
-0.937210 8.211658
3.616120 9.255888
4.863793 4.806064
3.464905 4.021794
2.430013 0.647928
-2.818303 1.498530
-2.619368 4.842552
-4.018653 6.261791
-1.823016 9.334467
1.096813 7.805840
0.433662 7.061934
0.932533 4.982427
-2.260168 5.474648
-2.427349 8.261782
-1.402311 10.495961
1.272741 11.507647
4.578525 10.138203
5.729524 6.456910
4.568699 4.396107
1.870706 1.662819
-1.391982 3.753809
-0.093396 6.110692
-0.489832 6.990898
2.967361 7.943261
3.454034 3.991792
0.206842 3.752240
-0.322017 2.482888
-5.781543 3.838655
-3.743413 9.898805
-2.225366 9.480218
-0.011955 13.080900
5.611325 8.494936
1.375570 6.435078
2.511235 6.868426
-1.077459 5.202684
-1.209831 11.298645
3.241073 10.454514
3.662936 10.386886
8.766024 8.939031
6.422733 2.286780
2.945942 2.498678
1.565333 1.775967
-3.433419 3.634892
-1.274681 7.902379
-0.024711 5.557669
-1.136913 7.841382
1.749287 5.625460
-3.648527 4.394182
-3.316258 10.343255
-2.812557 8.833629
-2.070511 15.551824
5.843116 13.128034
3.979380 9.721097
7.766407 9.748744
5.162152 3.367173
0.673281 6.924049
3.579364 6.996840
0.042185 8.043539
5.888425 10.769449
6.373561 4.255395
3.357644 4.389846
3.885700 0.781820
-3.445734 1.371860
-3.726619 6.581317
-3.781297 7.391491
-3.808030 11.807244
1.979906 11.654674
0.302446 8.800149
1.469819 11.020308
1.491399 8.739548
0.076761 11.265612
3.372913 12.371794
4.436569 10.952097
5.621190 11.837638
7.738368 8.950747
5.212952 6.351036
6.130583 7.250009
5.168599 3.345781
2.753223 4.978962
4.241413 2.887383
-0.731817 2.006836
-0.939818 5.324188
-3.120320 4.943724
-5.413815 10.973754
0.383462 12.546847
-1.755224 12.610354
4.339946 15.077865
4.086481 10.071882
2.591445 12.249674
4.436969 9.979046
2.122960 12.277293
5.588615 14.214299
7.777671 10.569936
7.298208 9.629920
9.133415 5.851475
4.624043 4.293008
5.082250 4.377060
1.421742 4.969138
3.077702 7.983559
3.092292 6.055034
2.712806 7.404931
1.036876 4.887413
-2.208115 7.534786
-3.052062 9.062019
-4.453482 12.863243
-0.998297 18.318009
3.244936 16.138319
5.651737 17.409290
9.890710 14.017632
4.124762 12.610906
10.506543 13.788000
7.814057 9.904078
10.246085 14.152729
14.466499 4.597662
7.862299 3.200221
8.257529 0.138942
-2.891010 -2.325537
-4.986734 8.597836
-2.958351 9.438368
-4.748712 17.794183
6.754388 16.247079
4.116792 10.250702
6.058996 11.822666
0.522813 5.793652
-4.076102 12.180444
0.673306 19.308257
3.003608 21.597498
11.614281 23.468593
21.191056 14.595883
14.884517 7.771035
13.711246 4.960167
5.641906 1.688793
1.123040 9.947802
4.573558 13.014754
5.787856 12.599340
11.660195 11.921691
11.560333 1.389929
0.511353 1.734251
-0.503950 5.142245
-7.853079 7.024782
-4.663133 21.029959
2.375865 18.456634
2.793702 21.182564
10.620160 20.179316
5.346579 12.136626
6.395939 23.169080
13.550599 18.075639
9.515977 20.998058
26.815060 20.159635
19.073819 3.977635
17.365253 6.768985
11.543264 -5.857761
-6.107490 4.825148
1.057167 10.727141
-3.318641 12.602079
6.641478 24.604961
12.621860 11.099708
6.815910 11.681477
8.994762 9.457443
-5.070456 8.416307
-2.567872 21.890673
3.536198 23.939793
10.734708 31.041003
22.109448 27.198150
21.446553 16.396026
17.940613 14.458123
13.938758 10.842912
4.915780 14.001181
12.307420 21.722687
13.248058 20.049214
19.921609 20.255547
23.665601 9.836379
17.718872 7.580845
13.533210 3.590862
3.805216 4.642365
3.120347 14.231794
-0.211154 17.686958
0.904348 24.508117
1.794262 25.726106
5.328501 31.073467
15.191238 34.668147
16.414817 35.583526
25.685418 32.620770
26.943456 23.911683
25.629964 21.533007
17.945144 11.021991
11.122330 15.410634
13.254548 21.362476
16.211319 24.421639
24.231040 22.483103
32.350727 21.527657
25.920285 5.027813
23.066218 7.288151
8.496337 8.607125
-2.888340 16.893563
1.196222 39.250739
1.788310 34.435020
15.094300 47.164738
32.525136 32.763320
3.070298 23.796575
24.933822 35.969021
16.177633 30.887278
15.620325 63.604413
43.735307 32.531849
37.005225 43.210170
74.039760 38.561061
46.124623 3.692403
50.003428 34.830247
47.376527 18.842797
22.223255 17.675918
43.709203 45.416965
17.042210 6.258774
22.778848 37.654639
17.458724 21.891140
-10.557208 43.443283
34.699207 91.709499
31.273398 63.600560
45.985534 102.741455
122.362587 84.003430
71.654379 58.452001
74.240703 50.008614
39.963075 39.755847
20.095219 132.498268
163.807335 119.835669
145.293633 118.494581
266.928603 202.485653
161.895416 -68.200227
159.026533 44.489557
-80.123161 -2.470443
-201.686142 156.833107
151.610782 172.192728
371.848186 27.188744
334.601302 757.505563
408.676137 -138.267112
-482.765256 40.536452
