5921.794141 6326.171250
-3262.181757 -2140.522705
-1245.358510 576.184212
-317.633013 582.875666
88.693237 528.185175
33.113873 -225.123241
-190.139291 -64.836981
243.928460 -26.980365
262.420209 -92.743482
-58.670688 286.866506
-72.400844 -112.173909
62.127688 54.553173
-108.372955 68.153233
-14.822120 122.744368
-21.431187 -68.872960
-15.391116 80.360061
-36.421577 -6.304891
-16.542075 10.529833
-32.671849 2.090494
14.617333 -18.771328
40.453120 36.296239
-19.927167 11.761945
-31.686859 22.665593
-29.428348 5.322313
-15.565255 9.918727
-28.694828 -5.169774
4.753451 11.963224
-2.066528 -27.827395
-13.694519 -8.680005
1.860303 12.622350
-16.171210 -4.603490
-6.373847 -3.457509
6.039734 -1.092908
9.294961 13.808564
-16.061635 -4.603778
1.566074 1.224587
-16.345515 2.766344
-1.033655 -9.944679
-5.170311 -10.879884
4.021673 -1.286704
3.554853 -6.550180
-5.389336 -0.447194
0.593204 7.016308
0.747192 8.821707
-6.474468 -3.550872
1.767567 4.363507
2.836158 -2.911770
-2.711782 -2.780344
-5.868774 -0.346346
-2.045723 -3.170828
-2.695815 0.163397
0.681232 -0.407175
2.421227 3.191523
0.281217 -2.293508
-1.207936 2.141753
-1.633715 -0.274877
-0.343433 3.550454
-4.977459 -2.858147
0.360868 2.809001
-0.412851 -2.051986
-1.132443 -0.680999
-3.984886 1.489071
-0.459427 -2.353515
1.725556 0.893086
-2.042086 3.829765
0.150768 -0.828015
-4.268867 -0.733603
-1.325035 0.521501
-3.530860 -0.999099
-0.999458 -2.826626
-2.907710 -0.877432
1.666214 -3.485455
-3.164795 -0.196888
-1.438901 -3.302642
-1.371048 -2.502855
1.660301 0.568059
1.385574 -0.782491
0.485372 -0.778803
2.322824 -1.584095
-1.456242 0.444103
0.013270 -0.726497
-0.585834 -0.535244
0.825574 -2.048146
0.613529 0.582620
1.324734 0.800828
-2.320789 -0.807287
1.727704 0.265088
-1.718264 1.255651
-2.733889 0.468304
0.324808 -0.686119
-1.908949 0.594658
-2.126724 -0.847483
0.648074 0.524632
-1.017569 -1.735351
-2.652737 -0.567681
1.171409 -1.934192
-0.531629 -1.343525
-0.733005 -1.691587
0.077942 -1.026780
-0.297630 -0.635340
0.328026 -1.200536
-0.243429 -0.770255
1.205900 0.815907
0.509839 -1.038905
-0.702350 0.109784
0.227562 0.212924
0.361785 -0.189255
-0.635825 -0.327434
-0.035602 0.918620
0.949637 -1.273236
-0.316662 0.298748
-1.187633 0.082659
0.019949 0.003077
-0.599434 -0.579333
-0.788039 0.234361
-0.338844 0.819560
-0.065110 -0.156861
-0.943456 -0.686865
0.282263 -0.257891
-0.363050 -0.714320
-0.342191 -1.745611
0.776256 1.466704
0.659157 0.455491
-0.254694 -0.973575
1.174351 0.607545
0.548902 -0.611368
0.350057 -0.533143
0.124142 0.131130
0.721039 0.415403
-0.320577 -1.045534
0.822300 0.069225
-1.267470 1.483836
0.274576 -1.104771
-0.029759 0.642343
-0.382033 1.302038
0.279592 -0.495208
-0.299734 -0.298727
-1.188417 0.490938
0.235956 -0.868795
-0.185150 -0.426747
-0.006276 -0.229602
0.563679 -0.294418
0.177493 -0.519585
-0.218302 -0.143569
0.906361 -0.716031
0.241159 -0.293290
0.554222 0.085917
0.546831 0.305428
0.277065 -0.534087
0.332161 0.409977
1.192614 -0.272629
0.270280 -0.237405
-0.354683 -0.113838
0.648400 0.577512
0.373715 -0.178641
-0.001490 -0.205723
0.275368 0.249222
-0.304879 0.217204
0.033491 -0.021295
-0.386973 -0.116552
-0.534932 -0.006849
-0.709644 -0.446434
-0.151138 -0.124022
0.488033 -0.170092
-0.194341 -0.854857
0.421858 0.243971
0.229251 0.134619
0.223460 -0.182484
-0.583315 -0.716501
0.238052 -0.251390
0.142212 -0.537554
-0.212111 -0.224173
-0.124661 -0.944402
0.610402 -0.817860
0.210087 -0.892393
-0.439764 0.580366
0.581113 0.000841
-0.119771 -0.707256
0.011482 0.654433
0.140086 0.320617
0.072098 -0.037857
-0.892803 -0.119775
0.226078 -0.575049
0.082415 -0.398676
-0.266293 -0.471744
-0.286474 0.106161
0.027495 0.357165
-0.191932 0.005826
-0.800905 0.049448
0.296021 -0.184515
-0.208093 0.017765
-0.220931 0.523681
-0.344757 0.411076
0.092907 0.014649
-0.827044 0.110823
-0.441881 1.132514
-0.145795 0.309329
-0.019178 -0.276444
-0.002884 0.648155
0.008763 0.199568
-0.160249 -0.006389
-0.613615 0.622397
0.421165 -0.415378
0.300691 0.148038
-0.345631 0.270684
0.132630 0.241562
-0.023511 -0.316493
-0.898636 0.303702
-0.354702 -0.203808
-0.260232 -0.133697
-0.135585 -0.110279
-0.176501 -0.069384
0.120515 0.412515
0.085097 -0.012766
0.623119 0.882158
0.436037 -0.088877
-0.278697 0.172334
-0.091761 0.177326
1.066758 0.006503
0.551047 -0.042104
0.175482 0.038510
0.715022 0.020982
0.453132 0.259627
0.108022 0.458141
-0.015841 0.317881
-0.126724 0.297325
0.355798 0.541208
0.278469 -0.105255
-0.055314 0.209396
0.118375 -0.310651
-0.316915 0.329885
-0.310163 -0.241463
0.717238 -0.028914
-0.282805 -0.135909
-0.394945 0.073333
0.622396 0.054968
0.223468 -0.094690
0.024270 0.209190
-0.117607 0.064658
0.613396 -0.310714
-0.289596 -0.629438
-0.260392 0.093688
-0.035524 0.191597
-0.023205 0.019542
0.600876 0.018610
0.251969 -0.024072
-0.010549 -0.596005
0.147985 -0.227794
0.252877 0.162965
0.107519 0.072451
0.643413 -0.532470
-0.171888 0.146586
-0.292867 -0.389510
0.308104 -0.176974
0.465833 -0.032639
0.298817 -0.505202
0.098992 -0.061206
-0.604797 0.326162
0.294532 0.270930
-0.175285 -0.144640
0.221412 0.338842
-0.544918 -0.072859
0.032745 0.041089
0.098134 0.167807
0.034898 -0.454779
-0.136391 -0.213754
-0.513657 0.093236
0.227518 0.002823
0.374128 0.104256
-0.088015 0.379349
-0.358930 0.515009
-0.392482 0.126791
-0.534410 0.139111
-0.270391 -0.428852
0.387622 -0.007700
-0.064982 -0.064528
0.005575 -0.046496
-0.034358 0.128704
0.326347 -0.288222
-0.304707 0.325597
-0.308783 0.162961
-0.310565 0.048260
0.376008 0.097128
0.344574 0.166969
0.071409 -0.098509
0.070896 -0.174495
-0.001495 0.124726
0.011553 0.065732
0.110336 -0.228843
-0.109047 -0.303422
-0.259009 0.072120
-0.165770 0.338002
0.138146 0.428936
-0.313566 0.087755
0.254100 -0.404919
-0.010221 -0.345582
0.052451 -0.268444
-0.131914 -0.242349
-0.032967 0.188873
-0.186857 0.071101
0.110467 0.296176
-0.163075 -0.020341
-0.043855 0.094190
0.119209 0.187830
-0.213303 -0.209422
0.105659 0.281566
0.190457 0.172971
0.058424 -0.156732
0.027636 0.097351
-0.164468 -0.110245
-0.371999 0.120711
-0.309537 -0.023154
-0.109651 -0.088811
-0.171747 -0.155949
-0.568908 -0.281661
-0.456151 -0.057721
-0.122429 -0.411058
0.217597 -0.128449
0.280999 -0.459768
0.040046 -0.316921
-0.569160 -0.302621
-0.123003 0.180749
0.248178 -0.128025
-0.399657 -0.298670
-0.523965 0.156089
0.086902 0.086486
0.295636 -0.271794
-0.790318 -0.034892
0.026640 -0.452159
0.520797 -0.170672
0.160135 0.008572
-0.227873 0.238800
0.036476 -0.493439
-0.293141 0.318112
0.024320 -0.053273
-0.214214 -0.207080
-0.377779 -0.563036
0.206159 -0.521139
-0.141957 -0.063378
0.099466 0.302440
-0.103421 0.154803
0.010372 0.399760
0.236856 -0.388604
-0.371042 -0.043383
0.132745 0.184161
-0.019508 0.373412
0.154912 0.184067
-0.469212 0.200055
-0.010027 -0.100952
0.143906 -0.171553
0.067123 0.115504
0.115596 0.375186
0.652747 0.219069
0.092624 -0.251445
-0.211643 0.046574
-0.201117 0.009495
0.164295 0.385593
-0.028451 -0.107412
-0.210617 -0.560216
-0.359766 -0.082819
0.058805 0.393448
-0.065548 -0.170561
-0.444190 -0.099142
-0.058776 -0.107702
-0.192263 -0.035926
0.327924 0.175379
0.259463 0.148509
-0.015320 -0.141482
-0.278292 0.031680
-0.345510 0.193492
0.072956 0.072728
0.007532 -0.234151
-0.101087 0.398496
-0.185498 -0.001253
0.051235 0.174177
-0.502600 -0.035052
-0.152536 0.199688
-0.074234 -0.028193
-0.241607 0.335374
-0.181177 -0.364683
-0.199195 -0.008306
-0.057277 0.138910
0.197652 0.075987
0.369761 0.079405
0.045527 -0.333384
-0.198845 -0.002224
0.253520 0.238939
-0.230788 0.289353
-0.025573 0.053045
-0.247826 0.141972
0.208296 0.033033
0.175861 0.313558
0.010672 0.216125
0.199688 -0.188871
0.092000 -0.208111
-0.010749 -0.458850
-0.171810 0.038488
-0.011596 -0.202273
-0.394054 0.071140
-0.219221 -0.565847
0.041015 0.133865
-0.204933 -0.214616
0.024176 0.008750
0.059230 0.094937
0.127287 0.085724
0.309833 0.192831
0.082217 -0.221301
0.088216 -0.133763
-0.134126 -0.413351
-0.212248 0.336289
0.242278 -0.233237
0.439820 0.015688
0.082089 0.294365
-0.226263 0.233413
-0.142721 0.459868
0.214033 -0.051924
-0.152865 0.283907
-0.013471 0.064523
0.096596 0.358431
0.061454 0.037922
-0.107322 -0.106354
0.089974 -0.003165
-0.193358 0.041210
0.072095 0.196871
0.037124 -0.054660
0.056433 -0.095700
-0.317524 -0.613597
-0.129359 -0.105537
-0.253988 0.030043
-0.316140 -0.477317
0.120750 0.038340
0.156151 -0.281257
0.055282 -0.130846
-0.091929 0.021441
-0.161551 0.035960
-0.022461 -0.089736
0.007819 -0.295490
0.212321 0.403840
-0.105243 -0.221519
-0.219783 0.060202
0.215637 -0.340122
-0.172457 0.023886
-0.117511 -0.245072
0.158979 0.060312
0.358676 -0.180167
-0.252754 0.255704
-0.459615 -0.108314
0.035780 -0.180960
0.013882 -0.023211
0.061644 -0.013008
-0.165301 0.316519
0.007051 0.184365
0.176571 -0.343654
-0.277005 -0.103314
-0.083217 0.216521
-0.099636 -0.319714
0.040292 0.060258
0.119069 0.031829
0.199538 0.061526
-0.030073 0.127335
-0.264327 0.168256
-0.217870 0.227208
-0.044670 -0.031160
0.144888 -0.197321
0.001973 0.031833
0.053578 0.151945
-0.308745 -0.148316
0.110879 0.276504
-0.379807 -0.217135
0.124843 -0.066117
0.020263 0.125564
0.187653 0.026500
0.017055 -0.020453
-0.065155 0.028016
0.109342 0.177255
0.085111 -0.195376
0.149062 -0.281048
-0.135274 -0.193315
-0.007872 0.247645
0.008135 -0.204172
-0.153559 0.149829
-0.067549 -0.181096
-0.275366 -0.269827
0.152543 0.167000
0.329838 0.028234
-0.329851 -0.023746
0.046898 -0.241645
0.116429 0.183161
0.038935 0.283032
-0.216309 -0.264480
0.142460 -0.254116
-0.097894 -0.072297
0.100815 0.161828
-0.109523 -0.037726
0.084207 -0.064273
-0.204879 -0.053060
0.398338 -0.109356
-0.256903 0.263942
-0.009454 0.045911
0.076353 0.119234
0.099710 0.195321
0.157474 -0.147101
-0.093063 -0.152321
0.022625 -0.050842
0.094944 0.107649
-0.156425 -0.130538
0.207355 0.181774
0.111621 -0.239411
-0.108627 0.000217
-0.266875 -0.002092
-0.079221 -0.136408
-0.328205 0.295975
-0.068582 -0.324645
-0.364199 0.218735
0.345739 0.282587
0.058977 -0.197842
-0.231500 -0.080034
-0.047834 0.254709
0.260236 -0.023102
0.034257 -0.248057
-0.232168 0.024990
0.002801 -0.304867
-0.204314 -0.133621
-0.038734 0.148086
-0.152299 0.192464
-0.275640 0.289274
0.075178 0.060333
-0.011912 0.177953
0.083847 0.054747
0.296735 0.062166
0.061093 -0.026372
-0.059044 0.135990
-0.081021 0.137344
0.010455 -0.298274
-0.217214 0.099146
0.317401 -0.379938
0.022618 0.082759
-0.107000 0.103205
0.102150 -0.030026
0.054582 0.269824
0.331331 -0.062140
-0.101149 -0.285296
-0.047725 -0.379346
0.070971 -0.182670
-0.016944 0.022355
0.119118 0.216975
-0.051058 -0.154280
0.117733 0.271079
0.101716 0.042062
-0.257305 -0.120741
-0.211676 0.331711
-0.127046 0.246589
0.062491 0.082138
0.141839 0.110319
-0.300041 0.217853
-0.212337 0.255822
-0.045259 0.026270
0.162538 -0.162551
-0.083972 -0.018620
-0.120404 0.389482
0.148017 0.032252
-0.127072 0.135505
-0.081485 0.015925
-0.323473 0.122191
-0.145852 0.154187
0.175104 0.038952
0.280360 -0.201180
-0.067736 0.055716
-0.110698 0.075416
-0.066020 -0.076119
-0.183001 0.030455
-0.105429 -0.143020
0.163848 0.044043
0.039613 -0.079502
0.120523 0.146493
0.235989 0.008767
0.003027 -0.096053
0.052581 -0.289517
-0.080579 0.240714
-0.179508 -0.267300
0.133936 -0.041191
-0.142875 -0.025193
-0.413983 0.012146
-0.059765 -0.039839
-0.304385 0.152776
-0.117932 -0.186227
-0.245549 0.117172
0.077847 -0.148972
-0.093324 0.300459
0.134411 -0.247708
-0.359110 0.035345
0.124945 0.041145
0.276234 0.294946
0.054967 -0.160165
0.196392 0.123822
0.181286 0.194936
-0.206111 -0.044758
-0.034941 -0.199312
0.263527 0.070162
0.158317 -0.012444
-0.207175 -0.001924
0.212052 0.078438
0.142661 0.154228
0.183391 0.174455
0.364594 -0.065404
-0.172553 -0.230654
0.116108 0.073051
0.164976 0.126233
0.097937 -0.023829
-0.114511 -0.268259
-0.078816 0.188774
-0.151857 0.103909
0.059688 0.300462
-0.042195 0.107370
0.327324 0.350883
-0.018148 0.122324
-0.198217 -0.154552
0.209630 0.172593
-0.097056 -0.056537
0.047904 -0.035395
0.043581 0.026612
-0.039153 -0.120201
0.349176 -0.037146
0.114943 0.169664
0.310142 0.209210
0.022576 0.030926
0.209707 0.113156
0.176968 -0.119831
0.299362 0.402822
0.214927 -0.086125
-0.138354 -0.136199
0.163147 0.101308
-0.188227 0.359986
-0.145441 -0.026538
-0.255387 -0.146439
0.052811 0.248361
0.014915 0.199013
-0.039195 0.164719
-0.083912 0.252435
-0.135029 0.280838
-0.118703 0.252392
0.164785 0.207538
-0.193881 0.202573
-0.172575 0.054217
-0.221479 0.207084
-0.134760 0.248625
-0.158525 -0.159954
0.047148 0.070803
0.071859 0.049479
0.036817 0.079469
0.079333 -0.256075
-0.197737 -0.165958
-0.290883 0.197839
-0.070418 -0.025222
-0.206757 0.144800
-0.295357 -0.106462
0.329022 -0.112576
-0.210189 -0.013851
0.036579 -0.025923
0.246016 0.008461
0.045387 -0.174545
0.023355 -0.337360
-0.033863 -0.088481
-0.247832 -0.016652
-0.223184 -0.043000
-0.277045 -0.154181
0.085848 -0.002988
-0.202972 -0.106527
0.139031 -0.067952
0.195194 -0.207345
-0.137143 -0.171037
-0.013558 -0.326685
-0.084886 -0.124875
-0.002916 -0.131724
-0.085109 0.027409
0.070614 -0.103185
-0.155588 0.061452
-0.049034 0.167428
-0.340802 0.027843
0.220955 -0.022666
0.357084 -0.074422
-0.045367 -0.104836
-0.184307 0.097369
0.019433 0.288122
0.012772 0.045372
-0.201657 -0.202734
-0.146089 0.133423
0.246483 0.223609
0.067519 -0.042575
-0.024470 0.057522
0.010645 -0.110551
-0.007982 0.085418
-0.169533 -0.195111
0.123103 0.025291
-0.004386 0.003636
0.306996 0.005435
0.062742 0.149370
-0.002016 0.192276
0.092789 -0.128388
0.151681 -0.157145
0.157181 -0.405724
-0.147186 -0.004843
-0.031896 -0.196949
0.128345 -0.150927
0.250666 -0.056599
-0.085045 -0.210717
0.008238 0.091906
0.286180 0.087633
0.317058 -0.256082
0.065501 -0.281367
-0.008738 -0.345230
-0.022005 -0.051115
-0.100289 -0.091860
0.187267 -0.223381
-0.129586 -0.094920
-0.163521 -0.020027
-0.007953 -0.302343
-0.210186 0.212392
-0.069721 0.038182
-0.029991 0.194216
0.072825 0.064608
-0.307508 0.126787
0.058637 -0.144924
0.038110 0.115104
-0.052389 -0.164939
0.213305 0.131651
0.127270 -0.183775
-0.215882 0.116133
0.083922 -0.009718
0.106599 0.054715
-0.209486 -0.077253
-0.207058 0.121254
0.151904 0.077971
0.004405 -0.129631
-0.003766 -0.125685
0.120870 0.015508
-0.199866 -0.108336
-0.166451 0.044103
0.364189 -0.003659
0.244953 0.105328
-0.029910 -0.024187
-0.043541 0.103268
-0.001471 -0.117068
0.083537 0.408900
0.306298 -0.077470
-0.214302 0.192537
0.060222 -0.110257
0.065097 0.044623
-0.080245 0.057698
-0.142463 0.043249
-0.091536 -0.154531
0.121774 -0.040445
0.117236 0.066910
0.126594 0.209782
-0.057388 0.229325
0.122994 -0.374838
0.224160 -0.217562
0.120117 0.022222
0.037999 0.096898
0.115787 -0.076951
-0.036463 -0.132126
-0.020299 0.119837
0.145725 -0.375386
0.086266 0.189779
-0.087813 0.077183
0.081599 0.026291
0.035178 -0.108195
-0.034269 -0.059365
-0.019187 0.189230
-0.050842 0.118644
-0.241344 0.139454
0.130635 -0.243819
-0.093307 0.137893
0.168864 0.089525
-0.098715 0.055191
-0.085937 0.024643
-0.327333 -0.444756
0.059433 0.207227
0.078064 -0.075510
-0.071243 0.351395
-0.004887 -0.353154
0.043572 -0.143554
-0.022848 -0.204627
0.039218 0.067412
0.069658 0.288475
-0.022927 -0.047964
0.030833 0.042711
-0.062667 -0.174244
0.000135 -0.078625
0.267043 0.090722
-0.142929 0.057124
-0.188272 0.037102
0.091759 0.114271
0.230171 0.365777
-0.136373 0.076929
-0.169218 -0.008606
-0.117176 0.235325
-0.021219 -0.102252
0.276635 0.068800
0.196831 0.098391
-0.220616 0.038995
-0.207600 -0.173401
-0.062971 -0.032418
0.310034 0.111616
-0.029305 0.010536
0.176718 0.029936
-0.370432 -0.125453
-0.208158 0.002371
-0.130756 0.001200
0.093710 -0.281299
-0.379437 -0.133057
0.115184 0.112945
0.039300 -0.318798
0.098899 0.040103
0.136610 0.006801
-0.142110 -0.252726
0.046156 -0.234029
0.064335 -0.050345
-0.165013 0.066039
-0.092848 0.033190
0.032031 -0.185382
0.058437 -0.110019
-0.087480 -0.118252
0.163360 0.065403
-0.366927 0.094671
0.223478 -0.118421
0.145511 -0.017770
0.112138 -0.086084
-0.363093 -0.148398
-0.049082 0.079583
0.223274 0.006357
-0.098654 0.221383
-0.016159 -0.108710
0.043513 0.055856
-0.143737 -0.036339
0.071578 -0.089305
-0.205367 -0.124053
-0.157760 -0.094535
-0.131898 0.007528
-0.283118 0.118796
-0.345111 -0.075300
-0.416459 -0.052261
-0.145221 0.282585
0.072313 0.288780
0.102640 0.109775
0.140911 -0.095663
-0.014686 0.062946
0.126333 0.196016
-0.132517 -0.025835
-0.014953 -0.182797
-0.086986 0.214167
0.057920 0.092616
0.021641 0.082336
0.035764 0.100260
0.049029 -0.224743
0.092950 0.091523
0.064573 0.029858
-0.041809 -0.048894
0.249751 -0.113752
-0.070969 0.012713
0.226432 -0.063426
-0.175720 -0.057343
0.225168 0.177049
-0.004459 -0.018537
0.014038 -0.303806
0.047925 -0.175251
-0.079152 -0.008576
0.096467 0.059531
0.144036 0.062582
-0.245413 -0.363242
-0.169626 0.288942
-0.001085 0.259038
0.088205 -0.247830
-0.068976 -0.337919
-0.147268 -0.243631
-0.011959 0.188662
-0.009933 -0.107969
-0.245564 -0.047959
0.276286 -0.292827
0.017601 -0.172153
-0.124092 0.026343
-0.304927 0.144521
0.284435 0.266473
-0.069442 0.052827
0.043642 0.080002
-0.122316 -0.291799
0.270935 0.093747
0.048199 0.103341
-0.091264 0.354039
0.187709 -0.062962
-0.009598 0.156790
-0.055054 0.037768
-0.057380 -0.045378
-0.001123 -0.059443
0.057174 0.320886
0.267730 0.410262
0.002108 -0.057345
0.034852 -0.117122
0.079560 -0.029024
0.477477 0.148180
-0.148480 0.094989
0.106881 0.024221
0.276156 0.068330
-0.252312 0.063507
-0.195106 0.082555
0.022947 0.242008
0.032183 -0.179478
0.140559 0.234431
0.154863 0.284082
0.047127 0.179632
0.113156 -0.081435
-0.214431 -0.044793
-0.192856 -0.140535
-0.250749 -0.258937
0.239237 -0.037946
-0.066152 -0.068091
-0.272685 0.068962
-0.242863 -0.010093
0.009118 -0.220149
0.071798 -0.045726
-0.123732 -0.339004
-0.154277 -0.001630
0.151384 0.016288
-0.203400 -0.017704
-0.130921 -0.017866
-0.151407 0.341228
0.120245 0.159613
0.352050 -0.241000
0.264070 0.188397
0.164811 -0.079070
0.074835 0.081788
0.389722 0.106826
-0.178477 -0.085451
0.149194 -0.129269
-0.062227 0.118527
0.044787 0.270206
0.007737 0.236345
-0.013713 0.308997
0.112955 0.032196
-0.101630 0.194792
-0.321130 -0.039825
0.019057 -0.519425
-0.073711 -0.318728
0.013561 0.124488
-0.232025 0.293699
0.046903 -0.097348
-0.060902 0.097258
-0.088031 0.194579
-0.196896 -0.149477
0.161982 0.156470
-0.154812 0.297665
0.508399 0.107578
-0.102798 -0.007697
-0.308223 -0.081477
0.013649 0.015798
0.004534 -0.001840
-0.013260 -0.121415
0.210759 -0.209787
0.033577 0.332939
-0.080552 0.089335
0.133755 -0.109685
-0.003210 -0.266654
-0.344602 -0.030127
0.318002 -0.098515
0.304735 0.147097
-0.030384 -0.083092
0.176114 -0.106648
-0.043219 -0.306352
-0.271839 0.282101
-0.167684 -0.126850
0.007462 0.259795
-0.006972 -0.141532
0.012845 0.056453
-0.469452 0.169280
-0.260207 0.210858
0.022208 0.017644
-0.306332 0.279657
0.027034 -0.337755
0.125341 0.053129
0.198855 0.007040
0.217994 0.032289
0.110223 -0.090710
-0.129935 0.235275
0.268727 -0.041171
-0.127763 0.213910
0.085827 -0.119142
0.067359 0.049073
0.012641 -0.258546
-0.261514 -0.161480
0.066938 0.199703
0.102770 0.171192
0.189107 -0.052878
-0.123671 -0.032044
0.211115 -0.200115
-0.210787 -0.050327
-0.067491 0.229391
-0.250126 -0.183722
-0.052760 -0.189176
0.025966 0.138402
-0.149831 -0.178170
-0.361658 -0.293454
-0.172564 -0.107712
0.229674 0.030863
0.192545 -0.112106
-0.216849 -0.163325
-0.182138 -0.371661
-0.200010 -0.014141
0.063930 -0.103385
-0.371014 -0.252038
-0.050296 0.264239
0.066936 0.057520
0.130749 0.070560
0.273766 0.218689
0.008349 -0.147486
-0.239578 0.314239
0.235292 0.169950
-0.019586 0.073965
-0.158978 0.068361
0.066107 0.055835
-0.121357 -0.183591
-0.043423 0.266535
-0.252961 -0.225161
0.226149 0.439525
0.136055 -0.290603
-0.132605 -0.230193
0.062908 -0.028684
0.019952 -0.049202
0.190933 0.078536
0.079604 0.168934
0.256319 -0.435603
-0.502631 -0.405582
-0.213218 0.154466
-0.030827 0.067013
-0.022042 -0.049756
0.248677 0.136026
-0.286676 -0.375073
-0.227321 0.308439
0.026062 0.404100
0.289824 0.017169
-0.009938 -0.076708
-0.007561 0.146388
0.022598 -0.478757
-0.127780 -0.258995
-0.051370 0.251668
-0.237796 -0.251578
0.106135 -0.239593
-0.308739 0.070013
-0.090401 0.037119
0.465228 0.315711
0.145350 -0.337794
-0.372994 0.211881
0.473387 0.023878
0.144480 0.216387
0.168843 -0.129771
0.178811 -0.160667
-0.088793 -0.436719
-0.362731 0.091245
-0.010264 0.175332
0.226534 -0.170950
0.566410 -0.251136
-0.016792 -0.186411
-0.092579 0.073731
-0.127684 -0.240403
0.139198 -0.112472
0.122862 -0.019164
0.069111 -0.192369
-0.064938 0.255859
0.206572 -0.168394
0.352042 -0.173691
0.194243 0.184694
-0.269701 0.134953
0.406539 -0.308327
0.368509 0.010742
-0.224584 0.218862
-0.048203 0.213147
-0.258094 -0.196007
-0.250639 0.601120
-0.190277 -0.071534
0.009929 0.108433
0.050440 0.195960
0.066913 -0.129146
-0.077442 -0.239856
-0.461111 -0.085906
0.078070 0.029541
0.237926 -0.256653
-0.142403 -0.307178
0.054653 -0.216779
-0.407713 0.064620
0.110782 -0.113669
-0.120760 0.017707
0.324703 -0.234430
-0.158632 -0.420507
0.228184 0.031429
-0.095483 0.144852
-0.126741 -0.094271
-0.049972 -0.232793
0.272552 -0.033121
0.061166 -0.128931
-0.162081 0.172009
-0.062473 0.266152
0.039122 0.255645
-0.064541 -0.244585
-0.244143 -0.141809
-0.005138 0.095260
-0.196394 -0.347947
-0.060815 0.070463
-0.014285 -0.061079
0.152523 -0.068077
0.168879 0.177220
-0.216238 -0.091959
-0.067650 -0.244522
0.198580 0.188008
0.239537 -0.025405
0.070184 0.187795
-0.211382 0.145753
0.297661 0.180350
0.120826 -0.061020
-0.179526 0.365915
0.464250 0.149919
0.033753 0.447044
-0.196869 -0.073640
-0.256713 0.092805
-0.093871 -0.210157
-0.129048 0.166165
-0.106769 -0.059153
0.329814 0.028732
-0.724609 0.474503
-0.128928 -0.008172
0.127701 0.030446
0.116510 -0.015091
0.149888 -0.319233
-0.232118 0.165583
0.066921 -0.177376
-0.076537 -0.189244
0.510266 0.169258
0.055710 -0.206113
0.191634 -0.444045
0.165627 -0.196655
0.440975 0.079307
0.021515 -0.227702
0.092491 0.255342
0.001747 -0.521321
-0.074927 -0.256260
0.000176 -0.174579
-0.018942 -0.052028
0.316760 0.186252
-0.472370 -0.093882
0.029048 0.507299
0.244919 0.049234
-0.056532 -0.370110
-0.043513 -0.388530
0.113680 0.157073
-0.151407 -0.039147
-0.060786 -0.083397
0.181633 -0.038687
-0.175019 -0.286306
-0.733399 0.355322
-0.433194 0.076757
-0.046274 0.152582
0.087414 -0.195276
0.100126 0.520417
-0.227715 -0.168850
0.041428 -0.124874
-0.201123 -0.026028
-0.103722 -0.179931
0.304262 -0.388655
-0.387244 -0.192695
0.146184 -0.173684
-0.278535 -0.231351
0.187827 -0.395949
-0.155370 -0.153244
0.174837 -0.390369
0.184838 0.083457
-0.096814 0.030972
0.307092 -0.166076
0.142662 0.408718
0.001494 0.263681
-0.059089 -0.545879
-0.274587 0.069607
-0.021114 -0.089750
-0.171386 0.425352
0.026586 0.180595
-0.556602 -0.143985
0.001769 -0.295119
-0.342271 0.631788
0.066358 0.069135
-0.003032 0.125370
0.090528 -0.321729
-0.329305 0.256678
0.033902 -0.105772
-0.030718 0.160667
-0.458378 -0.040824
0.590706 0.475154
-0.654472 0.075688
-0.275233 -0.156658
0.156392 -0.153282
-0.328060 0.086736
-0.129688 0.369757
0.075889 0.111216
0.253504 -0.296748
-0.010288 0.204324
-0.023503 0.366927
-0.065520 0.522634
0.595950 -0.883044
-0.108288 -0.049615
-0.141575 0.188705
0.485126 -0.053209
0.151147 -0.157567
-0.519929 0.029150
0.366848 -0.421160
-0.091063 0.026272
0.377967 -0.150999
0.077158 -0.157302
-0.104739 0.390190
-0.657470 -0.091188
0.077888 0.043892
0.478216 -0.110658
-0.063222 -0.040144
0.336712 0.242174
-0.263852 0.401768
-0.521101 0.383644
0.047056 0.531592
-0.062155 0.201080
-0.678083 0.438248
-0.106520 0.178266
-0.252230 0.376656
-0.271665 -0.237279
-0.354842 0.356812
-0.698230 -0.002007
0.039693 -0.312262
-0.228651 -0.128372
-0.918097 -0.448394
-0.732788 0.511438
-0.030779 0.306427
-0.067781 0.066666
-0.521053 -0.536875
-0.299817 -0.435245
-0.405474 0.506670
-0.383353 0.148719
0.067500 -0.051780
-0.249400 0.039971
0.094644 -0.385202
-0.073689 -0.207051
-0.595813 0.356950
0.014040 0.367083
-0.431365 0.310057
-0.507591 0.224647
-0.232088 -0.447470
0.119757 -0.361550
-0.148047 0.022807
0.236091 -0.063559
-0.048146 0.229096
0.559135 -0.500293
-0.198495 -0.179475
-0.217511 0.204673
-0.263686 -0.069594
-0.233925 0.596647
0.345567 0.370656
-0.260430 0.274157
-0.277045 -0.245819
0.012585 0.220626
0.228292 -0.300481
-0.417065 0.351058
0.123696 0.000102
0.139914 0.143650
0.096513 0.486331
0.258833 0.492868
-0.214337 0.028017
-0.499624 -0.381491
-0.221021 0.345413
-0.039456 0.304512
0.345495 -0.127531
0.200037 -0.627022
0.554979 -0.204108
0.131034 0.314879
-0.107249 0.221602
0.673862 -0.258217
0.389208 0.048748
-0.343833 -0.153718
-0.050725 0.482121
0.220106 0.087288
0.360404 -0.045776
0.277754 0.454139
-0.249625 -0.043127
-0.000027 0.163975
0.430727 -0.429374
0.468568 -0.273965
0.254326 0.387024
-0.206770 0.615784
-0.176803 0.655360
-0.255964 0.420347
0.149754 -0.007896
-0.093419 0.277043
-0.131563 -0.297758
-0.457410 0.428153
0.237206 0.187335
0.135286 -0.058733
0.007176 0.059162
-0.410864 0.028860
0.248542 0.059157
-0.108538 0.388871
-0.366802 0.465089
-0.311020 0.064980
-0.291852 0.342607
0.113790 -0.123090
0.569964 0.328903
0.279974 -0.346953
0.182426 0.337345
-0.298104 0.475004
0.330437 0.118561
-0.767467 -0.295517
-0.100824 -0.118239
-0.093963 0.564298
-0.082994 -0.011336
-0.319762 0.049422
0.157196 -0.353268
0.343458 -0.331358
-0.497228 -0.316637
0.306748 -0.051409
0.086068 0.452822
0.620281 0.066432
-0.623064 0.375070
-0.498896 0.210168
0.582191 -0.286153
0.179779 0.246242
0.044063 0.224793
0.103631 -0.262300
-0.261984 0.011640
-0.236073 0.872423
-0.021713 -0.517940
-0.255648 0.680078
0.536922 0.301935
-0.207580 -0.405046
0.148331 -0.669979
-0.182473 0.892103
-0.498453 -0.438442
0.683851 0.362035
0.818265 -0.185756
-0.282640 -0.371865
-0.373290 -0.022420
-0.445478 0.171757
0.868531 -0.498299
0.287393 -0.434352
-0.064800 -0.826621
-0.426392 -0.072401
0.316495 -0.109954
-0.529466 -0.014955
0.090175 0.105447
0.198303 -0.308133
-0.353553 0.313219
0.581377 -0.317530
0.107534 0.048131
0.343921 0.704330
0.198885 -0.075297
0.610115 0.097526
0.157960 0.025248
0.428310 -0.304657
-0.561475 -0.364890
-0.281698 0.609885
-0.193627 -0.520547
-0.669774 0.084041
0.338200 -0.256800
-0.119951 -0.204086
-0.132396 -0.548717
-0.794998 -0.046254
-0.526459 -0.819321
-0.112527 0.118572
-0.210891 -0.783815
0.345304 -0.212449
0.062243 0.353485
-0.684420 -0.062027
0.368004 0.163646
0.644930 0.132308
-0.910735 0.076858
0.184184 -0.582529
0.006495 -0.014632
0.356703 0.271643
-0.402328 -0.117223
-0.072440 0.107202
-0.372623 -0.346669
0.742958 -0.411584
-0.018560 0.113843
0.231908 0.959976
-0.356006 0.361841
-0.926438 0.255857
-0.343031 -0.290994
-0.133798 0.423345
-0.124170 -0.909655
0.768261 -0.103335
0.646606 -0.658459
-0.195806 0.061900
-0.116195 -0.935235
0.621112 0.316167
0.229129 0.637605
-0.025230 -0.609549
-0.542595 -0.085527
0.660899 0.347568
-0.157018 -0.160995
-0.215600 -0.105201
0.237491 0.950873
0.987807 -0.378792
-0.800593 1.525167
0.622555 -0.101884
-0.886198 0.198645
-0.066769 0.333841
0.238153 -0.348483
0.599518 0.503562
-1.566643 0.336241
-0.043837 -0.341303
0.499087 -0.261967
0.426791 -0.320118
-0.474578 -0.980638
0.400177 0.515591
0.535413 -0.183491
-1.055874 0.153923
0.378606 -0.202950
0.833406 -0.695358
-0.035060 -0.524290
0.760140 -0.474767
1.206649 0.470003
0.632112 0.420268
-0.328197 -0.187983
0.518994 -0.732069
0.423007 0.837074
-0.211584 -0.820590
0.405787 1.162497
2.375939 0.682365
-0.572898 1.239932
-0.373840 0.073745
0.966907 -0.142080
0.122552 -0.110228
0.561085 1.041099
1.101570 0.950614
-0.274405 -0.007878
-0.042653 0.125643
0.127397 -0.028069
-0.396581 -1.097184
-0.789371 0.039188
-0.400045 -0.490911
0.408406 0.011518
-0.067482 -0.840243
-0.644444 -0.288280
0.392642 -0.576197
-0.164323 -1.247177
0.220450 0.587784
-0.290829 0.394205
0.745200 -2.359096
-0.962656 -0.153427
0.055847 -0.291356
-0.125791 -1.878185
2.065082 0.680994
0.603595 0.239462
0.553742 -2.135989
0.469159 -1.074360
0.062196 -0.135780
-0.334761 0.075552
1.056310 -0.044633
1.534849 2.006649
-1.049421 0.279644
-0.442569 -0.507142
0.214650 -1.104628
-0.214881 0.620261
0.158911 -0.137699
1.625510 0.702799
-0.097569 1.341364
-1.690797 -0.000177
-2.524470 -0.669382
-0.364228 -0.795037
-0.839270 -2.848636
0.248637 0.510020
1.180217 0.191950
-0.208209 1.507911
-2.591856 -1.420008
1.303828 -0.305846
0.768872 1.057297
0.129280 1.758993
0.617446 -1.550385
0.635710 2.164831
-0.311784 -0.481643
-3.136372 1.143618
-0.686603 -2.228728
2.537564 1.556944
-1.999348 1.240125
-0.024198 0.853441
-0.917189 -0.883011
-2.352589 0.342066
-2.382382 1.553835
0.753904 -1.924689
-0.734572 1.226215
-0.285158 2.313499
-2.377297 -5.161050
4.692299 -2.223351
-0.369994 -0.046875
0.297147 -3.225128
4.354488 1.176456
2.585623 2.079295
1.030047 2.821299
1.509874 -0.284756
0.752082 0.177444
4.567747 5.697008
2.752286 0.995777
1.201337 3.447741
-3.024178 6.900270
0.053629 -1.231441
-5.306479 3.218987
4.176780 4.004001
-1.669634 3.061751
-0.794437 4.375637
0.581245 4.953215
-2.382822 2.181242
-16.188971 -1.495102
2.003813 -6.001105
-2.876860 1.664962
3.719804 -2.190542
-2.609932 -1.664852
2.352802 -2.831404
-3.330686 -1.543124
-4.814178 -7.394535
1.775277 0.439312
9.096326 -3.887415
2.601827 4.650404
4.195277 6.625944
7.214108 -9.456530
0.549734 6.185660
1.000707 -3.928088
17.143789 -2.774350
4.312106 11.207290
5.647244 -1.888635
-2.936598 2.732317
-0.509738 10.810153
-6.717398 14.456123
0.631548 -1.353406
15.608919 33.152958
18.168584 6.030075
-41.698131 13.964942
10.035765 -27.065640
1.631497 40.899662
-28.824315 -7.309391
11.547183 28.264626
-11.090222 5.405581
-31.621397 25.804335
-29.099673 -15.788690
-35.478769 17.261941
85.419627 50.121416
-104.298251 63.260207
-11.928630 -37.333096
7.430244 278.346316
-321.641611 -140.200129
-209.786809 77.671368
152.378904 -132.550075
-24.044318 -185.491992
102.357577 397.085680
74.187922 110.183059
26.292712 70.182658
-567.710755 237.081900
