6873.339333 7353.053383
-687.081007 787.745252
372.215605 73.183845
247.322906 6.263475
322.537956 -338.346934
-522.078862 -35.903931
-197.216802 326.486475
255.190027 149.149948
-256.422284 178.248323
159.164227 -134.779988
-25.041330 123.230610
97.176453 51.563841
-4.908115 -83.000468
59.883573 -22.641743
23.466553 27.979450
7.105780 -13.644666
83.574048 15.520937
13.442340 1.169887
71.261437 10.558311
-14.397620 -1.475585
93.098100 -26.743348
28.390967 -35.281755
46.373815 -4.170888
31.356172 -20.307549
64.864812 -45.930965
35.601319 -16.407545
23.516779 -23.369666
59.904905 -50.877346
47.957374 -28.928131
15.286472 -39.525881
19.989510 -46.975701
29.710111 -19.341240
14.823891 -18.751043
10.565644 -39.012653
25.227399 -13.215057
23.274942 0.809735
18.062017 -16.694258
24.615436 -24.848867
20.090435 -6.766423
20.665630 -19.970897
30.715109 -0.300982
36.933804 -26.231604
26.334145 -17.646960
24.828016 -9.780567
38.713931 -16.767099
26.464648 -27.453039
25.917363 -13.806611
22.724051 -19.247423
23.988624 -22.308530
24.498529 -4.097367
20.562230 -23.066614
13.991196 -16.195290
27.651167 -8.408164
25.129287 -11.476460
19.286154 -17.756711
26.067904 -8.080864
24.612056 -11.088100
23.142061 -15.515987
29.135466 -12.092882
26.065049 -12.533523
26.624024 -7.052126
32.290696 -12.829167
27.928494 -14.486643
28.846821 -14.937104
27.784864 -10.952626
35.762453 -15.888064
28.567896 -14.885835
31.247960 -10.135759
33.734200 -15.397191
33.729834 -19.533780
34.221090 -16.149737
27.472267 -22.107111
29.841849 -19.767516
31.385902 -18.612496
31.271091 -21.931679
28.759513 -24.812571
32.671649 -19.162006
33.258027 -20.295632
32.213754 -26.451041
30.143346 -21.190205
30.028390 -23.747257
30.171531 -21.415268
29.077210 -25.155494
31.449349 -26.137902
30.027737 -27.604857
29.682876 -28.416165
30.812493 -29.494297
28.106678 -34.539420
26.225137 -27.566672
28.359113 -30.662906
25.804045 -30.604145
27.166104 -32.596164
24.149794 -31.548747
26.080709 -36.658066
26.408556 -34.216979
20.761824 -34.814067
22.485698 -34.395398
23.348285 -33.274967
22.348707 -35.435294
18.036443 -38.067615
18.697424 -35.832413
19.999704 -37.829633
16.393892 -39.133911
15.393551 -39.395327
14.915745 -38.881682
10.949035 -37.409523
14.623472 -37.317280
12.325884 -38.258814
10.923874 -37.829128
9.893982 -35.921402
9.898712 -38.019500
10.354089 -38.050156
6.492695 -34.360437
8.103461 -35.151585
8.583897 -36.754208
7.527318 -34.575646
3.964413 -35.830928
4.026582 -35.334203
3.272658 -34.742684
1.540063 -35.149824
0.605693 -35.961861
0.043360 -35.218776
-0.178187 -31.954666
-1.118373 -34.555426
-1.110462 -31.602179
0.102863 -33.162376
-1.076416 -31.288190
-1.149788 -32.380373
-5.012723 -30.864997
-4.279911 -29.999960
-3.836016 -28.569227
-4.621502 -30.638902
-5.067158 -29.327952
-4.480665 -26.630066
-4.904312 -28.363161
-6.493983 -26.686114
-5.668436 -24.882025
-6.154157 -25.157783
-6.981884 -24.642352
-4.301945 -25.128325
-6.331852 -24.152407
-5.195881 -24.164582
-5.125155 -22.411645
-6.111720 -24.497945
-6.106388 -23.442015
-6.038029 -23.837558
-6.660649 -21.865825
-4.508197 -22.956209
-7.488288 -22.120681
-7.408311 -21.835208
-7.239525 -21.336080
-7.996531 -21.303332
-7.870679 -20.228223
-8.086121 -20.707959
-7.459261 -19.003528
-7.246356 -20.098020
-7.153056 -20.809351
-7.290360 -18.503222
-7.028314 -18.980332
-6.238253 -17.878556
-6.991100 -17.651700
-7.180287 -18.473753
-7.684930 -18.167593
-7.399040 -18.273694
-8.790007 -19.096851
-7.922310 -16.315248
-7.863568 -17.382959
-7.354871 -16.902254
-7.914844 -17.501046
-7.828720 -16.392241
-9.180884 -18.124095
-8.492773 -16.671295
-9.312507 -16.364070
-10.171795 -17.736228
-8.067758 -16.152649
-8.681701 -16.708937
-8.861445 -17.470947
-8.561765 -16.832510
-10.236036 -15.144608
-11.962340 -14.976060
-10.097335 -14.676798
-11.377669 -14.564783
-10.845908 -14.483074
-9.730659 -13.918432
-10.011598 -13.239995
-10.552322 -13.007209
-10.268531 -12.629812
-11.336125 -11.933312
-10.532532 -12.925754
-11.805866 -11.877995
-11.526004 -11.382804
-11.554403 -12.590741
-11.562288 -10.383607
-11.504331 -10.128566
-12.935467 -10.099010
-11.456627 -9.550022
-12.150056 -7.829967
-12.615494 -7.593487
-12.432051 -7.900464
-11.821880 -6.227718
-12.707729 -6.240409
-11.807098 -7.429086
-11.392381 -5.709056
-11.777517 -5.730328
-11.702363 -4.420576
-11.504939 -4.092552
-10.612783 -3.832520
-11.234419 -3.639090
-10.342329 -3.487552
-10.765003 -3.012270
-10.808374 -1.878351
-10.685499 -1.858448
-10.421111 -0.782532
-9.128421 0.342497
-8.863336 0.552333
-9.238995 -0.505569
-8.346926 1.230239
-7.776075 1.037438
-8.450929 0.324563
-6.869922 2.069278
-5.786028 1.324592
-6.293050 1.703045
-5.646750 2.889664
-4.535636 1.420170
-5.318311 1.549983
-4.772200 2.317813
-4.300847 1.246964
-4.034397 2.334867
-2.577347 3.553711
-1.853422 2.387537
-1.021238 3.160668
-0.389214 2.545788
-1.446879 3.104901
-1.572844 3.147639
-0.102972 1.976173
-0.879503 2.588169
0.617605 1.807204
1.355623 2.233333
2.108148 1.871085
2.402420 1.805295
2.168973 1.679141
1.695245 1.890360
2.428987 1.496162
2.351791 0.760917
3.291849 0.932960
3.518575 -0.138855
4.477160 0.774870
5.126947 -0.336105
4.508232 -0.662302
3.990584 -0.024825
4.543890 0.099347
4.035757 -1.636574
5.295301 -0.723894
5.494573 -1.935283
5.014433 -1.984484
5.555063 -2.276999
6.901353 -1.505813
5.159596 -2.550764
5.620290 -2.977794
6.346980 -3.528151
5.455878 -3.458842
5.893131 -3.924587
5.489648 -4.454701
6.105632 -4.083670
6.821906 -5.364840
6.194504 -4.985993
6.381698 -5.323960
5.368637 -5.400848
4.397102 -5.199259
4.971328 -5.615544
5.171373 -6.853160
5.481855 -6.558902
4.984318 -7.323952
4.604177 -7.024834
6.182565 -6.549760
4.457750 -6.348410
5.179575 -6.539969
4.353848 -6.660036
3.823240 -7.639899
4.205699 -7.044868
4.807710 -7.568518
4.145389 -8.089383
4.296164 -7.444536
4.737704 -6.805230
3.944010 -7.510218
3.874036 -6.973392
3.617215 -7.655919
2.785642 -7.718253
3.290122 -7.669004
3.380452 -8.286706
3.594861 -8.153920
3.050557 -7.738722
3.644220 -8.374535
3.570526 -7.160579
3.515787 -8.526898
2.859353 -8.573626
2.117895 -7.934804
3.398808 -8.168896
3.163797 -8.590024
2.660056 -8.186077
3.903886 -8.509736
3.226338 -7.904267
3.204647 -8.822160
3.512182 -8.289265
3.105999 -8.565538
2.288050 -8.619196
2.919595 -8.925655
3.349036 -9.382089
3.206987 -9.714423
3.180828 -9.447795
3.757865 -9.150720
2.517450 -9.273498
3.075729 -8.676669
3.056077 -9.349045
2.554703 -9.991677
2.990151 -10.108979
2.722776 -10.750196
3.088655 -10.325518
3.469615 -10.131085
2.042686 -10.516665
2.300315 -9.867166
2.051615 -10.687586
2.233400 -10.733258
1.835910 -11.302556
1.318502 -11.603610
1.630758 -11.363211
2.204832 -11.873222
2.175080 -11.572913
2.003516 -11.255861
0.460902 -11.509178
1.527062 -11.258683
0.314084 -12.296140
0.601022 -12.778409
0.456638 -12.037619
0.753983 -12.957553
0.172195 -12.992919
0.373119 -12.545479
0.403528 -11.963126
-1.060191 -12.709501
-0.990617 -12.501860
-0.928526 -13.142420
-2.510406 -13.672069
-1.760435 -12.864052
-1.709810 -13.899121
-1.761618 -12.700089
-1.743196 -12.274190
-2.336866 -12.690264
-1.990105 -12.420790
-3.109799 -12.450789
-3.728922 -12.227788
-3.945458 -12.600300
-4.381562 -12.252345
-3.976419 -12.614502
-4.208573 -11.345925
-4.172378 -11.475626
-4.428652 -11.310704
-5.567609 -11.558992
-5.385265 -10.833143
-6.257347 -10.885050
-6.294841 -10.416535
-6.267486 -10.628167
-6.058107 -10.835661
-6.172270 -9.795066
-5.978110 -10.152906
-6.459491 -10.199724
-7.236520 -9.498259
-6.979187 -9.136497
-7.404026 -9.242797
-7.110931 -9.105245
-7.514782 -8.314159
-7.476077 -8.883019
-7.249100 -8.394705
-7.318721 -7.379310
-7.372735 -7.435833
-7.190510 -7.232941
-8.519670 -6.786236
-7.595823 -6.919773
-7.793781 -7.137907
-7.221338 -6.395972
-7.739359 -6.375814
-7.061940 -5.865436
-7.449882 -5.886942
-7.728542 -5.578909
-7.479928 -4.999620
-7.821448 -5.336621
-8.119341 -5.185547
-7.185726 -4.987960
-7.130051 -4.754070
-7.505626 -5.224220
-6.958202 -4.227497
-6.309414 -3.925086
-7.131784 -3.939980
-6.960333 -3.979560
-6.703523 -3.636167
-7.103456 -3.302146
-6.495756 -3.884579
-5.730636 -3.544563
-6.003115 -4.071610
-5.242346 -3.119203
-6.118487 -3.542074
-5.911270 -2.784243
-6.001983 -3.523881
-5.915561 -2.757848
-5.590577 -3.328296
-5.439990 -3.144162
-5.210890 -3.417795
-4.994702 -3.134664
-5.628031 -3.320943
-4.953742 -3.022524
-4.814853 -2.835500
-5.499627 -2.943831
-5.128513 -2.859574
-5.607655 -3.128594
-5.610026 -3.273272
-4.677261 -3.767175
-5.023111 -2.992084
-5.213344 -2.927851
-5.205079 -2.731561
-5.241636 -2.571154
-5.546136 -2.338709
-5.586530 -2.598219
-5.206111 -2.956539
-4.867304 -2.854492
-4.744079 -3.073829
-4.629946 -2.441231
-5.622628 -1.990835
-4.852913 -1.412081
-4.551903 -2.330809
-5.074479 -1.542415
-5.103002 -2.103066
-5.231420 -1.766903
-5.217581 -2.096127
-4.903636 -1.632813
-4.576197 -1.818040
-5.175080 -1.190431
-4.840446 -1.337337
-4.836794 -1.091184
-5.329241 -0.958586
-5.548297 -1.031649
-5.198566 -1.287521
-4.609475 -1.039779
-4.312585 -0.889030
-4.425101 -0.778914
-4.547206 -0.220704
-4.232067 -0.162728
-4.532667 0.224832
-4.210642 0.032520
-4.514590 -0.109277
-4.043808 0.064013
-4.439728 0.491233
-3.835414 0.445829
-3.530687 0.329705
-3.445559 1.110496
-3.020760 1.304105
-3.005350 1.113850
-2.937407 0.870266
-3.510312 1.521534
-2.848434 0.753565
-2.194841 1.284544
-1.815196 0.531476
-1.138267 1.386108
-1.136843 1.227051
-1.575567 1.208129
-1.416900 1.684736
-1.164860 1.084298
-0.844803 1.083502
-0.518953 1.141671
-0.024345 0.999054
-0.264280 0.781674
-0.219481 1.052971
0.287884 0.804873
0.666694 1.432370
0.661867 0.480940
0.708953 1.142294
0.941942 0.464703
1.337750 0.499512
1.479199 -0.090110
1.760109 0.388115
2.113538 -0.080594
2.476225 -0.566634
2.148185 -0.106644
2.158219 0.070084
2.427198 -0.967280
2.426286 -0.852074
2.696325 -1.253366
3.062123 -1.606408
3.179011 -1.984883
2.908458 -1.779292
3.247405 -1.594081
3.066167 -2.077494
2.952727 -1.993925
2.885956 -2.902811
3.257315 -3.113621
3.087714 -2.843704
3.294562 -3.486873
3.660617 -3.804274
3.052366 -3.761318
3.142586 -3.803089
2.551852 -3.680609
3.068866 -4.153684
2.854060 -4.193125
2.402640 -4.921122
3.089661 -4.761852
3.062227 -5.298088
2.386354 -5.779232
2.629062 -5.370051
2.393887 -5.600143
2.008540 -5.646012
2.119492 -5.674384
1.554371 -6.428254
1.708683 -5.921628
1.649818 -6.719685
1.770313 -6.574906
0.929542 -6.511916
1.492234 -6.361571
1.123105 -6.585026
1.065651 -6.470918
0.776156 -6.641457
0.305488 -6.649356
0.268258 -7.048218
0.144529 -7.295775
0.815378 -7.137982
0.123668 -7.075059
0.089804 -7.246159
-0.141241 -6.733671
-0.449338 -6.923385
-0.947874 -6.945746
-0.713225 -7.115897
-0.932835 -7.523919
-1.141558 -7.240907
-1.124754 -7.668308
-0.838139 -7.066611
-1.488321 -6.917876
-0.847287 -6.716046
-1.777364 -6.482827
-1.635525 -6.798948
-1.670700 -7.402697
-1.788840 -7.034437
-1.853904 -7.118445
-1.469324 -7.255782
-1.924893 -6.808565
-1.883605 -6.749702
-2.064713 -6.718715
-1.953537 -6.320472
-2.156147 -6.531873
-2.756138 -6.801159
-2.078115 -6.675909
-2.556963 -6.442769
-2.460494 -7.061338
-2.515691 -6.375428
-2.329629 -6.564014
-2.545722 -6.190521
-2.570491 -6.627931
-2.841608 -6.053644
-3.030053 -7.034541
-2.803477 -6.873420
-2.916840 -6.928306
-2.644592 -6.689700
-2.511708 -6.340793
-2.892087 -6.415407
-2.823987 -6.406033
-2.740763 -6.804356
-3.298112 -6.651724
-3.178217 -6.761658
-3.079826 -7.095388
-3.219018 -6.701164
-2.897813 -6.690444
-3.158453 -6.851498
-3.405900 -6.450847
-3.786990 -6.626570
-4.004093 -6.788641
-4.129905 -6.286825
-4.267426 -6.825329
-4.494682 -6.813712
-4.448499 -6.620076
-4.507873 -6.724966
-4.321517 -7.007341
-4.584861 -5.795901
-4.652571 -6.281302
-5.121031 -6.306772
-5.455061 -6.294557
-5.656022 -6.518662
-5.755967 -6.241050
-5.425260 -6.232334
-5.656266 -6.531767
-5.483782 -6.210612
-5.832241 -5.860229
-6.213560 -5.904307
-6.532927 -5.654772
-6.909668 -5.759822
-6.729969 -5.470048
-6.842010 -5.276887
-6.650666 -5.537338
-6.826125 -5.228823
-6.631572 -5.256156
-6.984102 -4.857723
-7.044266 -4.592510
-7.657867 -4.380189
-7.529579 -4.266745
-7.103491 -4.252820
-7.384825 -4.369453
-7.365342 -4.044911
-7.596747 -3.938785
-7.424713 -3.461117
-7.646839 -3.221608
-7.835300 -3.066695
-7.664341 -2.696126
-8.087596 -2.540092
-7.679658 -2.617538
-7.465852 -2.505651
-7.703654 -2.419774
-7.217088 -1.955896
-7.318653 -1.794894
-7.251758 -1.328599
-7.386143 -1.114683
-7.666357 -0.728998
-7.060250 -1.018782
-7.587605 -0.987337
-6.898837 -0.665914
-7.084816 -0.823822
-6.487190 -0.541738
-6.337405 0.105303
-6.554145 0.265756
-6.255588 0.312202
-6.503885 0.372289
-6.691819 0.543720
-6.183383 0.182687
-5.990135 0.399640
-5.650763 0.286200
-5.517289 0.457457
-4.974596 1.032146
-5.290160 1.274141
-5.242128 1.092470
-5.049819 0.825762
-5.053677 0.968792
-4.886364 0.973194
-4.721140 1.025301
-4.368991 0.988705
-4.274806 1.265876
-3.970553 1.583897
-3.910556 1.263612
-3.625800 1.362827
-3.682870 1.130067
-3.568388 1.179788
-3.582855 1.307946
-3.145172 0.926570
-3.481703 0.976235
-2.334878 0.921375
-2.769386 0.853750
-2.779184 1.167720
-2.841056 0.323650
-2.607629 0.992198
-2.850276 0.524617
-2.671123 0.481386
-2.292691 0.546580
-2.180788 0.229530
-2.060346 0.499845
-2.112079 0.229645
-2.200323 0.439140
-1.995723 0.326075
-2.319140 0.401187
-1.831892 0.504405
-1.878389 0.170341
-2.133727 0.058291
-1.441752 -0.165445
-1.716511 -0.203471
-1.811458 0.021682
-1.610329 0.141598
-1.983793 -0.364891
-1.955409 0.160722
-2.175728 -0.132467
-2.056427 -0.285622
-1.651256 -0.884869
-1.704785 -0.085489
-1.947855 -0.291189
-1.991840 -0.295825
-1.699964 -0.477424
-1.951582 -0.056560
-1.959010 -0.261910
-2.091638 -0.356243
-1.859088 -0.285015
-1.688401 -0.208413
-1.718808 -0.428435
-1.841745 -0.143250
-1.639057 -0.204081
-1.908972 -0.339784
-2.034201 -0.206925
-1.949010 0.150948
-1.802347 -0.404343
-1.254979 -0.213215
-1.590426 -0.248455
-1.125710 0.004897
-1.209533 -0.161771
-1.484573 -0.001064
-1.279453 0.345906
-1.207398 -0.245183
-1.420707 -0.085271
-0.869685 -0.260279
-0.847343 -0.296338
-0.689121 -0.373512
-0.658470 -0.074411
-0.589687 -0.090274
-0.480667 0.065212
-0.507023 -0.050555
-0.275829 -0.045892
-0.549079 -0.616101
-0.459419 -0.679086
-0.130892 -0.888204
0.445138 -0.706468
0.183519 -0.491309
0.634274 -0.702799
0.344248 -0.390848
0.448493 -0.771157
0.081458 -0.761915
0.137895 -1.222917
0.192335 -1.135084
0.714521 -1.345189
0.811126 -1.588948
0.835276 -1.395965
0.830657 -1.731045
0.891692 -1.660735
0.804797 -1.539409
1.102652 -1.872213
0.730878 -2.327587
1.266796 -2.355854
1.135820 -2.950229
1.164602 -3.021814
1.443736 -2.933330
1.266332 -3.066650
1.130028 -2.892165
1.090202 -3.264995
0.811131 -3.700290
0.933057 -3.840740
0.534808 -4.004775
0.702121 -4.044070
0.859398 -3.949511
0.656371 -4.121502
0.521119 -4.621738
0.525687 -4.617014
0.277602 -4.475934
0.028732 -4.864567
0.054760 -5.045454
0.091628 -5.154828
-0.122863 -5.379603
-0.121598 -5.314743
-0.067138 -5.259764
-0.485630 -5.340899
-0.791719 -5.622957
-0.852434 -5.253366
-1.091048 -5.687687
-1.286406 -5.844055
-1.337620 -5.929020
-1.515138 -6.062557
-1.766128 -5.982211
-1.631672 -5.999265
-1.809724 -5.876290
-1.934525 -5.861876
-2.533992 -6.038042
-2.618952 -5.823769
-2.782023 -6.079850
-3.028367 -6.192541
-2.976801 -5.882583
-3.040131 -6.123423
-2.961082 -5.764404
-3.286944 -5.487998
-3.810208 -5.543089
-4.005682 -5.686236
-4.127842 -5.371017
-4.341855 -5.613125
-4.231009 -5.642232
-4.405669 -5.577291
-4.194299 -5.429558
-4.395269 -5.570876
-4.410100 -4.917099
-4.692225 -4.981991
-5.273381 -4.933081
-5.022055 -5.050762
-4.866201 -4.811518
-5.323890 -4.691799
-4.854241 -4.805493
-4.704222 -4.477747
-5.066302 -4.247568
-5.134005 -4.050997
-5.536970 -4.024667
-5.520900 -3.829298
-5.547668 -3.946976
-5.422095 -3.811547
-5.469665 -3.847171
-5.477959 -3.901047
-5.186277 -3.739253
-5.438986 -3.467651
-5.513630 -3.425874
-5.367489 -3.271233
-5.508341 -3.088236
-5.675836 -3.190818
-5.572568 -3.331010
-5.305379 -3.360802
-5.577396 -3.055521
-5.320615 -3.357579
-5.279099 -2.968755
-5.253281 -3.028903
-5.609840 -2.486666
-5.630506 -2.758726
-5.726526 -2.845302
-5.653575 -3.190793
-5.422596 -3.048184
-5.677534 -2.595489
-5.464114 -2.737208
-5.684183 -2.409506
-5.698698 -2.590635
-5.641230 -2.353086
-6.025249 -2.477458
-5.807218 -2.326720
-5.896306 -2.648112
-5.670844 -2.623912
-6.140080 -2.299800
-5.929110 -2.359510
-6.175716 -2.261499
-5.969641 -1.849498
-6.231896 -1.855461
-6.210353 -1.873286
-6.390232 -2.048120
-6.158839 -2.375850
-6.455619 -1.959850
-6.189663 -1.869704
-6.528544 -1.778054
-6.270732 -1.107783
-6.485106 -1.456181
-6.668180 -1.164877
-6.379904 -1.390307
-6.894300 -1.112818
-6.690926 -1.417543
-6.992429 -1.342976
-6.627970 -0.840535
-6.766656 -0.856597
-6.518164 -0.449920
-6.923656 -0.366324
-6.701070 -0.443086
-7.194203 0.033261
-6.628617 0.004581
-7.124555 -0.210538
-6.843130 0.149801
-6.767070 0.318412
-6.432325 0.573456
-6.896323 1.008818
-6.534636 1.014180
-6.550504 0.853075
-6.805007 1.210481
-6.582101 1.359432
-6.615478 1.364848
-6.362437 1.287916
-6.111612 1.762235
-5.644820 2.053156
-5.805555 1.874489
-6.008685 2.288416
-5.641819 2.254589
-5.779116 2.005043
-5.517760 2.614685
-5.385442 2.683279
-5.116097 2.345981
-5.166688 2.829032
-4.530694 2.695578
-4.868452 3.306884
-4.703461 3.123915
-4.694093 3.265393
-4.618490 2.964713
-4.562794 3.179417
-3.761026 3.089305
-4.077745 3.065870
-3.550760 3.089457
-3.187250 3.275430
-3.247997 3.606171
-3.357606 3.228416
-3.006152 3.414923
-2.752657 3.034365
-2.939722 3.071737
-2.393050 2.874038
-2.155562 2.975675
-2.212309 3.101526
-2.058775 3.114835
-1.943217 2.800148
-1.522841 2.956913
-1.771585 2.765523
-1.592183 2.777804
-1.380406 2.316355
-1.269618 2.102908
-0.784427 2.425585
-0.876161 2.232687
-0.556868 2.184417
-0.633419 2.289387
-0.616759 2.111478
-0.131617 1.962197
-0.607273 1.623759
-0.268082 1.342372
0.064506 1.290921
-0.112865 1.223614
0.488296 1.345883
0.092332 1.132038
0.036882 0.869606
0.145113 0.984488
-0.094110 0.340319
-0.054777 0.457593
-0.118759 0.070048
0.208228 -0.235649
-0.012136 -0.069630
0.188040 -0.023505
0.017187 -0.341782
0.113662 0.104549
-0.110568 -0.224414
-0.501505 -0.611631
-0.631143 -0.722097
-0.219588 -0.862853
-0.294790 -0.697842
-0.121291 -1.072795
0.061421 -0.999182
-0.573591 -1.004650
-0.334696 -1.088982
-0.470736 -1.047134
-0.807391 -0.850166
-0.591026 -1.312605
-0.686656 -1.395082
-0.714361 -1.455641
-0.729500 -1.357550
-0.694380 -1.282943
-0.655737 -1.319708
-1.005673 -1.089171
-1.010206 -1.141761
-1.039128 -1.369201
-1.462407 -1.512821
-1.063373 -1.619671
-1.131121 -1.802710
-1.173017 -1.539850
-1.048791 -1.734990
-1.070601 -1.307608
-1.704476 -1.699716
-1.780750 -1.519255
-1.356932 -1.659523
-1.330385 -1.815895
-1.587266 -1.495622
-1.440570 -1.691023
-1.158286 -1.882110
-1.370487 -1.530501
-1.325533 -1.649631
-1.543305 -1.459692
-1.483678 -1.709102
-1.532749 -1.596567
-1.250923 -1.857127
-1.295015 -2.098398
-1.234170 -2.181176
-1.014549 -1.986460
-1.294555 -2.308463
-1.049714 -1.816778
-1.106439 -1.860077
-1.648297 -2.090983
-1.354135 -2.043833
-1.115739 -2.441800
-1.136212 -2.347328
-1.155605 -2.310768
-1.097559 -2.483735
-1.347981 -2.497719
-1.407818 -2.438284
-1.185003 -2.532861
-1.430254 -2.524511
-1.802799 -2.917648
-1.466574 -3.055353
-1.263231 -3.335249
-1.676414 -3.318535
-1.398985 -3.175924
-1.549260 -2.983937
-1.599138 -3.250524
-1.829612 -3.141933
-1.624253 -3.399240
-2.297528 -3.752801
-1.879540 -3.617055
-2.041577 -3.845336
-1.648496 -4.008658
-2.083245 -3.567159
-2.232034 -4.036759
-2.545220 -3.738933
-2.512240 -3.866921
-2.865466 -4.068485
-2.928492 -4.337366
-3.122410 -4.700640
-3.090907 -4.584556
-3.104978 -4.977399
-3.370230 -4.317095
-3.639735 -4.021044
-3.747668 -4.477319
-3.837356 -4.141291
-4.048681 -4.322481
-4.407664 -4.621964
-4.805303 -4.724891
-4.373914 -4.629732
-4.774420 -4.453571
-4.587861 -4.197245
-4.911703 -4.131458
-5.061330 -3.932429
-5.347323 -3.954956
-5.709525 -4.190616
-5.845091 -3.914227
-5.727992 -4.085675
-5.711850 -3.786902
-5.802762 -3.946709
-5.951124 -3.562854
-6.396032 -3.492245
-6.532516 -3.220772
-6.790934 -2.942379
-6.540763 -3.167146
-6.760063 -2.958518
-7.136131 -2.974646
-7.014765 -2.608995
-7.033409 -2.730189
-6.960739 -2.142365
-7.098620 -2.259030
-7.064115 -1.503657
-7.453392 -1.569532
-7.613945 -1.722735
-7.144511 -1.755719
-7.380812 -1.291676
-7.352228 -1.068946
-7.126130 -1.287794
-6.898239 -0.822373
-7.287119 -0.656760
-7.252495 -0.350242
-7.641917 -0.560343
-7.366327 -0.439850
-7.364711 -0.504101
-7.217729 -0.023356
-7.208903 -0.204810
-6.922526 0.009005
-6.855916 0.315695
-7.070252 0.544200
-7.125528 0.562082
-6.979038 0.809891
-6.977314 0.708843
-6.787222 0.751687
-6.564002 0.924012
-6.646272 0.867521
-6.581242 1.009741
-6.285604 1.320217
-6.474799 1.371736
-6.314252 1.154347
-6.306686 1.415992
-6.466365 1.180083
-6.001241 1.051146
-6.212165 1.287578
-5.923490 1.221797
-5.841278 1.474915
-5.743580 1.466229
-5.557514 1.468383
-5.832827 1.617841
-5.668245 1.577529
-5.868004 1.611425
-5.925922 1.429661
-5.561929 1.466879
-5.484539 1.439795
-5.283366 1.693857
-5.512677 1.659567
-5.388914 1.921525
-5.723932 1.851007
-5.570425 1.895142
-5.647893 1.666309
-5.559204 1.536006
-5.284067 1.654126
-5.172954 1.913349
-5.096859 1.835368
-5.377845 1.990287
-5.267422 2.343232
-5.172137 2.304817
-5.382146 2.173720
-5.305552 2.254216
-5.450638 2.207167
-5.315809 2.084014
-4.906502 2.512312
-5.095521 2.531560
-4.912473 2.667243
-5.310411 2.744702
-5.234128 2.800687
-5.454736 2.385858
-5.064508 2.542438
-4.774493 2.982499
-4.884794 2.577316
-4.787782 3.135018
-4.588244 3.149276
-4.965647 3.340024
-4.797518 3.234126
-4.547166 3.239994
-5.000385 3.570624
-4.701346 3.288580
-4.467266 3.370707
-4.399050 3.620966
-4.157670 3.726434
-4.047919 3.969068
-4.180181 4.295673
-3.993999 3.997527
-4.207775 4.093319
-3.926013 4.116094
-3.777029 3.924637
-3.323650 3.870458
-3.021569 4.215015
-2.955441 4.249549
-2.656443 4.302152
-2.832705 4.416886
-2.740274 4.552188
-2.700183 4.244359
-2.424823 4.529482
-2.266480 4.126147
-2.262327 4.186153
-1.652841 4.006500
-1.553701 4.232526
-1.398887 3.922263
-1.096608 4.404186
-1.445089 4.276365
-1.116633 4.146427
-1.070995 3.897552
-0.847565 3.967193
-0.447632 3.531922
-0.320798 3.564301
0.164798 3.569169
0.085669 3.469965
0.037265 3.349630
0.340666 3.326995
-0.028302 3.178671
0.546974 2.716381
0.246798 2.512366
0.647287 2.560687
0.992367 2.132651
0.827369 2.142980
0.771031 1.985349
1.152955 1.678504
0.826003 1.666869
0.735826 1.591072
0.912642 1.000671
1.135021 0.639551
1.028886 0.649338
1.109612 0.496174
1.143656 0.557315
1.282983 0.362444
1.288327 0.539076
0.677188 -0.018807
0.898700 -0.388543
0.784656 -0.643539
0.733764 -0.463667
0.666143 -0.969000
0.931446 -1.100971
0.783359 -1.028784
1.104577 -1.025508
0.370626 -1.117285
0.308991 -1.428069
-0.089873 -1.426622
-0.128429 -1.931196
-0.075064 -1.966691
-0.184312 -2.274693
-0.115063 -2.213411
-0.101852 -2.331203
-0.280563 -1.822924
-0.648043 -2.018784
-0.757609 -2.305056
-1.316284 -2.299753
-1.151884 -2.792798
-1.396209 -2.557708
-1.517849 -3.241781
-1.618081 -2.722922
-1.304480 -2.708616
-1.828849 -2.602383
-1.667854 -2.582030
-2.357151 -2.896866
-2.569680 -2.978861
-2.805422 -2.808855
-2.623011 -3.181930
-2.644708 -3.053440
-2.676292 -3.047908
-2.796648 -2.853961
-3.096484 -2.386194
-3.193296 -2.748502
-3.800259 -2.874065
-3.701885 -2.545925
-3.692370 -2.399669
-3.687361 -2.801723
-3.716919 -2.684601
-3.508352 -2.300396
-4.076278 -2.421164
-4.021920 -2.010417
-3.830190 -2.221711
-4.176505 -2.067562
-4.339714 -2.316285
-4.385050 -1.883065
-4.057879 -2.118506
-4.036164 -2.229872
-3.843400 -2.172608
-3.978617 -1.834390
-4.217806 -1.981297
-3.987945 -1.864088
-4.462665 -1.799878
-4.356865 -1.736622
-4.806144 -2.030045
-4.798008 -1.877063
-4.333648 -1.934123
-4.334648 -2.058414
-4.554171 -1.887639
-4.548452 -1.583182
-4.497469 -1.676710
-4.679500 -1.614818
-5.153286 -1.719733
-5.018136 -1.891665
-4.913952 -1.872868
-4.804114 -1.974684
-4.425963 -1.892485
-5.056703 -1.888319
-4.981267 -1.449399
-5.042150 -1.543818
-5.207530 -1.887968
-5.241497 -1.908488
-5.654244 -1.865810
-5.492058 -1.606317
-5.440735 -1.921184
-5.626557 -1.706992
-5.553847 -1.849590
-5.848453 -1.558745
-6.067018 -1.676904
-6.061666 -1.593521
-6.522295 -1.847796
-6.357173 -2.019338
-6.252536 -1.695333
-6.344161 -1.808328
-6.384289 -1.684925
-6.621055 -1.453647
-6.657378 -1.592097
-7.225376 -1.492860
-7.494024 -1.368101
-7.594214 -1.498139
-7.358994 -1.437552
-7.411073 -1.303696
-7.714653 -1.411553
-7.409789 -0.872491
-7.798528 -0.901699
-7.895783 -0.567232
-7.841705 -0.215219
-8.429202 0.029860
-8.401078 -0.287171
-8.393155 -0.432259
-8.158808 -0.299642
-8.196586 0.367376
-8.064640 0.548888
-8.311893 0.586120
-8.359702 1.196374
-8.694863 1.280799
-8.824254 1.453035
-8.814034 1.351619
-8.618822 1.201958
-8.718007 1.760004
-8.546206 1.892368
-8.735590 2.206629
-8.665568 2.692249
-9.032223 2.527719
-8.878434 2.829800
-8.422972 3.201893
-8.714569 3.150126
-8.756224 3.294670
-8.593643 3.446885
-8.271475 3.824958
-8.325002 3.816075
-8.099100 4.379270
-8.041665 4.562673
-7.961139 4.637709
-8.359334 4.470944
-7.611476 4.515601
-7.392749 4.855655
-7.542663 4.339929
-6.945854 5.423673
-6.754472 5.372252
-6.922887 5.818773
-7.077946 5.742146
-6.650102 5.387583
-7.037015 5.751303
-6.241145 5.549404
-5.887720 5.616652
-6.030784 5.835219
-5.790791 5.940061
-5.687790 5.975250
-5.392794 6.511328
-5.665006 6.310427
-5.049610 6.243464
-5.561547 6.342581
-4.931741 5.797921
-4.612420 5.601796
-4.568582 5.825636
-4.249734 5.952996
-4.119743 6.331850
-3.848913 6.192591
-4.042619 6.021101
-4.086450 6.224084
-4.046141 5.938444
-3.902042 5.848770
-3.473036 5.504783
-3.443937 5.569244
-3.086335 5.630396
-2.805791 5.407907
-2.974434 6.323537
-3.352771 5.413402
-2.976256 5.265579
-3.398904 5.235377
-3.028559 4.988724
-2.982750 4.765120
-2.618184 4.757073
-2.622144 4.938395
-2.442381 5.043924
-2.291345 5.251268
-2.775870 5.276905
-3.155746 4.632507
-2.832400 4.524956
-2.698575 4.694837
-3.011717 4.141770
-2.343652 4.468894
-2.399393 4.695021
-2.094655 4.994408
-2.661114 4.582570
-2.623009 4.635578
-3.085496 4.342651
-2.706296 4.408646
-2.748722 4.322983
-2.365321 4.066548
-2.427482 4.098829
-2.501449 4.279753
-2.661289 4.997563
-2.061683 4.713742
-2.384410 4.727172
-2.577817 4.895455
-2.309841 4.810895
-2.223346 4.414438
-2.450343 4.339743
-1.884602 4.502758
-1.467397 4.814172
-2.016179 4.706168
-1.704114 4.948139
-1.777150 4.877468
-1.970932 4.870264
-2.035570 4.308545
-1.548257 4.486994
-1.280229 4.321254
-1.317382 4.160008
-1.355421 4.786343
-0.808632 5.269666
-1.147463 4.811606
-1.008518 4.924507
-1.285249 4.480923
-0.615566 4.106412
-0.384950 3.851665
-0.438938 4.729069
-0.067900 4.227002
0.192365 4.346626
-0.029082 4.518424
0.100196 3.993863
0.446718 3.946337
-0.041891 3.973937
0.006087 3.609410
0.861815 3.288904
0.874728 2.827177
0.838823 3.003587
1.247959 3.316971
1.175822 3.097238
0.931371 3.033859
1.084366 2.956543
0.740137 2.199436
0.984311 2.151681
1.137903 1.320692
1.734531 1.438902
1.518492 1.633889
1.549737 1.649133
1.335605 1.435204
1.589836 0.748316
1.391931 0.799142
0.415872 0.452300
0.997782 -0.328883
1.020930 -0.239412
1.537084 -0.390889
1.045722 -0.656861
1.215352 -0.686013
1.368023 -0.847923
0.598638 -0.877362
0.345865 -1.451128
0.010585 -1.711996
-0.105815 -2.172868
0.440159 -2.116190
0.250492 -2.862674
-0.079291 -2.422827
-0.316701 -1.933759
-0.796596 -2.320412
-0.692294 -2.707148
-1.248836 -2.802893
-1.891196 -3.402208
-1.922716 -3.393261
-1.979200 -3.255928
-2.154936 -3.577758
-2.523170 -3.382943
-2.589434 -3.431113
-2.908337 -3.282856
-3.718117 -3.537180
-3.957131 -3.279556
-4.062438 -3.807936
-4.610503 -3.452070
-4.286609 -3.875495
-4.456657 -3.786551
-4.532950 -3.763033
-4.524723 -3.025734
-5.334416 -3.105903
-5.914015 -3.061439
-6.236600 -2.819518
-6.337680 -3.371841
-6.144939 -3.102901
-6.310335 -2.956324
-6.744470 -2.581838
-6.217574 -2.510989
-6.794475 -2.129022
-7.615883 -2.046144
-7.503930 -1.779355
-8.122553 -1.788704
-7.967350 -2.239715
-8.262028 -1.804627
-7.955212 -2.053103
-8.166855 -1.763287
-7.663949 -1.232702
-8.853604 -0.426963
-8.317993 -0.363565
-9.026284 -0.372172
-8.720382 -0.274362
-9.484866 -0.146104
-9.017206 -0.508048
-9.068370 -0.160426
-8.769042 0.814034
-8.536251 0.508689
-8.950621 1.306616
-8.872956 1.246861
-9.032250 1.795153
-9.516633 0.966047
-9.282379 1.459297
-8.667620 1.412468
-9.153430 1.256038
-8.695793 1.356109
-8.837162 1.721047
-8.532993 2.516342
-8.538271 2.256657
-9.271789 2.578179
-9.769797 2.645313
-9.105030 1.953861
-9.002691 2.736269
-8.947209 2.922587
-8.660243 2.874453
-8.881279 3.058175
-8.602922 3.274488
-8.866694 2.878195
-9.561640 3.473740
-9.675627 3.256617
-8.978606 2.863213
-9.165179 3.052606
-7.930954 3.238085
-9.102221 3.110760
-8.545193 3.414269
-8.670654 4.232138
-9.328165 3.672723
-9.215338 4.374809
-9.830843 3.749272
-9.225745 4.088550
-8.827428 3.997882
-9.462150 4.395600
-8.811982 4.245289
-8.929563 4.733683
-9.735375 5.526198
-10.068908 4.818438
-10.352810 4.625261
-10.119866 5.622876
-10.207564 4.889111
-10.051112 5.430810
-9.360311 5.093091
-9.990853 5.040600
-10.042179 5.721468
-9.718150 6.611543
-10.730525 6.393928
-11.102054 6.861992
-10.416811 6.650460
-10.541663 6.821820
-10.699931 7.305862
-9.977357 6.903970
-10.464379 7.585869
-10.677515 7.953021
-9.979281 8.232331
-10.871092 8.639638
-10.165566 8.988678
-10.673409 8.132561
-10.285125 8.633642
-9.862441 8.371416
-10.137257 9.537835
-9.383796 9.966752
-9.370544 9.818642
-9.605395 10.740139
-8.912916 10.958895
-9.016055 10.406016
-9.202279 11.249448
-8.877888 10.931772
-9.026233 11.301385
-7.897676 11.665036
-7.752637 12.211764
-7.443774 12.363094
-7.218357 12.687993
-7.397463 12.739242
-7.294538 12.808583
-7.210618 12.609538
-6.461439 12.862983
-6.364871 12.648814
-4.691190 12.838569
-4.958384 13.031259
-5.348418 13.597868
-4.971206 13.979754
-4.896640 13.757773
-5.262376 13.502398
-4.219432 13.818871
-3.890596 13.937967
-3.130837 12.904228
-2.313896 13.301350
-2.509057 13.431603
-1.842871 13.598008
-2.360048 14.056549
-1.955293 12.954008
-1.716046 12.767329
-1.157507 12.769984
-1.124723 12.450761
0.385382 12.306087
0.129796 12.433183
0.918018 12.483767
0.367514 12.710747
0.411340 12.197430
0.167566 11.981479
0.471623 11.811436
1.262548 11.568110
1.654757 11.582495
1.229754 10.325063
3.039983 10.055154
1.593338 10.158047
2.041735 10.534660
1.941667 9.893812
1.919540 10.115469
2.481595 9.360818
2.004696 8.040735
2.045691 8.194806
2.622497 8.431542
1.965397 7.413267
2.938820 8.018724
2.538600 7.756269
1.898818 8.393871
1.354166 7.610836
2.346430 7.073882
1.674736 6.349752
1.903013 6.116234
1.969322 6.293276
2.517750 6.189759
1.790132 6.783044
2.010718 5.649955
1.103335 5.735864
1.694033 4.769969
1.171465 4.658560
0.845637 5.129162
0.762190 4.640689
1.496103 4.979893
1.595612 5.759748
0.959956 4.987509
0.372160 4.640666
-0.209789 4.560556
-0.299747 4.645691
-0.157926 4.331329
-0.007932 3.674496
0.196847 4.158796
0.621115 3.944635
-0.104432 4.904490
0.166489 4.466380
-0.721087 5.022705
-1.014704 4.855514
-0.581346 4.447083
-1.180777 4.894657
-0.975270 4.178771
-0.650561 4.521431
0.233237 4.168365
0.346790 5.283337
0.138826 4.986894
-0.389591 5.493715
-0.915218 5.918911
-1.433809 4.948544
-1.480880 4.338217
-0.740600 4.318817
-0.625888 3.637229
0.028677 4.214290
0.569697 4.567819
0.742341 4.459580
0.106468 5.001657
-0.880566 3.894728
-0.337641 4.187617
-1.254191 4.665015
-0.722117 3.425515
1.025456 3.382457
0.953298 2.578504
0.530540 3.063365
0.681798 3.657108
0.548147 2.924283
-0.910809 3.004802
-0.495006 2.638879
-0.280708 1.831433
-1.332560 1.283034
0.618258 0.666032
-0.208871 1.227209
-1.004243 1.367273
0.276893 1.593421
-0.892691 1.057165
-0.815584 1.112346
-1.734408 0.712368
-1.464982 -0.945506
-1.173109 -0.916251
-0.680772 -1.581388
-0.619745 -1.790585
-1.446931 -1.173395
-2.433156 -2.128660
-3.047808 -2.146602
-3.988661 -2.525500
-4.681946 -2.684057
-4.699499 -2.697723
-4.221017 -3.638549
-4.396556 -3.019358
-4.331335 -2.937715
-6.005770 -3.693597
-6.652634 -2.494803
-7.136285 -2.878047
-8.375265 -3.456066
-7.598322 -3.088547
-8.046491 -3.660176
-9.875647 -4.168902
-8.504738 -3.423576
-9.091137 -4.007607
-11.183591 -4.426136
-11.600911 -3.521677
-12.895652 -3.245763
-13.999315 -3.773879
-14.385761 -2.629847
-14.310567 -3.963680
-14.372905 -3.377735
-14.123595 -2.468779
-14.527684 -2.361074
-15.720714 -1.109874
-16.967458 -0.665065
-17.411394 0.014110
-18.696506 0.347045
-17.104748 -0.483958
-18.639080 -1.285214
-18.176388 -0.887030
-18.445322 0.320852
-19.924297 1.396397
-20.870817 2.676661
-21.080122 5.271174
-21.669724 4.509419
-22.265664 4.854770
-23.015520 4.244346
-22.579106 5.047795
-23.464407 4.575285
-20.939129 7.620795
-21.723006 8.312786
-22.528924 9.953759
-21.902448 10.544707
-22.575764 11.311820
-24.359374 10.219001
-24.010031 10.656766
-22.801098 11.143014
-24.318760 12.031093
-23.527731 13.001931
-22.663008 14.806382
-22.894028 16.299205
-23.390891 16.770172
-21.521246 17.955674
-23.532447 16.843963
-25.458515 16.692387
-23.189440 17.547842
-21.951152 18.662604
-22.913464 19.720534
-19.465615 21.373382
-20.476138 22.195365
-19.995139 21.062455
-22.758107 22.525419
-22.420047 23.869169
-22.643642 22.047317
-21.984579 21.939748
-18.909867 24.041951
-18.511186 23.589928
-18.466473 25.062635
-17.483196 25.637420
-19.909389 25.478485
-19.284721 25.635518
-20.763394 27.307745
-19.379541 24.978849
-16.845242 28.056790
-16.938298 24.990667
-13.620858 26.041691
-14.242869 26.965164
-16.802711 27.305232
-18.751679 27.945598
-16.474443 30.853415
-15.928355 30.193979
-19.504208 29.772967
-12.380696 27.688817
-15.254130 29.081380
-17.084986 29.571837
-15.178873 29.133118
-14.285377 31.525831
-16.943514 32.367444
-16.740710 31.775972
-15.159554 30.690475
-15.644330 31.264966
-15.354885 32.956961
-14.627074 31.582000
-11.979873 34.445068
-16.885237 33.715768
-15.831594 38.803058
-12.476704 34.234750
-16.492796 35.526938
-15.483687 37.636068
-12.699203 33.531437
-15.237815 35.801822
-14.463977 40.226301
-13.666354 37.866248
-14.080104 38.722342
-15.669737 43.976249
-16.768293 41.078923
-15.656962 44.315577
-17.450269 47.078261
-9.060154 42.133094
-12.223227 47.493020
-6.999831 47.055892
-8.740596 44.618242
-8.578066 49.339843
-8.029303 54.047953
-10.858136 49.477977
-9.564818 54.359743
-4.409660 50.863907
-8.215614 46.643694
-6.652278 50.560033
-5.697065 51.088622
-6.717877 54.976433
-7.698809 59.666475
0.061759 63.440987
-2.674140 63.357914
-4.643364 63.378377
3.120861 64.314091
2.750210 60.059540
9.617649 67.719385
1.904420 64.639694
18.785064 67.258161
8.294033 70.119841
14.122605 70.556815
19.235000 60.468642
13.887640 63.123850
15.359621 65.739273
15.050371 60.317973
22.046290 55.343793
16.416841 70.766109
19.982285 61.823777
29.741146 74.839923
29.365633 69.441038
27.107298 75.262831
29.267448 59.984121
34.352830 68.871707
43.087848 64.654292
32.888325 66.585190
48.199573 61.410251
49.362115 75.821541
49.231534 63.220049
41.148936 60.218462
59.892940 51.836876
33.898460 56.489841
31.894921 58.334684
66.355051 51.638891
48.184192 64.082552
57.882534 65.999183
70.557791 38.789902
75.117950 47.834311
39.767568 74.901066
82.006124 29.767032
62.585273 46.720755
44.266494 69.758184
94.563038 30.574662
98.750322 10.735228
73.733192 55.682256
59.686455 10.456920
51.215399 -1.461088
55.944704 92.829042
32.282435 4.499860
74.646217 -4.889555
43.282638 47.173876
82.218494 -9.425181
80.933081 -25.188384
48.795554 30.195613
-11.871575 12.260219
31.482418 116.980846
128.604542 -6.210398
42.272534 152.787731
-65.179002 -97.952207
95.897216 106.967435
-131.154051 -146.687291
216.068489 103.503218
-62.504594 128.901992
99.619988 337.208876
756.750577 21.040788
144.447780 -210.695366
-363.790131 721.329962
-1716.936514 1139.612923
-3733.203461 -3162.155292
