3893.476074 4357.249458
-3043.784778 198.487072
-12.879046 34.167035
282.295779 -38.577108
30.219359 39.804244
-53.242509 -2.869848
-23.674642 -78.803435
-13.904592 12.009029
30.606762 -14.100746
4.957697 -21.852899
-11.618811 -8.770895
-0.565698 -1.524093
-6.047835 -23.586030
-8.451186 -7.664960
1.295299 -5.563067
8.239192 -12.153867
-1.150139 3.777425
-8.770467 2.403178
0.094017 0.061440
-16.423367 -7.420172
-3.869977 -5.977616
-9.204180 -0.188991
-2.426117 -6.572639
-5.291587 -1.916657
-0.775039 -0.290038
-0.405279 -1.047910
-2.742563 0.503146
-3.656002 -0.163731
-0.951201 2.459862
-2.005968 -2.053578
-2.651325 3.068355
-3.564059 0.766611
1.117287 1.750262
-3.505886 -0.865331
-1.665605 3.157840
-2.343243 1.664637
-0.572916 -1.825060
-0.995906 0.107734
0.430082 1.713040
1.635451 -0.011199
-1.510380 0.991207
0.076690 0.745584
0.114527 2.760167
-0.136491 -0.643788
-0.112907 1.166828
-0.261795 0.172334
0.787313 0.897612
-0.037471 -0.278327
-0.616611 1.333931
0.508022 -0.415518
-0.597747 -0.744744
0.622401 -0.750453
-0.587522 0.045881
1.539952 -1.040999
0.055429 0.031541
0.880403 -0.094752
0.555131 0.558827
0.016811 -0.337209
-0.455762 0.420300
0.298445 0.725158
-0.000707 -0.128156
0.260140 -0.030826
-0.702572 0.071935
0.426454 -0.044282
-0.787750 -0.236467
0.123102 0.351789
-0.395376 -0.009636
0.627245 -0.528176
-0.034107 -0.030375
0.530962 0.432719
-0.293676 -0.117106
0.038315 -0.338566
0.136174 0.191885
0.199933 0.324557
0.146356 -0.945682
-0.089439 0.177513
-0.136247 0.207419
0.172008 0.078698
-0.043779 -0.525997
0.468258 0.901677
0.294182 0.221476
-0.702758 -0.250928
0.060840 -0.134190
-0.089775 -0.092137
0.363206 -0.054198
-0.291618 0.110455
-0.223351 0.183488
0.098401 0.277945
-0.192642 -0.539010
-0.279302 0.246728
0.481509 -0.129345
-0.037694 -0.246377
-0.283971 -0.726828
0.467943 0.126385
0.156025 0.133593
-0.376644 0.308963
-0.177806 -0.135069
0.117995 -0.323550
-0.028863 -0.167818
-0.187224 0.092232
0.138707 0.205880
-0.240878 -0.055453
0.096238 -0.526748
0.107133 0.056381
-0.350382 -0.096812
-0.277217 -0.169378
-0.115364 -0.548376
-0.153733 -0.234772
0.503555 -0.029821
0.032397 0.320587
-0.313715 -0.447186
0.203296 -0.175949
-0.220167 -0.383699
-0.203593 0.353407
-0.247879 -0.560842
0.160253 -0.029767
-0.213092 0.084145
-0.292221 0.304075
-0.141432 0.296400
0.000524 -0.152544
-0.342674 0.035005
0.041905 -0.083018
-0.232241 0.056001
-0.500516 -0.076875
-0.025984 0.246870
0.088150 0.273426
0.108028 -0.224792
0.221891 -0.081255
-0.202595 -0.383442
0.216080 -0.063854
0.138567 -0.047969
0.025779 0.301142
0.251818 -0.071542
0.269598 0.038527
-0.059745 -0.187979
0.252937 0.031092
-0.318413 -0.200171
0.062564 0.261306
-0.429369 0.235381
-0.248100 -0.309354
0.178161 0.172669
-0.116702 -0.191401
0.089743 -0.402166
0.013930 0.060565
0.236974 0.238095
-0.010261 0.311613
0.052100 -0.162600
0.216783 0.104487
-0.073466 0.381256
0.326477 0.250297
0.554781 -0.173258
0.176662 0.107981
0.159498 0.322947
-0.296214 0.397202
-0.009408 0.272218
-0.010994 0.004113
-0.063218 0.065905
-0.074903 -0.089521
0.232077 0.069686
0.029019 -0.551255
-0.049630 -0.068434
0.091129 0.428213
0.056185 0.119395
-0.433246 0.137337
0.087270 0.319175
0.455609 0.073708
-0.459252 -0.292752
0.263804 0.288138
0.147053 0.380722
-0.178783 -0.136420
0.029191 -0.049564
0.078898 0.068438
-0.113460 0.310143
0.149229 0.133682
-0.037527 -0.212581
0.180962 0.250291
0.390882 -0.129250
0.006973 -0.403244
0.156841 -0.280434
0.384095 0.071032
-0.116617 0.299322
-0.250974 0.198164
0.141587 0.025430
0.241443 0.258149
-0.197199 0.034809
-0.147043 0.147043
-0.049960 -0.314436
-0.147348 0.056293
-0.340589 0.194066
-0.337432 0.117904
-0.124836 -0.248115
0.140218 -0.192913
-0.247491 0.239482
-0.244045 -0.085941
0.201789 0.036561
-0.090295 -0.071504
-0.151880 -0.166584
0.157720 -0.364465
-0.187348 0.329892
-0.105658 -0.204859
0.203732 -0.160396
-0.019368 0.211831
-0.112193 0.012699
-0.001428 -0.189657
-0.012441 0.201697
-0.096228 -0.004352
-0.309604 -0.288740
0.215238 -0.140670
0.040863 -0.051440
0.170597 -0.017322
0.047909 -0.005608
-0.186030 -0.129050
-0.266021 -0.051795
0.047366 0.056978
0.038449 -0.104185
-0.094949 -0.363111
0.000573 -0.095722
0.057317 -0.177491
0.111291 -0.226234
0.048434 -0.230214
-0.049041 -0.324123
0.034198 -0.109545
-0.005767 -0.162258
-0.001923 -0.009736
0.288493 0.193499
-0.133485 0.069161
0.071221 -0.212824
0.014037 -0.152065
0.261421 0.043225
-0.343420 0.097817
0.133598 -0.195318
-0.131997 0.091141
0.032832 0.175915
0.035238 0.171572
-0.122270 0.056649
-0.060260 -0.018966
0.107841 0.067897
-0.161252 0.086959
0.079834 0.016685
0.089039 -0.267823
0.063912 0.031782
-0.193369 0.167312
-0.202203 0.210833
-0.142800 0.014590
0.006823 0.206305
-0.113193 -0.050976
0.405310 -0.211544
0.069084 0.040784
0.252580 -0.286738
-0.067021 -0.015740
-0.066591 0.211785
0.038810 0.236160
-0.095631 0.190379
-0.079490 0.043572
0.369595 0.087167
0.000554 -0.197425
-0.292484 -0.177446
-0.094256 0.027042
-0.116310 -0.244434
-0.100127 -0.168156
-0.127858 0.095273
-0.114857 -0.335120
0.263916 -0.161374
-0.298734 -0.085043
-0.155417 -0.219623
0.157826 0.033005
0.060230 -0.053600
-0.319787 -0.254207
-0.143449 -0.016346
0.158011 -0.381167
0.189249 0.027424
-0.116974 -0.131484
0.077520 -0.059073
-0.034211 0.239922
-0.074769 -0.132003
0.042464 -0.338613
-0.034759 0.042108
0.337529 -0.530544
0.395087 0.193255
0.090894 0.119041
-0.064920 -0.006109
-0.082168 0.105006
0.097028 0.072189
-0.238636 0.256230
-0.015833 -0.111128
0.152303 -0.409802
-0.115509 0.082663
0.112002 0.159587
0.117936 0.105377
0.005504 0.054933
0.212845 -0.006192
0.058983 0.029222
-0.275653 0.447231
0.000278 -0.148697
-0.021003 -0.176905
0.029923 0.066235
0.054104 0.046073
0.096359 -0.016264
-0.095823 0.018621
-0.571261 -0.276836
0.030909 -0.124100
-0.001114 -0.187590
-0.136784 -0.461089
-0.121921 -0.132925
-0.001194 -0.571213
-0.111304 -0.249090
-0.108840 0.041688
0.310027 0.205650
-0.148290 -0.032831
-0.157303 -0.089370
-0.045180 0.126985
-0.142035 -0.081763
-0.086257 -0.266218
0.051664 0.071122
-0.154231 0.306811
0.057704 0.269733
-0.019212 0.306379
-0.140504 0.276616
-0.119661 -0.151056
-0.056410 0.069085
0.382306 -0.119902
0.048514 0.050455
-0.303715 0.007266
-0.064282 0.392713
-0.002568 0.092057
-0.215482 0.015341
-0.098332 0.083830
0.003978 -0.070537
-0.192743 -0.193797
-0.173024 -0.118130
0.139319 -0.034372
0.153124 -0.056104
-0.247806 -0.152487
-0.323383 0.128138
-0.065549 0.174111
0.052974 0.194426
-0.111515 0.078911
0.105811 -0.035298
0.072441 0.077505
0.156579 0.001727
-0.318806 0.174440
-0.324435 0.113000
-0.107909 0.402559
0.058028 0.091718
0.180438 0.171033
-0.004405 0.200262
-0.158021 -0.097572
-0.217135 -0.115838
-0.033618 0.242371
0.291229 0.174590
0.016873 0.116232
0.283569 0.025314
-0.120321 -0.145074
0.073962 0.218244
0.122664 0.205876
0.118868 -0.006887
0.123737 0.165739
0.354713 0.200266
-0.234684 -0.132214
0.085614 0.016771
0.454742 0.057845
-0.381681 -0.157178
-0.222360 0.153388
0.362950 0.072025
0.120407 -0.140928
-0.286017 -0.102450
-0.096452 -0.216913
-0.002496 -0.204649
0.052228 -0.080316
0.054454 -0.096794
-0.000000 -0.147043
-0.011278 -0.037715
-0.052941 -0.043590
-0.085404 -0.061927
0.044232 0.231150
0.082141 -0.095921
-0.396866 -0.073603
-0.164558 -0.000872
0.219645 -0.046192
-0.134546 -0.230165
-0.208739 -0.027999
-0.250367 0.089186
-0.079794 -0.076952
0.275074 -0.091438
-0.118525 -0.031672
-0.021138 -0.297674
-0.188290 -0.217230
-0.009949 0.259239
-0.316869 0.043940
0.210445 -0.424334
0.021918 0.032817
0.185884 0.193137
-0.359264 -0.133752
-0.137698 0.021041
-0.025472 0.106552
-0.181950 0.098148
0.053924 -0.016736
0.061158 -0.045109
-0.101403 -0.306489
-0.090635 0.080590
-0.179400 -0.107968
-0.097407 0.411597
-0.160974 0.207971
0.318449 -0.027630
0.134443 -0.135081
-0.146749 0.031265
-0.398334 -0.103645
-0.027205 -0.125516
0.337607 0.074672
-0.003476 0.039418
-0.125414 0.232200
0.233044 0.212420
0.139009 -0.048732
-0.195375 0.044410
0.257855 0.088289
0.199935 -0.045502
-0.174148 -0.090575
-0.112014 -0.108234
0.232355 0.013352
-0.013440 -0.123114
-0.201771 0.160171
-0.005994 -0.163855
0.334493 -0.105456
-0.091639 -0.422819
-0.218740 -0.335880
0.098419 -0.443601
0.068839 -0.250970
0.144016 -0.160403
-0.022395 -0.016860
-0.310745 0.031580
-0.020006 0.078556
0.074325 -0.101284
0.040309 -0.385311
0.241258 0.154204
-0.298082 0.371754
-0.209881 -0.055953
-0.169242 0.227165
-0.012712 0.231746
-0.168848 0.497516
-0.233070 -0.134766
0.061228 0.179265
-0.285511 0.237464
-0.000383 -0.167267
-0.252736 0.193032
-0.026021 0.239335
0.012087 -0.208022
-0.059949 -0.327085
0.019927 0.213130
-0.304668 -0.192997
0.048633 0.071944
0.121916 -0.203644
0.075295 -0.332722
0.014502 0.047506
0.041608 0.080816
-0.055326 -0.113622
0.093313 -0.133989
0.163489 0.098107
-0.082252 0.257824
0.075257 0.155589
-0.463789 -0.210067
-0.047888 -0.114965
0.151165 0.064838
-0.062627 -0.162678
0.129271 0.377249
0.203499 -0.281100
0.259583 0.213705
-0.412599 0.291073
-0.161119 -0.359480
0.399482 0.079155
0.065670 0.084429
0.010678 -0.001228
-0.098717 0.361768
0.216433 0.141787
-0.003527 0.420346
-0.168713 0.160000
-0.203249 0.238331
-0.272722 0.342275
-0.197288 0.054908
-0.073201 0.049319
-0.326317 0.277645
-0.114654 -0.041144
0.157457 -0.079062
-0.263045 0.127083
-0.091557 0.113378
0.094714 0.366141
-0.000050 0.096926
0.048914 -0.037237
0.126990 0.145232
0.272589 -0.278433
-0.115698 0.029176
-0.290188 0.018006
0.110239 0.007628
0.161316 0.211928
-0.032818 0.224922
0.263103 0.156036
-0.048114 -0.082093
0.091683 -0.249433
-0.105254 -0.130048
-0.180740 -0.176363
0.063884 0.101994
0.214932 -0.070644
-0.200442 0.183076
0.223914 0.070960
0.006265 0.158636
-0.043698 -0.120947
-0.165178 -0.024794
0.174973 -0.332326
0.009554 0.068782
-0.156445 0.037506
0.011578 -0.354124
0.388703 -0.157557
-0.250834 0.152731
0.223975 0.285384
-0.056977 -0.053453
0.410267 0.102377
-0.024283 0.048771
0.238723 0.133987
-0.323442 0.042342
0.107371 -0.088438
-0.003708 0.123298
0.079384 0.377565
-0.046424 0.054230
-0.096445 -0.013430
0.186873 0.209038
0.324917 -0.011811
0.141077 -0.044054
0.018527 0.247774
0.101268 0.059262
-0.059655 0.234005
0.000370 -0.146509
0.189168 0.158054
-0.202219 0.218216
-0.092130 0.140131
0.254043 -0.055858
-0.210255 0.106871
-0.263371 0.014550
-0.364463 -0.361789
0.156087 0.036554
-0.103018 -0.118502
0.076901 -0.487660
0.032562 0.026103
0.093358 -0.129394
-0.088979 -0.154206
0.320186 0.421882
-0.008849 0.208859
-0.355728 -0.073561
0.052636 0.039628
-0.205378 0.409777
-0.352189 -0.261838
-0.181732 0.048522
-0.489089 -0.305168
-0.002182 0.049608
-0.288218 0.222001
-0.371151 -0.194720
-0.662912 -0.112305
0.220564 -0.220564
0.087636 0.302955
-0.325466 -0.244496
-0.020313 -0.213695
0.165162 -0.446723
0.031826 -0.133389
-0.080859 0.620495
0.135706 0.000591
0.019307 0.217963
0.138075 0.317602
0.179513 0.018073
-0.075585 -0.268813
0.359418 -0.219523
-0.110562 0.185777
0.044490 0.165706
0.157060 -0.017259
-0.363506 -0.022561
-0.168723 0.065405
0.196712 -0.018627
-0.070189 -0.279855
0.048112 -0.169202
0.004165 0.109691
-0.083886 -0.150087
-0.028350 -0.481418
-0.098780 0.089752
-0.020793 0.067231
-0.071823 -0.196928
0.212772 0.041122
0.499796 0.550680
0.107619 -0.038929
-0.348202 -0.208971
0.100607 -0.024875
-0.291765 0.019706
0.030482 0.103047
-0.034834 -0.271509
0.255253 -0.414063
0.123038 -0.076548
0.265948 0.068551
0.471114 -0.155113
-0.297669 -0.137622
-0.263396 -0.174980
0.265687 0.055250
0.207885 -0.082368
0.178889 0.106374
-0.094708 0.172056
0.323432 0.148395
-0.003291 0.458662
-0.199366 -0.045107
0.147263 0.206286
-0.429019 0.405043
-0.141440 -0.086163
0.134642 0.271533
0.588778 0.097317
0.318049 -0.006376
0.021319 -0.146963
0.495307 0.136451
0.173502 0.238637
-0.295965 0.503269
0.541353 -0.077816
0.280169 -0.052373
-0.020036 -0.389429
0.416295 -0.157901
0.127642 -0.274452
0.110849 0.015649
-0.082876 0.267656
0.094029 0.088611
0.078620 -0.217481
-0.115443 -0.435749
-0.164833 -0.181123
0.224214 -0.295520
0.198923 -0.452565
-0.388232 0.610754
0.167791 -0.193640
-0.437588 0.406773
-0.161554 -0.671460
-0.309171 0.083656
0.301999 -0.685419
0.311418 0.280578
-0.327716 -0.574489
0.326560 -0.170265
0.006108 0.229422
-0.737363 0.606952
-0.203826 -0.200560
-0.045545 -0.206335
0.107062 -0.324425
-0.476274 0.065991
0.038567 0.216327
-0.454005 0.042136
-0.218515 -0.309536
-0.464671 0.384889
0.062084 -0.162648
-0.704185 -0.062046
-0.369332 -0.091842
0.180236 0.019153
0.356851 0.115112
-0.431577 0.541179
-0.090904 0.579659
-0.240364 -0.444753
-0.170465 -0.149923
-0.781733 0.207917
0.555211 -0.141171
0.008585 -0.284544
-0.742922 0.611119
0.445572 -0.180280
-0.177006 -0.113634
0.340060 -0.040063
-0.123567 0.292300
0.406002 -0.527255
0.124381 0.041218
-0.398374 0.009104
-0.007056 0.563721
0.119647 -0.127009
-0.554487 0.039807
-0.250593 0.259403
-0.076307 -0.671456
-0.033777 -0.747441
-0.550260 0.179690
0.410754 0.010994
-0.423871 -0.637845
0.340284 -0.669531
-0.193217 0.558237
-0.620692 -0.168528
-0.700650 0.216211
-0.526189 0.255184
0.398444 0.158443
-0.817947 0.956059
-1.232773 -0.168181
-0.827874 1.031183
-1.358899 -0.902193
-0.005337 0.583773
-0.864334 0.362420
0.616794 0.497468
0.020833 0.573268
-0.466484 1.186301
0.687947 1.874785
-0.941503 1.139866
0.399684 1.241878
-0.791684 1.088845
1.676760 0.388626
-0.341974 1.789534
0.449037 0.723769
1.142501 2.200237
0.213719 0.302864
-0.651978 1.381142
0.413487 0.692062
0.815083 -1.604902
2.103945 0.456985
0.837242 1.241745
3.747152 1.425401
0.182339 -0.700335
1.206567 0.936541
-0.593736 0.827200
2.135106 -1.450013
-0.554491 -2.033304
1.203168 0.409737
2.341039 -2.024766
0.177654 -2.219062
0.312776 -2.645251
1.135286 1.609135
2.895906 -5.594736
0.437643 1.084525
-0.597032 -5.059669
2.369811 -0.307852
-0.790341 -2.883636
-4.081595 2.743542
-2.757062 2.637018
-9.787864 -3.942204
-5.050505 -4.707041
-8.415733 2.012855
4.692675 -12.904424
-2.615706 -6.595959
0.629168 0.519674
-6.201511 5.859577
-10.368091 -3.082334
-18.294742 8.429365
8.347282 -7.305488
4.056375 -3.160284
-22.545617 10.389404
-25.069718 11.381460
10.131719 20.279859
-29.397329 -27.903032
-27.743322 48.647654
-61.195355 -15.954522
-38.313052 -120.938456
590.882379 53.655924
