3852.134763 4172.222746
-2994.780064 110.292461
-58.060521 42.671636
200.095652 -25.855178
11.900792 44.227030
-44.711339 -18.480413
-18.472913 -66.927097
-24.396911 23.460854
10.526567 0.545128
-2.396904 -11.668792
-11.744594 -11.485380
-1.078763 3.121786
3.394818 -13.839924
-14.098164 -0.687569
-5.678891 -5.153116
8.365242 -9.299036
3.583667 -0.860234
-7.182787 6.467211
4.334510 -0.187731
-7.344318 -2.111643
-0.804755 -10.235938
-2.254372 -0.464006
1.171723 -8.445946
-0.280931 -1.629502
-1.300739 -1.516360
-0.709759 0.970509
-1.617455 -3.208856
-1.945146 -3.089061
0.715166 0.486923
1.618050 -0.851537
0.175236 0.009393
-3.060792 1.849961
0.233278 2.862691
-2.505812 -0.924585
-1.788149 -0.295049
-3.060911 0.489491
0.735399 -1.112646
-0.312674 -1.106354
-1.615364 1.870493
-0.371417 0.985326
-0.271568 -0.077635
-0.330621 -0.951948
-0.418227 1.807313
-0.774691 -0.080990
0.050123 0.262280
-0.443721 0.217043
-0.387853 1.754606
-0.417662 -0.217023
-0.953684 0.011215
-0.266585 0.605966
-0.435527 0.814099
0.196258 0.073644
-0.760073 0.578515
0.632136 0.654889
-0.428369 0.825588
-0.674261 -0.098788
-0.762198 0.535933
0.724173 0.269410
0.395467 -0.050250
0.505634 0.587340
-0.549003 0.608395
-0.037318 -0.068188
-0.706580 -0.404419
0.135481 0.417950
0.023274 -0.093685
0.153388 0.137372
-0.372513 -0.234619
0.434518 0.023005
0.540052 -0.367379
0.355416 0.440517
-0.242194 0.849583
0.305955 0.379654
0.382244 -0.400534
-0.442953 0.487336
0.174633 -0.191968
-0.006123 0.260094
-0.380469 -0.449154
-0.181883 0.308751
0.540382 -0.588440
0.667196 -0.411470
0.493103 0.064847
0.603491 0.420164
0.402091 -0.060773
-0.125946 -0.090069
0.223877 -0.060610
0.064833 0.164106
0.144321 -0.428115
-0.732093 0.006526
-0.066111 -0.025688
0.368183 -0.519772
0.417516 -0.250396
0.268379 0.780616
-0.400041 -0.264634
-0.159268 -0.437591
0.094974 0.381279
0.022860 -0.188876
0.055873 -0.075256
0.173130 -0.390140
0.111295 0.228499
-0.634648 0.230737
0.040422 -0.234578
-0.441827 -0.024561
-0.084662 -0.251627
0.230300 0.207183
-0.164263 0.036918
0.039463 -0.154727
-0.146820 -0.104970
-0.622502 0.102547
-0.487131 -0.697524
0.263762 -0.276579
0.151588 0.053131
-0.318820 -0.007691
-0.401255 -0.071546
0.194448 0.296751
-0.218525 -0.144315
0.076556 -0.267838
0.048199 -0.104984
0.154995 -0.272826
-0.314056 -0.165717
-0.209878 -0.241292
0.045758 0.345120
-0.097941 -0.035075
0.377727 -0.209285
-0.141631 -0.146920
0.292064 -0.388257
-0.111246 0.214775
-0.517026 -0.261863
0.124879 0.130878
-0.345746 0.090271
-0.108913 -0.167118
0.182406 -0.254581
0.232590 0.093695
-0.417018 -0.045726
-0.180845 -0.358874
-0.113675 -0.397537
0.224984 -0.191682
0.151562 0.344404
0.470609 -0.031309
0.120617 0.129895
0.071305 0.201108
0.024766 0.246235
-0.101110 0.378049
0.202869 -0.274441
-0.025600 -0.074545
-0.438803 0.043650
0.341519 0.077529
0.130189 0.484726
0.148154 0.292519
-0.239442 0.003663
-0.104208 -0.198105
0.170469 -0.050872
0.104200 -0.041657
0.107208 -0.271527
-0.376772 0.495215
0.046643 0.411308
-0.180482 -0.083989
-0.536801 0.119414
0.295873 0.189315
-0.037809 -0.355024
-0.625698 -0.026562
-0.185983 -0.096369
-0.242681 -0.108602
-0.078467 -0.617455
0.058244 -0.263313
-0.041352 0.245420
-0.144594 0.203223
-0.270387 0.131732
-0.138801 -0.179988
0.072272 0.005168
0.456763 0.103725
0.334709 -0.124238
-0.373849 0.121552
0.217064 -0.065855
-0.144752 -0.213113
-0.102501 0.287954
0.087656 0.151447
0.003032 -0.087080
0.096090 0.124295
0.195467 -0.098697
0.024849 0.041942
0.011742 -0.364957
-0.231898 -0.262963
0.007319 -0.164283
0.225801 -0.034703
-0.043181 -0.132259
-0.159131 0.034264
-0.446653 -0.224695
0.127744 0.014132
-0.172491 0.312371
-0.259643 -0.032135
-0.025239 -0.222169
-0.108931 0.014646
-0.067044 0.060140
-0.046562 0.026443
-0.155390 -0.008495
-0.031650 -0.050537
0.187874 -0.234258
0.135806 0.200850
0.043672 0.144672
-0.028535 -0.142478
0.056390 -0.203608
0.212319 -0.024796
-0.030952 0.089324
0.027295 0.309036
0.082573 -0.094525
-0.261370 -0.398623
-0.077236 -0.168503
0.063402 -0.319360
0.240049 -0.114110
0.098101 0.074129
-0.418036 -0.014140
-0.218713 -0.183395
0.020618 -0.043597
-0.075876 -0.002920
0.187166 0.343111
0.071794 0.080834
0.014091 0.210546
0.015188 -0.097294
0.062451 0.209088
-0.102635 0.051259
0.030660 0.100747
0.004900 0.131972
-0.252638 0.428666
-0.311494 0.133454
-0.121280 0.069981
-0.345391 -0.089361
-0.097137 -0.065492
-0.168295 -0.147919
-0.171865 -0.073817
0.310145 -0.155881
-0.006921 -0.140101
0.028392 -0.179402
-0.176658 0.002575
-0.121829 -0.187490
-0.007759 0.190706
-0.335950 0.089412
0.096105 0.077340
0.101618 0.193384
0.205753 0.155083
0.349779 0.034043
-0.040212 -0.010288
-0.232654 0.187998
-0.042082 -0.231885
-0.367598 -0.054464
-0.115155 0.070931
0.228366 0.338545
-0.174312 -0.040113
-0.068600 -0.035546
-0.082086 0.077388
-0.093981 -0.215454
0.006721 -0.136175
-0.301015 0.050951
-0.014815 -0.084956
0.145267 0.107493
-0.104293 -0.215041
-0.118274 -0.053820
0.003832 0.140039
0.233128 -0.140747
0.205932 0.223840
-0.290018 0.091399
0.234460 -0.061877
0.297926 0.504250
-0.194719 0.241056
-0.239130 -0.093303
-0.123747 -0.119729
0.190094 -0.222102
0.122182 0.041247
0.023482 -0.093016
0.024020 0.154255
-0.214101 0.090036
-0.186190 0.009118
-0.037898 -0.002291
-0.055873 -0.006799
0.073658 -0.438078
-0.054929 0.010789
-0.090969 0.110829
0.187196 0.108226
0.025367 0.117028
-0.006479 0.147103
-0.033962 -0.075004
-0.381724 0.141461
0.049374 -0.105648
0.139437 -0.155968
-0.024854 -0.046946
-0.011290 0.324865
0.176931 -0.280978
0.219913 0.299618
-0.278131 -0.226374
-0.051422 0.069238
0.019669 0.111586
0.185269 -0.099153
-0.231196 0.003648
0.519660 -0.043730
0.138330 -0.265648
-0.297762 0.313975
-0.019625 0.195747
-0.063610 0.113982
-0.199842 0.021570
0.044893 0.054981
-0.050832 0.091377
0.323728 0.015189
0.375176 -0.107704
-0.088130 0.357099
0.018074 -0.152298
-0.193353 0.182377
-0.087225 -0.131561
0.123627 -0.052658
-0.271547 -0.133271
0.007856 0.355819
0.280033 -0.022364
0.081216 -0.029704
-0.139656 0.067975
-0.092043 -0.102246
0.082023 -0.307182
-0.052064 0.009793
0.100457 0.078240
0.048734 0.165349
0.138061 -0.074159
-0.465337 0.276602
-0.207112 0.455093
-0.094273 0.039701
0.044785 0.094921
-0.028524 -0.036828
0.005828 -0.075917
-0.098750 -0.293118
0.475035 -0.140151
-0.606876 0.005804
0.077691 0.101288
-0.142474 0.048858
0.335532 0.035077
-0.041837 0.080530
0.083544 -0.367002
0.020544 -0.229116
-0.128262 -0.235190
-0.206788 0.111870
0.226714 -0.171039
0.217477 0.006219
0.185321 0.172665
-0.366429 -0.218738
-0.273762 -0.166766
0.290118 -0.017049
-0.175475 -0.018632
-0.059437 0.286081
0.108200 -0.153512
-0.084128 -0.157666
0.102836 0.195873
0.685666 -0.013084
-0.254192 -0.015529
-0.126462 0.303129
-0.060522 0.438197
0.116773 -0.050734
-0.120892 0.185375
0.100839 -0.012400
-0.233923 0.123044
-0.056864 -0.111029
0.125676 0.021001
0.063366 0.060064
-0.156324 0.183648
0.014050 -0.514176
0.045054 -0.039756
-0.131473 0.184760
0.191886 -0.137858
-0.157233 -0.435006
0.141295 -0.060252
0.109075 0.258504
0.249858 -0.081027
0.222134 0.086024
-0.010345 -0.225659
-0.023725 0.138484
-0.095181 0.023717
-0.244420 0.323802
0.101669 0.068840
0.205792 -0.117571
-0.140996 0.045252
0.198855 0.081263
0.098475 -0.163761
-0.106642 0.466715
0.057160 -0.088686
0.161227 0.328306
0.107004 0.183171
0.097016 0.130057
-0.244287 -0.415433
0.424205 -0.119866
-0.310254 0.062945
0.079190 0.181858
-0.266431 0.274217
0.207878 0.082340
0.233663 -0.050267
-0.119528 -0.348065
-0.082153 -0.178699
-0.194318 -0.131265
-0.146050 -0.046457
0.042258 -0.302243
-0.182177 -0.300257
-0.015039 0.276069
0.151703 -0.121882
-0.098021 -0.203081
-0.016004 0.220079
0.204511 0.078827
0.092253 -0.117543
-0.166941 -0.003731
0.101318 -0.038979
0.033589 -0.063234
-0.040383 -0.075852
-0.530271 0.090852
-0.135237 -0.145986
0.302739 -0.067122
0.052206 -0.274771
0.241418 0.043598
0.166784 0.026575
-0.088682 0.077042
0.104156 0.091265
-0.269237 -0.424367
-0.331632 -0.361647
0.233186 0.035170
-0.073004 0.079248
-0.141162 0.089187
0.036528 -0.160366
0.147197 -0.141200
0.385752 0.294629
-0.301191 -0.055469
-0.097411 -0.048741
0.073348 0.124486
-0.029011 -0.296830
-0.093819 0.443232
0.209876 -0.196464
0.098945 0.103563
-0.436355 -0.181438
0.133307 -0.107193
-0.017272 0.044631
0.210100 0.401705
-0.243621 -0.153150
-0.033857 -0.240850
-0.068732 0.081253
-0.179726 0.021132
0.213504 -0.243091
0.117961 0.294975
-0.267894 0.054403
-0.026452 0.244694
0.034927 -0.216377
-0.112772 0.048880
-0.029512 -0.043033
0.023842 0.262439
-0.254588 -0.144092
0.095590 0.168578
0.182016 -0.059520
0.161006 -0.004010
-0.223942 0.095782
-0.263833 -0.225324
0.185415 -0.186245
0.094019 -0.352106
0.572670 -0.239837
-0.228431 0.476375
-0.079933 -0.182831
0.229788 0.168108
-0.155326 0.114529
-0.187154 -0.220316
0.039366 0.032828
0.064669 0.083508
-0.008498 0.207176
-0.447563 -0.030440
0.011402 0.035944
0.231176 -0.013702
0.119584 0.000403
-0.274276 0.008420
-0.261264 0.126111
-0.330679 -0.379758
0.037120 -0.142831
-0.212672 0.156796
0.125566 -0.005293
0.509073 -0.202937
0.034536 0.205685
0.011811 -0.154642
0.062539 -0.212797
-0.274514 -0.243634
0.022351 -0.004322
-0.371455 0.056017
0.013511 0.115748
0.154117 0.131124
-0.118168 -0.056698
0.167229 0.265786
0.082737 0.164138
-0.025936 0.209175
-0.376253 0.168729
-0.315275 0.019492
-0.266532 -0.226741
-0.258498 -0.116262
-0.110700 -0.160793
0.112564 -0.395400
-0.109065 -0.081551
-0.221141 0.030723
0.195550 -0.194044
0.126477 0.061653
0.142838 -0.198221
-0.013903 0.068496
0.013206 -0.310718
-0.047077 0.031025
-0.125459 -0.185062
-0.000958 0.148595
-0.173438 0.094410
0.147786 -0.124675
-0.139912 0.233739
0.143431 0.375738
0.289563 0.141733
-0.265676 0.268841
-0.105047 0.097479
-0.076539 -0.180602
0.133421 -0.004976
0.212949 0.010614
-0.024591 -0.272730
0.156670 0.050235
0.188371 0.155173
0.091744 0.067932
0.111333 -0.019833
0.196907 -0.143198
-0.271713 0.199683
-0.276048 -0.007459
-0.019158 -0.186564
-0.045530 -0.109872
0.075838 0.101159
-0.186833 -0.212208
-0.149758 -0.232888
0.001024 0.284505
-0.219239 0.124965
-0.102952 -0.041789
-0.503073 0.045414
-0.022258 -0.231170
0.341763 0.098955
0.128964 0.503488
-0.336189 0.154323
-0.213212 -0.344983
0.425349 0.394313
0.215742 -0.141102
-0.223323 -0.014700
-0.068489 -0.008739
-0.101419 -0.437644
-0.330511 -0.189195
0.439702 0.317221
-0.305260 0.273276
-0.111027 -0.302675
0.287180 -0.185787
0.248586 0.181848
-0.131520 0.021056
-0.448030 -0.433792
0.090230 0.080685
-0.147124 0.325339
-0.153101 0.169143
-0.345633 0.240023
-0.692137 0.024869
0.105409 0.412331
-0.164003 -0.059045
-0.351943 0.139900
-0.276996 0.195192
-0.014771 -0.204356
0.092127 0.118113
-0.510821 0.116137
-0.485740 -0.092585
-0.066529 -0.369580
-0.148147 -0.264359
0.335490 0.530363
0.374961 0.252181
-0.101407 0.097795
-0.089603 -0.101488
-0.061159 -0.247375
-0.128889 0.119893
0.042610 -0.050258
0.297069 -0.079162
-0.038408 0.093214
-0.339049 0.186831
0.286628 0.055292
0.365811 -0.262023
-0.041847 -0.360949
0.517629 0.000540
0.249530 0.251775
0.299307 0.196683
0.091886 0.260135
-0.051526 0.267229
-0.036245 0.552885
-0.241907 0.080428
0.079666 0.029565
0.349345 0.063391
0.065551 -0.165657
-0.051825 0.016519
-0.468197 0.123612
0.655358 -0.316036
0.278339 0.945453
-0.180638 0.253441
0.384538 0.113191
-0.299153 -0.426284
0.001876 -0.247364
0.322323 -0.216034
0.420073 0.021374
-0.048243 0.494207
0.077204 0.189448
0.529517 0.337055
-0.548225 -0.061625
-0.077377 -0.535340
-0.125510 -0.197679
0.520192 -0.177578
-0.461692 -0.049319
0.084685 -0.099932
-0.022260 0.660965
-0.254737 -0.381178
-0.287355 0.077958
-0.184910 -0.001000
-0.209718 -0.336290
0.275359 -0.119427
-0.065390 -0.089841
-0.400010 -0.252605
-0.252871 -0.279009
-0.428383 0.091739
-0.475656 -0.108615
0.227827 -0.340048
0.217925 -0.667945
-0.043377 0.427875
-0.169696 0.103230
-0.187526 0.003437
-0.490176 -0.096290
-0.439252 -0.048958
0.117476 -0.440684
0.028622 -0.194916
-0.161587 -0.114001
-0.028649 0.734161
-0.269930 -0.037179
-1.017190 -0.167517
0.113517 0.397412
0.427976 -0.127534
-0.152605 0.034355
-0.566363 0.072625
0.892785 -0.075318
0.141566 0.019421
0.159379 0.268808
-0.212448 0.475059
0.136300 0.330850
-0.625520 0.001612
-0.457987 0.725463
-0.385257 0.138286
-0.013695 -0.001434
-0.236718 -0.763826
0.231907 0.647329
0.020905 -0.238258
0.078741 -0.193003
-0.207671 0.063185
0.961290 1.218698
-0.068294 0.164951
-0.189801 0.320394
-0.187676 0.807804
-0.907334 0.311161
0.073247 -0.234844
-0.466120 0.600193
0.925399 -0.432212
0.146946 0.076184
0.797580 -0.546329
0.082781 1.350486
-0.557507 -0.405893
0.118700 -0.512075
0.032643 0.330179
-0.052657 -0.264269
0.776156 -0.579135
-0.278310 -0.387361
0.357466 0.915500
-1.232313 -0.517961
0.658844 -0.846006
-0.694123 -0.313219
1.271923 -0.710431
0.597760 -0.301883
-0.275807 -0.099616
0.427861 0.782303
-0.357951 -0.335831
-0.239831 -1.777322
-0.116969 0.626545
0.185235 -1.333274
0.316971 -0.841243
-0.874985 -1.553335
0.531811 2.369554
-0.313298 0.494667
-2.429891 -1.363360
-2.742987 -1.368005
0.310328 -1.897847
0.945458 -2.329114
-1.161628 -1.651833
2.097162 1.139614
1.199850 1.904514
-0.192383 -0.709235
-3.449750 1.722779
-0.593944 0.319921
2.122923 1.266901
-2.297350 4.904122
-1.655176 2.825972
-0.010682 5.887434
-5.392700 -4.482491
0.132806 5.113236
-4.094991 -0.280737
4.334930 -6.541413
-4.147524 -3.980915
2.211222 9.324803
-3.879681 7.877273
-8.720212 7.990652
-18.627925 4.065799
13.535190 -6.104186
1.189960 -1.021383
-33.876640 25.134603
-23.655832 1.451750
15.060106 4.412380
-17.523834 -12.532452
-23.171619 46.750615
-62.966050 5.380547
-27.116576 -118.084493
531.102266 40.186353
