11792.862547 8674.571371
-6326.067434 1946.070278
-506.827303 354.064745
-274.947358 20.723362
215.056516 17.677721
-425.420843 103.181256
94.023945 -6.945472
-95.637730 -18.908375
-34.847812 9.964115
-3.728712 5.258607
-66.201534 28.090007
23.738617 8.329791
-35.036657 -13.668593
0.278713 14.578211
-1.695245 -6.231346
-2.373113 2.469106
-16.281892 -1.081844
0.056888 -1.353576
-11.914179 7.405159
-3.785413 -0.263544
5.211929 -2.219944
-10.371362 -9.949997
12.317738 -4.004888
-11.657801 -6.350176
0.031146 0.828562
-7.812731 -6.915451
-0.252494 6.501856
0.004514 -0.855656
-2.126506 -4.796064
-6.001006 -1.306992
4.538482 -7.322914
2.787538 4.643150
-2.944287 -6.776087
3.619122 -0.834068
-2.147559 -6.870881
-1.526746 4.707967
-2.864553 -5.611573
-2.439829 -1.822480
-1.837643 -4.303706
-0.026105 2.815505
-3.416684 0.974072
-0.100500 -5.692059
-3.015949 -3.561413
-0.816520 -1.280589
-0.941031 0.815424
-4.651833 -2.076058
-0.639686 0.251863
0.099265 -2.694146
-0.902686 -0.097151
-0.701559 0.308002
-1.265906 -2.162232
2.243033 3.182238
-0.727112 -0.339116
-2.934053 -0.929022
0.024752 -2.755413
0.353497 2.592798
-0.669514 0.605796
-0.607696 1.483106
-1.998882 0.091652
0.006464 -0.420999
-2.662274 0.431166
-0.173143 0.052078
1.258885 2.102232
2.265500 -1.840666
-3.027142 1.454785
-0.641609 -1.038860
-1.814408 1.741476
2.376544 -1.652370
-0.277868 2.178693
-1.447258 1.181285
-0.834129 0.831841
0.781876 -1.169715
0.564187 1.250129
0.663461 1.337031
0.546665 -0.406692
-1.476630 -0.146898
0.533355 -0.078961
-1.180622 0.731074
1.481458 0.323824
-0.185181 0.119895
0.397905 0.738892
-0.943216 0.381449
-1.634660 1.471366
-0.797163 0.493816
0.905130 -0.723339
0.324471 1.183757
0.300262 -0.449127
0.620200 -0.505649
0.088630 -0.939275
-0.751662 0.268203
0.610797 1.829636
-0.963761 -0.502349
0.170484 0.829934
0.748355 1.083608
0.984954 0.376168
0.594170 -0.987886
-0.056499 0.822988
-0.940813 1.020765
0.375223 0.009440
-0.151902 -0.070496
0.404630 -0.622139
-0.331110 -0.969611
-0.632101 -0.191437
-0.220916 1.180985
-0.214448 -0.097262
-0.533045 -0.007155
0.914508 -0.190000
0.346672 0.465681
0.856829 0.025149
0.597915 -0.844054
1.284074 -0.123981
-0.653498 -0.099909
0.176920 -1.030018
-0.367608 0.070968
0.734217 -1.237317
-0.557101 0.335565
-0.357632 0.539208
0.559882 -1.227074
-0.319386 0.182303
-1.359883 -0.869957
-1.230301 -1.991649
0.580161 0.454153
-0.407959 0.679569
1.092453 -0.444373
-0.113341 0.466474
0.163219 -0.699448
0.474244 -0.347990
-0.728009 1.373083
-1.058716 -0.304049
1.095688 -0.333019
-0.334153 -1.382815
0.251365 -1.079092
1.803265 0.752228
0.602748 0.164000
0.173074 0.289131
0.118186 0.082537
-0.309799 -0.764449
0.746053 -0.227711
0.418550 -0.571485
-0.463336 -0.727900
-0.938940 -0.382868
0.080673 0.159232
-0.238084 0.636502
-0.543167 -1.170712
0.570021 0.319493
0.290895 -0.140103
-0.035789 0.219158
-0.129357 0.098348
0.167670 -0.454608
-1.181469 -0.960968
-0.088750 0.286785
0.423698 -0.106212
0.286793 0.409438
0.016878 0.924105
1.244424 -0.259012
1.210563 -0.150649
-0.552077 0.281413
-0.008923 -0.248858
0.776924 0.157351
0.795981 1.420893
-0.511761 -0.747879
0.070624 0.766944
0.637661 -0.091804
0.228413 -1.083656
0.467960 0.053710
-0.676521 0.089838
0.305426 -1.624280
-1.063380 0.777524
0.033028 -0.942807
-0.085850 -0.067857
0.209424 -0.707156
-0.566581 -0.128304
-0.078530 0.488085
-0.302537 -0.215856
-0.306317 0.783894
-0.314251 0.222276
0.086343 0.244774
0.221153 -0.501306
-0.038816 0.180353
0.033742 0.047200
0.237874 0.398001
-0.296512 -1.008423
0.345394 -0.473482
-0.231296 -0.309504
0.285989 0.536454
-0.374667 0.038563
-0.894894 0.384528
-0.709980 -0.836384
0.159662 0.996183
-0.177916 0.555575
0.183321 0.014971
-0.453423 0.536941
-0.029246 0.619458
0.035459 -0.150983
0.078966 -0.585390
-0.568334 -0.309020
0.062962 -0.129920
0.687129 0.095674
-0.092897 -0.205009
0.159700 -0.755535
0.219079 -0.038473
0.381810 -0.356637
-0.841834 0.184995
-0.194070 -0.217431
-0.033906 -0.560416
-0.408953 -0.155551
0.466836 -0.668607
0.097445 0.230690
0.167540 0.010333
0.458529 -0.285680
0.583978 -0.055118
0.726910 0.232867
-0.155615 -0.466366
-0.443728 -0.099973
0.886042 0.371295
-0.388714 0.246621
0.071404 -0.274967
-0.227030 -0.373191
0.000266 0.955380
-0.429706 0.218383
0.253407 -0.959907
0.090484 0.405002
-0.100287 -0.173160
0.246754 -0.180205
-0.328297 -0.219390
0.420754 -0.179635
-0.105137 0.297519
-0.016461 0.356280
-0.641126 -0.343323
0.398086 -0.558809
-0.659047 0.389188
-0.668305 -0.395780
0.048108 -0.429317
0.252489 0.457491
0.364408 -0.410640
0.125469 -0.035018
-0.102062 0.277970
-0.215825 -0.315264
0.405315 -0.010391
-0.375056 -0.005233
-0.088534 -0.135010
0.148817 -0.120681
-0.496819 -0.188853
0.142613 0.680246
-0.146630 -0.137913
0.018701 -1.177917
-0.591833 0.090090
-0.198764 0.087401
0.269200 0.103738
0.186363 0.221878
0.524782 -0.439500
0.638869 -0.476465
0.069970 0.348116
-0.285887 0.151546
-0.722967 0.002039
-0.326606 0.058623
-0.249407 0.015375
0.093989 0.741678
-0.069907 0.017221
0.298578 0.278924
0.172508 -0.630659
-0.014906 -0.155349
-0.242083 -0.129591
0.424614 -0.300695
0.226408 -0.313489
-0.517795 -0.019130
0.378632 -0.410288
0.107992 -0.613199
0.652844 0.320483
0.155034 -0.266261
0.030810 -0.263708
0.013318 -0.216167
0.393015 -0.013206
-0.334607 -0.195563
-0.063258 -0.729809
0.278910 0.076661
0.073821 -0.335898
-0.143342 -0.026565
0.480632 0.058055
-0.086178 0.294704
-0.131731 0.027708
0.099082 -0.175480
-0.256637 0.092856
-0.098668 0.136334
0.448941 0.276668
0.449881 0.072499
0.376524 0.207543
-0.106639 0.103924
0.209001 -0.367173
-0.018679 0.250585
0.243947 -0.250025
-0.130428 -0.218672
0.131305 0.173250
0.300833 0.224554
-0.608117 -0.093103
-0.423015 -0.026062
-0.581276 -0.171146
0.488679 -0.400660
-0.466676 -0.141459
0.322798 0.002994
-0.037503 -0.224612
0.007736 0.139941
0.030126 0.506806
0.297629 0.266341
-0.020174 -0.039165
-0.272505 0.454001
-0.139570 0.275988
-0.234824 0.246616
-0.064070 0.174196
-0.222977 -0.487236
0.254933 -0.341870
0.129921 -0.076810
0.013216 0.346091
0.246063 -0.001243
0.125652 -0.057530
0.063630 0.148424
0.170164 0.174235
-0.299877 0.359276
0.350167 0.230528
-0.288948 -0.063816
0.004040 -0.169635
-0.156159 0.406705
-0.071700 0.714268
0.007556 0.591846
-0.002868 -0.006446
-0.061646 0.382175
0.017877 -0.238822
0.276501 0.304151
-0.325088 0.099823
-0.304131 -0.110328
0.151347 0.400694
-0.192113 0.041828
-0.340403 -0.272560
0.059992 -0.006791
-0.117125 -0.824757
0.660199 -0.184782
-0.354198 0.355383
0.169520 -0.016646
0.348220 -0.017773
0.017628 0.359921
-0.339264 0.442390
-0.208683 -0.092442
0.088434 0.112868
-0.174583 -0.117749
0.030551 -0.720361
-0.096075 0.222365
0.021549 -0.035218
-0.245503 -0.378630
-0.092445 0.207645
-0.109477 -0.158920
-0.410697 -0.319902
0.248281 0.237125
0.170479 0.475033
-0.328134 -0.015885
0.225402 -0.117273
0.163825 0.473704
-0.195599 0.183210
0.101626 0.060677
-0.161457 0.149783
-0.080593 0.251349
0.622658 0.023090
-0.043986 -0.213015
-0.008785 0.330062
-0.146750 -0.030529
0.135547 0.036291
0.221124 -0.077618
-0.236402 0.007411
-0.050788 -0.235553
-0.552936 0.189335
-0.273231 -0.314397
0.073441 0.294999
0.035904 0.103504
-0.381088 -0.262557
-0.367622 0.086886
0.576012 -0.017797
-0.084290 0.013499
-0.047175 0.062537
-0.539145 -0.132072
0.015416 0.161729
-0.296861 -0.305097
-0.115869 -0.222115
-0.121164 0.120537
-0.347510 0.169676
-0.076381 0.222489
0.061713 -0.040871
-0.021511 0.376263
0.012477 -0.047124
-0.066739 -0.085108
-0.018737 0.204752
-0.150829 0.229999
-0.049379 0.043357
-0.190435 -0.217925
0.160519 0.227300
-0.399218 0.071303
0.227778 -0.110646
-0.050088 -0.132354
-0.110478 0.046242
0.139511 0.094860
0.157448 0.113713
0.444103 0.239498
0.194427 -0.000730
0.091605 0.069309
0.097998 0.113783
0.041027 -0.220260
0.345283 -0.327915
-0.161162 0.259231
-0.049895 -0.103112
-0.015793 0.045640
-0.055724 -0.094370
0.233768 -0.196471
-0.140595 0.078811
0.086864 -0.263682
-0.106757 -0.282781
0.103338 0.157377
-0.084905 0.032554
0.211352 -0.147334
-0.265468 -0.336120
0.363291 -0.105739
-0.175273 -0.494976
0.107508 0.066115
0.064977 -0.164535
-0.007920 -0.155907
-0.159117 0.283477
-0.134709 0.131839
0.494639 -0.122829
-0.338670 0.305741
-0.092588 -0.135170
-0.130679 -0.140800
-0.048407 -0.430508
-0.018187 -0.126079
-0.079772 0.040754
0.157339 -0.079055
0.013512 -0.324405
0.204016 0.315279
0.283362 0.220849
0.162157 -0.050264
-0.059005 -0.199967
-0.023691 -0.334348
0.169074 0.151242
-0.077409 -0.080973
-0.366747 0.333533
-0.040222 0.014954
-0.066590 0.122376
-0.012802 -0.422809
-0.388024 -0.046807
-0.224446 -0.231271
0.261832 0.187139
-0.065469 0.049553
-0.118594 -0.016426
0.148420 -0.018606
0.285717 -0.034710
0.365224 -0.003467
-0.301534 -0.104238
-0.261442 -0.002194
-0.034036 -0.014476
-0.030394 0.083034
0.022081 -0.109428
0.180206 -0.152574
-0.544295 -0.414789
0.097039 -0.173079
-0.155680 -0.078294
0.069212 0.150876
0.030462 0.005935
0.102005 -0.498114
-0.415940 -0.041283
0.126616 -0.219194
-0.063246 0.008064
0.119262 -0.181370
0.011477 0.076943
-0.087112 -0.082432
-0.139007 -0.026429
0.116678 -0.274692
0.030966 0.072756
-0.205815 -0.040958
0.422010 -0.022493
-0.049544 0.098603
-0.478826 -0.048297
0.426318 -0.148609
0.276689 0.002766
0.027352 0.219358
-0.052052 -0.255279
-0.232910 -0.023939
0.163809 0.178011
-0.022408 -0.304687
-0.331646 0.010841
-0.156399 0.047178
0.115531 0.605610
-0.043011 0.161439
0.098290 -0.215952
-0.264618 0.151247
-0.167466 -0.212749
-0.040420 0.358893
-0.023011 -0.034947
-0.651877 -0.036734
0.156291 0.254679
-0.016472 0.471935
-0.547844 -0.127251
-0.391271 -0.493110
-0.140546 -0.119550
0.185357 0.036467
-0.238885 0.053926
-0.046212 -0.168371
0.252207 -0.063870
0.065650 0.028901
0.386667 -0.241755
-0.177699 0.204561
-0.149555 0.202830
-0.125262 -0.195377
-0.145144 -0.051732
0.092034 -0.109320
0.023887 -0.023070
-0.286223 0.342537
-0.025865 0.098686
0.105531 0.225096
0.275002 -0.081607
-0.186962 0.090502
0.474841 -0.301549
0.001641 0.096468
0.155657 0.181376
-0.215069 -0.176181
-0.067435 -0.095693
-0.065907 0.016591
0.192620 -0.168294
0.227009 0.115898
-0.087567 -0.262700
-0.349385 -0.056339
-0.066760 0.102906
-0.253056 -0.116650
0.293093 0.254682
0.463734 -0.108909
0.281549 -0.058024
0.265979 0.073187
-0.285052 0.045755
-0.137018 -0.005287
0.064607 0.078361
-0.145387 0.213305
-0.056613 -0.016611
-0.015574 -0.005057
0.003632 0.041014
0.064989 0.370217
0.050640 0.354527
-0.003857 0.113916
0.181770 -0.171413
-0.623626 0.096859
-0.068049 0.379442
-0.072564 -0.317249
-0.138556 -0.011995
0.171724 0.221017
-0.273547 0.274102
0.234551 -0.148727
-0.032758 -0.085993
-0.224453 -0.021080
0.393760 -0.240564
0.105220 0.127790
-0.168777 -0.274469
0.076467 0.142409
-0.130743 -0.003510
0.103341 0.143746
-0.163630 0.053998
-0.289239 0.017591
-0.030254 0.006629
-0.162138 -0.027694
-0.098123 -0.178970
0.079339 0.083282
0.026837 -0.056335
-0.280256 -0.279833
0.172822 -0.069577
0.297675 -0.021500
0.121470 -0.029722
-0.197601 0.359327
-0.055741 0.067014
0.139117 0.115355
-0.031071 0.150344
0.186431 -0.451935
0.039744 -0.174719
-0.435811 0.052480
0.132420 0.010786
0.193539 0.373251
0.420766 -0.084632
0.355815 0.225947
0.198598 0.024336
-0.202760 -0.178797
0.011033 -0.285028
-0.071896 0.025905
-0.695130 0.034419
0.105907 -0.044586
0.147987 0.057989
0.067863 -0.117218
0.015069 -0.327569
0.099609 0.058347
0.243925 -0.265049
0.075439 -0.172432
0.050753 -0.309265
-0.223922 -0.064671
0.035519 0.192537
-0.351966 0.081174
-0.075635 -0.258713
0.232123 0.007403
0.021148 -0.110624
-0.282510 0.086989
0.096961 0.008788
0.095318 0.195559
0.006867 -0.232685
-0.300403 0.105688
-0.065011 -0.104297
-0.181449 -0.297720
-0.064652 0.014228
0.187873 0.120813
0.009265 -0.258556
-0.009723 -0.071378
-0.185491 -0.307970
0.072989 -0.202287
-0.269962 -0.062993
-0.272005 0.064655
0.074717 0.168333
-0.081277 0.260238
-0.242763 -0.279046
0.010839 0.243585
-0.109373 0.127603
0.009688 -0.113520
0.251179 -0.181781
0.051642 0.211047
-0.220165 0.198586
0.218599 -0.150225
-0.060567 -0.010871
0.100613 0.218401
0.189976 -0.316034
-0.289460 0.407552
0.254506 0.283153
0.092071 -0.229458
-0.172216 -0.006537
-0.294489 0.128741
0.046801 0.165731
-0.019641 0.100530
-0.113932 -0.221063
0.497548 0.352699
0.056221 -0.063001
0.104169 -0.323643
-0.208657 -0.015443
0.159155 -0.074409
0.151049 -0.043647
-0.312091 0.198529
-0.016951 -0.178746
-0.295063 -0.403754
0.066908 0.023713
-0.146402 0.046223
0.046299 -0.160979
-0.038019 0.096319
0.486897 -0.173433
-0.051272 0.049472
0.248492 0.210383
0.205685 -0.064577
-0.014230 0.088535
-0.239505 -0.177639
0.110600 0.304151
-0.144389 0.151782
0.010353 -0.115167
-0.319825 0.142802
-0.060450 0.467382
-0.137283 -0.026848
-0.211935 -0.173349
-0.310741 0.213137
0.279948 -0.063551
-0.067220 0.094881
0.036534 -0.040049
0.189340 -0.236004
0.065045 0.009834
0.099272 0.165224
0.200653 0.385896
-0.246968 -0.087935
0.383310 0.160302
0.138397 -0.155494
0.049941 0.001687
-0.062906 0.173351
0.113274 -0.044723
0.288527 -0.322365
-0.043187 -0.075159
0.178943 0.251554
-0.031351 -0.412409
-0.073322 0.000706
-0.387574 0.370229
0.058536 0.248553
0.220617 0.104492
-0.378136 0.134703
0.218061 -0.160641
0.001244 -0.145543
-0.146878 0.397389
-0.124387 -0.071112
0.262248 0.144330
-0.176457 -0.206066
0.090358 -0.158000
0.245531 -0.087280
-0.090516 -0.134051
-0.144377 -0.341181
-0.452929 0.209799
-0.009855 0.174581
-0.338042 0.059449
-0.068722 0.086949
-0.027112 0.200410
0.138597 -0.032706
0.042949 0.049658
0.126330 0.106835
-0.038023 -0.198296
-0.000400 -0.430522
-0.004999 0.036721
0.062202 0.045783
-0.106144 0.060391
-0.197993 -0.047151
0.012747 0.256516
-0.216931 0.107676
0.026448 0.053067
-0.221062 -0.237474
-0.049561 0.353327
0.108398 -0.330798
-0.229139 0.180772
0.018763 0.397269
-0.339286 0.009106
-0.120114 0.142739
0.162457 0.078843
0.041006 0.029962
0.096132 -0.093856
-0.111334 -0.291609
0.085766 -0.073363
-0.003903 0.022402
0.129365 0.094445
0.057999 -0.262776
0.166464 0.393377
-0.085741 0.104124
0.210859 0.067299
0.195612 0.254950
-0.348124 0.050784
0.035505 -0.342407
-0.033704 0.038044
-0.052095 -0.212893
0.104967 -0.084484
-0.151563 -0.296984
0.083505 0.191250
0.052320 -0.234878
0.323400 0.059896
-0.026625 0.258736
0.036464 -0.433486
-0.402193 -0.282727
-0.131680 -0.076725
-0.237986 -0.439660
-0.019962 -0.259237
-0.040098 0.246730
0.032978 -0.031429
0.028173 -0.489639
0.106453 0.071429
0.216951 -0.229268
-0.300226 0.162813
-0.077992 0.180760
0.058616 -0.116598
-0.093022 0.207638
-0.214956 0.083906
-0.022403 -0.108727
-0.229943 0.236718
0.340942 0.163605
0.128116 -0.312667
0.211821 -0.034249
0.304473 0.155629
0.011492 0.012405
0.379493 -0.436557
-0.336232 -0.364608
0.233203 0.180594
0.372486 0.178593
0.007559 -0.365556
-0.030871 0.164635
0.058227 0.212098
-0.132584 -0.019290
-0.034143 -0.102246
-0.227223 -0.100802
-0.323105 -0.284470
-0.082603 0.456987
-0.158049 0.221337
0.020116 0.143372
0.208858 0.311543
0.014215 0.084157
-0.212530 0.120612
-0.367663 -0.291981
-0.246631 0.169811
0.274363 -0.155802
-0.102799 -0.055418
0.199534 -0.087978
0.030020 -0.009386
-0.415483 0.032607
-0.041434 0.078676
-0.208663 0.140720
0.302200 -0.137800
-0.003367 0.221144
0.162159 0.557598
0.007685 -0.251986
0.182588 0.095001
-0.117124 -0.009620
0.079373 -0.158350
0.201433 -0.029688
0.082048 0.185997
0.199563 -0.100593
0.051114 -0.178650
-0.444470 -0.287905
0.121277 -0.026576
-0.091371 -0.074175
-0.052990 0.267119
0.214343 0.239436
0.030647 -0.023008
-0.521100 -0.100593
-0.124704 -0.055977
0.306793 -0.316528
0.021280 0.155468
-0.407969 -0.037377
0.344859 -0.377286
0.168375 -0.239016
0.486984 -0.194835
-0.173637 0.207262
0.081153 0.382767
-0.059618 0.009828
0.190435 -0.181705
-0.057716 0.280289
-0.224745 0.282083
-0.029738 -0.213026
0.065439 0.105536
-0.121364 0.376388
-0.336167 0.509062
0.042454 0.047998
0.185154 0.124221
-0.378801 -0.068701
-0.233579 0.497488
0.045016 0.188388
0.408005 0.163977
-0.145629 0.351803
-0.077346 -0.107419
-0.135872 0.090615
0.189615 -0.139049
0.307153 -0.067273
-0.218806 -0.348868
-0.426727 0.196642
-0.323442 -0.447353
0.000982 0.119441
-0.424619 0.060585
0.169287 0.105806
-0.253726 -0.068821
-0.183147 0.169490
-0.219507 -0.155129
-0.035607 0.209900
-0.218950 -0.063107
0.286962 -0.256717
-0.261825 0.279406
-0.014019 0.171634
-0.134209 0.015558
0.185428 0.070776
0.151634 -0.338988
0.256454 -0.052132
-0.254802 0.015802
-0.219010 -0.079989
0.126182 0.266525
0.269761 0.218297
0.114864 0.236187
0.050842 -0.154361
-0.175613 -0.014513
-0.090630 -0.077700
-0.155000 -0.134018
0.078973 0.078912
-0.297369 0.102453
0.263968 0.097969
0.246613 -0.482051
-0.126475 -0.220054
-0.094053 0.140426
0.192889 0.128421
0.194019 0.239875
-0.051874 0.043425
-0.424591 -0.138704
0.010359 0.275931
-0.106896 -0.104184
0.009753 0.083242
-0.017976 0.325066
-0.243948 0.157982
0.089267 -0.352613
-0.263330 -0.311721
-0.172409 0.061078
-0.205174 -0.119569
0.070154 -0.226654
-0.062902 -0.094062
0.129434 0.235987
0.282268 -0.022041
-0.143291 0.107168
-0.265649 -0.025653
-0.148073 0.178558
-0.083057 -0.161380
-0.495122 0.450722
-0.219056 0.211128
0.269225 0.013708
-0.220246 0.137387
0.351651 -0.113502
0.348811 -0.006562
-0.204978 -0.016020
0.101027 0.068543
0.043688 0.024412
0.086082 -0.204757
-0.025565 0.256019
0.130807 -0.092662
0.007739 0.020714
0.286104 0.059902
0.100580 0.081801
0.222932 0.091233
-0.421320 -0.190705
0.158613 0.063697
0.154875 0.395199
0.194825 -0.020588
0.302274 -0.165648
-0.436290 0.041295
0.165990 -0.187600
-0.540980 -0.081407
0.088141 0.100909
0.339961 -0.439882
-0.356343 0.073205
0.144994 0.101745
0.071001 -0.343463
0.208293 0.186174
0.030674 0.080630
0.122420 -0.275241
0.000219 -0.046292
-0.128663 0.174958
-0.102031 -0.024504
-0.046247 0.159209
0.322974 -0.268091
-0.220767 0.098338
-0.039634 -0.120787
-0.213253 -0.227376
0.060747 0.041447
-0.418879 -0.267264
-0.109957 0.164370
0.253821 0.057584
0.158079 0.424274
-0.341662 -0.049634
-0.505817 -0.006015
0.266189 0.350125
0.296654 -0.323862
-0.350881 0.251777
0.040467 0.215451
-0.085630 -0.085996
0.547730 0.157628
-0.250770 0.179309
0.201546 0.029892
0.055544 0.160616
-0.225069 0.026107
0.108662 0.210516
0.019349 -0.073361
0.012544 0.112262
-0.325089 0.270599
-0.171476 -0.135794
0.133752 -0.190091
0.223199 0.458531
-0.274521 0.310827
-0.225185 -0.240293
0.554209 0.101022
-0.330401 -0.099510
-0.658298 -0.065581
0.221605 0.114070
-0.071374 -0.080314
-0.598657 -0.400852
0.365818 0.141319
-0.126574 0.110034
-0.110110 -0.064624
0.114608 0.180161
0.099983 -0.509749
-0.016220 0.023615
0.176607 -0.268952
0.582484 0.021309
-0.020828 0.199738
-0.147176 -0.299110
-0.367812 -0.060302
-0.637357 0.375561
-0.162170 0.172577
0.043976 -0.039729
-0.242443 -0.538196
0.261449 -0.213336
0.295512 -0.244254
0.379379 -0.054209
0.273141 0.228937
0.433727 -0.427737
-0.144819 -0.192255
0.055300 -0.248851
-0.116381 0.369464
-0.004876 -0.251977
0.470518 -0.152288
-0.011171 0.227847
-0.207109 0.264860
0.207828 0.000466
-0.078391 -0.172784
-0.362706 -0.334386
0.235182 0.143001
-0.008555 0.138411
0.052068 0.222918
-0.252263 -0.476268
-0.037498 -0.200390
-0.140315 -0.141683
-0.276702 -0.193523
-0.281613 -0.228089
-0.417896 -0.605685
0.012666 -0.278156
0.398664 -0.140767
0.206936 0.308197
0.243060 -0.152506
0.448849 -0.252126
-0.227336 -0.075471
-0.321476 -0.288413
-0.838319 0.174412
0.166221 -0.034401
-0.422011 -0.092321
-0.286041 -0.080997
-0.088682 -0.251105
-0.113786 -0.638181
0.184260 -0.078354
0.430006 -0.216722
-0.107980 -0.084543
-0.315814 0.168515
-0.209307 0.420625
-0.145816 0.388229
-0.275538 -0.111233
0.267093 0.000094
0.141080 0.334149
-0.010310 0.158590
-0.134731 0.093298
-0.303951 0.188242
0.304760 0.574278
0.072101 -0.172394
0.677370 -0.286757
-0.252687 -0.537914
0.360191 0.150184
-0.401354 -0.362277
-0.107447 0.222414
-0.595905 -0.137121
-0.672689 -0.316683
0.145011 0.405245
0.184756 0.174472
-0.078035 -0.391347
-0.135405 -0.639505
-0.046358 0.786023
-0.098495 0.284434
-0.465625 0.031149
0.490112 0.262759
0.198007 -0.406815
-0.413104 -0.148138
0.004225 -0.355364
0.344286 -0.178974
-0.360871 0.418075
0.099142 0.284773
0.364922 -0.017836
0.660334 -0.080655
0.278498 0.148616
0.667583 -0.009061
0.545307 -0.105605
-0.510079 -0.635800
0.156039 -0.193452
0.179995 0.416792
0.004396 0.461739
-0.629636 1.036246
0.277291 -0.008410
-0.405425 -0.116261
0.576683 0.424260
-0.233195 -0.418463
-0.133097 -0.350384
0.342616 0.166140
-0.027443 -0.168651
0.030487 -0.046634
-0.168976 0.221554
0.941045 0.296841
-0.565859 0.253579
-0.347026 0.137288
0.822867 0.029605
-0.194589 0.163259
-0.196302 0.290542
-0.036823 0.505862
0.424611 0.158574
-0.232576 0.175602
0.107277 -0.258824
-0.152729 -0.176498
0.164867 -0.202412
-0.179283 -0.119546
0.688432 0.103352
-0.617278 0.914571
-0.099890 -0.396536
0.321056 0.884597
-0.396298 1.089731
0.162702 -0.303166
0.165003 0.446943
-0.250273 0.208682
0.558498 0.048067
0.362662 0.574061
-0.317003 -0.024350
0.718636 -0.098228
0.368467 0.257530
-0.855684 0.567423
-0.125195 0.334772
0.296876 0.431851
0.018787 0.567257
0.588765 0.160875
-1.329821 -0.019709
0.693112 0.620050
-0.456664 0.123519
0.282251 -0.609425
0.259414 0.196375
-0.466968 -0.268186
-0.010079 -1.470748
0.279890 -0.126645
-0.072928 0.175320
-0.382226 0.002924
0.221152 0.189687
-0.226706 0.237719
-0.138148 0.168703
0.189023 -0.022614
-0.088082 -0.330714
0.339052 0.289176
0.427223 -0.100545
0.057605 -1.161971
0.087914 0.778142
0.396501 0.106454
1.184485 0.575070
0.519539 0.175284
-0.577823 -0.708822
0.461248 -0.537051
0.020500 0.100399
-0.397587 -0.555342
-0.265980 0.725076
0.152742 0.280607
-0.631478 0.598391
-0.062207 -0.151394
0.237830 -0.612378
-0.183095 -0.415818
0.639982 1.031263
-0.517496 -0.570937
-0.475134 0.349737
0.402866 -1.088634
0.239002 1.005323
0.116895 0.323456
-0.693996 -0.433132
0.603585 0.326885
-0.734883 -0.161527
-0.152367 -0.357827
-1.304139 0.391921
-0.013361 0.291048
1.250961 -0.244110
-0.210611 0.904450
-0.489540 -0.712176
0.503169 1.105518
-0.165842 -0.206294
-0.024646 0.670098
0.522770 -0.396724
0.560255 1.279383
-0.986693 -0.330487
0.440971 1.380057
0.116255 0.314067
-0.091771 -0.587421
0.105040 0.071815
-0.648581 0.386825
-0.403973 0.653092
1.240553 -0.346672
-0.328998 -1.374887
-1.020673 -0.611581
0.131198 -0.407604
-0.866510 -0.776421
0.118571 1.474571
0.575805 0.223744
-0.721957 -0.352967
-0.216230 -0.073128
-0.211917 -0.408099
0.162543 -0.155906
-0.404603 -0.185660
-0.555117 0.646607
-0.400483 0.238175
-0.094185 -0.200117
-0.223846 1.973259
0.506194 -1.055713
0.562356 0.297160
-0.011034 0.866644
-0.316766 -0.125855
-1.012588 0.379099
-1.533323 -0.348462
-0.195771 -1.810122
0.657234 0.294303
0.151119 1.176303
1.000627 -0.417160
-0.286018 -0.283064
-0.714067 0.511800
-0.717401 0.103345
0.424811 0.538452
-0.645392 0.337365
-0.103266 -0.921161
0.041090 -0.237005
-0.124449 0.064226
1.110932 -0.309639
0.603858 1.097499
-0.520775 0.371527
0.033349 -0.446857
-0.120108 0.650063
-0.010199 0.962173
1.117082 -0.301265
-0.303627 -0.379117
-0.395741 1.007841
0.142681 0.641109
-0.001271 0.884032
1.067239 -0.521448
1.369711 -0.017174
-1.271922 -1.568442
1.512315 0.448722
0.489772 0.549126
-0.504135 -0.726362
0.632730 -0.614164
-0.450236 0.162309
0.093576 0.454348
1.032213 0.278436
1.122274 0.801727
0.709237 0.035685
-0.024555 0.788499
-0.897950 -1.042252
0.787986 0.531669
1.230936 0.089350
-1.325971 -1.242183
-0.093437 0.840012
-0.002477 0.392573
0.298770 0.057981
-0.398832 -0.304899
-0.166244 -0.606219
0.234892 0.261902
1.334532 0.157232
-0.685889 -0.274184
3.253767 -0.310544
-0.069127 -0.570915
0.275323 1.758690
-0.912787 -0.722548
0.511696 0.240424
0.196891 -0.384101
0.832078 -0.960287
0.188817 -0.340972
0.698708 -0.628198
-1.171645 0.321547
-0.413343 -1.193451
0.148707 0.336302
-0.322449 -1.040059
1.674611 0.043473
0.442494 -1.473536
-3.132230 -0.478369
-2.858109 -0.608933
2.064004 0.501176
0.020421 -0.490337
0.323403 1.043301
-4.110163 -0.208583
1.016329 0.781420
1.365368 -2.793882
-0.077635 0.310714
-1.436185 -0.017169
0.292903 1.510899
-1.266101 0.959012
0.796510 1.210855
-1.003464 -1.070160
-0.011327 -1.852914
-0.642229 -1.920794
-1.495781 1.673517
-1.693657 1.810067
-3.514848 -2.496394
-0.371441 -1.068522
-1.069341 0.036345
-3.326256 1.127137
2.168824 -1.868738
-2.613023 2.091217
-1.616429 -0.148257
0.668921 0.435324
-1.331382 -1.192387
-0.290047 0.285008
2.125695 2.783999
-4.483332 -1.136050
-2.044953 0.778066
-0.209383 1.674931
-2.938433 1.054930
1.442100 6.740881
-5.180221 1.386629
-3.764541 6.164044
7.367433 1.052413
-1.099795 3.216742
1.976125 -8.179613
0.713016 2.764568
-4.834771 -5.459381
2.897817 10.761720
0.316685 -1.519873
-8.048853 0.542019
1.305640 1.089867
-4.753552 4.220638
-2.997388 6.168592
9.223959 -4.072002
-7.559398 7.109642
19.951009 -2.777041
-6.241133 8.346432
0.671783 -11.552347
-9.105367 4.648645
-18.539446 0.439318
-5.258684 19.029314
16.478535 2.223220
-23.907738 -3.509642
26.553170 5.062471
-10.840750 -13.587711
-83.506387 14.421407
43.244002 -58.140816
-194.407951 92.612879
154.031295 2.300757
-135.049250 80.312396
-496.893102 110.988550
274.965746 17.919319
-1794.072896 797.949208
