4436.936908 6032.362379
147.746372 -218.846447
216.658804 393.243040
114.222622 372.217999
446.007566 216.281168
172.202968 -428.182203
35.628869 -431.386957
-71.603985 -143.941896
6.368495 55.962552
-181.538815 79.339383
30.696504 -19.126172
-79.125665 -192.519107
161.016584 -8.600031
120.706830 -107.266640
-105.158961 -265.509654
95.112387 -128.039126
-35.401663 -62.335256
70.437185 8.193662
-41.860519 -41.750239
49.393860 -5.993168
96.261706 36.135866
-52.122782 -29.274710
-3.987555 -118.022571
-19.043270 -7.968219
-24.833250 -35.299021
33.296838 -41.630963
16.382146 -33.686967
-2.298895 5.314865
67.003071 -33.109049
23.711523 -48.137613
-30.667020 -14.705735
3.489046 -18.372497
26.499686 17.979346
35.012867 -11.893834
34.862369 -12.103803
50.795278 -0.559268
42.109596 -55.506139
21.273097 -48.205104
-17.777106 -47.961967
-32.300963 -8.667637
-2.384418 -3.718194
8.839332 -0.908147
22.864031 -13.098762
31.628675 -30.472111
0.911251 -56.436891
-13.229614 -38.187365
-17.549113 -12.447831
6.909013 -0.322018
19.738841 -21.122143
8.314543 -7.213062
36.191494 -12.288153
47.969223 -32.680022
10.736902 -77.760549
-25.297882 -51.454961
-25.193325 -13.656000
-6.586693 -7.587940
-9.554439 -4.309938
5.664129 3.436313
18.123002 -6.940173
16.887816 -36.299816
-5.517453 -42.437376
-23.238502 -28.680579
-19.047609 -1.989782
1.728496 9.093149
11.764596 -8.715255
3.180511 -1.868691
5.348549 -0.530560
18.945539 -21.128440
1.148060 -20.646380
-4.675057 -11.010008
2.159797 -5.870046
18.561919 -8.900864
18.281916 -13.876888
8.433913 -19.526218
14.817855 -22.908794
4.974657 -18.761656
-1.532894 -26.652445
-6.280716 -9.781817
-0.807837 -2.547447
9.369317 -8.455058
8.761226 -12.759479
9.930648 -17.524619
6.249457 -26.409800
-13.349779 -19.807035
-10.072850 -10.301547
-1.777591 -2.329472
1.754256 -2.419033
6.902542 -6.921307
9.117496 -14.162925
13.816550 -13.443142
3.192446 -27.336111
-10.049793 -16.882906
-14.157721 -6.210851
-2.087857 8.268071
4.840384 -0.568519
3.005429 -1.814605
7.622011 -0.336111
11.665286 -12.753646
1.546791 -18.744047
-8.235516 -7.337249
-10.965856 -1.944749
1.531208 2.947895
7.196857 1.095882
6.218136 -1.543314
9.476657 -5.655195
15.103436 -13.859616
-1.859155 -20.914128
-12.867063 -10.850801
-10.109592 7.518044
5.337492 4.975453
8.553137 0.805375
6.659855 0.512015
10.385911 -2.048120
9.493254 -9.367150
0.119684 -13.882885
-6.991833 -7.585147
-5.531693 3.616136
6.987975 4.724077
9.233076 -3.558065
9.306906 -2.117402
9.687586 -6.304293
4.288169 -10.600228
1.256188 -7.809251
1.606845 -0.884757
10.566658 -3.508841
7.418540 -8.393375
10.311236 -9.172016
5.939396 -7.679995
3.827628 -9.712860
2.753146 -8.912224
-4.536168 -6.923445
0.353192 0.146370
8.915484 -3.125394
6.673824 -11.907278
0.335289 -11.565755
4.035889 -3.283039
3.616110 -10.076640
-1.678172 -9.396062
-4.550242 -1.904895
1.517920 1.460192
7.250465 -2.198824
8.584454 -4.944443
3.742206 -8.212077
7.670860 -6.289977
5.930866 -11.893723
-0.088442 -11.851534
-5.538411 -2.982615
3.359309 1.413448
8.317162 -2.850856
5.977162 -4.652415
9.374150 -3.717391
12.112813 -9.809327
6.357527 -15.696337
-2.993882 -12.233489
-4.861279 -3.754795
1.615781 2.941447
8.858480 -1.798382
7.262677 -6.498597
7.497756 -4.704232
11.403687 -8.730187
6.973083 -13.384231
0.644555 -11.799731
2.905921 -4.138819
4.066187 -4.489275
5.872978 -8.845391
5.941719 -4.142192
8.454216 -8.890289
8.121412 -12.227914
3.514329 -14.246142
-2.921405 -9.148795
1.600876 -4.091982
6.937753 -7.230361
3.810463 -12.902127
-1.262567 -8.195889
5.175172 -7.315103
3.395666 -12.574969
-3.434367 -12.041753
-3.439016 -3.250385
2.028159 -2.588262
6.843039 -6.594303
4.111261 -11.592385
1.908605 -10.934247
0.311821 -9.013081
2.657304 -8.535759
-4.607746 -10.010813
-4.228358 -2.485479
2.145561 0.107032
5.709170 -7.315084
0.096310 -10.441750
0.470408 -7.203431
-2.735088 -8.370983
-3.984105 -6.822067
-5.372212 -1.392096
-0.219324 2.338002
4.169892 1.338927
8.634991 -3.868676
5.979586 -8.255964
4.551384 -9.105103
1.927393 -9.035966
-3.360769 -9.855634
-3.400818 -1.859331
2.478707 -0.316598
6.391047 -4.699190
2.470321 -8.393089
3.292184 -8.083191
3.267322 -9.862364
-0.889178 -10.416077
-4.465667 -10.000351
-4.379443 -3.508569
-0.732832 -1.363117
4.559064 -4.508785
0.057160 -6.714014
-0.788183 -5.523325
1.818704 -5.150676
1.398214 -8.863526
-3.743854 -7.370995
0.145246 -4.277041
2.209101 -4.233725
1.017116 -7.556680
-0.550433 -4.999331
-0.889406 -4.775304
-0.757930 -5.033850
-0.686159 -5.649514
-1.905891 -5.006918
0.446649 -3.554627
4.143328 -5.520173
-0.822136 -9.344284
-3.930778 -4.131852
-1.955765 -2.475533
-0.545344 -4.830127
-4.199780 -5.576396
-2.896828 -0.587747
0.146397 -0.467180
3.583606 -3.291150
1.476787 -5.455823
-1.196012 -3.992149
-1.825824 -1.236970
2.913106 -4.339324
-0.754058 -4.325441
-1.129419 -1.182530
4.963304 -0.193348
5.910046 -4.907030
2.718834 -6.384498
3.092482 -6.381764
0.114230 -4.605120
-0.143583 -3.987837
0.531068 -2.087922
1.564725 -3.735728
3.208090 -2.806515
2.990349 -6.002678
1.909926 -6.255630
0.474782 -6.763811
1.470081 -6.208120
-1.947573 -6.201402
-1.561107 -0.784005
4.015811 -1.390764
2.944514 -5.523161
0.168037 -5.892737
1.380797 -2.751965
4.589620 -4.683315
1.978409 -8.988537
-1.507396 -8.175848
-3.397547 -4.031921
1.142961 -1.462488
1.861090 -6.117897
-1.787844 -5.748259
-3.933080 -1.352044
3.041376 0.264193
4.336626 -5.992585
1.016664 -6.616926
-1.674960 -4.379719
0.776031 -3.844181
-0.632449 -4.993301
-0.354653 -4.063153
-0.589944 -2.345320
3.551063 -1.353240
3.527376 -4.169508
1.309508 -5.883451
0.658735 -3.927171
2.797201 -4.242099
-0.342903 -6.986638
-0.469336 -4.779761
1.072093 -2.530392
1.793104 -5.976913
-2.374328 -5.677371
-1.219159 -3.566279
0.631484 -2.187630
2.912924 -4.982507
1.530417 -6.313404
0.065757 -5.656586
0.345870 -3.911183
0.708927 -5.948473
-2.230687 -5.558836
-3.331694 -0.749462
3.422603 0.225943
3.486718 -5.043029
1.041956 -6.483271
0.228932 -5.088174
0.574564 -5.358464
-1.356923 -6.077565
-1.789345 -5.120719
-1.916023 -1.727692
1.775540 -2.831081
2.487782 -5.384010
0.598413 -7.164958
-1.367193 -4.079131
2.020731 -4.899430
0.060580 -6.134936
-1.638772 -4.785188
0.839367 -2.917101
1.749866 -6.648096
-1.130049 -6.543472
-1.508813 -6.018342
-0.169809 -3.612688
1.517206 -4.480455
-0.544398 -5.999868
-2.370708 -5.996793
-1.358720 -3.734905
0.053411 -6.319963
-2.117539 -6.192236
-2.814611 -3.331766
1.555231 -1.596137
1.300125 -5.593520
-1.178523 -6.826570
-2.039329 -5.786787
-0.740922 -6.346901
-2.755968 -5.858947
-4.298965 -5.285017
-3.072235 -2.686139
0.486601 -1.950013
1.083342 -4.539309
-0.680431 -6.300315
-1.671160 -3.100166
0.299265 -4.811676
-3.263926 -7.331104
-5.325243 -4.722037
-3.425212 -1.323752
0.031642 -2.947545
-1.464328 -4.195340
-3.924821 -2.540822
-2.402449 -1.603585
-1.363178 -3.180924
-0.986964 -4.487693
-3.136938 -4.027275
-1.079730 -0.659905
1.513750 -1.927141
-0.568354 -5.501909
-3.113715 -2.351986
-2.071252 -1.634169
-0.246914 -2.542019
-1.284579 -3.499599
-0.581511 -2.200870
-0.161124 -2.843268
0.697890 -3.426334
-0.898991 -4.754846
-2.902888 -2.946795
-2.629667 -1.273453
-0.417414 -0.877703
-1.636587 -1.248676
0.651898 -0.298173
1.530006 -2.729163
1.365494 -4.964616
-2.307649 -5.139825
-1.244523 -3.435841
-2.110161 -4.042677
-2.170092 -1.863434
-0.660980 -0.397313
1.192714 -2.685972
1.155562 -4.159502
-0.533879 -5.602577
-3.093462 -3.571352
-1.176197 -2.563042
-1.760462 -4.034012
-3.557349 -3.626685
-3.174120 -0.261528
1.560348 -1.143901
1.374626 -4.770615
-2.910829 -5.562839
-3.226243 -2.151033
-1.870714 -1.752179
-1.701011 -2.352470
-3.808311 -2.809658
-2.656030 0.493287
-0.273075 1.323455
2.539616 -2.478900
-1.676262 -4.709356
-2.290725 -1.598343
-0.250895 -1.130342
-0.564422 -2.830392
-2.919754 -2.242013
-0.969818 -0.708327
-0.065977 -1.013929
0.741097 -2.948257
-0.950518 -2.588279
-1.057589 -2.236886
-1.632664 0.008452
0.400701 -1.546118
-0.460481 -2.158887
0.502968 -0.018385
2.200882 -1.727077
0.217551 -4.281017
-0.878195 -1.992429
0.082922 -1.244493
0.826060 -1.283596
1.462930 -1.199160
3.261410 -1.918486
3.243584 -4.627050
1.522884 -6.404149
-0.882864 -6.652954
-1.498857 -4.764533
-2.135920 -2.752896
-0.764066 -2.400868
-1.637856 -1.002966
2.127324 -1.788230
3.502003 -4.369637
-0.043842 -7.894689
-4.213738 -5.227429
-2.810969 -2.707864
-2.034219 -2.074262
-2.441753 -2.858562
-2.138337 -1.453582
-0.116598 -0.513527
1.896024 -3.129777
-0.794466 -6.271276
-3.986299 -4.153212
-2.289438 -0.822985
0.036030 -1.995324
-2.027168 -4.136561
-2.010720 -1.249143
-0.179003 -0.241080
0.677884 -3.538533
-1.592061 -4.286160
-1.977273 -2.869906
-1.621339 -0.755647
-0.262585 -2.346637
-1.053981 -3.010475
-2.508956 -2.084218
-0.530967 0.174751
2.351523 -2.520885
-0.836829 -4.247374
-2.748311 -2.648714
-0.466460 -0.859403
-0.232643 -2.299121
-0.745598 -3.037222
-0.684838 -1.897588
0.160239 -1.836731
0.510800 -3.246627
-0.627029 -4.312452
-3.233395 -3.987383
-2.411612 -2.044316
-1.426279 -1.517902
-0.665178 -1.746749
0.061253 -2.512039
0.950000 -4.443488
-2.087239 -4.901683
-2.225420 -3.458233
-2.161116 -1.808888
-1.653221 -2.795848
-2.460709 -0.595128
0.086420 0.179141
1.916150 -2.759459
0.712274 -6.689265
-3.117519 -6.888486
-5.285003 -3.832708
-3.566617 -0.324490
-1.444779 -1.630381
-2.605487 -1.341509
-0.962320 -0.277902
2.072332 -2.228540
-0.061522 -6.319579
-4.082201 -5.419871
-5.513296 -2.380336
-3.846332 0.104254
-2.289418 0.753167
-0.869536 0.056193
-0.210519 0.075823
0.350642 -1.314103
-0.242873 -3.346402
-3.514999 -3.427879
-3.911383 -0.756005
-1.738159 0.314644
-1.250538 -0.091266
-0.502163 0.397366
0.853071 -0.192432
0.541922 -3.099970
-1.728307 -2.864908
-2.553842 -1.746012
-1.538653 -0.451300
-0.677473 -0.670165
0.229178 -1.248483
-0.537604 -1.519371
0.833587 -1.069597
-0.003138 -3.484552
-2.930440 -3.266519
-3.616586 -0.020601
-0.390491 0.816182
0.457640 -0.320553
0.686200 -1.075863
1.288862 -1.605568
1.179495 -3.007644
-0.850523 -4.271893
-2.522788 -3.374262
-3.221559 -0.844453
-1.115417 0.854759
0.605058 -0.449403
0.440601 -2.083224
0.371219 -2.107811
0.412784 -3.574454
-2.400659 -4.083054
-3.600782 -1.582068
-1.880428 0.135327
-0.588395 -0.100869
-0.104315 -0.090409
0.606051 -1.663007
1.174340 -2.672584
-0.722928 -4.204132
-2.638204 -3.123986
-4.013264 -0.673596
-1.404489 1.138617
-0.097973 -0.287439
-0.714276 -1.068384
0.262348 0.297671
2.203467 -1.887315
-0.077488 -4.727885
-2.997294 -2.831482
-2.481239 -0.429772
-0.768113 -0.545040
-0.212988 -0.627113
-0.225683 -1.054430
0.672152 -0.078616
2.172279 -1.372959
0.935914 -3.056343
-2.036543 -2.953749
-1.106723 -0.150158
1.166944 -0.832617
0.095651 -2.299595
-0.063609 -1.136979
1.951276 -0.885229
1.214916 -3.075577
-0.188312 -3.595557
-1.805509 -2.494082
-0.832266 -0.722178
0.079133 -0.918970
1.416096 -3.151541
-0.816188 -2.951819
0.366035 -2.342940
0.240989 -4.997181
-2.404126 -4.422367
-3.507446 -0.362490
-0.308135 0.489216
1.165501 -0.570557
1.164960 -2.239702
0.646656 -2.327592
0.339880 -4.104598
-1.045670 -4.369808
-3.220031 -4.037662
-3.486661 -0.275502
-1.104643 1.412061
1.619392 -0.433589
0.591597 -2.146152
0.580574 -2.230295
1.035636 -3.991443
-1.598578 -4.157414
-3.406812 -1.877042
-1.177501 -0.189588
-0.153114 -0.241266
0.680998 -1.215778
0.404185 -1.143975
1.029443 -3.263409
0.565983 -4.327597
-1.639318 -4.862484
-2.834703 -1.895567
-1.216165 -0.259944
0.786924 -1.825718
-0.617173 -3.817834
-1.015804 -1.079993
0.170606 -3.235453
0.669236 -4.968746
-3.142305 -4.604603
-3.607794 -1.407252
-2.036032 -1.166999
-0.370173 -1.210233
-1.094651 -2.725303
-1.334354 -2.322965
-0.550480 -2.013903
-0.638336 -3.424257
-3.577620 -3.288988
-3.317984 -0.191644
-0.480815 -0.092694
-0.042442 -1.566084
-0.959696 -1.256744
0.561459 -1.610896
-0.724815 -3.151677
-1.473324 -3.386764
-3.158021 -1.977056
-2.623072 -0.655223
-0.090684 0.237731
1.001118 -2.922959
-0.937207 -2.922201
-1.355270 -2.664320
-2.022069 -3.282559
-4.057893 -3.120766
-3.899984 0.381564
-1.713324 1.402671
0.415010 0.251354
1.475462 -1.596121
1.042907 -2.644807
-0.868318 -4.127688
-1.846280 -3.135194
-3.000103 -1.800908
-2.879950 0.340293
-0.546606 1.224319
1.316917 -1.615851
0.169657 -2.332038
0.449100 -2.774461
-0.178274 -4.010403
-2.027673 -4.018836
-3.795837 -1.171052
-2.059093 -0.190739
-0.543912 -0.187595
0.293513 -1.873916
-0.404091 -2.531991
-0.930411 -2.145196
-0.827957 -2.104101
-2.471418 -3.076377
-2.853886 -0.666515
-1.032966 -0.029945
0.223333 -0.734739
-1.310467 -2.638943
-1.579652 -1.584300
-0.475052 -1.502355
-1.214580 -2.413530
-2.287044 -1.726090
-1.394786 -0.791063
-0.603942 0.206245
0.725031 -1.817799
-0.914578 -3.411836
-2.329419 -2.322452
-1.426527 -0.459121
-1.041174 -2.443292
-2.428274 -1.492681
-1.967347 0.474900
-0.355853 0.265803
0.347139 -1.769612
-0.500978 -1.922219
-1.268645 -1.654397
-0.974404 -1.197413
-1.085442 -1.192934
-0.993453 -0.248472
-0.356037 -0.607676
0.947316 -0.448546
0.910091 -2.172283
0.020119 -2.643555
-0.587164 -2.085534
-0.422005 -2.546589
-2.198646 -1.986110
-1.280798 -0.352512
0.548506 0.022782
1.084894 -1.849149
0.052641 -2.130686
0.491441 -2.049597
-0.275366 -2.982556
-0.693043 -3.654209
-2.505676 -3.107147
-2.290559 -1.055637
0.317457 0.106097
0.932360 -2.323485
-0.703947 -2.662395
-0.626595 -1.598524
0.512732 -2.977538
-1.560079 -4.044093
-2.583723 -2.000594
-2.319597 -1.100475
-0.223584 -1.461817
-0.646658 -2.211060
-0.605676 -2.378307
-1.081358 -2.131395
0.256140 -2.074047
-1.300195 -3.670441
-2.953394 -3.099707
-1.914551 -0.551418
-0.144855 -2.057978
-1.730056 -2.647921
-1.802132 -1.904764
-1.447422 -1.485423
-1.561197 -2.317207
-1.946555 -1.376992
-1.278052 -0.825978
-0.541008 -0.486665
0.142446 -2.148909
-0.703865 -3.420046
-2.242779 -2.104235
-1.112738 -0.999586
-1.331184 -2.876746
-2.785334 -1.681643
-1.338197 0.597275
1.115180 -0.389248
0.686681 -3.158994
-0.741127 -3.285643
-1.353835 -2.363757
-0.912772 -2.351036
-1.480069 -3.329240
-1.977741 -2.536745
-1.987904 -0.170255
0.567852 -1.459923
0.224241 -3.263561
-2.022208 -3.422257
-2.365029 -2.078810
-1.383845 -2.990723
-2.420588 -3.411730
-3.260674 -1.958106
-1.316954 -0.704993
-0.984345 -1.661876
-0.660817 -2.579127
-2.092116 -2.415871
-1.873061 -2.187261
-1.440089 -2.704991
-2.609044 -2.908329
-2.899484 -1.244966
-1.213292 -0.487950
-0.372641 -1.819401
-1.808758 -2.402031
-2.027214 -1.797116
-1.006357 -2.237336
-2.423188 -2.988391
-3.215054 -1.889118
-3.377998 -0.760052
-1.644980 -0.558033
-1.163997 -1.521132
-2.702656 -2.830342
-2.795900 -1.385364
-1.750134 -0.835094
-1.634439 -1.838428
-2.671235 -1.749793
-1.998110 -0.407076
-0.835222 -1.609202
-1.795771 -1.974976
-2.671470 -1.202761
-2.310913 -0.542788
-2.348197 -0.615259
-1.361647 -0.177796
-1.210346 -0.363995
0.121019 -1.147626
-0.523062 -2.458605
-2.343318 -2.805486
-3.720455 -1.494000
-1.778146 -0.424325
-2.047208 -1.183432
-3.088598 -1.089459
-2.039675 0.540160
-0.559003 -0.287630
-1.256165 -2.157192
-2.842527 -2.460807
-2.751349 -0.588684
-1.507059 -0.191954
-0.642358 -0.845188
-1.636892 -1.962057
-2.362802 0.029572
-0.682996 0.255339
-0.355254 -2.218719
-1.974106 -1.679198
-1.394748 -0.493961
-0.572717 -0.912733
-1.037807 -2.214148
-1.509676 -2.348207
-2.121603 -1.324625
-2.658124 -1.010650
-1.235418 -1.120814
-1.860531 -0.861474
-1.261980 -0.768926
-0.997051 -0.981098
-1.296920 -2.334940
-2.480610 -1.951261
-2.056776 -0.776908
-2.150460 -0.548798
-2.602264 -1.207425
-1.413751 0.728430
-0.399155 -1.077980
-1.218693 -1.743493
-2.175376 -1.594813
-1.487002 -1.006907
-2.152398 -1.156637
-2.185169 -1.211930
-2.285653 -0.603855
-1.124014 0.352209
-0.075672 -0.579779
-1.235378 -2.880554
-2.960835 -1.267736
-1.564567 0.450785
-0.395483 -1.253529
-2.450672 -2.134193
-2.801552 -0.138435
-1.029805 0.627634
0.238153 -0.773174
-0.789321 -1.766021
-1.920598 -0.938702
-1.379790 -0.258041
0.515286 -0.675055
-0.887528 -2.412483
-2.216243 -1.488344
-0.971627 -0.207132
0.046939 -1.700601
-2.234491 -2.239664
-2.123645 -0.540857
-1.123713 -0.345827
-0.235425 -1.369869
-1.274170 -2.003581
-1.350974 -1.409307
-1.192804 -1.204333
-1.067396 -1.885275
-2.403596 -2.197147
-2.789238 -0.852050
-0.547227 0.815724
-0.187374 -1.612238
-0.916111 -1.462232
-0.524129 -0.975587
-0.385860 -1.934569
-1.511234 -3.097962
-2.241804 -2.034035
-2.367887 -2.074862
-2.460613 -0.993734
-1.760290 -1.129177
-1.748261 -1.039939
-1.395781 -1.369459
-0.639047 -1.896540
-2.320613 -2.940073
-2.275651 -1.713300
-2.149940 -1.457388
-2.169624 -2.092808
-4.229849 -1.616808
-2.565779 0.564589
-0.780614 -0.210435
-1.008740 -1.796673
-2.481895 -1.579654
-2.558849 -0.826660
-1.705711 -0.412195
-1.637068 -1.374824
-3.001255 -1.451712
-2.806604 0.517062
-0.309613 0.701045
-0.484030 -2.120114
-2.794652 -2.084409
-3.008257 -0.171896
-1.549906 -0.193581
-2.125418 -1.351277
-2.445590 -0.541253
-2.227272 0.341439
-0.777110 -0.101051
-0.923652 -1.450077
-2.576893 -1.954431
-2.925195 0.348299
-1.001721 -0.092184
-1.134282 -0.911410
-1.957664 -0.815067
-0.665232 0.086544
-0.068457 -1.513027
-2.365882 -2.449996
-2.948705 -1.011832
-2.322064 -0.009343
-1.566535 -0.344123
-0.934653 -0.574769
-1.356363 -1.258525
-1.353088 -1.398501
-1.234218 -2.568726
-2.887813 -2.130760
-3.881059 -0.797128
-1.707814 0.786622
-1.594184 -0.796470
-2.117482 -0.713622
-1.287198 -0.000460
-0.325653 -1.884661
-2.202120 -2.654873
-3.613945 -1.592149
-4.236356 -0.728639
-3.081973 0.656804
-2.429107 0.306547
-2.466817 -0.313471
-1.901465 0.798813
-0.329380 -0.197137
-1.563596 -2.070213
-3.324161 -1.924274
-3.341625 -0.069484
-2.923384 0.022997
-3.239758 0.416325
-2.310322 1.595360
-0.833257 1.536924
-0.613368 -0.259919
-1.587137 -0.664011
-2.270635 -0.268386
-1.913676 1.173952
-1.817818 0.647817
-1.885257 0.640220
-1.124991 1.848874
1.367769 1.261539
-0.214726 -2.057264
-2.150985 -1.054421
-2.302768 0.721396
-0.906762 0.546443
-0.861167 -0.003860
-0.693126 0.328517
-0.199365 0.144066
0.697408 -1.608455
-0.459381 -2.601240
-2.930371 -1.978765
-3.404311 1.024408
-0.055392 1.358372
0.479444 -0.426269
-0.497432 -0.986750
0.233511 -0.762757
-0.018047 -2.877755
-2.471814 -2.929553
-4.118154 -0.878338
-2.819097 0.675955
-1.620620 1.024261
-0.154658 0.305172
-0.316207 -1.126282
-0.375340 -1.461063
-1.241419 -2.091423
-3.274106 -1.748524
-3.981076 0.579519
-1.515319 1.935594
-0.244115 0.499361
-0.631032 -0.001357
-0.035706 0.014558
0.442032 -1.595291
-1.583192 -2.470536
-3.059947 -1.690746
-3.218665 0.314212
-1.741910 1.315675
-0.153183 0.697703
-0.866741 -0.418379
-0.885128 0.062113
-0.360609 -0.787823
-1.017780 -1.943532
-2.686723 -1.329831
-2.227639 0.344289
-1.451500 -0.114757
-1.365309 -0.060054
-0.765684 0.903754
0.077716 -0.235320
-0.484329 -1.222354
-1.010370 -1.400515
-1.483778 -0.281320
-0.173765 0.037836
0.101527 -0.844644
-0.844297 -1.446965
-1.204442 -0.089706
0.989048 -0.687307
-0.062812 -2.992964
-2.818446 -2.408978
-2.374334 0.464959
0.035470 -0.222529
0.155996 -1.517000
-1.098705 -2.372356
-1.771691 -1.302735
-0.877727 -1.744218
-1.168957 -3.030082
-4.276249 -2.810884
-4.111162 0.730344
-0.679612 1.824366
0.419094 -1.048691
-1.406767 -1.502260
-1.070869 -0.787204
-0.806451 -2.052310
-2.007404 -2.752917
-3.783503 -1.845973
-3.464460 0.232571
-1.861509 1.423189
-0.349568 -0.180721
-0.942623 -1.363822
-1.242053 -1.594951
-1.875265 -1.515111
-2.308457 -2.681156
-3.716824 -0.711948
-2.989806 0.759248
-2.189818 0.709263
-1.843150 0.637676
0.169726 0.187535
-0.122615 -1.807397
-1.590251 -2.327678
-3.007363 -1.246643
-2.924241 0.264631
-1.918045 0.787410
-0.644594 0.452875
-1.746814 0.455569
0.089838 0.612310
0.814799 -1.336947
-1.088069 -3.569020
-4.067812 -1.448560
-2.691105 0.925670
-0.939442 0.710229
-0.509057 -0.818277
-1.356496 -0.625639
-1.311826 -1.413703
-1.208037 -1.545908
-2.435499 -2.269410
-3.696722 -0.952737
-2.730293 1.426298
-0.272359 1.269065
-0.572305 -1.047482
-1.818060 -1.058152
-1.451809 -1.148861
-1.797724 -1.820050
-3.758232 -1.148748
-2.911938 1.087919
-1.560442 1.699397
0.739095 0.464934
-0.041038 -1.807596
-1.933954 -2.332459
-2.654232 -1.219355
-2.426259 -1.335544
-4.425496 -0.520863
-3.608742 1.967048
-1.269003 2.887696
0.755513 0.502923
-0.422051 -0.765932
-1.142610 -1.428235
-2.022501 -1.382925
-3.123680 -1.024002
-3.088670 0.769383
-2.366319 1.237657
-1.074456 2.082761
0.309794 1.124417
0.585460 -0.041922
-0.216955 -0.899861
-0.601363 -1.701765
-2.219472 -1.770226
-2.930305 0.498296
-1.268425 1.078635
-0.228850 -0.015218
-0.743954 -0.008549
0.306878 -0.042480
-0.163021 -1.773607
-1.077659 -2.112625
-2.717312 -1.520803
-2.583836 0.031729
-1.749694 1.369814
0.031569 0.098745
-0.950125 -1.391832
-1.449125 -1.187967
-0.816236 -1.180888
-2.288670 -1.923149
-3.454235 -0.141383
-2.097662 1.601535
0.080948 0.921361
-0.279955 -1.307863
-0.670362 -1.142943
-1.399371 -1.432566
-1.527530 -1.076568
-2.787339 -0.986656
-2.963107 0.509084
-1.420118 2.097356
1.466301 0.498612
0.123566 -1.963811
-1.156872 -1.621728
-1.373460 -1.000803
-1.831549 -2.011970
-2.907753 0.013658
-1.294687 0.765951
0.115646 1.168596
1.302869 -0.640051
0.370817 -2.252988
-1.585260 -2.804446
-1.913237 -1.535059
-2.029004 -1.505939
-3.083939 -0.454221
-2.206235 1.417787
0.542410 0.892948
0.315871 -1.560579
-1.016427 -1.473481
-0.541612 -1.521797
-0.788567 -2.332588
-3.002969 -2.576901
-2.765628 -0.891002
-2.174739 0.324059
-0.778143 0.086044
-0.435720 -0.879615
-1.194100 -1.651678
-1.117612 -0.822696
-0.174465 -2.339000
-2.434476 -3.216729
-3.640298 -1.395084
-2.283109 0.538067
-1.118053 -0.841045
-1.967860 -0.699326
-1.751396 -0.789727
-0.993122 -1.125611
-1.523393 -1.926266
-2.757035 -1.848793
-3.252738 -0.527658
-1.728953 0.449626
-0.802746 -1.068482
-2.088020 -1.743614
-2.593872 -0.722226
-1.724703 -0.481958
-2.737408 -1.618489
-3.481794 -0.155463
-2.430444 0.844408
-0.285023 0.044569
-0.525188 -1.341542
-1.518972 -2.595301
-2.746258 -1.598067
-1.918317 -1.250155
-2.813877 -0.568891
-3.997422 -0.305025
-2.178106 1.883759
0.261482 0.259691
-0.050729 -1.463464
-2.150886 -1.858411
-1.694903 -1.288628
-2.434316 -1.863652
-3.337594 -0.290219
-3.178069 0.600955
-0.730653 1.011765
-0.236173 -0.022167
-0.048570 -2.673694
-2.279677 -2.719784
-2.626350 -1.764241
-2.476128 -2.315068
-4.385460 -1.145765
-4.102571 1.239837
-1.055722 1.037128
-0.320766 -1.065540
-1.793950 -2.436473
-2.730059 -1.739373
-2.675289 -1.917973
-3.265164 -1.146967
-4.076539 -0.760679
-3.799019 1.268853
-1.279651 1.320260
-0.501650 -0.551720
-2.269286 -1.426116
-2.895714 -0.361872
-2.264479 -0.948351
-2.782146 -1.006224
-4.212775 0.351000
-2.073678 1.223320
-2.057871 0.071661
-2.421222 -0.544647
-2.681084 -0.275432
-2.855964 0.008881
-2.635714 0.727235
-2.136283 0.067038
-2.503969 0.796715
-1.684938 0.857379
-1.056723 0.020893
-2.660546 -1.265979
-3.406579 0.756626
-2.269310 1.258575
-2.249557 0.966243
-1.918513 1.349711
-0.150941 2.115766
0.546424 -0.202040
-0.396114 -1.216500
-2.085591 -1.533286
-2.372220 -0.589974
-2.554531 -0.055595
-2.205573 -0.678292
-3.177774 0.358231
-1.087579 1.810926
0.654535 -0.219057
-1.002020 -2.638716
-3.069044 -1.566618
-2.500897 0.386598
-1.749326 -0.385131
-2.598151 -0.782454
-3.202912 -0.006409
-1.729408 1.159620
-0.890449 0.502433
-0.062530 -1.372781
-2.110773 -1.539136
-2.646042 -0.790930
-1.873441 -0.427727
-2.924001 -1.491272
-3.101695 0.500389
-1.848341 0.117518
-1.473236 0.004027
-2.411786 -0.162796
-1.683341 -0.276773
-2.376366 -1.109433
-2.739253 -0.330613
-2.973062 0.381219
-2.113279 0.666948
-1.664354 0.811079
-1.132410 -0.164158
-3.044107 -0.096630
-2.097379 1.271867
-1.233421 0.452865
-1.660023 -1.311720
-2.970213 0.040413
-1.139074 0.682066
-1.278570 -0.398763
-1.662098 -0.885144
-2.361354 0.061177
-1.351501 0.248475
-1.184745 -0.069485
-0.933406 -1.002540
-1.880900 -0.776643
-1.505723 -0.696431
-1.301986 -1.391607
-3.326324 -1.672094
-3.571905 0.821251
-1.780686 0.846919
-1.486069 -0.625710
-2.727537 -0.227637
-1.423179 1.017467
-0.518911 0.160367
-0.262767 -1.423206
-2.627455 -1.879642
-3.015412 -0.686318
-2.078515 0.405738
-1.815401 -0.971099
-3.477538 -0.535586
-2.360693 1.168424
-0.462706 0.494931
-1.420230 -1.938241
-2.774772 -1.177907
-2.298917 -0.990627
-2.833662 -1.509865
-3.581071 -1.461370
-3.994050 -0.061481
-3.397287 1.365007
-1.432554 1.087272
-1.363073 -1.090463
-2.505912 -0.997400
-2.656442 -0.417851
-1.758541 -1.164490
-3.896178 -1.508239
-4.295663 0.468265
-2.563016 1.322838
-1.779929 -0.047652
-2.844154 -0.066604
-2.541709 0.225116
-2.657694 -0.034922
-2.487556 -0.533912
-2.908989 -0.670887
-3.400271 -0.051800
-2.312179 0.461108
-2.279555 -0.862593
-4.116503 -0.389705
-3.383626 1.086657
-1.779794 0.864202
-2.656901 -0.694018
-3.658258 0.881000
-2.702339 1.171067
-1.808201 0.485508
-3.078323 -0.825550
-4.240962 0.477817
-3.312270 2.029753
-0.768454 1.657658
-1.336250 0.059949
-2.824962 -0.257564
-2.807954 1.319102
-1.412059 0.034877
-2.793249 -1.162049
-3.807229 0.797657
-2.488966 1.840919
-1.163002 0.228369
-2.002961 0.646382
-2.012983 0.178684
-1.792860 0.354558
-2.193873 -0.242335
-2.611255 -0.060709
-3.581259 0.126483
-2.220277 1.329122
-1.754764 -0.071216
-3.723311 0.252683
-3.389817 1.640572
-1.146054 1.312701
-2.092026 -0.482627
-3.584630 0.688028
-2.711914 1.537242
-1.494405 0.520295
-2.833446 -0.443072
-3.620530 0.380239
-3.784556 1.929128
-1.671605 2.069476
-0.925900 0.724254
-3.019512 0.679513
-1.402133 1.921454
0.297200 -0.258330
-2.641905 -1.818098
-3.903744 -0.422356
-3.403022 1.676999
-3.275103 1.376157
-2.734000 2.121363
-2.651718 2.291258
-0.845882 2.104034
-0.580912 0.797366
-1.230833 -1.220448
-3.909223 -0.534546
-3.690914 1.654562
-2.681383 1.704317
-3.053879 2.018457
-2.405831 2.953314
-0.483731 1.922735
-0.872989 0.246818
-2.048072 0.305200
-2.050834 1.621078
-2.000606 1.242306
-2.142506 1.791017
-0.799398 1.670178
-0.875340 1.714117
-0.600407 0.521478
-1.410934 -0.024901
-2.316292 0.149072
-1.722132 1.721058
-0.873844 0.312596
-1.853365 0.420488
-1.495198 0.966811
-0.000157 0.597851
-1.724894 -1.266324
-3.085662 0.199739
-2.389938 1.478945
-0.199957 1.571756
-0.575751 0.192433
-1.066742 -0.231674
-1.896551 0.928830
0.106866 0.625964
-0.551255 -1.478539
-3.271355 -1.735005
-3.545183 1.839769
-0.922853 1.317811
-0.979851 -1.055315
-1.931459 -0.961906
-2.281297 0.225689
-1.523716 -0.744511
-2.588231 -1.278667
-4.625694 -1.392929
-4.765759 1.815135
-2.927827 2.678915
-1.376390 1.223910
-2.830067 0.924364
-1.198001 1.692226
-0.787188 -0.451392
-2.353605 -1.775040
-5.007241 0.091820
-3.689657 1.920436
-2.622633 3.141376
-1.131326 2.779106
-0.961003 2.277018
-0.519742 1.055151
-0.095204 0.173419
-1.309202 -1.990950
-3.985319 -0.483793
-3.191904 1.164394
-2.041583 1.767763
-2.057494 1.325408
-0.633297 2.076990
0.013049 -0.690184
-2.357676 -1.323860
-3.583664 0.750596
-1.724793 2.576165
-1.288213 0.456017
-1.611984 -0.138441
-2.053239 0.683243
-0.531393 1.246052
0.135813 -0.797585
-2.280065 -2.315374
-4.850907 0.824335
-1.496082 3.432031
1.244508 0.149171
-0.900178 -2.507509
-3.516316 -1.220753
-1.757752 -0.327154
-1.996092 -1.386015
-4.220191 -2.461043
-5.987797 0.142400
-4.487353 2.432924
-0.893887 2.542738
-1.581068 -1.361493
-3.892296 -0.401249
-3.476751 1.145418
-1.896361 -0.308600
-4.740448 -1.119410
-5.472510 1.826188
-3.765279 2.761598
-2.407349 2.386363
-2.419234 1.740518
-2.039646 1.797218
-1.586063 1.342251
-2.364199 0.160405
-4.476465 -0.303753
-5.136336 2.267171
-2.904337 4.186121
-0.872792 2.725914
-1.837731 2.474063
-0.229648 2.349487
-0.046741 -0.061133
-2.653210 -1.609190
-4.729936 0.554102
-3.568900 2.509284
-2.329359 3.395037
-1.119797 3.246468
-0.482727 2.805236
0.124217 1.544072
0.755538 0.013877
-2.502519 -2.196209
-4.653226 0.068714
-3.194352 3.236834
-0.636247 2.527900
-1.474698 0.926175
-1.507835 1.516455
-0.145435 0.381465
-1.613866 -1.242044
-4.006740 -0.139216
-3.875076 2.210780
-2.150569 2.955484
-0.282288 1.492138
-1.578641 -0.001196
-1.821999 0.622709
-1.219969 0.832395
-2.770243 -1.011278
-4.955870 1.593235
-3.125998 4.082266
-0.011385 2.543423
-0.092113 0.083467
-1.410905 0.308198
-1.784093 -0.146624
-2.371256 -0.647443
-4.521988 -0.928809
-5.683333 1.848832
-4.083034 4.826093
0.335835 5.230574
0.968842 1.162874
-0.925004 -0.060164
-1.531199 0.390376
-1.400203 -0.669731
-4.604162 -0.285319
-5.292316 2.621398
-2.751639 4.981554
0.081507 4.168291
1.227576 2.815201
0.855608 0.614780
-0.463478 -0.013078
-2.013047 0.054315
-3.510791 0.659849
-3.398888 3.202620
-0.362221 4.455777
1.487980 2.091421
0.488948 1.402914
0.347721 0.078323
0.288569 -1.482624
-2.687836 -1.635275
-3.854827 1.291111
-1.955155 3.270989
0.864629 2.402743
0.186018 -0.159519
-0.562434 -0.763759
-1.630769 -0.499826
-0.213165 -0.171466
-2.631486 -1.664243
-4.442738 0.945060
-2.134243 3.193508
1.303189 0.746100
-0.854436 -1.450263
-1.642713 -1.540662
-1.820683 -0.633833
-3.021700 -0.503479
-4.110789 0.210701
-3.105577 1.452348
-1.781510 2.165420
-0.268025 1.180768
-1.107333 -0.138334
-3.136924 -0.781942
-2.673805 0.355649
-3.082983 -0.583416
-4.300631 1.919541
-2.100868 3.366569
0.875066 1.678166
-1.046955 -0.321213
-1.004831 -0.193290
-1.541163 -0.801281
-2.549098 -1.450864
-4.552110 -0.994055
-5.769581 1.458996
-3.717201 4.694967
0.474934 3.405498
0.670867 0.222692
-1.333232 -0.796643
-1.019649 -0.521183
-1.445239 -2.638718
-5.275990 -2.279245
-5.864252 2.111697
-2.393665 4.042870
-0.480905 2.435921
-0.224441 0.274729
-1.052161 -0.862246
-1.050872 -1.448506
-2.723211 -2.449616
-4.728012 -1.013013
-5.832101 2.063826
-1.433703 3.196215
-0.280411 0.671169
-2.537315 -1.116188
-3.325581 0.230364
-2.088295 -0.453068
-3.912154 -1.153311
-5.044722 0.530789
-4.390230 2.595266
-1.774792 1.972394
-1.292108 1.310376
-2.556853 -1.062634
-4.077574 -0.319948
-4.096771 0.381255
-5.275962 0.607918
-5.165880 2.961817
-1.399010 4.544113
-0.155848 1.188423
-2.194540 -0.835654
-3.088720 0.249555
-3.054278 -0.283314
-5.210783 -0.556263
-6.458741 1.359138
-5.406794 4.139580
-1.395434 4.493433
0.172903 1.885153
-1.330895 -1.040559
-4.592214 1.225889
-2.068941 1.684331
-3.690170 -0.262771
-6.266142 2.194914
-3.149303 6.067776
0.782738 4.168666
-0.234779 0.916865
-1.302766 -0.768137
-2.357967 -0.670896
-3.853962 -2.145923
-5.172682 -0.877217
-6.608522 1.058976
-5.217328 6.209462
0.452027 4.545534
0.961492 -1.047318
-3.238056 -2.522041
-4.072071 0.324214
-4.527508 -0.931408
-6.557995 0.027204
-8.926256 4.104627
-3.898674 7.189823
-0.341729 4.416295
0.403127 0.630299
-2.293961 -1.051050
-4.437078 0.572463
-4.412738 2.147290
-4.729593 2.598678
-4.661870 5.337043
-1.284699 5.134480
0.574202 1.990664
-1.616008 -0.380434
-3.312196 -0.021348
-4.589435 0.758706
-4.597108 3.091444
-3.031379 4.525086
-0.563887 3.865029
-0.378632 1.378272
-1.402499 -0.562016
-4.920368 -0.993886
-5.450514 2.077854
-4.694491 3.650112
-3.375059 3.806107
-3.258290 6.154740
1.619976 6.466079
2.484919 1.024917
-1.057500 -1.118938
-3.372004 0.225492
-2.027487 0.285889
-2.519322 0.845460
-4.020758 2.152756
-3.199705 4.043990
0.681970 4.804281
2.758997 0.161448
-1.579701 -3.961388
-4.672363 -0.936617
-3.138928 2.023753
-2.770074 0.119316
-4.982233 0.434151
-3.775167 3.789151
-0.865129 3.031501
0.181947 -0.212305
-2.920467 -1.419522
-4.393922 -0.203041
-5.071596 0.980585
-3.545502 0.743902
-5.171283 1.129605
-4.129242 3.711036
-1.213714 4.063150
-0.534941 0.052418
-3.921565 0.498349
-3.903198 0.841584
-4.574195 0.789332
-5.621149 0.420901
-5.192703 4.508311
-3.084735 2.924865
-2.027572 1.878678
-3.388470 0.252573
-5.561274 1.852682
-4.128856 2.731344
-2.916743 3.058175
-4.824556 1.676769
-5.176879 5.120866
-2.293607 5.043918
-0.167991 1.290182
-3.868278 0.327680
-3.694295 2.950109
-2.008990 2.912504
-2.008502 1.959772
-2.534899 1.771485
-1.718845 2.317475
-0.252453 1.448377
-1.075480 -1.213981
-3.656685 -1.592719
-5.542060 0.645164
-4.872438 2.535348
-4.649967 0.546986
-6.283615 4.271746
-1.125505 3.608751
0.740160 -0.144843
-3.618994 -3.841280
-7.270741 -1.284670
-6.908045 -0.599413
-6.195594 0.768897
-7.538569 1.265783
-6.493094 4.450786
-3.321421 7.037593
0.193624 2.962656
-4.149500 -2.897078
-7.981924 0.026943
-7.246145 2.731146
-5.936446 1.694652
-8.684108 2.586831
-6.764188 5.899735
-2.994617 5.382505
-2.311656 2.471099
-4.165359 3.056031
-5.857097 1.144490
-5.938078 3.963581
-5.983873 1.475108
-7.976587 3.805663
-5.285525 6.727393
-1.265260 5.222934
-3.927463 -0.097639
-7.922852 2.983976
-5.496450 6.180807
-3.320466 4.285245
-6.298152 3.403480
-4.929150 5.477636
-3.396174 6.399455
-0.968779 4.054926
-4.315645 0.755475
-7.275993 2.968744
-6.331876 6.902809
-0.682948 5.323326
-3.870251 1.760247
-5.562615 4.765551
-1.800987 7.655338
0.479668 2.400201
-4.325428 0.858232
-7.584622 4.148779
-4.619856 5.727063
-4.151246 3.230800
-4.861339 3.146034
-5.398749 4.244872
-3.802713 5.873658
-2.897872 2.065279
-6.866384 0.674403
-9.145031 4.118143
-5.308737 6.839404
-5.638713 5.447756
-5.126782 6.365974
-1.722905 8.486438
0.887928 3.902535
-4.206648 0.917021
-5.320075 1.738900
-7.763792 5.593943
-5.721990 5.915931
-4.949457 6.949061
-4.987892 5.815929
-2.200856 8.097389
0.923721 3.815690
-4.316075 0.221960
-7.794211 3.098086
-4.222301 7.695159
-4.461134 2.501756
-8.310125 3.567237
-7.407133 7.391418
-2.385643 7.679758
-3.178543 4.040682
-4.887595 4.149857
-6.559866 6.973262
-0.909414 10.351459
-0.208349 5.065238
-3.602647 1.276405
-8.322796 6.204230
-2.221154 7.179155
-3.367320 4.834082
-4.975554 5.345365
-3.471831 9.727152
0.575384 6.790212
-0.094381 4.153734
-1.359301 2.536336
-4.628745 3.767069
-3.530659 2.551835
-4.680070 3.238312
-6.118505 4.275432
-5.436810 9.807404
-0.184552 6.403848
-2.100593 2.698630
-6.255635 5.546078
-1.356393 7.438807
-0.331421 3.756447
-1.335102 2.650947
-4.364658 4.675781
-2.002490 5.361275
-2.254892 5.556727
-1.879703 2.757107
-3.708263 2.530811
-2.111751 5.785290
-2.714848 1.677291
-3.287418 -0.615954
-6.719070 5.470718
-3.994292 2.845873
-6.904894 1.906012
-7.916285 5.726955
-3.346068 8.388003
-3.353943 1.821852
-9.062716 3.214583
-5.853109 6.319317
-3.388146 6.770379
-2.980188 0.161815
-8.769767 0.942153
-14.019995 8.025375
-5.375071 15.433919
2.887463 6.890342
-3.669685 -1.251532
-13.489620 3.593659
-5.524047 10.703616
-3.158743 3.193550
-10.013676 1.566061
-13.354386 7.684045
-7.942047 13.122177
-2.351887 10.134316
-3.319925 3.490515
-11.460695 5.578093
-4.976879 9.981207
-0.462041 6.400013
-6.225276 -1.626849
-13.063546 7.719403
-9.146323 11.486151
-9.285079 9.604777
-8.465047 10.185605
-4.047923 11.938997
-1.546513 8.457392
-1.862216 4.369626
-4.693717 6.073283
-8.164103 8.410854
-8.344190 7.562018
-3.348289 7.559725
-12.794636 5.158507
-10.404733 9.228696
-3.162134 9.154451
-5.011897 4.701832
-9.477747 10.872045
-4.506954 9.726770
-4.370682 6.114761
-6.876446 9.935210
-9.760082 11.766213
-3.035492 7.390424
-4.646855 10.538399
-8.087783 8.222419
-5.890432 10.379938
-3.253400 12.419601
-1.996032 4.091938
-7.373846 2.985974
-7.115109 14.099134
0.448730 5.981035
-2.023669 -3.634208
-19.024388 3.726758
-14.532091 14.677220
-7.769167 10.377299
-7.708546 12.767610
-14.231180 12.353398
-3.985969 18.468106
0.420594 10.423754
-6.541664 -0.267317
-20.251149 5.191264
-17.675046 19.838413
-2.345649 21.998514
-8.316708 12.414739
-9.999619 18.743447
-1.250125 22.772167
-3.565937 11.332884
-13.367164 7.577033
-20.700332 17.564553
-14.225756 23.832013
-3.914647 29.259123
-3.764817 19.291405
-3.164284 18.600539
2.299822 25.634070
10.436608 10.578930
-14.685707 1.467961
-22.521797 19.991238
-7.442613 36.950714
5.639407 26.809501
-2.393136 21.393450
4.600487 18.607335
7.698834 17.425119
4.240940 9.148198
-3.011291 13.199562
1.256023 9.519165
0.706427 18.908905
1.033908 7.912844
-17.354538 19.714578
-9.814336 21.776644
8.516696 21.514852
-1.802906 0.546698
-19.865228 6.039576
3.636745 11.727665
1.923252 17.824283
-6.125809 -0.986132
-4.087736 8.219676
-22.995894 16.517177
-1.837785 14.015959
-18.022548 4.152112
-18.104839 22.187304
-8.731033 38.074399
-1.752584 40.278396
-7.094359 -1.151179
-11.867224 26.525983
-15.926870 12.334444
-18.321751 -14.663445
-32.616201 13.358180
-30.570425 39.008620
-15.528885 42.342292
7.908052 46.042191
15.480168 25.969130
5.010651 -3.070480
17.861227 13.933835
-18.642472 -5.464071
-36.231909 2.872988
-9.625378 44.459626
10.608281 60.204110
12.112870 31.195841
42.680839 35.592574
26.614557 39.657876
5.811277 -22.756100
-61.420053 16.646592
-31.919984 45.104031
-37.447737 54.699998
19.626690 77.512175
15.081998 26.268719
16.447051 -6.598470
15.200782 25.449823
44.262297 -8.679713
-30.279554 -17.327737
-36.476918 21.712596
-30.733270 176.779503
46.434984 -21.164287
33.158313 -16.817888
0.409559 -38.659177
-49.165276 -4.417769
-17.650568 -0.876846
-60.521819 -9.898257
30.597623 93.813007
-6.554455 105.721785
87.159533 -56.315338
-3.389343 58.889134
-147.543074 141.885373
32.948366 -17.936530
-342.886624 -91.833021
-20.998740 151.726414
31.219098 129.356524
-163.361900 52.716064
-267.951988 341.728318
-74.967225 -224.452122
-164.718237 -17.756197
-143.961204 -235.836517
-252.305530 397.140251
-400.007053 718.379783
-634.870841 2052.250672
-504.139190 -1487.211074
