5064.246590 5366.482531
-2862.853416 339.847327
38.032763 -148.942691
613.013342 -143.263060
221.485420 -210.292574
151.077064 135.877988
111.646976 295.875322
141.563161 -369.746475
89.074342 -72.731715
175.336913 -251.117906
-72.506070 100.363792
120.622344 -253.130051
-138.156220 -60.259455
-282.957437 -38.934426
36.741948 -172.706336
123.326606 -139.593747
16.569374 -112.193719
13.513811 -91.741664
-63.867933 -87.401535
-24.874770 -58.835631
8.354994 -6.101603
-45.579294 -41.735495
-16.734073 -66.015884
-1.001061 -24.024626
-26.180203 -60.102738
-35.093597 -3.500592
47.552925 -38.369378
15.221214 -65.147237
18.681987 -57.861669
-25.170474 -15.426644
-39.875349 -33.346140
-22.070630 -57.034277
-19.897064 -33.540176
-29.301416 -6.712886
-14.411510 -7.193942
-32.287389 -19.760538
-16.752545 -11.587075
-8.759218 -21.937691
9.345120 -27.313733
3.114021 -9.316702
-1.170316 -8.107076
17.648838 1.035912
9.434812 -11.731895
46.221419 -9.829115
16.968623 -12.751551
24.960923 -30.413067
23.600831 -33.325735
6.031932 -46.117366
7.998345 -37.799451
7.938387 -35.521516
-1.075442 -46.099443
-1.550400 -33.970407
-11.857735 -33.744776
-25.909400 -22.908848
-19.339253 -26.493909
-16.035245 -19.231543
-21.849076 -21.677908
-21.431751 -7.151744
-21.194189 -1.145736
-18.641943 -4.979415
-8.518642 11.326836
-7.897618 2.788042
9.635542 3.379949
6.226559 7.056814
9.531121 9.350129
17.232335 3.602100
27.283169 -8.939903
19.364385 -14.474705
19.900823 -17.950403
21.367900 -25.010249
10.054658 -29.737356
10.849585 -35.924161
9.097702 -37.296139
7.810470 -35.974926
-0.849390 -31.798149
-8.810123 -28.545803
-12.475357 -30.556455
-17.722460 -24.565079
-22.162925 -21.677792
-22.715217 -13.885694
-23.334698 -7.814229
-21.655430 1.252582
-18.707900 -3.790152
-11.087360 7.632943
-4.861561 8.236426
-4.754745 7.047179
5.631090 7.665146
8.105491 4.215278
9.166072 3.564869
15.765444 2.599886
17.854065 -4.862369
19.950147 -8.895163
15.498193 -12.475698
12.724796 -17.681674
11.258705 -17.091262
7.611360 -24.082215
6.014283 -23.234875
5.666475 -26.184126
-5.425375 -24.941214
-11.642571 -21.682176
-10.806167 -20.496201
-12.423306 -15.461324
-13.843223 -16.873413
-14.600558 -10.572463
-14.276502 -6.904197
-10.444919 -5.672505
-11.661345 -1.701683
-3.549443 -1.157298
-2.130848 1.007021
-1.094208 3.564189
1.819072 2.638718
3.456760 2.525973
7.030072 1.306473
7.173034 -1.219401
10.755434 -3.591269
8.319551 -5.188754
6.759074 -10.873298
6.728985 -12.259902
4.688718 -14.612081
6.111573 -14.935976
2.502006 -15.319896
1.503715 -15.313497
-0.527130 -15.124990
-4.235228 -14.540886
-3.459110 -11.063090
-4.509596 -10.602988
-5.072571 -9.483031
-5.261275 -9.167602
-5.118853 -8.264634
-4.833182 -6.216805
-7.935244 -7.217158
-2.709288 -4.985778
-3.570933 -4.814432
-1.470571 -3.497559
-3.261952 -4.485100
-0.758509 -5.152168
0.529030 -4.638172
0.990128 -5.352247
-1.732138 -2.959711
2.305704 -3.355149
-0.201001 -5.223078
-0.188146 -3.948530
2.244700 -6.208662
1.189880 -6.330878
1.545848 -4.907227
1.477105 -5.677870
-0.123860 -6.364627
1.668630 -6.634970
1.721789 -7.532026
2.625168 -7.274789
1.061295 -8.607800
0.444844 -9.796952
0.570972 -9.620513
0.643808 -8.289654
1.280408 -9.831604
-0.239428 -9.965523
-1.327976 -9.085174
-3.849364 -9.764839
-5.924123 -9.932445
-5.128590 -8.999446
-4.859629 -5.966758
-6.732871 -4.452806
-5.973774 -3.035037
-5.002937 -3.092223
-4.608643 -0.853626
-3.049852 -0.381544
-3.650606 -1.167798
-1.166652 0.385222
1.128062 1.687750
1.615811 -0.633528
3.073932 -0.645864
7.540308 -4.045389
5.607683 -4.039602
4.987700 -4.625898
5.594403 -7.263220
4.313759 -9.782168
5.343119 -9.790762
3.457173 -11.279490
0.699232 -12.749980
0.395656 -12.399564
-4.282361 -12.196213
-4.792011 -11.356169
-6.257946 -10.795939
-6.607343 -9.898535
-7.914346 -7.012455
-8.401815 -5.665599
-8.593296 -3.909924
-7.443505 -1.927715
-6.870512 0.495701
-4.644781 1.837772
-4.145530 2.571908
-1.728004 3.027178
1.828918 3.111528
1.662269 2.560682
4.675541 0.068169
5.558305 -1.091366
6.240776 -0.910275
6.282992 -4.322499
5.191568 -6.812959
6.266381 -9.117230
5.363486 -9.899463
2.049008 -11.914142
0.856717 -10.938086
-0.393418 -13.107541
-2.679685 -9.711837
-3.380542 -10.711485
-4.951265 -10.212709
-5.897732 -8.657999
-7.823730 -6.210795
-8.240348 -4.898763
-7.732706 -2.609350
-6.659950 -0.905127
-5.214701 0.424726
-4.169448 0.548276
-3.759397 0.798083
-1.721374 1.721351
0.061723 0.828705
1.986219 0.454072
2.878426 -0.745774
4.214770 -0.903345
5.209702 -2.648978
3.570806 -3.252038
4.768572 -5.720699
4.206953 -6.743492
3.019726 -7.430548
0.889509 -8.118679
0.449584 -9.158136
-1.392570 -8.138703
-1.852269 -8.409501
-3.259524 -8.900885
-4.135012 -6.940546
-4.624974 -5.507482
-4.661508 -4.169853
-5.460327 -3.766287
-3.064210 -3.086187
-3.393312 -2.815004
-3.196798 -0.761391
-3.023821 -2.675841
-3.132062 -1.185566
-1.085708 -1.429008
-0.068382 -2.654688
-0.001928 -1.914500
0.247129 -2.582336
0.275565 -2.905348
0.841068 -2.308587
0.624007 -3.673939
0.618068 -3.094321
-0.032752 -4.018918
-0.337264 -4.903162
-1.157922 -4.539913
-0.653298 -4.250618
-1.132328 -4.745464
-0.447293 -3.725100
-1.712798 -3.227599
-0.329642 -3.662649
-0.817557 -2.780190
-0.453769 -3.572374
0.021212 -4.141841
-0.124968 -3.552267
-0.862671 -4.500976
-0.614636 -3.274238
-1.466809 -4.784324
-1.301109 -5.258653
-0.783062 -5.207977
-1.915003 -5.137065
-1.913963 -5.148767
-2.486212 -4.371212
-3.369886 -4.354816
-3.129616 -4.314127
-2.997471 -3.090861
-3.466470 -2.128365
-3.299409 -1.525908
-3.775398 -1.294201
-2.572607 -0.566354
-0.672095 -0.333401
-0.491733 0.077427
0.453247 -0.593627
1.190148 -0.398224
1.718280 -1.367892
2.063819 -1.268782
2.374981 -3.206623
2.574033 -4.525066
2.618924 -4.422875
2.003141 -6.201838
1.134152 -6.829449
0.224686 -7.094470
0.015404 -7.352354
-1.778387 -8.034951
-2.969484 -7.299279
-3.601447 -6.522997
-5.610415 -5.727358
-5.451302 -4.537756
-6.244074 -3.422566
-5.840230 -2.036421
-5.628234 -1.075317
-4.888101 0.360993
-4.563123 0.791918
-2.916219 1.179964
-1.717195 1.679039
-0.417064 2.434605
2.019415 1.451245
2.396766 1.417863
3.332079 -0.503359
3.942081 -1.301048
3.642786 -2.655293
4.304007 -3.685365
3.738664 -5.526662
2.574129 -6.549468
2.170011 -8.195814
0.889017 -8.304623
-0.577092 -8.124462
-1.833822 -8.047415
-3.301251 -7.986790
-5.237938 -6.459395
-5.747742 -5.439591
-5.779759 -4.285893
-5.984033 -2.912476
-5.917065 -1.715686
-5.391191 -0.160229
-4.690356 0.127870
-3.476919 0.844498
-2.540828 1.726813
-1.123691 1.919257
-0.120820 2.278916
1.063308 1.081665
2.049150 -0.326903
3.174695 -0.652423
3.385408 -2.017570
3.393496 -3.178039
2.768046 -3.882947
2.378643 -5.001301
2.002423 -5.973566
0.402308 -6.457449
-0.108539 -6.017405
-1.252666 -6.344992
-2.333590 -5.739446
-3.147231 -5.938586
-3.641510 -5.134898
-4.204537 -4.291012
-4.483833 -3.310215
-4.534423 -1.565092
-4.592860 -1.405079
-3.887817 -1.177985
-3.253258 0.214599
-2.236237 0.326492
-1.402661 0.233765
-0.627959 -0.193101
-0.020790 -0.208347
0.238060 -0.711250
0.885629 -1.474093
1.333045 -1.661691
1.204749 -2.422861
0.751918 -2.626531
0.547456 -3.488127
-0.191655 -4.005156
-0.314982 -4.101620
-0.730550 -3.835643
-1.491933 -3.978677
-2.219180 -3.895793
-1.795779 -3.630280
-1.751405 -2.999487
-2.194039 -3.102321
-2.016905 -2.101478
-2.209830 -1.978980
-1.907687 -1.894429
-1.626749 -2.223459
-0.953116 -2.522223
-0.861078 -1.791709
-0.839204 -1.913605
-0.788716 -2.565504
-0.622117 -2.529843
-0.886792 -2.568414
-1.189799 -2.853987
-1.292157 -2.797432
-1.564404 -2.870822
-1.720323 -2.827830
-2.144843 -2.749012
-2.077671 -2.158884
-2.124858 -2.435197
-2.184388 -1.805318
-1.905182 -1.655792
-1.924001 -1.035699
-1.692034 -0.486981
-1.416113 -0.746726
-0.619967 -0.438475
-0.079425 -0.806022
0.588653 -0.795575
0.602277 -1.148984
0.937342 -2.055763
1.324065 -2.979315
0.942090 -2.908391
0.747772 -3.955819
0.268717 -4.223346
-0.751250 -4.963215
-1.023192 -5.133517
-1.684576 -4.954751
-2.805838 -4.798621
-3.378010 -4.174303
-4.000240 -3.940030
-3.961364 -2.782989
-4.573618 -2.385222
-4.293141 -1.757626
-3.824448 -0.801321
-3.401935 0.065537
-2.893613 1.241776
-1.777223 1.299492
-1.466950 1.548993
-0.826671 1.003546
0.294680 0.706756
1.204505 0.797273
1.916624 0.122993
2.252611 -0.886048
2.809413 -2.585985
2.509918 -3.286655
1.869994 -4.084881
1.603463 -5.252587
0.512936 -5.598865
-0.356879 -5.855178
-1.435772 -5.945398
-2.313842 -5.955527
-3.208010 -5.486129
-4.824036 -4.603930
-4.516466 -4.007306
-5.133653 -3.029134
-5.430541 -1.871304
-4.916328 -0.697774
-4.395547 0.829135
-3.840552 1.130680
-3.289373 1.405336
-2.196024 1.958449
-0.747658 1.911986
0.202920 2.262754
0.701262 1.482697
1.463894 0.958608
2.060777 -0.382935
2.887843 -1.233854
2.584383 -2.246521
2.215603 -3.421911
1.559925 -4.142547
0.747830 -4.993111
-0.017694 -5.264839
-0.756545 -5.496680
-1.593672 -5.694253
-2.702011 -5.129320
-3.212930 -4.692585
-4.007741 -3.888885
-4.621461 -3.408618
-4.267985 -2.717139
-5.188389 -1.671134
-4.640723 -0.583326
-3.887408 -0.256017
-3.220099 0.357622
-2.696840 0.826540
-1.488402 0.898399
-0.861350 1.143139
-0.496725 0.920094
0.314888 0.690144
0.414028 0.231870
1.092806 -0.808216
1.102150 -1.366676
1.289161 -1.658166
0.928773 -2.409358
0.452440 -2.837964
0.126560 -3.220330
-0.623508 -3.336337
-0.740627 -3.803652
-1.064848 -3.602805
-1.901433 -3.429303
-1.913572 -3.221067
-2.385606 -2.948941
-2.736795 -2.962124
-2.466796 -2.551132
-2.697882 -2.132143
-2.605551 -1.706096
-2.975236 -1.009036
-2.731256 -0.892339
-2.164870 -0.642163
-1.741979 -0.718911
-1.548157 -0.548622
-1.501832 -0.546167
-1.532275 -0.720809
-1.082014 -0.772642
-0.995101 -1.100242
-0.789859 -0.550128
-0.686660 -1.151251
-1.396989 -1.170889
-0.989371 -1.468700
-0.446806 -1.261499
-0.877680 -1.078645
-0.145231 -1.561261
-0.422300 -1.578624
-0.355170 -1.482320
-0.217217 -1.928590
-0.805555 -2.197202
-0.509318 -1.730434
-0.659701 -2.375341
-0.485689 -2.548852
-1.270685 -2.575568
-1.493454 -2.850953
-1.576617 -3.193209
-2.022026 -2.748869
-1.885488 -2.609735
-2.634973 -2.490342
-2.883989 -2.389461
-3.024047 -2.064037
-3.110692 -1.386447
-3.296066 -1.003693
-3.166834 -0.650109
-2.598463 -0.262212
-2.551628 0.187336
-2.330655 0.484628
-1.554591 0.281577
-0.785343 0.756709
-0.746381 0.520217
0.106599 0.041212
0.299491 -0.385821
1.362487 -0.799659
1.318087 -1.498949
0.952854 -2.060590
0.943926 -2.718466
0.672620 -3.514052
0.385432 -3.665694
-0.471936 -3.958788
-1.073569 -4.643401
-1.876518 -4.378427
-2.917106 -4.085026
-3.604626 -3.513962
-4.143217 -3.081135
-4.137735 -2.704011
-4.393153 -1.537881
-4.438206 -0.561844
-3.963123 -0.171197
-3.785916 0.446226
-2.626806 0.770733
-1.986090 1.527629
-1.680949 1.786861
-0.506142 1.615346
-0.236682 1.236651
0.732689 0.753766
0.907793 0.154283
1.568111 -0.500509
2.115903 -1.506575
1.981484 -1.882627
1.304769 -3.190363
0.702047 -3.410404
0.102377 -4.026682
-0.286503 -4.792863
-1.284393 -4.108851
-1.997959 -4.163316
-2.840613 -4.126684
-3.595375 -3.596416
-3.859384 -2.639570
-4.362061 -1.989587
-3.911020 -1.291003
-4.143002 -0.898082
-4.042202 0.009007
-3.243276 0.458760
-2.630114 0.962651
-2.308824 1.094550
-1.741290 1.188936
-0.860411 1.329486
-0.010989 1.146160
0.279370 0.419216
0.373249 -0.099805
1.149904 -0.494451
0.473297 -1.370525
0.819166 -1.887659
0.673492 -2.425049
0.153305 -2.519346
-0.069129 -3.362079
-0.938808 -3.447918
-1.496340 -3.267650
-2.102489 -3.055321
-2.610126 -2.859076
-2.772799 -2.570864
-3.047216 -1.777341
-3.316560 -1.250851
-3.043691 -1.096697
-2.873497 -0.350419
-3.036555 -0.042516
-2.343485 -0.076220
-1.708342 0.311637
-1.282660 -0.178602
-0.960775 -0.082593
-0.890514 -0.163405
-0.804443 -0.354438
-0.691115 -0.805734
-0.595420 -0.861189
-0.534638 -1.260189
-0.717085 -1.778492
-1.225290 -1.873250
-1.170468 -1.933047
-0.913303 -1.639691
-1.458155 -1.286461
-1.744004 -1.705603
-1.815004 -1.049786
-1.862269 -1.403651
-1.444938 -1.092079
-1.439539 -1.094438
-1.276994 -0.976241
-1.382464 -0.679308
-1.122237 -0.783841
-0.935788 -0.695771
-0.723557 -0.998829
-0.811641 -1.510363
-0.677706 -1.355415
-0.854080 -1.577885
-1.442997 -2.111218
-1.328641 -2.051147
-1.418663 -1.908462
-1.892166 -2.361677
-1.790878 -1.880931
-2.336312 -1.518407
-2.376645 -1.307559
-2.730909 -0.987279
-2.752201 -0.903243
-2.366675 -0.542070
-2.649196 -0.080971
-2.100905 0.207854
-1.908678 0.735276
-1.699014 0.425708
-0.784331 0.742309
-0.482037 0.415909
0.239216 0.370135
0.109413 -0.083384
0.501332 -0.560139
0.804713 -1.261070
0.692335 -1.726782
0.431813 -1.967677
-0.202377 -2.861762
-0.609461 -3.341750
-1.022667 -3.445740
-1.691334 -3.832304
-2.360429 -3.333163
-2.825116 -3.122356
-3.612404 -2.182044
-3.703865 -1.949144
-4.058416 -1.322499
-3.730886 -0.651803
-3.997404 0.188906
-3.310448 0.764928
-2.769610 1.129782
-2.335375 1.721187
-1.478250 1.777551
-0.629803 1.666382
-0.430303 1.414765
0.319102 1.011523
1.055620 0.378359
1.184581 0.129018
1.567325 -0.907532
1.531170 -1.456187
1.210102 -2.413570
0.427405 -3.143506
-0.171864 -3.656319
-0.630135 -3.769026
-1.032346 -4.056250
-2.247245 -3.981278
-2.826470 -3.606932
-3.788298 -3.399742
-4.315009 -2.422165
-4.045828 -1.576193
-4.461453 -1.122599
-4.098061 0.039854
-3.608248 0.698950
-3.448447 1.019438
-2.820877 1.648819
-1.855010 1.837918
-1.215788 1.747077
-0.792534 2.120790
0.025315 1.466961
0.685454 1.077597
0.746701 0.066902
0.848479 -0.478722
1.527515 -1.438893
1.320007 -1.764566
0.999061 -2.302278
0.390050 -2.768047
-0.018200 -3.230905
-0.820212 -3.330259
-1.215231 -3.359652
-2.208002 -3.274372
-2.930868 -2.601143
-3.348155 -2.404538
-3.605888 -2.130404
-3.813866 -1.084175
-3.404355 -0.839309
-3.600274 -0.057549
-3.263216 0.340779
-2.882555 0.635502
-2.330606 0.832914
-1.695864 0.926224
-1.425718 1.365367
-0.843234 0.819297
-0.455992 0.613231
-0.367150 0.262953
-0.036563 -0.404383
0.028685 -0.847381
-0.099436 -0.721784
-0.336036 -1.257871
-0.775082 -1.329226
-0.791058 -1.743479
-0.927024 -1.978330
-1.088649 -1.533386
-1.533832 -1.673479
-1.864155 -1.982746
-1.899462 -1.839475
-2.191423 -1.464463
-2.005323 -1.201762
-2.031496 -0.773252
-2.036410 -0.798000
-1.905164 -0.713990
-1.915031 -0.885995
-1.986723 -1.173423
-1.693211 -0.472585
-1.609430 -0.496365
-1.488702 -1.025678
-1.804043 -0.734278
-1.463573 -0.792170
-1.285986 -0.978940
-1.561217 -0.660361
-1.565562 -0.934810
-1.951665 -0.675076
-1.621120 -0.488527
-1.596873 -0.223858
-1.566895 -0.269393
-1.635699 -0.309920
-1.340597 0.196043
-1.254595 0.001569
-1.280574 -0.227876
-0.956162 0.033751
-0.258395 -0.048916
-0.508863 -0.528068
-0.444118 -1.007597
-0.360070 -1.396733
-0.553876 -1.495301
-0.590721 -1.643348
-0.582167 -1.822409
-1.521572 -1.968018
-1.541285 -2.119648
-1.946745 -2.339825
-2.623170 -1.695891
-2.854710 -1.626486
-3.221203 -1.463981
-3.139953 -1.061524
-3.696420 -0.404150
-3.616277 -0.367042
-3.068076 0.178906
-2.910997 0.574979
-2.428438 1.127712
-2.179426 1.568255
-1.392291 1.619799
-0.827628 1.396126
-0.199384 0.797815
0.485553 0.866585
0.381173 0.435434
0.802769 -0.297321
0.426539 -0.894008
0.541556 -1.731175
0.686010 -2.392663
0.230268 -2.718357
-0.368439 -2.616825
-0.907138 -3.091715
-1.718072 -3.413300
-2.147894 -2.945765
-2.871652 -3.154873
-3.482059 -2.121982
-3.604824 -1.799625
-4.040929 -1.105287
-4.174547 -0.850306
-3.845891 -0.034380
-3.456194 0.682703
-2.904152 1.642323
-2.615980 1.910266
-1.787533 1.926781
-1.231802 1.930444
-0.694875 1.937878
0.220394 1.798689
0.196298 0.938514
0.655035 0.594889
1.015799 -0.385425
1.036442 -0.793361
0.940413 -1.399589
0.889588 -1.964786
0.167760 -2.910172
-0.673410 -2.935231
-0.956968 -3.102658
-1.728624 -2.908957
-2.242573 -2.587189
-2.605428 -2.785823
-3.310184 -2.512199
-3.630943 -1.627300
-3.746748 -0.964858
-3.575207 -0.486573
-3.995948 0.072496
-3.046973 0.655521
-2.747371 1.379025
-3.053547 1.368480
-1.864760 1.644463
-1.262038 0.878137
-0.852261 1.366951
-0.487114 0.986720
-0.233684 0.348666
0.251989 0.395481
0.380781 -0.215173
0.432796 -0.747485
-0.062255 -0.882272
-0.171202 -1.223961
-0.299360 -1.516816
-0.754267 -1.778460
-1.276994 -2.051359
-1.406321 -2.046542
-1.877177 -1.778625
-2.176855 -1.585806
-2.348578 -1.342313
-2.393377 -1.206676
-2.394784 -1.150558
-2.775573 -0.715611
-2.355001 -0.438485
-2.291652 0.046034
-2.110253 -0.153766
-2.155082 0.233755
-1.871191 0.326727
-1.459212 -0.048262
-1.539097 -0.164667
-1.502935 0.068466
-1.519238 -0.096687
-1.577805 -0.101038
-1.376560 -0.171994
-1.384758 0.105600
-1.385551 -0.408540
-1.314661 -0.399712
-1.158468 -0.432708
-0.994522 -0.420465
-0.858228 -0.650874
-0.973599 -0.224529
-1.019968 0.113608
-1.067187 -0.199014
-1.142355 -0.808862
-1.002511 -0.990397
-0.817890 -0.831625
-0.715904 -1.229324
-1.329742 -1.106942
-1.592272 -1.293539
-1.446061 -1.601272
-1.909905 -1.526628
-2.188056 -1.538187
-2.442024 -1.677295
-2.511521 -1.038897
-3.061382 -0.960974
-3.286751 -0.667487
-2.982044 -0.499153
-2.643270 0.013380
-2.531822 0.637288
-2.433159 0.938056
-2.393228 1.278826
-2.008832 1.299080
-1.484522 1.057203
-0.747161 1.247062
-0.145317 1.173469
-0.079165 0.922060
0.231426 0.341282
0.486717 0.041890
0.467769 -0.086437
0.190035 -0.864536
-0.110558 -1.499514
0.031206 -2.139487
-0.228705 -2.363315
-0.588754 -2.761785
-1.396746 -2.400616
-2.171643 -2.535800
-2.943855 -2.253950
-3.438993 -2.184261
-3.752110 -1.559486
-3.829765 -0.847204
-3.881056 -0.280255
-3.679134 0.299021
-3.555826 0.987588
-3.342031 1.743786
-2.921953 1.620451
-2.069448 1.991416
-1.234293 2.320265
-0.559460 2.313974
-0.383076 1.899101
0.403635 1.219996
0.987725 0.938140
0.958283 0.258446
1.004770 -0.526352
0.939004 -1.090131
0.683415 -1.993166
-0.027556 -2.100842
-0.579396 -2.990259
-0.921085 -2.962110
-1.679779 -2.769102
-2.286589 -2.248113
-2.980908 -2.406366
-3.346041 -1.958933
-3.637128 -1.404029
-4.003617 -0.939562
-3.791395 0.357990
-3.787480 0.804323
-3.878790 1.541578
-3.344182 1.689355
-2.245928 1.882749
-2.017681 1.895032
-1.035900 1.857202
-0.520009 1.906755
-0.210624 1.592575
0.096741 1.121348
0.250037 0.712622
0.423019 -0.126192
0.281971 -0.639134
0.344153 -1.278320
-0.116338 -2.130065
-0.099174 -1.930700
-0.675637 -2.123161
-1.432450 -2.033411
-2.104567 -1.943220
-2.598012 -1.983987
-2.643664 -1.274808
-2.954713 -0.955469
-3.117955 -0.670134
-3.040078 -0.053872
-2.414950 0.435906
-2.739484 0.885322
-2.540179 0.752089
-2.301805 0.750903
-1.634319 0.857890
-1.235459 0.611355
-1.205851 0.652801
-0.751376 0.496067
-1.067187 0.667660
-0.618233 0.106586
-0.456838 -0.429427
-0.781692 -0.351089
-0.997346 -0.407153
-1.479312 -1.051133
-1.268987 -0.789261
-1.565962 -0.628169
-1.800637 -0.447450
-1.965654 -0.235104
-1.895458 -0.495441
-2.182387 -0.208866
-1.687181 -0.157526
-1.367997 -0.018364
-1.565389 0.340232
-1.923327 0.597984
-1.693611 0.350866
-1.109004 -0.226415
-1.122458 -0.106616
-1.174793 -0.545412
-0.815882 -0.437424
-0.854680 -0.575526
-1.376416 -0.602017
-1.401865 -1.116220
-1.687801 -1.010318
-2.005556 -1.030559
-2.183510 -0.654534
-2.562836 -0.545511
-2.821576 -0.382923
-2.580088 -0.175572
-2.596300 0.151429
-2.648400 1.064227
-2.413705 1.470369
-2.357630 1.361208
-1.812562 1.443374
-1.457290 1.202923
-0.950022 1.252197
-0.332452 1.294805
-0.302402 0.981443
-0.120679 0.399827
0.366434 0.127269
0.267727 -0.236504
-0.096279 -1.143850
-0.269233 -1.748448
-0.163251 -2.132142
-0.651150 -2.108863
-1.807791 -2.315742
-2.376865 -2.127588
-2.542790 -2.068736
-3.036803 -1.720838
-3.599797 -1.214282
-3.844482 -0.580565
-3.944116 0.239083
-3.816738 0.428253
-3.575165 0.997226
-3.348184 1.661026
-2.949680 2.060096
-2.545567 2.386137
-1.593656 2.627621
-0.450598 2.706205
0.019157 2.541569
0.391313 1.911108
0.422106 1.140361
1.005040 0.383101
1.629660 -0.192266
1.373179 -1.054209
1.155544 -1.374142
0.417137 -1.725121
-0.466785 -2.476227
-1.045262 -3.042054
-1.669879 -3.152423
-2.184193 -3.075599
-3.097949 -2.582636
-4.157346 -2.015592
-4.147916 -1.192025
-4.277297 -0.255885
-4.401675 0.311914
-4.374349 0.611763
-3.661723 1.710646
-3.203396 2.106187
-2.930219 2.146057
-2.413335 2.619004
-1.362799 2.304887
-0.570903 2.913042
0.014265 2.228835
0.658522 1.893858
0.837537 1.262069
0.956877 0.388662
1.031157 0.017193
0.883160 -0.783894
0.560897 -1.649389
0.004645 -1.853200
-0.491504 -2.142718
-1.064444 -2.179568
-1.716535 -2.400042
-2.248592 -1.969314
-2.920621 -1.774868
-3.261487 -1.544096
-3.751280 -1.290728
-3.708296 -0.277345
-3.525724 0.204905
-3.504748 0.538734
-3.366150 1.299093
-3.239256 1.677352
-2.589771 1.689754
-2.058931 1.914104
-1.508570 2.181434
-1.190907 1.841639
-0.668049 1.491937
-0.478013 1.462938
-0.168973 0.459142
-0.198670 0.335692
0.243007 0.096480
-0.321762 -0.708569
-0.799497 -0.275538
-0.181191 -0.646198
-0.825836 -0.842529
-1.140159 -1.032966
-1.183065 -0.937237
-2.046357 -0.891417
-1.982443 -1.014966
-2.340236 -0.871932
-2.139184 -0.646838
-2.271267 -0.376704
-2.054800 0.156664
-2.270037 -0.164063
-2.446986 0.037836
-1.850237 0.382628
-2.314831 0.053082
-2.743961 0.620690
-2.077584 0.237685
-2.013273 0.719044
-2.019207 0.834348
-1.750452 0.718104
-1.773047 0.474886
-1.713907 0.732789
-1.602748 0.810741
-1.735147 0.851074
-1.937667 0.698062
-1.469342 0.878422
-0.995443 0.746882
-1.205536 0.827238
-1.061535 0.969834
-0.822891 0.136974
-0.760826 0.192592
-0.475567 0.106085
-0.637516 -0.001612
-0.492690 -0.313344
-0.683027 -0.436868
-1.238779 -0.970712
-1.238648 -1.287685
-1.459492 -1.381959
-1.925065 -1.238685
-2.304898 -1.492925
-2.710592 -1.168577
-2.932696 -0.548263
-3.255032 -0.675615
-3.020616 0.009574
-3.130007 0.511029
-3.316715 1.019841
-3.252942 1.627190
-2.842875 1.570654
-2.279475 2.014916
-1.919963 2.198156
-0.988144 2.266217
-0.582310 2.350132
-0.394781 1.736640
0.386648 1.791127
0.467113 1.198535
0.920414 0.457678
0.892591 0.177875
0.921745 -0.351040
0.435673 -1.140055
-0.349412 -1.331549
-0.524271 -1.914358
-1.285915 -1.822824
-1.923934 -1.942283
-2.457786 -2.119097
-3.419133 -2.051218
-3.762761 -1.026406
-3.984109 -0.633569
-4.302692 -0.181233
-3.932095 0.773296
-3.712752 1.145813
-3.881567 1.436533
-3.475688 2.035969
-2.764916 2.722159
-2.459448 3.275397
-1.305228 2.924276
-0.790021 2.790847
0.016012 2.564587
0.215972 2.252312
0.942542 1.534616
1.116608 0.499393
0.812507 -0.107020
0.691673 -0.863260
0.483254 -1.350739
0.103153 -1.586110
-0.824925 -2.025162
-1.262306 -2.317378
-1.817651 -1.847790
-2.645624 -2.006975
-3.206233 -1.666757
-3.655686 -1.087676
-3.701180 -0.607396
-3.776867 0.206382
-3.950079 0.722164
-3.334525 1.058568
-3.407186 1.362447
-2.926706 2.010280
-2.488385 2.581965
-1.915251 2.754947
-1.470269 2.437894
-0.733894 2.239716
-0.294269 2.300338
-0.065640 1.529666
0.019155 1.103640
0.366508 0.651868
0.212163 0.187636
0.234300 -0.535543
-0.208228 -0.487462
-0.808498 -0.583683
-0.970974 -1.241888
-1.678772 -1.047785
-1.837038 -0.843539
-2.302498 -0.531970
-2.883230 -0.618540
-2.172628 -0.230354
-2.759009 -0.132499
-2.639061 0.471321
-2.364741 0.802357
-2.777303 0.604835
-2.433077 1.171505
-2.120226 1.129571
-2.172449 1.309336
-1.988906 1.077973
-1.725551 0.953277
-1.324225 0.819580
-1.501576 0.454023
-1.457570 0.756440
-1.636045 0.370333
-1.146317 0.689350
-1.510577 0.447146
-1.772189 0.742108
-2.091988 0.806010
-1.645305 0.844076
-1.610875 1.084425
-1.874894 0.772598
-2.030352 0.547317
-1.622290 0.629657
-1.111883 0.319850
-1.457437 1.073437
-1.078968 0.634136
-1.009775 0.312648
-1.164952 0.406110
-0.748476 0.099717
-0.945333 -0.267518
-0.764538 -0.071691
-1.131657 -0.244040
-1.399053 -0.272535
-1.899145 -0.662268
-2.041248 -0.911972
-2.325139 -0.805202
-2.954008 -0.166530
-3.186977 0.471652
-3.316864 0.750205
-3.430278 0.695695
-3.135581 1.358399
-2.841737 1.902370
-2.884156 2.476871
-2.353981 2.855997
-1.588059 2.483108
-0.917967 2.271556
-0.731972 2.253725
-0.133485 1.811287
-0.024743 1.365580
0.113075 1.204890
0.497249 0.037099
0.849922 0.196143
0.121521 -0.769534
-0.140980 -1.255659
-0.458742 -1.549405
-0.971403 -1.878927
-2.253232 -1.779496
-2.218256 -1.893497
-2.545459 -1.407112
-3.817797 -0.795427
-4.335421 -0.363303
-4.516175 -0.030873
-4.378904 0.885359
-4.563827 1.914779
-3.720457 1.891684
-3.525636 3.223042
-3.215883 3.034443
-2.500586 3.441603
-1.959420 3.614400
-0.577157 3.920080
-0.010277 3.550270
0.592088 2.150647
1.250881 1.895069
0.881068 1.080186
1.466078 0.237658
0.916033 0.182454
0.713080 -0.809565
0.431575 -1.744460
-0.043432 -2.105723
-1.128841 -2.733482
-1.979765 -2.491883
-2.778461 -1.590815
-3.521958 -1.096168
-4.299875 -1.090203
-4.678871 -0.773886
-4.272279 0.059431
-4.633574 1.241275
-5.052504 2.035533
-4.171303 2.454325
-3.341020 3.441627
-2.922178 3.379425
-2.066160 3.777770
-1.330392 3.174194
-0.474928 3.182785
0.005012 2.830299
0.653837 2.312001
1.187551 1.183471
0.873704 0.988015
0.908784 0.135387
0.721253 -0.373518
0.095966 -0.605144
-0.694143 -0.806597
-1.037016 -1.604258
-1.246653 -1.252682
-1.867435 -1.337639
-2.356652 -1.131294
-2.819553 -0.524986
-3.629607 -0.705993
-3.365494 0.556176
-3.868481 0.941180
-3.974741 1.336094
-3.268446 1.929303
-3.039577 2.133188
-2.582232 2.264258
-1.995207 2.550922
-1.586776 1.883216
-1.058152 2.231888
-1.158625 2.084849
-1.268815 2.151515
-0.140294 1.217898
-0.709083 1.003423
-0.175943 0.679087
-0.925359 0.625478
-1.188736 0.710775
-1.014880 0.254728
-1.756965 0.561085
-1.635586 0.303644
-1.630742 0.275669
-1.772556 0.016630
-1.754493 0.892549
-2.178313 0.919420
-2.250304 1.002142
-1.432446 0.762373
-2.175795 1.552286
-1.562817 1.419384
-1.716231 0.932350
-1.676793 0.513184
-1.178129 0.731334
-1.036555 0.768407
-1.150809 0.567817
-1.303683 0.356315
-1.892398 -0.609150
-2.288962 -0.297651
-2.076487 -0.103116
-2.302237 0.123936
-2.801648 0.650181
-3.179263 1.279157
-2.806883 0.821202
-3.387170 1.810780
-2.097766 2.435323
-2.546720 2.632961
-2.091875 2.871256
-1.634046 2.922473
-1.541268 2.432689
-0.281022 2.521182
-0.185523 2.062282
0.232563 1.692804
0.392558 1.323564
-0.094162 0.463508
0.055983 0.026352
0.294582 -0.762555
0.233320 -1.237551
-0.847563 -1.399488
-1.935467 -1.812730
-2.016833 -1.887644
-2.899217 -1.508836
-3.343672 -0.903443
-4.392292 -0.877572
-4.415361 -0.090448
-4.031393 0.794575
-4.708861 1.500714
-4.124358 2.342437
-3.690723 2.819524
-3.271890 3.164736
-2.536286 4.319178
-1.902957 4.677843
-1.259691 3.891230
-0.016249 4.100832
0.670531 4.220068
1.131929 3.108803
1.694193 1.997447
1.769999 1.295105
1.521769 0.210811
0.626506 -0.566934
0.810591 -1.115796
0.229803 -1.481996
-0.515894 -2.155567
-1.713557 -2.374468
-2.736845 -2.159102
-3.115820 -2.151376
-4.289489 -1.097223
-4.608508 -0.786319
-5.446399 0.199897
-5.411332 0.774920
-5.360462 1.317852
-4.995649 3.027653
-3.819571 3.858446
-3.790336 3.995085
-2.894022 4.820610
-1.807422 4.844581
-1.099438 4.691551
0.212125 4.507060
0.492548 3.629930
1.186190 3.715138
1.830064 2.054139
1.627793 1.133377
1.848020 0.062529
1.247736 -0.854973
0.867962 -1.106962
-0.265962 -1.220698
-1.239648 -1.809142
-1.116211 -1.766290
-1.776847 -1.341962
-3.509373 -1.251185
-3.601080 -0.951982
-4.481208 -0.769241
-4.737010 -0.198237
-4.773040 1.370094
-4.676086 1.896013
-4.801989 2.918833
-3.450064 3.532328
-3.385972 3.420879
-3.215741 4.236377
-2.062870 3.765860
-1.572052 3.328969
-0.255649 3.626146
-0.290365 3.202074
-0.288913 2.606125
-0.004573 1.823276
0.529473 1.287769
0.186870 1.312999
0.051483 0.126871
-0.347253 0.074825
-0.795783 0.431852
-1.137096 -0.620558
-0.804936 0.167055
-1.366046 -0.365419
-2.131514 -0.095020
-1.868270 0.227881
-2.560524 0.329705
-2.791037 0.906881
-2.406302 0.955519
-2.438188 0.736199
-2.169948 1.926238
-2.534570 1.494378
-2.765735 1.901786
-2.378362 2.251688
-2.381973 1.472070
-2.090274 2.069645
-2.417995 2.361274
-2.624053 1.710973
-2.895740 2.167879
-2.073154 2.183092
-1.814436 2.229046
-1.428657 2.413143
-1.419680 2.773400
-1.454668 2.252776
-1.197094 2.251951
-0.828805 1.986040
-0.619706 1.668029
-0.216845 2.096414
-0.021605 1.676760
-0.905313 1.058645
-0.347478 0.961523
-0.564375 0.455468
-0.268588 0.240483
-0.608184 0.041366
-1.535270 -0.360610
-1.987695 -0.371817
-2.157266 0.310706
-2.600461 -0.762938
-2.897717 -0.371128
-3.402766 -0.274557
-4.210207 -0.111768
-4.928006 0.791512
-3.817574 1.777100
-4.008544 2.741388
-4.092990 4.147685
-3.610045 4.083849
-3.278395 3.906804
-2.384596 4.887257
-1.621443 4.786678
-0.967491 4.560917
-0.002941 4.398280
0.384391 3.306785
0.857167 2.692669
1.121087 1.853512
1.404331 1.008027
1.371874 0.755201
1.321246 0.077741
0.577566 -0.743844
0.069425 -1.329986
-0.806945 -2.014012
-2.281463 -2.261318
-2.903185 -1.507758
-3.790539 -1.403993
-4.595288 -0.689580
-5.126834 -0.330622
-5.960031 0.637538
-5.068572 1.402557
-5.667525 3.188915
-5.320168 3.913528
-4.026156 4.426590
-3.866982 5.364110
-2.666610 5.857795
-1.476287 5.502398
-0.270166 5.806549
0.632490 5.369179
0.554389 4.147037
1.476101 3.986543
2.386853 2.350601
2.504890 2.155588
1.803626 1.320652
1.267242 -0.176525
0.372476 -1.009731
-0.285280 -2.364133
-1.254710 -2.175708
-2.324623 -1.860018
-3.913438 -2.325544
-3.562305 -1.070362
-5.147695 -0.841080
-4.909257 -0.457043
-5.163675 1.008984
-4.526940 2.232052
-4.655798 3.153710
-5.132973 3.283360
-4.158469 4.135423
-2.950251 4.687195
-2.687305 5.674588
-1.564809 5.612908
-0.599721 4.735840
0.056364 4.271234
0.509060 4.036648
0.456811 3.146645
0.529882 2.600273
0.567439 1.194757
0.776455 1.504342
-0.244184 -0.121222
-0.217703 0.304425
-0.347443 -0.201927
-1.965408 -0.216181
-2.602779 0.250247
-2.782420 -0.036053
-3.340050 1.277445
-3.807824 1.485076
-3.530822 0.662766
-3.266876 2.791734
-2.960281 2.272163
-3.692737 2.946206
-2.582753 3.404903
-2.473364 2.785938
-2.535111 3.563922
-1.141650 3.318490
-1.539689 3.371301
-1.341886 2.506278
-1.474239 2.164313
-1.497351 1.902740
-1.394747 2.254422
-1.966350 1.821117
-1.350350 1.633288
-2.432481 1.923028
-2.188928 1.962202
-2.547612 1.616940
-2.640914 3.241293
-2.022478 3.450206
-1.631903 2.434373
-1.698213 2.827555
-1.863684 2.555363
-1.058567 2.894462
-0.374339 2.484068
-0.022712 2.837736
-0.162436 2.865471
-0.362684 2.071895
0.373330 1.306076
-0.622917 0.803341
-1.235286 -0.367264
-1.683828 -0.278151
-2.488396 -0.492622
-3.513062 -0.487185
-3.224149 -0.352381
-3.978292 0.963841
-4.887024 0.616019
-5.322576 1.275700
-5.289865 3.083073
-5.960472 3.311777
-5.343984 4.050486
-4.407388 5.100028
-3.163476 6.550704
-2.572891 6.591404
-2.020580 6.478893
0.079753 6.563546
0.406349 6.518663
1.343663 5.131525
2.164655 4.974241
3.507180 3.756467
2.413300 2.057047
3.585885 0.752158
2.330403 -1.013564
0.684209 -0.800002
-0.906707 -1.846286
-1.119102 -2.740631
-2.249644 -2.308565
-2.820318 -2.113752
-4.905211 -2.947409
-5.862021 -0.995452
-7.236087 0.756115
-8.717026 1.533217
-8.066870 4.233388
-7.733481 5.185858
-6.371441 6.763867
-5.139751 7.884987
-4.083713 7.582871
-2.956233 8.773867
-0.741907 8.364400
0.689086 8.505783
1.770646 8.261261
3.549332 6.403617
4.463987 5.339312
4.439347 3.860631
4.580479 1.232042
4.280757 -0.052252
3.475376 -0.352208
1.955569 -0.982620
0.479466 -2.898862
-1.128069 -3.576789
-3.001203 -5.231353
-4.939629 -2.879763
-6.499920 -2.875939
-7.668818 -0.371416
-8.471752 1.348981
-8.183214 2.345738
-8.221394 3.678705
-7.886556 5.060450
-7.056920 7.063799
-5.299633 8.992141
-4.225675 8.709091
-2.603183 9.436262
-0.156009 8.684253
0.574251 8.947509
1.296267 7.830386
1.864641 6.853526
3.119940 4.768299
3.694617 3.711317
2.988323 2.256353
3.641154 1.471381
2.149186 -0.218066
1.261537 -1.094601
-0.083309 -1.699671
-0.721110 -1.662537
-2.732749 -1.531518
-5.052438 -0.973135
-4.887806 0.354428
-5.824568 0.532183
-5.929829 2.557900
-6.516441 3.867667
-6.200003 3.514766
-6.534972 5.040382
-5.367975 6.371102
-4.686398 6.811706
-3.163153 7.161774
-1.490862 6.557872
-1.095436 6.728867
-0.734350 6.009308
-0.390645 5.878203
0.330594 5.736445
1.114605 5.076132
0.311205 3.565602
0.817481 3.235592
0.301334 2.783640
-0.298764 2.968068
-1.166655 2.617493
-2.050820 1.171151
-1.930303 2.416210
-2.093793 2.572523
-2.224264 2.863216
-1.794463 2.736589
-1.177871 3.390303
-2.638064 1.941113
-1.369854 3.063374
-2.300589 4.159179
-2.328947 3.473443
-2.883548 2.461379
-1.464872 2.677096
-3.394880 2.431238
-2.233051 3.033994
-3.237990 2.452510
-2.708277 3.855746
-4.173100 3.467958
-4.629042 3.043279
-4.477292 4.358980
-3.916865 4.917906
-5.634745 5.178117
-4.622757 5.498310
-4.771956 6.826743
-3.726056 8.153854
-3.054632 7.617563
-0.577323 7.741277
-0.602496 8.481984
0.117591 7.200277
1.443218 7.496341
2.245515 6.411392
4.313295 6.061247
2.937781 4.554775
2.757831 1.232778
1.635518 1.806028
0.563336 -0.739995
0.176959 -3.356042
-2.225582 -0.742978
-3.394038 -2.139425
-3.938515 -1.872378
-7.091675 -0.319220
-8.297015 1.093883
-8.836243 2.207584
-10.062477 6.050241
-8.887523 7.336650
-9.313343 9.159555
-7.780731 10.282293
-7.570543 10.512114
-5.083845 14.162923
-3.242475 13.033342
0.576470 13.859051
0.078044 13.209719
4.149571 11.180313
4.584583 8.306673
8.983790 9.539845
7.824252 6.302904
7.605968 2.990372
7.048904 0.260795
5.206308 -1.104144
3.601463 -2.206310
0.889808 -4.632860
-1.277205 -4.304848
-4.759806 -5.326862
-7.355445 -2.981524
-10.128716 -2.534204
-11.559584 -0.748447
-13.129935 1.728378
-14.245665 5.001017
-14.158941 6.571479
-13.510754 11.901729
-9.932283 9.291689
-7.902729 15.534806
-6.293111 15.524747
-2.603604 16.947925
0.993385 16.192154
2.923517 16.064167
4.094388 13.409545
6.076111 14.717750
8.636407 8.960019
7.646650 8.647965
7.798769 4.304718
4.900518 -1.907607
4.244589 -0.265537
0.543248 -2.577731
1.554549 -4.117114
-0.766789 -2.935688
-3.868478 -2.794791
-8.548580 -2.127282
-9.658971 -1.435349
-9.088190 2.894201
-12.129004 6.537637
-13.917484 5.724958
-15.748586 8.246781
-11.568107 10.140431
-10.384135 15.717800
-7.823683 16.920548
-5.491727 15.258463
-3.431846 15.807518
0.145416 14.711884
0.814487 15.147841
3.613409 14.219482
3.671701 11.907660
6.863159 10.422017
4.019611 10.955136
4.117214 4.425100
4.353543 6.104820
1.086095 3.477956
-0.190515 2.791864
0.159115 2.989032
0.312310 3.957321
-0.444740 0.357094
-7.746713 3.301997
-4.439087 3.013737
-6.495888 5.029697
-11.311148 6.907850
-5.234917 6.749968
-6.720720 4.327483
-5.465192 9.088809
-5.191771 5.729431
-3.723385 11.414273
-2.140748 8.813707
-3.764280 10.052155
-6.699074 12.660503
-2.284517 8.296672
-8.035056 10.841206
-2.368757 12.130466
-6.665321 14.478808
-8.354986 15.754881
-7.282969 12.263907
-2.708152 16.040751
-3.834736 16.170535
-4.883082 13.089845
-5.946033 12.454680
-2.373455 11.316957
-1.576615 16.492965
4.319553 15.988158
3.983219 11.811609
3.122712 14.776065
3.522755 6.451711
3.042832 2.056556
1.285770 9.680616
-0.605420 -0.119977
-2.609532 3.033287
-4.476644 2.300738
-1.754328 2.860473
-9.076361 0.902245
-13.845424 0.629781
-15.264734 4.245305
-18.012783 8.575588
-15.012142 15.085500
-13.779176 20.582357
-16.121409 23.904309
-10.965697 19.038571
-15.453545 36.144731
-15.714893 38.315889
-6.352571 35.904109
-7.264451 38.700145
8.948011 45.984226
9.266587 35.557506
15.109808 30.348131
23.630980 19.903666
15.457539 20.869633
16.297343 5.432802
15.294416 3.200313
13.310834 -6.393375
21.421585 -15.595353
3.956227 -14.693143
2.486294 -13.407569
-21.898278 -17.300923
-14.326587 -6.006569
-17.928551 -6.590647
-27.603281 -2.211550
-46.802222 17.267570
-34.400871 5.653335
-38.509784 32.573241
-36.812845 43.557601
-41.906339 53.991531
-32.031948 61.804347
-33.869848 58.730502
-19.125238 67.873247
1.478902 50.760177
2.156812 48.250257
5.938469 61.234651
41.860674 20.487294
42.000748 53.169391
36.947276 34.320818
43.158087 17.974841
17.078099 -10.040923
40.494694 -5.471728
12.904371 -5.344444
31.409998 -24.306802
-32.841008 -45.873923
-49.008607 18.224504
-74.121992 -10.075371
-53.104611 -12.606754
-102.741172 57.907131
-175.608412 26.202352
-108.256927 67.863124
-119.308293 203.592534
-44.568999 272.141914
31.593068 207.182800
-54.897080 160.134590
43.530404 137.693778
-226.866627 274.489838
-387.303282 4.967403
318.639502 190.851236
65.575545 -122.193587
-18.316505 380.095470
153.964573 110.698412
175.041761 254.398580
112.868347 -30.633520
84.865110 -46.817175
287.461833 282.274423
-356.040961 -76.966545
