5079.898666 7407.702206
-3045.547788 -2783.294934
-232.215969 103.023527
15.226725 -19.097339
-545.248475 204.529344
127.592006 -72.062308
-31.961130 92.496104
43.108346 309.268427
-67.816301 69.597677
253.334374 90.610544
-97.108758 -214.656326
-53.621338 272.578150
280.687355 335.357605
218.902410 10.560098
89.241330 103.520841
35.085520 -311.169054
219.634978 66.451370
185.952079 -41.604219
178.760030 12.783382
150.885841 94.097437
200.646273 21.983834
154.964096 52.971718
149.815859 81.477109
159.896125 -75.264692
185.217190 -16.499030
155.665210 -29.956930
100.642053 -73.170757
93.319336 -97.122390
95.264707 -39.969555
106.081894 -155.864934
79.341231 -41.803241
77.309721 -53.121383
42.666169 -117.096167
42.614838 -80.125999
42.973436 -25.502259
44.505868 -55.067072
34.563859 -79.178671
48.967559 -45.883136
36.173919 -53.661555
30.272930 -57.064437
5.385236 -53.420327
28.364330 -57.774532
-24.521369 -61.505365
30.355052 -61.999797
11.397556 -18.771787
1.306745 -28.410627
5.340830 -22.612664
-3.939231 -14.540065
-19.696340 -18.831255
-7.108168 -18.198173
-14.384665 -11.445967
-13.511512 -5.019408
3.676376 8.433922
0.279236 1.935154
7.792308 8.941471
14.461339 2.277488
6.471812 13.925264
6.642344 15.493410
18.539265 -6.547243
33.377596 7.779465
27.910525 17.704089
24.258094 8.381223
24.488326 20.148001
24.718627 6.839649
31.457173 6.421953
32.271614 5.412147
33.496969 16.379629
22.424000 7.119907
32.479073 -9.052523
42.530362 2.517790
40.587717 -9.248563
47.633852 -4.345134
32.236908 -11.082062
38.266798 -13.154500
34.710589 -7.967497
32.672698 -6.448597
35.499538 -19.379427
31.091165 -19.221150
27.265722 -23.652785
38.876098 -21.752844
25.654579 -28.094926
26.562052 -20.766888
21.347776 -25.756308
19.553796 -27.883099
18.844486 -27.714109
13.267072 -19.744855
11.201617 -32.735243
16.057430 -23.394465
6.000374 -18.254163
3.034169 -23.274577
4.017475 -23.255436
3.620301 -17.061117
-0.276316 -14.440711
-1.574348 -15.170840
1.212226 -14.913426
-3.002261 -15.014378
-2.446992 -12.919312
-4.599493 -6.141872
2.147260 -7.557955
-1.085414 -2.533829
2.900185 -3.253893
1.996107 1.881823
-1.468102 7.216382
-0.659110 1.054952
2.851876 0.449888
6.132657 3.418129
4.057038 6.241132
3.407258 3.825093
9.110513 8.131401
9.317562 9.167115
11.574190 7.577313
13.652354 6.758857
14.839220 8.410382
14.250540 4.884862
18.736443 5.680624
20.131285 7.446929
19.246874 2.994623
20.817624 -1.842556
23.072777 0.026906
22.286720 1.349220
23.627543 -3.007698
26.128970 -3.041816
21.637270 -6.038446
22.456143 -6.328068
22.608943 -5.334369
22.096487 -10.556365
21.518524 -10.587317
20.667105 -12.562164
20.940429 -12.712353
15.046555 -10.996271
15.909548 -14.566141
16.170991 -15.589274
13.413413 -14.753392
12.525325 -17.166172
14.393935 -17.546423
10.728743 -16.812022
9.567954 -18.082350
8.026025 -17.518104
5.065026 -15.678258
5.146561 -18.415258
4.194278 -13.447570
-0.353697 -11.479167
1.080275 -11.011294
0.955250 -14.114715
0.475730 -11.437754
-1.009794 -8.786882
-0.214841 -7.191207
-0.983706 -6.347514
-0.461952 -4.857923
-2.790140 -4.577106
-1.824338 -1.453657
0.221434 -1.780479
-1.718308 -1.531213
-1.460758 0.058497
2.329476 0.866370
3.709863 1.215634
1.698046 3.526814
3.944803 3.068725
4.019152 2.660672
4.889241 4.100845
6.385929 4.300013
9.602164 4.018865
9.599536 4.654860
9.367512 5.253388
10.273003 3.393924
13.942441 4.045533
11.856019 1.908462
14.473616 -0.287672
13.538826 1.577170
15.719856 0.852255
14.563472 -0.966458
14.698943 -4.282251
16.671982 -2.630976
16.318071 -3.823499
14.985687 -6.923686
16.132368 -6.779022
15.560277 -6.575386
12.468825 -9.797925
14.089257 -10.182592
12.460791 -9.550653
13.053343 -10.265019
10.230902 -9.771769
9.697334 -12.542451
9.440848 -13.532541
7.871640 -12.841158
7.043990 -12.416617
6.395258 -12.514301
4.889984 -11.051728
4.420168 -11.361972
4.431168 -12.169645
1.775455 -10.731162
1.493249 -9.034624
1.869321 -10.565811
0.534478 -9.658790
-1.510716 -7.868018
0.054885 -6.497173
-1.402671 -6.411154
-1.848193 -5.914387
-1.610239 -4.264210
-0.213701 -3.875520
-1.848734 -2.386276
-1.309766 -0.684023
-0.041256 -0.109191
-0.725825 -1.013038
0.961675 0.611667
1.770895 1.768889
1.374775 1.057760
1.688903 2.407704
3.968199 2.487391
3.414966 3.279091
5.195720 2.956158
7.072315 3.248915
7.932255 3.445959
6.921846 2.913118
9.245022 2.341718
10.402056 1.229481
9.527619 0.671083
9.778202 1.682530
12.069923 -0.567785
11.117240 0.000575
11.645879 -0.948890
13.382632 -2.257755
12.724152 -3.530504
12.677961 -3.524608
12.251661 -5.417577
11.967780 -5.696037
10.849668 -6.437083
12.321282 -8.190184
11.296090 -7.758659
10.117820 -8.255904
9.451354 -10.253313
8.774732 -10.410238
7.341081 -9.832635
7.242824 -11.047945
6.488130 -10.463854
5.002230 -10.538022
5.420642 -10.141868
4.868979 -11.355803
2.457603 -10.712768
2.331668 -10.072167
2.752709 -9.950792
0.537495 -8.008190
0.265898 -8.342214
0.336325 -6.832596
-0.489010 -7.349946
-0.623428 -6.373332
0.043492 -7.016054
-1.246830 -5.829528
-1.840947 -4.255238
-1.495370 -3.576058
-2.363613 -3.281461
-1.435218 -1.798267
-0.135760 -1.901951
1.004593 -1.670068
0.234170 -0.278724
1.368457 0.688326
1.027706 0.796549
0.897001 1.157659
2.057884 2.071876
2.932108 1.571744
3.593423 1.365435
4.551608 2.773249
5.184724 2.206089
5.970203 1.214358
6.302015 0.654498
7.687296 0.208028
8.245098 0.621060
8.018838 0.805899
9.216994 0.423529
8.807169 -0.721682
8.781289 -1.336680
9.666396 -2.602744
9.762771 -3.255822
8.650235 -3.629876
9.930453 -4.335640
10.007268 -5.372601
9.189560 -6.175539
8.876173 -6.181217
8.987029 -6.972929
7.780241 -6.843057
8.557402 -8.504482
7.945325 -7.552071
5.968657 -8.458602
5.813193 -8.226971
4.752979 -8.529509
4.383718 -8.534503
4.108554 -9.551074
3.401027 -8.744646
2.376777 -9.079700
2.511934 -9.066711
1.935311 -8.146978
0.916748 -8.126234
0.872900 -8.125478
0.624340 -7.102534
-0.535653 -6.582214
-1.439649 -5.688486
-0.891945 -5.454956
-2.249098 -3.835038
-2.043423 -4.499916
-1.994763 -3.335788
-0.797825 -2.845061
-0.835198 -1.321100
-0.303386 -2.073294
-0.448345 -0.421361
-0.319277 -0.664936
-0.186678 0.207441
1.346298 0.776610
0.852073 0.939136
2.350273 0.916822
2.954052 1.591183
3.592965 1.789483
3.589028 1.275945
4.056133 0.279217
4.959395 0.950335
4.947105 0.175021
6.124571 0.844873
6.646490 0.507647
7.161920 0.341476
7.800304 -0.807559
7.860959 -0.892453
8.489606 -1.851402
8.098834 -3.075248
8.265541 -1.872167
7.472163 -3.541158
8.269002 -4.492618
7.917327 -4.679919
7.596739 -5.418205
7.588198 -5.485789
7.491207 -5.678966
6.803018 -6.512757
6.044764 -7.277879
5.999127 -6.664522
5.491495 -7.622591
4.884758 -7.946298
4.601445 -7.034447
3.704577 -8.399728
3.144855 -8.454190
2.635251 -8.215007
2.219083 -7.743386
1.020388 -7.742151
1.291256 -7.514646
0.691729 -7.248016
0.143958 -7.361065
-0.658509 -6.552355
-0.458486 -6.724979
-1.562509 -5.766641
-1.069365 -4.849975
-1.040447 -4.025844
-1.690319 -3.268828
-1.376326 -3.485972
-1.409656 -2.139220
-1.747071 -2.314035
-1.228292 -1.654413
-1.110820 -1.371813
-0.785309 -0.604791
-0.313735 -0.547620
0.573877 -0.001486
0.862426 0.440864
1.318130 0.632168
1.077018 0.848309
2.072713 0.534744
2.863388 0.559180
2.856136 0.812879
3.744207 0.549778
4.497426 0.363642
4.693498 0.162490
5.306349 0.457950
4.930749 -0.185986
6.029852 -1.042210
5.836435 -0.851374
6.817493 -1.663795
6.475507 -1.800258
6.664902 -2.273023
6.328944 -3.131187
6.705590 -3.177184
6.788870 -3.777063
5.865416 -4.473067
6.817118 -5.102317
6.221378 -5.038016
5.927254 -5.972242
5.563753 -5.383116
5.748407 -6.934423
4.515308 -6.576447
4.257161 -7.214908
4.413552 -6.677715
3.548451 -7.382185
2.505522 -7.113991
1.986239 -7.731947
0.787704 -6.853959
1.315182 -7.110495
0.926685 -6.939972
0.847453 -6.257613
-0.642747 -6.546675
0.078687 -5.646851
-0.821892 -5.239472
-0.706480 -5.451662
-1.136210 -4.335759
-1.644934 -4.401334
-1.710902 -3.520038
-1.121909 -3.105718
-1.314444 -2.548108
-1.202600 -2.196627
-1.282603 -1.953515
-0.547122 -0.947228
-0.915526 -0.985818
-0.477274 -0.738255
0.043397 -0.256889
0.021355 -0.166828
0.810661 0.759887
1.778250 0.605689
1.773236 0.613648
2.208272 0.462726
2.604066 0.531363
3.005528 0.326718
3.204479 0.037209
3.924755 0.890489
4.026433 -0.207026
4.961074 -0.215052
5.082201 -0.804657
5.253730 -0.419404
5.720439 -1.399175
5.866274 -1.907746
5.920769 -2.052589
5.783459 -2.866751
6.049483 -2.821080
6.087871 -3.193721
5.455265 -4.361777
5.780614 -4.128589
5.347789 -5.002180
5.173204 -5.164451
5.341696 -5.433391
3.853695 -6.069652
3.823577 -6.269783
3.691114 -6.566485
3.362172 -6.775219
2.680705 -6.468780
2.250799 -6.445420
2.449347 -6.614895
0.840933 -6.671459
1.027365 -6.628894
0.692838 -6.304693
0.143823 -6.253647
0.154397 -5.727170
-0.704293 -5.557759
-0.927497 -5.009604
-1.358624 -4.995454
-0.540220 -4.697657
-1.442343 -3.694611
-1.853251 -3.443438
-1.176983 -3.517013
-1.370471 -2.224444
-1.592439 -2.249691
-1.518071 -1.741200
-1.022573 -1.455725
-0.802087 -0.491815
-0.717104 -0.302507
0.001910 -0.511538
-0.387279 0.163307
0.502483 0.047605
0.816256 0.569477
0.879755 0.394673
1.293052 0.749292
1.819659 0.508876
2.591593 0.458371
2.971751 0.179061
3.506811 0.571690
3.547469 0.245714
4.100140 0.071961
4.629114 -0.666280
4.387186 -0.695945
4.398670 -1.466291
4.763376 -1.971618
5.329209 -1.876372
5.149693 -2.357953
4.971509 -2.525362
5.436927 -3.687395
4.552574 -3.664246
5.572549 -4.183006
4.672915 -4.145467
4.743793 -4.868339
4.664654 -5.128981
4.047177 -5.517425
3.189333 -5.092095
3.111952 -5.861245
2.880544 -6.004249
2.599641 -6.028708
1.855769 -6.225935
1.887262 -5.766955
0.604706 -5.668369
0.913863 -5.946935
0.438121 -5.819617
-0.359553 -5.534006
-0.427838 -5.564319
-0.817466 -5.111553
-0.452962 -4.501126
-1.208466 -4.962225
-1.331462 -4.225106
-1.473807 -3.586804
-1.607445 -3.578802
-1.442644 -2.705286
-1.233373 -1.985089
-1.552260 -2.156594
-1.092142 -1.807713
-1.141973 -1.435327
-0.994992 -1.246605
-0.902422 -0.527221
-0.517647 -0.518247
-0.586219 -0.439900
0.744506 0.317493
0.601551 0.207633
0.822556 0.607673
1.096009 0.472338
1.818330 0.555477
2.196965 0.614933
2.170309 -0.138005
2.809234 0.243888
2.733880 0.175237
3.720852 -0.359450
3.956803 -0.733626
3.681667 -0.783619
4.240250 -1.215334
4.539214 -1.841532
4.447315 -1.806349
4.544613 -2.441814
4.948867 -2.659476
4.527808 -3.163501
4.252230 -3.747073
4.523559 -4.148682
4.085097 -4.156976
3.525053 -4.744184
4.327003 -5.029642
3.343092 -4.975147
3.198925 -5.382042
3.049032 -5.543687
2.845744 -5.692566
2.053178 -5.709706
1.672456 -5.452950
1.422460 -5.854277
0.823885 -6.371117
0.315846 -5.951468
0.355876 -5.332349
-0.551697 -5.251083
-0.603307 -5.299531
-0.924887 -4.658509
-1.107415 -4.408435
-0.838914 -4.318091
-1.298495 -3.792282
-1.513662 -3.291560
-1.736755 -3.581518
-1.240969 -2.808591
-1.789462 -2.343331
-1.794870 -2.095575
-1.912445 -2.307195
-1.447248 -1.334064
-1.195580 -1.220960
-0.836754 -0.770724
-0.450921 -0.281118
-0.820802 -0.293648
0.134998 -0.066247
0.328538 -0.071124
0.319017 0.726679
0.895669 0.425741
1.272319 0.147148
1.723812 -0.024069
2.230096 0.138525
2.748501 0.133899
2.604398 -0.111916
2.731084 -0.481033
3.128873 -0.684577
3.705246 -0.679341
3.462427 -1.190151
4.110897 -1.585404
4.012971 -1.643007
4.324727 -2.151178
3.954174 -2.444837
4.080954 -2.198103
3.880176 -3.257747
3.760566 -3.351766
3.948883 -3.855726
3.162431 -4.039151
3.600876 -4.343362
3.365849 -4.773156
3.139395 -5.189424
2.342101 -5.156283
2.016057 -5.244279
1.846261 -5.881397
1.835838 -6.056599
1.244194 -5.606923
0.481390 -5.584577
0.320308 -4.627950
-0.003085 -5.657917
-0.513852 -5.224954
-0.636450 -5.147130
-0.595834 -4.551184
-1.097677 -4.468143
-1.587004 -3.886732
-1.481058 -3.731248
-1.609267 -3.531517
-1.918678 -3.443445
-1.939157 -2.961819
-1.736344 -2.448389
-1.992961 -2.166035
-1.637510 -2.117970
-1.589002 -1.523419
-1.083629 -1.183951
-1.196697 -1.053972
-0.672525 -0.492178
-0.512714 -0.569363
-0.605233 -0.292999
-0.196296 -0.144922
0.321975 0.204644
0.612594 -0.275614
0.790564 -0.167293
1.145564 0.139449
1.564962 -0.224282
1.897537 -0.106307
2.291994 -0.270236
2.273031 -0.368392
2.767920 -0.713621
3.275481 -0.730623
2.982381 -1.008719
3.410864 -1.479205
3.378670 -1.580129
3.862293 -1.890259
3.715564 -2.427782
3.482085 -2.536053
3.494520 -3.113132
3.755910 -3.510559
3.478180 -3.828637
3.136361 -4.106116
2.912476 -4.156867
3.173050 -4.522134
2.326867 -4.654734
2.022707 -5.044937
2.199727 -5.007224
1.531615 -5.170473
1.201902 -5.608492
1.049936 -5.428654
0.281330 -5.136556
0.259260 -5.490225
0.165382 -5.087549
-0.663756 -4.944886
-0.823836 -4.712071
-0.677348 -5.111050
-1.411147 -4.308944
-1.263419 -4.033648
-1.422723 -3.710819
-1.797725 -3.667611
-1.844364 -2.916417
-1.508607 -3.267547
-1.628247 -2.202575
-1.746534 -2.525082
-1.919396 -2.061906
-1.701263 -1.586064
-1.531573 -1.224838
-1.589266 -1.087496
-0.792770 -0.666493
-0.750294 -0.407330
-1.100741 -0.530993
-0.191582 0.294518
-0.163808 -0.232945
0.175558 0.257119
0.579048 -0.075399
0.821419 0.164188
1.625359 -0.102282
1.459430 -0.331498
1.613598 -0.200365
1.950364 -0.158878
2.136132 -0.804774
2.421379 -0.872558
3.037902 -0.987665
2.942849 -1.112269
3.267197 -1.309746
3.247053 -1.786362
3.471004 -2.190976
3.520087 -2.473682
3.045516 -3.191756
2.846000 -3.402970
3.145805 -3.187325
2.681436 -3.991834
2.988473 -4.286418
2.545655 -4.577158
2.092373 -4.217501
2.456266 -4.654444
1.916637 -4.856580
1.468695 -4.816034
1.110731 -5.010613
0.868667 -4.777566
0.634188 -5.112915
0.422463 -5.209859
-0.347761 -4.844315
-0.510714 -4.596912
-0.737889 -4.481448
-0.938111 -4.481735
-1.141154 -4.162489
-1.641829 -3.758163
-1.801964 -4.241980
-1.620082 -3.347204
-1.992836 -2.999170
-1.879312 -2.886317
-2.084368 -2.582163
-2.331216 -2.044803
-1.840529 -1.916607
-1.756424 -1.673070
-1.490642 -1.411208
-1.345296 -1.305742
-1.651635 -0.882334
-1.222156 -0.370686
-0.885017 -0.280878
-0.619751 -0.064616
-0.175840 -0.264039
-0.174167 -0.348662
0.384687 -0.429933
0.901910 0.018591
1.388969 0.196808
0.895758 -0.172396
1.414783 -0.120121
1.698447 -0.245686
2.068736 -0.352802
2.354892 -0.400928
2.151962 -1.409440
2.777623 -1.100286
2.872572 -1.571191
2.561988 -2.000433
2.850329 -1.779403
2.972198 -2.676978
2.842623 -2.784957
2.543162 -3.116831
2.895017 -3.255699
2.733414 -3.442155
2.577519 -3.736962
2.213041 -4.097656
1.887111 -4.277808
1.699505 -4.632864
1.511368 -4.487762
1.354157 -4.436248
0.865971 -5.235154
0.733703 -4.867373
0.187019 -4.955465
-0.002070 -5.085292
-0.225363 -4.913594
-0.696969 -4.793114
-1.011766 -4.676629
-1.308252 -4.363336
-1.444908 -4.277381
-1.334563 -3.739347
-1.600900 -3.324441
-1.784379 -3.578176
-2.061478 -3.070977
-1.908323 -2.756926
-2.118077 -2.484963
-2.108799 -2.078153
-1.582702 -1.938276
-2.052943 -1.569913
-1.905374 -1.259997
-1.453833 -0.944101
-1.167747 -0.485144
-1.286470 -0.579477
-0.977492 -0.175982
-0.546157 -0.367081
-0.269937 0.009575
0.307516 -0.103810
0.249059 0.141239
0.254234 0.136118
0.756925 0.235033
0.768563 -0.177212
1.099680 -0.216457
1.198992 -0.191246
1.895337 -0.402291
2.036598 -0.721318
1.786611 -0.714539
2.890477 -1.143590
2.597877 -1.130613
2.895355 -2.139605
2.723012 -1.988880
2.542949 -2.289119
2.330933 -2.907506
2.616589 -2.893824
2.837688 -3.202850
2.145582 -3.814995
2.296126 -3.657183
1.884140 -3.845814
1.689759 -3.817704
1.544352 -4.209304
1.247831 -4.594357
1.013211 -4.664454
0.706806 -4.706892
0.641932 -4.765870
0.226516 -4.665057
-0.333773 -4.593476
-0.202036 -4.635434
-0.492639 -4.725465
-0.877723 -4.391089
-0.907904 -4.133694
-1.187695 -4.124246
-1.705222 -3.488885
-1.735155 -3.618993
-1.874359 -3.188769
-2.519737 -2.825992
-2.007929 -2.516653
-2.195627 -2.526660
-2.469254 -2.161252
-1.965545 -1.819289
-1.686580 -1.283384
-2.381466 -1.288031
-2.167516 -1.323929
-1.485846 -0.867249
-1.362237 -0.532506
-1.415936 -0.549775
-0.969055 -0.138449
-0.594766 -0.109781
-0.225393 -0.022434
-0.238921 -0.050931
-0.127782 -0.560632
0.673783 -0.195373
0.802463 -0.595800
1.206444 -0.082896
1.010042 -0.278490
1.855931 -0.186900
1.517256 -0.854550
2.055477 -0.894939
1.958896 -1.066233
2.291480 -1.289567
2.249957 -1.938399
2.156212 -1.815636
2.406928 -2.257103
2.284624 -2.875987
1.977040 -2.894216
2.427482 -2.462854
2.048128 -3.406034
2.193205 -3.409835
2.297068 -3.970413
1.679752 -3.898780
1.503460 -4.083497
1.312230 -4.218973
0.857993 -4.304742
0.780044 -4.603138
0.111829 -4.855832
0.221260 -4.718436
-0.093821 -4.966619
-0.397871 -4.250126
-0.713869 -4.532408
-1.105339 -3.909023
-1.047635 -4.503206
-1.543636 -3.885324
-1.826517 -3.358409
-2.061136 -3.780820
-1.831743 -2.878580
-2.127077 -3.268092
-2.251408 -2.821488
-2.081203 -2.528527
-2.560116 -2.118336
-2.031793 -1.865047
-2.009594 -1.598408
-2.200783 -1.344734
-1.652969 -1.003985
-1.839014 -1.029243
-1.304049 -0.531724
-1.229886 -0.403948
-1.051410 -0.165903
-1.015293 -0.047952
-0.410288 -0.022544
0.160177 -0.044508
0.183076 -0.116767
0.532509 0.103331
0.622296 -0.205762
0.704639 -0.230713
0.969817 -0.308960
1.298373 -0.292279
1.857548 -0.492510
2.036368 -0.701099
2.112203 -1.080556
1.807239 -1.048179
1.889937 -1.428151
2.353004 -2.038021
2.452428 -2.076835
2.231545 -2.487183
2.298708 -2.435799
1.966942 -2.981809
1.825420 -3.165327
1.564843 -3.232989
1.722569 -3.642060
1.482716 -4.014609
1.045919 -4.210813
0.646234 -3.938581
0.474434 -4.064059
0.553612 -4.434078
0.220740 -4.173736
0.010317 -4.665478
-0.590056 -4.303561
-0.602718 -4.264003
-1.016808 -4.387491
-1.352168 -4.016500
-1.031437 -4.350144
-1.494416 -3.964836
-1.882846 -3.750568
-2.266948 -3.488124
-1.987398 -3.277644
-2.493018 -2.993341
-2.166165 -2.750221
-2.660405 -2.608268
-2.549818 -2.279407
-2.349164 -1.678928
-2.458497 -1.695976
-2.460202 -1.522815
-1.566834 -1.078571
-1.837675 -0.690519
-1.647008 -0.653967
-1.512513 -0.865686
-1.471302 -0.293986
-1.072012 -0.325737
-0.778144 0.033283
-0.318612 -0.104360
-0.393999 -0.142879
0.123270 -0.302937
0.282527 -0.176972
0.461293 -0.142817
0.685252 -0.230936
1.385145 -0.509799
1.220968 -0.559572
1.457734 -0.742439
1.268482 -0.987183
1.608433 -1.441768
1.873996 -1.416795
2.085289 -1.731064
2.001430 -1.698209
1.908599 -2.341391
1.750127 -2.390431
1.784692 -3.016713
1.824174 -3.033145
1.836054 -3.368950
1.824043 -3.408946
1.265865 -3.995565
1.072720 -4.187411
0.730978 -3.765868
0.327858 -4.165992
0.496161 -4.346942
0.419081 -4.243360
-0.264792 -4.546551
-0.982841 -4.442180
-0.662367 -4.365158
-1.052000 -4.235326
-1.336533 -4.200771
-1.600567 -3.965828
-1.687441 -3.955749
-1.806701 -3.740145
-2.302332 -3.362356
-2.354689 -3.126066
-2.520999 -2.900473
-2.650372 -2.545069
-2.457859 -2.366485
-2.311483 -2.013282
-2.190728 -1.909485
-2.192452 -1.486288
-2.329952 -1.220429
-2.207658 -1.115804
-2.139010 -0.766476
-2.056679 -0.504356
-1.557579 -0.750252
-1.415027 -0.114235
-1.382505 0.052789
-1.031862 -0.385477
-0.632533 -0.138812
-0.463992 -0.057606
-0.488401 0.112253
0.111729 0.152473
0.017432 -0.090224
0.783723 -0.776773
0.997613 -0.215094
1.179180 -0.875565
1.621806 -0.656932
1.140162 -1.091348
1.421970 -1.105571
1.361109 -1.722688
1.881653 -1.601393
1.769699 -2.174664
1.693705 -2.112270
1.811986 -2.864630
1.930595 -2.823038
1.387534 -3.030583
1.581401 -3.443744
1.557166 -3.530184
1.128191 -3.902492
1.258513 -4.260185
0.845454 -3.884557
0.335417 -3.904049
0.335443 -4.379453
0.117472 -4.571932
-0.601634 -4.507940
-0.738668 -4.178555
-0.742396 -4.417686
-0.933827 -4.334580
-1.528951 -4.304747
-1.152522 -4.032137
-2.042295 -3.688053
-2.119703 -3.989945
-2.269911 -3.621690
-2.341082 -3.430733
-2.108638 -2.969625
-2.489685 -2.776401
-2.625306 -2.468526
-2.751542 -2.064388
-2.616411 -1.487344
-2.568506 -1.527080
-2.312947 -1.039211
-2.719677 -0.638943
-2.120079 -0.846656
-2.191164 -0.196105
-1.973213 -0.534688
-1.646596 -0.288401
-1.108443 -0.045521
-1.372197 -0.086198
-0.993568 0.052670
-0.733996 0.075845
-0.325031 0.289961
-0.407372 0.107299
-0.040748 0.117803
0.570520 -0.287445
0.898327 -0.537411
0.557812 -0.471421
0.959126 -0.503513
1.035355 -1.148507
1.547605 -1.053684
1.372275 -1.605831
1.138877 -1.669094
1.473956 -1.682880
1.746690 -2.120147
1.588460 -2.455988
1.641187 -2.616064
1.634473 -2.971951
1.049903 -3.054939
1.039421 -3.334319
1.085680 -3.679475
0.729074 -3.683300
0.795839 -3.996931
0.168675 -3.788615
0.148397 -3.804081
-0.053361 -4.209075
-0.331776 -4.021381
-0.489329 -4.365865
-0.974909 -4.492160
-1.371779 -3.965910
-1.392607 -3.700147
-1.445663 -3.892081
-2.131284 -3.788060
-2.098038 -3.257765
-2.365931 -3.426631
-2.233943 -2.784929
-2.438060 -2.523586
-2.581690 -2.853495
-2.757784 -2.336145
-2.635694 -1.808865
-2.466833 -1.994997
-2.524692 -1.401885
-2.540340 -1.587050
-2.701059 -0.726928
-2.337004 -0.940243
-2.335540 -0.551647
-2.005897 -0.656316
-1.739138 -0.100357
-1.546993 0.070082
-1.165696 0.094652
-1.090394 0.527798
-0.757413 -0.150781
-0.831835 0.241688
-0.257314 -0.100899
-0.168588 -0.022980
0.206588 0.166697
0.438862 -0.387980
0.604359 -0.177313
0.881065 -0.347897
1.348639 -0.552496
1.110785 -0.868988
1.109948 -1.483425
1.505570 -1.533235
1.667400 -1.875255
1.431000 -1.952617
1.502826 -2.180373
1.425185 -2.476741
1.346393 -2.404581
1.226086 -2.847928
1.395407 -3.017042
0.621767 -3.385276
0.799182 -3.764412
0.919396 -3.800993
0.300536 -4.183902
0.476442 -4.436524
-0.017375 -4.647609
-0.369189 -4.241382
-0.613530 -4.242318
-0.804731 -3.969358
-0.830870 -4.237373
-1.728401 -4.005039
-1.818179 -3.779167
-1.847850 -3.662251
-2.286288 -3.547142
-2.090641 -3.493896
-2.544061 -2.892246
-2.404592 -2.751021
-2.574306 -2.997812
-2.656868 -2.093929
-2.892073 -2.268962
-2.650342 -2.002847
-2.659348 -1.473535
-2.944975 -1.145491
-2.859235 -1.063561
-2.417116 -0.721129
-2.420262 -0.772353
-2.326078 -0.350624
-2.079536 -0.183672
-1.542671 -0.100992
-1.593688 -0.209422
-1.337391 -0.103822
-1.105297 -0.063385
-0.495121 -0.087157
-0.389665 -0.418148
-0.342250 0.035051
0.035705 -0.041278
0.295109 -0.092865
0.811437 -0.378485
0.732056 -0.762411
0.714256 -0.458401
1.232107 -0.867184
1.086797 -1.260119
1.421101 -1.445246
1.037114 -1.868857
1.208386 -2.016839
0.977019 -2.211761
1.558199 -2.380887
1.080325 -2.829414
0.823630 -3.117801
0.979931 -3.399681
0.878287 -3.296701
1.141006 -3.632070
0.419582 -3.811175
0.284336 -3.942443
0.278215 -3.938673
-0.447990 -4.392562
-0.678669 -4.027208
-0.492071 -4.177371
-1.309032 -4.415001
-1.706204 -4.081242
-1.633209 -4.231021
-1.542809 -3.904843
-1.996290 -3.660717
-2.220200 -3.392727
-2.383135 -3.424909
-2.964467 -3.040755
-2.545016 -3.123518
-2.949871 -2.734798
-3.089049 -2.163466
-2.961129 -1.981449
-2.993775 -1.867887
-2.672776 -1.546892
-3.017639 -1.432331
-2.745776 -0.818959
-2.783931 -0.995001
-2.508859 -0.877312
-2.611747 -0.477281
-1.911365 -0.284632
-2.103913 -0.033899
-1.677103 0.111640
-1.307156 0.351117
-1.017505 0.185620
-0.950446 -0.117550
-0.723098 0.045103
-0.608795 0.243994
-0.245369 -0.175128
-0.133473 -0.366779
-0.044377 -0.348582
0.313436 -0.559404
0.173433 -0.569093
0.694947 -0.731509
0.845531 -1.096568
0.999493 -1.444171
1.050126 -1.724321
1.312689 -1.944725
1.247121 -1.782739
1.184400 -2.187038
1.628902 -2.503851
1.008535 -2.557455
0.797729 -3.204437
0.848714 -3.366363
0.475440 -3.624716
0.752018 -3.872626
0.466260 -3.846257
-0.296879 -3.959468
-0.343098 -4.386124
-0.511954 -3.919263
-0.643537 -4.364070
-0.913155 -3.778575
-1.544537 -3.852033
-1.466301 -4.030350
-2.259783 -4.130461
-2.148702 -3.579346
-2.567045 -3.623431
-2.657972 -3.267536
-2.816123 -3.119648
-3.216617 -2.726228
-3.333682 -2.733421
-3.184981 -2.013304
-3.374576 -2.459491
-2.925048 -1.622273
-3.384949 -1.303177
-3.106065 -1.137223
-2.935822 -0.999546
-2.800446 -0.454113
-2.810730 -0.360364
-2.524602 -0.284931
-2.389879 0.164221
-2.085629 -0.089399
-1.642839 -0.195418
-1.468157 0.614975
-1.578474 0.620160
-1.066028 0.616154
-0.892307 -0.064851
-0.635217 0.167176
-0.576735 0.120788
0.077332 -0.334859
0.003381 0.102112
-0.002285 -0.310417
0.476604 -0.334113
0.580868 -0.876249
0.778023 -0.750732
1.139815 -1.345378
0.923604 -1.258776
1.003494 -1.526838
1.481539 -2.052532
0.692739 -2.031874
0.872430 -2.277308
1.203509 -3.063618
0.723653 -3.117926
0.803939 -3.009875
0.396432 -3.366617
0.415497 -3.778839
-0.330536 -3.976064
-0.099777 -3.826559
-0.390941 -3.682151
-0.602420 -4.273265
-1.004954 -4.096122
-1.059861 -4.388008
-1.401418 -4.066988
-1.841547 -3.967016
-2.433735 -3.968012
-2.120646 -3.473754
-3.127616 -3.880734
-2.697356 -3.566348
-3.005793 -3.243664
-3.046569 -2.990464
-3.378159 -2.617647
-3.371075 -2.162920
-3.475485 -1.853578
-3.395217 -1.755520
-3.358445 -1.465601
-3.406324 -1.447578
-3.204227 -1.536860
-3.167503 -0.721018
-3.071766 -0.684581
-2.654098 -0.104984
-2.392249 -0.298350
-2.460119 -0.148498
-1.888071 -0.106922
-2.074831 0.463516
-1.738355 0.828378
-1.191858 0.449477
-1.191050 0.081278
-0.674289 0.292135
-0.508914 0.576823
-0.219591 0.365872
0.248130 0.121486
0.399583 -0.109140
0.311922 -0.313678
0.793669 -0.696943
0.799452 -0.886804
0.831442 -1.217744
0.764303 -1.312916
0.798910 -1.434004
1.098690 -1.661215
0.840613 -2.559466
0.753092 -2.490056
0.695588 -2.844039
0.582005 -2.614156
0.118278 -3.171195
0.357895 -3.420762
0.251822 -3.604638
0.036062 -3.763342
-0.424491 -3.989106
-0.794882 -3.373390
-0.863427 -3.866033
-1.018904 -3.838689
-1.396321 -4.049061
-1.721706 -3.905821
-2.098091 -4.348601
-2.360547 -3.909141
-2.449576 -3.706064
-2.893197 -3.793457
-2.935301 -3.334846
-3.057843 -3.516840
-3.648552 -2.709349
-3.765379 -2.967354
-3.359068 -2.280137
-3.790037 -2.505509
-3.499636 -1.970580
-3.836348 -1.729781
-3.485748 -1.563942
-3.467029 -0.931999
-3.392715 -0.672309
-3.152610 -0.552240
-3.057350 -0.502041
-2.340869 0.070303
-2.525573 -0.090273
-2.319267 0.176504
-2.410938 0.419594
-1.427796 0.219547
-1.230591 0.288891
-1.344471 0.259103
-1.230665 0.089008
-0.468223 0.640227
-0.467613 0.100360
-0.332153 0.170363
0.092868 -0.143341
0.261702 -0.128098
0.486575 -0.414891
0.543069 -0.729429
0.578792 -0.705469
0.688779 -0.795679
1.006306 -1.323664
1.163966 -1.536848
0.783108 -1.904653
1.130390 -2.376176
1.029570 -2.804770
0.717862 -2.655862
0.816903 -3.146826
0.194830 -3.371399
0.360696 -3.144581
-0.177516 -3.787609
-0.143961 -3.878338
-0.516269 -4.001525
-1.458330 -4.038711
-0.902678 -4.111655
-1.751822 -4.175085
-1.773686 -4.238327
-2.163624 -4.164247
-2.632463 -3.561231
-2.729843 -3.875158
-3.096452 -3.931459
-2.664245 -3.311871
-3.013441 -3.011132
-3.371725 -2.869243
-3.473459 -2.941742
-3.597667 -1.994383
-4.028766 -1.926992
-3.892843 -1.648983
-3.980503 -1.555180
-3.611560 -1.795623
-3.536015 -0.999161
-3.407245 -0.431139
-3.332816 -0.427130
-3.291289 0.225896
-2.927813 -0.065442
-2.848698 -0.043110
-2.502923 0.449162
-2.099072 0.245829
-2.067314 0.694930
-1.948886 0.456025
-1.696210 0.379345
-1.226812 0.663048
-0.616601 0.373874
-1.297902 0.626105
-0.648068 0.356175
-0.043406 0.383897
0.613676 -0.428217
0.200324 -0.067553
0.268257 -0.585795
0.685526 -0.806736
0.615039 -1.218905
0.411614 -1.085812
0.310705 -1.833563
0.437438 -1.899396
1.070205 -2.242148
0.340954 -2.113507
0.412224 -2.697983
0.024846 -3.402231
0.364116 -3.410107
-0.087014 -3.213984
-0.099589 -3.770930
-0.741510 -4.018333
-1.102841 -3.867903
-0.908831 -4.021312
-1.030358 -4.550194
-1.905120 -3.827058
-2.108845 -4.341470
-1.921449 -4.194607
-2.489693 -3.752079
-3.045808 -3.921503
-3.163506 -3.737550
-3.152601 -3.253491
-3.847044 -2.645090
-3.310688 -3.046736
-3.829170 -2.749344
-3.998474 -2.029679
-3.919075 -2.257465
-3.719787 -1.957876
-4.217519 -1.507716
-3.760956 -0.991449
-4.266913 -0.912585
-3.688233 -0.604005
-3.904135 -0.477064
-3.794132 -0.176523
-3.508101 0.264004
-3.141449 0.392309
-2.916039 -0.119769
-2.304526 0.333088
-2.491926 0.379647
-1.998781 0.169819
-1.561616 0.926283
-1.508990 0.724846
-1.175892 0.468609
-0.959789 0.631701
-0.744343 0.593758
-0.582302 0.331733
-0.194141 0.107788
0.182376 -0.184732
0.063930 -0.046126
0.253519 -0.359722
0.728255 -1.263445
0.399878 -1.319209
0.892671 -1.718226
1.094110 -2.266878
0.588787 -2.310918
0.718560 -2.347662
0.833308 -2.357361
0.543112 -2.593301
-0.374752 -3.293085
-0.158694 -3.190315
-0.328485 -3.306383
-0.483274 -3.728004
-0.928825 -4.059478
-0.795285 -4.143069
-1.518050 -3.850638
-2.135538 -3.836937
-2.315703 -3.694986
-2.467725 -4.060292
-2.446125 -3.782882
-2.731939 -3.756187
-3.586671 -3.837925
-2.864596 -3.360658
-3.407593 -3.258921
-4.003888 -2.865026
-4.147732 -3.256926
-4.544985 -3.013892
-4.186470 -2.095719
-4.444766 -1.325184
-4.504116 -1.515606
-4.401971 -1.545255
-4.446542 -0.704514
-4.122710 -0.365129
-4.112568 -0.532085
-3.786798 0.174349
-3.509149 -0.115590
-3.124113 0.485859
-3.848140 0.303882
-2.690577 0.916487
-2.567407 0.645354
-2.177204 0.966122
-1.981074 1.269087
-2.153923 0.067376
-1.597923 0.835856
-0.872428 0.698165
-1.211576 0.425080
-0.231465 0.353315
-0.442132 0.287855
0.306850 0.000917
0.358623 -0.080760
0.093038 -0.519809
0.604662 -0.870948
0.505363 -1.630314
0.194024 -0.952507
0.292505 -1.245807
-0.021019 -1.516155
0.377759 -2.478347
-0.154833 -2.177910
0.051116 -2.827989
-0.172384 -3.780200
-0.324642 -3.264380
-0.652176 -3.282523
-0.557254 -3.799756
-0.929519 -3.575433
-1.381161 -3.985519
-1.793271 -3.751182
-2.222622 -3.942211
-2.354578 -4.555261
-2.058641 -4.474805
-2.855228 -4.486017
-2.954717 -3.505695
-3.450514 -3.758158
-3.445896 -3.692920
-3.547503 -3.223867
-3.967045 -3.012842
-4.121566 -2.754137
-4.560172 -2.713145
-4.486764 -1.642888
-4.614952 -2.197886
-4.805472 -1.349454
-4.989375 -1.361171
-4.675010 -1.173333
-4.665291 0.057421
-4.608629 -0.518337
-4.506341 -0.408934
-3.383440 0.529693
-3.633264 0.554101
-3.538270 0.942419
-3.070912 0.802059
-3.138057 0.855195
-2.755113 1.159449
-2.576132 0.951977
-1.784711 0.705652
-1.487256 0.798911
-1.736300 0.887767
-1.027502 1.038753
-0.649290 0.876594
-0.306970 0.187609
-0.188612 0.298952
-0.378623 -0.208396
0.065702 -0.373574
0.291898 -0.462198
0.460977 -0.549110
0.137107 -1.180540
-0.011929 -1.208101
-0.167286 -1.862118
0.162237 -2.254015
0.246432 -2.339144
0.226982 -2.832127
0.095924 -2.842109
-0.179353 -3.539905
-0.430432 -3.035117
-0.412222 -4.029031
-1.333810 -3.928963
-1.116505 -3.314393
-1.449461 -4.461519
-2.299042 -4.396854
-2.307003 -3.861198
-2.355826 -3.968861
-3.202357 -3.942549
-3.621996 -3.461164
-3.993452 -3.837316
-3.541582 -3.719052
-4.339479 -3.066114
-4.286245 -3.309751
-4.439454 -2.716726
-4.713483 -2.278794
-5.241837 -2.476070
-5.392056 -1.637164
-4.796428 -1.373893
-5.297795 -1.572873
-4.517821 -1.042363
-4.437537 -0.673829
-4.864061 -0.635271
-4.324730 -0.133093
-4.546084 0.157320
-4.031720 0.767424
-3.844690 0.602247
-3.904093 0.821992
-3.850881 1.491968
-2.612378 0.979912
-2.714173 1.368548
-2.370936 0.966610
-1.891249 1.590648
-1.571171 1.335855
-1.482196 1.599926
-1.223329 0.908393
-0.438323 0.552354
-0.193333 0.387161
-0.193695 0.216301
-0.064526 0.134897
0.133872 -0.300812
-0.023566 -0.642759
-0.216850 -0.747272
0.402320 -1.463255
0.063480 -2.004849
0.479709 -2.004396
0.045523 -2.360889
-0.026277 -2.940368
-0.470211 -3.460219
-0.168116 -3.091444
-0.711303 -3.179771
-0.763108 -3.679320
-1.089898 -4.265393
-2.126276 -3.974693
-2.311110 -3.926045
-1.832382 -4.048466
-2.893207 -4.640953
-3.214069 -4.290495
-3.079603 -4.117335
-3.581493 -3.819089
-3.945266 -3.579917
-4.673880 -3.979884
-4.539688 -3.029174
-5.096400 -3.089346
-4.980000 -3.408168
-5.197664 -2.587420
-4.912362 -1.929695
-4.945548 -2.533506
-5.407600 -1.928880
-5.529006 -0.987763
-5.653874 -0.968030
-5.505825 -0.578382
-5.604291 -0.745148
-5.010965 0.645564
-4.820068 0.899333
-4.813786 1.168223
-4.811817 0.753039
-3.486887 0.952710
-3.247961 1.103766
-3.351681 1.134466
-3.265298 1.356916
-2.632579 1.471599
-2.104613 1.890696
-2.087163 1.624456
-1.290443 1.618128
-0.848125 1.118016
-1.005653 0.930321
-0.353676 1.274729
-0.028512 0.672373
-0.147234 -0.189490
-0.201451 -0.240809
0.491682 -0.140654
0.613260 -0.777452
0.290436 -1.290317
-0.030745 -2.056136
0.218202 -2.239579
0.549684 -2.760038
-0.266644 -2.494956
-0.274426 -3.016639
-0.402494 -2.783861
-0.801123 -4.009161
-0.976094 -4.359548
-1.027194 -3.928685
-1.893135 -3.706415
-1.906953 -4.844310
-2.362156 -5.146962
-2.776528 -3.915439
-3.360636 -4.426132
-3.790341 -4.157346
-3.770581 -3.921802
-4.623907 -3.935672
-4.229952 -3.576609
-4.944952 -3.568093
-5.379518 -3.707858
-5.393105 -2.957658
-5.128156 -2.443870
-5.960896 -2.280993
-6.298845 -2.225284
-5.799340 -1.239812
-5.659963 -1.084608
-6.022263 -1.553757
-5.721743 0.023222
-5.535475 0.732346
-5.169457 0.538058
-5.181081 0.160576
-5.206173 1.201636
-5.194066 1.160870
-4.640757 1.864245
-4.003177 1.250315
-4.011683 1.889685
-3.077168 1.522701
-2.916615 2.449675
-2.706622 1.902454
-2.103880 2.198437
-1.853513 1.552764
-1.727413 1.366316
-0.687901 0.855948
-0.940388 1.013324
-0.427618 0.717772
-0.625154 0.386327
0.187530 -0.196073
0.003336 -0.346539
0.306127 -1.236024
0.339774 -0.606309
0.671506 -0.992906
0.463498 -2.112865
0.849066 -2.524594
-0.059555 -2.394693
-0.011077 -3.334761
-0.126914 -3.350561
-1.386932 -3.973939
-1.220847 -3.765162
-1.111466 -4.218849
-2.397551 -4.771346
-2.349977 -4.276938
-2.615798 -4.879678
-3.146960 -4.399263
-3.945167 -4.939237
-4.247703 -4.995064
-4.535492 -3.749664
-4.526603 -4.225458
-5.362447 -3.633481
-6.003386 -3.686399
-5.808366 -3.598202
-5.528007 -3.202811
-5.858569 -2.436418
-6.010292 -1.909209
-6.329896 -1.884929
-6.153898 -1.299695
-6.309348 -1.706400
-6.590970 -0.401224
-6.393581 -0.468656
-5.822027 0.127413
-6.447540 0.148185
-6.135566 1.128754
-5.407678 1.075445
-4.704131 1.381218
-4.912101 1.768443
-5.014270 2.049543
-3.953203 2.414237
-3.789353 2.726064
-3.436522 2.296340
-3.424718 2.561347
-2.602050 2.105186
-2.557698 2.596366
-1.534513 1.563746
-0.914226 1.205874
-0.653250 1.203020
-0.659495 1.463652
-0.606505 0.317909
-0.087543 0.540725
0.384161 -0.204170
0.743625 -0.579251
0.103859 -0.666501
0.014947 -1.260035
0.638501 -2.310951
-0.478885 -1.912758
0.436439 -2.768572
-0.629836 -2.798392
-0.324167 -3.508004
-1.115439 -3.173630
-0.687117 -4.014573
-1.349886 -3.892251
-1.827976 -5.155853
-2.608170 -4.422309
-2.562357 -4.345979
-3.366706 -4.735134
-3.278526 -4.648742
-4.759391 -4.391428
-4.688166 -4.325279
-5.225956 -4.249006
-5.124465 -4.359877
-6.050609 -3.791967
-6.259791 -3.669892
-6.429699 -3.249812
-7.522715 -3.162000
-6.356230 -2.390688
-6.681042 -1.797371
-7.250471 -1.217423
-6.890996 -0.441935
-7.339781 -1.104710
-6.858360 -0.088061
-6.887530 0.615668
-6.680757 0.785409
-6.197107 1.149234
-6.503657 1.833857
-5.921431 1.975990
-5.785934 2.051151
-5.497440 2.338451
-4.429364 2.285449
-3.904006 2.354896
-3.650148 2.896471
-3.080378 2.791812
-2.710515 1.896648
-2.363347 2.534027
-2.152111 2.300682
-1.536299 2.210828
-1.024726 2.150084
-1.123918 1.229855
-0.850266 1.204810
-0.028733 1.379673
0.060475 0.022600
-0.233869 0.019731
0.598015 -0.598567
-0.257997 -1.178559
0.823863 -1.531267
-0.338468 -2.060407
0.356948 -2.381545
-1.067243 -2.439263
-0.993930 -3.179744
-1.094203 -3.667041
-1.632181 -3.846054
-1.928238 -4.250682
-1.826955 -4.029054
-3.619991 -4.902857
-2.708026 -4.741499
-3.385289 -4.883689
-3.687690 -5.302928
-4.981552 -4.357332
-4.634968 -5.350381
-5.028932 -5.002115
-5.629667 -4.289611
-6.200962 -3.449857
-7.085348 -3.470112
-6.755501 -2.586929
-7.731763 -3.187097
-7.597272 -2.770897
-8.588841 -2.163533
-8.077749 -1.443505
-8.302433 -0.845732
-8.822393 -0.294213
-8.004372 0.049322
-7.851550 0.068639
-7.867925 1.902934
-7.383484 2.355615
-6.323564 2.113763
-6.374575 2.679156
-6.381070 2.638784
-6.205766 2.466560
-4.909919 3.396103
-4.408055 3.461731
-4.812470 3.141205
-3.859618 3.212025
-3.253408 3.766179
-3.152031 2.203424
-1.953043 3.433483
-1.598524 3.054504
-1.553015 2.435808
-1.113013 2.002991
-0.999559 2.379258
-0.515845 1.409763
-0.438621 0.705137
-0.392712 0.633914
-0.346565 -0.196092
-0.471685 -1.446646
-0.304208 -1.510908
-0.031288 -1.123754
-0.072137 -2.191093
-0.409695 -2.149393
-0.120154 -3.834910
-1.034344 -3.855659
-1.258581 -4.332301
-1.714319 -3.958399
-3.224826 -4.923433
-2.625315 -4.957725
-2.983034 -5.109800
-3.897059 -5.129956
-4.023454 -4.898732
-4.870341 -5.067073
-5.887817 -5.461650
-6.914074 -5.739988
-6.514715 -4.963223
-7.229904 -3.960578
-7.595022 -3.879063
-8.630297 -3.521367
-8.198532 -2.734177
-8.902162 -2.617566
-9.130172 -2.411172
-9.573842 -1.022446
-9.374980 -0.698599
-9.073580 -0.473263
-8.794190 0.071583
-9.307637 -0.037340
-8.575362 1.130655
-8.800925 1.928197
-7.561639 2.416502
-8.231719 2.342030
-7.359332 3.775362
-6.746500 4.168038
-6.245207 3.995269
-6.002147 4.605932
-4.171746 4.115704
-3.975740 3.349210
-4.465305 4.878164
-4.167057 3.425701
-3.495914 4.326021
-2.504179 3.395926
-1.681447 3.260812
-0.928787 3.275684
-0.851810 2.290005
-0.284767 1.396675
0.208800 1.611823
-0.510654 1.528689
-0.191040 -0.400954
-0.090449 -0.193561
-0.052444 -1.090893
-0.521436 -0.890039
-0.263695 -1.928259
0.295499 -3.169260
-1.212853 -3.517952
-0.122913 -3.922381
-1.310475 -4.363371
-1.906421 -4.558687
-3.361908 -4.627865
-2.762386 -5.552083
-3.900221 -5.584779
-4.899083 -6.069470
-5.343198 -6.508259
-5.905562 -6.037128
-6.792488 -6.177468
-7.216713 -6.145221
-7.285322 -5.264006
-8.756630 -4.873836
-9.270144 -4.355201
-9.767116 -3.612533
-10.009894 -2.756019
-10.680723 -3.029890
-10.316025 -1.674608
-11.204662 -0.698114
-11.134621 -0.921814
-11.297550 0.146280
-11.301275 1.789824
-11.097756 1.660440
-9.760699 2.560150
-10.903206 2.652339
-9.936944 3.161528
-9.115455 3.858905
-7.991977 3.465354
-7.926464 5.144710
-7.062262 5.052620
-7.289325 4.885074
-6.894580 5.264101
-5.455459 5.304590
-5.675360 5.125982
-4.283130 5.295060
-2.212144 4.270912
-3.101321 4.419029
-1.816746 4.745172
-0.433366 4.816917
-1.748767 3.507085
-1.190525 2.786989
-1.450461 3.079948
-0.633688 0.700272
-0.471233 1.190181
-0.422098 0.963277
0.946742 -1.112788
0.149257 -1.907526
-0.236401 -3.079593
-0.092323 -3.745412
-0.810374 -2.857943
-2.341717 -4.459542
-2.160259 -5.121965
-3.600496 -5.500118
-2.245374 -4.176020
-4.227440 -6.657964
-3.712893 -6.087158
-5.046550 -5.755869
-5.937195 -6.436857
-7.021761 -6.432418
-8.305663 -6.002302
-8.206189 -6.180373
-8.860794 -4.784766
-10.913568 -6.348069
-10.843397 -4.910435
-11.974431 -4.482057
-12.572662 -4.458624
-13.200646 -2.962162
-13.115812 -2.298666
-13.124796 -0.514424
-14.186407 -0.642427
-13.689000 -0.264727
-13.214641 0.345378
-11.592654 1.828044
-12.881896 2.854705
-12.538604 3.918840
-12.245770 4.264627
-11.747332 5.492764
-11.693575 4.500319
-9.510242 6.214197
-9.796659 6.103202
-7.748992 6.027198
-8.780331 6.060450
-7.327982 7.291411
-6.493409 6.758464
-5.522880 6.418790
-5.163443 6.337595
-4.600142 6.766875
-3.573762 5.438553
-3.337980 6.140704
-2.878909 4.989909
-1.450834 3.261652
-0.902447 2.807905
-0.785353 1.517728
-0.619644 3.263094
-0.781794 1.267702
1.045025 -0.250778
-0.322823 -2.399539
0.200861 -2.177889
-0.805474 -2.250711
-1.211753 -4.127779
-2.567149 -4.204249
-1.623262 -4.213854
-4.248604 -6.522993
-4.600297 -7.680338
-4.771960 -6.321241
-6.921140 -8.037258
-6.850205 -7.952334
-7.483160 -8.812147
-8.756061 -6.586979
-12.310520 -7.287474
-11.227777 -6.814450
-12.901780 -6.193370
-11.958231 -5.925043
-12.874785 -6.165269
-15.075651 -4.647197
-14.753255 -5.416139
-14.860043 -2.011183
-16.080087 -3.400840
-15.270682 0.165074
-19.436819 -0.846780
-16.645558 0.585375
-17.424264 2.492069
-17.069538 3.441248
-16.286501 3.718956
-16.542481 5.506547
-15.865857 5.247676
-16.173075 4.743456
-13.877195 7.803027
-12.174610 9.010121
-12.583489 8.450711
-13.556488 9.947155
-10.248442 8.148508
-12.340827 7.988190
-7.070725 8.705140
-5.801999 12.398292
-4.464906 8.156823
-4.343985 9.383736
-3.559799 8.939876
-4.909603 6.924436
-3.225681 5.690075
-2.610600 5.319584
-1.344588 5.941031
-3.442402 5.238706
-1.607470 3.303805
-0.364253 2.380601
-0.449272 -0.373192
1.320440 -0.198484
1.121678 -2.911533
-1.548316 -3.393041
-3.063407 -2.699321
-2.677536 -7.327301
-3.650966 -5.612531
-3.077253 -6.792016
-2.622113 -7.384753
-6.437400 -7.518303
-7.386383 -9.332301
-6.820734 -9.365319
-10.678819 -8.059820
-14.068979 -10.954031
-13.962049 -10.782381
-15.479007 -9.897740
-16.085980 -10.724313
-16.875296 -6.629661
-17.198552 -5.732061
-20.538438 -5.566476
-22.115337 -5.709790
-21.629649 -3.569805
-23.547752 -1.652142
-22.047440 -0.309905
-22.669029 0.749850
-23.998469 -2.037074
-24.524439 2.016088
-23.816414 1.591125
-19.807266 6.788267
-25.313785 6.591898
-22.299649 10.053854
-18.028041 8.560003
-20.621694 11.208252
-21.311295 13.145270
-16.846447 14.688470
-19.845717 10.552099
-15.242097 16.831025
-13.242803 12.741050
-14.315163 16.528684
-14.780068 17.442762
-9.824376 15.630972
-10.049893 12.804538
-7.678381 11.156149
-3.892188 9.486956
-3.269642 14.057071
-2.994349 12.490705
-0.264931 11.415144
-1.753942 8.145338
-0.994881 4.386988
0.149294 6.200681
-1.334769 -3.319407
-0.982951 2.869803
-3.786239 0.647981
-0.477584 -2.606473
-5.356954 -6.796008
1.138760 -2.492900
-5.394635 -6.252026
-6.511825 -7.016173
-5.193309 -9.557037
-6.956222 -8.852618
-16.000520 -13.706787
-9.488825 -12.591379
-19.373976 -10.794826
-16.067710 -13.033152
-19.682041 -7.672320
-23.253618 -17.013948
-22.381572 -15.027763
-29.032808 -12.108967
-24.814918 -11.254645
-26.440584 -12.223046
-32.241346 -4.919414
-34.195141 -11.138720
-28.756233 -2.227127
-44.002573 1.675151
-40.776350 5.209283
-41.127276 5.262030
-33.048702 10.828505
-40.776174 6.478980
-39.954677 12.829120
-37.644160 20.590410
-37.996497 10.542284
-32.280618 18.664535
-29.746355 21.973467
-36.716322 19.828321
-38.393779 26.804178
-28.793947 24.494605
-26.428447 22.132901
-14.489446 30.284893
-21.657882 22.991772
-15.679425 27.559359
-19.944113 30.408216
-5.966945 23.732516
-10.171974 25.040813
-9.315360 32.357630
-11.343215 24.805445
-2.558921 22.032372
-13.280990 18.463138
1.391569 14.117329
18.748866 19.681631
8.655726 26.787665
-14.198369 16.096720
-1.103213 -12.705905
11.988088 6.248848
0.676078 -8.356980
-0.718144 -26.637440
-7.968379 -25.555215
7.734995 -17.408992
-31.110276 -29.386702
-11.926390 -19.531667
1.262792 -15.486203
-20.451072 -19.348231
-50.647355 -31.207316
-28.894493 -18.877623
-51.121362 -44.384565
-32.544226 -39.961169
-48.098288 -39.577137
-30.655587 -7.414863
-81.412578 -10.309127
-78.680776 -37.271936
-64.782833 3.485798
-91.634637 -7.884788
-57.215313 -26.170346
-87.522694 -25.070131
-136.831649 -16.881584
-124.202813 7.479659
-71.159526 -24.875358
-157.379205 8.654305
-87.426404 11.619115
-135.974687 -0.534294
-166.821661 38.339215
-119.879960 40.207000
-75.423730 106.907588
-182.622856 98.488854
-14.959725 59.489649
-63.712688 107.826348
-125.249532 191.516534
-62.291041 27.017154
2.447833 164.605775
-205.255846 158.103321
-80.652119 290.749061
-462.002108 43.016297
-134.821074 -50.931720
-133.144873 222.302834
217.322928 188.868397
135.512974 -75.260980
-238.104670 -69.782746
39.395223 130.852176
-229.185852 -25.985689
-55.906937 160.800674
-85.516041 75.131579
116.211189 160.303442
140.693332 -469.217619
13.713374 76.832193
