4617.587407 4182.615245
-1504.853510 688.988318
-302.034034 -210.839397
29.590589 -100.908262
-233.239523 31.623884
-7.597837 -1.564458
10.290710 -7.509458
-12.597266 6.242898
-15.191779 -30.363014
8.453626 -1.233592
-24.352041 -10.646318
-5.188524 -11.018250
-2.298979 7.971814
-12.710713 -27.172329
-23.560754 17.434891
16.799811 3.951924
3.184921 -14.875326
-11.902556 0.137016
2.205385 -4.899364
-2.961515 9.377202
3.650862 -3.751499
2.794182 -1.283099
-1.282524 -0.427058
-0.504136 -0.928683
0.762966 3.221429
4.677895 -1.141176
-3.239029 -2.696378
-1.112268 2.430386
2.565033 1.357970
-0.001974 -0.806163
0.143140 -2.052274
-3.103801 0.823664
-0.781949 0.834773
-1.033192 1.006105
0.054512 1.503802
0.922686 0.787417
-2.016062 -0.220604
1.056954 2.888985
0.690760 -0.777688
-1.037089 -1.513849
0.829588 1.812127
-1.083405 -1.019565
0.659929 -0.285443
-0.000795 -1.255125
-2.017113 -0.311661
-0.580515 0.599958
-0.244236 0.422038
-0.721735 0.428776
-0.278708 -0.234390
-0.485989 1.233015
0.646422 0.610109
0.147880 -0.981628
0.091336 0.522483
0.000424 -0.536762
-0.017489 0.137946
0.353672 0.250252
-0.326518 -0.427430
-0.826848 -0.244733
-0.092244 -0.013914
0.375429 0.216343
-0.466817 -0.447938
-0.621447 -0.156089
-0.443603 0.536099
0.456645 -0.321945
-0.216384 0.166646
0.044944 0.400889
-0.721724 0.231997
-0.477216 0.767320
0.609961 0.871084
0.327147 -0.310459
0.086136 -0.134012
-0.214783 0.609078
0.005698 0.159219
0.262496 -0.575379
-0.404775 -0.267707
-0.006476 -0.095532
-0.651257 0.285154
-0.154965 0.305526
-0.007914 -0.069585
-0.021609 -0.024346
-0.146629 0.187392
0.002905 0.266625
0.542308 -0.110744
-0.258407 0.151764
-0.139632 -0.007277
0.134791 0.014148
0.308819 -0.361350
-0.125467 0.061381
-0.352158 0.094075
0.550858 -0.201912
-0.205626 0.194010
0.215481 -0.143373
0.087045 -0.355403
-0.139861 0.345547
0.144584 0.250436
0.081432 -0.044115
-0.399092 -0.059494
0.292690 0.142206
0.412519 0.130385
-0.080952 0.002748
0.259843 -0.151163
-0.236540 -0.134015
0.120832 -0.119594
0.034567 0.061432
-0.022948 -0.022217
0.228323 -0.229443
-0.456875 0.173517
0.171094 -0.014144
0.254552 -0.260122
0.072784 0.333282
0.033068 -0.107308
-0.111446 -0.101720
0.047630 0.114413
0.016604 -0.023976
-0.072188 -0.250039
-0.245848 0.237456
0.076539 0.013297
0.168587 -0.103071
-0.094089 -0.087656
0.061371 0.174816
-0.003447 0.157418
0.006424 0.035632
0.134202 -0.106575
-0.080365 0.202844
-0.206278 0.195772
0.309213 0.115543
0.093206 -0.010097
-0.054293 -0.290269
-0.004350 0.133460
-0.043435 0.175575
0.065412 -0.039720
-0.323793 0.055792
-0.097481 -0.394410
-0.281678 0.304252
0.144523 0.075980
-0.079805 -0.030083
0.172106 0.000671
0.089885 -0.192656
0.089202 0.010221
0.296910 0.035896
-0.116258 -0.203899
-0.164689 0.033380
0.013266 -0.046812
-0.116657 -0.112168
0.027431 -0.256726
-0.005367 -0.315507
-0.064173 0.245908
0.158638 0.066132
0.299333 -0.209806
0.034314 0.061425
0.236983 0.064325
-0.362374 0.083429
0.370265 0.077963
0.021316 -0.018992
-0.142995 -0.014689
0.022984 -0.477055
0.366458 -0.034637
0.407415 -0.084414
-0.355171 -0.397272
0.064292 -0.217358
-0.044533 0.093021
-0.184516 -0.012511
0.084558 -0.219680
-0.165611 -0.090907
-0.201554 0.158172
-0.403179 -0.189219
0.456109 0.132438
0.107229 -0.254841
-0.197003 0.372537
0.311145 0.244962
0.061005 -0.157729
-0.261804 -0.044350
-0.046338 -0.065555
-0.159061 0.112039
-0.187562 -0.119903
0.022999 -0.139850
-0.244780 -0.261488
0.124711 -0.289897
-0.179654 0.200252
0.097311 -0.221686
-0.207580 0.176661
-0.101587 0.147120
0.230275 -0.000148
-0.137597 -0.204627
-0.134023 -0.157612
-0.089266 -0.151328
-0.381160 0.023495
0.002385 0.008251
0.313648 0.278895
-0.018183 -0.012898
-0.014818 -0.284351
-0.125778 0.412174
-0.127619 0.257290
0.214711 0.303373
-0.025163 0.059881
0.111346 -0.219927
-0.208407 0.118120
-0.034471 0.010051
-0.182007 -0.109267
-0.028014 0.281217
-0.023314 0.010425
0.007549 -0.165308
0.115357 -0.071862
-0.207850 -0.058236
-0.120634 -0.053009
0.069957 -0.062190
-0.170854 0.069867
0.083970 0.095605
0.200151 0.047320
0.092471 -0.004916
0.040523 -0.037530
-0.069508 0.217673
0.373197 0.109958
0.204616 -0.074877
-0.124624 -0.279411
0.072545 -0.148986
-0.262591 0.197554
-0.065064 0.012604
-0.015431 -0.233934
-0.208056 0.139861
0.058629 -0.157753
-0.036277 0.052423
0.048609 0.138498
-0.010371 -0.141210
0.170729 0.029865
0.089987 -0.217385
-0.072337 0.026345
0.079592 0.011067
-0.049558 0.087486
0.034731 -0.009618
0.129282 -0.387660
0.407153 -0.030034
-0.028684 -0.184388
-0.096919 -0.105390
0.193825 -0.159155
0.005621 0.031208
0.148789 0.095794
-0.166669 -0.319805
-0.066228 0.275654
-0.234646 0.200893
-0.415716 -0.072188
0.353811 -0.021081
-0.220012 0.062701
-0.097215 -0.011295
0.168477 -0.226065
-0.227594 -0.028851
-0.004515 -0.057303
0.151947 0.020819
-0.040332 0.095548
0.180247 -0.045973
0.215153 0.008546
-0.128993 -0.069466
0.103068 -0.027009
0.057895 0.062704
0.128694 -0.067811
0.031524 0.202409
-0.093212 -0.325490
0.047187 0.020041
-0.424051 0.086774
-0.038628 -0.054815
-0.007785 -0.022325
-0.249341 0.057091
-0.371720 -0.041105
-0.042207 -0.034343
-0.159860 0.116645
-0.122551 -0.204235
-0.067112 -0.060166
-0.389689 0.086771
0.077005 0.001938
-0.009843 -0.183568
-0.078909 -0.182754
-0.204075 -0.017353
0.022605 -0.096322
-0.170695 0.080936
0.205905 -0.296682
0.131364 -0.030183
0.021722 -0.173171
0.256178 -0.140252
0.246157 -0.197110
0.116343 -0.080044
0.066145 -0.044848
0.051113 -0.107256
-0.160919 0.134314
-0.330323 0.101539
-0.206149 -0.179761
-0.317823 0.097958
-0.505127 0.193789
-0.141264 -0.111738
0.011341 -0.004041
-0.042386 -0.090951
0.214163 0.110801
0.049211 0.180764
0.308603 0.289783
-0.000333 0.108448
0.202075 0.297123
-0.035765 0.062045
-0.202838 0.260151
-0.221299 0.116335
-0.225798 -0.003334
-0.219321 0.144947
0.159408 -0.160806
-0.114224 0.121724
0.113304 0.092499
0.251990 0.123568
0.154854 -0.140191
0.477747 -0.171048
0.034801 0.064300
0.278121 -0.211008
0.028363 -0.217998
-0.104843 -0.125039
-0.023328 0.233792
-0.137139 -0.254510
0.038466 0.306835
-0.159872 0.199840
-0.079029 0.132123
-0.027615 -0.044122
-0.176093 -0.049935
-0.070829 -0.083700
-0.322360 -0.227502
-0.187296 -0.039729
-0.205659 -0.285810
-0.550054 -0.159613
-0.347340 -0.084500
-0.223506 -0.168662
-0.107678 0.178793
-0.114793 -0.206063
-0.076415 -0.092564
0.167854 -0.139803
0.077381 -0.161624
0.057104 0.147616
0.231108 0.053798
-0.119427 0.257591
-0.284972 0.181122
0.315056 0.392204
-0.248459 0.024556
-0.068442 0.094014
-0.159889 0.219914
0.203768 -0.109192
0.067596 -0.051624
0.307579 -0.300905
0.478747 0.189599
0.079121 -0.097394
0.331070 0.024516
0.055107 0.156067
0.196085 0.271491
-0.034554 0.242696
0.108080 -0.010664
-0.120358 -0.084849
-0.483364 -0.009589
0.016658 0.231385
-0.006085 -0.250002
-0.092107 0.066039
-0.165591 -0.269292
-0.010912 0.084056
-0.070155 -0.035050
0.051080 0.004965
-0.122976 0.105402
-0.072037 -0.330379
-0.117231 0.321775
0.012779 0.099230
0.179566 -0.016872
-0.018610 -0.028957
-0.319475 -0.004209
0.116390 0.309581
0.318039 0.131858
0.067617 -0.121245
0.038096 0.128800
-0.036385 -0.025296
0.127043 -0.080409
0.158891 0.176635
-0.153973 -0.429061
-0.138992 0.005289
-0.019171 0.105336
-0.287869 -0.341902
-0.262050 -0.236361
-0.384735 0.138539
-0.175818 0.117929
-0.124433 -0.072466
-0.294856 0.179113
0.136284 0.107293
-0.064591 -0.118303
0.159577 0.011270
-0.019307 -0.240024
0.221087 0.147491
0.279032 -0.197374
-0.114708 -0.150571
0.293584 -0.133748
0.055316 -0.204160
-0.015373 0.502703
-0.070880 -0.121917
-0.015725 0.037185
0.158518 0.318322
-0.308787 -0.400820
-0.084957 0.000270
0.118345 0.213323
-0.361289 0.079236
0.092562 -0.318300
0.156190 -0.041007
-0.165236 0.070493
0.015778 0.046936
0.020184 0.073884
-0.280744 -0.005546
0.008920 0.099028
0.115988 -0.044029
-0.144620 -0.070184
-0.312872 0.089278
-0.027832 0.255006
0.206881 0.168676
0.018405 -0.261314
0.023604 0.104196
-0.012070 0.189992
-0.171233 0.022879
0.096506 0.038998
-0.222093 0.032562
-0.020690 0.147646
-0.227376 0.054046
-0.050096 0.092081
-0.016010 0.041217
-0.488342 -0.012534
0.187142 0.251653
0.041056 -0.041797
-0.198809 -0.282709
0.029068 0.040156
-0.218831 0.024068
-0.148323 0.091153
0.087323 0.282111
0.275858 0.069472
0.130850 -0.293793
-0.126699 0.268262
-0.076589 0.054051
0.475157 0.025543
-0.218755 0.177071
0.104724 -0.233759
0.086810 0.188447
-0.377230 0.236914
-0.050869 0.248257
-0.108479 0.272225
0.063054 0.203185
-0.044318 0.347206
0.342606 -0.074332
0.013236 -0.328782
-0.079354 0.080374
0.203564 -0.005251
-0.043790 -0.025615
0.279178 0.081533
-0.011373 -0.192455
-0.108168 0.068225
-0.158884 0.040256
-0.086954 0.279632
0.099545 -0.091709
0.159322 -0.047023
0.243455 -0.269242
0.177781 -0.188721
0.029370 0.168485
0.058511 -0.293315
-0.013962 0.244332
0.135718 0.083684
-0.052656 -0.027110
-0.052163 0.272050
-0.163443 0.039455
-0.219860 -0.129130
0.148443 -0.072000
0.280387 0.235243
0.180477 -0.068962
0.095061 -0.117952
0.203068 -0.206414
0.010871 0.097920
-0.143765 -0.378860
0.011041 -0.060144
-0.111921 0.227971
-0.178512 -0.127067
-0.001661 -0.229648
0.363289 -0.178718
-0.018099 0.083467
-0.235134 0.162709
0.348721 -0.016214
0.022477 0.163866
-0.267235 -0.041214
-0.146779 -0.085056
-0.098844 -0.069058
-0.299046 0.186346
-0.258133 -0.049870
0.027597 0.208204
0.203547 0.073563
0.155318 0.132664
0.322475 -0.031159
-0.075880 0.035592
0.011261 -0.035633
-0.291496 0.056085
-0.081447 -0.006401
-0.021592 -0.089423
0.008399 0.047580
-0.079613 -0.216031
-0.231724 0.206553
-0.050438 -0.002418
0.270486 0.114907
0.055424 0.154737
0.088937 -0.055861
-0.322768 0.097748
0.100426 -0.238761
-0.448968 0.177859
0.129458 0.041963
-0.131605 0.040994
-0.108568 0.363309
0.156352 -0.070272
-0.077559 0.086742
0.086735 -0.073241
0.213370 0.133422
-0.297479 -0.312240
0.052701 0.015206
0.302465 -0.226007
-0.210019 -0.121550
0.243988 -0.286929
-0.055453 -0.071353
-0.348238 -0.135098
0.115383 -0.035688
-0.214831 0.329123
0.209692 0.304941
0.017300 -0.167259
0.051260 0.090244
0.358290 -0.388316
-0.024457 0.534696
0.315725 -0.278805
0.343361 -0.207076
-0.119192 -0.203598
-0.198734 -0.297512
0.316001 0.095232
-0.285751 -0.072873
-0.152089 0.015219
-0.496611 0.177758
0.137888 0.247259
0.277194 0.244855
0.194427 -0.002655
-0.353149 0.246258
-0.188811 -0.153333
-0.001308 0.119351
-0.196592 0.183282
-0.244359 -0.040000
0.198185 0.279619
-0.144932 0.036836
0.293071 0.195555
-0.364108 -0.447781
0.413193 -0.009629
-0.108432 0.293347
-0.043015 -0.435060
-0.282840 0.017770
-0.043941 -0.105272
-0.314550 -0.438970
-0.600398 0.366352
0.431472 -0.105563
-0.414128 0.252721
-0.053801 0.397636
0.101659 0.369270
0.364698 -0.573286
0.514717 0.211193
-0.439923 -0.295449
-0.164197 0.404280
-0.102054 0.446657
0.511263 0.028294
0.378809 -0.208891
-0.178161 0.042170
0.169707 0.150582
-0.550009 0.062008
-0.054729 -0.354715
-0.459682 0.114965
0.576771 -0.052604
0.058501 -0.205993
-0.614046 -0.041529
-0.192033 0.184886
0.329375 -0.127999
-0.005583 0.074908
0.142818 0.826923
-0.153081 -0.674253
0.017898 0.643042
0.119608 -0.366633
0.517146 -0.933543
-0.814419 -0.037284
-0.173075 -0.603729
-0.541750 0.594536
0.807251 0.525018
0.705471 -1.910290
-0.693003 -0.458098
-1.440574 -1.392399
-1.555036 0.971888
0.376579 0.421260
0.624152 -0.327235
-0.837877 -1.192930
-1.153837 1.598228
1.511325 0.476493
0.555160 -1.354387
0.172629 1.783688
0.420636 -0.819916
1.105577 -0.322572
0.205135 0.547128
2.488690 -3.027620
-1.255485 -1.010841
-0.280492 -2.852512
-3.403980 1.228030
-0.986156 0.355016
0.698380 1.928701
-0.126052 -1.002161
-2.325461 -0.593127
-0.383369 3.071659
-3.010841 -0.187139
3.014834 4.091531
-1.615489 -1.610149
2.343372 3.071625
2.264337 -1.909605
-0.022448 -3.593735
-4.764626 -1.329691
-0.613455 4.798841
8.187349 -5.186774
-7.847502 -3.981243
-0.514431 0.817159
6.259774 10.274633
1.647254 -1.267478
14.986221 -19.098633
-56.269517 -22.354351
-13.984326 71.109649
16.532470 -14.172107
-11.001775 22.698049
6.428544 -26.677903
-72.471718 -23.364075
-7.092672 -8.092593
-345.942479 281.966484
75.061198 11.800680
