4791.801811 3716.876141
114.046737 -333.380249
-1688.044027 1031.719634
-1175.176493 -571.884012
-153.023550 172.452296
-171.080449 70.464792
-291.200858 -300.129112
98.134295 -59.466124
-212.118309 42.440863
-45.192090 -166.242542
42.525018 -224.385339
46.225175 -1.793868
-107.634029 19.925492
-64.756222 195.463591
-18.867474 -176.646875
12.722889 36.226077
-91.262867 12.155069
97.115766 -44.076654
-36.957393 15.589154
-20.014142 4.561794
24.425068 -36.997450
-83.737473 42.162910
57.355773 27.096757
40.053231 22.487088
25.587167 -58.471084
5.720705 -37.499044
-16.184889 -6.843321
36.180480 -34.243808
23.410190 6.497785
-24.741450 -6.495409
11.295145 16.793049
-25.556722 -13.082624
-4.198722 -8.390583
1.199517 20.933311
-2.794651 -8.050874
-1.433308 23.752886
18.859082 16.721089
-6.693118 40.719077
39.714333 23.352032
14.227102 -6.666423
2.354915 -1.689142
-8.727483 24.390735
6.197342 9.249799
14.070758 24.921872
6.229985 13.965997
25.243018 -25.288822
18.622996 25.353090
34.759678 -16.640192
21.335087 -9.431413
13.381352 -5.602447
15.785811 -9.021676
-0.042589 -0.150069
2.389487 7.526984
20.408949 -21.099733
5.310753 -9.400494
11.431222 -13.385665
16.848209 8.647421
26.859720 13.030347
33.357754 -34.048257
5.662440 -7.332988
18.192124 -1.755556
28.519942 -7.301027
13.057410 -2.317797
22.741788 -11.506327
19.426277 -5.934702
22.525142 -30.000181
19.266274 -7.472414
7.010817 -19.709621
26.356941 -14.381658
14.489476 -30.866032
21.133237 -13.637471
20.614106 -17.325315
11.325451 -13.449259
0.276680 -29.361314
23.801775 -28.588230
1.071688 -18.050432
27.881188 -13.085623
6.213969 -23.603562
-6.672819 -40.260983
6.365513 -13.719511
2.661177 -25.214509
-1.127052 -9.429014
0.737421 -10.977277
3.879825 -27.395407
12.600087 -15.292240
0.263968 -21.262616
1.264248 -6.129451
2.441471 -17.997597
-8.114360 -9.012249
3.151931 -13.677120
-0.260242 -16.182358
-4.840479 -22.293118
0.543030 -15.488013
-0.703284 -14.699079
2.511335 -11.183134
6.340629 -3.659827
9.202709 -24.543373
-2.026612 -8.665262
-3.557508 -19.635902
-5.031811 -18.958855
-4.669550 -22.317289
-4.232766 -23.183061
-2.168035 -17.680287
-7.594181 -10.608795
-8.699451 -17.846621
-7.971728 -10.822118
-4.755310 -9.826569
-7.231577 -15.653419
-13.137871 2.547780
-2.961075 -11.599322
-3.008915 -7.756959
-6.727637 -9.916229
2.156320 -7.560919
-18.601555 -9.720471
-4.451680 2.316072
-0.212163 -4.876210
-0.792440 -4.878805
-1.822624 -11.449131
-10.440976 -5.037711
0.345382 -1.492337
2.128826 -8.225591
0.219007 -5.280940
-3.599603 -9.554283
-0.328077 -6.026714
-8.480225 -9.108267
2.291233 -7.654075
-9.126977 -12.668093
-7.894993 -6.348803
3.900830 -3.570204
-7.354363 -14.441934
-6.302451 -4.592412
-12.078700 -3.568198
0.064298 -1.365323
-5.913984 -8.271062
-6.701346 -4.215989
-11.160902 -2.900511
-0.799100 -0.210094
-8.268122 -6.317178
-5.754678 0.116805
-2.002642 1.136691
-6.136437 -3.110068
0.796569 3.282622
-5.093708 -4.758268
-2.305654 -2.194331
-7.116922 -0.466007
-2.735919 0.057842
-1.902680 3.584936
-0.006763 -2.722659
2.210986 -1.860130
1.398599 -5.336974
-2.363723 -2.817780
3.207429 -4.157628
-4.939659 -5.512660
1.543331 -4.013266
2.281339 -3.311735
-3.586738 -9.678247
-5.563466 -5.319009
-7.612155 0.154677
4.225816 -5.117522
-3.044652 -5.011999
-4.137205 -4.537380
-4.470428 -0.741809
-2.370310 -0.966226
0.034247 -3.783887
-3.023006 -3.593863
-2.802332 -1.342442
-2.821957 -0.638547
2.167083 0.422584
-1.399149 -4.596454
-0.959252 -4.656958
-5.713086 -1.014123
-0.574238 -2.550783
1.745287 0.140962
-0.206450 -3.209439
6.377921 -4.280889
-5.996968 -4.693850
1.278821 -4.448618
-3.984367 -0.164206
2.127679 -5.586716
-0.554068 -2.897664
2.478740 -6.512319
-1.074357 -5.870246
-0.056931 -4.551070
-3.544975 -2.734938
0.965914 -5.191760
-0.317667 -3.626266
-2.306058 -5.399836
0.859867 -3.243126
1.018236 -5.816833
-2.733503 -9.983197
-1.886448 -1.105789
-4.759841 -5.762544
1.873848 -0.376481
-3.372706 -8.380473
-1.401533 -5.948026
-3.204731 -5.161138
-1.909063 -6.303993
-3.410881 -6.988724
-3.709687 -1.851812
-1.610995 -5.687721
-3.485358 -2.508576
-3.324502 -4.387552
-3.616345 -5.657218
-4.569564 -0.495766
0.457568 -5.661436
-2.052559 -4.741998
-3.665800 -3.979480
-0.612713 -5.295478
-4.697436 -4.397130
-5.988326 -3.715535
-1.837474 -2.298434
-3.878697 -4.028768
-1.710466 -5.080832
-5.346917 -3.485980
-6.094636 -2.423986
-3.662061 -3.247200
-5.577330 0.562489
-2.710450 -3.682213
-2.373533 -1.315027
-4.525490 -4.299091
-4.146017 -0.504112
-3.243342 -0.717953
-2.797979 -4.012852
-3.255574 -3.022517
-7.960841 -3.844321
-2.325886 0.003663
-3.795462 -3.115659
-5.144420 -2.944313
-7.148404 -2.012764
-4.829750 3.318684
-3.863069 -0.547335
-1.597534 0.668733
-6.373022 -2.625486
-2.091189 0.730365
-5.747141 0.385462
-2.835248 -0.488049
-3.560650 1.912989
-3.946005 -0.028968
-1.495035 -0.600862
-7.651409 2.449423
-2.803546 0.674108
-4.133354 4.994269
-0.313315 0.863763
-2.585728 2.437615
-0.186225 1.808002
-3.490172 0.112409
-0.345202 2.536525
-0.808164 0.203174
-1.592116 -0.501742
-1.337905 1.407141
-3.045309 2.101873
1.560438 0.166874
-3.046111 0.091287
-1.584041 -2.035198
-4.703662 4.673572
-0.057836 1.962707
1.743140 1.432956
-1.359675 -0.831008
-0.956433 -0.308972
-2.296665 3.288894
1.394998 1.815490
-0.692982 -1.710583
-2.202098 2.608132
0.772554 1.946301
2.372308 0.650251
-0.256847 -0.648748
-0.956632 -0.451361
-0.919467 1.728898
-0.432521 1.765669
3.576268 1.688094
0.276439 -0.259503
3.003622 -1.923319
-2.548017 0.477861
1.663890 1.987907
2.719674 -0.864513
0.810531 -1.022436
-0.136756 -1.211568
1.118822 -0.939367
-1.088636 -1.608280
1.298156 0.140577
0.150600 -1.681711
-0.668566 -0.603278
1.669252 -0.660629
-2.090585 -0.081739
1.606608 -0.902215
-0.576525 0.646355
1.520333 -2.746757
-1.698662 1.161587
-0.816038 1.039381
2.171048 2.070461
3.761073 -2.581985
-1.712218 -3.733193
-1.489770 2.849636
3.283695 0.902991
1.414033 0.160911
3.025814 -2.513901
-0.574497 -0.158716
1.456156 -2.127698
0.619722 0.955147
1.274757 -2.540773
2.005488 -1.174515
-0.743801 -2.420972
2.148641 -0.257083
0.438130 -1.635486
1.257105 -2.545652
0.891129 -2.309937
0.306552 -1.541422
-0.174841 -2.390244
-0.290319 0.243594
2.269765 -4.940243
-3.500027 -2.996032
0.128006 -1.384639
-2.636172 -0.760036
2.578093 -1.288672
-2.880490 -1.846850
2.146640 -1.051927
-2.123681 -1.755437
0.392945 -0.943861
-0.622767 -0.567400
0.846716 -0.066284
1.001753 -3.268534
-0.935801 0.644688
0.897797 -1.628440
0.104845 -2.525468
-0.664862 -1.784870
-1.296006 -0.978221
0.908305 -0.386808
1.186600 -0.634582
2.448564 -3.272921
-1.017017 -2.858173
-0.988985 -1.448486
1.879159 -0.939754
0.055753 -1.680698
2.506190 -3.048310
-0.843890 -1.970148
0.389294 -2.431614
-0.672398 -1.442493
0.774044 -2.876028
-1.109629 -1.373712
1.702249 -2.269196
-2.754768 -1.336095
2.697183 -0.653817
0.172112 -2.817497
-0.318830 -3.109199
-0.247535 -0.793389
0.475285 -1.142066
0.892002 -3.429921
-0.586928 -2.248429
-0.110979 -4.818585
-1.353352 -0.715804
-1.476727 -3.780219
-1.520944 -0.378624
0.368309 -0.914925
1.159773 -2.574244
-1.600789 -3.325330
-1.352469 -1.187908
-1.001392 -1.963506
-0.024101 -1.881990
-1.585047 -2.080703
-0.792043 -3.838930
-2.030118 0.725278
0.701825 -4.487240
-2.399694 -2.762906
-4.023287 -1.897288
-0.144362 0.105240
-0.889170 0.491833
0.510611 -2.518788
0.020767 -0.766304
-2.088788 -2.054369
0.701630 1.001631
-0.240752 -2.325653
0.992129 -0.712653
0.856450 -3.285190
-2.227148 -2.191662
-0.046950 -0.968174
1.700076 -1.887963
-1.557042 -3.591318
-0.738335 -1.945643
-1.622725 -0.735780
0.857908 -2.334226
0.657104 -1.835152
-1.946148 -5.302690
-1.998232 -0.593468
-0.444819 -1.546610
-1.718582 -2.771864
-0.132185 -1.040457
-2.393424 -2.720933
-0.810645 -1.293384
-2.112321 -1.162778
-1.211060 -0.855867
-0.954763 0.097269
0.356090 -0.264507
-0.678083 -4.056617
-1.731850 1.265558
-1.091281 -1.796198
0.738587 1.667130
-0.030755 -2.027693
0.170671 -1.404859
-0.678465 -0.671279
0.315714 -1.185564
0.724021 -1.918229
-0.110732 -0.451166
0.493272 -2.922370
-0.994622 -0.494167
1.422960 -0.821006
1.063402 -4.106589
-0.084477 -2.200515
-1.798279 -4.184255
-0.444349 -0.581781
-0.374534 -1.981005
0.825628 -3.265050
-2.245232 -1.926513
-1.087999 -3.042328
-0.574197 -1.713812
-2.837438 -1.699613
0.447272 -1.222347
-1.703040 -1.183684
0.984560 -1.167763
0.368892 -2.697945
-2.339747 -2.158978
-1.016675 -1.058110
1.098236 -2.255265
-2.685542 -1.852952
1.954229 -1.234571
-1.994954 -1.845191
-0.372247 -2.907352
-0.503633 -1.695210
-1.466430 -1.084619
1.738275 -2.748561
-0.591271 -1.158910
0.001386 -4.928551
0.142221 -0.300007
-0.471769 -5.780035
-2.624322 -2.137201
-0.057499 -2.862836
-2.540480 -4.101744
-1.010506 -1.481234
-0.937603 -2.852489
-1.534743 -3.448306
-1.638473 -1.479568
-2.768642 -2.822396
-2.174858 -2.256544
-1.996579 0.444585
0.534796 -3.009885
-2.302053 -2.654401
-2.401947 -2.209022
-1.817323 -2.231547
-1.698570 -0.102013
-0.294795 -4.215843
-3.066690 -1.273688
-1.395580 -1.485002
-1.193578 -2.725821
-2.693022 -2.042903
-2.461597 -1.184710
0.464050 -2.681778
-2.659415 -1.464796
-0.202615 -2.967132
-2.232443 -1.764877
-1.434390 -2.623662
-1.381345 -3.600910
-4.009552 -2.731419
-2.439967 -1.646909
-2.104801 -1.106244
-2.555369 -2.818686
-2.127471 -2.103816
-4.656269 -3.229691
-4.099470 -0.138453
-1.558742 -1.310927
-3.647680 -1.543293
-2.212628 -1.627116
-3.166819 -1.094820
-4.076333 -1.946895
-2.430343 0.236854
-2.307155 -0.536104
-2.531271 -2.628385
-3.753473 0.849684
-2.990585 -2.031304
-1.567731 0.560724
-3.824458 -2.193193
-2.742068 1.269346
-2.228505 0.296538
-1.693925 -1.275191
-2.646027 -1.063659
-2.673610 -0.032801
-2.376265 -1.198252
-3.401905 -0.038699
-2.674962 -0.302443
-2.526790 -0.713167
-2.984801 0.949982
-2.412308 -1.067312
-2.493435 -0.421799
-3.891840 0.586234
-1.145598 -0.169353
-2.000248 0.605046
-2.372116 -1.978014
-2.648250 1.196948
-3.198649 -0.724529
-1.753141 0.594300
-3.480508 -0.220422
-2.564885 1.933752
-2.425503 -0.176183
-2.628679 2.092886
-0.455036 -0.111549
-2.389611 0.407705
-3.971209 0.588062
-2.260373 2.931914
-0.595892 1.979383
-1.349410 0.348863
-1.159506 0.017898
-4.245756 1.288803
-0.150759 2.575381
-1.655783 0.706188
-1.672515 1.362291
-1.679931 1.472328
-1.616514 2.209271
-0.381783 1.835617
-0.204319 1.149262
-2.166826 1.613278
0.102898 2.775130
0.438320 0.959396
-1.328765 1.090479
1.391638 1.776621
-0.919408 -0.724874
-0.104288 1.545513
-0.919109 1.055762
0.230356 1.453616
0.929650 2.016758
1.266973 -0.885656
-0.695093 0.265484
0.734341 1.081117
0.596568 -0.452021
0.005526 1.036272
2.208336 0.147359
-0.102182 -1.515869
0.068505 0.336173
-0.320540 -0.677650
-0.068414 -1.257409
-0.089304 0.960357
-0.451353 -1.859430
-0.951363 2.080599
0.954928 -0.381476
1.449249 -0.733084
-1.306247 -1.356683
-0.245675 0.853843
0.495436 -0.303956
0.173879 0.107386
1.399154 -1.838581
-1.906361 -0.535157
1.140254 0.758297
0.182997 -1.409851
0.549094 -0.050602
-0.719177 -1.775517
0.867823 0.533522
-0.919543 -1.446248
1.658147 -0.198520
-0.468511 -1.586741
-0.402098 -1.585826
0.510756 -1.052134
-1.302033 -1.340009
1.516548 -1.350580
-0.882646 -3.057661
-2.063668 -1.786852
-1.538613 -0.929883
-1.162897 -0.222368
-0.923577 -1.399532
-0.700782 -0.983190
-1.585820 -1.692906
-1.318307 -1.053564
-1.630023 0.084773
-0.798684 -1.138241
-0.610667 -0.725878
-2.002874 -2.339804
-1.417402 -0.127912
-0.922771 -0.231810
-1.246568 -1.087758
-1.295790 -1.029919
-3.005468 -0.920415
-1.315146 1.013705
-0.363294 -0.087874
-0.980581 -1.930720
-1.821486 -0.622830
-2.414460 0.461196
-0.976869 -0.499192
-0.579206 0.525149
-1.843944 -2.114832
-0.947516 0.390355
-2.945513 -1.092717
-2.361717 0.030646
-1.988268 1.115943
-1.212411 0.254710
-1.160171 0.013291
-1.957609 1.330328
-0.509802 -0.036890
-2.135122 1.102885
-0.597392 1.033426
-1.209464 -0.245906
-0.408619 1.938745
-1.236388 -0.536038
0.159840 1.268572
-2.304887 0.431363
-0.414196 0.104006
-1.400218 1.985242
-0.043773 0.636345
0.829746 1.059454
-0.344194 -0.334878
1.182833 -0.317256
-1.696187 0.570124
-0.063649 1.361302
1.877809 0.512552
-0.697048 -1.356874
-1.315176 0.671566
0.619593 0.931770
0.254786 -0.504958
-0.966254 -1.017671
-1.441214 1.389382
-1.233408 0.753157
1.720534 1.896054
0.038546 -0.377334
0.899802 -1.224760
-1.707636 1.163395
0.280996 0.453751
0.736979 1.680399
1.216069 -0.827395
-0.441254 -1.016703
0.503390 1.230372
0.473157 -0.682521
0.361508 1.073335
0.539623 0.181923
1.566936 -0.081655
0.447542 -0.072978
1.364787 0.765704
2.679096 -2.385971
-0.899137 0.221904
1.339733 -1.899767
0.133748 -0.133480
-0.115468 -1.732875
0.561563 -0.197889
0.005806 -1.067566
0.378075 -1.378913
-0.120282 -1.224118
-0.965341 0.218097
2.008922 -0.418058
0.627724 -1.296164
0.092284 -1.718515
0.238284 -0.760672
-0.474821 -0.547399
0.603358 -1.330262
0.721827 -0.695096
-1.422277 -2.006359
0.934785 0.484167
-0.018325 -1.073062
0.663724 -1.796101
0.067496 -0.571420
-0.084060 -0.990139
1.173485 -0.610799
0.563557 -1.809144
1.649087 -2.189053
-0.549843 -2.527073
0.191465 -1.653451
-0.645183 -1.631305
1.175636 -1.429659
-1.090747 -4.145795
-0.679275 -1.693250
-2.041539 -1.453512
0.766960 -1.568651
-0.561574 -1.482450
-1.331309 -1.506087
0.528231 -1.294180
-1.313971 -1.578441
0.383702 -2.419622
-1.261966 -0.805286
-0.628121 -2.668636
-1.033825 -0.874281
-1.484036 -1.886363
-0.691737 -1.148207
-1.037614 -1.328478
-0.316774 -1.717373
-1.772692 -2.250939
-0.732599 0.873072
-0.253071 -1.718413
1.547511 -0.954829
-0.819432 -4.073840
-0.291042 -2.296107
-1.137634 -2.427902
-1.307199 -2.507436
-0.593007 -2.598492
-2.739004 -1.512684
-0.415112 -3.292574
-3.362216 -2.017030
-1.212852 -1.610913
-2.086746 -2.240071
-2.022480 -0.939603
-2.208713 -1.861492
-1.259835 -0.884596
-2.323842 -1.765721
-1.576158 -1.809681
-2.695373 -1.700995
-2.938284 -1.038449
-2.134261 -0.670102
-3.650118 -1.052086
-0.901463 -0.547386
-3.042852 -0.702671
-1.721912 -0.356461
-2.890998 -0.427288
-1.522241 0.809489
-1.177141 0.096543
0.699281 -0.412333
-2.313326 -1.966520
-0.664690 0.068276
-1.518105 -1.064936
-1.492255 -0.707768
-1.262146 -0.980479
-2.584270 -0.386965
-0.550743 -0.629301
-2.348114 -0.596143
-1.960532 -2.168205
-2.875767 0.694645
-1.432038 -0.889213
-1.460580 0.643146
-1.568572 -0.752840
-2.256265 -0.683822
-1.855142 -0.746347
-2.330047 -0.244833
-2.397328 -0.669420
-1.744575 -0.466208
-3.341500 -0.749299
-1.569262 0.765253
-1.456190 0.316552
-2.015674 -0.142292
-1.521278 0.522195
-2.158296 0.916480
0.311004 0.849329
-1.256993 0.188441
-0.520781 -0.973077
-1.749983 0.545865
-0.528724 -0.771956
-1.012628 -0.029772
-1.160319 -0.525141
-1.048788 0.202226
-0.852759 -0.602804
-0.927566 -0.990508
-2.495154 -1.429505
-1.120135 1.763400
0.273868 -0.635961
-0.977351 -1.347319
-2.122475 -0.195073
-1.925364 -0.845261
-1.097633 0.491253
-1.740415 -0.852482
-1.090787 0.102365
-2.376152 -0.177906
-1.157575 0.877306
-0.819431 0.125279
-0.970584 0.462102
-0.756957 -0.802812
-1.699200 0.462921
-0.588638 0.820116
0.616382 -0.514023
-0.676157 -0.616181
-0.663481 -1.952444
-2.115546 -0.064230
-1.727293 0.095647
0.068809 -0.011589
-1.582607 -0.761483
-1.537672 -0.272132
-0.523853 -0.269293
-1.253105 -1.263179
-1.928834 -0.312697
-1.123090 0.701803
-1.649735 -0.548457
-0.137639 -0.862797
-2.367458 -1.172347
-1.500710 -0.672434
-1.340822 -0.185512
-3.050522 -0.732119
-1.741822 0.478406
-2.699238 0.599821
-0.949511 -0.968073
-1.798688 1.178302
-1.186755 -1.100695
-2.686150 1.014353
-1.231086 1.212610
-0.588349 -0.278046
-1.244357 0.134217
-1.425820 0.188008
-1.430875 0.347743
-1.538654 0.516912
-1.734324 0.012244
-0.817759 0.438746
-2.211732 1.390269
-0.433077 0.187518
-0.584004 1.075474
-1.001573 -0.819368
-1.245599 -0.364282
-2.507874 1.604681
0.928178 0.440216
-1.134798 -0.158627
-1.170671 -1.116036
-1.967216 0.120750
-1.382001 -0.103664
-1.746796 0.382403
-0.738211 0.742506
-1.811624 0.179478
-0.387282 0.310407
-1.348790 0.615248
-0.690188 0.797591
-0.670189 -0.005873
-1.477625 0.404464
-0.386306 -0.833579
-1.552613 0.900766
-0.696091 -0.423055
-0.537598 -0.074875
-2.229609 -0.940159
-2.671714 0.294850
-0.957444 1.549647
-1.198537 -0.130103
-1.232154 0.293054
-1.851604 0.133785
-1.354121 0.606650
-1.055058 0.664653
-1.599101 0.750054
0.267073 -0.351368
-1.908958 0.450439
-1.247875 -0.343084
-1.580207 1.730917
-0.632254 -0.483142
-2.368973 0.203496
-1.308651 1.375345
-0.952185 0.225731
-0.381755 1.173521
-1.056975 -0.308951
-1.399146 -0.060890
-1.167443 1.386060
-0.031274 0.981451
0.148343 -1.003100
-1.241551 0.326056
-1.319140 -0.988404
-1.645399 1.325875
-1.822148 -0.093213
-0.737028 0.199026
-1.948277 1.994133
-0.042095 -0.800421
-2.511272 0.298075
-1.646363 0.906009
0.298564 0.672635
-1.940374 -0.350267
-1.486496 0.626776
-1.310937 0.812399
-1.778667 1.003429
-0.677909 0.836979
-1.767284 -0.118353
-2.803042 1.688021
-0.793097 1.512692
-1.435299 2.218388
0.374529 0.956117
0.121169 0.535476
-3.125836 0.792531
0.387173 2.896770
-0.794267 1.585139
0.977059 0.829263
-0.727471 0.391299
-1.359194 0.308579
-0.567370 2.049891
0.632860 1.082390
-0.928830 -0.372521
-1.011571 2.299758
-0.143293 0.854170
0.750644 1.334664
0.881027 0.476129
-0.898766 -0.118715
0.057515 1.794312
-0.264746 1.207634
0.185103 0.163473
0.118650 1.719378
0.134009 -0.307362
-0.170939 0.611646
-0.525092 0.955428
0.485996 0.802690
-0.089924 1.565820
0.938415 1.244007
0.722704 0.844149
0.696694 0.819398
0.843788 -0.300664
0.481974 0.495678
0.445289 0.703241
1.513069 -0.414021
-0.592564 0.682668
1.004909 -0.358401
0.507063 0.520757
-0.121891 -0.710552
0.305616 0.625863
0.276661 1.039261
1.103049 0.473866
1.806023 -0.043578
-0.315327 -1.102864
0.003073 0.593670
0.784821 -0.293551
1.160485 -0.291389
0.517311 -1.450343
-0.524179 -0.019131
0.320041 0.102832
1.607347 -0.584351
-1.109916 -0.580613
1.336105 -0.092922
-0.250543 0.472307
1.319812 -0.731727
0.746739 -0.154045
0.928708 -1.625136
-0.017728 -1.394849
0.256881 -0.792968
-0.192438 -1.608498
1.254716 -0.452997
-0.328166 -2.681471
-0.817980 -0.780616
-0.682559 -1.478873
-1.068363 -0.024398
0.166713 -1.366742
-0.147728 -0.474716
-0.780628 -2.869410
-0.783014 0.094133
-0.312377 -2.352405
-0.856803 -1.156406
-0.457380 -0.972655
-1.168308 -2.250979
-0.863784 -0.753896
-1.722732 -1.406401
-0.105254 -0.255757
-1.387077 -1.426151
-1.077770 -0.347065
-1.481635 -0.565540
0.077552 0.847582
0.098868 -2.499989
-1.296610 -0.684805
-0.357579 -0.996741
-0.696883 -1.260276
-0.428076 -0.893083
-0.671725 -1.526679
-0.732592 -1.569715
-2.387216 -1.669300
-0.079554 -0.632226
-2.626049 -1.799807
-1.507857 -0.088468
-1.177237 -0.994514
-1.468406 -0.533462
-1.052859 -1.533826
-1.045721 -0.789252
-1.925206 -0.908988
-1.299409 -1.127824
-2.235339 -0.538762
-1.292023 -0.159936
-0.901691 0.268682
-2.668644 -1.115941
-1.551345 0.595370
-1.657500 -0.473755
-2.430194 -0.089879
-1.143596 2.320995
0.080324 -0.613585
-1.624790 -0.036566
-1.174622 -0.382349
-1.193170 0.645133
-0.534870 -0.601878
-1.268678 -0.387328
-2.154502 -1.206734
-0.796168 1.139258
-0.246681 -1.295608
-1.644453 -0.860625
-1.830018 -0.160824
-2.108717 -1.269279
-1.370932 1.662281
-0.465648 -1.267204
-0.976348 -0.395719
-2.696808 -0.163952
-0.721565 -0.554159
-2.575203 -0.570564
-2.099795 1.123802
-1.659577 0.255131
-1.499493 0.263462
-1.945390 0.561140
-1.673198 0.669246
-2.312082 1.658362
-0.906192 0.952144
-1.347272 1.777158
-0.434166 1.091512
0.113750 -0.165170
-1.447015 1.377924
0.641842 0.417529
-0.662416 0.995212
-0.592144 -0.297383
-0.086256 0.947178
-0.158098 0.582202
0.340840 -0.175944
0.460040 -0.642152
-1.721757 -0.373429
-0.130427 0.388959
0.106886 -0.309217
0.159059 -0.973634
-0.763956 -1.165530
-1.984396 -0.016449
0.338626 -0.475193
-0.689097 -0.548287
-1.681162 -0.914115
-1.073765 1.151646
-1.021679 -0.623128
-1.113337 -0.225404
-0.488064 -0.001504
-1.760521 -0.092578
-0.609433 1.103954
-0.462502 0.538305
-0.174257 -1.059560
-0.335643 -0.329348
-1.493689 -0.661821
-1.156436 0.448034
0.711721 0.681327
-0.721088 -1.776344
-0.022830 0.847708
-0.628905 -0.931590
-0.137688 -0.569155
-0.530843 -0.297889
0.287982 -1.466771
-0.613595 -0.403912
0.134337 -1.354788
-0.362008 -1.743489
-1.097652 -0.875658
-0.494117 -0.699405
-1.029792 -2.768870
-2.691155 -0.195281
-1.346507 -2.204501
-1.529358 0.142242
-0.520951 -1.360829
-1.332952 -2.530813
-3.009397 -0.462678
-1.814703 -0.842601
-0.065910 0.313305
-2.340691 -1.844921
0.123510 -1.182329
-3.937207 -1.858478
-2.058322 -0.211178
-2.210917 -1.133876
-2.026059 -0.585544
-1.849772 -1.196327
-1.983546 -0.324304
-3.204979 -0.621513
-1.247353 0.354782
-2.599866 -1.349376
-3.042564 -0.683335
-1.847650 0.659860
-2.763037 -0.602393
-0.776339 -0.346519
-3.494068 -1.047736
-3.090954 -1.445700
-3.585002 0.940720
-3.476858 -0.235930
-2.562798 0.853866
-2.685771 0.808883
-2.276656 -0.946082
-3.595534 1.041473
-2.996426 1.278860
-2.620782 1.101211
-1.540587 1.596384
-3.734223 -0.041240
-1.811291 2.011619
-2.756625 0.683654
-1.311273 0.214281
-3.452684 0.760326
-3.344781 1.752962
-0.767630 2.360097
-2.192222 0.981609
-1.434848 0.734525
-2.636845 0.851923
-2.727806 2.160606
-1.090012 1.237051
-1.954947 1.665976
-1.970358 0.591278
-2.304487 1.776942
-2.640534 1.221872
-1.661171 1.202735
-1.664753 2.191157
-2.901768 0.908732
-1.229053 2.795136
-2.901898 2.135045
-0.780751 2.523745
-2.121871 2.099739
-1.783534 1.451733
-1.670416 3.313541
-1.021904 3.234065
-0.485496 2.370610
-1.284447 1.904520
-0.783226 1.987628
-0.630162 1.681876
-1.254372 2.626215
-0.289859 2.611494
1.004333 2.394021
-0.615560 1.152823
-0.675609 1.532275
-0.236983 3.689182
-0.022715 0.851068
1.033151 2.523152
-1.128951 0.204594
-0.421656 1.702509
0.003779 1.712426
0.637226 0.353258
-0.306808 1.185271
-0.974572 0.687900
-0.625517 2.278654
0.765638 1.660194
0.755433 0.459604
-0.943348 0.409080
-0.716461 2.225706
-0.257541 0.782235
0.769961 2.314491
0.798319 -0.012249
-0.202349 -0.049628
-1.199102 1.904039
0.577234 1.024653
0.751394 0.526227
-1.190050 0.462279
0.254321 1.541021
-0.011012 1.570691
1.326283 0.115816
-0.539016 -0.294254
-0.880854 1.103882
-0.350530 0.186576
-0.113006 1.080591
-0.075186 0.138942
1.292331 0.314479
-0.846090 -0.325371
-0.289874 0.242191
-0.410749 0.591783
-1.247759 1.239190
1.616914 1.587723
-0.099856 -0.831328
-0.730166 0.091516
-0.600067 1.254496
-0.355636 0.567596
-0.009281 -0.305399
-0.016694 0.778847
-0.389476 0.290391
-0.443826 0.951930
-0.144226 1.089308
-0.384917 -0.003727
0.432011 0.690576
-1.477021 -0.431653
0.891534 2.211864
0.211910 0.287882
1.292266 -0.869363
-1.374785 -0.924244
-0.856829 0.593507
-0.092727 0.161557
-0.308032 0.596710
0.188102 -0.997513
-1.669482 0.674370
-0.070269 0.517030
-1.536042 0.116363
0.176032 0.295830
-2.415748 0.675890
0.579549 0.424133
-1.169304 1.007248
-0.048742 -0.774640
-1.257559 1.212075
-0.586347 -0.015797
-0.985248 0.520787
-0.975212 1.053024
-0.951893 0.088507
-0.379258 0.727387
-1.284998 -0.660345
-0.938429 1.191495
-0.382645 0.565071
-0.482443 0.623104
-0.870437 0.410793
-0.319615 1.182333
-0.181571 -0.460663
-0.509124 1.590088
-0.005360 0.081309
-0.333211 -0.073152
-1.484740 1.200509
-0.470493 -0.267297
-1.059599 1.299503
0.375486 -0.060453
-1.479593 0.175995
-1.512653 1.466100
-0.282707 1.294202
0.803849 1.152924
-0.241247 -0.035662
-0.896716 -0.216715
-1.479287 1.048345
-0.305510 1.210236
1.248182 -0.192192
-1.976670 0.251908
1.085931 0.484755
-1.824614 -0.242078
-0.381369 0.518783
-0.233975 -0.033918
-1.012919 1.677306
0.812566 -0.563568
-0.989373 0.881580
-0.471839 0.206522
-0.603790 1.323428
0.280122 -0.447548
-2.615503 0.537337
0.322094 1.246578
-1.626028 1.155186
0.802449 -0.040791
-1.513066 0.412432
-1.237731 -0.776924
-0.724345 1.610292
-1.359149 1.553617
0.814786 1.490364
-0.037345 0.561415
-0.435224 0.240601
-0.031108 1.172594
-0.982923 0.937876
1.577564 1.103783
0.042421 0.020187
0.891881 0.396620
0.343972 0.811678
2.316835 0.734444
-0.655077 -1.189039
0.028056 0.304040
-0.332350 0.912361
2.134868 -0.192534
-0.545780 -0.647822
-0.453328 -1.496730
0.842728 0.475760
-1.163840 -1.182692
0.376102 -0.129374
-1.657792 0.372320
0.459413 -0.394814
0.257803 -0.670862
-0.850191 -0.790231
-0.844497 -1.293332
-0.878911 1.026065
-0.436061 -0.236673
0.042397 0.391766
-0.587287 -0.012363
-1.008763 -0.052908
0.205421 0.302164
-1.716740 0.060144
1.074915 -0.801852
-1.851133 1.364848
1.825600 -0.541557
-0.196029 0.434486
0.938173 -0.566476
-0.164333 -1.575105
-0.446511 -0.327450
-0.828623 0.082498
1.897068 -0.599894
-1.682062 -2.770801
-1.033255 -1.180977
-1.066871 0.050159
-0.940988 -1.044249
-0.033927 -0.967846
-2.270477 -0.761111
-0.433212 -0.790374
-1.265488 -0.173088
-1.872164 -1.672147
-1.204848 -0.232507
-2.188155 -0.629200
-0.361985 -0.923106
-1.409345 0.574412
-0.968112 -1.201797
-1.613588 0.240665
-1.136819 -0.235940
-1.870113 -0.453547
-0.724030 0.730754
-0.689621 0.775038
0.416110 -1.833221
-1.537465 0.686953
-0.784956 -0.869524
-0.382097 -0.378955
-1.626694 -0.359279
0.904538 -0.683481
-1.319511 -0.434772
-1.543032 -1.964804
-1.678942 -0.175831
-2.378462 -1.140474
-0.217594 -0.903446
-2.467351 -1.343315
-2.527733 -0.074274
-0.711171 0.267132
-2.031270 -0.967497
-3.172548 -0.246888
-1.792680 -0.495252
-3.198269 0.806004
-0.273686 -0.354642
-2.071565 -0.053273
-3.128200 -1.074471
-1.904456 1.859530
-2.079856 0.360169
-1.828926 0.506405
-1.456688 0.815918
-1.970118 -0.170691
-0.537886 1.367429
-1.980346 -0.082493
-1.290761 1.253824
-0.503923 -0.052669
-1.986798 -0.712913
-1.915986 1.064892
-0.437176 0.714026
-0.585707 -2.038250
-2.345576 -0.662318
-1.991965 -0.676585
-2.481663 -0.327175
-1.581073 1.150483
-1.631259 -1.804239
-1.505948 0.243949
-3.071666 -2.521600
-3.502262 1.311159
-2.640395 0.142591
-2.830481 0.306476
-2.404191 -0.763665
-3.803411 1.386490
-2.342421 0.140943
-3.320885 1.930495
-1.909774 -0.403945
-4.484879 0.116957
-3.844477 3.858839
-1.580408 1.504118
-1.579175 1.840324
-2.943979 -0.454314
-2.782142 1.917510
-3.452612 2.344808
-0.886755 2.323670
-2.457604 1.672915
-0.735605 1.801710
-1.822427 0.606622
-2.500433 1.474101
-2.631214 1.806547
-0.800469 1.533341
-2.600277 1.367729
-1.313268 1.261925
-2.194606 0.827164
-3.548398 2.559318
-1.319697 -0.049504
-3.500177 2.668878
-1.454014 0.942246
-3.120407 2.648358
-1.907937 2.187669
-1.231626 3.004829
-1.403488 1.797691
-2.797857 1.659887
-1.522499 3.152045
-1.643897 2.170978
-0.088950 3.200096
-0.213454 0.288515
-3.949655 1.719026
-0.880612 3.939748
0.027344 3.498619
-1.481042 0.410809
-1.823545 3.698207
-1.817011 2.246510
0.407143 3.261854
0.560100 1.739927
-1.880457 0.939698
-1.722746 4.653523
-0.038261 1.405704
0.006991 2.474869
-0.314999 1.140317
-0.990914 1.368563
-1.864800 2.143689
-0.942663 4.093081
0.499381 1.335527
-0.810328 2.814971
0.289392 1.223742
-1.402924 2.404620
-0.006624 3.757282
1.450379 1.610005
-0.060766 1.896554
0.702291 1.757997
0.623246 1.931876
0.494307 1.580117
0.605106 0.678020
0.888814 0.571562
-0.768511 1.235774
1.192454 1.752357
0.174207 0.241997
0.775271 1.057681
1.613858 -0.676798
-0.943292 0.504160
-0.582297 -0.064418
-0.306055 2.735193
1.706574 -1.464016
0.514270 -0.366137
-2.037896 -1.584667
-1.750385 1.334498
-0.736656 1.523648
-0.852189 0.007053
-1.194672 0.278978
-2.000085 0.587826
-1.493490 0.560311
-0.212187 1.575876
-1.017707 1.109782
-1.402009 0.288458
-0.712281 2.725169
-0.737570 0.825227
1.362002 0.778376
-2.149546 0.010876
-0.444923 -0.514537
-1.740326 2.315121
-0.846513 0.934545
0.933606 1.557796
-1.333166 0.058535
-0.429662 0.419944
-2.237853 1.210011
-0.901156 0.292885
-1.885247 0.282011
-1.230148 2.166727
-1.236660 -0.062316
-1.246483 1.145020
-2.533176 0.555393
-1.633699 0.037225
-2.631316 1.329778
-3.671521 0.528113
-1.560667 2.830422
-2.205835 1.965591
0.443371 0.463140
-3.906647 1.349544
-2.830071 1.651879
-1.538708 3.125566
-2.038168 2.826024
0.423830 1.346151
-2.865878 1.297781
-2.610641 2.886666
-1.175161 2.187534
-1.559355 3.749527
-1.489837 1.803748
0.020139 4.069577
-1.895686 1.621133
-0.076742 4.035712
-0.869046 1.965720
-1.429991 2.396695
-1.097998 1.949297
-2.630413 3.401871
1.681450 3.128998
-0.636469 1.226756
-2.479331 1.378086
-0.563561 4.809850
-0.553926 2.537784
-1.730741 3.562166
1.472129 3.851848
-1.306054 1.556552
1.266129 2.302162
-1.254514 4.211960
-0.039161 1.112850
-0.104560 6.136452
1.784929 -0.434760
-0.524901 3.414176
0.115766 3.361210
-0.500599 2.468197
0.959586 5.150770
0.120007 1.529563
0.115100 5.152678
1.416587 3.396967
3.070495 2.169776
0.778498 -0.351965
-1.035031 4.577330
1.928831 1.566618
1.380221 3.920591
1.386320 1.818071
1.389689 0.661822
-1.637645 2.010986
1.321381 1.353233
2.399814 4.527582
0.213387 1.300483
2.714102 2.847979
-0.473907 1.547781
4.378490 1.985630
1.917197 -0.912112
0.839703 0.551953
2.231674 1.226539
1.851367 2.098647
2.912785 0.802613
2.558741 0.262990
-0.818553 -0.428234
-0.303857 1.308886
2.470987 2.320743
0.351517 -0.252440
2.928212 3.002507
1.336453 -0.577519
3.821336 -0.914482
-0.048279 -0.689730
0.412512 0.957127
3.634551 0.851221
1.065551 -1.273302
0.949933 -1.287456
-0.247060 0.106291
0.894815 0.415356
1.141623 -0.670027
0.956067 1.644857
1.444966 -2.671261
1.410436 2.918761
2.385648 -0.411393
3.585770 0.073276
2.625394 -2.433607
-0.796850 -3.737846
2.096248 1.054450
0.356968 -3.002836
2.308510 -1.107171
0.550951 -4.280733
-1.101823 -3.252133
-1.563219 -0.793356
0.198060 -0.133666
0.743872 -4.394653
-1.361409 -0.172375
1.635778 -1.868455
-0.885813 -3.682702
-0.741598 -1.522723
-2.655239 -4.254353
-0.884352 0.815448
-3.297768 -3.430103
-1.972943 -1.849442
-4.905774 -0.617292
-0.363571 -1.207350
-3.327311 -0.831742
-3.796796 0.091446
-1.396014 0.845396
-1.888603 0.884479
-1.073556 -0.862645
-1.793452 -1.036148
-2.399475 -0.393947
-0.745627 0.041970
-0.631374 -0.840101
-3.582607 -0.434701
1.071575 -0.889351
-4.761772 -0.926437
-1.874580 -1.572526
-2.823699 0.171031
-1.947401 -0.967747
-1.529523 -0.816087
-3.906796 0.141863
-1.167325 -1.172335
-2.172395 -0.885116
-3.286384 -4.832348
-7.331413 0.973507
-2.264548 0.656803
-3.742595 -1.042700
-4.647871 -1.081444
-6.107278 1.458738
-5.901142 1.025307
-5.030540 5.058230
-3.651065 0.818374
-2.946474 2.221302
-3.171970 2.443790
-2.559723 2.307274
-4.669788 2.829709
-2.693327 4.115244
-1.450172 1.271661
-3.838977 3.342195
-2.417744 3.079428
-2.104477 3.424921
-1.737052 3.697475
0.697960 1.890608
-3.587470 2.674278
-2.573737 4.916716
0.912975 2.974622
-0.839818 1.821014
-0.718125 -0.122818
-2.648193 2.856189
-3.777883 2.791515
0.434500 4.086357
-2.305385 1.474999
-1.562236 3.011924
-3.841859 1.903647
-2.390792 5.026460
-0.512546 0.867461
-0.985310 4.043666
-2.790677 2.095621
-0.153235 6.325014
1.081839 2.035908
0.811959 0.628355
-2.535904 1.659875
-3.441105 3.315652
1.402767 3.687127
-1.941263 3.211957
2.916322 0.314498
-1.788492 3.671530
0.169007 1.098183
-0.604687 3.651481
0.906380 1.235812
1.376982 2.490359
1.498843 -0.061730
0.399156 0.274760
-1.686173 -1.522179
-0.102401 2.187671
-1.995522 -1.298717
-0.771869 0.705025
-5.286963 0.047084
-0.042356 2.178681
-0.131342 1.874347
-1.541867 -0.266015
-1.531040 0.782442
-4.634794 1.512247
-1.131747 2.063434
0.238959 4.232815
3.514084 -2.600118
-3.326957 -2.435613
-4.645517 2.461200
-2.707054 2.108855
1.010445 3.304539
-0.619898 -2.686134
-4.917074 -0.653142
-1.733652 3.966207
-1.019819 2.558284
4.461124 0.006050
-5.552470 0.264702
2.535699 1.185665
-3.490299 0.884372
1.299769 -1.905044
-4.323421 -4.832639
-4.996506 2.253396
-3.489362 -2.710508
-3.612247 3.603286
-5.732116 -1.595662
-1.858647 3.642491
-6.530513 -2.047768
-6.306635 4.706874
-2.832656 3.149419
-5.856673 2.770455
-1.127049 1.642951
-5.968863 2.759236
-2.532018 1.114975
-4.923575 2.964114
-7.608008 2.820838
-2.948299 5.855809
-4.605372 2.808325
-2.861258 5.190676
-2.750201 5.048573
-1.937635 5.627596
-3.838669 3.051947
-2.184554 5.499344
-5.187682 3.932358
2.830003 4.175245
-0.700600 2.769895
-3.886914 -2.194813
-5.883935 3.261343
-6.810379 5.096903
1.259808 3.751741
-7.927555 5.201234
-4.338869 1.756649
-4.478833 7.509198
-2.123962 2.435169
-3.730320 7.040986
-4.582920 5.875548
-6.417211 6.567976
-0.912321 5.442671
-3.089091 4.923264
-1.847608 3.172149
-3.088663 5.233290
-7.290460 4.066469
-3.340168 10.102503
-1.490074 11.691480
0.393598 2.693860
-1.586480 8.617884
-4.326801 1.016833
-3.165365 8.836836
-1.145119 9.157602
2.043270 2.536997
-0.434441 8.864634
-3.157406 3.373271
-0.702139 6.570072
-5.491943 5.265695
-1.902580 5.056292
-3.539192 5.052296
-6.085511 9.017512
0.718963 5.185279
-2.469669 8.260986
-0.564154 3.971907
-4.488896 6.107344
-8.247735 10.988640
1.599462 11.351603
0.759161 5.477850
-2.367522 3.940665
-1.373537 6.072608
-5.013310 9.576704
-0.485306 8.913919
-2.695453 8.147073
-2.318895 8.883526
1.418681 10.206016
3.736846 9.435416
-2.737155 5.972236
7.671217 10.562540
-3.776146 3.173264
3.923161 8.052127
-3.611810 8.583267
2.125757 6.920514
4.538005 7.881450
-1.392205 3.425095
-1.267515 4.844045
-1.621746 11.388381
3.322803 3.351656
-2.795897 11.962036
4.352176 5.333630
-2.549581 4.594897
-0.696514 9.024000
-0.131597 12.880723
2.866215 6.219092
-0.809721 6.368225
-4.791351 2.139088
5.546316 14.970972
-0.516716 8.733101
4.834592 8.192537
-4.833011 11.262039
5.620119 12.870708
10.780867 17.392025
6.998429 5.715160
4.977553 9.400198
5.236096 8.497693
5.687958 8.076631
14.052126 10.467323
3.037332 -0.637249
5.904596 3.964022
2.089078 5.209989
6.844846 10.719906
9.477967 5.839134
4.008257 12.740078
5.819427 3.601802
7.342135 11.816115
13.774511 1.295486
3.315266 -2.887136
5.663268 8.012256
5.545950 -3.826052
5.023265 8.305731
5.229873 -3.121991
1.802134 6.756211
1.162691 0.169950
1.666910 10.500870
10.322904 0.184161
-2.237165 11.666676
16.624824 2.701973
2.252729 7.769663
14.272591 -1.354097
-7.452372 -2.288294
7.149972 16.476498
13.397914 -5.759985
7.450027 1.468675
0.806768 -3.692165
2.673159 4.785880
3.156715 6.917126
1.145950 6.608724
6.330909 8.731452
-1.326899 4.461434
7.874400 3.427156
12.055594 2.555035
4.835775 -10.023876
5.594142 0.760102
2.309588 8.009156
7.842075 2.275358
1.049295 8.108908
5.465330 -7.977292
-6.212015 -0.462535
-1.366151 14.684150
21.003280 3.412212
-3.767819 -4.074895
1.988889 2.533575
8.279968 9.321663
6.529858 -0.832273
8.706813 4.327975
-4.542184 -6.812139
2.927747 18.493634
22.046245 -9.300144
0.163510 -5.727260
-12.466674 5.999269
3.754984 12.939775
-11.936377 -1.517700
19.941877 -2.661888
-11.319806 -7.317041
-2.930857 27.054832
10.118090 7.961009
9.914370 -13.556228
-5.061862 -7.775187
10.537395 8.808959
-8.683465 17.488720
5.058344 0.061116
0.311313 -17.169973
-13.618207 0.449407
1.370881 8.498854
-23.187023 0.752513
3.650148 17.426673
26.035420 -6.696125
-6.632883 0.390230
6.785338 19.964835
4.482901 -1.270901
3.378107 1.125563
-8.177023 10.273568
-25.799923 -11.586896
-3.771544 17.271373
-4.051166 -6.871408
-12.424358 -9.515769
-13.294231 12.024183
-19.619883 -14.204760
-17.366756 22.956179
-2.175987 56.278433
28.871990 16.224696
-20.342505 -19.034295
-18.483437 10.239374
-20.089421 17.546995
-24.596764 37.688040
26.384673 14.843714
13.488815 -22.183064
-24.966616 15.076763
32.633953 19.002967
-8.942326 -35.261590
1.246822 26.954076
43.580993 37.394492
54.292289 5.768101
-12.365720 3.935161
6.690994 -83.635830
-30.177646 -10.175463
-56.481719 2.682861
-19.362896 20.667707
42.220442 30.278279
31.653092 -18.268265
-80.222295 117.266381
36.130787 12.117337
-62.331646 22.362414
37.671312 38.043744
9.578203 16.631622
0.518956 41.884705
52.818009 -2.034161
68.568462 169.966040
-99.223009 232.467444
-122.361734 -169.739830
-137.621377 131.418801
-18.351198 92.916968
215.066318 140.943989
-12.968436 211.660895
18.466355 555.259671
383.113110 -148.764008
