5564.898158 5665.110294
-2824.342626 -1512.133862
1346.204228 1218.090926
938.887239 -127.161733
1044.499660 -714.758012
849.662452 -206.269251
646.776186 -1043.955871
466.291619 -468.568020
-41.841720 -428.340624
94.169896 -373.954903
-28.772158 7.154333
28.075977 -107.850652
261.608637 93.135477
163.132722 -34.666115
362.555722 -100.863331
221.202792 -101.116456
198.459247 -319.009501
158.661989 -183.096632
-10.547592 -226.747031
58.599368 -169.008259
-47.229334 -18.983794
39.918913 -72.412405
94.045765 51.184182
90.847385 -39.108475
215.927952 -41.727499
124.327447 -69.351887
145.401711 -174.945593
94.943665 -101.391162
3.457668 -170.665830
38.561090 -91.728913
-40.133310 -43.473312
34.292894 -47.321636
37.349832 38.632281
63.225805 -32.621450
139.741970 -14.080509
76.655878 -59.147993
125.239100 -113.564370
58.849273 -79.399680
21.642238 -133.382849
25.170643 -62.087696
-32.323900 -56.314084
27.682270 -32.854588
13.241561 24.404556
55.444044 -28.757769
92.990233 6.280140
60.916829 -50.726308
102.936674 -74.087427
38.697371 -68.849538
32.877629 -106.715551
15.464112 -49.552220
-26.000426 -61.100960
21.360713 -20.277875
-3.082443 6.483952
48.477177 -22.085263
63.278786 11.091140
56.366526 -45.540725
85.126189 -47.739714
29.912267 -61.082616
40.954506 -87.206624
5.058924 -43.661602
-13.717889 -61.291783
13.846671 -12.086186
-10.468698 -5.746130
40.796326 -11.792935
41.203252 10.275737
52.133434 -40.509649
68.820360 -28.831514
28.047917 -58.326757
42.497489 -68.166882
-2.442273 -43.225953
-2.808440 -58.804415
5.099886 -10.811872
-12.048710 -14.021795
34.187752 -3.771787
24.892467 5.047198
50.138723 -31.699348
53.518533 -17.490508
28.967583 -56.882134
40.213091 -53.353535
-2.961094 -43.936411
4.285503 -54.083979
-4.306442 -11.229966
-8.633830 -21.322130
26.680450 1.503546
14.449501 -0.067205
48.202676 -21.905389
41.360292 -12.931117
31.266616 -52.051656
37.030165 -40.401970
-1.804231 -46.557382
9.780059 -46.998565
-10.798242 -13.556041
-4.210014 -24.449548
16.573310 4.705719
9.239390 -5.112587
44.368196 -13.633921
30.607734 -11.567009
34.728160 -45.502197
31.543608 -31.798999
1.557237 -49.375692
11.735275 -38.915338
-13.532879 -18.981335
-0.420663 -25.040492
7.302159 6.285767
8.107394 -8.946506
38.444929 -6.083762
22.919035 -11.947261
37.713314 -37.596556
25.112813 -27.149646
6.221092 -48.438615
11.775018 -32.662805
-14.964902 -24.981402
2.291657 -22.945172
-0.056408 4.468445
8.276161 -12.001697
30.619021 0.563420
19.313866 -13.340881
37.879645 -29.763957
19.545378 -24.375035
12.694190 -46.430557
10.209784 -27.753461
-13.864915 -29.793299
4.243837 -19.267023
-6.564585 -0.071594
8.954668 -12.533783
23.041353 4.219681
17.162106 -15.134959
36.092676 -21.185273
15.985496 -23.557246
17.481315 -42.881940
6.587035 -24.915215
-9.664896 -33.091456
3.436758 -16.091668
-10.242548 -4.921550
9.655948 -10.468163
14.702780 5.674474
16.876919 -15.585525
31.990433 -13.545643
13.832947 -24.320269
20.837631 -37.430046
3.256068 -24.042162
-5.060760 -35.028463
1.632404 -14.376560
-11.998282 -10.059941
9.494875 -7.779844
7.405491 3.763723
17.772441 -15.071350
27.934755 -7.655471
13.962805 -25.214557
22.444491 -31.356532
1.692218 -24.202896
0.071374 -34.893401
-2.234089 -12.573452
-11.225347 -14.604702
8.488659 -5.239738
1.762468 1.465621
18.314229 -12.235617
22.090817 -4.719698
14.703662 -25.537826
22.628365 -24.664403
1.333999 -26.160801
4.375688 -32.808728
-5.297498 -13.182213
-8.806330 -18.463887
5.101483 -2.954557
-1.464151 -1.452430
18.850275 -8.814051
16.153333 -3.204612
16.639455 -23.868171
21.020631 -19.506267
1.747118 -28.348486
6.957110 -29.251805
-7.465733 -15.023108
-6.288751 -20.475302
1.137974 -1.298559
-2.805476 -5.105227
17.460141 -5.286027
11.278323 -3.269529
18.931606 -21.250083
18.464498 -15.513444
3.923422 -29.388505
8.638707 -25.394145
-9.030108 -17.868226
-3.370857 -20.531793
-2.902229 -1.110155
-2.853394 -8.201416
14.117616 -1.571176
8.091730 -4.254678
20.694556 -18.057962
14.604379 -13.410610
7.261429 -29.457095
8.823957 -21.786656
-9.044884 -20.947086
-0.727287 -18.968535
-6.648681 -3.042175
-1.960332 -9.755341
10.670762 1.486612
6.164588 -5.924139
20.797156 -13.265658
11.579152 -12.243225
10.573177 -28.230297
7.476933 -19.104440
-7.443870 -23.741014
0.499296 -17.410341
-9.719712 -6.095330
-0.866858 -10.522452
6.214140 2.474008
5.319725 -8.190861
19.435553 -9.133385
9.262966 -12.760041
13.093016 -26.048925
5.475747 -17.180423
-4.912164 -25.871949
0.124866 -15.541157
-11.213556 -8.954992
0.721646 -9.109992
1.368253 2.573671
5.766083 -8.819977
17.394505 -5.106465
8.014946 -13.755027
15.037332 -22.165054
3.671345 -16.613755
-1.114222 -27.002468
-1.083759 -13.621323
-11.513337 -12.372436
1.137789 -8.175881
-2.404045 1.174783
6.559702 -8.377260
13.780370 -2.279974
7.782087 -14.456675
16.096571 -17.886930
2.659475 -17.181848
2.103652 -26.114892
-2.519348 -12.760633
-10.217223 -15.601647
0.254247 -6.701234
-5.402679 -1.146587
7.151021 -7.446037
9.635472 -0.498043
8.738581 -14.514867
15.654112 -13.979884
2.044067 -18.085077
5.030705 -24.213312
-4.176753 -12.954199
-8.008318 -18.045265
-1.318494 -5.538715
-7.101499 -3.728532
7.431440 -5.193333
5.978619 0.035610
9.952218 -13.539762
13.842669 -10.748391
2.608167 -19.324859
7.265616 -21.297452
-5.446461 -14.847580
-5.611269 -19.013005
-3.579017 -4.613874
-7.390616 -6.861008
6.196896 -2.934945
3.098419 -0.635534
11.677052 -12.287387
11.403832 -8.123076
4.296588 -19.698822
8.049149 -18.403162
-6.219550 -16.525598
-3.401639 -18.442335
-6.077598 -4.989398
-7.036550 -9.086194
4.321072 -0.653691
0.831099 -2.242510
11.914608 -9.954455
8.655307 -6.539376
6.546113 -20.082079
7.397536 -16.099256
-5.717868 -18.315514
-0.985688 -17.650211
-8.441377 -6.639065
-5.682478 -10.253475
1.738133 0.638004
-0.464340 -4.021555
11.926010 -6.790744
6.369034 -6.496878
8.646889 -18.867578
6.262574 -13.473391
-4.089453 -20.097230
-0.166291 -15.935950
-10.085710 -8.937652
-4.012326 -10.643304
-1.364006 0.979410
-0.887455 -5.551012
11.032025 -3.880373
5.099571 -7.079900
10.469710 -16.497781
4.799722 -11.902260
-1.526053 -21.165404
-0.011926 -14.110165
-10.552927 -11.233052
-3.130979 -10.464489
-4.677224 0.004581
-0.526800 -6.594526
8.585411 -1.456907
3.867620 -7.862507
11.970709 -13.688591
3.879399 -11.786468
1.084941 -21.416109
-0.697344 -12.670532
-9.879938 -13.752620
-2.560469 -9.163400
-7.286683 -1.276444
0.291436 -6.421934
5.420712 0.385560
3.612459 -8.663329
12.149728 -10.774716
2.588822 -12.583847
3.658490 -20.487507
-1.658379 -11.985335
-8.281983 -16.081283
-2.749779 -8.005107
-8.908281 -3.629180
0.777984 -5.484074
2.590707 1.510403
4.390466 -8.711975
11.143032 -7.818506
2.359619 -13.434225
5.915057 -18.759350
-2.778254 -12.644193
-6.583744 -17.554657
-3.955292 -6.940381
-9.474058 -6.172475
0.802028 -4.478021
-0.366060 0.874403
5.035129 -8.650067
8.860243 -5.120710
2.494573 -13.430660
6.910519 -15.885538
-3.629162 -13.451609
-4.056288 -17.800187
-5.781976 -6.584402
-9.273544 -8.707010
0.247018 -2.761116
-3.248648 -0.542314
5.909178 -7.579023
6.900881 -3.057546
3.763712 -14.327901
7.500820 -13.646712
-3.972283 -14.227722
-1.782525 -17.384011
-7.037025 -7.430119
-8.357633 -10.250105
-1.171127 -1.712708
-4.508565 -1.982060
6.165577 -5.294565
4.552500 -2.765042
5.103533 -14.046419
6.739841 -11.097033
-2.983866 -15.666896
-0.089521 -16.058645
-8.658424 -8.612129
-7.044996 -11.013701
-3.006688 -0.970598
-5.348404 -3.914677
5.709338 -3.241324
2.795232 -3.136593
6.765026 -12.975838
5.460662 -9.209613
-1.788570 -17.025125
0.772284 -14.458021
-8.960474 -10.048449
-5.430671 -11.147549
-5.787081 -0.933943
-5.223521 -5.259787
4.252436 -1.512380
0.796896 -4.102385
8.346179 -10.895577
4.307363 -8.411489
-0.126357 -17.156216
0.465722 -11.887500
-9.043652 -12.355426
-4.323533 -11.427716
-7.847718 -2.366394
-3.988865 -6.241494
2.750734 0.441405
-0.058009 -4.207565
8.420030 -7.867042
2.429843 -8.021783
2.040942 -16.951622
0.287627 -11.550643
-8.059751 -14.852904
-3.765648 -10.170864
-9.481487 -3.568887
-3.451432 -6.136887
0.220108 1.362229
-0.224225 -5.450845
7.983053 -5.421113
1.939542 -8.161686
4.486456 -15.885297
-0.900696 -10.784493
-6.749479 -15.743719
-3.838082 -8.931775
-10.428891 -5.948460
-2.979334 -5.683449
-2.601868 1.758111
0.606183 -5.911773
6.704077 -3.715768
0.810325 -9.041819
5.710979 -13.748375
-1.783516 -10.843427
-4.214304 -16.672697
-4.195555 -8.559346
-10.633953 -8.496973
-2.944646 -4.989681
-5.093632 0.654023
0.813842 -5.389190
4.825216 -1.456095
1.383452 -9.439429
6.303313 -11.409452
-2.513341 -11.273963
-2.061105 -16.261306
-5.375148 -8.234609
-9.973574 -10.221070
-3.308421 -3.962648
-6.921138 -0.956161
1.211821 -4.412863
2.992137 -0.213529
2.710702 -9.838245
6.201407 -9.374669
-2.668343 -12.209102
-0.251650 -15.261148
-6.709460 -8.472429
-8.665008 -11.575575
-4.488639 -2.908645
-7.784332 -2.458022
1.669034 -3.394993
0.223919 -0.625078
3.350575 -9.202304
5.725805 -6.642094
-1.742945 -13.171254
0.934603 -14.263540
-7.604920 -9.504288
-6.757437 -12.053277
-6.054177 -3.044791
-8.345505 -4.325912
0.914464 -1.371878
-1.405593 -0.801948
4.475968 -8.089770
4.118837 -5.476305
-0.660416 -13.604586
1.765723 -12.104563
-7.592386 -11.123247
-5.650523 -12.243607
-7.875659 -3.122015
-7.511498 -5.614963
-0.228434 -0.158533
-2.671167 -1.736708
5.286991 -6.508152
2.690199 -4.878493
0.809933 -13.894271
1.456300 -10.734473
-7.215088 -12.058496
-4.446343 -11.134724
-8.776096 -4.545022
-6.577494 -6.495271
-3.022152 0.524632
-3.019795 -3.174911
4.948689 -3.774583
0.398358 -4.759682
3.531615 -12.999157
0.856688 -8.975466
-6.417060 -14.450122
-3.570237 -10.471339
-10.842233 -5.772581
-5.890698 -6.907348
-4.332444 1.332613
-3.165418 -3.930484
4.256455 -2.475073
-0.082528 -5.102561
4.632709 -11.739960
-0.511253 -8.630035
-4.570138 -14.640244
-3.266701 -9.439672
-11.019352 -7.969335
-5.207485 -6.525094
-6.535246 0.657100
-2.971667 -4.298847
2.803754 -0.256465
-0.392378 -5.462011
5.520753 -9.659050
-1.205276 -8.746556
-2.581719 -15.089026
-4.023764 -8.747650
-10.543953 -9.794617
-4.806980 -5.588551
-8.475534 -0.500562
-2.284786 -3.994245
1.172817 0.913972
-0.266483 -6.590964
5.421735 -7.303465
-1.703089 -8.953945
-0.552497 -14.490793
-4.869022 -8.368328
-9.437326 -11.664774
-5.409466 -5.032950
-9.571931 -2.257784
-2.022744 -3.467531
-1.227661 1.596948
0.564718 -6.437025
4.880622 -5.034962
-1.654872 -9.652783
0.712070 -13.465652
-5.960697 -8.881988
-7.474901 -12.532147
-6.061681 -4.260838
-10.068143 -3.809696
-2.043563 -2.504895
-3.652476 1.154204
1.119204 -6.016501
3.753253 -3.672661
-0.978736 -10.706590
1.890561 -11.503835
-6.369997 -9.317536
-5.850684 -12.671550
-7.599323 -4.041547
-9.783618 -5.705750
-2.301553 -1.635121
-5.191062 -0.019375
2.029291 -5.018710
2.181986 -2.516716
-0.208955 -11.091762
2.083467 -9.893890
-6.740741 -11.159534
-4.930305 -12.518858
-9.370159 -4.834128
-9.823950 -7.163788
-4.553787 -0.206452
-6.661370 -0.815238
1.891931 -2.979708
0.261660 -1.291620
1.377385 -10.068856
1.905943 -7.671986
-5.713555 -11.951530
-3.326345 -11.382482
-10.058588 -6.156646
-8.445121 -8.061921
-5.684690 0.407701
-6.713278 -2.230988
1.514709 -1.383529
-1.092286 -1.636246
2.929781 -9.393636
1.078251 -6.513534
-4.399156 -12.852610
-2.464395 -10.193516
-10.756552 -7.687580
-7.494164 -7.974788
-7.635644 0.475710
-6.492539 -3.394848
0.614218 0.165542
-2.266505 -2.183981
3.677321 -7.790544
0.065409 -6.000844
-2.709861 -13.442533
-2.748201 -9.083282
-10.354882 -9.261532
-6.257108 -7.340307
-9.511011 -0.779398
-6.112132 -3.874025
-0.879892 1.662976
-2.634556 -3.236963
4.067740 -5.695139
-1.014874 -5.846837
-1.112935 -13.040084
-3.433779 -8.139882
-9.526616 -10.943885
-5.965266 -6.853114
-10.949015 -2.269910
-5.472524 -3.819982
-3.031176 2.522533
-2.631596 -3.751992
3.898207 -3.627509
-1.430245 -6.220925
0.614975 -11.836355
-4.120697 -7.769604
-8.075289 -12.312050
-6.289296 -5.892248
-11.868878 -3.911658
-4.788841 -3.180789
-5.287749 2.392784
-2.137966 -3.915855
2.993922 -1.567389
-1.971193 -6.979480
2.125822 -10.536560
-4.702232 -8.114134
-6.501830 -12.875446
-6.820098 -5.338028
-11.711003 -5.646485
-5.029274 -2.331470
-7.145171 1.796956
-1.533705 -3.265618
1.299782 -0.114305
-1.585827 -7.415801
2.541315 -8.377233
-5.281663 -9.046122
-4.855754 -12.671755
-7.744102 -5.553158
-11.205783 -7.721335
-5.626550 -1.612707
-8.549588 0.482901
-0.854213 -2.498143
-0.551582 0.655847
-0.486900 -7.370121
2.453307 -6.554859
-5.219321 -9.771847
-3.156713 -11.856557
-9.127803 -5.977031
-10.231865 -8.890094
-6.684537 -0.904142
-9.333613 -1.163230
-0.977124 -1.083848
-2.547819 1.022805
0.632694 -6.635201
2.005020 -4.813030
-4.816405 -10.476975
-1.695138 -10.460625
-9.778250 -7.584305
-8.646582 -8.986608
-8.178342 -0.951782
-9.590848 -2.337675
-1.416964 0.203178
-4.353816 0.757587
2.130649 -5.857123
0.165438 -3.834054
-2.865256 -10.892102
-1.796553 -9.579408
-9.993064 -7.966302
-7.053292 -9.264082
-10.091566 -0.980180
-8.898003 -4.060579
-3.233412 1.750615
-4.595962 -0.202673
1.958248 -4.425910
-0.555244 -2.478092
-1.441370 -11.558425
-1.889802 -7.710676
-9.338640 -10.400810
-6.543404 -8.354761
-11.156973 -2.069719
-8.564907 -4.257514
-4.393707 2.898298
-5.798168 -1.186289
2.255836 -2.097970
-1.753951 -3.263630
0.144726 -10.370680
-2.240725 -6.917827
-8.221371 -11.673301
-5.829319 -7.583067
-12.160734 -3.749862
-7.525168 -4.393901
-6.628640 2.908461
-5.449340 -2.075537
1.377110 -0.014608
-2.556659 -3.355940
1.459411 -9.016905
-3.148448 -6.456493
-6.938403 -12.496030
-6.248817 -6.606004
-12.675536 -5.798535
-7.141596 -4.067725
-8.729229 2.276203
-4.972993 -2.231081
0.187451 1.399454
-2.984237 -3.857485
2.600223 -7.098844
-4.000305 -6.564329
-4.943610 -12.434813
-6.699853 -6.123828
-12.398997 -7.639494
-7.193580 -3.456173
-10.325683 1.225850
-4.392598 -2.003423
-1.700893 2.467930
-2.456869 -4.258153
2.636887 -4.852220
-4.321587 -7.404196
-2.825576 -11.669452
-7.634998 -6.022009
-11.491324 -9.112389
-7.590154 -2.220613
-11.632947 -0.456656
-4.047470 -1.192969
-3.936826 3.166681
-1.673068 -4.354036
2.277973 -3.138437
-4.102669 -7.947657
-1.483005 -10.654650
-8.585371 -6.581808
-9.740291 -9.962061
-8.513318 -1.757671
-12.128766 -2.191005
-4.235475 -0.086425
-5.743326 2.869293
-0.904066 -3.926711
0.969923 -1.444314
-3.410107 -8.494558
-0.474405 -9.010896
-9.227223 -7.536698
-8.059105 -10.154968
-10.007603 -1.987512
-12.320056 -3.828277
-4.791622 1.280281
-7.238087 2.129721
-0.180423 -2.836269
-0.604013 -0.201830
-2.168553 -8.543208
-0.169730 -7.300817
-8.755768 -8.987796
-6.796110 -9.902918
-11.633177 -2.416862
-11.329735 -4.832913
-6.342491 2.211386
-8.452324 0.920434
0.151688 -0.837192
-1.970744 0.045271
-0.636951 -8.369214
-0.700129 -5.601240
-8.101039 -10.217014
-5.730293 -9.185624
-12.661916 -3.515412
-10.077744 -5.170605
-8.301378 2.941663
-8.872172 0.139476
-0.096025 1.111021
-3.222729 -0.014240
1.000212 -7.381775
-1.181927 -4.551474
-6.367646 -11.335120
-4.974476 -8.126206
-12.897651 -5.688586
-8.864806 -6.185445
-10.154947 1.971450
-8.576510 -1.462890
-1.349423 2.144490
-4.771830 -1.067773
1.502229 -5.882790
-2.921881 -4.335842
-5.134781 -11.339555
-5.367705 -6.475578
-13.063932 -7.230461
-8.559942 -5.052989
-12.069176 1.354619
-7.950668 -2.088415
-3.135406 3.892339
-4.584791 -1.337727
2.151790 -3.522637
-3.903805 -4.165464
-3.415138 -11.098284
-5.996510 -6.068455
-12.205985 -9.303861
-8.368393 -4.310707
-13.266970 -0.041645
-7.364656 -1.562874
-5.397169 5.098148
-4.700580 -1.783373
1.619156 -1.457504
-4.000476 -4.646773
-1.248456 -10.324792
-6.933167 -5.869269
-10.733855 -10.524283
-9.006360 -3.423387
-14.186796 -1.530368
-6.999767 -1.094729
-7.638899 4.719671
-3.977476 -1.919274
0.385690 0.755500
-4.032397 -5.083866
0.107905 -8.454134
-7.908557 -6.292382
-8.760420 -10.895321
-9.669895 -3.110535
-14.550947 -3.800489
-7.322617 0.188682
-9.641002 4.222978
-3.115675 -1.119278
-0.984715 2.256304
-3.362705 -5.694539
0.651660 -6.536403
-8.110359 -7.253185
-7.044004 -10.779884
-10.933631 -2.977258
-13.737695 -5.175888
-8.017157 1.196447
-11.116402 2.556102
-2.883438 -0.032671
-2.856748 2.993213
-2.533768 -5.794899
0.558868 -4.013384
-7.545803 -8.071696
-5.651741 -10.159966
-12.139184 -4.213393
-12.701694 -6.303461
-10.143301 2.165043
-11.711416 1.079426
-2.721651 2.010501
-5.108109 2.769480
-0.341472 -5.694690
-0.461359 -2.213981
-7.433633 -10.032010
-4.224833 -8.386992
-13.097421 -4.465572
-11.125970 -7.630397
-11.034176 2.227642
-12.152729 -0.308452
-3.654411 3.144905
-6.549362 2.834647
0.112528 -3.705510
-1.640085 -1.179406
-5.388331 -10.084930
-3.712288 -7.147087
-13.366651 -6.852593
-10.343285 -7.082686
-13.271700 2.095592
-11.456342 -1.412470
-5.157958 4.663538
-7.470562 2.232233
1.187476 -1.735886
-2.862450 -0.848047
-3.601600 -10.140858
-4.017678 -5.795390
-12.735355 -8.579533
-9.099706 -6.235974
-15.140645 0.459614
-11.195395 -1.801536
-6.841955 6.196261
-7.639446 0.942697
0.642299 0.118872
-4.332875 -0.933084
-1.293865 -8.858883
-4.812379 -4.921925
-11.675458 -10.287649
-8.757051 -4.921110
-15.833056 -1.458586
-10.203868 -2.080236
-9.771601 6.392356
-7.710687 0.547975
0.054340 3.103869
-4.609379 -1.455486
0.124491 -7.686039
-5.998696 -4.628957
-9.711100 -11.218257
-9.294262 -4.292686
-16.702387 -3.457843
-9.616120 -0.999136
-11.728545 5.793166
-6.927344 0.354191
-1.393802 5.036503
-4.715972 -2.019171
1.211376 -5.453523
-6.764551 -5.014767
-7.512209 -11.647316
-10.285595 -3.880828
-16.418723 -5.517556
-9.831325 0.024921
-13.854791 4.398183
-6.461802 0.643978
-4.018288 6.138945
-4.741085 -2.478239
1.292919 -2.510814
-7.145597 -5.828928
-5.456530 -10.749860
-11.130774 -3.832819
-14.811875 -7.841660
-10.933788 0.682574
-15.820309 2.984067
-6.043140 2.159720
-6.027426 6.621035
-3.416930 -2.573237
0.552284 -0.081499
-6.598654 -6.399542
-3.566937 -9.503777
-12.484331 -4.832606
-13.341229 -8.766051
-12.158613 1.304385
-15.951760 1.057448
-6.172249 3.938981
-8.722864 6.746720
-2.612766 -1.414231
-0.763130 1.298044
-5.894220 -7.896822
-2.386045 -7.643413
-12.757030 -5.812720
-11.361947 -8.162543
-14.005320 1.824248
-15.995894 -1.185858
-7.777478 4.902964
-10.599210 5.415589
-0.927830 -0.208206
-2.354315 2.702181
-4.269395 -7.475067
-2.115436 -4.903768
-12.933711 -7.718809
-10.120660 -8.081070
-16.054754 0.695546
-15.179574 -2.782512
-9.253360 6.308451
-11.566981 4.371689
-1.168779 2.257542
-4.483913 3.218957
-2.097812 -7.131768
-2.736355 -3.336529
-11.861064 -9.105841
-8.799064 -7.226111
-17.916044 -1.039213
-14.117563 -2.795711
-11.549120 7.156054
-12.079471 2.983043
-1.680877 4.892086
-5.823001 3.207318
-0.399851 -5.866104
-3.964187 -2.322308
-10.216232 -10.653495
-8.168791 -5.854964
-18.554518 -3.141465
-13.188508 -2.683314
-14.287707 7.101093
-11.988721 2.525069
-3.123769 7.273659
-6.489806 2.229557
0.687728 -3.345906
-5.556764 -1.776218
-7.394683 -11.163341
-8.989863 -4.477904
-18.666227 -6.041114
-12.367647 -1.878961
-17.147210 6.329479
-10.883237 1.769249
-5.264625 9.013405
-7.171778 1.405647
1.462869 -0.730001
-6.173059 -2.063999
-5.112677 -10.868127
-9.764761 -3.731215
-17.260870 -8.401128
-12.541595 -1.466293
-19.479628 4.201112
-10.540963 2.335218
-8.591077 10.186285
-6.742695 1.654568
1.458115 2.625154
-6.749240 -2.674186
-3.132734 -9.473982
-11.181871 -3.442939
-15.536122 -9.683490
-13.429940 -0.140022
-20.555076 1.798808
-10.274788 3.507623
-11.588616 10.297131
-5.660489 1.563931
0.079977 5.114830
-6.592128 -3.695723
-1.122582 -6.861448
-11.990445 -4.217614
-13.247528 -10.448978
-15.107436 0.739509
-20.912598 -0.637818
-10.929593 5.268269
-14.413223 9.736206
-4.735399 2.490502
-2.420224 7.027569
-5.432205 -4.349245
-0.281903 -4.563817
-12.296180 -5.938659
-10.822493 -10.056361
-16.845349 0.905018
-20.075562 -2.676910
-12.263830 6.900671
-16.323186 8.013008
-4.500943 4.533710
-5.516969 8.811369
-3.912257 -4.042467
-0.537807 -1.929183
-12.091808 -7.437417
-8.654536 -9.029988
-18.633914 -0.804849
-18.380216 -4.306068
-14.306094 8.343445
-17.543015 6.078590
-4.514828 6.949150
-7.938294 9.256217
-1.809385 -2.772456
-1.848848 0.820400
-10.905650 -9.077532
-7.457610 -7.163565
-20.125472 -2.969335
-16.960644 -5.040178
-17.237443 8.595229
-18.013456 4.196150
-5.881343 9.963651
-9.935513 8.452517
-0.385621 -0.867847
-3.794406 2.488960
-8.175596 -10.103075
-7.132795 -5.375068
-20.528492 -5.386069
-15.333243 -4.721970
-20.636470 7.960264
-17.359537 3.090654
-8.067309 12.221992
-11.434658 7.408708
0.826003 2.443356
-5.303278 3.100624
-5.514340 -10.235765
-7.733983 -3.248531
-19.852469 -8.251185
-14.523004 -3.667301
-23.554811 6.420370
-16.158952 2.936244
-11.359861 14.180199
-12.143432 6.594008
1.197078 6.231561
-7.291044 2.982961
-2.925435 -8.803612
-8.890467 -2.177850
-18.161425 -10.664227
-14.528273 -1.874727
-25.193574 3.438652
-15.758706 3.398378
-15.298967 15.142395
-11.283223 5.705591
-0.228956 9.786925
-7.934063 2.047661
-0.274351 -5.962329
-10.355347 -1.541602
-15.420260 -11.999652
-15.760433 -0.612177
-26.474016 0.020796
-15.589558 4.600806
-19.278095 14.560174
-10.430830 6.065457
-3.059242 13.139755
-8.064575 1.487551
1.396014 -2.584484
-11.528777 -2.285506
-11.920012 -12.309030
-17.216163 0.217654
-26.236064 -3.289841
-16.597104 6.608589
-22.651768 12.523259
-9.595684 7.376172
-6.782125 16.266062
-7.054841 1.161979
1.688792 1.376691
-12.331896 -3.820823
-8.506631 -11.102728
-19.581276 -0.234670
-24.651432 -6.302174
-18.083269 8.491741
-25.457919 10.309978
-9.648293 9.741428
-10.443060 17.233943
-4.787273 1.578350
0.366330 5.247635
-11.765019 -5.705011
-6.565364 -9.214392
-22.258135 -1.762895
-22.612797 -7.816346
-21.549225 9.395476
-27.532475 7.435110
-10.637128 13.407931
-14.409325 17.054588
-3.015696 3.629662
-1.500533 8.744863
-9.631893 -7.099916
-4.667986 -5.984025
-23.272790 -3.999832
-19.492991 -8.069292
-25.210346 9.516962
-27.432691 4.948280
-12.540336 17.079459
-17.695115 16.027099
-1.567223 7.319077
-4.498594 11.583223
-6.930674 -7.928039
-4.798024 -2.156687
-23.080962 -7.341871
-17.534251 -7.582644
-29.581498 8.184953
-26.355206 3.370413
-16.358884 19.957021
-19.921298 14.308624
-0.727537 11.838143
-7.912115 12.530497
-3.191690 -6.270027
-5.900955 0.785901
-21.695627 -10.691779
-16.344278 -5.346071
-32.901734 5.583485
-24.894151 2.585393
-21.856264 21.919808
-21.062992 12.897081
-1.889868 17.110379
-10.815407 12.269512
0.294118 -3.436435
-7.653073 2.788995
-19.056887 -13.493721
-16.348084 -2.528981
-35.336449 1.319463
-23.784415 3.481102
-27.672213 22.636053
-20.780054 12.122072
-4.853067 22.756003
-12.793047 11.778930
3.072979 0.938427
-10.749940 3.931739
-14.631351 -14.209639
-17.649383 -0.186913
-36.075644 -3.770602
-24.074540 5.535272
-33.696944 20.791772
-19.972964 12.189389
-9.467153 28.272484
-12.784111 11.215819
4.059260 7.011555
-12.740107 3.220526
-9.254653 -13.299957
-20.818095 1.281213
-35.570954 -7.955269
-25.072052 8.106609
-39.446781 17.883893
-19.847340 14.835977
-16.038618 31.199511
-11.964548 10.882917
3.291574 14.236775
-13.855731 1.766630
-5.081188 -11.482483
-23.776952 0.985643
-31.863972 -12.367829
-27.996682 10.867158
-43.283508 13.929358
-20.169952 18.743969
-23.301980 32.932781
-10.085082 12.633262
1.033879 21.165753
-13.068120 0.481670
-1.264489 -5.891321
-27.553534 -0.926928
-28.218695 -13.741694
-33.937697 12.360239
-45.472729 8.934745
-22.365074 24.120767
-31.125651 32.583156
-8.083526 16.953174
-3.985530 28.064057
-10.282707 -1.124991
0.604565 0.670750
-28.714041 -4.088318
-23.977710 -13.460887
-40.458948 12.778277
-46.012724 4.784935
-27.582295 29.730725
-38.174178 30.778939
-6.769972 23.862621
-10.507021 32.390179
-6.632392 0.125746
0.524167 7.527345
-29.031483 -9.338977
-20.311195 -11.126684
-47.178115 10.869365
-44.569714 1.417780
-36.459986 35.680432
-42.748541 28.669074
-7.271955 32.499182
-17.806513 35.982154
-0.926454 3.999088
-2.438015 14.822840
-27.540191 -13.896690
-18.582507 -6.013259
-54.313992 4.598779
-43.501610 1.020753
-46.921289 39.509475
-46.277319 26.051101
-11.814539 43.956238
-24.624174 37.528653
5.466739 11.167783
-7.471569 20.136073
-20.993237 -16.257556
-19.051052 0.122861
-59.882077 -2.480307
-43.250839 3.256207
-60.836262 41.200032
-48.714162 24.656097
-20.375707 57.301873
-30.094442 38.789068
7.396867 23.113689
-14.349798 23.205137
-12.308238 -18.314584
-21.808492 5.611380
-64.023254 -11.184943
-43.940122 7.849278
-77.032250 38.234878
-50.211354 28.097077
-33.499916 69.631796
-33.567730 39.710904
9.697708 40.662451
-20.399229 27.291646
-3.072415 -15.213005
-30.479426 10.619316
-62.057551 -22.090499
-49.654977 15.004331
-93.856729 33.812606
-54.022156 36.091665
-53.438894 81.582556
-35.880008 43.565355
8.016508 63.402868
-24.358091 27.613968
8.185990 -2.650850
-41.047443 13.737182
-60.386779 -29.929055
-62.930012 22.544865
-112.249980 26.526323
-61.034750 49.565083
-82.741101 94.940218
-36.873655 55.832328
-4.675251 89.727521
-27.020397 28.096591
19.288642 13.406124
-51.122529 12.834954
-55.756013 -36.432518
-84.654671 33.681456
-132.991664 12.872909
-79.241367 73.169363
-117.392350 107.328802
-36.963038 81.970068
-25.701453 129.451005
-29.195052 39.369359
28.163809 41.546104
-72.537850 5.100852
-46.888200 -35.777426
-125.134310 38.349812
-162.040148 2.435460
-123.980705 111.133196
-173.299822 121.945590
-45.367543 122.300099
-58.909298 191.595139
-12.022300 59.533523
30.661055 98.862527
-92.498573 -0.527616
-47.404142 -23.528193
-200.136209 34.147939
-221.874301 1.600108
-208.440941 197.817653
-306.755002 163.578771
-89.665732 252.300393
-148.172791 306.043483
4.636322 111.771647
28.551217 203.648772
-106.635963 9.269442
-85.083560 -19.823512
-475.765731 58.051480
-387.236001 -59.944851
-589.571663 507.997086
-708.945062 466.895836
-122.989015 1032.748097
-180.518313 1354.424239
-1315.086649 114.156299
1022.042606 517.033680
