5483.677361 5593.653149
-2828.739033 -1586.517701
1109.679100 942.134537
1249.276363 89.821586
978.083850 -860.157264
941.468096 -216.689508
391.652933 -928.098850
473.217302 -627.519102
-7.258378 -253.855683
-7.197301 -356.741484
106.610701 -6.244666
4.738451 15.681673
287.376050 -41.821312
256.395600 36.176141
252.812442 -227.423306
314.541076 -142.708069
84.594981 -235.921504
102.406248 -283.875898
20.710717 -102.388822
-44.121726 -144.000005
74.793419 -29.698420
24.986301 32.215710
153.138874 -54.496131
171.110460 8.545224
119.576238 -120.243554
183.789295 -138.351656
57.064704 -120.456126
32.277525 -176.893591
32.291286 -63.861719
-41.437919 -63.539172
50.190657 -29.344615
34.462536 34.256296
84.802988 -48.650366
137.923520 -18.233007
77.048240 -70.830033
113.070433 -125.491312
48.650983 -79.405253
0.897710 -122.245831
28.500241 -58.335678
-30.200575 -27.655636
34.674047 -31.190915
51.261249 27.986902
52.377344 -30.151402
112.238274 -34.377577
61.708367 -46.068967
66.659914 -109.798351
42.983602 -64.208535
-11.829000 -83.894378
20.588918 -55.154537
-16.241908 -5.653271
17.234865 -27.552512
57.631857 12.814181
38.504842 -17.227268
89.030674 -46.534801
58.164185 -36.779226
38.809742 -90.545131
38.721298 -58.932197
-15.702391 -55.249269
9.231562 -52.211382
-0.195676 3.293898
6.883045 -18.574011
56.802078 -0.690222
35.385313 -6.299423
66.180410 -49.540559
54.510644 -35.058102
19.528782 -72.489058
31.799752 -59.567139
-11.884244 -36.051346
-2.663976 -46.089450
11.065432 3.567240
2.695137 -7.829233
49.673734 -11.571949
37.828722 -3.015077
48.023141 -48.697725
51.408622 -38.287443
9.330245 -55.171284
20.901837 -59.624359
-5.972926 -24.434134
-11.400215 -36.112158
17.609097 -2.640358
4.674129 -0.030582
40.961349 -17.640188
42.332479 -4.135515
33.146067 -43.163607
45.976626 -42.906640
6.797419 -41.201436
9.629789 -57.035295
0.761676 -19.590988
-14.768073 -23.698464
18.208364 -8.162984
9.737302 5.674815
30.742566 -20.214263
44.961296 -9.216088
23.972237 -36.021991
37.383301 -47.254727
8.620259 -32.524372
-0.934194 -50.276798
4.216143 -19.770936
-14.013368 -13.080636
15.258780 -12.844794
16.569199 7.716078
23.397798 -18.375896
45.055897 -16.463228
19.503510 -28.395247
26.570510 -48.462107
11.176990 -29.251328
-8.775451 -41.036228
5.338078 -21.142101
-9.466168 -4.555037
9.995201 -14.816719
22.514682 5.801084
17.963034 -14.866256
40.668523 -23.900125
19.874112 -23.290475
16.662521 -46.375156
12.901423 -28.881901
-12.261011 -30.790996
3.698764 -22.944238
-3.782447 0.414009
5.038494 -13.323311
27.082392 0.704456
16.310499 -10.495424
33.257233 -28.880251
21.870442 -21.172591
7.545435 -42.126542
12.026067 -30.869417
-11.769593 -21.498486
-0.450586 -23.431375
2.769346 2.221883
1.793850 -8.400891
27.051052 -5.353793
17.733927 -7.032180
25.079697 -31.053564
22.893041 -22.540599
1.653736 -35.444101
8.949607 -32.473981
-9.511379 -14.354877
-5.332255 -20.963597
7.396386 -0.284000
1.335223 -3.902408
24.727276 -11.528786
20.834000 -6.510699
18.000933 -30.049650
23.015091 -25.160112
-0.777448 -28.967202
3.659989 -33.188710
-4.769092 -10.686547
-8.746786 -16.560772
9.729807 -3.687517
3.894128 1.048979
20.590037 -14.733346
23.306407 -8.066810
12.210723 -26.728564
20.478919 -29.107747
-0.664376 -23.499926
-2.248163 -31.644446
-0.613236 -10.332312
-10.023695 -10.728869
9.647838 -7.114219
8.015440 3.006213
16.075969 -15.611869
25.007406 -11.647544
9.341754 -22.548972
15.647050 -32.051770
0.783816 -19.750461
-7.327518 -27.397567
1.473028 -11.963788
-8.911802 -5.108243
7.686029 -9.283118
12.436459 2.444272
11.696511 -14.374573
24.410066 -16.182176
8.973388 -18.852430
9.660428 -32.896073
3.358602 -18.706073
-10.417628 -21.869945
1.494274 -13.727940
-5.714497 -0.842012
4.641474 -9.525951
16.231885 -0.083847
9.487621 -11.654561
21.633038 -20.510317
10.199817 -16.883545
3.329350 -31.379823
4.252555 -19.301892
-10.846119 -16.416970
-0.593910 -15.063865
-1.150037 1.523047
2.524533 -8.195014
18.014734 -4.084763
9.594938 -8.480567
17.357099 -23.244985
11.686670 -16.760224
-1.367755 -27.550836
3.633862 -20.772307
-9.533210 -11.096311
-3.457174 -14.744006
3.078163 1.102328
1.047109 -5.612044
17.551816 -9.000076
11.121894 -7.286392
12.286188 -24.323563
12.306292 -18.819377
-4.244594 -23.300238
1.121906 -22.650103
-7.157734 -8.121995
-6.740292 -12.643449
6.182975 -0.820359
1.590371 -2.406824
15.114230 -11.544059
13.757231 -7.506476
7.917031 -22.839577
11.718949 -21.199720
-4.961634 -18.813284
-1.940279 -22.617911
-4.189529 -6.749863
-8.282985 -8.977718
7.328271 -4.123405
3.781068 0.082317
11.942754 -13.622776
15.666898 -9.232046
4.949231 -20.477965
9.248771 -23.502163
-3.489669 -15.260474
-6.263607 -21.273483
-1.367174 -6.865686
-8.081384 -5.053593
6.667183 -6.729243
6.947000 0.625117
8.790700 -13.190037
16.299379 -12.557196
3.281875 -17.494595
5.684857 -25.019291
-1.568409 -13.779575
-9.429441 -18.108804
-0.303753 -8.400679
-6.307885 -1.392361
4.594977 -7.839757
10.435507 -0.632324
6.489865 -11.555387
15.613146 -16.059128
3.735633 -15.094212
1.048267 -24.685285
0.063692 -13.766032
-10.833028 -13.846838
-1.059792 -9.875152
-2.807536 0.714593
2.346945 -8.007648
12.434813 -2.950048
5.937630 -9.792185
12.885237 -19.135627
4.881140 -13.924747
-2.538824 -22.883073
0.579538 -15.095470
-10.488376 -9.501973
-2.570018 -10.351488
0.602935 1.335798
0.607771 -6.361230
12.884295 -6.108360
6.491982 -7.943056
8.877140 -20.600068
6.019156 -14.337283
-5.314751 -19.690189
-0.744590 -16.876202
-8.796308 -6.208653
-4.593759 -10.213024
3.419550 -0.007716
0.379048 -3.839433
12.263647 -9.485797
8.003449 -7.549425
4.850091 -20.294286
6.677676 -16.333999
-6.561291 -16.367477
-2.634802 -17.131234
-6.166796 -4.152300
-6.280412 -8.055768
4.869856 -2.091667
1.262989 -1.874889
9.917147 -11.904065
9.927343 -8.526161
2.058336 -18.657173
5.893195 -18.247329
-5.967199 -13.218456
-5.427322 -16.504330
-3.477064 -3.873231
-6.973974 -5.159514
5.109579 -4.708702
3.931142 -0.405614
7.083682 -12.803393
10.862094 -10.348959
0.138763 -16.248199
3.294638 -20.278913
-4.924023 -11.505820
-7.985012 -15.261358
-1.157994 -4.783870
-6.162632 -2.117354
4.054328 -5.959079
6.541162 -0.613285
4.778373 -12.270535
10.883109 -12.986079
-0.198277 -14.382929
0.718588 -19.990225
-4.437801 -10.688429
-9.847427 -12.172914
-1.319375 -7.347930
-2.875512 -0.125799
2.223923 -5.973677
8.595720 -2.705767
3.082684 -10.500528
9.778378 -16.145908
1.022866 -11.873392
-3.603920 -19.706149
-2.208755 -11.331673
-10.026245 -8.565846
-1.789748 -7.729472
-1.466221 0.864817
0.892114 -6.509346
10.275190 -5.626006
3.339760 -8.807956
6.357200 -17.539609
2.061508 -12.307106
-6.628916 -17.557207
-2.215354 -12.381607
-9.333962 -5.203685
-3.600392 -8.078918
1.337313 1.130652
-0.101096 -4.920333
9.691146 -7.924034
3.901659 -8.041853
3.565135 -18.408251
2.784163 -12.912731
-8.373993 -14.949456
-2.925223 -13.179495
-7.370785 -3.028260
-5.487496 -7.467198
3.834872 -0.740463
0.531248 -3.060377
7.993518 -10.531853
5.761352 -7.711369
0.451575 -17.397900
2.656311 -14.913200
-8.170495 -11.735070
-5.201621 -13.557090
-4.746593 -2.329083
-6.551446 -5.078097
4.354062 -2.946434
1.978056 -1.657659
5.831615 -11.898766
7.066663 -8.864835
-1.679423 -15.709747
1.431132 -16.590818
-7.281103 -9.376976
-7.363582 -12.630589
-2.823145 -3.163837
-6.355690 -2.382686
4.161368 -5.110138
3.914404 -1.536136
3.655935 -11.745151
7.563284 -10.944023
-2.579958 -13.628087
-1.338152 -17.335693
-5.624562 -8.218128
-9.374052 -10.561458
-1.898037 -4.303433
-4.923213 -0.267229
2.767154 -6.486742
5.831349 -2.341801
1.944568 -10.921641
7.007079 -13.444038
-2.201886 -11.534801
-4.005763 -17.126414
-3.967022 -8.070032
-10.484049 -7.772734
-2.020791 -5.377104
-2.597700 0.971902
1.046996 -6.690533
7.389333 -4.163723
1.275237 -9.514620
4.998038 -15.702307
-1.431945 -10.653128
-6.494981 -15.742875
-3.423481 -9.044913
-9.844006 -4.671042
-2.890238 -6.170754
-0.072264 1.227131
-0.061394 -5.644268
7.791079 -6.750265
1.513352 -8.046578
2.272445 -16.619459
-0.493638 -10.880746
-8.552473 -13.351191
-3.828461 -10.069075
-8.576174 -2.530882
-4.370326 -6.159484
2.233682 -0.175321
-0.681510 -4.562782
7.234627 -9.355709
2.682751 -7.685977
-0.679798 -16.471926
-0.071097 -11.934548
-9.216005 -10.819663
-5.369943 -10.848998
-6.412226 -1.196020
-5.625654 -4.764277
3.465640 -1.638582
0.000269 -2.797083
5.267762 -10.850785
3.957800 -8.189686
-3.038461 -15.163344
-0.531439 -13.449591
-8.553788 -8.431547
-7.084599 -10.553061
-3.970481 -1.062804
-5.977392 -2.949681
3.555065 -3.757167
1.491277 -1.927158
3.108296 -11.697357
4.615649 -9.707838
-4.303584 -13.036170
-1.904856 -14.573571
-7.509017 -6.622399
-8.995856 -9.183228
-2.431277 -1.928904
-5.445256 -1.098073
2.700789 -5.580781
3.707270 -2.348248
1.039509 -11.129837
4.669913 -11.770704
-4.604607 -11.048663
-4.186916 -14.705661
-6.160607 -6.318860
-10.281253 -6.742007
-1.848118 -3.446469
-3.910661 0.663841
1.339327 -6.156254
5.521797 -3.615319
-0.071460 -9.959647
3.181774 -13.584486
-3.769280 -9.779596
-6.737173 -14.285702
-4.963128 -6.440189
-10.165278 -4.340506
-2.248761 -4.695861
-1.428682 1.200179
-0.232732 -5.827304
6.201675 -5.991378
0.042012 -8.676515
0.832867 -14.389296
-3.028700 -9.681225
-8.341377 -12.509484
-5.171756 -6.779902
-9.371354 -2.660434
-3.068104 -5.004717
0.342701 1.134569
-1.108677 -5.478848
6.242712 -7.985678
-0.092643 -7.505709
-1.426367 -15.286047
-2.072580 -9.742197
-10.119072 -10.273611
-5.328340 -8.238235
-7.340204 -0.518102
-4.785420 -4.962406
2.363408 -0.403759
-0.782793 -3.842397
4.597288 -10.292782
1.151464 -7.427271
-3.682991 -14.491186
-2.182365 -10.837327
-10.188312 -7.529126
-6.545325 -8.503195
-5.274468 0.091304
-5.601347 -3.448105
3.156765 -2.671853
0.214712 -2.740303
2.572492 -11.253755
2.105934 -8.219340
-5.348669 -12.866935
-2.997984 -12.162426
-9.299603 -5.435401
-7.946773 -8.067060
-3.390417 -0.499205
-5.630185 -1.387875
2.989126 -4.722345
1.626441 -2.532438
0.399389 -11.377734
2.623458 -9.951655
-6.448450 -10.991110
-4.543702 -12.875188
-7.846135 -4.588187
-9.578038 -6.202774
-2.129976 -1.853832
-4.723470 0.264852
1.867062 -5.808586
3.343676 -3.340040
-1.238066 -10.547722
2.069221 -11.656246
-6.282713 -9.360233
-7.029035 -12.609965
-6.161491 -4.583455
-10.188427 -4.087866
-1.923085 -3.310778
-2.890705 1.310525
0.515637 -6.407164
4.007398 -4.907726
-1.863148 -9.135459
0.285927 -13.534251
-4.972383 -7.855680
-9.164050 -11.944419
-5.111800 -4.564029
-9.391171 -2.509570
-3.150281 -3.917815
-0.028953 0.785686
-1.512002 -6.358974
4.651498 -7.208722
-2.582853 -8.474770
-2.422545 -14.222560
-5.043985 -8.256800
-11.145541 -9.173891
-5.867180 -5.893131
-8.684047 0.279350
-4.126141 -3.653136
1.505906 0.487551
-1.717684 -4.581105
3.946483 -8.887626
-1.229465 -7.413923
-4.587088 -14.016888
-3.998819 -8.904952
-11.144744 -6.839654
-6.317950 -6.676387
-6.590383 1.190161
-5.006562 -3.240474
2.690753 -1.615357
-1.263364 -3.572372
2.543424 -10.531716
-0.067120 -7.413491
-6.592867 -12.418907
-4.333857 -9.842013
-10.883528 -4.714619
-7.942116 -6.891332
-4.478758 0.923925
-5.240939 -1.825674
2.839168 -3.665549
0.108973 -2.558109
0.207514 -10.931362
0.328691 -8.713087
-7.966258 -10.805064
-5.396440 -10.932456
-9.271522 -3.530136
-9.013560 -5.830343
-2.560617 0.311746
-4.918344 0.033661
1.694303 -5.110461
1.178063 -2.799824
-1.990554 -11.036035
0.143434 -10.454863
-7.968000 -9.068085
-6.960819 -11.171889
-7.769392 -2.428754
-10.066747 -3.811152
-2.126937 -1.121758
-3.670616 1.039177
0.272750 -6.150666
2.704898 -4.073451
-3.001853 -9.919747
-0.791383 -11.681851
-7.401421 -7.333518
-8.994707 -10.474770
-6.584949 -2.699609
-10.455216 -1.551161
-2.190601 -2.680167
-1.850705 1.523705
-1.080614 -6.256870
3.630810 -6.072147
-3.675556 -8.475784
-2.633340 -13.075127
-6.327349 -6.548785
-10.942276 -8.861619
-5.791646 -3.492659
-9.288968 0.686249
-3.308317 -3.063390
-0.072536 0.858190
-2.084114 -5.344099
3.082465 -8.270199
-3.428734 -7.576368
-5.036905 -13.272220
-5.492825 -6.883149
-11.984286 -6.913692
-6.275908 -4.474819
-7.096643 1.686366
-4.568366 -2.922466
1.739590 -0.651047
-2.402721 -4.261095
1.916394 -10.085346
-2.545661 -7.017749
-7.363468 -12.446566
-5.253994 -7.645416
-12.153354 -4.330886
-7.454923 -5.135073
-5.235189 2.189555
-5.189002 -2.019807
2.515467 -2.226814
-1.798069 -3.075012
0.024017 -11.196865
-1.887258 -7.481020
-8.626705 -10.875408
-5.875960 -8.635919
-10.848193 -2.399462
-8.710334 -4.015265
-3.809992 1.009618
-5.120992 -0.855184
2.267198 -4.361522
-0.123262 -2.641566
-2.808046 -11.026952
-1.270226 -9.024862
-9.352362 -8.525476
-7.414605 -9.242033
-9.795080 -1.094008
-9.531372 -3.640208
-2.146198 0.168742
-4.204971 1.008338
0.502241 -5.505944
1.001131 -4.193639
-4.070822 -10.090473
-1.623889 -10.540773
-9.134514 -6.437139
-9.794752 -9.330714
-7.565913 -0.701405
-10.562492 -1.488245
-2.071247 -1.411589
-2.599378 1.892297
-0.535405 -6.240480
1.974480 -5.051362
-5.204816 -8.790651
-3.236792 -12.008538
-8.454268 -5.614485
-11.044346 -8.377204
-6.443973 -1.412444
-9.617105 0.598528
-2.728354 -2.239101
-0.859864 1.497230
-2.143940 -5.930504
2.102712 -7.030714
-5.354436 -7.361831
-5.647771 -12.320081
-7.572968 -5.475953
-12.736642 -6.204030
-6.248637 -2.812776
-8.319664 2.145592
-3.799752 -2.634482
1.111730 0.399645
-3.018650 -4.926670
1.236573 -9.049496
-4.651088 -6.366789
-8.105308 -12.094145
-6.821619 -5.889107
-12.914306 -3.915682
-6.960759 -3.544777
-6.143263 2.961645
-4.811483 -2.044728
1.983259 -1.449816
-2.763882 -4.043189
-0.441805 -10.414736
-3.755384 -6.541125
-9.916472 -10.684765
-7.046428 -6.378810
-12.235033 -1.615005
-8.244459 -3.716853
-3.980214 2.947926
-5.281890 -0.980113
2.252432 -3.548867
-2.135470 -3.008786
-2.796117 -10.930434
-3.146147 -7.556676
-11.261111 -8.816858
-7.627273 -7.758845
-10.519828 0.079193
-9.310584 -2.818700
-2.421703 2.143284
-5.161339 0.684449
1.055198 -5.401624
-1.034904 -3.403581
-4.822859 -10.849529
-2.983395 -9.118242
-11.331031 -6.513907
-9.159158 -7.740064
-8.950660 0.984513
-10.713310 -0.952436
-1.953754 0.364822
-3.936528 1.449076
-0.467330 -6.668989
0.772781 -4.462591
-6.040629 -9.272626
-4.090246 -10.352386
-10.795883 -4.383757
-11.437673 -7.129233
-7.665523 0.384211
-10.376012 0.888926
-2.077822 -1.247485
-1.966493 1.895106
-2.132993 -6.555430
1.142598 -5.918033
-6.912725 -7.779278
-5.955828 -11.354666
-9.520195 -3.615882
-12.872549 -5.655117
-6.894235 -0.424689
-9.187808 3.146355
-3.073824 -1.929929
-0.178916 1.523652
-3.321433 -5.545006
0.973841 -8.040515
-6.386903 -6.452918
-8.012033 -11.529467
-8.023883 -3.856981
-13.214355 -3.816032
-7.004813 -2.164729
-6.853863 3.703082
-4.525650 -3.025479
1.382828 -0.573811
-4.355905 -5.124387
-0.902467 -9.793032
-6.248754 -6.519440
-11.111015 -9.786273
-7.601073 -4.984515
-14.011529 -0.650114
-7.191895 -2.137543
-5.426052 4.142494
-5.041318 -1.532598
1.610660 -2.843434
-3.561309 -3.502433
-3.130097 -11.293103
-5.236893 -6.215346
-12.471457 -8.344917
-8.330372 -5.695388
-12.539901 1.137484
-8.965287 -1.806587
-3.116058 3.406600
-5.574972 -0.126445
1.309323 -4.786785
-2.378156 -3.197268
-5.665685 -11.094340
-4.715992 -7.224884
-13.276700 -6.247722
-9.795408 -6.135042
-10.370957 2.290068
-10.268964 -0.846605
-1.771725 2.011250
-4.818272 1.076053
-0.316252 -6.247824
-1.176813 -3.800833
-7.648618 -10.141445
-5.390715 -8.454159
-12.834813 -4.001816
-11.716280 -6.033493
-8.670944 2.765985
-10.530263 0.976202
-1.637356 0.049115
-3.191053 2.043924
-2.049559 -6.940330
-0.336814 -5.147279
-8.819454 -8.334550
-6.810384 -9.836760
-11.701407 -2.417334
-13.550867 -4.900875
-7.306590 1.910790
-9.913825 3.097766
-2.375669 -1.349620
-1.310195 1.907113
-3.553966 -6.678176
-0.457244 -7.300345
-9.169660 -6.465528
-9.006129 -10.514948
-10.657985 -1.984420
-14.644217 -2.391704
-7.113182 0.755039
-8.390073 4.387753
-3.434674 -1.698762
-0.076360 0.663909
-4.634649 -6.203273
-1.037413 -8.946476
-9.190254 -5.228628
-11.339402 -10.588370
-9.227115 -2.091874
-15.498015 0.069905
-7.033577 -0.889659
-6.045976 5.711493
-5.086578 -1.524756
1.584529 -1.639108
-5.203179 -4.200266
-3.327656 -10.752057
-7.593545 -4.849448
-13.931608 -8.432530
-9.294251 -3.354904
-14.218136 2.617750
-8.541182 -0.887507
-3.987250 5.151800
-5.624793 -0.220102
1.612862 -3.977764
-4.510136 -3.249868
-5.886782 -11.282951
-6.596844 -5.544663
-15.172372 -5.899104
-10.336163 -4.169615
-11.916851 4.159519
-10.115972 -0.255966
-1.908785 3.862470
-5.504324 0.864389
0.210380 -5.866018
-3.260179 -3.145486
-8.728004 -10.442267
-6.714542 -7.163412
-15.330725 -3.339041
-11.803622 -4.497482
-9.838176 4.727879
-10.724006 1.309688
-1.107570 2.201369
-4.309962 2.156215
-1.847728 -7.268502
-2.144025 -4.026367
-10.578634 -8.876025
-7.854797 -8.751395
-14.413436 -1.218381
-13.707498 -3.718427
-8.094398 4.353726
-10.830053 3.618882
-1.441473 0.162686
-2.448638 2.471264
-3.989510 -7.353784
-1.247258 -6.141846
-11.267395 -6.832239
-9.798432 -9.488432
-12.925826 0.056756
-15.374310 -1.995516
-7.089274 2.999813
-9.711594 5.530234
-2.759654 -1.497394
-0.639141 1.523617
-6.039360 -6.436511
-2.131010 -8.156470
-11.310034 -5.230924
-12.628190 -9.223140
-11.580664 0.121029
-16.343886 0.406075
-7.038215 1.686854
-7.403105 6.898897
-4.418483 -1.803102
0.925997 -0.177180
-6.697224 -5.038325
-4.056230 -10.230900
-10.255415 -4.127291
-15.078384 -7.995223
-10.627817 -0.610735
-15.779083 3.508347
-8.065789 0.683398
-4.763428 7.279422
-5.609839 -1.165070
1.239001 -2.691954
-6.434859 -3.590432
-6.651116 -11.242151
-9.400422 -4.221815
-17.264376 -5.397938
-10.651682 -1.703438
-14.359404 5.815782
-9.359223 0.974056
-2.498399 6.001992
-6.058351 0.242204
0.327801 -5.219716
-5.376366 -2.908696
-9.625941 -11.132160
-8.729392 -5.124305
-17.909493 -2.560967
-11.943080 -2.667930
-12.051162 7.281722
-10.747652 2.295811
-1.056321 3.884632
-5.773766 1.958597
-1.666173 -7.283517
-3.894341 -3.450549
-12.497999 -9.864291
-9.237782 -6.450262
-17.262300 0.131089
-14.208447 -2.417195
-9.567712 7.503886
-11.136928 4.151030
-0.896998 1.727673
-4.098410 3.070365
-4.187928 -7.983657
-3.264154 -4.988345
-14.035107 -7.477035
-10.932247 -7.877526
-15.912543 1.992127
-16.126758 -0.808256
-7.650675 6.251450
-10.429342 6.573046
-2.030699 -0.519768
-1.866815 2.918353
-6.625057 -7.226480
-3.698704 -7.352823
-14.261588 -5.052820
-13.299841 -7.956355
-14.397366 2.690493
-17.558318 1.595786
-6.880550 5.102819
-9.296421 8.111501
-3.391516 -1.783920
0.076609 1.507639
-8.204509 -6.196643
-4.829552 -9.410994
-14.033747 -3.365937
-16.182902 -7.536869
-12.810985 2.309335
-17.562322 4.475764
-7.059233 3.366073
-6.378575 8.890391
-5.834533 -1.313205
0.915303 -1.833506
-8.586236 -4.507329
-7.813099 -10.871059
-12.846766 -2.342066
-19.006061 -5.666701
-11.793461 2.254752
-17.024807 8.250896
-9.152006 2.912161
-3.782569 7.329633
-5.664770 0.132913
0.126939 -3.841450
-8.134809 -2.971447
-11.957126 -11.635550
-10.912508 -3.543410
-20.615031 -1.822726
-12.678629 0.254653
-14.074822 10.800018
-10.823189 3.152250
-1.357049 7.045656
-7.054674 1.552843
-1.255850 -7.152348
-6.747807 -2.594189
-14.892802 -10.326926
-11.155800 -4.324050
-21.436753 1.304201
-14.444620 -0.002369
-11.221919 10.775185
-11.414389 4.861576
-0.215534 4.173428
-5.696055 3.513574
-4.211709 -8.607358
-5.888201 -3.344191
-17.302661 -7.758080
-12.820481 -5.858024
-20.115253 4.439363
-17.085091 0.934494
-8.550921 10.027811
-11.687719 7.442783
-0.444954 1.247430
-3.579943 3.942990
-7.405121 -8.837246
-5.146687 -5.379005
-18.351767 -4.911721
-15.202505 -6.785084
-17.901728 6.495079
-19.279427 3.208075
-6.967555 8.598733
-10.691567 9.936858
-2.375761 -0.570022
-1.206381 2.833817
-10.358210 -7.744114
-6.417814 -8.223947
-18.143187 -2.392468
-18.802023 -6.609647
-15.758999 6.989413
-20.017590 6.659229
-7.006401 6.461712
-7.922159 11.729694
-4.781102 -1.624962
0.331990 0.225410
-11.628042 -5.293705
-8.657684 -10.667775
-17.143884 -0.436521
-22.253800 -4.528117
-14.223210 6.007632
-19.656073 10.239112
-8.109067 4.968096
-4.362221 12.000715
-6.853329 -0.767460
0.585925 -2.975812
-11.852141 -2.850576
-12.326842 -11.825264
-15.963907 0.136186
-24.876196 -0.816804
-14.160494 4.363666
-17.629861 13.824675
-10.283522 5.050837
-1.196275 10.148795
-8.250580 1.282450
-0.796144 -6.419011
-10.529818 -2.119844
-16.874283 -11.251451
-14.840547 -0.688462
-25.948729 3.529869
-15.683411 3.481410
-14.117286 15.655794
-12.193374 6.285825
0.811393 7.227206
-8.013489 3.271061
-4.084651 -8.863930
-9.259152 -1.882304
-21.046148 -9.151981
-15.482756 -2.553340
-25.297783 7.732296
-18.231180 3.584325
-10.605945 15.696365
-13.034446 9.228658
1.044011 3.636559
-6.323501 4.854862
-7.759937 -10.139656
-8.399812 -3.570998
-23.597523 -5.416896
-17.971956 -4.116050
-22.992129 11.178512
-21.623027 5.259327
-7.748564 14.753078
-12.519084 11.955939
-0.601245 0.619875
-3.328783 4.871515
-12.145768 -9.356657
-8.159244 -6.700362
-24.960798 -1.277174
-21.659745 -4.614632
-20.088155 12.368648
-23.612080 8.975068
-6.535392 12.017332
-10.298772 14.598307
-4.297905 -1.417570
-1.382930 2.930552
-15.864452 -7.225525
-11.105634 -9.734390
-24.139778 2.248348
-26.237286 -3.098239
-17.951419 12.295291
-23.967758 14.043667
-6.871013 9.481124
-6.132139 16.135719
-7.249255 -1.291807
0.526024 -0.569759
-16.920497 -3.965778
-15.420863 -11.893026
-22.560695 4.461275
-30.252835 0.741412
-16.933017 10.820444
-22.495459 19.421805
-8.888870 8.018391
-2.108561 15.462535
-10.113106 0.758038
-0.437403 -5.410520
-16.823290 -1.580055
-21.202384 -12.142425
-20.715578 4.164108
-33.242161 6.269884
-17.637534 9.596114
-18.604105 23.214923
-12.060284 8.563168
1.269059 12.451101
-10.897707 3.674585
-3.777238 -9.497039
-15.328835 -0.054483
-27.386943 -9.900961
-20.370044 2.620735
-34.125633 12.175728
-20.786747 8.645922
-13.703165 24.939643
-14.555689 11.248668
2.610797 8.267876
-9.594092 6.407592
-9.231935 -12.457691
-13.616557 -0.686490
-32.467154 -5.741310
-22.281091 0.597479
-32.397216 18.514410
-24.804960 10.622651
-9.326294 23.975776
-15.630137 15.751571
1.482127 3.402494
-6.704000 7.531292
-15.631116 -12.929064
-13.139102 -3.167187
-35.318077 0.237652
-27.220111 -0.975837
-28.999061 22.519646
-28.356729 14.691941
-6.041277 20.885807
-13.804368 20.642534
-1.581180 -0.111277
-3.764896 7.027835
-22.142479 -10.153683
-15.453189 -7.356022
-36.138872 5.998997
-34.038963 -0.222998
-24.865875 23.922653
-30.997913 20.755797
-5.849270 17.748762
-9.640997 24.100044
-6.617723 -2.270065
-0.846747 2.692162
-25.935851 -5.973039
-20.452294 -11.863658
-34.369609 10.846671
-40.954158 4.431125
-22.166783 23.476920
-30.352515 29.021144
-7.817675 14.928659
-4.111608 25.129247
-11.975408 -0.259920
-1.010030 -3.433553
-28.148402 -0.797386
-28.984731 -13.432812
-32.691310 13.064152
-47.310179 11.617596
-21.711387 22.159769
-27.114397 36.546347
-12.102249 14.619059
2.391931 23.019156
-15.949662 3.598903
-4.436740 -10.142291
-27.146274 3.648728
-38.954116 -12.076070
-32.187032 13.104589
-51.487489 22.005887
-25.174327 20.229535
-21.228905 41.880139
-17.570586 17.871523
7.206547 17.292569
-16.820850 8.537108
-11.909478 -15.681126
-25.333526 4.772011
-49.880103 -7.092492
-33.929081 11.484235
-51.309017 33.923930
-31.798167 21.418343
-13.154109 44.968585
-21.382479 24.586771
6.982093 9.419539
-15.515310 12.965776
-22.426329 -18.323543
-24.580432 2.317629
-59.490790 2.710677
-40.358120 9.027052
-47.854940 44.468101
-40.627549 26.876963
-6.173223 43.644628
-20.731165 33.336047
3.530342 2.791306
-10.809361 14.821093
-35.422421 -16.137378
-26.877913 -2.859896
-66.541862 15.428160
-52.601364 8.873139
-42.673089 52.267874
-49.003868 38.676595
-3.246691 40.347355
-17.285954 42.270245
-5.510924 -2.536534
-5.223026 11.255568
-48.174944 -11.080004
-35.424821 -11.299503
-68.843216 29.748222
-68.679355 15.072079
-38.780548 57.207063
-53.034829 55.960619
-3.970271 36.172555
-8.270880 49.716369
-17.932783 -2.441782
-1.809130 3.170192
-59.733250 0.588369
-53.380916 -17.638518
-69.442330 40.203586
-87.261448 28.965924
-38.247440 60.160038
-51.444558 78.526726
-11.204906 35.374344
4.664081 55.654110
-32.459270 4.499038
-5.599704 -11.785925
-67.886236 13.348264
-81.133401 -16.549565
-73.018876 48.958569
-108.986042 55.024934
-47.263601 64.066032
-45.331728 105.488050
-25.774187 37.927222
20.251312 52.561368
-42.234078 18.314270
-22.043868 -29.223538
-74.642178 23.574980
-121.117361 -5.498031
-84.959986 54.760847
-130.559386 97.156877
-63.573880 74.024065
-28.142717 140.552853
-47.731268 60.574841
27.334645 44.058808
-50.462767 36.367827
-64.348070 -45.964610
-87.461172 28.630142
-178.779251 19.520579
-115.119543 61.231806
-159.455147 169.818430
-105.149106 100.744611
-4.099350 177.928656
-64.804669 110.531083
28.160441 30.153272
-43.443271 59.832909
-144.333399 -48.285546
-126.780769 43.750092
-304.608939 88.768737
-214.130939 81.356445
-204.756086 314.969646
-196.496772 198.591374
9.227758 245.197281
-67.103545 251.597856
-27.092750 7.960318
-75.714202 70.502283
-395.288325 -65.257295
-217.051444 36.342751
-693.134726 401.144156
-608.358529 346.065529
-326.216303 1013.098210
-422.779144 1311.690056
-1230.018484 178.144102
1298.840779 799.865483
