5500.472919 5355.479322
-2691.395112 -1639.380551
1308.932511 1222.087081
959.221790 -12.167141
1057.206988 -874.735551
864.524434 -278.599840
517.686106 -966.214812
412.327580 -472.212170
-73.772908 -320.343183
57.849459 -347.562291
51.626541 52.367436
31.473901 -69.375137
333.567373 39.769610
197.444119 -22.075050
313.101237 -200.539316
232.002153 -136.449351
107.628378 -312.640632
127.736409 -204.641237
-46.002045 -126.166499
29.877810 -147.143094
22.744672 39.987111
42.721384 -41.594517
184.428347 -0.841640
119.752371 -33.529482
186.561919 -132.472606
131.509210 -91.659552
43.503611 -187.579974
69.082975 -114.068835
-38.940399 -78.935445
22.079916 -78.942751
23.103506 31.443261
38.405376 -27.980490
128.459363 -8.098921
78.987677 -34.833353
130.159106 -108.436660
79.637688 -73.951899
26.204783 -134.451569
41.090223 -78.933378
-32.752978 -53.597219
18.668098 -50.005637
25.958433 25.667385
37.851573 -25.196934
102.176987 -6.387280
61.070381 -36.400936
94.231586 -90.422820
50.342165 -62.317538
13.604386 -103.372937
26.626161 -58.325431
-30.172687 -36.423527
19.778235 -33.958102
23.439772 19.053105
37.225475 -24.999854
86.026660 -10.279188
49.722417 -37.701629
72.078236 -78.666993
33.838354 -51.248073
6.091048 -85.533038
17.246153 -42.077604
-24.379819 -25.500812
20.885419 -23.047631
21.777457 15.397009
34.710341 -23.328242
73.734098 -13.326518
38.752332 -39.361415
57.037163 -68.446310
21.695403 -44.323392
1.174422 -71.816835
9.679047 -31.626801
-19.603260 -18.492293
21.634954 -17.518406
21.009420 13.215450
34.291853 -23.330935
63.063489 -16.043725
30.245266 -40.709850
45.187088 -61.246986
13.360533 -39.732899
-3.430946 -60.291222
7.133662 -22.503762
-15.874777 -14.829108
22.154145 -14.006092
21.290223 10.501673
34.087098 -24.389977
54.189310 -18.170331
23.914445 -39.229350
36.843169 -55.719956
6.527384 -34.888973
-5.159702 -50.826521
5.418270 -15.099781
-12.416188 -11.896937
22.143424 -10.829179
21.095315 7.384103
32.569822 -26.131950
46.790960 -19.378716
18.653729 -38.853036
29.809868 -50.591269
0.681730 -31.197418
-5.791378 -42.889489
4.613588 -10.781788
-9.626286 -9.236680
23.370905 -8.001474
21.204058 4.453325
30.534691 -27.616666
40.205185 -19.872969
14.672833 -38.594707
22.771473 -46.283783
-3.227131 -26.048363
-6.339114 -36.388098
3.920282 -7.906529
-6.414670 -7.846920
24.976366 -6.467594
19.754276 1.563772
27.886269 -28.410956
35.537920 -21.115293
10.963397 -37.582358
17.545217 -41.263367
-5.925794 -22.628250
-5.468422 -31.638553
3.472635 -3.738812
-3.807599 -6.661286
25.189147 -7.368629
18.979586 -1.326666
26.617757 -28.492026
29.944719 -21.453828
6.463430 -36.956857
13.682260 -36.905846
-7.776736 -19.683154
-5.205623 -26.500899
3.809378 -0.978619
-1.510060 -5.593116
25.311586 -7.181802
17.689218 -3.969424
24.261018 -28.967138
24.688055 -21.938973
2.872227 -35.718049
9.806152 -32.945791
-8.887752 -16.799064
-4.501040 -22.773939
4.489806 0.862501
0.798711 -6.289346
24.964199 -8.098242
16.688543 -6.420055
22.865088 -29.644246
20.622133 -21.958459
0.072015 -33.549391
7.600401 -28.964972
-10.359599 -14.371924
-3.628328 -18.930915
5.497182 2.412898
2.685822 -6.887857
24.428372 -8.446601
15.471183 -8.538740
20.574623 -30.490959
16.423850 -21.579566
-1.855986 -31.941971
5.244057 -25.549469
-10.846328 -12.012825
-2.223456 -15.780896
6.446680 2.806917
4.398944 -7.432699
24.306203 -8.824956
14.088710 -10.886495
17.731740 -30.467598
12.430924 -20.723125
-3.705616 -30.223728
3.081158 -22.390440
-10.796148 -9.358431
-0.547276 -13.642299
6.838166 2.912191
5.632817 -8.280223
23.822864 -9.764714
12.591176 -12.691384
15.637039 -30.105336
9.439256 -19.646297
-5.457696 -28.399980
1.679157 -19.183147
-10.606209 -7.300776
1.014476 -11.653508
7.236278 2.957990
6.855503 -9.015690
23.000836 -11.160948
10.448278 -14.607194
13.756846 -29.370903
6.678560 -18.923149
-6.939807 -26.391872
0.736172 -15.591082
-9.651260 -5.985591
2.302155 -10.078663
8.132819 3.083888
8.112993 -10.067719
21.724825 -11.873815
8.498042 -15.754446
11.469817 -28.620051
3.864817 -17.885248
-7.972520 -24.287318
0.250490 -13.083221
-8.978303 -5.073361
3.456871 -9.552803
8.507981 2.062092
8.539156 -11.951590
20.000315 -13.064119
6.637544 -16.696794
9.226466 -28.218929
0.940151 -16.681647
-8.728017 -21.978488
0.048015 -10.497391
-8.267765 -3.779966
5.071309 -7.896037
9.080804 1.450423
8.897078 -13.314771
18.607514 -13.727344
4.928933 -17.639036
7.405608 -27.211776
-1.344208 -15.091568
-8.994425 -19.821412
-0.279555 -8.544614
-7.162315 -3.182907
6.804040 -7.230427
9.229462 0.598640
8.631895 -14.515600
17.272978 -14.572940
3.452497 -18.319526
5.229902 -25.482310
-3.166317 -13.458080
-8.937081 -18.210369
-0.061102 -6.588402
-6.180807 -2.293269
7.771123 -7.460555
9.279092 -0.891608
8.877491 -15.249438
15.421541 -14.771275
1.257786 -18.747043
3.628094 -24.421118
-4.669593 -11.908494
-8.745592 -16.243832
0.321836 -4.772697
-4.893729 -1.928964
9.257780 -7.152522
9.193392 -2.047910
8.403626 -16.223297
13.608129 -15.162546
-0.871758 -19.189918
2.170588 -22.695235
-5.508298 -10.584619
-8.441320 -14.624943
0.760190 -3.059100
-3.404367 -2.150429
9.886903 -7.705721
9.058269 -3.122260
8.332700 -17.209136
11.623156 -15.360741
-2.596759 -18.652168
0.684375 -20.805259
-6.576646 -9.172988
-8.095302 -12.911063
1.377095 -1.724596
-2.370349 -2.475583
10.197033 -7.893972
8.496481 -4.204468
7.516604 -18.549512
9.458052 -15.567020
-3.883117 -18.454519
-0.283694 -19.722289
-7.599517 -7.603163
-7.015403 -11.281028
2.139605 -1.000765
-1.450650 -2.852859
11.025598 -8.221669
7.976487 -5.651102
6.465904 -19.251163
7.522765 -15.147741
-5.323949 -17.890930
-1.313570 -17.815109
-8.023041 -6.275149
-6.047074 -9.971640
2.827077 -0.555749
-0.331530 -3.514434
11.550993 -8.662967
7.439742 -6.915422
5.656333 -19.581063
5.818500 -14.600484
-6.516164 -17.285930
-2.293680 -15.924965
-8.170488 -4.856818
-5.138907 -9.196280
3.244709 -0.268699
0.489106 -4.295414
11.769263 -9.590247
6.436779 -8.191426
4.678982 -19.896389
4.292307 -14.180590
-7.662885 -16.541176
-2.730563 -13.956472
-8.054852 -3.411778
-3.983829 -8.114793
3.835777 0.173156
1.228704 -5.121679
11.482841 -10.480999
5.113937 -9.415660
3.599293 -20.177763
2.445727 -13.761196
-8.517252 -15.606088
-2.756555 -12.066018
-7.755458 -2.666573
-2.776128 -7.205993
4.636196 0.368222
1.918186 -6.048174
11.214152 -10.983696
4.011043 -10.276419
2.583923 -20.278005
0.821450 -13.348627
-9.377871 -14.681281
-2.891937 -10.535219
-7.543635 -2.093974
-1.940163 -6.783959
5.160238 0.160399
2.141209 -7.167855
10.525212 -11.352182
2.707929 -10.709517
1.052403 -19.926094
-0.981624 -12.190893
-10.005893 -13.478344
-2.984195 -8.936885
-7.149386 -1.345241
-0.506829 -6.319110
5.612271 -0.291436
2.258342 -8.545838
9.966644 -12.101100
1.761186 -11.525207
0.052853 -19.409935
-2.599308 -10.876938
-10.037888 -12.719806
-2.476299 -7.735299
-6.395466 -0.514097
0.575502 -6.049373
5.755493 -0.968495
2.526147 -9.438259
9.183373 -12.445181
0.201492 -12.091368
-0.915005 -19.023012
-3.558969 -9.739928
-10.254021 -11.171892
-2.490579 -6.377118
-5.795615 -0.270889
1.903360 -6.322522
6.003797 -1.778362
2.561155 -10.303159
8.444148 -12.970213
-1.337778 -12.659690
-1.875501 -18.167591
-4.279658 -8.573767
-10.328729 -10.104161
-2.278453 -4.631992
-5.226065 -0.161978
2.662486 -6.945445
6.038058 -2.583628
2.771969 -11.442799
7.458116 -13.025842
-2.993747 -12.190605
-3.083479 -17.139482
-5.630153 -7.823742
-10.020264 -9.531677
-1.107023 -3.924480
-3.826984 -0.143747
3.671099 -6.473064
5.848546 -2.564039
1.986277 -12.312991
5.669282 -13.522546
-4.160540 -12.596191
-3.514536 -16.668650
-6.149606 -6.644689
-9.387838 -7.982910
-0.591347 -2.859271
-3.488205 -0.346851
4.394327 -7.017039
5.673477 -3.708789
1.643778 -13.205289
4.814837 -13.286121
-5.471778 -12.222575
-4.291139 -15.366792
-6.682836 -5.329836
-9.004933 -7.180267
0.069987 -2.044895
-2.855135 -0.768951
4.813050 -7.533611
5.163992 -4.725290
0.791154 -14.308986
3.514470 -13.234737
-6.427679 -12.278033
-4.844612 -14.486574
-6.934889 -4.240228
-8.137109 -6.568646
0.478521 -1.620634
-2.300005 -1.119889
5.182697 -7.945123
4.464302 -5.504993
0.116968 -14.692743
2.227101 -12.744780
-7.562963 -11.710023
-5.330035 -12.994769
-7.082239 -2.962471
-7.300800 -5.933152
1.335212 -1.227409
-1.518178 -1.774305
5.634171 -8.815935
3.749854 -6.330923
-0.604694 -15.048899
1.171219 -12.437002
-8.708397 -11.069457
-5.538003 -11.483010
-7.055098 -2.015926
-6.681070 -5.466652
2.003432 -0.855412
-0.913002 -2.637174
5.704011 -9.459707
2.930220 -7.002129
-1.406486 -15.380213
-0.095381 -11.923475
-9.445904 -10.568436
-5.531769 -10.167578
-6.903069 -1.241501
-5.774429 -5.026405
2.514077 -0.566349
-0.570111 -3.491602
5.569700 -9.968835
2.081654 -7.438761
-2.160687 -15.640129
-1.445028 -11.230930
-10.066046 -9.572514
-5.342710 -9.102768
-6.661246 -0.459175
-4.607309 -4.635751
3.312156 -0.857748
-0.439709 -4.482067
5.330416 -10.697292
1.210582 -8.158165
-2.937921 -15.546739
-2.578213 -10.257269
-10.673241 -8.789567
-5.052336 -8.053926
-6.370270 0.347129
-3.762157 -4.341989
3.453521 -1.334868
-0.307826 -5.498000
5.200545 -10.958851
-0.336849 -8.607493
-4.045823 -15.474595
-3.440709 -9.397258
-11.000598 -8.035647
-4.904731 -6.873943
-6.033653 0.719709
-2.594979 -4.574179
3.904061 -1.754984
-0.376626 -6.279178
4.864650 -11.533748
-1.473334 -9.233849
-4.977179 -15.030188
-4.193357 -8.500245
-11.252723 -7.228082
-4.479787 -5.582683
-5.253235 1.098633
-1.722665 -4.753769
4.152668 -2.003550
-0.479585 -7.211147
3.996836 -11.925268
-2.709436 -9.343276
-5.580401 -14.605683
-4.824319 -7.497635
-11.193149 -6.470325
-3.814125 -4.394380
-4.701173 1.238583
-0.989045 -5.217987
4.314699 -2.314688
-0.567205 -8.404734
3.237203 -12.289462
-3.866363 -9.188626
-6.329063 -14.235571
-5.724625 -6.432970
-10.937833 -5.759301
-3.307705 -3.811944
-4.046394 1.399223
-0.056192 -5.529073
4.044311 -2.796938
-0.985821 -9.112808
2.255324 -12.620366
-5.092055 -9.236497
-6.691584 -13.582215
-6.128553 -5.328557
-10.487584 -4.570950
-2.590204 -2.965222
-3.852781 1.131045
0.472386 -6.171692
3.882464 -3.882248
-1.451259 -10.243074
1.650039 -12.399295
-6.148046 -8.683435
-7.240223 -12.670266
-6.635069 -4.061506
-10.165400 -4.096898
-1.582603 -2.739587
-3.084857 0.735873
1.302899 -6.754054
3.704171 -4.781683
-2.466570 -11.193116
0.360477 -12.550355
-7.789910 -9.023726
-8.433699 -11.856996
-7.384484 -2.898690
-10.264290 -3.529337
-1.656063 -1.772092
-2.839605 0.887508
1.568332 -6.853289
3.107307 -4.742523
-2.870147 -11.130714
-0.356536 -11.841061
-8.492157 -8.495932
-8.223933 -10.765225
-6.874353 -1.855619
-9.196788 -3.321708
-0.499244 -1.470568
-2.254459 0.184559
1.844308 -7.903257
2.629700 -5.401954
-3.577542 -11.677712
-1.162786 -11.555613
-9.311456 -7.674937
-8.291474 -9.722079
-6.901459 -0.998400
-8.610221 -2.904147
0.191924 -1.229758
-1.896197 -0.547851
1.893209 -8.543261
1.849239 -5.946089
-4.292269 -12.258730
-2.193301 -11.138627
-10.082798 -7.069186
-8.013226 -8.569269
-6.788163 -0.211400
-7.752347 -2.581774
1.024340 -1.181336
-1.794494 -1.490470
2.008758 -9.064986
0.938187 -6.395036
-5.369330 -12.540490
-3.252741 -10.328221
-10.982912 -6.405919
-7.962834 -7.943173
-6.191039 0.792996
-6.952930 -2.191147
1.446075 -1.469636
-1.620341 -2.388158
1.994178 -9.567027
0.115574 -6.714843
-6.345223 -12.509377
-4.016748 -9.547977
-11.258814 -5.577266
-7.716383 -6.823609
-6.182729 1.481661
-5.880736 -2.282525
1.988235 -1.639284
-1.738408 -3.060994
1.780934 -10.342199
-1.125727 -7.373853
-6.871346 -12.649745
-4.695198 -8.489029
-11.818507 -4.810234
-7.130068 -5.668846
-5.780118 2.310952
-5.246528 -2.582539
2.592338 -1.897297
-2.044857 -3.592083
1.215864 -11.010266
-2.326830 -7.690413
-7.889314 -12.212640
-5.484901 -8.086936
-11.965407 -4.157997
-6.684563 -4.809876
-5.198515 2.452938
-4.259561 -3.058034
2.834048 -2.240086
-2.003607 -4.604462
0.601894 -11.338527
-3.408560 -7.569517
-8.648699 -11.930078
-6.345997 -6.870063
-12.138000 -3.667967
-5.896486 -3.786592
-5.136693 2.893180
-3.284161 -3.567140
3.192193 -2.122483
-2.824606 -5.328922
0.443713 -12.327656
-4.599125 -6.610552
-9.402982 -11.976211
-6.483132 -6.049578
-11.712222 -1.969259
-5.789115 -3.645782
-3.727524 3.057150
-3.268643 -3.911781
3.005085 -2.825483
-2.618220 -6.848128
-1.070006 -11.635971
-5.018673 -7.111408
-10.366355 -11.080350
-6.615148 -4.431993
-12.027930 -1.909808
-4.603586 -2.485899
-3.432193 2.439892
-2.719346 -3.850926
3.499353 -4.175435
-3.957714 -6.899223
-1.378012 -11.990394
-6.419820 -7.326019
-10.383002 -9.723685
-7.457872 -3.897173
-10.878286 -0.784334
-4.300058 -1.747138
-3.637393 2.498857
-1.184703 -4.891939
2.281526 -4.137707
-4.142840 -8.402074
-1.652893 -11.861945
-7.884607 -6.413152
-10.624764 -9.700266
-7.038525 -2.285219
-10.971518 -0.476752
-3.102792 -1.696213
-2.934828 2.246105
-1.282166 -5.537828
1.969221 -4.825304
-5.101407 -8.610931
-2.783396 -11.766757
-9.083676 -5.870976
-11.032051 -8.833999
-7.196491 -1.385336
-10.478940 -0.165215
-2.563435 -1.493391
-2.152479 1.738097
-1.174145 -6.353550
1.422686 -5.173943
-5.676360 -9.282402
-3.790918 -11.148526
-10.059550 -5.408912
-10.893761 -8.021847
-7.112005 -0.167570
-10.018710 -0.022997
-1.388049 -1.359813
-2.103191 1.312537
-0.967775 -7.375908
0.977470 -5.565822
-6.598505 -9.664651
-4.749854 -10.702321
-10.773995 -4.310411
-10.898030 -7.135265
-6.852010 0.916954
-9.250578 0.432295
-0.793515 -1.349319
-2.073768 0.287072
-0.882574 -8.052718
0.445045 -5.933941
-7.718903 -9.793608
-5.548413 -10.235827
-11.227121 -3.795043
-10.627345 -5.946424
-6.798466 1.717998
-8.465696 0.308284
0.078824 -1.416613
-2.124447 -0.312114
-1.021563 -8.887082
-0.492145 -6.260762
-8.829675 -10.033838
-6.202894 -9.232478
-12.031535 -2.925048
-10.703897 -5.230857
-6.124503 2.579774
-7.702447 0.213754
0.742067 -1.606830
-2.157944 -0.867138
-1.171746 -9.558304
-1.622318 -6.641315
-9.693566 -9.889297
-6.769905 -8.367878
-12.560282 -1.930986
-10.264694 -4.206241
-5.712573 3.156128
-6.943409 -0.097664
1.159877 -1.881570
-2.264593 -1.735146
-1.571338 -10.027715
-2.806968 -6.637096
-10.443073 -9.759015
-7.189967 -7.407714
-13.041520 -0.961330
-9.541905 -3.043227
-5.182529 3.901135
-6.471810 -0.176168
1.893437 -2.205378
-2.240959 -2.500361
-1.720167 -10.775778
-3.506070 -6.640512
-10.950976 -9.732338
-7.529100 -7.069999
-13.047421 -0.829987
-8.726174 -3.150141
-4.634088 3.432843
-6.176822 -1.196614
1.824424 -2.976463
-3.371890 -3.749515
-2.970893 -11.035612
-5.023857 -6.204004
-12.202601 -8.984193
-8.446255 -5.215284
-13.121468 0.369213
-7.904481 -2.458775
-4.057040 3.948108
-4.982396 -1.614682
2.060941 -3.200274
-4.166242 -4.191129
-3.835624 -11.386388
-6.265896 -6.083969
-12.898710 -8.882110
-8.453743 -4.140677
-12.696233 1.402784
-7.285274 -1.573246
-3.671206 4.415182
-4.602641 -2.293553
1.851008 -4.076866
-4.667842 -4.973682
-4.251496 -11.789940
-7.535173 -5.444798
-13.382986 -7.917633
-8.733459 -3.032805
-12.651570 2.111582
-6.338153 -1.318145
-3.234585 4.262809
-4.059829 -3.038906
1.633965 -4.543487
-5.756506 -5.561869
-4.915240 -11.611140
-8.827151 -4.943053
-13.997136 -7.051905
-8.426932 -1.674592
-12.403791 2.597452
-5.342880 -0.863913
-2.655349 4.049617
-3.873526 -3.876904
1.302202 -5.035773
-6.547922 -6.157061
-5.737511 -11.515500
-9.715800 -4.208991
-14.288356 -6.180336
-8.412375 -0.468912
-12.101511 3.024651
-4.494039 -0.590751
-2.038733 3.452535
-3.788999 -4.854305
0.952991 -5.277720
-7.637497 -6.753418
-6.972578 -11.158044
-10.842704 -3.207697
-14.446399 -5.482095
-8.205184 0.694696
-11.526693 3.468429
-3.619159 -0.657961
-2.049772 2.835295
-3.590177 -6.160614
0.599725 -5.615002
-8.843111 -7.045375
-7.992412 -10.847942
-11.492944 -2.490219
-14.345097 -4.671891
-7.869111 1.987522
-10.775158 3.640816
-2.583293 -0.787413
-1.987327 2.561160
-3.798952 -6.695759
-0.418183 -6.197536
-9.955890 -7.313152
-8.615829 -9.965061
-12.389757 -1.344551
-14.451505 -3.811077
-7.494903 3.030645
-9.861742 3.808979
-1.664491 -1.007925
-1.904110 2.024675
-3.809212 -7.654190
-1.333670 -6.569730
-11.245939 -7.364826
-9.025023 -9.233193
-13.138965 -0.262981
-14.223635 -2.732902
-6.741401 3.788198
-9.541422 3.578745
-0.975235 -1.395130
-2.039905 1.244752
-4.207567 -8.514080
-2.451347 -6.581507
-12.388543 -7.232722
-9.648445 -8.361481
-13.679454 0.726981
-13.688763 -1.788193
-5.937014 4.661813
-8.875368 3.253475
-0.412604 -1.626910
-2.345677 0.377862
-4.832703 -9.330330
-3.683262 -6.478019
-13.538715 -7.057392
-10.354907 -7.400983
-14.142174 1.937995
-12.866036 -1.052728
-5.201605 5.315925
-8.035905 3.142743
0.415396 -2.233854
-2.816474 -0.485248
-5.564339 -10.207058
-4.765510 -6.408650
-14.707752 -6.821797
-10.968874 -6.309287
-14.448972 3.135179
-12.308101 -0.473437
-4.823052 5.600227
-7.756595 2.641266
0.690754 -2.857221
-3.866537 -1.318888
-6.303728 -10.667615
-5.996713 -6.171956
-15.785342 -6.371830
-11.147939 -4.892695
-14.508985 4.194231
-11.568809 0.174622
-4.022712 6.050699
-6.973473 1.700187
1.016226 -3.405388
-4.481850 -1.969380
-7.173108 -11.039593
-7.291037 -5.593579
-16.770227 -5.936170
-11.199989 -3.604262
-14.065565 5.451910
-10.643913 0.880946
-3.633222 6.623017
-6.738657 1.024339
0.727387 -4.719872
-5.427195 -2.952467
-7.569041 -11.436137
-8.308059 -4.579131
-17.676363 -4.458492
-11.559040 -1.838898
-14.401820 6.077913
-9.816720 0.619670
-2.483158 6.128286
-5.894395 -0.154034
0.982997 -4.778819
-6.565090 -2.988761
-8.926551 -11.463442
-10.237288 -3.889722
-18.495229 -3.936965
-11.198623 -0.867831
-14.122997 6.926084
-8.520353 1.225947
-1.854045 6.088487
-6.034772 -1.258867
0.545030 -5.322431
-7.687359 -3.729202
-10.257338 -11.454204
-11.301625 -2.640372
-18.945818 -3.010307
-11.115981 0.674898
-13.462198 7.875085
-7.369736 1.376598
-1.610618 5.808350
-5.949926 -2.359527
0.212149 -6.121967
-9.315029 -4.100612
-11.475356 -11.300722
-12.308058 -1.612740
-18.960103 -1.981502
-10.706050 2.394971
-13.221911 8.651376
-6.217278 0.926879
-1.251619 5.482222
-6.191153 -3.130062
-0.499189 -6.573748
-10.985735 -4.654198
-12.344237 -10.733454
-13.463475 -0.308380
-19.621967 -1.104687
-9.968189 3.508555
-12.353612 8.962078
-5.012389 0.789817
-1.033770 4.748295
-6.269406 -4.591701
-1.364780 -7.308909
-12.551299 -4.919023
-13.262588 -10.131838
-14.495541 0.871373
-19.921191 -0.121075
-9.199676 4.791206
-11.708707 9.008229
-4.226340 0.679410
-0.995136 4.506601
-7.022742 -5.529585
-2.616826 -7.259564
-14.394494 -4.570650
-14.162092 -9.141636
-15.279269 2.649072
-19.714000 1.024364
-8.267535 5.860545
-11.099674 8.958703
-3.209928 -0.119379
-0.977718 3.792136
-7.553866 -6.767682
-3.737407 -7.143080
-15.918621 -4.263306
-15.175232 -8.118677
-16.226532 4.477219
-19.324270 2.315670
-7.445427 6.971237
-10.688892 8.850888
-2.243384 -0.789525
-1.423413 2.560738
-8.370314 -8.095701
-4.980014 -7.098956
-17.450988 -3.748089
-15.881270 -6.858902
-16.799408 6.386840
-18.680662 3.355107
-6.514057 7.901834
-10.132846 8.814878
-1.628948 -1.438305
-2.287605 1.873235
-9.732621 -8.992388
-6.282010 -6.972179
-19.267049 -3.339428
-16.316977 -5.451401
-16.751033 8.056747
-17.871385 4.117860
-5.333277 8.662652
-9.369377 8.416577
-0.950315 -2.302486
-3.303130 1.333827
-10.950562 -9.728059
-8.046658 -6.369673
-21.135476 -2.854643
-17.022826 -4.000603
-16.976371 9.882615
-17.014360 4.701583
-4.461173 9.407647
-8.851913 7.540620
-0.685029 -3.717021
-4.609724 0.411203
-12.012151 -10.435786
-9.701454 -5.764335
-22.823201 -1.383422
-16.895351 -2.301176
-17.117410 11.279317
-16.074741 5.418868
-3.036136 9.683608
-8.463989 6.471508
-0.743885 -4.667835
-5.674960 -0.086244
-13.524152 -11.118539
-11.458933 -4.663183
-24.258033 0.001853
-16.789366 -0.427771
-17.116674 12.941641
-14.889465 6.191517
-1.787520 10.012307
-8.733031 5.470081
-0.764146 -5.344174
-7.374343 -0.830907
-15.422730 -11.636196
-12.977436 -3.150497
-25.411817 1.104850
-16.956199 1.598955
-16.770737 14.845364
-13.453771 6.046518
-0.805370 9.879397
-8.337463 3.928364
-0.811190 -6.370598
-9.211156 -0.912698
-17.692476 -11.370855
-15.018790 -1.727259
-26.428032 2.476492
-16.408272 3.513917
-16.688035 16.381640
-12.284266 5.979149
0.091666 9.447600
-8.566500 2.968139
-1.630453 -7.291446
-11.393858 -1.536706
-19.101951 -11.312369
-16.358375 0.592065
-27.935160 4.077138
-15.867850 5.355631
-15.593710 17.652537
-10.944323 5.905357
0.461460 9.568642
-9.359111 1.357365
-2.460261 -8.429611
-14.052782 -1.599067
-20.783185 -10.758275
-17.777467 2.628765
-28.848619 5.908435
-14.880691 7.457637
-14.695444 18.710653
-9.421604 5.146811
0.858023 8.960261
-10.121975 -0.569358
-4.261674 -9.383238
-17.099075 -1.426453
-23.038409 -10.013823
-19.753770 4.913203
-29.846593 7.906106
-13.886558 9.372604
-14.550369 19.488276
-8.263188 4.851426
1.417217 8.375378
-11.118328 -2.108562
-5.243313 -9.824305
-19.514873 -0.653496
-24.523062 -9.022776
-20.912428 7.757829
-30.050300 10.131314
-12.093215 11.478881
-13.707310 20.386613
-7.196186 4.218033
1.525636 7.909417
-13.092315 -4.063413
-7.134133 -9.853732
-22.518583 -0.084582
-26.641958 -7.691971
-22.172849 10.921654
-29.979909 11.903126
-10.709143 13.152260
-12.868828 21.130217
-5.535852 2.898700
0.637737 7.013360
-14.978400 -5.476885
-9.157953 -9.778573
-25.730760 1.128080
-28.370454 -5.760264
-22.975404 14.473265
-29.978465 13.650851
-9.342699 14.678599
-12.413016 21.402773
-4.600611 1.410063
-0.163924 5.971525
-17.431341 -6.811329
-11.174958 -9.798983
-29.577144 2.601128
-29.896207 -3.473970
-23.630930 18.105537
-29.838837 15.832614
-7.361334 16.617746
-11.630974 21.456968
-4.169002 -0.564733
-1.633764 5.611692
-20.082659 -8.314070
-14.083523 -8.950566
-33.687039 4.579675
-31.119541 -0.798546
-24.074644 21.482230
-29.425953 17.567718
-4.699914 18.419133
-11.232954 20.867926
-3.882032 -2.434140
-3.504417 5.003572
-23.281858 -9.612937
-17.347787 -7.501204
-37.318354 7.680763
-32.572944 1.851117
-24.985408 25.717274
-28.687140 19.253334
-2.756372 19.364441
-11.563913 20.343808
-4.028713 -4.439557
-5.495154 3.582663
-27.500033 -11.397727
-19.829052 -6.071888
-40.841443 10.466680
-33.360598 5.609238
-25.134371 30.620460
-27.568844 20.859164
-0.184519 20.232250
-11.492636 19.361722
-4.035542 -6.845727
-8.786212 4.362385
-32.383364 -11.946350
-24.328515 -3.338139
-45.082773 13.912632
-33.876626 9.362850
-25.402667 36.130664
-26.978431 22.159226
2.309677 20.679750
-11.995602 18.464272
-4.621617 -8.618918
-13.157756 3.610893
-37.167670 -11.925505
-27.148172 0.651415
-50.089659 18.963998
-35.376111 13.151280
-24.784718 41.081949
-25.096045 23.342466
3.309537 21.927293
-13.569318 17.160959
-5.832692 -12.318353
-17.696780 3.847529
-43.352490 -11.576113
-31.032469 4.999789
-55.674157 24.271535
-35.108711 18.787553
-23.872281 46.570566
-23.890548 24.315214
6.317734 22.969270
-16.241059 15.557266
-8.878989 -15.252538
-24.615980 5.805215
-50.144995 -11.335141
-36.392670 10.251063
-60.786121 31.141231
-34.786261 24.063799
-23.539248 52.777512
-22.701805 24.621536
9.185276 23.809671
-18.996984 13.038913
-12.018868 -17.201156
-31.976834 8.036979
-59.040934 -9.110172
-41.845075 17.288387
-67.114414 39.398963
-34.034456 30.533934
-24.150577 60.429882
-21.713981 25.331370
10.380702 23.502890
-24.516041 10.169451
-16.449065 -21.027513
-40.775839 11.144786
-70.834110 -7.540512
-48.054451 28.123291
-73.661317 48.574856
-33.011998 37.866334
-22.097966 69.687122
-19.955663 25.524684
12.248850 24.121735
-33.800102 8.197654
-22.206079 -23.935863
-54.144776 15.974257
-83.370648 -2.677492
-55.179170 41.212450
-82.703200 61.654298
-32.340434 47.157042
-20.578731 81.143303
-18.117064 23.927926
13.521093 27.796389
-43.909163 6.087700
-33.232851 -25.770417
-72.945006 24.211486
-102.903995 4.659720
-63.013716 59.695503
-97.178383 80.063635
-30.762203 62.126212
-21.419637 95.096245
-19.200162 21.324327
14.581188 28.185870
-59.419613 3.839407
-47.947237 -30.738025
-100.554607 41.089782
-129.899863 13.524231
-76.318805 88.591187
-112.431478 108.516426
-26.358686 84.912250
-21.141252 119.768625
-27.706705 20.821806
14.308561 33.222943
-94.663793 -3.819346
-72.840680 -30.242026
-146.087341 67.765221
-177.861786 32.575614
-103.398770 132.699835
-142.467646 157.096517
-14.043994 112.552161
-22.147581 167.537653
-29.461063 22.744846
6.805893 48.590503
-162.027610 -11.169466
-131.923767 -28.424539
-228.368297 134.039891
-297.674167 82.664492
-154.764554 261.917429
-228.914453 266.352942
-15.343354 182.020187
-27.420561 263.045660
-35.551522 28.881099
-30.201284 59.096018
-420.260063 28.202020
-302.837974 -79.488323
-573.266457 405.277899
-683.158018 329.558435
-271.761893 962.915993
-349.354181 1339.036270
-1214.004185 378.736523
1014.452511 710.269328
