5446.779424 5494.886636
-2921.982451 -1608.590663
1492.243404 1134.665799
1004.221156 -275.423019
1174.840632 -672.005108
731.488631 -335.290845
461.190067 -996.343905
356.155453 -417.554372
-101.873045 -331.337956
102.884814 -254.663233
8.372480 72.986946
138.760631 -69.893930
319.402684 59.036537
206.006756 -129.032818
353.575878 -191.173115
147.418542 -170.805427
99.927341 -323.920160
59.186678 -131.213533
-52.305280 -151.829506
63.242326 -56.372358
18.051974 34.498812
144.985236 -51.719117
165.047838 17.016461
129.766300 -124.357173
188.670555 -124.415222
44.914235 -137.197735
56.345821 -169.648727
3.088799 -55.236217
-23.627626 -85.457244
52.797417 9.588600
24.713909 0.738944
127.322954 -39.877285
103.093562 -13.028959
100.212070 -117.494663
101.866651 -88.179072
7.274582 -113.664348
37.288922 -99.561387
-22.380080 -31.175201
8.296278 -49.019310
48.864327 24.981291
37.369941 -17.756724
110.065463 -27.619331
67.314012 -37.386160
76.835333 -105.572657
47.139088 -64.016052
-2.382630 -96.106270
20.994654 -51.861979
-25.495417 -18.381886
29.418868 -26.407448
39.813011 19.496688
49.119101 -31.782128
92.008544 -25.721331
43.581731 -56.321429
59.755782 -84.484923
13.324138 -50.843789
-3.333766 -76.634153
9.677047 -19.743091
-14.383032 -14.845053
41.233011 -11.327295
32.527033 10.146797
57.501989 -39.105086
66.667016 -27.220826
28.068012 -66.085201
43.056128 -64.449381
-6.865000 -44.769650
-0.136102 -54.632845
2.850402 -1.088726
-0.683804 -16.210911
44.687831 -1.033771
30.140861 -5.561554
59.692110 -43.045085
42.459508 -30.550670
20.200343 -67.682720
25.035147 -47.054602
-17.451654 -38.928646
6.671433 -33.575080
-0.205865 4.310592
14.408827 -16.640035
44.280274 3.035267
29.211783 -22.031442
54.046899 -41.059488
23.543308 -34.456279
15.998971 -63.399510
8.849415 -31.149452
-16.911089 -32.961975
11.495832 -15.576754
-0.566200 3.470170
27.284745 -15.793547
38.997101 -0.483134
28.408164 -34.711792
44.410498 -36.492802
9.185422 -39.676324
11.979157 -52.905391
-3.695525 -19.620467
-10.050378 -28.120795
13.449473 -2.278802
3.926120 -0.561091
36.769386 -15.038606
30.384455 -7.868325
28.113674 -41.309139
31.555302 -32.636777
-1.248860 -42.783666
8.843862 -37.826242
-10.483733 -13.150352
-1.630494 -21.760990
14.011339 5.554080
10.882255 -8.533857
39.058150 -14.506549
22.480161 -16.758746
27.876328 -43.161776
16.542869 -28.850737
-5.311512 -41.418968
6.211816 -24.093836
-13.416787 -10.327254
8.114573 -14.067593
13.935624 6.618098
17.479890 -16.012534
36.291007 -13.939026
16.200803 -26.300454
23.881663 -40.992809
3.615988 -25.535171
-5.094040 -36.928414
1.924103 -11.857710
-10.677097 -9.300619
15.494647 -6.740592
13.051798 2.438503
23.595519 -21.117905
29.347541 -14.825238
10.954137 -33.829582
17.446487 -34.776319
-6.362792 -23.581050
-2.857630 -29.788481
-1.293442 -3.971013
-3.866627 -9.838080
20.617577 -2.899036
12.306571 -4.684608
27.443431 -23.718952
20.663031 -17.575353
7.398726 -37.854878
10.893672 -26.581094
-11.366003 -22.545282
0.129453 -20.341834
-3.118897 1.190942
4.694391 -10.758850
21.179791 -0.915968
12.833291 -12.902342
27.760621 -24.731995
10.769850 -21.270548
5.912904 -37.011960
3.066934 -19.502586
-12.387545 -21.093956
3.250809 -10.651939
-2.344744 1.085492
12.693246 -11.131999
19.784162 -1.277740
14.048924 -21.194614
23.365650 -23.583482
2.482908 -24.357609
4.669357 -32.711664
-4.422731 -13.725246
-9.402552 -18.209385
5.779352 -3.196489
-0.350232 -2.193611
18.889452 -10.516881
16.559799 -5.242825
14.836685 -26.640980
16.699129 -21.279651
-2.785221 -26.887301
3.098007 -25.918187
-9.343492 -9.534912
-3.668567 -14.566553
6.506139 1.668860
3.548952 -6.283819
22.062919 -10.056939
12.157882 -11.916128
14.600606 -28.681203
9.047240 -19.447095
-5.679191 -27.953860
1.304248 -16.924826
-10.673442 -7.465371
2.403491 -10.369053
6.412995 3.343690
8.950648 -10.821926
21.637571 -10.284096
8.016974 -17.936925
13.447424 -27.656679
0.569415 -18.091145
-6.066422 -25.886853
-0.821341 -9.465185
-9.197463 -7.744923
7.470655 -6.643336
6.171550 0.869863
13.346161 -15.418409
17.459453 -11.191613
5.078870 -23.449142
10.165518 -24.965365
-6.334073 -17.163859
-4.414003 -20.975079
-3.022333 -3.661283
-5.361907 -7.725674
11.357836 -2.686679
6.469629 -4.163056
16.557677 -17.618017
11.968491 -12.693340
3.383909 -26.875293
5.293176 -20.099386
-10.396699 -16.258202
-1.869284 -15.549093
-4.417450 -0.468517
0.710434 -8.228751
12.965559 -1.161660
6.862545 -9.937721
16.998745 -18.119023
5.907095 -15.555791
1.991381 -27.384877
0.220996 -14.619540
-10.893982 -15.639217
0.066501 -8.999701
-4.232803 0.015940
6.630989 -8.702829
12.007786 -1.843532
7.703758 -15.684196
15.252111 -17.539049
0.121816 -18.404939
1.108007 -24.725260
-4.771106 -10.467589
-9.062220 -14.026921
1.828855 -3.261958
-2.310372 -1.547329
11.714825 -8.544484
9.721133 -4.632369
8.769832 -19.773137
10.643410 -16.751375
-4.247067 -20.471731
0.442119 -19.704859
-8.444179 -8.096664
-5.173152 -11.553214
3.005351 0.813533
0.636691 -5.398887
14.240798 -8.256116
7.323142 -8.865149
9.254645 -22.079451
4.530268 -15.185068
-6.272332 -20.724579
-0.966208 -13.865354
-10.549363 -6.414163
-0.450867 -8.420665
3.085021 1.669896
4.249518 -8.899076
14.355379 -7.989073
4.571990 -14.167610
7.889104 -21.871962
-1.351299 -14.423775
-6.455931 -20.426300
-2.845609 -7.925573
-8.978852 -5.939706
3.526239 -5.143988
3.211614 -0.211625
8.191406 -11.216536
12.232889 -9.580645
1.952723 -17.636624
5.788252 -20.152505
-6.428870 -13.108169
-5.829521 -17.903756
-3.964489 -3.093314
-6.075866 -6.651178
7.202765 -2.772194
3.227097 -2.959132
11.216676 -13.728377
8.017677 -10.318313
0.451613 -20.978016
2.918850 -16.338129
-10.001009 -13.140701
-3.708591 -12.756895
-5.326972 -0.911135
-1.623405 -7.364907
8.489642 -1.299845
3.864870 -7.647549
11.651087 -14.940626
3.293985 -12.430073
0.185440 -21.953158
-1.257349 -12.229219
-10.866028 -12.404970
-1.767844 -7.367156
-5.208850 -0.416548
3.005954 -7.151990
8.133124 -1.741943
4.394583 -13.106867
10.585580 -14.583453
-1.239591 -14.800005
-0.585315 -20.342874
-5.181429 -8.766821
-9.125663 -11.090981
-0.672167 -2.774429
-4.321588 -2.030947
7.882748 -7.643163
7.408712 -3.538077
5.136349 -15.841842
6.729389 -13.666824
-4.659269 -17.674629
-1.153354 -16.819744
-8.349077 -6.251478
-6.472497 -9.926680
0.305110 0.045648
-1.571313 -4.158219
9.825524 -6.927289
4.203994 -7.441665
5.854167 -17.957602
2.453414 -12.660706
-6.955279 -17.550432
-2.674001 -11.732324
-10.343032 -5.528762
-2.147665 -7.578659
0.534058 1.595385
1.971498 -7.610891
10.298871 -6.913154
1.701844 -11.168433
5.449907 -18.940254
-2.207130 -11.732665
-7.223643 -16.539560
-3.730538 -7.225292
-9.624513 -5.262697
1.375133 -4.735197
0.772489 0.325457
5.051888 -10.161531
8.828655 -7.382782
0.233892 -14.834514
3.588069 -16.908238
-7.085350 -11.378326
-6.115211 -14.514453
-5.199455 -3.404093
-7.005787 -5.351122
4.361232 -2.640487
0.951269 -2.385769
7.362322 -12.039051
5.700570 -8.483564
-0.831128 -18.040095
0.446085 -13.722744
-9.359641 -11.226236
-5.011041 -11.212076
-5.877349 -0.453501
-3.302399 -5.901854
5.525424 -1.265967
1.277657 -6.636809
8.395608 -12.350657
1.451118 -10.782551
-1.935492 -18.541693
-2.297184 -10.592458
-10.774487 -11.008864
-2.937899 -6.673728
-5.967440 -0.138216
0.983950 -5.995602
5.451935 -1.381442
2.207162 -10.153147
7.575314 -12.649496
-2.907060 -12.496767
-1.919111 -17.577802
-6.193714 -8.058781
-9.570271 -9.815395
-1.672834 -2.815154
-4.959615 -1.139359
4.646289 -6.148456
4.397576 -2.945776
3.099456 -13.749353
4.894894 -11.729867
-5.622181 -14.182961
-2.690618 -14.413552
-9.005490 -5.705579
-7.168647 -8.435881
-0.978945 0.084586
-2.874170 -3.507619
6.933076 -5.877684
2.478421 -6.091362
3.218438 -16.049226
1.040288 -10.908103
-7.318666 -15.560187
-3.539615 -10.693728
-10.241478 -4.624209
-3.747824 -6.582640
-0.868784 1.122829
-0.230779 -5.780669
7.593225 -5.842673
0.266315 -9.519189
3.008561 -16.078372
-3.368262 -10.064900
-7.886204 -15.134861
-4.691362 -6.133417
-9.740403 -4.455547
-0.181902 -4.122811
-0.859438 0.514418
3.119547 -8.325933
6.082313 -6.401883
-1.162856 -12.977114
1.739305 -14.581347
-7.381287 -10.185249
-7.097668 -12.740402
-5.757947 -2.830201
-7.683378 -4.538811
2.124242 -1.989404
-0.507117 -1.658749
4.995268 -10.316701
3.527175 -7.375938
-2.276970 -15.511998
-0.464637 -12.424333
-9.897545 -9.894808
-5.730637 -9.611747
-6.476240 -0.702923
-4.726525 -4.735252
3.528577 -0.718944
-0.161180 -5.200921
5.976603 -10.822667
0.161492 -8.877678
-2.921376 -16.555004
-3.624545 -9.578941
-10.562344 -9.297204
-4.303280 -6.086189
-6.647203 0.141959
-0.672021 -5.085258
3.712964 -1.020578
0.418940 -8.968759
5.495016 -10.890220
-3.037284 -10.784277
-3.800087 -15.389516
-6.506241 -7.248959
-9.519656 -8.399969
-3.719236 -2.367518
-5.530556 -1.137358
3.016576 -4.572352
1.756190 -2.376317
1.459171 -12.370255
3.202504 -10.087191
-6.589605 -12.841405
-3.447068 -13.146152
-9.022950 -4.693789
-7.838448 -7.463409
-2.606187 0.503856
-4.023311 -2.728557
4.737823 -5.318612
0.795359 -5.042806
2.156093 -14.368148
-0.094279 -9.753288
-7.824801 -13.223631
-4.453937 -9.196277
-10.843444 -3.663322
-4.983755 -5.561153
-2.137674 1.312437
-1.370265 -5.343676
5.814214 -5.163455
-0.592739 -8.130197
1.678098 -14.207571
-4.333431 -8.879900
-8.380548 -13.130197
-5.686624 -5.781749
-10.334932 -3.675951
-1.295605 -3.514976
-1.942458 0.930546
1.268980 -7.073983
4.810168 -5.457878
-2.545302 -11.567379
0.523338 -13.285657
-7.813933 -8.989483
-7.699646 -11.597463
-6.563911 -2.393984
-8.619154 -3.686352
0.889274 -1.635328
-1.914290 -1.155500
3.489933 -8.766586
2.360174 -6.483708
-3.349293 -13.838580
-1.710815 -11.043378
-10.364033 -8.800223
-6.558849 -8.964814
-7.238277 0.065113
-5.379190 -4.348801
1.980898 -0.443338
-1.253663 -4.281391
4.267366 -9.716287
-1.076685 -7.994321
-3.989802 -14.905706
-4.138351 -8.384075
-11.332735 -8.724372
-4.976835 -5.130505
-7.111945 0.583155
-2.108944 -4.597698
2.349908 -0.520545
-0.653560 -8.235065
3.795657 -10.158641
-4.649954 -10.051216
-4.698551 -14.507105
-7.898373 -6.239406
-11.427743 -7.631796
-4.526932 -1.943055
-7.238654 0.119231
1.153842 -3.931320
1.214254 -1.284225
0.007658 -10.501020
1.903545 -9.072584
-6.951375 -11.290815
-4.896421 -12.186617
-9.825416 -4.051715
-8.708756 -6.626263
-3.523122 0.720675
-5.188868 -1.800796
3.643495 -4.102868
-0.242712 -4.042029
0.596550 -12.434783
-0.950630 -8.553410
-8.688580 -12.152450
-5.437672 -8.616852
-11.323335 -3.028225
-5.962200 -5.163840
-3.219314 2.190589
-2.703295 -3.944144
4.277549 -4.277156
-1.952216 -6.942368
0.663672 -13.111231
-4.992613 -8.200138
-8.911064 -12.253473
-6.451415 -4.551785
-10.858930 -3.288124
-3.107993 -2.430247
-3.035458 1.505964
-0.096789 -6.015827
3.121067 -4.725046
-3.040620 -10.058085
-0.766750 -12.290220
-8.376468 -7.876322
-8.612617 -10.621353
-7.483412 -1.605280
-9.381804 -3.051488
-0.705806 -0.793359
-2.812538 -0.395125
1.876421 -7.762674
1.321294 -5.425625
-4.062224 -12.407969
-2.721741 -10.058880
-10.900072 -7.778695
-7.218728 -7.963492
-8.545655 0.597979
-6.599941 -3.263547
0.826401 0.297803
-2.695656 -3.234883
3.202552 -8.783401
-1.660478 -6.980493
-4.808259 -13.696327
-5.053999 -7.613656
-11.998514 -7.402238
-6.165480 -4.545965
-8.513188 1.512646
-3.328358 -3.411798
1.000326 0.249406
-1.865995 -6.293260
2.789270 -8.657323
-5.426758 -8.917039
-5.190408 -13.229934
-7.822114 -5.523317
-11.651643 -6.977785
-5.022051 -1.383014
-7.583723 0.744509
-0.037849 -3.567161
0.119780 -0.759283
-0.907355 -9.488883
0.912776 -8.286941
-7.936574 -10.252065
-5.728748 -11.214639
-10.435723 -3.533542
-9.905242 -5.992027
-4.349146 1.358562
-5.832649 -0.855405
2.231589 -2.939471
-1.345026 -2.659645
-0.755817 -11.802326
-1.812768 -8.067322
-9.072091 -10.991698
-6.324878 -7.769809
-12.141095 -2.382571
-6.852773 -4.211205
-3.896923 2.585310
-3.890824 -2.957642
3.114535 -3.190912
-2.703194 -6.151470
-0.657868 -12.037711
-5.526606 -7.167424
-9.959036 -11.199225
-7.287213 -4.269203
-11.860354 -1.848577
-4.077140 -2.262731
-3.992020 2.383275
-0.981190 -5.122903
2.491625 -3.522782
-4.484456 -9.056189
-1.515149 -11.454569
-8.757247 -7.324363
-9.448995 -9.584026
-8.314543 -0.593883
-10.667102 -2.174376
-1.793071 -0.373131
-3.494170 1.096599
0.959416 -6.748868
0.180811 -4.562909
-4.932260 -11.725166
-3.260347 -9.541607
-11.545116 -7.111127
-8.297173 -7.312055
-8.729838 1.363264
-7.777563 -2.255469
-0.341731 1.182609
-3.578111 -2.131278
2.062145 -7.744932
-2.768812 -6.029798
-5.549270 -12.756994
-5.902997 -7.075688
-13.202742 -6.560426
-7.199544 -4.267760
-9.332566 1.867968
-4.284230 -2.451949
0.139918 1.314707
-2.928131 -5.486850
2.009254 -7.842033
-5.835380 -7.532720
-6.183070 -12.479065
-8.766456 -4.766864
-12.511601 -6.102054
-6.171049 -0.881891
-8.604796 1.593745
-1.144586 -2.523034
-0.492058 0.038493
-1.908294 -8.426684
0.331933 -7.380494
-8.636939 -9.451924
-6.553503 -10.147793
-11.373598 -2.693320
-10.677139 -5.150638
-5.388702 2.167042
-7.022298 0.191163
1.194191 -2.799239
-1.859406 -1.903322
-1.280143 -10.547339
-2.695325 -6.877904
-10.350321 -10.600195
-7.149822 -7.084813
-12.672746 -1.704944
-8.257479 -3.328828
-4.806096 3.504262
-4.734357 -1.804736
2.165145 -2.785509
-3.468836 -4.653525
-1.478016 -11.731766
-6.311204 -6.261710
-11.215550 -10.693892
-7.734423 -3.474778
-13.383377 -1.013406
-5.146831 -1.319246
-4.734264 3.598635
-2.310590 -4.375995
1.973624 -2.570172
-4.890303 -8.286066
-2.274016 -10.626870
-10.020305 -6.184149
-10.629909 -9.064980
-9.257606 -0.277824
-11.733382 -1.034838
-2.550728 0.632744
-4.794673 1.896850
0.107188 -5.941463
-0.202264 -3.450975
-5.891065 -10.908916
-3.997889 -8.619469
-12.609078 -6.048271
-9.769743 -6.558800
-10.102879 2.483767
-8.981458 -1.196521
-0.993600 2.303604
-4.279240 -0.738523
1.949674 -6.799531
-2.966793 -5.154880
-6.166111 -12.275914
-6.117245 -6.700562
-13.892572 -6.420383
-8.279372 -3.989410
-10.334845 2.784651
-5.594255 -2.285831
-1.088847 2.163361
-3.686148 -4.493908
1.079188 -7.402092
-6.860767 -6.538724
-6.956159 -11.961741
-9.811918 -3.943248
-13.627266 -5.419057
-7.042954 0.112699
-9.815177 2.713041
-2.363553 -1.898125
-1.421411 1.457770
-3.048470 -7.976092
-0.409370 -6.811209
-9.361677 -8.485400
-7.427082 -9.954421
-12.484660 -1.898989
-12.093888 -4.200966
-6.321686 2.994325
-8.570405 1.284380
0.593050 -1.650837
-2.782981 -0.912734
-2.302885 -9.822590
-3.366231 -6.449786
-11.542117 -9.719207
-7.948325 -6.808235
-14.172305 -0.586231
-9.340796 -2.431377
-6.121994 4.677357
-6.194124 -0.826726
1.558853 -1.629714
-4.507490 -4.194121
-2.083838 -10.656045
-7.001301 -5.720602
-12.315401 -9.801330
-9.073357 -2.521530
-14.542036 0.014703
-6.650179 -0.553951
-5.926155 4.611432
-3.125413 -3.432893
1.345185 -1.780534
-5.741636 -7.091090
-2.859313 -9.782433
-11.078103 -5.270049
-12.374175 -8.564431
-10.379717 0.486331
-13.085640 -0.536749
-3.600478 1.757683
-5.293469 3.186926
-0.823631 -4.966970
-0.981662 -2.208790
-7.181502 -9.976257
-5.308489 -8.441704
-13.938075 -5.394991
-10.933334 -5.755944
-11.558802 2.860541
-9.896378 -0.458772
-2.154326 3.844553
-5.680246 -0.469763
1.209731 -6.168021
-4.422121 -3.571585
-7.779034 -12.398154
-7.283944 -5.517591
-15.907024 -4.814872
-9.514859 -2.996705
-11.639150 4.764101
-6.715604 -0.637347
-1.496656 3.788616
-4.788012 -3.469130
0.938559 -6.327522
-7.637155 -5.688239
-8.456779 -11.684108
-10.635118 -2.892225
-15.675774 -4.594810
-8.396129 1.171066
-11.166070 4.509855
-2.821903 -0.643774
-2.113800 2.991278
-3.712982 -6.780728
-0.634915 -6.338850
-10.853038 -7.520903
-8.661456 -9.703834
-13.646909 -0.774247
-13.877107 -3.356881
-7.457060 4.572535
-9.741859 2.676757
-0.319298 -0.481020
-3.321466 0.674481
-3.134458 -9.325033
-3.994825 -5.676354
-12.833137 -8.979468
-9.179673 -6.280816
-15.741329 0.711815
-10.986746 -1.407032
-6.744333 6.584507
-7.716627 0.403696
1.301036 -0.449218
-5.195147 -2.547834
-2.993974 -10.725263
-8.095159 -4.600942
-13.792426 -9.643530
-10.344995 -1.845439
-16.429217 1.369952
-7.403710 0.796413
-6.775172 6.777096
-4.153808 -1.963926
0.992646 -0.619708
-6.892204 -6.527600
-3.764479 -10.018463
-12.316412 -4.492742
-13.721618 -8.444324
-11.904554 2.117127
-15.039588 1.301274
-4.916684 2.933326
-6.957083 5.144443
-1.486153 -4.149987
-1.424759 -1.394626
-8.229515 -9.630666
-5.608735 -7.923532
-15.987111 -4.419090
-12.677207 -5.627370
-12.911014 4.981068
-12.240871 0.953853
-2.585221 4.964006
-6.454932 1.913940
0.326699 -5.294926
-4.597049 -2.958015
-9.038278 -11.335343
-8.453427 -5.127511
-18.149528 -4.298582
-10.974704 -1.552133
-13.484147 6.351624
-8.372895 1.015690
-1.874254 5.683399
-5.747188 -1.992113
0.518181 -5.892854
-8.785138 -4.738028
-9.235688 -11.454407
-12.526061 -2.140511
-17.730722 -3.328257
-9.696647 2.330197
-13.191081 6.432422
-4.009488 0.636390
-2.580352 4.967982
-4.602324 -6.175600
-1.222124 -5.051912
-12.019235 -6.974505
-10.483122 -9.707765
-15.529137 0.801992
-16.145351 -2.622627
-8.992554 6.494187
-11.573623 4.710707
-0.721231 0.906718
-4.047618 2.149446
-3.989377 -8.676033
-4.236114 -4.674831
-15.107802 -8.570939
-10.888540 -5.410653
-18.274781 2.303082
-13.184255 -0.278700
-8.362095 8.804246
-8.800296 2.170947
1.105408 1.012652
-6.009746 -1.273919
-3.685277 -10.208398
-9.196386 -4.030717
-16.239041 -8.904037
-11.974893 -0.828863
-19.065740 3.296668
-9.826685 2.345537
-7.804747 8.904376
-5.309027 -0.363593
0.398255 1.357847
-7.812772 -5.694149
-4.464045 -9.355778
-14.682797 -3.638128
-15.975746 -8.058959
-13.541059 3.560682
-17.943313 3.406417
-5.716233 5.025663
-8.030593 7.518777
-2.051507 -3.011941
-1.748562 0.072321
-9.264625 -9.861344
-6.390043 -7.597518
-18.316901 -2.768206
-15.768072 -5.183945
-15.614632 6.691589
-13.964269 2.562841
-3.138886 7.782383
-8.205032 4.661011
-0.213712 -4.523892
-5.257086 -1.640214
-10.513658 -11.253804
-10.346712 -3.927821
-21.002917 -3.045855
-13.627634 -0.696973
-16.212751 9.150761
-9.869493 2.277090
-2.435691 8.171970
-6.635023 -0.102803
0.659628 -4.574049
-10.233153 -3.507253
-11.372449 -11.565683
-14.556595 -0.654282
-21.503514 -2.505506
-12.064712 4.658438
-15.617541 9.153705
-5.240435 2.605875
-2.933347 7.879955
-5.999842 -5.081061
-1.389829 -4.741933
-14.266260 -6.558203
-11.505066 -9.081216
-18.769034 2.493286
-19.577501 -0.607368
-10.824786 9.390876
-14.390840 7.739958
-1.419901 2.922906
-4.874769 4.980208
-4.579831 -8.868831
-5.534880 -3.083040
-17.369852 -8.939898
-13.140835 -4.405307
-21.687311 3.963810
-15.540806 2.011417
-10.240072 11.879885
-10.708045 5.620403
0.596923 3.279636
-7.125991 0.748115
-4.691015 -10.334429
-10.559642 -2.685181
-19.477328 -9.041068
-14.957216 0.298876
-22.874504 6.177210
-11.729002 4.299229
-10.232471 13.259811
-6.742573 1.590246
1.023700 3.071434
-9.864924 -4.232808
-5.361377 -9.609587
-16.904500 -2.397620
-19.844731 -7.530826
-16.361207 6.021182
-21.755065 5.963099
-7.407722 7.994162
-9.908843 11.697919
-2.775171 -1.530161
-1.841298 2.438703
-11.569662 -8.697569
-7.951619 -7.507823
-22.365607 -1.940623
-18.254795 -3.865435
-18.282121 10.876517
-18.516640 5.952110
-4.119453 11.236371
-9.680308 7.642962
-0.189036 -3.123154
-6.145295 0.685261
-13.212094 -11.908756
-12.349027 -3.524275
-25.546059 -1.562661
-16.755207 1.187098
-19.620445 13.818894
-12.521858 5.712688
-2.816737 12.682194
-8.588150 2.233335
0.616257 -3.773076
-12.017694 -2.267437
-14.328947 -12.470295
-17.654475 1.215518
-26.326110 -0.811629
-15.042208 7.646298
-19.720604 14.270856
-6.740747 5.722222
-3.498340 11.968649
-7.430525 -3.475819
-1.053230 -3.304958
-17.617580 -5.656833
-15.280065 -9.491977
-23.002173 5.086130
-24.687947 0.864384
-13.491076 14.000390
-17.691059 12.380275
-1.569051 6.311685
-6.012678 9.152813
-5.911170 -8.192652
-6.171100 -2.410608
-22.426660 -8.141551
-16.274932 -4.379601
-27.487190 8.232276
-20.626237 3.974087
-12.397082 18.464558
-13.763483 8.736430
1.400423 6.705651
-8.901134 3.675943
-5.830448 -10.964231
-13.972487 -1.166833
-25.431345 -9.257919
-18.924326 2.560000
-30.002192 10.118217
-15.138462 8.283449
-12.849986 20.017610
-8.940633 5.014508
1.835661 7.018554
-12.108265 -2.742744
-6.590730 -10.557108
-21.551157 -0.165140
-25.477209 -7.815584
-21.697729 10.576836
-28.546455 11.271861
-9.424010 13.218184
-13.117673 18.704219
-3.523067 1.399759
-1.277745 6.125558
-15.430876 -8.984955
-10.031175 -7.283334
-29.008087 -0.074650
-24.866462 -3.165184
-24.248898 17.634110
-24.286486 10.889634
-5.453351 17.925406
-12.410909 13.933401
0.515558 -1.488539
-7.766032 3.725248
-17.316472 -13.077529
-15.553014 -2.064774
-34.592100 0.698982
-22.568635 4.615211
-26.553525 22.039603
-17.864618 10.457357
-3.737638 20.714314
-11.043760 6.539311
1.723970 -2.522885
-15.573930 0.309394
-18.875209 -14.295421
-23.641008 4.212692
-36.947586 1.861532
-19.957621 13.719362
-27.083968 23.454452
-9.369642 11.673145
-4.031983 20.640235
-10.043339 -1.244832
-1.003463 -1.710020
-23.962873 -4.463445
-20.786030 -11.364514
-32.087452 10.781389
-34.650180 4.495588
-18.622570 22.904175
-25.048357 21.980166
-1.276327 12.564479
-7.310207 16.509313
-7.978464 -7.780120
-7.651961 0.082379
-31.595532 -8.323885
-23.520657 -3.219812
-39.183959 15.699588
-30.132998 9.034605
-18.074213 30.549650
-20.038173 17.635122
3.012323 13.459779
-11.912806 9.960968
-6.896919 -12.747668
-18.292915 1.569422
-36.684670 -10.459668
-26.520075 7.177996
-43.572353 19.310103
-22.378875 16.154587
-17.692882 34.805146
-12.596394 11.949863
4.063254 14.420422
-17.360919 0.743488
-8.690862 -12.212184
-31.885957 3.113618
-39.230484 -7.853943
-31.839002 19.763270
-43.936245 20.932136
-13.932775 24.990491
-18.456729 34.099518
-4.473970 6.274152
-0.363663 14.481499
-22.437404 -9.225663
-14.274036 -8.165540
-44.685068 5.085510
-38.117858 -0.955753
-38.197611 32.330244
-39.053011 22.534579
-7.366304 33.213316
-19.297664 27.670259
2.314154 2.494425
-9.323906 11.162689
-27.180123 -17.318081
-24.257020 0.897354
-55.814834 5.767837
-36.486393 11.429602
-43.099404 42.850770
-28.229228 23.475325
-3.781443 40.291381
-18.158593 17.991981
5.025842 0.484452
-24.800632 5.406042
-31.282871 -19.677846
-38.222167 12.013183
-63.279755 8.287337
-33.936715 29.206536
-45.841239 47.972565
-15.648450 25.329656
-4.313738 43.094362
-14.786136 4.248323
1.783904 2.088070
-41.564568 -1.507396
-35.586620 -14.494811
-56.508214 25.092983
-65.033392 14.227403
-31.991073 48.934431
-45.518793 48.218859
-1.891979 30.261858
-10.216895 39.640035
-12.842118 -9.640527
-11.367695 5.602563
-58.800509 -10.455693
-42.802033 -2.473003
-75.330263 39.151657
-58.381153 25.439173
-32.766386 69.206366
-39.041283 44.353610
10.458570 35.741927
-20.729452 27.757252
-11.891061 -18.474971
-33.348796 11.808305
-76.663192 -14.610008
-54.403184 21.832940
-92.148073 50.704976
-46.683280 42.943375
-35.842524 86.907362
-24.550719 37.174927
14.701777 42.983404
-36.616582 12.049035
-15.685008 -21.705453
-68.855126 17.757603
-91.822009 -10.060071
-72.375873 57.813615
-105.065838 63.423396
-34.055255 72.297286
-42.391676 98.751456
-7.279620 24.334741
7.427536 48.530241
-54.179062 -12.045491
-31.334745 -14.134426
-118.108668 26.284724
-105.605474 10.225825
-101.605358 104.242222
-109.141476 80.269610
-12.748992 114.505789
-51.024099 104.067966
10.575368 18.992063
-22.831329 53.310152
-85.235099 -41.784191
-77.199712 12.139948
-182.514296 38.838797
-123.329059 53.750324
-150.071189 178.751777
-102.849365 105.888966
3.024397 174.807608
-62.423870 96.567314
32.972343 21.336753
-81.986248 49.100526
-144.076362 -58.581872
-176.306591 93.626396
-316.510155 69.524846
-174.523546 176.134291
-237.233431 321.728838
-85.674403 164.331795
2.179755 307.944389
-83.015417 93.238815
-1.500839 12.085129
-321.861531 33.178906
-302.766971 -100.161324
-493.723254 404.572837
-782.517888 303.203373
-283.367328 912.047435
-433.786037 1358.407568
-1155.778420 305.391904
1083.594936 702.361108
