6299.665108 7750.155259
-2649.563217 -4932.781808
-771.711388 -140.174828
-1266.334347 -217.667823
-19.185379 8.025451
54.678568 -142.781112
-86.726883 -182.939889
-50.687438 -416.145395
-5.540736 91.657078
50.372646 5.317243
-28.009576 -42.470417
26.783754 -26.480110
-41.047491 -17.641873
6.060610 -31.246172
-16.590657 -23.938167
-26.475416 -8.035300
-5.828435 -17.336773
22.203205 8.960513
-36.211122 -20.794996
-11.306988 -22.208991
-6.361936 -32.670505
-17.703646 1.589621
1.055011 -18.151760
2.976367 -7.236777
1.826771 -17.577708
-14.312390 -18.102861
-3.898999 -1.810521
-12.298942 -9.288751
2.667890 -19.296421
2.526222 -7.141159
3.584307 -4.678138
-6.384489 -15.642007
0.202549 -4.016398
-7.292552 -3.319792
-1.659950 -0.747497
3.479336 -10.430253
-6.655380 -6.413927
0.535274 -10.386291
-3.343171 -3.150850
-6.433040 -3.005660
-5.232767 -7.030724
2.547564 -7.411771
-3.666708 -7.167567
-2.327670 -11.288391
-2.755231 -7.173343
0.791866 -2.049928
-1.231680 -7.629120
-0.318164 -1.067800
-1.728865 -7.123958
-3.243159 -7.166973
-0.225691 -4.562729
-3.183413 -0.733853
-0.118960 -5.069493
0.565023 -4.463583
-2.137772 -3.307923
-3.950881 -4.269112
-0.928313 -4.511636
-4.091974 -3.824208
0.891154 -2.686111
0.880461 -4.630989
-1.923895 -3.378286
-3.206085 -6.591041
-1.747924 -2.143673
-1.533826 -2.429359
-1.849324 -4.718565
1.219060 -4.846197
-0.567384 -3.792192
-0.785975 -4.274166
-1.674753 -2.438048
-1.030627 -1.858179
-1.009548 -3.205933
1.246066 -2.736798
-1.735215 -3.413599
-1.259906 -3.347667
-0.213440 -3.483198
-2.071082 -0.401653
-0.696855 -2.330843
-0.314968 -3.639726
-0.811699 -3.952993
-2.202413 -3.796549
-0.606657 -2.246627
-1.030862 -1.606200
-0.277701 -2.864983
-0.557984 -1.908288
-1.127355 -2.068136
-2.845513 -4.834634
-1.334255 -2.458410
-0.402980 -1.352475
-1.109773 -0.991152
-0.375675 -2.366345
-1.853734 -2.990471
-1.152570 -3.644757
-1.080891 -1.990420
-1.386557 -0.739193
-1.216638 -2.159270
0.460786 -2.680898
-1.242962 -2.564123
-1.609168 -2.181619
-1.150229 -2.686000
-0.982526 -1.469102
-0.617137 -2.873060
-0.434314 -2.061509
-0.519700 -2.585531
-1.442970 -2.809281
-0.285938 -1.909781
-1.107947 -0.919930
-0.315526 -2.070524
-0.461966 -2.578167
-0.576101 -1.689950
-1.470416 -2.243614
-0.722116 -1.484119
-1.338761 -1.677289
-0.436683 -1.087477
-0.049834 -2.777267
-1.412106 -1.924388
-1.097494 -2.768106
-1.029298 -1.883751
-0.469525 -1.270016
-0.879425 -1.832699
0.037354 -1.935526
-0.902062 -2.304429
-1.217292 -2.078364
-1.315937 -1.674137
-0.640378 -0.756509
-0.619812 -2.374647
-0.168166 -1.338684
-0.718330 -2.087004
-1.769153 -1.585379
-0.459931 -1.624244
-0.902951 -0.649455
-0.049537 -1.458415
-0.369272 -2.001802
-0.557645 -1.783348
-1.702857 -1.571142
-0.524781 -0.784611
-1.067229 -1.317957
-0.322063 -1.620603
-0.142680 -2.456771
-0.530168 -1.385805
-1.176924 -2.304008
-0.950318 -0.939982
-0.156218 -1.155296
-0.786760 -1.177437
0.155713 -1.884072
-1.268088 -1.451084
-0.578750 -1.937898
-0.961986 -1.361127
-0.362607 -0.229744
-0.911214 -1.774903
0.005719 -1.574390
-0.913759 -1.719234
-1.122126 -0.731849
-0.516221 -2.108314
-0.447832 -0.840356
-0.156523 -1.600505
-0.838207 -1.161829
-0.529291 -1.368515
-1.039797 -1.351545
-0.395117 -1.116036
-0.964481 -1.010446
-0.501811 -1.215774
-0.639870 -1.675246
-0.166770 -0.643977
-1.052864 -1.600397
-0.775539 -0.424221
-0.690954 -1.221594
-0.706095 -0.270924
-0.206885 -1.348033
-1.262540 -0.870306
-0.823676 -1.496397
-1.014893 -0.995754
-0.597896 -0.922847
-1.340823 -1.222584
0.122080 -1.589408
-0.656647 -1.817968
-0.248015 -0.982351
-1.059946 -1.043345
-0.711857 -0.570154
-0.845738 -1.851634
-0.159208 -1.261393
-0.203620 -1.514370
-1.209545 -0.773154
-0.621882 -1.217955
-0.809688 -0.438882
-0.136219 -1.257446
-0.683806 -1.304682
-0.441059 -1.293904
-1.280988 -1.098342
-0.372829 -0.668104
-0.926637 -0.707214
-0.277741 -0.792637
-0.531353 -1.715001
-0.768574 -0.860166
-0.975930 -1.680123
-0.956046 -0.683568
-0.273829 -0.954424
-0.649509 -0.835506
-0.159216 -1.313690
-0.835987 -1.002991
-0.565365 -1.371744
-1.018591 -0.823030
-0.280761 -0.380071
-0.635035 -1.024769
0.043643 -0.839733
-0.874826 -1.134271
-0.850867 -0.599455
-0.705849 -1.034016
-0.608353 -0.364903
-0.378481 -1.186693
-0.445576 -1.073810
-0.551169 -1.201406
-1.104684 -1.004037
-0.077349 -0.846400
-0.833645 -0.825966
-0.207233 -0.943704
-0.552859 -1.186018
-0.368423 -0.954349
-0.857983 -1.135198
-0.716800 -0.669865
-0.565807 -0.885249
-0.473317 -0.499434
-0.185133 -1.121305
-0.854900 -0.723776
-0.764215 -1.168126
-0.798921 -0.726497
-0.306243 -0.530808
-0.709833 -0.602205
-0.241409 -1.035305
-0.866118 -1.008704
-0.793818 -0.840702
-0.691347 -0.838336
-0.322708 -0.498151
-0.423480 -1.331342
-0.273707 -0.808361
-0.617640 -0.923272
-0.851463 -0.543712
-0.415889 -0.780749
-0.236197 -0.237802
-0.502245 -0.947877
-0.525717 -0.944611
-0.551210 -0.432897
-0.815800 -0.832285
-0.496597 -0.370953
-0.547673 -0.472673
-0.512757 -0.513529
-0.479276 -1.110357
-0.209583 -0.608078
-1.458202 -0.787393
-0.248907 -0.844263
-0.596101 -0.130392
-0.909320 -0.864887
0.298161 -1.182165
-1.612074 -0.388233
-0.489916 -1.650539
-0.562111 -0.301677
-0.791401 -0.442463
-0.272547 -1.382443
-0.466331 -0.362445
-0.764073 -1.216762
-0.747166 -0.386239
-0.591094 -0.672031
-0.778402 -0.690556
0.003865 -0.747864
-0.308401 -0.654783
-0.823489 -0.361354
-1.160444 -0.899625
-0.373361 -0.532225
-0.694977 -0.687416
-0.258961 -0.629409
-0.272304 -0.920969
-0.767961 -0.511197
-0.647582 -0.991797
-0.960291 -0.548327
0.158974 -0.518757
-1.029283 -0.524988
0.218056 -0.834647
-1.290238 -0.472433
-0.080166 -0.996572
-1.241752 -0.184227
0.118836 -0.838292
-1.112490 -0.469709
0.155891 -1.076263
-0.848656 -0.341380
-0.436258 -0.849971
-0.408443 -0.400329
-0.499225 -0.504949
-0.379704 -0.795709
-0.554340 -0.493169
-0.671081 -0.751954
-0.857968 -0.583349
-0.409749 -0.633396
-0.627864 -0.553048
-0.373630 -0.838315
-0.717823 -0.877908
-0.378394 -0.538740
-0.597026 -0.570942
-0.647050 -0.431545
-0.537851 -0.601735
-0.581270 -0.312949
-0.343000 -0.717526
-0.662230 -0.615289
-0.454204 -0.811351
-0.588842 -0.434367
-0.513067 -0.202086
-0.365367 -0.339648
-0.236210 -0.627105
-0.804032 -0.699252
-0.746391 -0.603080
-0.630185 -0.581017
-0.373934 -0.133083
-0.411555 -0.850438
-0.489939 -0.698893
-0.491715 -0.741993
-0.801679 -0.540619
-0.308886 -0.407785
-0.518195 -0.366461
-0.258382 -0.606524
-0.343370 -0.707772
-0.321730 -0.516167
-0.841053 -0.436128
-0.335985 -0.281427
-0.500841 -0.133686
-0.517662 -0.307639
-0.310691 -0.711661
-0.690712 -0.544811
-0.889428 -0.689847
-0.709441 -0.335360
-0.409149 -0.251725
-0.543759 -0.575574
-0.313097 -0.637879
-0.861910 -0.631156
-0.787410 -0.504027
-0.715141 -0.350931
-0.420071 -0.305212
-0.606405 -0.789627
-0.486533 -0.581094
-0.687708 -0.549290
-0.651698 -0.297108
-0.231087 -0.592334
-0.577545 -0.190152
-0.382916 -0.615269
-0.589465 -0.530545
-0.407882 -0.373607
-0.719597 -0.494701
-0.390645 -0.382220
-0.515521 -0.289502
-0.379902 -0.465367
-0.598588 -0.694358
-0.648860 -0.339482
-0.851703 -0.813037
-0.406260 -0.412746
-0.327142 -0.451062
-0.545666 -0.358615
-0.431373 -0.827339
-0.597559 -0.562745
-0.336241 -0.587181
-0.364901 -0.321881
-0.218889 -0.009120
-0.618395 -0.329660
-0.439755 -0.441295
-0.651360 -0.576225
-0.812237 -0.073289
-0.567405 -0.466206
-0.602476 -0.235302
-0.690408 -0.820968
-0.553941 -0.721580
-0.592555 -0.617024
-0.718043 -0.612027
-0.160584 -0.527379
-0.260572 -0.305505
-0.323239 -0.315880
-0.345775 -0.513931
-0.473694 -0.245139
-0.796054 -0.283077
-0.477932 -0.103489
-0.508186 -0.073618
-0.549236 -0.288902
-0.428922 -0.603869
-0.777988 -0.356514
-0.812167 -0.498799
-0.599134 -0.561937
-0.207314 -0.319417
-0.469998 -0.627447
-0.216850 -0.602207
-0.365695 -0.403437
-0.514061 -0.334493
-0.482059 -0.408605
-0.330414 -0.101666
-0.497260 -0.496379
-0.564500 -0.344150
-0.348744 -0.355392
-0.884053 -0.246756
-0.349399 -0.405977
-0.875046 -0.267292
-0.278716 -0.451087
-0.549657 -0.684147
-0.293967 -0.313540
-0.602134 -0.502502
-0.528931 -0.112082
-0.235858 -0.159364
-0.622051 -0.313681
-0.254246 -0.552276
-0.652077 -0.387300
-0.741261 -0.094188
-0.502100 -0.446149
-0.347172 -0.186900
-0.532354 -0.355016
-0.460933 -0.356846
-0.652721 -0.176896
-0.699412 -0.264075
-0.456920 -0.543941
-0.452506 0.082579
-0.774665 -0.253576
-0.502409 -0.585751
-0.268105 -0.344678
-0.995495 -0.029460
-0.699674 -0.544175
-0.207147 -0.547578
-0.211661 -0.181801
-0.679046 -0.640355
-0.457550 -0.518030
-0.450771 -0.244464
-0.470705 -0.021840
-0.455414 -0.403853
-0.422441 -0.474930
-0.476410 -0.549120
-0.553955 -0.264336
-0.605152 -0.314270
-0.665560 -0.260142
-0.260840 -0.171757
-0.710222 -0.380150
-0.325789 -0.435334
-0.688099 -0.447606
-0.393868 -0.443987
-0.561367 -0.162502
-0.305149 -0.086106
-0.578293 -0.173017
-0.376801 -0.358242
-0.532005 -0.422848
-0.736454 -0.267864
-0.665849 -0.186793
-0.658068 -0.301545
-0.181201 -0.440315
-0.506100 -0.690797
-0.343754 -0.258848
-0.740113 -0.347617
-0.343134 -0.014217
-0.382524 -0.369800
-0.185695 -0.204238
-0.236223 -0.431419
-0.629779 0.206906
-0.770514 -0.085430
-0.847713 -0.052215
-0.506689 -0.378957
-0.743635 -0.403883
-0.221128 -0.944412
-0.480932 -0.553011
-0.038936 -0.219770
-0.414393 -0.104522
-0.128420 0.204146
-0.720455 -0.273675
-0.679740 -0.153065
-0.800842 -0.634550
-0.681378 -0.248708
-0.407238 -0.758616
-0.141650 -0.198088
-0.157459 -0.291868
-0.519098 -0.108383
-0.335292 -0.084500
-1.022431 0.132833
-0.452074 -0.129496
-0.644358 -0.270023
-0.486542 -0.480081
-0.639823 -0.630513
-0.443299 -0.114115
-0.518468 -0.335787
-0.203071 0.042959
-0.302726 -0.459397
-0.549129 -0.124244
-0.393842 -0.436534
-0.533740 0.051596
-0.437935 -0.376721
-0.581265 -0.078461
-0.235715 -0.174930
-0.635051 -0.034125
-0.283420 -0.240757
-0.769237 -0.243892
-0.537958 -0.127454
-0.635230 -0.377081
-0.330536 0.098727
-0.394692 -0.328529
-0.546664 -0.069401
-0.606989 -0.421976
-0.709670 -0.092196
-0.501444 -0.344306
-0.545159 -0.037513
-0.385990 -0.517500
-0.592320 -0.437469
-0.471374 -0.385066
-0.668075 -0.348419
-0.185544 0.026374
-0.730172 -0.521472
0.157781 -0.048492
-0.868890 -0.303818
-0.499059 -0.164932
-0.380274 -0.197724
-0.998153 0.078146
-0.054065 -0.424357
-0.883977 0.199643
-0.221408 -0.615726
-0.609685 -0.241693
-0.526585 -0.129270
-0.688735 -0.286079
-0.148010 -0.024332
-0.575771 -0.328571
-0.278316 -0.173888
-0.562567 -0.452934
-0.511478 0.084307
-0.476975 -0.435066
-0.306730 0.016356
-0.431045 -0.284694
-0.598814 -0.224636
-0.297230 -0.261955
-0.769475 -0.036845
-0.287244 -0.092186
-0.599435 -0.233985
-0.204116 -0.193389
-0.731806 -0.360100
-0.375428 -0.017847
-0.819886 -0.196918
-0.363870 -0.227901
-0.258240 -0.448804
-0.321112 0.022676
-0.465032 -0.262201
-0.748966 -0.105676
-0.284914 -0.482594
-0.771689 0.007930
-0.177283 -0.214906
-0.514779 -0.043776
-0.359595 -0.436774
-0.513983 -0.210377
-0.765660 0.134899
-0.569140 -0.413073
-0.187325 0.223536
-0.502168 -0.450346
-0.520010 -0.155126
-0.542735 -0.136043
-0.667373 -0.010556
-0.267933 -0.111723
-0.399883 -0.087450
-0.608417 -0.179736
-0.314227 -0.524532
-0.482895 0.131606
-0.563592 -0.302670
-0.467998 0.142216
-0.313245 -0.452416
-0.427912 0.150166
-0.241246 -0.698128
-0.737704 0.323350
-0.560684 -0.717593
-0.200481 0.236391
-0.224831 0.154898
-1.005015 -0.039832
-0.051084 -0.775428
-0.323604 0.252460
-1.043621 0.315087
-0.763972 -0.687287
0.274502 -0.049290
-0.672184 0.230844
-0.891434 -0.260329
-0.353829 -0.656905
-0.204827 0.324190
-0.686566 -0.151240
-0.654989 -0.091171
-0.294068 -0.298082
-0.735621 0.001416
-0.387520 -0.365947
-0.716989 -0.128505
-0.540790 -0.038565
-0.459773 -0.173434
-0.231545 -0.045592
-0.802131 -0.515201
-0.337576 -0.151582
-0.606894 -0.039240
-0.365572 0.287453
-0.290083 -0.379071
-0.509052 -0.057204
-0.482407 -0.319866
-0.640821 0.054747
-0.266627 -0.119868
-0.567143 -0.227598
-0.195107 -0.072632
-0.575648 -0.112139
-0.383576 -0.080921
-0.526178 -0.305148
-0.514382 0.077905
-0.624500 -0.316603
-0.318999 0.080553
-0.401170 -0.399691
-0.545734 -0.125852
-0.439473 -0.391437
-0.631150 0.325670
-0.237032 -0.148220
-0.469972 -0.113127
-0.288278 -0.149811
-0.775445 -0.259382
-0.477355 0.035264
-0.525985 -0.060709
-0.305574 -0.000782
-0.420266 -0.245536
-0.571361 0.002334
-0.512970 -0.300708
-0.566376 0.037414
-0.401714 -0.335514
-0.581756 -0.113502
-0.296524 -0.085765
-0.427848 0.006836
-0.258348 0.034194
-0.549511 -0.305042
-0.519544 0.033073
-0.645179 0.093412
-0.411590 0.254127
-0.620796 -0.316839
-0.450646 -0.315575
-0.360421 -0.425346
-0.405898 0.201928
-0.146550 -0.024244
-0.450291 0.117416
-0.321668 -0.052926
-0.885799 -0.055181
-0.362142 -0.058024
-0.736137 -0.316932
-0.355897 -0.195992
-0.418470 -0.229500
-0.157505 0.049777
-0.410326 -0.223113
-0.430585 -0.000043
-0.625384 -0.127966
-0.658649 0.306205
-0.204653 -0.159209
-0.685237 -0.031070
-0.089708 -0.245869
-0.928169 -0.207410
-0.243353 0.397684
-0.589762 -0.349795
-0.418703 0.319041
-0.164998 -0.293073
-0.903109 -0.085937
-0.201347 0.155864
-0.768051 -0.202749
-0.380871 0.273908
-0.336071 -0.234774
-0.885288 -0.055253
-0.208120 -0.192683
-0.796991 -0.215596
-0.358929 0.317749
-0.379540 -0.374790
-0.465827 0.243065
-0.298564 -0.182882
-0.721616 -0.082802
-0.378772 0.023517
-0.775757 -0.048193
-0.454410 0.108702
-0.358672 -0.228117
-0.307720 -0.245095
-0.476529 -0.253002
-0.402979 0.027482
-0.679921 -0.030273
-0.309562 0.006467
-0.318363 -0.279937
-0.433091 -0.057244
-0.276399 -0.109343
-0.582576 -0.039253
-0.435302 0.127367
-0.586963 -0.091769
-0.400847 0.207266
-0.568927 -0.203744
-0.449234 -0.052919
-0.610396 -0.175436
-0.549004 0.109403
-0.415020 -0.038713
-0.436590 0.140306
-0.393295 -0.353258
-0.588703 -0.085368
-0.304619 -0.032269
-0.642488 0.046834
-0.276725 -0.085090
-0.257830 0.027947
-0.415088 0.210729
-0.575656 -0.362132
-0.497965 0.050412
-0.521129 0.042554
-0.488251 0.064175
-0.265591 -0.083281
-0.440948 -0.002734
-0.461142 -0.135498
-0.514020 0.196404
-0.518884 0.036257
-0.552386 -0.106277
-0.281216 -0.027177
-0.609832 -0.052584
-0.393441 -0.052269
-0.361962 -0.181924
-0.419420 0.146136
-0.494419 -0.106189
-0.377549 0.085745
-0.494728 -0.203830
-0.322540 -0.242819
-0.359854 0.094260
-0.589857 0.310966
-0.533082 0.029165
-0.332133 -0.304361
-0.420928 0.224788
-0.642031 -0.214105
-0.483608 0.125490
-0.572777 -0.077942
-0.328907 0.395287
-0.559847 -0.150749
-0.392210 0.006925
-0.533422 -0.258893
-0.559118 0.291949
-0.512324 -0.248866
-0.286041 0.155046
-0.301185 -0.131923
-0.377958 0.060113
-0.362124 -0.049457
-0.414768 0.115293
-0.365519 0.163717
-0.588034 0.079125
-0.331695 0.244065
-0.596548 0.056095
-0.475381 -0.042561
-0.696384 -0.036918
-0.722650 0.178188
-0.507339 0.014678
-0.307164 -0.058978
-0.529244 -0.234058
-0.676842 -0.205735
-0.343766 0.039916
-0.420090 0.000797
-0.387897 -0.103468
-0.265441 0.049727
-0.356557 0.078086
-0.482968 -0.108303
-0.441068 0.016258
-0.577183 0.144775
-0.535748 0.068609
-0.387805 -0.059694
-0.559365 0.131195
-0.442298 -0.079369
-0.686335 -0.140768
-0.527411 0.092172
-0.440706 -0.325400
-0.112793 0.088835
-0.506986 0.319952
-0.451844 -0.132593
-0.070514 0.238430
-0.922123 -0.048214
-0.364682 0.191571
-0.405043 0.427607
-0.416225 -0.259748
-0.542558 -0.363447
-0.741476 0.198225
-0.276071 0.169722
-0.104119 -0.174489
-0.409761 -0.174591
-0.580963 0.366402
-0.189073 0.039198
-0.370098 -0.113225
-0.958026 0.005173
-0.515847 0.402690
0.049543 0.150735
-0.424735 -0.434311
-0.903231 -0.114384
-0.457496 0.432079
-0.136632 0.165946
-0.551790 -0.357910
-0.576481 0.118757
-0.391395 0.260551
-0.075503 -0.155041
-0.575835 -0.204382
-0.880043 0.316065
-0.149340 0.401919
-0.125316 -0.105139
-0.737693 -0.218365
-0.905365 -0.081066
-0.144266 0.288443
-0.445618 0.010766
-0.387247 -0.172967
-0.252430 0.321234
-0.438440 0.213522
-0.193536 -0.199499
-1.015194 0.563295
-0.578163 0.099662
-0.341277 0.133988
-0.392107 -0.094180
-0.483471 -0.100796
-0.549409 0.090877
-0.389388 -0.094026
-0.385585 0.075200
-0.269350 -0.032761
-0.211979 0.062896
-0.366296 0.232985
-0.390604 0.163793
-0.391800 0.022667
-0.521781 0.244632
-0.608239 0.115572
-0.455459 0.289334
-0.361611 0.031183
-0.731550 -0.033795
-0.580530 0.115886
-0.594669 0.134528
-0.398224 0.017963
-0.439241 -0.098602
-0.461953 0.075378
-0.482375 -0.044346
-0.287421 0.066492
-0.650202 0.182841
-0.348377 0.212087
-0.287503 -0.027931
-0.499772 0.116537
-0.623768 0.016170
-0.522255 0.138252
-0.455794 0.148301
-0.637318 0.064342
-0.294519 -0.053305
-0.658944 0.168254
-0.393547 -0.304502
-0.308544 0.214457
-0.417323 0.163842
-0.574809 0.034830
-0.115609 0.086522
-0.395716 0.397360
-0.619292 -0.159809
-0.421941 0.068679
-0.399030 0.155081
-0.236168 0.416724
-0.453784 -0.167494
-0.352520 0.126165
-0.722955 -0.052892
-0.350854 0.234086
-0.412988 0.065053
-0.399256 0.166867
-0.473047 0.054700
-0.456171 0.015356
-0.500171 -0.117705
-0.499495 0.112135
-0.393787 0.253541
-0.539481 0.137962
-0.268414 0.069202
-0.433733 0.069051
-0.385257 0.063098
-0.554558 0.081463
-0.452500 0.311510
-0.479080 0.136603
-0.342997 0.164167
-0.428826 0.038261
-0.522966 0.115443
-0.359134 -0.074194
-0.559593 0.203817
-0.302250 0.344061
-0.472040 0.112169
-0.355211 0.041211
-0.590620 0.055783
-0.540551 0.158579
-0.513804 0.251559
-0.302838 0.005844
-0.291131 0.098102
-0.437935 0.271989
-0.562914 -0.068949
-0.334569 0.177379
-0.430617 0.265800
-0.477030 0.166555
-0.167655 0.110358
-0.432457 0.111407
-0.447945 0.156120
-0.527093 0.121898
-0.464918 0.247774
-0.618390 0.065315
-0.148074 0.118749
-0.633296 0.062146
-0.442121 0.072787
-0.505975 -0.069674
-0.293526 0.367013
-0.500412 0.044579
-0.450065 0.301948
-0.339520 0.076281
-0.590958 -0.002507
-0.343086 0.211575
-0.366565 0.506780
-0.422111 0.251806
-0.507049 0.313481
-0.503605 -0.049063
-0.945527 0.255723
-0.121257 0.098951
-0.858642 0.015349
-0.084778 0.410429
-0.405451 -0.297623
-0.614640 0.667851
-0.176430 -0.424821
-1.095261 0.304300
0.030467 0.268523
-0.893248 -0.004981
0.064209 0.423021
-0.381472 -0.352243
-0.746637 0.426889
-0.359264 -0.168582
-0.680819 0.543547
-0.009397 0.009511
-0.391189 -0.029036
-0.263749 0.175069
-0.587065 0.277629
-0.313523 0.205783
-0.584760 0.409850
-0.485555 0.096521
-0.551121 -0.135272
-0.307352 0.099936
-0.521315 -0.141737
-0.304283 0.289439
-0.207062 0.163036
-0.552501 0.503833
-0.314341 0.168443
-0.623254 0.248600
-0.650396 -0.038672
-0.625580 0.175800
-0.374515 0.179513
-0.488959 0.207862
-0.007833 -0.004959
-0.442245 0.108489
-0.316183 0.432481
-0.554153 0.275323
-0.430241 0.601968
-0.644523 -0.145752
-0.318490 0.082302
-0.438898 0.140589
-0.501396 0.368514
-0.208119 0.035985
-0.479629 0.189434
-0.412210 0.042876
-0.606071 0.359083
-0.144202 0.269528
-0.540632 0.012635
-0.316041 0.164058
-0.580889 0.326947
-0.411608 0.422185
-0.317151 -0.001909
-0.310976 0.196751
-0.615494 0.147440
-0.617261 0.213033
-0.310696 0.340828
-0.332865 0.212663
-0.323771 -0.021183
-0.551797 0.158008
-0.363006 0.184272
-0.538973 0.174588
-0.209148 0.369665
-0.667867 0.182468
-0.359553 0.342325
-0.416799 0.042811
-0.529150 0.238092
-0.496651 0.054101
-0.500477 0.416001
-0.401240 0.262254
-0.239095 0.265506
-0.354369 0.228138
-0.707743 0.299958
-0.485799 0.070555
-0.398606 0.419149
-0.289739 0.499050
-0.447773 -0.094713
-0.245124 0.156608
-0.631995 0.199515
-0.310310 0.439261
-0.449685 0.478715
-0.673046 0.251103
-0.263402 -0.206526
-0.234462 0.440926
-0.769459 0.383685
-0.826883 -0.027378
-0.052200 0.073732
-0.631705 0.696328
-0.765843 0.093280
-0.279564 -0.504044
0.198255 0.374576
-0.997125 0.494306
-0.635766 0.032394
0.082513 0.131328
-0.296422 0.534256
-0.765723 0.159012
-0.536020 -0.273432
-0.054264 0.540656
-0.571135 0.206642
-0.214909 0.316585
-0.693045 0.059417
-0.146124 0.449276
-0.746149 -0.003740
-0.189238 0.581614
-0.855499 -0.003477
-0.073536 0.427264
-0.439442 0.178663
-0.426852 0.477929
-0.613958 -0.105840
-0.521594 0.460132
-0.395888 0.276362
-0.264456 0.359718
-0.188523 0.188127
-0.638785 -0.002614
-0.148904 0.380124
-0.679332 0.391422
-0.278440 0.283500
-0.434720 0.246391
-0.150462 0.039296
-0.366862 0.381336
-0.698507 0.357747
-0.391416 0.147984
-0.419758 0.475332
-0.395558 0.081992
-0.425842 0.309230
-0.468193 0.200260
-0.627963 0.317361
-0.420194 0.108183
-0.372195 0.307231
-0.278012 0.359852
-0.310232 0.189315
-0.417886 0.380990
-0.609150 0.048582
-0.453360 0.426736
-0.373932 0.302362
-0.288135 0.493760
-0.285791 0.136146
-0.440473 0.248005
-0.612598 0.237827
-0.606589 0.427517
-0.307378 0.410895
-0.522070 0.217707
-0.286800 0.372235
-0.497939 0.146940
-0.469064 0.336204
-0.569257 0.270580
-0.444604 0.294558
-0.150070 0.399835
-0.554500 0.140142
0.046261 0.300752
-0.718592 0.537627
-0.273597 0.122800
-0.212470 0.681944
-0.780084 0.357399
-0.153788 0.012430
-0.489959 0.544555
-0.655028 0.110204
-0.253688 0.272346
-0.624393 0.448885
-0.295367 0.296065
-0.384020 0.138770
-0.423173 0.415178
-0.616884 0.117667
-0.557983 0.508443
-0.381780 0.536709
-0.587635 0.239552
-0.284131 0.115221
-0.727462 0.336787
-0.512663 0.316834
-0.421829 0.184492
-0.321749 0.261459
-0.408535 0.187825
-0.245057 0.381391
-0.520729 0.423825
-0.503653 0.269346
-0.315254 0.164969
-0.452493 0.391114
-0.345657 0.236574
-0.351672 0.433705
-0.311538 0.449696
-0.792477 0.176288
-0.334683 0.399392
-0.600687 0.275474
-0.244654 0.208879
-0.064607 0.155374
-0.125801 0.432577
-0.396073 0.433460
-0.545516 0.770837
-0.545343 0.567084
-0.671663 0.568930
-0.370642 -0.085657
-0.564557 -0.078262
-0.320978 0.026361
-0.231026 0.164021
0.018510 0.760459
-0.357935 0.472875
-0.333061 0.632730
-0.620111 0.410298
-0.863889 0.273212
-0.676634 0.039461
-0.510111 0.363210
-0.180854 0.091768
-0.149765 0.299456
-0.083343 0.361791
-0.565615 0.488546
-0.305138 0.585542
-0.660838 0.792520
-0.297067 0.500199
-0.499925 0.181650
-0.613200 0.477132
-0.748300 -0.070166
-0.246659 0.429561
-0.222410 0.444738
-0.453078 0.586373
-0.249930 -0.077569
-0.358202 0.427947
-0.466085 0.096998
-0.233006 0.749808
-0.241915 0.663314
-0.543316 0.588550
-0.358322 0.168006
-0.610843 0.577966
-0.659464 0.331378
-0.262013 0.299898
-0.393325 0.464042
-0.441107 0.244369
-0.289970 0.464049
-0.399332 0.292047
-0.497467 0.469465
-0.224523 0.157823
-0.438815 0.644078
-0.412730 0.311635
-0.194430 0.262650
-0.263208 0.537618
-0.961856 0.459552
-0.391619 0.365228
-0.212193 0.603784
-0.482417 0.630754
-0.676253 -0.061167
-0.262708 0.401906
-0.516706 0.599265
-0.717682 0.640832
-0.288603 0.368852
-0.279556 0.526199
-0.441646 0.468894
-0.662101 0.373605
-0.474557 0.288565
-0.490445 0.474720
-0.360522 0.582978
-0.550155 0.287478
-0.206924 0.333590
-0.404370 0.193294
-0.517730 0.466646
-0.427209 0.192356
-0.337261 0.679924
-0.114570 0.351695
-0.495669 0.426650
-0.384288 0.447174
-0.734739 0.195538
-0.328024 0.520773
-0.125754 0.570121
-0.575232 0.402780
-0.024034 0.123568
-0.584592 0.410911
-0.251880 0.598754
-0.288629 0.441028
-0.334850 0.659767
-0.473976 0.586242
-0.279581 0.406663
-0.492358 0.504266
-0.644980 0.374880
-0.601081 0.300161
-0.475469 0.606402
-0.430260 0.394212
-0.361891 0.335988
-0.365816 0.212500
-0.513964 0.334402
-0.233651 0.454832
-0.232891 0.701331
-0.260236 0.489133
-0.199688 0.567599
-0.370824 0.786160
-0.610177 0.713597
-0.398262 0.600134
-0.493629 0.595143
-0.516855 0.573479
-0.434879 0.286215
-0.524970 0.494610
-0.611726 0.215051
-0.415090 0.443522
-0.170731 0.455894
-0.335557 0.167786
-0.051306 0.337331
-0.163154 0.436821
-0.342405 0.732150
-0.448473 0.647181
-0.229974 1.065801
-0.637068 0.535110
-0.449872 0.429633
-0.360991 0.348696
-0.701970 0.688732
-0.440915 0.554691
-0.637706 0.661353
-0.425517 0.349969
-0.245694 -0.000569
-0.265534 0.539878
-0.546448 0.563609
-0.287038 0.540928
-0.342331 0.540616
-0.236535 0.587639
-0.359688 0.353733
-0.414456 0.864831
-0.605815 0.379308
-0.472845 0.685747
-0.193635 0.771122
-0.638701 0.759395
-0.160360 0.376817
-0.608117 0.622398
-0.467010 0.640961
-0.684601 0.530055
-0.349433 0.838855
-0.494267 0.548642
0.075391 0.429955
-0.426064 0.422873
-0.705458 0.630618
-0.511754 0.313842
-0.321081 1.118526
-0.402399 0.354715
-0.412100 0.430489
-0.232982 0.115433
-0.831642 0.565246
-0.203320 0.594024
-0.381083 0.728946
-0.214520 0.382999
-0.575250 0.447274
-0.262717 0.666622
-0.773930 0.560159
-0.261809 0.635531
-0.312180 0.391461
-0.470928 0.901410
-0.219834 0.066797
-0.495287 0.706428
-0.354985 0.363598
-0.499117 0.793134
0.019439 0.800436
-0.566428 0.586894
-0.011605 0.226877
-0.556102 0.577795
-0.414932 0.915522
-0.662156 0.672438
0.070370 1.068397
-0.565098 0.313743
-0.357504 0.660806
-0.599827 0.656376
-0.743921 0.987952
-0.158398 0.209394
-0.322123 0.968753
-0.231828 0.465779
-0.677914 0.352392
0.169371 0.734031
-0.707829 1.033701
-0.125846 0.526978
-0.439130 0.540886
-0.271266 0.751943
-0.433215 0.192892
-0.096740 0.876718
-0.579803 0.394382
-0.252403 0.917520
-0.065199 0.836492
-0.745023 1.069095
-0.259925 0.109950
-0.675692 0.991504
-0.664500 0.210543
-0.509265 1.130242
-0.331478 0.373314
-0.209360 1.053976
-0.417019 0.273431
-0.102549 0.723735
-1.073481 0.764298
0.185129 0.391879
-0.653751 1.120648
0.204953 0.722007
-0.784644 0.923129
0.198611 0.404362
-1.176491 1.124188
-0.256549 0.572479
-0.688894 0.758318
0.159973 0.487479
-0.432650 0.643828
-0.169495 1.397585
-1.123701 0.411688
-0.211077 0.920264
-0.253536 0.470899
-0.290766 1.286534
-0.311783 0.178455
-0.456993 1.211213
-0.514263 0.501143
-0.455915 0.632185
0.143763 1.288623
-0.962573 0.658733
0.436872 0.254440
-0.764261 1.198477
-0.522290 0.229877
-0.293929 1.264739
-0.499285 0.965855
-0.322794 0.267745
-0.286816 1.365343
-1.171184 0.133049
-0.123946 1.238537
-0.917690 0.347105
-0.230257 1.097697
-0.359186 0.474705
-0.927782 0.720613
0.012339 0.457083
-0.912313 0.996560
0.194489 0.766337
-0.743005 0.449147
0.347525 1.029101
-0.514204 0.539211
-0.050693 0.936315
-0.809496 0.796262
-0.140839 1.108411
-0.186109 0.732247
-0.226643 1.302208
-0.174192 0.148963
-0.517129 1.020509
-0.307417 0.769879
-0.989430 1.400517
0.259203 0.998446
-0.560552 0.824862
-0.024417 0.574311
-0.717353 0.718930
-0.468422 1.309904
-0.605495 0.578856
0.141884 1.131614
-0.317800 0.646615
-0.399068 0.950481
-0.110342 0.386204
-0.642315 1.378627
-0.052104 0.531541
-0.299998 1.323699
-0.170317 0.779223
-0.711964 0.782448
-0.010237 1.068515
-0.975712 0.754198
-0.434365 1.173410
-0.300823 0.857894
-0.030366 1.239877
-0.685578 0.575854
-0.360193 1.183040
-0.762393 0.773634
-0.448125 1.412898
-0.133940 0.894105
-0.479842 1.345098
0.088855 0.360533
-0.656894 1.037739
-0.275154 1.337570
-0.642932 0.922353
0.151955 1.028898
-0.367135 0.993350
-0.163727 0.975157
-0.410722 0.911010
-0.309656 1.392839
-0.432763 0.841148
-0.211464 1.599286
-0.425433 0.812013
-0.719359 0.939718
-0.146461 0.819175
-0.763286 1.596095
-0.271910 0.992716
-0.352861 1.076973
0.003500 1.070892
-0.742598 0.620003
-0.509235 0.857604
-0.615481 1.100396
0.283455 1.284481
0.369154 1.083764
-0.445766 1.729369
-0.975295 0.567097
-0.490466 0.966940
-0.305515 1.104593
-0.479395 1.702687
-0.021327 1.540195
-0.949202 0.947676
-0.662654 0.890997
-0.519694 1.093921
-0.699682 1.492948
-0.608914 1.056876
0.109519 1.253140
-0.492896 1.350014
-0.781431 1.132457
-0.606760 1.018786
-0.745686 1.396540
0.018508 0.827968
-0.295932 0.742048
-0.031372 1.081317
-0.264915 0.689017
0.462611 1.414761
-0.509005 1.510525
-0.419136 1.215956
-0.071777 1.260991
-0.028711 1.554229
-0.610364 0.881964
-0.144934 1.208598
-0.225708 1.335356
-0.911010 1.454627
-0.151966 1.726667
-0.312767 1.482693
-0.290112 0.952476
-0.477421 0.801937
-0.366905 1.533211
-0.280715 1.395558
-0.268398 1.399329
-0.129110 1.606653
-0.214795 1.238695
-0.459409 1.158014
-0.641202 1.517390
-0.274619 1.092413
0.232158 1.681513
-0.184912 1.604857
-0.919539 1.440959
-0.070471 1.593931
-0.742271 1.684794
-0.652960 1.982441
-0.088280 1.539239
-0.338754 1.663558
-0.420039 1.127381
-0.706092 1.493794
-0.965865 2.072098
-0.196302 1.613362
0.507068 1.129485
-0.244813 1.675627
0.090172 1.040968
-0.443078 1.236939
-0.048937 2.500664
-0.310591 1.845743
0.211920 2.051610
-0.523595 1.170869
-0.704368 1.297931
-0.012128 1.833615
-0.696366 2.157034
-0.870335 1.605990
0.300763 1.951951
-0.211065 1.797131
-1.526853 1.186464
-0.551872 1.633110
-0.516930 2.075597
0.239948 1.974457
-0.094475 1.554774
-0.557443 2.177465
-0.529088 0.951596
-0.411526 1.937693
-0.596615 2.348403
-0.655714 1.768473
0.809434 1.499421
0.311176 2.379026
-0.532479 1.916984
-0.868709 2.292314
-0.481775 2.321080
-1.418296 2.463923
0.561287 3.066989
-0.972352 1.608445
-0.879555 1.598687
-0.023104 1.706865
-0.858800 4.143832
-1.196876 2.128410
-1.272200 1.056125
-0.096667 1.338466
0.491245 1.444837
0.593615 1.783167
-1.120708 3.988942
0.320307 1.935780
-0.332537 1.390588
-0.153593 2.468869
-1.711539 1.020286
0.510203 2.438774
0.273249 2.395035
-1.055895 3.259818
0.405365 1.759801
-0.966983 2.284444
-1.454883 1.227917
-0.542275 2.881390
0.112600 2.643122
-0.800512 2.364594
1.743145 2.016203
-1.167008 3.972866
-0.915848 2.544655
-1.386550 1.053104
0.367097 4.537348
0.410247 1.577012
0.875466 2.658022
0.066089 2.537460
-0.958450 4.224711
0.933392 3.753541
-1.258969 4.855712
-2.206914 2.273405
0.831846 3.161367
1.282584 2.794653
-4.493198 3.261286
0.314112 4.415013
-1.518750 4.066701
-0.077791 4.346096
-0.715534 0.206321
-0.963833 3.731582
-0.617352 0.158676
1.210770 3.574096
1.271826 7.391679
-0.546464 4.506057
0.815522 0.123951
-1.458186 6.627287
0.089361 2.605380
-2.477431 2.340851
2.808994 5.164960
-2.945529 4.839280
4.058530 7.103530
-3.150613 3.123009
-7.807184 4.310557
-0.004033 3.037511
1.949368 8.974581
-3.434510 1.256669
-1.814486 2.799034
0.017083 5.317081
-6.393868 10.318995
-1.186020 -0.718075
-5.800434 8.107984
5.484208 -1.883731
1.234482 -3.211615
4.903132 14.667070
-6.232794 3.546745
4.602705 8.783026
1.863038 12.845392
-7.088642 17.140094
-0.412293 -7.479835
0.118386 6.756786
-17.328708 7.688209
1.802030 29.688523
4.857147 5.804658
-34.198288 1.330765
7.278459 -13.146365
-22.032313 10.779275
-8.968042 7.638184
-8.342865 -33.148287
46.555600 46.382560
-11.740691 5.411533
-23.484528 -20.593242
-56.440434 10.951991
-5.297074 21.890029
26.779226 -95.908413
23.357930 133.110135
-17.388666 -84.298515
17.496965 1.904960
319.380584 38.931378
-1759.963786 471.457013
128.120498 -252.053118
756.372144 -1612.976744
