5454.717747 5559.403005
-2613.599656 -1704.256665
1153.135295 1266.249345
944.701143 -109.735482
1243.120815 -709.070003
616.327313 -363.709179
748.694751 -948.565339
326.959947 -416.345007
-65.417141 -467.913693
160.328399 -229.462069
-103.616068 -47.846105
166.302291 -67.195341
193.189237 110.886974
257.036976 -128.036790
327.016119 -50.598291
161.181951 -227.790975
247.534152 -260.442180
22.646302 -189.608686
42.689086 -228.857758
11.571218 -45.437916
-27.400931 -86.924960
107.644417 31.492806
68.832526 -12.061579
202.336572 -58.838124
136.340095 -38.640843
147.280026 -172.302319
110.156565 -108.168157
4.328301 -164.074215
49.593300 -97.983287
-41.228588 -53.295420
37.494184 -44.723394
32.348693 36.036436
75.775730 -43.329352
128.122540 -4.919516
79.699444 -78.173077
131.059098 -100.509366
33.266687 -92.536649
40.360453 -124.924184
1.974795 -48.592481
-17.983050 -69.445359
34.986828 4.209242
10.814129 -4.367222
90.758105 -16.618330
65.147184 -5.179510
89.734201 -81.025212
75.250653 -55.379557
24.825609 -103.744591
38.880846 -70.164516
-24.411351 -54.880169
13.263455 -46.139039
1.259421 11.807015
31.670460 -26.557157
66.567329 10.193399
50.073508 -35.204871
88.773741 -48.877580
33.661509 -57.325677
42.500121 -87.602263
7.840704 -44.100409
-10.061795 -64.851325
11.891420 -9.604288
-8.581025 -11.668575
46.235577 -8.164236
33.496061 3.860449
63.094464 -41.920024
58.446043 -26.935941
30.359979 -71.588613
38.276219 -52.546375
-11.454655 -54.671690
9.532825 -46.673098
-9.772207 -3.026997
9.834555 -22.083468
32.278488 11.035256
29.205483 -18.676019
64.715277 -22.326746
30.452078 -36.225661
43.074046 -63.238751
13.514863 -38.967242
-1.732954 -60.655450
4.766174 -20.495588
-14.764400 -19.995588
23.626947 -7.617712
12.909505 5.181642
43.756791 -22.638527
43.405454 -10.736450
30.949513 -49.874002
39.205657 -39.683558
-0.669974 -48.511847
11.473225 -45.285452
-12.544714 -15.024491
1.300838 -25.596012
12.864744 7.356259
13.888403 -12.016341
45.999155 -8.383407
25.333594 -21.130440
41.901051 -43.906955
18.264347 -31.815878
7.494656 -55.051122
4.854964 -25.048409
-14.768843 -27.252039
10.852508 -10.886184
-0.712583 2.324870
28.233821 -13.408270
30.259821 -1.202675
28.431540 -33.665281
36.979271 -27.194401
7.558633 -41.873721
15.439709 -42.165991
-10.259383 -22.503483
-1.240545 -29.566579
1.964664 1.176924
2.717663 -10.851712
30.755006 -0.787309
18.213468 -11.633505
37.479573 -28.706518
20.298713 -23.602885
14.847265 -47.439530
8.121458 -26.060337
-11.585048 -32.337398
5.501915 -15.763819
-9.129500 -3.643437
16.093659 -10.734274
18.266967 3.851155
22.994188 -21.978993
33.114038 -16.118224
12.579896 -33.916135
20.310426 -36.698858
-5.301531 -25.938005
-0.238220 -32.452762
-3.773961 -5.340030
-4.391031 -13.047434
17.909176 1.479299
10.025154 -6.008619
31.153913 -17.198254
18.818586 -15.570202
18.793255 -38.774844
11.462626 -24.561427
-6.242908 -34.649601
3.961748 -20.317672
-12.163460 -9.680869
6.994564 -10.834185
7.268259 4.187649
16.507506 -14.974994
27.499342 -7.102973
14.156072 -25.712341
23.169491 -29.742546
-0.016820 -25.864134
3.207675 -33.641126
-5.301973 -11.589586
-7.878911 -17.295838
8.445509 0.065142
2.087507 -4.605468
24.042294 -9.647452
15.793808 -8.573040
20.994636 -29.912776
15.029358 -20.690444
-0.096930 -33.987135
5.120756 -22.207608
-12.603150 -16.347156
1.993768 -13.441396
-0.451336 2.548130
9.520438 -10.770857
20.221978 -1.119980
13.036848 -18.411557
24.012355 -21.951864
4.452377 -23.757040
7.381787 -32.459278
-3.855419 -15.901581
-7.969692 -21.909265
1.881216 -3.429703
-3.896227 -5.587092
16.467389 -5.481266
10.708197 -3.162664
20.241906 -21.457833
16.344215 -15.165928
5.151928 -30.980397
7.929805 -22.395575
-10.345192 -20.715841
0.015325 -17.046589
-6.327430 -1.334485
3.290945 -10.005264
12.480986 1.882364
10.019326 -12.435659
22.833460 -14.453095
7.568646 -19.551041
12.115065 -29.257180
-0.988669 -17.796727
-5.680561 -25.225423
-1.464775 -7.329826
-8.151037 -8.367899
9.440582 -3.992470
4.888266 -0.358605
17.417985 -14.229852
15.294828 -9.680260
8.761200 -26.277157
11.307511 -20.332382
-6.407327 -23.226842
0.499232 -19.914803
-8.915805 -6.345244
-1.140152 -11.932576
5.108421 2.039303
5.546617 -8.792473
19.289887 -8.333101
7.910155 -14.675059
14.833077 -24.582849
2.289877 -17.623940
-2.489594 -27.032364
-2.090254 -11.373539
-9.959912 -12.255353
3.633226 -4.812916
-1.406570 -0.424159
13.223716 -9.747554
12.456248 -4.843905
10.465552 -20.986160
13.316129 -16.948915
-2.385518 -23.557054
2.836654 -21.409128
-9.557531 -10.692265
-3.471465 -14.076407
-0.572154 0.919165
0.935618 -7.147801
14.559156 -3.382395
7.043987 -10.194770
16.157984 -18.990871
5.147531 -15.524741
1.981444 -26.618587
-0.820108 -13.723173
-10.061253 -16.385522
0.116843 -7.547896
-6.115152 -1.969804
8.079777 -7.110850
8.124717 -1.057557
10.210764 -15.718804
14.444769 -12.301267
1.441025 -21.600620
5.771497 -21.213002
-7.929471 -14.122549
-3.981934 -17.203009
-4.332714 -1.983554
-3.181671 -7.613755
9.405046 -0.616758
4.176886 -6.360447
15.333145 -13.241218
6.685039 -12.430649
5.798388 -24.389707
1.456888 -14.875121
-8.067305 -19.641174
-1.207062 -10.257089
-9.244415 -5.124758
3.558360 -6.364786
3.623223 0.948172
8.327031 -11.379817
13.395837 -7.459617
4.328004 -18.307575
8.642349 -19.248143
-5.345120 -15.933155
-2.507227 -19.166974
-6.453530 -5.808036
-6.449643 -9.722025
4.132446 -0.104204
0.448517 -4.462571
13.029238 -8.430826
6.568800 -8.319148
8.686824 -21.054625
3.935300 -14.343498
-5.001401 -21.211710
-1.027684 -12.973747
-10.915394 -8.749316
-0.103023 -7.388733
-1.318237 1.071466
5.019679 -8.361301
10.855548 -3.251659
5.336293 -14.772866
10.768816 -15.990641
-2.206046 -16.177201
0.054570 -20.520602
-6.730355 -9.232416
-7.508879 -12.665513
-0.179934 -1.255900
-3.395213 -4.187707
9.684431 -5.094740
5.492796 -4.750061
10.202108 -16.456759
5.810007 -11.713829
-1.192661 -21.077630
0.456680 -14.351478
-10.750321 -12.182536
-2.325920 -9.746971
-5.616112 -0.833462
1.304075 -7.163350
7.407560 -0.518087
4.920007 -11.012372
12.065452 -11.874011
0.761187 -14.758996
3.371166 -20.033013
-5.159476 -11.435537
-7.425142 -15.372234
-3.244038 -3.430527
-6.720652 -5.366548
5.340739 -3.060550
2.151164 -2.466637
9.712254 -12.609291
6.938753 -8.842730
2.071558 -19.866716
2.834983 -14.244922
-8.453271 -15.006841
-2.809437 -12.103378
-8.249267 -2.904098
-1.506899 -7.279581
2.677127 1.307903
2.996855 -7.651999
11.104214 -8.050879
2.379558 -12.482858
6.463876 -18.576403
-2.860224 -12.707858
-5.446978 -17.965555
-4.629604 -6.409848
-8.810202 -7.782829
1.295871 -3.024772
-1.525880 -0.768292
7.867179 -8.682911
6.117076 -5.195787
4.265421 -16.633557
4.869856 -13.316953
-5.961907 -16.551470
-1.896962 -13.864287
-9.858007 -6.523028
-3.948522 -8.809115
-1.715872 1.425298
0.044008 -6.512864
9.098854 -4.048661
2.358149 -9.201513
8.407862 -15.641039
-0.613945 -12.014754
-2.896542 -18.887622
-4.110795 -8.902090
-9.762915 -10.699170
-1.419929 -3.969762
-5.142531 -1.266644
4.980434 -5.908867
4.432467 -2.235843
4.969812 -13.661067
6.876064 -10.707355
-2.841672 -16.453486
0.082878 -15.039366
-9.289497 -9.212203
-5.134841 -10.965021
-4.792261 -0.364443
-3.276779 -5.633503
5.976218 -1.593119
1.648266 -6.675218
9.012877 -11.667605
1.436813 -10.640104
0.272710 -18.851513
-2.680825 -10.427717
-9.088834 -12.966313
-3.451302 -5.853342
-8.602296 -2.664769
1.761214 -4.771156
1.438741 -0.746305
4.806767 -10.431273
7.639893 -7.458205
-0.313558 -15.053450
2.393302 -14.354545
-8.022174 -11.462835
-5.110935 -13.393877
-7.007094 -3.003465
-5.435603 -6.683021
2.562535 0.036788
-0.436169 -4.029503
8.254210 -7.668813
2.063515 -8.144295
2.800401 -17.143499
-1.075717 -11.082688
-7.232446 -15.620447
-3.793124 -8.343741
-10.087578 -5.083008
-0.894697 -4.845673
-1.862799 0.815295
2.970559 -7.289126
6.590069 -4.082638
1.339414 -12.925750
4.755092 -13.110634
-5.478011 -12.518260
-3.567983 -14.893353
-7.973262 -5.457740
-7.412028 -8.360975
-1.215169 0.028728
-3.352345 -3.371327
6.354599 -4.814627
1.916839 -5.452025
4.855644 -14.632261
0.817480 -10.124707
-4.619076 -16.696414
-3.084535 -10.261955
-10.767403 -8.287186
-3.229610 -6.187430
-5.289171 0.319846
0.275814 -5.617188
4.335082 -1.082370
1.685730 -10.147347
6.047582 -10.548537
-3.131022 -12.459395
-1.214364 -15.625307
-7.505453 -7.768640
-7.988994 -10.812416
-4.032941 -1.455640
-5.993340 -3.474505
3.701687 -2.802340
0.461289 -2.923047
5.647604 -11.133572
2.284015 -8.185026
-2.019748 -16.146598
-1.497623 -10.848217
-10.222545 -10.814011
-4.343817 -7.915402
-7.993386 -1.144462
-2.189581 -5.176872
1.457432 0.634787
1.181613 -7.646146
6.818720 -7.466660
-1.448273 -10.856078
1.387855 -15.189560
-6.051879 -9.536920
-7.282442 -12.928422
-5.823448 -3.506436
-8.302419 -4.838849
0.430083 -1.742516
-2.035818 -1.034631
5.273378 -8.038468
2.596311 -5.547044
0.473366 -14.412530
0.600089 -11.071904
-8.510223 -12.463972
-4.241091 -9.879221
-9.609151 -3.692348
-4.314134 -5.751968
-1.817905 1.446406
-0.478233 -5.448656
5.814102 -4.557179
-0.232602 -8.545928
3.640730 -13.724600
-3.902575 -9.900042
-5.602285 -14.172205
-6.539227 -6.133211
-9.219080 -6.626326
-2.767254 -1.950169
-4.801104 -1.139186
3.909090 -4.814892
1.293914 -3.222293
2.245773 -12.539013
2.355755 -9.032565
-6.351229 -13.833316
-3.010126 -11.073028
-10.293478 -6.244206
-5.990981 -7.623065
-4.930594 1.164900
-2.916530 -4.710473
3.703855 -1.501990
-0.087713 -6.732495
5.020015 -10.769827
-2.159615 -9.374048
-3.332656 -15.464740
-5.730601 -7.121383
-9.926298 -9.866472
-4.587842 -3.074483
-7.262683 -1.169762
1.067642 -3.912152
0.151093 -0.369011
2.510010 -9.798960
3.207444 -7.203153
-3.532314 -13.272055
-1.260583 -11.896689
-9.520619 -8.491105
-6.202119 -9.420123
-7.476666 -0.374072
-5.183342 -4.604513
1.212426 0.242351
-1.478128 -4.398822
5.601244 -7.768786
-0.977964 -7.949712
-0.552021 -14.681683
-4.335812 -8.573120
-9.212329 -11.882000
-5.298006 -5.228536
-9.942453 -3.018108
-1.231391 -2.943754
-2.326335 0.671588
1.633386 -6.887825
3.734176 -4.313177
-1.752485 -12.019891
0.589857 -11.380596
-7.933950 -10.380743
-5.430219 -11.353947
-8.831791 -2.481769
-7.222240 -5.489564
-1.827975 0.757450
-3.644014 -2.876307
4.616404 -5.052363
-0.483974 -6.019665
1.785422 -12.981626
-2.469760 -8.542477
-7.254753 -13.264491
-5.292156 -6.764875
-11.243734 -5.270101
-3.500439 -3.736839
-5.072910 0.989848
0.208922 -5.228248
2.745623 -2.025927
-0.562110 -10.301850
2.505494 -10.034286
-6.486458 -11.121935
-4.590204 -12.635828
-9.851551 -5.154901
-9.227211 -7.415652
-5.008219 0.486712
-6.237928 -2.246456
2.596369 -1.817917
-0.935643 -3.147093
2.911036 -10.355209
-0.891907 -7.308034
-4.924529 -13.919383
-4.640042 -8.382231
-11.585615 -7.822257
-5.254389 -5.002409
-8.074337 0.312758
-2.343262 -3.596694
0.655424 0.556742
-0.405756 -7.458558
3.941841 -7.006344
-4.063295 -10.092450
-1.751482 -12.645064
-8.605480 -6.996349
-8.801290 -9.647574
-6.687342 -1.122497
-8.477217 -3.019549
0.213174 -0.618585
-2.634598 -1.287785
3.175549 -7.703617
0.215905 -5.640243
-2.438759 -13.291459
-2.699282 -8.906352
-10.294665 -9.994704
-5.937899 -6.568267
-10.266250 -1.458901
-4.476514 -3.842018
-2.229685 1.998216
-1.284324 -5.173016
3.759433 -4.353891
-2.621283 -8.530216
0.284862 -11.921786
-7.143299 -8.343878
-7.679090 -11.498749
-7.876816 -3.005465
-10.018551 -4.684943
-2.497896 -0.075807
-4.925114 -0.222829
2.261351 -5.166693
0.351211 -3.107015
-0.495572 -11.501769
-1.168384 -8.229261
-8.515657 -11.505582
-5.311827 -8.191604
-11.514366 -3.768487
-6.255656 -4.721903
-5.186734 2.442477
-3.240444 -3.807427
2.783685 -1.424077
-2.107210 -6.753078
2.311319 -10.122636
-5.073262 -8.468381
-5.897583 -12.820361
-7.636569 -4.670371
-10.970533 -6.795427
-4.972889 -0.611575
-7.477302 0.150067
0.533810 -2.863761
-1.074595 -0.766106
0.547449 -9.286242
0.457506 -7.049356
-6.613093 -11.941794
-3.870140 -9.555336
-11.589352 -6.296328
-7.380073 -6.357652
-7.590363 1.309336
-5.451581 -3.073879
0.781619 0.762155
-2.433200 -4.536274
3.089648 -7.351882
-3.510893 -7.510769
-3.521443 -13.129570
-7.193684 -6.299523
-10.924201 -9.259605
-6.534099 -2.613390
-10.112660 -0.828487
-1.465102 -1.534147
-2.928265 1.162413
0.586433 -6.598517
1.496745 -4.328779
-4.339892 -11.301731
-2.243013 -9.619375
-10.319562 -8.106848
-7.485851 -8.490462
-9.775051 -0.153460
-7.255045 -3.573617
-2.173116 2.025252
-3.856378 -2.441484
3.223117 -4.557562
-2.545995 -5.750785
-1.133944 -12.090631
-5.390652 -7.008374
-9.516287 -11.016869
-7.341199 -4.168662
-11.797812 -2.703281
-3.871432 -1.689479
-5.505958 2.104297
-0.333969 -4.374741
1.208870 -1.795173
-2.716642 -9.662246
-0.191889 -8.704846
-8.678382 -9.282404
-6.355188 -10.097086
-10.913033 -2.312990
-8.957006 -4.745787
-4.862036 2.231358
-6.304571 -1.049199
2.267101 -1.812987
-2.388422 -3.790277
0.783131 -10.021726
-3.510431 -6.915539
-7.513217 -12.453252
-6.649635 -5.752167
-12.426769 -5.208896
-5.985090 -2.368804
-8.227549 2.193622
-2.178910 -2.869377
-0.372198 0.821515
-1.763150 -7.284211
1.284189 -6.951587
-6.931996 -9.294681
-4.541831 -10.952047
-10.957043 -4.852883
-9.869361 -6.908832
-7.268308 1.185691
-8.400731 -1.404585
0.025548 0.331856
-3.212715 -1.318786
1.549008 -7.697433
-2.285770 -5.086438
-5.111070 -12.520444
-5.765104 -6.942774
-12.379197 -7.543240
-7.220259 -4.369857
-10.727415 0.923627
-4.426451 -2.111853
-2.391377 2.563900
-1.935052 -4.949822
1.947674 -4.196913
-4.829067 -8.678018
-2.273682 -10.630008
-9.944446 -6.238896
-9.534651 -8.991659
-9.090735 -0.234368
-10.454119 -2.488774
-2.573106 1.561434
-5.068761 0.253721
1.459921 -4.967383
-1.524201 -3.147952
-2.679992 -11.419983
-3.905307 -7.079245
-11.113650 -9.616637
-7.167710 -5.708231
-12.652552 -1.088724
-6.653474 -2.491963
-5.203741 3.729183
-3.347549 -3.180590
1.706008 -1.470500
-3.638892 -6.742416
-0.066315 -9.601171
-8.327039 -7.104505
-8.139681 -10.746023
-9.930497 -2.279563
-12.247768 -4.256490
-5.007609 1.393247
-7.714809 1.318524
0.481872 -2.276824
-1.814725 -0.787308
-1.106794 -9.433872
-1.960022 -6.292825
-9.144846 -10.671780
-6.518683 -7.160536
-13.498967 -3.366471
-8.326320 -3.796816
-8.315695 3.655506
-5.233351 -1.879637
0.141446 1.232934
-3.291039 -4.411865
1.617320 -7.374917
-6.330022 -6.804927
-5.985460 -11.669297
-9.411252 -4.204878
-12.585112 -6.288089
-7.540580 0.774276
-10.455121 1.274598
-1.646511 -0.288826
-3.245031 1.765901
0.107347 -6.846170
-0.189514 -4.374232
-6.454774 -10.741172
-4.275628 -8.342253
-12.791724 -6.364066
-8.890106 -6.193002
-10.634869 1.878601
-7.836433 -2.269399
-2.369039 2.969430
-4.524193 -2.627691
1.924535 -4.737191
-4.742807 -5.742174
-3.630058 -11.343761
-8.390501 -5.261735
-12.035187 -8.798983
-8.939483 -1.385087
-12.765611 -0.647670
-3.876214 0.011832
-5.716360 2.991163
-0.735360 -4.178128
-0.323146 -1.679408
-5.034410 -9.619890
-2.921469 -7.841496
-11.695109 -7.812780
-8.684921 -7.761230
-12.530998 0.263876
-9.546169 -2.590333
-5.063259 4.300110
-6.396461 -0.459561
1.604601 -1.712234
-4.025623 -3.799311
-1.330320 -10.058349
-6.546789 -5.799672
-10.458553 -10.771639
-9.083849 -3.083873
-14.258147 -2.678168
-6.698571 -0.065525
-8.511550 3.989378
-2.305039 -2.199349
-1.137241 1.187829
-3.183489 -7.781762
-1.094637 -6.367351
-9.787518 -8.467930
-7.231836 -9.171026
-13.435668 -1.830656
-11.030972 -4.357924
-7.980258 3.844528
-8.565975 0.292921
0.028361 1.231456
-4.401412 -1.331918
0.259343 -7.637175
-4.818278 -4.955147
-8.022808 -11.520179
-8.188820 -4.764946
-14.983610 -5.106387
-8.341726 -0.962235
-11.580927 3.009243
-4.664192 -0.270068
-2.338190 3.513711
-3.276402 -5.535187
0.709337 -3.668286
-7.632260 -8.392795
-5.661023 -9.500673
-12.535916 -4.393533
-11.774623 -6.105122
-10.679076 2.600832
-10.973739 -0.556125
-2.685870 3.806213
-5.831958 -0.051005
1.331696 -4.630328
-3.818955 -2.800534
-5.572542 -11.999570
-6.439551 -4.989856
-14.688122 -7.903543
-9.105112 -2.997145
-13.952730 1.877293
-7.042428 -0.281743
-5.369912 5.546459
-3.762036 -2.967322
0.815039 -0.867100
-6.059972 -6.950772
-2.466200 -9.272815
-11.655672 -5.435627
-10.992852 -8.669658
-11.938869 0.655156
-13.622728 -1.502830
-5.155216 4.180508
-7.974578 2.449318
0.370910 -1.706499
-3.095042 -0.345994
-3.205426 -10.135037
-4.704341 -5.304821
-12.495439 -9.294304
-9.021841 -4.865766
-16.003549 -0.435869
-9.076276 -1.080024
-8.688154 6.256770
-5.624014 -0.887744
-0.086629 2.079242
-4.765099 -4.733298
-0.314242 -7.477089
-9.665454 -5.956099
-8.924006 -10.321952
-12.463577 -1.449352
-14.778703 -3.846793
-8.059066 3.802825
-11.050842 3.080990
-1.443947 0.836260
-4.110625 2.322336
-1.670360 -7.433056
-2.961837 -3.853643
-10.112705 -10.311644
-7.857488 -6.212846
-16.276369 -3.200195
-10.652618 -2.850539
-11.917191 5.921909
-7.662814 0.182526
-1.964015 5.022476
-5.037162 -1.985010
1.199172 -4.814605
-7.703150 -5.540768
-6.534496 -10.979804
-11.713060 -3.423789
-15.251538 -6.607203
-10.411105 2.310289
-14.159802 2.338086
-4.072029 2.605839
-6.289727 4.804002
-1.319807 -4.386978
-1.889439 -1.396955
-7.648215 -10.026508
-5.710072 -6.764339
-15.653700 -5.985109
-11.078383 -4.941963
-14.766692 4.167451
-10.780604 -0.107722
-5.164758 6.853222
-6.495911 0.282435
1.549632 -1.109655
-6.243787 -3.546470
-3.703043 -10.069161
-10.168034 -4.555450
-14.075387 -9.315952
-11.438298 0.154022
-16.436012 0.716749
-6.835459 3.363446
-9.512405 6.752826
-2.368589 -1.237497
-1.854715 1.439728
-5.516370 -8.572845
-2.833319 -5.989925
-13.507656 -7.415720
-10.333262 -6.568277
-16.635568 1.883113
-13.165911 -1.461467
-8.888304 7.346433
-9.072661 1.670865
0.790157 2.292889
-5.632864 -0.935150
-1.035869 -7.902634
-8.035806 -3.921398
-11.996828 -10.921248
-11.915799 -1.671778
-18.351890 -2.302688
-9.699135 2.072990
-12.767352 6.951263
-4.120688 1.076080
-3.110796 5.024553
-4.057766 -5.679390
-0.873510 -3.634819
-11.549685 -7.884825
-8.560573 -8.225865
-16.989058 -1.115603
-14.649196 -3.738248
-12.072394 7.081780
-12.090578 2.503107
-2.038438 5.508203
-6.457735 2.027359
0.294005 -5.202049
-6.121103 -2.608933
-9.015021 -11.584461
-10.348375 -3.252047
-18.509092 -5.058581
-11.761225 0.751435
-16.217733 5.975421
-7.427998 2.613632
-5.573835 7.994610
-4.095844 -2.427514
-0.241531 -0.234672
-8.748710 -7.490093
-5.666659 -8.476675
-16.462738 -3.603028
-14.339773 -6.474608
-15.001563 5.362666
-15.537388 1.575081
-5.205919 7.750609
-8.612829 4.313009
0.458096 -1.375573
-4.775481 -0.041893
-5.557112 -10.914087
-8.683234 -3.990471
-17.333844 -8.253387
-12.295067 -1.838510
-19.811298 3.554434
-10.198990 2.608303
-9.521809 9.919137
-5.742880 0.582544
0.063428 3.738431
-7.294964 -4.991482
-2.630689 -7.334806
-14.480337 -4.813056
-13.203863 -8.840301
-16.592809 2.653158
-18.135951 -0.472154
-9.158511 8.186767
-12.376482 6.005030
-0.559735 2.605331
-5.210281 3.496381
-2.976585 -8.049128
-5.821168 -2.810065
-15.090778 -9.874970
-11.687477 -3.401491
-21.646030 0.472261
-13.088970 1.355669
-14.026615 10.698330
-8.534380 2.424685
-1.812636 7.621393
-6.375203 -2.286452
0.099007 -4.800886
-11.641234 -4.953663
-10.330087 -10.234393
-16.757490 0.468413
-19.881661 -3.422855
-12.954071 7.771002
-16.338598 6.593455
-3.708926 5.847455
-7.314897 7.496079
-1.604936 -5.005918
-3.924763 -0.779499
-11.694767 -10.223980
-9.484968 -5.041617
-21.715181 -2.995111
-14.385459 -0.860651
-18.172764 9.831498
-11.990256 3.381167
-5.154867 11.525265
-7.507695 1.659305
1.484370 -0.467001
-9.861098 -3.355573
-6.885795 -10.464284
-15.621044 -2.085289
-19.735065 -7.184253
-15.405495 5.849875
-20.534222 5.249703
-7.358249 7.707074
-10.497152 10.680064
-1.715083 -0.668184
-3.231555 3.130467
-8.494228 -9.339799
-6.721043 -5.033445
-20.541681 -5.877197
-14.660935 -3.923616
-21.767248 7.304836
-15.704074 2.778644
-9.674699 13.583968
-10.010289 4.678262
1.183597 4.308982
-8.390486 -0.439992
-3.017899 -9.001549
-13.468475 -2.636585
-17.801534 -10.125143
-16.572459 3.103737
-23.875679 2.507877
-11.279523 8.298364
-15.289139 12.660409
-3.622350 3.531655
-3.659981 8.457174
-6.376774 -6.642095
-3.495368 -3.081843
-17.879033 -7.839153
-13.370914 -6.625012
-23.781915 4.053396
-18.605705 0.787009
-15.075775 14.487357
-13.862277 6.824191
-0.631232 9.431607
-8.554569 3.580916
-0.008397 -5.369806
-10.617389 -1.555351
-14.842888 -11.993866
-16.667485 0.575428
-25.824442 -1.573517
-15.167472 6.907136
-20.833612 12.732841
-6.942075 6.954144
-6.191540 13.166045
-5.332775 -2.509802
-0.665277 0.835533
-14.586393 -7.881787
-10.304703 -7.884012
-24.479796 0.541233
-20.451497 -2.692512
-20.238948 13.162693
-18.721665 7.061980
-4.660149 14.350551
-11.170339 8.267449
1.361066 -0.494075
-8.376668 1.351050
-10.187365 -12.387913
-14.740417 -0.928998
-26.027760 -6.076781
-17.410719 4.542680
-26.588698 11.302764
-11.376781 8.537386
-10.805739 17.434764
-6.191005 2.238613
0.101961 6.210552
-11.849612 -6.277737
-6.646591 -7.582172
-23.706649 -2.508376
-20.422323 -6.994974
-24.604033 10.988087
-24.346854 5.691479
-10.507169 16.832496
-15.354223 12.162549
1.053404 5.785610
-7.355732 6.003164
-5.901542 -10.433875
-11.441459 -0.758840
-24.272019 -9.939861
-18.494383 1.365017
-31.531934 7.968673
-16.485715 8.523707
-17.673547 20.860480
-9.297063 7.122177
-0.911303 13.654384
-9.703145 -2.160142
-1.592905 -4.753594
-20.804802 -3.733923
-17.930120 -10.522164
-26.856023 7.335141
-28.583664 2.168953
-16.763853 18.383273
-21.475659 14.788503
-1.549650 12.255542
-9.035475 12.641954
-2.324805 -5.814487
-8.250618 1.679755
-20.840349 -12.101173
-17.081974 -1.515749
-34.605122 2.949918
-21.105180 6.404436
-25.695026 21.750927
-14.723339 10.356401
-4.760655 20.986714
-9.882646 3.597264
2.190870 0.975267
-17.333354 -2.874704
-13.704991 -12.313498
-27.156289 3.824518
-31.337991 -3.233248
-23.029862 17.758390
-29.495629 15.284863
-6.995525 17.900337
-13.597133 19.937716
-0.915787 0.512413
-5.404074 7.400001
-16.086247 -12.320714
-13.995175 -2.694131
-35.764133 -2.609376
-24.327640 2.653865
-33.869634 20.349163
-21.221211 11.467589
-11.121427 28.635755
-12.876794 10.525944
3.439064 9.089653
-14.599228 0.889046
-7.454297 -11.061796
-26.103527 1.663543
-32.036977 -9.099366
-28.217559 14.867515
-38.092473 12.805435
-14.700651 21.520220
-21.240827 26.601957
-2.104010 8.941370
-5.147772 15.730985
-11.433670 -9.737747
-8.503071 -1.543005
-34.565273 -7.931052
-24.370287 -2.177707
-41.208388 17.302699
-29.580268 10.567813
-21.126075 33.851082
-19.240395 16.890075
2.739039 19.873540
-13.939163 8.138409
-1.104896 -7.110031
-22.828310 1.515893
-29.378047 -14.933168
-31.846902 11.180055
-45.996541 7.668021
-23.534240 23.783811
-32.696490 31.740758
-6.520361 17.948642
-7.830950 27.629124
-7.797975 -3.213292
-2.745340 4.763338
-31.221874 -9.893662
-22.343257 -5.720108
-47.786873 11.568498
-37.224726 6.503008
-34.083182 37.602931
-29.871022 21.769060
-3.197679 33.011778
-17.097360 18.719549
4.837613 1.047238
-18.479399 5.808912
-23.619354 -18.826170
-32.012867 8.054449
-53.022546 0.090840
-33.082649 23.444506
-48.488568 34.627228
-15.206906 26.358705
-15.864489 42.204787
-8.000167 7.402140
2.111498 16.181268
-27.436652 -9.156293
-16.735610 -7.939527
-52.465201 5.391366
-42.853252 -0.799156
-49.261061 39.148882
-44.604089 24.571993
-13.644274 46.912651
-25.811593 32.026779
8.313466 15.521517
-15.546769 16.461452
-15.427341 -18.140338
-30.822036 7.740499
-57.906453 -9.742507
-42.161091 19.913412
-68.917634 34.318083
-29.294805 33.181141
-31.996743 59.752091
-13.761656 22.653911
2.476140 34.381707
-22.089901 -3.707128
-5.763010 -5.136830
-55.582098 1.608359
-47.273789 -11.042785
-66.887361 38.387969
-65.271255 22.898720
-31.678095 62.450456
-43.565244 49.053890
6.470783 38.105031
-18.707972 35.811531
-6.030566 -13.057185
-25.660608 12.955780
-60.785947 -22.079952
-49.272165 15.768570
-94.489095 30.832754
-50.594891 38.857057
-60.720749 79.654010
-26.233078 41.729129
-0.507648 68.352091
-22.191515 13.378922
7.030627 10.116917
-58.892351 1.547496
-47.793107 -22.417194
-88.634652 36.571696
-95.279809 18.002862
-62.928973 82.296674
-82.786279 70.806381
-4.232211 74.329673
-32.316579 71.176188
6.406728 4.798094
-17.268642 33.608499
-64.201120 -31.350266
-57.042940 11.670555
-137.916681 22.674186
-82.910390 44.554609
-116.548633 112.502494
-60.486262 75.492068
-21.809887 134.157019
-39.578160 49.000685
25.722671 44.775916
-67.510523 14.952700
-43.411144 -36.278968
-130.911854 40.924031
-151.138030 2.159047
-131.563550 118.056415
-172.431758 107.137776
-31.763685 148.019402
-78.239564 167.097870
15.932165 59.974163
-12.400635 109.464414
-77.043922 -40.850787
-78.415489 21.484894
-243.857125 9.720304
-170.591157 65.532174
-300.359883 213.568418
-203.831259 156.914059
-100.480432 340.826723
-131.044548 160.486039
77.658060 202.698335
-87.934823 106.759287
-71.066341 -50.235552
-341.867776 105.845696
-456.125392 -89.653852
-411.150976 391.359069
-828.975142 410.333251
-191.535315 915.808835
-256.521786 1314.812868
-1429.629790 525.238887
1216.234983 458.320321
