7093.926025 15201.310274
-3958.293797 -1882.080659
5794.267792 -1350.975018
257.980856 -1119.429466
-949.375587 -1325.807373
30.560838 933.715780
634.899652 521.769188
808.269133 -188.673830
306.374162 50.025460
253.893133 194.414231
361.752905 42.771049
596.072811 -118.720228
302.051644 -50.332854
295.783891 5.477400
270.107218 9.495262
301.164303 17.328857
313.366586 -96.050340
208.204535 6.427422
217.226687 26.652281
324.834279 95.698195
406.871527 -6.052581
335.812926 -194.373561
233.744087 -139.280554
183.936419 -98.756129
229.479971 -84.321157
191.067361 -110.566249
116.434680 -72.101484
187.899295 -3.965888
251.674736 -48.542666
216.927044 -158.213851
123.930608 -187.277760
53.153500 -111.980674
83.376492 -82.937761
113.945018 -94.538571
70.860940 -91.590131
62.657647 -84.192458
94.617791 -47.053463
95.774927 -67.294072
70.420540 -76.810455
57.002612 -12.618528
74.138257 -3.308134
110.264473 -23.039638
74.234260 -40.770031
26.782452 -25.999000
43.016299 26.029476
57.999928 35.851091
69.866461 5.745014
60.761689 5.550429
49.933218 21.227625
88.497686 22.484808
106.968189 6.776875
88.561414 -37.357305
61.176002 -42.038331
44.406588 1.547108
83.760095 17.390634
120.463226 -9.042482
94.182773 -37.411839
68.231964 -32.090781
88.096481 -5.762110
113.446427 -39.471932
78.369741 -79.098160
26.188616 -52.185551
34.933582 6.927603
94.071636 3.561638
107.611464 -57.235271
51.277808 -74.467124
25.045794 -34.057782
60.556188 0.939055
86.512824 -25.245394
64.114699 -65.628735
27.172477 -35.324158
32.893831 1.607403
82.695689 -1.752907
77.923629 -38.693201
28.330462 -56.875203
16.909047 -11.126962
43.697699 16.359751
79.177340 -20.998374
60.890609 -48.154002
9.653144 -37.446037
24.330900 -0.704836
62.056921 11.567862
69.978973 -30.896777
47.933613 -41.552476
23.659649 -6.444164
45.940858 4.970381
70.879500 -9.822831
43.507579 -25.014427
30.482683 -6.897832
54.795802 22.887070
78.424094 -3.650518
65.140248 -40.824537
28.806444 -26.134271
33.087404 -0.543236
64.091010 -0.468086
61.464230 -25.476653
37.272845 -27.529868
42.264869 -5.100496
65.075320 -10.409646
64.324078 -40.115621
34.396983 -43.664299
21.994184 -14.673101
44.883223 -3.951747
61.653385 -23.875476
43.711928 -43.210800
22.122969 -36.394047
24.006699 -12.288291
37.125395 -10.182915
43.898745 -28.654669
27.723513 -32.506942
13.723714 -20.836929
27.052221 -5.820459
37.523175 -8.993405
28.371045 -29.099386
13.361807 -21.582304
8.561728 3.677726
34.668713 9.004233
51.624865 -9.717068
27.977727 -28.312832
8.915272 -17.300189
19.977011 12.829616
42.932464 7.326393
47.272492 -13.743115
26.414897 -9.004560
26.199857 8.179650
52.381183 9.318805
56.227521 -9.511183
37.553853 -21.430505
32.826492 -5.686914
39.147539 -0.694430
42.917285 -16.310623
32.046967 -17.915316
25.318628 -5.659126
40.956029 -2.467170
49.472249 -12.364778
37.742726 -24.299206
33.305899 -19.317969
38.936094 -12.393353
43.352540 -25.075592
35.078791 -33.306719
17.979108 -23.599416
19.765165 -12.370996
35.037085 -9.031955
34.495489 -19.754454
25.507934 -26.606798
19.476218 -11.870036
29.055803 -5.061449
44.258943 -18.887814
33.982185 -33.909336
11.209504 -32.417197
11.038086 -10.215187
26.775731 1.003914
36.697995 -15.724351
25.989351 -25.522683
11.007120 -11.678119
24.486780 2.227271
43.231756 -7.248230
34.013780 -27.193547
11.817459 -26.703317
10.655954 -3.753762
27.394568 1.887576
37.144267 -14.340873
23.812892 -19.451731
13.041244 -9.409207
25.427247 0.021349
35.586863 -6.693440
27.126873 -17.781484
19.180852 -12.364870
22.997775 1.218292
34.696496 -3.638385
37.960967 -14.548699
25.939156 -17.599144
23.196668 -12.598179
34.699811 -5.925522
38.769134 -16.656225
32.397269 -30.921645
17.407669 -22.964015
15.315381 -10.635086
31.725700 -7.192540
34.894924 -16.310369
25.315757 -23.218891
23.886327 -15.089907
30.518336 -13.191559
32.519393 -28.425444
18.869065 -33.088906
2.830887 -21.198591
12.311971 -8.261725
24.181824 -10.075223
18.372645 -20.848165
9.726050 -15.460195
15.532863 -0.128993
28.642866 -6.910097
27.391058 -22.544241
8.855059 -19.626326
6.740286 -6.009000
21.657636 -0.368787
24.604057 -11.827692
12.506654 -17.766459
7.208433 -3.106986
17.383244 8.216454
34.255845 -0.513241
33.173771 -12.929861
20.689278 -15.128109
21.081863 -7.834011
28.639078 -5.749360
29.072844 -16.749349
20.832177 -19.706146
12.787228 -9.262624
19.436379 -1.178314
33.691931 -3.776267
33.224631 -16.092536
23.900475 -22.318545
21.156850 -14.691884
26.124288 -11.500914
29.409607 -22.321449
19.484806 -26.147577
11.245071 -17.105583
21.388928 -10.014881
28.342347 -17.009804
18.501438 -28.275719
7.937591 -20.951693
11.405745 -5.603946
23.907259 -8.849079
26.666237 -21.486650
13.359910 -24.223212
7.014686 -16.338731
14.995931 -9.689571
16.560897 -15.553025
10.388203 -19.790753
6.867003 -8.637429
13.185291 -2.362603
23.563835 -9.455038
19.301845 -16.780302
7.982992 -16.966319
8.519274 -6.521506
17.272073 -1.148202
23.217090 -10.883603
18.135905 -17.153289
8.334626 -12.313602
12.500369 -4.424205
21.989722 -3.853470
21.433970 -12.742027
15.285379 -14.751039
14.122546 -4.031968
23.465749 -2.123376
30.505483 -13.009586
20.995904 -19.709382
13.493870 -14.241196
21.143656 -8.062393
25.589777 -14.089318
18.575381 -22.748600
11.956780 -15.347125
17.619056 -7.660380
27.011063 -16.368479
20.890531 -25.951755
7.831561 -21.486730
10.742867 -11.857178
21.131426 -13.375647
15.977951 -23.364011
6.115856 -22.558743
6.702810 -8.449686
16.929578 -8.816202
21.057614 -20.758404
6.631613 -25.157045
-2.583893 -16.114978
5.566248 -4.708269
13.951879 -6.269618
12.365867 -14.797695
7.238430 -11.337633
7.680013 -5.008734
16.856493 -7.660183
17.092669 -13.405712
6.663273 -17.688556
2.651723 -8.161917
7.899961 2.675398
17.905771 -0.723673
21.403422 -9.501962
13.812990 -10.965670
11.355969 -6.507153
19.784330 -1.791015
22.687212 -9.919444
16.081114 -17.368984
10.619203 -10.284441
14.789516 -2.949700
24.183178 -8.536319
22.526753 -14.871340
14.918325 -15.142161
18.198431 -10.006082
24.175277 -11.836144
22.254801 -22.069599
13.766146 -23.986926
9.426410 -15.280359
16.016782 -13.518649
20.051546 -18.320000
12.691385 -22.603103
9.411870 -18.757876
14.548087 -13.874876
17.501953 -20.584743
11.316587 -29.791461
0.735122 -24.352284
-2.265404 -14.788583
6.928407 -11.568445
8.317446 -15.326318
2.707719 -19.076014
0.008051 -11.759702
5.106473 -5.405193
11.978841 -11.988475
7.736891 -19.674684
-4.453052 -15.736891
-3.349700 -4.801257
7.628179 -0.113913
9.755951 -9.007121
2.342558 -12.672340
-3.137133 -1.862079
5.280479 5.323111
17.617849 0.656443
15.905100 -7.563503
9.157343 -8.299512
11.658240 -1.318968
17.601683 -3.281704
15.770218 -12.786830
7.813534 -10.863658
5.650877 0.444154
17.426016 5.432526
27.085373 -1.844840
24.009098 -13.531460
18.341087 -15.777662
16.340495 -11.470745
17.997067 -13.390272
18.158685 -17.284425
12.529102 -16.148081
11.384799 -13.794887
16.095171 -12.353776
16.917485 -15.346940
13.891969 -19.550380
12.921343 -16.392952
14.119603 -15.913624
16.141185 -22.874361
9.742086 -26.391961
0.183072 -22.383433
1.629458 -15.278734
6.829628 -12.565037
6.468419 -18.613997
2.186928 -18.717827
0.769661 -11.780235
6.554308 -11.051498
8.470739 -17.573239
-0.852849 -19.690965
-6.090626 -12.068343
0.348701 -3.431380
5.936067 -6.211662
4.033737 -12.859539
-2.198801 -7.574408
0.613489 0.761682
11.140906 -1.254726
12.705514 -8.827593
3.811672 -11.865698
1.384861 -4.153201
7.655496 1.738532
14.287738 -3.489292
13.874558 -9.849121
7.292611 -6.710198
9.582095 -2.452341
18.602876 -2.105858
19.353107 -10.369448
14.054871 -16.016955
9.315571 -10.896600
11.952257 -7.014327
17.692166 -11.781286
14.551759 -16.064531
8.385158 -15.432012
11.270777 -10.407765
16.553674 -11.638568
15.683127 -20.316933
8.786888 -21.710496
4.742655 -16.271168
8.824385 -15.892380
9.709742 -20.017291
0.785012 -21.462927
-2.741182 -13.983370
3.653493 -6.872413
9.140774 -12.213456
6.532546 -20.467725
-1.650287 -16.626161
-1.934275 -9.917788
5.112765 -10.345292
3.798002 -15.361212
-4.126336 -16.276349
-6.100311 -6.652350
0.160483 -0.788269
6.538691 -5.319932
5.726821 -8.978258
-0.012453 -6.366643
2.732148 -3.134892
8.297728 -2.990965
7.988346 -8.958669
3.665724 -10.485277
0.209164 -4.103346
4.212165 -0.329771
10.960439 -1.867696
10.566760 -4.763834
8.378710 -5.785370
11.360201 -3.452266
14.273151 -6.450470
12.979646 -12.106452
7.877206 -10.357896
7.844563 -5.286544
14.887559 -5.484578
17.899583 -11.803749
11.363003 -16.884703
6.853757 -14.460041
9.138408 -9.243374
11.915276 -12.521747
11.140936 -16.730919
6.555919 -13.993046
8.193280 -11.582615
13.306912 -14.178757
9.137999 -20.757329
1.865958 -21.914691
-0.541089 -14.357373
2.545730 -11.605655
5.308119 -16.529660
0.560363 -16.866361
-4.093963 -12.539764
1.273897 -9.189310
4.129633 -11.572268
-1.168117 -16.168438
-5.612073 -11.733347
-3.126417 -3.719056
3.880753 -6.261806
3.858708 -12.360661
-5.632668 -12.044633
-7.076242 -2.789003
1.286976 3.121783
7.216397 -2.929796
4.401356 -9.777496
-1.352475 -4.973785
1.008879 0.434165
8.572821 -0.996823
8.327531 -5.449853
3.590066 -5.622264
5.785001 -0.554871
11.667975 -1.272478
12.396864 -8.921273
6.854318 -10.930656
3.724825 -5.483835
8.798030 -2.823023
13.768920 -5.614167
10.849337 -11.568369
7.196913 -11.297349
8.189914 -6.714102
11.855267 -9.148206
12.977421 -15.596200
5.966213 -16.200486
1.787610 -12.856624
5.132630 -8.866861
8.013582 -10.517953
5.850180 -15.804033
2.418489 -13.573417
1.063540 -9.786738
5.646078 -10.713185
5.367841 -14.896884
-2.052277 -15.591984
-3.952579 -9.538752
1.441764 -4.835802
4.509856 -9.899711
0.644752 -15.107138
-6.097100 -9.334144
-3.839781 -2.615742
3.927382 -2.015096
4.461918 -7.386033
-0.905093 -9.022541
-1.350690 -2.628991
3.760349 -0.619234
6.804075 -6.626166
1.359221 -9.464882
-4.245389 -3.604256
1.655630 3.552478
9.870209 2.671269
11.125746 -4.992488
6.834666 -8.594355
3.642868 -4.309793
6.067293 -2.708209
10.698722 -4.400910
8.306790 -7.047736
6.133831 -6.793744
8.571910 -4.117433
10.472165 -5.822001
10.514704 -10.712380
7.035447 -9.598552
6.772555 -7.576771
10.710997 -8.954425
10.505593 -12.128957
5.087314 -14.498083
3.384530 -10.732393
5.945946 -7.347447
8.775757 -11.750724
5.999520 -14.536094
1.110780 -11.716524
3.710497 -8.975658
7.898263 -11.450711
2.719082 -16.308561
-3.543323 -13.692791
-2.434412 -5.400446
3.575153 -4.849506
6.398314 -11.108749
-0.260311 -11.967562
-2.737472 -7.400195
2.299013 -4.724830
4.341295 -8.162942
-0.476019 -11.544192
-3.793405 -5.641997
-0.819721 0.653615
5.503025 -2.000131
5.642020 -6.703750
0.790159 -6.712957
1.406389 -2.014813
6.906880 -0.394219
8.997963 -5.539212
5.377988 -9.623839
0.799979 -5.339734
3.516267 -1.476399
10.227210 -2.573854
9.698361 -7.568358
5.184843 -9.675944
5.714042 -4.670572
8.868779 -3.590849
11.378536 -8.682913
8.218744 -11.793688
4.118305 -10.027576
6.583624 -8.030973
8.994123 -9.375822
5.387094 -13.369024
2.339000 -11.326822
3.593535 -6.609448
7.034066 -9.334834
6.199500 -13.369552
0.191803 -12.268830
0.065518 -7.675457
5.887020 -6.188460
6.781849 -11.333064
1.518583 -15.175614
-3.465089 -10.475391
-2.286781 -5.633245
2.807863 -6.083061
2.824237 -7.927390
-1.025191 -7.661020
0.511315 -4.928160
3.840247 -3.801948
3.711753 -8.092626
0.311521 -8.744411
-1.859582 -3.293078
2.836420 -1.603822
6.925799 -4.616149
3.540167 -8.806401
-0.551309 -6.397298
2.231988 -0.329969
7.600369 -1.099545
8.380350 -7.197479
3.387134 -6.887972
2.266616 -2.899627
9.066553 -1.810347
11.092408 -6.640623
5.898603 -11.333048
2.571097 -7.286669
5.489773 -1.887442
11.020240 -5.669001
10.655709 -10.670701
5.275563 -10.790551
4.869085 -8.355897
8.702282 -7.148191
8.746292 -11.145139
5.356764 -14.226076
2.712027 -9.979990
4.823716 -8.420170
7.533568 -10.611089
5.838720 -13.264443
1.362456 -13.795348
1.704756 -10.828042
3.176683 -9.615440
3.433463 -12.755391
-0.388612 -13.515103
-3.613036 -9.668188
-0.306209 -6.502948
3.106610 -7.652195
-0.080399 -11.749701
-4.054635 -10.133401
-2.895176 -3.160795
2.177555 -3.527316
4.015180 -8.871266
-1.775286 -10.068088
-5.132266 -4.482058
0.798370 -0.274513
4.510410 -3.293386
1.733596 -7.450371
-1.362981 -3.346604
2.213253 1.271222
7.986066 -2.417721
7.127921 -6.970682
1.647938 -6.349914
3.529937 -3.251693
7.258593 -2.920353
6.403956 -7.875935
3.629339 -7.281133
3.581307 -2.636318
8.521659 -3.657736
10.606911 -8.722013
5.454609 -11.214792
1.514996 -8.762819
4.253207 -4.610971
7.281021 -6.298146
6.742673 -10.715121
3.988162 -10.005954
3.079853 -7.469959
5.779222 -8.108195
6.316481 -11.029130
1.183935 -12.695162
-1.461996 -8.538378
1.341258 -3.719210
6.314828 -5.706346
6.324625 -10.699584
0.697886 -11.592138
0.020911 -7.587595
4.421501 -5.429517
5.253505 -9.913582
0.593099 -12.696932
-2.899878 -7.415528
-0.245931 -2.904743
5.395448 -5.104311
4.166908 -8.642469
0.084790 -8.307878
0.981639 -4.978230
4.943499 -4.581420
5.239459 -9.048268
2.679065 -10.484694
-1.162205 -7.292771
0.504994 -5.194745
3.002769 -4.617404
2.495578 -5.159425
2.848971 -4.911846
4.832942 -3.249931
6.560567 -5.193493
6.803628 -8.704758
4.112980 -9.087497
2.667522 -8.249013
4.081289 -7.279091
3.583481 -6.963266
1.775404 -7.815386
2.786155 -4.969190
5.483921 -3.875759
7.999579 -7.570642
6.700628 -10.967841
1.540209 -10.394028
3.032933 -8.167960
5.812238 -8.059558
4.230218 -12.018591
-0.206193 -12.330893
-1.910471 -6.249523
2.937205 -4.105183
6.354280 -8.198584
1.850993 -11.148448
-1.749120 -8.172772
2.988605 -3.890322
7.126170 -7.347398
3.363021 -13.789408
-3.714261 -10.966963
-3.915754 -2.776235
3.786181 -1.674146
7.280586 -7.552220
2.295112 -10.829544
-1.137831 -6.823817
2.869775 -1.350164
6.926650 -5.120495
5.632356 -10.546807
0.328791 -9.578646
0.168508 -4.495414
6.037550 -3.215184
7.685256 -8.252763
3.188237 -12.504519
-0.060645 -7.967771
1.867732 -3.875119
7.384721 -7.162957
5.356068 -10.634375
-0.054797 -10.182623
1.115569 -5.438022
5.629324 -5.416463
5.900530 -11.217951
2.093665 -11.816759
-0.451578 -7.538374
2.938419 -6.411048
4.896142 -8.933919
0.765900 -10.895811
-1.478552 -7.246409
2.644460 -4.566242
4.619054 -7.150949
3.168970 -10.952769
0.046479 -8.126126
0.702357 -5.513863
4.928144 -6.918129
3.737294 -8.999543
0.154403 -9.652857
0.212233 -7.062668
1.853742 -5.068438
3.598710 -8.066325
2.944462 -8.539043
0.345359 -7.080552
1.974525 -5.235548
5.083315 -6.152025
3.601525 -8.786443
1.061506 -9.405093
0.143016 -5.936855
3.209970 -4.217425
7.313124 -7.836559
4.561698 -11.352748
-0.716549 -11.653500
-0.407334 -6.200955
3.553619 -3.937099
5.335015 -7.509080
3.605986 -8.706904
2.317884 -6.454043
5.744572 -7.398553
6.881241 -11.871596
1.088263 -14.171483
-1.767140 -10.376577
1.069396 -6.148464
3.439703 -8.274443
2.424471 -10.857304
0.145446 -9.138687
1.410590 -7.645888
4.172073 -9.115168
1.461985 -11.691044
-1.395122 -10.632441
-0.322059 -8.101881
0.837555 -8.066154
0.462378 -11.525133
-3.004795 -10.015485
-4.520741 -5.278074
0.060606 -3.901991
3.309479 -4.929681
1.427615 -8.619111
-0.187918 -8.293240
-0.830511 -5.208563
1.141703 -5.660298
2.118906 -7.216356
-0.944551 -6.784188
-1.829975 -4.085289
3.016009 -0.790841
6.399722 -3.645034
5.280395 -8.872653
1.026392 -8.512490
1.001055 -4.901964
5.763859 -5.101400
6.318792 -9.179690
1.592383 -10.377569
0.566840 -6.492902
4.454310 -4.010231
7.438155 -8.895146
4.803846 -12.554675
0.126792 -9.962019
2.393010 -7.429330
6.619669 -9.178782
4.514762 -13.996172
-0.877768 -14.232393
-2.279179 -8.892808
1.289312 -7.447816
3.584460 -11.056213
-0.142127 -12.021518
-2.341501 -9.954561
0.847996 -7.114373
3.007190 -9.762204
-0.268434 -14.433859
-5.573847 -12.493409
-5.213132 -6.673941
-0.970272 -4.833211
1.502555 -7.963563
-2.366037 -9.947079
-4.103998 -7.523480
-1.092086 -3.919282
1.916138 -6.757002
-0.377896 -11.065368
-5.044524 -7.770750
-4.629455 -2.828009
1.264938 -2.244781
1.918362 -5.712516
-1.237683 -7.209353
-1.244364 -3.763470
2.048710 -1.849339
5.309418 -6.398223
2.426875 -9.064056
-1.574071 -6.503363
0.712980 -3.563548
4.432907 -4.478255
3.118806 -7.243474
1.748733 -7.217842
2.139138 -4.254525
5.468563 -5.941682
6.684510 -9.664279
2.851364 -11.397814
0.482542 -9.760786
1.838771 -7.733705
2.942219 -7.878564
3.503429 -10.391185
1.984760 -9.987953
1.437505 -9.396439
2.764260 -10.483681
1.730550 -12.003398
-1.648736 -12.111557
-1.939257 -9.549589
0.191173 -7.873616
0.856179 -10.962193
-1.043006 -12.761471
-4.363390 -9.328407
-3.181587 -6.709162
0.373228 -7.861489
-1.727192 -10.585154
-4.711321 -9.418595
-3.660487 -6.068932
-0.895376 -6.174718
-0.829484 -10.367270
-6.083626 -8.721001
-7.251121 -3.171957
-0.523881 -0.666516
2.921429 -3.810083
0.660578 -8.773503
-3.036263 -7.096216
-2.313645 -2.423319
2.056038 -3.743979
2.396920 -7.044591
-1.943489 -7.423287
-3.166197 -3.953269
1.370315 -0.329534
5.204224 -3.521246
4.731664 -8.091922
1.523017 -7.105585
2.004159 -5.424486
5.664275 -6.461330
5.610600 -10.239647
0.205780 -13.332864
-2.220630 -8.208795
0.538599 -3.998925
4.272242 -7.351588
3.768767 -10.398428
0.232952 -9.510889
1.262975 -8.186003
4.616170 -9.863631
1.488791 -14.841461
-3.491663 -14.189641
-3.826516 -8.309305
-1.198012 -8.608316
-0.767175 -11.765821
-4.863316 -10.595183
-5.749087 -6.762218
-0.692640 -5.681228
0.658874 -9.303863
-4.045228 -11.934547
-6.670157 -7.613907
-4.080589 -3.458124
-0.655607 -6.554779
-2.116713 -9.428487
-6.226714 -6.972120
-4.346897 -3.274542
-0.674072 -2.504187
-0.781543 -6.131959
-2.955204 -6.388329
-3.679743 -2.175924
0.070379 -1.191287
4.192197 -4.700375
2.257802 -7.552743
-1.674370 -8.159541
-2.011630 -4.417614
0.639430 -2.373940
2.610404 -5.339148
2.433550 -6.161857
0.952139 -5.987344
3.142738 -6.210587
3.972951 -7.928504
1.434696 -10.549810
-0.627980 -9.242231
0.293711 -5.858978
3.640532 -7.514385
3.748168 -11.409920
-0.870566 -12.028195
-2.569759 -9.841694
-0.485991 -7.874771
0.602976 -9.613977
-0.805943 -11.805187
-2.567835 -9.796447
-2.636106 -8.679323
-1.069755 -10.288277
-2.831283 -10.791739
-5.534818 -9.547298
-3.981839 -6.416160
-2.177957 -6.826178
-2.490213 -10.585439
-5.762667 -9.081357
-7.403480 -5.400609
-4.053265 -3.611506
-1.593670 -5.487276
-4.135264 -7.184402
-6.216635 -4.905084
-3.843490 -1.022560
0.039964 -2.705907
0.545453 -6.406540
-3.875985 -6.756394
-5.008492 -2.581033
-0.101471 -0.904610
2.146415 -2.812235
0.184826 -6.277363
-1.699303 -4.294811
0.712671 -0.811187
5.530026 -4.098747
4.316880 -8.109255
-0.718130 -8.344861
-0.666841 -5.492308
3.097853 -3.989839
4.555721 -8.093909
2.018176 -10.765599
-0.467760 -8.497386
0.290235 -6.349574
3.717990 -8.711892
1.552528 -11.374141
-1.682291 -11.661066
-1.627229 -8.929715
0.038740 -8.728907
-0.204492 -12.269547
-3.185466 -12.901057
-6.279315 -9.144109
-3.637828 -7.027420
-0.802237 -8.719717
-3.235558 -11.419773
-6.654126 -10.765956
-6.569385 -6.434873
-3.757714 -6.171852
-3.484820 -9.430065
-7.313609 -8.389843
-8.170729 -4.802081
-3.509756 -2.929605
-2.525513 -5.233367
-5.505038 -8.108814
-7.461376 -3.225655
-4.356510 -0.613439
-0.503110 -3.665805
-3.292371 -6.290847
-7.333214 -3.582735
-4.328023 0.848028
1.076403 0.892701
1.737516 -4.399586
-1.531389 -6.347085
-3.123489 -2.157191
0.738225 -1.022284
3.521840 -4.056715
-0.028350 -6.428563
-2.235940 -4.631714
-0.195808 -1.329760
3.508980 -1.941139
4.871158 -6.770814
2.285583 -8.154049
-0.132698 -6.828398
2.785630 -6.188208
2.813730 -8.678502
-0.625033 -11.112848
-2.769516 -9.001884
-1.547257 -5.274059
1.060324 -7.011207
1.265646 -9.567737
-1.797167 -9.673498
-2.016327 -8.372820
0.592648 -8.056756
-0.899857 -12.349682
-5.868060 -12.807495
-8.274601 -6.961459
-4.556771 -4.132378
-1.407754 -6.836331
-4.346149 -9.371241
-8.022271 -7.025961
-5.724437 -3.094553
-2.346419 -3.400072
-2.792585 -7.349314
-5.967052 -6.564454
-7.295247 -2.590693
-3.215623 -1.767632
-1.377473 -3.339318
-4.237184 -4.404552
-4.877285 -2.134195
-2.156791 0.853233
1.084280 -1.349128
0.770214 -4.495590
-1.732799 -3.847761
-1.861451 -1.516470
2.383066 -0.618881
3.796584 -4.256970
1.441650 -7.099273
-0.553028 -5.332741
0.551951 -2.976087
3.413497 -4.132580
4.037831 -6.923461
0.860128 -7.842648
1.210168 -6.978011
2.050995 -7.078328
1.386240 -9.423414
-0.381523 -10.417574
-2.175068 -7.627080
-0.217298 -6.921918
1.718003 -8.947237
-1.396518 -11.015780
-4.297797 -10.106871
-3.086955 -7.430554
-2.150726 -8.101927
-3.780966 -11.523504
-6.639248 -9.021582
-6.681511 -5.351712
-2.756161 -4.757059
-2.484522 -7.540881
-6.046454 -8.969285
-7.451648 -5.079183
-4.833789 -2.270727
-2.401354 -4.667823
-4.337964 -6.741460
-7.655725 -4.278907
-6.365937 -0.675074
-1.752022 -0.572156
-1.326368 -3.635475
-4.216446 -4.121795
-4.227084 -0.257277
-0.654725 0.342488
2.308759 -3.506334
-0.818666 -4.862900
-3.927598 -2.280088
0.309995 0.845994
4.294427 -1.275598
2.563297 -6.647052
-0.995596 -5.986003
-1.420406 -1.332818
3.068015 -1.836984
5.176513 -5.702794
1.621954 -7.215032
0.243541 -5.388775
3.309655 -3.846227
4.634051 -7.154904
2.316935 -11.234952
-1.186431 -9.620411
-1.251494 -6.934408
1.438103 -6.964547
1.325038 -8.911967
-0.616618 -9.969154
-0.870583 -8.780699
-0.011301 -8.723786
-0.882974 -10.617769
-2.934170 -10.519131
-4.509523 -8.464594
-2.767220 -7.771552
-1.805196 -8.858472
-4.755647 -10.785104
-7.672587 -9.290167
-7.142987 -3.262028
-2.344888 -2.676529
0.507499 -7.361335
-4.313665 -9.926961
-9.147922 -7.251982
-6.629600 -2.258659
-2.887766 -2.298078
-2.838354 -6.114356
-6.056911 -4.672341
-5.952700 0.117587
0.288831 0.050408
1.682672 -4.698186
-3.595129 -7.515119
-6.065553 -3.161235
-2.005778 1.628785
2.440299 -1.674579
1.800615 -6.154485
-2.475727 -5.155039
-1.544238 -1.687427
3.073572 -1.905806
2.801958 -6.471911
-0.423125 -8.258471
-1.179838 -4.703933
1.385159 -3.493986
3.767766 -7.028992
1.417018 -9.752617
-3.564208 -9.025106
-2.952655 -5.157398
1.475733 -3.998008
2.600592 -8.419161
-0.038337 -11.687974
-3.543770 -9.227843
-2.840356 -7.260780
-0.963017 -8.275083
-3.221907 -9.238905
-6.125461 -7.941862
-3.931150 -3.884010
-1.015485 -4.490659
-0.754290 -8.606497
-3.696619 -8.571213
-5.584139 -6.627534
-2.968887 -6.145076
-3.530934 -7.608949
-6.839041 -7.420699
-6.450501 -2.762363
-2.787523 -0.485624
-0.233370 -4.453620
-2.038969 -6.903548
-4.742477 -4.749407
-2.970758 -3.171013
-0.207274 -4.152019
-2.538073 -6.296840
-4.360892 -5.227828
-2.892369 -1.771474
-0.703276 -2.391141
-0.271578 -5.580421
-2.425779 -4.753514
-2.178048 -2.631290
1.247265 -2.399024
1.857490 -5.408455
0.014879 -8.529807
-2.113288 -6.570784
-1.883820 -4.241070
0.208317 -5.482563
-0.179269 -7.102973
-2.991760 -6.218115
-0.973201 -4.078366
2.662245 -4.228925
2.712174 -9.657708
-2.207378 -12.194295
-6.687634 -6.679048
-3.207039 -3.368143
2.712699 -5.251880
0.481322 -10.412492
-5.145775 -10.658079
-4.910798 -5.633944
-1.223728 -4.731324
-0.516478 -9.057602
-4.503723 -10.144468
-8.387147 -5.496774
-4.680045 -2.359149
-0.373733 -4.118324
-2.424635 -7.620932
-4.391303 -6.399061
-3.963424 -2.831424
-0.960443 -3.959006
-0.732969 -7.382610
-5.071786 -7.580678
-6.320161 -3.791614
-2.303929 -0.587915
0.422737 -2.842599
0.432905 -6.875679
-2.851057 -5.852431
-2.216252 -3.174053
1.771177 -3.757102
2.030684 -6.743968
-1.669317 -9.226916
-2.826133 -6.385956
-0.954467 -4.076260
0.096200 -7.009352
-1.078054 -8.870117
-4.250283 -6.355789
-2.493820 -4.894840
0.970784 -5.943353
-0.916029 -9.412428
-3.974440 -9.447532
-3.689127 -5.869238
-1.536709 -6.093024
-1.473539 -9.806514
-4.628861 -8.923898
-6.234473 -6.493423
-3.532845 -5.105223
-3.040819 -5.807918
-4.492686 -6.999984
-5.103752 -4.695481
-2.830068 -2.454623
0.340157 -5.674557
-1.249928 -8.409774
-5.387403 -8.426894
-6.285179 -5.237799
-3.371400 -3.356563
-1.854672 -4.238863
-2.405627 -6.438581
-4.440165 -4.781696
-4.106201 -2.287783
0.535923 -2.408171
1.089730 -6.931759
-3.316495 -8.651114
-4.392950 -4.956240
-1.287349 -2.430407
1.186927 -6.636968
-1.989633 -9.318847
-7.421892 -6.365475
-4.137398 -0.942718
2.288534 -0.843387
2.935709 -7.352806
-1.028888 -9.071523
-1.827695 -5.903959
-0.070469 -6.104808
0.232417 -9.563663
-3.595781 -8.777110
-4.986059 -6.168395
-0.721594 -4.070464
0.557079 -6.781217
-1.816423 -9.108293
-2.811112 -7.067597
-1.070542 -6.009587
-0.332348 -9.389033
-2.846254 -10.438104
-5.665697 -8.469514
-4.230513 -6.368131
-1.989396 -7.400139
-4.860673 -9.747102
-6.613080 -7.872889
-6.345737 -3.729340
-3.037234 -3.760893
-0.345817 -7.225939
-3.710805 -9.405657
-7.258834 -8.414279
-6.239345 -4.272842
-4.071805 -3.892739
-2.732305 -6.660406
-5.822501 -5.975256
-6.192431 -2.474738
-1.594870 -1.139990
1.437462 -5.082937
-2.915058 -9.509808
-6.498347 -6.330167
-3.934062 -1.181251
0.796114 -3.153838
0.846429 -7.807040
-4.285983 -8.234546
-4.788417 -4.566693
0.119568 -2.492796
1.368592 -7.217810
-1.857888 -10.359221
-4.566162 -7.290376
-3.483407 -4.654791
0.085370 -6.430636
-1.764849 -9.214741
-5.197188 -9.398408
-4.135831 -5.442964
-2.028360 -5.294211
-0.817871 -8.981569
-3.151971 -10.591193
-6.671377 -8.152944
-5.247023 -6.702364
-3.310755 -6.393263
-4.144075 -8.160867
-5.753846 -7.602862
-5.514851 -4.248520
-3.160052 -5.407903
-2.051297 -8.460181
-5.837526 -8.328840
-7.905290 -5.611648
-4.551687 -3.045272
-2.646521 -5.558248
-5.170121 -8.155428
-6.631737 -5.247681
-4.703269 -1.836862
-1.036387 -4.983076
-2.653068 -7.910277
-7.252775 -7.111205
-6.209452 -2.799820
-1.062352 -1.934276
-0.443840 -6.718706
-4.154590 -8.650160
-5.880149 -4.189517
-2.354875 -3.075703
0.575160 -5.968862
-2.291005 -8.750372
-5.428625 -6.851884
-3.555022 -3.591467
-0.156296 -4.777914
-1.440772 -9.741467
-4.789594 -9.457278
-6.282309 -4.855098
-2.219647 -4.193053
1.087450 -7.113272
-2.322294 -10.584240
-5.653711 -8.957646
-4.446936 -5.717391
-2.277781 -7.372356
-2.808637 -11.030930
-7.765495 -10.062088
-8.204088 -6.056711
-4.127096 -4.139354
-2.662582 -7.489532
-6.005395 -10.136070
-8.237968 -6.486436
-5.960310 -3.589905
-2.636020 -7.229914
-5.680216 -9.105782
-9.738934 -7.001828
-8.037472 -3.161543
-4.839273 -3.282429
-4.670845 -6.911569
-7.543242 -6.091178
-7.422169 -1.758378
-2.734577 -2.166185
-0.936234 -5.428098
-4.242249 -7.106659
-6.043049 -5.650817
-4.257018 -2.654722
-1.628281 -3.955674
-2.411545 -7.068223
-5.025832 -5.855881
-5.049205 -3.590478
-1.817983 -3.251857
-0.403236 -5.139747
-1.929798 -9.157341
-4.673094 -8.160293
-4.814310 -5.590302
-2.873493 -6.608163
-2.507076 -8.034970
-5.395484 -8.972518
-5.903026 -7.032857
-3.096381 -5.766802
-3.565500 -9.107483
-6.202672 -10.679555
-8.582395 -7.012660
-6.586967 -4.480011
-3.322030 -5.921155
-4.822580 -9.169043
-8.209635 -8.606568
-7.242472 -5.851254
-5.921094 -6.370856
-7.003142 -8.500922
-8.912375 -5.593088
-8.246465 -1.990567
-3.776075 -3.462089
-3.799243 -6.963202
-8.855143 -7.461390
-8.976065 -3.732978
-5.822476 -1.226896
-3.780483 -4.296875
-5.447547 -6.348782
-7.329167 -3.628371
-5.650740 -1.869722
-1.287031 -2.746891
-2.237206 -6.511090
-5.528244 -7.394535
-6.645011 -3.933858
-4.721991 -1.467345
-1.733428 -3.628834
-1.315152 -5.934957
-4.824027 -6.189267
-3.088342 -3.851332
-0.321619 -4.453671
-0.790308 -9.534448
-4.353536 -10.842546
-7.345447 -6.670837
-5.269366 -3.896193
-0.999319 -5.793266
-3.545881 -9.379580
-6.798556 -8.948775
-4.754500 -5.098000
-2.022099 -6.970585
-3.214244 -11.790116
-7.937413 -11.072956
-9.578289 -7.786980
-6.687804 -7.311960
-6.731308 -8.851561
-11.622268 -9.444514
-11.502144 -4.518708
-7.319996 -1.500420
-3.213896 -5.814116
-6.584893 -9.599383
-11.659539 -7.389178
-10.697360 -4.215106
-6.930196 -3.287871
-8.707959 -6.265298
-11.868284 -5.590551
-11.482141 1.073318
-6.490083 2.332447
-3.100048 -1.784832
-6.260432 -4.325233
-8.378454 -2.041339
-4.739763 1.338034
-0.811542 -0.831365
-3.265464 -6.845869
-7.943517 -5.416699
-8.543549 0.875903
-2.681527 1.913563
1.520692 -2.340923
-2.592096 -5.413124
-4.187569 -3.100308
-0.150162 -0.459923
2.518703 -4.937721
0.466650 -11.030005
-5.635031 -9.574788
-5.930473 -5.413200
-0.919127 -4.401915
-0.481003 -7.868749
-3.559540 -10.652905
-4.560641 -7.519765
-2.706171 -6.598764
-1.593293 -10.572324
-4.909506 -13.305776
-9.674692 -11.648607
-9.439803 -8.121148
-6.882302 -6.922261
-7.366199 -8.843753
-8.680978 -9.642317
-9.404283 -7.335844
-9.297645 -7.473608
-8.512744 -8.279158
-11.146331 -8.519539
-13.528157 -5.731679
-10.838453 -2.919194
-8.988463 -2.573216
-9.131963 -4.891250
-10.405546 -3.265455
-10.089425 -1.163028
-6.600185 -1.754420
-7.533653 -3.947750
-10.838191 -3.278825
-10.287785 0.438107
-6.805483 2.314958
-4.932216 -1.485618
-6.718514 -2.800178
-7.885682 1.100505
-2.922351 3.216459
2.300978 -0.642359
-0.598103 -6.284873
-6.324348 -7.631496
-6.679226 -2.092997
-3.685010 -0.330209
-0.520670 -4.111317
-2.916865 -6.402798
-5.108976 -5.010988
-1.990186 -3.132858
0.401752 -5.393839
-1.066018 -9.859301
-4.641397 -10.083651
-6.367390 -6.425829
-4.545688 -6.091201
-2.694304 -9.104943
-7.177415 -11.441719
-10.032158 -8.375928
-7.372709 -4.713839
-5.091089 -6.538001
-6.589963 -10.900802
-10.431067 -8.792617
-10.432362 -5.196745
-6.712648 -6.399768
-8.834614 -9.677204
-14.316739 -9.170651
-14.471390 -2.298650
-9.270360 0.566537
-6.027086 -3.755073
-8.943338 -6.727335
-13.938559 -2.654376
-10.118215 1.043260
-6.139095 -0.821656
-8.678008 -4.993977
-11.890822 -2.405998
-10.678250 3.770035
-5.001116 2.675095
-3.839551 -2.337610
-7.611880 -2.177162
-8.837592 0.689124
-3.724250 3.222553
-0.716348 -0.735089
-2.905941 -4.965320
-6.223648 -4.043323
-6.104134 -0.068399
-2.204772 -1.096864
-0.117668 -2.741170
-3.034752 -4.306137
-2.432604 -3.881371
-0.757159 -2.887680
0.406063 -7.505022
-2.394419 -11.387646
-7.307031 -9.079170
-7.917769 -5.851494
-3.111461 -4.656767
-3.264642 -7.464670
-6.175846 -10.411242
-8.046673 -7.937993
-7.195813 -7.101849
-6.982629 -8.719695
-8.709902 -9.727237
-11.468691 -7.318112
-10.049378 -5.680635
-9.040843 -5.950851
-11.610270 -7.631013
-12.874018 -5.827981
-12.199950 -2.279365
-9.646102 -2.131431
-9.523329 -4.577469
-12.751125 -3.444933
-12.804534 -1.047013
-8.070699 1.483469
-6.963949 -1.823839
-10.018962 -4.263695
-13.066315 -0.907971
-11.429380 3.337748
-5.875312 2.373375
-5.339379 0.210894
-7.834467 -0.197709
-5.732048 2.750572
-2.128075 2.191697
-2.444834 -3.636627
-5.478618 -3.626970
-7.994036 1.157149
-3.208471 3.023549
1.096160 -0.341150
-2.238714 -5.746192
-5.855001 -4.620301
-4.162352 0.774359
0.404511 -0.980050
1.947965 -7.496674
-3.604889 -9.009161
-6.049451 -6.450467
-2.635320 -5.124039
-1.956357 -7.919325
-6.951018 -10.709535
-9.705162 -6.685266
-7.008682 -2.491146
-2.032704 -5.373093
-2.997545 -11.103156
-9.716599 -11.859114
-11.917536 -7.825481
-9.315603 -4.164251
-7.989090 -6.967684
-10.140750 -8.919087
-13.462019 -4.277905
-11.053754 -1.594283
-6.776533 -4.270266
-10.064329 -6.886098
-15.324573 -5.204364
-13.233884 2.283256
-6.936349 3.610482
-4.274234 -4.355260
-10.237998 -6.718337
-15.799890 -0.134369
-10.582076 5.561249
-2.716874 3.432431
-5.262110 -3.096894
-8.883365 -1.569698
-7.285841 4.593851
-0.699607 2.716127
-0.427921 -4.524811
-6.791324 -5.374136
-8.878906 0.568367
-1.840397 3.590668
1.898832 -1.492356
-1.281340 -7.371486
-5.375954 -4.610703
-3.643522 -1.742509
1.179638 -4.839568
-0.661286 -9.217985
-7.268204 -9.968658
-7.690466 -6.289418
-4.905724 -3.620548
-3.006461 -6.741005
-4.158678 -8.814531
-7.008696 -7.978641
-6.406111 -7.078631
-4.935136 -7.850876
-7.722938 -9.776901
-10.354906 -9.601473
-10.369314 -5.342402
-9.032863 -5.496937
-9.538046 -7.878611
-12.105639 -5.610566
-12.645724 -2.995873
-8.344074 -1.897978
-7.212526 -4.076339
-10.968969 -7.024480
-12.791019 -3.528977
-10.403858 0.367045
-7.316282 -3.158752
-9.991895 -5.014984
-13.875005 -1.269846
-10.662733 2.986511
-3.657319 1.977314
-4.371737 -3.910780
-9.733453 -5.493709
-11.378895 0.756760
-6.398870 3.792379
-1.143046 0.076019
-3.359903 -4.278381
-7.440956 -3.368381
-6.513974 -0.575276
-3.406070 -0.786144
-3.560142 -5.544373
-6.428838 -5.263531
-8.094148 -2.229700
-4.557435 -0.969663
-1.436072 -2.237687
-3.378516 -6.489612
-4.689545 -6.946906
-4.711179 -4.437458
-3.821816 -6.189794
-4.498268 -10.216057
-9.550408 -9.579779
-11.392626 -5.891447
-6.548207 -2.569093
-4.277616 -5.193816
-7.027116 -9.853322
-10.435544 -7.298703
-10.317705 -3.506464
-6.085097 -5.530536
-7.753351 -8.424730
-13.813876 -7.826724
-13.182026 -3.275401
-9.825647 -1.100464
-9.113320 -5.264268
-12.890872 -5.158831
-14.408054 -0.266530
-9.461554 1.769974
-5.166228 -1.311152
-8.612578 -4.046014
-11.669769 -2.366339
-8.466787 1.972139
-5.482479 0.069921
-6.157230 -4.791026
-10.729105 -2.904173
-10.141987 2.624545
-2.767244 3.120094
-0.541043 -1.415976
-5.335143 -5.667208
-7.857263 -1.580385
-4.027028 2.731370
1.550701 -3.322075
-0.481325 -8.896073
-8.308275 -7.951749
-8.380591 -2.262780
-0.676440 -1.235840
-0.278292 -8.607711
-6.183425 -12.779568
-10.278233 -7.036317
-6.892416 -3.174096
-2.476207 -7.918195
-6.374723 -11.515081
-11.602137 -8.841009
-8.186786 -5.285276
-4.860794 -7.586619
-8.858471 -13.834123
-15.119308 -11.347351
-16.480564 -4.282409
-11.684304 -1.946004
-8.695780 -5.489154
-12.960259 -7.097370
-14.066061 -4.705771
-11.766242 -0.764560
-9.236761 -3.975913
-11.555434 -7.286844
-16.068204 -4.717803
-16.640225 0.187334
-10.342530 3.270265
-7.129075 0.142330
-10.004421 -4.604577
-12.488665 -1.239362
-11.839797 3.881976
-5.193650 2.073174
-4.763960 -2.347457
-10.403179 -3.251638
-10.047705 0.621268
-4.184396 2.837571
-3.965076 -3.121002
-8.433791 -5.080801
-11.405352 1.426230
-5.604219 4.684666
1.361428 -0.842080
-2.204949 -6.670597
-8.429427 -6.102985
-6.208988 -0.959967
-2.164578 -2.070009
-3.334874 -8.108606
-7.251699 -6.747846
-7.038459 -2.270094
-1.448289 -4.120037
-0.963902 -9.478122
-7.659417 -12.645131
-10.983004 -9.208477
-8.956883 -4.671820
-6.742908 -6.351316
-7.728686 -9.541497
-11.134663 -7.155936
-9.712121 -6.058888
-6.142542 -7.597176
-9.272335 -12.054428
-14.723921 -11.794971
-16.716614 -5.248614
-13.794840 -1.720727
-9.390539 -5.226145
-12.341299 -7.297477
-17.224341 -3.923752
-13.081109 1.498827
-6.235593 0.941534
-6.321107 -8.407543
-14.317471 -8.895901
-17.346142 -0.478612
-10.756799 3.039656
-4.690658 -2.209643
-11.499638 -7.200597
-15.500553 -2.421443
-9.879245 5.877670
-2.507415 2.152357
-3.106343 -7.535319
-10.413186 -6.990654
-12.335460 -1.667027
-5.698040 -1.346871
-4.111104 -5.700091
-10.071918 -8.800700
-12.307055 -4.654864
-9.208850 -0.469588
-5.528919 -4.028043
-5.973519 -7.387271
-10.197400 -6.853669
-9.325570 -6.129127
-7.367659 -6.518503
-10.966937 -9.147720
-12.893881 -7.542258
-11.798203 -2.477700
-9.058652 -3.373946
-8.176199 -7.568375
-12.101921 -7.817377
-14.327002 -4.964697
-9.657735 -2.757050
-7.681080 -5.823888
-11.638003 -9.938422
-15.945376 -5.470082
-13.455284 0.605096
-6.293647 -2.768608
-8.101648 -8.720672
-16.576337 -8.263651
-16.227808 -0.379405
-7.816335 2.376765
-4.915548 -6.120625
-11.505321 -11.679649
-17.852703 -4.433226
-13.731367 1.652126
-5.969722 -2.347432
-10.202363 -9.156723
-17.643745 -7.530082
-15.353802 2.372054
-7.134607 3.517766
-3.855115 -6.772197
-11.180385 -11.023963
-18.426746 -4.853686
-13.773308 1.851859
-5.909233 0.785178
-7.287617 -7.932345
-12.413452 -8.886696
-14.293977 -1.273780
-8.744484 -0.513246
-4.168334 -7.250544
-11.500625 -11.626403
-18.507658 -7.374616
-13.223882 1.279658
-5.818600 -1.395227
-5.610309 -12.195980
-14.851059 -12.130657
-20.250001 -4.563547
-12.769307 -0.724388
-8.980036 -4.371005
-13.693228 -8.734500
-16.285673 -4.892692
-13.165611 -0.602651
-11.471109 -5.217967
-14.222222 -7.420193
-17.618748 -3.212995
-13.968399 0.026776
-8.841198 -2.368245
-12.299783 -7.301905
-17.870282 -6.549159
-17.870489 0.746484
-13.303778 2.640159
-9.348503 -1.523482
-11.291682 -3.080316
-13.343538 -2.046500
-9.717536 -1.300598
-8.256599 -3.486411
-11.419018 -9.008260
-15.143570 -6.354722
-16.188512 0.119177
-9.676524 0.919097
-4.249601 -5.450536
-10.580860 -12.073643
-17.338814 -9.735257
-15.464332 -1.077185
-9.925136 -3.094342
-9.771183 -11.392853
-18.049321 -9.996433
-20.078036 -3.331905
-10.773630 -2.411323
-10.726340 -9.645086
-19.807723 -12.985914
-23.383130 -3.809614
-16.791310 1.749915
-11.539769 -4.502388
-16.598813 -8.254026
-22.291426 -2.408738
-15.841292 2.243784
-9.624369 -3.127341
-16.991564 -10.091149
-24.031075 -5.221762
-21.224823 4.330197
-15.308468 2.451564
-14.789843 -3.186558
-20.235201 0.268379
-18.128387 5.000109
-9.070148 4.747029
-8.963679 -2.443311
-15.209731 -6.587930
-16.208243 0.434684
-13.335841 3.179372
-8.658078 -3.115000
-13.549254 -5.678684
-20.525402 -2.199578
-16.502057 4.861048
-7.674904 6.570816
-3.593987 -3.232434
-7.262292 -8.249534
-13.851328 -5.276383
-10.164338 -4.122158
-5.606606 -8.469651
-13.523495 -15.101155
-22.404772 -11.010024
-20.715267 1.502873
-10.951431 2.585013
-6.305653 -8.928103
-14.949978 -12.496642
-19.903193 -7.421220
-12.658970 -3.938879
-9.479222 -10.789203
-18.523174 -19.256746
-27.944428 -12.140406
-26.742851 -2.001327
-19.744936 -3.193486
-20.802215 -8.086222
-28.968813 -3.551535
-25.602222 5.266009
-13.687019 6.284214
-12.617410 -5.196686
-21.387623 -12.244842
-30.643163 -2.897414
-28.579562 5.374805
-19.378001 5.248957
-19.800882 1.544676
-25.820549 2.097786
-22.229159 10.005298
-13.129130 11.998861
-8.370071 1.498668
-14.535150 -4.724253
-23.072045 0.949382
-18.564763 7.936748
-9.161000 6.486000
-12.366106 -1.869882
-19.623573 0.428983
-15.986365 11.540179
-4.671213 9.138184
-0.859515 -5.029772
-12.758115 -10.674185
-22.011937 -4.099059
-14.536086 2.679309
-8.273561 -0.124135
-11.813810 -9.725053
-19.208309 -5.876285
-17.670603 2.491034
-8.290085 -2.289786
-7.008271 -11.588889
-18.651287 -15.010911
-22.898196 -10.232633
-20.181685 -3.940392
-19.671585 -8.520593
-22.902707 -9.614945
-26.005706 -3.244879
-21.202430 -0.275882
-15.422882 -3.185972
-20.563251 -9.328493
-28.651349 -9.924778
-29.698136 -1.253735
-25.675455 2.352497
-22.776238 -3.457260
-29.753764 -1.720159
-33.595024 5.365356
-23.306667 9.312907
-19.082305 3.883143
-25.595848 -1.425345
-29.072402 6.688342
-21.463154 15.328208
-12.351609 6.670421
-15.911775 -4.302507
-29.137064 0.464332
-27.916556 12.932030
-12.798478 15.671662
-10.938114 4.607785
-20.135632 0.192939
-20.632269 11.786462
-9.148383 15.080847
0.650094 0.237744
-9.947635 -10.274733
-25.447758 -5.640595
-21.146819 6.087738
-9.125918 7.858895
-7.602182 -4.170039
-13.040186 -8.358695
-19.240497 -2.284846
-13.858538 -1.257337
-7.787474 -6.044145
-14.909009 -14.050905
-23.758426 -13.629955
-23.563256 -2.832173
-18.362246 -3.693489
-15.384940 -14.300762
-27.764478 -15.266876
-37.422776 -6.068489
-28.307121 4.768032
-17.942592 1.727080
-20.979834 -12.310728
-31.795239 -11.676279
-37.423638 -1.053667
-32.216672 0.506073
-31.543452 0.538838
-38.235485 5.054961
-32.698099 11.207107
-20.679262 10.165736
-22.971373 -1.355708
-33.981859 -3.758389
-39.698760 11.809185
-28.905749 18.970514
-15.933066 12.864394
-20.708077 6.196636
-27.361322 7.906976
-19.787701 15.204329
-15.713478 10.720729
-18.906520 1.825090
-24.675489 7.523740
-22.903475 16.722131
-8.939256 13.013873
-5.755681 3.169553
-15.995400 -6.032467
-21.782485 -1.395565
-19.268186 9.715064
-7.723446 4.695719
-4.901620 -7.146498
-17.704102 -12.104211
-25.460936 -5.772365
-17.402150 1.387441
-13.342043 -6.418679
-21.369927 -16.886603
-33.348074 -9.705363
-33.709055 2.533557
-21.500085 1.159738
-20.981774 -9.165785
-34.883948 -11.436062
-37.446347 -2.369987
-29.098779 3.216091
-29.825925 -7.871963
-41.167945 -9.907675
-48.480159 6.117725
-38.049323 14.597736
-27.209033 6.929168
-37.372491 1.870604
-45.587693 9.588240
-33.961814 21.996402
-25.136424 13.340351
-31.006323 -0.293219
-42.996186 9.638887
-40.456755 24.714793
-19.652753 22.067241
-19.237509 10.244429
-35.003250 5.595482
-33.941237 21.918509
-18.588260 31.872973
-4.281706 14.214548
-12.990106 1.595939
-28.135207 7.886710
-21.874035 16.420899
-7.622488 14.648604
-13.704998 -0.301181
-24.404865 -0.284227
-21.983240 16.807490
-7.104889 13.235771
0.649551 -7.196458
-19.865165 -18.102579
-35.762795 -7.713545
-25.783305 7.914330
-13.809362 1.550196
-20.034430 -17.891097
-37.611665 -14.005821
-40.514622 3.622168
-22.304866 2.820175
-18.512336 -13.319266
-40.409540 -22.268059
-52.266794 -10.249263
-44.198114 5.396108
-36.899046 -0.983009
-41.355059 -9.407204
-54.937821 -0.574160
-55.075166 10.845530
-40.847100 14.252858
-40.898560 6.499711
-51.800814 3.495160
-51.986895 16.140833
-46.255392 21.968853
-40.168101 12.103810
-47.614365 9.393844
-57.233602 20.328810
-48.011791 32.241003
-34.663467 35.396354
-32.948527 27.576587
-35.580096 27.398304
-30.025628 40.962631
-13.643490 36.331527
-4.391024 18.595718
-22.403938 8.730149
-37.785854 18.575099
-23.786941 36.731772
-7.054801 31.847582
-5.789992 10.377440
-17.138143 11.056514
-20.348459 23.672381
2.287551 18.227560
6.600640 -1.942743
-16.571642 -19.847704
-28.387025 -10.003131
-25.076022 5.396435
-17.443297 -9.312095
-24.882077 -20.163739
-46.163252 -9.762575
-38.672042 1.338650
-17.246373 2.941242
-20.778917 -21.258728
-44.592777 -35.223860
-62.266985 -10.862054
-55.093437 5.442165
-34.057239 -2.823995
-47.902974 -16.634066
-73.527798 -9.059796
-67.151661 13.883178
-52.458611 17.119502
-53.565563 -1.853374
-71.483233 1.395491
-79.394305 27.102568
-59.348231 36.615269
-46.453058 25.820764
-60.303488 19.923508
-63.606758 37.033802
-36.819423 54.420142
-17.164770 30.488022
-38.355868 1.856868
-69.415540 24.697904
-59.517032 60.405142
-15.075668 58.829600
-9.947197 28.216782
-41.336359 17.710040
-42.525002 44.499992
-17.861983 54.130864
3.747074 17.712504
-16.874900 -7.530421
-51.072951 9.155402
-38.846598 28.009703
-10.591287 23.104512
-16.188928 -13.324583
-40.386228 -25.303287
-53.039584 5.919900
-36.223745 14.181607
-16.097433 -5.621203
-32.161107 -25.472761
-56.118404 -25.021504
-45.618769 -6.618329
-41.029720 -14.405353
-61.866248 -37.584054
-91.126009 -23.927065
-99.130337 10.909371
-67.856550 11.945888
-60.185892 -9.211049
-96.671893 -18.903999
-112.936249 0.341027
-98.535010 31.663510
-80.830537 13.907351
-90.320058 -9.443451
-124.238822 18.059940
-124.012399 45.830937
-90.881305 58.789218
-97.480830 44.540811
-117.593151 43.552041
-97.126091 91.199480
-69.249165 89.719462
-51.876662 48.607889
-87.164024 44.569039
-116.360570 78.453797
-55.090101 111.316439
-13.605164 91.227099
-26.382400 33.568658
-62.054638 40.904793
-67.457776 86.737577
-6.807087 66.947038
-3.957951 11.350439
-71.306260 -11.013965
-94.286577 42.993017
-32.100126 91.337261
34.089029 18.838167
-3.522431 -74.390461
-83.213894 -60.825365
-75.588959 5.856348
-5.752860 1.705033
-14.040348 -88.421781
-116.317761 -90.631483
-128.424335 -24.922433
-76.312243 2.618059
-65.767965 -70.251759
-149.794395 -120.236849
-213.779920 -45.920467
-196.828309 -14.473017
-156.424927 -53.455849
-220.248599 -91.842499
-306.533022 -75.958134
-277.576585 50.634384
-232.648009 57.785181
-207.066563 -22.003113
-304.947492 -20.787821
-395.666902 68.717902
-273.198244 155.545141
-233.584317 127.372839
-359.069032 -1.290411
-441.639536 123.921895
-451.799561 266.559866
-273.794999 240.047677
-286.773488 34.822841
-482.240894 83.548773
-509.942116 289.259114
-518.219159 585.868777
-265.839385 289.279691
-429.705265 209.900975
-492.368117 590.680806
-479.112981 1082.805009
199.616781 723.779880
-243.385844 -221.070127
-2215.413780 -583.366783
-3042.971188 1735.858017
1046.829507 -1797.968960
