4008.795285 2123.123462
-1082.737645 920.897037
180.644379 -229.877157
-56.557913 39.951642
34.417870 12.231856
6.769903 -49.912691
-10.765323 -30.115690
18.525065 28.858610
24.614280 24.036831
5.467656 -1.632505
-24.265667 -11.413655
5.699972 -2.508830
-2.426357 -3.287960
4.241342 14.479137
8.010507 6.675922
10.806508 1.376550
9.994393 1.094230
2.103716 8.587879
11.058976 -0.433613
-2.770008 -2.571217
7.084589 -4.204681
-0.708959 2.218689
2.233337 3.802258
1.948342 7.107119
7.536568 5.041316
10.020321 2.451076
4.407821 2.543288
6.546505 -0.948639
2.473261 -1.755591
6.478384 -2.233331
2.576524 0.408447
2.487003 2.627748
1.072826 2.460206
4.509837 4.963367
5.452661 1.846699
7.388679 3.273516
6.167757 -0.985956
5.509606 -1.569553
4.801906 -0.708490
2.141672 -0.347177
2.501414 1.118558
1.761858 1.027563
4.158484 2.342403
4.803363 1.705287
5.674632 3.150766
6.158815 -1.001619
6.310844 -1.197798
3.963602 -1.093751
3.479611 -1.530885
3.629621 -0.706427
0.714804 -0.565044
5.495360 0.672714
3.121479 2.218198
5.087029 -0.343621
5.448188 0.752672
4.572250 -1.894619
5.394583 -1.826969
2.727227 -0.615579
3.048236 -2.331296
1.995884 -1.155223
3.235575 0.709429
3.517365 0.304957
5.153793 0.471825
3.342468 -0.611567
6.218823 -1.218324
3.642733 -1.180708
3.500163 -2.941503
2.404566 -1.261503
2.095449 -1.989524
2.369871 -0.354833
2.415460 -0.206705
3.462172 0.299005
3.633131 -0.932874
4.723226 -0.754672
4.260534 -3.279409
3.000043 -2.256905
1.963599 -2.948951
2.782594 -1.541617
1.087011 -1.896111
2.119976 -0.435412
1.924550 -0.156005
3.836639 -1.864369
3.568098 -0.297917
3.368833 -2.756886
3.053460 -1.641808
1.741212 -3.463083
2.152175 -1.593307
1.352297 -1.913324
1.413316 -1.141561
1.329544 -0.623462
2.075969 -1.405635
2.904176 -1.061044
2.529950 -1.697479
3.147902 -2.301555
2.120396 -3.249095
1.828792 -2.526094
1.137787 -2.736995
0.962503 -0.926852
0.442622 -2.272215
2.079760 -0.827890
2.159815 -1.810750
2.683598 -1.101148
2.005689 -2.581693
2.250361 -2.528526
1.154910 -3.092456
0.843763 -2.149914
-0.353019 -2.307995
0.232218 -1.658570
0.315297 -1.117568
1.866576 -1.223016
1.671298 -0.770365
1.656453 -2.330475
1.648787 -2.539457
0.535933 -2.905496
0.533758 -2.315640
-0.253396 -1.786952
0.237850 -1.858122
-0.212028 -1.189886
0.881486 -1.384680
0.489671 -1.275208
1.850531 -2.051463
1.456173 -1.734928
0.632293 -3.068644
0.319085 -2.090557
-0.698682 -1.915972
0.104682 -1.968911
-0.078597 -0.830176
0.298523 -0.677976
0.276170 -1.186665
0.837997 -1.497130
0.799115 -1.820053
0.482363 -1.803534
0.146420 -2.224987
-0.388097 -1.746015
-0.543236 -0.987590
-0.635021 -1.006707
-0.569433 -0.669417
0.070018 -1.137341
0.889704 -0.227162
0.326229 -1.565870
0.869935 -1.099930
-0.800499 -1.880994
-0.091810 -1.818565
-0.961986 -1.278520
-0.512457 -1.263933
-0.816805 -0.261779
-0.153611 -0.606926
0.767021 -0.647550
0.538654 -0.692077
0.893481 -1.146837
0.004562 -1.563091
0.077465 -1.112478
-0.312866 -1.367998
-0.749766 -0.751775
-0.808515 -0.663709
0.023145 0.245212
-0.194752 -0.399637
0.583979 -0.547220
0.472018 -0.460483
0.766918 -1.516433
0.151774 -1.267317
-0.215940 -0.888140
-0.511057 -0.691851
-0.426286 -0.925496
-0.706827 0.359128
0.274832 -0.327219
0.531512 0.220490
0.616521 -0.080081
0.669507 -0.924162
-0.449473 -1.503038
0.511357 -0.570238
-0.595135 -0.730117
-0.025673 -0.968141
-0.704462 0.241179
-0.108497 -0.216345
0.123973 0.466342
0.784535 -0.344570
0.714942 -0.278363
0.187383 -0.487196
1.022837 -0.721981
-0.476997 -0.637786
-0.636473 -0.898922
-0.293863 -0.207807
0.152569 -0.092582
0.494152 0.413629
0.941909 -0.002008
0.894700 -0.095476
0.640886 -1.133871
0.491099 -0.824475
0.538069 -0.703732
-0.235735 -0.527078
0.609943 -0.108242
0.099791 0.109187
0.463958 0.128697
0.559942 0.282381
0.539050 -0.307213
0.967790 -0.965777
0.632067 -0.385721
0.960640 -1.169698
-0.087934 -0.739427
0.251918 -0.675946
-0.008892 -0.122880
0.029077 -0.240701
1.244877 0.146691
0.974954 -0.282498
1.225790 -0.696428
1.304879 -0.986754
1.143427 -0.915288
0.038574 -0.742328
0.086622 -1.105040
0.044166 -0.709134
0.361087 -0.047394
0.658001 -0.115635
0.649020 0.086991
0.896549 0.084545
0.994122 -0.658644
0.981585 -1.107291
0.440225 -1.299480
0.398041 -1.153164
0.292990 -0.869033
0.754874 -0.440769
0.007535 -0.078961
0.208126 -0.196079
0.445137 -0.744934
1.488780 -0.844328
1.049940 -1.149152
0.841421 -1.166069
0.048704 -1.115431
0.057743 -1.682472
0.111685 -0.672850
0.107798 -0.382969
0.846319 -0.678335
0.796732 -0.663921
1.436379 -0.634747
0.921699 -0.999940
0.961868 -1.683084
0.163301 -1.471061
0.407204 -1.610232
0.437313 -0.616601
0.073357 -0.949171
0.195304 -0.353578
0.361092 -0.789235
0.633534 -0.788898
0.827471 -1.262229
0.295621 -1.307447
0.123803 -1.423518
0.648256 -1.326291
0.134983 -1.058738
0.218245 -1.171062
-0.007174 -0.557199
0.698510 -1.049632
0.141465 -1.061604
0.498365 -1.819991
0.375684 -1.113685
-0.009454 -1.901989
0.527448 -1.105056
-0.513973 -1.992191
-0.395491 -1.271920
-1.012357 -0.977727
0.294897 -0.345547
-0.306505 -1.017470
0.703113 -1.067206
0.145648 -0.900307
0.225203 -1.661041
-0.167261 -0.937708
-0.694510 -1.836627
-0.341608 -1.164241
-0.637425 -1.232181
-0.339548 -0.916975
-0.348095 -1.041655
0.090119 -0.312524
0.107144 -0.787185
0.323336 -1.615441
-0.193120 -1.957009
-0.446345 -1.311420
-0.215134 -1.306337
-0.016728 -1.243165
-0.735334 -0.896949
-0.490994 -0.697926
-0.302520 -0.443625
-0.132566 -1.266219
-0.030162 -0.784029
-0.327504 -1.683562
0.359439 -1.174551
-1.004873 -1.287353
-0.680462 -1.128129
-1.601646 -0.803960
-0.360473 -0.668542
-1.097869 -0.374619
-0.235891 -0.728938
-0.325584 -0.833449
-0.076742 -1.314736
-0.157458 -0.643590
-1.172793 -1.243242
-0.551827 -0.686961
-1.146737 -0.754704
-0.283063 -0.718325
-0.449215 -0.110215
-0.054339 -0.301979
-0.184345 -0.199515
-0.351606 -1.029195
-0.600702 -0.821650
-0.581103 -0.874364
-0.798990 -0.815184
-1.241142 -1.015168
-0.683668 -0.286400
-0.697673 -0.591564
-0.494173 -0.126030
-0.313689 -0.794193
-0.064320 -0.718124
-0.423500 -0.949533
-0.251784 -0.905077
-0.781252 -0.625575
-1.072872 -0.642929
-0.939600 -0.152545
-0.413802 -0.238550
-0.361268 0.563623
-0.091649 -0.564222
-0.069706 -0.047708
-0.288050 -1.062880
-0.204292 -0.701539
-0.732939 -0.985948
-0.649640 -0.821692
-1.318270 -0.283517
-0.250393 -0.301499
-0.678203 0.641123
-0.081838 0.053504
0.054360 -0.182727
-0.040904 -0.307774
0.082085 -0.354197
-0.667408 -0.561725
-0.216845 -0.012611
-1.014299 -0.415890
-1.030118 0.465428
-0.250758 -0.064742
-0.461811 0.591609
0.181939 0.519215
0.582776 -0.070929
-0.326770 -0.333577
0.050308 -0.468964
-0.648962 -0.563618
-0.638512 -0.493890
-0.777575 0.139335
-0.274084 -0.095229
0.023353 0.355987
-0.088035 0.052961
0.028348 -0.084464
-0.209044 -0.413304
0.579215 0.064837
-0.615901 -0.210235
-0.024326 -0.926579
-0.330333 0.102144
-0.163505 -0.133769
-0.690464 0.508829
0.096567 -0.402209
0.422727 0.568295
0.449719 -0.074953
0.391913 -0.309209
-0.190007 -0.947762
0.179190 -0.595081
-0.465458 -0.450719
-0.753751 -0.324461
-0.232204 -0.509857
0.457324 0.033555
-0.282248 0.174199
0.468031 -0.534342
0.163458 -0.676838
0.278865 -0.675994
-0.250943 -0.777928
-0.076759 -1.091726
-0.337274 -0.484029
-0.004082 -0.365315
0.122565 -0.113420
0.095984 -0.261250
1.065470 -0.224025
0.339463 -1.005479
0.533566 -0.954175
-0.065758 -0.834761
-0.257573 -1.246215
0.104281 -0.223311
0.124807 -0.994685
-0.267682 0.022189
0.331814 -0.679879
0.197647 -0.595668
0.072557 -0.491297
0.490345 -0.997771
-0.059009 -0.879776
0.200115 -0.883278
-0.705483 -1.107931
0.020500 -0.745155
-0.174625 -0.513500
-0.038705 -0.271986
0.398807 -0.520159
0.568303 -0.637583
0.618752 -0.797760
0.405240 -1.127954
0.004139 -0.765494
-0.217003 -1.157300
-0.294306 -0.810893
-0.293202 -0.855676
-0.302576 -0.228841
-0.354370 -0.533962
0.584202 -0.574491
0.091823 -1.014925
0.127190 -1.308298
-0.290053 -1.009001
-0.117531 -1.399348
-0.650238 -0.921832
-0.190660 -1.152562
-0.273702 -0.283988
-0.300919 -0.613367
0.356386 -0.473399
-0.169193 -0.770971
0.507414 -0.822682
-0.352778 -1.288686
-0.455972 -1.683959
-0.828001 -1.246450
-0.576742 -1.342715
-0.906630 -0.916444
-0.612477 -0.995580
-0.618130 -0.520186
-0.386109 -0.990196
-0.060559 -1.292732
-0.142247 -1.380708
-0.088655 -1.360180
-1.003127 -1.536663
-0.648271 -1.096656
-1.429905 -1.191906
-0.733930 -0.180553
-1.027323 -0.351097
0.122393 -0.894109
-0.796661 -0.511555
-0.253991 -1.050746
-0.242328 -0.649807
-0.365306 -1.665607
-0.886160 -0.816267
-1.529061 -1.184645
-1.074417 -0.695909
-1.171600 -0.550139
-0.580361 -0.348580
-0.475366 -0.781994
-0.202598 -1.018127
-0.718157 -0.837673
-0.634363 -1.436250
-0.993762 -1.052755
-1.479450 -1.100461
-1.367158 -0.545198
-1.062498 -0.850303
-0.907452 0.055917
-1.043315 -0.388210
-0.597939 -0.491594
-0.829984 -0.845933
-0.570099 -1.212861
-1.464437 -0.965905
-1.588424 -0.873314
-1.968079 -0.901111
-1.245830 -0.332820
-1.853971 0.267108
-0.626630 -0.006124
-0.792787 0.134257
-0.492313 -1.074110
-0.616577 -0.508543
-1.132538 -0.791992
-0.921815 -0.440121
-1.442867 -1.172032
-1.228522 -0.011393
-1.643933 -0.100232
-0.580730 0.134313
-0.765059 0.024518
-0.370011 -0.819089
-0.608348 -0.517320
-0.930911 -1.220309
-1.041363 0.057742
-1.534215 -0.515539
-1.330367 0.458486
-1.725959 0.084326
-0.900890 0.097310
-0.918179 0.219779
-0.379056 -0.223091
-0.493879 0.051567
-0.779519 -0.282855
-0.781805 -0.684076
-1.278309 -0.581665
-1.720593 -0.362008
-1.213877 -0.180331
-0.752749 0.355319
-0.780205 0.127359
-1.108574 0.498163
-0.582691 -0.020749
-0.376912 -0.052505
-0.670999 -0.633965
-0.657085 0.168871
-1.649280 -0.329724
-0.853878 0.076195
-1.288177 0.443255
-0.636627 0.098702
-0.798886 0.504556
-0.241158 -0.220512
-0.353789 0.331529
-0.575499 -0.511461
-0.823229 -0.162169
-1.068959 -0.286234
-1.136001 0.155152
-1.487046 0.219040
-0.433855 0.709926
-1.021088 0.614563
-0.264576 0.082380
0.303818 0.355044
-0.082663 -0.411815
-0.703154 -0.334675
-0.523839 -0.603074
-0.887586 -0.414527
-1.189182 0.284550
-0.501577 0.423425
-0.119594 0.326737
0.085033 0.866575
0.143910 -0.335469
0.119454 -0.062378
-0.293351 -0.458687
-0.236201 -0.220376
-0.665941 -0.087872
-0.759844 0.333858
-0.776063 0.218388
-0.560255 0.204224
-0.708052 0.679902
0.371317 -0.354071
0.336760 0.312039
-0.197349 -1.004115
0.051900 -0.401267
-1.092017 -0.579544
-0.454174 -0.724377
-1.135071 -0.115718
-0.004617 0.013805
-0.580313 0.798180
0.562149 -0.337289
-0.054599 -0.155839
-0.475070 -0.720784
0.211639 -0.633271
-0.603979 -1.094081
-0.654753 -0.418905
-1.018807 -0.536399
-0.403410 -0.391321
-0.891816 0.525723
0.418703 -0.216910
0.160525 -0.569789
0.222358 -0.243808
-0.179950 -0.910060
-0.108977 -1.255145
-0.747668 -0.501648
-0.784178 -1.152563
-0.900993 0.028486
-0.527877 -0.316958
-0.138148 0.325748
-0.219545 -0.979492
0.629215 -0.572485
-0.636689 -1.369050
0.225358 -1.119284
-1.005862 -0.913327
-0.731103 -1.466469
-1.175694 -0.402009
-0.703489 -0.451215
-0.752696 0.340536
-0.415407 -0.662057
0.026406 -0.346898
-0.443448 -1.538279
-0.267488 -1.911735
-1.329122 -1.654269
-0.617180 -1.583305
-1.998781 -0.966609
-1.386186 -0.670307
-1.041859 -0.379755
-0.384235 -0.621293
-0.501612 -0.478515
-0.044276 -1.140199
-0.848916 -1.382314
-1.140337 -1.916799
-1.519807 -1.596121
-1.535253 -1.494936
-2.083784 -0.426348
-1.643958 -0.786046
-1.169718 -0.169911
-1.321054 -0.787288
-0.648116 -0.671442
-1.585770 -1.136691
-0.030859 -1.946666
-2.028182 -1.252084
-1.876523 -2.040615
-2.718260 -0.613961
-1.956394 -1.059136
-1.793976 0.726510
-1.751891 -0.913811
-0.583362 -0.310426
-1.924067 -1.728950
-0.731084 -1.877830
-2.179935 -1.322696
-1.774186 -1.600130
-2.803705 -0.732279
-2.208855 -0.564529
-2.302590 0.059450
-1.695869 -0.763089
-1.849739 -0.199227
-1.246364 -1.001644
-1.838415 -0.424843
-2.174960 -1.510001
-2.697749 -1.429559
-2.657409 -1.434010
-2.918306 -0.163318
-2.896212 0.056392
-2.443896 0.399055
-3.066051 0.220494
-1.135167 -0.157452
-2.526322 0.230327
-1.376937 -1.571492
-3.175412 -0.707555
-2.132303 -2.451287
-3.907518 0.389968
-3.537867 -0.682690
-3.581517 1.297102
-2.389013 0.418099
-1.473430 0.695872
-1.713638 -0.561435
-1.761307 -0.812345
-2.783924 -1.150554
-2.810421 -1.391180
-3.781164 0.160826
-4.163610 0.247691
-3.204909 1.437803
-3.737895 1.224420
-2.051773 1.236152
-2.310079 0.789227
-2.390531 0.063045
-2.691408 -0.115868
-2.551647 -0.749677
-4.061930 -0.098076
-4.120375 1.003917
-4.598001 1.420679
-3.323477 1.759628
-3.824610 2.027179
-1.290400 1.716431
-2.138650 1.276929
-1.697365 -0.068778
-2.859011 1.290996
-3.798624 -0.964576
-3.505121 1.326204
-5.699619 1.085308
-1.795694 3.136074
-4.902440 2.536477
-0.173273 2.779157
-3.578038 2.671995
-0.920600 0.116080
-3.274820 2.283170
-2.931081 -0.670995
-3.893582 1.352091
-4.871614 1.682251
-2.738279 3.237795
-3.394779 3.262924
-2.683457 4.086025
-1.439789 2.401366
-0.060818 3.015526
-3.335400 0.109506
-1.082015 2.536300
-4.956165 0.531040
-2.627695 1.786067
-5.138138 4.278261
-2.852625 4.195367
-2.603232 5.310475
-0.535558 3.962085
-0.033377 3.980156
-0.022303 -0.047151
-2.384910 3.635870
-2.610626 -1.797118
-2.416656 3.869494
-7.346130 1.406825
-2.728786 7.200383
-4.967805 4.064418
0.607983 5.179843
-0.704659 5.380257
1.310751 2.255496
-1.768731 2.434922
-2.636448 -1.894082
-1.832980 3.998342
-7.319103 0.011816
-3.310688 6.866160
-6.381997 2.422165
2.122530 6.614444
-0.038312 6.432207
2.317454 5.138123
-0.474838 -0.076140
-1.127848 -1.750085
0.479527 0.082791
-5.558481 2.067105
-5.885563 7.472546
-6.479536 2.182490
2.203782 11.427658
2.173312 3.637068
6.459680 12.763820
-0.799135 -6.640409
4.757751 5.926677
-7.361352 -6.524038
-8.560428 10.083243
-27.017838 7.496701
3.233533 -11.809981
-15.618857 16.044230
2.887480 25.022065
12.796295 96.461971
15.404360 -47.137299
-20.029681 0.248760
-59.480592 -107.390991
-18.618290 3.277427
-389.371270 -191.132266
-280.311353 60.931810
-2287.512587 556.350963
