4527.313085 2841.282595
-1019.045238 -1062.301792
16.286230 23.652461
-230.108531 208.137499
-3.334695 71.702876
37.200933 60.098709
-79.501244 -5.717002
-26.361422 28.161973
-7.975651 42.053043
-11.632619 -13.868876
-2.018420 6.948965
-4.033723 5.512154
2.393015 -15.395178
-9.145998 3.266996
-5.219075 8.516464
8.400061 3.543188
-0.240022 1.019652
-2.600596 0.578661
-1.508328 2.172971
-3.668746 1.416817
-2.388883 1.709735
-1.578248 -0.911318
-2.694237 -0.742688
-2.770943 0.398486
0.408124 -1.326030
-1.445382 -0.318152
-1.838442 -0.297502
1.290671 0.243162
-2.477100 -0.019538
-2.268050 0.822743
0.694761 3.758929
-0.226471 -0.338717
-0.568005 -1.427169
-2.428569 1.392230
-1.435002 -0.287223
-0.149349 0.610478
-1.189096 0.939760
1.097995 -0.407959
0.818332 -0.363205
-0.886437 -1.317325
-0.246274 -0.213085
-0.494413 0.562154
-0.092462 -0.365384
-0.139735 -0.179293
-0.758295 -0.297384
-0.487592 -0.298652
-0.416770 -0.381215
-0.526242 -0.608151
-0.854947 -0.446028
-0.466001 -0.079828
-0.132077 0.257473
-0.088499 -0.279763
0.241090 -0.007474
-0.125851 -0.046181
-0.166288 -0.828908
-0.823425 0.104264
-0.960981 0.507482
0.492846 0.204135
-0.111797 -0.208895
-0.595506 -0.715731
-0.037609 -0.001654
-0.565519 -0.266336
-0.363070 -0.245580
-0.000723 0.705074
0.222122 -0.083383
0.259150 -0.290574
-0.332587 0.138210
-0.109892 -0.173821
-0.222529 -0.077760
-0.594281 -0.048551
-0.340434 -0.114781
-0.473050 -0.061195
-0.314817 0.013510
0.076522 -0.209145
-0.069972 -0.557386
-0.265988 -0.198627
0.117160 -0.106570
0.362047 -0.256302
0.071969 -0.096869
0.556710 -0.177842
0.537886 -0.482302
-0.353075 -0.685991
-0.216839 -0.032600
-0.037209 0.209664
-0.065478 -0.312863
0.024520 0.082582
-0.002370 -0.043880
0.156914 -0.484867
-0.130812 -0.105290
-0.069809 -0.225448
0.230707 -0.317074
-0.123921 -0.229572
0.018180 -0.340272
0.058508 -0.237305
-0.208758 -0.222047
0.022473 -0.126928
-0.045754 -0.118468
-0.231694 -0.034794
0.020744 0.305391
0.300732 0.141946
0.164919 -0.085413
0.022131 0.013768
0.140666 0.040374
-0.085155 -0.058410
-0.154944 0.100059
0.097589 0.325159
0.139581 -0.067431
0.051892 -0.190800
-0.147295 0.025361
-0.005380 -0.142220
0.073823 -0.069160
-0.089227 -0.099951
0.136657 -0.220534
0.032937 -0.126951
-0.089525 -0.254806
0.071536 -0.145973
-0.101197 -0.084616
-0.026697 -0.158777
0.051012 -0.008453
-0.068732 -0.093275
0.048747 -0.044791
0.084893 0.027322
0.048570 -0.165592
-0.073997 -0.053965
-0.107138 0.172753
0.081506 0.219222
0.109277 0.179849
0.099289 0.223605
0.144601 0.218707
0.133809 0.082849
-0.006015 0.154923
-0.008907 0.183290
0.165617 0.081863
-0.012299 -0.048185
-0.128246 -0.140551
-0.085939 0.011204
-0.168151 -0.038807
-0.040133 -0.059209
-0.008110 0.079750
0.045265 -0.071908
0.199598 -0.042673
0.134200 -0.044484
0.217129 -0.198714
0.199744 -0.115947
0.091086 -0.186564
0.127168 -0.205997
-0.006335 -0.080292
0.031580 -0.083816
0.117790 -0.101064
-0.042334 -0.157238
-0.072253 -0.071437
0.027087 0.015546
0.077795 -0.077477
0.056276 -0.096878
0.108807 -0.103828
0.107235 -0.172415
-0.036589 -0.197937
-0.023757 -0.031792
0.035465 0.059557
0.086014 -0.040117
0.067832 0.050659
0.011387 0.069845
0.113492 0.041371
0.061586 0.110616
0.054417 0.010228
0.135923 0.014369
0.025931 -0.011007
0.090411 -0.120856
0.087786 -0.096608
-0.019784 -0.188770
0.049803 -0.188100
-0.031017 -0.154734
-0.092163 -0.180312
-0.032509 -0.014210
-0.000033 -0.010723
-0.003595 -0.084567
-0.113891 0.044544
-0.094043 0.156135
-0.018002 0.185604
-0.033925 0.214191
0.027026 0.264008
0.093321 0.171023
0.036073 0.074049
-0.079386 0.119624
-0.034111 0.108357
-0.021429 0.086893
-0.129486 0.041881
-0.082698 0.047868
-0.119872 0.086972
-0.141826 0.028961
-0.045700 0.085772
-0.088400 0.052357
-0.031446 -0.009955
0.037454 0.063697
0.047028 -0.080615
0.096319 -0.146340
0.047406 -0.125274
0.057772 -0.275958
-0.020372 -0.259037
-0.118817 -0.159990
0.023454 -0.149411
0.014650 -0.189829
-0.083244 -0.195421
-0.040365 -0.104168
-0.038556 -0.097666
-0.073372 -0.056691
-0.022075 0.043622
0.071629 0.023519
0.037720 -0.025209
0.015781 -0.023765
0.038024 -0.002025
-0.012008 -0.062810
0.000371 -0.089064
-0.052143 -0.096041
-0.124000 -0.180133
-0.122125 -0.112551
-0.173919 -0.119477
-0.182792 -0.178612
-0.243450 -0.025587
-0.236877 0.023443
-0.131610 0.073565
-0.165994 0.191693
-0.051385 0.201480
0.050455 0.200458
-0.058066 0.145524
-0.044427 0.180288
-0.016104 0.230134
-0.027719 0.125078
-0.035560 0.098039
-0.079137 0.072812
-0.090680 0.008769
-0.119273 0.005811
-0.122135 0.006316
-0.096863 0.002461
-0.071611 -0.021356
-0.068595 -0.020834
-0.100901 -0.013599
-0.057864 0.030506
-0.044788 0.069331
-0.047353 0.027204
-0.028371 0.099155
-0.034103 0.135332
0.063418 0.084222
0.072535 0.090125
0.035890 0.002085
0.077578 -0.023801
-0.009780 -0.028285
-0.040894 -0.085281
-0.040647 -0.006298
-0.084272 -0.018875
-0.057527 -0.057072
-0.135463 0.017023
-0.138782 0.056199
-0.030898 0.096252
-0.040608 0.065035
-0.033578 0.042270
-0.008096 0.068111
-0.028282 0.025084
-0.067987 0.042685
-0.070517 0.099636
-0.046474 0.110719
-0.073605 0.111288
-0.055149 0.159341
-0.016709 0.199297
0.044283 0.150331
0.116215 0.126999
0.099109 0.043216
0.113791 -0.035603
0.097615 -0.014597
0.065792 -0.109985
0.044861 -0.124796
-0.064880 -0.057320
-0.057290 -0.069982
-0.079780 0.006593
-0.150922 0.064127
-0.033619 0.092265
-0.023951 0.072790
-0.081093 -0.012131
-0.050965 0.030811
-0.053852 0.002397
-0.042024 -0.086400
-0.070161 -0.076022
-0.102021 -0.102039
-0.113433 -0.099885
-0.150300 -0.048883
-0.134754 -0.001968
-0.097688 0.023912
-0.057527 0.010685
-0.060502 -0.019241
-0.073308 -0.063878
-0.052718 -0.065337
-0.069121 -0.129365
-0.068097 -0.203458
-0.109271 -0.168929
-0.109373 -0.191969
-0.035949 -0.175559
-0.066180 -0.149886
-0.023731 -0.163872
0.019846 -0.077841
-0.004056 -0.074640
0.060111 -0.045687
0.064340 0.035613
0.100829 -0.037905
0.100132 -0.077669
-0.048111 -0.075509
-0.057825 -0.048556
-0.055009 -0.012058
-0.120541 -0.048114
-0.108915 -0.006563
-0.092329 -0.001480
-0.112306 -0.053790
-0.131201 -0.002821
-0.067371 0.025486
-0.015641 -0.018731
-0.002957 -0.047981
0.057859 -0.049233
0.070925 -0.117533
0.081828 -0.156444
0.084219 -0.134976
0.046139 -0.197722
0.021190 -0.114748
0.028008 0.002580
0.120078 -0.048005
0.094292 0.001747
0.066579 0.037428
0.163832 -0.006167
0.045844 0.001665
0.016142 0.047931
0.164734 0.078256
0.095772 -0.050570
0.026253 -0.068931
0.039968 0.033946
0.009772 -0.020665
-0.014408 0.064223
0.039168 0.198023
0.140449 0.147806
0.137431 0.151897
0.170780 0.172675
0.220582 0.078084
0.132338 0.006004
0.097555 0.028164
0.087783 -0.038617
0.002788 -0.080458
-0.022415 0.028664
0.060159 -0.028716
0.026896 -0.089179
-0.082690 0.031978
0.055315 0.085113
0.111289 0.080071
0.046120 0.084336
0.199122 0.100632
0.177475 -0.017675
0.008764 -0.134768
-0.022269 -0.006503
-0.057356 -0.021957
-0.074227 -0.072978
-0.081171 0.040840
-0.038116 -0.021774
-0.013623 -0.051813
-0.046836 0.014340
0.025520 -0.031940
0.001682 -0.039801
-0.053605 0.016213
0.015728 0.026680
-0.027682 -0.015547
-0.100609 0.025284
-0.074294 0.058831
-0.096342 0.003439
-0.189569 0.081606
-0.112341 0.177478
0.054191 0.144792
0.037862 0.057215
0.074244 0.009540
0.114787 -0.000038
0.036746 -0.091198
0.053471 -0.052534
0.058663 0.005354
0.088634 -0.108584
0.088425 -0.101561
-0.012315 -0.119818
-0.000123 -0.146843
-0.047597 -0.062751
-0.097565 -0.089557
-0.084079 -0.040598
-0.162447 0.044722
-0.137544 0.052426
-0.131406 0.104039
-0.206064 0.108237
-0.194467 0.146603
-0.187251 0.189539
-0.162620 0.161848
-0.113244 0.150870
-0.039864 0.091266
-0.006260 -0.033752
-0.082596 -0.140594
-0.137274 -0.088991
-0.134830 -0.029694
-0.097555 -0.064822
-0.152938 0.013622
-0.189643 0.059701
-0.135451 0.077816
-0.260529 0.143558
-0.270677 0.188642
-0.164275 0.268604
-0.216778 0.198331
-0.157942 0.165155
-0.109631 0.215495
-0.085869 0.079602
0.003704 0.064304
-0.012538 0.040673
0.007196 -0.058922
0.017575 0.039287
0.050045 0.021649
0.099612 -0.063002
0.001119 -0.022119
0.008236 -0.015525
0.010254 -0.041009
-0.088316 0.013683
0.002680 0.127887
0.146758 0.060630
0.126878 -0.025356
0.096032 0.035002
0.210328 0.015268
0.193631 -0.019885
0.105465 -0.024977
0.159329 -0.001727
0.030348 -0.008485
-0.070247 -0.016322
-0.063781 0.104640
-0.182294 0.073430
-0.164219 0.081910
-0.176791 0.171187
-0.232975 0.061736
-0.172963 0.171362
-0.117412 0.212734
-0.022682 0.002328
-0.102662 0.044886
-0.139831 0.063172
-0.028960 -0.011535
-0.154873 0.007581
-0.151102 0.030692
-0.047950 0.012327
-0.154202 -0.055246
-0.173963 0.007714
-0.102404 0.057073
-0.089080 0.030603
-0.089048 0.074187
-0.043983 0.075045
-0.082011 0.138272
-0.056613 0.210090
0.108235 0.170675
-0.006423 0.075176
-0.061018 0.033406
0.020067 0.055443
-0.144665 -0.109729
-0.150182 -0.070737
-0.049951 0.039330
-0.046689 -0.245959
-0.113025 -0.176934
-0.162286 0.010127
0.011450 -0.090891
-0.027393 0.038988
-0.048380 0.094025
0.128600 0.034054
-0.035149 0.056949
-0.040698 0.034549
0.040865 -0.018339
-0.177903 -0.101787
-0.160015 -0.018844
-0.046123 -0.015186
-0.097787 -0.076743
0.032568 0.101413
0.350535 0.009457
0.302350 -0.222710
0.131100 -0.095302
0.369653 0.058521
0.362672 -0.095222
0.200492 -0.132075
0.298107 0.039987
0.185517 -0.238501
-0.060092 -0.297545
-0.198445 0.060518
-0.094322 -0.074397
-0.068626 -0.038256
-0.168021 0.109651
0.077739 -0.084987
-0.026891 -0.039012
-0.159655 -0.015960
0.082356 -0.087647
-0.233930 -0.099297
-0.333087 0.025250
-0.003923 0.175802
-0.111290 -0.093479
-0.159376 -0.093392
0.015956 0.013337
-0.019166 -0.316768
-0.230337 -0.174859
-0.033260 0.180618
0.338154 0.013199
0.219257 -0.206848
0.143509 -0.072200
0.147689 -0.055299
0.001514 -0.150589
-0.060126 0.177862
0.046774 0.183730
0.229548 -0.025952
0.068640 0.036969
0.077626 -0.198557
0.118525 -0.189795
-0.206608 -0.077166
0.008216 -0.112250
-0.021184 0.095576
-0.236725 0.102358
0.197805 0.257236
0.143365 0.119059
-0.104523 -0.299780
-0.192034 0.032835
-0.280194 0.034576
-0.092657 -0.162158
-0.124063 0.047694
0.094894 -0.127990
0.283305 -0.414952
-0.172948 -0.430566
-0.268828 0.006404
0.087922 0.383097
0.298264 0.315909
0.245204 0.355231
0.393896 0.295494
0.378210 0.081822
-0.100888 -0.144989
-0.063271 -0.043713
-0.125382 0.018206
-0.220917 -0.323158
0.087741 -0.011320
0.082360 -0.149458
0.329132 -0.524116
0.325338 -0.019642
0.242248 -0.350450
0.335757 -0.184771
0.046645 0.688909
0.894304 0.309203
1.010686 -0.132207
-0.090562 -0.274986
0.311637 -0.150928
0.049092 -0.229764
-0.716136 -0.212847
0.137492 0.756759
0.801765 0.190200
0.332827 -0.676139
-0.031788 0.156532
0.413929 0.212357
0.112773 -0.128220
-0.251815 0.495606
0.378877 0.748061
0.088831 0.014119
-0.102529 0.270631
0.228870 0.464648
-0.038705 -0.810314
-0.524123 0.057219
-0.344471 0.701785
0.544642 -0.255324
-0.089675 0.974956
0.701429 1.024700
2.079601 -0.345312
-0.818389 -0.276729
-0.846311 0.903299
1.098395 1.692008
-0.444927 0.123574
0.151783 0.637191
1.140535 0.911843
-0.003645 -1.942502
-0.806539 -0.274295
-0.257813 1.276189
1.077047 -0.285671
0.435083 0.793547
0.825286 1.243988
1.302526 0.460955
-0.103450 1.280147
0.752542 1.906325
0.235505 0.021058
-1.841465 0.590166
-1.076257 3.136509
1.088952 -0.057401
0.036813 -0.490553
-1.106018 1.038910
2.829290 -1.908921
-1.084839 -0.870383
-3.794913 1.992558
4.674607 5.144726
1.893029 2.384322
-0.831933 -1.654391
-0.241822 5.117354
-6.006708 2.155915
-2.194548 2.144424
-3.077302 8.160550
-3.221407 -1.971059
1.981899 1.538636
-3.276260 1.612810
0.221313 -5.880027
0.658870 10.169304
5.952252 5.784190
8.127745 -5.981792
-21.436985 13.028633
-11.056048 37.587295
9.408892 25.705480
-23.755547 3.547711
-58.378367 35.033815
-50.078833 -13.868462
-100.253932 -16.090699
-380.902121 62.552404
589.480656 -613.475342
