2635.936164 4106.860607
-1349.324271 189.689679
60.522286 -2.138314
-200.156899 84.169637
-56.203374 31.350727
-110.474616 76.191538
-16.328401 11.479169
-14.193912 12.879803
26.578285 -43.268824
10.627699 -25.233879
11.266309 -37.960126
-2.999910 -0.778275
-3.317959 -4.233103
-3.587802 14.380829
-3.236988 -2.440067
-0.642911 1.926120
-3.227365 -10.984858
1.222240 -3.395601
-1.102103 -7.283338
3.769212 0.176223
-0.365833 -2.092453
2.634141 1.773260
-1.286854 -0.044065
2.745789 1.326887
0.798842 -0.334553
3.719028 -0.625206
0.269977 -1.009394
0.288857 -0.282305
-2.800603 1.309086
-1.722399 1.852821
-1.843005 1.901776
-0.101606 0.178728
-0.232895 -0.923689
-0.243788 -1.645879
-0.947475 -0.884885
-1.050840 0.302309
-0.853031 1.056786
-0.526621 1.440964
-0.408760 0.619887
-0.454641 0.488465
-0.695895 -0.489071
-0.540050 -0.104045
-0.803690 -0.886316
-0.447880 -0.252362
-0.994377 -0.793243
-0.318633 0.129447
-0.674375 -0.184475
0.569148 0.363524
0.006164 -0.322256
0.793483 -0.310833
-0.617032 -0.597529
-0.097170 -0.169057
-1.182839 0.351376
0.059993 0.562016
-0.444875 0.724627
0.663038 -0.025523
-0.229347 -0.035812
0.242808 -0.760021
-0.602090 -0.087214
-0.074281 -0.462989
-0.432574 0.481770
-0.011807 0.015426
-0.261433 0.895638
-0.108610 0.337441
-0.093337 0.980610
0.038031 0.128046
0.228407 0.325020
0.043381 -0.527923
0.092793 -0.142664
-0.259067 -0.321202
0.026513 0.351386
-0.077629 0.286996
0.349945 0.408713
0.099296 -0.033610
0.176487 -0.217230
-0.258294 -0.334458
-0.194849 -0.140672
-0.297178 0.149153
-0.034051 0.308456
0.022870 0.344820
0.084688 0.148501
0.011096 -0.001693
-0.098227 -0.114470
-0.069318 -0.070772
-0.081313 0.092929
0.094903 0.202224
0.085995 0.373096
0.199722 0.249178
0.106651 0.252119
0.133880 -0.097843
0.056387 -0.096208
0.054079 -0.383227
0.043778 -0.143362
-0.012770 -0.224784
0.029624 0.167824
-0.083944 0.100958
0.055643 0.358045
-0.048804 0.120352
0.201522 0.143772
0.052463 -0.168249
0.258152 -0.187905
-0.044907 -0.300745
0.086150 -0.171261
-0.211306 -0.045635
0.026449 0.066238
-0.126326 0.150819
0.140169 0.033269
-0.036451 0.046271
0.081970 -0.114499
-0.109692 0.031958
-0.002911 -0.066344
-0.041792 0.094450
0.081635 -0.105168
0.074740 -0.032811
0.058954 -0.214066
0.022987 -0.043415
-0.033406 -0.069687
0.032006 0.109781
0.011156 0.028237
0.105139 0.022809
0.031768 -0.117266
0.101803 -0.150032
0.044464 -0.166284
0.135838 -0.152644
0.070370 -0.105650
0.042486 -0.113394
-0.116375 -0.013447
-0.192721 0.024812
-0.192027 0.166863
-0.072105 0.129263
0.121089 0.096697
0.193713 -0.106496
0.207924 -0.189944
0.016137 -0.232945
-0.076799 -0.094751
-0.219024 0.056778
-0.138874 0.163680
-0.149316 0.174491
-0.050814 0.074832
-0.107063 0.031949
-0.050318 -0.036058
-0.045580 0.022106
0.070146 -0.042465
0.106244 -0.040586
0.104604 -0.171948
0.018409 -0.135129
-0.076053 -0.130535
-0.080210 0.028550
-0.047321 0.054018
0.060443 0.067541
0.042423 -0.067742
0.013477 -0.156764
-0.133382 -0.205943
-0.155888 -0.156925
-0.166392 -0.065233
-0.042747 -0.022118
0.009326 0.016659
0.047956 -0.007688
-0.004934 0.065976
-0.039166 0.107156
-0.027502 0.219115
0.018935 0.188374
0.102732 0.147354
0.094259 -0.018262
0.092704 -0.107999
-0.014274 -0.189004
-0.015423 -0.156474
-0.068735 -0.107520
0.024404 -0.040366
0.024250 0.006677
0.110628 0.002976
0.039886 0.008966
0.015093 -0.037296
-0.136616 -0.001345
-0.176028 -0.007586
-0.211105 0.085228
-0.076639 0.060812
0.059512 0.074935
0.204960 -0.063395
0.207012 -0.087955
0.114518 -0.136150
-0.024472 0.016322
-0.101422 0.102032
-0.066191 0.207083
0.007165 0.082272
0.064106 -0.054319
0.004926 -0.236944
-0.077034 -0.199253
-0.152373 -0.074015
-0.099133 0.155029
-0.013402 0.224672
0.074556 0.183021
0.032896 -0.011495
-0.056770 -0.128752
-0.153424 -0.176737
-0.115394 -0.074601
0.002340 -0.010859
0.159416 0.031950
0.198688 -0.055013
0.141951 -0.109890
-0.009321 -0.183247
-0.098828 -0.152473
-0.144070 -0.164339
-0.086729 -0.127182
-0.065787 -0.150012
-0.016892 -0.082964
-0.035257 -0.035146
0.021847 0.073218
0.029331 0.081958
0.098101 0.076062
0.056519 -0.005377
0.069756 -0.019243
0.011403 -0.014347
0.076403 0.049283
0.072840 0.068424
0.130762 0.059963
0.038946 0.015441
-0.001338 -0.006387
-0.111732 0.001505
-0.068712 0.006749
-0.060749 -0.017194
0.027593 -0.096649
-0.028436 -0.153282
-0.061893 -0.163750
-0.186793 -0.062218
-0.183697 0.054309
-0.195533 0.164049
-0.096523 0.147312
-0.087876 0.079389
-0.035809 -0.061526
-0.079008 -0.132509
-0.040980 -0.194551
-0.063896 -0.153692
-0.010993 -0.136512
-0.040842 -0.043794
-0.005497 -0.020110
-0.027706 0.051174
0.031782 -0.000247
0.030128 -0.011693
0.058512 -0.124068
0.001371 -0.103774
-0.025450 -0.118125
-0.066654 0.019352
-0.039366 0.039255
-0.006608 0.109200
0.025380 -0.002699
0.023333 -0.027965
-0.013330 -0.132862
-0.024608 -0.061163
-0.034871 -0.043448
0.016659 0.085651
0.016918 0.085329
0.034677 0.127273
-0.047323 0.050996
-0.086267 0.036821
-0.179552 -0.035987
-0.166430 -0.033742
-0.176364 -0.059570
-0.079682 -0.025910
-0.031033 -0.014503
0.073353 0.024266
0.084155 0.033164
0.099997 0.049133
0.019466 0.045813
-0.037316 0.054642
-0.120812 0.049651
-0.127690 0.048857
-0.118968 0.018856
-0.047588 -0.004999
0.003571 -0.052637
0.063308 -0.065562
0.059220 -0.092710
0.046671 -0.065450
-0.026144 -0.055063
-0.060150 0.016601
-0.113089 0.051614
-0.075997 0.115534
-0.076719 0.093922
-0.020019 0.065815
-0.078313 -0.030930
-0.086319 -0.084833
-0.183514 -0.121199
-0.132754 -0.088173
-0.117019 -0.033084
0.049222 0.014307
0.092593 0.051604
0.181048 0.033843
0.086156 0.043651
0.048179 -0.004722
-0.080136 0.010735
-0.073936 -0.055690
-0.086226 -0.034529
0.008849 -0.098229
0.060717 -0.041618
0.126604 -0.075360
0.123104 0.001980
0.081860 -0.033454
0.019647 0.028823
-0.053613 -0.005150
-0.060669 0.057951
-0.069948 0.042767
-0.012765 0.090984
-0.028760 0.070494
-0.016964 0.086173
-0.088703 0.068130
-0.089250 0.065333
-0.116731 0.051166
-0.063223 0.023905
-0.052360 0.017818
-0.026054 0.004729
-0.049863 0.043882
-0.068371 0.048709
-0.079803 0.062551
-0.086910 -0.003256
-0.065606 -0.062647
-0.076010 -0.134699
-0.043177 -0.138268
-0.050666 -0.101257
-0.000330 -0.048445
-0.017757 -0.006227
-0.005394 -0.030171
-0.069667 -0.040698
-0.079265 -0.094515
-0.093716 -0.063818
-0.028782 -0.084901
0.035491 -0.028709
0.086756 -0.061343
0.091761 -0.005037
0.034286 -0.012781
0.000067 0.081997
-0.055663 0.099612
-0.020117 0.153704
-0.038456 0.104197
0.012088 0.065671
-0.038318 -0.005773
-0.007313 -0.034858
-0.053556 -0.025304
0.000218 -0.002703
-0.023985 0.063417
0.007047 0.078774
-0.045850 0.137008
-0.064613 0.103605
-0.107407 0.122026
-0.110316 0.038269
-0.083864 0.031849
-0.061931 -0.044858
-0.005385 -0.020217
-0.020255 -0.044062
0.009014 -0.004605
-0.063375 -0.022360
-0.052567 -0.026865
-0.130142 -0.044036
-0.078785 -0.047408
-0.096708 0.008270
0.007214 0.038207
0.011604 0.121721
0.059397 0.084148
-0.021073 0.099901
-0.087320 -0.010834
-0.184164 0.021195
-0.196461 -0.025803
-0.114612 0.093293
0.017292 0.080648
0.189387 0.153454
0.229519 0.058129
0.235136 0.046440
0.069140 -0.048913
-0.012312 -0.030752
-0.156302 -0.050756
-0.116279 -0.020751
-0.142993 -0.029080
-0.040717 -0.033698
-0.058457 -0.025816
0.011838 -0.030299
-0.021272 0.003516
0.011527 -0.011526
-0.033932 0.032606
-0.031046 0.038549
-0.035755 0.123626
0.019415 0.144247
0.095701 0.171360
0.135816 0.101385
0.126664 0.043744
0.026167 0.007927
-0.040453 0.037507
-0.071221 0.104952
0.015211 0.087193
0.097115 0.022991
0.130362 -0.149160
0.057780 -0.176201
-0.073357 -0.136454
-0.125752 0.126247
-0.126635 0.281483
-0.000510 0.385516
-0.010553 0.199842
-0.009852 0.010548
-0.201457 -0.194716
-0.180375 -0.178818
-0.185569 -0.085942
0.103380 0.036138
0.178043 0.067609
0.302855 -0.016434
0.059728 -0.063032
-0.050624 -0.131179
-0.277757 -0.032352
-0.182132 -0.053507
-0.146973 0.039840
0.040467 -0.076775
0.038532 0.001141
0.071138 -0.087272
0.009235 0.066502
0.021038 -0.001398
0.043688 0.123781
0.083123 0.017222
0.148041 0.119533
0.149474 0.025045
0.181984 0.091911
0.080560 -0.039041
0.028084 -0.026931
-0.122616 -0.103939
-0.098685 -0.011913
-0.086190 0.012495
0.072894 0.073769
0.077905 0.012826
0.045268 -0.026686
-0.155490 -0.055829
-0.268377 0.021316
-0.300862 0.105214
-0.163787 0.171915
-0.016376 0.128153
0.064972 0.089706
0.040180 0.040756
-0.017056 0.115915
-0.008556 0.106700
0.062428 0.102008
0.120050 -0.115116
0.085296 -0.198055
-0.064598 -0.288538
-0.168962 -0.043519
-0.212512 0.096021
-0.049806 0.304320
0.038830 0.126312
0.172197 0.001697
0.037615 -0.258049
0.050286 -0.174463
-0.092474 -0.096370
0.062716 0.139422
-0.048575 0.153019
0.033110 0.147058
-0.231949 0.047535
-0.144610 0.034861
-0.220225 0.067250
0.128151 0.055970
0.151128 0.049857
0.318292 -0.068034
0.036065 -0.009847
-0.025640 -0.015368
-0.244611 0.180849
-0.095948 0.126043
-0.078027 0.187620
0.087177 -0.009004
0.028787 0.071580
0.067985 -0.005665
0.038531 0.164004
0.130374 0.034271
0.153512 0.039435
0.153918 -0.182093
0.065074 -0.115666
-0.021332 -0.123694
-0.081006 0.097428
-0.101382 0.105612
-0.107484 0.175201
-0.099865 0.041289
-0.054962 0.052613
0.061573 -0.027276
0.185777 0.045783
0.265284 -0.017541
0.182890 0.045025
0.024228 -0.018963
-0.169181 0.082512
-0.211225 0.013675
-0.150916 0.075404
0.013334 -0.071983
0.130504 0.010621
0.201019 -0.048419
0.220048 0.149270
0.196069 0.056161
0.159307 0.098093
0.010002 -0.163400
-0.088218 -0.101855
-0.208276 -0.147415
-0.058866 0.138430
0.059394 0.108521
0.304863 0.132792
0.194275 -0.182065
0.124200 -0.241746
-0.165507 -0.308762
-0.066063 -0.077649
-0.047965 -0.028594
0.199320 -0.012643
-0.000197 -0.202669
-0.141952 -0.233612
-0.513369 -0.144325
-0.393823 0.099183
-0.243417 0.206929
0.195265 0.113215
0.206274 -0.127092
0.183921 -0.275886
-0.111272 -0.207315
-0.004936 -0.029075
0.124957 0.049708
0.481346 -0.113960
0.379034 -0.354480
0.184795 -0.462883
-0.309153 -0.260907
-0.374670 0.015909
-0.355776 0.175937
0.034355 -0.047549
0.092794 -0.321873
0.177224 -0.529831
-0.054452 -0.255557
-0.031124 0.044552
-0.155264 0.398444
-0.186131 0.221881
-0.482095 0.101738
-0.644468 -0.166365
-0.586747 0.101273
-0.189758 0.211347
0.306265 0.447849
0.318598 0.147883
-0.047714 -0.040902
-0.905540 -0.310057
-1.181958 -0.239125
-1.172022 -0.173701
-0.316385 -0.207242
0.058063 -0.154974
0.388694 -0.167074
-0.147652 0.400629
-0.361274 0.422405
-0.682116 0.601151
-0.524726 -0.555717
-0.504139 -0.902380
-0.549626 -1.627765
-0.330706 -0.247230
-0.248248 0.379313
0.469728 1.742415
-0.122134 0.606876
-0.292529 -0.100706
-2.147088 -1.787780
-1.627181 -1.151519
-1.801754 -0.256748
1.157513 1.692822
1.148262 2.475365
2.291035 2.363529
-0.936379 1.763488
-1.201772 0.291699
-3.163294 -0.222238
-0.468100 -2.285934
-0.377029 -1.839505
1.396242 -2.345264
-0.654356 1.778787
-0.774504 3.145932
-1.549781 5.724407
-0.292418 0.827224
-0.062643 -2.929938
-0.928738 -7.453002
-0.961151 -2.313212
1.135074 7.780342
7.773550 18.200564
13.131516 20.781914
10.340718 5.893070
-1.195537 -8.370850
-24.850814 -26.996198
-21.853297 -5.938581
-19.052138 9.719338
74.001523 72.015232
56.376702 57.399280
245.312308 99.086830
-1005.732617 -93.005235
