3461.913024 1775.882533
-1459.210126 -194.018634
-22.654516 17.648858
-284.706756 -123.339715
60.609031 38.457527
-60.851362 -35.959166
-52.841662 -59.669876
17.364610 34.443722
-21.801211 -36.834519
-5.031028 -17.385159
-6.861308 2.298494
1.795908 -6.588485
1.714558 -15.484652
-9.704925 0.234956
9.985032 0.214805
-4.057103 -8.171219
0.636109 -0.833790
2.376560 1.191695
-2.213686 -1.445970
3.125384 -2.378753
-1.512312 2.514430
-1.714391 -0.592055
2.783254 -0.123531
-2.695882 0.727701
-1.349687 -0.307756
0.457808 1.397467
-1.443207 -1.162131
-1.323064 -0.016891
-2.239403 1.038304
1.826541 -1.567867
-3.825558 -0.234576
-0.388980 0.067752
0.806998 -1.292440
-2.788673 -0.210722
0.425063 -1.388931
-0.595253 0.228106
-0.147992 -1.508801
-1.028615 -0.568819
0.896001 -0.062796
-0.767732 -1.371422
0.235188 0.201949
0.055524 -0.752292
0.132783 -0.334722
-0.039137 0.206261
0.071351 -0.798251
0.365219 0.420088
-0.547538 -0.014891
0.586711 -0.523140
-0.530555 0.788014
0.135146 -0.443680
-0.245581 0.180237
-0.235352 0.137306
-0.246143 -0.011375
-0.091946 0.083007
-0.677312 -0.467958
0.060573 0.827396
-0.378665 -1.027380
-0.511836 0.187226
0.003693 0.215322
-0.417302 -0.810703
-0.013191 0.041391
-0.589475 -0.174696
0.376035 -0.198353
-0.398055 -0.612879
-0.132135 0.185206
0.187016 -0.317172
-0.160586 -0.338069
0.119596 -0.142305
-0.160235 0.169094
0.182830 -0.571800
0.181954 0.307903
-0.402381 -0.264395
0.322112 0.047447
0.159492 0.108817
-0.476079 -0.243977
0.246080 0.211921
0.039434 0.125246
-0.350228 -0.226770
0.087701 0.020116
-0.304450 0.473170
0.260409 -0.641345
-0.678932 0.327911
0.233628 -0.009562
-0.188744 -0.155071
-0.249867 -0.160380
-0.105512 0.033387
-0.028117 0.000599
-0.155147 -0.450996
-0.070791 0.156851
-0.167534 -0.141577
0.196164 -0.297393
-0.235249 0.091064
-0.012094 -0.314314
0.159972 0.142451
-0.134690 -0.277192
0.097271 -0.032949
-0.113874 0.041308
0.260641 -0.033645
-0.224001 -0.240069
0.101304 0.297569
0.006032 -0.146025
0.006846 -0.036032
-0.098543 0.071244
-0.063379 0.110386
0.154471 -0.164269
-0.336578 0.089073
0.064035 0.093227
-0.034625 -0.171697
-0.163768 0.099243
-0.117615 -0.068088
0.035926 -0.053686
-0.156842 0.016164
-0.123626 -0.193130
0.074594 0.090129
-0.221173 -0.170558
0.110160 -0.086938
-0.165270 0.003629
0.045682 -0.162536
0.006084 -0.001264
-0.072675 -0.126322
0.036163 -0.021736
0.046469 -0.009730
-0.031910 -0.162243
-0.042916 0.126555
0.187651 -0.134046
-0.204136 0.077250
0.127366 -0.134593
-0.004436 0.223295
-0.093676 -0.212242
0.065565 0.091582
-0.096594 0.121317
0.014118 -0.180965
-0.097696 0.093804
0.007144 0.087147
-0.141790 -0.188823
0.075825 0.111737
-0.222527 -0.028326
0.066622 -0.098146
-0.081423 0.006178
-0.093792 -0.008209
-0.027079 -0.163343
0.056442 0.095649
-0.223855 -0.171528
0.207552 -0.031111
-0.217052 0.037068
0.149804 -0.200143
-0.086085 0.088238
-0.021002 -0.115681
0.152531 0.022858
-0.191560 -0.088601
0.154865 0.030954
-0.021180 0.016875
-0.070773 -0.100135
0.120849 0.067813
-0.145471 0.070171
0.132348 -0.183598
-0.142613 0.209505
0.031851 -0.092810
-0.010584 -0.007222
-0.086638 0.053739
-0.022365 -0.026183
-0.014645 -0.024802
-0.080630 0.019254
-0.031234 -0.058673
-0.041678 0.027608
-0.037126 -0.109328
-0.017251 0.063758
-0.125384 -0.140810
0.163946 0.028016
-0.248684 -0.025437
0.170034 -0.180894
-0.099635 0.195945
0.009590 -0.264122
0.038640 0.080679
-0.073071 -0.008633
0.121372 -0.083788
-0.126666 -0.009724
0.132972 0.043259
-0.119032 -0.037997
0.144897 -0.056976
-0.161879 0.118740
0.108633 -0.086571
-0.026982 0.022383
-0.086073 0.043771
0.038164 -0.038137
-0.002475 0.027974
-0.127188 0.001654
0.060631 -0.049909
-0.070456 0.089336
-0.056355 -0.125084
0.010106 0.038162
-0.076371 0.001712
-0.020063 -0.074922
0.025934 -0.047604
-0.132878 0.089211
0.063257 -0.233022
0.042889 0.197740
-0.233677 -0.260564
0.294126 0.133683
-0.236824 -0.047764
0.106166 -0.191273
0.015778 0.255797
-0.082748 -0.248850
0.148207 0.073534
-0.155227 0.030183
0.104376 -0.062879
0.015275 0.016779
-0.113982 0.027746
0.106956 -0.041334
-0.064182 0.076195
-0.026128 -0.097574
0.025935 0.119232
-0.116507 -0.094850
0.136526 0.057196
-0.241792 -0.012939
0.156528 -0.081373
-0.128786 0.161114
-0.016699 -0.258622
0.000988 0.199893
-0.068303 -0.166629
0.037984 0.068736
-0.100409 -0.153597
0.082490 0.139131
-0.114951 -0.160746
0.105595 -0.025691
-0.103600 0.103322
0.052507 -0.195650
0.021890 0.098486
-0.053939 -0.052007
0.038703 -0.023261
0.027641 -0.002663
-0.048483 0.019909
0.030374 -0.044134
0.011193 0.029304
-0.038621 0.014693
0.018121 -0.034807
-0.026007 0.030589
-0.003286 0.023002
-0.046393 -0.044699
0.025394 0.020603
-0.089531 0.049374
0.035776 -0.130556
-0.058611 0.149863
-0.046542 -0.166563
0.042550 0.104459
-0.118665 -0.101637
0.068889 0.020384
-0.079380 -0.037804
0.007703 -0.035609
-0.011789 -0.002976
0.007175 -0.049307
-0.061296 -0.024745
0.093963 0.012248
-0.101038 -0.068424
0.091129 -0.001912
-0.067744 0.034083
0.056293 -0.097927
-0.000061 0.068004
-0.067135 -0.019172
0.117489 -0.051996
-0.090766 0.111552
-0.020668 -0.142427
0.122614 0.150953
-0.222761 -0.093590
0.219275 0.018563
-0.240841 0.062725
0.151696 -0.109170
-0.121910 0.132811
-0.005297 -0.165634
0.003848 0.144327
-0.062784 -0.116089
-0.001900 0.007439
-0.015215 -0.010218
-0.062321 0.012412
0.060145 -0.138769
-0.083998 0.124984
0.005408 -0.134378
0.053496 0.011892
-0.091009 -0.011412
0.054468 -0.035015
0.003000 -0.023636
-0.019998 0.015747
0.010497 -0.066041
0.026028 0.072207
-0.038778 -0.102761
0.060677 0.098866
-0.079301 -0.078259
0.076076 0.037558
-0.055017 0.021557
-0.013201 -0.039089
0.016590 0.016268
-0.024804 0.062477
-0.073196 -0.112090
0.087891 0.088402
-0.142997 -0.008796
0.047665 -0.086482
-0.025471 0.081450
-0.063125 -0.057202
-0.000422 -0.035369
0.009521 0.004859
-0.078855 0.008823
0.036694 -0.132398
-0.030638 0.112103
-0.001985 -0.105354
-0.021881 -0.039674
0.043911 0.048403
-0.074679 -0.048003
0.098668 -0.081413
-0.072997 0.114868
0.003614 -0.127130
0.108627 0.060849
-0.160116 -0.025789
0.132493 -0.007080
-0.059633 0.032989
0.011762 -0.035183
-0.044804 0.017678
0.060134 0.019887
-0.098183 0.005270
0.055271 -0.061638
-0.082623 0.091445
0.017903 -0.036263
-0.031436 -0.070275
-0.024617 0.087142
-0.078381 -0.053750
0.102315 -0.047979
-0.136671 0.033666
-0.022677 -0.067715
0.113227 0.037451
-0.156093 -0.106825
0.044878 0.027233
0.021412 0.000482
-0.047846 -0.085460
0.056322 -0.014699
-0.116829 0.080138
0.179459 -0.185258
-0.123305 0.185681
-0.015436 -0.223127
0.145972 0.208129
-0.151941 -0.142429
0.091576 0.011615
-0.048742 0.071179
0.017788 -0.020033
-0.001495 -0.069851
-0.059598 0.097974
0.006113 -0.014844
0.047142 -0.040744
-0.167173 0.006021
0.116763 0.041973
-0.121803 -0.020286
0.064227 -0.103014
-0.143715 0.115452
0.085819 -0.061913
-0.068744 -0.103168
-0.001359 0.098161
-0.094952 -0.091293
0.153678 -0.033219
-0.166505 0.024361
0.043588 -0.105200
0.053127 0.080185
-0.072966 -0.103575
0.052602 -0.014140
-0.049569 0.063345
0.073758 -0.110703
-0.018518 0.067562
-0.086726 -0.059723
0.175296 0.040713
-0.159992 0.030007
0.065972 -0.160206
-0.008545 0.277584
-0.037882 -0.253112
0.015249 0.139023
-0.058500 -0.019605
-0.000511 -0.001523
0.001132 -0.041633
-0.094647 0.060130
0.022505 -0.068167
-0.004930 0.018896
-0.126607 -0.027224
0.113103 -0.051802
-0.152797 0.064986
0.072087 -0.171638
-0.042689 0.141549
-0.061228 -0.194916
0.115209 0.122168
-0.179591 -0.143495
0.203858 0.015981
-0.198219 0.063346
0.146204 -0.237948
-0.016229 0.278618
-0.121331 -0.263818
0.227025 0.112788
-0.202320 0.021725
0.071502 -0.081645
0.096578 0.030941
-0.218127 0.081696
0.183599 -0.147464
-0.094744 0.180132
-0.074891 -0.172876
0.110868 0.173944
-0.198327 -0.131557
0.183459 0.010020
-0.289866 0.131411
0.201016 -0.275590
-0.114137 0.272548
-0.149204 -0.252215
0.206022 0.087107
-0.213308 -0.018686
0.044152 -0.114760
0.009492 0.028862
-0.049381 -0.003739
0.009189 -0.123243
0.007875 0.025053
-0.045458 0.014580
0.083037 -0.121413
-0.061043 0.065371
0.002671 -0.081450
0.066638 0.083219
-0.032962 -0.113983
-0.049421 0.040346
0.114771 0.064970
-0.126514 -0.072462
0.081597 -0.038128
-0.080073 0.190792
-0.010116 -0.204306
0.049066 0.125348
-0.164258 -0.039312
0.072745 0.031342
-0.072108 -0.081343
-0.003826 0.074367
-0.159878 -0.083371
0.160621 -0.014745
-0.194388 0.054431
0.022092 -0.224800
-0.011080 0.196164
-0.037863 -0.180125
-0.002494 -0.061095
-0.046017 0.078341
0.012752 -0.124247
0.068221 -0.026729
-0.146565 -0.004105
0.121216 -0.058923
0.017838 0.050469
-0.103837 -0.139241
0.122052 0.100648
-0.071751 -0.029267
0.054464 -0.039756
-0.054259 0.035289
0.022588 -0.014187
-0.042975 0.090986
0.030960 -0.157994
-0.101715 0.154783
-0.004201 -0.037395
-0.013782 -0.026861
-0.038867 -0.040744
-0.152769 0.111663
0.073458 -0.143352
-0.003700 0.011526
-0.287919 -0.008784
0.218973 -0.068857
-0.124394 -0.009125
-0.091362 -0.105691
0.007145 -0.013572
0.058275 -0.005977
-0.103900 -0.137784
0.015899 -0.020207
-0.003268 0.004184
0.088931 -0.044285
-0.135455 -0.126879
0.106724 0.060111
-0.010099 0.040249
0.010956 -0.112899
-0.021496 -0.109843
0.009817 0.398776
-0.035024 -0.425590
0.145867 0.155572
-0.373049 0.193913
0.312153 -0.290779
-0.127773 0.260201
-0.245951 -0.246532
0.171624 0.297853
-0.111278 -0.288330
-0.119564 0.102711
-0.087081 -0.036946
0.047112 -0.015751
-0.095241 -0.126013
-0.152077 -0.029798
0.047569 0.002200
-0.031222 -0.108619
-0.023988 -0.155644
-0.201647 0.062528
0.269625 -0.098923
-0.136859 -0.122256
-0.097788 -0.051940
0.142521 0.019758
0.063718 -0.008967
-0.161874 -0.265107
0.063525 0.241462
0.189243 -0.019781
-0.287951 -0.251102
0.230472 0.231560
-0.191881 0.033724
0.120303 -0.151596
-0.126541 0.065782
-0.118079 0.154119
0.110315 -0.187469
-0.238636 0.122104
-0.005270 -0.119401
-0.153562 0.147980
0.000311 -0.230049
-0.176486 0.038706
-0.082766 -0.057623
-0.102390 -0.058086
0.076716 -0.226438
-0.357046 0.060120
0.185666 -0.127139
-0.079969 -0.274348
-0.115034 0.128874
-0.002539 -0.258967
0.137942 -0.062903
-0.092839 -0.079651
-0.156123 -0.021060
0.473383 -0.146384
-0.428571 -0.039708
0.171031 0.180358
0.127378 -0.405442
-0.074405 0.462930
-0.269269 -0.380190
0.425967 0.305996
-0.381123 -0.154147
-0.086614 0.114569
0.030061 -0.039480
-0.079938 0.089229
-0.342819 -0.109299
-0.091623 -0.045980
0.094452 0.121069
-0.567167 -0.199788
0.093565 -0.322815
-0.225071 0.341426
-0.191432 -0.326579
0.041829 -0.717910
-0.513339 0.814249
0.388997 -0.945613
-0.261587 0.003667
-0.193144 -0.279596
0.060998 0.200550
0.442503 -0.588940
-0.718314 -0.342078
0.488954 0.673537
0.072122 -0.727635
-0.041895 -0.179722
-0.167431 0.446735
0.127903 -0.083357
0.386364 -0.430027
-0.726035 0.458915
0.083123 -0.044122
0.271614 0.153144
-0.423992 -0.328829
-0.741229 0.272298
0.415677 0.335892
-0.419998 -0.683974
-0.558090 0.185964
-0.993229 -0.109685
1.238059 0.200800
-1.647715 -1.299752
-0.788064 0.356212
1.252466 0.087919
-1.479019 -1.386832
-0.069576 -0.468670
-0.434766 0.508070
0.990401 -1.077459
-1.338697 -1.387220
0.123126 0.846671
1.030959 -0.819543
-0.828604 -0.727275
0.290647 -0.864182
0.323985 1.462422
-0.281828 -1.347900
1.087188 -0.705125
-1.502995 1.402523
0.217142 -0.071373
1.705357 -0.935474
-3.254829 0.689784
0.483373 0.967180
0.175479 -0.450764
-1.302712 -0.799747
-3.302966 0.816080
0.747387 1.176077
-0.196669 -4.291584
-6.329233 2.870839
1.308418 -2.747876
-0.696017 -1.715335
-5.124584 -0.172642
-1.303173 -6.255398
1.224472 2.821171
-4.966221 -7.175601
0.551764 -3.739909
-1.416198 -2.067381
-0.414019 -3.634000
1.910929 -5.563180
-2.030538 -9.987509
0.811797 8.257702
6.309741 -7.870911
-1.134532 -25.063540
-2.385302 39.108495
1.789184 -27.314294
17.252808 -16.714448
-36.227292 57.647592
-40.118269 -33.028916
100.119513 16.914226
-382.056003 55.073391
-843.271047 112.840051
