2074.320361 945.672004
-1258.444023 418.088570
-83.332968 -51.727705
-58.403721 -3.583633
-64.081813 -68.705174
21.906059 -53.534446
-33.847295 9.034670
8.461966 -8.266223
-16.457092 39.932150
-11.092099 2.760348
-8.761421 6.675450
-10.023838 -10.808986
0.431970 -17.754998
4.828063 -5.686071
4.719675 -6.428754
8.122369 8.174868
-2.511406 8.109517
-2.765017 4.212662
-7.440736 3.113805
-5.367920 -6.367264
0.499739 -3.531223
2.973685 -5.441047
8.327439 0.457941
3.910046 3.926742
1.340548 4.174113
-2.557481 4.360467
-6.727763 0.779066
-3.034659 -2.187669
-1.251508 -3.108405
3.363459 -3.985690
4.578539 0.766367
3.344692 1.680255
1.752629 3.686033
-3.105191 3.431571
-3.350681 0.182432
-3.268064 -1.424025
-0.898341 -3.840706
1.908533 -2.417923
2.511920 -0.744020
3.044026 1.627658
0.845615 3.422277
-1.966875 1.837587
-2.123312 0.862542
-2.488810 -1.663381
-0.364265 -3.716996
1.058249 -1.797204
2.269569 -1.294822
2.447044 1.704010
-0.034021 2.325462
-0.891707 2.153088
-2.619107 0.656110
-1.629255 -1.459531
-0.519011 -2.130598
0.884797 -2.397708
2.725776 -0.444985
1.699134 1.229644
0.465048 1.462328
-0.873424 2.132831
-2.548261 0.405333
-1.406136 -0.859113
-0.838119 -1.854285
1.552161 -1.866973
1.833765 -0.030896
1.671407 0.541887
1.019566 2.384209
-1.435614 1.934393
-1.514534 0.295121
-2.043108 -0.039309
-0.658013 -2.176028
1.016789 -1.507991
0.972484 -0.598182
1.949455 0.516325
0.561968 2.018124
-0.669756 1.155019
-1.294557 0.709489
-2.068166 -0.696716
-0.167427 -1.378820
0.481573 -1.294978
1.170277 -1.336217
1.465615 1.336770
0.316278 1.197298
-0.054995 1.643880
-1.668454 0.505051
-1.089888 -0.745797
-0.996014 -0.943680
0.467643 -1.611826
1.778139 -0.520446
1.031846 0.581446
1.024028 0.684219
-0.088875 1.510685
-1.495335 0.285439
-0.679841 -0.530964
-0.988314 -1.094960
0.798293 -1.550676
1.200941 -0.556358
1.264026 -0.228026
0.747618 0.976352
-0.796244 0.852449
-1.023539 0.931138
-1.270055 -0.224833
-0.958926 -1.251183
0.322854 -0.780957
0.288624 -0.876286
1.054603 0.319888
0.588348 1.078639
-0.492187 0.819633
-0.430599 0.700404
-1.150029 -0.478283
-0.139391 -0.996303
0.350480 -1.098344
0.816288 -1.089616
1.159768 0.375045
0.184177 0.610181
0.057549 1.260301
-0.850682 0.317731
-0.938119 -0.659418
-0.971289 -0.566926
0.243845 -1.394101
1.004624 -0.352035
1.095980 0.063724
0.864029 0.454639
-0.026514 1.110352
-0.856016 0.405822
-0.886480 0.111047
-1.038388 -0.668480
0.245852 -0.731051
0.438251 -0.411917
0.775845 -0.132680
0.715634 1.051472
-0.351767 0.594272
-0.360544 0.713991
-1.147234 -0.012931
-0.447176 -0.862778
0.305865 -0.801258
0.386968 -0.972055
1.002930 -0.214701
0.203748 0.623515
-0.056961 0.821153
-0.809752 0.921492
-1.040782 -0.173966
-0.755632 -0.520539
-0.728345 -0.562064
0.444515 -0.790203
0.867267 0.285139
0.299068 0.386801
0.219620 0.565653
-0.753183 0.998678
-0.758262 0.080625
-0.397837 -0.381694
-0.433672 -0.830521
0.531617 -0.481539
0.566052 -0.094071
0.696605 0.513521
0.031037 0.905451
-0.312835 0.491115
-0.619792 0.425066
-0.951860 -0.544845
0.082396 -0.705281
-0.053757 -0.358089
0.877122 -0.413129
0.558378 0.370868
-0.053669 0.439876
-0.058435 0.605260
-0.850451 0.239014
-0.154152 -0.752090
-0.083012 -0.529470
0.195322 -1.053155
0.971993 -0.296509
0.376466 0.412990
0.647533 0.135364
-0.328323 0.733178
-0.888553 -0.341914
-0.466637 0.074307
-0.564729 -0.313945
0.671630 -0.553250
0.695741 0.186596
0.613649 0.147560
0.203256 0.955643
-0.366328 0.811073
-0.495449 0.490287
-0.737495 -0.039573
-0.213025 -0.800201
0.047015 -0.653979
0.242539 -0.423242
0.649686 0.088316
0.129751 0.771929
-0.160798 0.252392
-0.260184 0.687310
-0.769039 -0.425704
-0.076925 -0.748959
-0.026640 -0.204912
0.533292 -0.581245
0.912264 0.573643
0.220739 0.173318
0.018483 0.673658
-0.903090 0.422178
-0.574268 -0.262402
-0.239459 -0.323760
-0.279493 -1.106925
0.662723 -0.215647
0.461124 -0.268515
0.368013 0.559638
-0.060538 0.669285
-0.555734 0.200618
-0.609130 0.305471
-0.619817 -0.638427
0.013017 -0.563549
0.352906 -0.271759
0.588348 -0.196116
0.551209 0.564119
-0.055545 0.620634
-0.297425 0.283017
-0.706302 0.343896
-0.457419 -0.479426
-0.109324 -0.535914
0.420728 -0.260294
0.653193 -0.314699
0.300816 0.540495
0.292228 0.281976
-0.596152 0.574300
-0.716209 0.096686
-0.232992 -0.323712
-0.262514 -0.526439
0.384071 -0.735211
0.127437 0.217332
0.510284 0.309488
-0.007590 0.956901
-0.474612 0.422597
-0.632071 -0.084362
-0.793231 -0.087004
-0.140110 -0.935751
0.250933 -0.508788
0.689964 -0.291137
0.580608 0.215773
0.434027 0.478865
-0.369792 0.452044
-0.538083 0.245000
-0.407737 -0.180433
-0.296012 -0.411057
0.589459 -0.507043
0.486983 -0.152997
0.642384 0.491288
-0.035167 0.712975
0.085554 0.895726
-0.597367 0.359838
-0.344424 -0.594084
-0.209274 -0.765662
0.011694 -0.854808
0.881364 -0.270788
0.597554 0.130191
0.532433 0.243077
-0.332682 0.545104
-0.941955 0.123801
-0.697994 -0.238728
-0.450843 -0.378312
0.399385 -0.819923
0.738626 -0.306744
0.698126 0.000520
0.547857 0.832025
-0.223016 0.752063
-0.657686 0.365553
-0.711943 0.200096
-0.697959 -0.623873
0.162667 -0.507027
0.439172 -0.427689
0.602223 0.297250
0.240011 0.643580
-0.080372 0.926328
-0.909554 0.504026
-0.931452 -0.098665
-0.370191 -0.288141
-0.308337 -1.248571
0.590084 -0.546120
0.396638 0.249358
0.307874 0.636897
0.496124 0.959764
-0.672837 0.558531
-0.622820 -0.432096
-0.666625 -0.510988
0.008294 -0.923534
0.624207 -0.674453
0.624345 -0.105591
0.620729 0.109556
-0.379288 0.927110
-0.897806 0.156157
-0.831398 -0.006483
-1.027519 -0.567503
0.123918 -1.117373
0.567524 -0.196767
1.027481 -0.280469
0.957172 0.802038
-0.222784 0.932941
-0.386908 0.832233
-1.084289 0.291745
-0.751295 -0.525711
0.015172 -0.643281
0.351935 -0.885653
1.038296 -0.098758
0.405206 0.872406
-0.000422 0.744192
-0.435959 1.147589
-1.030293 -0.038804
-0.809347 -0.753435
-0.283022 -0.555195
1.015759 -0.978140
0.842599 0.197833
0.882247 0.405566
-0.028115 1.299702
-0.952443 1.101805
-0.932840 0.120522
-1.363560 -0.453561
0.014374 -1.302013
0.392232 -0.686406
1.186916 0.056022
1.508236 0.760798
0.464992 1.706342
-0.192389 1.076613
-0.895473 0.341090
-1.056510 -0.219696
0.071391 -1.400705
0.410972 -1.098290
1.209974 -0.543095
0.984891 0.704166
0.195267 1.148826
-0.404573 1.222444
-1.677265 0.325683
-1.006007 -0.674565
-0.668655 -0.968878
0.409945 -1.501563
1.604536 -0.300867
0.950193 0.605804
0.307231 1.118264
-0.387177 1.556678
-1.677072 0.544338
-1.234404 -0.521802
-0.650070 -1.038904
0.822404 -1.363220
1.659992 -0.106476
1.555261 -0.010760
0.599294 1.388433
-1.183388 1.625592
-1.019832 0.685624
-1.854833 -0.701238
-0.559069 -1.709128
0.376576 -1.451447
1.354731 -0.763055
2.008780 0.558531
0.668648 1.670393
-0.539166 1.214767
-1.241213 1.191966
-1.922378 -1.104434
-0.531572 -1.745591
0.090607 -1.336164
1.684267 -1.136298
1.859815 1.287056
0.694930 1.755062
-0.468591 2.055927
-1.800939 0.824125
-1.786115 -0.898422
-0.937379 -1.908235
0.508383 -2.804995
2.394411 -0.929435
1.541709 0.727368
1.568794 1.927746
-0.813185 2.506006
-2.348354 1.402390
-2.104868 -0.444673
-1.345398 -2.040917
1.377208 -2.739114
2.221102 -1.254844
2.713624 -0.037248
1.787280 2.912984
-1.337634 2.258919
-2.216716 1.820977
-3.958710 0.094288
-0.894357 -3.043084
0.136564 -2.617575
2.721044 -1.908864
3.613035 0.342022
2.248030 3.087463
-0.800011 2.712198
-2.648678 2.458172
-4.675181 -1.121337
-1.608704 -2.624287
-0.924277 -3.576316
3.843073 -2.768914
4.006488 1.937396
3.346137 2.290027
-0.588804 4.587497
-3.480374 2.217455
-4.896559 -0.972391
-3.103547 -3.867551
-1.089747 -5.615005
5.667287 -2.650892
3.863736 1.251469
5.102592 4.399766
-1.102176 7.294746
-3.956158 3.727487
-6.867550 0.312333
-3.788928 -7.414674
0.713111 -8.075866
5.820963 -7.389983
6.382338 0.188623
5.252119 6.720145
-4.650622 15.401723
-5.512079 8.755207
-13.697014 6.199143
-0.655681 -13.741498
-3.642438 -15.384070
19.856602 -21.750051
-1.211229 -3.176127
17.998921 15.287434
-45.006824 47.468671
-22.231947 47.297054
-126.420680 94.977647
-368.654914 -143.522044
