2122.518889 4731.529634
271.302123 -703.395569
-242.155971 -207.964476
-1.930199 12.401655
-2.465282 -70.894539
-16.599197 -2.007200
8.151045 7.717950
-18.167946 -22.851978
4.716180 0.269440
8.426275 -3.463410
-8.581927 -0.169990
4.994866 -2.847663
7.003405 -2.960258
-3.680678 4.661263
0.613836 -5.497021
2.892518 -1.581665
2.899172 5.204585
-1.109175 -1.661239
1.682030 -1.709674
5.319602 3.445377
-2.538540 0.324611
1.528418 -1.459110
5.277389 0.150602
-0.230820 3.006773
0.150686 0.096284
3.590651 -2.466943
1.951372 2.916970
-0.738258 -0.110067
1.234166 -1.353787
3.215416 2.757727
-0.318656 0.678027
-0.065021 -0.397578
4.017875 -0.023870
0.464498 2.382234
-0.697536 0.397561
2.865355 -1.704387
1.330191 2.509504
0.231093 0.896319
0.891644 -1.592201
2.451503 0.991468
0.128067 0.960241
-0.820382 -0.441459
3.501583 0.249001
0.352393 1.775284
-0.645957 0.782232
1.912393 -1.211827
1.087793 1.286560
0.444923 1.170785
0.510386 -1.471480
2.219404 1.422814
0.481580 1.373710
-0.693334 -0.557663
2.121598 -0.335864
0.664874 0.526145
-0.588340 1.467638
1.294003 -0.932021
0.874240 0.957031
-0.015541 1.308431
0.442156 -1.424584
1.404910 0.900869
0.992249 1.001318
-1.009221 -0.092013
1.490108 -0.250233
1.053500 0.443549
-0.476919 0.811892
1.075993 -1.147069
0.615074 0.239445
0.086893 1.472950
0.121075 -1.026315
1.051424 0.128390
1.243282 1.116211
-0.738669 -0.025876
0.925185 -0.170975
1.074474 0.105833
-0.356773 0.514071
1.019605 -0.520408
1.015035 0.107211
0.265066 1.293977
-0.095063 -0.810143
0.320147 -0.595349
1.233498 0.922469
-0.127880 -0.045630
0.692530 -0.020519
1.266894 0.451927
-0.321587 0.525533
0.514474 -0.101402
1.021486 -0.459519
0.337872 1.241013
0.162259 -0.192366
0.453066 -0.360077
0.910586 0.935714
-0.112339 -0.314289
-0.082040 -0.275428
1.446123 0.375153
-0.121305 0.686667
0.026721 0.372081
0.822737 -0.647645
0.213273 1.055430
0.343043 -0.020294
0.127056 -0.542055
1.099553 1.021689
-0.318735 0.170921
-0.238626 -0.165713
1.275879 0.022595
-0.378802 0.376495
-0.116724 -0.067085
0.700740 -0.212005
-0.070891 1.001106
-0.045924 -0.156174
0.045407 -0.677403
1.049590 0.573020
-0.129919 0.148629
-0.093750 -0.222519
0.812581 0.071008
-0.237235 0.305596
-0.227395 -0.273317
0.954480 -0.653576
0.206806 0.602244
-0.206749 -0.136664
0.213639 -0.345417
0.537776 0.377934
0.188778 0.025914
0.054573 -0.411815
0.989963 0.273709
0.236631 0.177956
-0.318421 0.295816
0.612192 -0.646060
0.399061 0.266669
0.246542 0.590654
-0.058133 -0.682559
0.770574 0.412471
0.085732 0.411935
-0.708982 0.223393
0.493695 -0.116018
0.203783 0.059606
-0.469075 0.290698
0.500894 -0.826019
0.445752 0.181421
0.141714 0.391249
-0.169016 -0.537110
0.577961 0.103881
0.165762 0.411956
-0.574048 -0.331809
0.547430 -0.553561
0.557607 0.072007
-0.352087 0.430503
0.306463 -0.198280
0.443561 -0.373810
0.135330 0.701278
0.225555 -0.694507
0.441670 0.191355
0.521382 0.397963
-0.331219 -0.096773
0.192273 0.246022
0.445260 -0.219863
-0.421996 0.442197
0.444206 -0.375234
0.005344 -0.064284
0.137737 0.757155
-0.216573 -0.158716
0.079297 -0.096180
0.243882 0.334324
-0.362659 -0.288849
0.158352 -0.095753
0.402365 -0.105495
-0.517679 0.180978
0.022274 -0.417449
0.575139 -0.471033
-0.193543 0.653138
0.198624 -0.692085
0.028652 -0.057613
0.379400 0.530909
-0.408153 -0.218328
0.240410 -0.155329
0.566532 -0.044123
-0.350844 0.319609
0.094018 -0.182270
0.073769 -0.406955
0.100793 0.370376
-0.289919 -0.233269
0.183897 -0.550787
0.432640 0.419613
-0.389282 -0.147774
-0.185347 -0.395189
0.405638 -0.211400
0.365946 0.099809
-0.167246 0.358009
0.117237 -0.650650
0.136390 0.223108
-0.027067 -0.229736
0.287003 -0.768221
0.709880 0.592899
-0.170132 0.089367
-0.068547 0.006952
0.310282 0.107387
-0.300392 0.057076
-0.145506 -0.097060
0.142823 -0.101992
-0.060582 0.232295
-0.158174 -0.038930
0.067490 -0.630701
0.159342 0.240322
0.251310 -0.187322
-0.544737 -0.083498
0.516670 -0.423818
0.085557 0.112626
-0.233831 0.149122
0.302892 -0.586102
0.157824 0.255907
-0.040486 0.257799
-0.402170 -0.482878
0.735020 0.237559
-0.142689 0.418196
-0.582998 -0.304667
0.378932 -0.146861
-0.131204 -0.022500
-0.331270 -0.014361
-0.007704 -0.446138
-0.010328 -0.218179
0.049394 0.248024
-0.334962 -0.795766
0.520588 -0.093071
0.259030 0.095786
-0.398115 0.078236
0.267943 0.052041
-0.106469 -0.280355
0.038798 0.023828
0.079890 -0.278064
0.303886 0.030846
-0.517025 0.416262
-0.104690 -0.821440
0.063149 0.130837
0.147888 0.109715
-0.661115 -0.383626
0.236266 -0.238830
0.131898 -0.499690
-0.094774 0.217930
0.458619 -0.289035
0.064090 0.148252
-0.021963 0.270244
-0.393099 -0.279415
-0.010025 -0.362515
0.350170 -0.005397
-0.399949 0.115036
-0.351898 -0.220368
0.240853 -0.342540
-0.470326 -0.101084
0.270196 -0.518967
0.145216 -0.281759
0.119409 0.246747
0.035504 -0.077265
-0.065447 -0.201573
0.211862 0.056451
-0.350104 -0.190860
0.060575 -0.406222
0.372795 0.038569
-0.412177 -0.069782
-0.040731 -0.041250
0.233074 -0.485876
-0.198018 0.448905
-0.085515 -0.480519
-0.062425 -0.397430
0.565061 0.274661
-0.381804 0.180947
-0.100658 -0.396762
0.554139 -0.004752
-0.425105 0.300913
-0.235419 0.000286
-0.247577 -0.395175
-0.315533 -0.092089
0.113208 -0.184846
-0.388326 -0.296854
0.304649 -0.015767
-0.420732 -0.089421
-0.329504 -0.458513
0.494330 -0.300841
-0.229845 0.330984
-0.236009 -0.377085
0.176910 -0.423060
-0.070407 0.002718
-0.103571 0.071277
-0.444330 -0.759851
0.353759 0.082047
-0.348451 -0.309802
-0.007572 -0.344434
0.440406 -0.273074
0.076934 0.145947
-0.326039 0.285448
-0.255899 -0.596612
0.224421 0.008536
0.047278 0.077610
-0.381208 -0.328694
0.028405 -0.054558
-0.225671 -0.251468
-0.206321 -0.422094
0.230193 -0.061856
-0.326771 -0.168235
-0.044480 -0.059931
-0.120084 -0.547988
0.314889 -0.100145
-0.211353 0.167533
-0.048923 -0.394997
-0.052048 0.133502
0.123747 0.029997
-0.881370 -0.358535
0.299525 -0.502227
-0.051632 -0.307521
-0.169112 -0.094557
0.210201 -0.507917
0.003361 0.055045
0.149306 0.198221
-0.401403 -0.266733
0.059515 -0.070230
-0.127848 0.057195
-0.513128 -0.270267
-0.014604 -0.214922
0.148505 -0.449891
-0.289905 0.046394
0.066155 -0.517669
0.054878 -0.055431
-0.288242 0.164018
-0.347170 -0.612480
0.095173 -0.244370
0.246599 0.141102
-0.436903 -0.139656
-0.325142 -0.140586
0.211617 -0.664769
-0.235394 0.285585
-0.045385 -0.402400
0.141316 -0.337495
-0.004920 0.277359
-0.410269 -0.304769
-0.067935 -0.292075
-0.073114 0.280350
-0.778248 -0.558547
-0.023794 -0.270647
0.180406 -0.398825
-0.403178 0.045315
-0.054931 -0.571156
0.153034 -0.397451
0.120331 0.227926
-0.292389 0.077399
-0.413631 -0.528116
0.141885 -0.072426
-0.495091 -0.516118
0.049953 -0.223551
0.051692 -0.274671
-0.486915 -0.169251
0.144509 -0.306123
-0.093614 -0.325564
0.090007 0.173386
-0.584328 -0.374514
0.099072 -0.601152
0.226237 -0.025220
-0.080997 0.095660
-0.435483 -0.224177
0.091477 -0.423508
-0.248917 -0.118702
-0.284395 -0.157615
-0.038620 -0.641276
0.019892 0.068464
-0.331905 -0.002450
-0.280378 -0.637499
0.213211 -0.141206
-0.019258 -0.178026
-0.518483 -0.175366
0.446954 -0.472281
-0.335183 0.245755
-0.201205 -0.377106
0.018420 -0.523449
0.043362 -0.074563
-0.017679 0.138719
-0.406409 -0.241959
-0.264247 0.030679
-0.124538 -0.264030
-0.647764 0.013489
0.072071 -0.662713
-0.261503 -0.098860
-0.323500 -0.245100
-0.022142 -0.627261
0.054821 -0.000567
-0.229290 0.086027
-0.566184 -0.754731
0.039948 -0.152939
-0.274253 -0.453626
-0.204649 -0.446453
0.236264 -0.352823
0.056444 0.020850
-0.427893 0.148928
-0.064031 -0.558885
-0.208181 -0.166766
-0.170480 0.091075
-0.532589 -0.789088
0.184822 -0.095311
-0.036590 -0.344113
-0.353011 -0.206316
-0.094953 -0.388344
0.097678 -0.271177
-0.483735 0.212907
-0.215477 -0.635402
-0.164240 -0.165593
-0.079733 0.040164
-0.511067 -0.615882
0.077231 -0.399120
0.010729 -0.132628
-0.294794 -0.310560
-0.048589 -0.146355
0.121934 -0.220884
-0.739790 0.128594
-0.277637 -0.695149
-0.203121 -0.409295
-0.150716 -0.056019
-0.413963 -0.652048
0.043012 -0.371966
0.159428 0.013687
-0.439161 -0.373014
-0.155376 -0.208474
-0.042592 -0.543427
-0.324619 0.022357
-0.238049 -0.650986
0.253307 -0.593063
0.228408 0.129941
-0.432904 0.048018
-0.371747 -0.563847
0.258760 0.198512
-0.786651 -0.256470
-0.210815 -0.255855
0.030226 -0.419319
-0.293415 0.030309
-0.369552 -0.374681
-0.183008 -0.427212
-0.240157 -0.164734
-0.216342 -0.239600
-0.398522 -0.601491
0.180778 -0.172264
-0.475799 -0.246377
-0.479866 -0.303378
0.113215 -0.636949
-0.167523 -0.041875
-0.380205 -0.043286
-0.045660 -0.650214
-0.221059 0.113668
-0.207063 -0.376658
-0.639371 -0.429620
0.225630 -0.244629
-0.583229 -0.317278
-0.210079 -0.405604
0.152872 -0.541975
-0.508663 0.241163
-0.689681 -0.565589
0.013316 -0.887756
0.091540 -0.030661
-0.281701 -0.084442
-0.359632 -0.511889
0.087546 -0.241914
-0.135305 -0.266064
-0.692388 -0.013163
-0.038481 -0.735818
-0.436142 -0.081352
-0.347771 -0.640333
0.102963 -0.728168
-0.080717 -0.084646
-0.214385 -0.118093
-0.286203 -0.601613
0.062980 0.070304
-0.279497 -0.200313
-0.598400 -0.013191
-0.182673 -0.787002
0.001834 -0.348074
-0.407326 0.076655
-0.367392 -0.685720
-0.071892 -0.369981
-0.139552 0.044568
-0.515790 -0.740143
-0.087703 -0.093274
-0.240790 -0.284437
-0.653129 -0.295987
0.004777 -0.549520
-0.137641 -0.197727
-0.533804 -0.022360
-0.163902 -0.842173
-0.093739 -0.511669
0.075697 0.178058
-0.635093 -0.588477
0.045802 -0.163775
-0.119323 -0.051395
-0.893265 -0.170070
-0.363958 -0.599884
-0.256718 -0.464692
-0.477986 -0.179261
-0.287081 -0.814374
0.141917 -0.399654
-0.193658 0.112084
-0.214439 -0.462080
-0.594888 -0.390478
0.225640 -0.183747
-0.964310 -0.267504
-0.144753 -0.542930
-0.051928 -0.497516
-0.621783 0.035846
-0.476013 -0.892245
0.151559 -0.596996
-0.169304 0.378187
-0.646971 -0.637924
-0.387665 -0.443303
0.333486 -0.468658
-0.344506 0.033410
-0.621915 -0.362769
0.017694 -0.608438
-0.585072 0.177670
-0.458147 -0.578193
-0.417584 -0.550442
-0.222450 -0.260089
-0.627645 -0.535300
-0.281564 -0.724780
0.145488 -0.166230
-0.478002 -0.306292
-0.516135 -0.266224
0.058864 -0.635920
-0.563858 -0.169667
-0.174244 -0.657249
-0.369630 -0.531872
-0.061321 -0.151973
-0.549313 -0.328750
-0.532098 -0.836196
0.447596 -0.479942
-0.477564 0.060970
-0.627695 -0.526465
0.314079 -0.562933
-0.335130 0.062179
-0.305874 -0.066181
-0.407317 -0.438715
-0.362802 -0.091885
-0.472588 -0.548518
-0.619395 -0.433489
-0.055412 -0.465010
-0.437980 -0.107560
-0.732701 -0.645199
0.215486 -0.453409
-0.628062 -0.160713
-0.613682 -0.107412
-0.352247 -1.000278
-0.152573 -0.128920
-0.234533 -0.133531
-0.799312 -0.621749
0.200481 -0.303729
-0.662141 -0.181454
-1.114905 -0.512992
0.018081 -1.008253
-0.210128 -0.389977
-0.429334 -0.047627
-0.448066 -0.939159
-0.232123 -0.479183
0.080972 0.057381
-0.977421 -0.638933
0.215091 -0.309423
-0.339802 -0.170584
-0.886183 -0.109802
-0.105737 -0.907503
-0.363697 -0.289518
-0.799761 -0.028569
-0.662388 -1.159943
0.034147 -0.508772
-0.394504 -0.220918
-0.246179 -0.826085
-0.268509 -0.092739
-0.169070 -0.143265
-1.138147 -0.375725
-0.011508 -0.798291
-0.007392 -0.475958
-0.582892 0.459157
-0.632210 -1.059258
-0.293994 -0.489070
-0.374342 -0.063569
-0.853635 -0.580390
-0.541906 -0.691888
0.070332 -0.531142
-0.859446 -0.309107
-0.375859 -0.830058
0.129919 -0.601481
-0.597341 0.112203
-0.202636 -0.739799
-0.411586 -0.423428
-0.058166 -0.011281
-0.627675 -0.578930
-0.520032 -0.407789
-0.232267 -0.391245
-0.801601 -0.174485
-0.626408 -0.544313
-0.197273 -0.798489
-0.469710 0.081658
-0.864420 -0.596467
-0.380110 -0.865126
-0.178321 -0.075784
-0.698441 -0.490517
-0.565981 -0.955755
0.364812 -0.073303
-0.980694 -0.430426
-0.579436 -0.727458
0.151344 -0.856405
-0.548831 0.425625
-0.665242 -0.572322
-0.324253 -0.630727
-0.463496 0.296440
-1.023235 -0.619170
-0.845309 -0.648365
-0.090485 -0.606822
-0.522565 -0.318810
-1.059943 -0.390951
0.054797 -1.188782
-0.405022 -0.013828
-0.851443 -0.353713
-0.791485 -1.275542
-0.145453 -0.053118
-0.550342 -0.629924
-0.863775 -0.710260
0.184953 -0.443723
-0.810045 -0.446273
-0.758094 -0.266946
-0.062984 -1.118729
-0.400390 0.098343
-0.803855 -0.329805
-0.517230 -1.213825
-0.024523 0.050706
-0.937494 -0.581892
-0.905746 -0.770642
-0.144384 -0.426566
-0.630603 -0.381740
-1.122283 -0.612616
0.102737 -1.014711
-0.585253 -0.298668
-0.689967 -0.127036
-0.557028 -1.321351
-0.035164 -0.302673
-0.258620 -0.056468
-1.212212 -0.879686
0.287505 -0.511946
-0.536573 -0.387558
-1.271231 -0.033342
-0.357025 -1.124896
-0.159298 -0.238780
-0.978895 0.171199
-0.741384 -1.201981
-0.257715 -0.375495
-0.499581 0.251451
-1.411965 -0.797065
-0.388139 -0.727710
-0.297827 -0.348931
-1.403391 -0.479888
-0.391545 -0.901410
-0.405880 -1.154494
-0.943096 0.456935
-0.937211 -1.217110
-0.626794 -0.815215
-0.138837 -0.165809
-1.076312 -1.015851
-0.392368 -0.317655
-0.297550 -0.562442
-1.456548 -0.134122
-0.640292 -1.307165
-0.024224 -1.145526
-0.573270 0.259446
-0.582450 -1.082473
-0.670142 -0.763573
-0.228478 0.085478
-1.385672 -0.377546
-0.825660 -0.825053
-0.061764 -0.492538
-1.405289 -0.189239
-0.869162 -0.938015
-0.163573 -0.920950
-1.031820 0.274337
-1.043260 -0.934846
-0.712920 -1.396218
-0.285245 0.375483
-1.512853 -1.317285
-0.770445 -1.152790
0.036663 -0.396329
-1.764572 -0.261360
-0.721723 -1.054345
-0.175634 -1.307821
-0.864771 0.144588
-0.761688 -0.925623
-0.892169 -1.224978
-0.010309 0.219896
-1.515654 -0.987311
-0.878025 -1.130388
0.278370 -0.741009
-1.205775 -0.271158
-1.150198 -0.856939
-0.343707 -1.364207
-0.898401 0.424219
-0.934077 -0.818777
-0.882351 -1.299598
-0.130610 0.047484
-1.182958 -0.459895
-1.631001 -0.936793
0.190878 -0.996684
-0.925137 -0.059146
-1.766173 -0.554565
-0.234993 -1.599369
-0.860778 -0.141954
-1.340296 -0.309796
-1.505809 -1.836861
-0.403468 0.059349
-0.890056 -0.380321
-2.161655 -1.402369
0.413481 -0.785601
-1.147984 -0.363029
-2.044863 -0.289783
-0.311636 -1.810384
-0.989933 -0.436400
-1.351278 0.137851
-1.596273 -2.455698
-0.396662 -0.221600
-1.115198 -0.550504
-2.812347 -1.568190
-0.013232 -0.938070
-0.455035 -0.907892
-2.334649 0.056482
-0.345541 -2.059858
-1.177974 -0.558059
-1.673110 0.064902
-1.407589 -2.866764
-0.414111 -0.596639
-0.352182 -0.162385
-2.981493 -1.286577
-0.572290 -1.361398
-0.676015 -1.376223
-2.981688 -0.338759
-0.206545 -1.858990
-0.846016 -0.975014
-1.561554 0.572869
-1.921646 -2.651983
-0.857714 -1.275127
-0.253127 0.037894
-2.962201 -1.680494
-0.689388 -1.310830
-0.345533 -1.025185
-3.352255 -0.473586
-0.695530 -2.192898
-0.953676 -1.989180
-2.099891 1.110907
-2.345831 -2.098550
-1.279622 -1.947463
-0.261682 0.407087
-3.400852 -2.093613
-1.432847 -1.338932
-0.316622 -1.340176
-3.770753 -0.597405
-1.532170 -2.187527
-0.672051 -2.891220
-2.459190 1.303803
-2.560680 -2.782001
-2.512545 -2.854139
-1.135960 0.446647
-3.745211 -2.026487
-2.734865 -2.037173
0.790215 -2.126849
-4.627630 -0.414614
-2.617595 -2.095061
-0.979097 -4.068815
-3.476368 1.024208
-2.758931 -2.807871
-3.925704 -4.715632
-0.234745 0.665535
-4.924810 -2.869013
-5.440930 -3.723567
0.540125 -2.138448
-6.575484 -0.999502
-4.216516 -1.618732
-1.188798 -7.463822
-4.863537 1.062624
-4.234298 -2.363954
-6.669722 -8.983291
-1.503312 1.425810
-5.872613 -5.784053
-10.377507 -5.698511
1.782845 -4.029472
-9.707963 -4.806707
-12.632466 -1.622858
-1.714335 -15.165060
-13.285284 0.784614
-5.649339 -2.997621
-14.502735 -22.548351
-8.869327 1.719626
-7.139676 -10.445408
-45.465860 -24.359009
6.543487 -9.372463
-37.477447 -45.817394
-45.992124 -6.827078
0.646718 -44.057036
-183.041462 -105.359385
-300.304952 207.419990
-1248.024260 -3367.977707
