2112.163311 4790.436311
235.335149 -656.455082
-303.346902 -194.216797
-67.271410 2.691332
-45.552074 -107.064327
-38.213852 -49.680083
10.364632 -34.030269
3.226785 -51.947373
25.651462 -7.455305
21.406982 0.738518
-5.498850 3.155641
3.500161 -0.309317
3.520897 -4.175094
-5.848357 -2.167272
4.082504 -9.737460
5.348770 -2.639117
2.048476 4.377477
-0.229607 -4.075530
2.436250 -2.871872
3.880548 2.358512
-1.495400 -3.513581
3.661143 -2.435249
5.272583 1.040307
-1.278912 0.802775
0.979076 -1.693194
4.376848 -1.923394
-0.207144 1.162631
0.473332 -3.168412
3.019941 -1.763853
2.208424 2.658808
-0.041275 -1.103827
1.140966 -1.714240
3.627592 1.079691
-0.678095 -0.254382
1.335545 -1.702867
4.176932 0.074168
-0.598010 1.644908
0.417736 -1.110425
2.681861 -1.857682
1.540750 1.294037
0.028142 -0.635566
0.626290 -1.431537
2.461307 1.623123
-0.488019 -0.367730
0.410272 -1.062713
2.950427 -0.053035
-0.214200 0.561311
0.295350 -0.664615
2.439549 -1.542054
0.736170 1.528814
0.309083 -0.533823
1.397372 -1.528931
1.717235 1.086411
-0.194333 -0.591705
-0.188902 -1.062112
2.801195 0.254245
-0.239349 0.413631
0.120828 -0.631777
2.382145 -0.834480
0.224428 0.821746
0.584851 -0.227055
1.086607 -1.520748
1.527485 1.035187
0.477956 0.039021
0.219602 -0.992378
2.208452 0.323463
-0.151639 -0.047392
-0.284836 -0.185386
1.835483 -0.502658
0.366160 0.589708
-0.044186 0.064834
1.428505 -1.343703
0.868295 1.046193
0.468064 0.018027
0.215365 -0.743342
1.151065 0.447037
0.293815 -0.074275
-0.106449 -0.561083
1.737543 -0.451035
0.320988 0.174393
-0.590879 0.253071
1.089483 -1.028944
0.695633 0.292310
0.378073 0.301851
0.593720 -0.933449
0.965051 0.609387
0.310075 0.363136
-0.604262 -0.813589
1.193714 -0.381929
0.698019 -0.163402
-0.165227 -0.013513
1.215569 -0.711349
0.393548 -0.152296
-0.267801 0.421125
0.725141 -1.212590
0.867808 0.255300
0.700120 0.548999
-0.390755 -0.843093
1.172874 -0.005670
0.695376 -0.137895
-0.306066 -0.232843
1.522208 -0.419158
0.405083 0.285111
-0.180286 0.435312
0.779666 -1.270308
0.663162 0.327844
0.166898 0.454926
-0.210486 -0.438243
0.608015 0.074547
0.419702 -0.094497
-0.397661 -0.486419
1.459482 -0.451168
0.298427 0.298477
-0.178812 -0.033682
0.654993 -0.789769
0.529989 0.026901
0.241623 0.146936
0.329873 -0.875268
0.797359 -0.025373
0.244237 0.203806
-0.082589 -0.290633
0.879765 -0.114962
0.623811 0.137854
-0.253739 0.068040
0.898024 -0.440591
0.557154 0.134605
-0.098049 0.543007
0.206786 -0.660603
0.196248 -0.014615
0.580488 0.282108
-0.614220 -0.527217
0.717793 -0.500860
0.502945 0.022709
-0.554698 0.311737
0.498039 -0.679180
0.561550 -0.368343
0.165978 0.377300
0.404348 -0.840884
0.726036 -0.023033
0.522805 0.459592
-0.327179 -0.296578
0.544214 -0.236333
0.556701 0.323016
-0.631212 -0.088919
0.551401 -0.683264
0.441086 0.068570
-0.285074 0.307300
0.255706 -0.205743
0.287403 -0.594071
0.323465 0.631012
0.014989 -0.625131
0.069241 0.010880
0.414720 -0.137669
-0.371132 -0.431730
0.334695 -0.259086
0.735726 -0.550782
-0.088686 0.432478
0.379713 -0.349169
-0.098364 -0.247338
0.011693 0.400180
-0.015045 -0.610120
0.276758 -0.359660
0.610108 0.217203
-0.536978 -0.230218
0.209694 -0.721655
0.746381 -0.223883
-0.326285 -0.243758
0.621193 -0.389470
0.638954 -0.214672
-0.252531 0.499274
0.339925 -0.684769
0.009415 -0.212538
0.374087 0.420688
-0.261761 -0.461545
0.420024 -0.149731
0.398356 0.050677
-0.450881 -0.188989
0.374981 -0.343030
0.192061 -0.387927
-0.151279 0.155998
-0.178488 -0.693290
0.529134 -0.849204
0.615534 0.335841
-0.111096 -0.319013
0.188550 -0.415500
0.429832 0.171035
-0.114489 0.059401
-0.220655 -0.398856
0.656454 -0.601974
-0.038552 -0.068809
0.458141 -0.279370
0.192383 -0.427326
0.107697 0.119682
0.140949 -0.491922
0.150444 -0.393554
0.671251 -0.068631
-0.068499 -0.073023
0.107639 -0.510330
0.663414 0.030843
-0.053439 0.052056
0.388909 -0.070711
0.319494 -0.206674
-0.059909 0.194991
0.155476 -0.206910
0.057140 -0.625253
0.569829 0.504987
-0.519688 -0.113274
-0.276275 -0.529501
0.781012 -0.436691
-0.138438 0.076934
0.003514 -0.246380
0.385456 -0.532991
0.101782 0.610961
-0.198208 -0.424934
0.223290 -0.606112
0.295692 0.082787
0.083195 -0.313191
-0.086410 -0.432340
0.602757 -0.217641
-0.021106 -0.078972
-0.012017 -0.068717
0.419613 -0.467439
-0.067791 0.071414
0.172026 -0.216951
0.052038 -0.514742
0.420355 0.383933
-0.061521 -0.210938
0.039175 -0.436366
0.495559 0.021807
-0.185843 -0.001082
-0.210456 -0.554827
0.556092 -0.192243
-0.317767 -0.307145
0.333169 -0.131726
0.260220 -0.610305
0.251204 0.145493
0.263305 -0.054315
-0.299321 -0.456433
0.698994 0.190724
0.002526 -0.113326
-0.108362 -0.045367
0.382368 -0.492289
0.140824 0.127152
-0.046399 -0.179134
0.281154 -0.242655
-0.087549 0.088513
-0.129704 0.120818
-0.228795 -0.900360
0.565732 -0.004654
0.088006 -0.190909
0.077800 -0.211405
0.403973 0.348895
-0.303516 -0.027429
-0.116833 -0.291799
0.148792 -0.392694
0.176917 -0.248595
-0.059749 0.124693
0.029083 -0.718497
0.221101 0.064868
0.079539 0.097119
-0.207438 -0.564986
0.400266 0.160106
-0.020602 -0.219861
-0.433305 0.026373
0.366733 -0.559537
0.150932 0.185546
-0.249075 -0.160859
0.297870 -0.530577
-0.120750 0.126471
0.033543 -0.175157
-0.368311 -0.527257
0.183276 -0.285609
0.260686 -0.245790
-0.282366 -0.211198
0.591783 -0.458295
0.152599 0.148780
-0.326309 0.133786
0.044739 -0.611732
0.277486 0.079287
-0.094270 -0.032220
-0.181590 -0.617071
0.348151 -0.287977
0.305357 0.158544
-0.543499 -0.356017
0.400804 -0.126886
-0.176948 -0.177355
-0.092397 -0.061369
0.177354 -0.537361
0.175413 0.022446
-0.157233 0.226881
-0.380699 -0.585349
0.300458 -0.157602
0.123616 -0.182976
-0.133895 -0.259677
0.006001 -0.059051
-0.076801 -0.336901
-0.335430 -0.265428
0.269293 -0.400161
-0.301160 -0.108229
0.075413 -0.277643
-0.259619 -0.486396
0.356486 -0.577227
0.028809 0.253492
-0.337924 -0.767368
0.379961 -0.333147
0.563561 -0.245025
-0.290771 -0.138533
0.309012 -0.176921
-0.117357 -0.495411
0.152338 0.011773
-0.011826 -0.522218
0.171728 -0.183331
0.223251 0.085642
-0.204171 -0.571610
0.481543 -0.178915
0.219418 0.113340
-0.286882 -0.169017
0.269827 -0.124868
0.280820 -0.174111
-0.404074 0.110833
0.226233 -0.668594
0.256547 0.078270
-0.168739 0.193762
-0.214668 -0.331430
-0.107958 -0.223621
0.312863 0.133831
-0.514640 -0.212564
-0.158720 -0.251359
0.321691 -0.542409
-0.253441 0.319946
-0.114061 -0.323287
-0.033026 -0.354678
-0.243841 -0.092341
-0.140984 -0.658940
0.109974 -0.442080
0.035340 0.128495
-0.392571 -0.950823
0.573601 -0.137275
0.350962 -0.021381
-0.282331 0.165341
-0.147008 -0.262380
0.071122 -0.389478
-0.173804 0.159724
-0.182440 -0.333803
-0.033805 -0.467333
-0.039313 0.031835
-0.349329 -0.704797
-0.058042 -0.345209
0.327566 -0.518666
-0.181973 -0.211979
0.207169 -0.216684
0.165241 -0.236094
-0.214020 0.198591
-0.229880 -0.679045
0.214809 -0.316019
-0.001421 -0.037182
-0.257490 -0.265228
0.070390 -0.713561
0.423611 -0.034055
-0.351086 -0.293196
-0.013420 -0.340879
0.195052 -0.397543
-0.150381 -0.165050
0.003476 -0.351925
0.456704 -0.362478
-0.125657 0.374850
-0.182034 -0.414104
-0.257408 -0.503686
0.499350 -0.145499
-0.379631 -0.137055
0.025253 -0.451835
0.276766 -0.454166
0.007414 -0.182311
-0.048727 -0.100989
0.170858 -0.543502
-0.034364 0.094402
0.102352 -0.174691
-0.235847 -0.252802
0.337269 0.010654
-0.426114 -0.262391
-0.007634 -0.501253
0.421398 -0.105024
-0.280439 -0.060669
0.001161 -0.166022
0.161651 -0.463210
-0.268689 0.082686
-0.004317 -0.380701
-0.129793 -0.334684
0.182850 -0.066740
-0.269881 0.034955
-0.300372 -0.561171
0.486231 0.030845
-0.487180 -0.236421
-0.188478 -0.345206
0.467878 -0.473990
-0.415581 0.303859
-0.079856 -0.494748
0.021882 -0.500753
0.009682 -0.056038
-0.109834 -0.159696
-0.388909 -0.494975
0.362231 -0.178539
-0.302755 -0.146394
-0.199024 -0.289568
0.442306 -0.335033
-0.423228 0.024642
-0.002395 -0.469469
0.041772 -0.228183
-0.143716 -0.243073
0.096568 -0.059926
-0.197226 -0.640511
0.236952 0.088976
-0.260720 -0.190998
-0.444229 -0.298583
0.402546 -0.469005
-0.220734 0.149889
-0.309977 -0.215897
0.261110 -0.401142
-0.273675 0.021182
-0.179434 -0.199413
-0.208868 -0.636865
0.201269 0.013775
-0.164167 -0.145636
-0.325930 -0.362031
0.183603 -0.372993
-0.123141 0.166578
-0.780997 -0.245693
0.217302 -0.659126
-0.212439 -0.045087
-0.259923 0.045655
-0.341110 -0.807725
0.194810 -0.250666
-0.103677 -0.254436
-0.178089 -0.342934
0.013291 -0.223793
-0.034224 -0.082454
-0.544959 -0.396058
0.271615 -0.401060
-0.432242 -0.119444
-0.351298 -0.210807
-0.129257 -0.769082
0.050440 -0.240475
-0.066575 0.094079
-0.357452 -0.664299
0.014279 -0.097418
-0.123392 -0.624648
-0.311556 -0.284869
0.428073 -0.484802
-0.188501 0.032416
-0.321956 -0.049357
-0.267662 -0.826838
-0.035326 -0.093437
-0.380886 -0.242788
-0.275077 -0.864694
0.307047 -0.314497
-0.013623 -0.079867
-0.309065 -0.451040
0.283487 -0.466356
0.189890 -0.279266
-0.332909 0.191535
0.061585 -0.627448
-0.134043 0.128281
-0.323949 -0.178545
-0.262315 -0.648427
-0.150883 -0.088216
-0.439025 -0.334375
-0.228617 -0.916462
0.328920 -0.257776
0.146027 -0.241791
-0.398179 0.050381
0.113928 -0.804517
0.166814 -0.250360
-0.094280 0.178512
-0.398379 -0.527566
0.134530 -0.530783
0.203510 0.179161
-0.357219 -0.571921
0.084978 0.062305
-0.133943 -0.112620
-0.567956 -0.195057
0.149171 -0.383719
-0.125438 -0.076858
-0.374699 0.045158
-0.004951 -0.559748
-0.233179 -0.167495
-0.233873 0.118479
-0.502984 -0.669797
-0.114438 -0.111384
-0.081411 -0.266177
-0.761454 -0.301581
-0.073613 -0.737900
0.172014 -0.200951
-0.606081 0.179137
-0.343931 -0.797801
0.070441 -0.263649
-0.410844 0.000769
-0.210902 -0.586549
-0.524346 -0.674571
0.279919 -0.255809
-0.590741 -0.622467
0.093934 -0.332843
0.095965 -0.483615
-0.612032 -0.073416
-0.026267 -1.067174
0.485256 -0.174133
-0.474513 0.360771
-0.276712 -0.804689
-0.071075 -0.387071
0.283696 0.016279
-0.484398 -0.404643
-0.072940 -0.439850
0.158509 -0.280639
-0.566829 -0.059422
-0.006189 -0.552473
-0.011740 -0.268879
-0.316591 0.015533
-0.378672 -0.591629
0.003157 -0.413268
-0.107309 0.149090
-0.377748 -0.440554
-0.433356 -0.311162
0.277108 -0.396643
-0.473353 -0.245362
0.081364 -0.456417
-0.117707 -0.230675
-0.402317 0.063323
-0.407550 -0.391152
-0.358796 -0.653740
0.024313 -0.083275
-0.670617 -0.621516
0.079483 -0.709777
0.254201 0.150815
-0.607237 -0.355455
-0.119364 -0.331435
0.112552 -0.378299
-0.397064 -0.022006
-0.146498 -0.631887
-0.069877 -0.391493
-0.179832 0.129102
-0.487611 -0.423590
-0.134133 -0.589676
0.055603 0.075306
-0.504579 -0.339384
-0.584649 -0.311665
0.251473 -0.465339
-0.623529 -0.100596
-0.213169 -0.566554
0.418801 -0.594016
-0.307411 0.604065
-0.425048 -0.683399
-0.332146 -0.376950
-0.156744 0.100391
-0.654842 -0.533142
-0.360413 -0.584484
0.342981 -0.363384
-0.414944 -0.133789
-0.496213 -0.060471
0.188369 -0.700304
-0.601973 0.514750
-0.379171 -0.642266
-0.383425 -0.549298
0.278480 -0.007655
-0.579281 -0.182026
-0.696526 -0.515826
0.132121 -0.258590
-0.765680 -0.022921
-0.661512 -0.713497
0.256431 -0.522923
-0.669232 -0.051377
-0.536246 -0.519180
0.120945 -0.819709
-0.288898 0.257983
-0.189724 -0.475035
-0.611282 -0.409787
0.307672 -0.131284
-0.730102 -0.285792
-0.596834 -0.595072
0.184797 -0.438553
-0.550801 0.027613
-0.646631 -0.298460
-0.136904 -0.953036
-0.108371 0.130010
-0.719323 -0.121319
-0.541395 -0.933142
0.020851 -0.013125
-0.444631 -0.571860
-0.507758 -0.430209
0.358350 -0.453850
-0.493913 -0.138739
-0.621032 -0.257080
-0.311224 -0.781357
-0.274071 -0.140183
-0.319570 -0.348780
-0.405405 -0.600219
-0.075686 -0.285672
-0.264542 -0.139447
-0.599965 -0.472750
0.244232 -0.127089
-0.575143 0.081246
-0.955334 -0.481230
0.388909 -0.636396
-0.524532 0.077900
-0.762620 -0.102083
-0.642095 -0.925878
-0.277020 -0.009188
-0.532560 -0.326669
-0.876982 -0.858734
0.380713 -0.336571
-0.731265 0.039751
-1.005142 -0.538451
0.094132 -0.838273
-0.259947 -0.180515
-0.838393 -0.099373
-0.123423 -1.250319
-0.052485 -0.151814
-0.261256 -0.064950
-1.041952 -0.616991
-0.166029 -0.161561
-0.467173 -0.530566
-1.014235 -0.427636
0.181961 -0.898668
-0.449997 -0.336154
-0.550471 -0.163624
0.088806 -1.101902
-0.142974 0.292263
-0.601270 -0.158487
-0.596620 -1.006832
0.229555 -0.099061
-0.619705 -0.289419
-0.902862 -0.552197
0.226675 -0.360244
-0.534543 0.135237
-1.198648 -0.355712
-0.044762 -0.834640
-0.645275 -0.379370
-0.478356 -0.029497
-0.568915 -1.160896
-0.104867 -0.247988
-0.103768 -0.218365
-1.041469 -0.666442
0.311392 -0.600308
-0.241912 -0.293294
-1.165503 0.009864
-0.051237 -0.944985
-0.133247 0.007375
-1.032637 0.237693
-0.673775 -1.301222
-0.062673 -0.492264
-0.192337 0.169269
-0.952908 -0.798707
0.163622 -0.549255
-0.037259 0.272736
-1.402801 -0.506207
0.060410 -0.622555
-0.197370 -0.739293
-0.958694 0.478219
-0.344022 -0.932068
-0.457948 -0.221095
-0.346723 0.168747
-0.757231 -0.905558
-0.312252 0.007675
-0.160819 0.008633
-1.631975 -0.115185
-0.338351 -0.882494
-0.225267 -0.552931
-1.095087 0.040925
-0.246993 -1.088821
-0.476274 -0.668602
-0.449559 0.267785
-1.102513 -0.776437
-0.215317 -0.629220
-0.027117 0.078107
-1.178787 -0.504990
-0.148860 -0.562564
0.029584 0.092321
-1.545652 0.107866
-0.283486 -0.761903
-0.403494 -0.491070
-1.020128 0.496253
-0.757455 -1.238411
-0.500605 -0.586226
-0.463376 0.515699
-1.878135 -0.861957
-0.248957 -0.630097
-0.097689 -0.304889
-1.627444 -0.221418
-0.142894 -0.823007
-0.470189 -0.513631
-1.151810 0.528960
-0.834854 -1.554955
-0.230385 -0.587759
-0.376256 0.320514
-1.250967 -0.983298
-0.527863 -0.721462
0.079527 -0.222312
-1.848360 0.251194
-0.375372 -0.771267
-0.395101 -0.326791
-1.468110 0.237869
-0.756955 -1.039464
-0.659619 -0.786396
-0.468833 0.542883
-1.572128 -0.860847
-0.765643 -1.130101
0.053233 0.071054
-1.681013 -0.535205
-0.947584 -0.864340
-0.131874 -0.818742
-1.812883 0.404095
-0.924355 -0.811590
-0.324745 -1.558896
-0.732034 0.976666
-1.331089 -1.247865
-0.828863 -1.234488
0.339436 0.473324
-1.615613 -0.601861
-1.245293 -0.537879
0.295465 -0.689044
-2.180706 0.170858
-1.051477 -1.127682
-0.296192 -1.638305
-1.298898 1.186747
-1.065365 -0.695421
-1.296779 -1.546278
0.099346 0.825106
-1.994907 -1.063130
-1.148186 -0.998787
0.708746 0.026169
-2.546513 0.113395
-1.447437 -0.774040
-0.231741 -1.667933
-1.649304 0.573964
-1.064435 -0.867024
-1.446649 -1.885753
-0.613449 1.477589
-2.075126 -0.772699
-1.776516 -1.377344
0.418966 -0.002426
-2.430258 -0.294669
-2.130929 -0.683788
0.070063 -1.656689
-2.271597 0.518386
-1.682419 -1.057132
-0.781838 -2.261011
-1.383870 1.151796
-1.799757 -1.358079
-2.493561 -1.954192
-0.130723 0.308910
-2.149246 -0.315640
-2.598810 -1.112553
0.675674 -1.185398
-3.089351 0.243950
-2.159983 -0.859578
-0.824980 -2.701135
-1.718943 0.776167
-1.943352 -0.730178
-2.597344 -3.136294
0.137341 0.943869
-2.820380 -0.833024
-3.912019 -1.940281
0.181305 -0.692021
-2.992564 0.063340
-3.323994 -0.141086
-0.413578 -3.551879
-2.920608 1.124414
-2.731719 -0.560119
-2.895260 -3.899336
-1.749797 1.398559
-2.927792 -1.630510
-5.477662 -3.143543
0.903073 -0.685391
-4.235107 -0.723419
-6.919669 -1.077851
-0.540124 -4.353676
-4.903160 0.354302
-3.272367 -0.176444
-2.886522 -6.776779
-3.163752 2.340912
-4.061135 -0.295628
-9.958690 -6.933562
-0.135300 -0.114007
-5.359525 -4.178878
-10.930856 -2.221657
1.064243 -4.823032
-9.810854 -2.414212
-13.034319 1.420884
-5.686899 -16.551464
-10.663936 0.757374
-1.907995 -1.222924
-15.337208 -15.615389
-10.038715 10.342014
-18.107103 -2.563565
-67.682855 -20.585587
-13.784752 -31.203156
-45.095511 -79.860067
-23.875127 -45.437053
50.491380 -71.947725
-119.523938 -92.119940
-231.061331 270.564105
-1292.650031 -3292.852170
