1816.453007 4634.632283
271.039158 -844.681180
-195.166121 -135.624726
4.358173 12.314158
-23.633080 -75.160378
-0.367586 1.365995
11.897846 1.837147
-23.610153 -10.115455
8.693860 -4.138275
5.325572 -5.937938
-5.774849 7.904097
2.520967 -8.962119
5.429011 -3.921727
2.453340 6.276256
-4.046829 -3.256690
2.711602 -1.784186
6.734209 2.094234
-3.833056 3.169152
0.902282 -2.800035
5.432998 -1.691957
0.884400 5.109042
-0.126800 -1.030354
2.180805 -2.236125
4.820557 3.772068
-1.227728 0.922158
-0.080497 -2.316958
4.375269 -0.446092
0.129802 3.523450
-0.166322 -0.058725
2.406557 -2.028381
2.703043 3.618847
-0.735871 0.901390
-0.082235 -1.659466
4.265404 0.617960
0.271714 2.074287
-0.553150 0.142091
3.260752 -1.627371
1.387484 2.310787
-0.494247 0.504414
-0.059745 -1.535493
3.595729 1.229729
0.243488 1.696582
-0.790963 0.118236
2.810979 -0.747641
0.831174 1.940700
-0.311249 1.128174
0.693232 -1.966921
2.491511 1.525834
0.491970 1.246683
-0.593714 -0.428563
2.100006 -0.638358
0.589980 1.265498
-0.587179 1.466815
0.974087 -1.877479
1.598600 1.485123
0.329619 1.130143
-0.393102 -0.663689
1.845141 0.262623
0.966880 0.990933
-1.074863 0.900416
1.352879 -1.501981
1.233270 0.865677
0.339526 0.914601
-0.635099 -0.873229
1.150248 0.294704
1.233361 0.871774
-1.122387 0.298370
1.409707 -0.623585
0.865522 0.366102
0.198055 1.263825
-0.063749 -0.896327
1.047596 0.001396
1.102408 0.973060
-0.818780 -0.210188
1.211633 -0.486880
0.887713 -0.028024
-0.416763 1.235506
0.268626 -0.708973
1.005648 -0.247031
0.724921 1.203116
-0.363980 -0.362359
0.641556 -0.324010
1.510636 0.300742
-0.648997 0.685928
0.695232 -0.784505
1.446854 -0.161582
0.291046 1.485092
-0.080304 -0.723225
0.272539 -0.126520
1.188414 0.937528
-0.658439 0.185778
0.445116 -0.456135
1.533585 -0.029769
-0.315085 1.256428
0.529678 -0.494870
0.417665 -0.030439
0.938400 1.185222
-0.746413 -0.095975
0.256876 -0.399332
1.390271 -0.083778
-0.564655 0.758071
0.125592 0.179943
0.192803 -0.534238
0.812189 0.928204
-0.415417 -0.125344
0.188520 -0.329110
1.374386 0.187972
-0.343934 0.881309
-0.313989 0.024618
0.513645 -0.753726
0.403907 0.771473
-0.205528 -0.015105
-0.326684 -0.828812
1.145267 0.133218
-0.237438 0.684910
-0.128122 -0.252704
0.690628 -0.445160
0.309990 0.545142
-0.138060 0.131450
0.277127 -0.768553
0.709028 0.489155
0.085400 0.155131
-0.217733 -0.237220
0.851736 -0.205521
0.086283 0.169447
-0.179665 0.172115
0.378662 -0.523056
0.551102 0.605790
0.222774 0.291332
-0.529266 -0.261088
1.049134 -0.030270
-0.009194 0.442307
-0.408654 0.140193
0.517022 -0.728590
0.435029 0.532862
-0.157919 0.407035
-0.458844 -0.866124
0.924515 0.047747
-0.174657 0.395232
-0.371171 0.133198
0.471206 -0.589222
0.219679 0.197400
-0.131280 0.153291
0.193328 -0.733284
0.564120 0.038949
0.481494 0.372413
-0.598250 -0.073611
0.596309 -0.403154
0.306001 -0.117315
-0.043730 0.313070
0.187905 -0.633073
0.496914 0.268675
0.535654 0.696083
-0.585905 -0.344356
0.690608 0.126031
0.197989 0.156759
-0.347039 0.269377
0.516885 -0.441870
0.202514 0.391948
-0.015908 0.735920
-0.713397 -0.617894
0.303057 0.030033
-0.032622 -0.191907
-0.402694 0.178687
0.195277 -0.446683
0.571968 -0.202435
-0.034441 0.673576
-0.409458 -0.345610
0.194904 -0.650653
0.832232 0.475788
-0.755476 -0.005323
0.199504 -0.285832
0.449752 -0.392204
-0.217246 0.512900
0.022437 -0.581458
0.125919 -0.165107
0.497201 0.584561
-0.335821 -0.108657
0.062922 0.032740
0.206042 -0.151148
-0.325654 0.400191
-0.284522 -0.582605
0.434735 -0.460315
0.068433 0.530841
-0.382129 -0.454877
0.151841 -0.555724
0.510448 0.121832
-0.345303 -0.014173
-0.163613 -0.213245
0.764317 -0.412330
-0.000115 0.449985
0.114481 -0.123426
-0.139704 -0.210083
0.440913 0.144651
-0.137030 -0.098402
-0.256017 0.060148
0.449735 -0.513146
-0.093378 0.297270
0.016251 -0.175955
0.060490 -0.269489
0.124367 0.518721
-0.461444 0.043918
-0.226669 -0.633393
0.690545 -0.159105
-0.245295 0.027656
0.124943 -0.034096
0.269431 -0.504599
0.169168 0.568681
-0.230529 0.079709
-0.613957 -0.518003
0.794430 -0.354883
-0.225994 0.278848
-0.185254 -0.077772
0.223974 -0.284778
0.116653 0.437200
-0.278451 -0.095722
-0.179769 -0.443323
0.322233 0.054275
-0.111202 -0.010881
-0.379690 -0.103628
0.056803 -0.478878
0.241123 -0.181209
-0.224379 0.173056
0.075092 -0.861992
0.419305 0.441675
-0.185979 0.174526
-0.570906 -0.177111
0.616408 -0.631415
0.267729 0.215020
-0.186301 0.350906
-0.072111 -0.282292
-0.065276 0.065088
-0.165533 0.181545
-0.561621 -0.452941
0.198409 -0.221030
-0.115538 -0.212798
-0.429011 -0.140694
0.317401 -0.613735
0.172242 0.160327
-0.030753 0.279893
-0.322250 -0.704930
0.342834 0.005082
0.087179 0.009512
-0.450728 0.018970
-0.016719 -0.539050
0.269589 -0.191922
-0.170369 0.282107
-0.132507 -0.523472
-0.067107 -0.071794
0.085350 0.058639
-0.539212 -0.282623
0.268696 -0.269328
0.210292 -0.210140
-0.485477 0.023969
0.179830 -0.755896
0.308556 -0.290746
0.495686 0.213194
-0.252406 0.084931
-0.121676 -0.111827
0.373646 -0.042712
-0.637029 0.252502
-0.125258 -0.314264
-0.065238 -0.316438
-0.098193 0.221848
0.054556 -0.515183
-0.160821 -0.123246
0.398910 -0.104935
-0.547560 0.023677
0.143756 -0.434623
0.252389 -0.248101
-0.098952 0.593351
-0.526411 -0.404500
0.106165 -0.489450
0.191716 0.451854
-0.727745 -0.107462
-0.151019 -0.336068
0.172029 -0.163539
-0.394523 -0.124681
-0.167083 -0.366757
-0.040794 -0.647810
0.290817 0.142433
-0.317340 -0.360908
-0.085592 -0.350078
0.541616 -0.211894
-0.325887 0.288548
-0.276064 -0.350323
0.109018 -0.270518
-0.019072 0.104665
-0.139264 0.137967
-0.485909 -0.595947
0.504397 -0.260857
-0.212456 0.056487
-0.254528 -0.042049
0.085582 -0.460360
-0.319337 0.270585
-0.376204 -0.506772
0.075127 -0.519829
0.195641 -0.035101
-0.201739 0.124026
-0.443629 -0.286662
0.152638 -0.187782
-0.143524 -0.234104
-0.211548 0.023865
-0.221891 -0.855951
0.206408 0.103031
-0.163351 -0.264999
-0.319103 -0.512030
0.523773 -0.202022
-0.120017 0.028570
-0.270314 0.083916
-0.143922 -0.604989
0.068600 0.128343
-0.144856 0.034962
-0.441156 -0.424662
0.293616 -0.208846
-0.243038 -0.264341
-0.287158 -0.157330
0.240735 -0.601842
0.081311 0.050943
-0.077896 0.149958
-0.444132 -0.323386
0.158494 -0.117714
-0.359332 0.104667
-0.683650 -0.412920
0.186832 -0.577117
0.232189 -0.128349
-0.366482 0.221434
-0.106291 -0.871535
0.012652 -0.056527
0.119876 -0.132018
-0.378008 -0.301539
0.286590 -0.218772
-0.065942 0.127473
-0.599579 0.052250
-0.071490 -0.693128
0.024845 -0.128671
-0.037381 0.331213
-0.589022 -0.410870
-0.075745 -0.225311
0.180533 -0.478248
-0.441758 0.164230
-0.095020 -0.545948
-0.051473 -0.034163
-0.414665 -0.045983
-0.411699 -0.559384
0.023462 -0.485793
0.145279 0.093379
-0.689813 -0.368258
-0.033296 -0.301834
0.038535 -0.510338
-0.123202 0.118252
-0.118132 -0.543778
-0.074744 -0.370581
0.061607 -0.025102
-0.417614 -0.292779
-0.056379 -0.539978
0.493738 -0.113120
-0.615206 0.398008
-0.376954 -0.422912
-0.289472 -0.682178
0.207184 0.020597
-0.510485 -0.181016
-0.099613 -0.696880
0.351065 -0.067961
-0.287497 -0.393443
0.000560 -0.048938
-0.019955 -0.452724
-0.128581 0.355525
-0.464829 -0.328395
-0.482865 -0.564212
0.456716 -0.164237
-0.660763 -0.161225
0.052106 -0.555308
0.193627 0.036262
-0.458872 0.045193
-0.118987 -0.259922
-0.406273 -0.531963
0.274986 -0.162565
-0.565491 0.044072
-0.483736 -0.559315
0.210060 -0.394251
-0.507166 -0.144905
-0.196013 -0.394078
-0.070248 -0.735785
0.251058 -0.037219
-0.191197 0.013220
-0.436648 -0.325959
0.395141 -0.229419
-0.542537 0.155184
-0.494950 -0.618308
0.236273 -0.617148
-0.254995 0.261744
-0.208023 -0.419878
-0.477071 -0.278820
0.143594 -0.552964
-0.040786 0.258078
-0.720230 -0.456822
0.305457 -0.353375
-0.379739 0.167912
-0.481365 -0.024251
-0.589285 -0.937923
0.176311 -0.456030
0.038468 -0.341563
-0.449380 -0.116098
0.091879 -0.447742
-0.153718 -0.124137
-0.422192 -0.007815
-0.218936 -0.559394
-0.222913 -0.115344
-0.218489 -0.142437
-0.823657 -0.545132
0.416875 -0.583928
-0.079596 0.010475
-0.607393 -0.159249
-0.209638 -0.770884
-0.113537 -0.428365
-0.186035 0.022234
-0.328533 -0.928844
0.188302 -0.022494
-0.094446 -0.245094
-0.680522 -0.035129
0.042852 -0.887840
0.043657 -0.138036
-0.137444 0.219973
-0.555168 -0.568633
0.028326 -0.528704
0.103273 -0.075715
-0.589896 -0.384595
0.078961 -0.223172
-0.158613 -0.193645
-0.563231 0.078473
-0.333837 -0.775007
0.033071 -0.224060
-0.146886 0.145757
-0.815561 -0.401981
-0.260785 -0.496271
0.057562 -0.382256
-0.506680 -0.350957
0.020811 -0.500987
-0.161474 -0.603830
-0.030834 0.244128
-0.539307 -0.584584
-0.080285 -0.282119
0.091722 -0.185352
-0.741238 0.130958
-0.414329 -0.613903
-0.020260 -0.567897
-0.411689 0.192845
-0.445034 -0.734611
-0.022045 -0.569784
0.237467 -0.156542
-0.549799 -0.031990
-0.528243 -0.477294
0.063694 -0.442299
-0.517227 0.148608
-0.504793 -0.632074
-0.229561 -0.488090
-0.162216 -0.113085
-0.574442 -0.363032
-0.504389 -0.830635
0.429793 -0.396041
-0.278107 -0.029631
-0.504152 -0.278704
-0.055310 -0.906528
-0.223765 0.234988
-0.549865 -0.582559
-0.367427 -0.580474
0.363521 -0.254356
-0.768599 -0.079293
-0.300302 -0.532221
-0.033299 -0.635914
0.000729 -0.030175
-0.529266 0.101137
-0.622189 -0.845322
0.262850 -0.304594
-0.351021 -0.298296
-0.593850 -0.275422
0.127863 -0.663232
-0.534493 0.265333
-0.500973 -0.414526
-0.557305 -0.700085
-0.061791 -0.289265
-0.428340 -0.240007
-0.728387 -0.741610
0.326650 -0.669927
-0.301598 -0.025293
-0.452818 -0.414933
0.052548 -0.957876
-0.117793 0.047085
-0.180445 -0.337222
-0.606414 -0.304597
0.064827 -0.207786
-0.539109 -0.312715
-0.488363 -0.177237
-0.208774 -0.779001
-0.054513 0.017997
-0.645623 -0.056638
-0.748154 -0.856369
0.278659 -0.491546
-0.229871 -0.069438
-0.864069 -0.588183
0.181364 -0.716032
-0.084544 -0.200918
-0.350746 0.429097
-0.819710 -0.665151
-0.203897 -0.361935
-0.295892 0.047091
-1.114157 -0.518978
-0.071152 -0.693151
-0.398950 -0.379084
-0.660426 -0.243103
-0.162966 -1.116696
0.032900 -0.424417
-0.271515 0.147388
-0.927186 -0.750181
-0.134573 -0.507625
0.076705 -0.343993
-0.902497 0.007791
-0.313302 -0.863426
-0.186466 -0.538253
-0.153095 0.097488
-0.754598 -0.770430
-0.069100 -0.325634
-0.181489 -0.114074
-1.013624 -0.534541
-0.288316 -0.844612
-0.085049 -0.659619
-0.522905 0.052796
-0.493930 -0.940382
0.084117 -0.686538
0.169275 0.203025
-0.899937 -0.283453
-0.388823 -0.473365
0.116898 -0.700088
-0.579659 0.402271
-0.543336 -0.612431
-0.423408 -0.515000
-0.443703 -0.299256
-0.686597 -0.635308
-0.460131 -0.685774
0.204517 -0.302163
-0.849675 0.029884
-0.761372 -0.604038
-0.214195 -1.210725
-0.020051 0.215265
-0.634184 -0.757133
-0.239492 -0.648643
0.320432 0.051797
-1.029042 -0.077949
-0.601767 -0.672403
-0.338824 -0.936783
-0.308251 0.016501
-0.576311 -0.580487
-0.442292 -0.542887
0.074320 -0.264976
-0.804371 -0.007899
-0.845897 -0.717216
0.118467 -0.591725
-0.812219 -0.088144
-0.651396 -0.679333
-0.134329 -0.993214
-0.013010 0.017258
-0.773188 -0.454372
-0.792740 -0.645004
0.233546 -0.531695
-0.765492 0.184038
-0.927690 -0.484163
-0.320152 -1.255664
0.138695 0.023759
-0.794742 0.104401
-0.950689 -1.066581
0.126425 -0.299529
-0.715570 -0.169285
-0.991782 -0.543363
-0.131107 -1.144615
-0.590897 -0.160936
-0.699889 -0.207232
-0.816844 -1.285936
0.007129 -0.073822
-0.580822 -0.749823
-0.845658 -0.479145
0.213912 -0.986464
-0.297184 -0.086342
-0.699012 0.035384
-0.775669 -1.336917
0.266552 -0.074533
-0.607776 -0.228999
-1.248499 -0.648243
-0.076120 -0.734055
-0.473908 -0.201842
-1.077511 -0.124130
-0.511117 -1.288112
-0.210653 -0.590128
-0.163965 -0.050259
-0.922863 -0.613565
-0.485959 -0.491362
-0.120848 -0.615812
-1.440931 -0.017416
-0.038405 -1.683920
-0.261244 -0.458694
-0.430596 0.068485
-0.943816 -1.064823
0.136557 -0.355513
-0.311479 0.064010
-1.313192 -0.521803
0.003783 -0.880500
-0.193554 -0.133579
-0.976634 0.274305
-0.907914 -1.121716
-0.320107 -0.483373
-0.368354 0.100163
-1.470632 -0.836503
-0.660339 -0.873090
-0.035217 -0.555531
-1.282300 0.282496
-0.915752 -1.171309
-0.287508 -0.961191
-0.464319 0.169673
-1.177030 -0.983559
-0.614019 -0.878209
0.307674 -0.495007
-1.740972 -0.079441
-0.380400 -1.321333
-0.232435 -1.014320
-0.538866 0.042623
-1.023666 -0.846416
-0.571082 -0.729631
-0.008337 -0.179385
-1.377671 -0.428725
-0.566806 -0.911920
-0.124258 -0.931170
-0.684969 0.284687
-0.989407 -0.835517
-0.589456 -1.113868
-0.027211 0.197234
-1.456757 -0.460885
-1.188106 -1.262995
0.168219 -0.876936
-1.228209 0.310579
-1.123921 -0.853254
-0.395525 -1.481604
-0.203909 0.432892
-1.409440 -0.731791
-1.250990 -1.212272
0.503210 -0.796098
-1.289115 -0.198843
-1.028828 -0.597329
-0.394445 -1.694268
-0.419443 0.261540
-1.324488 -0.898504
-1.425619 -1.113130
0.423256 -0.888578
-0.807564 -0.171433
-1.255143 -0.515065
0.117482 -1.473439
-0.938524 0.427240
-0.934916 -0.628951
-1.350044 -1.432554
0.304032 -0.459608
-1.207428 -0.097308
-1.581876 -1.140622
0.226979 -1.382140
-1.156374 0.217709
-1.287862 -0.247382
-0.854655 -1.791755
-0.104864 0.112139
-1.202663 -0.306339
-1.562216 -1.409709
0.369438 -0.442326
-1.343765 -0.033232
-2.001402 -0.532625
-0.565957 -2.025853
-0.584135 -0.295318
-1.002928 -0.228747
-1.969538 -1.842700
0.037220 -0.050484
-1.064047 -0.274883
-2.406637 -0.491577
-0.352449 -1.863887
-0.904242 -0.741648
-1.261823 0.173463
-1.625406 -2.360851
-0.304223 -0.633030
-0.409056 -0.267183
-3.073888 -0.835636
0.018017 -2.054695
-0.826921 -0.990818
-1.900989 0.570791
-1.238843 -2.334173
-0.543652 -0.776253
-0.421142 0.266401
-3.111404 -1.651624
-0.127642 -1.679905
-0.174445 -0.901384
-2.376389 0.299215
-1.049903 -2.441043
-0.684424 -1.229043
-0.863340 0.779588
-2.957569 -2.566475
-0.883493 -1.422252
0.219927 -0.482170
-2.895918 -0.068872
-0.823961 -2.026842
-0.595246 -1.507931
-1.641645 0.877137
-2.287102 -2.671259
-0.915551 -1.650300
0.251878 0.058968
-3.796914 -1.022003
-1.119462 -1.831722
-0.341992 -2.064708
-2.701805 0.764219
-2.402945 -2.126887
-1.109756 -2.275044
0.017233 0.846499
-3.827443 -1.809263
-1.675974 -1.928160
0.131899 -1.709769
-3.554968 0.244088
-2.108429 -2.334354
-1.245677 -3.380981
-1.100681 1.571188
-3.727287 -2.500968
-3.141890 -2.738209
0.074116 -1.114734
-4.489900 -0.172408
-2.673107 -2.456881
-0.330315 -4.163238
-2.639509 1.627231
-3.340316 -2.653778
-4.116879 -4.220507
0.856529 -0.369672
-5.228969 -2.031173
-4.647997 -2.555663
0.619092 -4.807233
-4.899483 0.885122
-4.816437 -2.232882
-4.889073 -6.493494
0.146323 1.409835
-5.270662 -3.524258
-8.004292 -4.076080
2.294176 -5.032259
-7.643024 -0.969391
-7.036352 -1.652425
-3.820457 -12.014413
-4.954296 1.724782
-5.307885 -4.470992
-14.939668 -10.188317
2.831609 -4.521829
-12.356600 -4.969679
-15.921367 -0.947411
0.582245 -19.104658
-19.533748 -2.884894
-8.183604 -1.813974
-35.016637 -40.081881
1.856065 -2.010819
-18.534969 -29.568166
-61.779367 -18.683796
-7.441233 -2.765122
-194.244788 -154.917623
-297.366190 161.766832
-988.544062 -3164.261446
