2102.475948 4756.389119
301.234542 -725.264596
-238.595064 -171.504129
-41.412365 -9.659534
40.856774 -83.541826
-30.587044 35.550705
-12.672308 -20.015784
13.868736 -21.338368
-13.562588 20.263530
4.636942 -22.697904
6.008524 5.574543
-5.051666 4.771362
6.180880 -10.308542
0.880190 5.015879
0.054107 -1.380415
0.050220 -2.971027
4.672207 3.205814
0.571745 1.838715
-1.680713 -2.052117
6.322924 1.694706
-0.754131 1.567761
0.380589 -0.337497
4.311613 0.316390
0.297485 1.408786
1.043153 1.496534
2.412491 -1.571555
2.017933 1.085846
1.039352 1.399212
-0.496983 -0.360920
2.296950 1.104244
1.861483 0.821116
-0.470684 1.079288
2.169049 0.048532
1.802121 0.351651
0.350450 2.291728
1.094448 -0.876600
1.772958 0.308141
1.572300 2.540286
-0.171326 -0.496716
1.506088 -0.259266
1.802322 0.940273
-1.064507 0.770022
1.443661 0.128843
1.989123 0.131509
-0.216621 2.143893
0.834391 -0.608194
1.559717 -0.164326
1.123190 2.214454
0.201279 -0.391246
0.735438 0.311063
1.880054 0.850051
0.112096 0.590132
0.544439 0.261836
1.460518 -0.456506
-0.269082 1.585141
0.762922 0.589963
0.332145 -0.364540
0.758613 1.221570
0.620190 0.078696
0.154979 -0.229787
1.990602 0.872612
0.110333 0.686571
-0.305799 0.800734
1.017004 -0.694745
0.608382 0.480011
0.691167 0.796064
0.093127 -0.954269
0.593463 1.121178
0.398872 0.660255
-0.330301 -0.398623
1.104872 0.195929
1.189052 0.285550
-0.491139 1.071224
0.806914 -0.587570
0.540509 0.239884
0.183234 0.728686
0.565351 -0.707478
0.729298 0.349715
0.869213 0.746107
-0.575994 -0.461796
0.419277 -0.061447
1.287085 0.426871
-0.399028 0.430131
0.878331 -0.073254
0.756916 0.183351
0.025915 0.767432
0.546302 -0.170586
0.097590 -0.291315
1.035936 0.545743
0.218578 -0.055913
0.301017 0.041565
1.291094 0.363656
-0.352796 0.078138
0.114120 0.294441
0.969371 -0.178981
0.119976 0.863310
0.436186 0.397376
-0.078580 -0.517687
0.937883 0.748902
0.265787 -0.051241
-0.045711 0.060355
1.118570 0.364741
-0.084664 0.134348
0.195270 0.644379
0.524600 -0.515826
0.172941 0.469712
0.067426 0.445418
-0.008399 -0.270078
0.680012 0.724717
0.052069 0.324969
-0.436757 -0.156557
1.026481 0.144991
-0.127016 0.174573
0.122919 0.228951
0.303706 -0.047123
0.026614 0.128235
0.134085 0.372202
-0.063699 -0.517581
0.392227 0.016999
0.087637 0.259341
-0.329508 -0.059585
0.482633 -0.150077
0.674426 -0.013659
-0.219323 0.455776
0.399283 -0.278933
0.436112 -0.163124
0.102911 0.631012
0.081922 -0.440994
0.117622 -0.134163
0.959150 0.300240
-0.387953 0.061681
0.377808 -0.093824
0.449402 -0.017542
-0.312213 0.682367
0.296182 -0.162050
0.413294 -0.212494
0.284626 0.874960
-0.120247 -0.066859
-0.164332 -0.073291
0.474610 0.027652
-0.172574 0.062825
-0.075523 -0.020871
0.476298 -0.225077
-0.075231 0.254423
-0.042738 -0.005999
-0.092346 -0.494856
0.260573 0.143967
0.219179 0.323304
-0.015852 -0.643758
0.442716 0.575048
0.078025 -0.462664
0.005514 0.099084
0.567295 -0.298546
0.287212 -0.085961
0.170021 0.761534
-0.020208 -0.530954
0.086290 0.158714
0.513477 -0.005271
-0.160030 -0.181879
0.362530 0.604137
0.060483 0.101653
-0.259883 0.057358
0.448060 -0.092138
0.099134 0.045836
0.034657 0.275464
0.178096 -0.117594
-0.100291 0.026310
0.088959 0.495644
-0.312946 -0.479504
0.028296 0.062360
0.444192 -0.043384
-0.699517 -0.141453
0.526152 -0.008481
0.049472 0.044568
-0.083282 0.213797
0.182097 -0.218544
-0.143493 -0.232921
0.599188 0.136312
-0.150396 -0.010850
-0.065478 -0.029596
0.369534 0.064345
-0.258374 0.175764
-0.183208 -0.010337
0.189267 -0.416508
0.042257 0.263429
-0.319405 0.289807
-0.222963 -0.376402
0.134763 -0.084609
0.158827 -0.069679
-0.397942 -0.352796
0.645049 -0.106198
-0.231946 -0.137656
-0.044609 -0.170618
0.437533 -0.322770
-0.005455 0.103833
0.257290 0.034934
-0.064020 -0.158159
0.165316 -0.067890
0.131356 0.319572
-0.212229 -0.133189
0.424264 0.282843
-0.262412 0.056877
-0.410427 -0.153662
0.358204 -0.309621
-0.024398 -0.250554
0.096478 0.420678
-0.267173 -0.448686
-0.020090 0.072626
0.053571 -0.152824
-0.289666 -0.496816
0.467391 -0.189284
0.370441 -0.159351
0.063321 0.721186
-0.103532 -0.123626
0.040825 -0.198657
0.022536 0.232540
0.021819 -0.187560
-0.197790 -0.114755
0.312551 0.044360
-0.313879 0.048707
-0.227887 0.021104
0.189287 -0.310996
-0.414217 0.099534
0.050317 -0.340923
0.017161 -0.393997
0.216238 0.420859
-0.000790 -0.170839
-0.157199 -0.058943
0.051447 -0.131200
0.077106 -0.197254
-0.111243 -0.077502
0.239913 0.014325
-0.386573 -0.172117
0.129058 0.141195
0.036696 -0.411349
-0.134732 0.382274
-0.117104 -0.137595
-0.467756 -0.411859
0.301516 0.124110
0.022113 -0.365291
-0.123470 0.207394
0.008786 -0.555454
0.259244 -0.054681
0.004135 0.143472
-0.118107 -0.092147
-0.204667 -0.222424
0.305972 0.293124
-0.519095 -0.146272
-0.099083 -0.074457
0.036882 -0.165471
-0.602798 -0.051621
0.086748 -0.416515
0.195186 -0.191367
-0.103360 -0.034048
0.112004 -0.295017
0.026830 -0.083645
-0.164166 0.135948
-0.095976 -0.534033
-0.021280 0.016264
0.154437 0.196343
-0.617404 -0.205593
-0.182567 -0.202675
0.185812 -0.708263
-0.176490 0.291503
-0.099105 -0.455064
0.169240 -0.409991
0.331088 -0.009904
0.086413 -0.162396
-0.113312 -0.142430
0.486243 0.031663
-0.310146 0.041527
-0.159643 0.160311
-0.091650 -0.260055
-0.224258 -0.044193
0.098103 -0.108944
-0.156880 -0.287019
0.061369 0.247077
-0.331182 -0.117792
-0.175317 -0.221073
0.206825 -0.270584
0.027250 -0.075460
-0.319753 0.055589
0.139017 -0.396710
-0.006928 0.015231
-0.294966 0.544662
-0.720619 -0.711169
0.213062 -0.100357
-0.196108 -0.184373
-0.285837 -0.373315
0.132817 -0.168371
-0.104105 -0.295459
0.052301 0.035488
0.097121 -0.260892
-0.182283 -0.106693
-0.094188 -0.159825
0.145554 -0.253061
-0.377924 0.022506
0.212974 -0.226184
-0.490374 0.109630
0.039640 -0.327232
-0.111396 -0.026041
-0.274495 -0.187548
-0.238883 -0.147093
-0.017348 -0.608610
0.112487 0.168406
0.136927 -0.228174
-0.347911 -0.142436
0.137517 0.161161
-0.674273 -0.390735
-0.101688 -0.283276
0.059000 -0.487833
-0.105998 0.041829
-0.095511 -0.063981
-0.134059 -0.587118
0.206283 0.161153
-0.290398 -0.069849
-0.242646 -0.356982
0.031108 0.089611
-0.117211 -0.460296
-0.253364 -0.134071
0.250309 -0.438902
-0.156212 0.195755
-0.510885 -0.214834
0.098484 -0.648993
-0.019684 0.116989
-0.071327 0.045274
-0.317692 -0.493894
-0.002984 0.055057
0.001663 -0.404655
-0.349222 0.115487
0.014682 -0.253980
-0.252037 -0.216208
-0.309906 -0.363028
0.162102 -0.584928
0.064660 -0.204901
0.147709 0.248960
-0.488995 -0.405367
-0.004744 0.004965
0.116059 -0.207917
-0.389756 0.082134
-0.139120 -0.292625
-0.062665 -0.266368
-0.332737 0.005709
-0.034505 -0.380018
0.009188 -0.336466
0.026850 0.169210
-0.348564 -0.426916
-0.154975 -0.027055
-0.012491 -0.170207
-0.613722 -0.223310
0.045444 -0.246395
-0.099192 -0.242029
-0.268252 0.062760
-0.264093 -0.529763
-0.005809 -0.305339
0.009784 -0.061398
-0.268149 -0.059318
-0.136819 -0.456844
0.080404 0.012580
-0.410102 -0.329055
-0.207678 -0.035292
-0.267824 -0.479259
-0.097613 -0.270142
-0.246018 0.015120
-0.126686 -0.538638
-0.108958 -0.014490
-0.001176 -0.291713
-0.471623 -0.229463
0.193735 -0.210102
-0.326469 -0.136005
-0.187370 -0.035453
-0.374648 -0.426568
-0.273048 -0.513211
-0.174416 -0.151529
-0.197013 -0.701521
-0.079605 -0.357965
0.402832 -0.193589
-0.399330 0.008271
0.099443 -0.191438
-0.223827 -0.272893
-0.219732 -0.145019
-0.018135 -0.278092
-0.204940 -0.279347
-0.057618 -0.003701
-0.070695 -0.576201
-0.141245 -0.010544
0.014586 -0.083970
-0.500811 -0.111912
-0.174958 -0.244938
-0.173170 -0.056569
-0.586751 -0.122706
-0.340346 -0.344227
-0.168674 -0.996277
0.179187 0.061949
-0.020656 -0.410380
-0.301342 -0.033811
0.097655 -0.210177
-0.274227 -0.233325
-0.369172 -0.130676
-0.134550 -0.371606
-0.459619 -0.247487
-0.190552 -0.402023
0.084024 -0.667336
0.151385 0.376917
-0.276628 0.009303
-0.740460 -0.293957
-0.103654 -0.493692
-0.224575 -0.282919
-0.394037 -0.462690
0.149481 -0.384951
-0.042209 -0.506633
-0.101971 0.080941
-0.060422 -0.555749
-0.145959 0.215794
-0.290243 -0.141833
-0.487595 -0.375615
-0.003510 -0.150011
-0.118727 -0.042466
-0.744083 -0.343132
0.069461 -0.532970
-0.065118 -0.277563
-0.296914 0.203584
-0.398443 -0.496751
-0.185217 -0.287910
-0.317087 -0.121723
-0.631042 -0.400102
-0.454821 -0.697059
0.306426 -0.450605
-0.524338 -0.248123
0.051955 -0.357720
0.071148 -0.422012
-0.214073 0.159731
-0.403727 -0.533931
-0.047068 -0.339440
-0.253777 -0.088884
-0.203150 -0.322266
-0.484011 -0.455320
0.193048 -0.395072
-0.498862 -0.208907
-0.256762 -0.323730
0.051533 -0.550839
-0.253120 0.030613
-0.258226 -0.132274
-0.198327 -0.590742
-0.181475 0.108241
-0.273090 -0.650112
-0.415999 -0.174474
0.141185 -0.410752
-0.520865 -0.161041
-0.245730 -0.436442
0.052789 -0.700051
-0.177673 0.139650
-0.365076 -0.254696
-0.262625 -0.499882
-0.091346 -0.075212
-0.314160 -0.124712
-0.450603 -0.456928
0.069709 -0.307313
-0.280514 -0.316803
-0.515165 -0.111810
-0.027678 -0.715797
-0.183319 -0.133146
-0.042757 -0.095390
-0.489593 -0.319084
-0.349943 -0.200021
-0.402896 -0.148882
-0.570730 -0.651342
-0.096437 -0.242021
-0.217660 -0.417683
-0.492258 -0.134480
-0.053417 -0.754870
-0.105801 -0.400789
-0.096962 0.067889
-0.527987 -0.342235
-0.335095 -0.482764
-0.137723 -0.157605
-0.367308 -0.723317
-0.237984 0.031666
-0.274010 -0.530669
-0.440464 -0.169548
-0.274130 -0.397339
-0.188132 -0.561476
-0.185861 0.092061
-0.364414 -0.509663
-0.434154 -0.649569
0.137218 -0.161536
-0.338770 -0.305872
-0.615863 -0.020445
-0.171592 -0.756815
-0.462968 -0.242608
-0.409540 -0.555397
-0.012129 -0.694314
-0.107560 0.062442
-0.374270 -0.308637
-0.356926 -0.396426
-0.182570 -0.235940
-0.125048 -0.223742
-0.896120 -0.560231
0.151258 -0.461387
-0.435944 -0.587090
-0.095711 0.010355
-0.299693 -0.715225
-0.158779 -0.135561
-0.317977 -0.129151
-0.678552 -0.501394
-0.128025 -0.423469
0.010817 -0.138824
-0.990821 -0.161389
-0.023701 -0.679223
-0.127776 -0.401420
-0.548623 0.003714
-0.537548 -0.808504
-0.316371 -0.567733
-0.013814 -0.381113
-0.329942 -0.527607
-0.143120 -0.321937
-0.113979 -0.443039
-0.246631 -0.044780
-0.582444 -0.100874
-0.149146 -0.670441
-0.621917 0.071363
-0.197012 -0.741590
-0.169946 -0.434142
-0.124747 -0.044151
-0.722605 -0.484945
-0.318695 -0.538147
0.095423 -0.282036
-0.650575 -0.152186
-0.334239 -0.462827
-0.174143 -0.504818
-0.399894 0.048331
-0.486709 -0.163298
-0.558850 -0.512634
-0.505190 -0.076902
-0.477474 -0.587374
-0.671424 -0.406040
-0.275910 -0.830082
-0.403270 -0.597520
-0.284408 -0.390580
-0.224620 -0.554010
-0.317248 -0.404763
-0.371837 -0.220579
-0.328207 -0.870079
-0.179180 -0.014569
-0.359369 -0.087107
-0.959749 -0.688152
0.034943 -0.434274
-0.347457 -0.443743
-0.648470 -0.217079
-0.156275 -0.984588
-0.376553 -0.518707
-0.096886 -0.113684
-0.549340 -0.674744
-0.130574 -0.465323
0.044418 0.007235
-0.893579 -0.385926
-0.504177 -0.288660
-0.013918 -0.735525
-0.778430 0.249446
-0.378353 -0.796661
-0.528401 -0.539849
-0.119872 -0.253713
-0.520778 -0.783642
-0.345124 -0.482612
-0.172067 -0.243382
-0.626596 -0.492361
-0.320920 -0.474110
-0.029047 -0.353567
-0.723566 -0.136122
-0.746228 -0.366531
-0.195375 -1.036869
-0.268592 0.125999
-0.401725 -0.432664
-0.859896 -0.632958
0.262154 -0.352664
-0.732612 -0.367505
-0.768598 -0.556792
-0.174597 -0.702861
-0.457799 -0.449821
-0.392645 -0.270942
-0.298659 -0.911152
-0.084588 -0.065260
-0.643802 0.029285
-0.863064 -0.892868
-0.029499 -0.334538
-0.174827 -0.461862
-0.767393 -0.017270
-0.147365 -0.542576
-0.637690 -0.313686
-0.886866 -0.238094
-0.647385 -0.996739
-0.435243 -0.364526
-0.478702 -0.542200
-0.525907 -0.755745
-0.263770 -0.474234
-0.282704 -0.321366
-0.865314 -0.406249
-0.227604 -0.640070
-0.226731 -0.494312
-0.738555 -0.218288
-0.070711 -0.707107
-0.459334 -0.483317
-0.318356 0.044780
-1.085956 -0.494293
-0.791273 -0.615020
0.037444 -0.613743
-1.080369 -0.190360
-0.468976 -0.766338
-0.404599 -0.636228
-0.795705 -0.147227
-0.638389 -0.819448
-0.440533 -1.079489
-0.068961 -0.250813
-0.357304 -0.513232
-0.923060 -0.654889
0.162655 -0.813597
-0.763731 -0.301967
-0.521357 -0.286999
-0.182719 -0.896418
-0.666381 -0.007257
-0.360862 -0.438108
-0.909940 -0.798840
-0.166082 -0.137975
-0.605937 -0.456442
-1.068212 -0.608478
0.109421 -0.770522
-0.700263 -0.281257
-0.703155 -0.553480
-0.259281 -1.033741
-0.746602 -0.088126
-0.687358 -0.530084
-0.499896 -1.011428
-0.262279 -0.429231
-0.114053 -0.157304
-1.199710 -0.575815
-0.187502 -0.393115
-0.405242 -0.557366
-1.053359 -0.064123
-0.252268 -1.133567
-0.341173 -0.314728
-0.637703 0.168903
-1.111899 -1.269095
-0.508071 -0.434551
-0.256625 -0.221407
-1.192158 -0.337487
-0.859784 -0.734660
-0.094612 -0.840812
-1.092031 0.055020
-0.842117 -0.846938
-0.434134 -0.868726
-0.764360 -0.098379
-0.834215 -0.941170
-0.691574 -1.129271
-0.037811 -0.130534
-1.030388 -1.079962
-1.049468 -0.364151
-0.072404 -1.130481
-0.810692 -0.213027
-0.696857 -0.490427
-0.456207 -1.320776
-0.523340 0.068056
-0.549656 -0.734481
-0.976080 -0.751313
0.024356 -0.417562
-0.757770 -0.510130
-1.046022 -0.421579
-0.084913 -0.776481
-1.216715 -0.514095
-0.855297 -0.456302
-0.777685 -0.987744
-0.589794 -0.292568
-0.751080 -0.372103
-1.213914 -1.021299
-0.501952 -0.627840
-0.517145 -0.639271
-1.292794 -0.605383
-0.224703 -0.788260
-0.810030 -0.852402
-1.015023 -0.132242
-0.660274 -1.433978
-0.866661 -0.905634
-0.460689 -0.326925
-1.354932 -1.166156
-0.264794 -0.586974
-0.154531 -0.626436
-1.597532 -0.331843
-0.367170 -1.119316
-0.357384 -0.938642
-1.010293 0.401032
-0.813148 -1.576868
-0.535797 -0.599277
-0.594464 -0.200184
-0.993323 -1.097253
-0.987319 -0.645190
-0.159300 -0.887377
-1.689415 0.132675
-0.846816 -1.018070
-0.323353 -1.053415
-1.133038 0.188957
-1.017477 -0.919063
-1.161396 -1.176041
-0.380067 -0.191809
-1.186610 -0.779571
-1.380095 -1.025552
-0.180688 -0.796423
-1.179432 -0.674504
-1.336636 -0.567747
-0.709092 -1.430967
-1.438868 -0.177407
-0.876153 -0.281922
-1.520040 -1.793683
-0.619992 -0.324337
-0.759673 -0.751535
-2.264676 -1.114595
-0.007552 -1.189916
-0.757865 -0.798817
-1.937102 -0.176146
-0.482154 -1.849147
-1.414232 -0.759267
-0.866806 -0.415586
-1.782661 -2.010261
-1.137275 -0.592566
-0.149400 -0.397680
-2.594642 -1.384076
-0.209467 -1.028227
-0.738982 -1.265324
-2.038295 -0.180798
-0.678365 -1.678444
-1.209680 -1.571978
-0.707748 0.174932
-1.693473 -1.923399
-1.416373 -1.172717
-0.166347 -0.648196
-2.616755 -1.756798
-1.112319 -0.514429
-0.422958 -1.625650
-1.771069 -0.172751
-1.286360 -1.046144
-1.350198 -2.404099
-0.849923 0.198994
-1.365876 -1.498155
-2.151406 -1.362705
-0.372283 -0.722853
-2.173510 -1.564102
-2.383609 -1.194670
0.432680 -2.588052
-2.087062 0.001394
-2.494639 -0.205137
-1.525769 -2.735191
-1.313771 -0.202773
-1.443972 -1.034976
-3.072268 -2.696542
0.209572 -0.523085
-2.430449 -1.056137
-3.466167 -1.649141
-0.069640 -2.143423
-2.780897 -1.628382
-2.269636 -0.458999
-1.678261 -3.721136
-2.275728 -0.836285
-2.330215 -0.374776
-3.415476 -3.396046
-0.975855 -0.577831
-1.400049 -2.561368
-4.171853 -0.944859
-1.439529 -2.173022
-2.543236 -3.289031
-3.607875 0.436503
-2.279160 -4.696113
-3.433584 -2.716211
-1.086065 -0.174644
-4.975109 -4.007466
-4.657566 -2.368990
-0.353850 -3.330975
-6.804667 -0.624474
-2.774043 -2.977306
-1.772106 -6.167520
-6.391553 1.225084
-3.061946 -5.538858
-6.504429 -6.692509
-1.513150 0.535013
-6.263472 -6.439273
-10.605841 -4.560472
2.003342 -6.197605
-10.605886 -4.253730
-10.834595 -2.161018
-3.578426 -15.218301
-12.675080 0.273609
-4.670866 -2.372601
-20.559738 -26.022156
2.739912 -0.836968
-13.987661 1.516132
-56.350769 -40.472819
34.155977 -8.373424
-65.198282 -24.319518
-44.069791 -48.284467
39.821620 -15.587301
-249.768892 -89.756775
-264.883406 132.543740
-1230.507255 -3331.617103
