8269.006161 5388.206531
-926.244951 -105.437035
-143.189191 -747.088825
83.979591 -96.571706
13.807147 286.778229
-26.880758 37.446232
40.519511 -115.653764
48.092361 8.040194
-14.155743 55.190599
11.525634 29.062193
23.865205 -38.405342
6.054461 7.472260
-23.213017 10.412688
-0.748206 0.316860
22.357638 -27.965745
14.707567 -0.900733
0.582612 1.321369
7.786586 8.995269
21.246561 -3.479758
3.271191 9.326433
-7.791094 3.483054
-8.386393 0.502988
11.564956 -8.790223
1.258638 -1.841470
2.823045 -4.706171
1.915385 -1.238743
17.184521 0.517903
3.877322 4.642286
2.834802 3.241428
-3.960020 2.118782
5.750492 1.813102
-2.373202 -2.388420
0.789088 -4.297685
0.676521 -6.106185
9.937546 1.164515
3.994784 -1.139520
4.438819 2.142425
2.007109 -0.273505
4.116387 7.664708
-1.446054 -0.088075
-1.774752 -0.561944
0.381103 -6.754182
4.171769 0.886885
4.435352 -3.504456
3.199613 0.180352
4.779586 -1.927805
2.781733 5.461465
2.065885 1.048605
-1.504969 1.244632
1.048946 -2.382211
-1.649509 0.762723
2.717782 -3.163070
1.146662 -2.929347
6.238958 -1.953540
2.166688 1.946269
4.218185 1.855980
-0.184974 1.413429
2.582402 1.269285
-2.667373 0.562288
0.675085 -0.743192
0.132697 -3.509325
4.400091 -1.362090
1.730204 -2.129985
3.910858 0.941627
2.288080 -0.418662
2.594667 2.779159
-0.560846 0.557390
-0.550345 1.892019
-0.275474 -2.799113
1.329664 0.353187
0.753882 -3.017542
2.402747 -0.251366
3.952734 -2.368319
2.347567 2.128689
2.197067 0.269019
-0.206627 2.142231
0.761125 -0.745956
-1.621115 0.665885
0.102645 -2.085517
0.401845 -1.572629
3.518500 -2.097300
1.667603 0.137779
3.454046 0.052698
0.785858 0.870694
3.239121 1.450877
-1.083465 0.810813
0.188514 -0.190295
-1.677661 -1.914518
2.065493 -0.929784
0.650064 -1.864137
2.436815 -0.674744
0.992960 -0.787697
3.378122 1.752158
0.412127 0.390636
0.577016 1.402157
-0.699875 -0.808259
-0.104962 0.690943
0.584989 -2.212833
0.561530 -0.890977
2.220979 -2.477795
2.397177 1.136755
2.200851 -0.204698
1.029525 1.592828
0.978173 0.158012
-1.003515 1.102262
0.258332 -1.309227
-0.821466 -0.831004
1.512568 -2.298057
0.399881 -0.065354
2.484459 -0.584753
1.252667 0.144669
2.607724 0.810250
-0.153662 1.398630
0.618295 0.891355
-0.776458 -0.823212
0.625487 -1.079757
-0.412119 -1.605237
1.489506 -1.215495
1.376750 -1.414555
2.739949 0.782487
0.686740 -0.047012
0.947819 2.121597
-0.090895 -0.126613
0.273190 0.867739
-0.694240 -1.061179
0.068847 -0.956456
0.765556 -1.599645
1.501176 -0.135971
1.687877 -1.246991
1.096018 0.984618
1.335774 0.010442
-0.186694 1.540462
0.090703 -0.283226
-1.073153 -0.326438
0.577195 -1.264590
-0.194373 -0.524209
1.478695 -1.274628
0.790666 0.035891
2.222393 -0.017497
0.448036 0.984636
0.824882 0.594071
-0.935560 -0.017992
0.367808 0.027932
-0.620963 -1.049170
0.590661 -1.195621
0.117687 -1.413470
1.825095 -0.097539
1.231523 0.045578
1.205982 0.798287
0.232300 0.147199
-0.091320 0.928327
-0.467532 -0.462283
-0.017376 0.029615
-0.034948 -1.414791
0.619904 -0.395926
1.141188 -1.123132
1.335939 0.441881
1.683904 -0.168133
0.632330 1.056168
0.174336 0.062608
-0.472424 0.438779
-0.020539 -0.725532
-0.691220 -0.586971
0.688358 -1.670329
0.342926 -0.730000
1.824351 -0.687663
0.864836 0.586047
1.232807 0.213367
0.220443 0.367771
0.651642 0.266016
-1.260399 -0.210006
0.112590 -0.550308
-0.500350 -1.446774
1.426743 -0.267756
0.742759 -0.915468
1.206487 0.426586
0.412772 -0.024269
0.889012 1.148486
-0.361266 -0.320237
0.116444 0.268386
-0.426369 -1.332646
0.519408 0.028404
0.667192 -1.398810
1.129265 -0.317803
1.376569 -0.714108
1.009647 0.699048
0.264689 0.189390
-0.266166 0.571335
0.134264 -0.343048
-0.576803 -0.035234
0.533661 -0.980318
0.208842 -1.007378
2.083723 -0.872629
0.673253 -0.405417
1.657052 -0.155012
-0.060495 0.539688
0.843071 0.700209
-0.725109 0.325054
0.676408 -0.131778
-0.470096 -0.822927
1.141005 -0.730339
0.477952 -1.144589
1.237922 -0.220546
0.514529 -0.616941
1.108993 0.719264
0.217083 -0.268049
0.313656 0.736602
-0.383699 -0.393102
-0.050212 0.066981
0.310424 -1.589395
0.796446 -0.327508
0.911050 -1.313006
0.905446 0.877454
0.513452 -0.271427
0.429361 0.570835
0.255124 -0.337062
-0.137077 0.175997
-0.446446 -0.648694
-0.194013 -0.364867
0.913895 -1.103764
0.304682 -0.618484
1.187259 -0.192647
0.364141 0.010625
0.774525 0.731208
0.015656 0.183960
0.005169 -0.021817
-0.789918 -0.441286
0.092551 -0.326560
-0.490361 -0.378973
0.403035 -0.472974
0.189835 -0.488183
1.291010 -0.032315
0.468328 -0.243591
0.398312 0.616764
-0.314791 0.332901
-0.247650 0.114406
-0.276037 -1.000901
0.288123 -0.298365
0.346169 -0.884512
0.691034 -0.153131
0.788436 -0.399028
0.373670 0.155077
0.169228 -0.534202
-0.380987 1.019524
0.053684 -0.227037
-0.359088 -0.180688
0.729382 -0.800852
0.438712 -0.654785
0.639034 -1.020901
0.504358 -0.326121
0.885914 0.537191
-0.131236 0.630382
0.765907 0.024717
-0.337094 -0.067381
0.432885 -0.179925
-0.875101 -0.750586
0.030327 -0.460172
0.822221 -0.636666
1.324423 -0.145953
0.712862 -0.669072
1.052859 0.551824
-0.377481 0.054392
0.084584 0.745167
-0.063989 -0.285969
0.128033 0.306251
0.343884 -1.195771
0.804148 -0.550479
1.113412 -0.991195
0.267695 0.265647
0.805606 -0.378728
0.155866 0.378676
-0.158857 0.151750
-0.790114 -0.019878
0.079877 -0.148706
-0.378697 -0.042605
0.351574 -1.234714
0.170059 -0.241637
1.372188 -0.191760
0.270678 0.104045
0.824088 -0.139782
-0.391470 0.520834
-0.363699 -0.192496
-0.577846 -0.343706
-0.000805 -1.318682
-0.035116 -0.910996
0.630021 -0.278837
0.421617 -0.081939
0.678725 0.267946
0.106851 -0.038805
0.407597 0.688306
-0.446375 -0.328105
-0.193683 -0.242230
0.012678 -1.049098
0.097673 -0.476587
0.543170 -1.178958
1.146536 -0.107528
0.353390 -0.604174
0.743480 0.873773
0.529798 -0.162196
-0.330345 0.648671
-0.065948 0.039086
-0.377927 -0.308384
0.267230 -0.738063
-0.036708 -0.787908
1.011700 -1.041753
0.623404 0.087892
0.886548 0.233805
-0.394224 0.173209
0.509126 0.387660
-0.623444 -0.225252
0.642475 -0.364933
-0.315891 -0.735952
0.760177 -0.425453
0.450193 -0.707082
0.751323 -0.046957
0.556071 -0.438819
0.432284 0.339050
0.151424 0.272067
-0.207209 0.275439
-0.433121 -1.023646
-0.229652 0.107877
-0.350725 -0.991828
0.490464 -0.306923
0.825384 -1.048059
0.504571 0.008777
0.412861 0.030482
0.450044 0.454019
0.149767 -0.346552
-0.603351 0.311560
-0.143279 -0.871223
-0.070238 -0.194635
0.257952 -0.868325
0.169511 -0.419671
0.854880 -0.440454
0.319477 0.276506
0.601841 -0.075458
-0.199972 -0.035882
0.011900 0.298241
-0.402337 -0.035856
-0.044775 -0.256554
-0.319556 -0.765418
1.034002 -0.479015
0.638773 -0.117567
0.851948 0.633780
0.516128 -0.271182
0.445683 0.473224
0.069191 -0.035021
-0.142714 0.010886
-0.326078 -1.057435
-0.046931 -0.479747
0.223833 -0.711238
0.405198 -0.243009
0.174376 0.148795
0.183998 0.197534
0.132122 -0.096411
-0.448206 0.249651
-0.076378 -0.565458
-0.504041 -0.131546
0.317652 -0.796585
0.180366 -0.400574
0.548677 -0.386883
0.174771 -0.123221
0.658800 -0.155827
-0.267889 0.353788
-0.088089 -0.137352
-0.356241 -0.402418
0.182122 -0.697752
-0.603334 -0.367423
0.529377 -0.228744
0.126587 -0.749543
0.887580 0.195064
0.181751 -0.223211
0.269084 0.630885
0.170186 -0.069327
0.249170 0.449811
-0.705420 -0.119461
-0.104396 -0.418334
0.199444 -0.865448
0.775114 -0.291710
0.390112 -0.132910
0.182367 0.051561
0.538969 -0.441822
0.259523 0.295683
0.038232 0.163349
-0.196792 0.253214
-0.046275 -0.626241
-0.084196 -0.438789
0.115720 -0.693421
0.455446 -0.635216
0.818459 -0.455674
0.003961 0.033572
0.144918 0.250872
-0.529061 -0.295496
-0.036999 -0.252276
-0.842415 -0.279797
0.625823 -0.512311
-0.186044 -1.095497
0.803031 -0.233408
0.123892 -0.348473
1.036011 0.337976
0.447860 -0.445662
0.148589 0.530253
-0.598783 0.020046
0.020826 -0.347217
-0.140514 -1.067814
-0.171753 -0.380076
0.554319 -0.620067
0.297931 0.200121
0.420168 -0.108481
0.447567 0.995808
0.380490 -0.274653
-0.384972 0.171445
0.412438 -0.545347
-0.305127 -0.206621
0.021147 -0.837545
0.139481 -0.597982
0.294331 -0.283150
0.442062 -0.220296
0.622084 -0.467714
-0.148065 0.043357
0.425436 0.075219
-0.425934 0.214276
-0.000893 -0.574183
-0.634033 -0.624992
0.605820 -0.546241
0.259757 -0.693415
0.453254 -0.132077
0.204427 -0.409194
0.146131 0.004969
-0.151400 -0.374613
0.080248 0.202962
-0.282378 -0.564025
-0.007156 -0.017946
0.258312 -0.359748
0.603225 -0.169565
0.309357 -0.573938
0.523692 0.436004
0.247591 -0.164293
-0.290393 0.571136
-0.104569 0.143342
-0.818926 -0.085922
-0.267689 -0.975661
0.183570 -0.384637
0.314281 -0.840714
0.120602 -0.281265
0.440721 -0.108311
0.064528 0.202553
0.359403 0.008819
-0.449764 -0.050292
0.024190 -0.607451
-0.705907 -0.084227
0.272810 -0.558474
0.202548 -0.939842
0.386324 -0.156405
0.295686 -0.737962
0.596882 0.100172
-0.130862 -0.233299
-0.076834 0.705969
-0.156520 -0.107781
-0.561200 -0.012324
-0.205047 -0.445046
0.119301 -0.303267
0.168280 -0.550471
0.527559 -0.148545
0.826036 -0.224822
0.369142 0.335706
0.223107 0.144022
0.051083 0.704345
-0.020379 -0.394181
-0.258582 -0.124245
0.085927 -0.797463
0.069981 -0.677586
0.674666 -0.596809
0.417751 0.108910
0.562755 -0.359948
-0.350081 0.114073
0.207961 0.196302
-0.715730 -0.305574
-0.236189 -0.531979
-0.050783 -0.635289
0.751930 -0.423449
0.256869 -0.748441
0.365557 0.039812
0.227245 -0.142121
0.216825 0.351596
-0.287267 -0.049995
-0.158932 0.295746
-0.155670 -0.832609
-0.262142 -0.116398
-0.002675 -0.344442
0.421853 -0.464664
0.156122 -0.414312
-0.191031 0.335851
0.411194 -0.164542
-0.221535 0.478044
-0.584047 -0.590346
-0.246436 0.009160
-0.068129 -1.248948
-0.265753 -0.208953
0.316032 -0.852075
0.664383 0.042083
0.367506 -0.113039
0.031760 0.110171
0.223085 0.265679
-0.393917 -0.073333
-0.316366 0.180015
-0.367916 -0.324288
0.457060 -0.495257
0.045149 -0.851731
0.566912 -0.658328
-0.042789 -0.549259
0.460604 -0.124598
-0.158810 0.165629
-0.008075 0.281800
-0.498096 -0.535901
-0.077867 0.183279
-0.430966 -1.100414
0.305953 -0.044973
0.169597 -0.472009
0.506470 0.018168
0.687880 -0.383164
0.141425 0.286133
-0.054474 -0.383990
-0.191311 -0.153641
0.141806 -0.357083
-0.322554 -0.501117
0.463672 -0.758664
-0.184452 -0.402021
0.698412 -0.533149
0.186497 -0.282117
0.836911 -0.055005
-0.095656 -0.051975
-0.131395 0.013513
-0.325576 -0.017529
-0.169728 -0.279349
-0.601706 -0.771902
0.266027 -0.347601
0.086288 -0.579644
0.712115 0.330742
-0.271143 -0.066453
0.285229 0.227547
-0.374760 0.098630
-0.211096 0.219261
-0.333199 -0.308197
0.060918 -0.539923
0.181718 -1.041040
0.351090 0.085392
0.404201 -0.854542
0.110940 0.236784
0.305424 -0.288057
-0.091101 0.197980
-0.015011 -0.488834
-0.485056 -0.292482
-0.182937 -0.769691
0.170843 -0.151194
0.136862 -0.850996
0.190336 -0.135596
0.200287 -0.139572
0.155822 0.102578
0.189648 -0.240238
-0.441234 0.356758
-0.187661 -0.218687
-0.551855 -0.474264
-0.063670 -0.001666
-0.251346 -0.644054
0.461327 -0.316716
0.150247 -0.386953
0.321902 0.080870
0.228938 0.026339
-0.099647 0.231210
-0.366648 -0.363069
-0.161015 0.039823
0.180008 -1.050758
0.319237 -0.426214
0.175802 -0.536667
0.436913 0.003224
0.294945 -0.480984
0.074779 0.575682
-0.307134 -0.186703
-0.489520 0.500087
-0.208289 -0.509595
-0.373843 -0.156955
0.099705 -0.457020
-0.295751 -0.093710
0.493718 -0.280920
-0.142689 -0.044420
0.090455 -0.183776
0.033584 -0.204089
0.119157 0.186531
-0.198513 -0.429569
-0.218429 -0.809360
-0.282390 -0.446016
0.387290 -0.687233
0.317571 -0.696411
0.610064 0.034767
0.126799 0.180155
0.351911 0.492507
-0.382479 -0.443751
-0.238764 0.033962
-0.647271 -0.813107
0.142495 -0.121893
0.019006 -0.701002
0.018841 -0.184376
0.403139 -0.316752
0.283933 0.348647
-0.015417 -0.226523
-0.280228 0.112387
-0.121469 -0.294871
-0.476156 -0.656611
0.141876 -0.940220
-0.167873 -0.184506
0.087156 -0.484972
0.406403 0.025009
0.509911 -0.256627
-0.234432 0.162424
0.905843 0.183626
-0.575551 0.214479
-0.034013 -0.203927
-0.774575 -0.460739
0.343448 -0.373171
-0.183835 -0.873806
0.587100 -0.277519
0.094946 -0.417838
0.225553 0.217364
-0.427729 -0.013780
-0.397481 -0.171710
-0.651098 -0.378113
-0.407846 -0.363071
-0.280803 -0.984121
0.349408 -0.499207
0.286574 -0.739440
0.355604 -0.102985
0.329795 -0.254427
0.185041 0.222014
-0.086212 -0.279100
-0.394016 0.485862
-0.030090 -0.532393
-0.309562 -0.300321
0.231093 -0.369993
-0.191755 -0.613147
0.751064 -0.524348
-0.212885 -0.251848
0.433703 -0.032196
-0.369456 0.110239
-0.002643 -0.249657
-1.030556 -0.318992
-0.123646 -0.603127
-0.474674 -0.681005
0.308881 -0.732023
-0.255585 -0.154978
0.995555 -0.137437
-0.160441 0.035021
0.204170 0.532825
-0.479934 -0.153092
-0.183763 0.082945
-0.489739 -0.758047
-0.090839 -0.447281
0.121473 -0.423933
0.201401 -0.145740
0.341578 -0.378570
0.338507 0.283542
0.175901 -0.198343
-0.259179 0.268337
-0.524329 -0.135263
-0.350635 -0.431879
0.331782 -0.785168
-0.457528 -0.413544
0.243398 -0.866050
-0.157149 -0.261471
0.317705 -0.542140
-0.210976 0.258032
-0.073940 -0.242426
-0.489441 -0.172890
-0.101135 -0.054882
-0.341208 -0.442720
-0.129764 -0.384627
-0.058011 -1.038259
0.684613 0.170901
0.180466 -0.403331
0.561040 0.529224
-0.106230 0.157461
-0.170588 0.374519
-0.449321 -0.412970
0.011241 0.033505
-0.245876 -0.861885
0.279218 -0.563004
0.445210 -0.746684
0.157685 0.020804
0.226227 -0.026551
0.088570 0.157663
-0.300640 -0.243845
-0.396956 -0.096649
-0.478263 -0.504764
-0.334343 -0.067077
-0.109389 -0.505128
0.150913 -0.285971
0.608505 -0.306745
-0.275547 -0.161929
0.546820 -0.144490
-0.871239 0.244091
-0.022644 -0.024656
-0.627769 -0.137899
0.244346 -0.843343
-0.292553 -0.590054
0.442494 -0.473507
-0.058610 -0.556076
0.273950 -0.022648
-0.056863 0.226668
-0.067576 0.142338
-0.544176 -0.585508
-0.226755 0.134424
-0.847219 -0.581705
0.223893 -0.560820
-0.519937 -0.576495
0.431339 0.153503
0.209193 -0.673454
-0.248425 0.176012
-0.176931 0.080848
-0.497098 -0.081103
-0.161728 -0.556024
-1.022692 -0.213804
0.142049 -0.984729
-0.056430 -0.663754
0.561914 -0.518309
0.175564 -0.045164
0.580068 -0.201506
-0.722098 0.042048
0.148938 0.261931
-0.568219 0.107225
-0.198654 -0.365812
-0.400136 -0.385181
0.278613 -0.279274
-0.528783 -0.605874
0.325711 -0.422355
0.167213 -0.040270
0.393690 -0.095361
-0.297324 -0.111037
0.120553 0.192024
-0.347685 -0.605962
-0.052233 0.086015
-0.237729 -0.840695
0.293115 -0.603995
0.197922 -1.072695
0.346892 -0.096672
0.244596 -0.790909
-0.225309 0.319444
-0.009291 -0.268695
-0.687181 0.068585
-0.382310 -0.698885
-0.878378 -0.175262
0.553763 -0.727056
-0.232355 -0.519904
0.245956 -0.429297
0.084661 -0.082559
0.030933 0.073412
-0.387183 0.289660
-0.076787 0.141451
-0.708986 -0.515600
-0.012021 -0.502136
-0.680423 -0.389515
0.705117 -0.576909
-0.177153 0.093332
0.301322 0.284059
-0.620657 -0.372121
-0.127367 0.196725
-0.699575 -0.465549
-0.481289 -0.232859
-0.628905 -0.613418
0.251437 -0.458128
-0.156699 -1.005791
0.120753 -0.382600
0.375780 -0.546070
0.056172 0.109720
-0.083479 -0.150476
-0.412399 0.554791
-0.440227 -0.606825
-0.718738 -0.188484
0.276976 -1.046601
-0.276505 -0.556222
0.352303 -0.519019
0.169755 0.105128
0.312543 -0.056829
-0.322830 0.368611
-0.069359 0.330589
-0.823894 0.055813
-0.212829 -0.344569
-0.892307 -0.204959
0.214960 -0.881051
-0.472223 -0.612483
0.546326 -0.330141
0.273494 -0.177685
0.542074 0.491409
-0.330421 0.017887
-0.286842 0.303092
-0.417946 -0.790539
-0.432340 -0.297523
-0.421995 -1.204899
0.066251 -0.159503
0.411812 -0.367021
0.214518 -0.101619
-0.418065 -0.290093
0.050298 0.219506
-0.150963 -0.769266
-0.782903 -0.138481
-0.149903 -0.279207
-0.337077 -0.559344
0.479221 -0.711253
-0.161723 -0.168338
0.393167 -0.160154
0.340353 0.063784
0.049533 0.124233
-0.894747 0.131155
-0.401079 -0.055056
-0.804132 -0.261994
-0.238199 -0.566177
-0.458602 -0.327256
0.366722 -0.483950
-0.216594 -0.501945
0.242526 0.399443
-0.232747 -0.341445
0.390776 0.331303
-0.701552 -0.309525
-0.672592 0.548899
-0.752030 -1.127536
0.295284 -0.437178
-0.290408 -1.147344
0.472892 0.040170
0.006236 -0.516920
0.409578 0.218132
-0.143590 -0.185083
-0.789545 0.404414
-0.152993 -0.969905
-0.518931 -0.434484
-0.042036 -0.836091
-0.520329 -0.581427
0.400554 -0.905229
0.134506 -0.307397
0.260917 -0.032689
-0.569457 0.564114
-0.355142 0.008328
-0.753240 -0.185975
-0.477132 -0.561477
-0.988878 -0.583867
0.529279 -0.731729
-0.169793 -0.419998
0.462086 0.160591
-0.173366 -0.257966
-0.000420 0.377142
-0.746328 -0.030753
-0.430939 0.259735
-1.120700 -0.836554
-0.328561 -0.488959
-0.668993 -1.226271
0.032895 -0.099324
0.044790 -0.574298
0.040576 0.390420
-0.022621 -0.325643
-0.472880 0.721879
-0.111861 -0.538467
-1.076494 0.122248
-0.355013 -0.979825
-0.183978 -0.422835
0.088506 -0.774203
-0.195854 -0.496556
0.927402 -0.702101
0.035729 -0.039436
0.416040 0.061643
-0.692133 -0.069781
-0.181110 -0.314925
-0.951460 -0.243303
-0.151061 -0.631877
-1.126304 -0.883859
0.353481 -0.663243
-0.107750 -0.418669
0.428216 0.249490
-0.489427 0.076432
0.126634 0.220999
-0.810261 -0.052726
-0.281651 -0.058287
-0.884872 -0.980722
-0.074578 -0.323588
-0.160988 -0.568254
0.211221 -0.365000
0.117800 -0.462877
-0.462284 0.784958
-0.078663 -0.256213
-0.517618 0.471699
-0.587832 -0.547674
-1.100165 -0.094647
-0.305556 -1.052804
-0.046775 -0.431658
0.352225 -0.672340
-0.091943 -0.091964
0.727552 0.187870
-0.595091 0.036421
-0.166491 0.271124
-1.019203 -0.439864
-0.237985 -0.361950
-0.384161 -0.592819
0.360299 -0.658402
-0.294340 -0.375843
0.627953 0.009338
-0.309452 -0.399690
-0.081422 0.137733
-0.782290 -0.502024
-0.257120 0.292182
-0.944845 -0.252861
-0.349432 -0.755292
-0.341598 -0.996502
0.020022 0.145722
0.415772 -0.808570
0.368122 0.165861
-0.280676 -0.110026
-0.153688 0.692740
-0.356774 -0.451968
-0.803239 0.076859
-0.522966 -1.143389
-0.786704 -0.389619
0.420781 -0.804901
-0.344502 0.157202
-0.096790 -0.419808
-0.635170 0.812554
-0.026961 -0.195598
-1.140838 0.097734
-0.464963 -0.291385
-1.281106 -0.386111
0.381530 -0.622183
-0.410064 -0.611811
0.221248 -0.592345
-0.714718 -0.481081
0.702671 0.162670
-0.645420 -0.013184
-0.587364 0.283663
-1.310059 -0.121019
-0.820035 0.227530
-0.908171 -1.248097
-0.147958 -0.555045
0.112020 -1.032387
-0.089719 0.066531
0.784939 -0.861974
-0.012317 0.586813
-0.582422 -0.080197
-0.782478 0.086804
-0.299415 -0.231066
-0.639874 0.073613
0.185467 -1.382626
-0.338834 -0.495261
0.278148 -0.950666
-0.434941 -0.149592
0.251255 0.074482
-0.217450 0.623345
-0.088971 0.077190
-1.495444 -0.596057
-0.134011 -0.780388
-1.358594 -0.850540
0.185418 -0.615398
-0.021301 -0.399877
1.080420 -0.034042
-0.393250 -0.217219
-0.330736 0.301342
-1.009777 0.023863
-0.737999 0.715050
-1.490907 -0.896354
-0.282124 -0.181213
-0.134021 -1.583530
0.232684 -0.676434
-0.031808 -0.863320
0.131594 0.760175
-0.601145 -0.258347
-0.520810 0.973110
-0.694058 -0.491664
-1.495748 0.503975
-0.807445 -1.039363
-0.496625 -0.502547
-0.094389 -1.431557
-0.619249 -0.459440
0.476993 -0.588368
-0.396918 0.479336
0.223092 0.122930
-1.745490 0.507940
-0.549890 -0.353290
-2.049516 -1.163786
-0.084979 -0.825783
-1.029505 -0.773873
0.608176 -0.252699
-0.372000 -0.393051
0.660936 0.281480
-0.956996 -0.002182
-0.321034 0.958046
-1.410875 -0.198283
-0.723135 -0.580431
-0.963315 -1.351302
-0.171079 -0.402934
-0.029675 -1.019253
0.500440 0.482112
0.039631 -0.628194
-0.084416 0.714715
-0.850844 0.036463
-1.160079 0.692867
-0.959784 -0.802267
-0.952008 -0.337845
-0.109291 -1.084569
-0.371652 -0.349162
0.659778 -0.801980
0.261423 -0.190221
0.328325 0.251925
-0.842480 0.681890
-0.711431 0.002625
-1.629589 -0.327487
-0.312003 -0.374984
-0.897145 -0.841980
0.858480 -0.562147
-0.142691 -1.028190
0.432649 -0.017383
-0.461789 -0.156862
0.054466 0.757191
-1.349125 0.095183
-0.671755 0.236034
-1.297412 -0.888617
-0.193457 -0.152116
-0.390496 -1.638616
0.154801 -0.036797
0.119534 -0.871269
0.071478 0.829776
-0.362696 -0.067585
-0.935356 1.126320
-1.098812 -0.465451
-1.253420 -0.150293
-0.842706 -1.635017
-0.827166 -0.419587
0.122687 -1.205953
-0.124110 -0.114369
0.557731 -0.342558
-0.843251 0.628541
-0.051437 0.653966
-1.684152 0.371087
-0.782084 -0.445865
-1.575118 -0.921325
-0.592370 -1.048335
-1.283927 -0.712080
0.558924 -0.514788
-0.762297 -0.518140
1.151261 0.749490
-1.255019 0.281006
-0.376988 1.204453
-1.889331 -0.563027
-0.773675 -0.093166
-1.049956 -1.247987
-0.249233 -0.419892
-0.686521 -1.635875
0.342547 0.181564
0.035936 -0.725352
-0.532279 1.386139
-0.965989 -0.620915
-1.924389 0.632795
-1.115089 -1.216441
-1.581650 -0.085921
-0.127279 -2.032146
-0.520706 -0.339873
0.814106 -0.686878
-0.714821 1.004271
0.757165 0.117181
-1.912524 0.450733
-0.811356 -0.297538
-2.665151 0.130176
-0.925895 -1.146332
-1.861152 -1.120702
0.106993 -0.919790
-0.756175 -0.757549
1.196219 0.430735
-0.543705 0.214210
-0.004703 1.305940
-1.846865 -0.273822
-1.100859 -0.131209
-2.027994 -1.532849
-1.133860 -0.278723
-1.384726 -1.912592
0.097657 -0.076755
-0.335330 -1.351942
-0.066357 1.631863
-0.387196 0.314596
-1.095566 1.487532
-1.268675 -0.818584
-2.261951 -0.033210
-0.704781 -2.039481
-0.853359 -0.293782
0.483882 -2.122729
-0.811394 0.085082
0.320805 -0.398075
-0.851749 1.122047
-0.100411 0.584196
-2.812217 0.460400
-1.049362 -0.194794
-2.624988 -0.513257
0.409669 -1.033202
-1.132895 -1.549572
0.895169 -0.530414
-0.458109 -0.238665
1.144918 1.120002
-2.049998 -0.138473
-1.199879 0.610598
-3.067649 -0.547269
-1.271446 -0.086047
-2.038770 -2.184210
-0.511118 -0.576450
0.095129 -1.209570
0.528955 1.449078
0.452385 -0.686482
-0.665895 1.624135
-1.575466 -0.212774
-2.093165 1.611168
-1.580354 -1.846813
-2.541647 -1.257889
-0.686711 -2.399374
-1.413487 0.109609
1.478620 -1.465082
-0.124753 0.971073
-0.356079 0.653549
-2.745298 2.761480
-0.926006 -0.012519
-3.289184 -0.897707
-1.146078 -1.465972
-2.819754 -1.021522
0.848634 -1.134917
-0.161767 -1.625430
1.234135 0.492707
-1.399019 0.715142
0.046475 2.274480
-2.900882 0.006751
-1.966439 0.746083
-4.150467 -2.785240
-0.675365 0.060522
-1.116545 -2.791521
0.120540 0.033816
-0.928324 -1.359678
0.287330 2.378310
-0.061405 0.960709
-2.532430 2.432531
-3.847368 -1.466481
-3.106505 0.468096
-0.815485 -3.275388
-1.799814 -1.637883
0.348706 -3.349279
-0.764617 0.759329
2.603378 0.988218
-3.326064 2.598616
-1.623028 0.406937
-4.815237 1.967767
-1.231311 0.479306
-4.828286 -2.067649
-0.263899 -3.750933
-2.571620 -2.386226
2.825176 -0.192626
-0.792774 0.056778
0.959546 0.661339
-4.298643 1.177102
-2.219894 4.844208
-5.636941 -1.662049
-2.713928 -1.681446
-4.033249 -4.025832
-1.560472 0.983538
0.584739 -3.602036
2.290520 0.812522
-1.108118 -0.382598
-3.183455 7.431739
-4.565220 -0.412136
-4.560884 0.420798
-3.716128 -4.767128
-7.274329 1.669572
-0.062448 -6.111476
1.171179 -2.542262
2.735105 -2.458600
-3.710857 4.499083
0.775700 2.916839
-4.750440 4.814705
-4.783935 0.390615
-16.018991 2.033729
-3.848638 -4.540060
-2.837901 -6.712247
3.342902 -1.937573
-8.560979 -3.979974
6.033629 1.588980
3.135763 3.466977
-2.216390 6.461051
-17.723045 -1.622016
-7.124121 4.395807
-6.327477 -7.913981
-1.666246 0.899164
-19.442499 -13.033026
0.017383 3.266554
13.805901 3.939477
-5.914994 17.823554
-28.490361 -15.672307
-5.605662 14.505799
-7.829059 12.632521
-16.409018 -15.262783
-19.457466 -47.707187
-16.488785 -15.905841
77.491054 24.364781
24.378026 29.577720
-60.294763 -51.082499
15.847399 -25.154536
91.439867 398.714376
-870.844204 238.461960
-252.254900 -1393.910828
-6301.477802 97.819151
