23400.500207 25939.833835
-11244.796772 -2771.274368
1548.664574 3075.910377
-44.771542 -660.381760
42.772689 -1046.373915
680.120437 132.231273
-23.868620 532.436475
1526.169548 727.066308
810.858263 -270.089273
737.143385 -270.187336
513.028303 -706.727235
456.970909 -831.049431
1087.986323 -238.303076
484.829283 -297.484311
668.238239 -499.496762
326.225310 -534.009480
439.664896 -334.069143
75.312346 -556.295669
270.125794 -621.066384
294.042180 -492.346795
64.927997 -403.178205
113.315477 -587.081308
160.477215 -423.002291
63.447532 -487.200496
53.079382 -527.936346
52.674794 -414.177627
-24.723399 -354.248695
16.059051 -245.955846
-127.306948 -293.482741
-35.769146 -286.604757
-4.919688 -321.599928
61.685468 -216.222343
-58.378206 -221.417303
-23.314277 -244.664066
-3.177343 -158.776953
-81.278106 -165.469345
-37.543437 -159.933115
-25.518658 -139.690643
-34.098543 -127.241853
16.639118 -140.852351
19.826935 -116.770376
27.731056 -99.761550
-16.093701 -91.820317
18.816169 -120.010111
24.081690 -81.353409
34.833764 -100.556863
42.142226 -95.478702
39.948946 -95.573446
31.694830 -109.860204
25.325615 -99.993139
55.311833 -145.414530
70.714731 -124.043515
47.369818 -107.115987
32.245235 -116.324954
46.763349 -110.579967
24.480386 -118.473141
28.319810 -120.512504
-13.727093 -126.231046
9.589735 -124.640687
-0.716797 -101.429706
10.064194 -95.078724
-0.165479 -85.882161
-11.376820 -94.964030
-6.493737 -71.906816
-19.566590 -61.064764
10.309520 -79.545974
25.791124 -46.634669
6.197499 -44.970150
14.762865 -49.956225
24.121155 -47.274232
36.154799 -40.648196
38.430552 -61.298776
38.273944 -55.597585
47.577799 -58.149000
43.839261 -46.696169
60.904815 -57.685278
65.470809 -66.384117
56.293289 -80.478305
67.601230 -74.716149
49.668958 -80.792924
55.946402 -85.788444
54.793542 -87.815126
32.937969 -97.061454
40.888443 -89.580242
41.679810 -104.204624
45.307444 -97.398772
38.991962 -110.465730
23.480903 -101.394858
30.230522 -102.968995
18.899981 -106.843883
23.328918 -102.156577
11.648603 -106.799258
-7.182047 -106.104253
4.296398 -101.407690
1.604236 -107.685346
-7.479817 -99.233661
-9.189554 -97.774557
-22.751063 -97.454612
-15.941151 -87.720620
-14.340368 -84.074825
-27.751237 -83.023713
-25.509471 -78.797444
-37.675559 -73.139624
-32.214571 -62.980570
-30.773208 -59.746696
-31.157504 -54.846513
-29.407445 -50.674453
-38.265631 -45.971228
-24.440186 -35.674744
-23.837876 -43.487356
-18.981103 -31.236408
-16.388561 -36.455432
-20.267201 -26.260038
-16.188874 -27.250250
-7.784482 -26.915483
-8.050528 -26.039462
-1.236147 -27.793123
-7.086536 -28.922326
-0.088272 -23.496555
3.582318 -31.561914
0.201531 -23.550220
4.516043 -31.707107
-5.492331 -33.727602
4.430727 -28.997325
3.977348 -38.514042
3.150422 -32.677475
1.551431 -33.927731
-3.004964 -26.182072
-6.118334 -26.864602
-0.840582 -27.434613
-2.060918 -27.481899
0.393170 -24.157417
-3.153182 -24.013250
1.071322 -19.807643
5.882035 -17.846103
-0.275715 -13.500362
4.947201 -19.980058
5.971215 -14.990081
14.798109 -15.069301
10.194164 -16.744635
13.106306 -15.323401
18.563544 -20.205146
12.787554 -15.147916
18.475961 -22.774589
23.266945 -25.320325
22.209076 -22.953603
23.836507 -23.690261
18.371086 -29.052763
19.209094 -28.849774
23.898546 -30.054886
19.603713 -31.146474
22.141450 -31.621841
21.866281 -37.644951
21.398321 -31.703131
19.989667 -33.133374
17.841656 -35.445832
18.112023 -38.361411
14.738612 -38.817369
18.217272 -45.423363
14.851806 -42.476611
13.388614 -38.106729
12.458777 -43.894995
10.112273 -43.579121
12.204615 -47.706496
3.039597 -46.443855
1.767579 -41.748795
0.914473 -41.060122
-0.555930 -45.122661
-2.330878 -43.090887
-5.123792 -41.990018
-11.179586 -38.814659
-9.226960 -33.925718
-9.297889 -34.671787
-10.947578 -34.249002
-11.106541 -29.350502
-12.578301 -25.247081
-10.905783 -23.553061
-9.652137 -21.263910
-8.083406 -20.894980
-10.657028 -19.228310
-7.833736 -12.176113
-6.281301 -12.063251
-4.249752 -11.650714
-1.419345 -10.741786
0.680229 -10.739577
2.379929 -9.518104
3.346924 -5.567391
8.561412 -9.218656
6.455371 -10.229416
9.937483 -10.308605
10.686120 -11.782414
11.145162 -10.156659
15.565723 -11.757807
14.920117 -14.965521
13.387592 -16.216259
16.712862 -13.477154
15.724337 -18.972514
17.479081 -19.316208
19.036915 -18.781977
16.356688 -23.252812
17.668303 -19.831491
16.949573 -23.023094
16.674512 -24.897959
13.999468 -25.336121
14.477202 -26.481076
14.219284 -28.251701
12.665502 -24.972320
14.316980 -27.927329
10.169739 -31.211522
8.930678 -27.528560
10.905263 -25.981398
4.477011 -29.438696
9.170864 -25.319383
8.649101 -25.634404
5.449779 -26.716433
5.220660 -22.854706
7.023366 -25.846270
6.576093 -23.926200
7.942031 -24.882280
8.398117 -24.390869
8.455623 -24.889735
7.515837 -23.433840
9.716016 -24.946596
10.472185 -27.021543
8.821292 -25.521099
11.131366 -28.048908
7.155236 -30.722076
11.171055 -28.465852
8.186415 -32.510136
4.653696 -32.358557
6.645525 -34.304364
3.264187 -36.601198
0.332304 -34.768604
0.458102 -35.403084
-3.426489 -35.206213
-4.307993 -35.152465
-6.081208 -34.130230
-10.857357 -31.826140
-10.633924 -30.780787
-12.027354 -28.921507
-14.611873 -27.637294
-17.853267 -25.857000
-16.857567 -22.268561
-17.924011 -21.060117
-17.985699 -17.075248
-15.552765 -15.002498
-17.996978 -13.043824
-17.133114 -8.892426
-15.112018 -7.114477
-14.582946 -4.120301
-11.393769 -1.521223
-10.816434 -2.589228
-7.959887 0.846365
-5.519925 2.113094
-3.677484 5.123102
-0.061669 2.505194
-0.823658 3.893412
2.880571 5.518794
5.129253 2.925868
7.048803 3.698339
10.257641 1.537607
11.739586 0.336698
12.691146 0.096474
16.828409 -1.449116
16.915008 -4.110008
17.419163 -5.860748
17.710248 -7.294269
18.601878 -9.617397
18.294849 -11.627336
17.982031 -14.935958
17.554947 -16.721099
16.880185 -18.636164
15.310722 -19.177236
13.934265 -20.521836
13.263827 -21.119686
11.037350 -22.631985
7.684312 -22.394445
6.228565 -22.214868
4.894893 -20.239614
2.857929 -19.739492
4.917872 -20.169605
-0.848292 -19.151788
-0.373837 -17.443459
0.816081 -13.698114
1.972163 -11.960553
1.602894 -12.523100
1.396764 -10.615141
0.976608 -9.738697
5.125674 -8.604838
4.021413 -9.967112
7.036279 -8.688900
8.862947 -9.773049
9.378452 -8.444191
11.913966 -9.477779
12.470880 -12.455131
13.054916 -15.166814
13.537010 -15.186910
13.142914 -17.643629
12.752580 -17.670767
13.760674 -19.563363
10.726908 -21.579476
7.973675 -22.790440
8.071682 -23.935108
5.072260 -23.990963
4.328075 -24.933044
2.839246 -25.248588
-1.114778 -25.455850
-2.962445 -23.009224
-3.600116 -21.691941
-6.928068 -21.012164
-7.143702 -19.306019
-9.714109 -18.111674
-9.959024 -16.021401
-10.774729 -13.068540
-8.979770 -10.812975
-9.989571 -8.469982
-9.261171 -5.474009
-8.337404 -4.499736
-7.892216 -1.095476
-4.382842 0.590505
-3.359367 1.104509
0.062127 1.424711
0.420162 3.486353
2.510906 4.327283
5.183002 4.275171
7.875068 4.350482
10.741199 2.386247
11.650976 2.882965
14.683245 1.922769
16.617577 -0.157117
18.411363 -1.119671
19.780265 -4.025412
20.880503 -6.505564
19.572775 -8.177740
20.957739 -10.083800
20.948536 -12.866540
20.228234 -14.803183
19.818382 -17.657825
18.291094 -19.411306
17.079272 -21.025722
15.724021 -22.094100
13.637218 -24.471912
11.295565 -23.960627
9.689846 -24.534860
7.072721 -24.834595
4.807341 -23.440166
4.455516 -23.346373
2.196317 -22.136392
1.189483 -20.981732
-1.542612 -20.308586
-1.489192 -18.194030
-1.065006 -15.337828
0.141919 -15.333158
-1.960675 -13.590099
-0.265447 -13.060848
-0.437018 -11.630542
1.473115 -10.910575
2.709505 -10.940015
4.107337 -10.728174
5.381951 -10.297677
5.988005 -11.029502
7.200106 -11.627587
6.632950 -11.760721
8.782489 -12.779273
8.409524 -14.858043
8.844754 -16.765626
7.098431 -17.260904
7.666480 -18.884875
5.547217 -19.029886
4.740867 -19.689092
4.089385 -21.401506
2.285191 -21.599013
0.992982 -22.775372
-0.833059 -21.364481
-3.098572 -21.402221
-4.535027 -20.401616
-5.147648 -20.863813
-7.911970 -19.203911
-8.685944 -16.538471
-10.423147 -15.543269
-10.075929 -13.960470
-9.984278 -11.768454
-10.673838 -9.252596
-10.859312 -7.543474
-10.579867 -6.347525
-9.877456 -4.355190
-8.627767 -1.920177
-7.897263 -1.330321
-7.401193 1.257460
-4.823868 2.421169
-3.162857 2.616246
-1.783533 5.209531
0.951196 4.691762
2.577920 3.937550
5.076781 4.562669
7.432803 3.254820
9.374109 3.306697
10.575600 2.567878
11.961519 2.114127
14.198726 0.231707
15.836028 -1.497926
15.457890 -4.712144
14.999256 -5.347376
15.740277 -7.121085
15.715700 -9.474912
16.063582 -11.991521
13.629252 -13.732329
13.275953 -14.767029
11.593150 -15.666503
10.447246 -17.513728
8.732347 -18.162736
7.452907 -18.063132
5.048294 -17.780878
3.151451 -16.526418
1.848387 -16.515722
1.038599 -16.522487
0.267351 -15.096688
-1.200201 -13.751243
-1.718962 -11.727103
-1.315733 -9.629995
-1.104010 -8.727704
-0.552053 -7.213847
-0.802996 -7.145749
0.364869 -5.848548
0.864299 -4.974007
3.883490 -4.372689
3.949198 -4.658484
5.361960 -4.614595
6.724297 -4.248845
7.020882 -5.420312
8.409069 -5.932796
9.494440 -7.412148
8.924071 -8.582723
10.322092 -9.590853
9.107567 -10.784027
9.020518 -11.248364
9.184598 -12.910654
8.521849 -14.430281
8.214470 -15.206341
6.094373 -15.702556
4.612652 -15.775537
4.049501 -16.073360
2.883200 -15.956044
1.136345 -16.507928
-0.479830 -15.076180
-1.342057 -14.465565
-1.263241 -13.473691
-3.322989 -13.148469
-3.365974 -12.048083
-4.311403 -10.352138
-5.775119 -7.991422
-4.588163 -7.140130
-4.379438 -5.759665
-3.477731 -4.335126
-3.086357 -3.147716
-2.830388 -2.219165
-1.124106 -0.440275
0.404606 0.616140
2.101680 1.269824
2.978419 1.711106
4.718082 1.555702
6.152869 0.849878
7.437761 1.461364
9.186850 1.108098
11.446599 0.803222
12.718986 -0.839017
13.412128 -2.189127
14.614300 -3.957334
15.585263 -5.327784
15.490674 -7.902479
14.900945 -8.866560
16.073789 -10.576180
14.289779 -12.047183
14.027912 -13.479784
12.818340 -15.012162
12.108605 -15.398593
10.847816 -17.166344
9.591948 -18.187569
7.747455 -19.258819
5.802079 -18.717889
4.506565 -18.488822
2.968273 -16.993673
1.586311 -17.623436
0.912787 -16.881393
-0.733151 -15.644540
-2.014086 -14.338319
-1.762870 -12.645338
-1.579877 -10.449118
-1.661732 -11.551878
-0.983247 -10.934492
-0.943325 -8.295064
0.020493 -8.014121
-0.071856 -7.553790
1.625679 -6.718110
1.244370 -7.007629
3.121653 -6.826464
2.996710 -6.662045
4.044159 -6.693276
4.670123 -8.381199
5.618590 -7.745749
5.383064 -7.816831
5.839037 -8.860815
6.354150 -9.549166
5.833070 -9.993634
5.778336 -10.639969
5.556540 -12.150469
4.709962 -11.651021
4.649786 -12.713889
3.649036 -12.915426
2.838956 -12.911711
2.563727 -13.133845
1.667431 -13.805773
0.389312 -13.549226
0.863052 -13.900193
-0.896563 -12.823844
-2.549783 -12.467694
-2.606005 -11.534433
-2.628638 -10.816932
-4.510458 -10.222119
-4.227223 -7.996661
-4.235384 -8.081186
-3.788038 -6.542941
-3.896443 -5.175193
-4.024546 -4.454090
-3.745039 -3.929893
-2.802177 -1.845470
-2.112623 -1.179990
-0.684157 0.414442
0.773159 -0.520730
1.728510 0.430245
2.665995 1.428780
4.445065 0.538019
5.264218 0.029631
6.915217 0.230721
7.874164 -1.313354
8.229688 -1.483963
9.863379 -2.249532
11.750709 -4.177851
11.291531 -6.578874
11.781114 -6.581813
10.899081 -7.406755
9.770569 -9.208382
9.819742 -10.274869
9.611093 -12.569714
8.673821 -12.574447
6.973160 -12.574038
6.037775 -14.079395
4.950346 -13.116423
4.284090 -13.588528
2.376123 -14.271386
1.279301 -12.273413
0.813559 -12.142245
-0.270166 -12.873008
-0.906215 -10.228726
-1.207114 -9.764348
-1.346683 -8.857055
-0.861549 -7.675136
-1.544707 -6.722725
-0.430592 -6.325607
-0.978344 -4.834634
-0.292738 -4.630009
0.228108 -4.474044
1.855874 -3.745943
0.927811 -3.970193
2.693675 -2.729997
3.284333 -2.917990
4.715856 -3.262676
4.308917 -3.595753
4.841728 -4.586424
5.619074 -4.349176
5.343562 -4.404225
6.413530 -4.432894
6.387219 -5.032353
6.059519 -6.094714
6.206501 -6.002950
6.794823 -7.589997
6.647924 -7.035318
6.206770 -8.107990
5.750653 -8.601175
5.799129 -8.412347
4.923950 -8.448869
4.334313 -8.988509
4.346275 -9.733010
3.827187 -9.063216
2.368471 -8.582191
2.650330 -9.061173
1.883045 -8.222302
2.296038 -8.471788
1.743306 -7.969981
1.714954 -6.887281
0.662244 -5.917688
1.164157 -6.288107
1.459330 -4.832542
2.246976 -4.484846
1.406550 -3.760106
2.689550 -3.628234
3.029971 -3.142268
4.970108 -2.490365
5.266616 -2.508969
6.062796 -2.365845
7.189182 -1.720589
7.662105 -2.666879
8.573060 -3.642696
9.026042 -3.094895
9.971728 -4.085561
10.332254 -5.300642
10.600738 -6.493605
10.589266 -6.867908
10.550657 -8.080901
10.779853 -9.256229
9.474605 -9.696230
10.171375 -11.199286
9.309906 -10.988947
9.060162 -11.893916
7.275393 -12.656188
7.482922 -12.527998
6.489619 -13.486226
5.813587 -13.116389
4.671168 -12.813583
4.465036 -12.693912
2.897064 -12.197752
3.359381 -11.990767
1.862146 -11.631797
1.776976 -11.759033
1.352544 -10.293754
1.611890 -10.453260
1.788019 -9.230149
0.822941 -9.207890
1.278969 -8.769903
1.172596 -8.498942
1.495820 -8.132068
1.686690 -7.581574
2.010051 -7.309476
2.225536 -7.125812
2.341098 -6.050264
2.662383 -5.583228
2.796666 -6.320520
3.353883 -5.826484
3.207727 -6.295742
3.743176 -6.250825
4.527975 -6.583003
4.632111 -7.293542
4.691999 -7.185811
4.631844 -7.270386
5.667038 -7.597183
5.065799 -7.837407
5.885607 -7.977445
5.674398 -9.636803
4.878134 -8.567113
5.294094 -8.773667
4.121090 -9.433996
4.980576 -9.485543
3.904790 -9.371642
3.260150 -10.680428
2.275251 -9.751276
3.114019 -9.632924
1.980640 -9.754874
1.813706 -9.299725
0.601887 -9.187388
1.576996 -7.965006
0.443787 -7.558213
0.032528 -7.488618
0.619787 -7.067433
0.607905 -5.908737
0.873160 -5.525908
1.403047 -4.101460
1.813798 -4.794299
1.792207 -4.246228
3.039731 -4.683351
4.004240 -3.956755
3.599981 -3.973820
4.980718 -3.991481
4.849504 -4.219628
4.994582 -4.469539
5.840287 -4.147250
6.449803 -4.422725
6.780761 -5.239413
6.913743 -5.947944
7.424873 -6.201301
7.190650 -7.254866
7.645310 -8.257633
6.895379 -7.531787
6.972279 -8.867230
6.386620 -8.382985
6.106476 -8.958834
6.121893 -9.836974
5.367852 -10.266345
5.489560 -10.200793
5.021261 -9.724286
4.225419 -10.489016
4.015219 -9.849477
3.284302 -10.547469
2.665873 -10.300793
2.848607 -9.631633
2.030753 -9.144713
2.211463 -9.235524
1.672434 -9.208672
0.910109 -8.782442
1.097217 -8.434212
0.787624 -7.880854
0.946582 -7.352668
0.346936 -6.646974
1.345519 -6.849140
1.147082 -5.730456
1.216836 -5.589512
1.572151 -5.110081
2.569226 -4.212212
2.336983 -4.093380
2.811410 -3.732094
4.061337 -3.711927
4.600378 -3.427526
5.029779 -3.739083
5.728998 -4.323642
6.330516 -5.346358
6.152461 -5.707228
6.508858 -5.201667
6.888830 -5.495543
6.562216 -6.821673
7.452721 -7.259571
6.814369 -7.675143
6.764574 -8.611868
5.984229 -8.433275
5.801266 -8.945553
5.314170 -9.645868
4.851211 -9.789358
4.053159 -9.570274
3.834190 -9.651139
3.637732 -8.393325
2.847349 -8.996157
3.240540 -8.521695
2.844475 -8.298005
2.804142 -7.790800
2.240550 -7.063140
1.868091 -7.540202
2.443154 -6.125680
3.045047 -5.864614
2.986197 -5.866886
3.355402 -4.868684
3.893786 -4.884264
3.974386 -4.130197
4.679720 -4.516787
5.261006 -4.780359
6.068214 -4.856425
6.728700 -4.359455
7.253258 -4.450789
7.276496 -4.570177
8.390211 -5.581272
8.800432 -5.331340
8.380512 -6.570046
8.449778 -6.560027
8.675197 -7.506358
9.253590 -8.141245
9.797323 -9.234644
9.034460 -9.466040
9.313874 -10.503572
8.888737 -10.765288
8.404336 -11.472304
8.076972 -11.496426
7.630564 -13.099312
6.335981 -12.456460
6.617960 -13.263639
6.287533 -13.086034
4.797506 -14.065741
4.048925 -13.703145
4.016980 -13.747011
2.248589 -13.174938
2.250606 -13.334395
1.513738 -12.280504
0.870333 -11.723004
0.831914 -11.175012
0.070827 -10.563423
0.752974 -10.211891
0.569520 -8.831713
0.369199 -7.542357
1.269955 -7.631705
1.747993 -8.117499
1.742477 -7.149977
2.319009 -6.764567
2.782697 -6.448406
3.798767 -5.906748
3.805255 -6.473488
5.132112 -6.871422
4.849946 -6.595599
5.356500 -7.778142
6.136262 -8.287552
6.090830 -8.608959
6.687717 -8.535020
6.139915 -9.706757
5.634892 -10.390953
6.058225 -11.360586
5.457635 -10.838145
4.612907 -11.803851
4.715376 -11.955486
2.773323 -12.466463
3.266579 -12.494875
1.843915 -12.494006
2.501678 -12.759227
1.209108 -11.233263
1.481583 -11.990367
0.423219 -11.228746
-0.594750 -10.921279
-0.949471 -9.976474
-1.008257 -9.317793
-0.492632 -9.448488
-0.733258 -8.029888
-0.874194 -7.213768
-0.280365 -6.937193
-0.500379 -6.315994
0.088207 -5.605614
0.949466 -5.275235
0.916588 -4.743207
1.694124 -4.143432
2.512443 -4.164380
3.000325 -3.699924
4.669891 -3.730771
4.804707 -5.238870
5.260967 -4.036690
6.319999 -5.030064
7.134097 -5.752413
7.638028 -6.317829
7.731682 -7.080956
7.959583 -8.223224
7.928206 -8.048900
7.989374 -9.090480
7.917956 -10.130746
7.621465 -10.851614
7.313380 -12.412262
6.370552 -12.559851
5.749061 -12.806230
5.866619 -13.520762
4.093234 -13.530876
3.507446 -14.871598
2.587144 -14.011324
1.202337 -13.726985
0.676370 -13.543232
-0.293772 -13.280876
-0.415268 -12.950511
-0.820951 -11.454720
-1.295015 -11.112811
-1.630545 -9.665311
-1.815295 -9.247735
-1.912917 -8.904513
-1.297951 -7.564265
-0.893259 -6.506440
-0.157199 -6.085433
0.357219 -4.996492
0.924839 -5.000651
2.140455 -5.246793
2.115201 -5.772295
3.475849 -4.911498
4.630263 -5.110405
4.567557 -6.018348
6.114069 -6.701424
6.768601 -7.203271
5.863799 -7.424161
5.821571 -8.764769
5.727629 -8.841467
6.766525 -10.133764
6.052241 -11.024864
5.148093 -11.168003
4.593965 -12.239287
4.668188 -11.758331
3.606872 -12.428630
3.484077 -12.833579
2.093283 -12.216945
1.683197 -12.530119
1.136702 -12.525496
0.303037 -11.832321
0.328149 -11.400175
-0.863051 -11.076934
-0.783263 -9.709799
-1.015814 -9.883843
-0.845188 -8.566774
-1.498563 -8.405189
-1.140713 -6.803199
-0.789182 -6.813305
0.691687 -6.450604
-0.047231 -5.251716
0.775771 -5.347988
1.212609 -5.008621
1.933479 -4.468769
3.189337 -3.895862
3.888727 -4.149936
4.578728 -4.167734
5.952854 -4.192496
5.664284 -4.891907
8.050763 -5.289980
8.145303 -6.437906
8.688778 -7.449532
8.915135 -8.603468
9.481465 -8.573317
9.322543 -9.865471
9.093423 -11.024732
8.399544 -11.913675
8.612512 -13.355097
7.686239 -14.521284
6.814798 -15.101256
6.514558 -15.500978
4.956809 -15.916347
4.308589 -16.145223
3.733184 -15.517781
2.001338 -15.540844
1.855089 -15.648713
0.435985 -15.631467
-0.481701 -15.511320
-1.096327 -14.058949
-2.095785 -14.179957
-2.352257 -12.568985
-1.985798 -12.156543
-2.272538 -10.895072
-1.902216 -9.938073
-2.796787 -8.556490
-1.266406 -8.562724
-1.461206 -8.117653
-0.092466 -7.968510
0.278964 -7.883780
0.590971 -6.351385
1.709443 -6.553028
1.937612 -6.831726
3.031604 -7.674708
3.030125 -7.660540
3.588866 -8.744812
4.314889 -8.790617
4.287355 -9.539262
4.593465 -9.637501
4.463519 -10.663007
3.908006 -10.962710
3.871437 -11.921984
3.393999 -13.148789
3.497744 -12.683035
2.885227 -13.189564
2.150126 -13.650850
1.008964 -14.103477
0.626626 -14.412059
-0.031139 -13.144372
-0.932365 -14.009971
-1.697450 -13.340698
-2.033171 -13.553319
-3.010106 -12.615390
-4.008795 -11.917438
-4.056428 -11.801184
-3.909380 -9.866592
-3.716909 -9.311120
-4.697054 -8.391392
-3.634936 -7.830607
-3.048711 -6.837317
-2.348157 -6.187826
-2.327459 -5.465611
-1.070967 -4.551241
-0.811483 -4.372445
0.678446 -4.304414
1.624025 -4.485909
2.329573 -4.066580
4.128490 -4.488730
4.542823 -4.935819
5.313200 -5.410621
5.655873 -6.639800
6.370365 -6.629715
6.909080 -8.573928
6.888057 -9.637612
7.337482 -10.863580
6.474858 -11.524205
6.248387 -13.020434
6.445924 -13.560126
5.442693 -14.426161
4.330796 -15.006867
2.753266 -15.992303
2.363700 -16.098485
1.264557 -16.193436
-0.590606 -15.560411
-1.386537 -16.270605
-2.437779 -15.420781
-3.020584 -15.507645
-4.035149 -14.271990
-4.413644 -13.345280
-3.584196 -11.867815
-5.206473 -10.683867
-5.203193 -10.503171
-4.889177 -10.216674
-4.616978 -8.087464
-4.444628 -7.369849
-3.380665 -6.894850
-3.550262 -6.524426
-2.457529 -6.276354
-1.893126 -5.821949
-0.846246 -5.375268
0.069664 -5.333373
1.411964 -5.351543
1.824221 -5.712137
2.180212 -6.209377
2.300123 -6.988826
3.011184 -7.670639
3.037685 -7.770509
3.470427 -9.313009
3.491951 -9.603264
2.764735 -10.533148
3.310134 -10.490459
2.686752 -11.079870
2.506732 -12.114538
2.252545 -12.388278
1.323432 -12.591972
0.693724 -12.537795
0.079944 -12.969140
-0.096480 -12.636135
-1.556127 -12.361552
-2.770049 -12.665284
-3.143483 -12.012897
-3.168128 -11.428566
-2.965756 -10.318764
-3.688472 -9.711519
-3.644662 -10.076004
-3.487195 -9.585992
-3.736978 -8.070210
-3.086717 -6.826650
-3.193638 -6.585961
-2.492263 -6.004444
-1.358650 -4.921038
-1.163055 -5.222501
0.990639 -5.395343
0.685205 -4.524282
1.928217 -4.345369
3.102374 -4.767682
3.729530 -5.619969
4.318739 -6.403584
5.301760 -6.792925
5.557323 -8.173542
5.653672 -8.493753
5.658680 -10.060352
6.100658 -11.073180
5.546895 -11.892525
5.401712 -12.933352
5.181717 -13.667466
4.315205 -14.341200
3.634564 -15.323320
2.862452 -15.897823
1.681394 -15.894778
0.743295 -16.411147
-0.433945 -16.696841
-1.359896 -16.556544
-2.557074 -16.871977
-3.737432 -16.015090
-4.484001 -15.078272
-5.163937 -14.143374
-5.730309 -13.193690
-5.853931 -12.659936
-6.333530 -11.280838
-6.732845 -10.860299
-6.181222 -10.167230
-6.221511 -8.357346
-5.784748 -8.410732
-4.761143 -7.860496
-4.835895 -7.375590
-4.320860 -7.146870
-3.548889 -6.678238
-3.016669 -6.829351
-2.532457 -6.285911
-2.146387 -6.747487
-1.074624 -6.651315
0.040155 -6.827735
0.059999 -7.146428
0.817504 -7.230121
0.747207 -8.083451
0.783129 -8.446402
1.012880 -9.232896
1.565881 -9.663454
1.313549 -10.650750
0.665474 -10.890319
0.918657 -11.824306
-0.221632 -12.079229
-0.550324 -11.809754
-1.272135 -12.596498
-1.582285 -12.215955
-2.380760 -12.524583
-3.262617 -11.722656
-3.242886 -11.516872
-3.901445 -11.821119
-4.317365 -10.950661
-4.476178 -10.137313
-5.872170 -9.890700
-5.921709 -9.378520
-5.293852 -8.503463
-4.988235 -7.230680
-5.758357 -6.611319
-5.006051 -6.264197
-4.114569 -5.282733
-2.867759 -5.229788
-2.645975 -4.395133
-1.874152 -4.508369
-0.592301 -4.923832
-0.457524 -5.342520
0.380691 -4.381824
1.011673 -5.404911
1.584743 -6.617498
2.478831 -6.756103
3.375365 -8.373452
2.885064 -8.843257
3.105257 -9.524091
3.223057 -10.973984
2.741552 -11.573830
2.111009 -12.589897
2.119895 -13.322330
1.239343 -14.102020
-0.035293 -14.050296
-0.137709 -14.434476
-1.048348 -14.681285
-2.436860 -14.898319
-3.284587 -14.840056
-4.168918 -14.339738
-4.641240 -13.303742
-5.896884 -12.449758
-6.459611 -12.920767
-6.541962 -11.730829
-7.375025 -11.430038
-7.460460 -10.451490
-6.520622 -10.091946
-7.069481 -8.458450
-7.016918 -8.550104
-6.425126 -7.334528
-6.336215 -6.727254
-5.462591 -6.954140
-5.347297 -5.377633
-4.775838 -5.703911
-4.556307 -5.433038
-4.150956 -5.042518
-3.222720 -4.930427
-2.582593 -5.144899
-2.285160 -5.209427
-1.513537 -5.555184
-0.967065 -5.375769
-0.834908 -6.108199
0.140555 -6.878841
0.109475 -6.685982
0.810920 -7.868347
0.885157 -7.802902
-0.416171 -9.000950
-0.063268 -9.322980
-0.226557 -9.465564
-0.983540 -9.469331
-1.136664 -9.913518
-1.238991 -10.276107
-1.397531 -10.219200
-2.095244 -10.371862
-2.960917 -10.505288
-3.257098 -9.924426
-3.265758 -9.936000
-3.949999 -8.867452
-4.163853 -9.247321
-4.172119 -8.488633
-4.573715 -8.695992
-4.077025 -7.758819
-4.678642 -7.616234
-3.990632 -6.762025
-3.899736 -5.961513
-2.797519 -6.171268
-2.542805 -5.047187
-2.114376 -5.388352
-1.443537 -5.804513
-0.702839 -6.104089
-0.042566 -5.506097
0.338419 -6.720713
0.762218 -6.381213
1.147201 -6.799602
1.059095 -7.632792
1.668619 -8.080474
1.295858 -9.403097
1.753649 -9.646379
1.075276 -11.103262
1.299358 -11.262339
0.794902 -11.370691
0.963032 -12.340460
-0.068232 -13.183130
-0.850494 -12.665665
-1.618308 -13.483761
-2.561606 -13.809988
-3.333889 -14.263546
-4.094805 -13.703638
-4.167982 -13.429636
-5.475824 -13.093692
-5.963577 -11.945148
-6.050958 -12.201137
-6.253728 -10.849692
-6.991187 -10.528560
-7.545642 -10.528728
-7.730656 -9.368524
-7.328865 -9.058738
-7.838366 -8.244594
-7.329801 -7.044665
-7.330868 -6.896912
-6.644243 -6.362384
-6.797582 -6.238050
-5.956261 -5.522998
-6.341307 -5.958111
-4.999901 -5.806027
-5.137615 -4.890388
-4.884503 -4.702601
-3.950616 -5.225791
-3.043508 -5.553802
-2.937197 -5.096596
-2.670882 -5.666727
-2.037375 -6.452156
-2.301834 -6.382458
-1.819409 -7.265855
-1.821436 -7.681271
-1.507822 -7.878040
-1.546952 -7.594014
-2.242629 -8.682026
-1.523421 -9.399392
-2.740173 -8.984587
-3.049477 -9.063737
-3.041195 -9.206342
-3.561118 -8.804149
-3.512320 -9.394525
-4.725931 -9.040148
-4.569688 -9.175779
-5.147384 -8.480338
-4.709563 -8.230063
-5.363195 -7.871332
-5.129390 -7.199198
-5.421374 -6.371745
-5.125501 -5.916215
-4.792282 -5.950484
-4.581890 -5.874512
-4.162646 -5.514202
-4.153000 -5.035160
-3.506972 -5.084420
-3.152527 -4.905594
-3.385712 -4.754665
-2.093625 -5.983440
-1.470898 -5.278499
-1.931979 -6.225363
-0.655736 -6.396866
-0.857178 -6.722008
-1.120589 -7.692842
-0.803723 -8.115079
-1.106896 -8.453358
-0.937672 -8.420547
-2.121899 -9.239275
-2.154147 -9.534502
-2.457132 -9.176066
-2.264878 -10.670490
-3.378039 -9.826133
-3.276225 -10.202045
-3.640407 -10.731663
-3.573295 -10.117121
-4.516329 -9.942043
-5.047456 -10.346675
-4.967620 -10.471866
-5.370456 -9.375159
-6.525366 -9.324469
-5.632398 -8.856803
-6.539737 -9.167129
-6.392349 -7.383126
-7.315123 -8.021064
-7.146472 -7.363115
-6.727519 -6.596592
-7.165768 -6.558337
-6.943942 -6.663719
-6.686168 -5.837278
-6.368882 -5.010426
-6.672087 -5.613812
-5.489637 -4.505320
-5.886885 -4.252965
-5.118787 -4.027902
-4.373264 -4.008232
-4.209255 -3.938494
-3.479527 -3.908044
-3.405313 -4.183351
-2.816653 -3.642894
-2.882458 -4.502496
-2.511207 -4.640767
-1.748441 -4.624034
-1.594977 -5.799660
-1.027714 -5.720512
-0.803625 -6.504627
-1.231089 -6.061436
-1.669745 -6.764555
-1.506040 -6.878466
-1.036314 -7.195997
-1.360101 -7.411698
-2.726504 -7.775482
-2.225568 -8.334443
-2.725285 -7.872457
-2.981652 -8.025477
-3.336326 -8.220918
-3.312324 -8.622442
-4.217131 -8.565268
-4.116611 -8.001243
-3.594104 -8.052938
-4.042060 -7.340715
-4.277273 -7.114303
-4.220173 -7.086913
-4.352763 -6.728294
-4.492180 -6.706898
-4.575052 -6.628754
-4.126821 -6.120897
-3.965229 -6.986498
-3.796699 -6.180519
-3.227793 -7.236647
-3.182276 -7.046877
-3.608224 -6.573755
-2.917886 -6.689980
-2.565090 -6.990019
-2.767058 -6.782242
-2.573020 -6.572493
-3.051035 -7.566283
-2.617301 -7.882799
-2.914686 -8.495582
-2.622730 -8.189480
-2.884874 -8.343380
-2.990150 -8.340281
-3.184608 -8.673350
-3.839088 -8.838290
-3.604469 -9.397593
-4.091616 -9.031795
-4.463267 -9.093444
-4.943015 -9.123242
-4.541467 -8.842791
-5.768279 -8.970216
-6.076010 -9.079880
-5.864527 -8.753181
-7.027155 -8.347730
-7.023621 -8.579901
-7.223355 -8.044983
-7.371061 -7.779639
-7.992652 -7.647896
-7.389965 -7.097810
-7.830652 -6.581509
-7.825218 -6.053633
-6.919459 -5.352174
-7.400328 -5.147120
-7.298519 -4.936628
-6.170304 -4.740203
-6.492487 -4.199420
-5.553075 -3.365263
-5.548434 -3.803821
-5.020655 -3.655903
-4.888798 -3.891298
-4.137478 -3.052729
-3.503582 -4.584082
-3.503538 -3.973479
-2.815293 -4.369339
-3.279105 -4.431648
-2.935436 -5.024789
-2.383133 -5.826150
-2.211722 -5.999473
-2.919209 -5.905126
-2.724594 -6.363897
-2.776577 -6.636292
-3.440590 -6.936710
-3.201361 -6.692477
-3.900325 -7.456886
-4.543162 -7.202174
-3.289904 -7.165535
-4.675222 -7.756648
-4.526812 -7.234010
-4.582267 -7.177884
-5.366660 -7.206025
-4.118612 -6.288464
-4.911950 -7.151045
-4.888841 -7.072569
-5.266889 -6.579222
-5.007250 -6.758852
-5.829848 -6.317607
-6.191933 -6.528181
-5.900527 -5.807452
-5.701366 -5.925357
-5.511007 -5.391999
-5.780833 -5.093688
-5.439349 -5.164652
-5.537278 -5.020004
-5.471849 -4.527177
-5.427124 -4.470919
-4.942484 -4.867695
-4.411485 -4.519890
-3.897235 -4.543024
-4.319368 -4.562901
-4.020435 -4.672052
-3.910075 -4.823216
-3.259171 -5.080806
-3.209426 -5.384467
-2.824111 -6.309519
-3.241925 -5.847247
-3.092833 -6.292525
-3.733012 -6.896464
-3.688984 -6.804624
-4.596075 -7.709719
-4.536330 -7.653215
-4.762933 -7.245653
-5.270607 -7.503435
-5.659869 -7.944235
-5.976426 -7.808446
-6.599811 -7.213986
-6.706355 -6.906529
-7.182677 -6.633681
-6.907964 -6.101787
-7.651382 -5.768807
-7.384807 -5.175638
-8.068186 -4.198798
-8.147355 -3.303720
-7.056599 -3.592251
-6.856128 -2.900589
-6.270612 -2.387347
-5.940523 -2.041103
-5.562084 -2.205031
-5.031870 -1.984653
-4.516791 -1.678340
-3.837163 -2.011962
-2.994693 -2.308475
-2.624227 -2.212739
-2.302471 -2.913670
-2.243084 -3.148968
-2.338517 -3.475715
-1.874306 -3.851204
-1.905064 -3.857099
-0.791724 -4.884214
-1.042299 -5.580266
-1.577700 -6.009440
-1.940218 -7.324803
-2.131250 -6.844703
-2.066741 -6.999803
-2.762131 -7.532673
-2.665611 -7.796135
-3.249400 -8.115045
-4.070513 -7.966984
-4.010550 -8.281582
-4.704549 -8.106686
-5.449947 -7.925878
-5.390451 -7.796639
-5.555152 -7.539210
-5.880917 -7.323190
-6.259634 -7.304197
-6.524899 -6.748323
-6.972421 -6.412744
-6.561815 -6.075369
-6.774651 -5.256763
-5.773619 -4.579355
-6.442795 -4.973393
-5.967899 -4.344185
-5.595569 -4.009504
-5.695269 -3.759123
-4.750145 -3.647376
-4.371267 -3.768729
-4.202594 -3.468430
-3.575922 -4.003644
-3.712995 -3.805703
-2.794249 -4.655837
-3.250009 -4.770072
-2.738848 -5.439953
-2.522274 -5.688703
-2.245290 -6.134867
-2.846946 -6.129626
-2.535792 -7.098477
-3.005336 -7.409529
-3.293973 -7.789367
-3.684293 -8.212554
-4.471854 -8.682637
-4.733067 -8.219830
-5.749226 -8.830939
-5.999288 -8.556551
-6.621012 -8.197886
-7.686870 -7.867481
-7.779844 -7.726156
-8.301500 -7.321836
-8.458684 -6.312282
-8.574532 -6.044729
-8.773216 -5.086017
-8.554335 -4.152607
-8.686532 -3.560882
-8.512962 -3.399806
-8.175041 -2.800795
-7.889959 -2.640964
-7.675602 -2.726972
-6.696593 -1.760160
-6.232830 -1.656857
-6.090027 -1.268809
-5.138637 -1.021583
-5.163646 -1.618190
-5.010344 -1.882398
-4.129399 -2.178881
-3.225624 -2.048129
-3.036888 -2.478317
-2.597680 -3.370771
-2.306239 -3.060988
-2.289504 -4.519789
-2.080743 -4.542190
-2.314253 -4.819665
-2.149961 -5.533607
-2.295523 -5.979103
-2.521538 -6.431552
-3.359352 -6.353170
-4.076232 -6.936558
-3.974762 -7.316333
-5.032690 -7.253709
-5.234170 -7.840728
-5.764892 -7.550581
-6.441032 -7.462046
-7.201384 -7.048359
-7.280511 -6.388351
-7.619687 -5.944643
-8.244571 -5.642319
-8.226723 -4.815786
-8.810131 -4.358214
-8.414841 -3.564303
-8.502521 -3.198672
-8.241891 -2.084800
-8.373178 -1.939837
-7.807514 -1.793994
-7.017370 -1.482127
-6.407881 -0.171085
-5.717828 -1.195688
-5.057656 -0.450459
-4.666187 -0.626956
-3.810949 -0.425761
-3.230633 -1.537601
-2.736302 -1.151356
-1.828537 -1.719520
-1.450328 -2.780672
-1.865435 -2.894425
-1.555741 -3.923002
-1.619868 -5.094759
-1.619926 -5.706335
-1.905117 -6.393316
-2.498296 -6.392863
-3.103962 -6.876415
-4.087103 -7.218372
-4.471294 -7.653813
-5.671091 -7.559301
-5.634249 -7.030452
-6.247026 -7.675764
-7.681760 -6.452681
-7.803553 -6.050623
-8.330970 -5.388637
-8.336441 -4.814071
-8.516385 -4.597648
-8.955540 -3.811624
-8.847238 -3.306375
-8.706414 -2.001539
-8.256368 -1.800278
-7.963005 -0.971897
-7.276151 -0.341843
-6.877339 0.454670
-6.058012 0.340494
-5.499046 0.455048
-4.635187 0.538132
-4.445041 0.442806
-3.219461 0.321458
-2.680743 0.685515
-2.188120 -0.246829
-1.795756 -0.614510
-0.773164 -1.486017
-1.459920 -2.117134
-0.748389 -2.256920
-0.466188 -3.325085
-0.826708 -3.512584
-0.633842 -4.446566
-1.204588 -5.093113
-1.191775 -5.122399
-1.583862 -6.121565
-2.527584 -6.810409
-2.436824 -6.860195
-3.104547 -6.654486
-4.122395 -7.229912
-4.567806 -7.076141
-5.009381 -7.227091
-5.430774 -6.991763
-6.086655 -6.658200
-6.541724 -5.830004
-7.099957 -5.755795
-7.023054 -4.917538
-7.318058 -4.640035
-6.927034 -3.890636
-7.394084 -3.587515
-7.216802 -2.893751
-7.071211 -1.854918
-6.314368 -1.744562
-5.582607 -1.392045
-5.379267 -1.445570
-5.046649 -1.610862
-4.391690 -0.892791
-3.521536 -1.079514
-3.235009 -1.512599
-2.048231 -1.272430
-2.237908 -2.407071
-2.185504 -2.417461
-1.133516 -3.259807
-1.425373 -3.819572
-1.385444 -4.369412
-1.597457 -4.479084
-1.693069 -5.890691
-1.949193 -6.802475
-2.739424 -7.138951
-2.536446 -7.233149
-3.691365 -7.626437
-4.651417 -7.916957
-5.014639 -7.306005
-6.144959 -7.274554
-6.437699 -7.306975
-7.020210 -6.832330
-7.273267 -6.378595
-8.365893 -6.608738
-8.573078 -5.193844
-8.959315 -5.346938
-9.135999 -4.359044
-9.192045 -3.907946
-8.812388 -3.084950
-9.037168 -2.007681
-8.775564 -2.135260
-8.282584 -1.730185
-8.239420 -1.244831
-7.632460 -0.435424
-6.956626 -0.484289
-6.799371 0.034306
-6.068482 -0.284468
-5.233243 0.098950
-4.976296 -0.036210
-4.078485 -0.557837
-3.201644 -0.803839
-3.453890 -0.557463
-2.917621 -1.432271
-2.462395 -1.297437
-2.344805 -2.084175
-2.292343 -2.229213
-2.269298 -3.137408
-1.765111 -3.824153
-1.998265 -4.546176
-2.870496 -4.782079
-3.034109 -5.107364
-3.492139 -5.798958
-4.183345 -6.266233
-4.670490 -5.695795
-4.909410 -6.221954
-5.717551 -5.451724
-6.508315 -5.438599
-6.913872 -5.537561
-7.358449 -5.311046
-7.570608 -5.147960
-7.644026 -4.273729
-8.114897 -3.453341
-8.429928 -2.994999
-8.241681 -2.618180
-7.862839 -1.465642
-8.055293 -0.938315
-7.134037 -0.057265
-6.663078 -0.279872
-6.108224 0.045800
-5.235714 0.537795
-5.073344 0.555598
-4.427574 0.318872
-3.588793 -0.031047
-3.050468 -0.140185
-2.497940 -0.513100
-2.279092 -1.008063
-1.600703 -1.568785
-2.015202 -2.184788
-2.132326 -2.869428
-1.668764 -3.038801
-2.325025 -3.624653
-2.463727 -4.324905
-3.206249 -4.809021
-3.178469 -5.529899
-3.529488 -5.192923
-4.574629 -5.910853
-5.513727 -5.539088
-5.723126 -5.613484
-6.738381 -5.273843
-7.327200 -4.239587
-7.067223 -4.327893
-7.500358 -3.839191
-8.352262 -3.091662
-7.406143 -3.135929
-8.033301 -2.449188
-8.206495 -1.539874
-8.063589 -1.546027
-8.208564 -0.842417
-7.539795 0.579377
-6.983294 0.047870
-7.131064 0.738715
-5.944447 1.006029
-5.647895 1.565914
-5.449195 1.673722
-4.492572 1.861050
-4.065193 1.672264
-3.086846 1.494521
-2.734968 1.545023
-2.526111 0.917547
-1.850011 1.157259
-1.797331 0.206818
-0.900623 -0.741856
-0.556182 -0.901615
-0.648872 -1.943779
-0.457827 -1.900064
-0.508430 -2.654597
-0.425168 -2.676317
-1.217462 -3.829651
-0.744009 -4.503526
-1.654466 -4.859005
-1.992777 -4.260308
-2.769188 -4.806554
-3.115286 -4.895265
-3.187257 -4.972022
-4.453149 -4.694274
-4.105419 -4.700937
-4.412652 -3.932736
-5.057961 -4.346372
-5.303178 -3.461827
-5.211438 -2.968382
-5.349768 -2.655816
-5.189070 -2.288702
-5.047564 -1.848285
-5.200894 -1.375438
-4.828905 -1.304558
-4.278699 -1.028404
-3.970025 -0.469356
-3.459831 -0.460084
-3.721007 -0.418027
-2.984020 -1.031192
-2.389609 -1.434274
-1.636519 -0.930663
-1.193521 -1.916115
-1.284415 -2.102742
-1.737554 -2.418379
-1.450062 -3.064493
-1.629615 -3.841286
-1.488734 -4.183313
-2.315777 -4.824560
-2.363869 -5.214553
-2.170451 -5.175139
-2.433410 -5.883165
-3.351141 -5.805699
-3.824235 -5.849378
-4.103605 -6.085404
-4.759383 -5.911469
-4.594398 -5.993148
-5.609192 -5.862768
-5.842652 -5.562154
-5.990639 -5.327984
-6.914215 -4.493494
-6.902333 -4.262940
-7.008140 -3.893492
-6.823859 -3.712679
-7.157780 -3.253646
-7.541486 -2.562134
-7.029699 -2.096028
-6.699508 -1.293822
-6.948086 -1.366019
-6.598241 -0.610495
-5.515155 -0.490528
-5.161935 -0.461333
-5.077833 0.276507
-4.408227 0.407356
-4.404222 0.376422
-3.675316 -0.007108
-3.380563 0.380811
-2.772664 -0.237833
-2.737414 -0.744950
-2.005239 -0.969732
-1.312606 -0.990717
-1.570834 -1.642326
-1.668577 -1.633452
-1.693722 -2.607974
-1.365568 -2.947975
-1.087705 -3.390013
-1.634827 -3.562480
-2.156920 -4.075879
-2.421889 -4.936047
-2.829722 -4.389748
-3.068785 -4.955827
-3.675302 -4.743111
-4.135983 -5.191156
-4.632253 -4.517563
-5.021880 -4.853686
-5.437929 -3.852695
-5.579144 -4.314345
-5.810409 -3.677687
-5.916644 -3.255257
-5.819201 -2.952813
-5.724699 -2.889245
-5.422538 -2.672138
-5.949173 -1.505393
-5.311796 -2.134374
-5.206512 -1.352561
-4.432758 -1.264811
-4.470496 -1.588993
-3.964046 -1.115009
-3.159434 -2.104178
-3.634258 -1.104384
-3.619598 -1.803578
-3.458103 -1.977001
-2.843027 -2.585813
-2.828474 -2.889914
-3.243615 -2.958863
-3.585505 -3.003963
-3.237754 -3.514834
-3.995545 -3.443603
-3.893180 -3.720285
-4.106550 -3.520100
-4.493965 -4.129589
-4.341944 -3.836796
-5.409624 -3.710482
-5.016176 -3.725273
-5.463833 -3.247845
-5.355123 -3.117152
-5.659329 -3.119616
-5.952989 -2.824545
-5.749303 -2.494208
-5.899945 -2.642715
-5.717595 -2.271496
-5.929568 -1.615303
-6.025101 -1.424854
-5.780956 -1.229455
-6.053091 -1.331011
-5.351122 -0.675694
-5.754736 -0.114043
-5.364674 -0.554830
-4.977350 0.071543
-5.344729 0.198795
-4.260808 0.349848
-3.880579 0.458570
-3.601483 0.432030
-3.390042 0.449980
-3.140063 0.386107
-2.345708 0.943261
-2.350819 0.476664
-2.186203 0.354586
-1.152066 0.477796
-1.523004 -0.085761
-0.972239 -0.457194
-0.957491 -1.195600
-0.920746 -0.655181
-0.889034 -1.173975
-0.907805 -1.087680
-1.500303 -2.207237
-1.193365 -2.401712
-0.934295 -2.608435
-0.602941 -2.309766
-1.115912 -2.676393
-1.321150 -3.147031
-1.872395 -3.204901
-1.589580 -3.384052
-2.434923 -3.195228
-2.307873 -3.784632
-2.624996 -3.565983
-2.416596 -3.381996
-2.681664 -3.651181
-2.656208 -3.326776
-2.201656 -3.341553
-2.661679 -3.419609
-2.648085 -3.694350
-2.496520 -3.481383
-2.556364 -4.068821
-2.062327 -3.944730
-2.291590 -4.346635
-3.113791 -4.012071
-3.501333 -4.133416
-2.882788 -3.949399
-2.952798 -4.191644
-3.012163 -4.434381
-3.041251 -3.776628
-3.218658 -4.221679
-3.550624 -3.707192
-3.706888 -3.810743
-3.353642 -4.461845
-3.402822 -3.934089
-3.369535 -3.960511
-3.576976 -3.377842
-3.706096 -4.112250
-3.726028 -3.058041
-3.639604 -3.085587
-3.253676 -3.820277
-3.772663 -3.162639
-3.715849 -3.716531
-3.887884 -4.018273
-3.944410 -3.416394
-3.435869 -3.305699
-4.210785 -3.764622
-4.354839 -3.636354
-4.212482 -3.555414
-4.802903 -3.140819
-4.558883 -2.856453
-4.375892 -3.170041
-4.728703 -2.342385
-4.127842 -2.759198
-3.974088 -2.858793
-4.469026 -2.510618
-3.838162 -2.187467
-4.088248 -2.154891
-4.243282 -2.305099
-3.881925 -1.553383
-4.085050 -1.624538
-3.616712 -1.727277
-3.135807 -1.301719
-2.862904 -1.798392
-3.171129 -1.843906
-2.732776 -2.343279
-2.315706 -2.315253
-2.526393 -2.432160
-2.114216 -2.980000
-2.081586 -3.301603
-2.324310 -2.818194
-2.360334 -3.582977
-1.953100 -3.200653
-1.882221 -3.622396
-2.275219 -3.931673
-2.633558 -4.164035
-2.738212 -3.757518
-2.240429 -4.450119
-1.926360 -4.436698
-2.452874 -4.483916
-2.653845 -5.155377
-2.454888 -4.925026
-2.478329 -4.343705
-3.127967 -4.966446
-3.580446 -5.011879
-3.334586 -5.368369
-3.603569 -5.465905
-3.219073 -5.379727
-3.494904 -5.435795
-4.089781 -5.283085
-3.894755 -5.479455
-4.432639 -5.660918
-4.704096 -5.194256
-5.333940 -5.892194
-5.442703 -5.938317
-5.778726 -4.638815
-6.177374 -4.674040
-6.258692 -4.845038
-6.216152 -4.310261
-6.277449 -4.315167
-6.095941 -3.680943
-6.032683 -3.501713
-6.367159 -3.098586
-6.535697 -2.823654
-6.327765 -2.880773
-5.816893 -2.425658
-5.961513 -2.206009
-5.499498 -1.831211
-4.926110 -2.098977
-5.502921 -1.809626
-4.554005 -1.948999
-4.658073 -1.684460
-5.112490 -1.948095
-3.988631 -1.812950
-4.056318 -1.753939
-4.457831 -1.692278
-4.324237 -1.857788
-3.986254 -2.030900
-4.113605 -2.608886
-4.532288 -2.029180
-4.503241 -2.836331
-4.957538 -2.440458
-4.570892 -1.988571
-4.721417 -2.320535
-4.245000 -1.806985
-4.524772 -2.337210
-4.866996 -2.008157
-4.869846 -1.567318
-4.853178 -1.857122
-5.071022 -1.640056
-4.931664 -1.379056
-4.259082 -1.504761
-3.329595 -0.845456
-4.052120 -0.522112
-2.981512 -0.635409
-3.305673 -0.780846
-3.422150 -0.772768
-2.446903 -1.116745
-2.512023 -0.813400
-2.448685 -1.219898
-1.418375 -1.656254
-1.363022 -1.359667
-1.758513 -2.152177
-1.503700 -1.867239
-1.206471 -2.666482
-1.002582 -2.943785
-0.406262 -3.134851
-0.768285 -3.724712
-0.973994 -3.738682
-1.309520 -4.121519
-0.876669 -4.659309
-1.594975 -4.717404
-1.129222 -5.614408
-1.518362 -5.603016
-1.831832 -6.118818
-2.515766 -6.409002
-3.062049 -6.118796
-3.702828 -6.921311
-3.881578 -6.765272
-3.668152 -6.672914
-4.610464 -6.658794
-5.543223 -6.504565
-5.479665 -5.314245
-5.812283 -5.921002
-5.838154 -5.085790
-6.302627 -5.250778
-6.464255 -4.269276
-7.097361 -3.670594
-6.879066 -3.141921
-6.411566 -3.535537
-6.535518 -2.589355
-5.608479 -2.372316
-5.319498 -1.828512
-5.254416 -1.278614
-4.724303 -1.558245
-4.591091 -1.977455
-3.879192 -1.436335
-4.555220 -2.032448
-3.843307 -1.893363
-3.214207 -2.269532
-2.802347 -2.648520
-2.133119 -3.028733
-3.042903 -3.533312
-2.876379 -3.479282
-2.843471 -4.234654
-3.408265 -4.532115
-2.795056 -4.533111
-3.533575 -4.288510
-3.184393 -4.042515
-3.918451 -5.051148
-4.565680 -4.799459
-4.497669 -4.763967
-4.931033 -4.459887
-4.616958 -4.950310
-5.293210 -4.533535
-5.635612 -4.626614
-5.046157 -4.118215
-4.964912 -4.116153
-5.594801 -3.323704
-5.830152 -3.504346
-5.625918 -2.839154
-5.089927 -3.009116
-5.444141 -2.315483
-4.689785 -2.457318
-4.542809 -1.663233
-4.276163 -2.471833
-3.969322 -2.010080
-3.288381 -1.907209
-3.249425 -2.665371
-3.055178 -2.052273
-2.218447 -2.954425
-1.874856 -2.944355
-2.293827 -2.762456
-1.716767 -3.196887
-1.662193 -3.946481
-1.701860 -4.248030
-1.351177 -4.401929
-1.936357 -5.120818
-1.779948 -5.375534
-1.774397 -6.728936
-2.741988 -7.113306
-2.506308 -7.153965
-2.913641 -7.177143
-3.402220 -8.524975
-5.007606 -8.443287
-4.996758 -8.861094
-5.780414 -8.617888
-6.526810 -8.524153
-7.667041 -7.872226
-7.613368 -7.987399
-8.445061 -7.245542
-9.175351 -6.699152
-9.455570 -5.588986
-9.618421 -5.243194
-10.176748 -4.685917
-10.485051 -3.917224
-9.950744 -3.163695
-10.078626 -2.417403
-9.345753 -2.179931
-8.962978 -1.303822
-7.973426 -0.429649
-7.145759 -0.459132
-6.924053 -0.546614
-6.538546 -0.462170
-5.723397 -0.220131
-4.984498 -0.115092
-4.495259 -0.493674
-4.110101 0.080994
-3.878407 -0.922145
-4.138401 -1.380140
-3.186932 -2.094615
-3.977968 -2.292314
-2.893867 -2.152478
-2.912298 -3.387605
-3.416651 -3.583245
-3.845331 -3.980658
-4.031511 -4.133671
-4.204477 -4.454940
-5.054466 -4.643085
-4.949252 -5.349801
-5.068910 -4.584359
-6.114627 -4.689427
-6.386343 -4.420057
-6.525625 -4.340001
-6.908014 -4.284338
-7.111186 -3.846029
-7.281535 -3.519461
-7.129505 -2.625356
-7.620799 -2.426054
-6.693506 -2.539495
-6.324068 -0.993234
-6.606159 -1.410677
-6.293294 -1.571496
-5.252792 -0.990441
-5.406096 -0.627235
-5.130553 -0.666522
-3.494998 -0.424312
-3.897749 -0.995215
-3.167182 -0.922576
-2.687821 -0.981361
-2.255753 -1.066675
-1.985296 -2.116230
-1.738623 -2.434629
-1.625956 -3.324452
-1.036628 -3.840710
-1.020048 -4.662041
-1.613007 -5.578747
-0.844251 -5.835075
-2.252971 -7.186583
-2.643581 -7.296814
-2.940087 -7.621866
-4.335817 -7.894807
-3.919596 -7.803429
-4.683206 -8.661168
-5.923187 -8.413598
-6.769535 -8.902764
-7.543984 -7.948878
-8.357530 -7.570743
-8.905800 -7.154539
-8.773811 -6.435975
-9.061026 -5.928747
-9.774519 -5.444825
-10.756376 -4.012928
-10.290798 -4.295899
-9.917799 -2.601853
-9.748982 -1.489631
-9.554044 -1.081258
-8.571210 -0.510620
-8.065382 -0.209178
-7.787126 -0.467643
-7.586499 0.193818
-6.660928 0.183040
-6.687157 0.405429
-5.096212 0.456351
-4.226337 0.174888
-4.229508 -1.063179
-3.804743 -0.672944
-3.076049 -1.037470
-2.760313 -1.387074
-3.046616 -1.655170
-3.289170 -2.677367
-2.634927 -3.770783
-3.374195 -3.967376
-3.781838 -4.678701
-3.989975 -4.679488
-4.469017 -5.110788
-3.976570 -5.523499
-4.952044 -5.480739
-5.600685 -5.977330
-6.111439 -5.181282
-7.197096 -6.044887
-6.407068 -5.039330
-7.001426 -5.037385
-7.457393 -4.137700
-7.776343 -4.647686
-8.099058 -3.611570
-8.024620 -3.763085
-8.173717 -2.650433
-7.903019 -2.411519
-8.059510 -2.484856
-7.723719 -1.665319
-7.055251 -0.987466
-7.052856 -0.920883
-6.099394 -0.480433
-6.430279 -1.319046
-4.549427 -0.067393
-4.751776 -0.626687
-3.555280 -1.101074
-3.463860 -0.977526
-2.573020 -1.205742
-3.241827 -2.306216
-2.634131 -2.785982
-2.523671 -4.184773
-2.118812 -3.997474
-2.395521 -4.473846
-2.850338 -5.522304
-3.198718 -7.140212
-4.346529 -7.477668
-5.009999 -7.457059
-5.204935 -8.387872
-6.510998 -8.420333
-6.529310 -8.546468
-7.576490 -8.196613
-8.753161 -7.485468
-8.924098 -8.323648
-10.518635 -7.962985
-11.127737 -6.821418
-11.329834 -5.035934
-11.215991 -5.591928
-11.979340 -3.787648
-12.192297 -3.261070
-11.951549 -3.055980
-12.390088 -1.735618
-11.631555 -0.463581
-11.419527 -0.920017
-11.143313 0.800405
-10.729726 1.362425
-10.157888 1.475283
-8.425016 1.838005
-8.392405 1.758825
-7.272866 1.772509
-6.266673 1.510130
-5.558413 2.134868
-4.864374 0.800456
-5.284462 0.424292
-4.053189 0.748772
-4.027131 -0.857634
-3.266947 -0.348272
-4.313742 -1.536406
-4.273314 -1.858467
-4.343069 -2.412002
-3.775492 -2.820205
-4.310969 -4.114511
-4.056878 -4.038532
-4.680598 -3.773959
-4.955453 -4.322582
-6.159416 -3.744265
-6.112304 -4.163895
-6.993438 -3.916426
-7.361948 -3.705606
-7.200631 -2.902533
-7.892001 -3.293997
-7.670713 -2.894649
-8.445339 -2.176926
-7.836353 -1.162299
-8.691141 -1.728362
-7.472573 -1.063015
-8.137652 -0.976180
-6.953924 -0.796582
-6.914002 0.433316
-6.783833 0.609587
-5.598872 0.449724
-5.307139 0.991542
-5.367020 0.326940
-4.835620 0.577839
-4.017589 -0.432458
-3.176840 -0.542978
-2.125537 -1.187867
-2.720899 -0.985715
-1.730206 -2.631148
-1.520755 -2.914920
-2.379304 -3.897820
-1.783709 -5.098420
-1.855049 -4.911772
-2.150511 -5.651584
-2.808365 -6.637255
-3.847907 -7.617145
-5.115651 -7.937449
-5.097859 -8.828843
-6.240015 -7.659031
-7.215745 -7.561742
-8.031486 -7.487384
-8.929763 -7.453990
-9.822982 -7.040360
-10.439105 -7.046577
-10.899840 -6.213579
-11.836174 -5.249507
-11.269203 -4.848155
-11.484569 -2.859862
-12.379067 -2.840819
-12.154974 -2.202642
-11.246924 -1.450245
-11.777919 0.103382
-10.305617 0.210290
-9.480689 -0.181125
-9.223300 0.636624
-9.036428 0.401593
-8.565087 0.480098
-7.553978 0.261699
-7.065203 1.525268
-6.665654 0.415581
-5.506854 -0.388400
-5.748679 0.384627
-5.489799 -0.494706
-4.923385 -0.472984
-4.782236 -0.936944
-5.023029 -1.137752
-4.769794 -2.598286
-4.122989 -3.350613
-5.752927 -2.849543
-5.141516 -3.892195
-5.445314 -3.334100
-5.472821 -3.998361
-7.011713 -5.181167
-6.523463 -4.008501
-7.099661 -3.718256
-7.586951 -3.894479
-7.456440 -4.681347
-8.659237 -3.752106
-9.401365 -3.482602
-9.503155 -2.925197
-9.421857 -3.480083
-9.641527 -2.299832
-10.084275 -2.065749
-10.150893 -2.064554
-8.664084 -1.006259
-8.398260 -0.879038
-8.322289 0.275460
-7.968112 0.229878
-7.276842 0.167902
-7.741429 1.006330
-6.599945 0.856099
-6.353394 0.143322
-4.982826 -0.097607
-5.153226 0.164745
-4.763889 -0.561532
-5.018914 -0.683772
-4.558129 -2.717355
-3.706459 -2.281099
-4.048056 -3.132087
-3.916608 -4.178406
-4.029214 -3.196517
-4.423407 -4.593950
-4.584874 -5.639011
-5.133366 -5.805807
-6.706472 -5.739635
-6.901335 -5.542875
-8.363118 -6.471255
-9.078043 -6.207999
-9.852408 -6.218064
-10.115072 -6.033458
-10.953836 -5.771858
-11.452412 -4.631103
-11.910609 -4.820500
-13.125066 -3.963373
-12.287361 -2.621510
-13.312137 -2.215969
-12.915778 -1.516607
-12.876203 -0.447063
-11.700929 -0.130040
-11.894163 0.517810
-11.354381 0.377752
-10.810068 1.346014
-11.176244 1.713978
-9.717436 1.116921
-9.150791 2.165660
-9.097956 2.413880
-8.244841 1.916492
-7.943555 2.041488
-6.916165 1.707182
-6.841881 1.865131
-7.434989 1.581726
-6.575034 1.710480
-5.833549 1.045035
-5.613026 1.035561
-5.616583 0.106219
-5.384956 0.624257
-6.334232 0.122950
-5.876197 -0.573157
-5.953546 -0.009150
-5.667062 -1.037117
-7.006276 -0.379612
-6.500590 -0.811816
-6.014525 -1.207914
-6.796463 -1.342422
-7.059560 -0.766841
-7.400209 -1.511918
-7.942183 -1.270720
-7.761803 -1.586363
-7.779318 0.018896
-7.350873 -0.667630
-7.784686 -0.276818
-7.494883 0.226032
-7.547353 0.856062
-7.347722 0.129491
-7.648686 -0.186380
-6.772230 1.179107
-6.543507 0.848032
-6.412592 0.730113
-5.882948 1.301467
-5.371300 0.959965
-3.951666 0.931284
-4.631730 0.667268
-3.632620 -0.112102
-3.821450 -0.739287
-3.506802 -0.986983
-3.586319 -1.613380
-4.023271 -2.291955
-3.060543 -3.087783
-3.829866 -2.747046
-3.521935 -4.504049
-4.689610 -3.431493
-4.805066 -4.720079
-6.206611 -4.338932
-5.755809 -5.346397
-6.576549 -4.735295
-6.872017 -5.933552
-7.364434 -4.653997
-7.839847 -5.430772
-8.042286 -5.036843
-8.620565 -4.881518
-9.289630 -4.204373
-9.314127 -3.434096
-10.353377 -3.829634
-9.819725 -2.833120
-10.549832 -1.833649
-10.130102 -2.875229
-9.697323 -3.072351
-10.108174 -1.595490
-10.124022 -0.452821
-9.248798 -0.935084
-9.389270 -0.650953
-9.146349 -0.860592
-8.936902 -0.813662
-9.976814 -0.248141
-8.694646 -1.875246
-8.649394 -0.233464
-8.856553 0.378007
-7.632518 -0.085805
-8.260368 -0.016140
-7.555786 -0.682586
-7.214082 0.151246
-6.829073 -0.495273
-7.368292 -1.261643
-6.732731 0.127303
-6.848370 -1.310632
-7.165343 -1.444082
-7.652062 -1.728279
-6.496553 -2.534545
-7.226179 -1.959319
-7.529409 -1.773359
-7.455573 -1.763090
-7.881266 -2.273951
-7.893441 -2.838694
-7.680681 -0.975948
-8.701555 -2.276418
-8.239751 -2.145531
-8.704274 -1.349305
-8.078911 -1.901103
-9.390256 -1.659333
-7.684755 -1.303095
-8.505508 -0.289915
-8.713380 -1.232132
-8.847015 -0.893931
-7.905738 -0.550061
-8.259450 -0.754262
-8.017255 -0.661785
-7.362768 -0.266906
-7.800411 -1.604195
-7.156408 -1.163900
-7.109310 -1.166711
-6.640375 -2.437193
-6.489559 -1.606478
-6.357396 -1.717280
-7.241865 -2.052698
-6.536562 -2.229409
-7.983238 -1.294239
-7.986842 -3.135338
-7.097217 -3.118114
-8.399465 -3.055140
-8.535813 -3.212978
-9.099491 -3.126785
-9.228722 -3.539658
-9.469648 -3.021984
-8.827836 -2.421558
-9.915030 -2.296929
-10.493073 -2.090092
-9.437527 -2.999842
-10.116738 -1.724661
-10.722629 -1.182085
-11.314803 -1.840571
-10.893979 -1.515430
-10.970148 -0.255369
-11.521288 -0.711410
-11.344554 -0.846361
-11.602608 -0.446754
-11.165405 -0.162392
-10.133330 0.275028
-11.536361 -0.045785
-11.487670 -0.659556
-10.674563 0.285334
-11.176020 0.180350
-11.521719 0.636152
-9.828456 1.231713
-10.850710 0.792268
-10.785125 1.949474
-10.669559 2.084371
-10.305279 2.250497
-10.266743 2.575551
-9.973003 1.984259
-9.448289 2.236222
-8.695043 2.908469
-9.384121 3.732307
-8.068139 2.765782
-8.239612 2.565599
-8.005374 2.160399
-7.599923 2.891267
-7.041240 2.430128
-7.207846 2.490223
-7.001479 3.174188
-6.138489 2.715834
-6.486460 1.859319
-6.800669 2.735003
-6.031369 1.456278
-5.616115 2.351248
-6.568320 1.003966
-5.788595 0.985048
-5.567213 0.552637
-6.106636 0.067506
-6.264554 0.201301
-7.167643 0.251308
-6.534615 -0.370134
-6.367097 -0.086800
-7.200578 0.656658
-6.327476 0.066000
-6.300387 -0.320998
-6.560646 -0.291075
-6.304455 -0.373183
-6.379473 -0.642592
-6.562133 -0.952478
-6.987231 -0.757185
-7.532791 -0.737884
-7.464505 -1.407533
-7.684096 -1.598704
-7.310660 -1.303448
-7.605622 -0.743801
-8.232346 -1.082462
-7.587580 -0.668257
-7.522965 -0.653614
-7.487024 -0.371874
-7.815995 -1.066569
-9.052992 -0.441207
-8.090830 -0.863578
-8.217276 -0.505203
-7.785515 -1.413531
-7.650365 -1.563810
-7.232195 -1.580217
-6.865319 -0.754468
-8.268740 -1.600124
-8.444813 -1.412812
-7.424522 -1.543553
-7.722079 -1.682495
-8.108146 -2.202747
-8.615978 -1.839141
-8.947218 -2.255589
-8.819661 -2.175752
-10.064313 -2.062024
-9.561546 -1.980316
-10.149289 -2.032504
-10.720961 -0.127695
-10.749160 -1.854075
-10.865684 -1.516284
-10.077261 -0.892013
-10.720122 0.978871
-10.873247 1.315856
-11.435194 1.520001
-10.821815 1.294072
-10.492054 1.937333
-10.813627 1.744290
-10.489120 2.569358
-9.757056 2.902932
-9.062217 2.967034
-8.953237 3.257275
-7.920292 3.618698
-8.172496 3.288473
-6.488568 3.265205
-7.032300 3.048101
-6.485083 2.230512
-6.187795 1.476140
-5.610186 1.858291
-5.476233 1.264244
-5.223998 1.425336
-5.699843 -0.223588
-5.343743 -0.032317
-5.238309 0.229612
-5.186596 -0.511611
-5.025862 -1.208901
-6.017252 -1.992977
-5.910845 -2.077332
-6.834283 -2.746918
-6.011804 -3.171709
-6.701652 -2.754291
-8.032716 -2.939055
-7.399285 -3.860431
-8.928014 -4.559852
-8.422041 -3.412373
-9.975986 -3.379660
-10.076599 -3.670888
-9.884278 -2.762738
-10.822984 -2.552372
-11.866196 -2.902479
-11.840562 -2.506546
-11.593783 -1.925260
-10.834114 -1.770284
-11.649384 -1.119867
-12.286521 -0.164883
-12.013560 -0.219155
-11.577082 0.289953
-11.909692 1.051831
-11.582586 1.237315
-10.376890 0.709404
-10.585205 0.777157
-9.583611 0.219548
-10.175053 1.423719
-9.113217 0.950574
-9.555113 -0.579179
-8.714702 -0.148326
-8.681349 -0.479981
-9.412810 -0.092409
-9.647174 -1.477718
-9.333983 -2.085709
-10.094088 -1.776755
-11.051626 -1.779383
-12.178754 -1.183210
-11.912945 -1.666897
-12.171600 -1.168556
-12.632351 -0.936438
-14.145127 -1.827637
-14.696061 0.530345
-13.367961 0.914162
-14.702287 2.201996
-15.266637 1.866526
-14.777902 3.468411
-15.395408 4.324943
-14.378506 3.828486
-14.339932 5.243984
-13.235781 5.749377
-12.605208 7.580746
-12.747695 6.932215
-11.882427 8.259930
-11.805660 7.724063
-9.871197 8.087968
-9.112326 8.856453
-7.504289 8.678987
-6.682776 7.749339
-6.838983 7.169409
-6.113954 7.183360
-5.114521 5.832557
-4.300856 5.974200
-3.278827 4.878631
-3.560629 3.668498
-2.768820 2.955841
-4.431854 2.781405
-3.070068 1.518610
-3.674153 1.144738
-4.100988 -0.482935
-4.366440 -0.960313
-5.224969 -0.680896
-6.284454 -2.483382
-6.157934 -1.117375
-6.679457 -2.577565
-6.728379 -3.236870
-8.680682 -2.692374
-8.771058 -3.309971
-10.136463 -1.611830
-10.085088 -2.252132
-10.417719 -1.871537
-10.431005 -2.409271
-11.555945 -1.515178
-11.727355 0.052211
-11.576360 0.139482
-11.942720 -0.385504
-11.438469 2.082368
-11.585133 2.798057
-11.231099 2.314729
-11.321161 3.545573
-9.451732 2.516797
-9.159377 3.269959
-8.703491 3.347264
-8.429624 2.759223
-9.024099 2.914445
-8.138254 1.478255
-6.882396 2.019895
-7.903922 2.136776
-7.709956 1.303753
-7.425605 1.503917
-7.218322 -0.475770
-7.697124 -0.533438
-8.329380 -0.843511
-9.508779 -1.512819
-9.910442 -1.981194
-10.259001 -2.774102
-10.796607 -2.138049
-12.165525 -1.593096
-12.994789 -1.057274
-13.658433 -0.631512
-14.358258 -0.229159
-13.995627 0.540848
-14.671193 2.557799
-14.962265 2.367172
-14.860936 3.300201
-15.050818 4.538568
-15.108021 5.482929
-14.670234 6.537226
-14.065132 6.264612
-12.533813 7.757760
-12.126382 8.201384
-11.725198 9.549865
-10.099304 10.157380
-8.850931 9.987908
-7.647012 9.492788
-7.204658 8.965931
-6.263361 8.245158
-4.344797 8.320661
-4.335512 7.647187
-3.427648 6.746318
-1.392037 6.710880
-2.075008 5.654356
-1.263586 3.683257
-2.361126 2.612799
-1.728097 2.187686
-1.205745 0.188982
-1.953493 0.548447
-1.782902 -1.995532
-2.120171 -2.651676
-4.410098 -3.202837
-4.477556 -3.889559
-4.868707 -3.538562
-6.772314 -4.723028
-6.654247 -5.326567
-8.567681 -3.245941
-9.238676 -5.107406
-10.248163 -4.143262
-12.072863 -3.414813
-11.193685 -3.469062
-13.125839 -3.150782
-12.959203 -1.106977
-13.105009 -1.342363
-13.868841 0.669981
-13.122299 0.596756
-12.828477 1.870751
-13.897775 2.511946
-13.332536 3.843842
-12.750973 3.137691
-11.819912 4.090281
-10.800392 3.743547
-10.430420 4.639871
-9.889341 4.270838
-9.113961 4.660899
-7.829021 3.141402
-7.659434 3.134327
-7.531503 1.797604
-8.679698 0.438540
-8.307254 0.996591
-7.068826 -0.079429
-8.867405 -0.724541
-9.547498 -1.415913
-10.554851 -1.655608
-12.300035 -1.846213
-12.038275 -2.312837
-13.888839 -2.379304
-13.813227 -1.923622
-13.740287 -0.735357
-16.337541 -0.333855
-17.328729 1.143272
-17.377015 1.205691
-17.597870 1.595853
-17.577936 3.709655
-18.339161 5.002872
-16.368839 6.719233
-17.536137 8.038033
-16.632516 9.263008
-15.610918 9.900341
-14.841510 11.060073
-13.533970 12.017062
-12.561474 11.499237
-12.069806 12.044716
-9.932196 11.812252
-8.705562 12.060537
-6.996044 11.720205
-6.303915 11.370861
-5.079986 11.227759
-4.195390 10.865151
-3.502163 9.504998
-2.654605 8.536458
-1.584444 7.113382
-1.135447 6.027689
-0.823164 5.638610
-0.657378 3.437092
-1.337331 2.466497
-1.436176 1.069000
-2.336671 0.910549
-2.878368 -1.216904
-3.352772 -1.587279
-3.383776 -2.111753
-5.826088 -3.005143
-7.301303 -3.587923
-8.014102 -3.737043
-8.320205 -3.122982
-9.639179 -2.060224
-10.705479 -2.451171
-11.777674 -2.776365
-12.288072 -1.814343
-12.386113 -0.650954
-12.959100 -0.013963
-13.688579 1.415830
-14.080201 1.820954
-12.723394 3.657989
-14.011230 4.028237
-13.110020 3.790860
-12.378167 4.350334
-11.765495 5.958681
-12.049775 6.233791
-10.393866 5.863409
-10.759802 5.362415
-9.087412 6.078330
-8.387421 5.676714
-8.223310 5.005492
-7.652515 3.951124
-7.129787 2.673160
-7.369105 2.940509
-8.116693 2.096301
-7.143223 1.803620
-7.980931 0.804368
-8.883575 -0.043051
-9.508243 0.201919
-10.578002 -0.820594
-11.146923 0.028990
-11.808545 -0.491666
-12.545983 -0.410969
-14.126863 0.215410
-15.238898 0.492587
-14.546428 2.243302
-15.614864 1.976391
-15.950743 3.051919
-15.632773 5.180360
-16.442961 5.905171
-16.665979 7.491979
-14.890378 7.372306
-14.755772 8.566370
-14.089937 10.230914
-14.057390 10.513396
-12.287286 11.415614
-11.367333 11.047650
-9.613614 11.769794
-8.376835 12.067849
-7.927295 12.384068
-6.896571 11.650368
-5.651857 11.531409
-4.294405 10.290965
-3.240551 10.000262
-2.044077 8.787169
-1.258335 8.856128
-0.984663 6.680883
-1.489249 5.791486
-0.914912 4.456144
-0.918220 3.477097
-1.218729 2.073369
-1.738696 0.939047
-2.017393 -0.424487
-3.475961 -1.487823
-3.492984 -1.967260
-4.797637 -2.724016
-5.836411 -3.459720
-7.599507 -3.393241
-8.077679 -3.494460
-9.684126 -3.545969
-10.543545 -3.296513
-10.958407 -3.264967
-12.087801 -2.487614
-13.863763 -1.987054
-13.727532 -0.726798
-14.830775 0.413338
-14.036905 1.127523
-15.597533 2.863081
-14.417206 2.858006
-14.423269 4.816283
-13.876074 4.629744
-13.546577 4.939200
-12.013842 6.290253
-12.583208 5.297290
-12.124485 6.657039
-10.625410 6.261512
-10.006789 5.898156
-9.454954 5.494254
-8.366950 4.655605
-8.684440 3.545805
-9.144476 3.405002
-8.351094 2.369615
-8.916193 2.300412
-9.628577 2.404233
-10.458345 1.615371
-11.106948 1.036689
-12.012274 1.137025
-11.067573 1.238513
-13.092198 1.640689
-13.657748 1.666180
-14.618263 2.647993
-15.616052 2.512613
-14.930832 4.089962
-15.957384 3.530588
-16.183202 5.663914
-15.353503 5.818255
-15.996999 7.538557
-15.609715 8.433300
-15.351062 9.699565
-14.430415 9.482609
-13.500643 11.296912
-12.634825 10.598098
-12.032328 11.689048
-9.933067 11.290197
-9.308185 12.124915
-8.843224 11.817860
-8.017237 11.788266
-5.776280 11.647565
-5.720006 10.761663
-4.263228 10.104609
-4.595242 9.597002
-3.645088 9.105072
-2.699682 7.841171
-1.922292 7.249670
-2.323363 5.364570
-2.065489 5.645458
-1.819955 4.216442
-1.637151 3.064117
-2.477646 1.214913
-3.124787 1.813471
-4.571548 -0.576479
-3.630734 -0.702279
-5.175794 -1.832142
-5.440667 -1.366819
-7.832670 -2.544968
-7.496339 -2.926602
-9.097449 -2.696752
-10.125150 -2.388601
-11.099391 -2.032465
-12.210955 -1.778139
-12.087349 -1.478514
-13.542324 -0.615431
-13.725998 0.367039
-14.347815 0.582785
-14.606793 1.192995
-14.672803 2.249121
-14.730296 3.772607
-14.379034 3.652145
-14.261434 4.004550
-12.976318 4.416041
-12.432215 5.686834
-12.206903 6.051436
-11.767426 5.978946
-12.021867 5.054721
-11.316350 5.282025
-10.187356 5.704468
-11.024737 5.093296
-10.537779 3.586781
-11.084849 4.154450
-10.507650 3.968412
-10.922206 3.654655
-11.750096 2.470574
-10.121487 3.645463
-12.196874 2.726041
-11.881505 3.215041
-12.831969 3.031501
-13.296959 3.403151
-14.047804 2.991669
-14.203023 3.227351
-14.721444 4.740087
-14.397113 5.230142
-14.846829 5.348025
-13.909144 6.222433
-13.859971 6.784819
-13.656791 7.862944
-13.315399 9.209037
-13.558644 9.124845
-12.232076 10.320815
-12.132520 8.982752
-11.170926 10.375417
-10.243726 10.235193
-10.355006 9.779725
-9.207177 10.923572
-7.425199 10.774035
-7.729115 9.870332
-6.210735 8.939596
-5.531218 9.810973
-5.723627 9.004729
-4.965324 7.444074
-4.862290 6.269202
-3.582278 5.651934
-4.068233 5.175171
-3.652767 4.003069
-4.524335 3.645629
-3.369307 2.465756
-3.454877 1.266694
-5.170661 0.362661
-5.720475 0.111981
-5.709807 -1.473561
-6.274321 -1.900798
-7.697045 -1.394726
-9.113839 -2.851024
-10.215935 -2.652852
-10.835133 -2.036564
-11.164153 -2.630828
-12.481199 -0.888805
-13.462896 -2.282067
-14.239990 -0.999068
-14.709044 -1.264766
-15.433034 -1.337206
-15.926744 -0.125155
-16.609048 1.355455
-15.974124 1.254716
-16.657155 1.683789
-16.070811 3.118996
-15.880859 3.616847
-15.575463 4.047114
-15.574203 4.195920
-15.325953 3.760230
-15.609734 3.759803
-15.345024 4.162872
-15.665140 3.255136
-14.549961 4.512703
-15.418070 4.714362
-16.453236 4.484847
-15.593759 3.791097
-16.435452 4.954573
-16.089670 5.266034
-16.886334 5.026463
-16.756048 5.073329
-17.627145 5.455107
-17.950646 6.000487
-17.615174 7.566931
-18.568148 7.066178
-18.093328 8.412365
-17.481456 9.113174
-18.015075 10.607041
-17.473120 9.988055
-16.516845 11.589625
-16.280994 11.903472
-14.318875 13.435552
-14.874436 12.867382
-14.096264 13.654832
-12.967931 12.220005
-11.374692 13.035307
-10.881614 12.773358
-10.892584 13.323104
-8.299869 12.212465
-9.483710 11.655090
-8.782570 11.261531
-8.268990 10.685755
-8.131202 10.349758
-7.887721 9.731734
-7.095745 9.972926
-6.436940 7.924334
-6.590317 8.123587
-7.741858 7.872335
-6.439426 6.815881
-7.273131 7.195416
-6.727165 5.675514
-7.599174 5.641824
-7.750654 5.148790
-7.343935 5.428444
-7.059994 4.529260
-8.656763 3.358552
-8.319041 3.746740
-9.455723 2.969050
-8.862290 4.152794
-8.987029 2.939175
-8.853669 2.191073
-9.807377 2.432375
-10.007844 3.182548
-11.317324 2.321962
-11.536892 2.616027
-10.457915 2.332087
-12.016233 1.960653
-12.900506 2.756668
-12.354872 3.012078
-12.428685 2.686597
-12.381813 2.018198
-12.839766 2.152285
-13.495886 1.773964
-12.406259 2.627246
-13.227030 1.982581
-14.878826 1.969218
-14.416423 1.256898
-14.771526 1.789441
-15.329259 2.733423
-16.188844 2.308347
-15.992703 2.152629
-16.903278 2.239096
-17.567711 3.683023
-17.769838 2.972342
-19.125366 3.433963
-19.197372 3.379613
-20.431231 4.384300
-21.241821 6.367679
-21.188109 7.321399
-20.914682 8.195662
-20.912381 8.298342
-20.735071 9.560928
-20.610041 10.386950
-19.903411 12.199120
-18.998932 12.102882
-18.056493 12.815308
-16.295506 13.482021
-16.149152 13.977667
-15.139787 14.235314
-14.959976 14.632897
-12.146487 14.738012
-12.464727 14.338669
-10.953334 14.921707
-9.744143 13.189717
-9.687261 13.063801
-9.198058 11.524214
-8.118026 11.069655
-8.229465 10.211588
-7.163132 9.311788
-6.962675 8.354974
-8.168995 7.096411
-7.378803 6.007446
-7.818930 6.097315
-8.155720 6.091971
-8.342911 4.845950
-9.158679 4.011968
-9.638317 2.833308
-10.625548 2.466248
-11.116090 2.115614
-12.643508 2.656920
-11.873441 2.724742
-13.065227 2.836110
-14.352317 2.963497
-14.640114 2.066181
-15.217968 2.785448
-14.133267 4.386519
-15.057176 3.053768
-15.844069 3.410918
-16.279993 4.029738
-15.668040 4.397827
-16.781949 6.102179
-15.656626 4.337812
-16.408745 4.706614
-15.081775 5.569125
-14.501414 4.985910
-15.244519 5.584815
-14.257295 5.186827
-14.869739 4.446195
-14.458976 3.233619
-14.298654 2.956803
-14.298382 1.865097
-15.230643 1.285518
-15.575213 1.809131
-16.294834 -0.274859
-17.057725 -0.508065
-18.895818 -0.635306
-19.589436 -1.449545
-21.301552 -1.839998
-21.610839 -1.546420
-24.065237 -1.834417
-26.483488 -0.587247
-28.083353 -0.553917
-30.265377 0.996049
-30.652330 2.606627
-31.371442 4.144878
-33.003563 6.007136
-33.056405 8.183911
-33.618839 10.365875
-33.495030 13.227127
-32.333324 14.569703
-32.124181 16.976630
-31.043294 19.094148
-29.631572 20.152417
-26.313315 21.410427
-25.617827 23.066175
-24.061370 23.599410
-21.861498 24.007810
-21.035082 23.804760
-17.791438 23.254275
-15.429105 22.971469
-14.224037 21.648622
-12.692401 20.219091
-12.772835 19.338055
-12.231947 18.110888
-10.628683 16.981422
-10.446944 13.633830
-11.646052 13.483696
-11.933399 11.734572
-12.185896 10.656856
-13.656246 9.614212
-13.516803 9.598504
-16.351222 8.112699
-17.123058 8.870977
-17.148717 9.152455
-18.432560 7.650564
-20.209271 8.729591
-20.775738 8.464796
-22.257316 10.500072
-22.315233 12.076867
-22.069382 12.955008
-23.195465 13.196633
-23.402268 14.729027
-22.923406 15.863249
-22.182699 16.774068
-21.865856 17.051169
-21.038811 17.608464
-20.163115 18.620871
-18.831155 19.258463
-17.181184 20.267659
-16.136107 19.854303
-15.521485 20.469597
-13.899049 18.577013
-13.688002 18.297993
-12.601177 17.847272
-10.972432 17.046326
-11.188293 15.464314
-11.088958 13.339011
-10.135907 12.427576
-10.676826 11.050160
-11.328071 9.255670
-11.981653 7.659123
-13.401405 6.337169
-15.099641 5.927919
-16.442862 4.161321
-18.540768 4.782639
-19.799051 3.721933
-21.727932 2.865848
-25.441123 4.271926
-26.110990 5.385285
-28.156302 6.829770
-29.698845 8.796033
-31.450521 10.022705
-32.769807 11.394566
-32.259835 16.253447
-32.981558 17.219283
-33.707625 19.945016
-32.439855 22.713759
-31.211180 24.877068
-30.078856 26.841154
-28.486468 30.126516
-24.862632 30.753440
-21.819280 31.034327
-21.662132 31.991454
-17.743582 32.175183
-13.898833 32.522213
-13.029525 31.639298
-9.473127 29.560415
-7.787909 27.722817
-6.107388 26.419647
-5.023417 24.556938
-3.978049 22.680639
-4.840167 18.730997
-3.177983 17.487966
-4.428083 14.098894
-4.571245 14.390888
-4.970867 11.557346
-6.375024 7.636142
-8.553805 6.563517
-9.982064 6.150097
-13.360563 4.026670
-14.753530 5.531229
-16.930596 3.746876
-19.464184 2.862857
-20.799718 5.630431
-22.095791 5.231639
-24.568726 6.641391
-26.435532 8.153394
-25.880469 8.968824
-28.608128 10.841247
-28.304253 14.402384
-29.026989 15.081069
-28.467468 18.392305
-27.976447 20.027624
-26.115828 19.778102
-27.601480 22.632944
-22.937830 25.201250
-23.468100 24.181917
-19.533462 25.524210
-17.274576 24.676179
-15.434946 23.049701
-13.112714 23.696216
-12.181166 19.788334
-11.281158 17.996623
-9.699074 18.109575
-8.438426 15.094985
-8.765446 11.570063
-8.894459 8.657153
-11.632930 5.742517
-11.259587 3.365010
-15.506542 0.384295
-17.594176 -2.122681
-21.806897 -4.137530
-23.529022 -3.442099
-28.355732 -3.736165
-31.891520 -4.070216
-36.072495 -2.695733
-40.764250 -2.978538
-43.230044 1.806490
-48.483037 4.436989
-50.058479 6.599527
-51.350063 12.493899
-52.739206 14.806596
-54.138396 21.038532
-54.051351 24.905178
-53.847501 29.918166
-50.423679 35.084847
-48.949043 37.569079
-45.647246 41.634748
-41.623687 45.388228
-39.175422 46.398790
-35.106813 48.193155
-30.391996 46.643264
-26.000720 46.399946
-22.997481 47.246394
-19.395783 46.163853
-13.976636 43.783670
-12.424827 39.493721
-10.362078 37.168069
-9.881351 32.419692
-8.742467 29.738581
-9.198074 27.947024
-9.424140 23.733421
-12.432237 19.578547
-14.031126 18.917718
-16.288572 15.886000
-18.900378 14.671569
-21.094809 11.898633
-23.776956 11.673981
-27.041347 13.232459
-33.117227 13.733391
-34.518685 14.619423
-38.208248 16.715755
-38.927896 18.338656
-42.009401 20.701665
-44.547397 24.232393
-43.759418 28.865555
-44.645695 32.024431
-46.007020 36.765966
-44.436726 40.549192
-41.428767 40.997898
-40.757690 46.650721
-37.594215 48.173267
-33.411631 49.024570
-31.157114 53.220421
-26.921760 53.801904
-23.679868 53.726906
-20.122947 55.136792
-16.697850 52.594344
-11.355074 49.981875
-10.446623 47.734637
-5.404986 42.825908
-5.236849 39.402370
-4.616318 37.949184
-2.992040 33.376160
-5.094982 28.323918
-7.227326 26.143847
-6.114574 21.207523
-11.642089 17.042285
-16.207893 18.641933
-17.419611 13.544109
-22.949460 11.032563
-26.996065 12.927857
-31.798668 12.465237
-37.072876 14.137516
-42.087826 15.610319
-43.994055 18.715108
-51.176717 23.144825
-51.187474 30.544623
-52.869116 31.470610
-55.422439 39.336505
-53.448124 44.784165
-54.701193 48.836424
-52.102114 57.894511
-49.087858 61.318539
-47.651147 63.516842
-42.409567 68.894744
-36.413300 73.344104
-32.328466 75.184151
-23.942405 76.346296
-17.997226 75.469677
-11.150340 74.495687
-9.738839 74.157979
-3.345359 72.497989
2.990886 69.466863
5.126617 67.710714
10.381985 58.694265
9.623973 53.154721
12.673679 51.198442
14.517755 45.179162
9.645547 42.027841
12.940351 32.134530
10.503448 30.291077
6.130528 25.507309
2.609246 21.626945
1.430261 19.858940
-1.445070 16.282907
-9.982969 14.885787
-15.496173 13.720734
-18.781642 11.317188
-24.911825 16.215552
-25.758789 19.239113
-32.198955 15.418489
-35.251927 24.369687
-34.976538 25.487714
-45.994937 33.261366
-39.792025 37.057050
-42.796004 41.768470
-41.398460 46.494248
-37.660530 52.386214
-34.570941 53.149152
-31.731017 58.223830
-25.605417 61.476848
-25.316355 60.180005
-18.198917 61.893744
-9.888449 59.268284
-6.928421 60.128621
-1.864918 54.079038
1.968033 53.559591
5.758904 43.553410
3.177291 43.553667
10.442250 30.729034
2.882647 29.356545
5.662512 23.707042
3.831423 13.953196
-2.975553 9.163913
-6.042631 3.410528
-15.605144 -2.701079
-29.336618 0.706355
-31.228057 -6.429692
-38.005052 -6.463705
-48.602902 -3.192233
-56.964661 2.194461
-67.746881 8.173530
-74.558072 13.263483
-76.718551 14.102759
-85.330901 20.750686
-93.721954 36.417132
-92.166042 43.603618
-94.241093 55.808627
-88.092543 62.247036
-88.553617 75.273228
-83.857377 79.534244
-80.230500 95.575666
-71.456639 92.616448
-68.791728 103.483934
-59.665494 106.357477
-50.158610 109.485246
-40.011530 113.150339
-33.826707 108.376950
-27.025736 105.126258
-23.223977 102.660089
-15.036004 102.099007
-8.138457 100.443163
-3.832591 89.615512
-2.513495 83.074182
2.203348 80.089769
-1.965157 76.488819
-7.011509 72.301318
0.658672 54.172016
-2.750600 58.674515
-17.932197 49.593989
-17.004912 45.060843
-17.399264 54.246386
-20.266009 41.321552
-32.681304 34.291865
-42.206727 35.564083
-52.247302 40.307046
-45.281031 60.145012
-52.627957 50.039059
-62.912381 58.476887
-65.491048 57.101236
-79.022895 70.870666
-77.530984 76.114786
-62.870585 73.346836
-67.625886 96.580833
-74.974962 101.433152
-70.101625 109.150099
-65.297564 126.645886
-43.773707 125.927911
-45.839279 121.480350
-35.796828 127.568476
-40.455857 123.889724
-22.750985 139.715060
-12.435733 122.522296
-7.573536 124.077585
4.158702 113.089050
3.134531 108.856123
-0.916799 103.351927
22.193106 82.504776
9.462900 75.175174
7.056558 77.244500
4.137460 66.825894
-20.430412 60.342681
-3.998506 37.871513
-22.714502 37.017568
-40.787818 52.414523
-61.666904 41.045316
-71.205799 43.973267
-79.229765 42.755144
-101.970180 50.558386
-110.488228 69.341708
-122.172100 71.513291
-124.177965 86.180913
-128.453943 99.564690
-163.834331 120.629057
-165.933256 140.206405
-154.580919 176.212488
-167.231250 198.425678
-142.388344 188.900788
-135.925411 200.828992
-135.211707 237.566122
-126.347955 261.182074
-113.053890 271.773935
-88.507793 289.193162
-66.288206 288.906949
-51.882076 318.983590
-24.129121 315.259378
-2.834702 309.652547
38.336641 290.440841
13.625646 298.479270
45.889943 273.757792
44.631476 309.203131
79.035449 279.882088
81.883861 290.821135
111.920186 234.483097
69.679651 244.164317
126.283798 178.943792
108.152550 171.494308
92.416154 184.778790
113.618249 171.206350
77.782415 185.618993
48.543180 179.059919
66.633866 113.653576
50.737074 151.103408
-20.319313 198.121061
-38.213341 105.693130
-46.664100 146.334516
3.761457 71.891825
11.672865 182.774206
-11.641723 125.758160
-104.487991 248.024335
-51.640295 197.949058
-74.917976 357.849964
-279.836318 448.256914
-135.142894 480.688006
-14.474145 490.873079
-150.448528 597.697972
21.587943 409.611374
119.727501 253.374945
366.442810 816.270618
-198.721300 800.892739
-73.160854 708.222795
89.656095 336.729763
283.923948 933.239503
1042.786112 761.661533
231.826902 1410.840004
-105.924725 -568.629128
261.789015 -26.843444
-2128.455363 -866.956269
536.459372 1452.289483
986.030779 -768.412772
-1753.200542 -4261.236624
