8628.516413 8750.188092
-4148.165442 -874.009568
291.715942 921.983130
-40.162655 -194.121776
-123.827214 -303.580863
38.828761 -221.839419
-411.568289 63.856746
38.444318 129.944947
-128.694278 82.691763
34.449620 52.196612
63.347269 -109.487753
95.196109 -130.061387
155.207322 22.769196
-74.930705 111.111155
43.971467 -59.132185
22.571581 22.683464
23.223945 -25.961610
2.656358 -42.985889
40.081105 -15.506028
4.791612 1.491344
26.109604 -28.255939
48.234760 -72.544761
75.546873 -41.938807
21.732217 -34.456948
15.849720 -28.591164
33.896800 -24.995712
-1.759799 -20.758548
40.949543 -49.438405
33.468911 -35.359376
46.888527 -40.200380
40.433801 -17.962034
20.524758 -24.706952
48.518610 -38.797046
21.390113 -38.387827
30.615706 -49.611476
24.553170 -50.315185
32.038215 -39.877355
16.037257 -33.280685
27.874621 -40.965305
22.480700 -41.885711
22.227909 -34.141478
12.723557 -50.220495
24.109282 -41.983778
19.171308 -33.624505
12.764486 -40.806915
24.454389 -43.940729
9.830333 -48.276159
20.175775 -47.170450
10.380192 -36.326010
13.752091 -42.191534
17.546253 -35.466022
7.553572 -39.589937
5.260458 -47.077546
13.336605 -53.074364
9.349957 -41.706840
9.434573 -37.964602
5.375914 -43.325769
6.449950 -40.471825
-3.171412 -37.086848
-0.282851 -43.882676
1.878882 -38.827094
0.367507 -34.217258
1.172297 -41.670769
3.384491 -40.483385
-0.362969 -42.168048
-1.960963 -38.156068
-3.647249 -40.803098
-0.168919 -37.408909
-0.763872 -33.656731
-7.272429 -38.065277
-6.480647 -37.673095
-3.673473 -37.813766
-6.743032 -36.117943
-4.436806 -30.917088
-2.441817 -35.130697
-8.306390 -31.175551
-6.788835 -30.674572
-5.406229 -37.910197
-11.715946 -30.182759
-4.137840 -30.220782
-10.003149 -34.376010
-10.580087 -27.223262
-7.390579 -32.660289
-9.340161 -28.974304
-10.332512 -28.092156
-10.489777 -28.543141
-8.942954 -32.013419
-10.179956 -26.732339
-8.381969 -28.386798
-12.588896 -26.864186
-12.700194 -25.182027
-12.642823 -26.353877
-10.716531 -26.073984
-12.600398 -24.457125
-10.863748 -24.939015
-10.953188 -26.637079
-12.926542 -22.430260
-9.588179 -26.512082
-13.494901 -20.937150
-13.129216 -22.296671
-13.178339 -22.407881
-15.038536 -22.623665
-11.417010 -23.149855
-12.288078 -22.123994
-12.252523 -21.147489
-13.272229 -22.687150
-14.641709 -21.241279
-12.490119 -19.117567
-14.244276 -21.559997
-13.925635 -19.875337
-11.424700 -20.262527
-15.423844 -18.867085
-13.487249 -19.750324
-13.391986 -18.023516
-13.763447 -19.634772
-10.306703 -17.627043
-11.902469 -17.114338
-13.816064 -19.030550
-12.428734 -17.193368
-13.117971 -16.915297
-13.678235 -16.583056
-12.344007 -17.261346
-10.797797 -16.944268
-13.274969 -17.191751
-15.057513 -15.519665
-11.705927 -18.026913
-13.749269 -17.642466
-12.700810 -15.291365
-13.218573 -17.567462
-13.628466 -17.964641
-13.654110 -16.011507
-13.011146 -15.256418
-14.939728 -17.138446
-12.162827 -14.848562
-12.776592 -15.085764
-13.599858 -17.237953
-14.673873 -15.230969
-13.334693 -15.695256
-15.335418 -14.780033
-14.874437 -15.354086
-12.962975 -14.845001
-15.494238 -16.658184
-15.565860 -14.117928
-14.927037 -15.678888
-15.765492 -15.249554
-15.087248 -13.125991
-15.269795 -14.565080
-16.396718 -14.136009
-15.317046 -13.316682
-15.858790 -14.167278
-16.258330 -14.378281
-15.817096 -11.389830
-16.077379 -13.931140
-17.712160 -13.961680
-16.478989 -13.115535
-17.030799 -12.255689
-18.482332 -11.724973
-16.549269 -12.556684
-17.624053 -11.904778
-17.804141 -12.039740
-17.476474 -11.245425
-18.387475 -11.915895
-18.892305 -10.895256
-17.278851 -11.361583
-18.878922 -11.241141
-19.160154 -9.434437
-19.060932 -8.718087
-18.620707 -9.882324
-18.505422 -9.682229
-18.284919 -8.878485
-18.368641 -9.875821
-19.191960 -7.453090
-20.188100 -9.611148
-18.889379 -7.399871
-19.322424 -8.025931
-20.573553 -7.650095
-19.945659 -7.506550
-19.661757 -7.813339
-20.355528 -6.641038
-19.998026 -5.821355
-18.996282 -6.385515
-20.498429 -4.824923
-20.204182 -4.433044
-20.723316 -6.159315
-21.009998 -4.339644
-19.673306 -4.072636
-21.216132 -3.006850
-19.406074 -3.832009
-20.311303 -2.693247
-19.494066 -2.501272
-20.223945 -2.109541
-19.330259 -1.433145
-19.203363 -1.078571
-19.942372 -1.789760
-19.890768 -0.841217
-18.780886 -0.871129
-19.420518 -0.892010
-19.496850 0.315892
-19.290544 -0.615397
-19.088451 1.105565
-18.192687 1.175053
-19.330457 1.195732
-18.108605 1.253947
-18.615720 1.265586
-18.106256 1.794920
-17.931890 2.446770
-17.908332 2.470087
-16.667005 3.520133
-18.104363 3.058949
-16.448421 2.643851
-17.238770 3.318311
-17.077270 3.680327
-16.239699 3.594473
-16.184769 3.398163
-16.771673 5.098435
-15.451055 4.074923
-15.356738 4.491802
-15.334454 5.014307
-15.326873 4.912392
-15.147352 4.617413
-14.495995 5.765945
-14.757709 5.184023
-14.722177 6.029310
-13.318415 5.991521
-13.687350 5.622495
-12.980662 6.810700
-12.971003 5.295149
-12.955456 5.726945
-12.870358 7.133450
-12.287271 6.109451
-12.136789 6.344764
-12.042114 6.360084
-11.731372 5.648635
-11.798630 6.104131
-11.898893 5.483736
-11.164505 6.273647
-11.223928 5.832390
-10.673062 7.037479
-10.265987 6.386686
-10.295370 6.283455
-9.702794 5.963606
-9.966627 5.375622
-9.793470 6.263806
-9.447865 5.765955
-9.781930 6.625243
-8.711222 6.626569
-9.798816 5.647681
-8.324738 6.598113
-8.465728 5.106454
-8.748616 6.146417
-8.577932 4.770007
-8.695652 5.436279
-9.047704 5.874818
-7.961705 5.640779
-7.853447 5.202220
-7.536412 5.236864
-7.709445 5.308476
-7.564259 5.571120
-7.653257 5.525980
-7.420061 5.219908
-7.473662 4.855369
-7.733323 5.224491
-7.358257 5.346537
-7.974279 4.722966
-8.170383 4.692436
-7.735109 4.886563
-8.165141 5.065796
-8.320641 3.976176
-6.789802 5.005390
-7.539368 4.863796
-7.016229 4.517161
-7.323744 4.407388
-6.833536 4.728499
-7.219863 4.425076
-7.621490 4.932633
-7.457048 4.665684
-7.565984 4.197134
-7.654994 4.057417
-6.919979 4.900832
-7.366297 4.681495
-7.243838 5.103286
-7.851762 3.478431
-7.460895 3.594749
-7.508676 4.163874
-8.353729 4.703044
-7.687650 4.932425
-7.946765 3.652722
-7.818449 4.289418
-8.435343 4.494400
-7.597609 5.297250
-7.318204 4.744020
-8.515879 4.620443
-7.795514 4.804692
-7.792972 5.216425
-7.805312 4.679440
-7.562387 5.472393
-8.124682 5.021115
-7.818089 5.268319
-8.087190 5.425179
-7.838480 5.067670
-7.941097 5.137313
-7.701032 6.042630
-8.218012 5.539237
-7.382032 5.885859
-7.990152 6.227203
-8.017972 6.060017
-8.006546 6.474296
-7.651408 6.041885
-7.895001 6.093126
-7.427474 6.370214
-7.868016 6.714076
-7.538700 7.103115
-7.331907 7.001179
-7.545856 6.696316
-7.015171 7.272049
-7.342791 6.665943
-7.636747 7.174970
-7.421724 7.691714
-6.494781 7.190499
-7.160711 7.711379
-6.665186 7.881979
-6.756529 8.026923
-6.822348 8.096289
-6.154177 8.058737
-6.216876 7.975368
-6.433010 8.282068
-6.131117 8.441294
-6.385292 8.612786
-6.632280 8.387106
-5.742336 8.212976
-5.602971 9.371874
-5.816919 8.217426
-5.662487 8.938263
-5.384966 8.542763
-5.340109 8.561472
-5.263767 9.284609
-5.599512 8.863477
-4.428475 9.224823
-4.586640 9.337918
-4.982997 9.021529
-5.026980 9.338832
-4.102407 9.445917
-4.053551 9.793710
-3.545518 8.960949
-3.365641 9.497454
-3.644159 9.367667
-3.620841 9.033575
-3.071086 9.674643
-3.322136 9.417301
-3.330249 9.321556
-2.618430 9.560150
-2.731903 10.193102
-2.986797 9.752976
-2.211993 9.503091
-2.013826 8.806072
-2.418290 9.628588
-2.073822 9.251757
-1.788159 9.238047
-1.645600 9.187359
-1.645257 9.071033
-2.204317 8.802829
-1.617585 9.419875
-0.970369 8.888977
-0.975755 9.005599
-1.523184 9.634205
-0.346927 9.135372
-1.462375 9.355602
-0.328780 8.895209
-0.101730 9.204022
-0.523546 9.049445
0.955473 8.385564
0.129410 9.124215
0.418517 8.514297
0.884583 8.422219
0.566998 8.160852
0.322453 7.873782
1.116278 7.610053
0.558786 8.069602
0.136048 8.540501
0.982993 8.611570
0.968296 8.188203
0.482932 8.185656
1.479914 7.999648
0.957848 7.719892
0.849073 7.431650
0.997574 7.252572
0.725874 7.691330
1.299596 7.556759
1.465324 7.610970
1.558352 7.130383
1.767162 6.833592
1.895975 6.856934
1.404958 7.245251
1.919757 6.944568
1.088272 7.532588
2.261263 6.594158
2.000637 6.572895
2.066195 5.997434
2.183836 6.730116
2.047731 6.973002
1.906845 6.589217
2.244165 6.726818
1.117561 6.506722
1.968548 6.132931
1.927358 6.524587
2.083325 5.651633
2.777566 6.620863
2.365837 6.076561
1.276998 5.654891
1.667795 5.769376
1.857978 5.453900
2.328290 5.688126
1.451835 5.400257
2.118075 6.118519
1.175538 5.880761
1.886781 5.044053
2.777303 5.985642
2.452768 5.314458
1.655510 5.642553
2.397372 5.948384
1.852267 5.695825
1.780222 5.350010
1.899566 5.426985
2.437703 5.275257
1.826161 5.641251
2.405770 5.492843
2.126452 4.731225
2.810149 5.758215
2.421381 4.980834
2.732307 5.483730
2.374701 5.476584
1.954850 5.762830
2.486005 5.361472
2.277365 5.668233
2.888001 5.252857
2.426064 5.132992
2.764226 5.250710
3.325496 5.610057
2.762714 5.770596
2.672561 4.869351
3.442588 5.338152
2.637309 5.388291
2.828331 5.551384
3.106732 5.492774
2.743719 4.486282
3.342776 5.409351
3.568410 4.836515
3.530304 5.336178
3.953595 5.261884
3.317740 5.334645
4.238778 4.677813
3.882217 4.907430
3.875010 4.620897
3.422794 5.192955
4.018161 4.781662
3.650482 4.796651
4.160988 4.678828
3.564486 4.895702
3.635065 4.479540
4.113338 4.372396
4.350798 4.963428
4.550756 4.430502
4.468553 4.712817
4.394044 4.571605
4.828304 4.188217
4.665930 4.327083
5.044870 4.127821
4.661439 4.002770
4.664654 3.959866
4.599778 3.720685
4.527232 4.001465
4.920513 4.289924
4.735879 3.987692
5.218316 3.860554
5.235225 4.279335
5.140936 3.513011
5.711735 3.806630
4.714094 3.320932
5.193752 4.064480
5.109550 3.264301
5.488186 2.885112
5.293876 3.074361
5.430372 3.242314
5.277652 2.800573
5.204945 2.692214
5.469155 2.459819
5.203196 2.025419
5.245866 2.380684
5.735546 2.478768
5.520347 1.981488
5.065523 2.153752
5.279489 2.084109
5.762060 1.890123
5.592768 1.773678
5.702985 1.931265
5.476095 1.285890
6.247578 1.326765
5.974952 0.753846
5.347244 0.501016
5.528523 1.352360
6.183679 1.182855
5.767526 0.915065
6.065674 0.943411
6.094474 0.923602
5.590114 0.719461
5.881024 0.078022
5.635313 0.409473
5.834422 0.254806
5.629526 -0.909993
5.865349 -0.296460
5.887124 -0.116955
6.116201 -0.441623
6.291111 -0.279248
5.316889 -0.862963
5.405132 -0.344221
4.856287 -0.547909
5.209097 -0.679491
5.076094 -0.864941
4.872429 -1.208382
4.847608 -0.745069
4.973147 -1.282090
5.273359 -0.908188
5.150386 -1.209755
4.425454 -1.578289
4.505226 -1.265429
4.510687 -1.973142
4.488990 -1.423031
4.470976 -2.024183
4.327092 -1.265261
4.191689 -2.383021
4.287803 -1.878433
4.239399 -1.685769
3.532955 -1.970011
3.971124 -1.487266
3.806398 -2.570288
3.383087 -2.071829
3.289297 -2.313720
3.898962 -2.420120
3.861087 -2.261341
3.933235 -2.752650
3.857103 -1.932448
3.501560 -1.966233
3.636018 -2.238191
2.895992 -2.240545
3.288167 -2.746839
3.407782 -2.360372
2.553178 -2.524215
3.154708 -2.798595
2.196697 -2.389477
2.796018 -2.757483
2.231914 -2.496511
2.839603 -2.096230
2.450734 -2.845960
2.666059 -2.662190
2.781477 -2.315844
1.610797 -2.177281
2.042948 -2.476595
1.803886 -2.793287
1.652731 -2.389134
2.304415 -2.964354
2.222088 -2.346662
1.994052 -2.107256
2.420303 -2.020251
2.480770 -2.434895
1.746768 -2.471064
2.220736 -2.304954
1.873704 -2.514455
1.782875 -1.654522
1.044708 -2.015043
1.774062 -2.514399
1.666489 -2.383446
1.720081 -1.891415
1.725097 -2.203470
0.954965 -2.234941
0.948277 -1.917800
0.734320 -2.083492
0.508911 -2.618476
1.252644 -2.540667
1.000347 -1.742170
0.932102 -1.728064
0.499459 -1.750703
1.777306 -2.465506
0.839531 -2.144267
0.760873 -2.085764
0.885801 -1.864976
0.786300 -1.964464
1.314883 -2.049807
0.675759 -2.545577
0.985065 -2.095634
1.468744 -1.203523
1.006423 -1.535816
1.170459 -1.989330
0.821467 -1.374962
1.115696 -2.173755
1.269608 -1.906419
0.883089 -1.635387
1.355680 -1.589515
1.101078 -1.412560
1.589759 -1.428248
1.340897 -1.582462
1.006547 -1.765104
1.241882 -1.653912
0.892802 -1.371027
1.191186 -1.801902
1.427784 -1.690348
1.516285 -1.877580
0.803009 -2.100180
0.953749 -1.893280
1.291244 -1.522744
1.378606 -2.249771
1.530070 -1.366738
1.219370 -2.131540
1.241120 -1.586716
1.509752 -1.299905
1.147987 -2.256292
1.142439 -2.251185
0.650297 -2.608866
1.502985 -1.362436
0.653521 -1.554709
1.673787 -1.654709
1.175407 -1.427248
1.499853 -2.033693
1.521252 -2.648872
1.047712 -2.259222
1.120404 -1.736868
0.904992 -2.106795
1.071149 -2.120849
0.941657 -2.223877
0.999951 -2.399325
1.284589 -2.489837
1.329131 -2.255265
0.956733 -2.535777
1.126462 -2.070159
0.727183 -2.200578
1.196372 -2.778187
0.942053 -3.170692
0.690848 -2.521748
1.476245 -2.393797
0.955333 -2.596025
1.453946 -2.454360
0.625723 -2.633687
0.346967 -2.811512
1.132202 -2.614258
1.048654 -2.001238
0.305363 -3.148737
0.646123 -3.309406
0.360445 -2.764987
0.297298 -3.053875
0.584138 -3.281700
0.490912 -3.058695
0.082690 -2.502897
0.846890 -2.584853
0.794472 -2.908440
0.593133 -2.899577
0.336215 -2.946762
0.524007 -2.833034
0.641287 -3.205265
0.421568 -3.500397
0.145947 -3.461978
-0.188108 -3.094930
-0.286430 -3.538006
0.051772 -3.210183
-0.263125 -3.500287
0.126007 -3.415339
-0.395371 -3.566171
-0.525209 -3.121952
-0.350025 -3.124254
-0.614778 -3.126372
-0.999466 -2.916280
-0.541616 -3.206448
-0.853222 -3.783775
-0.586740 -2.414914
-0.926016 -2.552695
-0.762404 -2.926798
-1.104240 -2.910849
-1.080032 -3.202776
-1.025919 -3.078887
-1.369671 -2.888898
-1.504782 -2.829034
-1.510663 -2.817261
-1.223938 -2.728835
-2.281767 -3.283303
-1.392483 -3.191280
-1.963738 -2.918470
-1.802634 -2.543313
-1.602452 -2.949095
-1.988596 -2.952183
-1.907116 -2.875250
-2.053298 -2.334987
-1.521195 -2.467288
-1.660862 -2.670615
-1.962264 -2.365722
-1.656004 -2.114580
-2.444660 -2.651260
-1.670379 -2.597689
-1.947972 -1.914683
-2.468902 -2.376293
-1.879717 -2.233486
-1.907457 -2.094598
-1.886296 -2.463044
-2.406814 -1.964407
-1.854863 -2.517718
-2.309258 -1.861612
-1.871365 -1.934431
-1.940371 -2.050597
-1.877837 -2.120545
-2.551382 -1.348124
-2.075314 -2.106973
-2.453411 -1.249314
-2.530158 -1.941896
-1.811017 -1.252610
-2.565641 -1.554567
-2.325658 -1.577172
-2.311711 -1.260712
-2.036664 -1.892827
-2.361808 -1.529747
-2.400527 -1.354118
-2.064804 -1.274435
-2.107262 -1.030786
-2.142228 -1.245621
-2.187104 -1.955055
-1.996587 -1.256153
-2.009371 -1.277035
-1.939412 -1.138153
-1.779663 -1.423953
-1.956724 -0.966343
-1.809810 -0.725036
-2.186542 -1.255905
-1.654390 -0.994945
-1.635629 -0.670752
-1.821424 -1.006226
-1.552529 -1.372758
-1.902226 -1.159755
-1.477201 -0.826162
-1.578117 -1.086919
-1.491805 -1.330187
-1.746656 -1.068558
-1.510069 -0.892927
-1.836045 -0.845790
-1.879797 -1.204916
-1.530353 -0.784395
-2.246091 -1.083466
-1.876652 -1.177045
-2.290560 -1.361660
-1.924075 -1.026953
-1.387200 -0.695461
-1.714026 -0.970627
-1.764519 -1.301462
-1.662562 -1.108614
-1.703854 -0.659448
-1.994195 -1.369068
-1.413493 -1.233180
-1.742953 -0.981107
-2.020511 -1.653909
-1.539833 -1.106635
-1.825997 -2.207541
-1.600079 -1.305702
-1.387594 -1.255266
-1.757060 -1.472428
-1.830198 -1.678094
-2.432924 -1.381183
-2.023169 -1.536575
-1.620123 -1.569632
-1.902080 -1.206222
-2.108633 -1.881348
-2.642568 -1.448668
-1.964184 -1.896607
-2.039913 -2.110134
-2.232006 -1.846588
-1.846958 -1.706119
-2.286255 -1.534316
-2.141438 -1.535682
-2.003044 -1.735138
-2.294919 -1.788753
-1.946685 -1.749230
-2.387225 -1.689681
-2.391768 -2.461315
-2.421016 -1.482542
-2.697824 -2.239841
-1.918928 -1.539643
-2.969711 -1.693767
-2.786790 -2.158417
-3.021281 -1.909964
-2.860666 -2.115743
-3.058659 -2.332919
-3.515550 -1.971125
-3.232223 -2.497862
-3.258578 -1.455618
-3.330212 -2.215283
-2.906106 -1.990553
-3.776167 -1.785725
-3.493418 -1.659284
-3.609394 -1.175165
-3.705422 -1.258735
-3.314604 -1.587792
-3.549423 -1.834491
-3.774423 -1.357355
-4.115649 -1.453668
-3.468818 -1.610518
-3.284653 -1.568504
-3.836332 -1.811137
-4.040747 -1.645853
-4.188219 -1.266223
-4.205077 -1.241748
-4.191203 -1.266121
-4.387689 -1.415268
-3.962710 -1.007846
-4.529208 -0.635940
-4.846691 -1.203296
-4.570710 -0.800182
-4.907607 -1.200310
-4.561193 -0.393295
-4.743524 -0.849542
-4.951305 -0.189167
-5.121979 -0.116287
-5.011093 -0.792428
-4.611075 0.206649
-4.672654 -0.608914
-5.116035 -0.049935
-5.173071 -0.398528
-4.458672 0.276800
-4.642124 0.186073
-5.423324 0.201432
-4.464883 0.828217
-4.949167 0.400733
-4.946980 0.792901
-4.493602 0.997552
-5.231520 0.544161
-5.040363 0.811760
-4.287731 0.828716
-5.069811 0.937898
-4.491177 0.989956
-5.514028 1.324047
-4.581034 1.316930
-4.866158 1.606736
-4.563074 1.415193
-4.481654 2.136123
-4.964717 1.880025
-4.649632 1.559319
-5.152484 1.678587
-4.677068 2.088927
-4.096987 2.496842
-4.831321 1.987642
-4.367881 2.040616
-4.405730 2.123465
-4.271228 2.603765
-4.090408 2.415071
-4.538569 2.483372
-3.982911 2.481612
-4.525887 2.715947
-4.139976 2.384298
-4.198694 3.095586
-4.283481 2.528461
-3.769004 2.518799
-3.875292 2.301201
-4.323610 2.836453
-3.902732 2.786560
-3.589144 3.126727
-3.656131 2.703309
-3.404941 3.628612
-3.947029 2.669584
-3.468095 2.310278
-3.363337 3.205176
-3.787974 2.707821
-2.872661 2.878565
-3.444398 2.911408
-3.224720 2.884941
-3.000718 2.968010
-2.772827 3.124121
-2.806729 3.120384
-2.327855 2.947700
-3.177495 2.903748
-2.868311 3.126478
-2.541671 3.072900
-2.402564 2.797394
-2.817949 3.208676
-2.339418 2.940093
-2.473245 3.019004
-2.684776 3.240794
-2.530931 3.093895
-2.386149 2.655766
-2.250988 2.978668
-2.687074 2.707554
-2.359677 2.876035
-2.462567 2.533409
-2.260533 2.424618
-2.266063 2.644775
-2.466167 2.478500
-2.645186 2.739100
-1.631421 2.578238
-2.714444 2.806235
-1.777041 3.039011
-2.362209 2.821596
-2.365199 2.556195
-1.959432 2.575249
-2.234390 2.272542
-2.400342 2.803823
-2.308433 2.598763
-1.433820 2.932017
-2.298398 2.650098
-2.426179 2.466988
-1.819828 2.730286
-1.700812 2.181622
-1.399493 2.735233
-1.726565 2.672230
-2.104790 2.509318
-2.278267 2.332954
-1.553376 2.195454
-2.589362 2.736446
-2.375515 2.491600
-2.399999 2.179662
-2.664943 2.689892
-2.730883 2.701908
-2.675492 2.726606
-2.333284 2.912248
-2.254569 2.447611
-2.716398 2.793497
-2.449395 2.855874
-2.713095 2.036267
-2.387582 2.539357
-2.537747 2.657430
-2.388763 2.183855
-2.842861 2.593982
-2.545400 3.124205
-3.350157 2.563135
-2.703183 2.354859
-2.572031 2.487668
-2.784143 2.786260
-3.528163 2.478649
-2.920311 2.672891
-2.935908 3.577210
-3.292498 3.003066
-3.078359 3.284535
-3.556636 3.386978
-3.055167 3.483440
-2.948842 3.376980
-2.859485 3.169417
-2.870237 3.066707
-2.489488 2.812420
-2.611210 4.242742
-2.812155 3.099164
-2.345049 3.615108
-3.360126 3.970419
-2.956122 5.011563
-2.878498 3.524805
-3.189968 3.324238
-2.548214 3.958056
-3.087338 4.067499
-3.377419 4.514334
-2.371712 4.127093
-2.819331 4.468688
-3.433479 3.978457
-3.180123 4.413656
-2.284116 4.010800
-2.258663 4.127693
-2.284649 4.582380
-2.154494 4.673384
-2.387060 5.250335
-2.134949 4.604822
-2.540615 4.397957
-2.441088 4.442235
-1.601468 5.211859
-1.956585 4.873990
-2.265355 4.613881
-2.342459 5.619991
-2.211138 5.638904
-2.592562 5.241660
-1.815059 5.862954
-1.281194 5.647152
-0.959499 5.302624
-1.363045 5.032694
-2.246250 4.873389
-2.037627 5.132669
-1.180489 5.932704
-2.282034 5.148280
-1.215862 5.807473
-1.305163 5.499760
-0.971636 5.649612
-1.190766 5.505897
-0.297643 5.236918
-1.331086 5.572660
-1.431963 6.206908
-0.484384 5.295155
-0.305962 5.584104
-0.433158 5.208128
-0.756030 5.776276
-0.555368 5.440191
-0.752807 5.988038
-0.842873 6.407198
0.364212 5.893678
-0.699196 5.807833
-0.366272 5.118932
0.184132 5.636608
-0.048527 5.160687
0.233374 5.494996
0.044402 5.055253
0.207521 5.865397
1.101817 5.896291
0.212175 5.481643
0.293704 5.525904
0.068634 5.147839
0.882536 5.039544
0.889583 4.893383
0.936167 4.867897
0.920445 5.099991
1.124503 6.190352
1.419771 5.698957
1.135607 4.557719
1.568140 5.184315
1.206479 5.437708
0.345428 4.870906
1.265338 5.179860
1.127134 4.507510
1.612017 4.897831
0.684764 4.785639
1.159689 5.823570
0.485702 5.256138
0.828869 5.153113
1.233907 4.938511
1.308041 5.004716
0.612708 4.271410
0.634429 5.086718
0.117679 4.493253
0.392171 4.364924
1.521849 5.054715
1.370893 4.192021
1.294412 5.268948
1.508992 4.293020
1.115750 5.248329
1.253478 4.653889
1.027540 4.853003
1.849254 4.169439
1.281352 4.474293
1.181200 4.835399
1.078630 4.826715
1.067533 4.717645
1.538486 5.027487
1.368433 4.603811
1.284468 4.219216
1.458823 4.596585
0.789953 4.299649
1.258843 4.667073
0.485111 4.211085
1.059451 4.738898
0.420648 5.192619
0.970345 4.391666
0.819899 4.967634
1.087957 4.136357
1.643174 5.408374
0.766178 5.070556
1.468886 4.934685
0.685669 4.993252
1.739687 4.738296
1.451658 5.545963
1.450927 4.959917
1.547701 5.012931
1.529902 5.520778
1.053457 5.008507
1.739717 5.799093
1.496516 5.018976
1.075814 5.556545
1.335994 4.870458
1.167228 4.819061
1.272428 5.147642
1.571338 4.880319
2.451071 6.418754
1.687196 5.498016
1.909082 5.980774
1.603964 5.699440
1.779319 6.185441
1.384442 6.872423
2.309725 5.418809
1.635017 5.151233
2.731463 6.031918
0.755964 6.031626
2.001984 6.395861
2.336202 6.498950
1.384327 5.801694
2.215859 5.959604
2.584473 6.172654
2.745267 6.266030
2.086031 6.390911
2.404365 6.547606
2.106852 6.394143
3.442904 6.336016
3.239300 6.782589
3.419159 6.482526
4.238103 6.339746
3.218444 5.777414
2.488442 6.461155
4.048219 5.828292
3.563549 6.720703
4.269148 5.941425
4.491733 6.821978
4.396407 6.882654
4.615167 6.610106
4.983446 5.875446
4.204791 6.445528
4.662638 6.714956
4.833780 6.353270
4.630076 6.091118
5.192239 6.746042
4.998604 6.119195
5.638138 6.585513
5.527820 5.961007
5.807640 6.276729
5.568678 6.821462
5.618032 6.619378
6.028259 6.238393
6.083553 5.894016
5.921959 6.672327
5.765836 5.465979
6.391015 6.513139
6.348315 5.750594
6.466584 5.929627
6.701322 5.600946
7.225210 5.128023
7.158885 5.068081
6.552117 5.249288
6.057294 5.410016
6.536667 5.110861
6.986656 4.526293
6.753271 5.330445
7.679343 5.854529
7.352879 4.813223
6.825253 4.359283
8.639019 4.578330
7.597570 4.478433
8.697606 4.181604
7.652429 4.083559
8.141738 4.231520
8.647350 3.512408
8.209523 4.074272
7.916566 4.189843
8.014393 3.083093
8.129830 3.233473
8.506526 3.289061
8.806286 3.405218
8.545673 2.616417
8.479871 2.737699
8.888474 3.408848
8.598313 2.670922
8.749706 2.306333
8.488371 2.974361
9.254023 2.140206
9.401038 1.309555
8.012282 2.563658
8.583916 2.024447
9.064627 1.743968
9.222965 1.777547
8.894230 0.982897
9.256982 1.762438
8.859425 0.355839
9.078910 1.388286
9.283502 1.301720
9.164829 -0.082384
9.584185 0.042359
8.676248 0.239461
9.953452 -0.424358
9.164806 0.168060
8.443155 -0.028557
9.160992 -0.210964
9.493784 -0.836730
8.439531 -0.580074
9.279864 -0.950101
9.298762 -1.587192
8.238357 -0.658751
9.184234 -1.309912
8.720203 -0.407057
8.283874 -1.735654
7.883431 -0.884702
8.819468 -2.066612
8.873121 -2.495346
8.938678 -1.861228
8.202431 -1.788463
8.552515 -2.560080
8.802345 -1.670959
8.059449 -2.961974
7.479132 -2.157219
8.293088 -3.625877
7.501948 -1.142503
8.739155 -2.300220
7.387659 -1.349849
8.047996 -2.439878
6.769686 -3.718727
7.552640 -2.945688
7.254417 -3.655397
7.313988 -2.828142
7.003002 -2.550398
7.161362 -3.861258
6.706155 -2.987186
6.849791 -2.842941
6.904166 -3.884574
6.523899 -3.878995
6.562274 -4.021432
7.277355 -4.293507
6.790192 -3.510638
6.377833 -3.796675
6.717670 -3.687416
7.017094 -3.722939
5.954790 -3.847822
7.407587 -3.817567
6.020404 -3.680063
6.990706 -3.576638
5.702030 -3.922136
6.437338 -4.505306
5.960240 -3.514282
6.394344 -4.138568
7.014517 -4.880274
5.260324 -4.250429
5.580377 -5.266703
4.806581 -5.038108
4.607468 -5.053911
5.187695 -4.696492
5.207268 -5.173641
5.225861 -4.225723
4.962613 -4.753196
4.902721 -3.788584
4.617905 -4.950455
4.878606 -4.969546
6.544454 -4.686038
4.486833 -4.515932
5.555739 -4.839318
4.978629 -5.049717
3.962965 -4.697299
4.873347 -5.197356
5.009059 -5.692340
4.820893 -5.909667
5.164633 -5.149801
4.277566 -5.087388
4.244192 -5.224243
4.465892 -5.909337
3.864969 -4.168338
3.526392 -5.475309
4.793411 -5.414592
3.617151 -5.573722
4.280555 -5.329237
3.160358 -4.839476
3.875379 -5.396081
3.300471 -5.223524
3.856576 -5.025303
3.757110 -5.829103
2.582688 -4.909062
3.054425 -5.259957
3.566045 -5.740327
3.612904 -5.111588
3.860963 -5.263934
3.161482 -5.337705
2.940207 -5.920032
3.237355 -4.499878
2.727346 -5.484931
3.333231 -6.141943
2.832304 -4.950955
2.599965 -5.500016
2.181234 -5.078420
3.034783 -6.072831
3.410171 -4.485213
2.901554 -5.232511
2.760792 -5.401223
3.293622 -5.773349
1.568519 -5.657858
2.861269 -5.763672
1.558665 -5.739208
2.374832 -5.557074
2.246171 -5.882067
2.531577 -4.814143
2.236484 -5.718751
2.324930 -5.215636
1.646184 -5.199635
3.101300 -5.930629
1.663131 -6.177207
2.648749 -5.608687
2.438640 -5.831209
1.099768 -5.377196
2.362740 -5.391474
1.935165 -5.390051
1.695537 -6.065848
2.000716 -5.397375
1.271068 -5.440469
2.227421 -5.803171
1.890749 -5.686799
2.287274 -6.157145
1.659136 -6.567257
1.938498 -6.157777
1.334110 -6.182954
1.034195 -6.236245
1.539700 -5.996098
0.538204 -6.573094
1.611360 -6.060449
0.799802 -6.613714
1.441630 -5.667572
0.735548 -6.129682
1.101389 -6.203927
1.172139 -6.255722
1.075202 -6.745639
0.736480 -5.901040
1.025174 -6.683865
0.157257 -6.022336
1.591496 -6.820219
-0.132516 -7.367338
0.512967 -7.436138
0.656101 -6.016209
1.022436 -7.399844
0.240449 -6.885230
-0.387430 -5.963231
-0.354663 -6.922373
-0.042083 -6.680244
0.370840 -6.382560
-0.056054 -6.918010
-0.812158 -6.101665
-0.060975 -6.599985
-1.361850 -6.437925
-0.762550 -6.872456
-0.676438 -6.608802
-1.354661 -6.536813
-1.243068 -5.909029
-1.076767 -6.582460
-1.402407 -6.614077
-1.166397 -6.401752
-0.664096 -7.274211
-0.703370 -6.629819
-0.519636 -6.901976
-1.582265 -6.787133
-1.404392 -6.265912
-2.137938 -7.069077
-2.078506 -6.842999
-2.568949 -5.657572
-2.687891 -6.302850
-2.149544 -5.967810
-2.675751 -6.987478
-1.834151 -6.141837
-2.763690 -7.722905
-3.666203 -5.470526
-2.352920 -6.704117
-2.430341 -6.678132
-2.302957 -6.850473
-2.685514 -6.412308
-3.172742 -6.224397
-3.926082 -5.960013
-2.845755 -6.424216
-3.436755 -5.594897
-3.220521 -5.837526
-2.575381 -5.624850
-3.760521 -6.141624
-3.626791 -5.391124
-3.805413 -7.107376
-3.925785 -5.365552
-3.910211 -5.696099
-4.150521 -5.039451
-3.738815 -5.739589
-3.882783 -5.302799
-4.351296 -5.261498
-4.350971 -5.265829
-4.339709 -5.715128
-4.357420 -6.114134
-4.234208 -4.925806
-4.302368 -4.611476
-4.646324 -4.503524
-4.609746 -4.184809
-4.316320 -4.506867
-4.859403 -5.321463
-4.831043 -4.184562
-4.674178 -4.495496
-4.802006 -4.623313
-4.457080 -4.287820
-4.164858 -4.749328
-4.372491 -3.583970
-4.764464 -4.695396
-5.033339 -4.242646
-5.327852 -4.147053
-5.031363 -3.853366
-4.989935 -4.240322
-4.977342 -3.665082
-4.129481 -4.134361
-4.694372 -4.186909
-4.897434 -4.369693
-5.003142 -3.631139
-5.019961 -4.755807
-5.426331 -3.352305
-4.232753 -3.345771
-4.980426 -3.797623
-4.719802 -2.960649
-5.462386 -3.388129
-5.123347 -3.351233
-5.594952 -3.849798
-4.565016 -3.567751
-3.980609 -4.182177
-5.189697 -3.052487
-4.761588 -3.687654
-5.123892 -3.899491
-5.427470 -3.295129
-5.284372 -2.433203
-5.472933 -3.657927
-5.518214 -4.174783
-4.630795 -3.509447
-4.966382 -3.923655
-4.922752 -3.909297
-5.171535 -4.327752
-4.815750 -4.319762
-4.943117 -3.357022
-6.022620 -3.825490
-4.735563 -3.736137
-5.623882 -4.147388
-5.909042 -4.177319
-5.279254 -5.079536
-5.197787 -4.143084
-5.622148 -4.075371
-5.401669 -4.627107
-5.922921 -4.255065
-5.711104 -3.695824
-6.411274 -5.673597
-7.140450 -5.062389
-5.775452 -4.210189
-6.486675 -4.392058
-6.637528 -4.553737
-7.703632 -6.103989
-5.681962 -4.115258
-7.551759 -4.978840
-9.458062 -4.672721
-8.727905 -5.363109
-7.237427 -5.300155
-8.665034 -4.222579
-8.371187 -5.310686
-8.740124 -4.093447
-9.136031 -5.515233
-9.407335 -4.604002
-8.766270 -5.747675
-9.657031 -5.426921
-9.304341 -5.126841
-9.144420 -4.454563
-10.763452 -6.367544
-10.124780 -4.383366
-10.952964 -5.389206
-12.335647 -4.720098
-12.109865 -3.861070
-10.369185 -5.765366
-13.673778 -4.470678
-10.528682 -3.185996
-14.308825 -5.685078
-14.113121 -4.036550
-12.593469 -4.707317
-13.316525 -4.897595
-15.051451 -3.518600
-13.729560 -3.930366
-16.633689 -4.975456
-17.448150 -2.472477
-14.890922 -3.655363
-15.656508 -3.231029
-15.377413 -2.464255
-16.351952 -1.230186
-18.228300 -4.337702
-19.555160 -2.111848
-17.439588 -0.562458
-19.860397 -0.258755
-20.206302 0.055759
-18.894363 -0.217840
-20.291995 0.256177
-20.169678 0.634413
-20.329188 1.357856
-21.583986 0.010293
-21.924897 3.397554
-20.110493 2.060863
-20.609924 2.850362
-22.240375 3.815614
-23.979003 5.266535
-23.934289 5.345312
-23.878216 4.674880
-22.453521 7.234575
-22.877941 6.088789
-23.634267 7.236371
-21.989316 6.636330
-23.188254 9.289965
-22.625173 8.289438
-25.319262 12.326848
-23.187360 10.718011
-24.554072 11.841828
-23.624125 14.446514
-23.611767 11.344837
-24.179338 15.266394
-23.886891 14.505915
-22.248901 13.946961
-22.318900 16.416424
-22.065606 18.888242
-24.778514 17.038949
-25.208889 19.546562
-23.700536 17.916462
-24.560411 21.487623
-21.951807 21.394549
-23.848608 20.520708
-20.228087 23.920307
-20.329981 23.863937
-23.509874 25.272728
-17.977654 26.150081
-23.175383 26.025126
-21.635777 28.314671
-19.846571 25.863326
-20.039955 29.170351
-19.734759 31.210764
-19.320715 30.458613
-16.637739 32.305829
-18.416700 33.376897
-16.386794 32.448726
-16.629372 33.012470
-14.746330 33.118275
-13.171226 37.362371
-13.782046 34.931589
-14.878698 35.859839
-8.913088 39.389384
-15.571751 36.764954
-9.337251 39.963040
-4.713382 39.718589
-9.236866 38.441979
-3.782629 43.450912
-5.218560 37.704240
-7.610342 41.056003
-2.728299 43.133573
-1.455457 37.418309
-5.127568 45.202210
-0.513979 42.643578
-1.427039 43.139417
1.992727 44.016878
4.966434 42.134637
3.664524 40.871075
7.429703 44.828185
8.246175 44.370997
5.606350 46.634817
3.009140 45.824833
15.432750 44.434613
9.467178 45.757236
12.190157 46.860538
16.556558 42.018096
16.874375 40.734750
17.140769 46.924205
17.699202 41.042609
13.605717 41.081730
20.286912 38.092845
20.678739 41.298474
17.388674 41.337969
23.044063 43.623466
21.987117 49.789071
25.024374 45.838491
20.786155 42.055397
42.017562 34.864449
30.831976 47.922486
29.655749 40.198490
29.008576 36.646814
35.400965 32.359083
42.887338 34.727955
34.903923 43.918800
27.032008 38.187915
18.176110 34.471482
42.734995 34.525614
33.947777 34.933978
38.476290 28.991760
49.012057 29.456079
36.882134 30.571708
35.363534 22.837355
54.853628 25.999593
57.354089 51.206749
23.964681 49.126804
39.480712 21.118473
32.059211 2.396738
66.917104 7.490188
54.368487 25.498009
70.917973 -7.918209
74.541872 -4.566942
80.683218 25.095738
38.226483 28.961082
18.632880 -6.795414
26.784506 59.910615
6.185799 38.472356
13.271025 -48.694813
112.573190 29.093801
64.726640 38.652599
30.027671 75.036776
-41.406891 -30.937800
87.346502 -68.533571
269.357407 -127.358039
-139.304562 188.399856
-285.589611 -272.081644
-295.873875 232.565558
-540.126045 -101.188685
69.563627 546.555115
196.098262 -538.456277
-1059.733150 -1508.771983
