8172.570840 4266.011912
-1312.620281 1177.893714
-420.715640 403.321347
-360.519462 -348.426772
62.505654 -453.330463
-403.389474 73.397749
-419.647901 -36.420273
191.734693 288.882749
-188.439219 -1.485822
30.925356 72.694712
76.184661 -66.766859
-48.832370 -3.108774
8.398227 23.866393
37.943128 -53.781545
-48.449455 58.472742
15.076308 -21.227428
-16.139796 -27.953908
-24.534888 -48.689059
-46.743042 41.559536
28.325048 23.598049
-5.293277 -0.903186
-7.896524 17.538317
-5.073284 -2.969106
17.423708 23.779954
10.761599 -24.959194
-20.918260 -22.199506
1.529725 22.430394
-5.284877 -16.875545
-6.511161 11.411624
-2.910496 -4.012457
-3.168550 2.615906
4.021625 2.254379
-1.284882 1.661834
-7.290875 -1.594459
-14.022819 10.263186
10.698224 0.609331
2.441699 -6.108501
-7.509822 8.509879
1.319620 2.978783
1.057157 -5.902139
4.546741 1.935641
3.455356 -4.501555
-15.066394 -4.061011
10.211448 -4.113608
-5.448101 6.491011
-6.551024 3.305628
0.579405 3.106183
2.406168 2.742455
-1.366179 -3.563701
5.355908 4.458587
3.603998 -2.954698
-2.641873 3.368010
-0.453229 -1.781455
-1.725336 -7.728749
-0.025038 4.456364
1.170651 1.686447
-2.554500 2.857410
1.114116 0.053631
-2.947970 1.987570
5.269322 0.023769
4.083408 -1.720052
1.653069 0.197875
-1.166920 3.969378
-2.965524 -2.144464
5.335070 -4.950569
3.340617 1.297822
0.262967 2.993923
-1.951192 -1.678530
-2.475673 -0.643488
-0.400550 -4.300021
0.414744 1.726217
-0.374556 5.072720
-1.603594 0.177164
-1.385460 -1.817441
2.723035 0.331084
1.470001 1.997022
-1.841860 2.622898
1.103426 -1.816667
-0.660213 1.029547
1.521709 -1.988590
-2.147362 -0.481370
-0.771513 0.081051
0.373663 0.766935
-1.921598 1.588647
-0.578434 0.422154
0.515832 -0.087035
2.815642 -0.234687
-2.328114 -0.256591
0.619585 1.017377
-0.202305 0.903239
-0.911519 0.725082
1.108433 -2.035355
0.639524 0.126333
-1.297185 0.090969
-2.823736 0.430901
-0.131667 -0.593000
-0.087128 2.914213
-0.422947 1.365014
1.107849 -1.348787
0.399911 0.445478
0.830965 1.696579
-0.029054 -0.302785
-2.096547 0.607089
1.072187 -1.961142
0.862101 1.088515
-0.119446 -0.413059
-0.370915 0.447640
-1.496822 -0.253341
0.236793 0.623852
1.144927 -0.489719
0.850726 0.225196
-0.646821 0.730596
0.980808 -0.230683
-0.346058 -0.470274
1.728311 0.498979
-0.515525 0.911968
0.250950 -0.940823
1.753132 -0.642094
-0.102400 0.074279
0.015914 -0.281922
-1.761334 0.106460
0.610706 -1.377910
0.920360 1.043348
0.251496 -0.285322
0.216364 0.698393
0.410340 0.173686
-0.855641 -1.817457
0.068603 -1.624181
1.731846 -0.030484
-0.539095 -0.763644
-1.556554 0.296234
-0.837976 -0.320198
-0.694961 -0.242180
-1.145588 -0.911991
1.581217 -0.187875
-0.439556 1.753779
-1.070490 1.276883
-0.042765 -1.284504
0.253059 -1.385973
0.390850 0.893065
0.666507 0.420868
-0.285853 0.229343
-0.767782 -0.650608
-1.066421 -0.959579
0.070857 -0.221064
1.006518 0.442801
-0.578796 0.117373
-0.905323 0.037666
0.681572 0.043975
-0.452147 -0.817676
-0.635928 0.940224
0.326642 0.242197
1.314362 0.023868
0.455770 0.766754
-0.734608 -0.715897
-0.285657 -1.547945
0.579391 0.429830
-1.079470 0.503507
0.157310 0.011276
0.377123 0.888218
0.110843 -0.779362
0.041963 -0.141965
0.650618 -1.022300
-0.559287 0.555441
1.107102 0.974661
0.165531 -0.571983
0.842321 -0.219619
0.242269 -0.353787
0.031354 -0.675739
-0.566714 -0.853098
-0.480000 0.175700
0.233442 0.033413
0.177533 -0.824521
0.139039 -0.164600
0.652509 -0.989538
-0.839051 0.251661
0.371387 -0.278549
-0.421714 0.444288
0.340138 0.052299
-0.570059 -0.943543
0.429200 -0.075089
-0.213129 -0.005915
-0.479366 -0.121408
0.264707 0.471264
0.123610 0.497353
-0.256352 -0.739421
0.116111 -0.566481
0.467152 0.655923
0.096874 0.266195
-0.595001 -0.057567
0.726330 0.119215
-0.031810 0.011510
0.091970 -0.220239
0.416759 -0.507921
0.784900 0.878179
-0.265007 0.413467
-0.796904 -0.968779
0.856426 -0.700865
0.287773 0.229203
-0.508376 0.233272
0.444522 -0.160611
0.468082 0.387184
0.418508 -0.375341
0.707584 -0.889832
0.878549 -0.962095
-0.495308 0.017193
-1.498903 0.212207
-0.411711 -0.103694
0.452158 -0.076928
0.147872 -0.391487
0.379662 -0.053090
-0.075858 -0.050015
-1.276014 0.418598
-0.317303 0.117100
0.843820 0.075848
0.330299 -0.077441
0.600648 0.518612
-0.245224 -0.572117
-0.140567 -0.290715
-0.358905 0.400116
-0.002208 -0.484969
0.136875 0.172333
0.286947 -0.328908
-0.128796 -0.219356
0.257472 -0.331164
0.607981 -0.020571
0.072002 0.147007
0.424514 0.046552
0.725507 -0.554038
-0.183396 -0.088696
-0.332830 -0.466762
-0.055209 -0.233512
-0.509266 0.182103
0.132355 0.670382
-0.324738 -0.639955
0.165633 0.578723
0.398629 0.830442
-0.868002 0.692684
-0.206508 0.073424
0.349322 0.328054
0.575544 0.694178
0.329227 -0.008367
0.175602 0.110710
-0.300603 0.185100
-0.200080 0.050061
0.009412 0.008818
0.502680 -0.079822
-0.172409 0.137265
-0.480387 -0.120847
-0.337745 0.493981
0.126110 0.082771
0.000271 0.013184
0.108490 -0.164072
0.387615 0.008551
-0.620596 -0.322553
-0.375602 -0.267761
0.357285 -0.331602
0.053896 0.370882
-0.219088 -0.405151
0.157283 -0.461445
-0.211527 -0.212922
-0.429155 -0.136612
-0.027577 -0.228224
0.284318 0.353542
0.205625 0.400728
0.125518 -0.252356
0.162694 -0.728900
0.000660 -0.515880
-0.138456 -0.108409
0.222951 0.119705
0.406119 0.054594
-0.054780 0.372365
-0.651733 -0.243610
-0.062892 -0.749570
0.019437 0.380388
-0.351076 0.188306
-0.073028 -0.079016
0.182188 -0.181847
0.150238 -0.439013
0.010095 -0.090959
0.300999 -0.283294
0.057200 0.733374
-0.073693 0.472908
-0.146053 -0.520034
0.568355 -0.426325
-0.616719 0.504226
-0.498659 0.436120
-0.189132 -0.323821
0.530319 0.576414
0.351234 0.251936
0.296823 -0.167981
0.258480 -0.215184
-0.003860 -0.088592
-0.183468 0.229431
-0.106170 0.024673
1.004707 0.227393
-0.153064 -0.057087
-0.378385 0.119745
0.076156 -0.114139
-0.232704 0.078388
-0.244225 -0.030370
0.063502 -0.223364
0.281680 0.491694
-0.212741 -0.267487
0.668581 -0.445338
0.042174 -0.191437
0.265889 0.280548
-0.017152 -0.016157
0.365475 -0.419169
-0.114139 0.184986
-0.739174 0.251100
-0.513086 0.286496
0.250237 0.023321
0.076737 0.429312
0.054151 -0.114608
0.307011 0.031590
-0.311421 0.107913
0.201247 -0.101846
-0.371138 -0.154458
0.200744 0.405693
0.150115 -0.093392
0.164402 -0.747648
0.074913 0.183752
-0.512482 0.588945
-1.045231 -0.216661
0.171756 -0.202890
0.880383 0.390225
0.003791 0.519738
-0.073400 -0.302245
0.276071 -0.113524
-0.001792 -0.152066
0.115118 0.046052
0.123149 -0.035158
0.587221 -0.123798
-0.247161 -0.195840
0.135046 -0.329284
-0.263123 -0.155915
0.684143 0.255267
0.076767 0.869260
0.260314 0.134527
-0.004906 -0.025483
0.058207 0.221537
-0.098291 -0.030955
0.254366 0.319791
0.178635 0.636897
-0.267383 0.284169
0.113902 -0.700655
-0.042620 -0.273757
-0.214947 -0.013567
0.216687 0.158710
0.013686 0.486617
0.406787 0.143101
-0.155257 -0.251628
0.404138 -0.593733
0.585769 0.238095
-0.168726 0.269988
0.057976 -0.235205
0.428759 -0.338334
-0.501998 -0.260725
-0.374914 -0.244235
-0.375198 0.201752
0.334473 0.468705
-0.158780 0.669307
-0.039635 0.173136
0.247403 -0.569032
0.419662 -0.001355
-0.037840 0.032652
0.073809 0.316681
0.056446 0.750015
-0.258203 0.575891
0.365205 0.055706
0.478173 0.086717
-0.376871 -0.057346
0.178583 -0.136968
0.017993 0.293771
0.181154 0.472453
-0.649772 0.433274
0.108178 -0.700760
0.226697 0.285107
-0.030809 0.092867
-0.281234 0.366865
-0.203428 0.054519
0.636096 0.154973
0.459030 0.292370
-0.059375 -0.476867
0.256242 -0.076896
-0.091997 0.353654
-0.502124 0.366412
0.167475 -0.203884
-0.046444 0.157642
-0.138312 0.092131
-0.085570 0.171023
-0.117200 0.574547
-0.084987 0.405660
0.076920 0.198610
-0.025758 -0.255658
-0.197236 0.230089
-0.076676 0.221549
-0.573199 0.254556
-0.035440 -0.004210
0.346453 0.315624
0.061460 -0.442501
0.054692 -0.017886
-0.353921 -0.156982
0.094014 -0.068851
-0.276413 0.235478
0.358897 0.026173
0.009102 0.554847
-0.464348 -0.306893
-0.014873 -0.052697
0.006805 -0.112607
-0.191170 0.282803
-0.203473 0.033624
0.120680 -0.269380
0.282265 0.221149
-0.382688 -0.256005
-0.203941 -0.234520
0.009530 -0.073684
-0.556533 0.287719
-0.265693 -0.211703
0.436736 0.173804
0.201690 -0.293977
0.303293 0.019312
0.366920 -0.604944
0.239968 0.485746
-0.385197 0.160633
0.550039 0.001676
0.054461 0.065676
0.294746 0.270819
0.022393 0.255014
0.177865 -0.350756
0.062118 -0.031824
-0.290428 -0.135118
-0.204165 -0.054873
-0.011154 -0.512070
-0.124251 -0.010343
0.053183 0.067496
0.102507 0.113418
0.503497 -0.224615
-0.151598 -0.394851
-0.155711 -0.151128
0.181362 -0.103981
-0.224154 0.343894
0.014168 -0.345869
0.118318 -0.042634
0.331074 0.254375
-0.266996 -0.024088
0.012593 -0.329317
0.087136 0.089362
-0.076045 0.221213
-0.079750 -0.042943
-0.112171 -0.110055
0.076894 0.134703
-0.021499 -0.038671
0.030026 0.079092
-0.019587 -0.234288
0.092468 0.440051
-0.286452 0.088005
0.530951 -0.463122
0.439451 0.106014
-0.134816 0.142181
-0.158504 0.320195
0.291822 0.173486
0.116807 0.070076
-0.055218 -0.077811
0.093459 -0.240676
0.008057 0.333739
-0.132569 0.039637
0.571820 0.058203
0.139444 0.325004
0.085602 0.078601
0.009646 -0.280962
-0.355682 -0.250716
-0.346689 0.287303
-0.032288 0.258137
0.501422 -0.222058
0.604549 0.340469
-0.141096 -0.316191
-0.046045 0.051706
-0.116912 -0.064996
0.394227 0.670469
0.283102 -0.315368
0.228320 -0.407638
0.128864 -0.254346
0.314153 0.174109
-0.024290 -0.098886
0.378539 0.127570
0.126639 -0.005503
0.255071 -0.428480
0.187537 -0.233836
0.113079 -0.071246
-1.018576 -0.052162
0.297514 -0.481493
0.506212 0.191693
-0.180398 -0.389430
-0.021137 -0.561109
-0.096408 -0.080964
-0.239874 0.377486
0.021537 0.409038
0.206714 -0.083763
0.579638 -0.100073
0.205661 -0.144023
-0.307870 0.030589
-0.153960 -0.090907
0.491535 0.151293
0.674926 0.169913
0.100159 0.213542
0.238906 -0.475941
-0.446749 0.241428
-0.576678 -0.041600
0.197928 0.177955
0.114889 0.305638
0.226317 -0.190847
0.166932 0.037346
0.065335 0.179036
0.088554 0.313952
-0.373629 0.273501
0.135099 0.482812
0.252108 -0.067996
-0.058936 0.008072
-0.111090 -0.540661
-0.340528 0.127497
0.173810 0.392583
0.113089 0.372613
0.337951 -0.445707
0.699168 0.127249
0.175924 0.232300
-0.126571 -0.129238
0.418688 -0.102396
-0.107671 -0.039113
0.059674 0.058226
0.349441 0.181174
0.009685 -0.379606
-0.248476 0.037559
-0.524377 -0.202901
0.251539 0.166448
-0.050308 0.175983
0.447470 -0.257711
0.300074 -0.110818
0.041093 0.009697
0.029885 -0.277083
0.029621 -0.487938
0.424462 0.040102
-0.345861 0.598699
-0.191023 -0.193879
0.493042 0.136549
-0.306902 0.349494
-0.046535 0.185012
0.007344 -0.415423
0.322285 -0.033459
0.114550 0.264769
-0.135095 0.127175
0.096493 -0.106293
-0.284207 0.201881
0.126769 0.089862
0.180980 0.070312
0.551048 -0.102651
0.047792 0.107866
0.106457 -0.244644
-0.171580 -0.079209
0.291652 0.086250
-0.026809 -0.223418
0.335095 -0.316237
-0.170295 0.232327
-0.335114 0.024538
-0.159292 0.015413
0.028058 0.083528
0.203954 0.377666
0.021020 0.152140
0.475922 0.089995
0.393126 -0.316488
-0.038790 0.419957
-0.025552 -0.254477
0.318840 0.228681
0.291368 0.305951
-0.096339 0.278111
-0.298655 0.265682
-0.242148 0.168929
-0.208188 0.109038
-0.393301 0.027373
-0.184601 0.412504
-0.094040 0.092070
0.019516 -0.318357
-0.183436 -0.128919
0.112820 0.184352
-0.571494 0.069149
0.396631 -0.099415
0.438109 0.120200
0.076327 -0.116151
-0.237931 -0.559404
0.168225 -0.283119
-0.003001 0.277491
-0.192890 -0.138932
-0.029795 -0.457122
-0.048483 -0.214346
-0.063428 0.125604
-0.724209 0.495017
0.210187 -0.014146
0.065399 0.394598
0.148011 0.058243
-0.214115 -0.546756
-0.007519 -0.051904
-0.320573 0.332513
-0.393003 -0.091298
0.511613 0.266493
-0.246960 -0.050283
-0.212571 -0.203450
-0.298750 -0.482510
-0.029984 0.316231
-0.267098 -0.033062
0.053394 -0.061541
0.536177 -0.179299
0.235651 0.037078
-0.358198 0.049699
-0.213156 -0.471330
0.148531 0.197174
-0.248677 0.450718
-0.165761 0.026368
0.062554 -0.240804
0.217013 -0.012930
-0.540850 -0.378176
0.479983 -0.168582
-0.089506 0.110865
0.422101 0.233486
0.193753 -0.054706
0.061191 -0.242224
-0.426925 0.011884
-0.567587 0.095897
0.007733 -0.050523
0.052327 0.007440
-0.168772 0.034154
-0.199943 -0.263437
-0.234799 -0.442382
0.195195 -0.425622
0.059383 0.072424
0.194529 0.119267
0.497152 0.050115
-0.536766 0.224642
-0.125577 -0.486337
0.131501 -0.299180
0.188034 0.123570
-0.356556 0.336475
-0.287006 -0.512745
0.078949 0.185246
0.095088 0.094968
-0.217903 -0.256955
-0.211456 -0.232102
0.143093 -0.077809
0.109008 -0.250672
-0.281937 -0.182884
0.293702 -0.339534
-0.128312 -0.167502
0.127485 -0.078719
0.161893 0.379992
0.232793 0.149800
-0.121647 0.080722
0.121760 -0.346619
-0.196314 -0.051171
-0.224645 0.031254
-0.121772 -0.135727
0.050538 0.264148
0.230100 -0.325590
-0.229516 -0.196614
-0.026281 -0.263757
-0.061702 -0.016131
-0.101296 0.365736
0.348523 -0.214090
0.363246 -0.140465
-0.015845 0.159409
-0.500077 -0.253819
0.040919 -0.135481
-0.007248 0.004151
0.197097 0.071057
-0.019052 -0.336903
-0.144144 -0.235198
-0.199826 -0.160422
-0.283025 0.046932
-0.210413 0.031679
0.240254 0.138891
-0.303815 0.066406
-0.047594 -0.320285
0.024043 -0.115561
-0.235143 0.092265
0.023142 -0.308098
-0.045081 0.037829
0.180443 0.029418
-0.191090 0.268920
-0.078509 -0.412238
0.055611 -0.125963
0.148019 0.571015
-0.014314 0.328015
0.152569 0.189388
0.188717 -0.370857
-0.093019 0.002325
0.021437 -0.289098
0.361911 -0.023405
-0.200860 -0.061131
0.130308 0.160329
-0.105306 -0.199076
0.341978 -0.048057
-0.318760 -0.207785
-0.406744 -0.148839
-0.135338 -0.102685
0.086059 0.339006
0.071164 -0.328880
0.049458 -0.139337
0.111806 0.051031
-0.432035 0.024460
0.006859 0.036091
0.315995 0.059064
-0.004722 0.316858
-0.364015 -0.262090
0.245888 -0.391833
-0.052063 -0.039482
-0.500150 0.218626
-0.143404 -0.215821
0.396099 -0.305494
0.272955 -0.033213
-0.493443 -0.320504
-0.100895 -0.454849
0.018834 0.324986
0.030946 -0.045116
-0.066319 -0.084718
-0.084964 -0.322917
-0.102040 -0.239499
-0.171728 -0.166225
-0.279027 0.028929
0.155474 0.042344
0.245964 0.048865
0.446137 0.095651
-0.034771 0.033237
-0.235767 -0.101945
-0.539747 -0.151797
0.249127 0.004148
-0.000979 0.326896
-0.061125 -0.173553
0.256196 -0.264629
0.030778 -0.072467
-0.198626 -0.210155
0.284548 -0.118958
-0.014265 -0.370321
-0.009099 0.311679
-0.431651 -0.008188
-0.138759 -0.319379
-0.254968 -0.217336
-0.011662 0.371759
-0.134767 0.096222
-0.022703 0.086443
0.435739 -0.060502
-0.255507 -0.129998
0.134335 -0.042060
-0.272704 0.175648
0.215178 -0.044710
0.013099 -0.141132
-0.046296 -0.155490
-0.248434 0.040665
-0.139964 0.107756
-0.156156 0.034395
0.515958 0.247326
-0.294925 0.000744
0.113086 -0.154334
0.001626 -0.193330
-0.022403 -0.107501
-0.181521 0.339202
-0.038758 -0.154641
0.730891 -0.044455
0.210290 0.208391
-0.258271 -0.193709
-0.239125 -0.663334
-0.019493 -0.004656
-0.065560 0.056616
0.017145 -0.068824
-0.030135 -0.249701
-0.006357 -0.378413
-0.084820 -0.161502
-0.261779 -0.033560
-0.092943 0.108831
0.031003 0.334564
-0.249263 0.268883
0.223252 -0.014038
-0.238565 -0.266657
-0.225664 -0.307468
0.065182 -0.186357
-0.162105 0.219387
-0.008988 -0.134203
0.254922 -0.058335
0.231930 -0.201699
-0.292255 0.081751
-0.204545 -0.276303
0.071380 0.064186
0.236457 0.097723
-0.043596 -0.130422
0.123323 -0.477550
0.272742 -0.093394
0.005048 -0.085718
-0.282899 -0.004353
0.307549 -0.108845
0.034283 0.106659
0.073963 -0.022021
-0.180304 -0.305558
-0.033457 0.431079
-0.197233 0.181998
0.380507 -0.152600
0.079826 -0.343713
0.057826 0.128318
-0.124116 -0.352521
-0.110593 -0.200381
0.414175 0.032354
-0.116090 0.160279
-0.016580 -0.203734
0.055743 -0.146649
0.025719 -0.085134
-0.645836 0.087044
-0.094839 -0.236317
0.052738 0.105228
0.188339 -0.148871
-0.127801 0.319707
-0.084299 -0.031328
-0.160077 0.247300
-0.091095 -0.017507
-0.062971 -0.060164
0.113269 0.018573
-0.286943 0.139465
0.046544 -0.053782
0.214920 -0.112320
-0.278875 0.069047
0.066417 -0.123673
0.285852 -0.043705
0.270692 -0.002790
0.007124 0.131361
-0.149386 -0.495415
0.019301 0.041704
0.076200 0.182475
-0.147329 0.105603
0.238755 -0.300963
0.100415 0.202711
-0.411337 -0.094003
-0.006840 -0.163493
0.439274 -0.030922
0.094901 0.361092
-0.067856 0.221887
-0.249750 -0.273162
-0.191466 -0.397380
0.168139 0.015144
-0.240639 0.117126
0.063547 0.366644
-0.000031 -0.179258
0.086105 -0.209191
0.429997 -0.091154
0.008471 0.034760
-0.029005 -0.011478
0.013754 -0.174202
0.310383 0.223982
-0.237946 0.032765
-0.090527 -0.153842
-0.281592 -0.087745
-0.125865 -0.230133
-0.411825 0.242793
-0.110361 -0.402853
0.136291 -0.092398
0.085521 -0.107206
-0.000997 -0.275844
0.084501 -0.002053
0.007277 0.063651
-0.003215 0.017358
0.168558 -0.365270
0.090068 0.131109
-0.362753 0.011797
0.129018 -0.164835
-0.231574 0.025218
0.249892 0.291562
-0.188520 -0.046946
-0.031098 -0.160416
-0.165256 0.183118
-0.447642 -0.068512
0.059151 -0.454287
0.424239 -0.246151
0.425967 0.126107
-0.254682 -0.326665
0.098457 -0.317301
0.231539 -0.035572
-0.261217 0.392367
-0.178483 0.159253
0.011519 0.066724
0.020195 0.359366
0.060281 -0.064710
-0.373858 -0.392533
0.042845 -0.195822
-0.336651 -0.194193
0.116415 0.121445
0.226153 0.038955
0.204522 0.056234
-0.268414 0.007647
-0.114641 0.029366
0.070910 0.218973
-0.107424 0.386249
-0.057105 -0.232022
0.552579 -0.557319
0.005223 0.078711
-0.478530 -0.033847
0.072756 -0.599604
0.482727 0.303888
0.150994 -0.227515
0.054611 -0.241270
0.082665 -0.001761
-0.340770 0.088871
-0.184331 -0.001810
0.162558 -0.061956
0.361328 -0.023961
0.294189 0.224514
-0.292311 -0.182005
-0.006416 -0.089429
0.028116 0.002361
-0.055710 0.114033
-0.041304 -0.327702
0.190109 -0.109818
-0.302727 -0.103709
-0.117497 -0.183820
0.116933 -0.160023
-0.013763 0.084478
-0.317776 -0.355853
0.216838 -0.071471
-0.015986 -0.275382
-0.329284 -0.122351
-0.255098 0.163958
0.240812 -0.065201
0.288723 0.427977
0.220923 0.041313
0.482985 -0.384519
0.369058 0.243344
0.009549 0.149337
0.151884 0.192720
0.079173 0.129840
0.091926 0.175077
-0.317922 0.111892
-0.424067 -0.300442
-0.242731 0.310259
-0.100497 0.014638
-0.247927 0.123681
0.181572 0.015217
-0.197574 0.077158
0.042404 -0.199468
0.078541 -0.324928
0.053324 0.380013
-0.293392 0.147052
0.339760 -0.267750
0.163528 -0.204817
-0.203876 0.039613
-0.049651 -0.389680
0.071445 -0.280645
0.069158 0.088513
-0.244182 0.060903
-0.150558 -0.502397
0.110864 -0.358547
-0.037119 -0.077456
-0.486745 0.010108
-0.056693 0.195908
-0.018919 0.424546
0.058665 0.015580
0.375376 -0.396117
0.117758 -0.262368
0.141878 0.093212
-0.427414 -0.173921
0.307445 -0.064210
0.035011 0.131989
-0.470208 -0.271342
-0.549592 -0.292309
-0.075957 0.272325
0.042728 0.347804
0.049432 -0.053399
0.294666 -0.636941
0.388258 0.226007
-0.516844 -0.480603
0.271665 -0.475327
0.045947 0.139118
-0.046601 0.123686
-0.059575 -0.034657
0.356149 -0.050657
-0.005832 -0.000687
-0.479960 -0.107795
0.037498 0.141983
0.267141 0.039676
-0.006727 -0.094885
-0.262068 -0.174021
-0.078867 -0.308168
-0.265177 -0.123834
0.028087 0.155492
-0.194207 -0.268289
0.561026 0.181044
-0.028389 0.150050
-0.025803 0.023923
0.455598 0.078001
-0.257416 0.621569
0.038578 0.002018
0.187568 -0.079719
0.256064 0.172994
-0.374234 -0.243736
-0.084347 -0.336605
0.272994 -0.057684
0.205156 0.519374
0.004250 0.170362
0.086018 0.099723
0.044535 -0.252029
-0.245389 -0.120066
-0.403062 -0.145472
-0.227639 -0.154854
0.300661 0.316350
-0.163663 0.039426
0.057521 -0.380169
0.213171 0.100821
-0.267413 -0.015396
-0.271037 -0.374121
0.150310 -0.041820
-0.173528 0.127762
0.093927 0.089323
0.429590 -0.728229
0.260343 -0.273969
-0.464012 -0.142910
-0.052866 0.144295
0.249259 -0.234911
0.144809 0.104884
-0.415362 -0.134121
-0.297258 -0.612055
-0.194816 0.053686
-0.528006 0.408131
-0.382104 -0.060880
0.341861 -0.070954
0.228225 0.302416
-0.077873 0.006209
-0.129260 -0.340619
0.032143 0.070414
-0.045050 0.327570
-0.124874 -0.238175
-0.152005 -0.169957
0.311509 -0.085773
-0.168060 -0.135600
-0.159368 -0.082850
0.249687 0.482725
0.087332 0.387131
0.031377 -0.207621
-0.029098 -0.171189
-0.315973 -0.372975
-0.554313 0.014241
0.259731 -0.052011
-0.107653 0.425843
-0.117534 0.243700
-0.066195 -0.065796
0.042624 -0.042440
-0.210592 0.149593
-0.731980 -0.256413
-0.128882 -0.037794
0.397911 0.319440
-0.229217 0.207170
-0.098463 -0.250771
0.011015 -0.034675
0.177201 0.015943
-0.103876 0.041012
0.413989 -0.198064
-0.384011 0.066099
-0.285587 -0.265650
-0.075596 -0.148170
0.185236 0.332871
-0.176358 0.301498
-0.037631 -0.392873
0.014566 -0.270428
0.061618 -0.117968
-0.601127 -0.065721
-0.205555 -0.248063
0.383918 0.007717
-0.180635 0.409713
-0.334851 -0.409213
0.132144 -0.721724
-0.101211 -0.053692
-0.180106 0.021123
-0.322692 -0.118701
0.481276 -0.114165
0.127983 0.078973
0.093744 -0.302516
-0.374930 0.091073
0.026093 0.011407
-0.280235 0.105507
-0.164919 -0.186255
0.070308 0.011635
-0.573317 0.042892
-0.293139 -0.234099
-0.404821 0.029886
0.127199 -0.364110
-0.237279 -0.182419
0.239268 -0.522788
0.155165 -0.433531
-0.449189 0.196672
-0.086589 -0.202709
0.509172 -0.249271
0.134428 0.410828
-0.286072 -0.521935
0.193531 -0.561268
0.014131 -0.292293
-0.331646 0.213915
-0.433772 -0.282218
0.310658 0.028412
0.151423 0.343345
-0.021699 -0.043138
-0.286148 0.064487
-0.024705 -0.255677
-0.020675 -0.084796
-0.062001 -0.095286
0.231222 0.004825
0.014343 -0.304118
0.088154 -0.236621
-0.248411 -0.242942
-0.038911 0.024340
-0.099763 0.655249
0.164682 0.001203
0.713717 -0.017126
-0.111130 0.466912
-0.515784 -0.334987
0.154339 -0.274054
0.307241 0.638559
-0.194322 0.419902
0.123435 -0.224048
0.411519 -0.648084
-0.067424 0.164573
-0.557207 0.095312
-0.264973 -0.186412
0.134643 0.138017
-0.166324 0.295902
-0.214233 -0.517479
-0.225012 -0.337740
0.133064 0.372140
-0.326670 0.286023
0.315064 0.064440
0.769498 0.200351
0.024267 -0.465550
-0.191184 -0.321905
-0.239190 0.031831
0.000730 0.224701
-0.297326 -0.027253
0.439982 -0.076769
-0.063671 0.057800
-0.322050 0.077395
-0.417461 -0.082418
-0.234173 0.150959
-0.504410 0.586131
-0.087186 0.116560
0.401739 -0.542353
0.613666 -0.178475
-0.182937 0.137042
-0.419521 -0.262332
0.200319 -0.226161
-0.396038 0.138153
0.204584 -0.511849
-0.319216 -0.261502
-0.158634 0.357802
-0.286236 0.071939
-0.315539 -0.019932
0.186483 -0.074896
0.197508 0.230554
-0.064105 -0.756596
-0.187034 -0.418196
0.037258 0.194190
-0.759227 0.034128
-0.182712 -0.017595
0.962116 0.102484
-0.029607 0.080500
-0.351081 -0.108088
-0.026381 0.391180
0.050976 0.361589
0.027771 0.546284
0.042077 -0.166067
0.364230 -0.401541
-0.231397 0.044215
-0.834306 -0.304538
-0.324598 0.112763
-0.171763 0.026998
-0.103948 -0.067924
0.203229 -0.529119
-0.049069 -0.165482
-0.427915 -0.040129
-0.256608 0.514388
0.156010 -0.294181
0.114570 0.284314
-0.135830 -0.351446
-0.007543 -0.368675
0.322628 -0.078440
0.040454 0.339003
-0.196068 0.320518
0.046095 -0.413975
0.485904 -0.118047
-0.270141 0.009951
-0.015885 -0.615545
0.066068 0.164493
-0.618562 0.343261
0.157648 0.138980
0.325221 -0.402945
0.387501 0.244395
-0.486901 -0.151766
0.154512 -0.241551
-0.184082 -0.100130
0.031607 0.618007
-0.176155 0.186619
-0.249104 0.031334
-0.031451 0.072439
-0.312341 -0.132077
-0.388172 -0.283902
-0.128007 0.498267
-0.009417 -0.183728
0.449724 -0.482148
-0.021372 -0.241530
-0.225546 0.226795
-0.516732 0.364980
0.046524 0.019225
0.747569 0.416070
0.082966 0.397103
-0.636134 -0.399997
0.100110 -0.369194
-0.055564 0.416056
-0.611924 0.283280
-0.021915 -0.124255
0.664147 0.088867
-0.294664 -0.351000
-0.307656 -0.065671
-0.354818 0.081536
0.185688 0.023837
-0.054639 0.467772
0.235756 -0.254849
0.199872 0.443688
-0.214770 0.036060
-0.519275 -0.386310
-0.333625 -0.129866
0.031600 0.230342
-0.398220 -0.143797
0.612419 -0.503479
0.240270 0.040304
-0.677065 0.086833
0.006294 -0.431008
0.759991 -0.118752
0.085913 0.316182
-0.573769 0.319283
-0.225427 -0.766950
-0.186519 0.058871
-0.370805 0.126930
-0.361179 -0.351102
0.716962 -0.253461
0.360566 0.353543
-0.623111 -0.773239
-0.326660 -0.612035
-0.331888 0.079558
-0.202406 0.303429
-0.061220 0.007882
0.399814 -0.493022
0.130435 -0.110954
-0.290454 -0.134592
-0.285577 -0.442743
0.062617 0.208592
-0.111103 0.346257
0.228929 -0.222182
0.235379 -0.350371
0.085186 0.680223
-0.354418 -0.163547
0.172454 0.221230
0.612495 0.123765
-0.520499 0.291753
-0.012152 -0.446239
0.182441 0.186299
0.013268 0.644568
-0.218561 0.312433
-0.093205 0.174914
0.105701 0.145641
0.433776 0.467538
-0.196273 -0.146290
-0.155329 -0.107411
-0.191031 0.675590
-0.168997 0.975064
0.310170 0.320419
0.451291 -0.341221
0.037068 -0.309075
-0.262355 -0.514690
-0.032684 0.134208
-0.275639 0.234695
-0.712204 -0.421267
0.514129 0.118801
0.298181 0.062614
-1.252396 -0.638963
-0.768996 -0.556980
-0.138818 -0.140044
-0.061435 0.492130
-0.323579 -0.335073
0.047395 -0.537409
0.079101 0.134159
-0.652874 0.725892
-0.074805 0.130793
0.481108 0.290929
0.480097 0.288715
-0.367505 -0.456362
-0.237722 -0.640343
0.279371 0.139455
-0.511729 0.592160
0.049934 0.381905
0.157268 -0.349476
0.234783 0.154311
0.014880 -0.636289
0.388248 -0.125196
-0.231631 0.401962
-0.507404 0.252838
0.323500 -0.699995
0.482645 -0.067143
-0.915159 -0.089335
-0.871793 -0.873496
-0.105421 -0.407655
-0.306461 0.668158
-0.428493 0.394505
0.415732 -0.269946
0.090105 0.046175
-0.355491 0.336702
-1.180961 -0.238339
0.428067 0.332461
0.868890 0.764843
0.300112 0.374922
-0.939395 -1.258230
0.139712 -0.358829
-0.510050 -0.168432
0.371261 0.675372
-0.623788 0.233721
-0.360574 0.311379
0.444191 -0.680397
0.157822 -0.622249
-0.207323 0.237325
-0.938675 0.516615
-0.026738 0.189790
0.843166 -0.500608
0.134744 0.173987
-0.657503 -0.656308
-0.239693 -0.444951
0.204418 -0.155988
-1.245414 0.740553
-0.581002 -0.128671
0.161452 -1.198581
0.666578 -0.388693
-0.145868 -0.034981
-1.327339 0.365255
0.143141 -0.402011
-0.263982 1.094531
-0.306071 -0.339825
-0.115100 -0.607582
-0.268334 0.135358
-1.156699 0.123381
-0.558432 -0.045326
0.681165 0.615321
-0.706872 -0.153921
0.350382 -0.840741
-0.062709 0.023896
-0.137367 0.606621
-1.403876 0.431892
0.163989 -0.462372
1.039554 1.033206
-0.321415 -0.499062
-1.133805 -1.152916
0.453811 0.465665
-0.513159 1.098869
-0.950315 0.800976
0.649103 -1.402209
0.477832 -0.316027
-0.286443 0.010834
-0.263506 0.186232
-0.762121 0.397654
-0.010143 0.366645
0.261385 -0.559418
0.978824 -0.914258
0.778857 0.445698
-1.127897 0.692939
-1.614136 -1.132315
0.309395 0.147393
0.691847 0.243978
0.326407 -1.425130
0.360102 0.085041
-0.852669 1.191959
-2.010800 -0.160732
1.558294 -2.241082
1.573086 0.416573
0.788632 0.307652
-3.139673 -2.043808
0.400191 -1.018147
-1.065921 -0.324365
-1.535735 0.094215
0.793795 -0.945171
0.541851 0.634672
-1.076715 0.084700
-3.085555 -0.833649
-0.310776 -1.114110
-0.508812 0.018320
-0.561548 2.343313
0.519698 0.186514
-0.529728 0.288494
-0.012676 -1.080786
-2.287442 -0.947208
0.930360 -0.164536
-1.907565 0.740357
-0.364297 0.969587
0.979798 -1.438022
-0.484941 -0.809241
-2.789491 0.627383
-0.519989 -1.191127
1.813915 0.211900
-0.944800 2.520851
-0.195152 0.347529
1.206959 -3.351759
0.271989 -1.515369
-1.600216 1.452747
-2.909723 0.362204
0.749052 0.446433
1.184451 0.238506
-0.825608 -0.217092
-1.442422 -0.580895
0.792391 0.266353
-2.037881 -0.179756
1.247536 0.161922
-0.133536 2.247800
1.654326 0.627224
-1.649967 -2.072894
-0.842087 -3.013593
2.278298 2.839681
-2.139339 0.375697
-0.745599 -2.645623
0.190676 0.187346
-0.696327 0.668662
-3.349833 -2.805868
0.650671 0.519157
2.227056 2.035128
-2.402291 4.019567
1.030833 -3.043990
-1.620834 -5.185544
0.135311 0.993449
1.024418 2.765050
-2.955710 2.605878
-2.426199 0.410218
0.288990 -5.225153
-0.123217 -1.185277
-0.159513 2.617944
-1.569513 2.869052
-4.074810 0.826897
0.464299 -0.143974
5.286542 -1.267011
-1.500215 -1.807229
-4.146101 0.008260
-4.124408 0.634091
-0.994935 0.364238
0.393014 -0.265420
-0.278424 -5.660103
-1.083975 2.116605
-8.566345 -1.226664
-2.126160 2.294629
-2.610041 0.142690
0.774629 6.435916
1.443978 -0.206284
6.202096 -2.407199
-3.200119 -4.496681
-8.916324 2.529618
1.569201 -2.395089
-5.765482 -3.627021
6.283195 6.388027
-4.773650 2.596234
-3.116033 -11.738210
-4.477573 1.106515
-6.132995 5.883695
-0.058874 5.968485
-3.419707 -5.900335
5.500447 7.831918
-7.705676 -8.236437
-2.261716 1.483088
-2.126046 -3.971553
-0.470092 10.660578
-3.609031 -7.084770
6.421682 1.197450
3.649828 3.843398
-28.259294 -17.950656
-0.613280 4.240193
-6.865955 18.966526
0.364790 7.934816
-12.495270 16.165417
21.896452 -8.719618
10.563449 -12.760843
-34.809522 -2.309746
7.653148 -1.455351
-8.375390 -10.734619
-7.838400 8.948561
-20.221389 8.256418
23.609258 -12.965907
-59.823987 -14.885844
-31.937109 46.259816
0.832886 0.585517
6.680747 33.935065
22.226982 -6.043970
-60.796975 -49.814883
35.072879 -12.696176
-96.059254 121.453295
59.569949 -105.737102
-102.542597 30.159138
41.128076 51.700645
-50.810034 -108.635948
-188.992020 -164.805502
-27.698591 66.436242
-241.934498 344.072953
-259.640462 63.529051
39.687747 271.727278
171.910291 -2.058103
-816.513785 446.304139
-3587.644199 -2025.404468
