10971.475677 8664.329717
-4352.202359 1113.719347
2288.478817 -2489.980677
708.117246 -1752.156626
-303.583926 -1211.678614
-289.726269 -395.274651
-306.530302 -65.312356
242.692602 56.853112
219.474565 -105.369597
374.802261 -347.203622
87.428844 -487.117863
-117.170501 -418.830771
-199.031199 -180.631759
-94.955345 20.425934
100.109636 25.331344
184.558726 -88.444133
118.659269 -208.744355
35.763296 -281.423292
-93.359919 -160.988278
-114.599172 -76.655505
-38.282731 26.507078
84.250662 -2.731292
109.106807 -133.002495
68.968308 -211.866415
-45.185693 -206.692357
-86.029113 -97.643803
-47.620566 -25.038559
21.594080 12.632059
94.494524 -35.944186
77.635461 -97.252119
31.972093 -153.374112
-59.453715 -143.272031
-84.404006 -66.132796
-45.115895 -15.260042
47.347910 0.543241
88.366131 -66.303692
53.698566 -118.802814
-0.543539 -135.569912
-55.512261 -79.544053
-38.612196 -29.810579
-2.242941 3.305025
51.075144 -14.270830
55.596853 -65.533224
31.476707 -106.639045
-23.013046 -111.232994
-47.413728 -62.943507
-35.517069 -14.303765
15.579173 3.155059
54.420795 -25.000512
50.348972 -71.459791
14.775477 -97.143136
-26.677862 -77.628385
-43.195674 -34.049985
-16.924610 -1.375224
24.570042 -1.467194
50.295463 -36.424635
33.932077 -75.523163
-4.301838 -85.995411
-40.027881 -59.044940
-34.217951 -15.602179
-1.427649 2.277982
38.628306 -9.508007
43.201144 -46.755949
18.299947 -70.859821
-17.621064 -70.737164
-35.703188 -36.908703
-23.548924 -10.238625
9.664640 2.044211
36.376652 -18.707597
32.035470 -50.461280
6.630915 -70.726657
-25.732059 -57.007022
-31.771799 -24.597474
-12.306828 0.938138
20.688405 -2.029667
35.490908 -29.560002
23.039314 -56.757240
-6.152880 -64.122553
-27.032989 -41.735658
-26.188444 -12.369820
-2.307987 2.204396
24.932876 -7.615792
31.081518 -35.821047
13.439416 -57.441307
-13.652195 -54.419784
-29.026906 -29.425896
-18.345805 -5.021510
8.663390 1.657195
29.434862 -16.486042
25.485565 -41.238112
3.005312 -54.099717
-21.511792 -43.769782
-26.731377 -17.942705
-9.895264 1.161706
16.261410 -1.382750
29.247807 -22.728901
17.362748 -45.125715
-6.689409 -50.952562
-25.037931 -32.354679
-21.079681 -8.302802
-0.341431 2.437171
20.820631 -6.874831
23.601036 -30.117486
8.479788 -45.693006
-13.941090 -43.391522
-24.677815 -22.815437
-14.856193 -2.154634
6.357870 2.271385
23.566421 -13.487682
19.701696 -34.637560
0.820149 -46.352650
-20.008870 -35.282784
-23.000125 -12.876659
-8.862783 1.880064
13.226098 -1.408539
22.508504 -19.966145
13.258544 -38.717868
-7.736995 -41.756297
-21.982164 -26.763921
-18.680277 -6.647350
-0.369285 3.221730
17.287419 -6.580959
20.537335 -26.602061
4.967782 -39.572181
-13.807820 -36.037283
-22.612455 -17.934493
-12.539875 -1.357914
5.885726 0.967615
20.022956 -12.194634
15.599628 -30.650108
-0.851043 -38.501474
-17.626960 -29.471934
-19.696397 -10.094666
-6.854726 1.996442
11.617741 -1.056976
18.649128 -18.927867
9.077377 -33.726584
-8.553606 -35.536042
-20.166761 -21.536404
-15.513253 -4.613402
0.080528 2.773418
15.089342 -6.450011
16.056231 -22.993994
3.659630 -34.318755
-13.212209 -30.668702
-20.078182 -14.536100
-11.698040 -0.044967
5.326252 1.802816
16.387271 -11.524760
11.714799 -28.177429
-2.846728 -33.106359
-17.111731 -24.671932
-17.560573 -7.952692
-5.606110 1.915007
10.298034 -1.982849
16.112653 -16.502516
6.551678 -29.933164
-9.202558 -30.391740
-18.772890 -17.928818
-14.201169 -2.588280
0.119840 2.251617
13.115907 -6.484892
13.058845 -21.845751
1.185125 -29.959507
-12.621874 -26.000732
-18.111936 -12.174334
-9.378115 -0.052770
4.934410 0.746641
13.710392 -10.755685
9.353532 -24.754616
-3.955655 -29.537921
-16.036599 -21.335107
-15.747615 -6.209298
-4.387654 2.309193
9.320391 -1.795096
13.752814 -15.369641
5.002222 -26.300788
-8.638388 -26.910285
-17.060313 -15.716277
-13.097531 -2.373028
0.123859 1.791295
11.070679 -6.275752
10.579363 -19.165146
0.291888 -27.325935
-12.995116 -23.212743
-16.867864 -9.904155
-8.444589 0.379051
4.393063 0.143711
11.706908 -10.664783
7.379723 -22.615813
-4.685689 -25.537712
-15.155317 -18.113723
-14.961480 -5.321721
-3.976861 1.671730
7.758657 -2.275199
11.206150 -14.345532
2.833103 -24.272556
-8.959132 -23.955587
-16.235055 -12.941582
-11.167328 -1.712393
0.235546 1.445264
9.572391 -6.049785
8.631458 -18.143360
-1.171483 -24.347290
-12.224815 -20.366567
-15.391196 -8.556566
-7.832877 0.772757
3.987559 -0.208861
10.082707 -10.054174
5.742819 -20.629929
-5.730020 -23.630977
-14.208702 -15.939313
-13.607190 -4.468348
-3.657993 1.768862
7.210065 -2.867581
9.078146 -14.053164
1.892185 -22.047045
-8.987290 -20.805428
-14.967440 -11.152424
-10.349441 -1.161954
0.663834 1.001620
8.322820 -6.168742
7.141082 -16.704697
-2.087240 -22.095740
-12.194981 -17.673251
-14.039065 -7.322986
-7.268200 0.924378
4.032088 -0.486321
8.629488 -9.302038
3.938972 -19.336693
-5.880544 -21.405316
-13.827335 -14.524614
-12.640420 -3.524485
-3.480758 1.277767
6.203058 -2.998732
8.302726 -12.890082
0.842531 -20.077297
-9.219751 -18.783531
-14.271710 -9.761626
-9.780731 -0.911872
0.109009 0.771996
7.502793 -6.314014
5.558482 -15.855655
-2.685515 -20.569692
-11.744633 -15.624187
-13.634081 -6.291510
-6.337042 0.708259
3.002628 -0.659593
7.253045 -9.333361
3.277135 -17.715665
-6.364388 -18.766501
-12.973164 -12.449645
-11.782990 -3.205549
-2.768750 1.422077
5.794412 -3.449321
6.457345 -12.039189
-0.472102 -18.852951
-9.388848 -16.869637
-12.647821 -8.681166
-8.947285 -0.701682
0.106857 0.395438
6.450581 -6.061729
4.903721 -14.636028
-3.265777 -18.439532
-11.224927 -14.095205
-12.254611 -5.378907
-5.856548 0.400070
2.407861 -1.069720
6.440920 -8.797741
1.905951 -16.225870
-6.378644 -17.214459
-12.510110 -10.604796
-10.668607 -2.570091
-2.892048 1.209883
4.346519 -3.248391
5.374253 -11.763815
-0.974393 -17.030336
-8.602768 -15.175082
-12.340918 -7.557168
-8.046657 -0.586726
-0.262226 0.406150
5.569635 -5.125980
3.723018 -13.913478
-4.298099 -16.924701
-10.814139 -12.922817
-11.600629 -4.796228
-5.409044 0.349756
2.523928 -0.846531
5.435714 -8.807707
1.194058 -14.915130
-6.813913 -15.717380
-11.664068 -9.629353
-9.813851 -2.077149
-3.135559 0.597877
3.746302 -3.057362
4.417538 -10.912183
-1.706185 -15.775686
-8.983690 -13.792103
-12.175956 -6.431799
-7.387875 -0.245607
-0.149978 -0.166298
4.560196 -5.716352
2.808627 -12.984561
-4.154945 -15.075616
-10.549848 -11.666858
-11.021657 -4.226573
-5.045733 0.805407
1.618887 -1.420193
4.320067 -8.535295
0.836735 -14.034815
-6.498743 -14.483911
-11.443233 -8.544085
-9.231154 -1.709258
-2.743497 0.418436
3.521412 -3.691318
3.343066 -10.438827
-2.086853 -14.565877
-8.437008 -12.367904
-11.101301 -5.839272
-6.966016 -0.136410
-0.060677 -0.052810
3.652597 -5.400309
1.525769 -11.894137
-4.712754 -14.231423
-10.026941 -10.156564
-10.229737 -3.385921
-5.089708 0.652783
1.504346 -1.542204
3.583117 -7.939823
-0.225149 -13.154362
-6.718333 -13.257057
-10.863168 -8.306372
-8.728976 -1.715250
-2.852869 0.509836
2.923055 -2.944265
2.922510 -9.561867
-2.213806 -13.342838
-8.586016 -11.550156
-10.638907 -5.411194
-6.773861 -0.392276
-0.523300 -0.212559
3.207483 -5.501224
1.268833 -11.201400
-4.671801 -13.023244
-9.892371 -9.242389
-9.611284 -3.371441
-4.734162 0.567268
0.997878 -1.533130
3.212268 -7.274852
-0.792826 -11.974139
-6.887897 -12.306227
-10.561690 -6.994200
-8.289680 -1.470920
-2.902632 0.008162
1.910051 -2.931923
1.962292 -8.996265
-2.747149 -12.589911
-8.213871 -10.696757
-10.055185 -5.124085
-6.658383 -0.369034
-0.905260 -0.472253
2.490311 -5.053033
1.128817 -10.146975
-4.517470 -12.147457
-9.140426 -8.767320
-9.029526 -2.920482
-4.815355 0.140327
0.536012 -1.680323
2.173325 -6.826432
-1.261172 -10.999719
-6.440931 -11.380504
-9.841452 -6.771432
-7.767082 -1.328184
-2.824155 0.367398
1.431385 -3.221531
1.407068 -8.497889
-3.230892 -11.520282
-7.890410 -9.692788
-9.681542 -4.540883
-6.218213 -0.435226
-1.296400 -0.265312
1.742313 -4.969204
0.221731 -9.157994
-4.582809 -10.816273
-8.917194 -7.982319
-8.620019 -2.978114
-4.602531 0.001136
0.345801 -1.682342
1.684819 -6.173841
-1.212374 -10.555768
-6.185240 -10.337829
-9.283923 -6.268166
-7.566588 -1.696098
-3.175029 -0.091218
0.795964 -2.709543
1.033305 -7.946582
-3.214468 -10.570400
-7.850360 -9.050589
-9.435057 -4.272853
-6.242077 -0.371305
-1.669776 -0.799936
1.523392 -4.366373
-0.105130 -8.557762
-4.931039 -10.603424
-8.509045 -7.558812
-8.589102 -2.917803
-5.108999 -0.237629
-1.156898 -1.460449
0.951034 -6.247853
-1.850710 -9.381134
-6.442545 -9.875695
-9.364093 -5.722166
-7.769798 -1.449520
-3.447177 -0.030432
0.632134 -2.858872
0.400883 -7.254405
-3.141436 -9.730411
-7.666359 -8.364551
-9.015830 -4.310731
-6.309922 -0.801316
-1.730552 -0.443122
0.774495 -3.963865
-0.395418 -8.265871
-4.613308 -9.684436
-8.273652 -7.238134
-8.386856 -3.239644
-4.775945 0.093788
-0.459290 -1.131930
0.856822 -5.334032
-1.442745 -8.818214
-6.512931 -8.575105
-8.618393 -5.073791
-7.265835 -1.399403
-3.651879 -0.047646
0.014629 -2.758356
0.003086 -6.893977
-3.062013 -9.205778
-7.458969 -7.570852
-8.667221 -3.855165
-6.118719 -0.447414
-1.993538 -0.732366
0.557339 -3.117165
-0.938404 -7.567066
-4.945624 -9.093752
-7.945355 -6.669511
-8.434509 -2.427229
-4.790884 -0.479134
-0.978876 -1.243014
-0.135920 -4.940549
-1.521639 -7.955166
-6.145514 -8.126935
-8.053680 -5.141158
-7.629422 -1.088832
-3.597234 -0.296731
-0.132601 -2.114226
-0.161410 -6.085197
-3.085243 -8.220980
-7.131726 -7.491351
-8.544192 -3.913838
-6.024972 -0.363877
-2.337248 -0.321542
-0.208396 -3.239271
-0.697439 -6.798184
-4.598206 -8.382376
-7.959359 -6.492589
-8.000736 -2.660151
-5.311991 0.390216
-1.408536 -1.105494
-0.090087 -4.188326
-2.306924 -7.526043
-6.003580 -7.817870
-8.358851 -5.112204
-7.373890 -1.404781
-3.735127 -0.252145
-0.669877 -1.898112
-0.420750 -5.467040
-3.295185 -7.936143
-7.191396 -7.162143
-8.466262 -3.542619
-6.649977 -0.732542
-2.748094 -0.252986
-0.326914 -2.841920
-1.048041 -6.614152
-4.278084 -7.957448
-7.764584 -6.159975
-8.110607 -2.356052
-5.244903 -0.003224
-1.767517 -0.798930
-0.224977 -3.970951
-2.111078 -7.115394
-5.777010 -7.475296
-8.189359 -5.082634
-7.579157 -1.196349
-3.783235 0.343246
-0.954509 -1.676729
-0.496860 -5.147603
-3.429623 -7.487803
-6.797416 -6.858009
-8.002673 -3.631777
-6.552134 -0.345639
-2.927281 0.301431
-0.542926 -2.493365
-1.399101 -5.901965
-4.522314 -7.659975
-7.340533 -6.027724
-7.663279 -2.321777
-5.548091 0.245793
-2.222769 -0.621885
-0.114685 -3.711390
-2.212993 -6.628757
-5.514220 -7.548138
-7.953284 -4.606057
-7.576477 -1.107169
-4.448512 0.347912
-1.277349 -1.259008
-0.237866 -4.398985
-3.221752 -7.144628
-6.613138 -6.872385
-8.163431 -3.764520
-6.549422 -0.324596
-3.237823 0.074843
-0.541583 -2.335985
-1.307930 -6.077124
-3.990487 -7.687598
-7.656269 -5.840707
-7.982779 -2.450839
-5.887937 0.777002
-2.804991 -0.025821
-0.929541 -3.066192
-2.422798 -5.991238
-5.459775 -6.619560
-8.126632 -4.336721
-7.486260 -1.120212
-4.715731 0.701259
-1.473176 -0.663377
-0.868639 -4.348582
-3.049819 -6.545791
-6.845522 -6.235191
-8.176287 -3.427978
-7.087792 0.123999
-3.727424 0.459803
-1.009118 -1.623275
-1.286878 -5.302936
-4.251534 -7.000513
-7.329897 -5.505459
-8.183517 -1.943324
-6.267240 0.524271
-2.492350 0.007257
-0.437220 -2.669887
-1.996352 -5.837848
-5.225754 -6.725193
-7.932890 -4.521781
-7.798731 -0.998392
-5.013183 0.922838
-1.415637 -0.782410
-0.494696 -3.515265
-3.361180 -7.056614
-6.368533 -5.521887
-8.463165 -3.091438
-6.917726 0.102317
-3.746061 0.803398
-1.100206 -1.467362
-1.201842 -4.981505
-4.247844 -6.537501
-7.391576 -5.621077
-8.438820 -1.906895
-6.432650 1.030348
-2.528049 0.679239
-0.642574 -1.902630
-2.042609 -6.029109
-5.369247 -6.297818
-7.876619 -4.256158
-7.600003 -0.570119
-4.753932 1.224689
-1.192970 -0.120004
-0.514978 -3.478841
-2.950833 -6.412135
-6.805211 -6.276730
-8.589532 -3.308506
-7.259451 0.257476
-3.610232 1.195934
-1.122795 -1.367553
-1.197197 -4.322317
-3.803240 -6.708633
-7.368547 -5.300349
-8.350832 -2.168428
-6.299352 0.960364
-2.417483 0.808861
-0.387608 -2.315195
-2.027943 -5.354284
-5.290242 -6.505811
-8.102688 -4.077407
-7.978114 -0.598729
-5.079020 1.301803
-1.471466 0.284181
-0.692421 -3.290465
-2.896121 -6.357013
-6.385973 -5.983422
-8.344601 -3.065472
-7.244983 0.724708
-4.004244 1.383559
-1.018948 -0.148968
-0.980340 -4.026093
-4.058491 -6.433039
-7.381726 -5.168017
-8.822783 -1.619097
-6.356630 1.396219
-2.672480 0.973548
-0.817621 -1.694674
-1.824879 -5.280195
-5.215168 -6.299300
-8.131664 -4.000281
-8.496904 -0.383330
-5.329470 2.106360
-1.542288 0.669662
-0.810795 -2.915490
-2.856981 -5.865253
-6.449033 -6.018803
-8.637016 -2.835939
-7.574747 0.588497
-4.270206 2.099903
-0.837704 -0.434255
-0.776713 -4.343453
-3.924166 -6.051752
-7.650207 -4.954453
-8.816032 -1.463812
-6.707624 1.695699
-3.093720 1.339487
-0.172396 -1.311264
-1.419126 -5.462715
-5.376053 -6.158397
-8.679564 -4.135618
-8.400623 -0.050898
-5.203971 2.298620
-1.776357 0.999422
-0.489884 -2.620830
-2.926298 -5.753825
-6.660481 -5.870153
-8.856522 -2.906450
-7.527851 1.030894
-3.886754 2.325003
-0.662222 0.212794
-0.651716 -3.894518
-3.940788 -6.101757
-7.897732 -5.066514
-8.974829 -1.069725
-6.880087 2.177142
-2.534054 2.242293
-0.116016 -1.418369
-1.458559 -5.238424
-5.392447 -6.308554
-8.988154 -3.523295
-8.633756 0.263327
-5.284928 2.663826
-1.456926 1.198237
-0.399802 -2.663937
-2.373074 -5.151264
-7.159105 -5.407557
-9.538025 -2.385891
-7.888021 1.131400
-3.803756 2.804431
-0.789656 -0.009629
-0.847450 -4.132309
-4.363504 -6.265216
-8.302388 -4.883158
-9.234990 -1.014508
-6.384062 2.692996
-2.373215 2.543026
-0.453409 -1.148853
-1.582471 -5.458632
-5.576139 -6.104739
-8.907630 -3.562548
-8.870789 0.610929
-5.393398 3.026466
-1.274483 1.716706
-0.319609 -2.530288
-2.621693 -5.871845
-7.135026 -5.552888
-9.270921 -2.180692
-7.759609 2.205124
-4.013139 3.245400
-0.471182 0.389611
-0.613250 -4.020726
-4.559870 -6.292828
-8.095297 -4.760656
-9.319744 -0.569076
-7.131339 3.002551
-2.377732 2.673179
-0.082527 -1.319775
-1.619864 -5.017693
-6.159062 -6.144276
-9.383474 -3.095590
-9.019136 1.055130
-5.891982 3.303070
-1.155372 1.659994
0.326508 -2.419492
-2.842112 -5.648551
-7.359467 -5.670261
-9.731205 -1.658670
-8.376283 2.474124
-3.845863 3.159812
-0.005751 0.723243
-0.818293 -3.708636
-4.366572 -6.109715
-8.769200 -4.501524
-9.867982 -0.078710
-6.997210 3.349273
-2.313654 3.206603
0.257827 -0.851549
-1.640812 -5.131275
-6.035446 -6.071913
-9.762265 -2.916777
-8.812659 1.732644
-5.092992 3.690717
-0.923855 2.124680
-0.290874 -2.325135
-3.249765 -5.508297
-7.185498 -5.616496
-10.266897 -1.482444
-7.944733 2.541011
-3.773542 4.135356
0.174892 0.922018
-0.895303 -3.998327
-4.676117 -6.090226
-9.027071 -4.110113
-9.835699 0.383689
-6.572652 3.680107
-2.337139 3.498865
-0.105355 -0.829781
-1.624530 -5.436304
-6.084442 -6.091142
-9.694776 -2.696731
-9.415991 2.000626
-4.924789 4.355950
-1.389009 2.307814
-0.046745 -2.491196
-2.707316 -6.007592
-7.948358 -5.091302
-10.616048 -0.954163
-8.439816 3.194308
-3.479601 4.311903
-0.082955 0.603132
-0.423914 -4.049078
-4.602487 -5.988661
-9.575599 -3.999312
-10.368562 0.496222
-6.617442 4.161490
-1.990729 3.315170
0.414684 -0.683590
-1.434814 -4.992005
-6.689832 -6.109774
-10.092011 -2.383450
-9.309263 2.284376
-4.777343 4.609501
-0.454387 2.088274
-0.193035 -2.621301
-3.229210 -6.148863
-8.041970 -5.198251
-10.340787 -0.529709
-8.422418 3.688829
-3.259320 4.613189
0.193660 0.973822
-0.360361 -3.681590
-5.476704 -6.118181
-9.473049 -4.173149
-10.172402 1.316436
-6.698495 4.823197
-1.435846 3.803351
0.294705 -0.461606
-2.315786 -4.922229
-7.301346 -5.857048
-10.078385 -2.159603
-9.375796 2.710091
-4.949390 4.938394
-0.681468 2.218452
0.120758 -2.522119
-3.745352 -5.803061
-8.357604 -4.712906
-10.633275 -0.163777
-8.091266 4.416148
-3.110246 4.671389
0.420025 0.956806
-0.740276 -4.105169
-5.501015 -6.027072
-9.757735 -3.503737
-10.358914 1.901853
-6.358665 4.767487
-1.551840 3.787969
0.475046 -0.825641
-2.214182 -5.087223
-6.839264 -5.392703
-10.556227 -1.481849
-9.247745 3.215919
-4.909768 5.307982
-0.382960 2.571537
0.025046 -2.578817
-3.753879 -5.889343
-8.949068 -4.766306
-10.718536 0.337443
-7.970642 4.897282
-2.911243 5.127347
0.404758 1.020242
-0.785593 -4.018704
-5.864859 -6.040020
-10.011130 -2.906754
-10.227972 2.237866
-6.106879 5.414173
-1.202705 3.965600
0.556188 -0.911776
-2.183728 -4.866165
-7.586062 -5.545607
-10.950107 -0.926401
-9.265726 3.938242
-4.313731 5.528993
0.121944 2.609372
-0.352185 -2.698818
-4.021751 -5.456753
-8.608936 -4.404141
-11.157187 0.837966
-7.965057 5.108170
-2.811995 5.254340
1.111389 1.072368
-1.229985 -4.234558
-6.142288 -5.590562
-10.194761 -2.344135
-10.637582 2.762183
-5.962988 5.416719
-1.155258 4.057744
0.865352 -0.670095
-2.625119 -5.436704
-7.947035 -5.146446
-11.193712 -0.654664
-9.370745 4.498511
-3.734534 5.895499
0.285273 2.959215
-0.176650 -2.360890
-4.573574 -5.762095
-9.530466 -3.964563
-11.017474 1.169156
-7.782932 5.483118
-2.138900 5.459834
0.513940 0.906007
-1.339264 -4.006756
-6.488322 -5.475192
-10.535256 -2.068867
-10.499740 3.554610
-6.018683 6.292575
-0.913100 4.145727
0.830887 -1.050474
-3.391015 -5.119185
-7.964316 -4.581007
-11.345186 -0.170360
-9.340898 4.655797
-4.064494 6.290403
-0.004567 2.906774
0.290998 -2.743607
-4.718818 -5.626216
-9.613988 -3.885861
-11.568211 1.924388
-7.456292 6.031703
-2.064348 5.365971
0.979782 0.942385
-1.607485 -4.173994
-6.716659 -5.465272
-10.851198 -1.804771
-10.304784 3.847018
-5.866030 6.611036
-0.755726 4.515486
0.100307 -0.847078
-3.285536 -4.922344
-8.535038 -4.762797
-11.406201 0.332422
-9.162738 5.679619
-3.614204 6.644073
0.407250 3.171888
0.015084 -2.324000
-4.743710 -5.313708
-9.610941 -2.865219
-11.212251 2.551456
-7.125461 6.294609
-1.962930 6.024944
0.832243 0.545981
-1.517018 -3.765374
-7.185689 -5.320635
-11.037250 -0.697012
-11.069399 4.721695
-5.120094 6.908597
-0.297112 4.761163
0.972341 -0.947582
-3.033857 -4.819150
-8.733197 -3.930808
-11.697345 0.544640
-8.916515 5.929719
-3.653659 6.748689
0.599603 2.388253
-0.295873 -2.957556
-5.729874 -5.550366
-10.446858 -2.742216
-11.230550 2.926320
-6.919698 6.978626
-1.984998 5.464488
0.842923 0.575675
-1.922509 -4.122583
-7.535929 -4.615109
-11.391491 -0.898796
-10.513933 5.014618
-5.054085 7.354997
-0.061128 4.497802
0.871960 -1.144453
-3.883405 -4.867181
-9.479091 -3.432644
-11.729573 1.462252
-8.757761 6.431043
-3.019848 6.976815
0.408271 3.015391
-0.311063 -2.882460
-5.691626 -5.357501
-10.802676 -2.081223
-11.518556 3.439279
-7.032797 7.171969
-1.426357 5.822802
0.561446 0.516753
-2.171437 -4.280246
-7.850024 -4.592301
-11.920154 -0.058730
-10.449883 5.158938
-4.867251 7.642372
-0.085252 4.584147
0.231706 -1.117537
-4.413158 -4.647338
-9.684156 -3.538250
-12.072124 1.689096
-8.677123 6.580045
-2.925506 7.045085
0.611820 2.616937
-0.895758 -3.118291
-6.395871 -4.820973
-10.990289 -1.739611
-11.115120 3.761344
-6.759083 7.900721
-1.398629 6.187972
0.693821 0.933207
-2.627502 -3.948186
-8.409574 -4.309467
-11.669728 0.245359
-10.018595 5.786212
-4.706647 7.667490
0.219653 4.453310
0.310897 -1.096385
-4.440673 -4.583826
-9.842810 -2.915422
-11.773039 2.640814
-8.441414 7.314958
-2.965231 7.230053
0.491655 3.136520
-1.028245 -2.805054
-6.482058 -4.555778
-11.250325 -1.389256
-11.014887 4.427798
-6.630354 8.020343
-1.052167 6.137153
0.732463 0.861099
-2.868768 -3.989748
-8.392160 -3.622830
-11.829004 0.883653
-10.026893 6.312292
-4.307633 8.051233
-0.181249 4.977436
0.150885 -1.522332
-4.617416 -4.332733
-10.705463 -2.759913
-11.391032 2.929226
-8.624715 7.637707
-2.463083 7.902241
0.488116 3.116078
-1.213478 -2.959531
-6.747485 -4.095750
-11.130019 -0.860154
-10.973287 5.424994
-6.529970 8.292239
-1.431977 6.406828
0.623675 1.002178
-3.508902 -3.937038
-9.062085 -3.732911
-12.312999 1.418121
-10.133136 7.177521
-4.198254 8.358695
0.487747 5.049039
-0.403323 -0.675909
-5.353003 -4.162407
-10.716211 -1.978950
-11.925707 3.787117
-8.109567 8.173446
-2.924884 7.688547
0.503442 2.695839
-1.475111 -2.656969
-7.043070 -3.756468
-11.662980 -0.480373
-11.093977 6.005738
-5.873631 8.556464
-1.008354 6.202448
0.195932 0.745362
-3.356202 -3.491487
-9.102185 -2.662538
-11.791865 1.739419
-9.578113 7.656047
-3.735979 9.030209
0.355893 4.717171
-0.126437 -0.923504
-5.503997 -3.943917
-10.627512 -1.641723
-11.453737 3.824404
-7.969747 8.518116
-2.422627 7.727588
0.414753 3.037724
-1.803706 -2.331993
-7.364819 -3.582307
-11.629612 0.436621
-11.365732 6.187659
-6.164314 9.155369
-1.035435 6.671051
0.380867 0.778291
-3.535837 -3.638181
-9.266430 -2.379578
-12.420103 2.529313
-9.378553 7.927139
-3.666667 8.520199
-0.261015 5.089390
-0.572223 -0.525165
-6.009677 -3.682054
-10.347953 -1.251066
-12.264285 4.673663
-7.721334 8.751277
-2.301678 8.490016
0.866193 3.008291
-1.680001 -1.993757
-7.620134 -3.098019
-11.952968 0.920750
-11.075008 7.029706
-5.941916 9.329107
-1.059204 6.698766
0.289239 1.461389
-3.857106 -2.888438
-9.376696 -1.882170
-12.235421 3.009431
-9.399585 8.575671
-4.084687 9.538475
0.122086 5.182388
-0.738483 -0.624278
-6.237502 -3.238368
-11.068803 -0.335575
-12.221485 5.040461
-8.241243 9.333563
-2.492897 8.485244
0.156333 3.459206
-2.260815 -1.692049
-8.186977 -2.462365
-12.289118 1.840623
-11.228225 7.186228
-6.073583 9.847777
-1.062924 7.473514
-0.074067 1.462103
-4.304277 -2.433384
-9.811235 -1.769278
-12.237052 3.791510
-9.456390 8.765947
-3.830589 9.429095
0.043969 5.564966
-0.967590 -0.138500
-6.168363 -2.753631
-11.225103 0.178551
-12.130224 5.855148
-7.992935 9.841633
-2.304719 8.979327
0.436401 3.858861
-2.412936 -1.087084
-8.179580 -2.569758
-12.743706 1.853270
-11.082172 7.658249
-6.051877 10.039647
-0.980477 7.565392
0.061099 1.857631
-4.060057 -1.906792
-9.761225 -1.183326
-12.443290 4.077101
-9.826852 9.376337
-4.145115 10.164660
-0.169984 5.871323
-0.837858 0.290669
-6.195212 -2.177359
-11.123843 0.471531
-12.139799 6.391291
-7.980673 10.311047
-2.269514 9.582504
0.013338 3.992266
-2.332775 -0.842916
-8.373392 -1.524141
-12.331666 2.461996
-11.173767 8.235857
-6.447921 11.190355
-1.214207 8.295140
-0.121133 2.443769
-4.467755 -1.616481
-10.044207 -0.908828
-12.759261 4.661079
-10.448139 9.750201
-4.661194 10.521594
-0.294667 6.484382
-1.444821 0.999142
-6.243120 -1.949051
-11.253458 0.682673
-11.885384 6.372301
-8.323739 10.671216
-2.471888 10.266053
0.159496 4.375242
-2.772862 -0.482653
-8.658776 -1.328454
-12.541317 3.031272
-11.046648 9.036930
-6.454240 11.273604
-1.314901 8.685055
0.339842 2.712408
-4.390554 -1.069795
-10.370082 0.169038
-12.776767 4.981223
-9.758565 10.115913
-4.086139 10.899574
-0.430681 6.912366
-1.213153 1.190292
-6.397015 -0.944634
-11.541974 1.441171
-12.404314 7.036022
-8.324568 11.422213
-3.015247 10.459146
0.186655 5.255052
-2.546543 -0.066192
-8.479374 -0.657845
-12.533956 3.246975
-11.586184 9.636589
-6.425426 11.572579
-1.673061 9.069618
-0.199797 3.724060
-4.402564 -0.504457
-9.728871 0.587905
-13.216110 5.397587
-10.607595 11.746361
-4.061216 12.085327
-0.484664 7.369878
-1.362805 1.890278
-6.678243 -1.052621
-11.719357 2.135487
-12.702433 7.298289
-8.429773 12.379476
-3.340051 11.029406
0.156376 6.117885
-2.698489 1.036003
-8.711183 -0.242810
-12.796354 3.414158
-12.059172 9.801541
-6.777806 12.548247
-1.442900 10.059290
-0.483117 4.208254
-4.638496 -0.173540
-10.498540 0.392065
-13.420655 6.201658
-10.433700 11.676027
-4.706811 13.140968
-0.588628 8.734547
-0.875888 2.373152
-6.161799 -0.367361
-11.670802 1.987370
-13.411465 8.401991
-8.753855 13.091157
-2.568633 12.117870
0.423579 6.975923
-2.835242 1.070518
-8.856459 0.331754
-12.921924 4.163988
-12.615460 10.332162
-7.098570 13.833386
-1.412508 10.713580
0.228362 4.764872
-4.192774 0.393907
-10.973433 1.446564
-13.366324 6.761073
-11.117714 12.777563
-5.146762 13.718547
-0.756784 9.537443
-1.156052 3.708449
-6.824244 0.087289
-11.675806 2.380196
-13.727464 8.327288
-9.437110 13.839868
-3.115880 13.823712
0.020940 8.138213
-1.936587 1.767615
-9.011921 0.388699
-13.324705 4.930516
-13.570515 11.610451
-7.647220 14.897896
-1.417805 12.664451
0.413959 6.045731
-4.349042 0.972291
-10.594623 1.250611
-14.558220 6.894073
-12.302023 13.359612
-5.741249 15.004579
-0.183017 10.956993
-0.369826 4.108171
-5.982006 0.693566
-12.427465 3.376856
-13.759752 9.630943
-10.540870 15.164984
-3.394293 14.826448
0.395207 9.080808
-1.949435 2.907928
-8.803026 1.071354
-13.788260 4.812210
-14.287689 12.298166
-7.946228 16.767274
-1.514444 14.420504
0.693212 7.864427
-4.306680 1.257650
-10.915663 2.328085
-14.903083 7.557770
-12.619108 14.636103
-5.935305 16.854986
-0.379824 13.028852
-0.220119 5.647562
-6.217294 1.239569
-13.400628 3.448847
-15.668078 10.576616
-11.205536 16.955903
-3.445218 16.793131
1.305070 10.835292
-1.430434 3.606051
-9.129023 1.053953
-14.547058 5.672206
-15.395433 13.433032
-9.494212 18.247397
-2.038981 15.707183
0.911919 8.924721
-3.727174 2.572088
-11.618936 2.583036
-16.314298 8.879009
-13.853515 16.006958
-6.654386 18.975152
0.463695 14.939453
0.526254 6.288193
-6.382749 1.645421
-14.025353 3.796890
-16.992236 11.418094
-12.662421 18.933224
-3.811399 19.683780
1.562604 12.962033
-0.571901 4.456956
-8.653634 0.886456
-15.914362 5.810577
-16.643814 14.893767
-9.542637 20.922710
-0.860000 18.977717
2.429731 10.716742
-3.348127 3.005158
-12.261309 2.908418
-18.061213 9.568415
-16.070587 19.118482
-7.681425 22.243106
0.514771 17.075012
1.776931 7.786167
-5.585256 2.198949
-14.518020 3.943506
-19.291681 13.607908
-13.674313 21.577623
-4.247942 22.595112
2.007065 15.266232
-0.367527 5.885794
-9.147219 1.911937
-17.732269 7.332126
-18.844338 17.233456
-11.534862 24.336800
-0.938052 21.499035
2.699160 12.487188
-2.538009 3.794398
-13.639366 2.291197
-19.622234 10.129014
-18.072549 21.226895
-7.306648 25.167171
1.538585 20.782026
3.103828 10.059036
-5.808038 2.699373
-15.881180 4.407474
-21.530470 14.263455
-15.799128 25.214448
-4.777285 26.112410
3.890719 17.568146
1.360818 5.846919
-9.468281 1.359433
-19.683878 7.555650
-20.946276 20.813437
-11.635159 28.288277
0.036854 25.877283
5.015104 15.081161
-1.375956 4.560396
-13.518027 3.126250
-22.241625 12.496961
-20.526624 24.773538
-8.776748 29.978180
2.699043 23.797028
4.947487 11.657004
-5.212480 3.182978
-18.476246 5.800064
-24.458165 17.840106
-17.111742 30.841688
-4.900365 31.890445
5.685418 22.576893
2.437299 8.765777
-10.692858 1.219392
-23.223961 8.684578
-25.755197 23.678409
-14.231006 34.539112
0.865375 32.404946
7.559330 18.913352
-0.980608 4.626954
-16.457921 4.166504
-26.067987 14.337331
-23.983738 30.480773
-9.809568 36.610423
3.594169 29.705824
7.517282 14.475161
-5.306772 2.792477
-21.031929 6.386777
-29.983561 21.815532
-21.810082 38.151833
-4.868963 38.731022
8.840266 26.771787
5.169665 7.963140
-10.548192 2.029324
-25.744026 10.050592
-28.825912 29.196839
-15.986103 41.853451
1.906286 40.172779
10.465915 23.565255
1.065194 7.762075
-18.257362 3.767401
-32.223784 18.154914
-29.312589 38.586114
-9.990961 47.185715
8.891241 37.474915
11.515010 18.620252
-4.051949 2.109744
-24.993691 7.098741
-35.234280 26.765923
-25.832629 49.285599
-3.067816 52.939392
12.228007 38.445931
9.386890 13.070971
-14.974647 3.243141
-34.743880 13.795138
-39.346234 40.097709
-18.658454 56.203330
4.074670 49.946880
16.336086 28.980027
1.139475 7.655095
-21.550548 6.668541
-40.606081 25.983368
-37.888110 53.769869
-15.003283 63.924842
10.350425 54.696611
16.305749 24.655076
-4.551672 3.465130
-34.409910 7.202046
-50.590749 34.897067
-34.514038 64.288877
-4.182447 70.094085
20.541163 47.804787
13.682328 17.246849
-17.409087 3.849627
-44.814765 18.626327
-51.196124 56.465159
-24.971558 81.352838
11.742189 76.728555
28.168590 44.585508
5.688636 7.191764
-32.803814 2.173992
-61.317808 32.015438
-52.120789 74.691978
-12.464289 93.360643
22.921548 76.524200
33.012557 39.313064
0.689761 8.070425
-42.115858 18.601358
-69.504733 57.344368
-51.505476 112.921588
0.183405 112.354898
38.758620 80.911761
29.155176 17.432236
-33.492681 3.365262
-69.880518 36.205724
-87.562908 102.898203
-28.935611 136.260006
14.080675 125.875683
53.016377 83.718945
16.523594 21.973609
-40.149570 21.910845
-111.762251 51.801743
-107.163308 154.311119
-48.636949 187.505952
38.645509 169.435554
49.404866 76.969788
-33.638650 15.821949
-122.529445 24.553888
-160.185793 136.274383
-112.045093 225.945032
29.875404 256.872062
96.428110 182.171230
76.835381 52.574481
-108.391604 -23.334487
-269.095189 105.218874
-338.153500 277.607996
-182.003390 487.090231
-23.826428 368.497007
56.102344 271.554495
-19.044111 101.856764
-269.584506 279.463187
-176.680446 432.657315
-340.832415 1110.380787
95.752100 1161.765004
848.785434 1481.798945
770.366508 677.573078
