6993.697187 7319.106731
-3550.933427 -406.894470
42.773638 -0.910043
-181.252443 -60.828429
26.184604 8.970875
-47.254814 -25.140820
-12.275484 -9.904319
12.195248 13.337353
37.068690 48.295621
26.757504 39.489609
1.780709 6.008370
1.514956 -0.569631
-9.726981 -38.916101
-1.879522 -20.194914
0.236765 -29.717752
-1.904350 11.236771
-3.324629 17.838763
-5.880091 14.211381
-7.336823 16.464844
3.711537 -7.038721
-0.029415 -0.029221
14.614763 -14.177371
1.995727 -1.864274
0.841328 0.301423
-1.820722 0.602802
-9.788843 3.785313
2.407223 -0.881798
-6.890793 0.441078
8.008369 0.008508
0.551797 -0.198334
0.439845 0.473186
0.941609 0.330167
-4.554750 -1.844755
3.317799 2.134453
-3.228280 -2.844579
3.089051 2.997875
0.108367 -0.259903
-0.320397 -0.372749
0.136840 0.313397
-1.626024 -4.274218
0.479054 2.771812
-0.236547 -2.992552
0.106688 2.487801
0.026362 0.714254
0.027440 0.163707
-0.356742 0.743920
1.348937 -2.857592
-0.823801 0.990801
1.148921 -1.407196
-0.266266 0.476636
-0.057098 0.208385
0.501180 -0.115595
-1.010933 0.416681
2.007873 -0.734537
-1.200018 0.111593
1.030416 -0.240636
-0.535427 0.136538
-0.728578 -0.124843
-0.558904 0.047854
-0.567692 -0.258123
1.460127 0.794494
-0.111740 -0.212913
0.255671 -0.018795
-0.016316 0.110337
-0.368725 -0.537534
-0.406847 -0.398088
-0.492521 -1.232038
0.189823 0.656116
0.067886 -0.085966
0.184641 -0.150059
-0.104212 0.808314
0.148899 -0.704746
-0.094056 -0.122984
0.258012 -0.815480
0.110516 -0.086851
0.186637 -0.238251
0.475359 -0.145038
-0.555770 0.397711
-0.368633 0.307643
0.141157 -0.243270
0.099537 -0.101558
0.257911 -0.135281
-0.420965 0.090139
0.337605 0.100439
-0.925378 -0.016801
-0.015794 -0.008551
-0.176791 -0.090966
0.041240 -0.151126
0.304108 0.166790
-0.054027 -0.092611
-0.002519 0.137146
-0.541969 -0.571397
-0.123901 -0.148490
-0.108029 -0.228030
-0.028771 -0.562288
0.141980 0.513899
0.058714 -0.090398
-0.069600 0.096623
-0.114352 0.170618
-0.026382 -0.211866
-0.125018 0.307916
0.255890 -0.391171
-0.185591 0.507021
0.012237 -0.046455
0.022841 0.101283
-0.102485 -0.161141
-0.075435 0.073476
0.287317 -0.261805
-0.155224 0.149195
-0.356810 0.098006
-0.062985 0.074882
0.145422 0.065301
0.274035 -0.053647
0.068771 0.002847
0.050851 -0.107850
0.190018 0.165062
0.158655 0.177735
-0.060122 0.045383
-0.315851 -0.278448
-0.070361 -0.205722
0.308064 0.521068
0.037306 -0.148326
0.039846 0.028681
-0.045305 0.199218
-0.026874 -0.195541
-0.086339 -0.329650
0.192984 -0.598631
0.146500 -0.421119
0.284134 -0.335997
0.189341 -0.236914
-0.421499 0.487191
0.139160 -0.182241
0.316902 -0.392223
-0.126945 0.102555
0.065899 -0.055143
0.089937 0.089821
-0.177213 0.060153
-0.746932 0.113351
0.085400 -0.061880
-0.072119 -0.066623
-0.110536 -0.081894
0.121169 0.044338
-0.366537 -0.108002
-0.181162 -0.081851
-0.417000 -0.240326
-0.170565 -0.316696
-0.104832 -0.088620
0.447193 0.436467
-0.094327 0.034291
0.029360 -0.203166
-0.230750 -0.249949
0.093954 0.542755
-0.112117 0.504865
0.076650 0.225362
0.137524 -0.415895
0.109358 -0.120879
0.018777 -0.052464
-0.160257 0.090526
0.205112 -0.249903
0.235757 -0.329421
-0.472411 0.469807
0.181425 -0.150222
-0.020990 0.192008
-0.071034 -0.107638
0.122803 0.080875
0.525879 -0.218985
-0.150137 0.073974
-0.002580 -0.100476
-0.264096 0.049715
-0.220254 -0.085353
-0.209491 -0.068960
-0.029021 -0.036163
-0.194686 -0.289446
-0.100116 -0.144471
0.239601 0.272532
-0.037769 0.051871
-0.138307 -0.252017
-0.047840 0.009226
0.021409 0.148641
0.034770 -0.152726
0.045113 0.227117
0.000140 0.033737
0.053664 -0.080781
-0.307520 0.430211
-0.079561 0.136422
0.235349 -0.411108
-0.069829 0.153635
0.126378 -0.046736
0.167698 -0.078873
0.009715 0.055794
0.392542 -0.249936
0.240377 -0.025401
0.346352 -0.150572
-0.122621 0.065201
-0.211114 -0.009158
-0.223771 -0.014655
-0.357885 -0.045646
0.255562 0.000698
-0.354422 -0.139862
-0.116478 -0.331796
-0.322069 -0.150197
-0.062475 -0.234844
-0.101247 0.115375
0.108628 0.176329
-0.014283 0.035727
0.104217 0.363129
0.100386 0.192874
-0.020144 -0.208644
0.077820 -0.207217
-0.165430 0.221712
0.070621 -0.162121
0.195182 -0.489796
-0.283225 0.504857
0.291884 -0.287735
0.524931 -0.424649
0.083732 -0.056533
0.016325 -0.048531
-0.600598 0.203921
-0.255360 0.048071
0.011224 0.001127
-0.179926 0.054498
-0.180726 0.036799
-0.172269 -0.020893
-0.073734 -0.014363
-0.220553 -0.184420
0.094231 0.071898
0.088843 -0.029528
-0.356912 -0.191067
0.130624 0.123521
-0.255769 -0.238986
0.182967 0.315774
0.308621 0.591645
-0.126188 -0.329538
0.162345 0.074793
-0.177955 0.004789
0.141647 0.080734
-0.188674 -0.254520
0.114969 0.182381
0.008515 -0.309644
0.072459 0.141589
-0.141983 0.191314
0.197240 -0.242109
-0.079521 0.124033
-0.222648 -0.036327
0.086810 0.063956
-0.142415 -0.060631
-0.018185 0.135135
0.170076 -0.033015
0.086442 0.026798
0.134056 0.021617
0.043829 -0.087104
-0.019371 0.024891
0.094585 -0.031161
0.003340 0.087570
-0.019549 0.014348
0.021702 0.046273
-0.087455 -0.051513
-0.110047 -0.362548
-0.071859 -0.059400
0.079386 -0.107032
-0.145296 -0.162656
0.075522 0.187777
-0.127832 -0.428256
0.092515 -0.021134
-0.104859 0.086979
0.182364 -0.066228
0.015071 -0.195102
0.109921 0.008926
-0.088298 -0.059275
-0.267673 0.257313
-0.032171 -0.004634
-0.041834 -0.021437
-0.238621 0.251828
0.095250 -0.135276
0.003387 0.182163
-0.007547 -0.192102
-0.268801 0.112914
0.128177 -0.148083
0.073254 0.109608
-0.348994 -0.158221
-0.293400 -0.113720
0.094875 0.142980
0.317115 0.191795
0.009729 0.066048
-0.182938 -0.436583
-0.072278 -0.050767
0.129722 0.238423
-0.035413 0.124217
0.055767 0.391361
-0.044083 -0.214606
0.062772 -0.194802
-0.024379 0.178052
0.108621 -0.154823
0.030037 -0.131702
0.014424 -0.072641
0.213000 -0.321896
0.222262 -0.345782
-0.020746 0.138338
-0.474434 0.236865
-0.415609 0.389739
-0.146584 -0.052175
-0.177389 0.125435
0.051573 -0.111067
0.358599 -0.010781
-0.027624 -0.000210
-0.174474 -0.040957
0.033460 0.096816
-0.171126 -0.096352
0.039425 0.042899
0.211858 0.129059
-0.148205 -0.242054
-0.017327 0.045814
0.091102 0.038630
-0.228525 -0.230577
0.103133 0.240331
0.011482 0.151832
-0.010389 -0.090550
0.099036 0.083399
-0.064426 -0.034666
0.062412 0.236044
-0.074150 -0.250985
0.132413 -0.077652
-0.298798 0.227829
0.111137 0.032635
0.283126 -0.345780
0.229981 -0.043104
0.011487 -0.075566
-0.190444 0.141309
-0.060009 -0.086167
0.107228 0.005173
0.222737 -0.059390
-0.117197 0.031266
-0.093885 0.054633
-0.042600 -0.063250
-0.685367 -0.149814
0.307521 -0.032442
0.130712 0.224631
-0.239097 -0.399023
-0.206109 -0.054794
-0.340084 -0.475533
0.068012 0.140687
0.250901 0.796739
0.122019 -0.120828
-0.058820 0.340854
0.190386 0.166193
-0.094706 -0.733851
0.073738 -0.161389
0.014981 -0.226535
-0.054311 -0.056272
0.142824 -0.002300
0.091208 -0.336290
-0.362584 0.712038
-0.386022 0.124437
0.127400 0.073976
-0.275159 -0.031218
0.213373 -0.018588
-0.014589 -0.057395
-0.189862 0.091243
0.014638 0.016911
-0.280396 0.007542
0.238329 0.037765
0.238751 0.029217
-0.071822 -0.039028
0.003724 -0.066750
-0.319586 -0.130749
0.004614 -0.075713
-0.195180 -0.019140
0.068695 -0.088301
0.039022 0.238583
0.070288 -0.108601
-0.006748 -0.006877
0.006081 0.210700
0.032586 0.204311
-0.129617 0.089424
0.009868 0.329776
-0.113768 0.123979
0.205142 -0.247920
-0.010323 0.074133
0.002055 -0.068533
0.124190 -0.027106
0.005235 -0.192071
0.750946 -0.374999
0.198800 -0.183678
-0.337563 0.177305
-0.172571 0.106202
-0.232528 -0.047516
-0.230166 0.125306
-0.191584 -0.211869
0.016167 0.118197
0.151252 -0.063047
0.025850 0.065916
0.047433 0.134900
0.023876 -0.120433
-0.232765 0.057415
-0.031921 -0.488679
-0.426328 -0.282693
0.253304 -0.056090
-0.121240 0.225307
0.102879 0.124712
-0.045904 0.174964
-0.070441 0.242899
0.112937 0.059426
-0.114388 -0.000698
0.223469 -0.056549
-0.045226 -0.219464
-0.049879 0.257925
0.034040 -0.235420
0.039138 0.012955
-0.143747 0.067283
0.402430 -0.183570
-0.031706 0.053231
-0.187499 0.065903
0.013486 -0.005729
-0.250182 -0.020323
-0.369171 -0.056037
-0.433317 -0.074279
0.160592 0.044613
0.186210 0.151493
-0.074520 -0.067374
0.267877 0.281644
0.106167 -0.059117
-0.211689 -0.128425
0.189311 0.019728
-0.176441 -0.047632
0.047627 -0.113562
-0.084864 0.157061
0.031305 -0.024596
0.017760 -0.013516
-0.012689 -0.163203
0.185834 -0.208421
-0.170361 0.043228
0.082310 0.202010
-0.161920 -0.158742
0.101614 0.108215
-0.255941 0.071615
-0.005731 0.163029
-0.056183 0.023134
0.020715 0.008807
-0.076329 0.054045
-0.227900 -0.039132
-0.105302 0.048948
-0.144450 -0.070412
-0.111694 0.055561
0.078709 0.023815
0.421647 0.184385
0.016398 0.015909
-0.364671 -0.279542
0.187263 0.130619
0.181258 0.129390
0.078316 0.131489
0.107310 0.222495
-0.114997 -0.167004
0.047925 0.190349
0.074589 0.260233
0.017969 -0.168768
0.028839 -0.218445
0.063925 -0.387749
0.106258 -0.572294
0.143584 -0.436094
-0.122456 0.141605
-0.145928 0.276190
-0.287532 0.330912
-0.344480 0.435368
-0.079043 0.006760
0.059831 0.030854
0.243577 -0.227564
0.231016 -0.023229
0.009691 -0.078592
0.380230 0.038155
-0.214822 0.015946
-0.157089 -0.032348
-0.287941 0.006408
-0.431238 -0.345440
0.078614 0.198147
-0.167272 -0.382075
0.007865 0.289630
0.348309 0.159027
-0.466790 -0.346705
0.002261 -0.161275
0.070924 0.197818
0.085203 0.313636
0.173642 0.293774
-0.146226 -0.294812
0.119460 0.143218
-0.193742 0.040396
0.254184 -0.508755
-0.248880 0.406881
0.019495 0.059843
0.334652 -0.325078
-0.185018 0.087344
0.164179 0.008702
-0.590095 0.180894
-0.331827 0.297916
0.375633 -0.283052
-0.078592 0.135943
-0.188377 0.012895
-0.062663 0.034587
-0.353281 -0.002498
-0.056872 -0.104707
0.177762 0.108800
0.409808 0.062693
0.136076 0.213131
-0.052220 -0.125157
-0.228338 -0.039709
0.062299 -0.056118
0.258867 0.541830
0.058862 -0.167565
-0.098182 -0.106037
0.093873 0.042563
-0.114929 -0.168292
0.016199 -0.101323
-0.030998 -0.217394
-0.019753 0.162825
-0.059965 0.295354
0.105440 -0.198230
-0.001767 0.103773
-0.039979 -0.043050
0.219568 -0.212852
-0.228900 0.105758
-0.118878 0.074790
0.105965 -0.016152
-0.087516 0.053354
0.214893 -0.002484
0.186085 -0.023680
-0.309060 -0.054000
-0.070500 -0.006432
-0.127447 -0.122875
-0.334836 -0.018239
-0.043822 -0.102130
0.022775 0.187404
-0.053960 -0.160365
-0.206872 -0.145952
0.025034 -0.103248
0.224084 0.352360
0.085074 0.249634
0.043248 0.091098
-0.041212 0.310099
0.020111 -0.244456
-0.028908 -0.267458
0.036361 0.231511
-0.008091 0.061549
0.002690 0.082225
0.027029 -0.121604
0.359050 -0.530109
-0.072306 -0.012863
-0.226497 0.241341
-0.218014 0.137377
0.111085 0.017907
0.177352 -0.049127
-0.456918 0.090108
-0.175451 0.066713
0.025593 -0.158658
0.163998 0.153357
-0.026734 -0.179381
-0.044227 0.225941
0.097784 -0.105901
-0.242107 0.019125
-0.304184 -0.344343
0.028856 -0.032693
-0.120224 -0.074152
0.064063 -0.149976
-0.084003 0.300133
0.163197 -0.014824
-0.071520 0.616792
0.164036 -0.123099
-0.093025 -0.210507
0.112632 0.072824
-0.041978 0.084857
-0.067891 0.143796
-0.180055 0.328411
-0.062873 -0.012144
-0.059429 0.102327
-0.093857 0.122703
0.132101 -0.059303
0.044163 0.027379
0.025042 -0.049735
0.053142 -0.024035
0.005153 -0.072628
0.057618 0.000642
0.053594 -0.005199
0.124183 0.079919
0.067263 0.027333
0.137348 0.095152
-0.256953 -0.202319
-0.012171 -0.012014
-0.012067 -0.095014
-0.266565 -0.250969
0.184437 0.314212
0.061775 0.108034
-0.106580 0.010487
0.128768 -0.007957
-0.089969 0.050185
0.182084 -0.140780
-0.145441 0.246306
0.133717 -0.143524
-0.058567 -0.359164
-0.049325 0.220388
-0.072384 0.055530
0.393570 -0.507864
0.009512 0.093940
0.081007 -0.090217
-0.198440 0.192854
-0.590909 0.224600
0.160334 -0.058212
-0.175065 -0.022124
0.191166 0.039216
-0.089359 -0.001592
-0.238701 0.075338
-0.592600 -0.142095
-0.363778 -0.104430
0.309104 0.065185
-0.063421 -0.088422
0.205945 0.208462
-0.139476 -0.175901
-0.022419 0.194091
0.541768 0.644609
-0.207413 -0.202513
0.068692 -0.180227
0.117372 0.471279
0.002635 -0.119902
0.010695 -0.044330
-0.133553 0.081828
0.060057 0.031410
0.008442 -0.393264
0.282559 -0.282516
-0.060647 0.039524
0.195119 -0.120203
-0.371463 0.335051
-0.237097 0.138835
-0.511287 0.282388
-0.602538 0.274656
-0.037463 0.021856
0.172706 0.050617
0.292072 -0.053420
0.217496 0.081517
-0.046619 -0.114557
-0.017458 0.000450
-0.001811 -0.063257
0.320720 0.142232
0.107699 0.191910
0.105578 0.030750
0.114327 0.310138
-0.181080 -0.434285
0.030610 0.102635
0.241079 0.327618
-0.058068 -0.286956
-0.137601 -0.129513
0.055012 -0.111443
-0.179082 -0.269496
0.161350 -0.118084
-0.111791 0.121800
0.252668 -0.286150
-0.163459 0.325148
-0.300814 0.378775
-0.048903 0.084800
-0.071551 -0.139568
-0.018233 0.125627
-0.280268 0.072356
0.268834 0.042993
-0.262379 0.056492
0.223523 0.017629
-0.142404 -0.072593
-0.198150 -0.025667
-0.217870 -0.128342
0.291171 0.165860
-0.031575 -0.058661
-0.059411 0.159565
0.476251 0.223760
-0.082961 0.049445
-0.149640 -0.405995
0.304476 0.465817
0.003157 -0.100478
-0.030197 0.024836
-0.203825 -0.356507
0.016058 -0.064748
-0.070737 0.593260
0.184330 -0.205938
-0.033604 -0.198378
0.479104 -0.966918
-0.281247 0.248269
-0.070714 0.268832
-0.479761 0.341512
0.098966 0.011224
-0.104420 0.037159
-0.081305 0.182877
0.217385 -0.057832
-0.423303 0.133752
-0.064873 0.025819
-0.492341 -0.080869
-0.574347 0.050682
0.230839 -0.040421
-0.072169 0.102248
-0.112310 0.006025
0.109340 0.077904
0.195243 0.121791
-0.197547 -0.304728
-0.253804 -0.263200
0.542328 0.583902
-0.051963 0.048272
0.050325 0.279651
0.175179 0.580053
-0.001149 0.162540
0.160653 0.485052
0.039555 -0.169237
0.021518 0.262762
0.049354 -0.245977
-0.068233 -0.159226
-0.341064 0.683508
-0.046199 -0.120083
0.288409 -0.156576
0.210905 -0.179910
0.243509 -0.061605
0.073533 -0.048232
0.335851 -0.241641
-0.349593 0.066732
-0.273587 -0.043227
-0.484647 0.101129
0.171222 0.049877
0.710490 0.202625
0.195924 0.077087
0.160185 0.030238
-0.530357 -0.402333
0.164508 0.077101
-0.628089 -0.658198
0.096847 0.341334
0.203619 0.237918
-0.175155 0.057050
0.239476 0.278114
-0.136043 -0.488817
0.082373 -0.232913
0.033891 -0.425328
-0.068596 -0.201576
-0.205216 1.013741
-0.120597 -0.093550
-0.306013 0.738662
0.089541 -0.018392
0.279622 -0.303505
0.237612 -0.020854
0.026618 -0.150627
-0.667658 0.462159
-0.234408 -0.041233
-0.859544 0.253421
0.172682 0.070592
0.351377 -0.099134
0.301536 0.276963
0.244992 -0.131881
-0.222307 0.067038
-0.642418 -0.436677
-0.631635 -0.348122
-0.023221 0.013751
0.764256 0.567447
-0.290168 0.055644
0.547542 0.613651
0.019426 0.114401
0.074037 -0.078427
0.067017 -0.418896
-0.183079 -0.358501
0.245941 0.828211
-0.320202 0.328195
-0.021915 0.611163
-0.367207 1.101040
0.339447 -0.716882
0.341021 -0.189492
0.240683 -0.473600
-0.155581 0.485173
-0.414814 -0.005667
-0.230473 0.167043
-1.583411 0.804676
0.731828 -0.308947
0.364088 0.113607
1.435013 -0.284237
-0.423936 0.224554
-0.563762 -0.194671
-0.148797 -0.145163
-1.682918 -0.528984
0.928888 0.228636
0.149597 0.383846
1.379585 0.935982
0.690971 0.928381
-0.164876 -0.376976
0.683261 0.705786
-1.449540 -2.819211
0.379687 0.495094
-0.359237 -0.575243
0.263698 2.055085
-0.095794 1.893321
-0.003796 -0.749828
-0.168232 2.265056
1.124175 -3.461322
0.248940 0.032973
0.526890 -1.132596
-0.723954 0.722000
-2.522497 2.493474
1.079924 -1.224052
-2.679152 2.094538
3.551959 -1.720313
0.567325 0.067980
1.778381 -0.376193
-0.225755 -0.225628
-6.353900 0.109172
2.725525 -0.200149
-3.955204 -0.656453
5.566660 1.965284
2.363682 1.317165
2.042646 1.662219
2.317960 1.300827
-9.428072 -8.963996
0.220847 -0.633909
-4.661648 -7.204326
2.446228 5.532584
3.172526 8.807128
1.446054 9.240950
2.566418 15.826948
-0.424934 -21.250905
1.498218 -7.844455
5.859415 -24.717597
0.698920 -4.274886
-5.622599 12.500090
-11.776266 15.608467
-42.331590 55.172639
14.055008 -14.394458
12.566523 -8.779252
76.277257 -45.399129
38.270710 -20.914709
37.685913 -11.271024
144.892796 -43.294099
-720.278263 81.373564
