12345.510733 8714.552704
-3123.211452 -4223.774642
-2593.628646 1690.258911
-758.336815 200.625774
-994.972596 -577.004890
-67.555884 -159.296039
317.533969 -36.642575
-153.559028 -265.861922
-101.029291 -69.160989
-82.233186 160.571232
106.107090 12.299270
-24.089080 -156.850592
-222.534786 42.494130
46.796747 81.367227
-1.313664 -44.406652
53.903705 -29.914699
51.473961 -21.369015
58.033038 17.767582
91.235620 44.551137
63.202536 -25.448705
-11.815930 -38.051628
-12.108625 -33.675670
33.079718 -48.696867
46.831516 -70.064354
39.433212 -66.789925
28.919820 -7.934208
6.589080 9.621946
26.415712 -10.067922
-13.468633 -5.647576
-6.605836 -44.190083
15.138531 -27.076913
76.688159 -29.543978
26.084397 -44.365506
30.791627 -29.165644
35.696517 -20.243153
-11.322987 -18.074779
25.952431 -62.249352
5.321417 -33.438461
-9.107165 -47.363118
30.987596 -42.481520
9.625670 -6.706397
-11.294501 -40.545722
26.570273 -1.212277
-1.886587 -16.000188
21.838155 -34.354392
29.715770 -28.339318
8.048676 -33.219037
29.690775 -47.908033
-6.002161 -30.151462
-3.989299 -48.270807
-1.258272 -20.274057
-10.799289 -26.797371
17.273916 -23.021471
-7.165645 -24.612342
23.582556 -21.169570
2.734091 -36.507384
8.493916 -35.248775
-10.893416 -35.868170
7.345883 -41.150279
-14.818852 -12.968172
4.952567 -42.749609
-5.100630 -10.732548
-10.865680 -23.551461
8.543827 -26.374683
-10.816636 -26.237106
6.568706 -29.498287
-13.034375 -28.381082
11.353141 -23.056382
-16.425049 -25.778115
0.989995 -26.740086
-7.826680 -26.119611
-11.923875 -14.174955
-1.232717 -35.358304
-10.563685 -20.489312
-3.446791 -23.635244
-8.313586 -32.502287
-4.360966 -13.804145
-11.483112 -29.376343
-19.539740 -19.264747
-3.378433 -18.637996
-22.200307 -16.768139
-4.144050 -18.906137
-6.952393 -18.176462
-7.575863 -17.249881
-1.653070 -21.324720
-9.171940 -19.041451
-10.969577 -22.190035
-13.002776 -19.822078
-15.675642 -19.102421
-10.983532 -19.454788
-12.020055 -15.536441
-10.428177 -14.545841
-9.161631 -10.032706
-11.649479 -18.242106
-12.068710 -7.861461
-13.177100 -17.526239
-11.323920 -13.072349
-8.380501 -14.515212
-12.780607 -13.311857
-10.895018 -11.155669
-10.860388 -10.689991
-17.285806 -12.015231
-12.278031 -11.263763
-11.143603 -12.273471
-9.783484 -8.132333
-10.959498 -10.497327
-8.477631 -10.657501
-15.932553 -5.333883
-11.077090 -14.756808
-14.172099 -7.993892
-11.620450 -10.219397
-12.520428 -5.000273
-11.985608 -6.276990
-7.913690 -4.372228
-13.457766 -6.962911
-8.326955 -5.278708
-10.875612 -4.925008
-12.454168 -7.827201
-7.653378 -6.205611
-12.310213 -5.161734
-10.212639 -4.892760
-7.746292 -3.057825
-13.417090 -5.314004
-7.258294 -3.481692
-10.364065 -4.026741
-9.001172 -2.932918
-8.100016 -3.935120
-9.972393 -3.030304
-9.507384 -1.725421
-7.604412 -4.393545
-8.773218 -0.078576
-9.775632 -4.043275
-7.975709 0.104066
-4.449408 -1.368448
-5.486629 -2.275300
-5.202416 -0.683370
-6.649300 -3.836885
-4.413203 -2.631775
-7.730827 -2.296810
-5.448629 -4.836295
-6.107783 -0.457433
-5.910592 -2.731296
-4.731666 -2.698738
-4.602647 0.029301
-5.403738 -0.807755
-5.535283 -1.330167
-4.612407 -1.067844
-5.073551 -0.636140
-3.397417 -0.354868
-3.642224 -0.634547
-2.553080 -1.581878
-3.424700 0.010813
-2.919326 -2.333763
-3.206067 -1.391234
-3.044299 -0.484215
-2.423964 -2.193092
-2.482507 2.212775
-1.098241 -2.020745
-3.020650 0.272078
0.553508 -2.290303
-4.279485 -2.269560
-1.312808 -2.815133
-1.478770 -3.299845
-1.684758 -1.622276
-1.661580 0.165805
-3.354794 -1.301648
-1.389175 0.648666
-3.583786 -3.840998
0.813833 -1.189507
-1.287918 -1.925040
-0.240607 -3.330557
-0.379391 -3.080688
-0.783856 -1.951532
-1.759904 -3.202259
-1.430890 -2.354606
-0.021655 -2.628114
-1.007414 -3.680311
1.805404 -3.385452
-1.020379 -3.055867
0.312502 -3.227050
-0.496529 -3.937616
-1.317261 -4.185044
0.339907 -4.114433
-1.277339 -4.410150
0.240892 -3.587784
-0.204572 -4.180871
1.638166 -3.025048
-0.378694 -5.033503
0.227826 -3.591724
0.865708 -5.826980
-0.927754 -3.426437
0.206485 -6.540710
-1.474681 -5.056390
-0.196397 -4.262609
-0.824947 -5.035088
-0.673199 -4.778212
-1.394888 -3.766260
-1.771167 -6.567287
0.252252 -4.256590
-0.995845 -5.909346
-1.810757 -5.954389
-0.719301 -5.802295
-1.832325 -6.114078
-1.303224 -6.384845
-1.810058 -6.100659
-2.302427 -6.424316
-1.088371 -5.497748
-2.040905 -7.185512
-2.738569 -4.001802
-1.396564 -7.017101
-2.747454 -5.303193
-1.418140 -6.353396
-2.185848 -6.139051
-2.223067 -6.862579
-2.135820 -5.081368
-2.776059 -5.752263
-2.757565 -5.362178
-2.628667 -5.704711
-3.041617 -5.461843
-2.071759 -5.275735
-2.917132 -5.612194
-3.131453 -6.864336
-2.321767 -6.158715
-4.670401 -6.361339
-2.948159 -5.334059
-4.011519 -5.559085
-2.882797 -4.434075
-4.259980 -5.839843
-3.528330 -4.908545
-3.449547 -6.231627
-3.525718 -5.302985
-4.279460 -5.406178
-3.784521 -5.469115
-3.775510 -4.302461
-5.084017 -5.896973
-3.792822 -4.495534
-5.167754 -4.742411
-4.999122 -3.774222
-4.138147 -4.623119
-4.867132 -4.043214
-4.329747 -5.571210
-4.207528 -5.587931
-5.330043 -4.589645
-4.931598 -4.955524
-4.893432 -4.450586
-5.696072 -4.362921
-4.638074 -4.324689
-5.882069 -3.963402
-4.835061 -3.332233
-4.825464 -2.738143
-4.493166 -2.536863
-3.844249 -2.629385
-5.435119 -2.521022
-4.710613 -3.468700
-5.577041 -4.049973
-4.911625 -1.953850
-5.142191 -3.688401
-4.823716 -1.342502
-5.286176 -2.187200
-6.780670 -1.364118
-3.819833 -2.186522
-4.816786 -1.433412
-5.120907 -1.496786
-4.307686 -1.654638
-4.538014 -1.765544
-5.049346 -1.542669
-4.427772 -1.983860
-4.001217 -0.103511
-5.083958 -1.272693
-2.648731 0.061166
-4.322693 -1.080146
-3.087119 -0.945522
-3.962785 -0.493484
-3.154351 -1.121458
-4.203196 0.114485
-3.687982 -0.500142
-4.313953 0.196482
-4.779322 0.262792
-3.600634 0.671362
-3.262680 0.207940
-3.080689 -0.596413
-2.455770 -0.598657
-3.011331 0.310682
-3.936597 -0.899257
-2.999736 0.033938
-3.256739 -0.887880
-3.600565 -0.246527
-2.395396 -0.430586
-1.937825 0.476761
-2.724779 0.432212
-2.494813 0.417286
-2.290842 0.401033
-2.206096 0.339754
-2.942050 0.234725
-1.544815 -0.003056
-2.499447 1.250916
-2.108178 -0.488903
-1.820739 0.764177
-1.359853 -0.168499
-2.130260 0.408726
-1.231310 1.690343
-1.855215 0.252983
-1.274922 0.715294
-1.101714 -0.335751
-1.485328 0.191241
-0.586364 -0.260510
-1.126181 -0.384505
-1.511204 0.676131
-0.714090 -0.307768
-0.627685 -0.096508
-0.231420 -0.325444
-0.508454 -0.335180
-0.242498 -0.433360
-0.077640 -0.245576
-0.333049 -0.420160
0.794460 -1.807261
-0.440641 -0.837467
0.205948 -1.382183
0.189965 -1.352067
-1.320541 -1.082523
1.290116 -0.769086
-0.285027 -1.666764
0.682931 -0.546284
1.107380 -1.183039
-0.189015 -1.186485
0.529899 -1.876707
0.216900 -1.964860
0.175092 -1.930252
-0.284371 -2.035731
0.014017 -0.759810
0.013866 -2.415230
0.906880 -1.775241
0.940973 -2.758251
0.299937 -2.567800
0.054879 -3.130762
0.184705 -2.621310
0.847809 -3.237506
0.110171 -3.238866
-0.280953 -2.673500
-0.154343 -2.979527
-0.197008 -2.947927
-0.080596 -2.854369
0.321283 -2.587367
0.258414 -3.183941
0.022267 -2.515828
0.320011 -3.778744
0.671571 -4.057245
0.235573 -4.178330
0.486197 -3.956525
-0.238519 -3.718024
0.411958 -4.163598
-0.738170 -4.056144
-0.267601 -3.839025
0.086747 -3.803688
-0.256983 -3.999680
-0.907013 -3.348990
-0.118136 -4.417438
-1.044828 -4.512976
-0.833436 -3.560697
-0.860002 -4.253139
-1.640907 -3.671674
-1.066763 -4.331215
-1.162470 -4.654327
-0.825193 -4.390640
-1.920797 -4.801960
-1.215982 -4.768386
-1.946239 -4.813546
-1.680949 -3.818122
-1.569941 -5.169493
-2.523403 -3.800732
-1.784652 -4.558532
-2.455221 -4.556960
-2.301068 -3.974520
-2.872201 -4.046165
-2.239651 -4.359998
-2.953107 -4.200345
-2.063734 -4.610328
-2.561625 -4.851942
-3.199476 -3.737234
-3.457320 -5.141545
-2.959405 -3.856482
-3.177256 -4.498049
-3.547458 -3.710099
-3.015024 -3.700952
-3.129594 -4.082159
-3.044844 -3.585050
-3.761669 -4.748308
-3.730707 -3.498249
-3.634955 -3.846207
-3.560193 -3.286848
-4.350210 -3.462499
-4.559195 -3.389165
-4.206077 -3.697092
-4.701983 -3.108243
-4.005978 -4.001762
-4.177757 -3.103460
-3.742777 -3.596685
-3.905751 -2.598581
-4.385262 -2.604235
-4.097125 -3.565942
-5.021190 -2.409961
-4.543083 -2.968183
-4.811828 -2.602345
-4.548882 -2.298510
-4.499493 -2.287087
-4.239270 -1.886475
-4.264654 -2.574852
-4.719935 -1.778845
-4.417198 -1.946338
-4.274537 -1.306566
-4.616150 -1.253880
-5.328413 -1.830314
-4.534111 -1.218150
-4.822352 -2.204627
-5.184498 -0.301535
-4.025275 -1.490613
-4.568402 -1.102233
-5.094606 -1.031774
-3.889873 -0.663475
-4.410746 -0.294549
-5.317998 -1.478578
-4.139206 -0.335906
-4.628025 -0.765628
-4.177331 -0.643920
-4.186267 -0.459229
-4.124022 -0.080418
-3.824870 -0.065327
-4.304735 -0.245356
-3.467613 0.304258
-4.164365 0.472554
-4.341046 0.315353
-4.185395 0.105542
-4.368074 0.383748
-3.860412 0.717306
-3.388163 0.820752
-3.482219 1.088634
-4.013065 1.084645
-2.406225 -0.009164
-2.871435 1.293486
-3.097350 0.385588
-3.863246 1.058846
-2.858422 1.282253
-3.329555 0.968183
-2.337371 1.522258
-3.522193 0.417187
-2.907469 0.653718
-2.750915 0.761392
-3.084598 0.924421
-2.783587 0.994952
-2.693787 1.293751
-2.254387 0.911824
-2.064836 0.260415
-1.430453 1.532003
-2.306450 0.925154
-1.776400 1.286602
-1.626612 1.241479
-1.557654 1.235492
-1.024806 1.273253
-0.927273 1.092795
-1.150165 1.190185
-1.793458 0.582072
-1.047201 0.990784
-1.542824 0.996892
-1.930215 1.059764
-0.640299 0.873080
-1.085467 0.919936
-0.644890 0.858982
-0.824482 0.973733
-1.130934 0.964177
-1.420540 0.206171
-0.502938 0.331241
-0.540229 -0.064113
-0.465529 0.195301
-0.137821 0.394192
-0.380666 -0.016196
0.050748 -0.378972
-0.209363 0.523300
-0.229467 0.180876
-0.360774 0.185956
0.628295 -0.115917
-0.166026 0.092995
0.168522 0.101977
0.110184 -0.310441
-0.431852 0.044498
-0.004307 0.207714
-0.629033 -0.365391
-0.187754 -0.635341
-0.017843 -0.342551
0.937466 -0.545679
0.161761 -0.381298
-0.293637 -0.188052
0.182060 -0.988326
0.248470 -0.636147
0.189614 -0.915464
0.126858 -1.529067
0.342575 -0.917277
0.288832 -1.097796
0.380897 -1.374078
-0.180090 -1.002601
0.105151 -1.669680
0.055707 -0.790875
0.075877 -1.566572
-0.453778 -1.387073
-0.623573 -1.546115
-0.282682 -1.853110
-0.470040 -2.052864
-0.607370 -1.609494
-0.606998 -2.034232
-0.214683 -2.196733
-0.772643 -2.438395
0.213248 -1.924460
-0.743100 -2.273476
-0.691244 -2.236333
-0.310273 -1.943561
-1.069538 -2.440309
-0.920871 -2.438525
-0.485349 -2.094764
-0.728417 -2.183615
-0.568401 -2.953592
-0.720036 -2.166373
-1.351016 -2.436172
-1.056154 -2.663004
-1.285933 -2.246005
-1.117831 -2.556542
-0.934530 -2.755000
-1.103487 -2.322845
-1.194725 -2.760201
-1.443312 -2.688732
-1.142509 -2.771854
-1.914810 -2.644302
-1.547850 -2.479796
-0.840247 -2.675405
-1.691676 -2.901506
-1.132575 -2.721780
-1.603433 -2.954691
-2.260260 -2.299435
-1.901536 -2.815906
-2.101933 -1.936475
-2.561605 -2.107565
-1.852808 -2.349705
-1.932770 -2.240007
-2.539385 -2.227032
-2.570491 -2.299571
-2.297099 -2.461436
-2.206069 -1.767673
-2.441872 -1.923326
-2.740458 -2.009313
-2.405726 -2.303377
-3.088154 -2.135740
-2.665736 -2.194713
-2.626303 -1.519529
-3.290662 -1.988438
-2.977374 -2.414717
-2.381514 -1.695669
-2.789296 -1.917454
-2.545847 -1.971757
-2.927545 -2.101314
-3.234683 -1.873829
-2.738717 -1.679472
-2.931593 -1.555914
-2.961626 -1.622123
-3.283322 -1.908462
-2.901287 -1.456816
-3.051075 -1.029900
-3.370775 -1.392323
-3.062643 -1.605853
-3.382318 -1.243173
-3.107834 -0.475405
-3.088817 -1.152557
-3.591616 -0.182719
-3.259419 -1.035781
-3.215310 -0.566066
-3.214210 -1.483341
-2.997899 -0.664739
-2.900177 -0.457540
-3.262632 -0.931396
-2.957850 -0.624902
-3.201050 0.241384
-2.938924 -0.131173
-2.938986 -0.551065
-2.914225 -0.061111
-2.518037 -0.430293
-2.546000 -0.139047
-2.905403 0.492882
-2.924420 -0.187388
-2.730492 -0.035761
-2.565704 0.024092
-2.228025 -0.162103
-2.996860 -0.038180
-2.215699 0.016126
-2.455521 0.109291
-2.227291 -0.134867
-3.066524 0.334644
-2.653124 -0.140638
-2.415008 0.565912
-2.365360 -0.403838
-2.474981 0.503907
-2.160039 0.452544
-2.405172 0.530932
-2.226890 0.415444
-2.176403 0.664038
-2.454413 -0.046472
-2.308944 0.402684
-2.050579 0.738326
-1.749054 0.432348
-1.440339 0.778994
-2.096752 0.591101
-1.523232 0.168366
-1.366405 0.552066
-1.924475 0.556368
-1.137396 0.542704
-1.252671 0.247059
-1.419942 0.649067
-1.440903 0.761626
-1.638528 0.244365
-1.344596 0.876676
-1.048743 0.342262
-1.703947 0.483428
-0.862822 0.497859
-0.664830 0.840287
-0.962249 0.317863
-1.137836 -0.012629
-1.000387 0.505572
-0.647127 0.202485
-0.762717 -0.150278
-1.199420 0.307171
-0.936209 0.229134
-0.917267 -0.195049
-0.606096 0.190787
-0.716383 0.190717
-0.699331 0.608813
-0.280496 -0.037774
-0.878819 0.189943
-0.627798 0.277149
-0.432028 -0.625929
-0.420024 -0.139330
-0.240613 -0.096412
-0.343781 -0.455418
-0.560713 -0.153601
-0.370709 -0.566579
-1.003555 -0.634387
-0.414286 -0.552544
-1.262032 -1.012174
-0.695377 -0.584706
-0.599686 -0.521632
-0.637038 -0.809507
-0.517440 -0.704353
-0.586134 -1.026537
-0.377816 -0.937444
-0.832312 -0.874180
-0.736319 -0.908197
-0.767190 -0.779534
-0.701175 -0.655293
-0.711511 -1.181768
-0.662975 -0.791156
-0.541563 -1.576449
-1.175772 -1.170397
-0.432408 -1.101734
-0.859057 -1.166372
-0.872378 -1.603933
-0.518180 -1.499007
-0.361105 -1.222453
-0.978349 -1.416935
-1.238123 -1.348538
-0.905685 -1.699748
-0.887850 -1.279708
-1.289144 -1.097153
-1.310342 -1.139579
-1.369046 -1.282367
-1.389954 -1.985828
-1.105235 -1.021761
-1.300992 -0.778946
-1.446599 -1.498256
-1.836868 -1.153401
-1.281339 -1.339989
-1.686002 -1.919562
-1.835112 -1.561532
-1.613811 -1.729862
-1.263225 -0.930743
-1.442688 -2.050605
-2.083158 -0.806643
-1.434224 -1.337747
-1.972572 -1.704552
-1.983176 -1.307674
-2.307947 -1.751551
-2.184701 -1.074474
-1.906611 -1.285123
-2.415637 -1.013996
-2.185922 -1.183889
-2.756686 -1.243531
-2.444553 -1.409767
-2.116973 -1.178714
-2.385349 -1.137874
-2.557493 -0.598878
-2.282008 -1.117293
-2.701954 -1.147684
-2.637360 -0.870397
-2.469934 -0.491310
-2.661439 -0.980124
-2.055272 -1.264643
-2.545665 -0.458807
-2.982670 -0.717315
-2.799241 -0.882855
-3.162712 -0.795667
-3.136458 -0.433551
-3.518879 -0.413981
-3.246952 -1.223462
-3.383736 -0.370339
-2.737908 -0.306912
-3.067844 -0.591956
-3.019181 -0.386685
-2.835298 -0.464001
-3.459943 -0.389506
-2.545882 0.077170
-3.267160 -0.002294
-3.048094 -0.393348
-2.605682 0.291245
-2.476583 0.194014
-3.114708 -0.114368
-3.239443 0.293915
-3.171093 0.256969
-3.308240 0.213075
-2.670915 0.774356
-2.922785 -0.151944
-3.043150 0.498362
-3.015511 0.509971
-2.846379 0.276151
-2.831126 0.382478
-2.732111 0.574281
-2.724234 0.231230
-2.429622 0.419118
-2.821867 0.370147
-2.308594 0.383294
-2.577062 0.615511
-2.418702 0.820371
-2.146248 0.810188
-1.788657 0.649208
-2.769096 0.799555
-2.204670 0.863311
-2.129797 1.384285
-1.936409 0.740043
-2.310403 1.203402
-2.210328 1.133327
-2.049120 1.329691
-2.032755 0.998913
-1.884546 1.005238
-1.915557 1.249361
-1.975792 1.134911
-1.706926 0.901658
-1.715826 1.339118
-1.575513 1.362343
-1.602670 0.956549
-1.499420 1.292825
-1.555833 1.239962
-1.883612 1.137126
-1.299723 1.069362
-1.149951 1.127057
-1.219609 1.113873
-1.473848 1.309582
-0.903860 1.193737
-1.493780 0.995080
-0.985290 1.215725
-0.906348 1.269654
-0.944297 1.219509
-0.963582 0.686592
-1.219741 1.363983
-0.903655 1.232763
-1.017522 0.707894
-0.786734 1.391933
-0.597712 0.341753
-0.565418 1.012626
-0.714678 0.584693
-0.271227 0.582118
-0.073434 0.850894
-0.063356 0.975557
0.109507 0.658458
0.385105 0.370748
-0.466641 0.748480
0.029777 0.440878
-0.541394 0.194780
-0.030506 -0.203361
-0.587899 0.230583
-0.291539 0.811723
-0.136880 0.019474
-0.100080 0.251871
-0.070588 0.322990
0.060282 0.539352
-0.527322 -0.009878
-0.541411 -0.265068
0.024831 0.419057
0.006763 -0.290433
-0.437668 0.024258
-0.404877 -0.384867
0.344473 -0.428667
-0.545131 0.107991
0.240704 -0.213415
0.182422 -0.617131
-0.280080 -0.677255
0.419871 -0.120854
-0.118753 -1.071901
-0.176301 -0.489570
-0.102016 -0.989775
-0.448358 -0.083486
0.214684 -0.782763
-0.772469 -0.979508
-0.066648 -0.376592
-0.436259 -0.980575
-0.304349 -1.023148
-0.841561 -1.058812
0.019876 -0.919387
-0.172622 -1.469694
-0.562564 -0.868669
-0.512079 -1.464315
-0.325833 -1.283995
-0.310928 -1.256786
-0.990353 -0.862473
-0.342623 -2.006404
-0.633538 -1.524849
-0.307992 -1.359777
-0.563653 -1.150513
-0.901091 -1.340868
-1.071368 -1.638321
-1.228650 -1.278047
-0.951824 -1.875078
-1.462171 -1.573848
-1.068168 -1.519638
-1.002167 -1.355898
-1.181335 -1.683726
-1.181596 -1.671206
-1.542976 -1.529455
-1.614554 -1.741106
-1.691369 -1.932077
-1.308791 -1.444482
-1.368719 -1.545528
-2.028820 -1.194318
-2.094614 -1.568095
-2.253697 -1.377044
-1.730562 -1.825173
-1.935741 -1.319379
-1.941475 -1.429004
-2.288304 -1.950928
-1.905124 -1.167700
-1.924613 -1.555483
-2.433492 -1.219644
-2.461738 -1.358238
-2.231507 -1.574030
-2.621239 -1.537737
-1.865788 -1.148582
-2.645704 -1.216757
-2.705977 -1.253652
-2.141994 -1.384934
-2.762211 -0.527884
-2.506924 -1.162977
-2.904778 -1.265186
-2.449783 -1.195040
-2.543815 -0.862037
-2.806815 -1.154617
-3.058055 -0.186971
-2.626149 -1.382497
-2.360929 -1.022962
-2.950051 -0.818331
-2.902899 -0.467797
-2.702358 -0.283891
-3.080986 -0.513761
-2.942754 -0.525635
-2.971408 -0.733392
-3.001685 -0.274374
-2.565984 -0.232166
-3.088113 -0.202819
-2.938128 -0.039691
-2.743537 -0.037969
-3.019226 0.037077
-2.990958 0.288438
-2.686611 0.222211
-3.121566 0.171749
-3.042067 0.192380
-2.962383 0.643797
-3.145834 -0.152504
-3.040253 1.188944
-3.197116 0.255520
-2.887510 0.469125
-2.960892 0.635347
-2.938120 0.554124
-3.166505 0.663059
-2.826729 0.259079
-2.691859 0.838897
-2.801072 0.899127
-3.115357 0.768580
-2.751613 0.861739
-2.473531 1.118651
-2.243473 1.103364
-2.490654 1.064171
-2.829603 1.217058
-2.586966 0.801635
-2.325769 1.031677
-2.624659 1.240548
-2.903931 1.245098
-2.399932 1.266470
-2.661398 1.371268
-1.997543 1.497212
-2.510260 1.356837
-1.863291 1.598643
-2.109362 2.065060
-1.832738 1.254312
-1.895426 1.170857
-2.003750 1.882466
-1.525064 1.419259
-1.788669 1.519634
-1.480614 1.482000
-1.938073 1.284325
-1.915971 1.868183
-1.642089 1.425910
-1.870198 1.684328
-1.713728 1.827837
-1.495518 1.643426
-1.611171 1.495947
-1.543779 1.615573
-1.636051 1.644836
-1.340404 1.860920
-0.913297 1.441863
-1.011832 1.746397
-1.127252 1.765983
-0.656652 1.436529
-1.030208 1.726638
-0.781270 1.514845
-1.146768 1.028718
-1.150393 1.524035
-1.091281 1.521097
-0.754731 0.956566
-1.033319 2.075350
-0.425386 1.542540
-0.594129 1.357676
-0.825126 1.524436
-0.345962 1.210869
-0.608693 0.904095
-0.444087 0.925851
-0.699287 1.084219
-0.056375 0.915722
0.342871 1.078181
-0.427004 0.912302
-0.175348 1.228976
0.163381 1.059769
-0.352613 0.856942
-0.389423 0.718727
-0.280070 0.681992
-0.550122 1.096039
-0.333414 0.474990
-0.292111 0.923216
-0.573169 0.583639
-0.206287 0.607108
-0.290952 0.301467
-0.058122 0.049990
-0.124574 0.499918
0.040000 -0.043685
-0.189924 0.551516
-0.757893 0.042788
-0.443050 0.402395
0.149478 -0.181618
-0.489925 0.510943
-0.077927 0.572392
-0.047679 -0.424118
-0.448573 0.116594
0.095327 0.565359
-0.697860 0.212204
-0.199124 -0.061517
-0.033911 0.012254
-0.216458 -0.179250
-0.592296 -0.368679
-0.212546 -0.101449
-0.383349 -0.514124
-0.644450 -0.316248
-0.504541 -0.284652
-0.228109 -0.815486
0.122257 -0.273145
-0.317133 -0.525054
-0.218832 -0.618493
-0.569540 -0.916554
-0.133747 -0.745989
-0.837907 -0.613697
-0.685842 -0.328662
-0.454071 -1.266236
-0.291506 -0.326604
-0.899434 -0.178620
-1.175564 -0.525464
-0.755369 -0.848354
-0.835135 -0.594167
-0.840538 -0.968938
-0.941319 -0.725748
-1.315784 -0.959935
-0.880522 -0.984069
-1.024188 -0.858816
-1.529956 -0.682465
-1.060570 -0.448501
-1.004015 -0.722535
-1.310980 -0.525642
-0.642380 -0.941482
-1.537218 -0.747166
-1.599136 -0.453844
-0.827030 -0.928277
-1.786200 -0.440467
-1.427389 -0.947308
-1.253101 -0.706122
-1.891938 -0.203371
-1.329238 -0.357891
-1.621559 -0.539584
-1.722288 -0.642312
-0.896353 -0.282104
-2.493981 -0.740116
-2.292429 -0.377297
-1.711710 -0.201086
-1.711717 -0.537527
-2.036114 -0.454570
-2.218085 -0.440000
-2.270222 -0.467040
-1.507747 -0.326136
-1.845410 -0.319912
-2.613351 -0.593907
-1.486586 -0.385279
-2.171968 -0.913455
-2.334747 -0.470589
-2.081637 0.310430
-2.088655 0.029362
-1.991893 -0.060393
-1.979826 -0.133347
-2.350618 1.090830
-1.671489 0.054332
-2.057954 -0.116286
-2.199689 0.206990
-2.139319 -0.215096
-2.595446 0.267873
-1.896402 -0.085660
-2.821943 0.345952
-2.110382 0.628004
-2.279619 0.242857
-2.521806 0.773200
-2.382406 0.722076
-1.898719 0.284751
-1.560974 0.912500
-1.658406 0.761614
-1.969228 0.788654
-2.346697 1.402105
-1.366403 0.572168
-1.471921 1.067937
-1.883462 0.562607
-2.295453 1.220857
-1.511074 1.051014
-2.047348 0.892446
-2.069974 1.257573
-1.302939 1.032875
-1.398105 1.000047
-1.815406 0.804450
-1.656012 0.978342
-1.901258 0.866114
-1.763705 1.113639
-2.121107 0.897761
-1.820628 0.780517
-1.696002 0.713714
-1.638180 1.258658
-1.645773 1.136415
-1.684304 1.342868
-1.596152 1.281935
-1.412268 1.102758
-1.988558 1.221557
-0.791882 1.270490
-1.443714 1.366045
-1.189804 1.280026
-1.736102 0.952076
-1.119616 0.933713
-1.629923 1.269052
-1.340813 2.040695
-0.894142 0.872869
-0.945367 0.671693
-1.703988 1.567551
-1.012306 0.727453
-1.197052 0.849545
-1.173477 1.015115
-1.039158 0.798049
-0.840492 1.423554
-0.454109 1.411448
-1.179116 0.324358
-1.187951 1.199065
-1.352841 1.168833
-0.597800 0.702026
-0.964463 1.942320
-0.526183 1.045900
-0.240624 1.222195
-1.040842 0.916701
-0.940689 0.963655
-0.509735 1.391561
-0.543244 0.688198
-0.306530 1.038248
-0.593779 0.659703
0.138110 0.037788
-0.220265 0.913214
-0.797785 1.233211
-0.345160 0.289907
-0.635419 1.730404
-0.583955 -0.240605
-0.740219 0.041259
-0.401715 0.418411
-0.285273 0.678926
-0.688082 0.566662
-0.436498 1.113275
0.325676 0.783253
-0.479740 0.096585
-0.676902 -0.170296
-0.866688 0.397731
-0.071863 -0.106620
-0.341699 -0.021033
-0.297850 0.376588
0.215398 -0.448699
-0.285264 0.421470
-0.160682 -0.019228
-0.654350 -0.044577
-0.970561 0.204685
-0.357605 -0.505213
-0.975763 0.030768
-0.442274 -0.089533
-0.804911 0.092917
-0.340546 0.455365
-0.429528 -0.548127
-0.823658 -0.211194
-1.162767 -0.329302
-0.895949 -0.158530
-0.823062 -0.376008
-0.600566 0.223497
-0.228919 -0.659521
-0.953192 -0.253588
-0.516713 -0.109219
-1.180298 -0.597253
-0.337551 -0.736380
-1.459101 -0.528212
-1.128811 -0.119564
-1.104877 -0.772789
-1.287156 0.022483
-0.770938 -0.032311
-0.921657 -0.099927
-1.300838 -0.115292
-1.496798 -0.426485
-1.331491 0.104800
-1.596268 -0.515308
-0.936888 0.324470
-0.763109 -0.465065
-1.345641 -0.911247
-1.333610 -0.089228
-1.801512 -1.140058
-2.373078 -0.397139
-1.651390 -0.295690
-1.451600 -0.368582
-1.614946 -0.527926
-2.064464 0.039092
-2.023625 -0.096777
-2.246574 -0.446163
-2.110111 -0.421472
-1.840558 0.268638
-1.558336 -0.422885
-2.102060 -0.406685
-2.469368 -0.237174
-2.591203 0.520505
-2.130764 0.252497
-2.352497 0.296817
-2.259258 -0.055564
-2.154228 -0.111621
-1.350379 0.218641
-2.802955 0.701267
-2.545984 0.329143
-1.678779 1.064661
-2.219928 0.211347
-2.785570 0.416556
-2.609029 0.250625
-1.894959 0.360512
-2.959342 0.287979
-2.471173 0.578814
-2.502049 1.111016
-2.155541 0.974045
-2.563539 1.391840
-1.949949 0.336228
-3.213653 1.247594
-2.372585 1.000484
-2.740278 0.933365
-1.869656 0.902950
-1.628453 1.188018
-2.267365 1.057045
-2.328699 1.215686
-1.220629 1.486914
-2.257834 0.943645
-2.050680 1.138332
-1.860252 1.392724
-1.727587 1.439308
-2.267914 1.233248
-1.801490 1.403285
-1.763069 1.141345
-2.153081 1.097424
-2.177122 1.582289
-2.233896 1.930395
-1.991798 1.448466
-2.065082 1.655791
-2.266126 1.247232
-1.967156 1.819571
-1.437469 1.431518
-1.679300 1.895835
-1.663607 1.766880
-1.586265 2.234380
-1.176638 2.269506
-1.209144 2.322421
-1.654936 1.586605
-1.562229 1.995575
-1.262033 2.411353
-0.919849 1.944767
-1.491076 2.046064
-0.957534 2.036085
-1.635735 1.756669
-0.874746 1.548869
-0.644856 1.544980
-0.743823 1.968590
-0.647819 1.819791
-1.084675 1.963056
-0.723782 2.151332
-0.582488 2.575687
-0.270537 2.112178
-0.799361 1.777775
-1.161463 2.054796
-0.598336 2.509414
-0.362492 1.625498
-1.176953 1.921786
-0.944170 2.060259
-1.004731 1.420867
-0.751763 1.945735
0.033416 1.913055
-0.017414 2.169782
-0.192569 1.489841
0.092770 1.302200
-0.890077 1.611568
0.529672 2.392870
-0.502836 1.883022
-0.172554 1.065338
-0.460993 1.866478
-0.518725 1.318156
0.081649 1.802239
-0.237599 1.396775
0.277651 1.155018
0.455265 1.620686
0.302061 1.604777
0.126449 1.394706
-0.133262 1.534840
0.490365 1.981591
0.304340 1.416837
0.394777 0.868162
-0.567466 0.893444
0.746050 1.355514
0.199409 1.231789
-0.121431 0.760386
0.760105 0.687060
0.451929 1.376892
0.233819 0.823754
0.139281 0.828937
0.414611 0.360113
0.495989 0.624537
0.255756 0.514059
0.494178 -0.061470
0.333474 0.218596
0.442957 0.495172
-0.135776 0.317018
0.092776 0.896746
0.484945 -0.365053
0.238572 0.480878
0.168183 0.497063
0.304788 0.091141
-0.669410 0.422713
-0.083865 -0.302431
-0.219132 -0.127244
-0.386435 -0.222557
-0.401601 -0.189172
-0.058702 0.079034
-0.102987 -0.373771
-0.608980 -0.400319
-0.021907 0.151429
-0.046410 -0.435330
-0.324124 0.017310
-0.566843 -0.014186
-0.328761 -0.758161
-0.507576 -0.082155
0.092515 -0.684490
-0.442941 -0.777966
-1.038108 0.291939
-0.551326 -0.221958
-0.733975 -0.145135
-0.612638 -0.498169
-0.830903 -0.895802
-0.935353 -0.368624
-1.081658 0.208099
-0.809822 -0.879155
-1.376026 -1.148019
-0.833986 -0.962256
-0.997207 -0.337655
-1.345171 -0.239385
-0.950835 -1.193909
-1.358465 -0.452824
-0.885101 0.207636
-1.075589 -0.791548
-1.693500 -0.534134
-2.094236 -0.677431
-1.372388 -0.131215
-1.837180 -0.681050
-2.036520 -0.539177
-1.721064 -0.100091
-1.899892 -0.300022
-1.728300 -0.218776
-2.059799 -0.586327
-1.538703 -0.771100
-2.182352 -0.432585
-1.871078 -0.252465
-1.895599 -0.238417
-2.438518 -0.456680
-1.454665 0.385619
-2.161027 -0.363972
-2.234062 -0.325359
-1.609047 0.089661
-1.919892 -0.340397
-2.033701 -0.186582
-1.384518 0.270582
-2.159677 0.098058
-2.478303 0.190167
-2.065717 -0.170126
-2.510111 -0.123589
-2.645036 0.813896
-2.080758 0.398247
-2.522278 0.418264
-2.203675 0.162210
-1.893666 0.411723
-2.271712 0.653366
-2.013776 0.616908
-1.718969 0.493278
-2.968255 0.644300
-2.782084 0.675889
-2.548378 0.547683
-2.726828 1.353141
-1.939196 0.978317
-2.772956 0.983720
-2.695389 1.111391
-2.757036 0.970764
-2.149749 0.984441
-2.561046 1.149873
-1.948541 1.239888
-2.338897 1.320120
-2.464484 1.637809
-2.335176 1.241019
-2.167289 1.039019
-2.171401 1.575656
-2.094764 1.928924
-2.142432 1.262831
-2.037567 1.503743
-1.741138 2.262962
-2.051336 1.430259
-1.900365 2.335501
-2.022961 1.655620
-1.949815 1.875036
-2.462578 1.915831
-1.684869 1.844695
-2.283972 1.365380
-1.311438 1.946507
-1.670043 2.159734
-1.644947 2.619473
-1.981423 2.167946
-1.883782 2.048478
-1.538803 1.878750
-0.950327 1.925791
-0.946515 2.041009
-1.834297 2.054643
-1.213666 1.935693
-1.063823 1.895679
-1.141258 2.411941
-1.316933 2.268034
-0.621661 2.332113
-1.662777 2.564409
-0.909350 2.248350
-1.173566 2.292636
-1.357488 2.315925
-0.880615 2.438887
-1.141769 2.310704
-1.148454 2.678272
-0.651201 2.430799
-0.432698 1.847366
-0.631216 2.567732
-0.783812 1.814418
-0.795343 2.241332
-0.565727 2.006570
-0.181932 1.877255
-0.354545 2.281315
-0.395861 2.327591
-0.404968 2.678317
-1.430953 2.462065
-0.254743 2.008291
-0.076000 2.262070
0.038907 2.048713
-0.835960 2.392166
-0.339516 2.441768
-0.623633 1.883129
0.070100 1.506085
-0.367338 1.767746
0.243530 2.130106
-0.260402 2.117394
-0.084623 1.997765
0.453228 1.980151
0.180201 1.509417
-0.105272 1.898401
0.090303 2.113239
-0.189904 1.290115
-0.030681 1.173668
-0.417053 2.015587
-0.529694 1.553811
-0.118266 1.171561
0.463029 1.637843
0.306920 1.409285
-0.112087 0.920984
0.167674 1.202013
0.299241 0.876828
0.532679 1.238206
0.027222 1.067740
-0.032873 0.964593
0.260222 0.818143
0.008643 0.979836
0.045702 1.287678
0.114954 0.690514
0.234315 1.597594
-0.071820 0.850821
-0.096651 1.690802
-0.238060 0.802659
-0.207178 0.694378
-0.071778 0.346570
-0.041319 0.660823
-0.378493 0.013346
-0.097299 1.006328
0.185452 0.529219
-0.548206 0.616062
-0.907543 0.334157
0.466644 -0.002289
0.131116 0.446051
-0.165271 0.566642
-0.637544 0.687625
-0.244311 -0.281164
-0.168230 0.621354
0.106329 -0.081636
-0.426441 0.075139
-0.411711 0.584484
-0.694242 0.270730
-0.256588 0.574758
-1.192892 -0.358072
-0.792479 0.569271
-0.404031 0.500970
0.359243 0.543895
-1.425018 -0.427604
-0.758936 0.594796
-0.477148 0.486326
-0.898861 0.478106
-0.807843 0.001404
-1.543876 0.140356
-0.981224 -0.486298
-1.194702 0.468660
-1.097678 -0.445441
-1.277472 -0.098766
-0.933480 -0.538973
-0.764618 0.168954
-0.961432 0.169972
-1.156599 0.366409
-1.640480 0.599482
-1.479006 0.449815
-1.611915 0.359448
-2.012089 0.132283
-1.880675 0.087897
-1.090173 -0.617781
-1.372215 0.306845
-1.115652 0.386620
-1.235355 1.076910
-1.434315 0.587470
-1.594136 1.008298
-1.714242 0.840860
-1.229087 0.781955
-1.659820 0.787430
-1.829532 0.537590
-1.458483 0.537667
-1.849784 0.961844
-1.863695 0.500824
-1.546696 0.548763
-2.063635 0.927702
-1.254674 0.517635
-1.984231 1.344108
-2.013264 1.172401
-1.833638 1.167540
-1.710672 1.142830
-1.623427 0.547273
-1.967147 0.794386
-2.165239 1.393426
-1.844037 0.648811
-2.120454 1.236058
-2.488953 0.916074
-1.670978 0.114415
-1.608441 1.161687
-1.123935 0.869288
-1.702309 1.100567
-1.376735 1.617118
-1.141528 0.990318
-1.440528 1.922865
-0.873418 1.816181
-1.949770 1.688835
-1.742021 1.727322
-1.222434 0.976466
-2.180382 2.489718
-1.797929 1.281615
-1.237394 1.599006
-1.708086 2.179824
-1.402620 2.093054
-1.825033 2.436903
-1.898137 2.107848
-2.032201 2.092204
-1.746628 1.923374
-1.213668 2.406803
-1.699222 1.682492
-1.653409 1.823393
-1.440003 2.374609
-1.439757 0.908805
-1.404090 2.038720
-0.991420 2.061436
-1.346662 1.811519
-1.265252 2.078816
-1.588910 2.195448
-1.215821 1.955162
-1.231628 2.399718
-1.651658 2.052434
-0.484009 1.499079
-0.501879 2.526985
-0.858329 2.310001
-0.891781 1.382702
-0.906073 2.429984
-0.290229 1.670845
-0.251051 2.104718
-1.057749 2.179247
-0.667105 1.383595
-1.188247 1.423060
-0.453810 1.459127
-0.174902 1.776775
-0.477209 2.008767
-0.204460 1.935865
-0.234724 1.757887
-1.094635 2.026509
-0.341341 1.770784
-0.944534 1.683200
-0.147526 1.400040
-0.326855 1.762245
-0.751898 2.343365
-0.453125 2.464176
0.392568 1.596863
-0.708244 1.952311
-0.368189 2.287478
-0.031047 1.872475
-0.923866 0.956536
-0.315173 1.277313
-0.390589 1.365932
0.470970 1.445342
-0.260708 1.485221
-0.401750 1.725241
-0.360228 0.763251
-0.274142 0.937671
0.413135 0.872596
1.024212 1.998238
-0.224733 1.775987
-0.684539 0.626659
-0.121858 1.243516
0.274727 1.349920
-0.355040 1.507695
0.054207 1.206591
-0.619749 0.814651
0.991785 0.581964
0.243181 1.566656
0.516702 1.146087
-0.712480 0.265852
-0.646039 1.084533
0.536769 0.867912
0.463069 0.864983
-0.228687 0.068893
-0.755526 0.782525
0.879125 0.568283
0.052150 0.475157
0.062589 1.381770
-0.641773 0.185253
-0.291195 0.920452
-0.189664 1.073319
-0.491252 1.224450
-0.739722 0.005449
-1.127445 0.991832
-0.190837 0.135267
-0.330888 1.522838
-0.623442 0.956402
-0.879856 -0.058503
-0.276646 1.031554
-0.813304 1.046705
-0.661903 0.593542
-1.181538 1.196612
-0.079598 0.369015
-0.740433 0.797054
-1.503675 1.544709
-1.362109 0.573675
-1.146297 0.066270
-1.412613 0.336259
-1.297684 0.659853
-0.662030 0.770832
-1.695858 0.477374
-0.871498 -0.237188
-1.730307 0.795709
-1.671258 0.705687
-1.672217 0.192022
-1.269779 0.405876
-1.412186 0.541959
-1.119105 0.843344
-0.675485 0.612101
-1.409537 0.827046
-1.361200 0.822000
-1.570460 0.187222
-1.112691 1.206486
-1.703225 0.561435
-1.429120 0.105880
-1.483642 1.420076
-1.480903 0.996779
-2.084116 0.717866
-1.568325 0.762959
-1.847735 1.512227
-1.505071 0.751941
-2.236439 1.577308
-1.781695 1.259457
-1.970048 0.543856
-2.819991 1.578010
-1.903299 1.981628
-1.844694 1.311924
-2.267542 1.434683
-0.935598 1.434735
-2.094951 2.376861
-1.878624 2.023594
-2.127677 1.410602
-2.732041 2.272494
-2.464918 1.799994
-1.747216 1.918380
-2.240337 2.972106
-2.297527 1.581410
-1.896540 2.195091
-2.600137 2.307407
-2.388947 2.310735
-1.100816 1.954077
-2.474569 2.519174
-1.147713 2.525978
-2.196033 2.415834
-1.958669 2.764133
-1.647789 1.480553
-2.004017 1.942612
-2.351194 2.223358
-2.063369 2.373271
-1.364370 2.760152
-2.533911 2.497689
-1.716474 3.162193
-1.957772 3.171731
-1.935128 2.177164
-1.981365 2.666718
-0.799344 3.394698
-1.844221 3.196466
-1.672479 3.429956
-1.106188 3.745064
-1.558745 3.096234
-0.606142 3.159910
-1.130493 2.869489
-1.341716 3.419544
-1.169961 2.892581
-1.303550 3.781693
-0.911276 3.847928
-0.836823 3.509038
-1.269865 3.193096
-0.850451 2.826065
-0.862385 3.447426
-0.311345 3.233523
-1.056688 4.132927
-1.170099 2.990713
-0.608002 3.130416
-0.475155 3.490483
0.238440 3.587204
-0.318826 2.691693
-0.310227 3.512374
-0.380579 3.257582
0.258565 3.594760
0.041650 3.736808
-0.722613 2.845784
-0.165300 2.861271
0.224025 3.439044
0.131119 3.302340
-0.519396 3.741783
-0.156572 3.510675
0.406508 3.338315
-0.158160 4.288935
0.115151 2.949775
0.015116 3.328675
-0.223737 2.677384
0.547605 2.706389
0.641092 3.195309
0.779348 2.894414
1.137487 2.778322
0.090236 2.448970
0.861661 2.624071
0.252612 2.852648
0.649446 2.989609
1.488812 2.552430
0.489714 2.892033
0.889046 2.904098
1.416446 2.270539
0.958374 2.107849
1.120607 2.615421
1.689788 2.082952
1.120785 2.350143
1.437892 2.038506
1.599600 2.383831
1.040333 3.067211
1.477430 2.240811
0.763626 2.051176
0.994209 2.007531
0.772099 1.878529
1.117914 1.760727
1.102922 2.142028
1.244623 1.690100
1.730482 1.760186
1.458282 1.758744
1.374788 1.462388
1.319842 1.615167
1.053137 1.669435
1.228106 1.180638
0.861612 0.774018
1.210197 1.540993
1.458964 1.335298
1.090076 1.089060
1.209012 1.672529
0.645959 0.939268
0.172494 1.053202
0.792985 0.903215
1.223106 1.405117
0.038812 0.814835
0.046057 0.884274
0.264317 0.011253
0.059978 0.183703
0.052005 0.224169
0.372475 0.264241
0.295351 0.039244
0.797473 0.214074
0.587377 0.776614
0.344984 0.382460
0.081256 -0.481805
0.094724 0.747274
0.246694 1.119464
0.437201 0.522121
0.245504 0.454704
0.443982 0.400231
0.288991 0.469194
0.072039 0.842753
0.022932 0.926621
-0.175477 0.718648
-0.554849 0.212172
-0.467532 0.189406
0.021014 0.081696
0.163801 -0.439774
-0.168340 -0.362956
-0.752304 -0.558261
-0.782140 0.205817
-0.323139 -0.700178
0.081762 0.258118
-0.784105 1.265597
-0.470684 0.861192
-0.807447 1.120640
-0.766296 -0.264238
-1.441726 0.623697
-1.505052 0.869356
-1.398264 0.886482
-1.342252 0.539555
-1.914261 -0.230978
-1.657509 0.570451
-1.217868 0.972777
-1.753871 0.154933
-2.049749 0.580036
-1.598397 0.553865
-2.720531 0.867363
-1.719892 0.315113
-2.086243 1.122408
-2.497768 1.330929
-2.193620 1.368379
-1.986899 1.312871
-2.472948 1.250355
-1.797447 1.291117
-1.979785 1.394102
-1.853094 1.252506
-1.974580 2.326718
-2.597289 1.469285
-2.037978 1.508986
-2.426297 2.043779
-1.999197 1.592202
-3.175614 2.386567
-2.491694 1.579400
-2.087950 1.274242
-3.218906 2.050196
-1.732518 2.226597
-2.524655 2.247855
-2.582254 2.415098
-2.512208 1.209136
-1.878348 2.878863
-2.673682 2.662539
-2.538004 1.620384
-2.337567 2.882780
-1.994776 2.598856
-2.374457 3.088109
-2.944768 3.094795
-3.284748 3.428702
-2.470407 2.599332
-1.873994 2.473072
-2.619174 1.946508
-1.935790 3.495327
-2.700378 2.292682
-1.782026 3.981024
-2.200174 2.863604
-1.877643 4.287852
-1.527888 4.052205
-2.495613 3.195605
-1.805758 3.490370
-2.011199 2.976988
-2.187657 3.946232
-1.848016 4.646931
-2.093621 3.854589
-2.166764 4.092543
-1.915170 4.226814
-1.628417 3.820947
-2.248410 3.816550
-1.992226 4.760276
-1.244262 4.486687
-0.641325 4.418346
-1.890877 5.661457
-0.828983 3.552618
-0.700341 4.174880
-1.089688 3.909531
-0.937271 5.020975
-0.490665 4.379426
-0.914558 4.962509
-1.235799 4.716658
-0.813844 4.652147
-0.495927 4.045234
-1.190551 4.089297
0.100310 4.259696
-0.071887 4.486243
0.003088 5.213040
-0.522167 4.606717
0.637897 4.806151
-0.470431 4.339166
0.242673 3.484444
0.544637 5.344721
-0.224869 4.068579
0.399697 4.535736
0.504802 4.386115
0.822280 4.661824
-0.182096 3.577900
1.215865 4.290309
-0.411048 4.246107
1.019735 4.174686
0.797469 4.618934
0.286945 5.274309
0.583645 3.653058
1.280874 4.116641
1.720076 4.150778
1.111025 3.668221
1.455019 3.467774
0.384916 3.913999
1.111343 3.639092
1.800761 3.520626
1.125879 3.973345
1.165304 2.435771
2.077343 3.386328
1.727976 3.311524
2.391360 3.556639
1.175954 3.116895
1.521667 3.977764
1.348389 2.623012
1.683666 3.757768
2.203169 3.388663
1.798329 2.810833
2.007237 3.693938
1.176611 2.733973
1.414430 3.418837
2.972878 2.685802
1.076404 3.038567
2.450680 2.434094
1.564903 2.216128
2.302773 2.486273
1.642612 1.844382
1.418051 1.699206
1.662506 2.998068
1.783686 1.999465
1.746124 2.642180
1.604767 3.033129
2.170135 2.092211
0.367236 2.739827
1.862277 2.556276
2.222394 1.654890
1.205519 2.436098
2.405497 2.073206
1.129251 1.855402
0.744136 0.938984
1.611513 1.759679
1.990187 2.004958
0.880355 1.156323
1.225160 2.538548
2.003524 1.351344
0.870116 0.173225
1.315019 1.093721
0.964484 1.018544
-0.408894 2.377853
1.131474 1.763035
-0.274824 1.146831
0.607373 1.628304
0.467654 1.358977
0.424639 0.082045
0.501758 1.453344
0.697578 0.148929
0.393057 1.255347
-0.536987 1.712718
0.520502 1.301303
-0.109881 1.063014
0.472842 1.859967
-0.128169 1.088330
0.387094 1.694010
-0.470415 1.778228
-1.169461 1.298575
-0.552324 1.857815
-0.457241 1.801159
-0.684127 1.030184
-0.327464 1.810464
-2.007448 2.635728
-0.119626 1.366293
-1.430536 2.443728
-2.001785 1.347622
-0.629363 1.815343
-1.123591 1.662659
-1.837339 3.021791
-0.535815 1.495330
-1.964646 1.076494
-1.541743 2.495920
0.060015 0.959641
-1.117466 1.890657
-1.657467 3.129405
-1.849356 2.017784
-1.310501 2.110194
-0.767527 1.911543
-1.374379 2.424923
-0.849308 2.344809
-1.495732 3.070615
-1.904168 2.380220
-1.435755 1.663065
-1.851775 3.588387
-1.048396 1.967741
-1.172361 3.425283
-1.576531 2.742877
-2.003813 3.808064
-2.031017 3.026884
-1.854457 2.979383
-1.401012 2.070493
-2.449324 2.586567
-1.899733 4.277974
-2.765628 2.712274
-1.827184 3.866812
-1.884689 3.882771
-1.109156 3.728886
-1.303474 4.684818
-0.798627 4.415617
-0.660326 3.816711
-0.878328 5.311349
-0.163888 4.078689
-2.290150 3.799936
-0.770437 5.289001
-0.817949 3.682909
-0.261177 6.074086
-1.407507 4.661141
-2.102317 6.016960
-0.577331 5.271494
-2.620144 4.816988
0.638582 5.775988
-1.628103 3.854261
-1.254233 5.429189
0.180915 5.260938
-0.581487 4.397477
0.010539 6.386160
-1.436499 4.083557
-0.551954 5.952174
0.843573 4.636681
-0.058436 5.178003
1.046453 5.852981
0.154047 5.777680
0.199389 5.806671
0.509839 5.670782
-0.197696 4.603601
0.724167 6.091975
0.401292 5.703524
-0.609699 6.617744
0.833435 5.766369
0.501537 5.225809
1.283276 6.692377
0.072541 4.389879
0.048456 5.487646
1.730820 5.727295
0.598834 5.699111
2.310771 4.681378
1.055121 5.624600
0.060815 6.487386
1.944443 5.067689
2.536570 5.662681
1.072720 5.512274
1.987553 5.199306
1.742730 5.042411
1.582564 5.237289
1.630754 6.167845
2.671695 5.635645
1.942153 6.719185
2.606337 5.303941
2.845425 5.709888
1.320070 4.075580
2.432150 4.736069
1.314380 4.942917
3.011916 3.979993
3.066567 4.339458
2.207097 4.568215
1.788609 3.549924
3.724617 3.566414
1.401761 6.269547
2.156582 3.647867
3.213773 4.482667
1.732793 4.488828
3.811212 4.661108
3.195688 5.564866
2.645112 3.482718
2.330150 4.283619
4.310736 3.505875
2.375768 3.222223
3.304790 3.907896
2.079178 2.757764
2.959354 2.865767
1.368266 3.448940
2.450875 1.806456
1.909324 3.141510
2.875178 2.923272
0.959692 3.497043
3.871675 2.845542
1.487560 3.521318
3.310581 1.098323
1.883361 3.078593
2.153275 3.837873
1.628319 3.367573
2.479892 3.085515
0.646224 3.038079
2.760621 0.525145
1.549616 3.387782
2.373364 1.531565
1.657231 2.634516
-0.602490 2.643561
1.053196 3.312253
0.854701 2.840941
-0.095024 2.043383
1.388776 1.650770
0.797806 3.936350
1.145321 1.161973
-0.699576 1.720278
0.819457 0.868166
-0.430058 2.507175
1.191489 3.079327
0.211863 1.434369
-0.373133 2.608821
-1.475121 2.571629
-0.592471 1.305543
-0.389059 3.686435
-0.328192 1.908944
0.144402 2.040564
-0.229655 2.989785
-0.242156 3.628037
-0.143382 0.440943
-1.465205 4.616590
-2.152057 0.777860
-0.639704 2.937626
-1.673358 3.650531
-1.733614 1.378881
-2.884854 6.752275
-3.603580 2.323658
-1.560251 3.454621
-1.842418 5.487228
-1.910790 2.167978
-1.453200 5.529055
-2.820084 3.235617
-2.959200 4.301511
-2.929246 3.626706
-3.698450 3.931496
-3.858790 6.134614
-2.698257 4.539072
-3.053751 7.797914
-3.805448 6.057354
-3.164923 6.367895
-1.450918 5.020261
-3.756770 5.450474
-2.382884 4.925253
-4.369003 6.929085
-2.997909 7.924690
-4.117303 6.731426
-4.818945 6.700418
-1.890189 7.015830
-7.349919 7.274653
-1.306733 9.304214
-3.385687 7.796964
-6.332233 9.591662
-3.230048 9.587056
-6.406474 10.670119
-3.010033 10.290870
-1.777508 7.751029
-5.684687 13.722953
-1.321660 10.088653
-2.275617 12.849295
-2.311518 9.546540
-3.136439 9.046024
-2.001304 12.924865
-1.558655 10.002227
-1.429685 11.142290
-4.037907 12.198195
-4.520822 12.353104
-2.611264 11.721798
-0.510765 13.824543
-2.351549 12.394103
-1.192978 14.431042
-3.587804 14.396395
1.882264 16.040142
-4.957197 16.076848
3.336749 12.462591
-3.059534 17.370803
1.470743 11.069277
4.218816 18.469837
-0.709705 12.232499
0.954997 17.298369
-4.868381 14.286438
4.196665 16.501605
0.193485 17.542739
4.719924 15.586087
-1.699323 18.315709
4.486781 17.859276
-0.202519 18.083084
2.177151 16.131728
1.917696 18.417736
4.697990 23.400339
6.520501 20.444983
6.767017 21.402275
9.964873 18.004797
0.337475 18.647835
12.255825 15.738495
6.725607 18.044992
3.654955 15.469247
10.583920 14.373300
1.419660 26.184052
9.754614 16.115786
5.237661 22.558218
6.765820 15.211659
8.744314 20.321999
9.175903 24.890101
14.318202 16.867953
8.562255 24.851086
12.354073 19.963874
13.606291 19.243825
16.641322 22.685785
14.576274 12.301518
16.185692 20.614328
13.740660 18.835941
16.844065 18.496971
19.100274 15.099200
7.229403 14.994016
16.809550 18.253893
9.894361 17.088520
14.456849 25.436163
19.774520 14.821982
10.931597 26.582385
20.958707 25.565927
24.146236 12.145058
23.299853 27.782502
27.781660 11.839302
17.288276 18.034167
30.276743 20.435310
15.759368 8.494732
28.438780 8.905329
22.405691 11.513817
9.819540 14.242453
40.377195 18.110743
1.625796 16.837825
32.961598 16.850568
10.795204 21.817635
37.533277 10.920113
28.080441 21.399306
37.148209 -5.427201
23.484972 22.687743
19.890190 6.616067
26.631551 13.309935
17.073583 -0.446735
41.117005 11.444897
17.872174 4.889299
56.288970 15.657969
16.665215 17.790919
17.158066 -18.468719
19.621517 11.572483
-7.887966 19.372061
46.681182 -20.245704
44.354494 38.539072
16.045982 6.434890
53.495494 25.781962
25.231131 40.716650
42.272100 -50.244391
32.140094 -10.280828
17.786375 -29.849199
39.506480 0.319051
60.944873 -6.418656
2.022207 5.295838
-17.564407 22.805225
-15.340510 -13.510516
68.432607 15.779172
15.224586 -18.660076
51.218978 0.709809
32.153810 50.561127
66.085709 22.375734
76.913133 -1.416135
-68.977135 3.057267
46.451859 -86.548824
58.329781 2.470821
143.039635 34.435909
-59.386224 -122.604761
-40.379390 -21.487605
136.035740 -57.998124
-30.324185 101.982562
-213.028385 -146.435239
190.915648 -71.457975
-56.798186 224.474194
-335.967592 781.699395
-231.143001 -875.887589
103.604945 -1002.297407
1290.078402 -810.132773
-2559.759677 1043.812350
