13887.883595 10474.844154
-6858.022709 -3200.836466
-290.845451 131.258593
-842.529153 -343.126321
-141.024308 118.811724
-414.830451 -201.014567
629.996870 -194.700286
-276.965746 42.434563
1.075711 208.175313
124.789321 22.573910
68.518627 17.707429
41.020188 -139.752326
123.370804 -130.475737
117.628098 28.848954
137.353341 -51.750105
73.446377 -11.363085
64.407912 21.407129
92.184591 -105.864611
148.281718 -65.365444
106.286316 -34.022799
58.416826 -61.927951
73.679300 -22.808188
70.677143 -72.709944
59.884883 -83.003793
105.517815 -68.215349
88.394728 -67.970296
80.818781 -68.599412
89.527668 -66.665464
54.298183 -74.911600
60.379592 -63.809585
63.620579 -90.363307
52.081678 -78.468044
56.300314 -77.993221
50.374342 -88.112088
46.605823 -79.929722
43.211026 -90.536397
32.361394 -84.120679
39.435330 -71.874714
35.436491 -84.293047
31.790634 -75.262489
33.621143 -75.598394
21.433751 -70.532093
17.384334 -75.714313
21.295369 -76.265690
13.368121 -80.727224
21.325675 -80.061432
20.659126 -68.561174
4.177495 -67.991893
5.830246 -71.311504
-0.046269 -64.433245
1.879209 -72.679004
2.801375 -73.695716
-2.014744 -64.226972
-10.078974 -58.629965
-7.913853 -56.013558
-6.264536 -56.257083
-12.821109 -63.948939
-10.094995 -61.792418
-12.904604 -51.443146
-15.125232 -48.027363
-13.872728 -50.947924
-20.302396 -48.886956
-24.202144 -48.156369
-17.486046 -44.756229
-12.731144 -40.809350
-18.078112 -45.250048
-23.259273 -41.998014
-21.743653 -35.980904
-22.795495 -32.931209
-18.843581 -33.895279
-21.213722 -34.970152
-23.564517 -30.877262
-21.088314 -27.060293
-21.631154 -23.506396
-19.956539 -21.960520
-20.746209 -23.778531
-19.929230 -21.411500
-20.812750 -18.031725
-20.471028 -16.615928
-18.605560 -14.790576
-18.475110 -10.209258
-19.739106 -13.143070
-18.562214 -12.080030
-19.238130 -9.342477
-18.112172 -10.148944
-12.137690 -3.919747
-13.307778 -5.813713
-14.450887 -4.698366
-13.007871 -4.842583
-12.805812 -2.611196
-10.362955 -3.516659
-7.975729 -0.212202
-10.153184 0.298340
-6.837560 0.247460
-5.998061 -0.449345
-5.054930 1.299547
-1.728666 0.193502
-3.715522 2.875433
0.220675 3.025242
0.446955 2.114581
0.660582 3.551875
1.570841 3.063359
2.866469 2.963095
5.199946 1.510912
4.238275 0.715641
3.292397 1.943703
6.234633 1.194219
7.465415 2.685606
7.436755 2.082584
8.811738 -0.333385
8.735205 1.129974
9.620355 -1.649265
10.983023 -1.636949
10.296163 -0.173195
10.100629 -1.852995
13.734505 -2.879835
12.495504 -3.652076
11.649301 -4.071273
13.988976 -3.908275
14.160576 -3.604118
14.429020 -7.139758
12.987648 -8.878067
10.592547 -6.558540
14.003058 -6.909044
16.693554 -7.568050
14.993415 -8.748854
13.350287 -11.163393
13.627110 -11.759067
14.149657 -10.040286
13.848795 -11.787534
13.444672 -12.192179
12.978683 -12.551630
12.648520 -14.026732
11.233237 -14.002160
11.100516 -14.388650
11.434365 -15.062930
11.717219 -16.030071
10.174319 -16.473293
9.737117 -16.744603
9.956827 -16.396375
9.975316 -17.394344
7.860591 -17.628443
7.322489 -18.198384
8.143640 -17.240556
6.690762 -17.620176
6.324228 -18.276512
5.085543 -17.672378
3.409225 -17.744091
3.587199 -17.054800
4.681501 -16.869193
3.415023 -18.548845
2.660354 -17.154357
1.228626 -18.673002
-0.541458 -16.316700
0.467415 -17.354523
0.531802 -16.280796
-0.363272 -15.631583
-1.113747 -16.516589
-2.005902 -15.171084
-2.227226 -15.361732
-2.449911 -15.798847
-2.969697 -14.458927
-3.614652 -13.461707
-3.052439 -12.744956
-3.588657 -12.037717
-4.645686 -12.322608
-4.412362 -12.015636
-4.186649 -11.101080
-5.373245 -10.420603
-5.040716 -10.381245
-5.138739 -10.027190
-5.586216 -8.740080
-5.322401 -7.997674
-4.889598 -7.789572
-5.059818 -7.774558
-5.955708 -7.245363
-5.899673 -6.261742
-4.958876 -5.748112
-4.645419 -3.948957
-4.728622 -4.965816
-3.947725 -4.299549
-5.237168 -3.069385
-3.972992 -2.949011
-3.455308 -2.127887
-3.765350 -2.229221
-3.420651 -1.976349
-3.267851 -1.172826
-2.676018 -0.761361
-1.170346 -0.419904
-0.982722 0.165614
-1.546309 -0.667551
-1.399507 0.743294
-1.402747 0.873452
0.451709 0.904592
0.683974 1.558123
0.669766 1.720797
0.445612 0.902206
1.964991 1.959306
2.142716 2.001794
2.269028 2.021604
2.778442 1.387773
3.204506 1.427187
4.959381 1.243457
4.593881 2.193868
5.142476 2.239533
5.523779 1.247524
6.276898 0.887383
7.073545 0.906500
6.240588 -0.224663
6.497556 0.108729
7.282591 0.461122
7.569649 -0.477935
8.218072 -0.832042
8.571165 -1.408569
7.826383 -1.053636
8.499886 -1.722991
8.687403 -2.177023
9.348916 -1.768027
9.639880 -2.235571
9.434503 -3.478878
9.116838 -4.335434
9.989537 -4.320775
9.848686 -4.654427
9.827022 -4.747388
9.253399 -4.532192
10.369814 -5.338681
9.745919 -6.075598
10.432422 -6.603692
9.539663 -7.382841
8.860756 -6.900483
9.999622 -6.657120
9.320206 -7.418640
8.977044 -7.916628
9.146520 -7.611336
8.513870 -7.816178
8.777446 -8.491908
7.819365 -9.293101
7.195093 -9.337602
7.709150 -9.354804
6.915581 -8.992196
7.489430 -10.026473
6.590685 -10.634629
5.636400 -10.560903
6.194781 -10.167324
6.598221 -9.691836
5.720350 -10.400854
4.645861 -11.023363
4.842224 -10.497114
3.663547 -10.820885
4.593073 -10.870897
4.027989 -10.037917
3.490101 -10.529024
3.402826 -10.429447
2.316009 -10.860719
2.486431 -10.340914
2.504856 -10.728811
1.697022 -10.263937
1.745711 -9.916359
1.390752 -9.867400
0.810020 -9.659418
0.195738 -9.814437
0.518080 -9.845134
-0.196748 -9.105728
-0.108233 -7.652196
-0.502388 -8.529433
-0.664342 -8.258822
-0.038635 -8.016923
-0.861160 -7.931689
-1.147053 -7.314628
-1.554808 -6.949693
-0.998250 -6.458810
-1.142331 -6.503292
-1.583860 -6.400168
-0.933557 -6.213074
-1.349937 -5.975454
-0.939862 -5.006064
-0.776706 -5.053189
-1.333973 -4.836274
-1.312036 -3.929235
-0.857025 -3.569583
-0.374563 -3.228276
-0.821990 -3.078657
-1.116184 -3.443466
-0.665839 -2.575157
-0.760392 -2.748577
0.283116 -1.662418
0.062509 -1.849317
-0.082576 -2.106463
0.280085 -1.503461
0.253905 -1.472756
1.306630 -1.336008
0.779100 -1.850043
1.527207 -1.632631
1.820322 -0.745432
1.796777 -0.219362
2.729490 -0.810189
2.292240 -1.211866
2.497159 -0.173764
2.700349 -0.863131
3.096241 -0.731410
3.318641 -0.107969
3.975666 -1.057028
4.062663 0.146710
4.611918 -0.550925
5.020823 -0.970727
4.593849 -0.976645
5.470892 -1.286573
5.936218 -1.054552
5.457031 -0.730939
5.768850 -1.367785
5.862724 -1.670586
5.768900 -1.583410
5.978409 -1.313437
6.787255 -2.040329
7.361985 -1.604333
7.052320 -2.083710
6.930756 -2.425222
7.382610 -2.240852
7.481802 -2.470643
7.047734 -2.775282
7.482131 -3.180224
7.677229 -3.263033
7.372712 -3.345514
7.338479 -3.874453
7.638894 -4.015284
6.958809 -4.123248
7.247127 -4.029121
7.720783 -4.711584
7.607788 -5.429482
7.701805 -4.863423
7.030484 -5.851418
7.379694 -5.246565
7.165005 -5.413261
7.124118 -6.325788
7.139008 -6.018153
6.816384 -6.683095
6.784581 -7.000485
6.692159 -6.996329
6.355670 -7.330401
6.217121 -7.143980
6.915747 -7.707875
6.415577 -8.039721
6.655710 -8.249918
5.475916 -7.240662
5.266686 -7.664134
5.416990 -7.688921
5.416743 -7.832597
4.921670 -8.298562
5.115614 -8.074945
4.455770 -7.722653
4.592358 -7.882257
4.009759 -8.400857
4.118104 -7.750509
3.424689 -8.291963
3.813492 -8.229843
3.225659 -8.399051
3.259397 -7.608442
2.893588 -8.186912
2.538710 -7.959993
2.531481 -7.921900
2.351993 -7.850450
2.953712 -7.971725
2.052963 -7.729022
2.522933 -7.417567
2.476364 -7.338240
2.032427 -7.391566
1.825998 -7.290443
1.470440 -6.083209
2.366990 -6.448743
1.666159 -6.933141
1.778842 -6.800725
1.099469 -6.134979
1.731946 -6.042993
1.756895 -6.158365
1.764224 -5.651141
1.235840 -5.960462
1.334635 -5.500030
0.952165 -5.329765
1.126527 -5.939737
1.383363 -5.249959
1.131042 -4.732630
1.557505 -4.491099
1.915571 -5.269310
1.901879 -4.923531
1.510533 -4.786880
2.299908 -4.281270
1.691272 -3.895601
1.810776 -4.318389
1.923433 -3.807365
1.893775 -4.144594
2.439235 -3.870702
2.163145 -3.538698
2.500654 -3.787350
2.815501 -3.955913
3.137975 -4.078082
2.843080 -4.376785
3.015884 -3.570938
2.872355 -3.327936
3.146383 -3.725528
3.791227 -3.216203
3.627206 -3.333776
3.467982 -3.302708
3.534570 -4.049608
4.091409 -3.861889
4.133226 -3.008271
3.962051 -3.344960
4.493869 -4.040646
4.348537 -3.718405
5.050449 -3.842615
4.961204 -3.986666
4.817278 -3.809154
4.868742 -3.945547
5.170674 -4.261386
5.408987 -4.127950
4.917197 -4.111701
4.903161 -4.434183
4.551106 -4.691511
5.009005 -3.854992
4.992427 -4.939277
5.754569 -4.832505
5.573150 -5.299360
4.421739 -5.308379
5.112618 -5.536017
5.186559 -5.213413
5.733563 -4.878994
5.481544 -6.301770
4.814317 -6.053536
5.326152 -5.962398
5.410088 -6.382349
5.246391 -6.654768
5.007863 -6.519602
5.166286 -6.966039
5.017929 -6.672416
5.382795 -7.168210
4.362484 -6.897081
4.750817 -7.303838
5.260953 -6.441886
4.736975 -7.739426
4.208692 -7.280504
4.327948 -7.181603
4.262314 -7.223194
4.592532 -7.329628
4.200077 -7.282571
3.746372 -7.496287
4.080507 -7.515157
4.213478 -7.486038
4.101480 -7.294045
3.272711 -7.635840
3.589450 -7.730084
3.169375 -7.445265
3.771236 -7.424621
3.535755 -7.723290
2.974801 -8.082097
2.656007 -7.665999
3.033504 -7.676428
2.612805 -7.294606
2.562858 -7.434779
2.544667 -7.561212
2.109837 -7.108181
2.639208 -7.334156
2.499043 -7.054138
2.269667 -6.971730
1.894166 -6.793737
2.672425 -6.917451
2.040775 -6.843005
2.328035 -6.723963
2.249123 -7.266470
2.121428 -6.730475
1.226487 -6.390965
1.568306 -6.666424
1.880077 -6.237288
1.926543 -6.416152
1.757395 -6.508322
1.743466 -6.207037
1.779362 -5.953518
1.977204 -6.473685
1.567153 -5.678929
1.760676 -5.860350
2.307300 -6.257402
1.397691 -5.865832
1.486541 -5.823705
1.906453 -5.955877
1.753322 -5.178766
1.990989 -5.976413
1.699181 -4.818962
2.256203 -5.247211
1.821777 -5.292600
1.831627 -5.354150
2.160567 -5.191918
2.640968 -5.230967
2.544691 -5.729717
2.171517 -5.577832
2.482702 -4.944105
2.403872 -5.308958
2.897711 -4.918896
2.850842 -5.064477
2.909969 -5.456349
2.152517 -5.336241
3.064530 -5.873809
3.079288 -5.410786
3.084904 -5.322838
3.541852 -5.836088
2.949134 -5.721428
3.377627 -5.964812
3.261097 -5.208624
3.515624 -5.510464
3.901400 -5.706607
3.396650 -5.881070
3.136978 -5.769257
3.298424 -5.595056
3.695227 -6.246024
3.574735 -5.715931
3.772179 -6.127348
4.250577 -5.996656
3.798784 -5.882874
4.339108 -6.475465
3.885103 -6.481678
3.816271 -6.508212
3.849344 -6.546523
4.018336 -6.603480
3.832035 -6.502213
3.937637 -6.469112
3.695402 -6.836456
3.623864 -6.900139
3.476534 -6.755442
3.995084 -7.152231
3.975052 -7.081542
4.193047 -7.280460
3.901332 -7.460180
3.663765 -8.270465
3.512824 -7.678496
3.576392 -7.289421
3.794407 -7.517103
3.730334 -7.730610
3.422311 -8.148524
3.157359 -7.847100
3.338025 -7.957504
3.407889 -8.129839
3.219628 -7.776276
3.281958 -7.754233
2.798573 -8.663911
2.716270 -8.411615
2.540686 -7.922047
2.932724 -8.376372
2.539114 -7.615508
2.777582 -8.186826
2.072567 -8.656266
2.700658 -8.361836
2.673317 -8.546225
2.110873 -8.146807
1.953574 -8.261873
1.877214 -8.508530
1.853843 -8.999731
1.480443 -8.527826
1.883371 -8.597184
1.620132 -8.242377
1.700228 -8.415023
1.222883 -7.913287
1.508269 -8.441891
1.790056 -8.790146
1.452715 -8.122282
1.154879 -8.277094
0.952892 -8.226382
0.975697 -8.271418
1.371322 -8.372463
1.311285 -7.697841
0.915359 -8.052118
1.175472 -8.080692
1.018902 -8.525848
1.064611 -8.120428
0.349068 -8.084984
0.511834 -8.104692
0.565902 -7.819056
0.679022 -7.669765
0.520505 -7.862998
0.382035 -7.374355
0.445346 -7.633285
0.381339 -7.421608
0.501320 -7.410764
0.392358 -7.702117
0.314196 -7.345842
0.987015 -7.550373
0.564048 -7.083243
0.356426 -7.904975
0.262905 -7.137310
0.606515 -7.818696
0.536875 -7.281181
0.278549 -6.999306
0.252514 -7.547583
0.371694 -6.984182
0.561619 -6.670459
0.769068 -6.998384
0.675077 -6.903314
0.407498 -7.127359
0.326988 -6.652321
1.009655 -6.927261
0.603281 -6.897108
1.163333 -6.805107
0.755733 -6.550942
0.813400 -6.701819
1.066385 -7.148365
0.526062 -6.739727
0.567472 -7.102368
1.303236 -7.134282
0.819109 -7.530649
1.176092 -6.860640
0.958735 -6.932690
0.935308 -6.552804
1.236063 -7.434239
1.467534 -6.884216
0.671169 -7.110785
1.042621 -6.642746
1.076699 -6.432378
1.576243 -6.869632
0.854283 -6.740363
1.466832 -6.952781
1.126354 -7.296536
1.258834 -7.027048
1.383690 -6.928019
1.263320 -7.179221
1.048011 -6.914569
1.338352 -6.995920
1.456656 -7.539180
1.223236 -6.766441
1.002002 -7.492261
1.669413 -6.723718
1.919404 -7.190671
1.746722 -7.563573
1.579661 -7.747325
1.586551 -7.465122
1.499190 -7.492419
1.787878 -7.807268
1.552577 -7.784317
1.628911 -8.036324
1.225331 -7.741035
1.346274 -8.138931
1.801976 -7.719154
1.230223 -8.540809
1.551268 -8.536727
1.000891 -8.040610
0.931507 -8.164741
1.086094 -8.218158
0.880602 -8.098023
1.017665 -8.046858
1.059129 -8.805828
1.200143 -8.493235
0.471021 -8.375846
1.141450 -8.201312
0.883515 -7.942071
1.223114 -8.641681
0.940111 -9.102964
0.684473 -8.563328
0.952916 -8.894260
1.048173 -8.468551
0.885641 -8.663096
0.535488 -9.123785
0.676746 -8.799639
0.209984 -9.105473
0.563782 -8.947684
0.419886 -9.098546
0.603805 -9.055927
-0.127233 -9.342553
0.436200 -9.133045
-0.090678 -8.751685
0.149786 -9.429194
0.089763 -8.902223
-0.613793 -9.432702
-0.011488 -9.560097
-0.314596 -9.131979
-0.369910 -9.002488
-0.214001 -9.071983
-0.394241 -9.224882
-0.553249 -9.190892
-0.408846 -9.652963
-0.781613 -9.027402
-1.006904 -9.512216
-0.902060 -8.772949
-0.758696 -9.029276
-1.208234 -9.117833
-1.235031 -9.370022
-1.152999 -8.450785
-1.403691 -8.935541
-0.654168 -8.689524
-1.425402 -9.614953
-1.406890 -9.025151
-1.308015 -8.948420
-1.293648 -8.715928
-1.219214 -9.013734
-1.764752 -8.562227
-1.889477 -8.970121
-1.346372 -8.854652
-1.983154 -8.787292
-2.042424 -8.526348
-1.903759 -8.574126
-1.509420 -8.230305
-1.602322 -9.339349
-1.491935 -8.565704
-1.951325 -8.333732
-1.894919 -8.461549
-1.750535 -8.010850
-2.007971 -8.367256
-2.390132 -8.478706
-1.732464 -8.207401
-2.004438 -7.932112
-2.533105 -7.912530
-2.187433 -7.976237
-2.055694 -7.999173
-2.173697 -7.950112
-2.441516 -7.675341
-2.191302 -7.645447
-1.965493 -7.678722
-2.358779 -7.845181
-2.619386 -7.491225
-2.299147 -7.167590
-2.495541 -7.661682
-2.416622 -7.784754
-2.297553 -7.262149
-1.831256 -7.241941
-1.930785 -7.483770
-2.059039 -7.534288
-2.352432 -7.578811
-1.923327 -7.347377
-2.185409 -7.302948
-1.755829 -7.486062
-1.914691 -7.285893
-2.131333 -7.211168
-1.935040 -7.641194
-2.059288 -7.472736
-1.509417 -6.996655
-1.673159 -7.185321
-2.466832 -7.681625
-1.678979 -6.932551
-1.963703 -7.054461
-1.590462 -7.562497
-1.697803 -7.378006
-1.586527 -7.117324
-1.412160 -6.793788
-1.380604 -7.032270
-1.592938 -7.818262
-1.305905 -7.566164
-1.605083 -7.656882
-1.307444 -6.842685
-1.398387 -7.185792
-1.246967 -7.428149
-1.234020 -7.455094
-1.811857 -7.636295
-1.074400 -7.452327
-1.210405 -7.459341
-1.186580 -7.451150
-1.235356 -7.968838
-1.647256 -7.566966
-1.647145 -8.031455
-2.070038 -7.992337
-1.397043 -7.888008
-0.804473 -8.172675
-1.113212 -8.665896
-1.149896 -8.633541
-1.152676 -8.466992
-1.718823 -8.737958
-1.682285 -8.392807
-1.447464 -9.130288
-1.547133 -9.025017
-1.908215 -9.093652
-1.581091 -8.335120
-1.746333 -8.876511
-1.429935 -8.302613
-2.028406 -8.956481
-1.826584 -9.035158
-2.111762 -8.835534
-1.722559 -9.087880
-1.999729 -9.343985
-2.077604 -9.582544
-2.402629 -9.029354
-2.199537 -9.177006
-2.372195 -9.134504
-2.386336 -8.972919
-2.831134 -9.085251
-2.991007 -9.604965
-3.277736 -8.524578
-3.076124 -9.338542
-2.869480 -9.830681
-3.177143 -9.058469
-3.586999 -9.251970
-3.038183 -9.629000
-4.051074 -10.022287
-3.180902 -8.992996
-3.353518 -9.650988
-4.254848 -9.377904
-4.422530 -9.275311
-3.852642 -9.519128
-3.661404 -9.053606
-4.766602 -9.407894
-4.211099 -9.022806
-3.776982 -9.704689
-4.266962 -8.535062
-4.722658 -8.645142
-5.110580 -8.829723
-5.075000 -9.003003
-5.127327 -8.421705
-4.525080 -8.544981
-3.932476 -9.188248
-4.219325 -8.638084
-5.387633 -8.712753
-5.265254 -9.184477
-5.054798 -8.792234
-5.774316 -8.259829
-5.591103 -7.773262
-5.764571 -7.822971
-5.101442 -8.119001
-5.056202 -8.157910
-5.079174 -7.955063
-5.125362 -7.399966
-5.447535 -7.265065
-5.065164 -7.630358
-5.250137 -8.165107
-5.336394 -7.413733
-5.549618 -7.110994
-5.545562 -6.821111
-5.103960 -7.330278
-5.591834 -6.502390
-5.457022 -7.116977
-5.455940 -6.515517
-5.218638 -6.412196
-5.335488 -6.998933
-4.852833 -6.584431
-5.027033 -6.465641
-4.898946 -7.010272
-5.335771 -7.002842
-5.017186 -6.091947
-5.451673 -6.863988
-5.129762 -6.216508
-5.146874 -6.398157
-4.798155 -6.118055
-4.414360 -5.750032
-4.029184 -6.510374
-4.770038 -6.161039
-4.588925 -6.029140
-4.387157 -6.050497
-4.168045 -6.144306
-4.982351 -5.715589
-3.957049 -6.132671
-4.577745 -6.092876
-4.034021 -6.013784
-4.058190 -6.406434
-4.150238 -6.146229
-4.202032 -6.673628
-4.138149 -5.412608
-3.821603 -6.067338
-3.634498 -6.652479
-3.824871 -7.051769
-3.139978 -6.321416
-3.589037 -6.915040
-3.665580 -6.692273
-3.743593 -7.228927
-3.398466 -6.782284
-4.574094 -7.183776
-3.426248 -7.271675
-3.397602 -6.570594
-3.110198 -7.188791
-3.102116 -7.571171
-4.022247 -6.918614
-3.270278 -7.468434
-3.705515 -8.149355
-3.718161 -7.839533
-3.449101 -8.162198
-3.997933 -8.498859
-3.926634 -7.868486
-4.626276 -8.660235
-4.136015 -8.501473
-4.107146 -7.998802
-3.993712 -8.687932
-4.685054 -7.990796
-3.925455 -8.859953
-4.674134 -8.381568
-4.824519 -8.479551
-4.726207 -8.605608
-4.637496 -8.415617
-4.747676 -8.817964
-5.250704 -8.721205
-5.189711 -8.609787
-5.605481 -7.966289
-5.619055 -9.274078
-5.362938 -8.124258
-5.134291 -9.534926
-5.846694 -9.064450
-5.093386 -9.079743
-6.625414 -8.705055
-6.363515 -8.713541
-6.135911 -9.008331
-6.590274 -9.305524
-6.064668 -8.711142
-6.613751 -9.443076
-6.529305 -8.365383
-7.589945 -8.580793
-7.175853 -8.543603
-7.384987 -7.748060
-6.853835 -8.707338
-8.242198 -7.990960
-7.411157 -7.668817
-8.171521 -7.724062
-7.848885 -8.438141
-7.603160 -7.212738
-8.122755 -7.500075
-7.480212 -7.407134
-7.249423 -7.549216
-8.202974 -7.334678
-8.221455 -6.805433
-7.831874 -6.957667
-8.234348 -6.610657
-8.072603 -6.618454
-9.053867 -6.797557
-8.835036 -6.717678
-8.836001 -6.293347
-8.522196 -6.437938
-8.482571 -6.367841
-9.185981 -6.426974
-8.471260 -5.985180
-8.723130 -5.492151
-8.291977 -4.905378
-8.927336 -5.596644
-7.637744 -4.822389
-8.990245 -4.224477
-8.109048 -4.992547
-8.145265 -4.287601
-8.586051 -4.673333
-8.201694 -4.335645
-7.775427 -5.346435
-8.028217 -4.311707
-7.615672 -4.618981
-7.497455 -3.862273
-7.519623 -4.358118
-7.541064 -4.265193
-7.028510 -4.630296
-7.020304 -3.772654
-6.758909 -4.318114
-7.084388 -4.083020
-7.302356 -3.915798
-7.200163 -4.151322
-6.980692 -4.350932
-6.853799 -3.734571
-6.258100 -3.800774
-7.044760 -3.751035
-6.460825 -4.298279
-6.327271 -3.723911
-5.819215 -3.827404
-5.379999 -4.238050
-6.172662 -4.275826
-5.622615 -4.274942
-5.949249 -5.034191
-5.871671 -4.489500
-5.862380 -4.547983
-6.005919 -4.827895
-5.499475 -4.675130
-5.820560 -4.841166
-5.140525 -4.592885
-4.795633 -5.371858
-5.018934 -4.921064
-5.625336 -4.651719
-4.543513 -5.520564
-5.776976 -5.542460
-5.513433 -5.470680
-4.724815 -5.538203
-5.176205 -6.014081
-5.306534 -5.768689
-5.204173 -6.360426
-5.974221 -5.867843
-5.357652 -6.588328
-5.723687 -6.479715
-5.499725 -5.825205
-5.865924 -6.623736
-5.405841 -6.452812
-5.978670 -6.910049
-5.352084 -6.679603
-6.423505 -7.514507
-6.185928 -7.209812
-6.649009 -7.190778
-6.611102 -6.966052
-6.636826 -7.289847
-6.618082 -6.831522
-7.170848 -7.000440
-6.832652 -7.207459
-7.408039 -7.396368
-7.108708 -7.576827
-7.801472 -7.714291
-7.703938 -7.277719
-8.117663 -7.374513
-7.952633 -7.855009
-8.170177 -7.806634
-8.116694 -7.638316
-9.193651 -7.386456
-9.103293 -6.835026
-8.810612 -6.965657
-9.340585 -7.323612
-8.555599 -7.860199
-8.682508 -7.161627
-8.847499 -6.557685
-9.656079 -7.392042
-9.552137 -7.448354
-9.848499 -7.285482
-10.552482 -6.312041
-11.125757 -7.110161
-10.881635 -6.665600
-10.210134 -6.134788
-10.358310 -5.702634
-10.820693 -5.674291
-10.595964 -6.075889
-10.583852 -5.749439
-11.324932 -6.053124
-10.850898 -4.886341
-10.486764 -5.087681
-11.739926 -5.283988
-10.819274 -4.873180
-10.734877 -4.279812
-10.564989 -4.506638
-11.523898 -4.496500
-11.135927 -3.390043
-11.548835 -4.430607
-11.670250 -3.874486
-11.277251 -3.378906
-11.148891 -3.230717
-11.150636 -3.135940
-11.546633 -2.881345
-11.217377 -2.299814
-10.870122 -2.781540
-10.982071 -2.773997
-10.702439 -2.164285
-10.783136 -2.301041
-10.170039 -2.354150
-10.584911 -1.459831
-10.164298 -2.146575
-10.353557 -1.516231
-10.105316 -1.873128
-9.543923 -1.244261
-10.204293 -1.666568
-9.993279 -0.910694
-9.639676 -0.453607
-9.627273 -1.371774
-8.979316 -0.688845
-9.228626 -1.714684
-8.767008 -1.344368
-8.860152 -1.263967
-8.252826 -1.282406
-8.665179 -0.999894
-8.481500 -0.726600
-8.452184 -1.244413
-7.895441 -1.115026
-8.551217 -1.688765
-7.999025 -1.199092
-7.523784 -0.915236
-7.126179 -1.208435
-7.403800 -1.195596
-7.216292 -1.938469
-7.205439 -1.704296
-7.437395 -1.798805
-7.195097 -1.612749
-6.677462 -1.956864
-7.353316 -2.054122
-6.385261 -1.747281
-6.877632 -2.426967
-6.591367 -2.399787
-6.225160 -2.223589
-6.823693 -2.916869
-6.575664 -2.737121
-7.034561 -3.233759
-7.148289 -3.164075
-6.535781 -2.927214
-6.506007 -3.278549
-6.623643 -4.078435
-6.672914 -3.778766
-6.763129 -3.938617
-7.238287 -4.242934
-7.102032 -4.299889
-7.326119 -3.576464
-6.670637 -4.499867
-7.620600 -4.612781
-7.957733 -5.139824
-7.914730 -5.044186
-7.544526 -4.711684
-7.413188 -4.774440
-8.215708 -4.643567
-7.840842 -5.446493
-8.193395 -5.030736
-9.075818 -4.997484
-8.945888 -5.321176
-8.548154 -5.012932
-8.604732 -4.998822
-9.093223 -5.204838
-9.948141 -5.019493
-9.483166 -5.193893
-9.472896 -5.647091
-9.803802 -5.245945
-10.338973 -5.282536
-9.695113 -5.573166
-10.333365 -4.690422
-10.729435 -4.997959
-10.122966 -4.922747
-10.317972 -5.213611
-11.095579 -4.274799
-11.418605 -5.096183
-11.017373 -4.493764
-11.185831 -4.701194
-11.217045 -4.292538
-11.852760 -4.346105
-12.156909 -3.654971
-11.951973 -4.006839
-12.621099 -3.537085
-12.071418 -3.471441
-12.249173 -3.148632
-12.699922 -3.068169
-12.504537 -2.614873
-13.020616 -2.765656
-12.444829 -2.429099
-12.335078 -2.409566
-13.084197 -2.343581
-13.218991 -1.880768
-12.818283 -1.936925
-12.681055 -1.777467
-12.886899 -1.598129
-12.977730 -1.177058
-12.541563 -0.309605
-12.915349 -0.685914
-12.530146 -0.576765
-12.923813 -0.413869
-12.502059 -0.001479
-12.185928 0.251795
-12.396853 0.294652
-11.969885 0.448910
-12.772501 0.431620
-11.781206 0.922857
-12.577114 1.290240
-11.620089 1.299952
-12.158097 2.037307
-11.547880 0.429995
-12.015391 1.630056
-11.333184 1.388391
-10.949391 1.471895
-10.954174 1.926812
-11.431592 1.786593
-10.678909 1.897019
-11.010283 1.850255
-10.352824 1.475831
-10.558178 1.629456
-10.500114 2.423615
-9.659280 1.947838
-9.690304 1.865232
-9.542337 1.993878
-9.720675 1.638372
-9.230896 1.777221
-9.525249 2.371190
-8.611168 1.414486
-8.716603 2.006988
-8.851647 2.010066
-8.342120 1.549074
-8.725337 2.068747
-8.283590 1.436220
-8.300881 1.107081
-8.604280 0.951362
-7.801944 1.235722
-8.018455 0.888031
-7.462350 1.018234
-7.770493 0.210176
-7.682739 0.025805
-7.865827 0.053281
-7.451714 -0.160750
-8.001856 0.322258
-7.315324 -0.293638
-7.507715 -0.243406
-7.882241 -0.505575
-7.442153 -0.262165
-8.095911 -1.272858
-7.709658 -0.437841
-7.942087 -0.498145
-8.709706 -0.798195
-8.147958 -1.192633
-8.350093 -1.011063
-8.448665 -1.161542
-8.141913 -1.141860
-8.382896 -1.683089
-8.841769 -1.392242
-8.239454 -1.719431
-8.263731 -1.488932
-8.956861 -2.032100
-8.628402 -2.071262
-8.719940 -1.978721
-9.420338 -1.947108
-9.513517 -2.221156
-9.777320 -1.583634
-9.963926 -1.918389
-9.861916 -1.372618
-10.181693 -2.310759
-10.474129 -2.192959
-10.634336 -2.330477
-11.072261 -1.944692
-11.078746 -1.538996
-11.313789 -2.219516
-11.625530 -1.467256
-11.641761 -1.819236
-11.528016 -1.843461
-12.599435 -1.658464
-11.603575 -1.310944
-13.181481 -1.596189
-12.663157 -0.848141
-12.860402 -1.255529
-12.465955 -0.858008
-12.878314 -0.512909
-12.868808 -0.693183
-13.091523 -0.403823
-12.902038 0.252334
-13.731352 0.219452
-13.076790 0.697457
-13.910011 0.635719
-12.893736 0.869339
-13.526489 1.036297
-13.874110 1.220622
-13.498622 0.890303
-13.613685 1.369431
-13.763600 1.844577
-13.312416 1.233267
-13.940278 2.083018
-13.754694 2.091167
-13.398636 2.857115
-13.295027 2.345682
-13.420683 2.320110
-12.752833 3.098166
-13.284147 3.990967
-13.264285 3.343492
-12.637765 3.600621
-12.490186 3.628267
-12.542498 3.854925
-12.759795 4.465997
-12.443127 4.061187
-12.323524 4.202415
-12.117676 4.112459
-12.278922 4.074791
-12.020012 4.668506
-11.635039 5.556037
-11.133840 5.231332
-11.348789 4.951827
-11.291801 4.892976
-10.979661 5.028522
-10.609159 5.459984
-11.015297 5.613484
-10.690131 5.364697
-10.853779 5.518735
-9.868105 5.123633
-9.710538 5.164049
-10.000971 5.353195
-9.214958 5.643377
-9.294558 5.154726
-9.229690 5.105552
-9.093624 5.107035
-9.305131 4.632966
-8.783711 4.971887
-8.360386 5.085231
-8.021897 5.227803
-8.936521 4.638613
-8.740821 4.831733
-7.825524 4.367590
-8.072903 4.466476
-7.455537 4.525073
-8.420684 4.013225
-7.641819 3.932887
-8.043173 3.960256
-7.990404 3.286007
-8.250799 3.243600
-7.350755 4.132612
-7.373807 3.079071
-7.746251 2.864485
-8.042254 2.317808
-7.650566 3.079141
-7.439637 2.104597
-7.639610 2.683376
-8.191386 2.077352
-8.217631 1.714798
-8.241451 2.319570
-8.300293 1.527291
-7.740084 2.506557
-8.167818 1.847767
-8.611548 1.722629
-9.239515 1.797583
-8.858167 1.679616
-8.936531 1.186892
-8.510472 1.094949
-9.682530 0.996300
-9.675294 0.874969
-9.037104 1.004149
-10.154607 1.375656
-9.958515 1.402512
-10.423104 1.515556
-10.202271 1.589822
-10.042525 0.962216
-11.326592 0.658065
-11.282684 0.732557
-10.696354 1.660973
-11.263058 1.029620
-11.484250 1.591018
-11.431517 0.936653
-11.733626 1.286002
-11.993839 1.938315
-11.659323 1.952118
-12.646390 2.329855
-12.377615 1.748556
-12.074010 2.073545
-13.341204 2.525550
-12.515757 2.690830
-12.825914 3.771091
-13.495085 2.691626
-12.957398 3.244606
-14.446220 3.241661
-13.213443 3.626353
-13.198019 3.922214
-13.653818 3.841070
-14.193360 4.276410
-13.873955 3.797917
-13.553106 5.136070
-14.129688 4.995034
-12.631217 5.232840
-13.366772 5.062287
-13.388825 5.693302
-13.334406 5.846141
-13.632235 5.802364
-12.917296 5.810963
-13.252940 6.571148
-13.174131 7.189225
-13.050883 6.751166
-13.286127 6.362458
-13.409729 7.479587
-13.130984 7.776768
-12.266822 7.678733
-12.239409 7.845438
-12.274009 8.281515
-12.156123 8.671846
-11.974615 8.380016
-12.089346 7.970138
-11.217821 8.852409
-12.165103 9.514842
-11.347073 9.022777
-11.057818 9.476090
-10.767519 8.507359
-10.701491 9.651355
-10.979411 9.171436
-10.530142 9.048261
-9.429272 9.901334
-9.534176 9.469155
-9.637787 8.496509
-8.805690 9.229883
-8.867435 8.784464
-8.991631 9.488718
-8.818015 8.913954
-8.489443 9.653116
-8.485281 8.933116
-7.622310 9.483130
-7.965919 8.710511
-7.620736 8.733806
-8.087327 9.270381
-7.445864 8.454805
-8.094068 8.078144
-6.449228 8.816951
-6.886697 8.560087
-6.835175 7.352163
-6.826757 7.374072
-6.524088 7.423667
-6.728530 7.266395
-5.756270 7.495823
-6.491262 7.365448
-5.803084 6.699149
-6.138949 6.971867
-5.827176 6.388909
-6.350399 6.662329
-5.947404 7.008793
-6.419476 6.198611
-7.387784 5.905043
-6.294964 5.977804
-6.828844 5.895515
-6.270633 5.517040
-6.994336 4.658449
-7.702691 5.197125
-7.556498 5.509518
-7.187578 4.822047
-6.540572 4.230043
-7.282401 4.797166
-7.913795 4.419923
-8.192670 4.406773
-8.631279 4.263047
-7.796883 3.902969
-8.267410 4.130838
-8.483301 4.523604
-8.946783 3.247859
-9.154564 2.941757
-8.931984 3.731579
-9.476842 3.881557
-10.053982 3.622583
-9.491865 3.540297
-9.411509 4.192656
-10.836840 3.736157
-10.452685 4.203747
-10.628691 4.686626
-10.561325 4.580457
-10.594932 3.778059
-12.074504 4.581277
-11.911714 4.739110
-11.883216 5.529095
-11.330614 5.388161
-11.926408 4.627227
-11.673462 5.144294
-12.276420 5.692117
-12.723287 6.047390
-12.866869 6.124398
-13.546317 6.399571
-13.003833 7.004149
-12.975738 7.579889
-13.147918 6.758682
-13.125867 7.042525
-13.328116 7.906880
-14.165519 8.680465
-13.168349 8.261644
-13.251430 8.231065
-13.513239 8.546758
-13.660943 9.076568
-13.557309 10.480904
-13.005982 9.843830
-13.449541 9.869866
-12.844430 9.716038
-12.673982 11.059769
-12.410376 10.464438
-12.941770 11.446457
-13.488013 11.032818
-12.557501 11.713970
-12.207718 11.758431
-11.805704 11.978890
-11.956132 12.554099
-12.515748 12.363080
-11.817866 13.107626
-11.203339 13.176412
-10.798741 13.216964
-10.924416 13.334450
-10.000163 13.493865
-10.529411 13.543395
-9.810757 13.748223
-10.409010 14.427582
-9.435695 14.747495
-8.449271 14.032232
-9.298625 14.464756
-9.320551 13.621569
-8.987276 14.190016
-8.087793 13.538424
-7.994076 13.664748
-7.737224 14.840485
-7.565047 14.165753
-6.896375 13.612028
-6.917365 13.414042
-7.305062 13.937645
-6.783400 13.057517
-6.366419 14.009896
-5.098272 13.162723
-5.278590 13.104535
-4.364738 12.660351
-5.083573 12.197072
-4.598585 12.456055
-5.134604 12.352905
-3.491194 12.402203
-3.918979 12.602067
-3.182258 12.434921
-4.412000 11.422655
-4.181227 11.977305
-4.519722 11.584565
-4.211584 11.496292
-3.639151 10.797337
-4.008101 11.237463
-3.690448 9.860396
-3.476551 10.242449
-4.024648 9.336313
-3.808167 9.067891
-4.209069 10.053026
-3.139438 9.704500
-3.148908 9.064389
-3.954229 8.038290
-4.642849 7.934244
-4.547508 8.342615
-4.181711 8.690920
-4.898153 7.281651
-4.222449 7.388963
-5.024264 7.613073
-5.785831 7.372926
-5.382903 7.228302
-6.063475 7.018573
-6.174158 7.218540
-5.707320 7.063436
-5.687534 6.778785
-6.721533 6.567600
-7.248565 6.620939
-6.700810 7.070936
-7.698097 6.685786
-7.858195 5.802618
-7.727419 5.699274
-8.470784 6.991278
-8.571610 7.259799
-9.134762 6.922700
-9.580735 6.997297
-8.831009 7.241256
-9.541180 7.485449
-9.713745 7.702406
-9.515698 7.167553
-10.442460 7.985949
-10.776287 8.380246
-10.826367 8.430543
-10.622036 9.110877
-11.569545 9.000310
-11.550957 8.748439
-11.911313 8.903180
-11.845377 10.021090
-11.653441 10.101915
-12.353644 10.200154
-12.526540 10.701692
-12.889315 11.053292
-12.444247 11.206501
-12.255348 11.587666
-12.535490 11.416560
-12.805872 12.676387
-12.541084 12.812313
-12.742774 13.085326
-11.933618 12.753336
-12.041431 14.128509
-12.424389 14.679177
-12.167646 14.999471
-11.514231 14.681626
-12.008149 14.169688
-11.348888 15.473391
-11.861992 16.858375
-10.871238 17.110003
-10.789339 16.741459
-11.083764 16.981964
-11.008339 16.960397
-10.103436 17.172542
-10.279200 18.568658
-9.864654 18.147842
-9.290573 18.098058
-9.131490 19.038354
-7.925213 18.066410
-7.285388 19.186244
-8.041616 19.269950
-7.972357 18.806869
-6.765525 19.998721
-6.877734 18.770050
-5.655075 19.457293
-5.234222 18.962061
-6.665774 20.330597
-4.776961 20.617405
-5.183200 19.800009
-4.453084 18.853873
-4.078606 19.938544
-4.379818 20.272586
-3.911212 19.451171
-3.206808 19.449467
-2.956601 17.906929
-2.513977 18.462507
-2.240588 18.952472
-1.209234 18.188974
-1.007061 17.746906
-1.844652 18.091225
-1.055110 17.388261
0.037437 17.638367
0.059162 16.465220
-0.298614 16.286284
-0.055389 15.989733
0.143030 15.921856
0.097259 15.895667
0.458313 15.640419
0.134240 14.968297
0.816179 14.870063
0.648720 14.117114
0.763863 12.776145
0.497881 13.117146
0.500559 13.421045
0.240894 13.029332
0.959763 12.387784
0.148666 11.406136
-0.018413 11.850020
0.471116 11.653944
0.163360 10.512623
-0.128527 9.899202
-0.909310 10.205405
-1.686400 10.381004
-0.628325 10.793954
-1.108015 9.221159
-1.292626 8.855588
-2.184092 9.356360
-2.586482 9.045252
-3.010945 7.971297
-2.673234 9.034345
-3.587015 9.194497
-3.708119 8.190234
-5.087866 8.684133
-5.840325 7.811461
-5.559628 7.390971
-6.230661 8.276266
-7.137648 8.559068
-6.980986 9.020015
-6.649705 8.399755
-7.015373 7.668172
-7.649262 8.484843
-8.787559 9.477832
-9.211029 9.616391
-8.887752 9.549011
-10.274428 9.066358
-10.380937 9.776097
-9.946474 11.458525
-11.076595 10.320034
-10.736340 10.615469
-12.347534 10.664483
-12.021265 12.026026
-12.084395 13.101528
-12.387725 12.646593
-12.833926 12.913251
-13.522295 13.028630
-12.712708 15.742491
-12.532521 16.009269
-13.571467 15.362057
-13.785736 16.074544
-14.401112 17.131512
-14.165382 18.095483
-12.846264 18.883773
-13.446219 19.314475
-13.786598 19.517487
-13.948636 20.629163
-12.860123 20.541747
-12.911807 21.424503
-13.584544 21.475303
-12.205420 23.471397
-12.484934 24.129007
-11.692506 23.635316
-10.862615 24.210942
-11.559472 24.805783
-11.684411 26.130821
-10.758224 26.477056
-10.082666 27.447963
-9.138130 26.874072
-9.126036 26.844013
-8.144913 29.097015
-7.631345 28.500458
-6.868219 28.948087
-6.841080 28.238224
-5.645403 28.976291
-5.892504 30.412590
-4.820173 30.839282
-3.849315 28.761837
-2.847695 29.727922
-2.722121 29.415918
-1.850323 30.325383
-0.354332 30.104724
0.026319 29.055603
-1.044104 29.994812
0.377072 29.941183
2.072342 30.137109
4.310151 30.462397
4.065866 28.625856
3.301096 29.135366
2.826817 27.389266
5.138532 29.394954
7.046367 28.542146
6.453824 27.282257
6.477817 27.546383
6.906354 26.907530
7.105307 26.300097
8.710851 25.883023
7.960381 25.895223
8.644819 25.595328
9.709996 23.990204
8.149832 23.147354
9.554527 21.259704
9.908305 21.963440
9.854607 22.440056
10.920557 19.954821
9.361413 20.577520
8.870713 19.081374
9.723176 17.462830
9.316288 19.192734
10.077114 17.422031
9.814409 17.276398
9.842743 15.728856
9.332397 12.722596
8.820930 13.739695
6.292457 14.174367
6.377413 13.542986
7.955800 13.210061
6.599781 11.749760
5.582229 9.443485
5.353464 9.593005
2.951319 10.270838
5.281488 10.288604
2.449270 10.158257
1.944985 8.497500
2.114714 8.444439
-0.269126 8.740792
-1.227378 9.307835
-1.093930 9.062715
-3.172858 7.697899
-3.086423 6.724976
-5.713657 7.795548
-7.653271 8.471822
-6.260276 10.600369
-8.943425 7.992611
-7.973652 9.560484
-9.349579 9.478943
-11.618533 12.814970
-11.692407 11.410942
-12.835654 11.946221
-14.769250 12.460983
-15.656970 15.294455
-14.446574 15.117568
-16.853491 15.388673
-20.343652 14.618279
-18.877020 18.961780
-18.561048 18.110335
-19.761664 19.000113
-21.072145 20.593339
-24.254226 23.919540
-21.168598 28.086108
-21.225229 23.983703
-23.249352 25.018747
-24.741007 27.570951
-27.874786 31.947605
-25.897811 36.625505
-22.551921 32.739170
-24.996664 32.909991
-23.597221 35.499714
-29.371216 40.791169
-26.858938 45.644436
-24.372889 45.412089
-23.244873 46.230910
-21.581200 44.470528
-23.949200 47.306007
-24.384342 54.567507
-25.683515 54.293537
-22.792618 57.213424
-19.503279 57.447048
-18.691802 55.593059
-17.397820 62.044603
-23.347547 65.702174
-20.633012 69.512272
-9.816375 72.043975
-9.771387 62.512016
-11.097298 61.807246
-15.564131 78.113299
-12.235047 80.253294
-0.775232 77.143705
-4.484940 69.925076
-8.784817 71.988220
5.373814 86.561291
7.225023 83.581708
6.313381 74.265585
3.380202 72.734780
1.598859 89.548515
17.838129 90.695363
23.647126 83.949694
15.104136 83.625151
10.706739 80.060769
16.700682 92.745636
27.666735 93.398077
29.971561 81.136668
32.951743 94.364260
33.805728 86.929580
33.390964 80.740575
40.985430 87.851488
52.963444 81.277790
56.018113 89.472155
54.016414 78.878654
42.843330 76.501167
50.900060 95.637955
60.204280 75.461928
66.436748 81.267011
54.067083 82.927474
44.553928 63.798049
80.627148 79.530299
79.893153 58.384347
63.830680 78.897769
83.976140 98.197835
60.879277 80.970967
101.881974 63.715276
108.181213 47.752336
59.242189 82.601814
114.299379 67.672315
78.547561 47.946486
23.733182 63.726131
89.166466 18.700174
128.220528 62.837129
161.926525 26.998287
161.079827 -19.758772
32.698645 184.381614
-3.287912 -4.605820
98.180584 -55.528188
116.116725 84.107355
108.298744 -8.665396
216.552859 231.660360
34.786522 15.179336
-136.990391 -420.107463
62.292387 -136.126429
-348.349680 -289.748294
256.487262 179.929889
-2776.344419 -2088.105788
