6400.624219 7762.165585
651.440321 205.682956
-179.965633 -113.660014
-230.806816 115.165084
-118.927206 238.810863
320.396598 -195.267796
-209.984888 89.530156
-52.974308 161.693660
-22.842735 -59.733217
-78.735885 11.237872
-49.236618 -41.030864
82.970123 -18.650650
-40.798868 46.335712
45.310387 8.761937
-8.728924 23.447011
-13.265249 9.181601
-0.890471 35.112369
21.142567 -24.976579
11.299682 -24.580764
14.104311 -0.632739
6.508427 -0.568938
-2.283454 5.717654
3.364950 -2.630998
12.706452 -1.845844
-5.347008 -1.309142
-0.923505 -9.697633
0.850644 -8.401104
-0.893622 -7.678784
-1.241923 8.686722
2.034979 -4.251039
7.542702 -4.534406
-3.191345 -5.112660
-6.065042 5.219078
-13.337023 0.307827
-1.271237 -1.258609
5.662114 2.809017
2.250431 1.084423
0.660931 -1.689571
0.235095 1.821305
2.241936 2.593317
-4.647006 8.183491
-2.682648 1.262087
7.466882 -2.651178
3.451996 -3.717176
1.725257 1.497725
-3.953501 1.000252
3.120196 0.594565
3.931015 6.665679
4.142034 1.367610
-0.270432 -3.272703
1.252708 -3.475840
2.968640 -0.772566
-1.363386 1.914267
-0.858727 0.363568
5.709617 -1.379071
4.899319 -1.310451
-0.909030 0.343416
-3.643247 -1.486888
-0.324656 -1.847244
1.355946 3.608538
2.411252 0.415521
1.243578 -2.820823
1.776728 -4.054244
1.554511 1.078728
-1.721271 1.529265
-2.995954 0.848589
2.693704 -1.110352
3.526195 0.088045
0.193955 -1.606731
-1.800471 -1.974307
0.537421 -2.282210
0.920715 3.739094
-0.461033 2.280214
1.335997 -1.310128
0.646927 -3.463037
1.229549 0.201614
-2.741350 1.398289
-1.082998 0.221595
1.786243 1.146031
3.278726 1.217239
0.660488 0.301520
-1.907391 -1.948023
0.670774 -1.641670
-0.316778 2.286578
0.012558 2.194347
0.762699 -0.125981
3.142586 -3.209260
1.747307 0.730251
-1.664321 1.021083
-1.118530 0.051280
0.890653 0.592682
3.147948 1.506345
0.201462 -0.587585
0.287950 -3.200332
0.127399 -1.397574
0.769818 0.536202
-0.777604 2.535832
1.063886 -0.303060
2.632244 -1.252816
1.350349 -0.241859
-1.560031 0.238595
-1.346201 -1.834402
1.128519 0.001559
1.950543 1.428407
0.844289 0.481295
-0.169344 -2.669747
0.887053 -1.459883
-0.209694 0.640498
-1.272207 1.459136
0.052614 0.501194
1.850500 -0.671770
2.042051 -0.684125
-1.119276 0.122425
-0.622772 -1.291868
0.163353 0.851197
0.758141 1.707715
0.152662 1.433553
0.094565 -2.221405
1.429522 -1.784799
-0.203115 0.910174
-1.365625 0.949052
-0.697049 0.167666
2.704108 -0.262227
1.599560 0.596249
-0.221287 -0.820739
-1.016235 -1.157757
0.014469 -0.106880
0.898010 1.683598
0.231514 1.329859
1.484503 -1.447384
1.241348 -1.303695
-0.117364 0.015884
-1.009538 0.465820
-0.758119 -0.290256
1.902103 -0.098535
1.645786 0.388463
0.142538 -1.032876
-0.553884 -1.411128
0.594843 -0.249281
-0.407777 1.538244
-0.291429 1.103884
1.324149 -0.667051
1.520901 -1.304100
0.145437 0.014631
-1.080005 -0.386081
-0.781419 -0.193619
1.116748 -0.070845
1.646077 0.867034
-0.077783 -0.525644
-0.321023 -1.850617
0.220878 -1.048831
-0.256685 1.227689
-0.548275 1.092928
0.612112 -0.313034
1.713071 -0.417806
-0.075461 -0.268189
-0.556637 -0.258723
-1.012681 -0.477282
0.967585 0.311515
1.148180 1.624803
0.465481 -0.575298
0.270525 -1.263960
0.713629 -1.135476
-0.455905 1.243803
-0.935496 0.444520
0.818915 0.255925
1.418809 -0.279470
0.728125 -0.389137
-0.933929 -0.619310
-0.176605 -1.276169
0.946237 0.614506
0.589585 1.209951
0.044201 0.331714
0.430872 -1.929976
0.738608 -0.777441
-0.380187 0.290325
-0.794861 0.316116
0.429547 -0.132492
1.605456 -0.134323
1.175301 0.230684
-0.783776 -0.739403
-0.676667 -0.759743
0.115923 0.278533
0.253558 1.386294
-0.068755 0.350218
1.502481 -1.530032
0.712350 -0.960106
0.320567 -0.088581
-1.077110 0.507601
0.029498 0.072272
1.331163 0.737073
0.683992 0.272284
-0.404473 -0.781387
-0.311419 -1.391604
0.455206 -0.063319
-0.503509 1.285993
0.071068 0.106238
0.785854 -0.527973
0.655418 -0.465200
-0.189367 0.124674
-1.004965 -0.331971
0.113411 -0.361713
1.243672 0.479719
0.862383 0.765090
-0.452566 -0.398212
0.426482 -1.506904
0.204361 0.313921
-0.668793 0.812583
-0.229052 0.488823
0.599803 -0.746840
1.442192 -0.598790
0.210839 -0.090877
-1.154232 -0.708566
-0.193905 -0.128164
0.454274 0.280786
0.266339 0.824503
0.222924 -0.708591
0.625150 -1.301350
0.092199 0.253453
-0.611637 0.617358
-0.455862 0.203917
0.908052 -0.066460
1.373946 0.278416
-0.207443 -0.090994
-0.639467 -0.598877
-0.086540 -0.126176
0.167265 0.442208
0.374815 0.879602
0.064083 -0.722584
0.496079 -0.797938
0.562016 -0.393351
-0.663936 0.156691
-0.462437 -0.244518
0.367972 -0.082158
1.046759 0.383177
0.009162 -0.079951
-0.596803 -1.116693
-0.011358 -0.457052
0.069360 0.439658
0.064869 0.662568
-0.174676 0.224166
0.996390 -0.698708
0.110888 -0.071404
-0.555417 0.136469
-0.742664 0.329214
0.384142 -0.250521
1.573850 0.554405
0.242405 0.266780
-0.316074 -0.584386
0.035531 -0.787299
0.399886 0.357194
-0.161973 0.631293
-0.134616 -0.190749
1.075548 -0.297288
0.751608 -0.131331
-0.197356 -0.057542
-0.830667 -0.613388
0.384809 0.191838
0.775952 0.113284
0.640358 -0.030345
-0.227316 -0.967110
0.492420 -1.053218
0.130647 0.442007
-0.464329 0.478702
-0.251023 0.151001
0.795435 -0.449447
0.637283 0.178975
-0.478244 0.079017
-1.352004 -0.641669
0.198051 -0.350720
0.551254 0.746006
-0.234639 0.685321
0.184961 -0.935213
0.363500 -0.688346
-0.149794 0.539247
-0.369610 0.835920
-0.281780 -0.085833
0.999693 -0.308445
1.098885 0.411689
-0.195730 -0.024235
-0.679665 -0.631937
0.211672 -0.523179
0.159335 0.756888
-0.186552 0.844501
0.553374 -0.388256
0.176771 -1.148650
-0.162628 -0.106518
-0.648547 0.338596
-0.540415 -0.109295
1.170517 -0.232239
0.983745 0.826937
-0.037000 -0.179138
-0.408623 -0.867322
-0.281879 -0.371172
0.057981 0.367305
-0.008941 0.878429
0.312385 -0.153184
0.912804 -0.833604
0.088913 -0.430883
-0.888507 -0.079458
-0.230291 -0.079926
0.115489 -0.032685
0.766370 0.470162
0.080916 -0.086024
-0.200517 -1.023073
-0.211444 -0.433555
-0.077590 0.589613
-0.680630 1.018975
0.231390 0.129265
0.791563 -0.471992
0.058708 -0.271742
-0.620100 -0.473601
-0.881838 -0.303190
0.529197 -0.009103
0.556646 0.637157
-0.013647 0.110321
-0.179088 -1.171329
-0.113589 -0.851593
-0.168601 0.966538
-0.200356 0.168902
0.231332 0.084904
1.193745 -0.298918
0.376657 -0.158253
-0.769699 -0.223221
-0.719561 -0.604299
0.356786 0.114366
0.624771 0.451354
-0.338367 0.436887
0.053330 -0.480942
0.242082 -1.020189
-0.330281 0.390206
-0.596689 0.533455
0.099747 -0.172298
0.848436 0.078901
0.561812 0.204565
0.056996 -0.705844
-0.144843 -0.602334
0.106268 0.528069
0.295248 0.250569
0.299992 0.198805
0.239190 -0.448283
0.602783 -0.386427
-0.296192 -0.373115
-0.459402 0.056495
-0.099423 -0.147183
0.804866 -0.075943
0.482680 0.420143
-0.166798 -0.087850
0.224010 -0.998209
0.041827 -0.514162
-0.219652 0.189602
-0.143010 -0.100982
0.416839 -0.707100
0.589740 -0.352832
0.093043 0.206258
-0.549087 0.070744
-0.477372 -0.080920
0.147650 0.310551
0.913024 0.340739
-0.468978 -0.599950
0.103093 -0.968572
0.042355 0.040314
-0.351254 0.368336
-0.430664 0.708241
0.511941 -0.512017
0.877108 -0.150980
-0.011793 -0.364589
-0.504709 -0.036375
-0.155711 -0.332394
0.877187 0.275289
0.502610 0.597489
-0.189401 -0.367539
0.478076 -0.655327
-0.120169 -0.439984
-0.156029 0.675046
-0.096333 0.129416
0.331607 -0.145020
0.678978 -0.074028
0.309793 0.065817
-0.431090 -0.426112
-0.257005 -0.449527
0.268411 0.230999
0.539096 0.458539
-0.027320 -0.292369
0.392373 -0.629732
0.010145 -0.655245
-0.204615 0.066769
-0.329068 0.343996
0.135619 0.433552
1.055956 0.272643
0.530601 -0.307662
-0.512022 -0.279396
-0.338577 -0.500609
0.407128 0.055311
0.267493 0.627516
-0.173030 -0.163864
0.820181 -0.823891
0.348593 -0.467381
-0.360864 -0.141477
-0.652697 -0.389963
0.364471 -0.094844
0.754491 -0.080468
-0.203724 0.036864
0.622509 -0.701252
-0.110581 -0.539106
0.219511 0.189542
-0.459880 0.791950
0.254947 -0.443435
0.340709 -0.379998
0.610670 -0.232524
-0.379580 0.120183
-0.486808 -0.520272
-0.142521 -0.120335
0.452734 0.464370
0.117937 0.405343
-0.100891 -0.887395
-0.024678 -0.779116
0.235729 0.244770
-0.294956 0.405819
-0.115237 0.043116
0.232783 -0.209476
0.820780 0.363296
-0.287434 -0.212048
-0.663724 -0.595020
0.287148 -0.398667
0.355804 0.363090
-0.010320 0.460480
0.086171 -0.715028
-0.025247 -0.605442
0.027875 -0.118968
-0.650992 0.428410
-0.430382 -0.016320
0.535032 0.036142
0.693959 -0.088674
-0.284693 -0.002329
-0.438859 -0.417525
-0.034492 -0.328804
0.408045 0.252516
0.038198 0.488868
-0.194012 -0.376221
0.377272 -0.522902
0.033130 0.170563
-0.791196 0.612402
-0.243896 0.102870
0.488925 -0.427680
0.574821 0.173845
-0.330157 0.183245
-0.392209 -0.594747
0.144088 -0.226560
-0.064315 0.483438
0.048016 0.479929
0.134055 -0.315648
0.561616 -0.632298
0.311801 -0.261417
-0.284896 -0.051289
-0.400521 0.213696
0.140762 -0.183889
0.397085 0.284386
0.239348 0.188996
-0.165468 -0.741893
-0.265961 -0.237343
-0.132818 0.281862
-0.367261 0.553376
-0.229481 -0.363848
0.978968 -0.377206
0.056592 -0.493056
-0.248726 -0.271330
-0.971214 -0.264007
-0.066752 0.329410
0.404738 0.560954
0.159462 0.042566
0.159371 -0.609544
0.122328 -0.668490
0.248924 0.215509
-0.409361 0.147667
-0.546647 -0.010085
0.598903 -0.469030
0.513239 -0.193031
-0.670700 -0.234927
-0.160488 -0.438414
-0.066498 0.299606
0.373182 0.421832
-0.131332 0.149775
0.052243 -0.530235
0.493169 -0.789061
-0.346404 0.129368
-0.233510 0.587014
-0.359651 -0.079183
0.661424 -0.379827
0.553207 0.106879
-0.643448 -0.192865
-0.002269 -0.163061
0.891684 -0.403684
0.123896 0.684830
-0.039698 0.121398
0.135743 -0.326651
0.334701 -0.670963
0.151095 0.169334
-1.027798 0.360235
-0.020110 -0.125596
0.546183 0.407490
0.643173 0.140673
-0.170390 -0.221419
-0.572202 -0.415141
-0.307909 -0.454073
-0.075539 0.410713
-0.048190 0.478202
0.516365 -0.553675
0.957877 -0.476295
0.191048 -0.167371
-0.566745 -0.283398
-0.169301 -0.212347
0.902776 0.218415
0.424629 0.390677
0.298585 -0.187319
-0.140306 -0.611330
-0.265914 -0.340642
-0.158086 0.900895
-0.149482 0.742001
0.586211 -0.291584
0.788087 -0.151092
-0.117981 0.115742
0.011170 -0.096892
-0.451771 -0.716311
0.416382 -0.026317
-0.022809 0.148982
0.537477 -0.137354
-0.020722 -0.788340
-0.024927 -0.514176
0.206821 0.399609
-0.406941 0.428146
-0.000355 -0.349687
0.433556 -0.422629
0.255040 0.129128
-0.737877 0.001722
-0.440387 -0.291215
0.102653 0.206617
0.038640 0.497666
0.043434 0.252810
-0.060302 -1.039998
0.469841 -0.252154
-0.576597 0.111213
-0.394197 0.532794
0.032238 -0.006321
1.222376 0.017286
0.257647 -0.017445
-0.276444 -1.087586
-0.228616 -0.792032
-0.002116 -0.018452
-0.322926 0.038310
-0.367247 -0.025986
-0.084924 -0.762584
0.150273 -0.072901
0.065082 0.022199
-0.535538 -0.005676
-0.496998 -0.416804
0.450403 0.336054
0.228503 -0.025184
-0.577735 -0.229056
-0.038777 -0.533900
-0.204652 0.170858
-0.039898 0.492590
0.188845 0.082435
-0.175283 -0.565539
0.440737 -0.594073
-0.076740 -0.234860
-0.696490 -0.115010
-0.394228 -0.005732
0.694917 0.273835
0.291665 0.300480
-0.006080 -0.209853
0.002906 -0.794099
0.258159 -0.322548
-0.317051 0.713329
-0.059011 0.147325
0.184226 -0.088701
0.478695 -0.282832
-0.232446 0.046889
-0.342118 -0.476237
0.008915 0.142440
0.270319 0.270137
0.306494 -0.299279
-0.480610 -0.402972
0.169412 -0.670744
-0.043063 -0.034081
-0.063697 0.092859
-0.307967 -0.263984
0.009281 -0.231551
0.257425 -0.397442
0.277046 -0.155042
-0.096012 -0.579220
0.156439 -0.792094
0.395071 0.207393
0.173913 0.310292
0.108766 -0.199103
0.271227 -0.994873
0.488350 -0.295272
-0.577735 0.159150
-0.095707 0.605936
0.157052 0.041608
0.700385 0.302176
0.051212 0.121013
-0.471999 -0.380927
-0.103294 -0.240718
0.514742 0.769722
0.097496 0.266072
-0.259998 0.095520
0.167989 -0.177016
0.505996 -0.310866
-0.798580 -0.166468
-0.395057 -0.119618
-0.140383 0.194206
0.474185 0.236914
-0.009741 0.067072
-0.094074 -0.729915
-0.313617 -0.748998
0.108379 0.337777
-0.241971 0.642205
-0.088333 -0.378376
0.234357 -0.552207
0.792150 -0.479089
-0.310417 -0.386194
-0.228543 -0.439766
0.156588 0.069669
0.499174 0.211927
0.119891 -0.192366
-0.385545 -0.928350
0.174134 -0.800365
-0.058970 -0.012312
-0.318028 0.080117
-0.267501 -0.083952
0.341303 -0.329303
0.364436 0.019025
-0.400548 -0.493528
-0.746376 -0.632398
0.032599 -0.088719
0.323555 0.464825
0.082155 0.209587
-0.232037 -0.957982
0.053902 -0.649646
0.007693 0.016139
-0.322798 0.165575
-0.189289 -0.030434
0.640862 -0.083450
0.368797 0.071632
-0.130087 0.050854
-0.661021 -0.469897
0.256138 -0.266989
0.333951 0.847562
0.274347 0.459100
0.026162 -0.294497
0.018213 -0.387628
0.206504 0.030213
-0.460344 0.175622
-0.299646 -0.334059
0.447733 0.023265
0.677949 0.251326
-0.201437 -0.161408
-0.298181 -0.323052
-0.187116 -0.632119
-0.191844 0.537743
0.346249 0.373220
-0.158262 -0.285259
0.513934 -0.417534
-0.071983 0.062494
-0.193290 -0.107290
-0.538248 0.005565
0.423313 0.113631
0.507902 0.408125
-0.336451 -0.294316
-0.258943 -0.313977
-0.223682 -0.474253
0.060863 0.218414
-0.678484 0.425653
-0.199420 -0.140918
0.092931 -0.186494
0.286567 -0.078271
-0.461047 -0.073466
-0.662756 -0.341642
0.133523 0.212872
0.213220 0.426522
0.345660 -0.209387
-0.139429 -0.962467
-0.126081 -0.631025
0.171589 0.227340
-0.221491 -0.018217
0.366620 -0.430495
0.313107 -0.364947
0.538492 -0.229532
-0.324686 -0.322682
-0.345408 -0.602626
0.374630 -0.056789
0.437451 0.196285
0.305455 0.203133
0.168360 -0.539413
0.578427 -0.232061
-0.218690 -0.235207
-0.248784 1.058276
-0.450916 -0.113806
1.016405 -0.025736
0.451913 0.380546
0.042691 -0.760785
-1.013836 -0.349596
-0.050238 -0.057013
0.095545 0.963076
0.005164 -0.195349
0.096770 -0.690560
-0.107958 -0.683068
-0.319689 0.126916
-0.712045 0.313161
0.110557 -0.124510
0.247148 0.106884
0.069924 -0.032698
0.242850 -0.567185
-0.423616 -0.626586
0.145777 -0.406941
-0.432709 0.469144
-0.176219 -0.034403
0.090190 -0.036972
0.433070 -0.396335
-0.245454 0.150284
-0.402001 0.397444
-0.273978 -0.158707
0.367681 0.174589
0.478994 0.339905
-0.276213 -0.323514
-0.047291 -0.625029
0.013755 -0.022744
-0.037086 0.463860
-0.529647 -0.029031
0.484893 -0.503657
0.574052 -0.424989
0.036974 -0.541872
-0.931587 -0.514734
-0.896216 -0.091144
0.469598 0.244379
-0.120187 0.865644
0.052431 -0.431223
-0.185940 -0.817177
0.117261 -0.139985
-0.461735 0.321990
-0.536313 -0.235367
-0.252934 0.131919
0.335762 -0.147164
-0.107983 0.012029
-0.326101 -0.054505
-0.144413 -0.193139
-0.006358 0.068337
0.112541 0.176380
-0.113062 -0.206194
-0.069765 -0.745802
-0.019650 -0.210201
-0.607461 0.097319
-0.499189 0.107678
-0.200530 0.142681
0.589389 -0.360179
0.228607 -0.127621
-0.375252 -0.538813
-0.343933 -0.133850
0.419666 0.151879
0.304324 0.898995
-0.204773 0.016312
0.537759 -0.714777
0.805172 -0.428544
-0.449187 -0.128871
-0.697068 -0.240746
0.069858 0.014733
0.472152 -0.206595
-0.117218 -0.180864
-0.377428 -0.565990
0.084939 -0.659129
0.217353 -0.029497
-0.077590 0.056217
-0.138202 -0.020911
0.273286 -0.668934
0.605299 -0.365764
-0.411952 0.210517
0.038298 -0.316663
0.062191 0.048893
0.274171 0.351976
0.341003 0.267234
-0.020199 0.129298
0.035991 -0.817239
0.047771 -0.003646
-0.274587 0.112325
-0.280655 -0.365746
0.455688 -0.438366
0.080422 -0.307401
-0.640849 -0.323300
-0.447144 -0.487290
-0.060763 -0.494028
0.414089 0.208228
0.039979 0.401502
0.255031 -0.582005
-0.191061 -0.834666
-0.170754 -0.429171
-0.720500 0.517558
0.252765 0.252133
0.684335 -0.182190
0.548005 -0.111376
-0.170873 -0.425634
-0.901781 0.087638
-0.074227 -0.711371
-0.116862 0.042736
0.053663 0.591835
0.056557 -0.554106
-0.002987 -0.508511
0.061051 0.093781
-0.507389 0.050603
-0.412435 0.329672
0.319031 -0.085119
0.515409 -0.016260
0.166252 -0.140128
-0.339520 -0.882847
-0.386644 -0.447784
-0.172079 0.199350
-0.153494 0.622431
-0.319320 -0.362568
0.234111 -0.503720
0.263357 0.276608
-0.228782 -0.373903
-0.642746 -0.115333
0.118212 -0.191879
0.266002 0.174071
-0.278847 -0.015046
-0.194658 -0.677321
-0.498233 -0.393197
-0.095621 0.157600
-0.526289 0.382280
-0.126120 -0.358604
0.440862 -0.403690
0.367547 -0.507424
-0.580167 -0.141601
-0.417668 -0.429596
0.277379 0.135684
0.248648 0.638492
-0.288036 -0.307294
-0.281114 -0.806765
0.333387 -0.758941
-0.511603 0.433465
-0.510549 0.298770
-0.068039 -0.010898
0.559823 -0.483311
-0.020786 -0.425580
-1.039044 -0.201590
-0.511793 -0.394077
-0.034119 0.169953
0.353377 0.468842
0.112958 0.212155
0.058253 -1.050447
0.236641 -0.621476
-0.188564 -0.143730
-0.495181 0.558760
-0.207182 -0.175022
0.604774 -0.209694
0.086551 -0.095748
-0.341947 -0.286471
-0.558592 -1.060655
0.027875 -0.215529
0.203199 0.660047
-0.299195 0.174597
-0.131518 -0.665307
0.310867 -0.779032
-0.487999 -0.039673
-0.857396 -0.122813
-0.413592 -0.211837
0.250982 0.292494
0.657061 0.109685
-0.357806 -0.184714
-0.631830 -1.050021
-0.292702 -0.070629
-0.199583 0.408022
-0.030398 0.360495
-0.276939 -0.349229
0.722639 -0.328767
-0.191185 0.199651
-0.723664 -0.101028
-0.943917 0.183539
0.748129 -0.150838
0.479460 0.382168
-0.014440 -0.459812
-0.178354 -0.764047
0.218831 -0.322497
-0.161121 0.009356
-0.429951 0.943035
0.463144 -0.456691
0.407700 -0.171295
-0.136702 -0.472466
-0.563425 0.034406
-0.201715 -0.189682
0.037864 0.627452
0.202145 0.297875
-0.064356 0.127397
-0.155213 -0.522596
-0.114459 -0.624749
-0.294930 0.372752
0.013373 0.268092
-0.157911 -0.370399
0.560323 -0.396436
0.261902 0.173621
-0.380768 -0.449613
-0.370316 -0.465054
0.433011 0.251948
0.117344 0.411217
-0.005395 -0.130145
0.014859 -0.967248
0.351601 -0.200247
-0.338982 0.078087
-0.804085 0.138217
0.071598 -0.228312
0.928439 -0.117550
0.338587 -0.040919
-0.960754 -1.087421
-0.390158 -0.533343
0.146398 -0.119757
-0.092347 0.612975
-0.183813 -0.339260
0.367564 -0.708619
-0.187443 -0.283014
-0.348422 0.191893
-1.040997 0.357064
-0.036443 -0.394654
0.616482 0.231821
0.471754 0.353876
-0.354641 -0.174267
-0.194323 -0.841436
-0.235598 0.272124
-0.259125 0.613571
-0.134820 -0.196700
-0.219892 -0.694667
0.528866 -0.471944
-0.171645 0.135031
-0.912353 -0.297476
-0.241814 0.224747
0.608703 0.241112
0.646757 0.673779
-0.279020 -0.924227
0.234293 -0.999190
-0.218232 -0.486179
-0.555830 0.600809
-0.713618 0.884202
0.498406 -0.577823
0.319750 -0.458739
-0.304852 -0.161363
-0.814471 -0.150237
-0.401237 -0.618400
0.287953 0.390511
0.286600 0.943589
-0.135589 -0.682259
-0.123673 -0.833455
0.049439 -0.236367
-0.625896 0.408356
-0.376181 -0.119646
0.619595 0.070334
0.571470 -0.154562
-0.452663 -0.315526
-0.645709 -0.376566
-0.029074 -0.185566
-0.215580 0.361334
-0.249429 0.594774
-0.199312 -0.309110
0.251269 -1.421558
0.077514 -0.073842
-0.801618 0.077984
-0.487399 0.292010
0.314325 -0.346791
0.675833 -0.168138
-0.435887 0.225955
-0.842265 -1.064496
-0.583074 0.055379
0.550537 -0.007255
-0.096973 0.460527
-0.335423 -0.144658
0.357956 -0.620710
-0.138425 -0.212554
-0.611518 0.091803
-1.555272 0.081683
-0.037009 -0.642386
0.393863 0.516277
-0.401183 -0.375416
-0.185441 -0.321074
-0.671633 -0.819203
0.074476 0.269147
-0.444326 0.400484
-0.675334 -0.236803
0.520824 -0.549473
0.388310 -0.515126
-0.657972 0.221944
-0.889559 -0.329180
-0.101296 0.120974
0.214060 0.413808
-0.071863 0.465896
-0.304962 -1.042721
0.119009 -0.800796
-0.003242 0.407108
-0.927509 -0.075341
-0.091163 -0.177733
0.581848 -0.910503
0.447055 0.085584
-0.745004 -0.372928
-0.922560 -0.191763
-0.665673 -0.341672
0.336032 0.522747
-0.466149 0.362402
-0.409198 -0.748159
0.448970 -0.849408
-0.619555 0.037695
-1.152873 0.547990
-0.302511 -0.190040
0.780312 -0.189374
0.617009 -0.315765
-0.454059 0.183734
-1.197596 -1.045261
0.030232 -0.175787
0.125417 0.827032
0.142173 0.059517
0.095273 -0.246067
0.189616 -1.237977
-0.350118 0.022136
-1.236681 0.108599
-0.948065 0.294809
0.490398 -0.714143
0.870399 -0.073436
-0.284321 -0.059405
-0.515815 -1.252904
-0.481757 -0.451649
0.126998 0.402261
-0.008215 0.856821
-0.071286 -0.853705
0.416839 -0.798814
-0.112352 -0.385886
-1.195083 0.106724
-1.118728 0.027151
0.194149 -0.011180
0.557324 0.784510
-0.292181 -0.509771
-0.338956 -0.982165
-0.726631 -0.758663
-0.134771 0.810349
-0.701558 0.823356
0.139937 -0.348621
0.696640 -0.502671
0.059131 -0.289495
-1.140033 0.280988
-1.178027 -0.412173
0.590799 0.064769
0.714088 0.603461
0.020763 0.224764
-0.252962 -1.391646
-0.123787 -0.868859
-0.277517 0.615926
-0.998331 0.399051
-0.086193 -0.070286
1.003516 -0.636925
0.562803 0.159732
-1.202355 -0.722634
-0.965763 -0.758254
-0.400511 0.308599
0.694880 0.868643
-0.078864 0.074446
-0.338452 -1.510569
0.122458 -0.332892
-1.027270 -0.297104
-1.383999 0.573741
-0.199161 -0.854025
0.942625 -0.336226
0.278865 0.156870
-0.758046 -0.775394
-1.199221 -0.640145
-0.519591 0.034588
0.117870 1.264350
-0.576716 -0.234629
0.654140 -0.435752
0.062154 -0.734274
-0.531493 0.201680
-1.252350 0.230495
-0.264029 0.022314
0.446053 0.517849
0.247576 0.328893
-0.903385 -0.658402
-0.516684 -1.526551
-0.206139 0.053473
-0.243472 1.059701
-0.129436 0.622045
0.112379 -0.879869
0.706827 -0.959309
-0.703556 -0.153799
-1.469430 0.009735
-0.928028 -0.224189
1.114004 0.281478
0.361305 1.026493
-0.558653 -0.823035
-0.352263 -0.918783
-0.911306 -0.338184
-0.721932 0.885966
-0.646304 0.451169
0.413090 -0.542532
0.887900 -0.674485
0.021504 -0.069017
-1.036476 -0.119787
-0.555666 -0.774347
0.889055 0.602370
-0.029636 0.552588
-0.318317 -0.216474
-0.040341 -1.718763
-0.143277 -0.401756
-0.797336 0.789773
-1.193361 0.093339
0.549554 -0.347305
0.845726 -0.667361
-0.150978 0.116536
-1.852869 -0.770910
-0.601652 -0.614398
0.368733 0.804520
-0.065310 1.358745
-0.270584 -0.174383
-0.184097 -1.554668
0.485100 -0.843479
-1.415678 0.756462
-1.477250 0.844671
-0.159648 -0.518496
1.496724 0.279606
-0.313810 0.071379
-1.151718 -0.677936
-0.743396 -0.787589
-0.304021 0.624265
-0.051631 1.188271
-0.451745 -0.217104
0.611707 -1.001981
0.472462 -0.942276
-0.556590 0.586726
-2.374962 0.318084
0.157921 -0.124578
1.042276 0.673810
0.148364 0.084108
-1.107619 -1.069192
-0.626683 -1.438552
0.080048 1.107838
-0.889234 0.736745
-0.105652 0.815325
0.786420 -1.631666
1.238545 -0.097332
-1.059213 0.473864
-2.371337 -0.354818
-0.390066 -0.425812
0.986224 0.259912
0.551212 0.661975
-1.034944 -1.779751
0.112719 -1.755541
-0.548395 0.120247
-1.154790 1.437401
-1.019605 0.176088
0.577698 -1.195919
0.969717 -0.375465
-1.664727 -0.184286
-1.721291 -0.561715
-0.934387 -0.240596
0.863559 1.632530
-0.508391 1.105985
-0.453216 -1.185085
-0.434427 -1.606738
-0.277789 -0.034176
-1.648082 1.134650
-1.366468 -0.023260
1.573784 -0.283445
1.250478 0.205151
-1.302996 0.668734
-2.136151 -1.313734
-0.796463 -0.270591
0.070695 1.543829
-0.117139 1.590097
-0.310607 -0.870490
0.582052 -2.479798
0.454582 -0.379585
-1.982957 0.637050
-1.156707 0.886715
0.371346 -0.109644
1.910051 0.018111
-1.148566 -0.295094
-1.298188 -2.470363
-0.371650 -1.167357
0.637474 1.625779
-0.790304 2.482243
-0.274456 -1.648154
1.727854 -1.446450
-0.574815 -0.669006
-2.043646 0.243436
-3.172084 -0.436936
0.970406 -0.324223
1.981522 0.955583
-0.427269 -0.853919
-1.008810 -1.820532
-1.613087 -1.504598
-0.044803 1.414413
-2.503467 2.363010
-0.771453 -1.159600
0.959279 -1.823978
-0.273630 -0.142080
-2.672472 0.019615
-2.600093 -0.706764
0.250059 0.999032
0.946854 2.437775
-0.160030 1.045600
-2.014683 -3.089103
0.150571 -2.022186
-1.668920 1.172553
-1.813525 2.385995
-0.799946 0.745834
2.322815 -1.264587
0.248096 0.363196
-2.630542 0.522315
-3.133897 -1.474201
0.666620 -0.820941
0.928118 3.617304
0.424752 0.309211
0.605788 -2.333494
0.896969 -2.867434
-0.991778 1.497918
-4.341181 2.538874
-1.437462 0.017329
3.937484 -0.346420
0.236369 -1.356906
-0.312465 -1.588175
-3.201771 -1.699018
1.568259 -1.588982
-0.408048 4.715410
-1.670168 1.589890
-0.569766 -3.347160
0.501339 -4.461842
-0.940509 -0.786274
-6.327429 -0.622669
-1.286378 0.436810
3.179891 0.596261
2.887192 0.897682
-6.035332 -1.218945
-4.848567 -3.800183
-0.729166 -0.564745
-3.702971 3.183996
-1.785096 2.112885
-1.420717 -2.141438
3.788375 -2.960792
0.411302 2.914592
-8.847103 0.055516
-4.097060 0.969270
-0.260927 5.446608
5.226270 2.117487
-5.551806 -2.788810
-5.304646 -5.878444
2.708840 -0.402367
0.622276 12.179935
-5.443783 3.596269
3.444461 2.104698
1.211699 0.098535
4.871189 -0.175204
-6.670699 -1.070916
-1.581142 -12.492830
4.082570 7.941001
12.308733 7.319797
-1.823640 -2.994818
-6.908452 -15.755884
-3.709369 -1.960137
-3.626555 8.132174
-6.070144 -0.839584
-2.145575 -6.718968
18.176280 -12.923589
-2.051511 12.716557
-6.024713 -13.560298
1.400049 -19.583876
-28.929585 -0.911101
14.122460 13.183655
-30.066195 12.361951
-12.624093 -81.778998
-12.939795 15.402906
-43.103910 5.702231
8.442383 27.835629
-43.241765 37.827034
34.603842 -18.613871
-87.790526 55.592016
0.532359 59.318261
-117.846000 -156.388707
98.521118 -38.670882
-154.861333 96.442866
56.157572 313.061494
43.122636 -397.139617
-437.610165 -568.113642
-454.933758 1043.617296
-5349.557675 1548.877181
