3402.630719 3408.111772
-1764.657082 -1259.229309
-541.419603 285.700788
-10.525575 149.730810
5.382002 -3.882931
-11.386722 27.046354
16.830957 36.407696
23.132858 31.327873
32.322322 10.709134
25.016538 25.462293
4.874533 10.295906
42.500634 -3.437294
43.803152 46.961882
-14.891279 30.687431
-0.433167 -15.178294
30.648391 -2.256312
53.209148 0.368933
12.505056 39.983070
48.244588 -1.120533
2.121236 47.850358
29.546527 3.128218
6.347996 17.506397
20.299290 11.175059
17.536063 -4.743266
27.783671 8.104641
30.780906 3.425882
23.233869 9.486305
25.512565 6.938488
27.460624 5.247714
23.588104 8.166485
25.214812 7.015489
21.907635 4.943521
23.025486 5.455735
23.157349 3.355012
20.619586 1.291655
23.269304 1.616306
24.334179 -2.176360
22.816971 2.439844
22.701005 -1.863428
22.094147 -3.832404
25.767315 -1.652000
24.027239 -1.940269
21.909101 -0.319040
22.066384 -3.174931
20.368723 -3.372335
20.475511 -5.033527
21.121784 -5.402196
20.454713 -6.330489
20.538560 -4.612606
18.253735 -6.879870
18.291479 -8.340117
19.594222 -8.755937
19.597267 -8.154542
17.349269 -8.514256
19.263675 -10.358769
16.554639 -8.434825
16.884889 -10.432207
17.409523 -9.473844
15.277297 -8.094241
14.275569 -11.212580
14.664780 -10.838666
13.206284 -10.495418
12.130934 -13.038926
13.866190 -12.709167
13.215341 -13.069700
14.021298 -10.918347
10.734323 -11.741477
11.562076 -11.734179
9.081437 -12.197059
10.008806 -13.114976
8.929965 -11.707567
9.247143 -13.656499
9.126663 -12.281189
8.150762 -12.260802
6.717367 -12.324954
6.947675 -13.267875
7.376349 -12.756753
5.832594 -11.411231
5.526795 -12.234689
4.302993 -12.685467
5.110723 -11.584405
3.746396 -12.936508
4.225513 -11.564815
3.719730 -11.370631
3.471247 -11.554978
3.383221 -11.009128
2.495302 -9.755870
1.458312 -10.764781
1.891837 -10.194015
1.232334 -10.732542
0.540935 -9.675611
1.055582 -10.069460
-0.086012 -9.427379
0.620427 -9.338777
-0.235050 -8.993699
0.149116 -8.678401
-0.293660 -8.471015
-1.318625 -7.254803
-1.431791 -7.782376
-1.130813 -7.355142
-0.836156 -7.332043
-0.793671 -6.663772
-1.425517 -6.451024
-1.856554 -6.014884
-1.666023 -5.904354
-1.543680 -5.284424
-1.538845 -4.627868
-2.160029 -5.021367
-1.574302 -5.243883
-1.606474 -4.223988
-1.833645 -4.191118
-1.377964 -4.041225
-1.604820 -3.813883
-1.404448 -3.032290
-1.389736 -2.576590
-1.984649 -3.020545
-1.129400 -2.269886
-1.157240 -2.968568
-0.898641 -2.201064
-1.497666 -2.096569
-0.454298 -1.850566
-0.591350 -1.378341
-0.447223 -0.942057
-0.620770 -1.166299
-0.054532 -1.330319
0.137118 -0.583297
-0.080028 -0.460885
0.148216 -0.567337
0.361348 -0.401436
0.622323 -0.536548
0.888754 -0.308234
1.320725 -0.012945
0.998790 0.005200
1.043860 0.303297
1.589425 -0.472322
1.567903 0.236419
2.350744 -0.474680
1.909256 0.265758
2.660596 -0.132749
2.527894 -0.187121
2.931832 0.057687
2.612714 -0.200539
3.109245 -0.294545
3.284497 -0.122405
3.073167 -0.357265
3.124258 -0.591345
3.418637 -0.156550
3.616713 -0.953041
3.673419 -0.808520
3.684007 -0.938427
4.311752 -0.861601
4.318788 -1.656485
4.185354 -0.946422
4.794435 -1.372374
4.561432 -1.709200
4.845592 -1.572297
4.679759 -2.194165
5.038198 -2.046772
4.874948 -2.169654
4.744350 -2.228376
5.116041 -2.724781
5.103184 -2.715083
5.098652 -2.906473
4.773429 -3.175370
5.110537 -3.465350
5.160379 -3.334552
4.863337 -3.478787
4.740339 -3.693947
4.878036 -4.145605
4.687005 -4.022206
4.869854 -4.242997
4.771200 -4.615290
4.477507 -4.706612
4.616165 -4.604415
4.115171 -4.839783
4.043628 -5.009219
3.827173 -5.336618
4.249631 -5.659387
4.049252 -5.967736
3.596721 -5.653385
3.291186 -5.696906
3.208122 -6.151495
3.474406 -5.603728
3.130813 -6.347866
2.826243 -6.003211
2.992001 -6.708164
2.252828 -6.178079
2.651177 -6.343649
1.915150 -6.245634
2.238315 -6.525473
1.856302 -6.667296
1.804538 -6.205534
1.509065 -6.811502
1.487652 -6.319766
1.212004 -6.972022
0.927825 -6.724054
0.405910 -6.534513
0.791752 -6.172412
0.478500 -6.264439
0.205690 -6.279511
-0.003748 -5.909883
-0.291278 -6.258477
-0.455795 -6.078885
-0.645606 -6.156213
-0.668943 -5.956318
-0.549724 -5.774730
-0.614310 -6.331806
-1.196109 -5.830584
-0.624646 -5.274835
-1.171974 -6.414143
-0.989360 -5.857551
-1.095669 -5.426867
-1.356116 -5.243880
-1.773662 -5.126326
-1.432222 -5.332714
-1.357105 -4.441900
-2.211534 -4.822789
-2.002432 -4.688311
-1.916836 -4.797793
-1.735102 -4.297292
-2.103919 -4.406920
-2.746940 -4.012623
-2.611410 -3.629884
-2.504286 -3.697829
-2.192501 -3.750835
-2.342844 -3.606415
-1.935634 -3.293734
-2.520887 -3.035917
-2.004552 -3.077757
-2.367114 -3.020382
-2.159059 -2.859830
-2.325180 -2.276307
-2.542801 -2.455070
-2.550636 -2.516994
-2.331717 -2.734652
-2.027523 -2.268686
-1.760185 -2.358661
-2.167573 -2.005863
-1.858739 -1.394935
-1.945904 -1.711917
-1.624929 -1.458413
-1.504582 -1.352730
-2.130243 -1.773921
-1.284687 -1.629818
-1.252659 -1.351963
-1.374459 -1.399414
-1.366222 -1.542048
-1.377395 -1.226049
-0.999012 -0.894698
-0.821040 -1.079401
-0.684954 -0.954955
-0.743573 -0.869029
-0.715397 -1.037235
-0.610778 -1.080852
-0.114735 -1.160364
-0.412485 -1.563332
0.117262 -0.784084
-0.388276 -0.922041
0.163809 -0.754525
-0.024077 -0.728282
-0.120950 -1.223700
0.137790 -1.169379
0.549757 -1.425314
0.635077 -1.129290
0.469949 -1.133803
0.582841 -1.437767
0.793286 -1.427763
0.957583 -1.591975
0.894753 -1.675137
0.549741 -1.324538
1.074763 -1.680661
0.505599 -1.211354
1.119660 -2.096119
0.683077 -1.784329
0.931810 -1.753951
1.208658 -2.362385
1.056274 -2.204007
1.098271 -2.244089
1.321533 -2.479878
1.353873 -2.647710
1.345646 -2.349925
1.030714 -2.536273
0.976702 -2.826364
0.977693 -2.984800
1.056680 -3.241667
1.152497 -3.227786
0.958492 -3.170434
1.324968 -3.352060
1.169545 -3.127977
1.529837 -3.781191
0.597370 -3.815723
0.728196 -3.709143
0.486550 -3.458658
0.528865 -3.708591
0.431051 -3.841616
0.251401 -3.830392
0.107140 -3.778629
0.123240 -4.349772
0.332288 -4.102063
-0.147620 -4.205894
0.042376 -4.337773
-0.015536 -4.484294
-0.454619 -3.875407
-0.024894 -4.334850
-0.097184 -4.306982
-0.291607 -4.365137
-0.376307 -4.167120
-0.685090 -4.142437
-0.930384 -4.257767
-0.856812 -4.641824
-1.072052 -4.128665
-1.113902 -4.301180
-1.349106 -4.586481
-1.580321 -4.392817
-1.101311 -4.274471
-1.676004 -4.410780
-1.992404 -4.174062
-1.993747 -4.332061
-2.074953 -4.162583
-1.944703 -3.907243
-2.338778 -4.277811
-2.161678 -3.915465
-2.168153 -3.869111
-2.416345 -3.909749
-2.147376 -3.457444
-2.969860 -3.782531
-2.537969 -3.638009
-2.788765 -3.555892
-2.659129 -3.328996
-2.725460 -3.127294
-2.944034 -3.215493
-3.018026 -3.211744
-2.972310 -3.166632
-3.056587 -3.043438
-2.926057 -2.749037
-2.966525 -2.868072
-3.120216 -2.349146
-3.337080 -2.177084
-3.202305 -2.183381
-3.286640 -2.333311
-3.160054 -2.063099
-3.353445 -1.869548
-2.898210 -1.967342
-2.829931 -2.125793
-3.106445 -2.123078
-3.397939 -1.773319
-2.617789 -1.843459
-3.070114 -1.767604
-3.096236 -1.265949
-2.733010 -1.671448
-2.935223 -1.384112
-2.642972 -0.949241
-2.656367 -1.372993
-2.484114 -1.012158
-2.782247 -1.111130
-2.945911 -0.884304
-2.786250 -0.758772
-2.293280 -1.024063
-2.816893 -0.601847
-2.633146 -0.407805
-2.355429 -0.283379
-2.115688 -0.400530
-2.302745 -0.471672
-2.204953 -0.440628
-2.185094 -0.657168
-2.021159 -0.525204
-1.721470 -0.741292
-1.707188 -0.580691
-2.022796 -0.204999
-1.838314 -0.076749
-1.419690 -0.175332
-1.238211 -0.357306
-1.309016 -0.612540
-1.268920 -0.606708
-1.580268 -0.449081
-1.073878 -0.547863
-1.279704 -0.649650
-1.168134 -0.698319
-1.386646 -0.486091
-0.877633 -0.337631
-0.973834 -0.872034
-0.867480 -0.834740
-0.449747 -0.864447
-0.841233 -1.044990
-0.565466 -0.681093
-0.586934 -1.042667
-0.576310 -0.928343
-0.974159 -0.974194
-0.628350 -1.216617
-0.219705 -0.820603
-0.169651 -1.079290
-0.363713 -1.600202
-0.245865 -1.074442
0.217133 -1.072429
-0.417371 -1.485715
-0.560240 -1.897591
-0.388613 -1.351912
-0.839017 -1.821301
-0.788798 -1.837031
-0.574608 -2.119795
-0.574403 -2.289581
-0.490008 -2.269537
-0.476245 -2.330372
-0.665198 -2.242367
-0.534013 -2.198442
-0.924672 -2.691159
-0.730677 -2.286547
-0.869089 -2.264179
-1.225682 -2.487998
-1.031734 -2.692371
-1.117605 -2.642327
-1.077992 -2.353827
-1.136059 -2.590674
-1.400220 -2.861222
-1.224618 -2.878230
-1.552646 -3.026559
-1.395516 -2.604924
-1.593090 -3.034684
-1.640523 -2.642628
-2.016413 -2.794438
-1.879331 -2.886338
-1.825627 -2.620674
-2.135168 -2.669768
-2.371036 -2.734359
-2.400287 -2.881092
-2.358009 -2.783708
-2.684593 -2.919129
-2.414195 -2.691200
-2.168425 -2.586024
-2.776568 -2.829210
-2.699547 -2.545504
-2.508621 -2.667397
-2.668552 -2.637858
-2.764298 -2.431507
-3.277616 -2.655869
-2.936828 -2.342861
-3.139644 -2.326368
-3.288394 -2.452436
-3.135660 -2.088415
-3.069735 -2.319654
-3.378763 -1.977900
-3.879951 -1.812036
-3.593115 -1.533466
-3.897450 -1.687263
-3.865701 -1.832873
-3.725006 -1.539843
-3.870708 -1.502256
-3.310458 -1.381524
-3.548507 -1.548719
-3.418093 -1.271186
-3.911467 -0.985262
-4.048281 -1.071441
-3.949257 -0.867369
-2.971404 -0.660530
-3.530736 -0.542390
-3.661535 -0.615123
-3.503816 -0.564572
-3.613322 -0.284161
-3.570607 -0.428633
-3.595751 -0.744077
-3.715364 -0.042072
-3.103139 -0.314602
-3.749325 0.051529
-3.594962 -0.185448
-3.397413 0.148453
-3.397533 -0.001928
-3.345816 0.165986
-3.333204 0.164444
-2.986905 0.146837
-3.004615 0.432637
-2.986047 0.373708
-2.680412 0.148528
-2.887747 0.419029
-2.734928 0.562677
-2.716495 0.630620
-2.522422 0.748830
-2.473005 0.721296
-2.766734 0.679746
-2.312881 0.506196
-2.265498 0.551809
-2.230504 0.404866
-1.649481 0.502214
-1.864356 0.916300
-1.696232 0.493674
-1.605492 0.565720
-2.289648 0.496803
-1.531966 0.499923
-2.059591 0.905616
-1.646590 0.188843
-1.559525 0.255907
-1.511315 0.487085
-1.060593 0.658195
-1.048931 0.065887
-0.878060 0.341545
-1.355881 0.157684
-1.290372 -0.078362
-1.136255 0.172841
-1.085781 -0.345706
-1.258719 -0.171644
-0.953630 -0.158207
-1.304837 -0.143146
-0.426144 -0.102511
-1.503689 -0.498588
-0.887177 -0.718190
-0.900104 -0.885326
-0.847359 -0.764007
-1.015630 -0.552213
-0.847662 -0.907348
-1.141697 -0.949624
-0.942447 -1.130441
-1.043571 -1.241816
-1.271487 -1.183815
-1.162246 -1.531500
-1.146084 -1.373661
-1.155805 -1.652718
-1.336401 -1.391652
-1.510750 -1.473816
-1.173014 -1.801042
-1.337521 -1.886554
-1.404531 -2.079445
-1.839616 -1.977577
-2.178545 -2.316901
-1.535389 -1.782640
-1.663293 -2.038435
-2.097164 -2.080082
-1.776353 -1.927332
-2.120556 -1.956972
-1.885472 -1.681087
-2.018544 -2.924361
-2.539140 -2.008620
-2.462397 -2.077871
-2.427090 -2.693914
-2.704955 -2.337218
-2.949511 -1.839991
-2.867027 -2.443949
-3.489172 -2.006664
-3.792309 -2.413290
-3.531472 -2.389582
-3.707559 -2.604671
-3.705425 -2.330774
-4.249446 -2.237423
-4.179184 -1.816636
-3.841203 -2.320491
-4.226263 -1.912086
-3.870936 -1.922640
-4.599739 -1.853212
-4.440772 -1.908178
-4.352918 -1.627204
-4.343831 -0.734326
-4.684905 -1.193382
-5.419852 -0.913136
-4.860412 -1.520982
-4.832242 -1.043464
-5.016769 -0.961296
-4.644789 -1.197096
-5.385646 -0.627925
-5.090072 -0.454275
-5.426229 -0.203668
-5.144921 -0.018697
-4.994616 -0.109598
-5.555859 0.130786
-5.377558 0.049298
-5.606056 -0.020647
-5.083795 0.390176
-5.119460 0.764064
-5.073032 1.197520
-5.277576 0.720828
-5.640077 0.751260
-5.153587 1.110955
-5.353280 0.680663
-4.890702 1.133714
-4.873946 1.215330
-4.755098 1.701134
-4.794611 1.412085
-4.674773 2.086243
-4.736506 1.939267
-4.843798 2.129107
-4.577554 1.995150
-4.421172 2.207243
-4.593604 2.420697
-4.090394 2.195739
-3.887788 2.738830
-4.000245 2.249155
-3.682295 2.614006
-3.958937 2.328684
-3.413508 3.135932
-3.658513 2.846201
-3.899780 2.303230
-2.954019 3.054561
-3.100663 2.814273
-3.055438 3.271189
-3.662547 2.807668
-2.827324 3.331375
-2.932471 2.261242
-2.796959 3.030497
-2.242436 2.584359
-2.230076 2.776173
-2.255381 2.963007
-2.262856 2.369169
-1.839597 2.568597
-1.438491 2.107360
-1.471967 2.622400
-1.170221 2.095213
-1.020353 2.637632
-1.208714 2.413405
-1.234269 2.156511
-1.660219 2.008139
-0.667072 1.342200
-1.311942 1.592299
-0.508309 1.249516
-1.278312 0.940750
-0.128178 1.308152
-0.764419 1.143562
-0.910112 0.496614
0.191564 0.943033
-1.070683 0.711840
-0.594046 0.447570
-0.512696 -0.051292
-0.949916 0.067305
0.525563 0.070911
-0.904286 -0.317545
-0.669747 -0.033271
-1.080987 -1.015318
-1.234176 -0.738777
-1.067114 -1.158270
-0.973784 -0.913469
-1.031290 -1.947920
-1.213712 -1.446250
-1.217791 -1.954651
-1.141286 -1.638351
-1.986048 -2.115711
-1.899831 -2.262595
-1.992052 -2.388856
-2.499748 -2.636020
-2.459012 -2.383042
-2.892612 -2.910009
-2.795838 -3.340303
-3.282905 -3.385009
-4.087489 -4.037422
-3.261811 -3.419703
-4.386941 -3.235416
-3.685929 -3.490004
-4.304949 -4.014777
-4.410903 -3.034606
-4.709615 -3.963033
-5.666896 -2.431504
-6.243465 -3.504951
-7.047775 -3.561862
-5.857238 -4.123504
-6.923416 -4.476943
-6.242758 -3.282432
-7.773018 -3.787606
-7.650750 -3.727878
-7.261694 -4.211777
-7.727077 -2.314154
-9.057092 -3.140118
-8.841294 -2.638361
-9.818425 -3.779245
-8.452648 -1.972649
-10.323909 -2.653940
-9.750355 -1.957650
-11.355469 -1.067339
-11.112083 -1.691043
-12.153779 -1.808679
-11.775283 -0.796682
-11.817676 -1.905612
-13.299562 -0.154443
-10.911980 -2.067920
-13.014511 1.542427
-12.153664 0.481316
-13.293557 1.464941
-13.297044 2.236752
-14.296718 1.589851
-15.124201 1.888699
-14.240361 2.210151
-13.667753 2.530158
-15.644817 4.695818
-14.679895 2.217127
-13.963441 4.889744
-15.236703 5.976909
-15.986515 4.845771
-15.295912 5.688964
-14.851932 6.110319
-13.917346 6.980569
-15.013615 7.644417
-14.180545 8.392544
-16.889626 9.151143
-14.989779 9.578217
-17.163673 8.496578
-12.470658 8.871021
-14.671028 13.284882
-15.996806 11.688653
-15.692893 11.781271
-14.105053 11.455431
-14.588791 14.686111
-16.518826 10.886730
-12.128061 13.916835
-12.706008 11.928582
-13.206338 16.435719
-8.140072 14.174245
-13.614804 19.112207
-11.401424 20.608884
-15.746388 12.694037
-11.490425 24.770534
-12.327512 12.507519
-18.296639 23.471933
-7.281164 7.775319
-10.477038 22.824680
-5.342815 13.300081
-0.853194 25.297544
-12.207811 23.866080
-3.574873 26.089776
-16.886286 24.295195
-11.237789 13.050854
3.646474 14.408725
0.835871 31.225688
-11.369124 30.512057
-10.458269 19.050491
-3.921128 17.922523
-4.963421 29.049381
-1.790686 16.022774
-10.123351 26.110019
10.127887 19.726858
-18.206043 16.238849
26.118298 23.779273
1.107069 14.220558
26.282601 49.859467
-18.717148 51.493399
-27.561715 -0.489129
30.719366 22.961883
-15.206498 29.245057
-12.540350 9.945105
21.331013 30.683714
-32.167790 -1.491193
8.720107 3.762376
18.051430 26.355393
-19.893863 -4.055529
104.146466 26.255280
41.407014 57.966199
