6954.877231 2704.249358
-2971.247682 231.549117
32.524261 -3.794993
-402.167936 -40.853099
13.785314 5.394867
-146.528945 -48.508559
-3.879789 4.592936
-69.196767 -40.296938
0.295051 2.540967
-42.511747 -33.395730
2.248992 2.325329
-20.433957 -26.579893
-4.273123 0.057100
-6.988543 -18.697655
-2.384950 -1.162496
-5.353210 -13.692042
1.001836 -1.013864
-1.749695 -9.099474
-1.377233 -2.118216
1.789519 -4.591496
-0.931939 -2.394142
-0.282956 -2.504874
2.021929 -1.254082
-1.392108 -1.215874
1.148998 -1.367344
-0.111083 0.487863
0.255189 -1.174486
-1.485873 0.389841
1.978454 0.078645
-2.966122 0.013856
1.528917 0.146664
-1.740038 0.393224
0.039283 0.072862
-1.745536 -0.003903
0.606012 0.617821
-2.635568 -0.518811
0.743269 0.562620
-1.781936 -0.334839
-0.578981 -0.008897
-1.038088 -0.108459
-0.497862 0.012531
-1.880384 -0.554579
0.226680 -0.082954
-1.608220 -0.301643
-0.340219 -0.634488
-0.832630 0.023782
-0.570256 -0.780655
-1.283794 -0.242714
0.703027 -0.338784
-1.882020 -0.118211
0.163379 -0.653471
-1.033933 -0.138238
-0.074983 -0.746613
-0.973236 -0.579293
0.465706 -0.144050
-1.136875 -0.789836
0.536484 -0.137871
-0.506596 -0.598404
0.050601 -0.331989
-0.353384 -0.577869
0.695052 -0.000957
-0.662786 -0.682189
0.507988 0.098096
0.064226 -0.229337
0.001381 -0.116626
0.131247 -0.138493
0.186872 0.066064
-0.212190 -0.038940
0.335035 0.222024
-0.093920 0.170041
-0.197334 -0.021710
0.071729 0.530067
-0.097207 -0.030292
-0.470467 0.200110
0.132834 0.214340
-0.505635 0.438707
-0.138328 -0.098810
-0.324445 0.383670
-0.228467 -0.044236
-0.658337 0.152843
0.189690 -0.021238
-0.695014 -0.004525
-0.064601 -0.008302
-0.370101 0.081116
-0.049324 -0.188650
-0.494260 -0.201380
0.115573 -0.019537
-0.452898 -0.269001
0.229141 -0.026982
-0.151832 -0.066368
-0.149989 0.057246
-0.280203 -0.125317
0.117136 -0.130774
-0.259745 -0.284765
0.050398 0.139191
-0.077100 -0.047897
0.011558 -0.140297
0.068881 0.005333
0.114016 0.098472
-0.067652 0.055738
0.026418 0.193306
-0.028311 0.155603
-0.163189 -0.089832
0.077801 0.443073
0.114263 -0.154815
-0.281537 0.126790
0.191918 0.143138
-0.147439 0.159610
-0.190010 -0.019506
0.171705 0.091563
-0.099436 0.124967
-0.122543 -0.107997
0.204987 0.131978
-0.206508 0.045881
-0.073667 -0.037742
0.009200 0.303720
-0.064849 -0.109804
0.000769 0.126168
-0.039393 0.123454
-0.093265 0.144852
-0.116256 -0.053233
-0.065795 0.531299
-0.243621 -0.094755
0.015740 0.240011
-0.111673 0.142231
-0.158235 0.229892
-0.144293 -0.206880
-0.184551 0.540921
-0.255627 -0.185877
-0.097389 0.177143
-0.072712 -0.103507
-0.165437 -0.070442
0.032343 -0.393130
-0.330730 0.221966
-0.012319 -0.603560
-0.082885 -0.181891
-0.153684 -0.236662
0.115324 -1.089616
1.561195 -0.982966
0.686739 0.805076
-0.312933 0.867402
-0.436519 -0.129066
0.237678 0.128118
-0.070993 0.127018
0.161597 0.021884
0.108315 -0.181689
0.280522 0.351490
1.050094 -0.389999
0.665789 -1.269208
-0.669815 -1.313123
-1.135478 0.320580
0.334639 0.198855
-0.369678 -0.480800
-0.214107 0.513926
0.068712 -0.411747
-0.332068 0.131852
0.175261 0.108926
-0.601860 -0.207627
0.045833 0.519501
0.064525 -0.108920
-0.361827 0.126996
0.547055 -0.009219
-0.606682 0.016600
0.406489 -0.193646
-0.116392 0.577925
-0.207835 -0.679693
0.504956 0.545831
-0.355090 -0.192746
0.536325 -0.305751
-0.297206 0.303784
0.357076 -0.295129
-0.137799 0.171822
0.115754 0.004235
0.062977 -0.010289
0.222563 -0.059333
-0.206943 0.140213
0.281336 -0.104930
-0.126600 0.231553
-0.046643 0.112606
-0.039895 0.065525
0.029272 0.054631
-0.110180 0.085752
0.177061 -0.035850
-0.117647 0.182534
-0.125486 0.102707
0.105916 0.040052
0.164809 0.135968
-0.117024 0.330766
-0.204640 0.157665
-0.216152 -0.046237
-0.132184 -0.114918
-0.102753 -0.020037
-0.066660 -0.040823
-0.024814 -0.063358
-0.012369 -0.096977
-0.109011 -0.137699
-0.100050 -0.079413
-0.047016 -0.138743
0.069307 -0.159870
-0.055554 -0.087183
-0.002707 0.005464
0.070355 -0.165992
0.068810 -0.039129
-0.187369 -0.117002
0.080108 0.035797
0.129890 -0.110488
-0.047028 0.076079
0.085578 -0.050093
0.039473 -0.020718
-0.068138 0.090599
0.195237 -0.069187
-0.211513 -0.084872
0.139301 0.175232
0.115391 -0.080533
0.020377 0.052842
-0.150218 -0.135471
0.193120 0.111279
-0.139849 -0.041271
-0.008626 -0.141893
0.167744 0.063125
-0.202260 -0.000000
0.217834 -0.025435
-0.194527 0.007452
0.044285 -0.171010
-0.220109 0.156692
0.170041 -0.061120
-0.067964 -0.079396
0.009796 0.127915
-0.136304 0.134597
-0.073617 0.024489
-0.311355 -0.171409
0.001742 0.014431
-0.054993 -0.061667
-0.081026 0.056624
-0.039156 -0.220124
0.032749 -0.122347
-0.043165 -0.037781
0.093937 0.071762
-0.008904 -0.118934
-0.169474 0.000185
0.002714 -0.030355
0.143563 -0.186801
-0.163526 -0.108024
0.022611 -0.087813
0.027545 -0.073042
-0.002873 -0.023527
-0.115340 -0.047511
0.170726 -0.202834
-0.169649 -0.020018
0.142203 -0.000109
-0.026615 -0.182537
-0.013403 0.056613
-0.053904 0.115989
0.194256 -0.013282
-0.144272 -0.132850
0.058331 0.177258
0.157414 -0.051504
-0.235285 0.023071
0.173346 0.227590
0.054512 -0.097383
-0.222965 0.208343
0.202561 -0.065212
0.002475 -0.048803
-0.184960 0.068762
0.056441 0.058702
-0.011136 -0.052141
-0.135296 0.110720
-0.017797 -0.118568
-0.004936 -0.062560
-0.173309 -0.179209
0.011799 0.069305
-0.067057 -0.070547
-0.216019 -0.030387
0.126819 0.003299
-0.180616 -0.101832
0.049190 -0.297992
0.158151 -0.236881
0.709672 0.255364
-0.165762 0.902599
-0.293714 0.318195
-0.023025 -0.078939
-0.021381 0.265709
-0.175500 0.132461
-0.037831 0.033002
-0.084665 0.015001
-0.183252 0.268765
0.321022 0.047080
0.288522 0.002805
0.008897 -0.233872
-0.256177 -0.079394
0.069290 0.036162
-0.199353 -0.012732
-0.076072 0.050517
0.010435 0.051572
-0.086094 0.127834
-0.156899 0.380816
0.472197 0.567744
0.728218 -0.301811
0.045900 -0.493509
-0.123768 -0.120851
0.019645 -0.016157
0.170728 -0.185482
-0.178155 0.054325
0.097248 -0.051762
-0.025097 -0.202944
-0.001185 -0.016039
-0.152741 -0.197090
-0.207153 -0.071088
-0.043341 0.263209
-0.033687 -0.160510
-0.281697 0.169848
0.175714 -0.126496
-0.406691 -0.085906
0.124107 0.199525
-0.220166 -0.253183
-0.092699 0.250434
0.093884 0.001548
-0.235089 -0.103392
0.070880 -0.102767
-0.008064 -0.110622
-0.011647 -0.166976
0.068378 -0.043384
0.146603 0.095634
-0.051634 -0.310123
0.382625 -0.003677
0.151285 0.179968
-0.262542 0.093760
-0.065343 -0.045486
-0.211566 -0.202796
0.284816 -0.165150
-0.206350 0.172640
0.373688 -0.427160
-0.141494 0.319002
-0.008684 -0.308919
0.189508 0.270600
-0.159557 -0.132411
0.210098 0.021644
0.110177 0.060727
-0.015028 0.161028
0.118775 -0.118943
0.094156 0.207669
-0.177144 0.037303
0.197973 0.129367
0.079376 -0.022673
-0.013453 0.112032
0.060705 -0.009064
0.001357 0.163471
-0.020636 -0.104179
0.012537 0.120603
-0.063790 -0.032158
-0.012246 0.035663
0.224097 -0.072969
-0.243835 0.035519
0.003168 -0.075990
0.001955 0.071477
0.025507 -0.044398
-0.184820 -0.093255
0.236443 0.025172
-0.139049 -0.025200
0.143984 0.042348
-0.097490 -0.134214
-0.061561 0.134491
0.114686 -0.023001
0.079675 -0.046449
-0.014896 -0.030318
0.180595 0.031750
-0.040645 0.147746
0.015722 -0.001689
-0.124042 -0.109380
0.018129 -0.002073
0.157013 -0.090515
0.104260 -0.061211
-0.077605 -0.092286
0.074989 -0.172641
0.246273 0.052458
0.043288 -0.016802
0.103843 0.043171
-0.048318 0.020151
0.024162 0.073459
0.073009 -0.252984
0.005966 0.168643
-0.149326 -0.111308
0.300900 0.154551
-0.144374 -0.056117
0.080401 0.034457
-0.080229 0.024019
0.065730 -0.111836
0.091567 0.146081
-0.140457 -0.102346
0.206823 0.031690
-0.073110 0.180182
0.163486 -0.180011
-0.128358 -0.037278
0.070341 0.057555
0.041122 -0.088043
0.058207 0.021944
-0.093093 -0.032915
0.176369 -0.025569
-0.130036 -0.049752
-0.017732 -0.033100
0.025737 -0.250477
-0.095795 0.161043
-0.042984 -0.068336
0.090504 -0.095623
-0.143301 -0.044367
-0.094935 0.042826
0.016812 -0.275038
-0.146094 0.038785
0.016863 -0.036837
0.037093 -0.089868
-0.132403 0.058367
0.134623 -0.140356
-0.138990 -0.215572
0.034638 0.020480
0.038679 -0.441783
0.479983 0.148014
0.192193 0.227006
-0.290050 0.270338
-0.047512 -0.300493
-0.100483 -0.179398
-0.084448 0.022392
-0.044208 -0.266631
-0.191118 -0.152951
0.111496 -0.112819
0.020854 -0.345723
0.017861 -0.247070
-0.090143 -0.065912
-0.059743 -0.158674
-0.168231 -0.026584
0.170369 -0.024688
-0.109833 -0.134662
-0.024122 -0.018901
0.132493 -0.012948
-0.080912 -0.121418
-0.433727 0.223407
0.156619 0.426288
0.411232 0.193086
0.123739 -0.128279
0.129097 -0.131851
0.060863 0.089243
-0.033710 -0.168550
0.006382 0.090912
-0.193579 -0.141045
-0.057811 -0.123651
-0.467429 0.177204
-0.092905 0.432864
0.389668 0.205419
0.142221 -0.114211
-0.162740 -0.027175
0.083615 -0.012236
0.092589 -0.138952
-0.111503 -0.019168
0.160826 -0.015446
0.119372 -0.154047
0.087567 -0.035356
0.043606 -0.242192
-0.024700 -0.293773
-0.047920 -0.105894
0.179671 -0.079786
0.109032 -0.255706
0.059605 0.114647
0.164522 -0.162991
0.004567 -0.192748
0.350382 0.292620
-0.256593 0.345753
-0.426576 0.175040
-0.126561 -0.316861
0.009106 0.049471
0.026690 -0.089252
-0.101994 -0.113552
-0.004476 0.181508
-0.015113 -0.070126
-0.177968 0.078677
0.160100 0.046788
-0.201350 -0.171681
0.105697 0.035630
-0.063281 0.041991
-0.076829 -0.119366
-0.183278 -0.004212
0.118966 0.122076
-0.267847 -0.214027
0.056199 -0.083226
-0.122177 -0.046113
-0.118755 -0.080524
-0.161349 -0.066102
0.019570 -0.030220
-0.287963 -0.159959
0.025385 0.015788
-0.099759 -0.146737
-0.055042 -0.205189
-0.124998 0.038174
-0.093101 0.026676
-0.017690 -0.267870
0.019072 0.161425
-0.176904 -0.288202
0.180025 0.056395
-0.141985 -0.137527
0.227634 -0.013021
-0.315660 0.003034
0.213535 -0.065656
0.017671 0.052468
-0.026664 -0.213261
0.024357 0.004156
0.081500 0.046755
-0.047630 0.027093
-0.015940 -0.007811
-0.201132 0.089585
-0.044930 -0.182179
0.093802 -0.008650
-0.063404 -0.086446
-0.184285 0.026950
0.039567 -0.036998
0.044161 0.024867
0.061633 -0.038351
-0.094344 0.279668
-0.084496 0.001619
-0.170798 0.080739
0.030782 -0.063163
-0.340568 0.051733
0.179530 0.135285
-0.153659 -0.106194
-0.026260 0.061143
-0.120359 -0.048097
-0.125869 0.058831
-0.066280 -0.164984
0.073473 -0.001840
-0.230906 -0.041630
0.083326 -0.031873
0.046493 -0.107858
-0.147117 -0.034171
-0.149162 -0.125391
0.137529 -0.003272
-0.138597 -0.046242
0.099340 -0.086103
-0.096461 0.000225
0.031193 0.001666
-0.057193 -0.041789
0.031889 -0.011730
-0.250857 -0.012934
0.310086 0.058918
-0.134485 0.075964
0.033152 -0.075239
-0.015359 0.037353
0.052856 0.136573
-0.230281 -0.096509
0.321492 -0.017988
-0.196935 0.157116
0.154801 -0.154821
0.150353 0.212095
-0.258187 -0.238443
0.234276 0.077293
-0.212170 0.047282
0.258868 -0.279105
0.087771 0.175329
0.325761 0.045052
-0.180017 0.391720
-0.311230 -0.017084
-0.022335 -0.124186
-0.078593 0.122276
-0.175576 0.103458
0.062319 -0.100242
-0.116165 -0.010451
-0.051727 -0.001616
0.111531 -0.050513
-0.118133 0.125762
-0.013962 0.262367
0.145304 -0.121789
-0.201851 0.182586
0.280422 0.034406
-0.218691 -0.156785
0.110354 0.261211
0.024338 -0.188080
-0.160141 0.311079
0.223780 -0.082288
-0.065077 -0.201420
0.031312 -0.002125
-0.187076 -0.260732
-0.068345 -0.010417
-0.009387 -0.050355
-0.157051 -0.121103
-0.167664 -0.154323
0.111730 -0.043534
-0.146049 -0.647119
-0.770865 -0.225248
-0.524008 0.418324
0.085310 0.442116
0.075249 0.000485
-0.103059 0.085189
0.092415 -0.041680
0.098306 -0.014650
-0.043376 -0.014773
0.161577 -0.118578
0.008374 -0.245317
-0.362401 -0.068906
-0.327889 0.065997
0.141056 0.174813
0.043671 0.049657
0.032941 -0.069356
0.097628 0.165582
0.053133 0.169668
-0.086854 -0.063984
0.355454 0.241294
0.035325 0.886518
-0.629103 0.206164
-0.293357 -0.290730
0.036890 -0.316652
0.057758 -0.192850
-0.047975 0.012021
0.120763 -0.150841
0.129047 -0.042648
-0.068851 -0.067226
0.213814 -0.143415
-0.009808 -0.198706
0.037959 -0.086655
0.159868 -0.008500
0.017426 -0.033724
-0.001897 -0.029910
0.187599 0.068399
0.068238 -0.098286
-0.191988 -0.084061
0.294235 0.200114
-0.025760 -0.128807
-0.116082 0.256373
0.288673 -0.010564
-0.125163 0.004916
0.020671 0.154065
0.145728 -0.061136
-0.094703 -0.013797
0.024547 0.190291
0.123106 0.087878
-0.028474 -0.116199
-0.036241 0.066747
0.097323 0.031862
-0.083245 -0.103015
0.035373 -0.011606
0.059210 0.100303
-0.106887 -0.049888
-0.005381 0.046143
0.089711 -0.090959
-0.166907 -0.059127
-0.070649 -0.011361
0.111195 0.105639
-0.057448 -0.091022
-0.175144 0.142529
-0.029530 0.002833
-0.120457 -0.092829
-0.049517 -0.167704
0.004851 0.045636
-0.058589 -0.003469
-0.049905 -0.028917
0.167041 -0.117890
0.065468 -0.036900
-0.039582 0.170286
0.027445 0.066644
-0.134418 -0.074949
-0.089646 -0.103275
0.002003 0.118883
0.069750 -0.177333
-0.024215 -0.078886
-0.085380 0.015838
0.000000 -0.134840
-0.035300 0.157040
-0.160778 -0.318453
0.253581 0.103045
-0.316779 -0.094233
0.229113 0.050398
-0.091072 -0.164720
-0.082645 0.133169
-0.156707 -0.035952
0.192891 0.140500
-0.165958 -0.256912
-0.000846 0.311667
0.024110 -0.171875
-0.198625 0.153220
0.128858 -0.031262
-0.277163 0.065778
0.002901 -0.027191
0.017087 0.027760
0.000019 -0.063617
-0.253167 -0.052664
0.045991 0.008616
-0.131689 -0.001843
-0.057472 -0.142805
-0.139831 -0.076225
0.080422 -0.062554
-0.075902 -0.092891
-0.033475 -0.092507
-0.159136 -0.032680
0.003629 -0.057215
-0.082393 -0.002312
0.062782 -0.156012
0.027988 -0.042801
0.139385 0.092646
-0.074304 0.316702
-0.217463 0.051543
-0.298041 0.004608
0.090692 0.005673
-0.070247 0.122612
-0.192261 -0.138128
-0.066379 0.000396
-0.026220 -0.046518
-0.117315 -0.043148
0.064581 0.016859
-0.003829 0.105041
-0.252544 -0.193542
0.108664 0.004275
-0.186292 -0.141374
-0.126936 -0.145364
-0.073738 -0.073280
0.106571 0.048322
-0.308981 -0.370502
0.293500 0.201447
-0.479929 -0.380545
0.370862 -0.266765
-0.436874 0.471769
0.233461 -0.721487
0.199664 0.506875
-0.380782 -0.202735
0.707665 -0.047183
-0.529887 0.011917
0.481182 0.076044
-0.062458 -0.062054
0.090251 0.487259
0.584651 -0.140357
-0.026305 0.100519
0.293537 0.214489
0.087626 -0.392830
0.153604 0.607965
0.527188 -0.433183
-0.417343 0.301671
1.288227 0.396190
0.564172 -1.203105
-0.522629 -1.167893
-1.180532 -0.274055
-0.150244 0.475477
-0.266615 -0.061780
-0.046027 0.165663
-0.118966 0.247310
-0.137711 0.289684
0.211337 -0.014180
0.396467 1.045925
-0.949243 0.906527
-1.495770 -0.787376
-0.414596 -1.011260
0.197787 -0.023706
-0.249112 -0.136742
0.030153 -0.373845
-0.026227 0.224873
-0.047037 -0.149326
-0.205491 -0.116178
0.018971 0.148762
-0.274468 0.080243
0.157550 0.065962
-0.174792 0.394845
-0.000552 0.032808
-0.176544 0.040997
-0.078142 0.356457
-0.316865 0.018103
0.015606 0.080971
-0.196544 0.288127
-0.138367 0.073386
-0.129331 -0.107655
-0.226564 0.194793
-0.186234 -0.125194
-0.195490 -0.094082
-0.162452 0.061435
-0.164958 -0.071715
0.079842 -0.182272
-0.409245 0.059756
0.017615 -0.319299
-0.063330 0.029620
-0.257996 -0.101260
0.069207 -0.121836
0.078542 -0.012574
-0.276781 0.048015
0.229799 -0.020568
-0.174217 -0.233162
-0.113295 0.327644
0.114687 -0.148233
0.005317 0.081976
-0.076163 0.151173
0.048543 0.035194
-0.173805 0.063147
-0.098909 0.048070
-0.083918 -0.181620
0.015128 0.064015
-0.130547 0.079078
0.140174 -0.105383
-0.193619 -0.218859
0.075967 0.109652
0.093011 -0.061372
-0.161049 0.201035
-0.249974 -0.170359
0.015522 -0.002620
-0.086969 -0.173684
-0.070679 0.023476
0.133475 -0.333453
-0.309470 0.222223
0.200611 -0.121327
-0.069372 0.015620
-0.015961 -0.082566
-0.146170 0.026884
0.416984 -0.041352
-0.465599 0.104689
0.313804 -0.030483
-0.212961 0.021972
0.002400 0.336198
-0.126292 -0.316135
0.171776 0.120824
-0.511964 -0.027386
0.203118 0.125637
-0.178477 -0.356793
-0.390211 0.329819
0.090784 -0.459213
-0.278475 0.103190
-0.147523 -0.383104
-0.090822 -0.169131
-0.046725 -0.246865
-0.548532 -0.044848
0.624837 -0.447812
-0.640208 -0.213859
0.163580 -0.098830
0.136412 -0.573802
0.073555 0.085012
-0.199028 -0.351866
0.386014 0.028446
0.015641 -0.266387
-0.143757 0.283205
0.666509 -0.717357
-0.465600 0.667797
0.480008 -0.428208
0.016359 0.532979
-0.083226 0.101313
-0.902614 0.169084
1.085433 -0.138942
-1.607968 0.134399
0.677996 0.162314
-1.009032 -0.526235
-0.116956 0.793807
-0.835661 -1.120021
0.362319 0.875925
-1.707684 -0.995279
0.220870 0.744395
-0.939304 -1.504191
-1.261344 1.122597
-0.023862 -1.918571
-1.188638 0.931058
-0.830455 -1.572636
-0.571828 0.128383
-0.743340 -1.273199
-1.895827 -0.017518
0.574308 -1.662234
-2.083513 -0.219499
-0.828374 -1.176915
-0.040450 -1.482612
-2.165204 -0.797985
-0.609085 -1.540032
-0.940237 -1.968571
-1.210973 -1.146337
-2.307060 -2.358068
1.902418 -1.885122
-5.036891 -3.026453
2.349784 -1.133074
-2.904469 -5.400071
-0.211027 0.459898
-2.070666 -6.885491
2.808900 0.742122
-5.677343 -7.461037
4.170730 2.266758
-2.097707 -9.063369
-2.986858 4.658661
0.815514 -6.834761
-1.708543 4.782393
-12.989652 -0.031696
1.828959 6.519919
-37.536683 15.033188
-16.358162 6.807176
-156.828012 73.665285
-35.439131 -3.048310
-2289.309427 588.645341
