5572.795458 2532.989325
-2954.846070 227.199189
4.654480 156.622897
-264.993054 -37.550852
5.533677 29.961864
-135.477492 -12.837363
-43.045298 -42.900839
-30.833084 12.773207
1.029262 13.600058
-9.329237 14.515402
-1.054805 1.968407
4.574381 -21.765972
7.752643 16.757152
-9.609083 -3.916179
-6.134785 10.735857
-5.802248 -1.140327
0.374369 -3.968717
0.524321 3.403613
-0.916483 -10.026290
5.454800 1.377995
-2.151632 -6.829982
0.740260 -1.837333
2.633956 -6.744186
4.326086 2.777721
-0.056936 -2.234536
1.902404 1.531869
0.432666 -4.871954
3.723098 1.386137
-1.794381 -0.779076
1.503556 -0.524043
0.543235 2.358100
-0.692429 -0.695722
-0.120861 2.004392
-1.837560 -0.940196
1.529846 0.069183
-2.177429 0.692818
-0.498362 -1.250828
-0.965396 -1.559390
-0.136467 -1.866060
0.812770 -0.620048
-1.055953 0.872622
0.733643 -0.433039
-0.513474 -0.274761
1.351317 -1.019354
-0.083918 -0.199305
-0.731765 0.493783
-1.341829 0.810622
-0.692458 -0.891940
0.027350 -0.261512
-0.059985 -0.277678
-0.047807 0.686282
-1.161574 -0.593957
-0.386237 -0.911049
-0.052632 -0.090646
0.758291 -0.600096
0.151626 0.672942
-0.400380 -0.505385
0.143294 -0.256718
0.401577 0.166640
0.593459 0.358978
-0.391791 0.575103
-0.300386 0.033047
0.360875 -0.005995
0.223557 -0.125059
-0.065407 0.594450
-0.082988 0.050015
0.014967 0.057754
0.170139 0.416752
0.627826 -0.174844
-0.010265 0.483486
-0.001168 0.202730
0.475689 0.603756
-0.393322 -0.282733
0.008673 0.037156
0.433708 0.537267
0.344912 0.135131
0.014716 0.435839
-0.097805 -0.134954
-0.195534 -0.312810
0.187764 0.406234
-0.114576 -0.451459
-0.254746 -0.066638
-0.071194 -0.029101
-0.067664 -0.472455
-0.079293 0.026899
0.028209 -1.079261
0.261178 -0.036686
-0.216786 -0.105895
-0.309429 0.292685
0.054705 -0.021560
0.087425 -0.468884
0.080590 0.281127
-0.292928 -0.196221
-0.000269 -0.228104
-0.184897 0.230478
-0.317315 0.014666
-0.441820 0.127644
0.234365 -0.256076
0.239598 0.289511
0.052069 0.046682
-0.249493 -0.186519
-0.484628 0.089490
0.396076 0.042922
0.264972 0.085617
0.075207 0.057510
-0.215483 -0.019625
0.070582 0.205209
0.061319 -0.033301
0.116493 -0.136315
-0.168065 -0.042079
-0.028510 0.113174
-0.005679 0.089148
0.040690 -0.224363
-0.158323 -0.116931
-0.214083 -0.137016
-0.201261 0.060224
-0.029905 0.130689
-0.020304 -0.034756
-0.016810 -0.237413
-0.021446 0.099342
0.000514 -0.269658
-0.220027 -0.008314
-0.090096 -0.122807
-0.142692 0.129054
0.049802 0.297256
-0.248396 -0.252801
-0.070374 0.171089
0.380647 0.287665
-0.447254 0.050322
0.103992 -0.317715
0.284246 0.190156
-0.201301 -0.164151
-0.033820 -0.039133
-0.020759 0.123998
-0.302042 -0.363083
0.433518 0.096301
0.161668 -0.105890
-0.251518 -0.118221
0.052309 0.007818
-0.206625 0.288505
-0.221408 0.050826
0.321944 0.222250
0.043952 0.304545
-0.392644 -0.074770
0.129046 0.267051
-0.258808 -0.179433
0.035722 -0.083013
-0.080181 0.197946
-0.115400 0.046785
0.000927 0.056682
0.095150 0.165784
0.230106 -0.164992
0.082635 -0.492379
-0.031043 -0.325138
-0.259132 -0.426112
-0.098461 0.021841
-0.000381 -0.226174
-0.030068 0.281125
0.102691 0.166704
0.184382 0.155797
0.356639 0.211916
0.094044 -0.024223
0.028177 -0.072238
-0.077254 -0.118197
-0.179974 -0.169720
0.064426 -0.256236
0.099683 -0.032503
-0.011736 -0.166729
0.001374 -0.060343
0.199920 0.198979
-0.007931 0.141935
0.201791 -0.164776
0.292545 -0.213285
0.128490 -0.164278
-0.337527 0.038967
0.044616 0.132444
0.077153 -0.189194
0.228676 0.038294
0.120755 0.041200
0.132480 0.537766
0.234521 0.072963
0.061656 -0.094119
-0.231962 -0.101664
-0.017886 -0.123802
0.043879 0.221438
0.142867 0.258819
-0.188741 -0.128383
0.021893 -0.265459
-0.036963 0.105305
0.229507 0.094825
0.067152 0.246077
-0.130169 -0.115391
0.147696 -0.042023
-0.053407 -0.226326
0.193833 0.121690
0.030397 -0.510634
0.086400 0.077416
-0.055025 -0.186809
-0.071496 -0.292399
0.049719 -0.132261
0.120982 -0.134322
-0.058830 -0.124195
-0.262276 -0.127918
-0.024457 -0.111159
-0.096300 0.038241
0.077683 -0.262161
0.006938 0.075774
-0.394866 0.090613
-0.115780 -0.507576
-0.340599 0.117734
0.193866 0.021317
-0.329985 -0.076010
-0.057544 0.091854
-0.268856 -0.069386
-0.232341 -0.036249
0.361009 0.528203
0.147715 0.076840
0.049453 -0.037119
0.033926 -0.215039
-0.080762 -0.131065
-0.094318 0.010971
0.451081 -0.031575
0.131992 -0.217028
-0.232908 -0.113984
0.057319 -0.238962
-0.014911 0.128640
0.084171 0.375748
-0.002344 -0.097490
0.029169 -0.078317
0.128951 -0.258847
-0.429134 0.176270
-0.345268 -0.007602
0.128604 -0.036565
-0.036145 -0.137415
-0.196027 -0.070314
-0.456798 0.060112
-0.536489 -0.112570
-0.016896 0.410883
-0.162055 -0.113573
-0.005767 0.007919
0.029257 -0.187676
-0.191643 -0.160915
0.026560 -0.065524
0.091606 -0.208624
0.237679 0.237194
-0.083658 -0.186071
0.292266 -0.333818
0.089293 -0.058482
-0.106157 0.108925
-0.018264 -0.072881
0.023738 0.055906
-0.025233 0.086993
0.047591 -0.096541
0.475655 0.253183
-0.004803 0.144547
-0.268699 -0.082913
0.231090 -0.373286
0.042606 0.110452
-0.093776 0.045830
-0.157058 0.157113
-0.177660 0.122458
-0.200749 0.177343
-0.319689 0.003956
0.116817 0.292559
-0.380021 -0.046101
-0.084227 0.379371
-0.389126 -0.311258
0.072551 -0.319373
-0.053557 0.138126
-0.147584 -0.272321
-0.119230 -0.067061
0.174788 -0.041851
-0.391230 0.152766
-0.114982 -0.281706
0.112092 0.358895
-0.026638 -0.104970
0.223057 0.184065
0.033384 -0.319008
0.205391 -0.130691
-0.110732 0.100483
0.170618 0.214219
0.258694 -0.045452
0.030737 -0.046121
-0.210078 -0.147096
-0.027285 -0.152777
-0.177807 -0.074946
-0.088377 -0.256582
0.064642 -0.269204
-0.044586 0.025811
0.139567 0.091734
0.164474 0.004196
0.314712 0.235910
0.001867 0.264655
0.139780 0.068562
0.209014 -0.026482
0.047737 -0.180768
-0.104596 -0.376105
-0.173417 -0.043592
0.135590 -0.287804
-0.233844 0.016958
0.226746 -0.341154
-0.196244 0.055522
-0.169875 0.140299
-0.235838 -0.166681
-0.144706 0.481125
-0.109786 0.018806
0.095386 0.046478
0.145158 0.013555
0.224536 0.229682
-0.003621 -0.143341
0.245026 0.194281
-0.008017 0.160030
-0.225868 0.076586
0.078384 0.199624
-0.314150 0.109312
-0.158801 0.276464
-0.095183 -0.123268
-0.118535 0.180180
-0.158037 -0.063068
0.025787 -0.280568
-0.051431 0.268748
-0.354559 0.364587
-0.196281 -0.075390
0.036014 0.424849
0.036846 -0.028383
-0.041149 0.423479
-0.019543 -0.262683
0.199706 -0.023058
0.134336 -0.095025
-0.092983 -0.199513
-0.005533 -0.239682
-0.235658 -0.159975
-0.107048 0.183686
0.017947 0.101704
-0.093734 0.043711
0.018719 -0.274700
-0.326576 0.107417
-0.088901 -0.321036
-0.149544 0.040973
0.034472 0.146689
-0.326058 0.012113
-0.259753 -0.144706
0.107056 -0.121046
0.121296 0.103201
-0.133412 0.002983
-0.158367 -0.101574
0.066912 -0.120572
0.089916 0.034107
0.003931 0.274381
0.331310 -0.179296
0.267770 0.066802
0.009985 0.048014
0.004855 -0.388979
0.034333 0.339887
0.083044 0.097433
-0.128531 -0.208839
-0.012465 0.128430
0.061890 -0.038749
-0.196962 0.218037
-0.085542 -0.120894
-0.263259 -0.110848
0.041212 0.024920
-0.045954 0.270771
-0.094384 0.136554
0.108700 -0.158904
0.043663 0.008415
0.074484 0.038960
-0.081711 0.089379
0.353241 -0.076583
-0.148288 0.108974
0.117434 0.020024
0.027892 -0.067373
0.262242 0.109222
0.181030 0.051486
0.082520 -0.046027
0.218285 -0.189312
-0.001198 -0.131163
0.056039 -0.008576
-0.093438 0.013220
-0.002001 0.091651
0.071877 0.033891
-0.039019 0.011662
0.214803 -0.035644
-0.153637 -0.033133
-0.029086 0.015899
0.027034 0.030683
-0.125228 -0.178910
0.214897 -0.099897
-0.120460 0.086770
0.270284 0.035960
-0.053618 -0.038523
0.377592 -0.159962
-0.042884 -0.079659
0.238188 0.098135
0.134415 0.028597
-0.013197 0.255244
0.113108 -0.318449
-0.099142 0.015869
0.022709 0.385519
-0.257252 -0.247169
-0.074412 0.004477
-0.269651 0.071339
-0.203574 -0.075969
-0.204067 0.251061
-0.124722 -0.157701
-0.050325 -0.219894
0.049796 0.130233
-0.025665 -0.094305
-0.078564 0.252715
0.034651 -0.266060
0.282229 0.233558
0.058177 -0.306522
0.058704 0.298319
-0.056967 0.086847
-0.018216 0.032223
0.056408 0.100652
0.096683 -0.212944
0.005911 0.201401
-0.289697 0.099592
-0.140283 0.095927
0.140141 -0.187690
-0.193262 0.065335
-0.127651 -0.274162
-0.166613 -0.027827
-0.143713 -0.223556
-0.110993 -0.027874
-0.240168 0.098515
-0.114007 0.052624
-0.099875 0.370503
-0.008103 0.167565
0.288378 0.106103
-0.033751 0.239466
-0.013427 -0.506043
-0.246731 -0.064123
-0.040000 -0.236747
-0.069687 -0.165430
0.044986 0.099079
0.116419 -0.094751
-0.147285 -0.166294
0.180137 -0.289044
-0.131750 -0.004593
-0.491130 -0.191686
-0.033244 -0.349336
-0.259987 0.056620
-0.249973 -0.105088
-0.098879 -0.160887
-0.029606 -0.192035
0.238311 0.427891
-0.120816 -0.240265
0.286801 0.091757
-0.065275 0.037203
-0.023143 -0.260486
-0.071889 -0.017467
0.134648 -0.249606
-0.069812 -0.021252
0.405894 -0.274879
-0.240286 -0.054862
0.133780 0.016771
-0.133826 0.356756
0.204613 0.297324
-0.096921 0.565386
-0.087372 0.120631
0.211200 0.396521
0.015953 0.208298
0.309816 -0.075365
0.014750 -0.003846
0.394732 0.061890
-0.005143 0.027749
0.383724 0.020131
-0.053125 0.037325
-0.185129 0.015914
-0.151585 0.114019
0.074823 0.192747
-0.266946 -0.255845
-0.173735 -0.222763
-0.131611 0.015893
-0.110938 0.126528
-0.131229 0.047410
-0.021723 -0.148228
0.231184 -0.135981
-0.362053 0.190364
-0.278069 -0.201446
0.110809 -0.198969
-0.231229 0.205070
-0.172775 -0.415336
0.050679 -0.325337
-0.071688 0.116828
0.082521 0.095877
-0.347393 0.178865
0.126824 0.109886
0.274653 0.042988
0.118874 0.244921
0.167532 -0.059886
-0.004344 0.050260
-0.026861 0.016006
-0.288280 -0.171483
0.261758 0.002195
0.105563 0.176489
-0.305496 0.352564
-0.074995 -0.167532
0.022740 0.095809
-0.187639 -0.038476
0.038706 0.029950
-0.011386 0.207214
-0.072671 -0.063827
-0.222653 -0.400372
0.078246 -0.267910
-0.313378 0.149104
-0.263732 -0.253026
-0.144693 -0.039763
0.174121 -0.051031
-0.137794 0.028251
-0.001877 -0.062576
0.076839 0.065241
-0.142091 0.309129
0.310082 0.199370
0.105201 0.052430
0.092481 0.225001
-0.167474 -0.001866
-0.246258 0.146796
0.141880 -0.029482
0.303794 0.182255
-0.309381 -0.183621
-0.224868 0.017833
-0.137717 -0.019583
-0.015323 0.384354
0.036900 0.323507
-0.091690 -0.329734
0.250167 -0.057583
-0.160805 -0.287553
-0.409892 0.153782
-0.079666 0.104584
0.120834 -0.209412
0.033025 -0.040011
-0.198125 -0.119303
-0.167816 0.174758
-0.630655 0.299865
0.392115 0.079710
-0.099570 -0.072181
0.077038 0.057973
0.140728 -0.170319
-0.099311 0.113419
0.070247 0.191363
0.071650 -0.494306
0.311315 0.170978
-0.009260 0.274101
-0.300160 0.017349
-0.082252 0.080345
0.042310 0.246379
0.004435 0.166362
-0.015050 0.234626
-0.370363 0.014799
0.029638 0.120646
-0.150469 0.010191
-0.169667 -0.005953
-0.095971 0.175383
-0.089438 -0.143891
-0.095664 0.232409
-0.002059 0.040643
0.100523 -0.229606
0.225173 0.193583
-0.024501 0.192028
-0.221401 0.285568
0.283129 0.114145
0.128545 0.012984
0.395280 -0.156670
-0.033985 0.230648
0.124471 0.040410
0.055629 -0.094499
0.106817 -0.174349
0.099100 -0.195946
-0.161564 0.110077
0.141836 0.324088
-0.064363 -0.065671
-0.042456 -0.368024
-0.039647 -0.269073
0.044986 0.045191
0.351150 0.047644
0.236155 -0.086390
-0.186413 -0.202849
0.223697 -0.148876
-0.081464 0.115654
0.022343 0.215807
-0.156906 0.140933
0.148458 0.068000
-0.058197 0.220664
0.148292 -0.055728
0.296852 -0.174241
0.222606 -0.034640
-0.113297 -0.063439
-0.061935 0.082461
-0.316989 0.434019
0.005662 0.303652
0.166206 0.435196
0.142602 0.196220
0.317742 -0.146148
0.019137 0.061040
0.310438 -0.228492
-0.066306 -0.193710
0.069743 -0.226403
-0.174436 -0.049020
-0.100380 0.311265
-0.097910 -0.199340
0.083788 0.126611
-0.231533 0.134364
-0.186820 -0.042783
0.135007 -0.252329
-0.062201 0.202288
0.385199 -0.105908
-0.226162 0.040162
-0.239109 0.004264
0.072782 0.075885
0.145271 0.255531
-0.138734 0.061016
0.304310 -0.208380
-0.067901 -0.005196
-0.647439 0.101161
0.221413 -0.505294
-0.095568 0.156887
-0.091232 0.013785
-0.022299 -0.143331
-0.371312 0.084616
-0.177733 -0.411269
0.428674 0.042385
-0.640000 0.207178
0.121491 -0.051966
0.231105 -0.178178
-0.096936 0.188617
0.132360 0.220096
-0.045555 -0.229049
0.396178 0.124185
-0.206887 -0.039023
0.016383 0.105051
-0.062557 -0.079730
-0.079986 -0.017797
-0.137823 0.319401
-0.161943 0.117137
0.087116 -0.085329
0.026058 0.029048
-0.127276 -0.113283
-0.153127 -0.057259
0.069214 0.022831
-0.022011 -0.218603
-0.080472 0.000100
-0.434648 -0.063226
0.281049 0.225283
0.213082 0.181265
0.137524 0.024878
-0.394338 0.039777
-0.418296 -0.147260
0.383667 0.255944
-0.102424 0.084616
-0.223155 0.050616
-0.155458 0.349375
-0.214988 -0.214271
0.126178 -0.061279
0.048434 -0.278038
-0.123891 0.006155
-0.079561 0.092298
-0.216453 -0.074841
0.161219 0.165142
0.098182 -0.387985
-0.081361 0.056772
0.018336 0.235392
-0.144717 -0.038512
-0.104055 0.284255
-0.449312 -0.050791
0.045351 -0.033090
0.248856 0.009759
0.183864 -0.093621
-0.131549 0.457112
-0.407021 -0.766809
-0.138785 0.736755
0.252302 0.111538
0.083030 0.241309
0.243071 -0.026044
0.404971 -0.075013
-0.415825 0.514009
0.057348 -0.304715
0.406934 -0.381534
0.369265 0.423826
0.297387 0.883971
0.290960 -0.308202
0.091178 -0.485480
0.074672 -0.076791
-0.145225 -0.064721
-0.230047 -0.467600
0.264873 0.094313
0.239268 -0.089451
-0.804259 -0.496721
0.685890 -1.080903
0.326801 -0.007909
-0.592410 -0.201483
-0.973375 -0.048506
-0.103820 -0.972836
0.828859 -0.349774
-0.307757 0.750184
-0.830520 -0.855666
0.023295 -0.214126
0.374567 -0.446046
0.338658 0.068137
-0.185962 0.892453
-0.271584 0.656293
-0.236350 0.219534
-0.110770 0.267783
0.770645 0.377574
0.887910 2.018016
-1.335742 0.009058
-1.005671 -0.242453
-0.507357 0.168957
-0.008940 0.223472
-0.048571 2.269952
-0.769220 -0.927821
0.796884 -0.114100
0.052908 -0.836785
1.148456 -0.211765
0.931535 1.333384
-0.200334 1.135441
-0.350101 1.265946
0.616375 1.921458
0.178553 1.374050
-0.004833 2.866385
-2.313082 1.384996
0.946663 -1.914210
-1.676640 2.944603
-3.085532 -2.995579
1.080989 1.633256
-2.263517 0.474484
2.751831 1.036346
-6.133777 0.350649
4.088977 -8.343686
1.444308 1.771178
-1.597331 -3.080917
0.446453 1.509620
0.593359 -2.344399
5.194710 3.735630
5.109469 -1.229219
6.162846 12.632880
5.687063 -4.091301
-6.543244 15.181526
-12.827713 -10.692734
-5.236518 -7.684309
-1.389224 22.731122
-6.795818 -0.906420
-9.719329 27.641398
18.500275 -69.785802
33.285804 -1.273824
-32.589841 20.182042
-131.664680 -20.784532
-37.155843 121.812532
-1084.172799 200.430259
