4488.761052 2905.348104
-2235.132614 -407.919271
-35.781179 108.803293
-240.228393 -70.788265
-20.094576 51.252143
-91.897125 -94.552990
15.397492 -1.803828
-15.641381 -17.729846
-12.817397 -12.090092
15.030832 -10.289411
11.969389 -3.852628
-6.813411 21.192516
-7.489437 1.986891
-3.013446 3.556862
-1.951131 4.014525
-8.487540 -4.232647
-2.556048 3.212407
-3.296093 0.421419
2.287166 -0.909691
-2.560142 7.515996
-2.229862 0.023833
-4.330997 -0.429129
-0.798638 -3.515798
2.043625 3.207320
0.130582 -4.521251
0.265253 0.397604
2.643377 3.359503
0.397069 0.725881
0.906616 2.352823
-2.169038 1.483726
-0.325735 -1.859921
-1.342624 0.540227
3.327459 0.273649
-1.271114 0.794959
1.080472 -0.175378
0.795473 0.683848
-0.593186 0.476597
-0.852110 0.385640
0.235240 -0.768103
-0.598599 -0.401616
-0.415581 0.011928
0.320891 0.331011
1.183983 -1.075816
-0.225112 0.052613
0.609785 0.574079
-0.563078 0.007116
-0.276225 -0.175369
0.492139 0.431506
0.207925 0.118112
-0.221025 0.114135
0.184750 -0.322687
0.193819 1.088257
-1.226416 -0.169139
0.136499 -0.323120
-0.102460 0.529238
-0.493466 0.266864
0.117102 -0.505598
-0.040905 0.316294
0.394987 -0.536590
-0.726055 -0.007703
-0.011582 -0.172179
0.442232 -0.166251
0.307358 0.102500
0.245836 0.048119
-0.234227 0.003419
-0.115962 -0.002467
0.027231 0.111936
0.618319 0.265236
-0.195003 0.187587
-0.305501 0.049805
-0.201986 -0.360241
-0.555311 -0.022758
0.494437 0.275090
-0.037409 -0.429516
0.038019 -0.326721
0.302561 -0.285987
-0.092235 -0.042383
-0.251388 0.202949
0.386409 -0.026935
0.573352 0.307298
-0.242360 -0.190916
-0.175730 0.080904
-0.120672 -0.410282
0.263465 0.130410
-0.004258 -0.072689
0.472707 -0.281160
-0.166376 0.121539
0.269030 -0.033273
-0.041499 0.124288
-0.320626 -0.043852
-0.211980 0.084157
0.074399 -0.669935
0.214231 -0.039427
0.015028 0.116484
0.158206 -0.567383
-0.105293 0.001498
0.100345 0.040882
0.283320 -0.000258
-0.307394 0.063979
0.156039 -0.128371
-0.150739 -0.100911
0.334797 0.285483
-0.317049 -0.057983
-0.447496 0.139724
0.170067 0.107422
-0.332027 0.150099
0.073273 -0.417863
0.078608 0.210201
-0.170097 0.001771
-0.076249 0.079315
-0.108942 0.098805
-0.223430 -0.264814
-0.041707 0.141820
0.128794 0.179717
-0.069561 -0.144838
-0.042940 0.030562
-0.129366 0.121640
-0.047092 -0.359593
0.102283 0.169768
-0.051957 -0.106777
-0.074142 0.121456
-0.062800 -0.285524
0.021314 -0.064122
-0.152666 -0.030448
0.030900 -0.309414
0.175156 -0.314284
-0.001433 -0.002119
-0.066894 0.007013
0.074509 0.045922
0.076377 -0.268754
-0.123526 -0.243914
0.241526 0.189983
0.445304 -0.209645
-0.319293 0.010099
-0.005443 0.033269
-0.065590 -0.110438
0.108958 -0.052683
0.182192 0.284546
0.018723 -0.065695
0.267906 0.064483
0.094369 0.224700
-0.344769 -0.071423
-0.232049 0.276838
0.193646 0.403239
0.294808 -0.044241
-0.397532 -0.378318
-0.138885 0.345564
-0.182968 0.010697
0.096208 0.203854
-0.256900 -0.091291
-0.110485 -0.238399
-0.188079 -0.111684
0.231025 -0.042865
-0.104353 0.116129
-0.213867 -0.135118
0.052960 0.082021
0.035388 -0.226370
-0.085109 -0.173935
-0.266514 -0.295697
0.126543 -0.173674
0.418339 -0.027280
-0.091438 -0.076608
0.134442 0.040294
0.251822 0.217976
0.049106 0.162595
0.031613 -0.042280
-0.065278 0.202833
-0.150629 0.091504
-0.215176 0.010171
0.141765 0.046630
-0.134532 -0.376547
-0.018006 0.160468
0.147555 0.043112
-0.070302 0.052556
-0.262739 -0.199098
-0.032992 -0.374086
-0.019210 -0.079994
0.181446 0.085806
0.282468 -0.398335
0.180938 0.096054
0.047847 0.053965
0.196836 -0.131370
0.080936 -0.131895
-0.056252 0.047774
-0.103994 -0.063232
-0.092097 0.256144
-0.064360 0.061089
-0.019051 0.100278
-0.082612 -0.235844
0.028283 -0.098166
-0.206358 -0.186752
0.098501 -0.044215
-0.049649 -0.063320
-0.031402 0.312373
-0.128736 -0.019821
-0.044948 -0.138763
0.210082 0.060411
-0.192859 -0.185590
-0.236130 -0.250001
-0.102848 0.156890
0.095546 0.217906
0.020800 0.271744
-0.057147 0.071068
0.155065 -0.183319
0.071929 -0.202802
0.021408 -0.313010
0.077800 -0.360483
-0.270431 0.097725
-0.013305 0.306742
-0.237700 0.144711
0.086839 0.085389
0.055686 -0.164681
0.041540 0.056835
0.397483 -0.113231
0.068880 -0.170395
-0.083453 -0.419014
-0.252715 0.026350
-0.486743 -0.013237
-0.293055 0.115066
0.138112 -0.091869
0.024197 -0.018429
0.003724 -0.130741
0.142414 0.090042
0.007479 -0.050555
-0.075916 -0.084760
-0.143741 -0.098798
0.137544 -0.312526
-0.093250 -0.160705
-0.259864 0.058151
0.064011 0.281904
-0.208195 0.190618
-0.043458 0.108217
-0.104512 0.064480
-0.052787 -0.277164
0.062032 -0.371877
0.392025 -0.200931
0.013113 0.032183
-0.108662 -0.003353
-0.141366 0.103787
0.129902 0.170359
-0.072547 0.039512
0.159376 0.032169
-0.127746 -0.165191
-0.077447 0.455018
-0.065883 -0.085677
-0.186162 0.032688
-0.062928 -0.139890
-0.253655 0.214809
0.073476 -0.053178
-0.010804 0.193690
-0.178481 -0.405930
-0.328380 -0.012438
-0.078321 0.186601
-0.054979 0.004293
0.003760 -0.159307
-0.057059 0.191471
0.108522 0.176940
0.085052 0.212483
-0.073331 0.079901
-0.154529 -0.205082
-0.196904 0.006293
-0.115483 0.210110
-0.315131 -0.220697
-0.022614 -0.203234
0.281071 -0.049410
-0.020227 -0.256235
-0.080618 0.099448
0.529626 -0.225395
-0.139634 0.087692
0.071461 0.059287
-0.143989 -0.029676
0.150082 -0.028576
0.090393 0.065652
-0.006410 -0.219967
-0.199329 -0.297722
0.140152 0.349761
-0.029463 0.129648
-0.471116 -0.055577
-0.053472 0.162332
-0.040349 0.067537
-0.113060 -0.258207
0.097540 -0.016712
0.092075 0.235784
0.018738 0.217521
-0.274358 0.193564
0.159297 0.086833
-0.359948 0.278363
-0.178819 -0.295923
-0.274175 0.563241
0.221836 -0.187131
0.036914 -0.009538
0.280018 0.482964
-0.050580 -0.124263
0.014409 -0.047102
0.010179 0.479348
0.040495 0.279930
0.049484 -0.579183
-0.101579 -0.294154
0.288600 0.303078
-0.158450 -0.502582
0.487046 0.195691
-0.138474 -0.146674
0.068891 0.238891
-0.229005 -0.134016
0.053353 -0.223334
0.272181 -0.044827
0.096341 -0.305440
-0.000497 0.059939
-0.051083 0.009334
0.155035 -0.150331
-0.287471 0.136397
-0.564054 0.166601
-0.296093 0.117961
-0.152685 0.060002
-0.360771 0.048583
-0.071243 0.324394
0.067689 -0.106076
0.121878 0.250851
0.151357 0.056833
0.230643 0.116516
0.186221 -0.214282
0.581726 -0.193310
0.172904 -0.151517
0.317612 -0.219881
-0.108266 -0.305360
0.140491 -0.036272
-0.341232 0.119021
-0.336846 0.046501
-0.274423 0.166947
-0.194058 0.022333
0.000822 0.345405
-0.107877 -0.006334
0.032523 0.438707
0.268619 0.040716
0.209426 0.179752
-0.008177 0.279869
0.310284 0.029252
0.062762 -0.232973
0.120091 -0.311912
-0.088141 -0.163405
0.240516 -0.002587
-0.077937 -0.596982
0.048750 0.215436
-0.120831 -0.375871
0.182516 0.152077
-0.078672 -0.188567
0.199723 -0.025436
-0.163012 0.066310
-0.053188 -0.265888
-0.044378 0.217940
0.005913 -0.194655
0.017115 -0.217311
-0.479730 0.163907
-0.176469 0.514001
-0.021252 -0.414340
-0.128657 -0.009811
-0.123286 0.246580
-0.358696 -0.018207
0.083963 -0.279308
-0.033716 0.526323
0.233870 -0.096504
-0.107949 -0.155794
-0.021261 0.053791
0.285554 -0.169878
-0.101094 0.399235
-0.026713 -0.146089
-0.140644 0.056332
0.238530 -0.285603
-0.258930 0.047031
-0.007739 0.077025
0.335493 -0.426382
0.106105 0.056003
0.011029 0.120760
0.072310 -0.269109
0.296216 -0.463100
-0.123972 0.149640
0.039060 0.118393
-0.196946 -0.148712
0.160244 0.049328
0.080085 -0.046096
-0.383221 -0.005050
0.037055 -0.003011
0.067693 0.009862
-0.301973 -0.037281
-0.090947 0.124251
0.083062 -0.147847
-0.182568 0.246029
0.134187 -0.102782
0.014590 -0.073183
-0.122216 0.058523
-0.249617 0.191314
-0.137245 0.192595
-0.214682 0.327361
-0.183372 -0.195554
-0.261405 -0.066088
0.029592 0.117633
0.096503 -0.160788
0.204800 -0.302655
-0.272581 0.004324
-0.072486 0.075656
0.116114 0.029550
-0.168272 0.167617
-0.012643 -0.373953
-0.117523 0.046540
0.128411 0.142227
-0.179450 -0.041431
0.030472 -0.272192
-0.193269 0.147093
0.087599 0.021935
-0.124868 0.151657
0.288720 -0.030294
-0.271313 -0.046290
-0.116123 -0.205875
-0.187586 -0.314082
0.166348 -0.171698
0.029755 0.073194
0.175481 0.327582
0.019512 0.332533
-0.075007 0.397309
0.114537 0.178378
0.035765 -0.040960
-0.311441 -0.242561
0.139328 0.009649
-0.156332 0.018149
-0.022808 -0.024715
-0.301084 0.177248
-0.045131 -0.029730
-0.226576 -0.042410
-0.062071 0.001007
0.125799 0.162453
0.485631 0.096514
0.186798 0.019849
0.050549 -0.180311
-0.176974 -0.204749
-0.438871 0.078747
-0.071499 0.117856
-0.264489 0.009836
-0.057622 0.088360
0.027132 0.307269
-0.006713 0.354716
0.062934 0.096196
-0.022058 -0.256353
-0.225418 -0.370515
0.038757 -0.119455
-0.233161 -0.171670
0.054073 0.237767
-0.072629 0.192644
-0.005494 0.432343
-0.014161 0.203135
0.250178 -0.132445
0.177228 -0.160615
-0.174549 0.309619
-0.087450 -0.101345
0.138662 0.238409
-0.191408 0.325711
-0.024665 0.112928
-0.253351 -0.139487
0.060750 -0.007242
-0.153131 -0.392791
0.123998 -0.158717
0.052082 -0.013956
-0.034776 0.128284
0.219139 0.052946
0.149424 0.027824
0.148966 -0.032490
0.012682 -0.123858
-0.018730 -0.156252
0.143029 0.154147
0.029388 0.185383
-0.128995 -0.039756
-0.222323 0.202272
0.086380 0.202021
0.032074 -0.222432
0.055818 0.142297
0.002740 -0.057196
-0.235119 0.246508
0.030648 0.210879
-0.128912 -0.259184
-0.124428 0.042803
-0.037433 -0.015773
0.168074 0.039871
-0.033448 0.055137
-0.033498 -0.086864
0.056658 -0.141024
0.004550 0.251192
0.077165 0.103568
0.110670 -0.005282
-0.139036 0.019813
-0.041014 0.037828
0.329622 -0.085433
0.110931 -0.094277
0.051844 -0.000601
-0.011089 0.276276
0.193795 0.150491
-0.006994 0.455817
-0.521264 0.101277
0.019502 0.064264
-0.145831 -0.144310
-0.163164 0.009719
-0.283541 -0.082015
0.015197 0.024761
0.036090 0.231753
0.081590 -0.477817
-0.274584 -0.255994
-0.450096 0.265032
0.279914 0.033501
0.216313 -0.305509
0.024718 0.003452
-0.222824 -0.264335
0.354897 -0.126979
-0.141247 0.248137
0.076774 -0.102391
0.244781 -0.214149
0.229288 0.216391
0.326884 -0.042903
-0.225634 -0.147832
-0.058186 0.231621
0.255144 -0.020540
0.090265 -0.159780
-0.056586 0.371195
0.080972 0.147940
-0.029222 0.181821
-0.141080 -0.044821
-0.259537 -0.189836
0.190046 0.075923
-0.047159 0.077276
-0.061633 0.023120
-0.051494 0.112266
-0.029976 0.163212
-0.244332 0.244620
-0.178529 -0.211745
0.116907 0.147856
-0.235269 0.218463
0.030709 -0.185277
-0.306607 0.319376
-0.032041 0.268113
-0.115214 -0.268233
0.158394 0.149305
-0.248333 0.135115
0.088415 0.027296
-0.283808 0.060658
-0.103536 -0.232939
0.048606 -0.116730
-0.133522 0.174062
0.403570 -0.068625
0.174987 0.067307
-0.174290 -0.076368
0.127986 0.124445
0.022279 -0.264650
0.180106 0.146931
0.037364 0.020994
-0.306875 0.093178
0.437914 0.044955
-0.176131 -0.467673
0.093375 0.362929
-0.175060 -0.091075
0.107271 -0.300465
0.083660 0.339939
0.123795 0.003831
0.110543 0.193265
-0.330718 0.028309
0.090360 0.214098
-0.318969 -0.416685
0.004658 0.137200
-0.005476 0.108688
0.075243 -0.129248
0.267174 0.261914
0.012588 -0.305428
-0.138681 0.370788
-0.348935 0.148238
0.309398 0.400734
0.367084 -0.115823
-0.029443 0.229709
-0.074273 0.126585
-0.263300 -0.212119
-0.582100 0.444951
0.370450 -0.112921
0.235956 -0.252777
0.305010 -0.006253
0.107274 0.191664
-0.230772 0.110344
0.123712 0.559648
-0.171661 0.285816
0.003832 -0.343792
-0.007506 -0.099959
-0.020987 0.170969
-0.580510 -0.245663
0.621723 -0.213682
0.877124 0.110428
0.084318 0.214883
-0.437718 0.561005
-0.534812 0.071903
0.027809 -0.558992
0.194276 0.842713
-0.356209 -0.732520
0.737978 -0.334765
0.397777 0.229797
-0.035608 0.143717
-0.120992 0.181688
-0.823400 -0.456971
-0.514397 -0.353544
0.650579 -0.889648
0.694113 -0.536696
0.153953 0.119320
0.505633 -0.558796
0.334483 -0.718128
-0.538926 1.101805
-0.090705 0.719574
-0.391597 -1.485665
0.391654 -0.777583
-0.067974 0.140830
0.456242 -0.102996
-1.253374 -0.476314
0.123461 -0.117924
-0.272984 0.805749
-3.254143 0.224818
-1.409958 -1.468530
1.960510 -3.133214
0.927838 -0.897781
1.028279 2.834773
-1.593049 -2.944218
1.184646 4.982186
-0.681121 -0.253884
-0.528875 -0.549569
-4.531461 0.152653
0.588785 -1.135495
2.316141 -2.539034
0.343126 2.151212
-0.439996 4.548086
-3.469151 0.282735
-0.184624 -1.142188
-1.580693 6.244402
-0.872090 -9.734980
-1.408288 0.534985
-1.268433 -4.325396
4.315338 0.767910
2.985985 11.374971
-10.127917 -6.832255
-14.874054 -6.819524
7.689038 -9.178827
-2.463151 0.772168
-24.078387 -8.994723
31.346143 -43.541792
14.328754 41.391507
-46.677929 64.004344
36.622893 69.167202
-957.277363 106.116206
