3130.692472 5497.306844
179.694977 -1054.262179
-84.123391 1285.825835
-763.983940 548.168561
-882.216364 -202.356105
-336.460760 -683.503640
-461.093480 -481.098199
-231.161363 -176.955025
-320.033984 -348.791395
-248.303532 -162.348683
-177.786881 -108.814204
50.715830 -47.719480
-38.681427 47.972114
-37.488286 91.336396
-92.734530 102.935612
-41.179357 -136.985449
65.616448 -196.922239
77.768358 25.734126
-46.523686 -88.834387
-92.630009 -111.376370
-51.824036 -91.368753
-121.535722 -22.981622
-130.135953 -45.879246
-84.611203 -36.731662
-65.312709 73.335444
-126.642411 51.191299
60.604608 87.510076
-7.421309 13.604340
-16.058385 -14.687570
28.053306 -24.280766
38.032773 -19.800023
-41.477704 -23.559346
14.138227 -64.716950
-66.108247 -39.996570
-45.392672 -20.652178
-60.979571 -24.234419
-47.670186 14.964770
-58.323158 12.529401
-16.365765 -8.267419
-47.824252 49.374671
12.166679 33.074984
23.938087 -6.955257
-9.611639 17.388886
6.441081 -22.834434
-4.035872 -21.503478
4.873341 -11.731590
-6.195097 -29.508883
-24.330025 -39.720043
-41.574499 -17.014017
-16.575603 5.819180
-27.667584 -2.290669
-11.311738 -10.157677
-13.723363 -9.518264
-49.029210 14.180718
-0.101859 5.832128
-2.153860 4.324725
-10.244721 8.850200
-1.818549 -16.089543
-2.362003 -5.817710
-20.803528 -2.436975
8.063512 1.585935
1.506670 -17.475195
-18.535768 -28.294208
-26.926522 -6.968885
-18.667511 -6.502856
-30.678976 -17.131934
-0.027011 9.347144
-32.763467 -16.550549
-22.318783 0.204501
-5.624042 7.320343
-29.713479 18.444159
-3.388308 11.688255
13.864322 10.931422
-0.789508 10.925250
9.922607 -22.635845
-2.908285 -9.278464
0.189877 -28.945082
-26.578619 -5.983652
-6.651284 -27.771971
-30.168934 -0.330355
-24.049198 2.741831
-22.520176 2.533663
-15.076846 10.766572
-4.872783 14.116665
-3.162658 12.722608
-0.772789 -4.529613
9.176306 9.339769
-1.650103 -7.043904
6.821905 -13.708205
-1.083516 -7.998368
-2.738171 -11.193855
-9.712021 -17.619951
-20.977176 -13.829824
-18.912005 -5.601990
-23.103090 13.759705
-3.463341 -1.410962
-8.088544 6.268783
-7.910143 0.737292
-2.620703 0.373751
-9.774183 3.811165
-4.031316 -0.050612
2.610496 -2.161482
-1.488200 0.386122
-6.943716 -12.994963
-4.586439 -3.289361
-10.577687 -9.693144
-7.399192 -5.654267
0.331177 -12.595961
-26.021835 -4.121357
-5.389509 0.482144
-11.156020 5.008393
-13.475644 0.636845
-12.019529 8.200224
-4.230296 -1.792905
-3.151928 8.430982
-2.917291 -0.602248
-1.783206 3.121054
3.332292 2.815605
5.831541 -6.463440
-0.045176 -12.042915
-11.078348 -14.009927
-8.248631 -7.818932
-15.069859 -3.090057
-15.583598 -2.852245
-9.887478 5.052226
-11.464832 -0.524583
-9.125017 9.649018
-0.836692 3.201923
-2.305003 5.835119
6.845334 6.796028
0.202852 -3.643289
5.585959 -6.193005
-2.627237 -6.426667
-2.775172 -12.971418
-11.426358 -11.770214
-13.486668 -2.016446
-8.038064 -2.247677
-12.854412 -4.790042
-12.674204 2.641737
-10.099087 5.190809
-1.261394 9.423764
-0.491405 2.080003
-4.246645 1.198005
2.738093 -1.040673
-0.826156 -3.323271
-4.650906 -6.988977
3.148995 -1.917612
-4.083144 -7.799537
-8.663714 -10.214327
-9.188663 0.128318
-11.841332 0.349626
-8.626168 -1.142511
-8.380177 3.743994
-5.719074 3.054639
-5.206775 0.932095
-2.596781 3.299622
-1.243923 -0.991324
-3.857729 2.861595
0.279059 -5.296397
-3.334924 -0.322631
-1.460643 -1.734007
-7.277474 -5.658799
-4.277698 -2.636593
-5.281709 -0.447018
-1.947163 -3.418013
-8.828850 -6.819113
-7.138841 -0.886990
-9.114169 0.916866
-2.686561 2.446828
-9.265411 3.208522
-1.522398 1.948305
1.081070 1.320067
-7.887929 1.204241
2.580161 -1.293024
-2.055938 -1.011002
0.961639 -2.699249
1.166493 -9.733447
-6.436042 -2.566745
-6.215262 -7.597688
-7.957972 -2.554079
-11.205066 -3.613400
-9.259911 4.249111
-5.466137 3.404236
-5.948269 0.094069
-2.281116 6.740000
-1.377126 5.860716
2.632375 -1.299366
3.713558 -2.561180
0.620152 -3.270105
-2.862730 -7.033034
-3.461844 -5.929510
-11.449343 -2.674839
-5.392392 -2.550679
-6.549222 -2.593100
-10.007306 -2.796067
-10.826427 2.108085
-4.356780 6.797986
-2.938039 5.714526
0.732019 0.995456
-0.076866 5.511357
-0.185970 -4.970178
-0.405010 -2.082001
0.602086 -3.379965
-5.096678 -6.561879
-3.742171 -1.318094
-5.147296 -5.372025
-4.763631 0.117100
-10.042763 -2.159073
-4.854930 2.924693
-2.417140 2.207509
-4.571309 -0.221394
-3.900964 -0.856338
-4.913149 2.079077
-2.273307 0.802285
-2.898732 -0.660371
-1.602733 0.309208
0.528736 3.436136
-1.047979 -6.676387
-0.900864 0.732692
-2.089916 -2.895801
-4.536061 -5.911464
-5.271547 -0.630531
-5.354868 -4.446524
-7.305310 0.896517
-5.295516 0.028879
-9.259815 -0.480015
-2.626084 6.486079
-4.510771 3.306375
-0.362174 4.704092
0.293445 0.932907
-0.945063 3.430094
2.176845 -2.840294
1.455743 -4.213288
-1.161049 -7.068491
-4.068012 -6.520830
-8.728243 -6.021679
-7.862411 -3.187942
-9.753378 4.838555
-6.592376 1.386295
-3.391558 2.128202
-5.112838 4.780874
-3.818749 4.555075
1.086207 5.111750
4.117929 -0.888071
0.336131 0.249995
1.838500 -3.004194
1.521801 -5.012396
-5.397551 -6.580354
-3.757262 -3.575513
-9.035929 -2.815129
-7.848218 -1.345960
-5.043884 0.543970
-9.669889 1.928013
-1.600812 2.286168
-3.965160 6.810122
0.362932 0.335970
-0.102983 2.085948
-0.155064 0.035489
-1.872525 -1.032102
-0.695468 0.829415
-0.358208 -2.817570
-0.971188 -1.217631
-3.227625 -4.962170
-4.550425 -5.014831
-7.794129 -1.636499
-4.931232 1.138954
-6.596459 -0.102146
-3.220480 2.407956
-4.088375 3.479241
-3.574204 1.330291
-2.341501 -0.026408
-3.946599 2.379519
-0.680463 1.412375
1.027837 -0.579614
-0.011813 1.782085
2.928493 -4.912976
-4.401969 -1.673089
-1.048101 -2.490010
-2.768153 -4.964915
-5.563842 -1.601714
-8.212836 -4.397518
-6.918716 0.394983
-7.228315 4.269581
-4.547724 3.125265
-2.244032 4.554943
0.450398 3.092152
0.193966 1.759951
-1.267155 1.810847
2.634399 0.072743
3.238845 -3.657625
-3.705880 -5.719519
-1.179187 -3.803662
-4.148632 -5.737206
-6.376545 -3.339243
-9.612782 -1.851340
-5.753524 3.117302
-6.126824 4.609790
-3.319430 2.705101
-2.584494 5.328149
-0.180923 5.621399
2.220803 -0.528942
0.750771 1.950347
-0.252335 -3.847847
1.738259 -2.626674
-2.584793 -3.780244
-4.379714 -3.031314
-1.770882 -1.295587
-6.424713 -0.864727
-4.744767 -1.901508
-6.408344 0.825171
-5.711561 2.418203
-3.827314 3.607273
-0.390584 2.019591
-1.882061 2.068837
0.571809 2.555368
-0.455484 -0.413134
0.164451 -0.765228
-1.872179 0.162032
-2.012338 -1.059411
-1.423462 -2.809223
-1.633669 -1.079090
-3.660160 -2.942319
-4.848712 -3.147827
-2.818390 1.555779
-5.071973 -1.415458
-5.197669 0.640050
-3.194832 1.588301
-6.511667 2.920714
-0.577390 5.467213
-1.927285 2.730604
2.783092 0.485381
1.743438 -1.141164
-1.730951 -2.083613
-0.168786 -2.096826
-0.590769 -0.245998
-2.272714 -3.844503
-4.779451 -3.209661
-5.744089 -0.250582
-4.480374 -1.166659
-8.308312 1.058117
-4.958862 3.595547
-2.685611 5.334562
-0.776466 2.727616
-0.759101 3.574526
3.302600 1.229771
0.853135 0.877568
0.650326 -2.514501
-0.829469 -3.466462
-0.788158 -2.367979
-5.585565 -4.649249
-3.566839 -2.801480
-6.713282 1.460088
-2.929068 0.946169
-4.245728 0.318761
-4.093386 4.048574
-1.686661 2.399976
-2.340809 4.328086
-0.473602 3.259572
2.084526 -0.177872
-0.497614 -1.003396
-1.764425 -1.857650
0.091244 -3.130336
-3.499057 -1.527673
-3.693792 -1.306866
-3.162580 0.451560
-2.773427 0.031183
-2.996126 0.462251
-4.617853 -0.534302
-3.472798 1.469100
-1.999678 2.940284
-1.649684 0.378208
-1.656947 -0.087061
-0.383414 0.778437
-2.287461 1.413885
-0.708057 1.908384
2.369422 -1.328738
-2.052184 0.343923
-1.998517 -4.265805
-3.009349 0.013416
-3.776864 0.047710
-2.936753 -2.459208
-3.194371 0.564413
-4.073060 -1.519760
-3.430251 1.776596
-2.820107 2.090767
-3.900927 0.816211
-0.997120 4.747332
0.182367 2.002724
0.817536 0.312954
0.892899 -1.368020
0.773843 -1.084434
-1.569411 -2.683497
-1.920301 -2.252523
-3.112000 -2.151403
-4.475756 0.393708
-4.436568 -0.416368
-5.375218 1.633740
-3.844057 3.357282
-2.224371 3.877556
-0.029627 0.432545
-1.587711 2.455415
-0.324392 1.866997
-0.128295 -1.060747
1.892464 0.967698
-1.724277 -2.722254
-1.248860 -2.369219
-3.072367 -2.333109
-4.659670 -1.405233
-3.886354 -0.815577
-5.210100 2.604335
-1.892763 1.708156
-1.396822 2.113033
-3.177149 1.104351
-0.412747 1.356730
-0.645563 1.782291
-1.295565 0.409468
-0.680235 0.439378
-0.799515 -1.492228
-2.537196 -0.596538
-2.842744 -0.670237
-1.127332 0.019144
-0.506079 -1.021330
-3.455948 -1.884902
-3.956061 0.571566
-2.185475 1.363359
-1.846104 1.831603
-3.380979 0.395568
-0.988617 1.865706
0.053707 0.522055
-4.041641 0.063879
0.549190 1.096878
-1.494494 0.589480
-1.291470 1.562514
1.075607 -0.732115
-1.959972 0.174204
-0.799119 -2.465720
-3.600655 -1.611086
-3.862254 -0.001503
-3.037199 -0.605414
-4.012970 1.342728
-3.725584 1.306065
-2.006432 2.035374
-2.891266 2.951860
-0.043109 3.631140
1.480674 1.331443
1.247027 -0.843931
-1.537996 -1.173426
-0.488044 0.220136
-0.030358 -2.450054
-2.320792 -1.711916
-3.254899 -2.390332
-4.503845 -0.509695
-3.505952 -0.400201
-5.589757 3.294016
-3.561370 3.053465
-1.016815 2.820983
0.133150 4.757550
0.218997 -1.554966
0.822872 1.773869
0.084823 -0.899190
-0.369504 -0.955967
-0.729849 -0.438724
-1.420815 -3.434847
-3.243451 -1.327150
-4.666085 0.150380
-2.905757 0.330221
-3.452227 1.527117
-2.025388 1.995762
-2.912560 0.674946
-1.926087 2.211570
-0.254577 2.811099
-0.239392 1.319091
0.512254 0.456363
-0.263829 0.294795
-0.630602 -1.239169
-2.957236 -0.029341
-0.994336 -0.533600
-2.683104 -0.730083
-2.515270 0.064978
-1.142816 -0.643004
-1.742603 0.418899
-2.798863 -0.029951
-4.048808 0.060131
-2.161880 3.575157
-2.911877 1.522570
-1.752930 2.282775
0.403954 1.644456
-2.153123 0.893157
0.562440 1.354051
0.187793 0.890583
1.497573 -1.693034
-0.414855 -2.059512
-3.741608 -1.832235
-2.575731 -0.105947
-1.343655 -0.732481
-5.135583 -1.137800
-3.508217 1.576416
-3.869576 0.733820
-2.337969 3.155241
-3.547249 2.858654
1.518105 3.825581
1.047597 1.963375
1.899525 1.020820
0.843589 -1.266707
-0.531238 -1.362679
0.049498 -2.436374
-5.010161 -2.807193
-2.129322 -1.651692
-2.961623 -0.020476
-6.179438 -0.718458
-3.010055 2.017139
-3.937389 3.721199
-1.343749 2.971251
-0.142975 2.696011
-0.606528 1.737802
0.113051 1.049945
0.621129 1.000665
1.007345 -1.484698
0.096235 -2.136001
-1.799771 -1.502804
-2.156777 -1.343866
-3.513287 -1.665029
-2.724266 1.509451
-3.126665 1.236812
-3.187779 1.253139
-1.736979 2.129200
-2.076972 1.741987
-1.019622 1.143732
-1.569002 0.764479
-1.390099 2.075334
0.153759 2.551783
0.543591 -0.160696
0.499375 -0.584106
-2.584626 -0.320365
-0.951326 0.384211
-0.253266 -2.475912
-2.853128 0.345080
-2.122484 -2.838433
-3.598781 0.313115
-2.743962 2.153035
-1.932057 1.238592
-2.621954 2.070721
-2.117854 2.368417
-0.661209 1.860986
-1.370366 3.725346
0.878775 1.061587
1.189579 1.906645
1.688834 -0.879666
0.180249 -2.745585
-0.363405 -2.171080
-2.499861 -2.071087
-3.488353 -0.947032
-3.973416 -0.780839
-4.452300 2.223990
-3.270041 1.103468
-3.699507 2.600233
-1.699200 3.318208
-0.085106 3.345225
1.048360 3.454328
1.086845 -0.690765
1.627648 0.960566
-0.180188 -0.449399
-0.781729 -2.097650
0.469518 -1.066694
-4.281338 -2.589874
-3.456277 -1.232778
-3.888410 0.356365
-4.172945 0.678672
-3.228690 3.625370
-1.102564 2.309449
-1.053227 2.399936
-0.097946 2.924849
-0.536257 0.925888
0.029357 0.719515
-0.537611 -0.158528
-0.534381 0.669406
-0.356190 -0.733407
0.628366 -1.772014
-2.925564 -0.903348
-2.904554 0.025426
-1.710480 1.384705
-2.152480 -0.289985
-3.065075 1.613533
-2.607951 1.268107
-2.531489 0.503286
-0.972134 3.877116
-1.783092 0.638526
0.495094 0.960715
-0.144141 1.393754
-1.620210 1.156935
0.443820 0.064942
0.433913 0.808480
-0.551255 -0.568018
-0.217775 -1.721361
-2.040383 -1.977997
-3.503224 -0.065402
-2.510763 -0.260110
-4.070215 1.277059
-2.179012 1.128763
-2.951722 3.840067
-0.231037 2.811635
-0.434389 1.339106
-1.053429 2.795942
1.257185 2.059414
1.266049 -0.803070
0.639807 -1.576713
-1.712874 -1.115014
-0.947473 -1.396007
-2.317228 -1.493446
-2.648956 -0.083243
-3.779220 -0.525746
-4.284669 2.176817
-1.943810 1.430824
-3.146501 4.403259
0.070265 2.323603
1.453064 1.725668
-0.015282 2.150926
0.745982 -0.519253
1.197041 -0.298893
-1.453557 -1.404038
-0.975992 -0.619673
-2.556810 0.177732
-0.975918 -0.462057
-2.951368 -0.670454
-4.013263 0.649414
-2.844156 2.421120
-1.097015 1.928374
-0.481994 1.786367
-1.842942 1.392805
0.300422 1.665397
-0.109309 1.324423
-1.422325 0.994939
0.927953 0.371066
-1.341903 -0.418649
-0.279692 -0.859048
-3.060536 0.611555
-0.297430 0.872621
-1.394884 0.315555
-1.511930 1.340684
-1.963056 -0.615418
-1.974964 1.907181
-3.027404 1.172316
-2.587412 1.042401
-1.546586 1.917201
-0.956221 2.477741
-0.776442 0.197223
1.002914 1.884004
0.102624 -1.054519
-0.553198 1.116836
0.763754 0.240964
-0.759819 -1.132252
-0.943016 -0.805775
-2.914154 -0.835633
-2.834589 0.396464
-3.222409 0.805983
-2.674682 1.685474
-1.948740 1.907012
-1.429527 2.125482
-0.074823 3.336012
-0.016525 1.534755
1.983097 1.760213
0.265763 -1.073895
0.920958 -0.100597
-0.684698 -2.030614
-1.982842 -1.971317
-1.825699 -0.660631
-3.908456 0.303222
-1.512786 0.640369
-1.988387 2.363298
-2.731093 1.356553
-1.177812 2.934842
-1.332149 2.538989
0.527115 2.399015
1.745625 0.399614
-0.305942 -0.454493
0.383743 0.167713
-0.327578 -0.707947
-1.595372 -0.378984
-1.057283 -0.078399
-2.109372 -0.156497
-2.974978 1.171504
-2.872964 1.139686
-1.435274 2.595992
-0.817285 1.597279
-0.969800 0.672314
-0.447681 1.314054
-1.403484 1.385966
0.459522 1.289231
-1.711917 0.590435
-0.084744 1.011362
-0.517886 0.665501
-1.014328 -0.502055
-0.436978 -0.733349
-1.430616 0.482012
-2.786025 -0.263763
0.087740 1.101201
-2.582911 0.072981
-1.698976 1.041284
-1.564958 0.843974
-1.930529 2.483059
-0.800702 1.163266
-1.381545 1.588912
0.433830 1.363515
-0.632831 0.518923
0.247250 1.315079
0.414511 -0.145201
-0.401052 -0.061240
-0.099885 -1.279404
-2.321218 -1.077803
-2.114442 -0.587544
-3.455887 0.986139
-3.003356 1.256644
-2.298293 2.834023
-0.805809 3.240449
-0.073190 1.239905
-0.869470 2.357601
0.312885 0.880490
0.795305 1.358140
0.650818 0.631404
0.369925 -2.453393
-0.887213 -1.748633
-2.015032 0.121614
-2.915077 -2.255978
-3.126559 0.812668
-2.194434 1.165087
-2.376055 1.103585
-2.110464 2.067574
-1.130388 3.579075
0.392735 3.128311
1.360519 1.679769
0.076173 -0.367616
0.258769 1.515366
-0.117597 -0.387116
-0.868618 -0.183380
-1.296434 -1.331693
-1.629901 1.556468
-1.211484 -0.694964
-2.115347 -0.446220
-2.712268 1.428927
-2.735438 1.540131
-1.131513 1.701030
-1.806160 1.827335
0.328499 1.529293
-1.325508 1.115409
-0.071293 0.339860
-0.145035 2.762615
-0.595333 0.532012
0.169383 -0.221857
0.577927 1.472016
-1.388981 -1.133752
-0.903709 0.756522
-0.705358 -1.098859
-2.542889 0.108301
-1.619993 -0.200096
-2.526181 0.007445
-3.111974 2.497663
-1.827169 1.856157
-1.765758 3.470764
-0.065993 2.375312
0.880796 2.194417
0.450832 0.724021
-0.020221 -0.184405
0.775647 0.373280
-0.286443 -0.897141
0.486146 -1.342470
-1.553432 -1.808322
-2.957229 -0.766285
-3.543577 0.674388
-3.542336 1.335657
-2.510794 2.887157
-1.415461 3.339282
-1.314362 1.989491
1.240417 2.479053
0.598885 2.749800
1.616593 0.751171
2.212631 -1.299440
-0.406830 -0.470906
-0.969439 -1.099074
-1.268128 -0.908327
-3.023136 -0.163626
-2.455050 0.138377
-3.359302 1.034802
-1.207987 1.826176
-2.142411 0.816014
-1.847120 3.225411
0.045414 2.657035
-0.074126 2.419592
1.249788 2.140285
0.042188 1.192046
0.634117 -0.946444
-0.818447 0.824650
-0.688959 -0.427405
-0.341948 -0.113880
-1.377179 -0.187327
-0.939219 0.029003
-2.380349 0.391679
-2.154365 0.638907
-0.739486 1.327639
-2.321975 1.732435
-1.534889 1.133354
-1.100271 1.705588
-1.598084 2.991006
0.510390 1.050169
-0.071105 2.105014
1.622883 1.919634
0.657045 -0.568768
0.340240 -0.629219
-1.219139 -0.707389
-1.759733 0.041096
-0.837910 -0.982899
-2.832588 -0.378067
-2.093797 0.102623
-2.986346 0.971828
-3.447217 1.864917
-1.664353 3.318336
0.170851 3.922161
0.193632 2.114507
1.243314 1.974502
0.620916 1.478590
1.554382 -0.193989
1.198321 -0.549785
-0.912966 -2.998805
-1.887297 -0.289238
-2.558084 -0.083687
-2.880551 -0.277571
-2.384094 2.051767
-3.446274 2.214073
-1.631859 2.389741
0.258415 3.587125
-0.976458 1.092496
-0.668771 2.521448
2.078747 1.623522
0.552118 0.733375
1.240168 -0.516443
0.195244 -0.777564
-0.992342 -0.718342
-2.271787 -1.296483
-2.194298 1.410608
-1.814740 0.511523
-1.701453 0.995138
-2.283457 1.058551
-1.300632 1.806135
-0.320252 2.293278
-0.580915 1.833783
0.109904 0.857591
-0.445539 2.301104
-0.235303 0.823154
-0.492473 1.060480
-0.232051 0.786763
0.091793 -0.085319
-0.038486 0.665774
-1.098059 -1.625366
-1.140016 -0.557123
-1.491419 0.764799
-2.815083 0.809215
-0.034761 1.586828
-2.338299 1.279001
-0.882468 2.301245
-1.705120 0.448369
-1.485106 3.067453
0.511426 2.530337
0.946669 1.426106
1.069932 0.705884
0.675480 0.349427
0.418786 -0.174953
-0.642112 -0.288115
-1.051742 -1.383254
-2.342105 -0.223405
-3.759432 -0.162298
-1.833467 1.083239
-2.380813 2.587588
-1.275432 2.153507
-0.551750 2.865856
-0.282411 2.936958
1.921111 1.476471
0.428764 1.013940
0.122827 -0.228268
1.094348 0.949472
-0.410705 -0.729010
-1.070007 -1.350385
-1.586888 -0.647748
-2.546794 0.706922
-2.950755 -0.148785
-2.552040 3.049870
0.075290 2.755009
-1.162091 1.549916
-0.215886 1.932331
-0.266303 2.012675
0.550082 1.509961
0.809534 0.338663
-0.516949 0.111615
-0.397609 0.170696
-0.318682 0.300991
-1.527301 -0.466184
-0.866810 0.952145
-0.514237 1.170435
-1.750450 0.453229
-1.085496 1.050337
-2.183181 1.281906
-0.572331 1.551087
-1.076115 1.971875
0.014204 1.770111
0.042335 0.558063
-1.032860 1.763791
0.119657 -0.445965
-1.341213 2.526311
0.306361 1.190790
0.093800 -0.537968
0.120608 0.256770
-1.549898 -0.654774
-1.716380 0.595959
-1.083642 -0.175684
-1.739073 0.951019
-1.954321 1.453712
-1.037922 2.187295
-1.193730 2.525670
-0.091923 2.180208
-0.307467 2.089669
1.356789 1.547495
0.924817 0.532315
0.063189 0.178880
-0.269815 -0.788074
-0.406536 0.249664
-1.421046 -0.087713
-1.483456 -0.001328
-2.495302 0.475413
-2.411001 1.047387
-2.273198 1.551365
-1.973668 2.879820
-0.293677 3.225445
2.241678 2.980951
0.149827 -0.450060
1.286332 1.449295
0.570445 0.103513
-0.693187 0.113711
0.399434 -1.847387
-2.107347 0.056441
-2.083282 0.466099
-2.106161 -0.108943
-1.647977 2.185722
-1.650012 2.683688
-0.360778 1.542735
-0.940716 2.567215
-0.439846 1.888340
0.070357 1.750862
-0.208371 1.487015
0.853272 0.670379
0.834523 0.984828
-0.299671 -0.730562
-0.759065 -0.564209
-1.710071 1.270642
-1.638564 0.445637
-0.318165 1.962527
-0.824352 0.114226
-1.176589 1.589621
-1.639760 1.236307
-1.563551 1.953377
-0.057865 1.248478
-1.468336 1.865434
-0.201677 1.503247
0.135209 1.125874
0.570612 1.824617
-0.322880 0.435449
0.724387 0.395998
-0.088664 1.030218
-0.941925 -1.099760
-1.415592 0.129693
-0.971073 0.468571
-2.183919 0.448438
-1.606683 1.275373
-1.141685 1.509460
-0.516073 1.808063
-1.272684 2.753832
-0.482985 2.730961
0.467480 2.700448
1.741822 2.693156
1.330639 -0.184574
1.455784 -0.895987
-0.857697 -1.040103
-0.828075 -0.689942
-1.975402 -0.178892
-1.438915 -0.804389
-2.902600 0.644339
-2.857817 2.907143
-1.002086 1.140101
-1.276606 3.787958
-0.631576 2.263017
0.924815 2.154144
1.501628 1.093977
0.750446 0.891756
0.495063 0.460875
1.330185 -0.573236
-0.927991 -0.359523
-1.312686 -0.218457
-0.885872 -0.666364
-3.268180 0.994116
-1.773958 1.419541
-1.798286 2.553594
-1.019359 2.156092
1.158881 2.227434
-1.787843 1.282987
0.541112 2.214905
0.873461 2.008584
0.434101 1.129181
0.369311 0.427500
0.325397 0.829828
0.371884 -0.650121
-0.534788 0.623919
-0.675918 -0.561370
-1.143536 1.086251
-0.603455 0.425254
-2.295426 0.661247
-1.987082 1.699314
-0.422370 2.273867
-2.144794 1.239933
-0.636595 2.510052
0.653728 2.313422
-0.041708 1.234193
0.275205 0.186520
0.218908 2.678416
1.347026 0.680893
1.141815 -0.005255
0.677019 -0.967664
-1.526527 -1.314055
-2.404984 -0.428774
-2.908825 0.543775
-1.719121 1.283397
-2.043999 2.437969
-1.785605 2.134888
-0.561377 3.023189
0.907816 3.543894
0.699338 2.004406
2.151028 2.417630
0.549051 0.187512
2.417319 0.122716
-0.765154 -0.929654
-0.529798 -0.239320
-0.215955 -1.447064
-3.165313 0.115776
-2.029006 0.510807
-2.050285 0.931332
-2.747271 2.873953
-1.680351 3.242839
0.253625 3.331172
2.006402 3.205616
0.273294 1.203565
0.702631 0.435120
1.007295 1.585288
0.306239 -1.160708
-0.069961 0.384521
-0.389668 -0.133142
-0.949071 -0.284472
-1.435840 1.073636
-2.566592 -0.049398
-0.430547 1.955962
-2.201898 1.025068
-1.107509 1.796609
-0.477657 2.066273
-0.598527 1.956347
0.423931 1.959610
-0.341783 1.682121
1.106709 1.250624
0.619346 1.790209
-0.193132 -0.107424
-0.244596 -0.382212
-0.151225 0.789608
0.416008 1.187068
-0.942357 -1.164351
-0.802476 -0.051982
-2.372945 0.824060
-2.919180 1.600431
-0.963510 2.400004
-1.485884 3.273467
-0.073455 2.060735
0.621100 2.515512
0.159596 1.990201
1.929224 1.576568
1.328943 -0.301297
0.994929 0.059721
1.387769 -0.498695
-1.148153 -0.529565
-1.214337 -1.119280
-2.739971 0.811571
-1.187881 0.275233
-3.085013 1.210810
-1.013743 3.087261
-0.932241 1.762574
-0.216139 3.809791
0.617202 3.071660
1.764143 2.647904
2.681185 1.424871
0.453698 -1.078292
0.209372 -0.448474
-0.136092 0.006734
-1.389417 -0.598614
-1.838111 -0.233165
-1.329095 0.776364
-1.931346 1.456647
-1.875827 1.050965
-0.858580 2.625771
-0.999854 3.314888
1.031396 1.020351
-0.504738 2.816675
1.457916 0.961940
0.391809 1.182098
0.259199 0.732680
0.414012 -0.655876
-0.296399 1.243549
-0.279144 -0.606325
-0.020652 -0.038354
-2.216596 0.764475
-0.915313 1.733482
-0.619696 1.775348
-0.847360 0.038624
-1.354746 1.226809
-1.495374 1.689701
-0.726191 2.166760
0.370399 2.250191
0.390476 1.933666
0.682894 2.489153
1.621425 -0.089474
0.450014 1.641134
-0.970681 0.459142
1.184856 -0.682045
-0.896958 0.078320
-1.636990 -0.369182
-1.303824 0.205461
-1.499990 1.433929
-1.838627 1.083609
-1.620288 3.391597
-0.669696 1.983475
-0.309812 3.199384
1.023617 1.588516
0.055735 2.168071
2.329207 1.317427
0.972007 0.172747
1.483054 -1.054178
0.216502 -1.728083
-1.957225 -0.124553
-1.859437 -0.111777
-2.474237 2.355712
-1.020637 1.436626
-1.715959 2.263377
-0.798767 3.098652
-0.375101 1.700120
0.376693 3.412995
0.816607 2.188221
1.286853 0.487732
1.237687 0.648762
1.371013 0.783118
-1.385018 -1.350711
-0.268111 0.170377
-1.352092 0.373957
-1.663481 0.777230
-0.302746 1.012903
-2.345234 1.295678
-0.712746 2.229262
-0.611269 3.304546
0.893261 1.297945
0.831930 1.359300
-1.046758 0.630158
0.211422 1.014864
0.334779 1.640941
0.149252 0.919343
0.479721 0.364131
-0.479603 0.664168
0.045765 -0.224605
-1.808619 0.842109
-0.554901 1.276626
-0.971861 0.843513
-0.544673 1.098371
-1.770276 2.183677
-0.447383 1.423369
0.324380 2.032170
-1.473702 1.865922
0.247361 2.101591
1.809776 1.945624
-0.510659 1.925311
1.411322 0.930281
0.463923 0.634632
0.155970 1.021523
0.455041 -0.759736
-1.149136 -0.102715
-1.784983 -0.332856
-3.012537 1.540534
-1.979222 2.875448
-0.404672 2.688090
0.567958 2.836448
-0.216764 1.794047
1.263354 2.877687
1.137834 0.439872
0.182444 1.244732
1.628614 0.760501
0.474170 -1.059068
-0.028304 -0.717671
-1.037307 -0.352774
-1.778888 0.785556
-2.105551 0.993975
-1.768065 2.387684
-1.696759 2.976981
0.444807 1.823993
-0.917884 2.879391
0.219254 2.865554
1.889210 1.047834
2.174693 1.434372
0.150221 -1.520404
-0.076907 0.071173
-0.932470 0.886428
-0.608153 -0.149240
-1.214355 1.460164
-0.590762 0.854285
-1.027109 1.021902
-1.148364 2.125410
-1.191068 1.414355
0.348706 3.142880
0.435021 1.726103
0.181736 1.564098
0.385667 1.857076
0.930033 1.807308
1.135186 0.136547
-1.064708 0.823490
0.699323 1.248934
-0.135023 0.722241
-0.619718 0.106313
-0.770246 0.728749
-0.314939 0.340051
-0.774500 2.247662
-0.758116 -0.153000
-1.305147 1.090509
-1.085845 3.052399
-1.993329 1.588162
0.593031 3.368952
1.327598 2.933814
1.992538 1.540091
1.832817 0.470440
0.169107 0.271155
1.428984 0.529664
-0.853156 -0.429615
0.115077 -0.110225
-1.113223 -0.275057
-2.692416 1.173050
-1.691259 0.829752
-2.409541 2.690201
-1.196808 3.065073
-0.484637 3.594580
1.793284 2.661869
1.109165 2.065814
1.862079 1.786926
2.076368 0.839514
1.595797 -0.603433
1.079857 -0.337509
-0.696421 -1.049553
-2.412916 -0.690976
-0.561836 1.828793
-2.865824 1.611258
-0.718810 2.608265
-0.343890 2.265455
-1.322225 2.794951
-0.056302 3.140142
1.225418 2.972005
0.802314 2.592819
2.782297 0.894470
0.300305 -0.145651
0.867673 0.475972
0.208499 0.236213
-0.443114 -0.380921
-1.400035 -0.119925
-1.122402 2.205941
-1.431375 0.526377
-0.720917 1.129936
-1.489763 1.435575
-0.672028 2.384790
-0.023340 2.149681
0.858459 1.923352
0.188435 1.706453
0.587972 2.122703
1.099563 1.772293
1.366089 1.869558
1.716255 0.657084
0.066435 0.058011
0.350059 -1.586388
-1.437557 0.870310
-1.196704 0.608762
-0.573831 -0.999383
-1.317032 2.592952
-1.345374 1.874951
-1.599705 2.068812
-0.345050 3.590372
-0.197449 2.729761
0.950351 4.470651
1.438128 1.756858
3.083017 1.913002
1.154258 -0.630227
1.253160 0.147552
1.233623 -1.500635
-0.587597 -0.415895
-0.900217 -0.949292
-2.622707 -0.053063
-2.824545 1.761814
-2.029775 3.256527
-0.951292 3.038382
-0.080231 4.201878
1.974267 2.103401
0.713719 2.788357
1.600564 2.055037
2.591834 0.970327
2.266765 1.427674
0.809210 -1.739622
-0.120097 -1.129495
-1.192007 0.513703
-1.967961 -1.414246
-1.172277 0.933240
-1.985772 1.692322
-1.327941 3.909698
0.950151 2.941985
-0.844516 2.024739
0.095113 3.064008
0.241265 2.638084
1.813452 1.128820
0.431741 0.819990
0.849946 0.250074
0.099805 0.518088
0.854316 0.430145
-0.214983 -0.209158
0.443011 1.089322
-0.232525 -0.899757
-2.109053 0.802572
-2.037772 1.809752
-0.431921 3.068820
-0.696734 1.272874
-0.691367 3.287600
0.895728 3.236030
-0.190765 0.799621
1.549438 2.860361
0.409915 1.784010
1.005620 1.802086
3.365883 0.383497
-0.313991 -0.110788
1.011372 -1.275152
-0.346629 -0.704690
-1.150366 -0.004530
-1.971999 -0.225915
-2.032789 1.870455
-1.998010 1.718270
-0.754440 4.041084
0.051958 3.525807
1.962609 3.896576
2.109901 2.669512
2.289630 1.115109
1.953026 0.130992
1.180835 0.958429
1.466419 -0.184141
0.426665 -0.650999
-0.580177 -1.501261
-2.780467 0.791335
-1.359945 0.905506
-2.804178 2.499672
-1.351823 2.251188
-0.160109 4.174564
-0.278138 4.108439
2.538060 2.073071
1.827232 1.712586
0.404287 2.497083
2.777142 -0.450508
0.924634 1.692220
0.541233 -0.477070
-1.147408 -0.164100
-1.177061 0.721135
-1.397645 1.490155
-0.933210 1.479266
-1.180249 1.333659
0.023090 1.299438
-2.031425 1.943148
0.068467 3.294609
1.046194 2.097691
1.698903 2.537496
0.392766 1.121388
1.714333 1.482029
0.151688 0.885409
-0.078813 1.278804
0.651358 0.765184
0.198263 0.928494
0.563128 0.323482
-0.425152 0.528746
-1.070480 0.471601
-0.586622 0.281437
-1.064447 3.499400
-0.730065 0.850940
0.133351 2.648234
1.068793 3.222634
-0.541851 2.098131
2.865869 3.105249
1.966028 2.282988
2.571863 0.138431
0.650405 -0.336081
0.028323 -0.504871
-0.899017 0.668012
-0.239688 -0.155202
-0.986163 -0.599073
-1.761060 2.259262
-1.589735 2.247646
-0.028785 2.826471
-0.287047 2.931691
1.232379 4.971598
1.648186 2.432272
2.571152 2.884965
2.466841 0.616436
0.440916 -0.509004
0.583997 0.106523
-0.479040 -1.078880
-0.619815 -0.370870
-0.940593 0.955340
-2.612415 -0.539186
-0.557904 3.873589
-1.429079 3.078615
-0.105282 2.988307
1.896034 2.411947
0.366612 2.364220
0.932001 1.413208
1.391127 2.214905
2.602696 0.844349
1.149334 -0.197837
-0.014737 -0.537534
0.026584 0.774441
0.080743 0.582049
-2.057936 0.587574
-0.352246 2.433997
-0.104646 1.757780
-0.070924 2.037083
0.169294 1.622870
0.175998 2.261963
0.254865 3.067755
0.314430 1.989087
1.606128 1.978356
0.194870 1.791330
2.151122 1.426494
-0.104124 0.401856
0.986497 2.045977
2.609845 0.199461
-1.784435 0.168370
0.250891 -0.760170
-1.317466 2.097508
-1.311899 2.726208
0.160486 1.579607
-0.356233 2.110357
-1.452294 3.013151
0.797265 2.824506
0.627806 2.020204
1.276924 2.419401
1.513766 2.414434
3.653561 0.142182
1.203251 -0.492210
0.922603 -0.885049
-1.011824 -1.293010
-1.416107 -0.412537
-1.697689 1.847154
-1.496341 2.353798
-0.279675 1.798535
-0.933351 3.576616
0.243419 3.929853
2.494612 3.188846
1.996502 2.490773
3.328512 0.825459
1.517738 1.146763
1.315617 0.188201
0.441185 -1.563133
0.563561 1.516722
-1.301586 -1.982726
-1.892962 -0.211035
-1.856420 3.408576
-1.671728 1.863631
-0.303632 3.112545
0.116211 4.451501
1.767159 2.372568
1.088584 2.899855
2.627094 1.309011
1.241679 1.645920
1.101163 1.250113
1.645900 -0.757306
0.489836 1.178380
0.763159 0.092415
-1.079780 0.240772
-0.688324 1.147210
-0.446228 2.905078
0.540113 1.238551
-1.395049 1.592975
-0.238081 2.936533
-0.404600 2.078441
1.607716 4.435992
0.867232 1.265679
1.920734 3.069073
1.508492 2.156166
1.332814 0.377509
2.438788 0.824169
0.289971 0.915809
0.827347 0.365353
1.669771 0.220471
-1.603585 -0.769047
-1.518558 0.778281
-1.091788 0.617200
-2.208002 3.724237
-0.550522 3.655357
0.238547 3.283592
1.121454 4.305777
1.557413 2.716684
1.971973 2.726443
3.089054 2.034514
4.365425 -0.182588
1.292035 -2.223775
0.110124 -2.088484
-0.280684 0.151688
-1.678386 -0.178196
-1.618803 2.126639
-0.950999 0.429713
-4.562949 3.222715
0.501481 4.694114
-0.843064 4.979051
2.365451 4.254660
4.199299 4.132866
2.305721 2.146821
3.297824 -1.410855
2.235559 0.492159
-0.297825 -0.372440
0.334651 -1.121585
-0.266406 0.380538
-1.423403 0.521796
-0.968175 1.000588
-2.908939 1.270654
-0.481984 3.857144
-0.491651 3.486750
1.757096 3.311610
1.876479 1.915477
0.208877 3.973908
3.716694 2.594116
1.895927 0.951465
2.256662 0.369198
0.762346 0.521933
1.976265 -0.875987
-1.034463 0.535770
0.172771 1.556914
-0.697319 0.439344
-0.697113 2.175390
-0.390790 -0.279033
-1.550326 2.543565
-1.632520 2.509629
0.555404 2.521604
-0.050476 4.456454
1.514465 3.739129
3.483043 2.427713
3.373314 2.364255
2.151419 -0.161714
1.480520 1.810854
3.401634 -0.160616
1.002504 -1.126014
-1.753860 -2.042886
-2.000638 0.761941
-2.827054 2.507422
-0.647660 1.685630
-1.620459 3.655940
0.671975 3.930807
-0.365988 5.173650
1.923872 5.602972
4.003099 3.186058
3.820809 2.918358
3.620852 -1.387458
2.654507 -0.660871
2.547102 -2.113237
-0.799005 -2.651775
-1.336717 -0.121123
-2.840186 0.886941
-0.402994 2.550882
-2.252263 3.333540
-1.750563 3.233424
0.903083 4.840955
1.257802 5.371104
2.353928 3.327222
4.621654 2.675987
3.027998 0.715204
0.515701 0.879337
4.092859 1.178123
1.044612 -2.279927
0.302266 1.236440
-1.034040 -1.418154
-1.506492 1.827703
-0.866791 0.891696
-1.891676 3.471719
0.397590 1.591654
0.688049 3.935682
1.817953 2.542591
-0.253317 2.243267
1.995572 3.602427
1.080947 2.968346
1.525064 2.256285
3.660533 2.502250
1.597723 0.324180
2.862464 -0.608190
-0.057341 -0.035280
-0.624391 0.404051
2.836841 1.574657
-2.604435 -0.575976
-0.854032 0.505629
-2.250444 4.099925
-0.287693 5.060522
1.316047 1.959976
0.015555 4.462619
2.778388 4.563606
2.522350 2.192143
3.267431 2.471475
5.787439 2.543261
2.884098 -1.334449
2.830844 -1.433941
-1.430617 -1.827417
-0.780173 -0.605344
-4.182748 0.043904
-2.118542 2.642137
-0.552266 4.807989
-1.049231 4.225108
2.210282 2.943764
0.203459 5.077592
3.235999 4.951672
4.669469 2.332137
2.288884 1.780170
5.171108 -1.226475
1.029639 -1.792029
-1.340542 -1.504683
0.631499 0.049028
-0.727563 -0.031841
-2.958313 1.869011
-0.137491 1.941340
-0.419340 4.474976
0.439329 4.393914
0.838602 3.826518
4.536797 4.851805
2.375760 -0.487849
0.872384 2.493842
2.483509 1.294223
2.072035 3.383524
1.650504 -1.747409
0.479164 2.667869
2.386073 0.761312
1.447420 0.696206
-1.349827 -0.694770
-0.286625 2.346942
0.316225 4.534015
0.176620 0.609439
0.306900 2.012037
-0.251482 3.864884
1.391793 2.245988
1.912020 5.579164
2.570346 1.281890
2.167786 2.053850
2.255602 3.237375
1.066609 -1.330410
2.704091 1.640774
1.649164 1.857014
1.259239 -2.844186
-0.646437 0.593215
-1.515022 0.239683
-3.296540 3.578476
0.396755 2.653531
-1.074125 5.101636
1.996396 5.668726
2.694959 3.167096
4.338622 2.942132
2.362902 0.783785
2.346038 3.215127
4.042220 -0.324319
3.024497 -0.108498
0.387551 -0.812253
-1.512338 -2.191354
-1.413080 2.072346
-2.896656 2.669650
-0.722051 3.705588
-0.417242 4.434828
0.401740 4.428634
3.750908 5.387064
2.742225 4.342268
5.126875 3.320412
6.375104 0.800328
2.908104 -2.869623
-0.579668 -0.673078
2.341338 -0.170292
-2.339480 0.615659
1.036634 1.556552
-0.809148 1.577545
0.218145 4.988613
0.410479 1.127136
-0.003304 3.919944
1.558581 5.689035
3.328759 5.155403
3.665403 0.832003
2.704527 1.346189
2.765987 -0.098689
-0.074807 1.586323
2.626852 -0.278664
1.523307 1.880991
-0.605473 0.443051
1.403784 2.104760
1.091373 1.579312
-1.184332 3.124738
2.882933 2.034072
0.482798 3.335498
1.579747 1.155153
-0.723238 3.292591
0.083140 4.236545
4.250961 2.999233
1.819647 3.824967
2.330769 5.030772
5.282985 -0.405613
3.931035 1.783719
1.180149 -2.803711
-2.037461 0.722992
3.490047 0.852720
-2.114513 -0.372588
-1.283163 1.961367
-0.316065 2.091113
-1.351067 5.184140
1.294534 5.040818
3.550629 7.592968
5.004700 2.621655
4.073732 3.971958
3.927002 2.524593
6.520981 -0.327636
3.846900 0.878348
2.194057 -5.703191
-0.609236 -0.015162
-2.531545 1.063648
-1.074705 0.935257
-2.336363 4.235013
-2.081082 5.609590
2.828661 4.302560
0.154273 7.027604
4.723014 2.841147
2.741605 4.202549
7.616975 5.045137
5.025772 0.247065
5.933478 -2.788366
1.510188 -1.376638
-1.725675 -0.456063
0.145427 -1.697479
-1.676048 4.271411
-2.263113 0.779642
0.541878 5.089637
-0.993717 3.253198
3.210556 6.202237
1.342048 5.065350
3.459921 2.477891
4.609208 3.266260
1.649727 2.612989
2.419720 2.000416
4.510825 3.004249
3.379532 -0.553268
2.088166 0.638446
2.916873 0.282839
0.369929 -1.060310
0.404674 0.258452
-1.472320 2.842879
-2.264392 2.828416
3.967791 6.564546
-0.957351 1.929979
0.850016 5.487577
3.130293 3.294187
0.217525 6.760997
4.669984 5.000751
8.556116 2.672832
8.433748 1.187222
1.281964 -2.405147
3.992259 -0.798964
2.189409 -1.635756
-1.299163 -2.416140
-2.986798 -2.581227
-4.961673 1.598256
-0.986688 5.619141
-2.958873 6.075161
1.030147 9.119118
6.510070 9.450681
5.740288 6.469807
8.393746 1.787125
8.373895 3.190837
4.459956 -3.693854
5.774560 -0.230007
1.113468 -3.098944
1.752590 -2.793069
-3.059415 -2.316690
-6.864671 1.622719
0.048097 4.410476
-3.398922 8.851407
1.618115 8.643830
1.664003 5.145081
6.952595 8.013073
4.082869 5.762964
8.035078 1.355765
7.303556 0.611216
6.075623 -0.180089
0.800222 -2.102952
3.743657 2.767726
1.446166 -2.182874
-0.433614 0.948971
-0.519394 1.774081
1.841877 2.740402
-1.919085 3.633277
-0.553260 2.595840
-0.024044 5.337148
2.680608 8.916270
5.811224 6.218563
8.439870 1.204584
3.198629 5.411721
5.855539 1.590620
1.827114 1.887141
6.839725 1.234691
5.397223 -2.763418
3.023582 -0.749125
-0.003092 -4.849680
-0.754632 2.720092
2.008543 2.505058
-3.640194 0.118829
-2.642790 6.940738
-2.370100 6.785878
1.675140 12.958385
6.791902 5.682519
7.603260 8.395996
9.342488 5.708167
10.703419 -1.155673
7.230599 -2.863913
2.553158 -1.657311
3.439001 -1.310292
0.143728 -5.011307
0.966266 -0.742976
-5.889193 0.750862
-3.816763 1.475538
-3.575759 10.003109
-0.279209 10.977637
3.407878 9.882234
10.320699 13.036407
11.022062 3.272360
11.135748 3.517078
9.011514 2.024466
7.229386 -2.449047
6.235461 -5.051265
-2.842609 -3.674596
-2.608188 -0.783371
0.367810 1.555341
-0.265229 0.671989
-6.937813 6.337066
4.103371 7.815528
3.172549 10.346873
1.548965 4.373081
6.320225 5.780860
3.199515 6.003914
10.605291 4.740153
8.643449 1.436048
8.134337 -3.558637
4.213697 0.345950
1.039726 -1.636405
2.581959 3.142840
3.642221 2.415636
-0.603010 -0.071383
1.808104 0.394278
-3.122417 2.403192
-3.681383 8.031886
5.820222 6.578128
-0.547249 6.499174
4.971852 9.328486
7.757088 7.877490
4.380045 8.970034
13.762145 1.649808
8.697254 2.265870
11.127490 5.577940
8.205069 -11.637650
0.385673 -1.005563
-1.286982 -0.257287
-0.360980 -1.773056
-1.615791 1.805180
-3.348537 7.406357
3.315837 8.684002
-2.614739 6.878898
0.309592 15.290310
8.585059 16.604601
13.404508 10.086386
19.687624 -2.743947
15.213844 0.567789
4.540022 -7.920510
11.935736 -10.231753
-5.121036 -2.678264
-0.261484 -4.426795
-7.884801 -0.539747
-5.556975 9.488566
-0.057981 7.711821
1.698587 12.590627
3.071195 10.203655
10.839948 11.192340
9.620570 10.008662
16.193203 2.554284
8.176643 2.500755
15.798276 6.498060
4.835328 -7.506096
5.708714 -7.948762
-2.763583 -1.301464
-6.717189 1.547649
-2.305642 3.598858
2.163368 14.134647
4.188577 12.255510
10.997320 7.278946
4.505903 -0.132921
5.761817 7.267561
7.219594 14.567106
10.117702 -2.607058
5.913057 2.433210
3.873609 14.897818
14.009561 -0.008836
15.133106 3.482516
5.084589 -2.399746
11.613961 -1.581227
1.594004 1.601785
4.987962 -7.926220
-14.598476 10.605509
10.024585 12.514903
0.482201 1.702109
5.261727 7.402462
2.400481 14.614127
11.413420 10.030231
17.713412 2.506537
0.215612 10.682529
26.023069 10.708910
21.037590 -2.336793
12.811276 -4.675780
-0.584874 -6.540150
7.876862 -12.948893
-5.418384 4.349703
-7.833577 -5.551468
-3.375960 7.841022
-7.067595 20.084127
9.764671 26.336840
4.993855 15.686883
11.950742 17.583180
30.691774 10.687417
15.041935 0.603417
23.214284 -2.044090
15.863425 -6.760155
3.550100 -7.983574
8.687988 -3.251262
-3.270886 -9.563056
-5.939662 1.849814
1.528937 -1.320480
-25.160204 18.122460
1.645089 43.489962
27.385924 33.441528
27.483307 5.530181
24.396094 7.965974
28.483461 -10.381311
12.574173 5.282291
13.990466 -0.205344
13.435158 -3.476220
12.129564 11.281269
-6.273543 -16.525356
4.567461 15.126891
11.666320 9.871955
25.692225 -6.272733
-7.869700 12.821601
10.441326 0.549152
14.970869 14.391013
0.985624 2.937452
27.045249 0.811551
-3.688729 38.798021
38.117127 -3.140387
14.302389 6.943853
14.085840 16.670104
7.516305 -14.989211
12.093390 26.711636
60.556583 -19.167410
-16.105771 -40.431462
-20.339139 5.522514
-19.792191 24.766182
-4.231370 57.159120
29.046131 -0.016736
-1.736770 53.043892
13.562994 -3.079429
65.045480 31.772368
9.322936 28.954510
45.433005 24.792729
62.959260 -4.263878
35.416632 14.754317
57.395623 -53.230798
-37.088271 -30.795518
12.127514 15.495697
23.353253 20.121766
20.282782 19.664056
-34.774219 -6.124307
1.490180 52.679360
26.342196 43.892820
42.836298 72.283885
127.814908 67.926943
97.831651 -13.163124
126.611970 -43.236370
66.655045 -78.547911
-69.907731 -132.339731
-10.668644 -52.821674
-59.380143 -0.622188
27.519370 -52.669445
-118.799022 142.506539
-98.306177 60.926195
44.083690 57.914632
-34.188728 149.625201
89.877585 180.842911
156.055079 111.612479
132.680153 101.805662
220.913183 243.766947
277.349685 10.678799
14.841996 -71.444999
362.788162 -233.057278
519.053601 -110.902748
249.506686 -89.671364
51.551824 119.528930
-255.702396 -429.255945
