8923.055253 11000.326661
-1321.216955 -1115.805139
554.885009 -8.234566
-46.115311 1071.413443
-554.208680 56.936183
180.028778 -337.499756
-16.880310 93.922527
-23.782158 78.692883
64.778419 -259.851453
189.408169 -53.065395
101.633667 31.067196
39.836634 0.626358
66.763148 14.916564
29.072693 -19.383727
20.176351 -38.613081
81.541990 -95.194809
72.386097 -121.279888
97.263371 -126.426214
98.595001 -80.135323
33.198904 -68.967069
66.329650 -68.218949
39.612555 -75.294450
37.330385 -103.826050
72.672996 -143.134812
53.548479 -113.861581
48.307294 -125.359668
52.148328 -101.402453
23.913609 -84.904803
30.412562 -115.156249
34.142487 -113.176996
30.713308 -116.082877
33.826653 -133.123201
23.043920 -110.587456
14.857180 -110.737508
15.284489 -110.983867
8.015212 -103.813598
5.514830 -119.784666
3.923276 -115.725759
2.558555 -112.201730
-4.874695 -112.842706
-6.337455 -105.021800
-9.792462 -103.522150
-13.553343 -103.857367
-20.320009 -101.481276
-26.203789 -102.088236
-30.763462 -96.617505
-31.098189 -97.469608
-31.656654 -92.313395
-34.215791 -91.765932
-36.531800 -90.144549
-40.843551 -86.041975
-47.132348 -84.137258
-45.993691 -81.255017
-49.379238 -74.133720
-51.879673 -78.302603
-49.114801 -73.608669
-54.546406 -69.748857
-55.637091 -70.570549
-55.766759 -60.818449
-61.921170 -60.170471
-62.991502 -61.328747
-62.054906 -56.633290
-65.420065 -55.268958
-58.910604 -53.055589
-64.770037 -45.237670
-67.587634 -45.300633
-65.065751 -42.129471
-67.858223 -39.983708
-67.750195 -39.877857
-65.018984 -37.008871
-65.236092 -32.195709
-62.617150 -29.934470
-62.616292 -24.471628
-64.071030 -22.850084
-63.888456 -23.310212
-62.877317 -22.308045
-63.629711 -17.654662
-60.583700 -16.236827
-59.097164 -12.686821
-60.033641 -10.286656
-60.080741 -11.625591
-55.902979 -8.523626
-57.205485 -7.487702
-55.410365 -6.476163
-52.413873 -2.207607
-52.300770 -2.149046
-49.566013 -1.090761
-50.334534 2.433526
-50.146797 3.520611
-47.265493 5.520186
-45.969123 6.693621
-44.433801 5.522484
-43.760271 8.939588
-43.867776 7.392240
-42.956753 8.767985
-40.461366 11.300362
-39.361730 10.917528
-37.312336 11.009493
-35.090058 11.880531
-35.221653 12.785024
-33.946283 11.909313
-32.275407 13.271738
-31.185675 15.612851
-30.131289 14.684335
-27.066751 14.879740
-28.632839 15.262075
-28.774680 14.207310
-26.264929 14.546076
-25.034548 15.046225
-24.131396 13.364738
-22.825568 15.144174
-23.731816 14.514144
-19.743823 13.991599
-20.650499 14.749981
-20.026267 11.916299
-17.597221 12.389685
-17.709139 13.524840
-18.213851 11.825094
-15.952725 12.634821
-16.137509 12.723554
-14.549235 12.139383
-14.705540 12.635005
-13.161577 11.052962
-12.605663 10.072694
-12.548603 11.124412
-12.435842 9.055352
-11.479470 10.737261
-11.463575 10.203837
-11.234410 9.363393
-9.622435 8.512929
-9.414508 8.896240
-8.848341 8.006387
-9.902068 7.672324
-9.488745 8.881749
-8.585784 8.665153
-8.899919 7.024845
-8.375493 6.253791
-8.514909 7.360689
-8.557919 6.184609
-7.259175 7.080030
-8.544490 5.280223
-7.979022 4.952332
-8.889192 4.477969
-7.902392 4.549300
-8.517495 5.067965
-8.626269 5.295700
-8.428335 4.265047
-7.826298 5.066287
-8.503770 3.668659
-8.372674 3.579949
-10.075128 4.720962
-10.401805 4.421120
-9.268997 3.705982
-9.629706 4.252322
-9.203428 3.405607
-9.531312 2.673120
-10.663254 2.436523
-9.196837 3.695515
-11.257813 2.681435
-10.107639 3.183095
-10.183978 3.231313
-11.004631 3.297156
-10.630614 3.624470
-10.940745 3.872426
-11.235072 3.877662
-10.796117 4.134888
-12.180028 3.905187
-10.972108 4.012356
-11.295379 4.573330
-11.570990 5.262982
-11.360069 5.747179
-11.098007 5.118110
-11.177786 4.774267
-12.314885 5.656467
-11.958358 5.437995
-11.416320 6.813854
-11.769411 7.037196
-10.870647 6.655847
-10.266395 7.022620
-11.075695 7.393364
-9.979482 6.246296
-11.352747 7.359062
-10.819547 8.773029
-10.062814 8.969083
-9.907258 8.924072
-9.124176 8.058796
-10.132998 8.138700
-9.938972 8.516919
-9.572259 9.169945
-10.133063 8.985995
-8.663315 8.730556
-8.137494 10.419894
-8.605398 10.172365
-9.147793 9.591930
-8.454399 10.312150
-8.486185 10.156760
-7.736878 10.368855
-8.026446 10.726046
-7.982284 11.276590
-7.382793 11.521295
-6.990968 10.863850
-6.066994 11.139842
-6.426982 11.263079
-6.419155 11.175712
-5.223035 10.562717
-5.910340 10.961118
-5.655611 9.966614
-5.695915 12.093644
-5.466493 10.566183
-4.170672 10.262270
-4.566042 10.817258
-4.317805 9.990744
-4.276974 9.786364
-5.209548 10.360192
-4.656453 10.873054
-3.980485 10.298593
-4.407603 9.749277
-4.031366 9.919829
-4.357669 9.818274
-3.812581 10.635418
-4.149773 11.243643
-3.975857 9.835291
-3.022142 11.221052
-3.456423 10.634536
-2.919052 10.375129
-3.896501 11.178465
-2.950787 11.717237
-2.958489 10.959988
-2.365875 11.526609
-2.974167 11.001169
-2.498585 11.342031
-2.659395 11.961507
-2.067774 11.816631
-2.022063 12.325578
-1.778252 12.251595
-1.192818 11.513858
-1.949802 12.355408
-1.368754 11.937792
-1.435453 12.893082
-0.940083 13.546723
-0.476766 13.765444
-0.304033 13.644875
0.048878 14.085062
-0.000403 13.436160
-0.440458 13.350651
0.350270 14.500133
0.636470 14.396776
1.008445 14.110215
1.237102 14.873713
1.819204 15.370386
2.905266 15.106261
3.242285 14.278414
3.529739 14.976354
4.399167 15.071990
4.100262 15.467933
4.281436 14.797637
4.891935 14.523599
5.870024 15.016133
6.468750 14.904307
6.878110 15.210409
5.926549 14.481768
7.079698 14.910130
7.570584 14.269696
7.570463 14.701423
8.798835 13.641385
9.398526 14.282324
10.283794 12.797613
10.215000 12.627084
10.760042 12.660158
11.415152 12.779360
11.689586 13.099202
11.464636 12.339431
12.634333 11.510894
13.764223 11.406119
13.212505 11.374689
13.588034 10.582470
13.467254 10.528493
14.619959 9.105684
14.738246 8.875295
15.420919 8.281722
15.578192 7.281043
15.557441 7.356564
16.373609 7.324419
16.470298 5.733728
16.486487 5.219835
16.757319 3.842592
17.281277 4.260422
16.101726 3.580406
16.389556 4.181943
16.579658 3.417595
16.439877 2.126122
16.151235 2.328555
16.628936 0.688194
16.216790 0.750458
16.050974 0.380393
16.448519 -0.337393
16.018208 -0.602972
15.607632 -1.165143
15.624524 -2.427791
15.461357 -2.400480
14.773829 -2.219546
14.803580 -1.793069
14.618054 -2.858093
14.722010 -3.984729
14.026537 -4.696016
13.570217 -4.456680
14.147694 -4.567249
12.811071 -4.927403
12.757878 -5.204208
12.322949 -4.786253
12.505235 -5.759623
12.260965 -6.609898
11.651260 -6.614934
12.856994 -5.572620
11.590074 -6.133871
11.052668 -6.938978
10.763721 -5.647000
11.424877 -6.416160
10.553708 -5.914863
10.150134 -6.963309
11.406259 -6.644489
9.593066 -6.115698
10.252306 -6.871885
9.386708 -6.987934
9.890218 -7.714690
9.373576 -6.780292
9.091721 -6.509245
9.449386 -6.990206
9.098768 -7.203756
9.020443 -6.758874
9.249374 -6.977668
8.408731 -7.478039
8.652837 -7.075872
9.133716 -7.387083
8.783723 -7.297179
8.336478 -6.807755
9.191504 -7.627177
7.994147 -7.552180
7.743934 -6.795057
8.753208 -8.236951
7.496903 -7.833685
7.941322 -8.074673
8.356854 -8.086287
8.038925 -8.871214
7.062078 -8.315873
8.521176 -9.009527
7.495911 -9.651374
8.328817 -8.662537
7.469794 -9.470891
8.162263 -9.607968
7.439481 -9.975465
7.329285 -9.686705
7.460581 -10.343626
6.970434 -10.612573
7.281826 -10.444158
7.438794 -10.731912
6.768428 -10.471173
6.685089 -11.490894
6.663660 -11.699066
6.368851 -12.090634
6.065053 -11.533111
5.572980 -12.115460
5.259022 -12.568027
6.020235 -11.369261
5.100688 -13.332014
5.583954 -11.908653
5.640951 -13.174280
3.933652 -13.870803
3.942100 -12.659868
3.113313 -13.103498
3.110739 -14.265403
2.862477 -13.202583
3.618077 -13.232451
2.021316 -14.502202
2.542486 -14.464712
2.265803 -14.519541
1.072132 -14.649076
2.227329 -14.657585
0.345615 -13.973182
-0.727695 -14.901881
0.197846 -14.953398
-0.558170 -14.024309
-0.206630 -15.078511
-1.337718 -14.774759
-1.215259 -14.335664
-1.751799 -15.002810
-2.507793 -14.498628
-2.853389 -13.536783
-2.166878 -14.372912
-3.621251 -14.740661
-3.913944 -14.175752
-3.970587 -13.486090
-4.107581 -14.054722
-5.021612 -13.020290
-5.068222 -13.639604
-5.006197 -13.127328
-5.333095 -12.466927
-5.661270 -12.666310
-6.652185 -12.845064
-5.634018 -12.473129
-6.274682 -11.997466
-7.988441 -10.994895
-7.416840 -12.384626
-7.232838 -11.855410
-7.880160 -10.563474
-8.324335 -10.314750
-7.183129 -9.990570
-8.012271 -10.281519
-8.653828 -9.616546
-8.817474 -9.404878
-8.809453 -8.632734
-9.407872 -9.210456
-8.859892 -9.205344
-9.261936 -8.036144
-8.696915 -7.573466
-9.263431 -7.784643
-9.564932 -7.185260
-9.376864 -6.961520
-9.727027 -7.331312
-9.552032 -6.230542
-9.822108 -6.397985
-9.049132 -6.017141
-8.961264 -5.123309
-9.027992 -5.477176
-8.628791 -5.408510
-9.088064 -5.052713
-9.295616 -4.457452
-8.790763 -5.046116
-9.936752 -3.621256
-8.565042 -3.116857
-9.095487 -3.673092
-9.561937 -3.366502
-8.629164 -3.830050
-8.617574 -3.447144
-9.020609 -2.383705
-8.888549 -2.180136
-9.205905 -2.468781
-7.739242 -2.647204
-8.712391 -2.416499
-9.044887 -1.938353
-8.222339 -1.628485
-8.470114 -2.080164
-7.909430 -1.804114
-7.697613 -2.626498
-7.158608 -1.083801
-7.212046 -0.762554
-7.740645 -0.933189
-7.398411 -1.434827
-6.999315 -0.438739
-7.008259 -0.677143
-7.216862 -0.787377
-7.178972 -0.794550
-5.980635 -1.787470
-6.832976 -0.409395
-6.444950 -0.793543
-6.450914 -0.521690
-6.621863 0.004259
-4.688755 -1.158271
-5.384418 -1.266446
-6.153780 -0.686704
-6.078814 0.182751
-5.869810 0.504909
-5.153148 -0.470291
-5.150077 -0.117194
-5.250909 -0.838207
-4.785601 -0.578075
-5.635635 -0.481722
-5.292454 0.199514
-4.992493 -0.732806
-4.187399 -0.607054
-4.466565 -1.103817
-4.858991 -0.089350
-3.910184 0.292105
-5.016743 -0.956666
-4.172412 -0.974418
-5.299230 -1.183736
-5.392092 -1.031185
-4.646785 -1.115529
-5.281723 -1.932240
-5.983196 -1.884375
-5.223862 -1.476802
-4.756210 -1.241348
-5.370669 -1.523107
-5.319767 -0.766646
-6.081446 -1.174662
-5.588149 -1.616908
-4.909156 -1.965055
-5.807277 -1.076651
-5.803781 -1.014932
-5.483723 -1.802917
-5.517560 -0.477472
-5.781662 -1.252396
-5.506015 -0.916977
-5.708266 -0.695511
-5.827702 -1.167296
-5.450701 -2.000319
-5.899644 -0.727846
-5.868725 -0.825890
-6.657508 -0.710002
-5.997440 -1.227854
-5.741365 -0.988840
-6.436200 -0.303245
-6.200051 0.482604
-6.238161 -0.292479
-5.448291 0.605607
-6.240805 0.118498
-6.059657 0.164585
-6.458073 0.079100
-7.254446 0.825303
-7.204319 0.074160
-5.940881 0.147508
-5.562190 0.172926
-6.176000 1.326152
-6.912194 1.415514
-6.365212 0.835083
-6.559959 0.724618
-6.441028 1.565714
-6.329943 1.640881
-5.200119 1.681501
-5.790205 2.079099
-6.312600 3.652644
-6.035592 3.320774
-6.135277 2.215695
-5.967590 2.663568
-5.840612 2.699747
-5.277652 2.940062
-5.726718 2.949134
-5.807699 2.634067
-6.013919 3.462303
-5.177407 3.037895
-3.834396 3.077414
-4.828697 3.957089
-4.738059 3.853546
-5.434208 3.766445
-4.949988 3.361963
-4.081464 2.926542
-4.055693 3.679409
-4.630006 3.803060
-3.968381 3.112866
-3.454935 3.380880
-3.681021 4.185389
-4.831694 3.597840
-4.566583 4.428565
-3.357903 4.309356
-3.979969 3.735534
-4.089533 3.174990
-3.530214 5.174470
-3.643544 4.137256
-3.425304 3.005662
-3.658633 3.470495
-4.038167 3.619961
-2.282599 4.348262
-2.359705 3.375501
-3.185144 3.912245
-2.060663 3.246928
-2.387431 4.025276
-2.976343 3.383183
-2.547197 3.923310
-2.292841 3.802447
-2.964255 3.354945
-2.273321 3.852981
-2.694942 3.775088
-2.446945 3.496290
-2.843761 3.508932
-2.647707 3.640194
-2.454493 2.479903
-2.663760 3.412251
-2.447561 3.702379
-1.910898 3.376432
-2.157272 4.680861
-1.926832 4.025882
-2.375408 4.868596
-2.780660 3.329206
-2.015150 4.160679
-0.919211 4.619067
-1.933539 4.215542
-1.731647 4.214538
-2.149002 4.611393
-2.549208 3.761890
-2.303323 4.317837
-1.594668 4.690281
-2.358002 4.180742
-0.945811 4.974889
-1.699533 5.319358
-2.440189 5.079897
-1.558039 4.988526
-0.386873 4.621015
-0.526708 4.882841
-0.453946 5.866272
-1.251088 5.198809
-0.144058 5.152700
-0.852447 5.874082
-0.058482 6.165642
0.169302 4.457573
-0.155544 6.603013
0.471360 4.965601
0.910298 5.373943
0.780143 5.337948
1.218233 5.500248
1.339583 5.504765
1.297853 5.138538
1.801938 5.970734
1.212147 5.085946
2.608849 4.823150
1.456491 5.312764
2.430903 5.073750
2.188255 5.869686
2.800482 4.703597
3.076086 4.609639
3.227095 5.073720
2.955271 4.262032
3.479252 4.728940
3.594377 3.972929
4.789555 4.147150
3.055629 4.096571
4.500499 3.467434
4.093499 3.673616
4.025496 3.680264
4.221860 2.988945
4.663496 2.872102
5.109679 2.926856
5.412200 2.158015
5.392710 1.783268
4.573003 2.089980
5.868470 2.438431
5.409533 2.187828
5.271447 1.339745
5.154930 1.503584
5.735542 1.832817
4.743922 0.929848
5.719515 1.227829
5.583219 0.203161
5.862118 0.258163
4.604126 0.406490
5.688569 0.205439
4.721714 0.315271
4.944675 -0.549990
5.308904 -0.344771
5.116280 -0.074248
6.080550 0.451943
4.172250 -0.451676
5.407964 -0.677876
4.698522 -0.928162
4.230798 -1.561362
4.592488 -0.983968
4.286529 -1.416482
4.494244 -1.862166
4.848601 -2.441337
4.914888 -1.649641
4.019347 -2.273641
4.246958 -2.311039
4.112733 -1.375300
4.019278 -2.184158
4.061006 -2.575248
4.157939 -1.964273
3.600862 -2.066088
3.924957 -2.577987
3.887819 -2.908985
4.243321 -2.524348
3.497302 -2.582291
3.389841 -2.361818
2.402989 -2.194846
2.514595 -3.047069
2.963170 -2.986471
3.630873 -3.159795
3.269864 -2.636580
3.366340 -3.003456
2.591565 -2.871235
3.183396 -3.309580
3.248358 -3.946005
3.005902 -2.895344
3.502799 -3.555192
2.529478 -3.542109
2.954259 -3.880927
2.632810 -3.972977
2.967066 -3.824038
1.976123 -4.186079
2.719826 -3.300348
2.186880 -4.008830
2.043431 -3.809253
2.110080 -4.678399
2.625854 -3.553817
2.295198 -4.716748
2.362837 -3.970447
2.070650 -4.446778
1.778837 -4.623568
1.365897 -4.676770
1.909317 -5.450732
1.417217 -4.876978
1.149409 -4.756575
1.176858 -4.803399
1.021154 -4.309325
1.243420 -5.160766
1.606509 -5.095550
1.529975 -4.791581
1.182571 -5.451870
0.980825 -5.377886
0.431737 -5.683624
0.211713 -5.405485
-0.080602 -5.836226
0.370698 -6.029198
-0.208278 -5.527330
-0.318144 -5.109760
-0.514214 -5.988076
0.050919 -5.166227
-0.698172 -5.563110
-0.513248 -5.273774
-0.701686 -5.240985
-1.240917 -5.869716
-0.515367 -5.686214
-0.978861 -5.683832
-1.010356 -5.895437
-0.625138 -5.770926
-1.294990 -5.391777
-1.549307 -5.425071
-1.742932 -5.742570
-1.580610 -6.031095
-2.085085 -6.001317
-2.610284 -5.865787
-2.120451 -5.716049
-2.581227 -5.384540
-2.657638 -5.278906
-3.127496 -5.441767
-3.383265 -5.125693
-3.034397 -5.275267
-3.588301 -4.707995
-3.489698 -5.426701
-3.199936 -5.143687
-3.601524 -4.958824
-3.756029 -4.746058
-3.888495 -4.942203
-4.040366 -5.071595
-4.174364 -4.402298
-3.998574 -4.168463
-4.360938 -5.202348
-3.939935 -3.660077
-4.514478 -4.426805
-4.638288 -4.018716
-4.704656 -3.777677
-5.202366 -3.440356
-4.606511 -2.886389
-4.374101 -3.618818
-4.694576 -2.884482
-4.833901 -3.161186
-5.021569 -3.230049
-4.648355 -2.411156
-4.865809 -3.325551
-4.858426 -1.923550
-4.999125 -2.559687
-5.243695 -2.820965
-4.391368 -1.936670
-5.168745 -2.301124
-5.422395 -1.781705
-5.052400 -1.840806
-5.052545 -1.950762
-5.126042 -1.373561
-4.939374 -1.188795
-5.358614 -1.136676
-5.123571 -1.171463
-5.738082 -1.371075
-4.872601 -0.376131
-4.398344 -0.489049
-5.111173 -1.712757
-5.427867 -0.395984
-4.941848 -0.424367
-4.560489 -0.550882
-5.135913 -0.256446
-5.186275 0.048342
-4.864958 -0.317411
-4.806176 -0.082429
-5.093512 0.011657
-4.865998 0.632750
-4.654365 -0.215056
-4.186120 0.425944
-3.922154 -0.116316
-4.739452 -0.026713
-3.641302 0.918082
-3.734243 0.573567
-4.373848 0.663608
-3.317149 1.151172
-3.568348 1.279251
-4.093695 0.722051
-3.610467 1.551154
-2.881570 1.241948
-3.052476 1.015050
-3.396475 1.386629
-3.513012 1.095018
-2.487728 0.767481
-3.067294 1.310815
-3.037432 0.995544
-2.341981 1.460268
-2.255945 1.580060
-2.426076 1.602446
-2.724645 1.149384
-1.631500 1.268148
-1.916238 1.270918
-1.772295 0.867467
-1.713441 1.533408
-0.968463 1.350085
-1.515705 1.208358
-1.419210 0.768171
-0.981635 0.701106
-0.887328 0.275259
-1.300418 0.942818
-0.470526 0.920361
-0.554757 0.701955
-0.609612 0.989259
-0.427501 0.496535
-0.756084 0.957938
-0.230391 -0.065238
-0.196844 0.301647
-0.012412 -0.638542
-0.064599 -0.481776
-0.080170 -1.004888
-0.166734 -0.473693
-0.360553 -0.737309
-0.568168 -0.608321
-0.106800 -1.026130
-0.114684 -0.668735
-0.237165 -0.946702
-0.284233 -1.783438
-0.455314 -1.215795
-1.029330 -1.582390
-0.265572 -1.066206
-0.100935 -1.968392
-0.668878 -1.553254
-0.512842 -2.784530
-0.877085 -2.190328
-1.067999 -1.986469
-1.056334 -2.044244
-0.993150 -2.491605
-0.621432 -2.610791
-1.246561 -2.840797
-1.514609 -2.816545
-1.184390 -2.163663
-1.709302 -2.479440
-1.763705 -3.036233
-1.436086 -3.212729
-1.974902 -2.756894
-2.053757 -3.052593
-1.955339 -2.998750
-2.412812 -3.005693
-2.250464 -2.657135
-2.634153 -3.063941
-2.956073 -3.065303
-3.339061 -2.617827
-2.773862 -2.990164
-3.241157 -2.770730
-3.637412 -2.822311
-3.303701 -3.309094
-3.597961 -2.429542
-3.679471 -2.905864
-3.709071 -3.310944
-3.904662 -2.561932
-3.815836 -2.367213
-3.942276 -2.852166
-4.514520 -1.961801
-4.997195 -2.000804
-4.331946 -2.775198
-4.290844 -2.434850
-4.432944 -2.151917
-4.571388 -1.640369
-4.945181 -2.421159
-4.753763 -2.075455
-5.400937 -1.452890
-5.257730 -2.020132
-5.502580 -0.947973
-5.972151 -0.811900
-5.550570 -1.264314
-5.551902 -1.509136
-4.869685 -1.345617
-5.182696 -0.817844
-5.566363 -0.535510
-5.729465 -1.141957
-5.984237 -0.559602
-5.614012 -0.634580
-5.542045 -0.553328
-6.102668 -0.330878
-5.957879 -0.222210
-5.630732 -0.904826
-5.408180 -0.084803
-5.337554 0.241647
-5.623068 0.407758
-5.945165 -0.292639
-5.639495 -0.229094
-5.585416 -0.090653
-5.845627 0.476654
-5.447967 0.463504
-5.475354 0.714685
-5.572548 1.092124
-5.820225 0.456882
-5.485829 0.628492
-5.702433 1.455928
-6.054002 1.042077
-5.427732 0.544268
-5.224515 1.448717
-5.641417 1.711288
-6.032991 1.703092
-5.823122 1.835707
-5.864135 1.660835
-5.327528 1.499561
-5.682792 2.086689
-5.900734 2.144002
-5.852081 2.122594
-5.725534 1.617268
-5.591881 2.608013
-5.169837 2.683745
-5.588419 2.985320
-5.215804 2.639963
-5.023494 2.892381
-4.683311 3.264233
-5.019705 2.851944
-4.943026 3.142771
-5.179289 3.551408
-4.685388 2.885734
-5.177959 3.879764
-5.355606 4.185293
-4.457170 4.241173
-4.666272 4.167403
-4.163482 4.362107
-4.272491 4.033893
-4.031577 4.082376
-4.779054 4.786849
-3.858998 4.927512
-3.679781 4.736231
-3.876006 5.185622
-3.601906 4.521210
-3.704514 4.748733
-3.613937 5.107315
-3.123334 4.920748
-2.642145 5.388643
-2.038196 5.580898
-2.792706 4.820752
-2.794568 4.391201
-2.487198 5.031041
-2.167790 5.020160
-2.265481 4.692110
-1.732169 5.143831
-1.582287 5.096095
-1.373176 4.705825
-1.284036 5.033512
-1.406881 5.157419
-0.449249 4.721174
-0.673444 5.057012
-0.188450 4.609906
-0.964050 4.544066
-0.261301 4.831768
-0.292436 4.168838
0.096994 4.088804
-0.195128 3.906238
0.325424 4.110585
-0.225315 3.929849
0.226195 3.419692
1.017516 3.551950
0.239714 4.124997
0.768914 3.649724
0.272996 3.461635
0.868553 3.058848
0.814522 2.675744
1.069540 2.446442
0.701082 2.775010
0.682586 2.533404
0.979544 2.320225
1.060969 2.364407
0.451075 2.123947
0.580480 1.650847
0.891713 2.074346
0.564913 1.997729
0.546878 1.723086
0.411442 2.081092
1.268363 1.169315
0.205677 1.563993
0.824493 0.855619
0.553368 0.979767
0.684870 0.909293
-0.174409 1.025900
0.041345 0.737023
0.630031 0.922029
0.104088 0.501924
-0.056231 1.079907
-0.104834 1.266203
0.381939 0.925286
0.031247 0.914442
-0.095584 0.368899
-0.652878 0.401130
-0.186584 -0.279719
-0.626193 0.545066
-0.716636 0.635042
-0.167121 0.221805
-0.522475 -0.041935
-0.823917 0.176812
-0.809460 0.018401
-0.620162 0.330342
-0.966045 0.796070
-1.109568 0.611914
-0.475167 0.459160
-0.940875 0.187452
-1.586665 0.714032
-0.809852 0.523262
-1.599717 0.534265
-1.108270 0.757133
-1.500087 0.749977
-1.410726 0.834900
-1.583338 0.817802
-1.522264 0.767179
-1.199664 0.988827
-1.239053 0.955524
-1.005896 1.195097
-1.585576 1.642057
-1.711338 0.635239
-1.714632 0.992397
-1.516348 1.325811
-2.008291 0.752623
-1.618058 1.457902
-1.337219 0.837929
-1.540172 1.345866
-1.887924 1.807409
-1.131251 0.927652
-1.466952 1.447402
-1.543731 1.368862
-1.500829 1.635750
-0.640836 1.627164
-1.449666 1.517463
-2.003061 1.588553
-1.218141 2.026956
-1.790372 1.360581
-1.545864 1.972960
-1.628925 2.093113
-0.997736 1.882172
-1.328351 1.679828
-1.349061 2.642635
-1.641236 2.012785
-1.816332 1.959281
-0.987040 1.877354
-1.763855 2.328370
-1.208078 2.143951
-0.548478 2.223693
-1.561517 2.189233
-0.841961 2.265156
-1.167595 1.876564
-0.903023 2.833865
-1.460729 2.588050
-1.675867 2.006769
-0.846113 1.996339
-0.979609 2.227937
-0.547037 2.595326
-1.067133 2.552860
-1.422422 2.646325
-0.890146 2.463442
-1.678275 2.740602
-0.681834 2.963393
-0.643724 2.541961
-1.085128 3.069997
-0.355708 2.672143
-0.630843 2.321267
-0.332319 2.589037
0.259121 2.593800
-0.182428 2.803874
-0.191085 2.621199
-0.345841 3.006873
-0.483525 2.609996
-0.412146 2.835887
0.307229 3.024006
0.131720 2.365055
0.243302 3.023769
0.401922 3.451672
0.733897 2.707101
0.860173 2.931308
0.431644 3.421798
0.838313 2.951881
0.383774 2.558664
1.298802 3.369085
0.918239 2.663784
0.861153 2.476935
1.409374 2.492890
1.496900 1.945367
1.392735 2.335682
1.510480 2.094841
1.534389 2.088289
1.189111 1.452317
1.429049 2.122548
1.604197 1.920054
1.819452 2.094498
1.991315 2.181605
1.663307 2.242180
1.829553 1.587167
2.364228 1.539332
1.882450 1.159015
1.304951 1.330497
1.559513 0.550191
2.060683 1.088389
1.461126 0.936157
1.847938 0.737144
1.282967 1.201316
1.871367 0.755567
1.468767 0.372354
1.557409 1.125776
2.346837 0.344338
1.042210 0.625577
1.986149 0.199392
1.325523 0.159548
2.228289 0.181671
1.283781 0.219468
1.559638 0.900099
1.186360 -0.206808
1.102772 -0.355439
1.014188 0.211464
1.139915 0.578552
1.061325 -0.114487
0.600235 0.376735
1.164218 -0.296600
0.815641 -0.147365
1.195197 0.376245
1.549683 -0.128145
0.697055 0.159103
1.138801 -0.224318
0.995312 -0.666214
0.827342 -0.547227
1.049902 -0.266847
0.797877 -0.056002
1.186064 0.276209
0.744634 0.033654
1.075373 -0.052641
1.217393 -0.129154
0.891207 0.598435
1.009500 -0.294627
1.241390 -0.131419
0.838638 0.609192
0.771011 -0.162169
1.035689 0.117662
1.197294 0.517292
0.551499 -1.201052
1.147380 -0.208138
0.941515 -0.277473
1.317748 -0.341271
0.469045 -0.430561
1.858986 -0.350952
1.476684 0.238808
1.244637 -0.951406
1.153640 0.104256
1.470798 -1.202600
1.707211 -0.670463
1.372802 -1.609746
2.313392 -1.149342
1.817362 -1.783931
1.213058 -0.998284
1.791441 -0.651008
1.741226 -1.400936
1.856942 -1.495078
1.389189 -1.633936
1.573465 -1.918831
1.866879 -1.936202
2.254863 -1.800871
1.746304 -2.082993
1.576706 -2.096306
1.595810 -2.273329
1.248939 -1.617035
1.523253 -3.417754
1.521917 -2.683203
1.366543 -2.849921
1.659208 -2.611548
1.288944 -3.107868
1.286653 -3.335849
0.831175 -3.242339
0.578610 -3.510786
1.497591 -3.492200
0.597446 -3.994525
0.738009 -4.171919
0.196252 -3.830515
0.780620 -4.510051
0.670233 -4.219380
0.682984 -4.420384
0.048082 -4.726951
-0.100038 -4.407809
0.170577 -4.871690
-0.355073 -4.102315
-0.705884 -5.241922
-0.093707 -4.962038
-1.803496 -4.741945
-0.186323 -4.582687
-1.262930 -4.788078
-1.169764 -4.562405
-0.981927 -5.072060
-1.643000 -4.402922
-2.023393 -5.458151
-2.400449 -4.915421
-1.445588 -5.025134
-2.114465 -5.093906
-2.569297 -4.573824
-2.849054 -4.333063
-2.700502 -4.644639
-2.932102 -4.394440
-2.325896 -4.443134
-3.169429 -4.546687
-3.505654 -4.523817
-3.564389 -4.481361
-3.432321 -4.628550
-3.831667 -4.734371
-3.496504 -4.663583
-4.734906 -4.976228
-4.149787 -4.232498
-4.380166 -4.183016
-4.399337 -4.188837
-4.634342 -3.992767
-4.023437 -4.058310
-4.889179 -3.916664
-4.828168 -3.819363
-4.371523 -4.252342
-4.543374 -3.687956
-4.778040 -4.090223
-5.617497 -3.662429
-5.885905 -3.387047
-5.813103 -4.129334
-5.216776 -3.509063
-5.041386 -3.544924
-6.240494 -4.101424
-5.738392 -2.965009
-6.011089 -3.200445
-5.810143 -3.743468
-6.573099 -3.356469
-5.311643 -2.757621
-5.981042 -3.484924
-7.010958 -2.620625
-7.225421 -2.224322
-6.538147 -2.503899
-5.842340 -2.638856
-7.037456 -2.336786
-6.859397 -2.794232
-7.442398 -1.922550
-6.549024 -1.947056
-7.287188 -1.953520
-6.855169 -1.911530
-7.309584 -1.864974
-8.212175 -1.764801
-6.853272 -2.201665
-7.676860 -2.202235
-8.068625 -1.943952
-7.965813 -0.865593
-7.581257 -0.810859
-8.329327 -1.186513
-7.684033 -1.175837
-9.247784 0.010173
-8.803310 -0.265452
-8.598947 -0.505651
-8.657128 0.034701
-8.782164 0.701683
-8.854617 1.003066
-9.492079 0.294578
-8.984730 0.496651
-9.514975 0.635480
-8.947129 1.193827
-8.918964 1.406945
-9.353507 1.409892
-9.628303 2.132750
-9.081030 1.344036
-8.432731 2.587182
-8.746107 2.370007
-8.982187 3.053566
-8.988216 2.640244
-8.842592 2.812512
-8.843834 3.333279
-9.267953 3.674093
-9.080582 2.925544
-8.843739 3.769523
-8.409653 3.707190
-8.237152 3.869039
-8.941597 4.207812
-8.066066 4.514099
-8.373689 4.175977
-9.170145 4.684489
-8.602332 4.460457
-8.245201 5.308828
-7.799914 5.084023
-7.522241 5.506225
-7.454489 5.629654
-7.271689 5.528449
-7.145613 5.888077
-7.780162 5.482219
-6.549528 5.309224
-6.124025 5.693039
-6.598470 6.039322
-6.443359 6.269705
-6.894427 6.302381
-5.795090 6.675458
-5.630774 6.028604
-6.258133 6.676760
-5.227707 6.839887
-5.160044 6.319584
-5.642176 6.575333
-5.303516 6.320995
-4.691498 6.649814
-4.761105 7.548444
-4.628951 6.447424
-4.948018 6.118636
-4.443713 7.027514
-4.203948 6.170843
-4.693510 6.083642
-4.023639 6.548557
-4.596888 5.951267
-4.067745 6.798593
-3.589107 6.212925
-4.297774 5.899730
-4.530055 6.418609
-3.858006 7.118766
-3.491449 6.539442
-3.787503 5.858551
-3.514105 6.924337
-4.033111 6.435129
-2.899852 6.353836
-3.640448 6.251502
-3.218689 6.228050
-2.847786 6.377204
-2.883770 5.926329
-2.777824 6.611714
-2.774112 7.316202
-2.335512 6.424179
-2.742294 6.090536
-3.055533 5.906873
-3.503583 6.478408
-3.279357 6.428505
-2.442383 5.502169
-2.609700 5.996413
-3.115783 5.514451
-2.896663 6.234908
-2.356767 6.303727
-3.155713 6.138129
-2.923574 6.647120
-2.186390 5.791004
-3.245430 6.064342
-2.206362 6.358208
-2.251493 6.455326
-2.453225 6.876603
-2.544529 6.239168
-3.103187 5.474962
-2.756785 6.424733
-2.326219 6.381490
-2.296576 6.108119
-2.323278 5.906703
-1.919633 6.440479
-2.689682 6.357834
-2.872673 5.552194
-2.759165 6.114131
-2.076851 5.854398
-2.103133 6.130527
-2.764927 6.242617
-1.764428 5.843190
-1.959887 6.205309
-2.595267 6.277003
-2.500297 5.868006
-1.671556 6.231126
-2.633530 6.504480
-1.969205 6.603639
-1.870683 6.361994
-2.662476 6.907174
-1.952499 6.847418
-2.090793 6.254332
-2.021803 6.439474
-1.783388 7.061375
-2.310291 6.417095
-2.715517 6.817427
-2.649135 6.688474
-1.544136 6.692177
-2.239940 7.190093
-2.631016 7.420660
-2.447717 6.461288
-2.371442 6.677977
-1.950079 7.198380
-2.060204 6.662597
-2.814491 7.895384
-2.577651 7.826669
-1.885624 7.613238
-2.458303 7.983537
-1.637747 7.305655
-2.029162 6.887229
-2.314365 8.660008
-1.869387 7.939256
-1.463614 8.254241
-2.071731 8.030884
-1.464198 8.297057
-1.687239 8.717991
-1.245878 8.548389
-1.650048 8.808684
-1.495839 8.581547
-1.117040 8.906174
-0.425083 8.946570
-0.988192 8.228196
-0.685686 8.766170
0.084831 8.750328
-1.023796 9.453641
-0.885365 9.691177
0.373836 9.116925
0.012050 9.451199
0.218570 9.399915
0.759073 9.458854
0.699154 9.871267
0.636643 9.380647
1.294629 9.882824
1.251650 9.153738
1.413260 9.573058
1.692228 9.788435
1.937612 9.510364
2.010426 9.350184
2.380473 8.825192
2.856547 9.768408
2.775741 9.057356
3.162122 9.297806
4.126259 8.820731
3.205537 8.602492
3.668678 8.688766
3.594434 8.125782
3.576403 8.854226
3.940562 8.786370
4.540582 8.525017
4.693642 8.202660
4.467335 7.597316
5.218664 7.228524
4.713133 7.544066
5.558378 6.622436
5.227324 6.926164
5.433785 7.179528
5.836709 6.270624
5.107416 6.623438
5.563416 6.864783
5.597550 5.911170
5.559257 6.159677
4.748653 5.351469
5.583232 5.932032
5.359913 5.101694
4.896461 5.454843
4.914249 5.124351
4.781388 4.527187
4.625617 4.435352
4.295568 4.297266
5.417287 4.081543
3.959244 3.703248
4.906997 4.239194
4.777464 3.854548
3.523270 4.060451
4.322084 3.609248
4.267961 3.902013
3.643458 3.326236
3.847392 4.076116
3.309791 3.653524
3.348432 3.451214
3.389554 4.235800
3.088215 3.678633
3.248733 3.716256
2.629605 4.086246
2.938647 3.513056
3.245612 4.015402
3.129043 4.228779
2.827598 4.370247
2.529850 3.841113
2.680819 4.150560
2.666401 4.256448
3.371745 3.829066
2.311023 4.360506
2.589166 4.930730
2.734818 6.201392
2.817497 4.506594
3.294732 5.424167
2.373480 5.413040
3.189386 5.470808
2.717856 6.312079
2.862952 5.601441
3.039831 5.912966
3.937263 5.222895
3.942376 5.919315
3.634800 5.947927
4.155613 5.618088
4.688830 6.671361
4.212788 6.284923
4.343819 6.174033
4.843699 5.564547
5.217634 6.111358
6.096468 6.567997
5.753194 6.093851
5.811116 5.212431
5.412030 5.524680
6.158465 5.242415
7.149353 4.641873
6.589881 5.380414
7.258305 5.036901
7.227907 4.696781
7.099108 4.502661
8.348311 4.379596
8.068640 3.329627
8.763007 3.879845
8.567328 4.021277
9.182086 3.549502
8.400869 3.420434
8.271146 2.670357
8.595724 2.498620
8.604441 2.129740
8.848501 2.236261
8.341643 1.778256
8.685799 0.896785
9.336032 1.159615
9.625909 1.418362
8.705075 -0.020498
9.136552 -0.073994
9.371318 0.073474
8.816498 -0.613514
8.691004 -1.003061
8.779285 -1.788566
7.993720 -1.577260
8.904709 -2.325441
8.035877 -2.697077
7.501873 -2.324363
6.808085 -2.842228
7.172869 -3.798741
6.636082 -3.560333
6.924696 -3.700668
7.117619 -4.026232
6.667748 -3.753861
5.880230 -4.144204
5.200521 -5.078408
5.573018 -5.523615
4.787702 -5.620103
4.683955 -5.713667
3.768074 -5.544729
3.927891 -5.124083
3.368314 -5.948056
3.011881 -5.896017
2.319720 -6.577610
2.261571 -5.134063
2.109279 -5.419416
1.520393 -5.834990
1.672176 -5.644827
1.193452 -5.573297
0.879333 -6.031586
0.327945 -6.204953
-0.038365 -5.449854
-0.070927 -5.949511
-0.674707 -4.953136
-0.863392 -4.957026
-1.273415 -5.017711
-1.623463 -4.804498
-1.504389 -5.003106
-1.303854 -5.550483
-2.554109 -4.228183
-2.865268 -4.664390
-2.717187 -4.261050
-3.557438 -3.269659
-3.269204 -4.020792
-3.190756 -3.320329
-3.516133 -3.062816
-4.314287 -2.664926
-4.795371 -2.646460
-4.021993 -3.201576
-4.332707 -2.264646
-3.539509 -2.336405
-4.497484 -2.197668
-4.733741 -1.952878
-4.349544 -1.356942
-5.170119 -1.810087
-4.828790 -1.427026
-4.991605 -1.338904
-5.596452 -1.637080
-5.816053 -1.445920
-5.408947 -0.634895
-5.905846 -0.518759
-5.642359 0.426160
-6.443411 1.194960
-6.572352 -0.295032
-7.283166 0.592437
-6.736431 0.437365
-6.725429 0.310501
-6.112191 2.088065
-6.532207 2.424591
-6.292474 1.742401
-6.305272 3.238863
-6.174744 2.812781
-6.378405 2.641010
-6.718166 4.224850
-6.959592 4.569122
-6.645919 4.454495
-6.181686 4.659081
-6.068230 3.966580
-5.474158 4.459361
-6.501609 4.595205
-6.094889 5.185585
-5.853975 5.934393
-6.271275 6.576147
-5.665119 5.840605
-5.931612 5.524242
-6.002793 6.088878
-4.716902 6.595435
-5.719233 6.595255
-5.749517 7.068107
-5.476764 7.673869
-5.433732 8.353650
-4.785097 7.978856
-3.922647 8.357416
-4.357938 9.011519
-5.425583 8.753279
-5.663762 8.374219
-4.951917 8.327173
-4.290882 9.124477
-3.853197 9.327531
-2.865574 10.438245
-2.344873 9.678012
-2.411280 9.590325
-2.785197 8.885993
-2.865216 9.409100
-3.330006 9.277599
-2.696473 10.338668
-1.232056 9.985500
-1.104046 10.789139
-1.102936 10.985121
-0.273637 11.254198
-1.058695 9.845568
-1.024852 10.715871
-0.948734 10.511820
-0.490301 10.740576
-0.415521 10.856662
-0.569575 10.066247
0.489457 10.424394
1.747572 9.746921
0.799612 8.975855
0.011417 10.132869
1.688609 9.936348
0.582413 10.363756
1.586365 11.791317
1.487132 10.198237
2.252307 8.937119
3.068908 9.229342
1.935558 8.713445
2.522113 9.791457
2.219274 9.550155
1.926880 8.848425
3.136902 8.174345
3.181460 9.596937
4.520937 7.493877
4.067678 8.670555
1.626498 9.071666
3.070202 7.858243
2.706441 7.927168
2.593772 7.252393
3.840312 7.358240
2.881114 8.464106
3.989755 8.790690
2.701429 9.387599
2.561356 7.757675
2.296952 6.276460
2.818449 6.355270
2.872326 7.776540
3.406442 8.222701
2.689355 9.063916
3.582051 7.630044
2.036710 7.852575
3.223043 6.665259
2.624513 6.242897
2.811278 6.735031
3.959760 7.391005
2.589476 8.406327
1.474241 6.297201
2.443582 6.452015
1.370477 6.753713
2.755831 4.787147
2.899450 6.577171
0.551234 6.481220
1.488305 5.952376
0.857460 8.080751
1.762984 6.153769
2.498462 5.115367
2.145101 7.708570
2.311164 6.415759
2.159376 6.798228
0.701563 7.244278
0.972782 4.896171
1.101632 7.336806
2.523110 5.275918
2.275638 7.777876
3.236480 6.684353
-0.016431 5.230307
1.079036 4.907069
-1.058463 5.862559
0.191022 5.706059
0.311940 7.797240
1.360189 7.079303
0.001611 7.419139
-2.247914 6.893606
-2.822289 5.864630
-5.032833 5.964590
-2.563766 6.237793
-1.445773 6.312668
-2.458215 9.690088
-3.845563 6.665010
-6.597464 7.424169
-5.365340 7.351686
-5.259718 7.788864
-5.173250 8.886750
-5.708703 7.125826
-7.335281 8.919096
-9.323602 11.374369
-11.879955 10.337051
-10.884848 9.244323
-10.116924 10.358158
-7.331907 11.086982
-9.623802 11.256061
-10.872324 13.856314
-14.798777 15.511448
-12.603729 15.090305
-13.178442 14.707770
-11.514236 16.823307
-11.647058 16.540440
-13.623447 22.692744
-14.294283 20.915569
-14.847756 21.562502
-15.373053 24.974908
-13.402853 20.185795
-14.060109 26.581395
-12.938575 26.769984
-12.687853 29.732954
-13.620359 36.411869
-13.696657 31.539052
-12.750242 30.277320
-9.567960 35.952408
-10.180338 35.594909
-7.538291 45.524477
-11.717461 46.837785
-8.400559 44.226905
-4.558945 46.487231
-4.129364 41.846825
-2.400892 46.578350
-0.143809 53.228196
-3.963875 54.656106
2.370991 62.235301
0.498389 55.517873
7.209721 54.334921
5.263959 56.356292
6.108640 54.564695
13.265464 69.431008
13.827292 65.901778
16.554714 65.333697
16.875223 63.974405
13.319876 56.221332
23.565544 64.761467
21.049253 71.515143
25.123031 70.679199
46.611409 83.278108
32.262681 63.709202
38.025778 59.677965
30.415003 63.684990
17.920833 59.157924
53.925601 63.478962
61.271906 82.654635
56.812646 71.101337
81.664922 64.184420
28.318595 48.239622
44.875404 25.889394
62.632115 43.637060
56.508963 54.576941
94.797455 52.877199
96.744204 70.525464
49.187941 45.334560
74.896310 -9.121713
41.681950 -5.331107
80.923697 -15.810769
129.634295 41.267174
102.847072 57.427297
62.943519 29.420939
37.476528 -36.734994
152.438964 -27.707404
225.663767 -120.882584
206.210675 108.446991
152.492626 82.816577
31.644755 -36.999405
77.062232 -223.691400
50.951038 137.873423
-71.893485 148.247036
253.570762 488.318238
-2908.560618 -1678.091411
-1870.441752 4550.298393
