3649.347420 2548.037085
-1620.231829 -606.194981
-1143.518831 764.208102
-205.645543 -189.756745
-113.174413 -222.878585
-40.018272 70.588361
29.128433 60.999853
-48.933171 -35.479816
-24.206704 -20.047843
45.609597 5.960359
12.801079 6.594457
-14.333632 16.219153
-1.378564 -8.199335
11.503589 -7.419095
16.222762 5.190209
-0.646371 9.910966
-7.080118 0.897340
-1.362091 -8.413258
5.018007 0.602549
1.491705 3.269385
-2.438323 1.621698
-4.534421 -6.323067
0.972042 -2.829048
2.475621 5.676163
-0.252931 2.288811
-6.158503 0.042366
0.456590 -3.147713
1.971591 -3.834509
-0.838429 4.794262
0.287693 2.349404
1.619027 -2.609907
-0.913665 -2.436827
1.313898 2.677179
1.281009 1.936649
-3.358399 -1.368112
-0.121927 3.092249
3.469400 -1.994177
-1.895380 -1.630159
-1.676843 3.145040
2.213086 -1.378054
1.206753 -2.891805
0.883996 3.691429
2.329656 1.327678
-2.827480 -2.217084
-2.269721 1.353643
3.380936 1.366624
-0.290233 -2.950548
-3.301231 0.520004
0.670000 0.070515
0.524890 -2.813633
-1.377392 1.370745
1.610946 1.432617
-0.226350 -1.622712
-1.954867 -0.210914
1.127319 2.366076
0.770132 -0.436947
-1.026963 -0.124352
-0.460559 0.737561
1.775309 -1.130277
-0.762015 0.446368
-0.879012 2.010470
0.632410 -0.172283
-0.008690 -0.964170
-0.240399 0.509304
0.678472 0.000527
-0.519878 -0.252895
0.169613 -0.031146
1.341287 -0.040005
-0.007483 -0.812530
0.112335 -0.056522
0.200887 -0.534356
-0.245990 -1.163279
-0.638312 0.213132
0.409821 0.120153
-0.640589 -0.322982
-0.608944 -0.066828
0.293884 -0.007717
-0.493977 -0.562540
-1.281679 -0.200406
-0.772170 -0.613978
-0.859809 -0.250851
-0.473133 -0.259388
-0.960131 -0.751113
-0.524474 -0.340035
-0.738028 -0.486729
-0.064780 -0.766629
-0.559386 -0.074638
-0.421539 -0.378609
0.705411 -0.164378
-0.574290 -0.345833
-0.007012 0.364980
0.669318 -0.034499
-0.548924 -0.456192
0.116899 0.153446
0.629203 0.331977
-0.362102 -0.332229
0.091408 0.474020
0.632249 -0.257430
0.431403 -0.915895
-0.310938 0.251678
0.468440 0.071763
-0.021426 -0.199444
-0.404008 0.323373
0.838526 0.412647
0.155346 -0.231763
-0.391842 0.236951
0.213191 -0.085116
0.274456 -0.049689
-0.324967 0.126251
0.490054 0.148987
-0.025853 -0.649533
-0.335274 0.310205
0.363556 0.687168
-0.157489 0.417584
0.006362 -0.310597
-0.005740 0.289229
0.255435 -0.258429
0.130031 0.389133
0.046488 -0.326527
0.165313 0.076385
0.157149 0.125344
0.139485 -0.002375
0.270085 -0.297813
-0.538031 0.190534
0.010365 -0.485460
0.206639 0.771014
-0.092518 0.247139
-0.214816 -0.585067
0.036129 -0.348620
0.346575 -0.314985
-0.168928 0.250630
-0.170179 -0.505444
-0.178505 -0.129944
0.209910 -0.176614
-0.047753 0.263947
-0.279389 0.325420
0.059979 0.487685
-0.152022 -0.012383
0.175389 0.056945
0.456156 0.343687
-0.063738 -0.005326
-0.299179 0.076981
0.139914 -0.013715
0.412994 -0.142245
-0.024405 0.084415
-0.294517 -0.052699
0.242090 -0.441018
0.566824 -0.034960
0.417661 0.588330
-0.162431 -0.395948
0.191186 0.751188
-0.079959 0.135344
0.003980 0.076483
0.071604 0.149969
-0.475592 -0.147143
-0.441072 -0.772171
0.828582 0.024121
-0.638744 -1.648052
0.271056 -0.282449
0.232708 0.477267
0.947636 1.782296
0.144708 -0.862365
-0.284445 -0.345823
0.222978 -0.370404
0.173228 -0.549247
0.634034 -0.699436
0.473187 -0.357863
0.021694 0.519924
-0.218234 -0.243279
0.057965 -0.092985
-0.011920 -0.237592
0.065212 0.140546
0.081980 -0.057703
-0.234110 -0.450530
-0.123211 -0.446107
-0.161883 -0.197176
0.080763 0.703126
-0.798913 -0.280582
0.258420 -0.097610
-0.315184 0.171687
-0.143292 -0.405309
-0.079486 0.223274
-0.299792 0.028484
0.285975 -0.217114
0.122710 -0.264732
-0.171719 -0.434786
0.161206 0.178530
0.334649 0.218478
-0.072341 -0.026399
-0.050743 0.032221
-0.400205 -0.349492
0.157187 -0.044661
-0.272400 -0.084627
0.090548 0.011459
-0.151084 0.061522
-0.416103 0.062243
0.115554 0.180524
-0.492052 -0.028800
-0.075882 0.199559
-0.045029 -0.087870
-0.363118 -0.303868
0.492635 0.256243
0.112649 -0.485654
-0.253490 0.370583
-0.205875 0.260115
-0.065228 -0.166758
-0.176052 -0.026491
0.107033 0.083440
0.061260 0.268955
-0.466696 -0.251937
-0.108887 0.015920
-0.124597 -0.019920
0.442303 -0.087572
0.149493 0.253029
0.020074 0.155916
-0.319810 0.328551
-0.106418 0.379787
-0.148787 0.140787
0.112088 0.272321
-0.143161 0.266831
-0.178017 -0.034841
0.058269 -0.104955
-0.085276 0.340872
-0.077774 -0.177825
0.171639 0.053094
-0.068892 -0.127988
-0.121580 -0.100856
0.128391 0.088314
0.094365 -0.086437
-0.182117 -0.094785
-0.012575 0.519767
-0.317512 -0.047563
-0.015103 -0.018959
0.199664 0.322847
0.451190 0.082306
-0.221304 0.107280
-0.173395 0.268313
-0.206903 -0.175056
-0.013822 -0.203062
0.193212 0.005469
0.049230 -0.191482
-0.105492 0.053463
-0.081691 -0.155585
-0.040358 -0.297852
-0.305712 -0.223075
-0.040613 -0.055446
0.056320 -0.292096
0.082644 -0.162636
-0.045855 0.020013
-0.121694 0.175795
-0.107119 -0.073210
-0.235413 -0.176492
0.056592 0.124997
0.190043 -0.087580
-0.086252 0.133679
-0.309178 0.172672
0.035934 -0.537188
0.282362 -0.174869
-0.087727 0.370250
0.045747 0.019576
-0.167609 0.320154
-0.174482 0.172225
-0.084175 0.138352
-0.196940 0.127458
-0.406325 -0.057770
-0.138012 0.169146
-0.074754 -0.015321
-0.203299 -0.129122
0.336823 -0.168395
0.159118 0.194816
-0.187395 0.341367
0.246442 0.104624
-0.040225 -0.459560
-0.152739 0.122511
-0.048341 -0.117908
-0.446461 -0.187441
0.364748 -0.162504
0.105228 0.267041
0.133696 -0.419565
0.287564 0.323529
0.212855 -0.267149
-0.057449 -0.249117
0.183180 -0.128156
0.190716 -0.110323
0.130298 0.077939
0.129558 -0.285422
-0.041845 0.540037
-0.076148 0.054260
-0.133155 0.146363
-0.051899 0.143021
-0.080380 -0.096666
-0.095420 -0.118912
0.040405 0.163584
0.071179 -0.353700
0.151003 0.006868
-0.324324 -0.081144
-0.198046 -0.307162
0.152385 0.002716
0.110764 -0.083859
-0.162479 0.240614
0.163696 0.240046
-0.025305 0.126637
-0.275873 -0.050505
0.416686 0.137584
0.379032 -0.207470
-0.076084 -0.118472
0.431118 -0.188301
0.017030 -0.144247
-0.117618 -0.016854
-0.056083 -0.434027
-0.003708 0.049331
0.117713 -0.318779
-0.277555 -0.259834
0.119118 -0.174973
0.009150 0.052671
-0.157579 -0.468731
-0.222939 0.253550
-0.040360 0.145736
0.288764 0.490742
0.220982 -0.187115
-0.236328 0.263340
-0.220306 -0.357998
-0.074887 -0.014178
0.251317 -0.086158
-0.276263 -0.043050
-0.428580 0.140452
-0.030286 0.143084
-0.057506 0.141735
-0.161200 -0.238225
0.289253 0.101724
0.204185 -0.073053
-0.188832 -0.004419
-0.033232 -0.049917
-0.005759 -0.232056
-0.050554 0.082947
-0.132299 -0.258397
-0.254774 0.150404
0.012605 -0.130238
-0.161148 -0.054370
-0.086483 -0.091912
-0.061552 -0.275601
0.008195 0.186752
-0.144940 -0.179238
0.136275 -0.373379
0.041770 0.142178
0.228227 0.103282
-0.053211 0.043824
-0.150771 -0.139344
0.081570 0.033520
-0.039965 0.101524
-0.109089 -0.060936
-0.043361 -0.265199
-0.224869 -0.015233
-0.254345 -0.316651
0.022326 0.090638
0.124854 -0.157660
0.121704 -0.092008
0.061939 0.179579
-0.029927 -0.167366
0.144046 0.153637
-0.050300 -0.150852
-0.113124 -0.387315
0.305735 0.022951
0.089702 0.232655
-0.096711 0.008970
0.063321 0.198634
0.078023 0.207498
-0.018595 0.207803
0.155810 0.243914
-0.193513 0.251296
0.094116 0.261272
0.029597 -0.058998
0.034732 -0.205842
0.071585 0.022937
-0.037440 0.070117
-0.221305 -0.045429
-0.239557 0.106889
0.062779 -0.104464
0.053952 0.080072
-0.146385 -0.054067
0.118090 0.112556
-0.130846 0.046828
0.294741 -0.050327
0.248283 0.139855
-0.000062 -0.198061
0.173883 0.024018
-0.086164 -0.043744
0.044579 0.178251
0.040794 0.325222
-0.326064 -0.012041
0.023312 0.115016
0.021667 -0.045266
0.111310 0.211904
-0.379247 -0.056499
-0.205937 -0.046388
-0.307265 0.057915
-0.194426 -0.325860
-0.018607 0.245533
-0.141750 0.201126
0.125002 0.188825
-0.029217 0.256011
0.460965 0.068326
-0.104961 0.320722
0.057112 0.244403
0.094316 -0.143431
-0.015962 -0.285751
0.131573 -0.157999
-0.290200 -0.038133
-0.102764 0.150241
-0.311589 -0.307561
0.073029 -0.127479
-0.140835 0.030230
-0.083942 0.050659
0.072876 -0.194018
0.051185 -0.111581
0.326326 -0.017113
-0.274687 -0.061562
0.009016 -0.202948
0.164853 0.002205
0.113262 -0.054093
0.537289 -0.085554
-0.187890 -0.173255
-0.003177 0.175571
0.079048 -0.004690
-0.111394 0.040773
0.109412 0.005503
-0.112103 0.346783
-0.527127 0.160850
-0.193626 0.101701
0.023629 -0.082247
0.173072 0.140542
-0.412861 -0.001421
-0.158943 -0.505864
0.081242 0.058703
0.269811 0.125170
-0.033805 0.114747
0.321722 0.191295
0.010927 -0.172124
-0.138023 0.066449
-0.352242 -0.003802
0.124689 -0.165577
0.040150 0.170884
0.054644 0.098797
0.068734 0.114503
-0.259810 0.040973
-0.181646 0.050234
0.103471 -0.054475
0.293221 0.049885
-0.064967 -0.220271
-0.207643 -0.083101
0.156073 0.156911
-0.133185 -0.133185
-0.240160 0.185843
-0.054708 -0.017609
-0.175546 -0.402140
-0.296156 0.072209
-0.209247 -0.095299
0.145333 0.054167
0.123539 0.089059
-0.010670 -0.062030
0.028802 0.166355
-0.021987 0.209262
-0.029104 -0.105522
0.244306 -0.028545
0.310410 0.007411
0.044731 -0.031186
-0.404346 0.132794
0.041362 0.207907
-0.453988 -0.010423
0.002939 -0.083201
-0.000659 -0.356730
0.211307 -0.268782
-0.254160 0.078302
-0.308344 -0.271939
0.285962 -0.151317
0.280387 0.239950
-0.114927 0.026395
-0.010320 -0.106187
-0.118996 -0.061822
0.062714 -0.126215
-0.042016 0.352476
0.023482 -0.361397
-0.268842 0.017359
-0.129437 0.141096
-0.076825 0.042756
0.069308 0.183152
0.242615 -0.002019
-0.084362 0.145072
-0.040746 0.342881
-0.046922 -0.084318
0.158234 0.281867
0.062310 0.230654
0.117186 -0.064829
0.285123 -0.044576
-0.068800 0.184321
0.425043 -0.071414
-0.222400 -0.135224
-0.016931 -0.369948
-0.070785 -0.099268
-0.297115 0.051004
0.118847 0.113418
-0.498225 0.046988
-0.139789 0.018732
-0.235031 0.091716
-0.059103 0.016757
-0.042473 -0.036516
0.044138 -0.364566
0.103833 -0.105972
0.048909 -0.243722
0.195082 -0.227583
-0.170411 0.074790
-0.167038 -0.151352
-0.160209 -0.006052
0.230359 -0.140755
-0.045081 0.133106
-0.018696 0.198171
0.012841 -0.134271
-0.087077 -0.083648
-0.015242 -0.179249
-0.105095 -0.013076
-0.168030 0.077315
0.022203 0.019907
0.115784 0.015563
0.114908 0.047516
-0.022241 -0.040866
0.086741 0.016367
-0.007843 -0.002802
0.343205 -0.202934
0.009588 0.146053
-0.222142 -0.277223
-0.002743 -0.231518
-0.212323 -0.244778
-0.036583 -0.135168
0.145607 0.236227
-0.217179 -0.062502
0.127405 -0.085379
-0.157009 0.054862
0.119192 -0.070154
0.249110 -0.129854
-0.118418 0.111303
-0.075138 -0.096013
0.302374 -0.449140
0.092005 -0.146565
0.059345 0.240061
0.133667 -0.081825
-0.086382 0.210534
0.055215 0.132367
-0.164068 0.041933
-0.104981 0.129188
0.252024 0.004546
0.072286 0.063994
0.026395 -0.177914
-0.126997 0.267024
-0.082472 0.039302
-0.120575 0.190243
-0.148756 -0.012377
0.114502 0.052985
-0.399127 0.294548
-0.204913 0.084538
-0.004583 -0.185110
-0.033193 -0.074064
0.027820 0.219135
0.040857 0.014757
0.038891 -0.082242
0.243389 0.164705
-0.158375 0.112145
0.289070 0.236672
0.051824 -0.026244
-0.082490 0.192256
-0.014667 -0.035578
-0.178287 0.044684
0.046707 0.030026
-0.360973 0.042560
-0.447732 0.052404
-0.045582 -0.227129
-0.171324 0.102616
-0.060232 0.038589
0.205750 0.053799
0.125230 -0.108825
-0.351789 -0.132622
-0.097732 -0.183431
0.146214 -0.348348
0.165498 0.288650
-0.288165 -0.259054
-0.408588 0.614196
0.031365 0.216715
0.255002 0.339371
0.017925 -0.256841
0.023464 0.244226
-0.092060 -0.007289
0.204585 -0.070009
-0.024447 -0.006829
0.031173 0.251444
0.043394 -0.280015
0.221624 0.282434
0.116143 0.006601
-0.359272 -0.018021
0.137099 0.126100
-0.173282 -0.131951
-0.298279 0.258501
0.364491 0.115356
0.232973 0.243470
-0.134754 0.276411
0.263905 0.294750
0.031427 0.056740
-0.173801 -0.030565
0.216826 -0.238083
0.268444 -0.036456
-0.129002 -0.115261
-0.155075 -0.237839
-0.196894 0.097901
0.111212 -0.189798
-0.127652 -0.100719
0.056402 0.002216
0.120078 0.237398
-0.105277 -0.083609
0.203647 0.494549
-0.169876 -0.211633
0.013435 -0.050674
-0.007595 0.097762
-0.176566 -0.151571
0.452676 -0.190935
-0.074536 -0.013069
-0.040750 0.346836
0.184801 -0.073923
-0.018695 0.364486
-0.000747 -0.008953
0.560593 0.184062
0.198109 -0.073050
0.269626 0.376387
-0.029737 -0.353185
-0.086952 0.146195
0.029440 0.464622
-0.302101 0.144447
-0.417929 -0.190264
-0.053895 -0.337249
-0.090676 -0.118640
-0.097585 0.019658
0.160246 -0.380808
-0.106286 -0.077839
-0.061575 -0.144631
-0.007556 -0.064241
-0.147941 0.072072
-0.122819 -0.137410
-0.096252 0.147683
-0.381308 -0.358462
-0.124923 -0.415216
0.196355 0.025079
0.055954 0.178371
-0.341607 0.085483
0.061594 0.179398
0.100616 0.116231
-0.057394 0.086411
0.251185 0.454527
-0.150879 0.233967
-0.112349 0.091980
-0.132736 0.127012
-0.128455 -0.022036
0.250563 0.060024
-0.102891 -0.037035
0.070535 -0.102858
-0.149552 0.265856
-0.153235 -0.161458
-0.142990 0.046090
-0.209288 -0.203160
0.181328 -0.104416
0.110002 0.232339
0.142024 -0.104057
-0.453918 0.164538
-0.176285 0.236093
-0.012764 -0.151000
0.179232 -0.084787
0.179077 0.392923
0.183037 -0.179859
-0.215529 -0.148704
-0.065717 0.087929
0.055094 -0.351915
0.047744 -0.236890
-0.203099 0.105515
0.025692 -0.440089
-0.106278 0.193423
-0.144768 -0.283198
0.256484 -0.272780
-0.132862 0.067081
-0.241102 0.053632
0.102225 -0.166377
-0.037432 -0.058453
0.272110 0.217478
-0.140073 -0.124867
-0.256780 -0.175119
-0.594437 -0.282795
0.219251 -0.310890
0.048110 -0.126544
0.184493 -0.423144
0.009309 0.120446
-0.221881 -0.073460
0.099967 -0.088749
-0.054809 0.054324
-0.057794 0.073875
0.149849 0.386891
-0.337606 -0.329563
-0.559574 0.248916
-0.045030 -0.088104
-0.297411 -0.197477
0.087757 0.241570
0.091893 0.016686
-0.256189 0.202213
0.104188 0.181788
-0.108892 -0.309863
-0.014830 0.135040
-0.005163 -0.046738
-0.163049 -0.215555
0.139119 -0.207982
0.049560 -0.271762
0.323283 0.178510
-0.725181 0.379354
-0.050286 0.136363
0.026779 -0.178134
-0.230323 -0.390424
-0.096525 0.312113
-0.236743 0.294536
0.005591 0.175216
-0.071276 0.103944
0.077163 0.149789
-0.316418 0.392674
0.081040 0.041246
-0.100636 0.506914
-0.019353 0.234553
-0.206294 -0.376532
0.338656 -0.148419
-0.607433 0.065066
0.121768 -0.037126
0.319187 0.245825
-0.192730 -0.022064
0.527461 0.074892
0.084545 0.791262
0.026795 -0.419582
-0.144995 0.088122
0.016681 -0.114944
0.227020 -0.118796
0.533677 0.229484
0.500652 -0.436015
-0.533778 2.486497
-0.328793 1.055575
0.157055 0.085455
0.956383 -1.320986
-0.695165 0.513170
0.634430 -0.168291
0.428648 -0.134332
-0.053853 0.151288
0.347842 0.327766
0.263009 0.142803
-0.438967 0.705239
0.298599 -0.535483
-0.023539 0.163803
-0.453617 -0.213856
-0.098513 -0.306497
0.441741 -0.514366
0.123606 -0.434172
-0.053809 -0.114416
0.275234 -0.152482
0.128469 -0.104719
0.036602 -0.099112
0.036895 0.093082
-0.140909 -0.030678
0.042458 0.340967
-0.076967 0.457682
0.172631 -0.088786
0.074267 0.568086
-0.095197 0.025308
-0.054632 -0.160940
-0.310967 -0.387447
0.521232 0.089019
-0.254465 -0.154954
-0.464911 -0.109590
0.417866 -0.451835
-0.105144 0.033686
-0.031045 0.657873
0.372212 0.147788
0.202594 -0.010146
-0.157942 -0.362036
0.011341 0.208368
0.202805 -0.256098
-0.113844 0.620424
-0.348581 -0.383427
0.313144 -0.158257
-0.284462 -0.039600
0.220571 0.164353
0.182286 -0.293993
-0.364986 0.156239
0.169450 0.253288
0.645460 0.328266
-0.243027 -0.807188
-0.224350 0.071322
0.353611 -0.286073
-0.055348 -0.451510
0.321693 0.209237
0.331666 0.092257
-0.111605 -0.647136
-0.286390 0.517308
0.758782 0.108857
0.355638 -0.157112
-0.388832 0.468792
0.635113 -0.366083
0.244921 -0.823225
-0.565805 0.213734
0.434297 0.224385
0.431215 -0.025281
-0.608475 0.128349
0.843320 0.398479
0.155584 0.092661
-0.724497 -0.170620
0.240274 0.989746
0.137653 -0.317178
-0.574022 0.384846
-0.436156 0.675601
-0.040417 -0.096602
-0.423962 0.042959
-0.486503 0.353865
-0.089431 0.463453
-0.535242 0.073788
-1.016023 0.281052
0.069238 0.906124
-0.653377 -0.030519
-0.457569 0.617289
-0.609801 0.472682
-1.054938 0.180556
-0.968837 0.607852
-0.027981 0.896241
-0.711074 0.231612
-0.433635 0.091122
0.332415 0.419376
0.250223 -0.486635
-0.520133 -0.497653
-0.010420 0.819902
0.398087 -0.328225
-0.080246 -0.264095
-0.130118 1.154383
1.813671 -0.162573
0.191813 -0.380122
-0.658343 0.102835
1.581277 0.717720
0.198316 -0.233535
-0.210800 0.960374
0.039565 0.189414
0.191627 -1.995519
-1.574980 0.342463
0.385579 0.288017
-0.106849 -0.659616
-1.390670 0.197077
0.852356 0.182467
-0.714549 -1.726544
-1.671279 0.256357
0.674545 0.701138
0.795111 -1.820628
-0.401687 -0.832790
0.471438 0.362980
0.715242 -0.192675
-0.819527 1.049767
1.213281 1.948955
1.720796 0.002940
-2.996085 0.677008
-1.370501 1.883849
1.271258 -0.027206
-1.295320 -2.007358
0.625794 0.802656
2.221837 -1.758451
0.117633 -0.503432
-1.960463 1.451325
3.099975 -0.074259
1.093137 -3.155261
-1.975216 -0.467210
2.066985 1.122194
-2.724707 -3.710122
-1.642322 1.367934
3.991431 1.167210
-0.278241 -4.714932
-0.591768 1.754999
-2.021994 3.122189
2.925641 -0.403322
-1.724851 3.329298
-0.709777 0.686254
-1.420041 -2.352908
-3.095710 -1.872717
2.736524 1.290841
3.134970 -0.552994
-2.079204 5.252671
-0.677166 -6.458416
-2.184993 -4.582888
2.422665 9.843537
6.018121 -10.071069
-6.678321 10.832443
-10.035711 -11.538013
32.628368 -12.777107
-17.695692 31.039362
-13.045856 -13.515437
11.775606 20.283593
-99.246399 -68.459167
234.162874 -5.656774
-29.753919 297.881105
-695.267800 -613.938449
390.455811 953.473363
