2573.046059 2908.670477
-732.349319 135.456363
748.172841 -179.422323
-107.220788 -237.866949
-126.010183 8.188082
8.636247 63.202727
-18.474967 -30.090933
-24.957869 28.974059
18.042016 15.960467
11.342497 -21.801748
-11.777805 -2.769430
-0.333398 -0.472812
-2.101868 -5.016143
-2.246718 3.047964
3.856492 6.436319
-1.385890 -4.131933
2.850068 -0.814555
-5.508753 0.621799
4.818058 -1.168099
-3.368604 7.417879
2.057344 -3.647206
1.707742 5.172237
-3.484002 -0.790079
2.496945 0.570281
-3.065806 2.027468
1.073966 -3.243282
1.728193 1.266807
-5.530509 0.080860
2.614833 -2.924331
-4.003069 2.321722
-0.444757 -2.171934
2.569358 2.914883
-1.291517 -0.910374
2.527631 -0.243582
0.368768 0.137776
0.232903 -2.455123
-0.100395 2.470382
-1.560014 -0.652584
1.528466 -0.173573
-0.359675 1.024029
1.510819 -2.497113
-0.090007 0.896654
-1.193940 -1.458826
0.793394 0.549007
-0.908917 1.383413
0.226798 0.134849
-0.238257 1.391870
-0.097459 -0.357093
1.217905 0.234882
-0.535060 0.637494
-0.370335 -0.985092
-0.322390 0.129454
-0.165972 -0.359963
1.038952 -0.109012
0.483579 -0.066255
0.066137 -0.135645
-0.913107 0.530722
-1.060497 0.022262
0.233729 0.318382
0.414894 0.686914
1.346311 0.385407
-0.409978 0.183007
-0.938810 -1.019849
-0.486665 -0.326862
-0.269171 0.714965
-0.316739 0.213993
-0.378737 0.147862
-0.310237 -0.631781
0.347560 -0.069592
-0.000438 -0.252625
-0.463838 -0.589057
-0.446017 0.029805
-0.483567 0.080022
0.418486 0.917109
-0.406215 1.000272
0.121797 -0.173325
0.460201 0.329961
0.692865 -0.561284
-0.524122 -0.138509
-0.133088 -0.121272
-0.299458 -0.347939
0.037281 -0.421783
-0.033090 -0.301412
0.305174 0.505455
0.442799 -0.362059
0.104577 -0.118251
-0.241028 0.207182
-0.414098 -0.555070
0.328779 0.562849
-0.455106 -0.115292
0.060066 -0.317993
-0.294863 0.354535
0.033658 -0.568344
0.745824 0.368493
0.215212 0.074016
0.003758 0.260331
-0.147702 0.304663
-0.147400 -0.496625
0.186900 0.716773
0.019629 0.698463
0.472969 0.101580
-0.098266 0.266283
0.226617 -0.530462
0.004220 0.234210
-0.004888 -0.301019
-0.000438 0.032472
0.240940 0.064035
-0.199467 0.273848
0.304746 0.591895
-0.513741 0.159867
0.137593 -0.467461
-0.867345 0.143464
-0.181773 -0.354742
0.079426 0.772210
0.221946 0.107100
-0.584910 -0.421240
-0.252272 0.533346
-0.374406 -0.376869
-0.054051 -0.457549
0.357689 0.155256
0.158771 0.623599
0.250905 0.085131
-0.358543 -0.495398
0.154647 0.260214
-0.332960 -0.617441
-0.036744 0.163523
-0.118673 0.067643
-0.056706 -0.146260
0.148305 0.495941
-0.444321 0.013226
-0.021610 -0.213131
0.048693 -0.084583
0.201632 -0.041383
-0.161468 -0.147794
0.010263 0.065750
-0.019527 -0.420498
0.110500 -0.090809
0.075262 -0.010958
0.163795 0.423570
-0.309498 -0.054449
0.292699 -0.141226
-0.024977 -0.149849
0.239179 -0.080233
-0.538352 -0.080706
-0.409146 0.182387
0.128656 0.084104
0.021408 0.006222
0.068748 0.219357
0.242236 -0.297763
-0.001772 -0.369194
0.002179 -0.048178
0.166243 -0.284617
0.045263 -0.210530
-0.114451 0.267379
0.165173 0.212538
0.032072 -0.106797
-0.516627 0.060120
0.312453 -0.276916
0.071738 0.191975
-0.050323 -0.545846
0.283085 0.037558
0.019544 0.092019
0.211065 -0.168927
-0.170519 0.398418
0.365702 -0.213993
0.529091 -0.128116
-0.272685 0.094688
0.178279 -0.107089
-0.270143 -0.041027
-0.185166 -0.287486
0.083442 0.329201
-0.139167 0.166185
0.098474 0.130998
-0.173357 0.232545
-0.204077 -0.044627
-0.070286 -0.048975
-0.334387 -0.326953
-0.022556 -0.336206
-0.086708 0.203154
0.371819 0.114299
-0.311888 0.091936
-0.187099 0.193483
-0.013761 -0.365515
-0.238602 0.105170
-0.016258 -0.208919
-0.207779 0.087690
-0.078837 -0.053974
0.175510 -0.273789
-0.174805 -0.262968
0.032697 -0.062266
0.307673 0.352127
0.200323 0.114675
-0.155609 0.173502
-0.507288 -0.341300
-0.418134 0.158859
-0.396520 -0.019651
-0.054376 -0.087258
0.227977 0.168990
-0.161439 0.298529
-0.138090 -0.057573
-0.040292 0.183184
-0.315535 0.008078
-0.034690 -0.113882
-0.193949 0.225184
0.000981 -0.416261
-0.266535 0.215078
-0.092235 -0.140586
-0.627819 0.086132
0.290041 0.031238
0.002931 -0.144604
-0.160858 0.078408
-0.110061 -0.041293
-0.364201 -0.194772
-0.116947 -0.042784
0.119437 0.129631
-0.232726 0.072286
-0.027259 0.225599
-0.167061 -0.228248
-0.182336 0.099800
0.233588 0.070970
-0.050304 0.214732
0.197344 -0.053756
0.112795 -0.243794
-0.233876 -0.077013
0.243567 0.040086
0.117214 -0.173204
0.096775 -0.096097
-0.332226 -0.092387
-0.201100 -0.036523
-0.081124 0.093715
-0.008312 0.019417
0.158686 0.164303
0.384240 -0.007847
0.116093 0.202783
-0.132511 -0.055799
0.011538 0.061793
-0.064482 -0.134880
0.093307 0.200696
0.022871 -0.010916
0.015420 0.122383
-0.069522 0.315253
0.066390 -0.008277
-0.290684 0.046417
0.146949 0.013664
0.162887 0.122814
0.220282 0.057623
-0.130661 0.129723
-0.072442 0.036890
0.164368 0.219913
0.045970 -0.505361
-0.180811 -0.218616
-0.129598 0.021072
0.174135 -0.061572
-0.286840 -0.187110
0.137097 0.059735
0.082571 -0.229757
-0.084331 -0.045748
0.069766 0.127246
-0.147084 -0.008814
0.086719 0.372130
-0.123295 0.201173
0.083550 -0.350095
-0.125412 0.272950
-0.284913 0.006839
-0.125855 0.142647
-0.408671 0.284816
-0.039763 -0.012956
0.240208 -0.001781
-0.012778 0.087928
0.278520 -0.088767
-0.181114 -0.293585
-0.093923 0.343790
-0.007099 -0.192212
0.052001 -0.062878
-0.128066 -0.152303
0.119376 0.120458
-0.179834 -0.217455
-0.112670 -0.111028
-0.371537 0.140429
-0.164742 0.192775
-0.090623 -0.418336
-0.224464 -0.159179
0.231233 -0.223498
0.051958 0.218529
-0.005890 0.064870
-0.030887 0.120005
-0.143873 0.207315
-0.240630 0.021407
0.099453 0.394353
-0.052129 0.042426
0.024961 0.179955
0.022128 0.295575
-0.014085 0.022673
-0.416217 0.048163
0.211179 -0.146888
0.319218 -0.252339
-0.198726 -0.468837
-0.617693 0.225956
0.021283 -0.132290
0.210348 -0.019004
0.190223 0.456241
-0.494431 -0.070712
0.155720 0.233256
0.646237 -0.698904
0.299137 0.347436
-0.331485 -0.299698
-0.451449 -0.078995
0.335202 0.442122
0.300384 -0.308707
-0.393074 -0.058562
0.043586 -0.294483
-0.519491 0.357513
-0.454296 -0.159395
0.319043 -0.169281
0.185788 -0.222618
0.207370 0.161504
-0.085954 0.147882
-0.050144 0.100729
-0.146200 -0.121670
-0.224192 0.021043
0.161309 0.378892
0.195513 -0.021255
0.509753 -0.316394
-0.157407 0.189761
0.161916 -0.473013
0.043210 -0.798363
0.208093 -0.120925
-0.367273 -0.086082
0.420793 -0.366257
-0.248620 -0.064544
0.102658 -0.183718
-0.024115 0.022683
0.207832 0.448804
-0.128845 0.153693
-0.016101 -0.402634
-0.017893 -0.150749
-0.093630 0.043939
-0.151593 0.090337
0.094632 0.290607
0.077821 0.416025
-0.176782 0.065635
-0.396106 -0.055562
0.026678 -0.392551
-0.269480 0.474389
-0.072630 -0.236952
-0.000099 0.053022
-0.174918 0.182728
-0.363190 -0.008960
-0.313132 0.128586
-0.300203 0.335299
-0.126131 0.271358
-0.168478 -0.019300
0.157552 0.128754
-0.272683 0.108579
-0.133232 0.227685
0.379889 -0.201241
0.205215 0.282656
-0.373665 0.250896
-0.260554 0.110602
-0.101727 -0.136304
0.209050 -0.174742
0.487148 0.013961
-0.062777 -0.101209
-0.161499 -0.086675
-0.146157 0.061882
0.160733 -0.218011
0.214931 0.366609
-0.119972 -0.135649
-0.281573 -0.353121
0.087483 -0.074385
-0.215340 -0.125071
-0.015730 -0.397454
-0.320922 -0.328950
-0.119320 0.051108
-0.395652 0.232615
-0.297602 -0.077891
-0.157671 -0.055308
-0.225462 0.133983
-0.285976 -0.818613
0.050945 0.209890
-0.122130 -0.043689
0.112684 0.096617
-0.017111 -0.189216
0.001756 0.027138
-0.295664 -0.211872
-0.263626 -0.165975
0.106847 0.095662
0.165302 0.222182
-0.069442 -0.205756
0.333505 -0.187471
-0.011132 0.056811
-0.266152 0.398050
-0.410476 0.153348
0.343159 0.183751
-0.381845 -0.095541
0.330935 0.048136
0.217284 0.521044
0.140646 0.443325
-0.057111 -0.142220
0.470724 0.412975
0.152971 0.105806
0.331620 -0.361575
0.016172 0.038161
-0.047934 0.284233
-0.052492 0.100474
-0.523383 -0.059966
-0.023995 -0.137209
-0.126708 0.101178
0.209361 -0.090367
-0.301902 -0.008547
-0.256747 -0.666485
0.253569 0.259467
-0.236307 0.276459
0.347781 0.247688
0.320583 -0.212937
-0.420869 0.203207
-0.212906 0.360634
-0.046547 -0.321552
0.641003 0.665686
0.147028 -0.334818
-0.578145 0.092193
0.347030 -0.213926
0.233023 0.063240
-0.106906 -0.009536
-0.765788 -0.143031
-0.345323 0.049025
0.182812 0.053340
0.297680 0.136387
0.054585 0.038571
0.099921 0.156394
0.094131 -0.098327
0.159937 -0.315766
-0.254436 -0.236567
0.072314 -0.312136
-0.250020 0.198134
-0.222407 -0.086953
-0.091085 0.298117
-0.006091 -0.047369
-0.201334 -0.419123
-0.015992 -0.113194
-0.241269 -0.219939
0.006470 0.181742
-0.030190 -0.127493
-0.033467 -0.007363
0.113949 0.227175
0.000654 0.322413
-0.004768 0.064154
-0.239730 0.201327
-0.169463 0.032942
-0.047321 0.289610
0.025489 -0.201640
-0.179464 0.228480
0.001779 0.084950
-0.022216 -0.166746
0.011669 -0.304746
-0.216374 0.023252
-0.129548 -0.297662
0.209917 -0.375385
-0.158675 0.111491
0.206988 -0.096736
-0.098360 0.083357
-0.431065 0.011435
0.162207 -0.172695
-0.117849 0.042895
-0.130245 0.204744
0.191612 0.089801
0.030400 -0.156716
-0.181620 -0.084719
-0.242908 0.042359
-0.072657 -0.126896
-0.211351 0.030159
0.245193 0.438847
0.138712 0.313516
0.337667 -0.090954
0.091667 -0.073358
-0.238898 -0.212148
0.005685 0.256170
-0.056201 -0.079306
0.117692 -0.156564
-0.257137 0.024816
0.342810 -0.210054
-0.102013 -0.173907
-0.084989 -0.160868
-0.007395 0.014799
-0.057924 -0.142098
0.056534 0.045222
0.150543 -0.152632
-0.124599 0.054477
0.328059 -0.119131
0.008473 0.153323
-0.006887 -0.127734
0.005806 -0.071818
0.025399 -0.331818
0.073947 0.106434
-0.166336 0.053685
-0.067666 0.017149
0.043564 0.388445
0.073271 -0.023691
-0.305729 0.158211
0.109352 0.325541
0.463542 -0.093833
-0.042281 -0.253221
0.217259 -0.075113
-0.300971 -0.266969
-0.264878 0.225121
0.006870 -0.171689
-0.118879 0.089715
0.051425 -0.090131
-0.018543 0.038403
-0.359670 0.078729
-0.105284 0.047221
-0.215853 -0.116097
-0.025447 0.137459
0.320195 -0.068837
-0.587172 0.037361
-0.158450 0.143869
-0.337555 -0.157190
0.010992 0.305975
-0.091721 -0.197538
0.034978 0.063700
-0.223238 0.026171
-0.020167 -0.210120
-0.248053 0.208986
-0.369122 -0.148904
-0.123193 -0.207766
-0.108253 -0.190454
-0.178959 -0.185070
0.061721 -0.441199
-0.233725 0.546657
-0.010594 0.007486
0.094582 0.172573
-0.098818 -0.020984
-0.269884 0.123545
-0.353725 0.067307
0.032216 0.009134
0.333893 -0.163500
-0.246501 -0.220446
0.105034 0.107658
-0.004763 -0.023461
0.094842 0.323144
-0.066436 0.204375
-0.372192 0.229229
-0.018783 -0.208867
-0.281894 -0.016809
-0.211142 0.046510
-0.239052 0.036174
-0.002741 0.022997
0.278830 -0.232264
-0.104455 -0.098436
-0.051258 0.154453
-0.185898 -0.210841
-0.213178 -0.178967
-0.134687 0.288625
0.050300 0.160753
-0.041355 -0.051089
-0.021267 -0.169340
0.514834 0.003442
0.185068 0.166258
-0.227402 -0.086149
-0.019437 0.277331
0.028856 -0.199460
0.298872 0.148256
0.015768 0.067763
0.242866 -0.393378
0.343263 0.066818
-0.161915 0.030599
0.030061 0.465556
-0.006869 0.058335
0.002717 -0.025213
-0.153727 0.261309
0.049712 0.207431
-0.256559 0.181977
-0.118293 -0.148141
0.175241 0.192023
0.245043 -0.290252
0.259294 -0.176065
0.077839 -0.071473
-0.276676 -0.035137
-0.333348 0.090482
-0.047641 0.212670
0.197131 0.312180
0.432106 0.005828
-0.232248 0.089749
0.051513 -0.079345
-0.057547 -0.105552
-0.402923 0.079742
-0.091854 0.444493
0.107842 -0.131961
-0.239301 0.044048
0.335787 -0.144490
0.411085 -0.041778
-0.011423 -0.080308
-0.327555 0.238753
-0.011886 -0.351878
0.047067 0.129678
-0.385428 0.243810
0.047217 -0.082618
-0.143557 0.330178
0.081160 -0.284589
0.064968 0.614447
0.314105 0.193336
-0.670293 -0.608258
0.212327 0.058078
-0.278089 -0.122050
-0.492831 0.070450
0.274722 -0.254860
-0.225238 0.163267
0.268329 -0.109003
0.130745 -0.157584
-0.281222 -0.351182
-1.202663 -0.147685
0.263750 0.542571
0.170250 -0.231696
0.085157 0.237714
-0.348333 0.174352
0.354542 -0.237586
-0.965639 -0.196109
0.265190 -0.262254
-0.166929 -0.306422
-0.013048 -0.089050
0.670747 0.144541
0.373864 0.012526
0.332951 -0.798782
0.289301 -0.219299
-0.421755 -0.031458
0.460452 0.076666
-0.767505 0.059049
0.456699 -0.350508
0.481610 0.137567
-0.234114 -0.207475
-0.077023 -0.109786
-0.374414 0.097367
-0.066738 -0.575525
0.719199 0.219529
-0.021269 0.391139
0.216123 0.417414
-0.770655 0.398500
0.607101 -0.043275
-0.685828 -0.494168
-0.413088 0.012179
0.317286 0.323596
-0.200921 0.182245
0.696395 0.201090
-0.142453 0.178488
0.544407 -0.007941
0.540560 -0.290733
0.130490 -0.019792
-0.483194 0.005331
0.197886 -0.279270
-0.482422 0.422475
-0.827644 -0.208086
-0.131393 0.108868
-0.559813 -0.304314
0.030146 -0.557660
-0.092432 0.585335
-0.884265 -0.046778
0.397027 -0.012811
-0.100062 -0.416888
0.104588 -0.525643
-0.194513 1.799215
-0.798933 -0.389148
0.971622 -0.102124
-0.191316 -0.318570
0.299208 -0.747107
-0.518012 0.473695
-1.102949 -0.133706
0.261268 -0.198395
-0.217388 0.412688
0.373841 -0.308013
-0.579546 -0.096536
-0.254447 -0.267702
0.110901 -0.013431
1.184869 -0.478046
0.751573 0.337616
0.592526 -0.690958
-0.826794 0.071073
-0.470478 -0.535624
0.601585 -0.177389
-1.351646 1.148994
-0.012985 -0.496208
0.410949 0.442407
-1.153556 -0.871946
2.687725 -0.690292
-2.337924 0.703036
0.491753 -1.477682
0.866476 3.672132
-1.206104 -0.458578
4.892161 0.922030
-1.907370 0.921389
1.655144 -5.829654
-0.260190 2.727465
-5.511590 -2.298400
2.715153 1.153434
-2.901161 5.061060
3.096747 -3.836044
3.121763 4.208441
-3.299836 -6.135492
1.896604 0.972436
-8.312552 1.600180
0.506471 -1.358371
0.420615 8.015280
2.920938 -3.287910
6.347698 -3.847275
-4.836453 -5.231015
-5.931756 -10.241557
-5.673806 5.481257
-5.896701 -1.065473
10.070929 6.348660
8.269528 2.277491
14.940205 -8.925763
-3.936050 -8.066342
-7.336099 -2.294402
-14.899050 3.033391
-1.551267 18.414419
-0.068839 44.093878
55.116334 -0.042204
19.882701 52.131181
-112.246524 -75.017745
-196.266593 -65.110381
-1009.667101 359.388929
-572.613582 -1049.448623
