2958.817746 2398.952098
-342.292523 -661.823338
-1105.589668 461.808078
74.847667 279.025354
-63.606665 73.676946
-28.093325 -22.873034
-73.796525 55.320961
5.586844 0.179191
-32.630536 18.627924
-2.859253 -20.928684
-23.181546 -4.444566
-7.849125 -18.174614
-13.851732 2.485678
3.794931 -18.584268
-5.990553 -3.205706
-1.078427 -9.207353
-3.371437 0.741326
3.372324 -7.043331
-0.339276 0.207141
3.020140 -7.618664
1.707568 2.470248
4.098759 -2.839342
3.024888 1.145398
3.752239 -4.508700
1.836625 3.284389
1.794451 -1.005312
2.295793 1.621973
1.900070 -1.383784
0.609275 3.178825
1.782606 1.133566
2.509140 2.494124
0.987499 0.598667
-0.259510 4.100686
-1.562426 0.491900
-1.074898 2.334489
-1.747281 0.083136
-1.290112 0.113725
-1.714868 -1.498346
-0.346665 0.453806
-1.076266 -2.037353
0.195266 0.737611
-0.481413 -1.333113
0.128292 0.351387
-1.330760 -0.013974
-0.081374 1.098315
-2.609923 -1.748601
-1.078423 -0.309960
-0.586458 -1.601426
1.020077 0.133034
0.739960 -1.533109
1.584873 -0.103759
0.635291 0.118072
2.008581 1.160679
0.754582 0.474310
0.793124 1.287445
-0.189658 -0.043171
0.123693 -0.410908
-0.424972 -1.141354
1.046343 -0.585997
-0.406736 -0.974594
0.761703 -0.375068
0.033545 -0.408452
0.776106 0.723663
-0.768608 1.186156
0.268614 0.829707
-1.183796 0.760944
-0.909158 0.252654
-0.801197 -0.098661
-0.111483 -0.137635
-0.446842 -0.726032
0.565617 -0.552894
0.067520 -0.444856
0.575494 0.540447
0.452374 0.781668
0.152808 0.307255
-0.215214 -0.116396
0.281194 0.300226
-0.486676 0.050183
0.317586 -0.587498
0.028246 -0.523258
0.459912 -0.686027
-0.243675 -0.020876
0.825828 -0.125924
-0.982665 -0.031829
-0.057317 0.057901
-0.407789 0.489671
0.047957 -0.329616
-0.398376 0.275571
-0.525189 0.116269
-0.444155 -0.379284
0.261843 -0.768817
0.273114 0.231341
-0.000462 -0.320852
0.218591 0.370922
0.364978 -0.018042
-0.140854 0.066313
-0.569846 -0.380884
0.192458 -0.400384
0.402447 -0.649905
0.438935 -0.322594
0.054998 -0.461630
0.352668 0.182199
0.195623 -0.571229
0.087176 -0.312186
0.429595 -0.014569
-0.205204 0.209946
-0.078371 -0.468927
-0.655484 0.212687
0.143782 -0.198692
-0.717632 0.000898
-0.169442 0.057861
0.237739 -0.009923
-0.360951 0.655495
0.239001 0.694824
-0.371363 -0.310714
-0.076935 0.021312
-0.240820 0.463978
0.326882 0.177205
-0.511256 -0.427236
-0.135357 0.261935
0.218861 -0.520086
-0.031843 -0.234834
0.115968 -0.162460
0.069216 0.118964
0.281345 -0.314867
-0.076601 0.124329
-0.158508 -0.291644
0.024708 -0.235247
0.356327 -0.078742
0.184806 0.233515
0.071868 -0.389454
-0.318294 0.017098
-0.048992 0.105204
0.197961 0.416456
-0.301229 0.159481
0.206072 0.210127
-0.291590 0.030242
-0.300726 0.538786
0.218178 0.249042
0.239929 0.123747
-0.054356 -0.021665
-0.419597 0.226062
-0.149723 -0.207252
0.196417 -0.640923
0.018327 -0.011944
-0.245206 -0.265354
-0.372193 -0.223564
0.165333 0.181083
-0.248040 -0.304061
0.137792 0.191172
-0.341936 -0.339133
-0.093543 -0.399870
-0.318173 0.088728
-0.105743 -0.119335
0.291221 0.312981
0.067273 -0.324013
-0.138939 -0.076219
-0.137336 -0.009914
0.220806 -0.436568
0.094863 0.218083
-0.005485 0.101924
0.415374 -0.199606
0.059885 0.121762
0.400067 -0.013609
0.150678 0.081073
-0.725332 -0.722241
-0.024743 0.346982
0.298759 -0.127474
-0.266280 -0.322430
0.019902 0.222382
-0.116656 -0.141386
0.284427 0.079782
-0.245938 0.236854
-0.280374 0.128189
0.004774 0.400973
0.444699 0.097773
-0.225855 0.242745
0.528223 -0.132559
-0.465459 -0.123319
-0.395734 0.021747
-0.128878 0.281561
-0.057339 -0.223915
0.162012 -0.038833
0.052753 -0.108889
-0.089075 0.337968
0.212625 0.332108
-0.308405 -0.197993
-0.249263 0.182120
0.210166 -0.085943
-0.217622 -0.037709
0.107337 -0.115499
0.224958 -0.038150
0.010561 0.007212
0.320306 0.005752
-0.024379 0.159879
0.321500 -0.093557
0.177159 0.255556
-0.077645 -0.089509
0.055851 -0.572923
-0.087554 -0.062906
-0.112621 0.044789
0.193282 -0.021065
0.008672 -0.178020
-0.043665 -0.185247
-0.217081 -0.169063
0.371915 0.174543
-0.089600 0.125489
-0.378883 -0.501663
-0.100981 -0.228153
0.031956 -0.032218
0.203374 0.183733
-0.227221 0.104886
-0.319807 -0.073816
-0.052874 -0.044720
0.547975 -0.162283
-0.244500 -0.061821
0.317628 0.209087
0.044571 0.258226
-0.050699 0.356651
-0.429417 -0.075135
0.125686 0.018095
-0.070060 -0.275077
0.021665 -0.157558
-0.453848 -0.069280
-0.333393 -0.159849
-0.073376 -0.228597
0.234072 0.170803
-0.108493 -0.449685
-0.034002 -0.182703
-0.175301 -0.014320
0.142801 -0.238034
-0.085696 -0.334149
-0.193120 0.102143
-0.093270 0.059251
0.430370 0.047180
0.043825 -0.007972
0.311017 0.010902
0.106087 -0.006854
-0.353035 0.104684
0.150680 0.056005
0.327428 -0.296123
-0.010640 0.091885
-0.362323 -0.063569
0.085691 -0.124486
0.153776 0.072236
-0.551977 0.092843
-0.141602 -0.359144
-0.372085 0.161985
-0.059602 0.088053
-0.001431 0.030999
-0.062393 0.263594
0.004840 0.096381
0.158876 0.180251
-0.401266 0.546013
-0.168703 0.099279
-0.164532 -0.058173
0.005055 0.023782
0.062761 0.400258
0.477328 -0.194846
-0.133479 0.341395
0.042000 0.158704
-0.438098 -0.224702
-0.012312 0.227103
-0.098981 0.204806
0.114515 0.343273
-0.295512 -0.338151
0.502283 -0.090971
-0.219074 -0.297456
0.549325 -0.494213
0.033819 -0.219575
-0.192558 0.064444
-0.040143 0.053912
0.073512 0.113241
-0.069460 0.006294
0.112524 -0.172278
0.102028 -0.100203
-0.060058 0.186077
0.219536 -0.048895
-0.270642 -0.218845
-0.126876 0.012665
0.068628 -0.189421
-0.158124 -0.134371
0.274803 0.059706
-0.248610 0.029773
0.243697 0.059646
0.064563 -0.015725
-0.059798 -0.101053
0.285298 0.165423
0.192012 -0.138105
-0.202925 -0.040488
0.142153 -0.120262
-0.059716 -0.186042
-0.202353 -0.013435
-0.214972 0.225706
-0.141774 -0.135007
-0.359144 0.068019
0.149186 0.371649
-0.101726 0.003146
-0.001544 0.089096
0.044151 0.269119
0.396060 -0.229525
-0.149087 -0.300155
-0.063054 0.034044
0.043028 -0.002898
0.283405 0.014134
0.136073 -0.030284
-0.124651 -0.053761
0.020858 0.069798
-0.129741 0.169590
0.345675 -0.405158
-0.135599 -0.217593
0.064184 0.352327
-0.207167 0.026220
0.008156 -0.374278
-0.087582 0.387825
-0.078292 -0.419404
-0.104542 -0.008517
-0.285667 -0.042076
0.038952 0.032908
0.226159 0.261555
0.245681 -0.139292
-0.239048 -0.126581
-0.021512 -0.071847
-0.197893 -0.162178
-0.158201 -0.150067
-0.368849 -0.039073
0.069054 -0.249995
0.232610 0.292110
0.098165 0.452134
-0.048112 -0.027024
-0.032094 -0.024991
-0.051188 0.050884
-0.065766 0.102814
-0.356086 0.241456
-0.326540 -0.251469
0.257149 -0.010897
-0.197819 -0.070032
-0.106622 -0.047815
0.110504 -0.285694
0.122516 0.165172
-0.139411 -0.219597
-0.110385 -0.034064
-0.019712 -0.641096
0.019649 0.080000
-0.147521 0.357635
-0.148378 0.232805
-0.080694 0.132344
0.174266 0.424893
-0.366828 0.070479
0.032607 -0.026410
-0.130907 -0.124248
-0.210821 0.089274
-0.084981 -0.183677
0.267637 -0.042378
0.028107 0.514196
0.394607 -0.297408
0.212004 0.148659
0.137739 -0.217157
0.311671 0.186572
-0.034570 -0.080788
-0.135763 0.323008
-0.290860 0.207850
0.043260 -0.347324
-0.052821 0.030150
0.239016 0.044444
0.355730 -0.089558
0.063005 -0.194739
-0.154544 -0.135662
0.084075 -0.118231
-0.138261 -0.251425
0.072273 -0.068098
-0.205221 0.137547
0.153750 0.077522
0.302495 0.090735
-0.305282 0.216823
-0.017671 -0.205102
-0.083852 0.078393
-0.219351 0.096846
-0.269370 0.129480
-0.240839 -0.027780
-0.219679 -0.073564
-0.048597 -0.278776
0.052254 0.037834
0.227290 0.128549
0.120895 0.164380
-0.016200 0.296838
0.153265 0.009569
-0.305454 0.040210
0.166075 -0.169911
0.046244 -0.219944
0.173486 0.087428
-0.074619 -0.050919
0.002810 -0.089320
0.145298 0.208435
-0.186552 -0.080694
-0.099601 0.082493
-0.144214 0.057645
-0.365656 0.168638
-0.384432 -0.156786
-0.065630 -0.183788
-0.197065 -0.537371
0.104241 -0.051729
-0.119047 0.046854
0.130631 0.229400
-0.042907 0.082047
-0.154805 0.059184
0.372526 0.093828
-0.032204 -0.083844
-0.024226 -0.301453
0.286547 0.165586
0.029348 0.282559
-0.179891 -0.013948
-0.000899 0.220457
0.150049 0.099983
0.249061 0.065285
0.035073 -0.032375
0.033654 -0.051270
-0.040715 -0.047472
0.141188 -0.681149
0.156325 0.194399
-0.101137 -0.111927
0.396907 0.327236
0.032901 0.193607
0.149991 0.270177
0.027840 -0.021660
0.070044 -0.360405
-0.306046 0.180169
-0.132143 -0.306315
-0.585653 -0.391076
0.045680 -0.205893
-0.009836 0.145325
-0.070763 -0.214332
0.029125 -0.040453
0.221490 -0.187279
-0.111284 0.292255
-0.143400 -0.181267
-0.077683 0.590469
-0.113143 0.054099
-0.218799 0.080107
0.125071 -0.027589
-0.109814 0.203824
0.073106 -0.175506
-0.107968 0.287353
-0.110488 -0.161402
-0.080941 -0.238197
-0.276394 -0.298413
0.005066 -0.282119
0.122410 0.067332
-0.039715 0.389874
-0.105488 0.015428
0.229873 0.087662
-0.044022 -0.072510
0.069405 0.142616
-0.350369 -0.184840
-0.061124 -0.329530
-0.129088 -0.018179
0.022517 0.451135
-0.339233 -0.073174
0.156318 0.287991
0.246402 0.458415
-0.084792 -0.474531
-0.454283 0.172905
0.004994 -0.095611
0.334357 0.073697
-0.125610 0.051222
-0.025045 -0.133138
-0.258061 0.043257
0.128834 0.252069
0.071644 -0.007612
0.016157 0.128004
-0.059490 0.204667
0.103657 0.040374
0.373522 -0.089566
-0.063925 0.101129
0.356550 -0.132428
-0.037062 -0.281524
-0.144950 -0.091116
-0.426635 -0.012680
0.178856 0.001209
-0.304477 0.094654
-0.068365 -0.232912
-0.181809 0.017375
0.086592 0.215699
-0.108999 -0.126150
0.030660 -0.112780
-0.168164 0.040112
0.198967 -0.134277
0.047174 0.054722
0.091280 0.245033
0.050448 -0.201374
0.155501 0.025915
0.181667 0.336888
0.335388 -0.185071
-0.397949 0.108904
0.338662 0.228004
-0.093562 -0.063027
-0.162072 -0.163435
0.121477 0.153659
-0.280349 0.085144
-0.076539 0.103397
-0.130189 0.026896
-0.132016 0.165992
0.019586 -0.047899
0.063184 0.394564
0.103905 0.267782
0.203718 0.054721
0.243546 -0.051642
-0.163082 0.053600
0.269932 -0.326931
-0.351012 0.120844
0.401207 0.265824
-0.327330 0.430844
-0.210259 -0.380989
0.018512 0.213539
0.249292 -0.450810
-0.066160 -0.630208
0.387967 -0.129537
-0.287195 -0.032993
-0.294312 0.133488
0.011229 -0.257702
0.080811 -0.107206
-0.090156 -0.139439
0.084944 -0.039898
-0.051676 -0.188446
0.087804 -0.247889
0.115015 0.003058
-0.331237 -0.035944
-0.114008 0.127101
0.160286 0.172773
-0.395588 -0.297698
-0.326158 0.010215
-0.201586 -0.020328
-0.054987 -0.003367
-0.025873 0.009397
-0.195890 0.111266
0.222765 -0.049283
-0.244710 0.341075
0.055199 0.017612
0.098294 -0.150206
0.037772 -0.101946
-0.261914 -0.088963
-0.162927 -0.118924
0.472181 -0.034201
0.221234 0.161999
-0.002077 0.176591
0.128434 0.056911
0.021710 0.071493
-0.175503 0.201698
0.044039 0.284463
-0.267958 0.248432
-0.162265 -0.161861
0.242214 0.295459
0.115785 0.371605
-0.328737 -0.278519
-0.066950 -0.209791
-0.395498 -0.004989
-0.100141 -0.099979
0.098411 0.222131
0.263625 0.115051
-0.438038 -0.094429
0.042089 0.240320
-0.201771 0.000020
0.311073 -0.251643
0.019153 -0.194131
-0.070628 0.566102
-0.016940 0.107531
0.182245 -0.191965
-0.197924 -0.045276
0.020963 -0.036371
0.171489 0.233940
-0.270863 0.452310
-0.295442 -0.081107
-0.332935 -0.090987
0.234788 -0.092847
0.127318 0.134954
-0.053011 -0.104264
0.134707 0.227693
0.201120 -0.115057
0.194232 0.171216
-0.380687 0.172693
-0.281491 0.107442
0.182605 0.262997
0.110568 0.019535
0.416888 -0.075563
0.152969 0.121518
-0.019959 0.064806
0.536851 0.136723
-0.096327 -0.286014
0.008749 -0.130600
-0.078100 -0.469679
0.066387 0.166537
0.159867 -0.002724
-0.436151 -0.296451
-0.527386 0.078211
0.259514 -0.021941
-0.236588 0.165680
-0.133708 -0.160551
0.443753 -0.222066
-0.156909 -0.308116
-0.018634 0.013272
-0.388282 0.005342
0.275720 0.240953
0.187661 -0.099356
-0.259632 0.290342
-0.069730 -0.024187
0.195651 -0.599808
-0.309658 0.230016
0.170748 0.298449
0.154973 -0.091882
-0.149736 0.204768
0.390407 -0.187106
-0.155054 0.522136
-0.121752 -0.492991
-0.113568 -0.020122
-0.284322 0.114821
0.129823 0.111363
0.096972 0.030711
-0.152993 -0.150655
0.117091 0.037728
-0.158133 -0.111213
0.093371 -0.187361
0.030425 0.517357
0.043394 -0.121938
-0.089963 0.547552
0.189055 0.043639
0.334905 -0.131693
-0.672654 0.185252
-0.282471 -0.105311
0.077774 0.267693
0.651649 0.028521
0.148960 -0.101005
-0.152737 0.451390
0.030056 0.000991
0.107174 0.340890
-0.064922 0.095211
-0.418233 -0.015937
-0.314075 0.096937
-0.373381 -0.062878
-0.067083 -0.100078
-0.019692 -0.180259
-0.367106 -0.052347
0.010936 -0.090372
-0.463656 0.016544
-0.007894 -0.065374
0.379946 -0.061575
0.038023 -0.146991
0.046081 0.273358
-0.179448 0.166668
-0.072602 -0.044102
0.110277 -0.197660
0.209491 -0.084040
-0.083954 -0.359662
0.001343 -0.241249
0.055302 -0.144278
0.385958 0.158326
-0.011494 -0.236634
-0.161760 0.116033
0.244770 0.216201
-0.362903 0.559143
0.043151 -0.053407
-0.392171 -0.521657
0.349029 -0.024909
-0.106346 0.157975
0.271368 -0.163651
-0.402396 -0.145290
0.245969 0.389391
0.507172 -0.305744
-0.413495 -0.048718
0.267468 0.726763
-0.390275 0.055075
-0.257495 0.265649
-0.491340 0.262467
-0.367545 -0.099418
-0.059873 -0.173710
0.293274 0.319238
0.425678 0.106011
-0.607411 0.539123
0.134167 0.337800
0.046803 0.054616
-0.039692 0.346866
-0.302780 0.538944
0.381945 0.182687
-0.245555 0.294637
-0.157816 -0.141533
0.215586 0.161622
0.517681 -0.445031
0.047318 -0.332092
0.367370 -0.251819
0.149550 0.005697
-0.159017 0.049496
-0.093595 -0.068945
-0.142168 -0.613665
0.434093 0.461327
-0.505454 0.796080
0.057230 -0.149938
-0.738134 -0.289897
-0.363642 0.744768
0.202839 0.230352
0.015740 -0.065840
-0.068322 0.363676
0.563193 0.165603
0.605951 0.380214
-0.110530 0.519976
0.945933 0.448857
0.166665 0.327890
-0.503579 0.358643
0.066498 -0.468847
-0.181694 -0.329534
-1.408865 -0.141600
-0.244460 -1.006452
0.254652 -1.134860
-0.282691 -0.977728
0.205842 0.130748
-0.038069 -0.266518
0.069245 0.322020
-0.029798 0.807101
-0.529838 0.557139
-1.785839 0.436543
-0.501137 0.611785
0.541520 -0.469542
0.070781 -0.535650
1.109835 0.023783
1.804129 0.645038
1.687512 0.277461
1.967215 0.385737
1.291963 0.013920
-0.280219 0.776614
-0.699725 0.430596
-0.710830 -0.959088
-1.144382 -1.281290
-0.356478 -1.281231
-0.201270 -1.360071
0.486287 -0.318790
-0.490187 -0.366712
1.132592 1.133261
0.427117 1.519127
-1.106498 2.260615
-1.612964 1.782445
-0.972498 1.012129
-3.103922 -1.862312
-0.991068 0.068844
1.204213 -2.123727
2.059807 -0.574933
1.161494 -0.371026
3.251930 1.850952
0.449625 1.386483
0.639244 3.927734
-0.275870 -0.470098
-0.147008 1.633444
-2.519195 -0.840088
1.323726 -2.251817
-2.531015 -5.150958
1.083053 -1.274115
-0.329706 -1.647962
2.022853 -0.710834
-3.493818 0.156121
2.100886 4.375118
-7.693196 1.869327
-3.524447 0.760262
-6.255206 -3.206505
1.648007 -2.379432
-9.524793 -7.963736
11.439788 -8.652284
4.975789 -4.071114
21.361825 -3.881425
3.785742 6.514731
13.889136 6.853660
-17.008258 -3.712930
50.125820 -5.726532
-22.494525 34.263229
11.518438 -33.750274
59.515523 -29.498959
317.707681 289.085526
-718.381154 560.716081
-229.063026 -315.961935
