9118.626921 5019.463080
-5383.141678 488.876862
25.848427 17.311081
-679.578037 61.341258
-67.238561 -119.567861
-111.839627 31.521071
-82.869890 45.528857
-16.276047 0.351780
-29.467623 21.963645
10.594185 -33.582516
-34.145192 19.722763
9.997309 -6.697150
13.431445 9.993120
2.421384 -9.799692
-3.749077 -7.777510
17.470815 6.684225
1.472294 -15.729747
-5.626074 -1.390884
-0.875511 5.237763
17.561082 6.307579
4.945253 -13.158784
-11.489636 -9.523047
-0.225427 12.986912
7.692720 4.715949
6.072342 -10.397046
-8.111753 -4.435133
-0.055976 9.902818
3.919576 -0.549588
3.821686 -6.078995
-4.608905 1.987058
0.415428 4.094591
4.715039 -2.706861
-0.963383 -3.581219
-3.821955 3.960261
2.234275 3.381562
2.740098 -3.037455
-3.590402 -2.050309
-4.828818 3.110131
4.563391 2.383338
1.051653 -2.163309
-3.843811 -2.798331
-2.483881 3.285920
3.560869 1.791663
1.859837 -2.111473
-3.810778 -2.174979
-0.072755 1.535877
2.211368 1.452965
1.273723 -2.819159
-0.962451 0.357664
0.496272 1.833539
0.530067 -0.039390
0.461961 -1.843767
-0.725954 0.314969
-0.185697 1.305079
0.340724 -0.872712
0.527163 -1.332280
-1.202358 0.962973
-0.138994 0.196502
0.656077 -0.511385
-0.193375 -0.756979
-0.736207 -0.153279
0.743461 0.310978
0.078892 -0.163342
0.574004 0.497499
-1.016727 -0.511065
1.333710 -0.123518
-1.299321 1.203726
0.201947 -0.587193
0.563108 0.432944
0.238634 -0.412209
-0.593151 0.224522
-0.711079 -0.166934
-0.282794 0.667208
0.209624 0.407483
-0.170691 -1.492030
-0.327057 -0.267925
-0.294414 0.635068
-0.162555 -0.498809
0.440030 -1.008547
0.087336 -0.157748
-0.271394 -0.040263
0.543503 0.341271
-0.512502 -0.530673
0.339979 -0.518771
-0.361836 0.618373
0.808962 -0.315451
0.210863 0.168354
-0.926291 -0.216567
-0.551227 0.179848
-0.058890 1.623631
0.017563 -0.761111
-0.210073 -0.638156
-0.891668 -0.296678
0.269070 0.313314
-0.516725 0.657128
0.369373 -0.629428
0.223165 -0.401987
-0.554130 -0.332958
0.078126 -0.177495
0.222706 -0.020751
-0.012541 0.350427
0.674212 -0.224352
-0.555468 0.288436
-0.258609 -0.354009
-0.334123 0.678520
-0.045413 -0.457851
0.064486 -0.083237
-0.278593 0.139476
-0.158749 0.244836
0.283561 -0.371892
-1.060902 -0.262982
0.171088 -0.437924
0.086686 0.592256
-0.019109 -0.528187
-0.006738 0.051221
-0.223058 -0.459346
-0.137577 -0.034151
0.085170 0.271217
-0.027894 -0.029293
0.097017 -0.356718
-0.151787 -0.418547
0.148079 0.119519
-0.555360 0.054225
-0.332673 0.105474
0.595194 -0.078834
0.039574 -0.256584
-0.535008 -0.490310
0.148727 0.374706
-0.497841 -0.050080
0.004309 -0.133122
0.160173 0.148195
-0.260382 -0.487199
0.358860 -0.105281
0.037659 -0.158058
-0.066190 0.087196
-0.216354 0.042458
-0.150980 -0.093536
-0.219310 0.649666
0.015814 -0.320116
-0.017073 0.132947
-0.372531 -0.054780
-0.366748 -0.241980
0.069529 0.019641
-0.115386 -0.110260
0.209144 -0.214493
0.093880 -0.163175
-0.266634 -0.075975
0.012297 -0.412462
0.038521 -0.234254
0.113499 -0.044227
0.261103 0.048158
0.347841 -0.228143
0.176524 -0.002471
-0.197029 0.132076
-0.279786 0.343321
0.128288 0.062141
0.138036 -0.150423
0.512206 0.068640
0.256236 -0.170790
0.057452 -0.066960
-0.015727 -0.091027
0.024030 -0.030531
0.259263 -0.258033
0.050581 0.179865
0.061042 -0.799621
0.195051 -0.107276
-0.019609 -0.121912
-0.103073 -0.275777
-0.007898 0.114157
-0.157178 -0.009375
-0.221736 -0.191030
-0.103655 0.370864
0.288253 -0.525115
-0.655329 -0.084829
0.255788 -0.173798
0.052823 0.406408
-0.442503 0.109339
-0.186436 -0.211883
-0.002140 0.022037
-0.100995 -0.183431
0.335986 -0.297785
-0.196373 -0.132773
0.202911 -0.096842
0.255586 -0.050419
0.235336 0.018387
-0.002040 -0.096915
-0.043095 -0.102326
0.314174 -0.527818
-0.287315 0.249033
-0.367998 0.015914
-0.043808 -0.398590
-0.201178 -0.309451
0.507202 0.169155
-0.107437 -0.045557
-0.383653 0.488313
-0.059466 0.110897
-0.202052 -0.073019
-0.076118 0.300875
-0.061075 -0.235996
-0.038213 -0.238175
0.042989 0.210845
0.189318 0.428561
-0.131758 0.087029
-0.171727 0.057107
0.051195 0.616924
0.438350 -0.212118
-0.310541 0.070564
-0.050241 -0.237285
-0.255629 -0.456927
0.124953 -0.220999
-0.050076 -0.197934
-0.105269 -0.054832
0.149066 -0.079746
-0.081437 -0.014554
-0.157701 0.050882
0.104542 -0.338737
-0.006417 -0.454537
0.255617 -0.130564
-0.048617 0.019431
0.084656 0.296331
0.098135 0.009846
-0.143450 0.440184
0.283871 0.025825
-0.059709 -0.134287
-0.038032 0.241183
-0.086969 0.211372
-0.006793 -0.153111
-0.116886 -0.100269
0.017738 -0.116550
0.048716 -0.112784
-0.000967 -0.037372
-0.062744 0.375929
-0.175486 0.037825
0.087107 0.122229
0.001367 0.145677
0.049094 0.083831
0.333871 -0.270117
0.139561 -0.465258
0.333112 -0.348262
-0.383453 -0.492446
-0.117186 0.160009
0.095435 0.504078
0.076848 -0.197671
0.007718 -0.072155
-0.011561 -0.194529
-0.023556 -0.084676
-0.152954 -0.373329
0.319653 -0.052447
0.251796 -0.419970
-0.340182 -0.217760
-0.225610 0.164907
0.320029 -0.137804
-0.025277 -0.121514
0.230096 0.395510
0.152699 -0.051873
0.150599 0.409642
0.103469 -0.405151
0.079391 -0.102127
0.340177 -0.066520
-0.058840 0.089066
-0.094443 -0.168219
-0.244362 -0.039128
0.153616 0.362907
0.214975 0.024155
0.332404 0.083605
0.101207 -0.063140
-0.245871 -0.207186
0.149076 -0.157359
-0.056205 -0.235727
-0.138280 0.012238
-0.141229 -0.081900
-0.080264 0.376840
0.294626 -0.128305
-0.210844 0.210461
-0.139209 -0.384735
-0.491037 0.089250
-0.158811 0.290341
-0.420799 0.476443
0.129861 0.029197
0.049624 -0.063692
0.227245 -0.170148
0.147264 -0.057742
0.026621 0.250044
-0.119402 0.014017
-0.470435 -0.040906
0.019973 0.092551
-0.171470 0.317287
0.053642 0.337232
-0.126407 0.115583
-0.176637 -0.071068
0.252061 -0.184422
0.425048 -0.239908
-0.058797 0.353508
0.185862 0.221473
-0.452514 0.163226
-0.126769 0.109616
0.224989 -0.066144
0.231564 0.565398
-0.284518 -0.155765
0.088162 0.105495
-0.181324 -0.546015
0.105451 -0.134715
0.282273 -0.362183
0.086718 -0.122290
0.395620 0.137002
-0.032147 -0.502313
0.187537 0.026308
-0.266523 -0.018482
-0.350245 0.105224
-0.202496 0.230337
-0.359416 -0.018201
0.213737 -0.027524
0.082089 0.208624
0.017688 0.196258
0.199563 0.103958
-0.015386 -0.116545
0.026399 0.075533
-0.053187 -0.057249
-0.061891 0.061920
-0.148865 -0.287482
-0.155370 -0.259149
-0.266218 0.069707
-0.008424 0.057533
-0.403535 -0.231871
0.133838 -0.422595
-0.007977 0.114293
0.240518 -0.115217
0.332965 -0.220759
0.116509 -0.287862
-0.035209 -0.162831
0.025429 -0.139042
0.084804 0.179007
0.000437 0.356832
-0.058444 -0.003779
-0.163200 -0.235353
-0.091093 -0.125613
-0.269440 0.349993
0.614151 -0.030674
0.037544 0.197401
-0.106878 -0.147722
0.140996 0.169343
-0.079781 0.080985
0.274921 0.296745
0.024432 -0.078762
0.219107 -0.137274
-0.427686 0.191562
-0.022965 0.176369
-0.020894 -0.008860
-0.101913 0.215043
0.015715 0.373245
-0.040848 0.188536
-0.037449 -0.022439
-0.078822 0.138534
0.178041 -0.244897
-0.164011 0.050145
-0.118118 -0.201884
0.088808 0.040472
0.212528 -0.121081
0.011731 0.152331
-0.093035 -0.166389
-0.188162 -0.142378
0.083062 0.101757
0.132102 0.107648
-0.110299 0.146880
-0.127713 0.290461
-0.388411 0.170442
0.327698 -0.035850
-0.192931 -0.083687
-0.255477 -0.175755
-0.142120 -0.035612
-0.103171 -0.499239
0.033998 -0.094652
-0.112395 -0.382589
0.046504 -0.261133
-0.341577 0.001905
-0.129904 0.158900
0.082406 -0.028493
-0.131868 -0.191704
-0.007957 0.132565
-0.077361 0.214652
-0.078595 0.454304
-0.059116 0.182534
-0.201923 -0.062535
0.110479 -0.187113
-0.038705 0.135130
0.099427 0.022275
-0.057492 -0.182953
0.128953 0.037085
0.020977 0.276149
0.207222 0.178335
-0.099396 0.095833
0.091478 0.046238
-0.186727 0.125224
-0.234380 0.187799
-0.085044 -0.088191
-0.380721 -0.131556
0.051633 -0.165817
0.029601 -0.147657
-0.107768 -0.278275
-0.038126 0.061812
0.182725 -0.160219
-0.004195 -0.003761
0.028981 -0.055700
-0.159895 -0.186694
0.367613 0.214059
-0.041346 0.048227
-0.005670 0.156071
0.071507 0.101676
0.127874 -0.019050
0.033689 -0.116299
-0.045257 0.222851
-0.167359 0.080693
0.109798 -0.100109
-0.141175 -0.295934
-0.074457 -0.025479
0.156561 -0.152634
0.221799 0.086215
0.242484 0.026171
-0.315309 -0.174919
-0.072714 0.343321
-0.104115 -0.020584
-0.169206 0.199245
0.048095 -0.020299
-0.064506 0.111311
-0.072801 -0.195644
0.210568 -0.133416
0.049883 -0.059720
0.015086 -0.621775
-0.115124 -0.076228
-0.441642 -0.236105
0.172586 0.174196
-0.219564 -0.257772
0.019065 -0.087158
-0.202786 0.046136
0.002585 -0.077691
-0.183051 -0.003534
-0.002730 0.212995
0.159589 0.244423
-0.060927 0.187283
0.014091 -0.033322
0.107864 0.017803
-0.189499 -0.254205
0.081086 0.170665
0.183705 -0.227470
-0.232084 0.226837
-0.034992 -0.156585
0.095938 0.041374
-0.485762 -0.281901
-0.235453 -0.024683
-0.249484 -0.008015
-0.413159 -0.093440
-0.116394 0.122856
-0.037180 -0.062514
0.178989 0.322345
0.082148 0.119425
0.111504 -0.146880
0.228594 -0.100530
-0.089929 0.012914
0.359324 -0.115626
-0.171016 0.071518
-0.014265 -0.021962
-0.220296 0.045303
0.123345 -0.119370
0.168509 -0.009556
-0.210404 0.020005
0.167097 -0.162076
0.019887 0.098824
0.430541 -0.095803
0.020945 -0.276639
-0.057577 0.161103
-0.131775 0.307244
-0.179035 0.075255
0.198320 0.109914
0.034163 0.182582
0.097124 -0.069686
-0.127011 -0.076483
0.061623 0.101826
-0.161044 0.005532
0.041377 -0.041975
-0.012952 0.049838
-0.010404 0.197902
-0.101516 0.029321
-0.122804 -0.014355
-0.031511 0.076339
-0.137982 0.145900
0.122785 0.064688
-0.169829 -0.072791
-0.319736 -0.090579
0.103929 -0.014983
0.200362 -0.168516
0.097953 -0.207908
-0.198862 0.090367
0.019929 -0.040088
0.077462 -0.110208
0.074890 -0.122435
-0.086850 -0.117871
-0.154224 0.241232
0.081423 -0.266101
-0.183128 -0.173605
-0.146084 -0.218860
-0.133370 -0.099522
-0.142717 0.104348
-0.386590 -0.275874
0.249014 -0.020864
0.251938 -0.266303
0.033800 -0.158278
-0.142001 -0.390912
-0.036209 -0.302247
-0.060814 0.002025
0.050008 -0.122913
0.030447 -0.049589
-0.142953 0.145355
-0.212292 -0.029019
0.001573 0.050207
-0.054294 -0.032718
0.097307 0.086761
0.006526 0.067609
0.281397 0.352495
0.066539 0.515329
0.195013 0.043397
-0.032099 0.042455
0.106994 0.090177
-0.143984 -0.184656
-0.057541 -0.014817
0.147104 -0.169765
0.093428 -0.134303
0.151509 0.052036
0.220847 -0.167849
0.183606 0.350304
0.043308 -0.198778
0.109094 0.045210
0.151770 0.114336
0.230244 -0.146003
-0.134809 -0.004517
-0.363524 -0.338641
0.165852 0.306649
-0.217760 0.107026
0.090540 0.066163
-0.180261 0.197893
-0.223322 -0.327102
-0.219345 0.155139
-0.028980 0.108214
-0.104468 -0.100755
-0.261104 -0.118197
0.061121 -0.369694
-0.079744 0.134073
-0.443316 -0.090824
0.036819 -0.033749
0.206403 0.012385
0.324900 -0.082941
0.028977 0.154607
-0.332030 0.125820
-0.068091 0.105530
0.238866 -0.115788
0.208125 0.117789
0.132136 0.107653
-0.295992 0.160313
0.114579 0.051858
-0.023861 -0.287174
0.012149 0.223263
0.084238 -0.021920
-0.154167 0.234067
-0.081843 -0.119673
-0.355804 0.354840
0.267277 0.041664
0.131311 0.042565
0.057153 -0.188460
0.029696 -0.237566
0.119616 -0.078752
-0.246406 -0.177037
0.017894 0.265306
0.390564 0.008772
0.168981 0.105059
0.079929 -0.185678
0.159538 0.291078
-0.000955 -0.106771
0.064654 -0.310870
-0.066987 -0.156013
0.272069 0.186652
-0.065370 0.018226
-0.274535 -0.115924
-0.068787 -0.084177
-0.216342 -0.104455
0.410201 0.086004
-0.175938 0.099152
-0.279887 -0.107263
-0.426110 -0.119314
-0.148428 -0.140009
0.342484 0.086585
-0.135041 0.023824
-0.128941 -0.379457
0.037788 -0.056625
-0.050730 0.010814
-0.094791 0.067324
-0.044080 0.211184
0.195002 -0.083839
-0.113316 0.251468
0.109851 0.009604
-0.255535 0.295127
-0.074101 0.441172
0.264039 -0.185461
0.317045 -0.104557
-0.446050 -0.000238
-0.166522 0.154679
0.171711 0.090090
-0.080263 -0.162225
-0.053961 0.191398
-0.124865 -0.048775
0.130160 -0.173847
-0.056266 -0.084206
-0.022191 -0.430655
0.463691 0.035197
0.167069 -0.454001
0.134704 -0.125651
0.054220 -0.004073
0.216206 -0.108912
-0.118660 0.352252
-0.036369 0.060477
0.015277 0.143438
0.059416 -0.109614
0.004149 -0.130188
0.139286 0.051747
0.188280 0.038656
0.184831 0.011991
-0.215057 0.025024
-0.014354 0.141389
-0.033762 0.183691
0.095231 -0.371136
-0.177163 -0.039773
-0.102491 0.152216
-0.331806 0.062164
-0.237131 0.075644
0.037773 0.193426
0.094693 0.421269
0.077781 0.205876
0.049088 0.063049
-0.142074 0.205806
0.017922 0.085949
0.088235 0.412518
-0.108806 0.132028
-0.305665 0.119618
0.054467 0.217689
-0.060452 -0.005096
-0.044257 0.140318
-0.165341 -0.094011
-0.223232 0.039989
-0.118406 -0.129059
0.135468 -0.148897
0.182239 -0.078145
-0.245640 0.068712
0.065475 -0.067955
-0.034588 0.022136
0.088822 -0.041829
0.031254 -0.210559
-0.070782 0.052235
-0.076982 -0.026533
-0.032283 -0.039370
0.094171 -0.291739
0.017667 0.055198
-0.089137 -0.110470
0.058583 -0.198698
-0.125291 0.158962
-0.079176 0.027368
0.118568 0.177969
0.247914 0.042338
0.110502 0.333703
-0.125212 -0.299394
-0.134441 -0.047186
-0.019258 0.054646
-0.053490 -0.214716
0.095628 0.213553
0.088785 -0.127835
0.006769 0.093812
0.115580 -0.183921
0.194574 0.139700
0.096597 0.049584
-0.166218 -0.051171
-0.080108 -0.051123
-0.039047 -0.109614
-0.237686 -0.078590
-0.111356 0.037537
-0.216452 0.292460
-0.017917 0.047763
0.011800 0.022474
0.375067 -0.086123
0.072600 -0.095327
0.128465 0.075263
0.239587 -0.248648
0.012321 -0.089183
-0.259985 0.032278
0.008418 -0.088619
-0.312770 0.233059
-0.206923 -0.127841
0.138515 0.070666
-0.519255 -0.344235
0.007514 0.383089
-0.185630 0.132552
-0.271279 0.279309
-0.089868 0.251905
-0.149837 0.172511
0.191794 -0.061566
-0.332663 0.088372
0.264108 -0.024919
-0.308488 0.096913
0.194510 -0.115410
0.020113 0.074891
0.083391 -0.158324
-0.081254 -0.249633
-0.055171 -0.216969
-0.185197 -0.016641
-0.272017 -0.035469
0.295858 0.068041
-0.193653 0.253306
0.185107 0.046367
0.044848 0.270660
0.158602 0.192634
0.257885 0.012473
-0.353447 0.058926
-0.047329 0.181065
-0.096609 -0.101441
-0.044739 -0.139209
0.129016 -0.090439
0.029666 -0.069939
0.196483 0.135690
0.008478 0.086117
-0.075984 0.097407
0.081011 -0.045497
-0.265238 0.121306
0.138851 0.072321
-0.077884 0.347808
-0.116672 0.027212
-0.084859 -0.213653
0.008485 0.017049
-0.071405 0.186820
0.050262 -0.236744
-0.172053 -0.178384
0.067405 0.020177
-0.155385 -0.213816
0.228740 -0.090264
0.129622 -0.363675
0.051999 0.092246
0.205978 0.135124
0.232915 0.051466
-0.160641 0.037062
-0.132048 0.056294
0.117896 0.174591
-0.361077 0.107476
-0.022383 -0.015233
-0.240636 -0.172015
0.202693 -0.044386
-0.235367 -0.038914
-0.180611 -0.286381
0.113569 -0.114588
-0.013737 0.250609
0.001989 0.158349
-0.062392 0.318893
-0.110826 -0.073173
-0.030217 -0.084254
-0.302255 -0.154859
0.131017 0.245867
0.073755 0.037736
-0.177470 -0.455659
-0.163566 -0.049152
-0.172045 -0.203191
-0.012245 -0.171221
-0.130647 -0.275685
0.163831 0.252055
-0.146323 -0.116546
-0.306271 0.188611
0.082340 0.271970
0.099884 0.478817
-0.099106 0.275979
-0.170771 0.106626
-0.305308 0.386978
0.145536 -0.154239
0.093848 0.026622
-0.073919 -0.052714
-0.337389 0.102991
-0.175124 -0.181879
0.258853 0.020185
0.048779 -0.308619
-0.079982 -0.234421
-0.111523 -0.175549
0.188792 -0.014401
-0.054500 -0.074797
0.107357 0.081586
0.077082 -0.006700
-0.129036 -0.269358
0.237655 -0.036272
0.223493 -0.066975
0.043796 -0.452283
-0.359929 -0.153754
0.079686 -0.142850
-0.173024 0.154250
-0.062889 -0.283022
0.119140 0.112868
0.031789 -0.220545
-0.504830 0.077327
-0.024769 0.141010
0.427830 0.150012
0.069483 -0.255644
0.333663 -0.062472
-0.240251 0.484949
0.125334 0.369476
0.032359 0.078451
0.140697 -0.176277
-0.053751 -0.031629
-0.375245 -0.078906
-0.009425 0.092046
-0.166404 0.189359
0.119849 -0.120355
0.198024 -0.158145
0.311513 0.177828
-0.111938 0.165185
0.346757 -0.063227
-0.058703 -0.158295
0.170848 0.041897
-0.189315 0.092040
-0.154036 0.053446
-0.031354 0.059773
-0.456517 0.075086
-0.007400 0.345958
-0.318528 0.131133
-0.296402 0.042715
0.094180 0.020840
0.123474 0.427312
0.437841 0.021766
-0.007519 0.046423
-0.186000 -0.008037
-0.132132 -0.219060
-0.151213 0.074938
-0.202596 -0.099362
-0.240894 -0.269569
0.025066 -0.146870
0.239300 -0.332904
0.104330 -0.212059
0.267792 0.310435
0.160799 0.137426
-0.244008 0.244770
0.358590 -0.330702
0.400845 0.519037
0.245651 -0.036119
-0.018507 0.214892
-0.181298 -0.344121
-0.524890 -0.400072
0.555728 0.057234
-0.142331 -0.356083
0.162023 0.399611
-0.191643 -0.113185
-0.002715 0.126794
0.237510 -0.308926
-0.047225 -0.102545
-0.113223 0.050280
-0.632603 -0.333462
-0.268094 -0.133902
-0.554190 -0.353950
-0.089360 0.106900
-0.124011 0.071108
0.123737 0.523922
0.104325 -0.330765
0.028970 -0.143057
-0.094533 -0.137181
-0.303364 0.197252
-0.036743 -0.025255
0.047137 0.032560
-0.050820 -0.072796
0.209349 -0.062692
-0.062120 -0.279798
0.324200 -0.366946
-0.180347 0.056175
-0.110987 0.115145
0.005748 0.035479
0.030235 0.297262
0.312444 -0.072734
0.358256 0.012080
0.216179 -0.075534
-0.122343 0.210119
0.034811 -0.282319
0.197641 -0.067756
-0.070797 0.186996
-0.071994 0.308885
-0.049686 0.374403
0.125569 0.234025
-0.103861 -0.207698
0.098195 0.469343
0.570003 -0.123788
-0.386339 -0.003889
-0.077590 -0.006249
0.129128 0.004376
0.078411 -0.072840
-0.029268 0.212433
-0.036895 0.064764
0.194491 0.200640
-0.222144 0.497118
0.287207 0.356497
0.195855 -0.278250
-0.048160 -0.116289
-0.170478 -0.419358
-0.178462 -0.234639
-0.074065 0.217087
0.077675 0.194387
0.040527 0.097053
0.189863 0.122771
0.179788 0.322607
0.075628 -0.035122
0.000360 -0.293426
-0.021747 0.025109
0.097757 -0.226752
0.274486 -0.076331
-0.043310 0.001693
0.108219 0.285366
-0.133810 -0.180574
-0.048261 0.220878
0.066337 0.342151
-0.061583 -0.003078
-0.199754 0.290001
-0.041868 0.339296
-0.111215 -0.168672
-0.055025 -0.320063
-0.083624 -0.371900
-0.076161 0.364188
0.283108 -0.001994
-0.239283 0.075766
0.092335 0.070842
-0.029700 -0.141072
0.069903 -0.027951
0.041323 -0.619267
0.050842 0.099133
0.246349 -0.033270
-0.101916 -0.001279
-0.456552 0.262726
0.258653 0.216681
-0.056223 0.194837
0.105156 0.347566
-0.318759 0.012538
0.003621 -0.360447
-0.061643 -0.045995
0.024743 0.106720
0.212842 -0.180539
-0.135784 0.162445
0.379719 0.335714
-0.103106 -0.014453
-0.539718 0.026355
0.050453 0.063342
0.073027 -0.747906
0.249215 0.221652
0.109282 0.195605
-0.430872 -0.161984
0.149983 -0.243108
-0.145941 0.187499
-0.291428 0.090740
-0.364998 0.138399
-0.107308 0.004424
-0.087724 0.199023
-0.176802 -0.070167
0.108708 -0.153932
-0.026848 0.247742
-0.226317 -0.033730
0.775444 0.603816
-0.078295 0.346789
-0.230203 0.069892
0.174053 -0.087193
0.118156 0.085682
-0.112363 0.330030
0.345279 0.021757
-0.111024 0.010377
0.240487 0.657371
-0.070060 -0.438718
0.036498 0.254501
-0.135204 -0.048065
0.000546 -0.265711
0.033349 -0.208886
-0.317489 0.298615
0.083591 0.056732
0.142100 0.339968
0.276744 -0.261410
-0.259986 0.176904
-0.428293 0.228689
0.021947 0.028885
0.334866 0.366570
0.357154 0.359263
0.401786 0.224593
-0.063154 0.077719
-0.084829 0.264496
-0.013476 -0.053684
0.098994 -0.014097
0.054168 -0.131007
-0.035731 -0.091168
0.552182 -0.202711
-0.033554 -0.032364
-0.317336 -0.023044
0.191442 -0.100102
-0.020229 0.022615
0.122722 -0.213200
0.085960 0.393265
0.188187 -0.042431
-0.033472 -0.115642
-0.507426 0.470614
0.065564 0.393876
0.085420 0.172188
0.091306 0.151238
-0.817277 -0.151821
-0.319240 0.095046
-0.016266 -0.031577
-0.489357 0.041178
-0.142666 0.129449
0.322567 0.213610
-0.222547 0.394529
-0.109025 -0.308934
0.223791 -0.036523
-0.801310 0.491421
0.331130 -0.440609
0.161302 0.487428
-0.116039 0.402890
0.110561 -0.175704
-0.152515 -0.596428
-0.135237 0.239385
-0.115360 0.795946
0.031297 -0.577090
0.140101 0.042413
-0.414435 0.168802
0.404691 0.050814
-0.369404 -0.309172
-0.431185 0.363685
0.323930 -0.142674
0.446574 0.165925
-0.230767 -0.443572
-0.211899 0.801488
-0.691908 -0.072235
0.653210 0.160646
-0.221469 0.227282
-0.214453 0.235232
0.367627 0.101840
-0.442310 0.448653
-0.808473 -0.208834
-0.356408 0.687054
-0.107795 -0.290821
0.661919 -0.007157
-1.158356 -0.958295
-0.156813 -0.148517
0.174582 1.041878
-0.137705 -0.084339
0.412219 -0.277781
0.282054 -0.748117
-0.580313 -0.242564
0.011339 1.126558
0.655428 0.638874
0.811055 -0.417837
-0.940779 -0.079910
-0.705487 0.067918
0.086079 0.976715
0.034499 -0.575332
-0.558453 -1.006642
-0.009052 1.170609
-0.527053 0.356828
0.387856 -0.686771
-1.220482 -0.372784
0.280654 0.048820
0.421363 0.790352
-0.216496 -0.862805
-0.045474 -0.328368
-0.494102 1.288739
1.278989 -0.268373
-0.107578 0.199869
-0.387128 0.671564
0.816037 0.763130
-0.715442 -0.892431
-0.055749 0.125105
-0.582772 1.511934
1.272027 0.007710
-0.741243 -1.092011
-0.387192 0.811857
-0.726956 0.703657
1.550628 -0.589908
-1.449409 -0.830040
-0.493898 0.099791
0.741612 0.431954
1.245034 -0.806163
-0.978549 -0.514749
-1.029553 0.818581
1.758449 -0.289079
0.460069 -0.096893
-1.647652 -0.675006
0.445757 1.401164
1.322766 -0.414623
-0.704687 -0.573271
-2.028936 1.317080
1.275619 0.981307
-0.360070 -0.482422
-0.766037 -1.843711
0.226614 1.164316
1.382821 0.941623
-0.656711 -1.471160
-0.554222 -0.074209
1.272524 1.816548
1.890399 -0.632829
-0.878711 -2.415212
-1.456254 1.745067
3.086219 2.339311
1.377920 -3.043248
-0.819684 -2.736481
-4.379680 4.584064
2.905339 1.934972
1.302944 -5.165285
-1.970177 -1.813518
-4.799621 3.899880
3.290109 1.378144
0.916742 -4.325450
-1.977628 3.358268
-0.051695 2.628730
6.312126 -4.470375
-3.316135 0.912644
-4.686743 7.078520
12.259367 3.927015
8.309566 -7.991377
-9.896422 -4.755533
-9.789906 9.272133
16.299338 12.856877
14.368536 -10.358497
-11.802265 -13.495615
-11.925947 4.222298
12.729302 12.305292
-0.446962 -4.850287
-10.849111 -14.869053
-9.816612 20.387614
16.980330 8.404506
-2.645784 -32.854513
-19.997186 4.205751
-40.006904 58.802335
54.215073 46.248055
-51.325222 -178.901492
-27.701843 -28.566329
-231.871690 246.291183
-1771.782308 127.473571
