15632.302831 8996.220478
-6419.444183 2878.856979
79.405992 543.559850
-1792.155145 -1409.558468
-359.607520 170.654918
-400.477792 -1279.277907
55.585226 72.403821
-677.813712 -803.730732
11.951742 227.532128
-872.949550 -374.853515
-66.021868 90.544793
-398.465188 300.246620
-99.160296 41.282964
114.682987 332.830489
-45.849570 28.811692
166.813078 -94.785856
12.060895 -24.233620
-92.934614 -160.113037
-43.586507 -40.513268
-59.030894 92.739679
-18.575328 -46.521424
80.272572 57.518187
32.161769 23.385907
25.130425 -72.143822
17.905607 -22.907237
-67.309223 0.535142
-5.807403 7.517466
8.023586 57.739562
15.669274 -5.256688
32.049468 -31.558128
11.882208 -14.734554
-39.264037 -30.152338
21.645596 -10.722338
-10.876249 27.990644
-2.739768 -2.440861
32.337271 -10.414543
7.665473 -6.085950
-25.344283 -4.875691
0.503618 4.175869
-6.245893 26.643527
-4.104389 12.786694
24.713356 6.968271
-0.369377 8.092173
-6.958116 -11.544447
4.641967 -5.756420
-10.128290 7.429077
-3.220045 -5.503940
15.919519 3.179527
3.573952 -1.481744
-0.300840 -13.751486
5.044034 5.217915
-8.669253 8.859214
0.954459 0.785486
2.915661 18.044549
1.371965 -1.008280
-1.456512 -7.515931
-2.494277 4.166118
-6.597555 0.425006
-1.745234 -7.730937
3.465439 5.306974
-4.445779 -1.778828
-1.362093 -6.341070
0.592494 3.817562
-7.090278 4.764606
0.117200 4.337493
5.905570 7.688948
-1.054904 -0.376933
2.039183 -3.657407
-2.464256 0.406239
-8.073994 0.766926
-2.927689 2.718876
2.778667 5.062612
1.004448 0.807401
3.673793 -8.185846
-5.340399 1.419045
-6.783531 2.108141
4.489257 -0.649854
2.618897 2.288918
1.086258 -3.359221
5.094599 -4.475852
-2.457684 1.028697
-2.199063 0.959457
2.075921 -1.276327
-2.310987 2.709783
-3.421029 2.607227
2.943022 -2.225006
-1.192642 -0.922407
-3.063783 -1.356203
1.617940 -2.689235
-1.178719 2.934854
-0.627402 -0.131993
3.678197 0.870882
0.788019 -1.261887
0.697058 -0.604228
2.802733 3.033841
-0.958706 2.131462
0.205557 0.337884
4.233388 1.245988
-0.471336 0.040338
-1.360829 -0.688467
-0.760686 1.752564
-1.848024 1.337663
-2.660650 2.064125
3.453289 1.789374
0.611396 -1.494625
-0.022475 -3.626922
-0.121367 -0.834782
-1.786076 -0.116162
-0.158293 0.545101
4.022962 1.610981
1.387240 -0.595509
-2.730379 -0.080646
0.398050 -0.038460
-3.464992 0.380182
0.275966 0.895458
0.127956 1.353326
1.273886 0.473370
-0.516351 0.096410
-0.512585 -1.064742
0.023198 -2.338748
-2.243728 -2.651247
2.362876 1.373011
0.858672 0.778866
0.509107 -1.084747
1.593999 -0.600611
-1.605508 -1.290846
-1.004759 -0.848009
0.728599 -0.310384
1.013856 0.819410
1.380985 -1.914915
0.245754 0.508442
-0.647736 0.481468
-0.004384 -1.905038
-0.364219 1.383811
0.063578 -1.773923
2.012830 -0.958823
0.380929 -0.067535
-0.407333 -0.459921
-0.508324 -0.706697
-1.299198 1.203547
-0.037694 0.912003
2.755991 -0.285791
-0.967074 1.934343
-0.956881 -1.781851
-0.124582 -0.260473
-0.815508 1.466363
0.231726 -0.541985
2.022395 -0.761473
-1.440447 0.614134
-0.957552 -0.330165
-0.335131 -0.305287
-1.123213 0.658205
0.613092 0.248416
0.780664 -0.596160
1.041419 -0.563145
-0.093902 -0.458841
-0.778184 1.119947
-1.209317 0.129127
-0.667035 0.006887
0.958769 0.976991
-0.396095 -1.539657
-0.317483 -0.392663
0.210239 -0.598382
-1.911727 -0.033372
-0.754362 0.969080
1.335603 -1.095573
0.334864 -0.617840
0.148385 -1.189787
0.651331 1.165822
0.644097 0.629408
-0.239590 -0.170447
1.565737 2.395239
0.251313 0.308485
-0.400212 -0.211675
1.325367 0.240119
-0.612429 0.153791
-0.279763 -0.265664
0.033614 0.237944
0.363728 0.686803
-0.302560 0.224528
0.770087 0.436496
-0.563950 -0.149098
0.048019 -0.209016
-0.198904 0.157600
0.702560 -2.169959
-0.540709 -0.454173
-0.830221 0.479373
1.108382 -0.733359
-0.562984 1.005660
-0.710922 0.096218
-0.506675 -0.051168
0.012478 0.181669
0.094541 0.920608
0.374367 -0.486573
-0.737496 -0.785961
-1.328613 0.307865
0.379097 -0.786714
-0.977127 -0.616832
-0.220291 -0.214182
0.394957 -0.355707
0.564803 -1.641077
-0.461991 -0.203527
-0.190916 -0.754073
0.106861 0.971072
-1.032337 -0.109253
-0.755784 -0.165265
0.369950 -0.518896
0.052676 -0.779151
-0.544566 0.693685
0.239105 -0.261303
0.100927 0.339220
-0.325920 0.443941
-0.542432 0.110173
0.548976 -0.253997
0.026887 -0.585795
-0.429312 -0.066324
-0.305992 -0.250084
-0.405792 0.472775
0.749217 0.529735
-0.384907 0.454228
0.301043 1.535353
0.046426 -0.038388
-0.217968 -0.115731
0.281172 -0.522584
0.475477 -0.159138
-0.014111 0.641774
0.126141 0.287372
0.409477 0.529935
-0.399416 -0.751140
0.369802 0.290588
0.121870 0.716758
0.137242 0.032463
-1.283854 1.065718
0.116813 0.597748
0.556622 0.094912
-0.288630 -0.237015
0.000411 -0.219308
-0.755888 0.326970
-0.250047 0.025579
0.566380 -0.307846
1.051367 0.261364
0.615788 -0.184758
-0.252779 0.099384
0.377640 -0.648037
-0.317363 -1.412390
-0.230512 -0.583994
0.291734 -0.172528
0.284071 0.164497
0.054374 0.444793
0.176807 -0.249405
-0.399121 0.087015
-0.448683 0.870546
-0.091218 0.298178
-0.008251 -0.266327
0.654092 -0.094630
0.493438 -1.296802
-0.281728 -0.049532
0.280741 0.566488
-0.154389 -0.340583
0.027610 0.134402
0.921148 -0.261934
-0.298050 -0.056035
0.284481 -0.017144
0.168227 0.330290
0.482262 -0.212428
-1.024188 -0.639202
0.051372 -0.067713
-0.110098 0.738026
-0.682651 0.088240
0.273634 0.387380
-1.207922 -0.211247
-0.062261 0.277499
-0.262403 0.491445
-0.485545 0.185158
-0.213080 -0.006675
-0.569565 -0.310041
1.047151 0.226784
0.774433 -1.185436
-0.172830 0.880836
0.282435 0.097059
-0.609874 0.620341
0.507981 -0.399540
0.071253 -0.621928
-0.655171 -0.529870
0.359895 -0.157030
0.655723 0.226994
0.088934 -0.019778
-0.383217 0.832140
0.067942 0.325774
0.061419 0.910364
-0.627896 -0.819552
0.257634 -0.097684
0.423736 0.912442
-0.130668 0.446640
0.478300 0.092799
-0.704513 -0.034226
-0.373953 -0.752695
0.363421 -0.232207
0.670886 0.346060
1.117102 0.611861
-1.071871 0.931648
-0.617359 0.278139
0.690558 -0.519732
-0.283239 -1.044732
0.194014 0.455376
0.414316 -0.579380
-0.166574 -0.327270
-0.237931 -0.418950
-0.653431 -0.407983
0.052436 -0.057513
0.141351 -0.125275
-0.049925 -0.554291
0.282798 -0.326500
0.434682 0.205772
0.228216 0.087079
0.432771 0.282720
0.062651 -0.069500
-0.082023 0.095085
-0.295511 0.371320
0.480549 0.027352
0.203956 -0.059277
-0.640475 -0.185308
0.344551 -0.566697
-0.977469 -0.325374
0.142068 -0.941698
0.442520 -0.340581
-0.072001 -0.258634
0.000190 -0.448954
-0.027099 -0.340723
0.432810 -0.358981
-0.156803 -0.002273
-0.058275 0.053628
-0.201357 -0.124435
0.540446 -0.323701
-0.137027 1.217217
0.510403 0.674240
-0.503864 0.139901
-0.096760 0.865207
-0.690264 0.049393
-0.042668 0.517795
0.300877 -0.048139
0.065887 -0.061281
0.203753 0.295498
0.166582 0.226842
-0.257820 -0.326214
0.050183 -0.323552
0.327037 0.408114
-0.333642 -0.571438
-0.047597 -0.711798
-0.298479 0.152449
0.147103 0.492743
-1.018851 -0.861169
-0.250697 -0.308418
-0.380467 -0.098309
0.423870 0.484224
0.645465 0.026131
-0.462621 0.485009
0.400579 -0.082833
-0.119763 -0.659774
-0.047183 0.691535
0.266028 -0.143392
-0.198077 -0.126950
0.039591 0.454352
0.386806 0.322193
0.029061 -0.313683
-0.468662 0.769701
0.332515 0.399952
-1.060653 -0.116563
-0.842905 0.366505
0.026868 0.425746
0.262754 -0.225266
-0.495682 -0.271224
0.825625 0.288841
0.647479 -1.155126
-0.550001 -0.137109
0.447165 -0.152499
0.446909 0.167432
1.202470 -0.539735
-0.161611 -0.061208
0.147746 0.525895
0.134303 0.842738
0.412175 0.237957
0.012072 -0.053134
0.686182 0.232938
-0.329556 0.403883
-0.280768 0.191060
-0.380928 0.273720
0.094239 -0.258461
0.019157 0.411819
0.390514 -0.308343
0.110734 -0.237474
-0.149767 0.359955
0.516226 -0.304255
0.252440 -0.121501
0.205714 -0.275563
0.570194 0.195939
0.465922 0.070800
-0.083814 -0.477134
-0.163893 -0.367330
-0.463385 0.166630
0.063587 0.319092
-0.507111 -0.479513
-0.060989 -0.249697
-0.190644 -0.300211
-0.214885 -0.270441
-0.302698 -0.248578
-0.233950 -0.340815
0.737488 -0.793479
0.539431 -0.616395
-0.175539 -0.468384
0.513320 -0.163640
0.019424 0.002725
0.150702 -0.067569
0.132882 -0.289040
0.183758 -0.500995
0.639554 -0.131251
0.165607 0.200888
0.296302 -0.242996
-0.175250 0.110278
-0.514932 -0.299688
-0.069294 -0.940548
0.094084 0.684700
0.226997 -0.503974
-0.647978 0.697173
-0.301248 -0.422911
-0.378199 0.075318
-0.283848 -0.293117
-0.140993 -1.039081
-0.642037 0.474938
0.124868 0.281242
0.117787 -0.077003
-0.026864 -0.260950
-0.542030 -0.040564
-0.291445 0.030471
-0.119409 -0.065735
-0.225250 0.266423
0.092992 -0.096430
0.339476 0.005330
0.125719 0.410592
-0.283864 -0.055289
0.078656 0.120746
0.008129 0.152051
0.331533 0.263298
0.032843 -0.292181
-0.491956 -0.456789
0.367519 0.127361
-0.393711 -0.456988
-0.351222 -0.025929
0.285566 0.134966
-0.064152 0.013436
-0.340166 0.034291
-0.168538 0.394476
0.118976 -0.405075
-0.097069 0.459668
-0.005609 0.258096
0.362414 0.229131
-0.473296 0.364254
-0.141579 0.082296
-0.712016 -0.034065
-0.190979 0.098880
0.523038 -0.110109
-0.005484 0.333107
-0.113727 0.184979
-0.092171 0.009780
0.389381 -0.204185
-0.123116 -0.345157
-0.592892 -0.026294
0.189957 -0.684551
0.229643 -0.086156
-0.303559 0.207953
-0.269477 0.083548
-0.058920 0.189853
-0.228063 0.136377
-0.258349 -0.088734
-0.073732 -0.117590
0.162034 -0.049540
-0.118205 -0.002761
0.196093 -0.032177
-0.346710 0.215614
-0.177086 -0.029993
-0.128679 0.113491
0.453289 0.246819
0.443804 0.069535
-0.007687 0.243205
0.648718 -0.208798
0.143204 0.246298
-0.400619 -0.200739
0.022033 -0.216976
-0.294334 0.708140
-0.251391 -0.157483
-0.090720 -0.470717
-0.067026 0.305138
0.412582 0.288031
-0.074532 -0.094400
0.294600 -0.128873
-0.101277 0.393214
-0.081300 -0.214808
0.383799 -0.054777
0.336434 -0.170881
-0.096454 -0.044284
-0.128647 0.161009
0.172833 -0.086772
-0.075116 0.199910
0.290226 0.080440
0.113518 -0.148708
-0.173840 -0.199235
-0.056630 -0.104376
-0.202432 0.016372
0.493641 0.114596
0.192246 -0.378994
-0.034176 -0.172553
-0.096774 -0.103225
-0.261522 -0.138795
0.122483 0.247919
0.092871 -0.056587
0.249782 -0.310517
0.123816 -0.042369
0.018323 -0.131835
0.438573 -0.135893
0.071500 -0.070530
0.033989 -0.190865
-0.077462 0.085916
-0.035655 0.028224
-0.052817 -0.063278
-0.011498 -0.021286
0.044155 -0.197157
-0.246533 -0.075612
-0.434648 -0.145600
-0.142593 -0.155386
-0.246476 -0.255836
0.559438 0.246220
-0.280088 -0.059879
-0.329752 0.575321
-0.168716 0.285465
-0.028058 0.242217
-0.026592 0.240548
-0.275549 -0.115050
0.067675 0.201823
0.058122 -0.395435
-0.127589 0.053996
0.198426 0.000546
0.479355 0.269129
0.094136 0.269018
0.061749 -0.016848
-0.248482 0.223348
0.113554 0.209426
-0.209632 -0.223179
-0.153850 -0.290558
0.113762 -0.009711
0.115423 0.139427
-0.004153 -0.136548
0.056207 -0.301911
0.096159 -0.191092
0.097522 -0.273115
-0.188531 0.097462
0.074974 -0.212433
0.002148 -0.082715
0.158060 -0.263320
-0.156934 -0.299646
0.181725 0.103443
-0.191597 -0.035954
0.415424 0.294569
0.213546 -0.199981
-0.133356 0.142233
-0.281945 0.337862
-0.146687 0.263055
-0.360208 -0.476910
0.365228 0.055671
-0.043202 -0.026032
0.033912 0.004958
0.050340 -0.241104
-0.162470 -0.184596
0.186502 0.579535
0.223006 -0.368036
0.116804 -0.480667
-0.338392 0.267189
-0.197702 -0.109768
-0.176398 -0.107195
0.174838 -0.133064
-0.384098 -0.213395
0.166208 -0.009426
0.015020 -0.195464
0.110932 0.227026
-0.172849 0.222112
-0.264683 -0.110906
0.225967 -0.196078
-0.197422 -0.129103
0.161177 -0.382482
-0.001555 -0.033004
0.055609 -0.144221
0.108509 -0.089675
-0.241142 -0.196948
0.003681 0.249193
-0.396312 0.072413
0.180843 -0.153980
0.066932 0.194597
-0.113599 0.239753
-0.074880 -0.294386
-0.155654 -0.141085
-0.233323 0.147299
-0.141699 0.171309
-0.112060 -0.221734
0.658355 0.545487
-0.393294 0.115430
0.081354 -0.081181
0.034892 0.120624
0.011692 0.334886
0.392526 0.025746
0.159763 -0.090593
-0.118402 -0.202978
-0.052207 0.279442
0.196434 -0.342070
-0.101188 -0.049101
-0.300919 0.076838
-0.124698 -0.142645
0.184991 0.169635
0.371402 -0.221129
0.001045 -0.072897
-0.235675 -0.169423
-0.154993 0.189438
0.209139 -0.126338
-0.084914 -0.117471
-0.149510 0.002181
0.015346 0.104158
0.047481 0.106254
-0.255450 0.102811
0.218151 -0.065738
0.144414 -0.213838
0.130138 0.104504
-0.224053 0.030393
-0.153891 0.013855
0.177062 -0.093326
0.240996 -0.234393
-0.090660 -0.131458
-0.301935 -0.166157
-0.260003 -0.162976
-0.082043 -0.269464
0.363602 0.221197
0.248898 0.356035
-0.178324 -0.143112
-0.087311 -0.057127
-0.366253 0.035954
-0.075917 -0.076369
-0.083894 0.165980
0.083287 -0.108881
-0.139585 0.224091
-0.206419 -0.122463
0.141131 0.122252
0.294300 0.337968
0.120336 0.216499
0.095815 -0.100297
-0.026325 -0.261107
-0.013003 0.113590
0.145333 0.227794
-0.359055 -0.116688
-0.030690 0.164889
0.027255 -0.118100
0.216408 -0.051794
-0.077329 0.017228
0.371791 -0.202181
0.078969 -0.061382
-0.199456 -0.092796
-0.387395 -0.222810
-0.285149 0.009310
-0.135285 0.068568
-0.120374 0.157761
-0.251109 -0.128380
0.177580 -0.239406
0.243651 0.021537
-0.261323 -0.334816
-0.019427 -0.338939
-0.185954 0.008668
0.101007 0.119455
-0.088687 -0.060210
0.252651 0.111241
-0.083127 0.226376
0.289060 -0.261370
0.037256 0.360672
-0.031247 -0.026210
-0.219240 -0.243472
0.291491 -0.471857
0.136109 -0.010492
-0.448001 0.228273
-0.086240 -0.091875
0.702210 -0.192098
0.077781 0.073675
0.204749 -0.026151
-0.108331 -0.004468
-0.118369 0.211391
0.166286 0.030152
0.048321 -0.018904
-0.117491 -0.056151
0.147696 0.260095
-0.398545 -0.497194
-0.038331 -0.136860
-0.108556 0.062190
-0.052426 0.243555
0.037162 0.131634
0.029376 -0.119576
-0.039703 -0.051978
0.119403 0.142874
0.201488 -0.058414
-0.331121 -0.232394
-0.084003 0.016641
0.138423 -0.344703
-0.003936 -0.050339
-0.116959 0.231422
0.011487 0.073001
0.098732 -0.305687
-0.035008 0.349086
-0.363610 0.042086
-0.089861 -0.059711
-0.107075 -0.128072
-0.166462 0.014377
-0.303819 0.034201
-0.019726 0.157753
-0.102175 0.057282
0.090628 -0.128709
0.064645 0.197407
-0.079187 -0.336857
-0.249521 -0.105409
0.246024 0.126096
0.014747 0.211332
0.324803 -0.135908
0.220762 -0.044056
0.006157 0.066047
-0.034835 -0.086134
0.157325 -0.093832
-0.118414 0.090532
-0.034563 0.160015
-0.275923 -0.143283
0.072789 0.061853
-0.244366 -0.489067
-0.183429 -0.289382
-0.034268 -0.062636
-0.091780 -0.162674
-0.044566 -0.377080
-0.020327 0.449802
0.094625 0.115543
-0.264439 -0.021201
-0.293898 0.024135
0.207245 0.126113
-0.259623 0.082401
-0.097506 -0.245236
0.124244 -0.020573
-0.044614 -0.090128
0.009471 0.098572
-0.251621 0.015052
0.222585 -0.194032
0.350300 -0.345661
-0.295880 0.079465
-0.302956 -0.227051
0.045016 -0.316486
-0.143094 0.023082
-0.261897 -0.024618
0.034531 0.298946
0.112449 -0.328339
-0.003030 0.062275
-0.076068 0.079770
0.110114 0.307759
-0.244772 0.022197
-0.143741 0.029190
-0.237397 0.060673
-0.339410 0.249921
0.068653 0.206772
0.124649 0.341050
0.286280 0.191682
0.018958 0.154712
0.147173 0.149440
0.065976 0.279510
0.260487 0.000414
-0.033789 0.140290
-0.171998 -0.054822
0.088948 -0.011648
-0.152586 0.106065
-0.097013 0.069986
-0.039216 -0.140933
-0.295106 -0.044116
-0.408987 0.029339
0.134620 0.079938
-0.297708 0.114191
-0.157928 0.118133
0.074675 -0.162417
-0.091190 -0.304567
-0.291127 0.210679
0.083310 0.150132
-0.171165 -0.261217
-0.095357 -0.365160
0.278539 0.257843
-0.235630 0.295792
0.205846 -0.059641
0.348882 -0.157690
0.285240 0.263080
-0.262519 0.238708
0.306606 -0.086013
-0.267703 -0.090233
0.088055 0.091636
0.281909 0.259784
0.025572 0.003824
0.153810 -0.564996
0.084694 -0.193937
0.041114 -0.125027
-0.051411 -0.029149
-0.182438 -0.058698
0.292256 0.096452
0.165673 0.067043
0.231087 0.485712
0.159835 -0.033175
-0.418290 0.014797
0.160978 0.057985
0.275906 0.008706
-0.040880 -0.212543
0.046757 -0.019987
-0.097043 -0.252152
0.118775 0.111989
-0.163789 0.235261
-0.001025 -0.009244
-0.236083 -0.011226
-0.298212 -0.248548
-0.014475 0.019557
-0.161194 0.121890
0.237029 0.220606
-0.152526 0.096780
0.095632 -0.230014
-0.209142 0.087693
0.187693 -0.414651
0.017715 0.284162
0.120605 -0.147893
-0.230883 0.344434
0.254617 -0.258929
-0.209464 0.464514
0.028797 -0.163808
-0.119725 -0.137895
-0.060323 -0.037227
-0.113837 0.027551
0.042001 -0.227417
-0.045754 0.374629
0.035419 -0.200422
-0.194679 0.077284
0.115763 -0.354956
-0.087610 -0.091873
0.121850 0.025926
0.022746 -0.029789
0.063027 0.071917
-0.104401 -0.221449
-0.087441 -0.049267
0.050402 0.064297
-0.239748 -0.002825
-0.126395 0.168906
0.079897 0.214009
0.209665 0.062485
0.288186 -0.151161
-0.100844 0.148505
-0.009055 -0.131289
0.225161 -0.052882
-0.392556 -0.019607
-0.479884 -0.201275
-0.115817 0.281319
-0.096991 0.099240
-0.206843 0.075055
-0.112441 0.040442
-0.155925 -0.018195
-0.115507 0.099918
0.069312 0.266131
-0.193352 0.038636
0.409959 -0.024693
0.298681 -0.036297
-0.075032 -0.105892
-0.162833 0.191785
-0.122236 0.326116
0.101359 0.262381
0.186120 0.087839
0.139286 0.034512
-0.089247 0.151527
0.187989 -0.102325
0.064522 -0.042091
0.027194 0.074027
0.050346 0.003889
-0.218668 -0.107153
0.333016 0.104462
0.091333 0.495875
0.052492 -0.186001
-0.055833 -0.023577
-0.019605 0.086313
0.353052 -0.093384
-0.039030 -0.063266
-0.112575 -0.028632
0.008711 0.069406
-0.239340 0.002175
0.360185 0.009262
0.086339 -0.021520
0.050920 -0.106141
0.168796 0.043068
-0.146304 0.147728
0.023625 0.007163
0.115766 0.098926
-0.103571 -0.253833
-0.076148 -0.130764
0.272257 0.012061
-0.262089 0.072595
0.053167 -0.048435
0.004533 0.118784
0.070495 -0.015513
0.053112 0.136966
0.034938 0.011264
0.383508 0.053820
0.142742 -0.138335
0.203756 -0.063497
0.016653 0.010972
0.181100 -0.258006
-0.098405 0.024962
0.109013 -0.248420
-0.003865 -0.389003
0.006853 0.338238
-0.070719 0.034282
-0.303882 -0.046690
-0.040284 -0.078651
0.176408 0.275507
0.036375 -0.094155
-0.051786 0.021683
0.071158 -0.243011
-0.018983 -0.076668
-0.027585 0.005236
-0.184156 0.122142
0.217549 0.141503
0.113528 0.023888
0.104966 0.053429
0.060505 -0.288675
0.063162 -0.105886
-0.139746 -0.105534
0.031721 -0.216033
-0.073016 0.046101
-0.093699 0.096481
0.214068 -0.136942
0.045433 0.003996
0.232157 0.348014
-0.010955 0.099588
-0.117177 -0.247680
-0.121887 0.070266
-0.207249 -0.063757
0.369266 -0.116621
0.023830 0.073974
-0.049699 -0.026635
-0.217892 0.015043
0.076055 0.057626
0.091362 0.017141
0.216806 0.320526
-0.054103 -0.188870
0.116975 -0.098507
-0.027080 0.105017
-0.027283 -0.011639
-0.057310 -0.155999
-0.004864 0.044904
-0.178333 -0.098872
0.024015 -0.310549
0.140160 0.068441
-0.117178 0.026792
-0.127035 -0.026413
0.183145 0.175094
0.205532 -0.223002
0.068215 -0.189682
-0.205476 -0.012414
0.154110 0.046818
-0.013607 -0.267742
0.141066 -0.132203
-0.274215 -0.183563
-0.224901 -0.230559
-0.042199 0.099864
-0.229728 0.330809
0.288025 -0.095473
0.235004 -0.023984
-0.168126 -0.015734
0.085876 -0.159068
0.017963 0.240964
-0.197714 0.074266
0.101930 0.034339
0.086275 -0.125409
-0.280925 -0.109015
0.024342 -0.405163
0.044906 -0.080133
-0.057410 -0.184629
0.344612 0.025123
-0.320356 -0.257874
-0.040069 -0.220702
-0.223003 0.066601
-0.118389 -0.259489
0.123762 0.118896
0.002350 0.097203
0.241614 -0.347085
-0.200760 0.126284
0.225177 -0.134115
-0.187589 0.003704
-0.099968 0.110838
-0.065646 0.212180
-0.029160 -0.094206
-0.205725 -0.135054
-0.070078 -0.215650
0.015377 0.173059
-0.099797 -0.284661
-0.011034 0.324067
0.128061 0.198323
-0.322914 0.052786
0.174098 -0.061567
-0.135807 -0.140540
0.061621 0.081293
0.028814 -0.148803
-0.090729 0.339722
0.512194 -0.291050
-0.090179 0.164824
0.234409 -0.117706
0.336085 -0.376617
-0.072182 0.105111
0.259585 -0.013471
0.276563 0.497775
-0.073062 0.376480
-0.539146 0.013605
-0.251935 0.259900
0.059624 -0.440825
-0.041950 -0.010668
0.152351 0.219995
-0.137856 0.135037
-0.171321 0.215778
-0.308457 -0.266736
-0.525046 0.009298
-0.238393 -0.334764
0.373316 -0.069556
-0.395777 -0.021514
0.377294 -0.097545
0.271970 0.123260
0.107747 -0.202570
-0.204445 0.001447
0.192921 0.126534
0.033675 0.068255
0.205172 -0.040858
0.007657 0.095949
-0.456866 -0.202368
-0.221382 0.216291
-0.155201 -0.006640
-0.250610 -0.097702
0.191674 -0.020542
-0.109031 -0.245418
-0.191510 -0.115872
0.159171 -0.168170
-0.073837 -0.010441
-0.090733 0.017493
-0.105635 -0.071683
0.083964 -0.083960
0.190557 0.009107
-0.146378 -0.104921
0.065294 0.114779
0.102201 0.143021
-0.223708 0.104387
-0.187043 -0.094168
-0.142880 0.298520
-0.144668 -0.149366
-0.433942 -0.101630
-0.027717 -0.156771
0.065921 0.070603
-0.099991 -0.023331
-0.027300 -0.129506
0.295523 0.025517
-0.223356 -0.169825
0.287021 0.121086
0.160107 0.061340
0.310355 0.059390
-0.007028 0.257654
0.366155 -0.166789
0.163766 -0.146721
0.017729 0.062286
0.160144 0.362971
-0.422976 -0.032796
-0.155001 -0.099463
0.391249 0.192584
-0.154525 -0.108585
0.085716 0.054430
0.285829 -0.003106
-0.153607 -0.281005
0.227295 0.148604
-0.017511 -0.081978
-0.103351 -0.200729
-0.070264 -0.002303
-0.018201 0.205594
-0.076268 0.305905
0.084627 0.164269
-0.217209 -0.048937
0.126941 -0.120863
-0.165396 -0.064658
0.043529 -0.081477
-0.185479 -0.079137
-0.101244 -0.026290
0.327670 0.142579
-0.132097 -0.261275
-0.139881 -0.177761
0.166911 -0.066957
-0.000707 -0.036591
0.173620 0.063468
-0.052271 -0.100157
-0.093993 0.226822
-0.055844 -0.086650
0.160568 0.076771
-0.378837 -0.163601
-0.117405 0.189628
-0.219908 0.091339
-0.004749 -0.205276
0.239731 0.312097
-0.064540 -0.176988
-0.162223 -0.149385
-0.015464 0.136912
0.025659 -0.212854
0.180001 0.189867
0.159914 -0.254346
0.063976 0.039859
-0.139417 0.549463
0.005603 -0.029748
0.142375 -0.031956
-0.027488 0.173218
-0.096614 0.061455
-0.141658 0.060141
0.242739 0.166736
-0.081000 0.123649
0.021504 -0.489601
-0.323525 0.001840
-0.025947 -0.413918
0.211074 0.191494
0.112710 -0.101748
-0.189832 -0.146118
-0.165487 -0.196064
-0.084703 -0.045910
0.089884 -0.353693
-0.168581 -0.034704
0.048014 -0.126484
0.179966 0.382830
-0.274243 0.129437
0.169899 -0.024232
0.214832 -0.228874
-0.348954 0.052648
0.150566 0.097898
-0.097850 0.194409
0.147806 0.004705
-0.227507 -0.330601
0.172070 -0.000598
0.116509 0.117592
-0.121598 -0.430233
0.090940 0.058343
-0.031248 0.370894
0.126260 0.204312
-0.147775 0.077941
-0.116639 -0.089338
0.043904 -0.178495
-0.102022 -0.096973
-0.152487 -0.243339
0.017893 -0.003280
-0.327255 0.043305
-0.062078 -0.047268
-0.049473 -0.061563
0.126108 -0.090160
-0.236788 0.139374
-0.070648 -0.057902
0.210972 -0.270525
-0.118675 -0.029369
0.006083 -0.043487
0.073425 -0.162765
0.218234 0.001133
-0.159567 0.142052
0.101709 -0.243083
-0.266731 -0.312285
-0.061945 0.122299
-0.029908 0.197709
0.141667 0.212073
0.103035 0.005065
-0.080565 -0.130270
0.071214 -0.262257
-0.077355 -0.120866
-0.003241 0.031813
0.126211 -0.061067
-0.035622 0.209357
-0.047969 0.031597
0.064409 -0.155944
-0.020257 0.010549
-0.066866 -0.219734
-0.017659 -0.029655
-0.088529 -0.085888
-0.027493 0.353658
0.081526 0.044128
0.106794 0.033930
-0.254572 0.054336
-0.055642 -0.153103
0.028770 0.012317
-0.201461 -0.158413
0.031173 -0.169260
0.049843 0.134881
-0.320947 0.075117
0.062845 0.102047
-0.136063 -0.054527
0.038935 0.129650
-0.194253 -0.062163
0.228091 0.567092
-0.160162 0.307078
0.102295 0.063832
-0.373695 0.362389
0.111625 0.140810
-0.027904 0.218436
-0.305383 0.135388
-0.008263 -0.040396
0.081651 -0.099320
-0.151493 -0.014760
-0.359047 0.028315
-0.274932 -0.083139
-0.179726 -0.486986
-0.086075 0.227881
-0.213045 0.066659
0.028078 -0.032630
-0.010564 -0.162676
0.081674 -0.065170
-0.103342 0.010267
0.019714 -0.159375
-0.226172 -0.208376
0.153361 -0.078522
0.165242 0.271786
-0.132865 0.381737
-0.004148 0.071530
-0.100292 -0.222153
0.060251 0.225033
0.066661 0.136892
-0.161050 0.106140
-0.156141 -0.184253
0.146166 0.169724
-0.061949 0.041973
-0.255330 -0.168294
0.059102 0.083940
-0.177314 -0.168897
-0.014234 -0.448979
0.269907 0.167657
0.040679 -0.043437
-0.071543 0.034530
0.313586 -0.159546
-0.120602 -0.022045
0.122943 -0.132108
0.090317 0.460303
0.075969 -0.221067
-0.146309 0.278484
0.000369 0.141275
0.046052 0.396396
0.149243 -0.267759
-0.367815 0.220046
-0.105805 -0.226958
0.163149 -0.097649
0.209208 0.043591
0.028577 0.304012
-0.177297 0.278571
0.344928 0.015508
0.315013 -0.014640
0.040716 0.130186
0.150616 -0.002499
0.244157 0.113028
0.196696 -0.252727
-0.133170 0.141439
-0.023074 0.259106
0.063484 0.009098
0.056504 -0.046196
0.477586 0.172449
-0.015537 -0.064439
-0.072701 -0.025007
-0.086800 0.201705
0.107940 0.058220
0.096288 0.108105
-0.234459 0.063728
-0.027046 0.009738
-0.118694 -0.215162
0.133232 0.129720
-0.146907 -0.018942
0.182756 -0.213035
-0.111230 -0.281959
0.250654 -0.067448
0.015474 -0.113411
0.095144 0.068219
-0.139928 0.029613
0.119471 -0.109854
-0.161221 -0.286468
-0.297738 -0.205719
-0.003896 0.057315
-0.061113 0.120953
-0.198672 0.196777
-0.247747 0.190382
-0.119367 -0.077789
-0.033928 -0.219800
0.517496 0.056524
-0.046167 0.151016
-0.090029 0.229714
-0.148767 -0.197733
0.010544 0.405267
-0.231046 -0.181777
0.027869 0.027208
-0.105639 -0.290769
-0.722178 0.259789
-0.010371 -0.035774
-0.128720 0.117981
-0.090405 0.019224
-0.191944 0.067964
0.309370 0.133401
0.072789 -0.055855
-0.196599 0.081224
0.353156 -0.046974
0.006046 0.052529
-0.016989 0.449013
0.304643 -0.094273
0.028570 -0.257173
-0.180783 -0.115388
0.106841 0.049837
0.079349 -0.150170
-0.127100 0.039543
-0.030292 -0.032858
0.381537 0.468000
0.225581 -0.191600
0.202983 -0.118625
-0.096887 0.046934
-0.187380 0.013030
0.146091 -0.697743
-0.026186 0.239164
0.518124 -0.253468
0.026212 -0.218509
-0.446387 -0.154960
-0.014438 -0.071231
-0.104271 -0.250131
0.316284 0.044161
-0.034351 -0.115410
0.370485 -0.176249
0.103891 -0.173911
0.229112 0.199544
-0.091047 -0.190524
0.207691 0.056219
0.343698 0.335109
0.012655 0.217799
0.085391 -0.251396
-0.017870 -0.021320
-0.030422 -0.019388
-0.132842 0.060109
0.112306 -0.039780
-0.330969 0.114099
0.086107 0.121228
-0.251504 -0.296828
0.153591 0.166907
-0.152137 0.389439
-0.311544 0.293389
-0.362211 -0.071809
-0.001976 0.063833
-0.334552 0.525060
-0.088892 -0.092207
0.279598 0.154581
-0.417814 -0.347002
-0.035347 0.314165
-0.182437 -0.055051
0.274160 0.172678
0.169500 0.076813
-0.099803 -0.349121
0.085674 0.006695
-0.043795 -0.071884
0.255070 -0.193995
-0.007193 -0.176400
-0.119121 -0.218503
-0.134506 0.281347
-0.037015 0.053554
-0.164638 0.003645
0.025668 0.160852
-0.020823 -0.054714
-0.078560 -0.449516
0.325581 -0.482850
-0.222087 0.121367
-0.215762 -0.304665
0.324912 0.276807
-0.068185 0.078450
0.201231 0.035905
-0.026887 0.247218
0.435336 0.081189
0.049050 -0.137017
-0.133400 -0.649086
-0.123696 -0.047708
-0.163446 0.039523
0.038521 0.285963
-0.237268 -0.067236
0.040746 -0.424284
-0.143887 0.444040
0.050626 0.540069
-0.005296 -0.093435
-0.238553 0.053508
0.046536 0.009655
-0.068133 -0.034026
-0.374008 0.297253
-0.057433 -0.134055
0.225413 0.162426
0.248103 0.258533
0.371800 -0.442240
-0.152019 -0.156659
0.164064 -0.218583
-0.123057 0.058463
-0.126448 -0.336531
0.151360 -0.185919
-0.211885 0.170036
-0.314529 0.128513
0.340065 -0.133180
-0.009466 0.184596
0.002396 0.185828
-0.161417 -0.111925
0.425855 0.193151
0.277424 -0.143119
-0.367887 -0.208061
0.061006 -0.106768
0.366892 -0.389769
0.175935 0.088972
0.347022 0.092603
-0.085708 0.239322
-0.547582 -0.624888
-0.089474 -0.015934
-0.145449 -0.042664
-0.134088 0.432178
-0.263489 0.095277
0.225335 -0.338987
-0.496837 0.559422
-0.213510 -0.087292
-0.046171 0.033594
0.006128 0.175470
-0.151031 -0.379201
-0.222177 0.490276
-0.165087 0.090862
-0.480967 -0.201146
-0.122220 -0.060851
0.173132 0.341248
0.045580 -0.104225
0.172613 -0.200285
0.460872 0.612963
0.199133 0.112517
-0.074963 -0.123838
0.295057 -0.356188
-0.029221 -0.119905
0.478073 0.394310
-0.115455 -0.001344
-0.184515 -0.059997
0.093025 0.092741
-0.245984 0.188029
0.191663 0.067401
0.442617 -0.075311
-0.060545 0.216011
-0.126031 0.020440
-0.105261 -0.216721
-0.256793 -0.455648
-0.233098 0.152460
0.082155 -0.145796
-0.228840 -0.500051
0.189939 0.092586
0.005951 0.346651
-0.224441 -0.081122
0.240782 -0.018540
0.017191 -0.579810
0.049544 0.097351
-0.662677 -0.172984
-0.138920 -0.064440
-0.339098 0.263112
0.160688 -0.028150
0.074040 0.426911
0.040824 -0.143261
0.119057 0.035649
0.026441 0.026708
0.626909 0.041954
-0.107724 -0.088577
0.281024 -0.209538
0.272129 -0.292178
-0.166600 0.117320
0.078094 0.320263
0.048104 0.218690
0.125267 0.190743
0.111984 -0.236696
-0.085936 0.010949
-0.636035 0.465485
0.128900 -0.137372
0.030399 0.157378
-0.222876 0.327413
0.071388 0.377920
0.405285 0.123142
0.240468 0.212681
-0.013789 -0.075761
0.269308 -0.325893
0.015579 0.645103
-0.373299 -0.129886
0.185691 -0.707426
-0.313312 -0.276725
-0.278466 -0.099375
-0.175533 0.048140
-0.243003 -0.585961
0.123707 0.084509
-0.021624 0.174913
0.044077 -0.124174
-0.176921 -0.188802
-0.325591 0.107511
-0.511179 -0.026184
0.097024 0.170295
-0.087702 -0.088449
0.071404 0.071791
-0.163407 -0.100966
0.001147 0.160646
-0.038565 -0.029345
0.104101 -0.403916
-0.089609 0.148192
-0.089488 0.123725
0.096765 0.128243
0.387965 -0.097294
0.313005 -0.313791
0.042840 0.202461
0.247007 -0.149397
0.156262 0.118022
-0.266546 -0.014046
-0.108894 0.103015
0.206863 0.028458
-0.494713 0.332589
-0.096020 -0.030423
0.112178 0.188576
0.046537 0.414343
0.227372 0.142622
0.124913 0.104806
-0.011359 -0.072146
0.162723 0.039391
0.252148 0.328825
-0.119697 -0.329122
0.017173 0.156023
-0.336909 -0.120925
0.563121 -0.114524
-0.238428 -0.615149
-0.244614 -0.187211
-0.550007 -0.199621
0.067173 0.182954
0.161003 -0.291091
0.294847 0.271808
0.178112 -0.524516
-0.398985 0.054899
0.225332 -0.008833
-0.065783 -0.381141
0.137808 -0.192437
0.242914 0.003531
0.218916 0.168173
-0.094364 -0.107237
-0.155858 0.136220
-0.124020 -0.016489
0.148277 0.212784
-0.005288 -0.275960
0.021678 0.155176
0.035682 0.480153
-0.039324 -0.257410
0.149180 -0.265899
0.217740 0.366569
-0.086616 0.325679
-0.338785 -0.257114
0.285973 0.080240
-0.350742 -0.512571
-0.281053 0.519410
-0.032226 0.047788
0.005668 0.284574
-0.003234 -0.012694
-0.068653 0.097366
0.347471 0.022459
-0.461828 0.088970
-0.013362 0.451647
0.127670 0.328393
-0.113039 -0.049209
0.009885 0.151416
0.131594 0.508766
0.050116 0.124598
-0.378465 -0.053259
-0.092937 -0.254862
0.110016 -0.241435
-0.049340 -0.137942
0.276996 0.169152
-0.458781 0.202440
-0.140413 -0.197941
-0.195560 -0.017538
-0.128369 -0.233566
0.168271 0.107336
0.028068 -0.033072
-0.432807 -0.105258
-0.380485 -0.121822
-0.200387 0.142932
0.056729 -0.048709
0.078945 0.006225
0.281215 0.024120
0.439776 -0.054159
-0.012899 -0.312199
0.223637 -0.432561
0.354251 0.101370
-0.171000 0.176936
-0.083448 -0.128279
0.203883 0.039703
-0.110424 -0.000377
0.176656 0.060786
-0.034511 -0.123043
-0.159254 0.179683
-0.402635 -0.477086
0.523423 0.602354
0.067452 0.162676
0.307792 -0.251770
0.148543 0.100415
-0.137488 0.082949
-0.309129 -0.390841
0.419699 0.295432
0.097468 0.212364
0.351882 0.007428
-0.391447 0.028251
0.100541 -0.001896
0.368286 -0.093693
0.270756 -0.442688
0.118031 0.215134
-0.049075 -0.099488
0.486233 -0.016584
0.206013 -0.019977
0.278000 0.250724
0.184448 0.220737
-0.262136 -0.423238
0.198280 -0.148444
-0.043581 -0.011759
-0.006123 0.208363
-0.089677 0.001629
-0.037094 -0.080126
0.175607 -0.429808
0.163587 -0.002107
-0.383593 -0.283215
0.006234 0.166206
0.628870 -0.348170
0.079203 0.077943
0.108321 0.099434
-0.095973 -0.093703
0.319760 -0.299656
-0.330364 -0.045907
0.042928 0.218596
-0.054122 0.257721
-0.039129 -0.154808
0.003378 -0.190068
-0.321837 0.169941
-0.533113 -0.073930
-0.048711 0.106601
-0.347559 -0.325639
0.038233 -0.309416
-0.056874 -0.094000
-0.130255 -0.212055
-0.382553 -0.179448
-0.433367 -0.414687
0.127576 0.360986
-0.188044 -0.506487
0.175556 -0.156282
-0.195631 0.177776
-0.052881 0.064625
0.096889 -0.534941
-0.115905 0.137966
-0.007825 0.073761
0.001642 -0.120378
-0.090169 -0.424445
-0.231517 0.148838
-0.251568 0.007696
-0.157093 0.385839
-0.015374 0.066356
-0.200980 -0.255653
-0.260504 -0.138186
-0.160346 -0.223694
-0.507687 0.087323
-0.226789 0.186612
-0.009013 0.227672
-0.021752 -0.005501
-0.384748 0.039161
0.001998 -0.050593
0.226413 0.232995
0.181856 -0.095872
0.104002 0.234280
0.068675 0.063250
-0.042787 -0.311506
-0.087606 -0.187602
-0.228302 0.313016
0.012521 -0.031969
0.012271 -0.159044
-0.173814 0.042049
-0.023098 0.264630
0.119405 0.276561
0.044199 -0.164441
-0.559467 0.182630
0.060394 -0.173155
-0.141467 0.055951
-0.076894 -0.001575
-0.068064 0.227178
-0.011583 0.502369
-0.017396 -0.062301
0.236279 0.332312
-0.069352 -0.190888
0.017743 -0.056050
0.099258 0.325791
-0.035486 0.323162
-0.040896 0.018658
-0.044333 0.109708
0.482667 -0.030275
-0.093660 -0.067737
-0.059094 -0.180204
0.367032 0.449913
-0.055211 -0.204589
0.358629 -0.318447
0.151849 0.093665
-0.019302 -0.137342
0.001878 -0.108571
0.075085 0.029191
0.037374 -0.154828
0.016315 -0.048902
-0.108870 0.253417
0.360090 0.360556
-0.076679 0.093858
0.090136 -0.044504
-0.337552 0.482668
-0.045295 0.051357
-0.089141 -0.101991
0.163237 -0.207770
0.023947 -0.117127
-0.215325 0.243195
0.145521 -0.194171
-0.090660 0.174527
-0.097439 0.243601
0.190592 -0.105677
-0.067892 -0.120788
0.261618 0.124364
-0.311389 0.026164
-0.217565 -0.276891
-0.269317 -0.049050
-0.208453 0.078875
0.104959 -0.165961
0.112517 -0.229467
0.040028 -0.407817
-0.121631 0.165720
-0.518899 -0.194803
-0.213804 -0.239086
0.082577 0.261735
0.304291 0.020471
0.198241 -0.021867
-0.040070 -0.167603
0.057584 0.153716
-0.295650 0.426861
0.116877 -0.106242
0.127211 0.153083
0.047081 0.101819
-0.168861 0.314983
-0.005006 -0.238288
-0.489613 0.370631
-0.056845 -0.107338
0.163287 -0.013055
-0.102531 0.123042
0.002405 0.286372
0.176561 -0.363220
0.291045 0.338316
0.075094 -0.021216
-0.071211 -0.012175
0.184397 -0.057174
0.306158 -0.232904
-0.199373 0.158903
-0.347584 -0.028326
0.150240 0.339937
-0.251143 -0.072517
-0.053161 0.004788
-0.083573 0.208302
-0.118121 -0.159814
0.113696 0.181760
0.122974 -0.379781
0.035659 -0.118591
0.104783 0.184261
0.097612 -0.088063
0.098959 -0.236319
0.088007 -0.233004
0.120680 -0.082893
0.122098 0.027521
0.082259 -0.311388
0.000705 0.021291
0.016453 -0.121943
-0.316013 0.069374
-0.319543 -0.368319
0.257611 -0.041852
-0.051691 0.544633
0.030085 -0.603669
0.116664 -0.125157
-0.253352 0.143757
-0.083143 -0.195437
0.022796 -0.217543
0.044429 0.363193
-0.088331 -0.181603
-0.017636 0.666317
-0.063089 -0.011299
0.206301 -0.052082
-0.360839 0.297784
-0.182816 0.073947
0.346328 0.062057
-0.254334 -0.131060
0.003650 -0.023589
-0.102930 -0.134729
-0.081377 0.102827
-0.250602 -0.101572
0.229095 -0.234747
0.074242 0.079610
-0.245673 0.192371
0.031289 -0.292045
0.243202 0.024656
0.059171 0.070502
-0.248560 0.209844
0.044648 0.427163
-0.100224 0.456233
-0.084856 -0.054619
0.022568 0.359075
0.092466 0.240824
0.235992 0.018512
0.192076 -0.185400
-0.207025 -0.100844
0.373607 -0.110982
-0.187072 -0.098289
-0.064857 -0.163070
-0.345216 -0.049158
0.069729 -0.135471
0.409840 0.090163
-0.205181 -0.372401
0.120796 0.230684
0.192264 -0.012880
-0.161721 -0.013752
-0.176560 -0.013502
-0.027505 0.123015
-0.281847 0.030874
-0.239332 0.166077
-0.247843 -0.033607
-0.186858 -0.062267
-0.062225 0.293332
-0.328211 0.117848
-0.112976 -0.398075
0.030352 -0.034391
0.449896 -0.204335
0.220741 -0.103932
0.161509 0.261334
0.100987 0.090917
-0.487333 0.108699
0.162927 -0.294112
0.218234 -0.086912
0.010260 -0.070599
0.238372 -0.100092
-0.206580 0.265848
-0.040416 0.650527
-0.351440 -0.105248
-0.219665 0.201008
-0.455138 -0.473697
-0.434813 -0.086006
0.115722 0.118824
-0.398567 -0.088965
0.092646 0.241138
-0.202725 -0.214911
0.069533 -0.037829
0.064775 -0.153631
0.146747 -0.118789
0.178415 0.226181
-0.129081 -0.057310
0.077977 0.306148
0.006353 -0.073593
-0.085087 0.236696
0.397096 0.119074
0.221715 -0.282688
0.258329 0.049933
-0.203058 0.108493
0.481331 0.277658
0.122684 -0.041373
-0.098385 0.003719
0.295380 0.148298
0.083779 -0.291853
-0.206537 -0.042019
-0.065744 -0.020476
0.284857 -0.149748
-0.236209 0.341860
0.053180 -0.161237
0.069808 0.057079
-0.209421 0.051745
-0.011221 0.343705
-0.082015 -0.066195
-0.174077 -0.033217
0.303745 0.020609
0.142978 0.047392
-0.034494 -0.049896
0.158590 0.145935
-0.041584 0.454691
-0.147154 -0.202766
0.044598 -0.115365
-0.064750 0.000943
-0.339400 0.155277
-0.127868 0.173483
-0.113947 0.166661
-0.073849 -0.164783
0.103914 0.079776
-0.284053 -0.008341
0.152236 0.041071
-0.376658 0.351389
0.101294 -0.278801
0.112107 -0.123521
-0.072377 0.123989
0.065484 -0.010263
-0.119836 -0.168389
-0.319491 0.004461
-0.107178 0.238997
0.421061 -0.083883
-0.045598 0.132917
0.019408 0.067396
0.070986 -0.154497
0.102849 -0.290053
-0.230075 0.192232
-0.073619 0.256709
-0.163468 0.095487
-0.028703 0.392328
0.078663 -0.180931
0.256371 0.055717
0.118213 0.251628
0.097212 0.024350
0.071508 -0.088823
-0.164825 -0.178419
0.170054 -0.159472
0.006347 0.285063
0.156565 -0.026844
0.080445 0.098241
-0.146418 0.102007
0.044445 0.172740
-0.248966 -0.060023
0.228088 -0.082857
-0.048117 -0.200724
0.007153 -0.070077
-0.195397 -0.003709
0.288553 -0.082350
-0.036440 0.065451
0.234198 -0.084883
-0.064916 0.107936
0.021189 0.200890
0.218524 0.010587
0.194592 -0.046992
0.099909 -0.163502
-0.020648 0.012136
0.001410 -0.091289
0.201634 -0.058241
-0.070577 -0.316582
0.124326 0.094290
0.051757 -0.142892
-0.233334 0.163156
-0.193594 0.062320
0.234819 0.101271
-0.093481 0.181682
0.149279 0.148992
-0.120017 -0.048385
0.045973 0.001250
0.234776 0.220962
-0.191107 -0.007130
0.007574 -0.052545
-0.279081 -0.028315
-0.306615 -0.060647
0.254445 0.071894
-0.015825 0.356591
-0.092403 -0.030029
0.226367 -0.124106
-0.138717 -0.282830
-0.063855 0.014892
-0.154078 0.047590
-0.298788 0.043032
0.237181 0.243131
0.167225 0.435641
-0.081947 0.212402
0.130753 -0.263959
0.033508 -0.024115
-0.115595 -0.020046
0.152523 -0.098432
0.073181 -0.276382
-0.043689 0.091434
0.152867 -0.100325
-0.049257 -0.117352
0.111213 0.022559
-0.042486 -0.078683
0.281837 0.093928
0.228183 -0.077216
0.002885 0.088795
-0.154478 -0.001000
0.115965 -0.164585
0.113132 -0.142986
0.030274 -0.153127
-0.178973 -0.019578
-0.238544 0.195804
0.112912 -0.042377
0.083801 0.235240
0.135450 0.071161
0.103320 0.180077
0.223669 0.214380
0.105049 -0.046122
-0.150997 -0.146271
-0.112491 0.090605
0.276262 -0.034032
0.040803 0.092826
-0.010431 -0.164935
0.189524 -0.222203
-0.271161 0.153076
0.297719 0.087989
0.017096 -0.032039
0.020780 -0.030126
0.122322 -0.178734
0.112396 0.130162
-0.071575 0.209543
0.183078 0.017946
0.069392 -0.124455
-0.133539 -0.119996
-0.126116 0.001244
0.007013 0.028837
-0.099492 -0.075539
0.069266 -0.090136
-0.283519 -0.118665
0.039100 0.023453
-0.262608 -0.123737
0.234813 0.076755
-0.316145 -0.179792
-0.076407 -0.128310
-0.035939 -0.148663
0.123258 -0.250267
-0.191418 0.128245
0.246347 -0.314504
-0.058798 0.164112
0.237304 -0.016428
-0.146565 -0.075562
0.204713 -0.066500
-0.053309 -0.315010
-0.062452 -0.000319
0.110218 0.109000
-0.168656 0.071263
0.036142 0.029814
-0.189412 0.245184
-0.210195 -0.162430
0.163063 -0.030680
0.316668 -0.129415
0.092463 -0.012355
-0.007535 -0.300021
-0.180365 0.029735
0.091975 -0.174646
-0.131829 0.373254
0.132016 -0.306400
0.142208 0.207192
0.040921 -0.164086
0.164715 -0.022490
-0.130168 0.057801
-0.194141 0.304221
0.009610 -0.075654
0.188355 -0.402470
0.152932 -0.525498
-0.180913 0.489182
0.184980 -0.067823
0.009132 -0.191616
-0.016433 -0.103633
-0.243023 0.155339
-0.601284 0.031680
0.040399 0.197707
-0.151916 -0.258704
-0.091250 -0.004815
0.094870 -0.111205
-0.299912 -0.336253
-0.253494 -0.032217
-0.189515 0.353503
0.269558 0.049553
0.131431 0.000913
-0.081266 -0.049188
0.025791 0.309592
-0.122417 -0.029595
-0.149471 0.043667
-0.173863 0.229729
-0.079172 0.050841
-0.103778 -0.054927
-0.117616 -0.123301
0.037190 -0.068178
-0.166436 0.140937
0.185286 0.110560
-0.031229 -0.443108
-0.097263 -0.017302
0.171105 0.156387
0.047216 0.022721
-0.274621 -0.125050
0.454523 0.051486
0.220728 0.008493
-0.216970 0.007786
0.009632 0.045999
0.116481 0.027970
0.013514 0.001338
0.046586 0.059993
-0.174647 0.111232
-0.094763 -0.024552
-0.001479 -0.078540
-0.113926 0.015816
-0.228918 0.178250
-0.108112 -0.011541
-0.072311 -0.075047
-0.099398 -0.123535
0.130868 0.045666
0.046613 0.033596
-0.094768 0.045116
0.157637 0.059461
0.248918 0.092663
-0.386254 0.220442
-0.090691 -0.098797
-0.128873 0.003175
-0.019750 -0.028930
0.125091 0.149230
0.097786 -0.137602
-0.011304 -0.168729
0.156304 -0.130978
0.138617 0.047698
0.074304 -0.174584
-0.066588 -0.153694
0.151674 -0.216862
-0.131145 0.074433
-0.022048 0.136098
-0.206473 -0.199816
0.203568 -0.096072
-0.059552 0.175522
-0.254654 -0.018200
-0.000522 0.166177
0.156369 -0.106537
-0.062727 0.414454
-0.180156 0.035763
-0.210611 -0.054698
-0.309514 -0.230080
0.172290 0.052633
-0.015711 0.030101
-0.106724 -0.251290
0.244233 0.118492
0.185096 0.332401
0.192745 0.025020
-0.132371 0.184512
0.043695 -0.166541
-0.065051 0.130144
-0.098317 0.033259
-0.446656 -0.132812
0.003682 -0.060078
-0.227115 0.089378
-0.217401 -0.041423
-0.010940 0.058040
0.155984 -0.201017
-0.050622 -0.082445
-0.038421 -0.103038
-0.042262 0.148358
-0.145278 0.145747
0.015875 -0.006308
0.113077 0.048568
0.130181 0.202387
-0.147234 0.000605
0.168913 -0.128915
-0.041150 0.415685
0.015567 0.027670
-0.031166 -0.012344
-0.117495 0.132652
-0.020188 -0.072969
-0.014072 -0.341341
0.212010 0.249080
0.066423 -0.194505
-0.074149 -0.187736
-0.174352 -0.257827
0.173754 -0.007413
-0.448969 0.242030
-0.102189 0.083158
-0.047769 -0.108693
0.071776 -0.278974
0.205815 -0.043177
-0.286510 -0.127011
-0.275968 -0.046538
0.054560 0.005203
0.254760 -0.199336
-0.012391 0.360175
-0.147708 0.228839
-0.408853 -0.031277
0.224664 0.102431
0.161766 0.236127
-0.343930 -0.115266
-0.389506 -0.039095
0.236181 0.076136
-0.121786 -0.003948
0.054363 0.038677
0.192619 -0.023808
0.082178 -0.055730
-0.087897 -0.029766
0.143400 0.344829
-0.082627 0.196323
0.144745 -0.040239
-0.021446 -0.001441
-0.214859 0.318812
0.128891 -0.089599
0.232128 0.087949
-0.126608 -0.142655
-0.164853 0.238322
0.137969 -0.297967
0.282352 0.156362
-0.116713 0.065192
-0.034413 -0.060606
0.139139 -0.260563
0.157248 0.288927
0.043834 0.187820
-0.201573 0.226133
-0.197733 -0.200049
0.253426 0.301483
0.037729 -0.196023
-0.122640 -0.178549
-0.211921 0.255760
0.282257 -0.008273
-0.226372 -0.043044
-0.052847 0.019265
-0.171868 0.096210
-0.136231 0.073542
-0.106229 0.324110
-0.092541 -0.354823
0.144134 -0.243067
-0.149430 -0.091732
-0.464309 0.002815
-0.253467 0.094523
-0.094059 0.218586
0.432571 -0.207051
0.215484 0.143823
-0.191131 0.286317
-0.218162 0.213024
0.056730 0.133837
0.226413 -0.032927
-0.215075 -0.092383
-0.349704 -0.251614
0.082074 0.010319
0.026598 0.048151
0.126996 -0.083566
0.096512 0.194774
0.337987 0.119357
0.102171 -0.200500
-0.092292 -0.260132
0.070363 -0.113126
-0.289344 0.194014
-0.140204 0.138393
0.211517 -0.007455
-0.153362 0.196141
-0.051609 -0.023226
0.100082 -0.112968
-0.078327 -0.139256
-0.243124 0.118902
-0.271861 -0.200542
0.114933 0.188791
-0.155390 0.239929
-0.092579 -0.083472
0.190416 -0.008737
0.043864 0.193384
0.230070 0.141799
0.181548 -0.063759
0.290749 0.127305
0.087892 -0.067108
-0.083144 -0.199811
-0.138265 0.149357
-0.109821 -0.149791
0.177783 0.082568
-0.220900 0.082024
0.266582 0.117657
-0.318919 0.039410
0.105744 -0.155740
0.063144 0.123627
-0.113378 0.240906
0.312653 -0.246409
0.153071 0.048002
0.108315 0.355036
-0.206576 0.009483
0.036684 -0.074998
-0.258681 0.152643
0.058519 0.325793
-0.079587 0.330625
0.049390 0.114800
0.181769 0.078914
0.098480 -0.215470
-0.061439 -0.392418
0.203006 -0.166513
-0.239848 -0.191916
0.308938 0.006843
0.054589 -0.057196
-0.082565 0.052812
-0.250702 0.130132
-0.310662 0.055853
0.146616 -0.298713
-0.244236 -0.142419
-0.068088 -0.200743
0.185909 0.067111
-0.474510 0.256418
0.026076 0.007543
-0.364385 -0.037652
0.224152 0.220558
0.184458 -0.063457
-0.026526 0.234131
-0.121482 0.061487
0.067661 -0.176909
0.268769 -0.264662
0.442049 0.168430
-0.161539 -0.020420
-0.107698 0.201102
0.221679 0.117835
-0.178448 0.372651
-0.211802 0.365613
-0.025374 0.099347
0.023159 -0.144160
-0.064342 -0.222072
-0.087059 -0.082112
0.197593 0.238547
0.209677 0.063272
0.027268 -0.254577
-0.044644 -0.162712
0.002794 0.026179
0.332475 0.141898
-0.355011 -0.349422
-0.060083 -0.173660
-0.076331 0.026667
-0.208440 0.230611
-0.059531 -0.301806
0.035446 -0.003051
0.290796 0.214584
-0.268805 0.452948
-0.473933 0.045799
-0.083963 0.204278
-0.362965 0.063848
0.058064 0.012025
-0.126893 -0.119037
-0.150444 0.325938
0.322781 -0.202117
0.209660 0.258919
0.163071 0.039403
0.039544 0.294647
-0.058909 0.327453
0.058335 0.003995
-0.090811 0.012485
0.304953 -0.346008
-0.236840 -0.536056
0.036149 -0.064525
0.250682 -0.281251
0.092833 0.208416
0.101264 0.013944
0.247607 -0.136942
-0.162367 0.012704
-0.127286 -0.015842
0.128467 0.362466
0.158224 0.086624
-0.213213 -0.277578
-0.228248 -0.282819
-0.020013 0.204596
-0.100265 -0.164447
0.106613 -0.341578
0.126432 -0.012096
-0.023046 0.059764
-0.222636 -0.244413
0.236822 0.048712
-0.023567 0.263409
-0.149654 -0.041546
0.343782 -0.132156
-0.235061 -0.082770
0.074471 0.089327
-0.060803 0.156148
-0.070557 0.289464
0.241502 0.001979
-0.261061 -0.085356
0.143521 0.330859
0.125433 -0.070941
-0.217563 -0.353746
-0.181909 -0.053226
-0.102912 0.059816
-0.008358 0.019162
0.071380 0.314259
0.062862 0.074973
-0.130747 0.107730
-0.185807 -0.068305
0.158049 0.125970
0.098126 0.116531
0.407785 0.142249
0.132602 -0.169600
-0.115528 0.286099
-0.114520 0.107829
-0.596399 0.093719
0.065332 0.369544
-0.012492 0.458669
0.170569 0.073688
-0.215697 -0.246738
0.156413 -0.126533
0.519110 0.597006
-0.048213 -0.141972
-0.252505 -0.051442
-0.171987 -0.086814
0.035759 0.025624
0.005963 -0.039611
0.035548 -0.023875
0.220972 0.198402
-0.367259 -0.096284
-0.447606 0.270592
-0.082038 0.327342
-0.010086 -0.208823
0.264089 0.123939
0.222493 -0.335846
0.296492 -0.015761
0.054884 -0.057160
0.233037 -0.079893
-0.316714 0.175654
-0.298805 -0.387872
0.091374 -0.033304
0.151235 -0.194726
0.121115 -0.163423
0.551979 0.449150
-0.429622 -0.308742
-0.279926 0.211494
0.063926 -0.099934
-0.029716 -0.299466
-0.138791 -0.210588
0.075788 0.048754
-0.108191 0.065582
-0.217899 0.224780
0.456404 0.052555
0.090920 -0.869272
-0.141548 0.101982
0.181434 0.138550
0.089650 -0.540338
-0.239090 -0.139924
0.149687 0.089619
-0.124154 0.052805
0.090945 0.026440
-0.143544 0.032287
-0.040222 -0.284305
-0.307964 -0.044127
0.070332 0.213474
0.437188 -0.054672
-0.271873 -0.202082
0.140613 -0.451974
-0.309749 0.159468
-0.138427 0.290892
-0.652878 0.449419
0.026289 0.409834
0.070153 -0.778097
-0.018908 0.203386
0.594759 0.016244
-0.052746 0.285009
0.121405 0.463524
0.477771 -0.260537
-0.181780 0.311516
-0.437875 -0.775592
-0.241327 0.217076
0.123264 0.240847
-0.239162 0.221341
-0.704077 0.573174
-0.552169 0.257207
-0.321511 0.082788
-0.085785 -0.068960
-0.243538 0.054282
0.201359 0.069349
-0.858414 -0.093794
0.011954 0.040630
-0.653683 -0.143680
-0.142683 -0.472608
0.444754 -0.286460
0.217178 -0.305816
0.014838 0.154147
0.157600 -0.028713
0.274187 0.208451
-0.116555 0.310202
0.287490 0.400863
0.492886 0.802484
0.249454 0.204883
0.307650 0.218426
-0.421910 0.339345
-0.163633 0.241348
0.261515 0.411166
-0.127980 -0.194675
0.054596 0.170584
0.292351 0.406116
0.015623 -0.112284
-0.154280 -0.243349
0.353364 0.807817
0.802073 -0.206603
-0.416609 0.243915
0.348173 -0.262857
0.318620 0.706243
-0.481210 0.334657
-0.374638 0.338512
0.226182 0.468308
-0.413091 0.017984
-0.070058 0.371653
-0.294807 0.125448
-0.532011 0.566959
-0.175099 -0.270096
-0.352602 -0.446887
0.434146 -0.270614
0.031056 -0.161877
0.169081 -0.222800
0.378681 -0.283332
-0.121182 -1.224949
0.010261 0.217591
1.078054 -0.474518
0.365787 0.352702
-0.568162 0.406615
0.447380 0.330204
0.443820 -0.428589
-0.593139 0.648299
0.309708 0.378879
0.136942 -0.213609
-0.197478 -0.045877
0.260481 0.232333
0.319500 -0.175279
-0.472001 0.171806
0.610006 0.575330
-0.223208 -0.188778
0.014310 -0.088897
0.251349 -0.776604
-0.491280 -0.224722
0.544524 -0.731546
-0.075627 -0.230482
-0.087863 0.021078
-0.484894 -0.147499
0.149929 0.698054
0.163921 0.016202
0.510503 -0.400461
0.180579 -0.322468
0.019474 0.326445
-0.118797 0.929393
-0.066946 -0.257891
0.226416 -0.641129
0.450481 -0.018546
0.516407 0.168574
-0.626750 0.532430
0.623859 0.196168
-0.199782 -0.071437
-0.013725 0.556566
-0.721069 0.106120
-0.495095 0.247236
0.034255 -0.164869
0.251538 0.321226
0.180811 0.167469
0.328167 -0.412994
0.097121 -0.025836
-0.650260 -0.415801
0.239397 -0.278172
0.023839 -0.496980
0.980163 -0.163607
0.046877 -0.542526
0.339669 0.347842
0.410287 -0.211259
0.280111 -0.060408
0.246061 -0.400254
0.156439 0.431773
-0.384852 0.284137
-0.751941 0.072834
-0.090313 0.141140
-0.137651 0.543082
-0.708234 0.220370
0.240864 -0.437394
-0.409620 -0.039728
-0.672067 -0.530081
0.144216 -0.233548
0.429737 0.488294
0.050907 0.568375
-0.908047 -0.613489
0.058755 0.183699
0.828990 -0.396734
0.068656 -0.667295
0.630919 0.910104
0.358932 0.095950
-0.492123 0.878594
-0.222194 0.101413
-0.369089 -0.929281
-0.573273 -0.135496
0.409933 0.275703
0.393150 -0.075067
-0.318964 -0.207621
-0.298023 0.319363
-0.299493 0.608513
-0.110787 -0.342074
0.811073 -0.296326
0.115657 0.256037
-0.362216 0.434432
0.054737 0.748742
-0.157960 0.560217
-0.459322 -0.590494
0.409866 -0.601854
-0.205673 -0.375829
0.492321 0.178951
0.588617 0.533317
-0.301848 -0.257555
-0.604910 0.499168
-0.318758 -0.680413
0.195325 -0.076616
0.335027 -0.423558
-0.407104 -1.068551
0.796738 0.665519
-0.098213 -0.480148
0.556409 0.341941
0.611321 0.220960
-0.429228 -0.150721
0.869586 0.285558
-1.070273 -0.277130
-0.308018 0.098528
-0.153294 0.412985
-0.118581 0.560578
-0.385811 0.419611
0.007390 -0.157179
0.420990 0.279015
-0.260905 -0.421677
0.314929 -0.294950
0.144060 -0.476547
-0.545479 0.154263
0.043861 -0.457262
0.180584 -0.933638
-0.713242 0.027022
0.323016 -0.473780
-0.104974 0.170771
0.060543 -0.428674
-0.424081 0.178433
-0.040341 0.840518
-0.300139 0.881703
-0.650346 -0.651970
-0.429571 0.222080
0.059338 -0.192415
0.591787 -0.772284
-0.052307 0.511737
0.808724 0.644315
0.270800 -0.497672
-0.192119 0.321545
0.501107 -0.181197
0.473735 -0.538282
-0.352556 -0.229252
0.084550 0.050883
0.838285 0.446624
-0.171177 -0.729032
-0.074532 0.285196
0.362884 0.383002
-0.444986 0.342152
-0.660384 0.148608
-0.175728 0.373030
-0.303056 0.693628
0.092546 0.347577
0.400647 0.188362
-0.478887 0.548767
-0.088879 0.247517
-0.079159 0.079637
0.610722 0.063680
0.447436 -0.746531
0.290387 0.749407
-0.261455 0.156921
-0.531236 0.101504
0.298585 -0.388308
-0.492099 -1.224459
-0.552176 0.759184
0.819393 -0.891805
-0.285771 -0.118267
-0.414031 0.152706
0.891770 0.084379
0.922650 0.260725
-1.098991 -0.000787
-0.057736 0.004228
-0.353994 -0.602380
-0.292686 0.203890
0.667072 0.045382
0.400780 -0.382785
-0.300158 0.554324
-0.510723 0.452347
-0.170115 -0.512270
0.346070 -0.438887
-0.790534 -0.206551
0.238235 -0.299290
0.612363 -0.672161
-0.069023 0.095344
0.642441 0.594826
0.320055 -0.117557
-0.234467 0.838443
0.730939 0.132146
0.092748 0.234954
-0.781824 -0.596161
-0.198512 0.175883
-0.731045 0.703832
-0.317064 0.269015
-0.891448 0.371391
-0.217642 -0.776346
-0.561512 -0.472785
0.148407 0.165177
0.090304 -0.047448
-0.118131 0.075400
0.700468 1.190524
-0.426278 0.491679
-0.029944 -0.330457
0.303234 0.057698
0.177463 -0.076083
-1.187120 -0.115751
-0.548489 0.192749
1.056637 0.397067
-0.245735 0.046718
-0.717739 0.847193
0.323297 -0.786929
-1.168728 0.307057
-0.994388 0.644380
-0.384320 -1.628650
-0.748371 1.001931
0.393062 -1.006118
1.358027 0.396267
0.903964 -0.590114
-0.275262 -0.647840
1.579643 0.217063
-0.205852 -1.482226
-0.689695 -0.100978
1.311391 -0.260543
0.409734 -0.316770
-0.417794 0.369879
0.559229 0.272649
-0.642844 1.015734
-0.196104 -0.557605
0.235639 -0.948403
1.198824 -0.437570
0.771497 0.014240
-0.564733 -0.048382
-0.495998 0.202285
-1.098095 1.331629
0.560281 0.079649
0.870657 -0.054558
0.193528 -0.092397
-0.157256 -0.616984
-0.274765 1.117703
-0.772837 0.263018
0.652061 0.927515
1.170336 0.270169
-1.315142 -0.141846
-0.145266 0.481509
0.190414 0.534226
0.114116 0.079956
0.115734 -0.361697
-0.212178 -0.545480
-0.540236 -1.562299
-0.496865 1.685781
0.969900 0.803243
-1.594975 -0.201069
-0.733978 0.621566
-0.940965 -0.826665
-0.747083 -1.018591
1.372711 1.254076
0.701012 1.106611
0.940499 1.366107
-0.995887 -2.165734
-1.015052 0.673740
-0.377152 -0.965084
0.796800 -1.681574
0.882172 1.762850
-0.281242 -0.157378
0.661090 0.563983
0.130236 0.276441
-0.889473 0.932675
1.389365 -0.064542
0.797854 0.872858
0.855585 0.389810
-0.552051 -1.277549
-1.844284 1.455802
-1.431873 -0.155174
-0.435340 -0.252499
0.125067 1.021331
1.083254 -2.354070
0.834132 -0.805802
-0.291487 0.106230
-0.086014 -0.531947
1.100448 0.373328
-0.333132 4.852411
1.359579 -2.592566
1.499439 -0.791889
-2.387766 2.016010
-1.022742 1.094264
0.624253 -0.795971
-0.132377 2.490824
-0.091009 -0.120017
-0.921368 -3.606031
-2.373080 2.122911
-1.387353 0.166897
1.938713 -1.030376
0.298174 0.008571
0.493571 -0.837157
2.026625 -3.155567
-2.478295 0.888185
-0.355739 1.867341
7.474456 -0.336178
0.763291 1.159407
-3.483067 -3.403980
-3.175205 -0.453557
-2.635890 2.172504
-0.842019 0.621302
2.764767 -2.160315
-1.593718 1.912804
0.535058 -2.390363
3.258873 -3.991763
-3.143675 1.333138
-3.137252 2.522679
3.061232 -3.603244
1.703660 3.435734
-2.272647 -0.524498
2.924867 -7.674104
-3.055441 4.104869
-3.696412 3.032714
2.218486 3.516987
1.353440 0.680066
-1.141991 -5.472705
-1.336112 0.755284
-4.747554 3.775595
-0.481216 -0.446190
4.912739 -0.880569
9.089039 -5.524153
-4.125828 -9.810287
-0.081616 -3.532178
1.804277 3.029616
-3.176258 -0.667105
2.943652 -2.222343
-0.322618 4.412481
-7.303393 4.112606
2.677488 0.090208
-6.554924 -0.824067
-7.502681 -2.577627
12.456725 -0.514359
6.605969 -2.821830
-6.314308 -19.087459
5.985114 -10.153125
-10.064325 18.870735
-3.602441 3.339198
28.799441 4.509821
12.805147 4.069015
-13.102707 -21.086517
-16.666932 2.765412
-12.249097 18.446153
8.765185 0.505585
18.037652 12.060557
5.751355 6.449587
-16.412465 -41.233914
-3.203542 -18.684126
-11.167315 30.166628
0.025376 9.995126
36.753458 -10.897935
17.674528 -8.560571
-38.388997 -44.281400
10.694483 -10.972557
-28.480445 75.869176
-15.381638 29.968539
69.185109 -22.853926
-17.789165 -27.837529
-68.299662 -50.263344
-25.048830 0.949408
-14.508469 122.002924
-20.398952 14.808501
116.258314 -152.930303
27.761615 7.380843
-198.226511 56.679213
0.738334 54.952367
347.793611 182.978280
-24.345185 -44.122341
-429.773790 -322.661019
132.308595 146.669259
513.023326 477.706263
-322.813183 -28.548803
-544.444072 -395.118277
77.859016 -133.420369
870.805694 405.183440
-272.753858 -60.590676
-1650.594124 1019.195267
39.231000 -490.581645
-1972.009930 -6345.308461
