5655.191031 2906.848204
-334.725001 -680.268931
-120.822953 -23.140482
49.759697 13.811682
-115.058450 28.191573
-23.434980 -8.649594
32.962546 -4.899822
-6.958216 -8.307111
10.627737 6.629449
29.655636 -7.179888
8.030336 19.100083
3.027258 10.546534
9.461710 -3.625755
5.458288 4.064177
11.555180 14.462977
6.923658 1.108229
11.881414 5.517894
13.690839 10.437080
8.484465 4.586170
11.430210 3.429093
13.870958 2.777774
11.477641 2.241771
11.747894 2.762963
14.294551 -1.473891
15.357298 0.499953
14.765912 -0.255874
13.918612 -0.774549
13.904398 0.546638
13.669219 -1.439948
13.615524 -0.149335
13.830334 -0.456799
13.392413 -2.574392
14.792392 -1.394196
15.404215 -1.879775
12.544646 -1.895190
12.508767 -2.026596
14.351495 -2.980259
12.639494 -1.892812
12.501740 -3.358987
13.620758 -4.407208
13.299794 -3.556160
13.518475 -3.899169
12.759925 -5.185130
13.552102 -5.416893
13.676207 -4.249868
12.680148 -5.529226
12.393378 -6.041750
12.388638 -6.810456
12.350626 -6.460528
11.636484 -6.018017
12.100564 -7.064208
11.598943 -6.828624
10.777171 -7.039008
11.160176 -7.467461
10.129749 -7.799762
11.075035 -8.451138
11.005393 -8.433817
10.323744 -7.642251
9.912387 -8.803157
9.983835 -8.956919
9.510638 -8.328046
9.632174 -9.223659
9.064764 -8.898102
9.397418 -9.017874
8.827572 -9.571485
8.570932 -9.891713
8.666751 -10.205261
7.747238 -10.055773
7.381773 -10.367690
7.087762 -10.645914
6.790708 -10.123193
6.944837 -10.341435
6.448719 -10.515270
6.233548 -10.798176
6.051696 -10.467849
5.752225 -10.912214
5.664917 -10.717066
5.302883 -11.494423
4.943671 -10.752007
4.910791 -10.814606
4.257790 -11.379803
4.309704 -11.246284
3.616723 -11.182415
3.421212 -11.618949
3.455660 -11.468267
2.910779 -11.206755
2.680588 -11.835039
2.174271 -11.084202
2.846119 -11.167823
2.034233 -10.783217
1.822857 -11.016529
1.259999 -11.269568
0.926802 -11.099089
1.200915 -11.188956
0.741303 -11.044638
0.475749 -11.174851
0.094160 -10.666034
0.212454 -10.405589
-0.461190 -10.371229
-0.399637 -10.312861
-0.789345 -10.521151
-1.072010 -10.407190
-1.063544 -10.076589
-1.538389 -9.995922
-1.444207 -10.051149
-1.913626 -9.894349
-2.462662 -9.527274
-2.135479 -9.594313
-2.778134 -9.763591
-2.540155 -9.405372
-2.796949 -9.279714
-3.312109 -8.936405
-2.999348 -9.152073
-3.536674 -8.924969
-3.438703 -8.362970
-3.367504 -8.779545
-3.811913 -8.682145
-4.172859 -7.864837
-4.558679 -7.995841
-4.533517 -7.871402
-4.625460 -7.749352
-4.596643 -7.477013
-4.653903 -7.232972
-4.664379 -7.309047
-5.183721 -7.085968
-5.206513 -6.719625
-4.778485 -6.755033
-4.997049 -6.540269
-5.621822 -6.467882
-5.273183 -6.152969
-5.519745 -5.502512
-5.325492 -5.619463
-5.779947 -5.388613
-5.609504 -5.057745
-5.716592 -4.970860
-5.838314 -4.942683
-5.979407 -4.464274
-6.198750 -4.489711
-5.749312 -3.984341
-5.633028 -3.925880
-5.545032 -3.851024
-5.844065 -3.523300
-5.941028 -3.796812
-5.749014 -3.366988
-5.693900 -2.930861
-5.909702 -2.972598
-5.841012 -2.897090
-5.727890 -2.762648
-5.953857 -2.339947
-6.234691 -2.196416
-5.429534 -2.371700
-5.444780 -2.018839
-5.468165 -2.137425
-5.562104 -1.666892
-5.932336 -1.192584
-5.446177 -1.324382
-5.267413 -1.349525
-5.094563 -1.355161
-5.352015 -0.902194
-5.146070 -0.724674
-5.017651 -0.508853
-5.105938 -0.231109
-5.206592 -0.750112
-4.778834 -0.410742
-4.625698 -0.310094
-4.651234 0.087014
-4.618611 -0.028809
-4.428496 0.159576
-3.997767 0.088154
-4.259881 -0.029288
-3.837207 0.374119
-3.760665 0.525965
-3.506493 0.561316
-3.604025 0.769475
-3.776255 0.558482
-3.239438 0.794412
-3.309632 0.902424
-3.183419 0.740554
-3.365400 0.690853
-2.812413 0.805064
-2.652109 0.762272
-2.414914 1.051472
-2.434304 0.787129
-2.101205 0.935386
-2.505353 0.784579
-2.457337 0.788005
-1.853646 0.975092
-1.959759 0.942745
-1.878675 0.903466
-1.393105 0.880662
-1.480681 0.926154
-1.343613 0.883793
-1.386776 0.577054
-1.393667 1.138348
-1.136614 0.996039
-1.028685 0.975881
-1.068050 0.747183
-0.960649 0.765126
-0.940202 0.680118
-0.714761 0.682816
-0.838124 0.719816
-0.381497 0.492608
-0.496322 0.271095
-0.044379 0.335755
0.025036 0.158189
0.187670 0.086698
-0.092218 -0.158556
-0.014552 -0.009193
-0.195840 0.094214
-0.043229 0.113987
-0.013270 -0.205775
0.198609 -0.567633
-0.111856 -0.620994
0.175106 -0.656084
-0.193803 -0.793858
0.333546 -0.758876
0.225666 -0.955265
0.464305 -0.721023
0.286738 -0.776428
0.741595 -1.161224
0.332851 -1.312750
0.182157 -1.700304
0.126275 -1.511308
0.362933 -1.865676
0.039952 -1.391972
0.371750 -2.025528
0.532637 -1.965478
0.522777 -2.113594
0.290107 -2.310600
0.304661 -2.503045
0.314744 -2.208133
-0.122863 -2.634836
-0.016064 -2.463253
-0.186889 -3.003914
0.167883 -3.094292
-0.065338 -3.151891
-0.608970 -3.144508
-0.284248 -3.246750
-0.312420 -3.527274
-0.502124 -3.390816
-0.623566 -3.469392
-0.582939 -3.653066
-0.801763 -3.726542
-0.890852 -3.556918
-1.100018 -4.153544
-0.883696 -4.025061
-0.895077 -3.893687
-1.439122 -3.887358
-1.257910 -4.008860
-1.120267 -4.286515
-1.570491 -4.182958
-1.680588 -4.577944
-1.472466 -4.183866
-1.392767 -4.565824
-1.956681 -4.421501
-2.284606 -4.765080
-2.459185 -4.573844
-2.675515 -4.533293
-2.727143 -4.800985
-2.633041 -4.944804
-2.989877 -5.113000
-3.038455 -4.722160
-3.387253 -4.910198
-3.703261 -4.626921
-3.646459 -4.521545
-3.720780 -4.835634
-4.138808 -4.778591
-4.118519 -4.757757
-4.132977 -4.325927
-4.455417 -4.056478
-4.598198 -4.522785
-4.910844 -4.876789
-5.451173 -4.546215
-5.280857 -4.391166
-5.466651 -4.032210
-5.656055 -4.523535
-5.636230 -4.315183
-5.980647 -4.415364
-5.981935 -4.013314
-6.514857 -4.161590
-5.971530 -4.404658
-6.635304 -3.581788
-6.783020 -3.691997
-6.613218 -3.745835
-7.377753 -3.703355
-7.123757 -3.227445
-7.453769 -2.976987
-7.817534 -2.947556
-7.723254 -3.174634
-7.907325 -2.909733
-8.055714 -2.803448
-8.091385 -2.519805
-8.521897 -2.590567
-8.221684 -1.975130
-8.114562 -1.774009
-8.426134 -2.018111
-9.078276 -1.866645
-8.811388 -1.569103
-8.877371 -1.293316
-9.277503 -1.279803
-9.529314 -1.270392
-9.270050 -0.704212
-9.453664 -0.621603
-9.831601 -0.234442
-9.881568 -0.025104
-9.760418 0.463884
-10.068116 0.973904
-9.884856 0.112436
-10.268523 0.809203
-9.537743 1.293591
-9.973706 1.312555
-9.914272 1.940288
-10.230496 2.250863
-10.438825 1.777850
-10.306932 2.693560
-10.284640 2.299962
-9.950738 3.052543
-10.139684 2.880070
-10.066291 3.361690
-10.315413 3.866029
-10.309283 3.674210
-9.948048 3.944885
-9.929473 4.237327
-10.389452 4.886752
-10.017308 4.922970
-10.388893 5.321479
-9.696270 5.496071
-10.206250 5.890975
-9.430392 5.842017
-10.040937 6.404264
-9.622759 6.340946
-9.143802 6.494692
-9.708911 6.754804
-9.031307 6.971633
-9.553456 7.230376
-9.135012 7.718934
-9.278969 7.648381
-8.546850 8.090686
-9.042229 8.393622
-8.604842 8.696685
-8.545482 8.860985
-8.234980 9.429983
-8.079191 9.264610
-7.936596 9.613985
-7.624798 10.152432
-7.006781 9.694704
-6.714958 9.875217
-7.067984 10.471918
-6.508339 10.436762
-6.375735 10.678782
-5.858475 11.066904
-6.504996 11.357616
-6.895378 11.304477
-5.326829 11.490991
-5.464567 11.887663
-5.066593 12.312339
-4.913650 11.956931
-4.733605 12.420403
-4.452979 12.581606
-4.088238 12.453532
-4.859162 12.888738
-3.801379 12.323118
-3.829790 13.590980
-2.781321 13.278471
-2.188846 13.023916
-2.346149 13.477933
-1.726209 13.825234
-2.378700 13.145620
-1.329195 13.477515
-1.788185 13.462306
-1.367285 12.835392
-0.817624 14.085649
-0.595583 12.444737
-0.347549 13.478147
-0.445074 13.345252
0.764396 13.292535
0.981239 13.883323
1.272768 13.680044
0.909214 13.391784
0.967941 13.826262
2.296642 13.667045
2.806886 13.300841
2.820130 13.595144
4.210467 14.439487
3.331012 14.626270
3.700134 13.776380
4.750383 12.559680
4.580640 13.738162
6.033291 14.797405
5.817271 13.136814
6.700537 12.792887
8.391098 14.190581
2.151634 12.810293
4.532447 12.952130
7.108087 11.638130
3.471001 14.346128
3.576916 14.888723
6.681946 10.078138
8.657552 15.113677
9.393916 16.010511
2.197960 9.169094
4.271298 13.754169
9.279796 15.331937
-2.877796 6.933009
7.768482 2.219210
9.386561 -2.113915
20.414614 2.033007
14.733378 23.145279
12.104661 -2.016628
-1.572342 28.943097
-24.079498 -21.414929
-0.727797 30.321244
-39.889005 8.511115
9.255752 -391.507760
-183.300359 72.847001
