5545.254150 2874.622405
-313.698042 -504.261655
-111.535477 -75.747787
23.413144 -14.619358
-161.322068 29.065548
0.920975 6.233302
3.188402 -14.837035
-20.977518 -33.691371
-3.149664 -5.504591
21.942064 0.020649
-29.930813 7.786369
-5.263275 0.948943
-4.382013 -3.519620
-8.281960 5.805672
-7.285826 3.991159
1.834140 -2.495905
-3.578678 4.772330
-4.675611 5.893625
1.327364 -0.617586
-2.294863 2.789496
-0.884659 -1.507991
-4.096748 1.822113
-1.085566 -3.037629
-0.348420 0.937251
-1.283256 -1.057498
-1.377272 0.644089
-1.473424 -3.126603
0.506597 -0.356549
-0.968270 -0.887818
-1.642388 -2.885266
0.501505 0.484747
0.586228 -0.120311
-1.257594 -0.020738
-0.366547 -0.818972
0.893571 0.179845
-0.939770 -0.332910
0.691262 -0.108597
0.035730 -0.006220
-0.656537 0.972152
-0.099307 0.718923
-0.085555 -0.281161
-0.505908 0.336812
0.322889 0.385288
0.380133 -0.460219
-0.237899 0.883631
0.192085 -0.298777
0.034874 -0.039881
0.317809 -0.120615
0.478374 -0.534091
0.181511 -0.344929
-0.319295 -0.056343
0.447828 -0.574482
-0.060195 0.112357
0.099707 -0.287625
0.530438 -0.200560
0.498501 0.541817
-0.031766 0.213032
-0.573572 -0.148918
-0.019413 0.283110
0.227614 0.129532
-0.443588 -0.226163
0.074447 0.191779
-0.027467 0.003312
-0.559248 -0.182556
0.075331 -0.010393
-0.364001 -0.171839
-0.454711 -0.185559
0.254269 0.008472
0.221987 -0.229017
-0.177165 -0.066895
0.468194 0.217260
0.104529 0.182437
-0.096975 -0.276464
0.263728 -0.108662
-0.119208 -0.123050
0.181784 0.109106
0.298081 -0.156044
0.085318 0.007977
0.088545 0.182024
0.340554 -0.190074
0.164202 -0.097095
-0.023700 -0.082227
0.076988 -0.269987
0.060434 0.000332
0.105414 -0.204669
-0.037447 0.124236
-0.361713 -0.134668
0.141065 0.270739
-0.260640 -0.027053
0.087697 0.088654
0.267683 0.129268
-0.198772 0.098487
0.084765 -0.081017
0.125164 0.064478
0.028409 -0.157059
-0.045423 0.069795
-0.012047 0.230383
0.082611 -0.316458
0.075839 0.083867
-0.351963 0.104406
0.292764 -0.244144
0.348688 -0.132025
0.135190 -0.074080
0.033866 -0.002625
-0.213331 -0.255301
-0.226446 -0.074428
-0.165814 -0.302144
0.064174 0.161933
-0.442123 -0.053866
0.378101 -0.081691
-0.259220 -0.142140
-0.166150 -0.154901
-0.112606 -0.008772
0.229941 -0.121738
0.187414 -0.012634
0.113294 -0.204152
0.369329 0.062152
-0.002252 -0.196964
-0.221156 0.104668
0.002233 -0.383158
0.078486 0.624248
-0.000772 0.038319
-0.256918 0.155907
-0.057980 -0.172745
-0.105137 0.153226
-0.003747 -0.025909
-0.401386 -0.300864
0.370106 0.494180
-0.081401 -0.369019
0.113173 -0.083333
0.074403 0.039727
0.199578 0.004502
-0.089255 -0.166805
0.005785 0.092848
0.154518 -0.054767
-0.005253 -0.107441
0.225938 0.084891
0.160193 -0.047449
-0.313563 0.193582
-0.042194 0.029169
-0.025903 -0.253491
-0.170986 0.344002
-0.142137 0.304710
0.035667 0.025420
0.169674 0.317152
-0.067780 0.108760
0.285409 -0.185865
-0.129109 -0.077175
0.218369 0.121010
-0.105740 -0.122194
-0.054681 0.137006
0.204635 -0.096516
-0.017478 0.104739
0.034798 -0.460111
0.073108 0.214630
-0.149785 0.264257
-0.354086 0.186373
-0.162398 -0.179694
0.084510 0.072111
-0.030460 -0.234878
-0.372153 -0.212909
-0.164668 -0.329122
0.353426 0.084748
-0.308132 0.090761
-0.050198 -0.098322
0.345057 0.097354
-0.004826 -0.515351
0.046998 -0.045004
-0.305432 0.144685
0.116137 0.140105
-0.252692 0.032233
-0.090264 -0.184387
0.257031 0.035036
0.011160 -0.045552
-0.188261 -0.274029
-0.094351 -0.358624
0.027530 0.059115
0.100154 0.037357
-0.203706 -0.168881
-0.108896 -0.272501
-0.178785 0.230932
0.281019 -0.080172
-0.382461 0.515092
-0.382092 0.161615
-0.174878 -0.009080
-0.062258 -0.503827
-0.078018 0.056515
0.147927 -0.318306
0.005690 0.044226
0.016412 0.115105
0.191682 0.314133
0.097511 -0.047415
0.177915 0.221661
-0.261189 0.278736
-0.244564 -0.255998
0.026296 -0.343209
-0.131527 -0.132398
-0.119396 -0.071605
0.031278 0.000216
-0.038490 0.044347
-0.414789 0.351167
-0.099751 0.000000
0.026516 0.311823
0.170453 0.092701
0.083406 0.183760
0.073517 0.088423
0.138763 0.066673
-0.142191 0.039769
-0.263137 -0.187072
0.153591 0.282336
0.200531 0.209239
-0.094324 0.588837
-0.154989 0.170911
-0.189701 0.378505
-0.652195 -0.405721
-0.095853 -0.431258
0.210460 -0.310385
0.200939 0.050210
-0.115339 -0.132187
-0.068458 0.099411
-0.001180 -0.331008
-0.107167 0.027530
-0.343536 -0.075022
0.220931 0.220043
-0.168084 -0.179304
-0.040764 -0.113820
-0.146709 -0.123326
0.159133 -0.079211
-0.402166 -0.080395
-0.213853 -0.054861
0.264285 -0.142116
0.465481 0.363018
0.118337 0.073551
-0.104500 0.146928
0.062071 -0.307318
0.331419 0.124474
-0.140007 -0.064020
-0.261898 -0.205738
0.254939 0.007155
-0.082643 -0.292330
-0.126647 -0.326041
-0.170368 0.200728
0.084117 -0.116860
-0.145841 -0.300727
-0.048821 0.208258
0.009038 0.030586
0.008439 0.084094
-0.477948 0.186082
0.342696 0.264174
-0.233479 0.166002
-0.030130 0.218758
-0.072298 0.153424
-0.337760 -0.279536
-0.050146 -0.142163
-0.001153 0.012515
0.131839 -0.085318
-0.248388 -0.093506
0.250535 -0.006088
-0.216246 -0.180712
-0.028656 0.305548
-0.229379 -0.077593
0.295734 -0.072940
0.272193 0.334487
0.023661 0.071515
0.037790 -0.221074
0.075096 0.078529
-0.073945 0.248943
-0.222446 0.233821
-0.104643 0.204393
0.236985 0.205209
-0.239517 -0.153453
0.037248 0.243812
-0.038781 -0.136664
-0.030433 0.289886
-0.328893 0.015354
-0.151085 0.059837
0.267707 -0.053621
-0.169057 -0.174128
0.184358 -0.002900
-0.313976 0.195473
0.271622 0.114583
-0.123575 -0.078543
-0.127702 0.133660
0.455147 0.077317
-0.187866 0.142684
-0.022076 -0.157582
-0.198225 -0.074899
0.226145 -0.082766
-0.233870 -0.091610
0.118570 -0.120862
0.053642 -0.178199
0.155951 0.233559
0.136644 -0.440742
0.415326 0.059568
-0.059105 0.099523
0.124344 -0.305480
0.117540 0.001050
0.108221 0.266106
-0.203330 -0.058088
0.042177 -0.345744
0.177016 0.023706
0.028106 0.017676
-0.380411 0.291740
-0.049058 0.038085
0.220389 0.243848
0.049732 0.168974
0.140220 -0.086334
0.667348 -0.179840
-0.047340 0.173424
-0.108952 -0.238276
0.241700 0.328832
-0.052625 0.249104
-0.136504 -0.174934
-0.134468 0.156404
0.216533 -0.070466
-0.274813 0.134004
-0.221294 -0.115706
0.300072 0.069615
0.159441 0.308626
-0.367264 0.195099
0.060525 -0.276553
-0.119758 -0.004748
-0.583132 0.088240
0.284492 -0.362689
0.181770 0.136976
0.299507 0.190787
0.011446 0.151704
0.265951 -0.339620
0.151834 0.537497
-0.127418 -0.458216
-0.089432 -0.012495
-0.230231 -0.133869
0.519715 0.176990
-0.347459 -0.015908
-0.085382 0.101879
-0.004892 0.440407
-0.075407 0.115902
-0.043455 -0.007547
0.029657 -0.318254
0.180967 0.366664
0.170323 -0.047771
0.466910 0.008064
0.000029 -0.147195
0.381353 0.378980
0.057356 0.394288
0.169585 0.175362
-0.275674 -0.192660
-0.162800 -0.126384
0.198922 0.351811
0.225956 0.094491
-0.671418 -0.280109
-0.359035 0.097024
0.223828 0.636165
-0.403037 -0.212321
-0.008287 0.147490
-0.796889 -0.143291
0.036110 0.784348
-1.272661 0.683074
0.266106 -1.012662
-0.357677 0.887491
-0.415809 0.361349
0.339815 0.380652
-0.609667 -1.090177
0.038199 0.361891
-1.632005 -0.273645
0.663056 -0.202591
-0.274618 -0.368680
-0.211467 -1.145604
-1.217224 0.652928
0.503849 -1.070054
0.461595 0.520715
0.033450 -0.224128
0.570303 1.647946
0.074454 0.888607
1.049015 0.163886
0.367514 -1.105330
0.383267 -0.696165
1.433028 1.079340
1.447295 -0.234226
1.621094 2.252911
-0.790153 0.924701
-4.227838 1.766874
-0.895508 -1.468231
-0.141759 -1.739428
-5.580781 -2.668137
-3.128658 3.449338
1.539367 -0.464353
-2.188823 8.133206
-5.795238 3.581731
2.038105 -3.925612
-1.461354 7.214047
-2.283591 -1.963183
0.226487 -11.403795
-1.944831 -20.892676
21.907910 29.800113
-3.661062 -4.351337
15.404848 2.971355
-54.372009 -34.809150
-8.096987 21.221126
-25.246255 18.424398
-92.623805 -306.775336
-66.775139 -43.639695
