5094.983704 3766.472784
-1718.478113 1744.069808
-124.333610 -449.522655
-58.380155 -189.571194
141.107252 81.773101
-121.000651 -238.441400
-50.495617 -128.289204
-105.832206 -28.628381
49.189391 7.210370
-22.470332 -3.256634
11.713840 -52.530595
-9.309634 -14.849506
0.518192 1.521321
-35.588630 8.511766
-22.589774 16.304993
11.880298 2.095839
-17.220539 -15.813570
1.162099 13.895477
4.296689 9.463840
-3.889848 -2.538091
-1.818744 2.528976
7.060400 -2.771638
-11.003890 -6.189621
-0.994599 -2.069869
4.121349 0.297682
6.661248 -0.341018
5.332077 -4.037049
-6.126033 -0.023299
-3.831379 7.654641
-1.840377 -0.072179
-0.569460 1.961573
-4.650606 -1.969490
-1.768539 1.177162
5.191080 0.082258
-0.404651 0.588141
-0.638770 -4.331427
-1.768260 5.902199
0.069124 -4.899473
-3.726349 0.407995
2.198687 -2.143200
1.739854 -0.028347
-0.232066 -2.489260
-0.171915 -0.719698
0.141438 0.753377
-1.783805 -0.997949
0.720457 0.159429
-2.790457 1.293001
-2.769878 -0.907399
-1.206329 0.162489
-1.477603 0.227521
-0.919383 2.200960
-1.874644 -0.923680
0.929019 0.959958
-1.606099 -0.971224
1.101547 0.925611
0.010936 0.014137
0.612638 0.544728
-0.812669 -0.744268
1.371696 1.146691
-0.215014 -0.069659
0.883497 0.826259
0.690235 -0.126797
0.156079 0.627165
-0.488775 0.320184
-0.477532 -0.880755
-0.732897 -0.332321
0.084556 0.127979
-0.111476 -1.139848
-0.478446 0.567104
-0.228764 -0.563958
1.144717 -0.175787
0.559273 0.564830
-0.451188 -0.664292
-0.611975 0.113686
-0.655099 -0.245398
0.021840 -0.237220
-0.419296 -0.426787
0.408944 0.000838
-0.292084 0.761163
-0.333759 -0.605624
0.177083 1.316741
-1.091086 -0.039758
0.179686 -0.555601
-0.581177 0.188273
1.130570 0.069004
-0.405713 -0.482994
0.465518 0.116694
-0.136776 -0.353286
0.478619 0.203932
-0.181276 0.293090
-0.932502 -0.273114
-0.094337 -0.727348
-0.009322 0.685976
-0.300516 -0.505910
-0.086690 0.546145
-0.149127 0.077950
0.011758 -0.225395
-0.765010 -0.100867
-0.106066 0.715469
-0.327807 -0.070126
0.500288 -0.674123
-0.702320 0.460219
-0.010175 -0.113676
0.054714 0.508653
-0.384717 0.667208
0.296392 -0.021286
-0.171937 0.299971
0.199102 0.144199
0.505974 0.268065
-0.478984 -0.191474
-0.585077 0.217258
0.535702 -0.399832
0.301285 0.075698
0.061710 -0.354566
-0.433165 0.078965
0.259569 0.037177
0.300317 -0.448632
-0.157410 -0.168020
-0.289985 -0.322144
0.028485 -0.163865
0.404038 0.218452
-0.125621 -0.160566
-0.021034 0.178675
-0.103218 -0.061732
0.465624 0.003281
-0.217910 0.123786
-0.298295 -0.212130
-0.616045 0.031236
-0.061211 -0.163064
0.017840 0.199133
0.200138 0.488193
-0.098304 0.314514
-0.175532 0.269029
-0.090228 0.152416
0.079227 0.042568
-0.197801 0.204501
-0.016861 -0.317287
-0.327150 0.047006
0.279974 -0.114036
0.074483 0.359855
0.268451 0.174938
0.018348 -0.161928
0.107546 0.002386
0.001183 0.008072
-0.031114 0.142862
0.132404 -0.079776
0.195322 0.162829
-0.052740 -0.013398
-0.253513 0.328538
-0.149879 0.091348
0.087972 0.330040
-0.067047 -0.067873
-0.083386 -0.279141
0.189213 -0.066176
0.218715 0.119754
-0.055821 -0.101324
-0.060168 -0.319420
-0.054681 -0.089535
0.005925 -0.178791
0.126087 0.000212
0.161169 -0.284618
0.223689 -0.236483
0.216628 -0.016914
0.242477 -0.365852
0.034568 0.130733
-0.072214 -0.158224
0.281410 0.304020
0.029770 0.050144
0.138572 -0.052521
-0.167986 -0.004260
-0.272552 -0.210105
-0.344270 -0.119281
-0.021211 0.117712
-0.184729 0.214394
-0.018294 -0.159896
0.446026 0.200412
-0.371660 0.242561
-0.000793 0.091512
0.284217 0.014903
0.187692 -0.121635
-0.206203 -0.021033
0.010713 -0.026908
-0.256232 -0.201223
0.132140 -0.082579
0.036181 0.100315
0.057002 -0.104356
-0.130382 -0.130340
0.098715 0.310261
0.098902 0.166067
0.008755 -0.192848
0.196018 -0.304540
0.079016 -0.010666
-0.240951 -0.093142
-0.535239 -0.083916
0.032531 -0.252259
-0.150612 0.120230
0.263988 -0.153885
-0.377273 -0.046866
0.012613 -0.205354
0.112103 0.038637
0.060746 -0.325235
0.138284 0.049409
-0.020159 0.146686
-0.114133 0.074337
0.011883 -0.212600
-0.219471 -0.262403
0.167838 -0.213885
0.093840 0.007823
0.050321 0.217046
-0.047540 -0.006060
0.073684 0.111767
-0.273947 0.204800
0.224489 -0.111937
0.132196 -0.026855
-0.340795 -0.085061
-0.089239 -0.163042
-0.025795 -0.025059
-0.130106 -0.175872
-0.108283 0.209996
0.082154 -0.072234
0.002860 0.112955
0.135429 0.015876
-0.079051 -0.055399
-0.089226 0.002887
-0.219597 0.043138
-0.238808 0.124140
-0.222758 0.005428
-0.304024 0.309656
-0.059659 0.075979
-0.058154 0.067864
0.120914 0.189299
0.152538 -0.189817
-0.048925 -0.164704
-0.256965 0.051482
0.206876 0.017309
0.063444 -0.172429
0.110817 0.104535
-0.340885 -0.086185
-0.004739 0.270392
-0.024671 -0.138958
0.022347 -0.380906
0.215678 0.028438
0.096761 0.253372
-0.048312 -0.304435
-0.190204 0.010663
0.155835 0.157037
0.124948 -0.081145
-0.204835 0.151215
-0.123261 -0.049470
0.057894 -0.030907
0.152179 0.070630
0.201206 0.133586
-0.148114 -0.108750
-0.097388 -0.048436
-0.100911 0.149059
0.207454 0.163565
0.014315 -0.116473
0.026389 0.275249
-0.177839 0.012462
-0.049444 -0.326238
-0.179317 0.131853
-0.067571 -0.268095
0.125141 0.367425
0.019028 0.122461
0.158452 -0.321708
-0.091507 0.126469
0.169510 -0.197097
-0.064171 0.037373
-0.084055 0.339118
-0.090193 0.109057
0.226679 0.347579
-0.031732 -0.084743
0.226291 0.066115
0.003872 0.037952
-0.120621 -0.324004
-0.262194 -0.204094
-0.151375 0.002406
-0.112475 -0.137361
-0.082731 0.120856
-0.030173 0.157390
-0.055643 -0.030750
0.252390 -0.272365
0.046715 -0.072337
0.158313 0.090442
-0.205219 -0.163856
0.037150 0.132785
0.561075 -0.071690
-0.044286 -0.144958
-0.088326 -0.063127
0.019424 0.254303
0.105451 -0.107745
0.048589 0.341469
0.038791 0.045038
-0.135178 -0.142936
0.065874 -0.091041
-0.160727 -0.007810
0.426572 -0.163434
-0.073051 -0.119805
-0.329209 0.214849
-0.038505 -0.026624
0.001372 -0.171819
-0.029141 -0.135895
0.201346 -0.149068
-0.284861 0.112434
-0.022908 -0.091443
0.241505 0.315362
-0.114909 -0.005776
0.097915 -0.157785
-0.367806 -0.051806
0.077092 0.065709
0.060532 -0.129780
-0.194534 -0.091260
-0.039690 0.186475
-0.162438 0.108562
0.273216 -0.022136
-0.058044 -0.125477
-0.080057 -0.039933
-0.012873 -0.181500
-0.085482 0.252741
-0.110493 -0.151523
0.378324 0.331119
0.098768 -0.013191
-0.187052 0.093234
-0.068504 -0.095806
0.339733 0.090240
-0.103471 -0.158875
-0.191044 0.026559
0.000337 0.036628
-0.349563 0.010101
0.255904 -0.134374
0.114363 -0.033421
0.109949 -0.149121
-0.275930 -0.363093
-0.346610 0.183291
-0.088343 -0.048546
0.190915 -0.523664
-0.061357 0.374535
0.043487 -0.089844
0.355639 0.219005
-0.026909 0.132456
0.250613 0.164210
-0.017973 0.152232
-0.056625 0.030298
-0.119400 -0.199117
0.019468 0.235288
-0.131256 -0.011104
-0.075998 0.252708
-0.006057 0.241962
-0.126960 -0.122826
0.251982 -0.182578
-0.173649 -0.342942
0.004281 -0.113222
0.093826 -0.243689
0.258216 -0.033275
-0.338420 -0.289355
0.272990 0.030176
-0.206619 0.053188
-0.016957 -0.064265
-0.053504 -0.084646
0.107700 -0.037648
0.005067 0.169733
0.177236 0.298878
0.109802 -0.041445
-0.058484 0.302263
-0.126713 -0.006342
0.088683 0.085407
-0.161904 0.119661
-0.145897 0.029249
-0.255859 -0.095644
0.101330 0.192961
0.090211 -0.015299
-0.076172 -0.048696
0.044044 0.140256
0.269468 -0.147781
-0.359515 -0.161631
-0.163888 0.066880
-0.001933 0.173394
0.299721 -0.233170
0.126599 0.030724
0.047887 -0.405050
0.143674 -0.258442
0.061385 -0.045752
-0.361180 0.036777
0.339348 -0.409273
0.161395 -0.320061
0.115952 -0.020689
0.017568 -0.169683
0.237000 0.020380
0.217182 0.190898
-0.207020 -0.012449
-0.321603 -0.158060
0.055932 -0.147170
-0.120468 0.079637
0.025028 0.121222
0.230247 0.120090
-0.118505 -0.021493
0.058709 0.144727
-0.275024 -0.166294
-0.066754 0.476328
-0.228964 0.172811
-0.188824 -0.017396
0.080610 -0.188202
0.328919 -0.165662
-0.063745 0.140579
-0.347822 -0.021287
-0.218840 -0.268817
-0.416129 0.031856
0.155753 -0.062262
0.125864 -0.194359
-0.174889 0.101022
-0.153488 -0.003847
-0.138240 -0.064703
0.006056 -0.446426
0.051389 0.093512
-0.216459 -0.024076
-0.018337 -0.246295
0.039430 0.032640
0.379813 0.068496
0.232508 -0.036533
0.205754 -0.280145
0.305536 -0.148514
-0.439053 -0.172731
0.048615 0.085955
0.123293 -0.070843
0.091243 0.229621
-0.216816 -0.058912
0.116887 -0.359644
-0.250351 0.110793
-0.061765 0.011889
-0.251642 -0.156650
0.286649 0.199096
-0.170488 0.319874
-0.000167 0.053686
-0.533376 0.054221
-0.146928 -0.000616
-0.027550 0.124433
-0.115536 -0.292409
-0.254803 -0.086625
-0.042262 -0.079657
-0.173580 0.154742
-0.278745 0.151900
-0.192950 -0.055400
-0.026114 -0.147695
-0.175463 -0.049111
0.010551 -0.417543
-0.084931 0.240749
0.002086 0.177625
0.044087 0.181269
0.021407 -0.048158
0.043625 -0.206074
-0.027509 -0.115292
-0.094752 -0.015826
0.241101 0.359345
0.110877 0.437534
0.264903 -0.095911
-0.064443 -0.018120
-0.292813 0.589460
0.138454 -0.203413
0.134273 -0.133872
-0.192817 -0.276748
-0.063183 -0.118571
-0.387265 0.175571
-0.259413 0.097385
-0.023290 0.027601
0.093104 -0.275817
-0.064289 -0.149395
-0.022175 -0.146059
-0.023125 0.008797
-0.137993 0.123279
0.108588 0.079283
0.002084 -0.078741
-0.121458 -0.074731
0.219312 -0.055305
0.245825 0.180336
-0.012221 -0.384963
0.162229 0.124421
-0.795007 0.538159
-0.063621 -0.020224
-0.398584 0.438199
0.157211 -0.438475
-0.115948 0.200470
-0.022545 0.152005
-0.178303 0.309430
-0.129991 -0.202651
0.196048 0.237530
-0.367503 -0.110312
0.151953 0.096145
0.080134 -0.092722
0.099218 0.169581
0.181431 -0.117725
0.315711 0.173785
-0.200537 0.287594
0.373403 0.122561
-0.191040 -0.249454
0.092377 -0.094324
-0.092540 -0.232694
-0.099760 -0.064440
0.008740 -0.001050
-0.227501 0.065553
0.058382 -0.127804
-0.160277 0.250876
-0.129788 -0.174125
0.034131 -0.133433
-0.038482 -0.055090
-0.168049 -0.167280
0.067521 0.161322
-0.097376 0.197287
0.046899 -0.027259
-0.134758 0.026343
-0.202803 0.168443
-0.077591 0.174902
-0.174825 0.291202
-0.235686 -0.244048
0.251645 0.176503
0.373304 0.033073
-0.016950 -0.164058
-0.305167 0.045041
0.106223 -0.328154
-0.210528 -0.058296
-0.206654 0.124106
0.101272 0.339563
0.346201 0.090549
0.448257 -0.155544
-0.019931 0.111525
0.112811 -0.029246
0.114817 -0.114698
-0.364227 -0.003000
0.051655 0.241739
-0.155803 -0.289781
-0.247827 0.421824
-0.200290 0.117060
-0.242508 0.013264
0.055780 -0.093063
-0.140145 -0.059835
-0.185249 0.179532
-0.028373 0.130998
-0.232635 -0.090213
-0.083831 0.121121
0.336605 -0.073856
-0.314340 0.044914
0.087681 0.259854
0.051280 -0.043368
-0.023701 0.024206
0.150761 0.198551
-0.095045 0.002736
-0.011965 -0.013845
-0.198373 -0.177513
-0.080876 0.251424
0.163354 -0.015068
0.313455 0.217305
-0.004966 -0.009848
-0.074546 0.093633
-0.375571 0.169433
-0.120313 -0.225899
0.299277 -0.142826
-0.160702 0.137812
0.078506 -0.017099
-0.181361 0.116031
0.043667 0.040446
0.114116 0.029948
0.043187 0.144704
-0.172717 0.059242
0.116045 0.243930
0.207686 -0.091614
0.253716 0.355229
0.217020 -0.092523
-0.199295 -0.085647
-0.158225 0.128831
-0.035873 -0.049478
0.356293 -0.013379
0.028423 0.232107
0.048265 0.208374
0.008242 0.014527
0.153466 -0.125603
-0.521509 0.058090
0.309852 0.134654
-0.303958 -0.011412
-0.266253 -0.206163
-0.209352 0.223538
0.021975 0.140967
-0.003532 0.099669
0.271158 0.129995
-0.207311 -0.145622
-0.106554 0.103669
-0.042248 0.321161
0.114105 0.048242
-0.235371 -0.005448
0.112422 0.410664
0.224401 -0.049308
0.186002 0.126553
-0.052944 0.026121
0.537539 -0.113632
0.307346 -0.046109
-0.094906 -0.447875
0.130809 0.144512
-0.194920 0.093385
0.254008 0.164950
0.264285 -0.151825
-0.003427 0.084021
0.067799 0.238244
0.061619 -0.374658
0.075207 -0.283577
-0.088444 -0.152430
0.352399 -0.445259
-0.124723 0.232360
0.271296 0.257657
0.015742 0.151257
-0.157397 -0.051929
-0.094019 -0.161404
0.312253 0.095742
0.054489 0.042218
-0.375525 -0.161128
-0.159852 -0.093560
-0.282957 0.155420
0.151969 0.178875
-0.359627 0.173133
-0.119157 0.112544
0.060628 0.493266
0.218346 -0.064026
0.049929 -0.212212
0.250394 -0.073967
0.029438 0.091135
-0.200730 -0.091198
0.018790 -0.157468
0.029284 -0.151333
0.099219 -0.105096
-0.042431 0.094588
0.075805 0.031370
0.035886 0.333530
0.259375 -0.142060
-0.110363 0.271703
-0.251853 -0.201464
0.193715 0.071691
-0.231419 -0.115165
-0.231684 -0.169790
0.004857 -0.468746
0.139783 0.089792
-0.258911 0.100703
0.489238 -0.094653
0.192776 0.108812
-0.005593 -0.253692
0.272025 0.085453
0.107445 -0.192465
0.204380 -0.283429
0.011249 -0.085639
-0.332048 -0.060031
0.223337 -0.076974
-0.238330 0.007973
0.077275 -0.271269
-0.463058 0.282338
-0.043699 0.070079
0.106730 0.557442
-0.196019 0.103866
-0.009015 0.309363
-0.284565 0.000124
-0.036020 0.218491
-0.228125 -0.266864
0.082524 0.020054
-0.138736 0.434240
-0.069183 0.034805
-0.048470 -0.078232
-0.036264 -0.106997
0.155693 -0.129925
-0.194394 0.020820
0.166997 -0.234604
-0.007873 0.173568
0.010511 0.245069
0.099171 0.183868
-0.042926 -0.131237
-0.015832 -0.058603
0.029198 0.148500
0.420065 -0.118411
0.133548 0.389030
0.185561 -0.157786
-0.549039 0.159324
0.055552 0.144346
0.086634 -0.139285
-0.113135 -0.278676
-0.684881 -0.485266
-0.026984 0.073040
0.388361 -0.349679
0.120554 0.080906
-0.496969 0.387379
0.194856 0.085138
-0.010521 -0.214457
0.461286 0.147773
0.127340 0.034788
0.177380 0.809743
0.740614 0.230021
0.216610 -0.270250
-0.804323 0.167007
0.504019 0.146024
-0.321856 0.044271
0.541628 -0.386568
-0.296295 0.309279
0.359237 -0.133429
-0.016003 0.016795
0.074632 -0.198060
-0.018036 -0.338603
0.069435 -0.134283
-0.626431 0.004881
-0.264776 -0.352067
0.170694 0.318511
0.445567 0.271849
0.036547 0.139306
-0.498272 0.304073
-0.410368 -0.073402
0.385564 -0.695417
-0.283283 0.400339
-0.247853 -0.528911
0.334206 0.252576
-0.066098 0.102633
0.088124 -0.046939
0.295956 0.232987
-0.476870 0.178357
0.629424 -0.641016
-0.037735 -0.327011
-0.190265 0.209066
-0.334314 0.270096
0.372465 0.593813
-0.560613 1.037486
0.853582 -0.340957
0.427405 0.068718
-0.210127 -0.514329
0.785815 0.930001
0.748131 -1.022620
0.508589 -0.978656
-0.043968 -1.220680
-0.374679 0.280029
-0.482602 -0.384924
-0.280590 -0.699310
0.484845 0.538273
-0.313702 0.403986
0.188122 -1.021492
-0.176881 0.843429
-0.003618 -0.241919
-0.181225 0.325680
-0.190144 -0.899026
-0.618108 -0.078402
-0.274207 -0.065813
0.577427 1.068491
-1.520024 -0.017977
0.535911 -0.351328
0.850898 -1.523180
0.288253 -1.048238
0.446174 -0.618821
-1.179304 0.188831
0.803210 0.248053
-1.783422 0.798957
-0.027650 -0.181231
-1.796302 1.645885
0.111328 -1.436005
-0.093292 0.907128
0.315768 0.841959
0.566896 0.683210
0.863372 -1.409117
-0.189622 1.734869
-0.857285 1.635897
0.726590 -0.613012
0.286668 -1.508125
0.033726 -1.319081
1.248972 -0.050090
1.169419 1.379644
1.399092 -1.296456
-3.212197 -1.875294
-0.042395 -0.975375
-0.883803 3.519852
-2.235621 -6.196236
0.193782 0.662848
-1.309604 0.293033
4.614789 -0.199867
-1.764619 1.509383
2.235384 1.895204
-4.140435 1.413652
1.854729 -0.204985
0.772782 -1.831073
2.136314 -3.735232
-0.070270 -5.250241
4.333225 -0.226371
-4.809936 -2.928436
0.942717 -0.804119
-1.543343 -3.106118
-12.015664 -3.674152
-3.544642 -6.519751
-5.728483 4.214169
2.102127 -6.253489
-2.770579 9.056119
7.698767 -2.061372
-4.606066 2.175350
-5.861381 8.892718
12.139759 14.034394
-8.788521 2.427663
5.430036 -16.810621
9.781336 17.606919
-3.162706 14.488228
27.796284 25.975815
13.458765 -66.744924
-27.213552 -22.389622
1.503119 -7.223473
14.008040 -33.592319
-60.372033 -56.577352
-45.820896 -73.709397
-77.694279 73.768091
34.894876 61.785133
-15.868308 171.698912
-217.466202 -26.651448
63.420708 187.216969
