5150.827828 3757.069461
-1768.980695 1797.849420
-162.187942 -450.645781
-99.424391 -130.265699
136.272546 69.363882
-152.556319 -206.332198
-38.047677 -150.476591
-127.503084 -33.953706
20.806404 26.394340
-4.384445 26.643520
-3.797928 -50.619301
-6.399508 4.826775
10.786632 6.101697
-27.950635 -0.957514
-30.795908 26.377582
8.750128 -1.528391
-25.047806 -14.288772
0.088715 7.015026
1.955707 14.964338
-2.197782 10.398481
3.106071 4.078483
5.784742 0.333858
-4.692517 -8.036914
2.743854 -7.736508
-0.433700 0.172404
0.556237 -1.931807
3.796926 -6.367337
-3.394406 -1.401335
-0.574342 2.234434
-6.939772 2.222228
1.911485 3.612663
-7.846708 -4.028452
-2.293822 0.234443
1.362095 2.881197
1.627264 0.438233
0.082957 -0.460601
-0.409513 4.816174
-3.312706 0.054189
-0.228244 -1.610315
-0.368350 -3.253904
0.937881 0.464161
2.034085 1.292949
-1.363919 -0.215233
-1.961782 3.160753
0.742882 -0.557741
1.928007 -1.434474
-2.014184 0.478243
-0.621376 0.688390
-1.457718 -1.712966
-0.584946 0.645175
-0.542137 -0.875456
-0.593789 2.089860
-0.260817 1.964971
-0.718314 0.544067
-0.716575 -0.388923
1.332843 0.478558
2.172400 -0.178002
0.850984 0.470283
-1.021456 0.156636
-0.480644 0.797392
0.301860 -1.117525
0.024783 -0.958107
-0.716305 -0.155154
0.835627 0.350031
-0.970444 0.419489
-0.184928 0.307841
-0.193224 -0.256339
0.307826 0.170697
-0.506708 0.181599
-0.430256 0.293101
0.527695 0.831927
-0.178616 -0.341416
0.465554 0.066349
-0.088187 0.682829
-0.312632 -0.314707
-0.003999 0.383667
-0.090011 0.584966
0.435215 -1.232261
0.218301 0.132433
0.353929 -0.000205
0.780814 -0.244226
-0.425196 -0.452124
0.136465 -0.309652
0.022382 0.502013
-0.403191 -0.413503
0.200441 0.434468
-0.129025 0.062890
-0.445236 0.681082
-0.094753 0.122869
-0.228684 -0.101626
0.484772 -0.084097
0.456634 0.103763
-0.051653 -0.041486
-0.223948 -0.001676
-0.069470 -0.057491
0.224435 0.384722
-0.288442 -0.559220
-0.280964 -0.230380
-0.057697 0.548233
0.316529 -0.279077
-0.158374 -0.181009
-0.502998 0.265176
-0.236175 0.046815
0.106959 -0.049783
-0.329437 0.170093
-0.422186 0.234882
0.409315 0.046252
-0.229890 -0.155236
0.234129 -0.257006
0.211838 0.024917
-0.316254 0.236474
0.069049 -0.250728
0.501648 -0.429413
0.235403 -0.279287
0.401473 -0.035267
0.413370 0.090929
-0.151371 -0.106910
-0.295802 -0.096824
-0.366019 -0.229101
-0.458723 -0.352960
-0.275393 -0.105028
0.124174 -0.162180
-0.437448 0.079872
0.043343 -0.420979
0.363378 -0.074346
-0.151411 0.323887
-0.400807 0.363981
0.081204 0.248850
-0.016231 -0.129457
-0.207161 -0.264733
-0.145365 0.212005
0.328406 -0.118266
0.172661 -0.107711
-0.110518 0.082685
-0.126567 -0.120212
0.303946 -0.278986
-0.301136 -0.035263
0.072433 -0.018879
-0.198910 0.070246
-0.022157 -0.401449
-0.152163 0.028786
-0.074282 -0.492893
-0.069537 -0.061454
-0.116110 0.142357
-0.228498 -0.182985
0.138087 0.238715
-0.173686 -0.043742
0.325806 0.155642
-0.380368 0.038913
-0.299316 -0.475176
0.130027 -0.033388
-0.355913 -0.151328
0.059436 -0.139076
-0.042642 0.075994
0.246300 -0.461279
0.149285 0.107492
-0.103925 -0.091121
-0.146273 -0.221248
-0.007995 -0.381142
-0.070884 -0.041275
-0.129859 -0.063724
-0.131885 -0.001265
0.066498 0.156254
-0.104181 0.054826
0.156737 -0.213069
-0.304180 -0.202994
-0.109478 -0.170205
0.035733 0.066895
0.003387 -0.231851
-0.201764 0.144166
-0.041505 -0.081377
0.155850 0.174599
-0.064208 0.254532
-0.145746 -0.099008
-0.019577 0.041909
0.174746 -0.051139
-0.199657 -0.209232
0.083572 -0.176374
-0.263869 0.243394
0.011038 -0.239751
0.156009 0.265442
-0.466410 -0.030005
0.174947 -0.161097
0.303100 -0.116050
-0.131928 -0.027665
-0.106278 -0.222263
0.129608 -0.127989
0.031598 -0.088972
-0.023252 0.014102
-0.054080 0.105061
0.128608 0.012319
-0.075936 0.057946
0.019750 -0.175835
-0.121673 -0.329667
0.189476 0.456077
0.141909 0.279207
0.101943 0.022854
0.018220 -0.279205
-0.262361 0.105588
0.055636 -0.119410
-0.210196 0.001752
-0.128172 -0.008297
0.395044 0.069243
0.315838 -0.105279
-0.001795 0.128481
-0.048343 0.059639
-0.091440 -0.036382
-0.153962 0.062898
-0.095767 -0.222659
-0.067988 -0.070252
0.206333 -0.168312
0.020019 0.230472
0.186118 0.101203
0.062579 0.054909
-0.047185 0.013909
0.234032 -0.150815
-0.458183 0.159619
0.003190 -0.100172
0.418386 -0.023522
0.419642 0.070327
-0.109203 -0.119261
0.010665 -0.139452
0.072609 -0.041688
0.019391 0.197893
0.208178 0.022807
0.071853 -0.055958
0.238968 -0.149516
0.121770 0.130635
-0.017088 0.077304
-0.109503 -0.061703
0.007644 0.062068
0.044082 -0.034106
-0.034657 0.088575
0.052102 -0.009889
-0.027047 -0.226813
0.084062 -0.021815
0.025170 0.304081
0.208150 0.012103
-0.039472 -0.350940
0.171669 0.047771
0.019138 -0.088985
-0.185000 0.021123
0.069913 0.029463
-0.268176 0.223800
0.203664 -0.018122
-0.467285 -0.057177
0.169070 0.221376
-0.152691 0.165649
-0.172573 -0.207393
-0.297678 0.030142
-0.320095 -0.022512
-0.054909 0.219236
-0.155798 0.266837
0.012174 -0.156913
-0.153056 0.030135
-0.038452 0.195833
0.082988 0.055210
-0.039913 -0.020075
-0.031200 -0.130252
-0.111591 0.232553
0.338363 -0.090865
0.064978 0.183637
-0.026880 -0.195359
0.183996 -0.060399
-0.321881 0.104000
-0.182791 -0.319963
0.036444 0.121516
0.069292 -0.266136
0.312578 -0.092128
0.311923 -0.379934
-0.175032 0.193168
0.370531 -0.342337
0.209266 0.202876
-0.128563 -0.245757
0.172645 0.174308
-0.153662 0.083806
0.154284 -0.117124
0.119782 -0.140033
0.364442 -0.151067
-0.136252 0.125416
-0.144407 -0.156526
0.129814 0.002078
0.072216 -0.300565
-0.066629 -0.004550
0.122548 -0.265822
-0.159666 0.138489
-0.259474 -0.409200
0.186389 0.057705
0.298526 -0.074708
0.156946 -0.081231
-0.156722 -0.057937
0.117642 -0.116997
0.028227 0.006192
0.308815 0.070365
0.191469 0.048158
-0.169342 -0.098821
-0.275068 -0.032872
-0.002185 0.169681
-0.087922 0.181318
0.106862 -0.135792
-0.057413 -0.328901
0.277231 0.148701
-0.271022 0.055231
-0.046541 0.065629
0.114771 0.010086
-0.049829 0.364767
-0.181538 0.166032
-0.154141 0.142882
-0.253049 0.285608
0.199264 0.131056
0.309583 0.291622
-0.038990 0.112435
0.211299 0.281137
-0.107997 0.025813
-0.256974 0.068407
-0.057617 -0.075422
0.155200 0.257429
-0.132749 0.299481
0.261751 -0.156468
0.146786 -0.057952
0.017349 -0.224972
-0.079814 -0.075252
0.184197 -0.105317
0.211861 -0.125506
-0.312902 -0.134965
-0.334924 -0.027460
0.207330 0.214468
-0.117564 0.492580
-0.064612 0.082721
0.036196 -0.350530
-0.089154 -0.169394
-0.107863 0.153273
-0.412271 -0.300683
0.277074 -0.020768
-0.223061 0.216029
-0.197175 -0.039087
-0.000256 -0.059679
-0.083029 -0.141435
0.459125 -0.138458
0.381025 -0.059176
-0.035206 -0.197583
0.079294 -0.034190
0.380302 0.054562
-0.104243 -0.067632
0.118260 -0.212188
-0.267135 0.135339
-0.063349 0.037046
0.398922 0.026316
0.134313 0.053138
0.107432 -0.017725
-0.206883 -0.345586
-0.050769 -0.095074
-0.261788 0.206422
-0.033997 0.034956
-0.063848 -0.094627
-0.106871 -0.158945
-0.024660 0.432246
0.065637 -0.000747
-0.040666 0.049832
-0.113653 0.065671
-0.324316 0.094569
-0.126162 -0.074265
-0.203091 0.197355
-0.202642 0.160328
-0.240611 -0.011158
0.028831 -0.585197
-0.212077 -0.203161
0.059873 -0.410641
-0.244955 -0.069927
-0.154588 -0.016289
-0.007890 -0.190391
0.110055 -0.301382
0.035456 -0.292087
0.090114 -0.268440
-0.019779 -0.202665
-0.025983 -0.139869
-0.058308 0.205760
0.310304 0.314797
-0.095041 0.090504
-0.354277 0.061922
-0.392624 -0.004625
0.203440 0.077538
-0.102623 -0.195039
-0.082036 -0.001720
0.007246 0.318634
-0.083748 0.192848
0.104124 0.049971
-0.444304 0.080596
-0.115875 -0.020342
-0.122329 -0.189192
-0.384469 -0.212586
-0.057420 -0.000872
0.041691 0.000700
0.109869 0.030769
-0.036333 0.330883
-0.118744 -0.472286
0.037141 0.244149
-0.021509 -0.185430
-0.333734 0.310866
0.238407 0.226072
-0.274924 -0.186760
0.291120 0.137775
-0.131046 0.054611
0.194170 -0.041386
-0.244291 0.193700
0.014416 0.161199
-0.350931 -0.000000
0.178343 0.021908
-0.507696 0.116747
-0.094887 0.446964
-0.435549 -0.463777
0.208428 -0.489931
-0.138900 -0.240499
0.100706 -0.067491
-0.192508 0.186857
0.103141 -0.008882
0.155672 0.226919
0.238513 0.156066
-0.116942 0.238947
0.195456 0.088348
-0.176522 0.082377
-0.171394 -0.127930
-0.121000 -0.136998
0.068773 0.321985
0.062311 0.166416
-0.316538 0.289932
-0.040220 -0.061384
0.099674 -0.102905
-0.290931 -0.297397
-0.201866 0.040838
-0.325841 -0.217883
0.157633 -0.077308
0.246861 -0.262829
0.138163 0.105149
0.360698 0.251645
0.417761 -0.150841
-0.218004 0.103819
-0.063745 -0.150736
0.085702 0.048218
0.220268 0.273398
-0.040479 0.156027
0.232352 0.130617
0.036135 -0.164156
0.098949 -0.015257
-0.105745 0.167723
-0.345498 0.188859
-0.342150 -0.317658
-0.062107 0.266399
-0.258696 -0.001593
0.016070 0.176377
-0.264714 -0.037871
-0.053196 0.023536
-0.355636 -0.152556
-0.318104 0.073919
0.063037 0.068829
-0.047912 0.172241
-0.043506 -0.419378
-0.250804 -0.136269
0.006172 -0.054883
0.181427 0.114302
0.131126 -0.308511
0.098618 0.024229
-0.014478 -0.348106
-0.073818 -0.164366
-0.029646 0.182470
-0.057127 -0.115399
-0.065396 -0.014915
-0.022415 -0.575854
0.002142 0.306063
-0.083991 0.194053
0.107982 -0.133924
0.155667 -0.182124
-0.058194 0.170385
-0.303480 -0.126618
-0.240545 0.150885
-0.133992 0.197431
0.166131 0.310395
0.153697 0.437441
-0.101662 0.054929
0.229922 -0.185084
-0.107158 0.172896
-0.530569 -0.063973
0.004705 0.076347
-0.121368 0.094814
-0.265061 -0.031192
0.059400 -0.251969
-0.074740 0.226528
-0.072471 0.193368
0.093808 -0.191015
0.294146 -0.039648
0.045980 -0.230222
-0.257076 -0.139790
-0.507343 -0.023831
0.120667 0.054792
-0.081120 0.268367
-0.249846 -0.218369
-0.038820 0.067500
-0.023383 0.314838
-0.182863 0.224330
-0.261567 -0.243143
0.086535 0.126217
-0.291669 -0.213559
-0.111606 -0.107314
-0.074349 0.065188
0.026912 -0.152525
0.262614 0.406790
0.152018 0.154335
0.178987 0.210776
0.289616 -0.161713
0.169899 0.309310
-0.104065 -0.284542
0.285756 -0.009650
0.027743 -0.093494
0.251261 0.109398
0.116730 -0.244445
0.024116 -0.073577
-0.066437 0.110944
0.487421 -0.396134
0.010852 0.003207
0.435598 0.019062
-0.103508 0.171577
-0.016353 -0.340836
0.264247 0.317537
-0.002266 -0.135603
0.125704 0.236146
-0.032447 -0.124537
0.214376 0.060689
0.229871 -0.020915
0.253809 0.038359
-0.305843 0.290472
0.088777 -0.286933
0.008047 0.010888
0.127203 -0.018663
-0.182712 -0.300537
0.000384 -0.044891
0.219229 0.066283
0.003300 -0.100612
-0.018448 0.006543
0.341885 -0.011099
-0.312762 0.030361
0.044385 0.001605
-0.041165 0.210385
-0.115434 0.143675
0.139218 0.115833
-0.145851 0.189140
-0.017604 -0.244038
0.081078 -0.138357
-0.026420 0.249054
0.105056 0.182538
0.128506 -0.038867
-0.298680 0.096426
0.164687 0.381480
-0.121641 -0.104388
-0.345863 0.097743
-0.162603 0.004621
-0.094261 0.151451
-0.124747 0.191083
-0.293098 0.252498
0.107051 0.114209
0.202653 0.028157
-0.040302 0.152250
-0.074011 -0.290800
-0.023332 0.171670
-0.081180 -0.055912
0.420521 0.274928
0.012970 -0.298143
-0.113066 0.060109
0.258606 -0.020175
-0.082415 -0.067746
0.274677 -0.268676
0.138901 -0.290925
-0.117770 0.063233
-0.222006 -0.120824
-0.080120 -0.168473
0.152462 -0.300457
-0.061209 -0.200327
0.157301 -0.178570
-0.188872 0.055319
-0.096651 -0.054934
0.185342 0.155750
0.245744 0.170554
0.152219 -0.289563
0.031900 -0.085006
-0.023025 -0.010017
0.116953 -0.076169
-0.085886 0.117813
-0.126936 -0.390812
0.159770 0.139505
-0.341167 0.024444
-0.050972 -0.122549
-0.133723 -0.355393
0.048445 -0.127565
0.266292 0.167561
0.199952 0.070193
0.071137 -0.062671
-0.262339 -0.060804
0.101509 0.038414
-0.111789 -0.094555
0.126013 0.689835
0.064655 0.109753
0.002834 0.056625
-0.075247 0.330665
-0.091429 -0.129325
0.054636 -0.095607
-0.050080 -0.157537
-0.139478 -0.049838
0.119145 -0.238094
0.007127 -0.053144
0.080017 0.010459
0.175466 0.245652
-0.146399 0.073557
-0.360282 -0.178437
-0.140142 0.119246
0.049146 0.161523
0.320203 0.111477
0.111936 -0.024741
0.243926 0.499509
-0.112730 0.021646
-0.019531 -0.110045
-0.290329 -0.113244
-0.317345 -0.183017
0.051701 0.125978
0.099044 0.024289
0.272180 0.092681
0.271647 -0.188826
0.254619 0.020543
0.096339 -0.031296
-0.228322 0.392100
-0.351920 0.011262
0.258803 -0.186681
-0.053489 0.419138
-0.062931 -0.020050
0.095132 0.317557
-0.214954 0.646086
-0.164559 -0.120895
-0.087556 0.009808
-0.057052 -0.068760
0.037612 -0.207006
-0.145693 -0.187923
0.093687 0.145994
0.152902 0.024724
0.398033 0.116309
-0.187537 0.054317
-0.135827 0.119018
-0.035490 0.037983
0.148525 0.175058
-0.109551 -0.201496
-0.056434 0.074013
0.061962 0.569934
0.115034 0.183513
-0.012799 0.192004
0.006294 -0.012556
0.205183 -0.077894
-0.171069 -0.207858
0.129783 -0.161609
-0.009909 -0.030317
0.181063 0.145340
0.072574 -0.052888
-0.127645 0.111772
-0.448356 0.042329
0.453022 0.141548
-0.143598 0.116229
-0.300822 -0.155724
-0.127392 0.381293
-0.015932 0.118504
0.153946 0.143782
-0.335880 0.143813
-0.472021 0.183998
0.012667 -0.052656
0.007882 0.268021
-0.181987 0.030607
0.092489 -0.161424
0.206977 -0.079871
0.527378 -0.207222
0.205263 0.138361
0.025830 -0.252217
-0.325566 -0.392749
-0.179221 0.429754
-0.179329 0.249060
-0.577816 -0.131539
-0.417735 -0.106374
-0.039761 0.270778
-0.473542 0.061176
0.364870 0.130602
-0.102830 0.265895
0.061398 0.141063
0.240305 0.574058
-0.490277 -0.386134
0.390856 -0.040989
0.074422 0.602293
0.010034 -0.508669
0.352749 -0.100910
0.028339 0.203467
0.210825 -0.321019
0.150099 -0.137285
0.106769 -0.086616
-0.410035 0.033290
0.226497 0.045418
-0.353953 -0.044782
-0.390278 -0.667125
-0.381472 0.309393
-0.692821 0.202671
-0.208867 -0.323043
-0.087021 0.161952
-0.136575 0.445629
0.660691 0.291342
-0.121702 0.373651
0.362513 0.576651
-0.062019 0.111401
-0.091551 0.006076
0.085540 -0.295688
-0.293043 -0.179162
-0.185907 0.186979
-0.212208 -0.353194
-0.377777 -0.487070
-0.093833 0.228758
0.174692 0.382711
-0.717432 0.037344
-0.371498 -0.523045
0.214629 0.299858
0.344443 0.103542
0.789600 -0.239777
-0.677132 -0.003173
-0.543801 -0.057143
0.244980 0.540004
0.480278 -0.311999
-0.279257 -0.369234
-0.020706 0.570817
0.527372 -0.042181
0.133759 -0.245503
0.503104 -0.624138
-0.248749 -0.332490
-0.450854 0.160000
0.017618 -0.490986
-0.971569 -0.410556
-0.951519 -0.397864
0.856973 0.215033
-0.199729 -0.043679
-0.027451 1.508585
-0.908609 1.429663
0.580975 -0.187844
-0.334533 0.617905
0.209583 -0.729642
0.885463 0.625462
0.021192 -0.649433
0.181483 -0.314508
-0.106803 -0.683016
-0.453227 -0.371743
0.414277 0.138277
-0.269432 -0.502796
-1.280354 0.509851
-0.490053 -0.950337
0.462905 -0.145417
0.891956 0.161385
0.201874 1.694993
-0.307722 -0.585813
-2.386982 0.958663
-0.704555 -1.052786
-0.408895 0.806172
1.675669 -0.577591
-0.046554 1.084583
-0.417529 1.666148
0.117249 1.773831
2.139054 -3.293668
-0.646584 -0.850247
1.127312 1.456651
1.080439 -0.506343
-1.020548 -2.781539
-0.443679 -0.516401
-2.377430 -0.648110
0.293799 2.055327
-1.548697 2.349048
-3.110648 -2.098149
-1.059356 -0.229311
1.791331 1.001181
1.532844 0.983093
3.266427 1.850979
-0.202971 1.824245
-0.904439 -0.638103
0.126981 -1.138548
2.451530 -1.761910
2.517284 -2.346499
-1.479206 -4.025624
3.065658 2.997942
-5.135176 0.889470
-0.872998 -2.697648
-2.210305 0.140478
-5.692791 -4.297265
3.246340 -2.860977
-6.539340 -0.218598
-0.210816 -4.073059
-4.933606 6.807860
11.293612 -5.025168
-15.663576 9.442433
-13.012075 7.374868
14.179910 17.332087
-5.122006 -8.002259
7.813988 -11.337281
11.677024 19.188118
3.720963 5.911013
13.220712 15.344308
9.746914 -66.248091
-48.396550 -12.231909
-4.670154 1.134958
17.251161 -21.812942
-67.593367 -66.086872
-29.022232 -50.982341
-49.521611 74.965266
59.204910 61.653263
6.895230 183.532759
-216.623180 -25.877968
135.319551 165.336378
