3280.861720 2901.675189
-1662.974742 -682.769951
69.522868 -28.791547
41.253273 176.172544
-22.560683 13.940949
137.201340 -33.744153
59.091845 -52.043832
-51.071338 21.096083
46.645922 27.674535
-4.782282 -38.940302
38.612001 -11.473419
41.586676 -21.239869
69.196295 14.038238
49.675700 5.491572
60.384554 -12.498580
67.588797 -13.520388
50.489053 -2.924397
58.608122 -13.053361
28.663679 -6.404514
53.843258 -19.781775
37.643970 -40.141026
50.457101 -33.228274
44.995741 -25.088613
40.229879 -36.025466
41.871745 -39.803379
37.211499 -36.413001
39.201353 -40.474522
34.154371 -29.119308
35.124475 -36.811304
24.786174 -36.480682
29.953843 -45.881635
26.060057 -43.116443
18.170559 -43.086365
21.572399 -44.309505
18.831812 -46.264370
14.935937 -47.259885
14.179022 -43.983761
11.947616 -45.159284
7.654682 -41.744188
4.289478 -47.185007
4.630946 -43.938907
-1.510628 -42.047112
-1.137543 -42.283186
-3.811176 -40.638448
-3.948891 -38.964369
-5.967099 -40.351881
-8.562634 -37.240565
-9.062759 -35.529272
-12.808980 -35.403592
-12.211265 -34.799191
-14.857286 -30.681865
-16.566475 -30.780685
-16.246528 -28.351132
-15.702195 -27.202588
-18.421053 -26.375087
-17.713221 -22.972450
-18.609122 -21.297337
-21.029615 -18.097112
-19.800157 -18.739597
-19.389591 -15.742499
-20.097020 -15.131475
-20.494192 -12.588376
-18.531795 -11.273716
-19.063375 -10.854549
-18.121136 -9.301283
-17.989618 -8.259184
-16.901141 -5.948554
-16.722560 -5.312850
-14.849691 -4.295080
-15.247431 -2.567518
-14.724459 -2.214253
-14.584539 -1.836465
-13.654879 -0.254922
-11.919768 -1.234715
-11.299865 -0.272271
-9.996180 0.832795
-9.136493 0.744745
-7.896239 1.084676
-6.022957 1.645707
-7.098147 1.561119
-5.544997 1.794550
-4.871464 1.418102
-4.518640 1.586987
-3.555966 0.489603
-2.280207 -0.034595
-2.087970 1.142436
-2.411261 -0.152680
-0.595406 0.062972
-1.445229 -1.241732
-0.518394 -1.402085
-0.466817 -1.376299
-0.351752 -1.841881
1.120496 -2.679238
1.069841 -2.633183
1.141828 -3.127519
-0.075010 -4.006946
0.776841 -4.476200
-0.076006 -4.310024
0.241883 -5.213156
-0.571019 -5.234753
-0.809122 -5.304552
-0.974102 -5.868234
-1.328201 -6.527670
-0.849753 -6.753733
-2.168418 -6.399899
-2.594078 -7.344798
-2.489092 -6.847697
-2.625611 -6.909824
-2.301177 -6.724698
-3.262541 -6.597515
-3.334807 -6.366182
-4.087153 -6.172167
-4.614611 -6.089616
-4.887822 -6.043467
-5.064326 -5.873584
-5.155997 -5.224929
-5.906971 -4.738789
-5.826146 -4.766823
-5.761621 -3.965152
-6.243420 -3.219727
-6.721047 -3.341637
-5.758203 -3.021334
-6.213509 -2.383267
-6.379135 -1.491691
-6.420616 -1.933555
-6.585210 -0.638922
-5.761955 -0.664783
-5.738607 -0.044877
-5.649900 0.438055
-5.442988 0.499662
-5.226642 0.236441
-4.636455 1.232251
-4.537714 1.232480
-4.019173 1.733621
-3.474270 1.755681
-3.160159 2.015661
-2.504449 2.028685
-2.125835 2.160005
-2.250081 2.537119
-1.311852 2.372300
-0.997555 2.777843
-0.645738 2.206270
-0.052664 2.270389
0.696324 1.679778
0.764827 2.176099
1.289606 1.815725
1.637273 1.531567
1.855494 1.294806
2.472283 0.913394
2.063511 0.460846
2.791572 -0.043202
3.068259 -0.044355
3.088005 -0.633703
3.529096 -0.693872
3.549733 -1.068180
3.324564 -1.904263
3.251809 -1.968903
3.530713 -2.416749
3.464718 -3.144110
3.797814 -3.000299
3.896042 -4.165899
3.694982 -3.955133
2.842760 -4.370589
3.075988 -5.107054
2.676193 -5.075745
2.711010 -5.775093
2.477289 -6.331347
2.152249 -6.130636
2.063662 -6.208157
1.654475 -6.363039
1.287743 -6.372283
0.822231 -6.993603
0.466444 -7.158501
0.032205 -7.124939
-0.621702 -6.399386
-0.671603 -7.492242
-1.140352 -7.153660
-1.262872 -6.814888
-1.625977 -7.566328
-2.079841 -6.853853
-1.882218 -7.218311
-2.227369 -6.726455
-2.725531 -6.639760
-3.058527 -6.324105
-2.837575 -5.994149
-3.580081 -6.066673
-3.474675 -5.912410
-3.986023 -5.846335
-4.189903 -5.902347
-4.075170 -5.400524
-4.061617 -5.386755
-4.290901 -4.590291
-4.358798 -5.013332
-4.710935 -4.400645
-4.321649 -4.178946
-4.441724 -3.759957
-4.459735 -3.716948
-4.173063 -3.329354
-4.688679 -3.364198
-4.080143 -3.346678
-4.354272 -3.060183
-4.208335 -2.804223
-3.951939 -3.091159
-3.935312 -2.752488
-3.838987 -2.552176
-3.991621 -2.255075
-4.081727 -2.852383
-3.574170 -2.653483
-3.496741 -2.462344
-3.585588 -2.615676
-3.700611 -2.636840
-3.663533 -2.514253
-3.448747 -2.656196
-3.355906 -2.408466
-3.616610 -2.952360
-3.072035 -2.606973
-3.458035 -2.649748
-3.518431 -2.605840
-3.630329 -2.667855
-3.449556 -2.789299
-3.457670 -3.344097
-3.704076 -2.638418
-3.814358 -2.789683
-3.894705 -3.104602
-3.705855 -2.648309
-4.014977 -2.946260
-4.246796 -3.136630
-4.193874 -2.978495
-5.133262 -3.075521
-4.513688 -2.952724
-5.018154 -2.921021
-5.049424 -2.937307
-4.823410 -2.533097
-5.183148 -2.443278
-5.404538 -2.696521
-5.274394 -2.027139
-5.735126 -2.201793
-6.146528 -1.699977
-5.751210 -2.013687
-5.756533 -1.173219
-6.177273 -1.440462
-5.872864 -1.131826
-6.305076 -0.886356
-6.077645 -0.501128
-6.074666 -0.027481
-6.311783 0.170851
-6.228288 0.376279
-6.198099 0.295729
-5.820972 0.882293
-5.890439 1.058571
-5.742425 1.265703
-5.440889 1.292010
-5.340795 1.788318
-5.479641 2.136545
-5.098055 1.979445
-4.992665 2.420080
-4.609974 2.452652
-4.739423 2.463202
-3.923788 2.780537
-4.050245 2.935213
-3.720872 3.104026
-3.237444 2.954665
-3.389851 3.418822
-2.957164 3.261372
-2.443433 3.214401
-2.137461 3.479091
-2.226125 2.998715
-1.610900 2.611241
-1.584481 2.489565
-0.973333 2.972414
-0.886695 2.532256
-0.689162 2.611765
-0.196753 2.255740
-0.266599 2.057968
0.118473 1.843168
0.269266 1.561899
0.492113 1.316245
0.589641 1.406544
0.335011 0.745987
0.703600 1.137381
0.651535 0.528445
0.799187 0.401000
0.712294 -0.069844
0.918068 -0.092239
0.480852 -0.530589
0.730357 -0.720993
0.628789 -0.653754
0.296522 -1.136484
0.480631 -1.262921
0.000120 -1.138037
0.252109 -1.635360
0.051250 -1.707484
-0.339017 -1.631071
-0.715118 -2.174378
-0.814917 -2.023709
-1.043405 -2.264957
-1.035582 -1.970994
-1.341752 -2.310465
-1.404151 -2.353472
-1.856198 -2.402791
-1.679752 -1.977427
-2.333821 -2.256716
-2.256388 -1.947675
-2.366768 -2.276435
-2.439514 -1.833429
-2.702735 -1.831384
-3.062245 -1.379007
-3.159044 -1.386974
-3.251201 -1.025312
-3.250578 -1.344477
-3.003122 -0.912602
-3.104428 -0.481792
-3.618416 -0.557704
-3.294975 -0.658298
-2.952429 -0.222665
-2.814498 -0.134044
-2.815633 -0.006611
-3.103610 0.277182
-2.659827 0.602088
-3.239549 0.296820
-2.604838 0.564384
-2.315525 0.481144
-2.107864 0.860122
-2.444937 0.627508
-1.735708 1.072708
-1.751679 0.922439
-1.634190 0.937724
-0.895932 1.157508
-1.131484 0.988367
-0.556253 1.361616
-0.917437 0.756725
-0.477090 0.592075
-0.545507 0.523077
-0.032367 0.139226
-0.528432 0.218567
0.038633 0.000000
0.206156 -0.632359
0.233599 -0.355204
0.330826 -0.795683
0.135949 -0.912439
0.345566 -1.346013
0.324162 -1.707669
0.611637 -1.434223
0.315584 -1.869784
0.035165 -2.081469
0.141455 -2.823438
0.240037 -2.860716
0.052039 -3.007930
-0.292521 -3.373757
-0.430432 -3.330608
-0.908852 -3.396929
-1.054314 -4.161607
-1.355281 -4.215932
-1.602048 -4.152587
-1.843133 -4.666877
-2.590710 -4.464251
-2.617974 -4.416263
-3.105230 -4.141441
-3.799407 -4.899169
-3.921379 -4.627027
-3.728212 -4.992593
-4.496858 -4.124278
-4.754734 -4.413135
-5.157590 -3.936875
-5.620403 -4.121852
-5.840721 -4.097525
-6.264368 -3.934665
-6.412940 -3.329121
-6.624526 -2.959734
-7.325694 -2.968679
-7.078387 -2.635684
-7.672553 -2.349030
-7.767312 -2.056024
-8.295938 -1.436689
-8.114751 -1.065015
-8.270829 -0.292213
-8.210364 -0.438929
-8.308474 0.589065
-8.370626 0.363810
-8.115162 1.055659
-8.401065 1.408644
-8.304973 1.644538
-7.574713 2.036420
-7.829771 2.563174
-7.602780 3.174615
-7.320878 3.550175
-7.393828 3.784350
-6.962647 3.810575
-6.486293 4.406826
-6.333354 4.464427
-6.112720 5.162151
-5.645239 4.933257
-5.364316 5.569301
-4.724507 5.266599
-4.601068 5.689357
-4.178217 5.869125
-3.883696 5.675585
-3.575861 5.537864
-2.973231 5.643600
-2.744257 5.691260
-2.720266 5.896787
-2.060940 5.556589
-1.885047 5.662076
-1.558859 5.343257
-1.566047 5.162180
-0.950760 4.812049
-0.700234 4.940009
-0.553627 4.486306
-0.126438 3.830427
0.086725 3.797902
-0.020038 3.595418
0.108670 3.326846
0.627278 2.950238
0.205906 2.744274
0.642554 2.367521
0.343775 2.175231
0.170681 2.046679
0.124272 1.462307
0.293505 1.111592
0.282436 1.167185
-0.167030 0.962225
-0.167626 0.914131
-0.112551 0.534873
-0.620893 0.431615
-0.711025 0.250496
-1.159447 -0.111158
-0.902597 -0.050437
-1.050291 -0.108198
-1.397033 -0.183452
-1.383276 -0.175755
-2.089029 -0.015485
-2.096706 -0.093996
-2.381160 0.403607
-2.650840 -0.024213
-3.039917 -0.106892
-2.717856 0.044562
-3.134102 0.572458
-3.302276 0.434061
-3.232910 0.874297
-3.573101 1.223065
-3.674010 1.299350
-3.761742 1.294196
-3.812440 1.814822
-3.517716 1.459671
-3.816648 2.149015
-3.945971 2.383736
-3.424605 2.409834
-3.559071 2.908604
-3.578413 2.748453
-2.970989 2.772835
-3.342269 3.425978
-2.862791 3.481033
-2.999344 3.901276
-2.137420 3.952315
-2.343466 3.930036
-1.676685 4.072481
-1.781349 4.247961
-1.494880 3.713680
-0.873080 4.274095
-1.073150 4.253840
-0.554810 3.952621
-0.710882 3.876667
-0.000549 3.679597
0.249959 3.781987
0.038505 3.825066
0.453921 3.115406
0.781959 3.117658
1.216374 2.758440
0.979435 3.055522
1.316154 2.595477
1.535396 2.377606
2.015634 1.976114
1.581997 1.644447
2.222980 1.193224
2.030800 1.021306
1.630747 0.691974
2.182642 0.359938
1.523348 -0.408914
1.572153 -0.345595
1.403104 -1.148185
1.483644 -0.629243
1.410906 -1.419698
0.758479 -1.460753
0.728675 -2.206839
0.375062 -2.271001
0.006023 -2.380265
-0.186269 -2.682769
-0.643973 -2.358221
-0.936663 -3.181104
-1.521178 -3.223374
-1.595792 -2.921123
-2.058702 -3.399711
-2.413763 -3.378902
-3.088893 -3.363241
-2.869932 -3.127166
-3.821330 -3.028147
-4.283729 -3.157193
-4.060390 -2.893330
-4.700096 -2.886829
-5.649341 -2.679648
-5.443324 -2.336859
-5.828849 -2.482503
-6.247020 -1.815149
-6.195984 -1.971687
-7.014414 -1.688897
-6.889124 -0.920014
-7.236712 -0.937952
-7.112524 0.357435
-7.864774 0.329333
-7.299899 0.445279
-8.037402 1.291561
-8.138178 1.445339
-8.026272 2.057359
-8.278220 1.903323
-7.869212 2.463265
-7.925797 2.462707
-7.889909 2.919559
-7.554117 3.525554
-7.392707 3.830518
-7.047345 3.928721
-6.632709 4.549900
-7.020467 4.622024
-6.970040 4.941684
-6.848393 5.697506
-6.759314 5.203006
-6.428263 5.650215
-5.947854 5.281540
-5.573185 5.816236
-5.527322 5.844060
-5.374833 6.205393
-4.810197 6.107346
-4.768642 6.359624
-4.576376 6.393480
-4.213557 5.718328
-3.796358 6.249725
-3.678639 6.007557
-3.796279 6.395960
-3.785289 6.240821
-4.045457 6.143746
-3.328797 5.614459
-4.190033 5.574174
-3.706944 5.742654
-3.900135 5.010674
-3.331171 5.424556
-3.067662 5.623889
-3.387958 5.439600
-3.362048 5.784811
-4.060427 4.813881
-3.305801 5.709139
-3.182983 5.151449
-3.790831 5.814559
-3.970273 5.236362
-3.602566 5.404257
-4.489136 5.418471
-4.684048 5.096781
-4.302775 5.537784
-4.882164 6.002954
-4.579873 6.927375
-5.195759 6.344924
-4.293808 6.883595
-4.376916 7.016825
-4.980344 7.568068
-4.826724 8.228303
-5.115251 8.578342
-4.680941 9.070752
-5.479400 8.903813
-4.900326 9.243890
-4.699510 9.587712
-4.827266 10.005196
-4.904174 9.985255
-4.340221 10.326703
-4.131798 10.539399
-4.005064 10.910827
-3.385993 12.026938
-2.595751 11.918682
-2.348973 12.519066
-2.097373 12.450876
-0.974879 13.088881
-0.238769 13.581083
-0.804043 13.493573
-0.003358 13.611144
0.515718 13.136903
0.925809 13.660592
1.310746 12.940703
2.483964 14.204037
3.520035 12.524893
3.984588 13.462646
3.928959 13.222174
4.934567 12.183566
5.716205 12.949398
5.593482 12.174615
6.170885 12.356004
7.423651 11.183498
7.579486 10.743968
7.907279 10.545320
8.494610 9.748979
8.634107 8.621235
8.720823 7.954669
9.101826 7.424248
9.134288 6.640913
9.819319 5.716826
8.544257 4.797623
9.679481 5.150598
9.338264 3.203593
9.024408 3.448936
8.262314 3.562243
7.766079 1.770704
7.319985 1.485121
6.493047 -0.347228
7.119076 0.139837
7.672999 -1.237363
5.679347 -1.105224
4.826426 -1.306582
4.013794 -2.757676
4.089922 -3.107015
3.310617 -3.245153
2.126637 -1.965838
0.302225 -3.149644
-1.211545 -2.263064
-2.645685 -3.459999
-2.534710 -1.979034
-3.143807 -2.334383
-5.120650 -1.603471
-6.690068 -0.796013
-6.769081 -0.992844
-5.952549 0.244471
-7.136475 -0.444473
-8.911381 3.753332
-8.667580 1.011739
-11.141501 3.219592
-11.469329 3.199687
-10.827493 6.858361
-12.794183 7.547444
-14.083960 9.304611
-15.971568 11.900380
-12.648862 9.772944
-13.901991 12.950692
-13.760554 12.389576
-12.654577 19.171785
-12.515724 17.849536
-11.899692 16.119553
-11.409454 20.779129
-3.729823 19.829338
-7.519244 25.932073
-4.176397 24.968516
-10.918411 31.538160
-9.340336 22.166961
-9.404715 26.583821
-9.838559 34.001652
-7.795675 32.445476
-4.589501 34.680978
-2.545350 15.033246
-3.351900 39.058612
22.456166 21.731113
10.059577 49.057365
5.939449 39.073622
13.127963 32.670526
22.655847 40.091922
17.455718 39.563954
26.446527 52.659171
7.360634 17.762413
-8.647885 33.432488
-33.368151 -80.995733
19.905709 59.998758
45.786169 51.516238
-28.018065 -65.895727
-13.552620 51.292383
7.961682 126.208176
-142.076843 -148.435287
372.782297 -217.030019
