3529.821858 3819.705787
-1773.045191 1164.042671
21.655311 -38.335641
-74.590867 -163.288657
-100.642750 77.967241
28.464350 -12.605236
-16.830089 59.759351
-189.652991 214.714159
17.343682 -10.645222
4.769745 -7.343539
12.610324 -52.459624
-6.161900 -5.371512
-12.341449 3.292121
-19.115702 13.537986
-54.010700 1.824767
12.159912 21.464095
-10.434848 39.003653
28.699965 -21.696047
-18.371703 -5.646615
-3.739770 15.417780
-12.065226 -11.006047
-15.553405 -13.381899
0.522060 9.849887
-16.485004 1.560393
9.642720 0.344921
-3.094668 -8.910732
-4.137380 -0.378370
-0.825889 -0.996949
-1.305729 9.972013
-8.492837 -1.292240
-3.962357 -3.251175
4.047934 -1.136364
-4.558622 -7.174114
-5.906719 2.677823
2.483568 -0.351684
-7.598042 2.899850
-2.590615 -1.350806
3.651965 2.397423
0.031828 -4.781263
4.272807 -2.608066
-6.052957 -0.417522
-3.437706 2.768129
-3.592070 -0.567070
0.684681 -1.836116
-3.928187 3.140560
1.342912 -1.410066
3.560324 -0.575768
-5.642897 -3.708755
-0.247397 1.970177
0.375386 -0.141399
-1.434465 1.861774
-0.794485 -1.813397
-1.074799 0.373158
-0.513523 1.933257
-1.330163 -3.551192
-1.460771 1.001478
-0.639602 1.598424
-2.750349 0.328214
0.516804 -2.512019
-0.756023 -0.492318
1.064550 -1.978263
-1.194634 -1.755295
-2.165893 1.872865
-0.201445 0.634471
-2.077220 -0.806798
1.438458 1.512597
-1.350890 -1.090846
0.916179 -0.719677
-0.579275 -0.768290
-2.169388 -1.795677
-2.140317 1.057873
0.850844 -0.672569
-0.130570 -0.200108
-1.202399 -1.060047
0.698302 1.401925
-0.767771 -0.571125
-0.427281 -1.137840
-0.343228 1.601967
-0.324442 -0.297619
-0.561233 -0.548973
0.525365 -0.655019
-1.088993 -0.381936
0.155750 -0.042485
0.617065 0.328042
-0.899765 1.015796
1.114448 -0.161760
-0.011065 -0.529348
0.041095 -0.622680
-0.637599 -1.089755
0.740113 0.333165
-1.109322 -0.327563
-1.091235 0.080541
0.317271 -0.242200
0.345062 -0.571541
0.488127 -0.578643
-0.397864 -0.941553
-0.057104 1.009320
-0.120762 0.345800
-0.153227 0.024306
-0.124444 -0.249624
-0.129497 0.042316
-0.695356 -1.164284
-0.367907 -0.338145
-0.829375 0.854133
0.413872 -0.375803
-0.100982 0.085973
-0.219553 0.488240
-0.185738 -0.561799
-0.212131 -0.611432
-0.294998 -0.693615
-0.152106 -0.085992
0.330439 0.538198
-0.259469 -0.495595
-0.078947 0.061001
0.380340 -0.507956
-0.122131 -0.872655
-0.182238 0.105209
-0.135452 -0.208295
-0.420948 0.011965
0.182469 -0.426515
-0.185971 -0.162168
0.165079 -0.208636
0.009689 -0.273176
0.107767 0.442708
-0.227958 -0.472768
-0.239070 0.248030
0.316700 0.324796
-0.284346 -0.422368
-0.387362 -0.507475
0.189975 0.015816
0.126141 0.143888
-0.063302 0.350278
0.291039 0.156414
-0.374696 0.423839
-0.009855 -0.950696
0.133000 -0.171247
-0.102228 0.162312
-0.022778 -0.337397
0.323169 0.014513
-0.176857 0.230514
0.374074 0.024968
-0.079667 -0.004339
-0.014420 0.421721
0.383821 -0.702687
0.075906 -0.255499
0.101245 -0.038918
-0.347095 -0.252502
-0.099871 0.451808
-0.027600 -0.139544
0.011169 -0.350669
0.065258 0.309002
0.594966 0.013415
-0.212481 0.110032
0.120029 -0.029116
0.787113 -0.482633
0.378926 -0.339126
0.095456 -0.467327
0.308845 0.045180
0.109577 0.021820
0.247115 -0.014074
-0.217520 0.265268
0.454625 0.340490
-0.284549 0.374026
-0.047711 -0.184938
-0.071279 0.241847
0.077636 0.177669
-0.082428 0.494312
-0.026679 -0.124964
-0.002460 0.190976
-0.002991 0.158186
-0.152040 -0.056543
0.233481 0.112739
0.101094 0.034923
-0.547048 -0.029504
-0.024518 -0.237942
-0.198910 -0.020422
-0.063439 0.199908
0.263037 -0.001512
0.487773 -0.130187
-0.091503 -0.062554
-0.158579 -0.208617
-0.412574 -0.121288
0.030980 0.294907
-0.218970 0.049625
0.198317 0.253166
0.289737 -0.106553
0.041412 -0.329374
-0.067632 -0.340408
-0.007909 -0.082049
-0.224812 -0.250406
-0.308801 -0.024878
-0.169091 -0.096174
-0.215272 -0.305735
-0.178934 -0.019572
-0.220221 0.270718
-0.192888 -0.167207
-0.110357 0.053306
0.211966 -0.263455
0.171321 -0.543144
-0.396222 0.010938
0.340451 -0.350265
-0.240950 -0.363935
0.061929 -0.215162
-0.353648 -0.297705
0.295793 0.181792
-0.122850 0.412070
-0.050879 -0.465263
0.030743 -0.028182
0.054606 0.122719
-0.127795 -0.120560
0.542658 0.051080
-0.081261 0.045964
-0.182025 -0.042855
0.002207 -0.028612
0.021131 0.236179
-0.078598 -0.288620
-0.146654 0.458570
0.162531 0.003536
-0.025580 0.320360
0.189194 0.234194
0.068965 -0.011222
0.120189 0.356581
-0.168070 0.154681
0.398866 0.273476
-0.404142 -0.145271
0.235177 0.057440
0.004273 0.456953
0.037045 -0.267219
-0.159085 0.059258
-0.256947 -0.082559
-0.025674 -0.271700
-0.331643 -0.135712
0.148857 -0.216699
-0.617556 -0.027884
-0.089430 -0.245264
-0.341504 0.143623
0.265395 0.101872
-0.168157 0.329237
0.028624 0.027745
-0.166443 0.275969
-0.110487 -0.244095
-0.097917 0.155307
0.286350 0.023950
0.174010 -0.049288
-0.041241 -0.244442
-0.504787 0.188753
0.100189 0.302674
-0.129097 0.430252
0.103543 -0.286140
-0.493690 -0.135612
-0.102906 0.347517
-0.247634 0.128111
0.559621 0.125522
-0.215548 0.132786
-0.257088 0.257153
0.622717 0.428826
-0.108237 -0.134400
-0.071501 0.154227
0.184243 0.131910
0.184280 -0.434258
-0.405117 -0.301856
-0.356848 0.161762
-0.032121 0.059012
0.023262 0.218377
0.019575 -0.010878
-0.043773 -0.109969
0.145034 0.268930
-0.180584 0.002740
-0.064451 -0.152276
0.133349 0.070766
-0.022893 -0.107011
-0.121416 -0.138395
-0.135961 0.208488
0.132866 0.064827
-0.151775 -0.098414
-0.232641 0.093104
0.369236 0.153928
-0.173411 0.202365
0.185377 0.123238
0.440545 -0.076012
-0.184205 -0.119764
-0.025955 -0.022459
0.138588 0.146395
-0.031414 -0.000824
-0.035760 0.203252
-0.133787 0.239962
0.232566 -0.074782
-0.277752 0.232868
0.180201 0.282444
0.108558 -0.272169
-0.084734 0.179411
-0.156455 0.135725
0.260216 -0.378298
-0.425863 0.220203
0.182133 0.012654
-0.192226 -0.102242
-0.009205 0.180917
0.213489 -0.140224
-0.165281 -0.095789
0.110464 0.156233
0.021680 0.303083
0.073083 0.150945
0.421003 0.190137
0.018719 0.017458
0.406434 0.018789
0.098375 -0.083946
0.105577 -0.199283
0.218429 -0.166118
0.100829 0.119943
0.394440 -0.714514
-0.333665 0.074029
-0.130795 -0.026956
-0.060084 0.049114
-0.044238 0.064174
-0.115007 -0.245198
0.050308 0.131856
0.034336 0.100087
0.200484 -0.195852
-0.368100 0.757428
0.339426 -0.253042
-0.078337 0.088474
-0.109156 0.306822
0.264038 -0.095078
0.136386 0.062965
-0.033419 -0.136627
-0.140778 -0.060676
0.008272 -0.025617
0.300705 0.170154
-0.024265 -0.177334
0.148437 0.061962
0.051405 -0.201176
-0.022322 0.022252
0.105886 0.000678
0.014240 0.003087
-0.386422 -0.195700
-0.031576 0.199349
-0.213307 0.186742
0.176700 -0.177433
-0.175827 0.216945
-0.093633 0.171199
-0.070811 -0.046179
0.162962 0.063409
-0.074943 0.160745
0.179720 -0.217828
-0.043595 -0.033916
-0.203218 -0.118011
-0.300505 -0.053628
0.031284 -0.231243
-0.357865 -0.101847
0.179906 0.083798
0.155250 0.306022
0.095815 0.010617
-0.000691 -0.176055
-0.259208 0.413810
0.007617 -0.160661
0.110140 0.234344
0.324149 -0.000488
-0.062438 -0.091152
-0.026637 -0.029364
0.099717 0.105041
0.069044 0.345079
-0.048634 -0.150057
-0.298586 0.093292
-0.284930 0.263398
0.216338 0.161307
-0.099129 0.003528
-0.030182 -0.110632
-0.296532 0.291560
-0.254018 -0.409658
-0.096057 -0.228473
-0.064894 0.108720
-0.328486 -0.039131
-0.111392 -0.148762
-0.010233 -0.116651
-0.106675 -0.061457
0.120841 -0.139285
0.209361 -0.007894
-0.017620 0.084649
-0.048482 -0.141747
0.186951 0.034994
0.096631 0.105880
-0.093454 0.091990
0.103728 0.010238
0.151490 0.180218
0.469680 -0.234233
0.042371 -0.079696
0.017741 0.193737
-0.287953 -0.165079
-0.037014 0.134796
0.118545 -0.277680
0.035216 -0.108497
0.032561 -0.019735
-0.304571 -0.032959
0.134435 -0.024406
0.032537 -0.119524
0.446568 0.002740
-0.038810 -0.070279
-0.125855 -0.013657
0.190912 -0.002313
0.153017 0.168105
0.292419 -0.387323
0.038304 0.082782
0.024862 -0.141997
-0.038424 -0.184191
0.172315 -0.196645
0.067724 0.147469
0.073366 0.005132
0.067384 0.076448
-0.277329 0.091379
0.219259 -0.005657
-0.071828 -0.275245
0.091136 0.227506
-0.108463 -0.160767
-0.039510 0.060596
-0.031101 0.021424
0.156614 0.019859
-0.210079 -0.250171
-0.099818 0.150423
-0.095831 0.018064
-0.129367 -0.123044
0.092911 -0.135524
-0.178865 -0.104345
-0.150838 0.020945
0.278140 0.014203
-0.157824 0.041419
0.012812 0.176261
-0.046361 0.033890
0.128097 -0.087589
-0.243873 0.121573
0.164696 0.104605
0.104355 -0.191116
-0.030540 0.042632
0.067797 -0.046478
-0.002560 -0.172331
-0.010396 0.238574
0.046728 -0.018554
0.178905 0.030733
0.046345 -0.063047
0.099404 -0.172062
0.104764 -0.031560
-0.048483 -0.141527
-0.153763 0.102839
-0.025061 0.146178
-0.022564 -0.068199
-0.136535 0.176880
0.096696 0.108987
0.026580 0.149423
-0.039676 -0.018987
-0.050450 0.087288
-0.052015 0.104231
-0.050313 0.167972
-0.041147 -0.077519
-0.063218 0.074065
-0.331331 0.017929
0.030126 0.076796
0.089494 0.079606
0.040163 -0.081012
-0.082024 0.286997
0.161208 0.203029
-0.112024 -0.219756
-0.350033 0.071358
-0.030777 0.119526
-0.079986 0.036275
-0.066121 0.169859
-0.092610 -0.158690
-0.131007 0.280844
0.032166 0.124320
0.248896 -0.068083
-0.020210 -0.131388
0.134386 0.190459
0.043408 -0.241651
0.116954 0.072132
-0.000569 -0.172282
0.041646 0.077860
-0.080521 0.064074
0.164293 -0.067849
-0.199522 0.104697
0.213099 -0.236923
-0.022040 0.019880
0.232434 -0.067957
-0.122119 -0.276912
-0.218283 -0.155519
-0.095554 0.182694
-0.043913 0.025305
-0.100530 0.016843
0.034173 0.096209
-0.113921 -0.042728
-0.200026 -0.142874
0.204192 -0.236044
-0.020148 0.072507
-0.096425 -0.080702
0.019439 0.125820
-0.170257 0.296011
0.051525 -0.232284
-0.184453 -0.007338
-0.008500 0.066518
-0.419045 -0.271387
-0.043721 -0.004865
-0.039847 0.185969
-0.080983 -0.126245
0.029083 -0.139205
-0.302931 -0.018456
-0.079213 0.052572
0.035368 -0.184228
-0.009834 0.182927
-0.147480 -0.099136
-0.039574 -0.160771
-0.004801 -0.303551
0.047503 0.075352
-0.150322 -0.235763
0.281431 -0.232557
-0.450871 -0.085323
-0.253278 -0.040842
0.259945 0.053263
0.114895 0.067711
-0.411168 -0.066911
0.078841 0.035302
-0.088992 0.006369
0.226948 0.223156
0.214301 -0.045465
-0.099983 0.196498
-0.263505 -0.086200
-0.184608 -0.316377
-0.005890 0.047954
-0.279761 0.237704
0.047340 -0.043802
-0.286479 -0.274590
-0.142369 -0.128277
-0.130324 -0.405831
0.244818 -0.021950
-0.213398 -0.017059
-0.299158 -0.279879
-0.065798 -0.037742
-0.090303 -0.163424
0.303165 0.016090
-0.144742 -0.073482
0.362848 0.195360
0.057930 -0.099334
0.176043 0.108544
0.334294 -0.266496
-0.191153 0.264300
-0.039295 0.395764
0.002678 -0.257114
0.195229 0.186738
0.144290 0.065503
-0.190885 0.122492
0.074704 -0.051429
0.041052 0.681583
0.239441 -0.309628
0.012226 -0.287454
-0.027181 -0.005529
-0.133018 -0.054439
-0.070640 -0.057413
0.150497 0.058403
0.023077 0.004767
-0.101114 -0.000596
0.104498 -0.181936
-0.019337 0.373904
0.005892 -0.205686
-0.373375 -0.053571
-0.024785 0.132226
0.307222 0.150668
0.249723 -0.079813
0.140879 -0.254502
0.120430 0.298111
0.142892 -0.037636
-0.222217 -0.283251
-0.154635 -0.069032
-0.116262 0.089060
-0.441790 0.009794
-0.002543 0.147457
0.094708 0.102256
-0.178058 0.019434
0.177663 -0.150894
-0.124010 0.130601
-0.024948 -0.093731
0.276382 -0.183332
-0.238459 -0.099924
0.147712 0.069791
-0.080049 0.025653
0.016339 -0.185132
-0.032646 0.018248
0.197480 -0.145753
-0.175819 -0.196414
0.139792 -0.022323
0.095145 -0.119078
0.179951 -0.051213
-0.425411 -0.262760
-0.211878 -0.001564
-0.176267 0.358981
-0.063638 -0.070103
-0.192315 -0.324875
-0.508735 0.767802
0.018362 -0.448178
-0.135508 0.389763
-0.102054 0.100344
0.325011 0.098480
0.118434 0.263991
0.050916 -0.062885
-0.176870 0.276619
0.122372 0.169233
0.068995 -0.625057
-0.272751 0.381501
0.240462 -0.331473
-0.321746 -0.245924
-0.040163 -0.036370
-0.088141 -0.070814
-0.420117 -0.348786
-0.125538 0.197198
-0.003054 -0.114854
-0.319905 -0.073281
0.241701 0.129318
0.101919 0.219566
-0.028098 -0.314972
-0.026083 0.148322
0.085462 0.154163
-0.013881 -0.246947
-0.136689 -0.013224
0.025983 -0.048570
-0.057781 0.144035
-0.209385 0.304039
0.089576 -0.134656
-0.056439 0.165632
0.049593 0.255698
0.178430 -0.231565
-0.007441 0.206819
-0.012841 -0.036553
-0.149297 -0.183985
-0.132301 0.218552
0.154788 -0.080178
0.099931 -0.013566
-0.106101 -0.229350
-0.170376 0.283326
0.006672 0.353598
-0.021556 -0.054774
0.326708 0.425897
0.078060 -0.210147
-0.251530 -0.172938
-0.062850 0.283159
0.207151 0.008776
-0.214584 -0.211633
-0.111788 0.348966
0.290424 0.180305
0.067994 -0.232964
-0.247993 0.405838
0.260569 0.076701
0.105431 0.210298
0.181322 -0.279868
-0.087784 0.187577
0.203236 0.297828
0.265919 -0.183354
0.403219 -0.549313
-0.164191 0.131166
-0.291388 -0.259460
0.043435 0.278083
-0.304780 -0.204578
0.081917 -0.035840
0.074886 0.040684
0.123839 -0.105104
0.069230 0.095058
-0.061927 0.341238
0.528501 0.182403
0.110322 -0.153447
-0.082956 0.055104
-0.296989 0.010545
0.134604 0.120288
0.074414 -0.234051
0.001144 -0.469349
0.219799 -0.013544
-0.492448 0.370642
0.354519 0.103143
-0.050218 0.362539
0.139304 -0.118771
-0.020283 0.471844
0.133004 0.053060
0.133630 0.341919
0.122752 -0.178278
0.295373 0.529009
0.241387 0.245681
0.149490 0.102382
0.334407 0.103714
-0.034781 0.157501
0.249150 0.062503
0.027558 0.071328
-0.003241 -0.057385
-0.273331 -0.206248
-0.071027 0.367295
-0.454650 -0.326691
0.238714 -0.030329
-0.199539 0.280222
-0.010934 -0.358337
0.085820 -0.149058
-0.124616 0.179298
0.011241 -0.520799
-0.131317 0.273411
0.316549 -0.067970
-0.422331 0.145087
0.193249 -0.190059
-0.191142 -0.066153
-0.215203 -0.131220
-0.084646 -0.508054
0.044454 -0.040951
0.160095 -0.125368
-0.092449 -0.015788
0.269611 -0.310684
-0.150351 0.119876
0.155804 0.360053
0.309366 0.137564
0.511664 -0.415233
0.274128 -0.485563
0.102277 -0.397249
-0.525282 0.236641
0.040151 -0.041884
-0.317021 0.053119
-0.086636 0.275908
0.482734 0.226700
0.452339 0.096559
0.248198 0.174028
-0.045735 -0.103561
-0.031721 0.211072
0.124833 -0.080730
-0.028526 -0.188443
-0.193025 -0.384044
0.022057 0.064035
-0.160751 -0.028940
-0.098270 -0.070698
0.164326 -0.087143
0.244605 0.347414
-0.068917 -0.138921
0.343359 -0.301576
0.201848 -0.084219
-0.117498 -0.225953
-0.356108 -0.169984
-0.161527 0.282862
0.230719 -0.211605
-0.103973 0.478660
0.586708 -0.202771
0.322256 0.121692
0.301202 -0.194909
-0.303014 0.318679
-0.411767 0.017505
-0.249493 0.392810
-0.344914 -0.068412
-0.066287 0.225284
-0.326697 0.558880
-0.480379 0.480377
-0.504772 0.261068
0.065672 0.077893
-0.307520 0.140655
0.080634 0.216909
-0.036767 0.019606
0.095646 -0.389599
-0.291229 -0.148181
-0.441703 0.114076
0.032396 0.053464
0.210896 0.038241
-0.583123 -0.304123
-0.336556 0.258621
0.284969 0.440930
-0.209383 -0.152396
-0.190315 0.565814
-0.514634 -0.521592
-0.205203 -0.095967
0.156796 -0.203630
0.174502 0.148309
-0.126997 0.109349
-0.226161 0.185915
0.326790 -0.025803
-0.223266 -0.425145
-0.158352 0.211988
-0.473541 -0.078571
0.557105 -0.352315
-0.337647 -0.781559
0.077072 0.288570
0.040216 0.271406
-0.085775 0.164750
0.713586 -0.000378
-0.148565 0.123556
0.261798 -0.485290
-0.465359 0.334120
-0.229701 -0.102099
-0.366244 -0.271003
-0.323330 0.297979
0.103437 -0.261670
0.269746 0.551156
0.326362 0.122870
-0.474630 -0.030404
0.007856 -0.180105
0.650460 -0.129943
-0.360360 0.067402
-0.021441 -0.367393
-0.616936 0.656400
-0.105273 -0.170523
0.430334 0.585209
-0.167157 0.152220
-0.071734 -0.510808
0.473385 -0.252116
-0.137747 -1.192013
0.161324 -0.280333
-0.229179 -0.293954
0.029714 0.646232
0.184583 -0.095164
-0.270229 0.430207
-0.624933 0.451086
-0.347734 0.009014
0.684263 0.481987
-0.287225 -1.031549
-0.487911 0.162956
-0.000819 -1.104541
0.331164 0.040624
-0.029540 0.104572
-0.636299 -0.319499
-0.166586 0.575162
-0.496944 1.307758
1.205833 -0.322400
0.019827 0.126739
-0.207333 -0.477941
0.148922 -0.154522
0.419783 -0.122583
0.365747 -0.089309
-1.290738 -0.787187
1.171205 0.121348
-0.210492 1.187543
0.443448 -0.393042
0.028499 0.551467
-0.307562 0.364467
0.961668 -0.153573
-1.088182 -0.590773
-0.570059 -1.365389
-1.900021 0.042023
-0.032844 -0.046719
0.089885 1.204640
0.260625 -0.345300
0.027149 0.190491
0.488165 0.577794
1.037047 -0.304542
-1.263448 0.247499
-0.233397 -0.726857
-0.663045 0.827980
0.037445 0.381112
-0.694033 -0.275281
-1.223433 -0.254924
0.359407 -0.484377
0.978279 1.679239
1.271598 -1.357354
0.050121 -0.574141
0.533272 -0.495991
1.223829 0.333572
-0.377057 0.022514
-0.864265 -1.027860
0.146554 2.390729
-0.085950 0.646914
1.881224 1.244290
-0.081997 -0.592167
1.039044 -0.674739
0.514353 -0.369911
0.393684 -1.767161
0.172797 -0.414704
-3.238443 -1.072658
2.836600 3.377904
-0.961505 1.766479
-0.935151 1.754672
-0.045400 -1.175593
0.125945 0.254665
2.621439 2.034471
-1.973928 -4.671512
0.051871 -2.494869
-4.723247 0.495808
1.668222 1.030518
-1.563516 0.420109
-0.966129 0.895043
1.034722 2.783885
2.494633 1.468579
2.805652 1.082290
-6.226272 -5.348213
-2.445463 -2.954340
-4.472677 2.565917
-5.529484 0.151042
-4.298125 -5.665926
0.523871 2.112735
5.301921 -1.788923
1.902126 10.758943
2.936623 1.626065
-4.576296 1.445208
-0.035085 1.373151
5.198320 1.313071
-5.925770 -3.929778
-6.832084 -17.215349
-19.078949 38.086732
-27.854364 -4.220330
5.339796 34.351780
23.194487 -19.347284
-6.907767 -8.030740
32.117360 68.112959
53.136098 -69.050124
-191.880148 27.953901
-39.466994 -22.876733
-40.515331 330.071819
-158.948969 82.273855
-108.614816 -47.269494
2.230784 -16.624164
-225.231235 124.303936
271.319351 128.028321
