7781.639184 4767.383269
-3128.094419 -2897.368046
-460.911978 330.938027
-151.926781 -52.889911
-10.696921 137.327872
179.383508 -26.054818
-28.373971 37.780342
165.684387 152.086347
-60.321889 23.139333
54.123365 12.468974
86.869117 31.985479
30.370943 -44.130446
102.118863 27.179063
65.253647 -13.842335
76.138681 -18.204995
106.104664 -12.259220
96.229017 -6.003105
94.596989 -3.011013
83.340437 -4.245309
79.012667 11.671220
72.210611 -11.195008
76.553688 -4.608587
79.753745 5.096026
67.775079 -18.931024
70.227787 -7.840640
76.874105 -21.549968
66.322701 -44.817020
72.046113 -13.641814
77.747992 -20.963520
76.244550 -29.306896
65.742630 -33.262041
70.006859 -28.893965
72.508266 -37.638428
68.862541 -30.518618
65.562578 -24.977163
62.934457 -42.881311
64.552959 -36.009812
60.377502 -37.721302
61.892137 -45.313475
51.776407 -36.948658
49.512833 -41.678486
49.178133 -46.646066
47.266612 -53.758363
49.486159 -48.603781
50.580609 -49.058721
48.286064 -46.184651
39.704754 -45.605989
36.800502 -49.889872
35.166765 -54.098009
33.464382 -54.298375
37.254908 -54.486295
37.560371 -50.599832
27.725691 -48.621457
26.430896 -54.945846
20.106549 -47.630495
22.176204 -52.187925
23.503315 -54.586466
18.756985 -47.678287
17.047272 -52.851315
15.668527 -48.213867
12.318692 -51.101005
9.458691 -50.477681
10.552017 -49.621438
7.163233 -48.458260
8.169741 -46.943165
4.102336 -45.392212
0.212592 -45.381056
2.154442 -43.822553
0.200412 -44.325282
1.575602 -43.209676
-2.562041 -40.091086
-2.322710 -40.743106
-1.371132 -39.450407
-6.073923 -35.976217
-3.839710 -35.270975
-8.278501 -34.056462
-11.814207 -33.582007
-7.920339 -33.329012
-11.182038 -30.780183
-9.126287 -33.177196
-9.810963 -29.222874
-11.508700 -28.371461
-9.542905 -26.030682
-12.075080 -23.516256
-12.802585 -25.460100
-13.728247 -21.506701
-12.852811 -23.636126
-13.084724 -20.693920
-12.407256 -19.425419
-10.089872 -17.387046
-11.818211 -15.206076
-12.265840 -14.592054
-12.347264 -12.640016
-14.554302 -13.697321
-11.783755 -12.395094
-10.259443 -12.263067
-10.909272 -11.183723
-8.991083 -6.494432
-9.683010 -7.812369
-9.202850 -7.212923
-8.528414 -5.596798
-7.885675 -6.612439
-6.397122 -4.404271
-8.916255 -4.198280
-5.224717 -2.944815
-7.091460 -3.116520
-5.543153 -3.588186
-3.168596 -3.095120
-4.020831 -1.345315
-1.633791 -0.722108
-2.368847 -0.137784
-1.663583 -0.080923
-0.856262 -0.443933
-0.415230 -0.221060
1.173159 -1.005605
1.183909 -0.872941
2.682275 0.494165
3.190638 -0.486730
3.473394 -0.623339
4.942248 0.371281
4.287903 -0.215027
6.855588 -1.046572
5.299254 -1.194084
7.350063 -1.266894
7.913438 -1.920162
8.287676 -2.146608
9.319797 -2.330837
8.538745 -1.811242
9.987378 -3.386014
9.544344 -3.460203
9.187033 -4.383024
12.080744 -3.713834
10.857526 -4.994289
11.306818 -6.190462
11.705546 -5.878175
11.082446 -6.614242
12.468946 -7.139154
11.531814 -6.857394
11.593993 -8.640933
11.220004 -8.450470
12.166431 -9.214290
12.154586 -10.272937
11.558667 -9.427359
11.792086 -10.480778
11.500350 -11.354337
11.170459 -12.643434
11.604842 -12.133214
10.649194 -13.725299
10.637982 -13.814930
9.997073 -13.998345
10.059626 -14.862555
9.611548 -14.843054
8.788458 -15.931975
8.840011 -16.052497
8.740985 -16.976511
7.991786 -16.558349
7.248137 -16.988463
6.474828 -17.149302
6.683296 -17.108524
6.224280 -18.130370
5.276065 -18.218700
5.294237 -17.512014
4.301805 -19.022515
3.895848 -18.176616
3.152286 -18.602126
2.704212 -18.624129
1.821221 -18.197877
1.464369 -18.582232
1.345346 -18.506411
-0.170569 -18.067591
0.193108 -18.069471
-1.173957 -17.909232
-0.963702 -17.670344
-1.668036 -17.106919
-2.270595 -17.679711
-2.530640 -16.974854
-3.183325 -16.686155
-3.736410 -16.668449
-4.310735 -16.189582
-5.131732 -15.939724
-4.687166 -15.294821
-5.810656 -14.823546
-5.167009 -14.622660
-6.018975 -14.105783
-6.462998 -13.936642
-6.860619 -12.966475
-6.918758 -13.255963
-7.186698 -12.204474
-7.339598 -11.271247
-7.036266 -11.404844
-7.693232 -10.727147
-8.216920 -9.745598
-7.305080 -10.592206
-8.088771 -9.585459
-7.110542 -8.937384
-8.000643 -7.765852
-8.507409 -8.080921
-8.206928 -6.776221
-7.500677 -6.972171
-7.700248 -6.594685
-7.979724 -5.650499
-7.563133 -5.530650
-7.204897 -5.314176
-7.060258 -4.246030
-6.712043 -4.187585
-6.243579 -3.712320
-6.268194 -3.834487
-5.759193 -2.668924
-5.949278 -2.893758
-4.871847 -1.961237
-4.755944 -1.753718
-4.671077 -2.267845
-4.719601 -1.496124
-3.851478 -1.105670
-3.337793 -0.779974
-3.560980 -0.285322
-2.334714 -1.198602
-2.497989 -0.373608
-1.979523 -0.209566
-1.676236 -0.527002
-1.659826 -0.537748
-0.997071 -0.459610
-0.506295 -0.203805
-0.263212 -0.473754
0.167887 -0.225648
0.469935 -0.302980
1.678728 -0.602767
1.078244 -0.171694
1.722316 -0.659955
1.910256 -1.542895
2.805409 -1.019176
2.919228 -1.101853
3.022094 -1.523459
3.224892 -1.898360
3.596370 -1.892749
3.676725 -2.392977
3.848510 -2.502884
3.889663 -2.520251
4.834566 -2.882045
4.802988 -3.492126
5.329136 -3.442914
4.845770 -5.004002
4.797360 -4.491328
5.496923 -4.836264
5.336891 -5.249403
5.365961 -5.445560
5.500429 -5.749070
5.139983 -6.498352
5.320379 -6.303624
5.231428 -6.918585
5.503778 -7.653661
4.639247 -7.512532
5.470597 -7.752405
4.919043 -8.318225
4.431114 -8.343354
4.809653 -8.932334
4.552248 -9.850234
4.151365 -9.367607
4.004752 -9.703763
3.707920 -10.252570
3.401876 -10.613002
3.027370 -10.492376
2.705253 -11.253625
2.635675 -10.853733
2.256643 -10.849543
2.403602 -11.630519
1.603786 -11.329868
1.434728 -11.458106
1.171428 -11.799397
0.370492 -11.828326
-0.005431 -11.996675
-0.435067 -12.333317
-0.319490 -12.021829
-0.857501 -12.303523
-1.269206 -12.174149
-1.359012 -12.085083
-2.126420 -12.068091
-1.904769 -11.820514
-3.095544 -12.291356
-3.292764 -11.375002
-2.966987 -11.746248
-4.137627 -11.726878
-4.112291 -11.523954
-4.472801 -11.130993
-4.698900 -10.684829
-5.091471 -10.660323
-5.324210 -10.443332
-5.479962 -10.275849
-5.718548 -9.753980
-5.932551 -9.640285
-6.664652 -9.485449
-6.773215 -8.908714
-6.584951 -8.683912
-6.976503 -8.641524
-7.247253 -8.081399
-6.603636 -7.901699
-7.720978 -7.207854
-7.419271 -6.968031
-7.311610 -6.755863
-7.484701 -6.403745
-7.346800 -6.065798
-7.475935 -5.702033
-7.703113 -5.238600
-7.921286 -4.423748
-7.350780 -4.490324
-7.535919 -4.209983
-7.815314 -3.824118
-7.169951 -3.391499
-7.111711 -3.477198
-6.878250 -2.883605
-6.582995 -2.592881
-6.998207 -2.613321
-6.353449 -1.481361
-6.333107 -1.913733
-6.152794 -1.476705
-5.822854 -1.209572
-5.777283 -1.057882
-5.454846 -0.894738
-5.444674 -0.545730
-4.589737 -0.297747
-4.964600 -0.210900
-4.338423 -0.167971
-3.952820 -0.047721
-3.717475 0.003181
-3.207364 0.224332
-3.021683 0.208762
-2.900030 0.623611
-2.841365 0.991332
-2.368011 0.288056
-1.662516 0.561808
-1.682464 0.524441
-1.162984 0.339024
-0.998845 0.121119
-0.770695 0.304758
0.172268 0.552680
-0.136947 -0.044239
-0.167726 0.460682
1.030372 -0.190245
0.675787 -0.637612
0.854496 -0.164065
1.037565 -0.829084
1.458524 -0.485451
1.381705 -1.207924
1.771227 -1.467843
2.007233 -1.729162
1.737428 -2.211076
2.230483 -1.982047
2.840029 -2.339817
2.226234 -2.230312
2.693985 -2.318238
2.613895 -3.103093
2.482322 -3.255965
3.028975 -3.497306
2.769201 -3.958677
2.574262 -3.679670
2.658034 -4.288915
2.693573 -4.972519
2.364557 -5.327019
2.366004 -5.489236
2.867872 -5.499801
2.663745 -5.953083
2.612943 -6.022367
2.069774 -6.257276
1.666015 -6.712366
1.779190 -6.855641
1.891399 -6.885155
1.610507 -7.323701
1.821561 -7.451167
1.179326 -7.869834
0.494973 -7.964158
1.039551 -7.727978
0.521711 -8.195371
0.594730 -8.127618
-0.018746 -8.309493
0.036389 -8.428051
-0.831251 -9.040469
-0.912665 -8.375473
-1.164629 -9.261542
-1.365054 -8.459028
-1.694711 -8.976154
-1.864596 -9.062920
-2.517034 -8.762224
-2.590164 -8.973447
-2.940926 -8.718813
-3.113205 -9.097099
-3.407835 -8.753114
-3.468377 -8.637590
-3.835324 -8.822566
-4.450398 -8.358134
-4.431986 -8.761717
-4.971951 -8.093667
-5.135437 -7.571221
-5.230447 -7.989796
-5.802993 -7.814431
-5.676822 -7.686443
-5.814875 -7.336048
-6.239096 -7.368212
-5.693900 -6.714541
-6.102688 -6.941851
-6.648464 -6.453035
-6.806054 -6.024201
-6.489116 -6.089746
-6.476336 -5.750777
-6.990958 -5.236310
-7.292045 -5.222343
-7.163208 -4.698379
-7.269908 -4.540738
-6.614595 -4.194901
-7.596251 -3.881432
-7.418644 -3.704176
-7.140705 -3.179921
-7.283235 -3.538207
-7.317345 -2.736472
-7.227463 -2.624929
-6.796529 -2.318253
-6.900536 -1.960205
-6.244310 -2.012236
-6.853922 -1.677239
-6.890278 -1.520772
-6.351287 -1.020864
-6.463698 -1.118796
-6.040994 -0.774726
-6.013670 -0.283719
-5.247807 -0.503731
-5.228571 -0.191785
-5.386443 -0.069423
-5.326527 -0.045520
-4.678171 0.080242
-4.509851 0.519484
-4.760227 0.466401
-4.039009 0.466468
-3.689826 0.946381
-3.569558 0.809410
-3.699751 0.824484
-2.839912 0.881044
-2.942418 0.893720
-2.589157 0.544368
-2.092765 0.549032
-1.934299 0.858245
-1.847622 0.854226
-2.044994 0.754354
-1.154430 0.317731
-1.217974 0.435348
-1.241746 0.785752
-0.879578 0.364354
-0.770860 0.215900
-0.069145 0.127277
-0.617274 -0.489581
0.236649 -0.231185
0.205181 -0.659491
0.284720 -0.872663
0.373975 -0.992159
0.662542 -1.032793
0.608042 -1.639467
0.793882 -1.439516
1.138863 -1.807494
1.094157 -1.994364
1.018571 -2.357867
0.868900 -2.305448
1.143154 -2.736510
1.141553 -3.145724
1.205313 -2.923108
1.036814 -3.490610
1.297279 -3.766796
0.799261 -3.947830
0.844431 -4.053670
0.748785 -4.245987
0.600975 -4.436393
0.836917 -4.768635
-0.132437 -5.122786
0.679717 -5.094830
0.434485 -5.243654
-0.278047 -5.534798
0.009473 -5.786328
-0.352925 -5.661946
-0.541083 -5.953390
-0.686536 -6.555580
-0.916221 -6.648672
-0.869408 -6.282393
-1.344861 -6.433462
-1.148098 -7.241961
-1.657199 -7.031579
-1.562283 -7.095795
-2.161451 -7.027281
-2.523661 -6.843124
-2.537890 -7.490755
-3.132000 -7.162280
-3.437610 -6.761338
-3.476194 -7.002625
-3.572553 -7.185352
-3.874142 -6.892289
-4.085529 -6.773091
-4.374895 -6.574587
-4.765697 -6.943343
-5.063264 -6.806357
-5.187975 -6.251708
-5.326120 -6.609409
-5.771941 -6.281472
-5.657661 -5.872430
-6.208820 -5.805274
-6.155721 -6.046338
-6.426949 -5.571408
-6.434175 -5.403607
-6.775077 -5.292694
-6.672882 -5.297115
-7.000019 -4.642086
-6.836011 -4.907040
-7.059972 -4.170216
-7.399883 -4.045932
-7.559903 -3.806543
-7.266749 -3.323971
-7.732589 -3.530457
-7.651097 -2.908480
-7.581941 -2.693153
-7.637333 -2.319136
-7.796411 -1.927690
-7.282712 -2.304598
-7.864333 -1.811463
-7.512415 -1.492332
-7.148139 -1.412790
-7.539817 -0.711124
-7.161652 -1.164998
-6.954870 -0.574576
-6.819532 -0.598503
-7.146421 -0.119489
-6.992527 0.047684
-6.874092 0.204872
-6.598079 0.337702
-6.515002 0.437628
-6.138117 1.098374
-6.150163 1.139176
-5.625386 0.652070
-5.660695 1.406335
-5.436621 1.516925
-5.246060 1.489578
-4.850425 1.894288
-4.952602 1.759312
-4.306540 1.556972
-4.113472 1.801332
-4.175551 2.006831
-3.842004 1.791155
-3.585187 1.225103
-3.310366 2.090356
-3.139195 1.886772
-2.704295 1.719546
-2.458689 1.785829
-2.329109 1.783882
-1.923501 1.334584
-1.687197 1.598861
-1.956205 1.675379
-1.248477 1.395379
-0.672526 1.402734
-0.420020 0.762172
-0.782344 0.917492
-0.582706 0.796079
-0.161047 0.610083
-0.143879 0.076996
-0.028694 -0.054663
0.179605 -0.179605
-0.081900 -0.285898
-0.022206 -0.671066
0.478809 -0.484625
0.355709 -1.188645
0.418284 -0.943106
0.251707 -0.981592
0.519599 -1.319995
0.330517 -1.799122
0.721362 -1.617352
0.799115 -1.754252
0.811604 -2.656976
0.552861 -2.806770
0.269466 -2.658091
0.617181 -2.917935
0.613074 -3.290919
0.177475 -3.513652
0.239394 -4.077222
-0.026327 -3.865538
-0.213620 -4.283016
-0.872712 -4.368500
-0.604891 -4.938545
-0.595114 -5.031033
-1.336563 -4.870954
-0.954068 -5.365317
-1.148960 -5.366217
-1.725365 -5.523497
-1.858533 -6.076077
-1.820874 -5.841623
-2.246717 -5.861861
-2.226928 -5.686147
-2.510445 -6.026587
-2.878034 -6.247027
-3.449415 -5.956648
-3.377439 -6.261018
-3.647609 -6.127563
-4.229396 -6.340695
-4.476483 -6.111236
-4.709563 -5.671187
-4.967102 -5.995707
-5.039518 -6.022138
-5.231432 -6.159208
-5.788074 -5.778676
-5.875929 -5.619144
-5.884976 -5.593686
-6.302307 -5.539838
-6.061230 -5.683769
-6.411832 -5.164861
-7.111749 -5.019061
-6.641416 -4.883771
-7.209389 -5.111420
-7.324852 -4.469279
-7.108249 -4.404986
-7.777560 -3.892177
-7.998471 -3.674503
-7.780450 -3.467842
-8.125224 -3.016609
-8.605434 -2.969817
-8.580843 -2.766198
-7.908281 -2.366138
-8.741285 -2.054023
-8.419103 -1.793944
-8.474973 -1.651800
-8.624748 -1.035055
-8.649374 -1.327192
-8.600257 -1.090432
-8.173795 -0.641951
-8.451546 -0.333297
-8.395149 0.027211
-8.040347 0.262799
-8.030767 0.400683
-7.572692 0.633561
-7.902328 0.950044
-7.518833 0.877316
-7.368073 1.516880
-7.504816 1.401491
-7.523510 1.489966
-7.364473 2.022744
-6.943076 1.678163
-6.716470 2.766631
-6.698356 2.513076
-6.667251 2.393353
-6.257138 2.870745
-5.793579 2.943400
-5.940518 2.773982
-5.786523 2.782654
-4.898267 3.188664
-5.006856 3.258030
-4.833676 3.119259
-4.353620 3.051471
-4.174425 3.355705
-4.083203 3.210006
-3.762814 3.024364
-3.221173 3.002363
-3.006820 3.092367
-2.924366 2.510141
-2.753663 2.797496
-2.312742 3.192516
-1.757932 2.676111
-2.161153 2.576083
-1.631946 2.475029
-1.580596 2.288522
-0.971704 2.487100
-1.114175 1.629550
-1.189475 2.296053
-0.737367 1.837838
-1.031541 1.756675
-0.391544 0.845804
-0.652946 0.752679
-0.420601 1.049759
-0.093963 0.854424
-0.144592 0.367967
-0.867743 0.605473
-0.462643 -0.039616
-0.123848 -0.643683
0.036229 -0.366278
-0.107985 -0.845143
-0.013178 -1.539581
-0.381818 -1.312160
0.100063 -1.448597
-0.111612 -1.873119
-0.422691 -2.626844
-0.312087 -2.084789
-0.275583 -2.142391
-0.523076 -2.719447
-0.794140 -2.998476
-0.804781 -2.950477
-0.798064 -3.318368
-0.733872 -3.544033
-0.951942 -3.647849
-1.514762 -3.650566
-1.589348 -3.975494
-1.772159 -4.577420
-2.064648 -4.114465
-2.707692 -4.873767
-2.637983 -4.743532
-2.893880 -4.713882
-2.887465 -4.631085
-3.144472 -4.655246
-3.424145 -5.468792
-3.866284 -4.699324
-4.130401 -5.262631
-4.583277 -4.875986
-4.930182 -5.145491
-4.964177 -5.062512
-5.356185 -4.731735
-4.959784 -4.819241
-5.805575 -4.494234
-6.066869 -4.958180
-6.315831 -4.542832
-6.550576 -4.407321
-6.613348 -4.322009
-7.170496 -4.071357
-6.830276 -4.188886
-7.427891 -3.659133
-7.946910 -3.834552
-7.706918 -3.502930
-7.904470 -3.571309
-8.104963 -3.091073
-8.356402 -2.335783
-8.745794 -2.738425
-8.841091 -2.572118
-8.664239 -2.171363
-8.744263 -1.593211
-9.255158 -1.352526
-9.218167 -1.483405
-9.082087 -1.241720
-9.347730 -0.427404
-9.118618 -0.830563
-9.293134 -0.279593
-9.208832 -0.081589
-9.289781 0.509624
-10.064414 0.049481
-9.023346 0.948046
-9.477949 1.019264
-8.972955 1.322887
-8.788556 1.712429
-9.023494 1.716285
-8.780705 2.416478
-8.814231 2.281519
-8.357090 2.848640
-8.457714 2.624543
-8.270679 3.043413
-7.436605 3.335734
-8.126766 3.262155
-7.710025 3.604102
-7.389798 4.056564
-7.023091 3.832805
-6.625916 4.533953
-6.510790 4.123926
-6.401341 4.456207
-6.100261 4.164725
-5.835419 4.339472
-5.546387 5.137515
-5.166785 4.830016
-4.642376 4.780485
-4.857073 4.470671
-4.628211 4.652898
-4.335882 4.909441
-3.775499 4.702449
-3.510973 5.002718
-3.932197 4.820496
-3.267216 4.344750
-3.284162 4.304208
-2.941952 4.377188
-2.513579 4.402999
-2.617638 4.014172
-2.014217 3.530204
-2.010640 3.567194
-1.642367 3.774430
-1.379370 3.333705
-1.184563 3.067489
-0.719697 2.585553
-0.850431 2.825769
-0.679621 2.135697
-0.992586 2.389993
-0.486820 1.853233
-0.638413 1.447293
-0.358639 1.337862
-0.489728 1.252794
0.085003 0.973526
-0.626203 0.068769
-0.126049 0.488043
-0.466181 0.698354
-0.476967 -0.191531
-0.280009 -0.393978
-0.387945 -1.093581
-0.742739 -0.858561
-0.707158 -1.022052
-1.049727 -1.595597
-0.922772 -1.634483
-0.833994 -2.431570
-1.010048 -2.159964
-1.398037 -2.638647
-0.967533 -2.872824
-1.691000 -2.642017
-2.197804 -3.126249
-2.281458 -3.367215
-2.222371 -3.152848
-2.621255 -3.260174
-3.246938 -3.745100
-3.417746 -4.063411
-3.534641 -3.924499
-4.302812 -4.515694
-3.780291 -4.158559
-4.739975 -4.372946
-4.342447 -4.215350
-5.308606 -4.430187
-6.007876 -4.097575
-5.062823 -4.280299
-6.717344 -4.408158
-6.551223 -4.439671
-7.017828 -3.720056
-7.217800 -3.994967
-7.162405 -4.473293
-7.995124 -3.996401
-7.899561 -3.926529
-8.328326 -3.590270
-8.384224 -3.574175
-8.845706 -3.694607
-9.520851 -3.036822
-9.500483 -2.536553
-9.352371 -2.357717
-10.119901 -2.817851
-10.017697 -2.163268
-10.346387 -1.671992
-10.852429 -1.405409
-10.570885 -1.244121
-10.582054 -0.941863
-11.084004 -0.779724
-11.555190 -0.239914
-11.312206 0.166898
-11.260993 0.225428
-11.285884 0.790511
-10.947805 1.558599
-11.803903 1.530618
-11.437566 2.158518
-11.544489 2.524660
-12.255572 2.425054
-11.434871 2.753948
-11.716207 2.797996
-11.070934 4.007752
-11.284377 3.929142
-11.273586 4.065281
-10.680190 4.894480
-11.369777 5.218703
-10.436974 5.646438
-10.617904 5.506559
-10.178428 6.055296
-10.301771 5.937542
-10.082978 6.825806
-9.264991 6.556757
-9.752022 7.060663
-8.763111 7.200381
-8.716301 7.444095
-7.954555 8.222157
-8.161772 7.822110
-7.550292 7.906975
-7.421754 8.062639
-7.599098 7.822373
-6.466743 7.995784
-6.338219 8.592768
-6.032513 7.934155
-5.359905 8.145205
-6.122349 8.633253
-4.599368 8.434806
-4.347419 7.951814
-3.852209 8.222104
-4.048467 7.972091
-3.489388 8.327058
-2.871981 7.605122
-2.690272 7.472004
-2.416725 7.211615
-1.515002 7.754852
-1.790457 7.228850
-1.365880 7.117798
-1.333270 7.132300
-1.096393 5.740321
-0.898369 6.494597
-1.122934 5.939133
-0.749667 6.040439
-0.141902 5.298920
0.265227 5.140032
0.195463 4.044946
-0.048960 4.071242
0.510702 3.855960
0.338000 3.138099
0.440350 3.310857
-0.232150 2.698112
0.424228 1.560677
0.693611 2.174340
0.072269 1.542677
0.323005 0.861295
0.576744 1.186796
-0.442192 0.713031
0.388394 0.290940
-0.792538 -0.411950
-0.286595 -0.832397
-1.421276 -1.461866
-0.377445 -1.437954
-1.266837 -1.591625
-2.166576 -2.463487
-1.860087 -2.531762
-2.194853 -2.275287
-2.063711 -2.864275
-2.955740 -2.780351
-3.327104 -3.770631
-3.529595 -3.816433
-3.904770 -4.076213
-4.445351 -3.871609
-4.508610 -4.441452
-5.115162 -3.342169
-5.118053 -4.747520
-6.298848 -3.903807
-6.703417 -3.897802
-7.927835 -3.909084
-7.437464 -4.242066
-7.892704 -4.609547
-8.753282 -4.626377
-8.919732 -3.459785
-9.659903 -3.995718
-10.171003 -3.872504
-10.632108 -3.567659
-10.486660 -3.242038
-11.652072 -3.585051
-12.089437 -3.069031
-12.201057 -2.633536
-12.755726 -1.454280
-13.145357 -1.927279
-13.809770 -1.368699
-13.963480 -0.868589
-13.971137 0.194072
-14.903286 -0.034829
-15.082758 -0.108551
-15.223584 0.093968
-15.744668 1.424233
-15.779001 1.762164
-15.661568 2.051297
-16.508455 2.654804
-16.181986 3.177264
-16.309014 3.211217
-16.071138 3.881934
-16.762784 4.723788
-16.622516 5.310722
-17.063367 5.917041
-16.683356 6.529635
-16.461359 7.354432
-16.189111 7.243769
-16.388870 8.829520
-16.397974 9.267984
-16.355187 9.460350
-16.036700 9.676067
-16.310605 10.445762
-15.781402 11.238927
-14.918083 10.753886
-15.112060 11.884174
-14.775634 12.106704
-14.475912 13.403472
-13.719944 12.859540
-13.790050 13.733766
-13.269813 14.139643
-11.264235 14.201479
-11.871172 15.600850
-10.918410 15.098281
-10.916461 14.958420
-10.825241 16.860132
-9.598665 15.882214
-10.133761 16.366686
-9.288160 16.043443
-8.375467 16.068664
-7.638020 16.666031
-7.074801 15.741210
-7.211921 17.093625
-6.861507 16.449156
-6.009829 16.300861
-5.983447 15.837251
-4.188009 16.111646
-3.293073 15.615432
-3.565389 15.519260
-2.035406 15.770881
-2.133328 15.882508
-1.963332 14.626692
-1.689253 15.056690
-0.731549 13.836787
-0.550365 13.437917
0.384036 13.945926
-0.071937 13.132606
-0.036833 12.581005
0.926812 12.572665
2.072956 11.229496
1.782136 11.017668
2.007267 10.881903
1.407967 9.890897
2.111765 9.482204
2.092217 8.430859
1.793537 7.853177
3.042832 6.782657
2.444890 6.622120
2.779549 6.418983
2.391363 6.783119
1.971526 5.453556
0.703402 4.504561
0.776331 3.165421
1.093401 2.813847
0.345334 2.107515
0.007357 1.683970
-0.545988 0.436040
-1.199933 1.224457
-1.344587 -0.458224
-1.168237 -0.765177
-2.357453 -0.368462
-2.524763 -2.158811
-3.694730 -1.464207
-4.540269 -2.821429
-4.087111 -2.439249
-5.395645 -2.234614
-6.493363 -2.523985
-7.044482 -3.506259
-10.431317 -2.323157
-8.826426 -3.661024
-9.659385 -2.833872
-12.406755 -2.529261
-11.499643 -3.256098
-13.449063 -3.490475
-14.919004 -4.131218
-14.679489 -2.493481
-16.433779 -4.600877
-16.486940 -3.377146
-19.040173 -1.931735
-18.545622 -2.343181
-20.814858 -0.532612
-21.271220 -1.182162
-21.995605 -2.201937
-22.608744 0.606214
-24.512939 0.945069
-24.993766 3.330118
-28.667998 3.682524
-29.270283 3.441048
-29.158134 3.361871
-30.563442 5.860446
-29.663258 5.893644
-31.958654 7.965325
-31.122030 10.859322
-32.990438 9.987051
-33.213488 10.728815
-34.270250 14.046089
-35.607793 13.186284
-32.918163 14.919254
-34.307621 18.232873
-34.408575 19.180801
-33.759021 22.046313
-36.985378 23.666394
-33.922096 23.405310
-34.839160 28.730096
-37.458467 24.972451
-34.598288 28.241880
-37.074813 30.401279
-34.091209 30.584010
-35.447953 34.311997
-34.393339 33.810724
-34.156045 37.154380
-38.588178 41.330483
-30.668391 38.570184
-35.394823 44.329347
-30.688161 41.292514
-27.437521 47.550806
-31.527569 48.854725
-33.499958 45.944928
-27.430725 50.856043
-26.128481 52.469399
-19.771518 54.875504
-22.008958 64.205749
-31.758392 62.039509
-28.692385 62.275459
-25.125200 58.874095
-21.166711 52.753359
-12.638999 60.276683
-9.336711 64.851961
-9.733919 66.204261
-10.743052 72.458288
-7.657781 70.964684
-15.028526 62.330549
-9.356892 66.190712
5.399595 67.799721
4.772488 68.578372
8.134736 80.880510
8.636330 77.373626
1.760620 75.546277
7.840423 73.442128
11.166229 77.978045
7.807312 70.713438
13.026080 78.568825
16.747890 72.752478
17.027811 56.707743
27.342747 59.606421
29.349132 79.006663
31.696496 75.598446
34.849746 78.597182
30.972573 66.529689
39.257602 60.388047
49.678544 61.205329
47.159175 77.823395
27.596813 75.942283
30.535702 50.690150
37.962969 75.223215
44.145952 44.383039
59.561827 91.999671
-5.980058 78.192278
12.701328 49.610417
-3.324223 -3.556484
105.281450 46.875935
-9.827945 21.442834
58.244009 55.646671
-22.257134 83.026652
-32.801432 -337.352943
352.276688 307.306334
137.956591 18.699640
-1281.926183 -201.001791
