7673.902320 6018.731641
-3875.684148 1244.879080
2399.040274 -1356.134677
182.441756 -967.236762
41.842194 -216.307452
277.427771 -194.187991
101.777513 -197.516824
463.761864 -317.174743
120.573668 -137.446297
112.625724 -447.470129
136.428916 -102.542079
100.882326 -133.437149
257.865391 -193.217757
154.563303 -327.077724
104.338635 -222.038194
47.746117 -56.349060
165.211088 -60.192227
136.636421 -149.353816
53.178479 -164.033070
81.584494 -141.305890
138.049421 -99.423732
116.539991 -147.862654
106.098816 -186.590963
57.274197 -192.408407
49.902969 -109.796151
43.258696 -85.857346
137.587917 -126.896585
91.937052 -171.082986
28.256442 -179.118850
-27.641872 -97.408912
4.008608 -84.300018
24.125525 -101.612645
21.084057 -131.995474
-8.225927 -120.201207
-7.489289 -82.413624
7.850486 -70.887847
31.870559 -80.367088
19.027817 -89.493849
1.604525 -83.231703
-13.047205 -46.079619
24.539373 -41.211198
44.743600 -36.154673
18.395816 -74.724617
-13.623343 -65.306503
-11.347006 -36.934917
2.344256 -25.737552
22.471585 -49.150267
16.525505 -53.425376
-1.346220 -51.394574
-8.573326 -29.121154
19.423170 -16.840753
39.906470 -30.310978
33.806664 -63.985665
17.037669 -48.954494
3.610828 -30.531882
27.935923 -29.156804
36.070099 -44.181288
23.102828 -48.797217
9.833800 -49.600766
22.031371 -44.033748
30.079277 -41.563112
30.263133 -41.862157
15.603978 -48.687090
10.548848 -44.582648
14.668382 -28.854945
25.006789 -24.028212
27.646296 -41.946556
32.790679 -51.465891
14.817921 -34.503040
9.175750 -34.761594
22.735059 -40.198781
21.736001 -45.626591
6.246724 -48.035674
2.370419 -42.992002
17.282919 -34.588073
25.170680 -34.402557
11.839092 -49.216081
-2.431241 -56.568784
-8.957214 -36.249514
8.045495 -24.278861
20.413916 -30.549561
18.569277 -47.236464
5.041167 -40.575384
-5.869362 -28.151693
4.261588 -22.525933
13.246336 -25.097787
10.271702 -39.913941
1.576652 -39.340848
-8.557981 -28.610803
0.020502 -18.071886
9.969358 -23.991125
10.384278 -42.414735
-4.081264 -44.480829
-15.200737 -32.660738
-1.707899 -17.752648
12.927134 -18.593425
14.353308 -29.102298
0.450596 -33.265120
-5.752798 -25.733753
3.189126 -12.536895
10.747345 -16.451772
14.242677 -30.533984
4.896138 -32.145503
-4.720385 -22.150129
-1.239334 -14.756775
5.554807 -17.491050
8.425892 -23.748713
-0.477884 -23.919946
-1.474159 -19.497102
3.853274 -13.411574
6.846605 -14.073039
7.757549 -18.853594
3.204733 -18.561185
3.626698 -11.625488
7.517700 -9.330852
14.813332 -17.541821
12.857463 -24.753432
4.271578 -21.682489
3.095942 -16.887245
11.087656 -15.817519
14.136530 -21.465501
6.513408 -24.482545
1.358590 -22.407636
4.436546 -16.363434
11.738585 -14.617363
14.515746 -23.463016
7.709567 -28.831676
0.888395 -24.916979
3.643773 -12.962816
12.075862 -14.167928
17.745545 -24.720861
11.991717 -31.425472
1.432997 -27.776108
-0.718191 -20.372978
6.173152 -17.982212
10.080585 -24.290154
4.975351 -29.102492
-3.161409 -25.152189
-0.502452 -19.830954
7.972179 -18.109095
9.054260 -24.986598
-1.351100 -31.662423
-8.610211 -26.995057
-7.439011 -14.415111
0.914747 -11.389070
5.416710 -18.800649
2.722061 -24.706402
-4.735936 -21.823387
-6.775394 -16.649761
-1.917595 -13.416739
1.252421 -17.157907
-1.504016 -18.944984
-7.358513 -15.830718
-5.219645 -10.274941
-0.779688 -9.413954
0.340066 -15.226617
-4.572563 -16.175386
-8.019226 -9.601792
-3.268146 -4.342688
2.964932 -4.732861
5.751184 -10.129147
2.116603 -12.469066
1.299422 -10.682215
5.649293 -7.133319
9.105303 -8.867987
7.655668 -15.313447
3.443437 -15.312265
2.022170 -10.469874
7.733152 -5.903310
12.057090 -10.884985
11.396257 -18.866826
4.446259 -17.994546
0.742628 -13.111086
6.135102 -7.453997
11.919088 -11.198512
11.950817 -17.759563
6.226894 -20.997941
4.036931 -17.053824
7.813260 -12.630329
11.501567 -17.659488
8.362369 -24.288450
-0.023218 -23.866132
-1.744899 -17.629343
3.878942 -13.278266
8.569286 -17.467137
7.012952 -23.649613
-1.872549 -23.932100
-4.934554 -17.557672
-1.490296 -12.407334
2.919678 -15.516782
2.316534 -21.284045
-4.030757 -21.541536
-6.362843 -15.973438
-3.279640 -10.929228
2.601279 -13.132364
1.152684 -18.130579
-5.632493 -19.558923
-7.464073 -13.761756
-3.861192 -8.654872
0.889254 -9.864967
0.204428 -14.121305
-4.038533 -14.849846
-6.037957 -10.446141
-2.820029 -8.651607
0.845561 -10.022776
-0.527108 -11.811291
-3.595490 -10.221510
-2.142469 -5.914594
2.747408 -5.107266
5.630404 -8.785998
3.325183 -12.175583
0.762867 -12.166847
1.324026 -8.077522
4.117042 -7.785785
7.055417 -10.635661
3.965742 -13.265395
0.998408 -11.231446
2.069827 -8.845861
6.258086 -8.869866
6.751996 -13.297354
1.677314 -16.098466
-1.075433 -12.716571
1.596151 -7.783266
7.514282 -9.473147
8.422725 -15.133605
3.821969 -19.393630
-0.538885 -16.354203
0.173549 -11.941895
4.834909 -12.578750
5.562672 -16.990077
0.832221 -19.787333
-3.900589 -17.081714
-2.483860 -10.920871
1.818415 -11.458929
3.099789 -16.502568
-1.405808 -19.261003
-6.089750 -14.820592
-5.304984 -9.980255
0.583890 -8.873323
1.643131 -13.639889
-1.270045 -17.505807
-5.417408 -14.541188
-4.861278 -10.882904
-1.824391 -9.181857
-1.464261 -13.329842
-4.163382 -14.620664
-6.859038 -11.312367
-5.450056 -7.081164
-1.231674 -7.220584
-0.223653 -10.663642
-3.203122 -11.284707
-5.891129 -9.532835
-3.959256 -5.946905
-0.023352 -5.741834
-0.172047 -8.432162
-2.439453 -9.948835
-3.431944 -6.919477
-0.708576 -5.224363
1.653456 -7.142778
0.759185 -10.843290
-2.623118 -10.056288
-3.278898 -6.775801
0.947084 -4.297912
3.660957 -7.449112
2.972606 -10.995160
-1.877097 -10.264512
-2.838777 -7.326433
0.447970 -4.551032
3.719814 -7.311427
2.055168 -10.497997
-1.253372 -10.152109
-1.068758 -5.851491
3.095079 -5.138247
6.816497 -9.004059
4.151260 -13.151732
-1.502515 -13.662334
-2.827573 -8.155742
1.189683 -5.531457
5.076605 -9.083242
3.714971 -13.451346
-1.822637 -13.533516
-3.049352 -9.281067
-0.066380 -6.591968
4.464528 -8.822308
2.821990 -12.083494
-0.932290 -12.156852
-2.026174 -8.570632
1.950414 -7.485490
3.911188 -10.431022
2.544800 -14.706544
-1.797398 -15.414501
-3.426175 -10.952831
-1.835496 -8.950858
1.379296 -11.135448
-0.492760 -12.873284
-3.037103 -12.863362
-3.780097 -10.321909
-1.972020 -8.585986
-0.592760 -9.860542
-1.956304 -11.025690
-3.912373 -10.467636
-2.947692 -7.529012
-0.620334 -7.576020
0.302647 -10.596504
-2.379764 -12.547220
-5.165900 -9.943452
-4.865186 -6.910626
-1.552723 -7.334985
-0.891610 -9.055930
-3.739313 -10.370086
-5.399338 -7.825608
-4.282410 -4.419209
-1.183668 -4.618488
-0.872025 -8.136308
-2.611452 -9.324345
-4.832250 -6.401262
-2.570659 -2.812577
1.422297 -3.700531
1.600025 -7.102057
-0.998337 -8.785867
-3.142556 -6.298609
-1.065648 -3.574695
2.952005 -4.357611
3.573958 -8.568828
-0.092762 -9.851126
-2.540582 -7.426733
-0.471208 -4.355603
3.721936 -5.512952
4.209569 -9.812333
0.592970 -11.317416
-2.576172 -8.575044
-0.503602 -5.173630
4.132770 -5.316745
4.497046 -10.186115
1.866376 -11.760901
-0.634996 -10.529599
0.068890 -7.764507
3.512194 -8.683546
3.135004 -12.520601
-0.704562 -14.170491
-3.492887 -11.934754
-2.377525 -9.373242
0.047417 -9.261420
-0.445689 -12.062762
-3.139838 -12.417487
-4.715110 -10.146483
-3.329044 -7.737448
-1.771586 -8.719180
-1.508654 -10.087039
-3.949609 -10.828096
-4.739966 -8.774975
-2.695544 -8.092193
-2.211772 -9.654794
-3.343181 -10.619079
-6.379824 -10.272699
-6.717897 -7.476882
-4.098400 -4.878885
-2.759886 -6.726925
-3.642104 -9.393268
-5.610412 -7.490050
-6.289202 -4.476969
-3.201856 -2.394811
-0.601911 -4.934584
-1.934030 -6.953715
-4.584968 -6.151041
-4.028203 -2.929763
-0.600964 -1.287630
2.076597 -5.288214
0.065036 -8.204084
-3.106379 -7.002163
-2.987555 -3.212276
0.767295 -2.228425
3.708041 -5.176143
1.806545 -8.080917
-1.394402 -8.013460
-1.708782 -5.132585
1.195792 -4.118832
3.321001 -6.406987
1.383645 -9.494298
-1.102339 -9.198286
-1.287328 -6.099441
1.612056 -5.311611
3.625095 -8.393131
2.031282 -11.128855
-0.923298 -11.251683
-1.845289 -9.152913
0.402530 -8.421891
1.157525 -10.169111
-1.033498 -12.285230
-3.386597 -11.410154
-3.509608 -9.096847
-2.041567 -8.946537
-1.855460 -10.263266
-3.663254 -11.598662
-5.220652 -9.581278
-4.920674 -7.523209
-2.663958 -7.450875
-1.676758 -8.828339
-4.016075 -10.309222
-5.565991 -8.745160
-4.706112 -6.952699
-2.896680 -7.474406
-4.230184 -9.001949
-6.308881 -8.820082
-7.775969 -5.789988
-5.905893 -3.820745
-2.705697 -4.292420
-3.325748 -6.601880
-5.533817 -7.511169
-7.100226 -4.418488
-4.574718 -1.709937
-1.157514 -2.234062
-0.664847 -5.684481
-2.870370 -6.507184
-4.412638 -4.120071
-2.760663 -2.214930
0.106297 -3.219922
0.069402 -6.912300
-2.791056 -6.798823
-4.947484 -4.217462
-1.947749 -1.629520
1.629520 -3.325064
1.452402 -6.599705
-1.721515 -7.397944
-3.762806 -5.505690
-1.716664 -2.524943
1.748423 -3.394639
1.537017 -6.958972
-0.690687 -8.100913
-2.953965 -6.688343
-1.424429 -4.715032
1.025336 -5.343499
0.715809 -7.896157
-1.552296 -8.688847
-2.734750 -7.181405
-1.500974 -5.108169
-0.348665 -6.403372
-0.248365 -8.909197
-2.519105 -8.546663
-3.645218 -7.055731
-2.370842 -5.643027
-0.691203 -6.230413
-1.380394 -7.802036
-3.520240 -7.975351
-3.335322 -6.587086
-1.663621 -5.805351
-0.729879 -7.115013
-2.027148 -8.945241
-4.034775 -7.964553
-4.386651 -5.755599
-2.509150 -5.815718
-1.543947 -7.225439
-3.250184 -8.606270
-5.940233 -7.883698
-5.531704 -4.708635
-2.780463 -3.676996
-1.427204 -5.986109
-3.257907 -7.592492
-5.110319 -6.141794
-4.622225 -3.514132
-2.052857 -3.011628
-0.139039 -5.804640
-2.662709 -7.788026
-5.150795 -6.746451
-4.803529 -4.012687
-2.032529 -3.319564
-0.824721 -5.403736
-3.329475 -7.103778
-5.584073 -5.888573
-5.316712 -2.788888
-2.147060 -2.605451
-0.222972 -4.080117
-1.770731 -6.596983
-4.061756 -6.099955
-4.381459 -2.904751
-1.330499 -3.139502
0.575391 -4.442613
-1.459283 -7.058555
-3.298955 -6.512715
-3.203856 -3.805899
-1.768555 -3.602108
-0.498839 -4.737779
-1.567247 -6.526133
-3.267336 -5.897246
-2.988079 -4.169465
-0.770603 -4.288691
-0.381239 -5.504371
-1.632548 -7.072208
-3.327962 -5.625447
-2.103304 -4.144999
0.069046 -4.506925
-0.537883 -6.231526
-1.704618 -7.673219
-2.644595 -6.454782
-1.841568 -5.157418
-0.349392 -5.618445
-0.687001 -7.863036
-2.601346 -8.697231
-4.165638 -6.779452
-2.943674 -5.995554
-1.090938 -6.230972
-2.141341 -8.685991
-4.447056 -8.287696
-5.373254 -5.796079
-3.502462 -4.112967
-1.556498 -5.289327
-2.276250 -7.609780
-4.836124 -7.992614
-5.502121 -5.300084
-3.496121 -3.565630
-1.721021 -5.044636
-2.894366 -8.096432
-5.207620 -8.016381
-6.742063 -5.059177
-4.849046 -2.807921
-2.676504 -3.778989
-3.462817 -5.838484
-5.685780 -5.943513
-6.954887 -3.123091
-4.098469 -0.858968
-1.896848 -2.251172
-1.218890 -4.760091
-3.474939 -5.096651
-4.423429 -3.207263
-2.358821 -1.220724
-0.710541 -2.491659
-0.935240 -4.873480
-2.733861 -5.509605
-3.891335 -3.213080
-2.449900 -1.996708
-0.487229 -2.923800
-0.617334 -4.598629
-2.140144 -5.116085
-2.314466 -3.443208
-0.851594 -2.809941
0.405809 -4.193261
0.181202 -6.086954
-1.523367 -5.616571
-1.690758 -4.462877
0.287218 -4.584771
0.791384 -6.578809
-0.994951 -8.210968
-2.633736 -7.246529
-2.533889 -5.660055
-0.631206 -5.868522
-0.529880 -7.586070
-2.834274 -9.348587
-4.310116 -7.592070
-3.901629 -5.327564
-2.761995 -6.096791
-1.875169 -7.419999
-4.625661 -9.023192
-6.406192 -7.216755
-5.372768 -4.684338
-2.930702 -4.421560
-2.290569 -6.813001
-4.662399 -8.506918
-7.199905 -6.775001
-6.772206 -3.939022
-4.154305 -3.664460
-3.185105 -6.104886
-5.394975 -7.244435
-7.437490 -5.435583
-7.560469 -3.051408
-4.391222 -1.638738
-4.068098 -3.905569
-5.228965 -4.893581
-6.693625 -3.132060
-5.772897 -0.780320
-2.478922 -0.272117
-1.825711 -2.956765
-3.185844 -4.733586
-4.903995 -3.470655
-4.861996 -1.686547
-2.305488 -1.000444
-1.589951 -2.929527
-2.454986 -4.159023
-3.885298 -3.264909
-3.620959 -1.863524
-1.397215 -1.642847
-1.479778 -3.365006
-2.379180 -3.631189
-2.590766 -2.858444
-1.693899 -2.363711
0.593289 -3.027208
-0.112039 -4.932315
-1.696991 -5.692954
-2.923618 -4.660301
-1.772331 -3.504399
-0.306423 -4.875687
-1.234002 -6.971626
-3.197401 -6.474600
-3.735041 -5.357573
-2.430141 -3.887223
-1.135765 -5.134214
-2.444270 -7.540647
-4.387539 -6.593929
-5.218978 -4.702055
-2.901716 -3.495984
-1.438882 -4.955683
-2.480678 -7.009230
-5.044923 -7.227567
-5.750991 -4.686913
-3.739644 -2.820169
-2.460506 -4.368312
-2.922590 -6.963888
-6.108809 -6.103845
-5.936923 -3.974004
-4.443109 -2.615335
-2.270826 -3.653234
-3.552135 -5.814963
-6.052624 -5.193423
-6.557797 -3.001189
-4.599685 -0.762104
-2.743592 -2.720247
-2.776319 -4.478880
-4.770683 -4.565222
-5.260062 -1.870636
-3.319328 -1.481179
-1.651521 -2.443323
-2.707969 -4.293255
-4.376094 -4.438965
-4.025784 -2.683336
-2.984622 -1.945421
-1.783240 -2.992780
-2.436366 -4.509441
-3.952998 -3.794920
-4.143687 -2.424841
-2.962047 -1.768773
-1.974120 -2.920178
-2.282866 -3.735994
-3.191773 -3.746728
-2.509670 -2.517183
-0.836227 -3.052216
-0.742860 -4.966547
-2.856695 -6.016192
-4.318470 -4.772839
-2.959483 -2.697966
-1.512050 -3.995980
-1.498897 -5.565898
-3.630725 -6.018671
-4.524275 -4.513070
-3.990407 -2.687194
-1.643200 -3.614345
-1.664236 -4.900894
-3.387394 -5.970943
-4.464638 -4.239426
-4.122108 -2.951503
-1.139968 -3.265119
-1.399009 -5.890529
-3.693833 -7.033559
-5.773618 -5.232374
-4.692078 -2.817668
-1.896838 -2.907158
-2.264317 -5.217465
-3.825882 -6.711715
-5.942015 -5.131755
-4.854449 -2.815562
-2.872442 -3.097813
-2.664408 -5.213641
-4.281138 -6.166336
-6.238120 -4.182693
-5.467454 -2.340729
-3.036094 -2.560179
-2.146147 -4.401847
-4.499112 -5.473519
-6.156818 -3.980136
-5.077527 -2.636602
-3.260116 -2.775204
-3.479015 -3.990274
-4.830327 -4.810573
-5.807053 -3.944757
-5.089484 -2.511976
-3.812528 -2.618002
-3.951412 -3.681725
-5.346681 -3.724825
-5.764874 -2.285649
-4.165978 -0.988943
-2.529758 -1.360692
-2.812481 -3.142077
-3.847570 -2.996795
-4.086377 -2.172549
-2.787687 -0.776942
-2.118025 -2.372232
-2.305377 -3.731395
-4.194541 -3.184840
-4.170547 -1.626057
-2.552491 -1.318351
-1.189272 -2.728072
-2.570563 -4.874092
-4.411120 -3.780422
-4.322047 -1.639830
-1.774142 -0.413354
-0.381088 -2.346167
-0.918570 -4.913217
-3.321831 -4.630611
-2.966613 -2.765407
-1.376731 -2.484489
-0.352430 -4.826354
-1.683685 -6.636608
-4.971890 -6.396098
-4.625620 -3.722946
-2.527113 -2.725042
-1.121342 -4.609660
-2.515926 -6.986005
-4.901558 -6.845570
-5.579842 -4.157662
-4.145336 -2.653609
-2.579746 -4.564018
-2.919141 -5.908811
-5.585986 -5.934130
-5.878043 -4.356383
-4.828199 -3.191142
-3.733240 -4.761761
-5.071564 -6.088961
-6.884782 -5.428746
-7.020050 -3.067667
-5.475737 -2.217359
-4.574981 -3.566273
-5.355910 -4.516565
-7.174726 -3.920334
-7.007856 -2.124697
-5.664890 -1.645987
-4.967469 -2.062432
-6.005459 -2.501838
-6.568578 -1.551766
-5.388083 0.100925
-3.832706 -0.614841
-3.621681 -2.152917
-5.034686 -2.656623
-5.734120 -1.285427
-4.488526 0.097448
-2.661697 -0.390346
-2.249438 -2.190608
-4.103816 -3.405062
-4.556449 -1.480586
-3.632830 -0.171645
-1.877063 -0.585703
-2.091961 -2.808257
-3.327399 -2.627535
-3.992101 -0.988262
-2.217203 0.018387
0.172335 -1.323701
-0.279581 -3.874153
-2.574940 -5.123470
-3.813448 -3.633746
-2.709746 -2.115492
-0.736004 -2.775761
-0.954658 -5.188813
-2.879856 -6.317264
-5.138284 -4.341288
-3.720174 -2.786131
-2.298413 -3.507279
-2.453052 -4.930028
-4.125605 -5.944932
-5.999915 -4.133970
-4.587178 -2.681266
-2.445298 -3.427832
-2.675887 -5.348781
-4.741735 -6.301029
-6.426447 -4.643746
-5.991240 -3.015619
-4.509876 -3.297964
-4.481702 -4.225298
-6.393314 -4.655149
-6.926055 -2.618278
-6.083724 -1.362410
-4.844541 -1.883926
-5.473961 -3.385987
-6.633362 -2.471945
-6.793148 -1.333825
-5.264879 -0.190507
-4.262127 -1.197052
-4.484122 -2.367528
-5.360048 -1.651935
-5.326077 -0.027613
-3.685376 -0.217267
-3.554695 -1.023576
-3.918346 -2.130406
-5.193452 -1.624645
-4.491350 -0.269816
-2.844804 0.547812
-1.647130 -2.030876
-3.139743 -3.302116
-4.917595 -2.041560
-4.460064 -0.096962
-2.361303 0.076457
-0.942406 -1.766065
-1.806920 -3.376021
-3.860595 -3.014043
-3.427353 -0.827568
-1.085542 -0.825689
-0.343508 -3.335168
-2.343659 -5.292939
-4.191143 -4.363377
-3.967642 -2.265170
-2.401702 -1.904421
-1.195346 -3.906078
-2.606896 -5.518473
-5.358148 -4.874654
-5.472154 -2.480955
-3.583300 -1.642792
-2.479069 -3.236178
-3.287339 -4.783192
-5.301444 -4.236019
-4.970997 -2.554901
-3.266938 -2.595986
-2.708699 -4.263764
-4.153112 -5.536204
-6.161417 -4.438750
-6.123955 -3.100466
-4.660386 -2.436431
-4.269442 -2.965554
-5.434240 -4.018912
-6.332959 -3.261329
-6.118828 -1.679767
-4.834542 -1.394933
-4.328103 -2.792858
-5.382161 -2.947745
-6.401488 -1.649894
-5.027134 -0.551920
-3.379301 -1.489695
-3.920863 -2.400856
-5.881318 -3.247773
-6.288477 -2.187093
-5.428439 -0.264689
-3.677789 -1.138340
-4.145434 -2.429656
-5.745348 -2.706115
-5.998384 -0.460845
-4.746619 0.329541
-2.662585 -0.766092
-3.354436 -2.708542
-5.237625 -2.595140
-6.314797 -0.346894
-4.263296 1.132022
-1.762918 -0.093003
-2.436516 -2.691564
-4.344851 -3.475322
-5.418235 -1.266503
-4.038966 -0.057082
-2.075509 -0.987706
-2.492462 -2.905706
-4.129359 -3.374061
-5.392831 -1.556734
-3.626963 0.052472
-1.775117 -1.603603
-2.345361 -3.580549
-4.717459 -3.719684
-5.805403 -1.679589
-3.788025 0.189331
-1.953678 -0.648804
-1.284579 -3.240007
-3.069816 -3.964156
-4.541676 -2.960012
-3.553707 -1.644049
-2.778852 -2.474094
-2.979663 -4.096031
-4.466562 -4.077368
-4.612534 -2.698219
-3.841769 -2.067055
-3.162575 -3.547448
-3.342269 -4.529984
-5.529522 -4.005946
-5.976286 -2.213458
-4.507421 -1.622511
-3.160974 -2.725018
-4.207782 -3.735256
-5.204898 -3.910558
-5.205767 -2.965851
-4.271807 -2.323100
-4.181870 -3.727557
-5.604553 -4.908200
-7.195414 -3.278057
-6.931355 -1.291972
-4.553899 -0.865999
-4.353944 -2.930260
-6.218390 -3.739837
-8.019764 -2.317450
-6.972591 -0.192386
-4.810829 0.267664
-4.265300 -1.486863
-5.352977 -2.471451
-6.868395 -1.072694
-6.447801 0.511822
-3.901841 0.651853
-3.385297 -1.326341
-5.158708 -2.777203
-6.756054 -1.750349
-6.074856 1.047152
-3.497467 1.767519
-2.169461 -0.557579
-3.872299 -2.042863
-5.713845 -1.289282
-5.105585 0.885626
-3.387865 0.632185
-2.135183 -0.787858
-3.300746 -2.115834
-4.864006 -1.646637
-3.988953 0.387110
-2.026953 0.337180
-0.889904 -1.869084
-3.036821 -3.466513
-3.999811 -2.684502
-4.444926 -1.463231
-3.057103 -1.677535
-2.354631 -2.748931
-3.459446 -4.011584
-5.023593 -3.269845
-4.810272 -2.103422
-3.333018 -2.751561
-4.151121 -3.798441
-5.591190 -3.969478
-5.614213 -2.226063
-4.764760 -1.638974
-3.334509 -2.051559
-4.340500 -4.223446
-6.104160 -4.344553
-6.812399 -2.883187
-6.100902 -1.735910
-4.832330 -2.785796
-5.927270 -3.529200
-7.457206 -3.316860
-8.468930 -1.284515
-6.604406 -0.114302
-5.190091 -1.072634
-5.696930 -2.324788
-8.032652 -1.577217
-8.223613 0.645889
-5.825422 2.348540
-4.009158 0.861986
-4.416713 -1.094928
-6.394720 -1.479514
-7.568866 0.643896
-5.048749 2.090881
-3.396914 0.968833
-4.325541 -1.091735
-6.099735 -0.685390
-6.481575 1.176157
-4.337086 3.053953
-1.835942 1.530764
-2.250370 -1.013810
-4.355857 -1.200265
-5.176813 0.516351
-3.154830 1.669512
-1.109806 0.763687
-1.503162 -1.634210
-3.146829 -1.779929
-3.663034 -0.654392
-2.493937 0.138729
-1.521261 -1.650944
-2.209051 -3.148253
-3.552251 -2.970410
-4.285955 -1.703812
-2.850303 -1.268473
-2.302098 -2.131721
-3.395665 -3.687286
-5.109578 -3.558706
-5.005314 -2.112830
-4.078923 -1.930900
-3.709066 -2.867301
-4.735769 -3.391895
-5.627833 -2.770983
-5.294383 -1.793322
-3.601921 -2.391407
-3.762888 -3.424765
-6.154038 -4.234946
-8.022970 -3.100316
-7.010621 -1.427191
-5.238188 -0.747210
-5.011067 -2.754840
-6.591439 -3.547946
-8.151451 -1.702482
-7.821550 0.263407
-5.561189 0.129748
-5.089015 -1.278751
-6.977217 -2.080393
-7.710174 -0.003974
-6.355236 2.127754
-3.462608 1.348906
-3.403980 -1.164018
-5.570942 -2.624939
-7.482140 -0.993314
-6.821358 1.651087
-4.349064 1.680326
-3.514315 -0.129652
-5.236066 -0.830834
-6.508178 -0.478709
-5.521144 2.044263
-3.500995 1.766198
-2.854034 0.049990
-4.493718 -1.346235
-5.091619 0.250313
-4.547658 1.507454
-2.133937 1.258278
-1.537959 -1.498845
-3.466932 -2.754955
-5.249392 -1.649782
-4.732859 -0.199654
-3.062724 0.121368
-2.995725 -1.316838
-4.459381 -2.263472
-4.969394 -1.156962
-4.192573 -0.439468
-3.146782 -0.817549
-3.671034 -2.387011
-4.966610 -2.493219
-5.243405 -0.648538
-4.285468 -0.019742
-2.498571 -1.365404
-3.249714 -2.561944
-5.118537 -2.584601
-6.121144 -1.400803
-4.388487 -0.782330
-3.708647 -1.971533
-4.654862 -3.311800
-6.679448 -2.521915
-6.747542 -0.427576
-4.697419 0.219272
-3.859817 -1.987224
-5.281868 -3.136809
-7.492706 -2.172506
-7.429000 -0.173982
-4.967167 1.121234
-3.563901 -0.557666
-4.471903 -2.741897
-6.941642 -2.446671
-6.904670 -0.089834
-5.132428 0.716210
-4.021647 -1.318212
-5.014327 -3.311028
-7.385388 -2.493227
-7.938227 0.430358
-6.359722 1.452239
-4.405530 -0.302754
-5.373115 -1.990680
-7.432038 -1.164266
-8.006041 0.723595
-5.573037 2.329130
-4.053306 0.738646
-4.238343 -1.104254
-6.481562 -1.009731
-6.575541 0.793481
-4.536320 1.659558
-4.086039 -0.158169
-5.126199 -1.410265
-6.968792 -1.091264
-6.735439 1.672966
-5.240471 1.801045
-4.015741 0.357747
-4.884454 -0.118985
-5.636725 0.011178
-5.692590 1.305967
-4.502482 0.876763
-3.618480 0.016532
-4.507305 -1.045692
-5.118212 0.082831
-4.559803 1.150429
-2.414563 0.527603
-3.194953 -1.593897
-5.247969 -2.494143
-6.267823 -0.788110
-5.176285 0.653471
-3.145307 0.019373
-3.532707 -2.134308
-5.080363 -2.600922
-6.637439 -0.725506
-5.198756 0.468574
-3.881675 -0.301887
-3.683509 -2.419255
-6.262908 -3.413617
-7.442271 -1.533261
-6.195522 0.447678
-3.869327 0.611511
-3.651387 -2.878601
-6.412030 -3.316812
-8.219119 -1.428851
-7.768389 0.810760
-4.713177 0.447246
-5.509103 -1.774582
-7.684012 -2.518773
-9.288836 -0.835229
-7.804896 1.543413
-6.221232 1.362812
-5.293173 0.205182
-7.432129 -0.725182
-8.774521 1.269734
-7.464511 3.058174
-5.349527 3.343882
-4.620558 0.988111
-5.731706 0.186175
-6.869022 1.518668
-6.513690 2.690389
-5.010581 2.830602
-4.702359 1.252353
-6.015840 0.861192
-6.828388 2.835575
-5.050327 3.531744
-3.539370 2.585571
-3.646633 1.310433
-5.344379 0.800196
-4.899170 2.369911
-2.612155 3.346185
-1.704277 1.532947
-1.949723 -0.402352
-3.778887 0.005892
-3.409930 1.032352
-1.778885 0.775876
-2.490840 -1.050109
-3.398300 -2.380576
-5.623408 -1.485388
-5.076140 0.809530
-2.510048 0.707204
-1.849803 -1.278878
-3.070939 -3.865555
-5.918201 -2.805665
-5.707125 -0.145265
-4.077751 0.318909
-3.437247 -1.789313
-4.452314 -4.545555
-7.678257 -2.977319
-7.293139 -0.748062
-5.207393 -0.074013
-4.151721 -2.475827
-6.391160 -4.434002
-9.297346 -2.623151
-9.064641 0.700784
-6.499297 1.510516
-5.710526 -0.337276
-7.376690 -2.234944
-9.666335 -1.770393
-9.845130 1.079233
-7.931131 2.465312
-6.070711 1.424487
-7.026076 0.371261
-8.245071 0.795551
-7.982285 2.788363
-6.308022 3.111417
-5.261746 1.084190
-6.950572 0.062818
-8.355705 1.219465
-6.907599 2.927780
-5.697547 3.526490
-4.321245 2.137899
-5.912944 1.527661
-6.910845 2.633430
-5.902725 3.251267
-3.495488 3.402561
-3.766651 2.175119
-4.706252 1.555577
-4.949008 2.803275
-3.770346 3.388298
-1.722159 1.828767
-2.498827 -0.516722
-4.568185 -0.789507
-5.782311 0.546874
-4.011960 1.849694
-2.462309 0.857135
-3.413949 -1.441185
-5.775684 -1.696080
-6.881329 0.299146
-4.739146 1.970410
-2.540320 0.506699
-3.739367 -1.959815
-6.040255 -2.736707
-6.900128 -0.242352
-5.171196 1.331859
-2.868558 -0.481935
-3.914133 -2.892182
-6.879351 -3.491141
-8.862439 -1.062660
-7.159407 1.077755
-4.872118 0.729064
-5.502989 -1.835842
-7.921990 -1.634793
-9.365313 0.240797
-7.209668 2.823231
-5.316776 1.596763
-5.677942 -0.263677
-7.858000 -1.099358
-8.890126 0.989274
-7.566879 2.946213
-5.589287 2.644213
-5.807577 0.571674
-7.056662 -0.104842
-7.418437 1.588839
-6.438493 2.828671
-5.280351 2.471778
-5.881065 1.233714
-7.509774 1.277325
-8.051568 2.611971
-6.350922 3.085409
-5.312382 2.767634
-5.784482 1.150988
-7.175396 2.134037
-7.203924 3.663615
-5.143866 3.828021
-4.302319 2.023533
-5.234885 0.799229
-6.369766 1.390083
-5.850828 2.528377
-3.514221 2.783929
-3.447053 0.403235
-5.918420 -1.179068
-7.189396 0.329539
-6.822861 3.107145
-4.091330 3.343325
-3.692329 0.435344
-5.917873 -0.650072
-7.540336 0.875561
-6.351452 3.579481
-3.906327 3.595117
-2.785650 0.582568
-4.681233 -0.792263
-7.338624 -0.100614
-6.190994 2.089748
-3.601323 2.658228
-2.997509 -0.745665
-5.860680 -2.252827
-8.943014 -0.949916
-8.423342 1.750684
-5.691123 2.898730
-4.412248 0.207730
-5.879552 -1.388892
-8.194874 0.084069
-7.949870 2.656771
-5.385593 2.807640
-4.554217 0.699594
-6.196346 -1.250619
-8.626937 -0.064267
-7.997421 1.933017
-6.484163 1.514450
-5.781054 -0.182456
-6.669859 -1.422850
-9.211783 -0.041155
-8.979624 2.113377
-7.513551 2.425899
-6.702160 0.790603
-8.517644 0.856138
-9.161843 1.987641
-7.917165 3.343589
-6.713894 3.290168
-6.794244 1.235533
-8.359645 1.849356
-9.308347 3.967181
-7.918388 5.043243
-5.719520 4.329083
-6.396100 1.785445
-8.253997 1.465095
-8.535821 4.227739
-6.809028 5.511227
-4.936909 3.664167
-5.908789 1.948581
-8.426668 2.780280
-8.809159 5.889541
-5.692224 6.607789
-3.491005 4.902372
-4.410879 2.025836
-7.008900 2.248987
-6.977061 5.288117
-3.619675 6.814688
-1.241763 4.412585
-1.870914 1.109705
-5.333212 0.258009
-6.851419 2.616288
-4.163432 3.399121
-1.871229 1.923331
-3.234403 -0.496613
-5.638575 -1.064262
-7.251884 1.761528
-5.110731 3.706902
-2.782652 2.225603
-3.181603 -1.099980
-5.860239 -1.337834
-7.598912 1.589702
-5.273467 2.785118
-3.560194 1.029194
-3.922442 -1.782232
-7.021844 -2.286505
-8.191245 0.045559
-6.958295 1.001660
-6.534412 0.318065
-8.042589 -1.780711
-10.162121 -0.117225
-10.064228 1.876561
-8.132477 2.808606
-7.514048 0.927525
-8.687760 0.550288
-10.442056 2.482548
-10.210360 3.914068
-8.088764 4.648627
-7.083864 2.358631
-8.920947 1.586747
-10.505400 3.352959
-9.544275 5.720013
-7.020157 5.608458
-6.954246 2.901743
-9.094649 2.148355
-10.854868 4.858388
-8.686157 7.618261
-5.102179 7.327862
-4.425171 4.303415
-7.113539 2.654943
-8.789083 5.390216
-7.033287 8.702417
-3.429502 7.776219
-2.734093 4.454881
-4.736859 2.946217
-7.248600 4.786419
-5.187806 6.808981
-1.839990 6.096677
-1.270658 1.855369
-3.944361 -0.090284
-7.256434 1.577908
-5.759547 4.229678
-2.813312 3.963066
-1.866799 1.191018
-4.480025 -0.960903
-6.878630 0.941908
-6.748519 3.615010
-4.727534 3.357438
-3.498567 0.624774
-5.547208 -1.356242
-7.932676 0.086384
-6.371347 2.507571
-4.560630 2.221757
-5.246751 -0.790296
-7.988094 -2.808134
-10.362462 -0.518139
-9.659486 1.973905
-8.358908 1.601851
-8.465168 0.228325
-9.739267 0.513577
-11.998422 3.111565
-9.975218 4.851754
-7.950395 3.136364
-8.565990 2.348024
-11.308193 2.907614
-10.546386 5.239196
-8.524301 6.877996
-6.360491 4.671063
-8.480913 2.080363
-11.162716 3.507080
-11.212049 6.552562
-8.454733 7.703433
-6.395773 5.629785
-7.945772 3.440472
-10.660003 4.689804
-9.707330 7.823435
-6.137702 9.115158
-4.051962 6.599866
-5.402831 3.472137
-9.087106 4.204510
-8.388211 7.940091
-4.268569 8.807962
-1.850901 5.711041
-3.403604 1.917433
-7.367444 1.767818
-8.805316 5.736553
-4.837721 7.347326
-2.588481 4.930060
-4.098163 0.305110
-7.950757 0.779110
-8.928635 4.712419
-5.556245 6.210374
-2.942716 3.398563
-4.331566 0.280051
-8.609840 0.251197
-9.005167 3.920360
-5.913951 5.303446
-4.403318 3.909673
-5.462550 1.038130
-8.337297 0.846807
-8.588018 2.833301
-7.316248 4.255080
-6.498753 1.211460
-7.591374 -0.607211
-10.442826 1.166087
-10.958502 4.339140
-9.502161 5.136678
-8.238740 2.418103
-9.848283 2.116245
-11.979577 3.592633
-10.360987 5.764737
-7.778951 5.963600
-7.499039 3.310344
-10.507686 2.428624
-11.813303 4.472156
-9.121095 7.187197
-6.569640 5.266637
-6.716347 1.567376
-12.184386 2.099304
-13.616471 5.317377
-11.448145 9.781875
-7.833823 7.170199
-7.318010 4.966647
-10.577532 4.155688
-12.659473 6.890382
-9.522836 11.103457
-5.851291 9.728188
-5.674220 5.420486
-9.568768 4.286093
-11.674956 7.586221
-9.217678 10.678122
-4.208300 8.834254
-3.874897 4.329099
-9.134845 3.043300
-12.080455 6.413565
-9.552220 10.912837
-4.882946 9.598386
-4.321599 6.619838
-8.110116 4.524059
-10.124844 7.124832
-8.211005 10.521891
-4.867223 9.476272
-4.203009 5.583150
-7.343976 4.858105
-8.288225 6.889108
-6.486236 9.719119
-3.300667 7.452165
-3.110734 4.316008
-6.709867 2.627393
-8.759157 5.616865
-7.200967 7.653193
-4.578860 6.307609
-5.695228 3.432202
-7.983276 2.656150
-8.459839 5.375387
-5.947209 6.905569
-4.449913 5.225371
-6.494613 3.306931
-9.328708 3.660186
-7.877122 6.646179
-5.052744 6.726830
-3.618077 3.495308
-7.154330 0.146498
-11.537236 1.656499
-11.536506 5.652511
-8.460611 6.261522
-6.439301 2.179796
-10.193428 0.331777
-14.717253 2.272186
-14.937383 7.838599
-10.092182 9.109527
-8.209432 5.923607
-12.227465 2.406091
-16.188475 5.127764
-14.928006 10.691203
-8.265407 11.828825
-6.584293 7.761350
-9.054832 3.183758
-14.207227 6.084778
-14.340450 11.681462
-10.194166 12.426709
-6.957016 9.326545
-10.607409 5.766981
-14.600473 7.285693
-14.731370 13.876736
-9.576867 15.505689
-5.471584 11.884507
-7.247234 7.860662
-10.573844 10.027390
-9.747583 13.735283
-4.385361 15.466984
-1.335461 10.797572
-3.346974 7.835790
-7.428204 8.221708
-7.251566 10.628206
-4.013659 10.903265
-2.804140 8.048350
-6.655621 5.700799
-8.277600 7.351804
-6.007948 10.001141
-2.314779 8.773663
-2.922128 4.982600
-6.237440 2.916735
-9.434631 5.773837
-7.064631 8.381385
-4.607468 6.454784
-3.609909 2.682897
-8.178896 1.628203
-10.168926 4.156073
-9.043182 6.412406
-4.914824 3.533848
-7.357305 -0.620925
-14.197114 -0.976351
-17.235698 4.252378
-13.110114 8.913922
-8.655180 7.152982
-10.498214 1.565945
-18.013113 1.904514
-20.228800 7.026022
-16.601820 12.486131
-10.615646 10.209495
-12.447713 5.367670
-17.427639 4.606497
-18.825305 12.836507
-14.493287 16.398861
-8.307509 13.047313
-9.913922 6.981997
-15.487371 6.480170
-19.652488 12.788143
-16.026909 18.005747
-9.320955 17.128968
-9.743182 11.703286
-15.331193 9.079241
-16.137005 16.026128
-12.019407 22.022370
-5.226362 20.355243
-4.920816 13.936810
-9.235166 11.507959
-11.646802 16.109809
-6.393737 18.258247
-1.873271 14.892227
-3.693428 9.322531
-9.019430 8.543319
-10.765941 12.420417
-7.201202 14.401120
-3.591472 12.287609
-5.460855 7.828945
-7.257543 7.921189
-8.425253 13.038433
-5.297151 12.211201
-2.321503 7.613925
-6.274205 3.691857
-11.888884 5.582549
-12.522593 9.327865
-7.157327 10.856147
-4.905550 6.078147
-9.982128 2.777352
-14.713913 4.149945
-13.452003 10.130048
-9.700179 9.287853
-9.608057 4.510785
-17.254657 0.231358
-22.010175 7.053060
-21.402080 14.950026
-13.018755 13.457625
-11.242571 6.685655
-17.808790 2.827477
-26.406753 9.504852
-23.227261 17.856564
-14.237793 20.077827
-10.212504 13.529734
-15.994792 8.779717
-22.421793 13.133610
-21.628908 21.828425
-13.385674 21.286597
-11.414377 15.385269
-19.637076 10.273649
-25.273657 16.632588
-22.215914 24.241409
-12.276569 25.862772
-10.364255 18.997723
-15.254443 13.224252
-22.742403 19.593223
-19.510300 28.570510
-9.529233 28.139798
-2.411113 21.414509
-7.669959 16.345325
-14.087639 18.462103
-13.901341 22.114697
-6.573719 21.994258
-4.331242 16.880877
-11.669761 12.579046
-16.601761 17.629515
-11.988448 25.402964
-6.643319 27.544579
-8.332517 18.510015
-12.402048 15.000862
-14.569714 20.528495
-11.816515 23.919602
-4.080714 18.581636
-7.075748 13.720088
-12.682359 14.301177
-14.069095 19.977572
-6.540879 20.322751
-3.098430 13.963939
-8.538322 6.677002
-17.252303 12.799701
-21.055935 21.974770
-13.033898 27.761117
-5.537981 21.093659
-11.175755 9.987753
-21.618709 7.893660
-25.539273 22.561371
-16.082915 28.271485
-4.913899 23.233198
-10.756388 9.578435
-22.297938 9.296535
-25.687599 21.615536
-13.287426 30.439971
-4.727627 20.054327
-7.225365 3.953431
-22.576426 5.814154
-29.501802 21.937326
-22.079603 29.138744
-8.904683 24.100466
-16.707698 13.426859
-26.215239 14.914875
-30.479112 26.768883
-21.395706 35.230439
-14.021864 31.935385
-16.227495 21.739870
-26.261292 23.319645
-34.231477 30.822862
-22.006280 38.408573
-11.681912 32.248836
-16.507017 19.256257
-23.392633 14.392783
-29.672944 32.890603
-23.681103 42.435031
-19.261847 39.775617
-21.624371 29.388774
-24.605128 39.158195
-25.239650 46.159590
-16.559816 45.963827
-10.471708 35.510193
-13.154330 38.718916
-29.760237 47.566596
-23.841819 46.270293
1.338755 39.666119
2.843218 33.996386
-18.501673 21.562493
-18.634502 30.583339
-13.234935 46.146143
-4.605228 44.167977
-12.337379 25.004197
-22.670829 17.419137
-30.004975 35.463079
-16.609319 51.704975
2.254361 47.054439
11.455230 21.014111
-7.494032 13.043149
-35.697570 29.050235
-25.518691 39.811091
9.111386 43.275805
3.934967 27.209148
-20.636351 11.734103
-43.663488 30.762688
-33.779677 52.482898
-19.463819 48.678217
-14.532851 18.701229
-37.754406 17.492810
-64.378713 24.854765
-55.235963 62.776399
-33.033378 64.413369
-29.221003 33.412033
-64.428151 12.396737
-90.624841 38.322493
-71.018513 56.398097
-55.649907 68.593684
-71.126209 40.557868
-86.905271 48.817682
-98.805337 64.550638
-70.459651 104.804289
-44.688004 107.191542
-21.504354 85.053900
-63.091085 86.344741
-76.058005 99.262119
-83.297779 131.376879
-69.344495 134.399365
-79.594281 97.161807
-75.082294 108.568561
-96.928640 151.766373
-74.488584 195.059579
-27.035087 191.508467
3.386211 140.527711
-37.055572 125.445228
-37.743735 154.570520
23.800944 236.620511
55.429298 192.881212
-15.783388 61.368671
-128.677766 133.781826
-175.674367 335.071415
-20.034634 236.201279
70.721455 117.190028
-42.731959 138.211310
-51.222475 210.379534
17.092144 224.167378
-26.208905 450.403778
-113.559218 248.293361
421.321925 100.685211
-267.465983 651.191787
-713.222999 594.807173
-403.015858 1327.500284
146.402958 -1358.620441
