5485.868158 3170.321184
-3212.537855 -1125.490637
-201.755364 521.985594
98.983616 -122.392427
20.881029 -70.730996
43.915152 -49.416249
112.310637 51.633379
-88.252948 -33.668914
58.774002 -32.829647
15.574268 -102.833467
164.849939 -36.080515
76.605278 -44.060447
101.112704 -16.743569
67.995263 -78.260142
79.638424 -60.766395
85.414550 -78.671522
77.426563 -50.937691
68.144473 -59.882606
59.386063 -61.659112
52.668708 -55.869436
50.354240 -74.927304
51.458873 -63.088799
49.566000 -80.038442
53.657198 -67.814891
48.489098 -70.659453
43.733764 -74.765402
36.684318 -57.658671
31.530900 -75.396669
23.476992 -63.111361
20.750364 -67.128484
22.000283 -71.775322
17.556518 -58.507992
22.899101 -66.555414
12.377840 -55.295938
13.075629 -60.014793
5.245830 -63.790098
5.550643 -58.199534
7.617012 -58.899967
-0.396341 -51.064285
1.044140 -46.104224
-2.900226 -48.379338
-5.400501 -42.657182
-2.617503 -44.315807
-6.203960 -41.897249
-2.839782 -38.669267
-4.225722 -39.819057
-5.967610 -33.003140
-3.978172 -35.620892
-7.466481 -30.968585
-4.610217 -28.731672
-4.228261 -29.150654
-4.806174 -25.203990
-2.153361 -24.716388
-2.552114 -22.970282
-2.146093 -21.656733
-1.568234 -22.805389
-1.179938 -21.595068
1.515252 -22.191580
1.047117 -19.315559
2.339045 -19.680846
3.745932 -16.444882
4.343141 -17.139367
6.159745 -16.642995
7.646565 -17.744097
8.074003 -17.676236
9.410294 -17.985650
8.563373 -18.486261
9.089491 -18.930334
10.244604 -19.760969
10.049594 -21.071671
11.910083 -20.921832
12.905930 -22.223528
12.883318 -22.824952
14.226836 -23.387212
12.402287 -23.983991
12.373084 -25.506601
10.988375 -26.819728
10.419205 -29.407465
10.876938 -27.596270
9.361571 -30.717022
11.545809 -28.807669
8.064089 -31.327035
10.021307 -30.236555
6.534296 -31.873702
6.863086 -33.774850
6.012858 -32.101801
5.693944 -33.420269
3.219349 -32.779843
3.643181 -34.102463
0.820081 -33.120288
1.324782 -34.613838
-1.630699 -33.938555
-1.397836 -34.634866
-3.744906 -33.438715
-3.344011 -34.793483
-4.820763 -32.704781
-6.606653 -34.183679
-6.817842 -32.640360
-9.502934 -32.662108
-8.608237 -31.114479
-11.858362 -30.886320
-10.914001 -31.036161
-13.568382 -29.250791
-11.946907 -29.412579
-14.556963 -26.367871
-14.305921 -27.303582
-15.822911 -24.619291
-15.384643 -25.410286
-16.467508 -22.986984
-16.495017 -24.040929
-16.483540 -20.494076
-17.529364 -20.775419
-16.625395 -18.634670
-17.832956 -18.245213
-16.833061 -17.101152
-17.777602 -17.071226
-17.058973 -15.444043
-17.349015 -15.091424
-16.795834 -13.693990
-16.798476 -12.731747
-16.477198 -11.819145
-15.945409 -11.204417
-15.658619 -10.172565
-15.579144 -9.739566
-14.631151 -9.427472
-15.178706 -8.525144
-13.720921 -8.665219
-13.374346 -7.301177
-13.161790 -7.526175
-12.134559 -6.250202
-12.556950 -6.779078
-11.686713 -5.583849
-10.845108 -5.429049
-10.157472 -5.058419
-11.255977 -5.080853
-9.696779 -4.994960
-9.559550 -4.703944
-8.611402 -5.027309
-9.862420 -4.964059
-8.294016 -4.473153
-8.584803 -4.653410
-7.205988 -4.465563
-8.413744 -3.897616
-6.429159 -4.768110
-7.393228 -4.228956
-6.456575 -4.694362
-7.102382 -3.749140
-6.350218 -4.736438
-5.989579 -3.691227
-5.651888 -4.633640
-5.401125 -3.582842
-5.888007 -4.276788
-5.343731 -3.774935
-5.681926 -4.133122
-5.076923 -3.889869
-5.244452 -3.472156
-4.149388 -4.452871
-5.027193 -3.666147
-4.517996 -3.792945
-4.477191 -3.433537
-4.031930 -3.946152
-3.766969 -3.657919
-4.041045 -3.309886
-3.961565 -3.643482
-3.531680 -3.396260
-3.254766 -3.162183
-3.012429 -3.647004
-3.104383 -3.250742
-2.782650 -3.584420
-2.410783 -3.237403
-2.131764 -3.633774
-1.716046 -3.200711
-2.227369 -3.914626
-1.123653 -3.592339
-1.204386 -3.752555
-0.596130 -3.288002
-0.605539 -3.789739
-0.105946 -4.077789
-0.341549 -4.683431
0.346148 -4.320857
0.368066 -4.541442
0.437423 -4.874871
0.601420 -4.441067
0.985966 -4.855424
1.023315 -5.812680
0.952966 -5.688669
1.616803 -5.708617
0.828224 -6.625249
1.193982 -6.068588
1.544180 -6.783465
1.152631 -6.725418
0.880299 -7.727316
1.411134 -7.204641
0.595524 -7.904591
0.798916 -7.886716
0.386047 -8.397967
1.255958 -9.248359
0.456550 -9.222678
0.389429 -8.449488
0.271487 -9.064246
-0.313727 -9.799187
-0.342725 -9.210752
-0.907437 -9.884434
-0.943338 -9.831688
-1.633253 -10.139166
-1.328621 -9.651127
-1.662819 -10.102946
-2.118201 -10.106694
-2.473104 -10.035499
-2.552571 -9.764781
-3.234521 -9.756545
-3.212459 -10.139488
-3.622197 -9.861722
-3.596974 -9.641464
-3.787916 -9.081129
-3.759908 -9.184311
-4.248248 -9.486291
-4.274300 -9.107917
-4.183764 -8.799022
-4.170734 -8.730338
-4.726917 -8.161252
-4.415120 -8.128847
-4.760372 -8.315842
-4.709847 -8.013547
-4.606647 -7.518394
-4.445330 -8.075087
-4.368207 -7.225488
-4.621255 -7.323656
-4.054112 -6.886276
-4.443348 -7.384843
-4.173790 -6.975588
-4.195568 -7.032819
-3.979398 -7.037537
-3.836404 -6.786128
-3.313566 -6.454217
-3.663287 -6.750438
-3.591628 -6.862289
-3.847588 -6.537165
-3.428400 -6.891760
-3.339612 -7.057669
-2.745149 -7.355098
-2.911620 -7.571214
-2.985370 -7.668497
-2.983884 -7.610706
-3.136904 -8.002305
-2.890870 -8.158736
-3.489060 -8.328653
-2.946646 -8.208153
-3.023263 -8.654565
-2.967015 -8.671238
-3.343056 -8.816032
-3.384236 -9.294173
-4.122876 -9.552528
-3.849268 -9.670096
-4.535557 -9.721181
-4.390211 -9.793812
-4.828983 -9.846616
-5.135462 -10.304364
-5.613018 -9.700635
-6.237909 -10.263484
-5.709206 -10.167831
-6.474919 -10.550484
-6.482695 -9.805634
-7.575483 -10.343027
-7.669151 -10.150315
-8.441129 -9.780176
-8.481655 -9.510967
-9.243022 -9.635834
-9.212331 -9.329551
-10.020257 -8.917307
-9.813862 -8.746018
-10.645005 -8.056159
-10.628051 -8.215254
-11.516194 -7.400371
-11.510122 -7.245260
-11.607464 -6.746325
-11.762711 -6.193842
-11.711291 -5.650166
-12.369937 -5.604061
-12.582120 -4.909928
-12.182442 -4.158469
-12.132902 -3.585432
-12.494527 -3.201846
-11.997685 -2.615629
-12.569288 -2.212192
-11.706262 -1.659307
-11.818691 -1.174809
-11.327737 -0.507190
-10.768902 -0.130781
-10.868098 0.316916
-10.613698 0.764174
-10.357382 1.181151
-9.916373 1.629723
-9.490950 1.767613
-9.159356 2.356667
-8.466323 2.320159
-8.044277 3.010292
-7.702798 2.581594
-6.812800 2.962283
-6.631025 3.140471
-6.045788 3.249844
-6.025049 3.430153
-5.311018 3.038287
-5.089753 2.947422
-4.392649 2.812174
-4.090354 2.937998
-3.455379 2.549496
-3.206622 2.769509
-2.171819 2.343675
-2.372153 2.066320
-1.931208 1.724657
-1.845791 1.880008
-1.076631 1.190533
-1.029047 1.354857
-0.656960 0.755562
-0.766898 0.479097
-0.554516 0.291305
-0.903119 -0.110093
-0.710970 -0.629832
-0.357230 -0.618482
-0.635470 -1.582329
-0.401634 -1.577493
-0.400293 -2.085966
-0.139948 -2.177629
-0.496063 -2.579372
-0.827842 -2.856354
-0.708648 -3.414156
-0.772615 -3.404428
-1.114293 -3.172320
-1.531356 -3.619158
-1.585198 -3.606577
-1.607690 -3.752769
-1.886246 -4.199602
-1.898495 -4.138608
-2.134838 -4.113403
-2.425455 -4.435607
-2.792549 -4.343666
-2.924373 -4.774020
-3.003705 -4.100788
-2.948314 -3.959030
-3.307395 -4.063163
-3.681695 -3.921437
-3.562443 -3.964413
-3.722732 -3.921475
-4.109351 -3.884542
-4.225188 -3.800641
-4.042454 -3.555206
-4.087998 -3.307127
-4.167468 -3.448003
-4.399033 -3.127896
-3.961134 -3.302198
-4.182656 -3.056901
-4.490706 -3.162922
-4.191405 -2.837271
-3.877481 -2.997560
-3.701862 -2.764836
-3.796302 -2.314955
-3.925288 -2.517153
-3.644659 -2.213145
-3.587948 -2.732155
-3.752036 -2.475855
-3.358824 -2.552976
-3.499053 -2.339564
-3.200538 -2.382954
-3.198795 -2.348535
-2.897791 -2.588006
-2.943125 -2.182348
-2.928562 -2.813228
-2.835926 -2.591621
-2.660065 -2.938657
-2.890613 -3.126599
-2.564663 -2.977112
-2.709517 -2.930490
-2.400498 -3.561386
-2.636180 -3.661615
-2.664888 -3.905049
-2.169224 -3.968104
-2.683985 -4.102656
-2.622005 -4.067302
-2.759242 -4.679790
-2.806314 -5.059742
-3.276434 -4.395170
-3.236460 -4.892350
-3.702184 -4.621663
-3.145922 -5.157347
-3.818907 -5.346435
-3.838721 -5.311826
-4.010441 -5.374023
-4.323604 -5.613948
-4.411550 -4.967020
-4.808845 -5.481270
-4.688922 -5.691413
-4.897695 -5.742799
-5.199248 -5.467771
-5.633934 -5.279604
-5.655766 -4.905918
-5.471127 -4.788926
-5.543521 -5.365167
-5.989314 -5.095631
-6.062825 -5.299588
-6.561470 -4.967345
-6.751741 -4.565144
-6.579966 -4.612917
-6.806429 -4.463271
-6.937940 -4.298196
-7.294248 -4.223484
-7.204497 -3.739185
-7.187555 -3.895580
-7.506012 -3.712102
-7.242801 -3.870208
-7.462109 -3.392775
-7.814902 -3.545564
-7.499353 -3.327709
-7.708305 -3.220071
-7.286842 -3.242884
-7.761289 -2.612997
-7.562173 -2.390159
-7.772016 -2.490403
-7.575320 -2.292196
-7.859673 -2.417973
-7.444028 -2.049084
-7.870475 -1.989008
-7.596710 -1.952544
-8.006729 -1.577636
-7.792619 -1.867555
-8.021873 -1.671421
-8.143462 -1.605345
-7.472076 -1.226267
-8.017605 -1.468043
-7.863329 -1.000365
-7.931761 -1.321701
-7.751240 -1.277851
-7.929473 -1.123564
-7.707080 -0.957377
-7.558122 -0.923095
-8.177369 -0.847254
-8.023382 -0.182471
-7.716328 -0.543887
-8.071958 -0.374787
-8.087144 -0.275231
-8.045172 -0.012485
-8.257164 -0.297577
-8.337277 0.319556
-7.979028 0.126075
-8.083615 0.851017
-8.091132 0.594583
-8.165221 0.944898
-7.939079 1.100245
-7.539745 1.080981
-8.122147 1.549620
-7.776307 1.683234
-7.622543 2.184874
-7.526924 1.926580
-7.371797 2.848224
-7.129016 2.702827
-7.250719 2.755152
-6.841016 3.053408
-6.960898 3.266497
-6.731180 3.272323
-6.359112 3.705427
-6.395707 3.374027
-5.973603 3.920078
-5.760788 3.877347
-5.440786 3.914464
-5.440223 4.170519
-4.744869 4.234067
-4.813902 3.993396
-4.454437 4.149000
-3.949057 4.046589
-3.780535 4.213930
-3.324479 3.937701
-2.736558 4.165195
-2.839824 3.827816
-2.412841 3.977002
-2.412879 3.604961
-1.837865 3.521393
-1.604082 3.304389
-1.255096 2.941992
-1.207443 3.093567
-0.625222 2.584814
-0.766760 2.375072
-0.285762 2.086138
-0.570833 2.070057
-0.383798 1.831614
-0.014859 1.060179
-0.407630 0.796307
0.229681 1.051111
-0.169861 0.329020
-0.128037 0.000000
-0.024667 -0.274543
0.059724 -0.704993
-0.292661 -0.886395
-0.297297 -1.327241
-0.647332 -1.567227
-0.648720 -1.714367
-0.592596 -1.993988
-1.025523 -2.589876
-1.341338 -2.169951
-1.258776 -2.792727
-1.729420 -3.097080
-1.959356 -3.077283
-2.184583 -3.395371
-2.518904 -3.318371
-2.745858 -3.590398
-3.065017 -3.613604
-3.356330 -3.437820
-3.391198 -3.633221
-3.874018 -3.148590
-3.876954 -3.473593
-4.475681 -3.594684
-4.682658 -3.238529
-4.873468 -3.367131
-5.584732 -3.320085
-5.052178 -3.010235
-5.503557 -2.983842
-5.764509 -2.454514
-5.745646 -2.288580
-6.007578 -2.287122
-6.119855 -2.052617
-6.192299 -1.567501
-6.315326 -1.718119
-6.780110 -1.596529
-6.455009 -1.027703
-6.492119 -0.805723
-6.540020 -0.784801
-6.344726 -0.276598
-6.231027 -0.305570
-6.181189 -0.266518
-6.030974 -0.121415
-6.172376 -0.118888
-5.685295 0.490649
-5.589889 0.250345
-5.936913 0.153999
-5.137462 0.982483
-4.978169 0.255522
-5.065540 0.946770
-5.206393 0.774548
-4.435529 0.414799
-4.809290 0.563954
-4.471791 0.623486
-4.138916 0.639072
-4.061466 0.168627
-4.078816 0.225411
-4.090613 0.418060
-3.970853 -0.091604
-3.980566 -0.056241
-3.661990 -0.405469
-3.264813 -0.455401
-3.808728 -0.428922
-3.370548 -0.850501
-3.588120 -1.109215
-3.427229 -1.401494
-3.622572 -1.432737
-3.883362 -1.518457
-4.075508 -1.603306
-4.363317 -1.816912
-4.482792 -1.955151
-4.777548 -2.383477
-4.893093 -2.272438
-5.374975 -2.680025
-5.287668 -2.721363
-5.850530 -2.895939
-5.815595 -3.129668
-6.318238 -3.049883
-6.618414 -2.904441
-6.673323 -2.790370
-7.312635 -2.886533
-7.531329 -2.919204
-7.888247 -2.731276
-7.599827 -2.469728
-8.701923 -2.269431
-8.280891 -2.091501
-8.864115 -2.076181
-9.302559 -1.772341
-9.394309 -1.211486
-9.541099 -0.875574
-9.604369 -1.103907
-10.107961 -0.451085
-10.124814 -0.430307
-10.798707 0.379987
-10.709184 0.619670
-10.354109 1.182491
-10.270813 1.439419
-10.267060 1.435929
-10.935348 1.972268
-10.355399 2.185733
-10.323441 2.993521
-10.398260 3.444542
-10.261916 3.420482
-9.727457 3.401981
-9.882494 4.088380
-9.554430 4.503613
-9.597146 4.894562
-9.509910 5.043355
-8.793971 5.928998
-8.526756 5.388883
-8.759432 5.588558
-8.132871 5.935221
-7.650550 6.080334
-7.803803 6.612697
-7.168794 6.542913
-6.998742 6.590953
-6.792535 6.802077
-6.460926 6.823200
-6.043662 6.787182
-5.481011 7.304480
-5.065832 6.705183
-4.878542 7.103550
-5.108039 6.694166
-4.151544 6.821150
-4.251115 6.395477
-4.093989 6.552427
-3.594971 6.437090
-3.424602 6.120790
-3.517304 6.159365
-2.920665 5.890463
-2.855162 5.485647
-2.959619 5.459600
-2.953918 5.443487
-2.386587 4.791221
-2.362251 4.778234
-2.171937 4.783752
-2.189348 4.723872
-2.334155 4.605637
-2.042408 4.336597
-2.258812 4.160948
-2.095533 3.887200
-2.440700 3.890794
-1.421903 3.835907
-2.053123 3.325811
-1.770342 4.045331
-1.808676 3.714161
-1.892544 3.225111
-2.735246 3.484090
-1.933269 3.314463
-2.353470 3.122756
-2.183761 3.176764
-2.246011 3.172451
-2.024379 2.938799
-2.043579 2.789791
-2.237977 2.428204
-2.475012 2.706493
-2.286230 2.112867
-2.274712 2.650888
-2.014146 2.315888
-2.219946 2.844257
-2.215431 2.439682
-1.903679 2.265004
-1.887198 2.406281
-2.296517 1.931725
-2.405833 1.755139
-1.898168 1.534878
-2.312794 1.517370
-2.087288 1.831316
-2.299737 1.663052
-2.221377 1.549312
-2.141020 1.139289
-2.116034 1.232730
-1.921498 1.325895
-1.857011 0.913857
-2.417368 1.194177
-2.611158 0.548947
-2.486365 0.674620
-3.010839 0.435349
-2.682880 0.523806
-2.841946 0.241728
-2.854463 -0.017267
-3.341815 -0.424572
-2.939229 -0.262718
-3.337262 -0.494323
-3.073321 -0.056813
-3.340771 -0.715324
-3.766071 -0.716812
-3.544088 -0.370901
-4.028942 -0.760832
-4.450085 -0.177297
-4.613416 -0.700313
-4.598322 -0.540543
-5.161720 -0.641299
-5.016548 -0.354708
-5.436709 -0.233130
-5.613122 -0.183217
-5.926582 -0.004601
-5.958036 0.087213
-6.797793 -0.257268
-6.150111 0.062833
-6.659427 -0.015127
-6.479141 0.227331
-7.560539 0.855412
-6.912208 0.415258
-7.467888 1.104058
-7.106903 0.738803
-7.482723 1.384473
-7.634968 1.334818
-7.735986 1.154656
-7.601646 1.689791
-7.313900 2.006324
-7.282290 1.988476
-7.576330 2.488729
-7.720321 2.279283
-8.034612 2.827320
-7.420322 3.141561
-7.660101 2.794479
-7.604053 3.157139
-7.233403 3.085972
-7.203652 3.374715
-7.556084 4.032853
-7.272992 3.561337
-7.119216 3.588772
-7.191923 3.442260
-6.529918 4.090314
-7.125380 3.857755
-6.536687 3.399427
-6.784704 3.873840
-6.646964 3.567932
-6.958799 3.927527
-6.585191 3.189085
-5.945327 3.916506
-6.261287 3.578195
-5.944403 3.498190
-6.322266 3.112002
-6.025730 3.576150
-6.202263 3.323258
-6.195965 2.861693
-6.448208 2.801067
-6.128091 2.886583
-6.682026 3.055996
-6.962904 3.079121
-7.121935 3.095726
-6.984123 2.611392
-7.238014 2.888172
-7.216395 2.471689
-7.746231 2.624756
-7.878770 2.640221
-8.227731 2.926090
-8.357078 2.609110
-9.201172 3.230377
-9.097223 3.554181
-9.395627 3.623373
-9.473371 3.730321
-9.864488 3.745436
-9.954264 4.081056
-10.508573 4.762852
-10.652065 4.836430
-10.572887 5.573921
-11.152008 5.443041
-11.528460 6.048494
-11.551243 6.048576
-11.170828 6.918981
-11.914432 7.466227
-11.245564 8.224404
-12.139605 7.876446
-10.896431 9.076945
-11.798439 9.629624
-11.025327 10.031490
-11.598304 10.353894
-10.881947 10.884961
-10.661168 11.836422
-10.257325 11.699463
-10.612464 12.693690
-9.453982 12.627649
-9.348657 13.120944
-9.038398 13.853321
-7.733798 14.200966
-7.569588 14.047246
-6.779436 14.413462
-7.034112 15.036976
-5.396763 14.961304
-5.739691 14.671135
-3.877444 15.183979
-4.184795 15.638293
-3.225437 15.550402
-2.694043 15.707581
-2.041670 14.930765
-1.387429 15.358774
-1.145094 14.536490
-0.230119 14.519890
0.461220 13.851423
1.276070 14.555886
1.582125 13.738605
1.907771 13.227876
1.822449 13.141737
2.884921 12.445311
3.119621 11.482893
3.808044 11.174621
3.833344 10.288961
4.144555 10.146379
4.012694 9.356401
4.393168 8.719659
4.653570 8.240153
4.215496 7.627172
4.089392 6.675614
4.474440 6.189306
3.885982 5.961251
3.923201 5.434105
3.455902 4.148098
3.697037 3.732825
3.051407 3.325927
2.476922 2.626335
2.607881 2.451735
1.417716 2.204033
1.797096 2.430963
0.513904 1.908080
0.373069 0.846160
0.186362 0.903407
-0.498286 0.520811
-1.219981 1.133139
-1.808121 0.680993
-2.676423 0.822940
-2.999744 0.567936
-3.608573 0.254262
-3.725594 0.895670
-4.200823 1.477920
-4.555646 1.208587
-5.589777 2.034423
-6.176007 1.225311
-6.490325 1.957407
-6.523520 2.397627
-7.175852 2.969076
-7.147031 3.136114
-8.022954 3.061829
-7.680561 4.524568
-7.869662 4.570439
-7.902111 4.783814
-8.159132 4.967092
-7.879593 5.672439
-8.367617 5.827240
-8.328318 6.815987
-8.572035 6.970479
-8.370431 7.479615
-8.495124 7.668041
-7.739610 7.217652
-8.586642 7.868889
-7.408884 7.589215
-7.494938 8.540804
-6.932277 8.099154
-7.109051 8.743620
-6.625228 8.794968
-6.421698 8.515475
-6.899040 8.706073
-6.669638 9.256114
-6.452278 9.115679
-6.123830 8.981174
-6.090504 8.575658
-6.241955 8.606956
-5.458560 8.561384
-5.147593 8.364116
-6.352880 7.903941
-5.137672 7.804245
-6.205728 8.691353
-5.284833 7.507228
-6.507489 8.375710
-6.333369 7.347336
-6.121545 7.352339
-7.107770 6.599620
-6.302527 7.663330
-7.096619 6.078347
-7.383291 7.260820
-7.540977 6.543040
-7.995645 6.809966
-8.613428 7.219032
-9.692380 7.085088
-9.768579 6.593413
-9.928311 7.458651
-10.334222 7.155315
-10.532491 8.116737
-11.613157 7.498786
-12.110101 7.583011
-12.167737 8.266402
-13.293253 8.893722
-13.796917 9.453537
-12.492584 9.579446
-14.479144 10.671323
-13.806591 11.741031
-15.240142 11.093743
-15.287034 11.984155
-15.549786 13.019805
-16.956669 13.325260
-16.401605 14.885997
-17.758987 13.815337
-16.085294 15.756859
-18.058939 16.735069
-15.949393 17.680786
-17.602007 19.268142
-15.966891 19.184821
-18.066915 20.411172
-16.365678 20.128458
-17.384499 22.189009
-16.942254 22.942317
-16.746121 23.342376
-17.027206 24.224476
-15.800105 25.162302
-15.055860 23.789276
-14.495782 26.938620
-14.831782 25.854856
-13.956534 27.348012
-13.478610 28.043780
-12.894869 28.100437
-13.267846 30.034645
-11.950025 29.129401
-13.533951 30.320222
-12.892030 30.745794
-13.254267 31.530168
-11.600640 30.524164
-10.959976 33.001828
-10.477831 32.695925
-9.814608 35.497565
-9.681523 33.259744
-9.704604 36.971533
-9.649830 35.348037
-9.961663 35.616639
-9.101310 37.082097
-8.148092 35.253867
-8.065550 39.868086
-7.421447 37.683686
-6.561840 40.470714
-6.911528 39.947745
-4.796403 38.827027
-6.310403 40.897071
-4.426057 39.685730
-5.775749 42.824580
-3.723602 43.588776
-4.823953 45.255492
-5.271535 46.140626
-2.179021 46.802838
-3.239890 46.629809
-1.516345 49.624702
-0.907380 48.588805
0.065780 50.861323
0.855908 51.830296
3.993321 53.145531
-0.274435 57.015052
6.270444 55.691992
3.018215 57.830402
9.776952 59.023298
9.031901 59.860762
8.492335 61.699972
15.662620 59.736305
12.547888 60.588569
20.664007 64.059114
18.143229 61.247671
16.910683 65.046759
27.814644 63.367954
21.190111 67.854648
33.678252 69.270896
30.948135 72.345717
35.463418 66.497285
41.430636 73.475126
37.367753 66.448861
39.259580 68.548539
46.172390 60.086384
49.631350 59.501811
63.200080 68.345314
59.674584 65.762170
56.006715 73.994569
73.182109 62.456959
55.359169 66.923791
76.857718 61.646506
58.589699 50.138587
85.558752 45.353100
87.859646 47.013116
75.253053 68.066102
82.356275 29.607933
41.103693 47.808349
114.067939 -7.716589
72.476839 60.581648
116.560688 35.638755
86.107579 45.181401
102.782164 47.843276
157.045836 18.119783
3.249549 98.058990
15.222951 -84.886255
-108.481477 -70.839018
-37.648436 -369.124023
236.075231 197.801338
-1035.816685 325.795534
