2982.117378 2676.009855
-2307.353780 466.335499
-225.725417 -412.012727
-44.642444 49.539080
-58.418633 -39.939124
-19.842564 75.362324
105.383015 4.953405
-17.275706 -18.960128
1.986422 14.342289
-0.909685 -19.353945
-23.843600 13.742415
18.829061 15.899340
14.405478 -25.384629
-21.333411 -8.560579
-6.364617 11.386645
8.746029 5.390080
6.961240 -3.521620
-5.934198 -3.308221
-1.960629 3.799089
1.457456 0.893628
1.491804 -0.394795
-0.320592 -3.078844
-2.532899 2.555262
3.464533 1.589995
0.849595 -5.653159
-4.444568 1.585808
2.564956 3.241640
-0.029699 -2.321185
-0.833899 1.580269
1.887691 -1.258332
-2.280834 -1.464227
-0.544518 2.734027
2.448959 0.175443
0.345998 -1.967416
-0.854747 -0.218978
-0.211600 0.848646
0.093712 0.262588
-0.020620 -0.088895
0.202120 -0.392402
-0.906280 -0.514367
0.109881 1.469129
1.542354 -0.796188
-1.923800 -1.189624
-0.513270 1.671986
1.477648 -0.335649
-0.449668 -0.871746
-0.457262 -0.096029
-0.295066 0.167729
-0.029945 1.335351
1.601141 -0.493776
-0.773967 -1.270380
-1.128497 0.249740
0.459046 0.527517
0.591220 -0.282948
-0.215795 -0.360402
-0.349569 0.158537
0.259752 -0.332285
-0.095402 -0.334175
0.166313 0.256990
-0.016344 -0.191792
-0.368615 0.190559
0.682474 -0.223321
-0.121306 -0.409638
-0.336944 0.206220
0.368183 0.151127
-0.213480 -0.195970
0.486971 0.027604
-0.012621 -0.324802
-0.433572 -0.023706
0.424727 0.497152
0.690501 -0.391215
-0.639846 -0.446361
-0.422419 0.636683
0.989847 -0.017136
0.360564 -0.305851
-0.186506 0.063034
-0.359212 0.028467
0.042454 0.067713
-0.070778 -0.214992
-0.334719 -0.231776
-0.205171 0.270591
0.198294 -0.204455
-0.211472 -0.329640
-0.382306 0.198342
0.424440 0.070271
0.020960 -0.057960
-0.063603 0.098481
-0.047240 -0.084976
-0.256800 -0.364708
0.223155 -0.263100
-0.214332 -0.106608
0.205819 -0.299051
-0.251009 -0.192403
-0.259092 0.269780
0.566128 0.211887
0.071162 -0.582394
-0.216719 -0.354595
-0.158180 0.088595
0.173984 0.092184
0.518470 0.227340
-0.334046 -0.739764
0.121910 -0.088158
0.315828 0.014956
-0.101010 0.253524
-0.065707 -0.124471
-0.001970 -0.077633
0.092985 -0.110744
0.120640 0.091005
-0.142135 0.217562
-0.264136 -0.243235
-0.636209 -0.025968
-0.144032 0.206793
0.117549 -0.087494
-0.240154 -0.068637
0.098924 -0.061150
-0.258617 0.209746
-0.059612 -0.385179
-0.092105 0.040408
-0.160790 -0.022401
0.047872 -0.126079
-0.277176 0.012589
0.176867 -0.116266
-0.021250 -0.081730
-0.299599 -0.209498
0.022061 -0.093428
0.017256 -0.158890
-0.074886 0.285866
0.237536 0.072383
-0.126361 -0.342631
-0.178258 -0.049182
0.206712 0.054238
-0.077933 0.126197
0.050969 0.216263
-0.112236 -0.144228
-0.336678 0.126161
0.358370 0.699779
-0.455829 -0.222480
-0.400452 0.375238
0.155256 0.293389
0.084420 -0.245462
-0.011668 -0.193054
0.444696 0.067294
0.171051 -0.242414
0.037423 0.009744
0.054641 -0.021994
-0.077568 -0.024800
0.112223 0.200192
0.029216 -0.278747
-0.121259 0.054321
0.231085 0.243569
0.296641 -0.150761
-0.212325 0.059528
-0.159253 -0.211588
0.057801 0.160548
0.047553 0.001446
-0.082516 0.023161
0.303508 -0.023192
0.022212 0.397543
-0.052423 -0.332831
-0.272511 -0.137779
0.152218 -0.003129
-0.062668 -0.327592
-0.251971 -0.238817
0.009778 -0.408568
0.022792 0.096703
-0.049376 -0.129132
0.081756 0.068960
-0.125388 0.108721
0.109919 -0.043334
-0.093592 0.159713
0.055477 -0.431162
0.332743 -0.204545
0.234875 -0.356793
-0.134573 -0.123234
0.067072 0.028658
-0.048263 0.081401
-0.131776 0.167621
-0.098213 0.088394
-0.317713 -0.057249
0.211035 -0.009363
-0.439839 0.280612
-0.296734 0.084464
-0.279764 -0.234869
0.206404 0.228132
0.200194 -0.073797
-0.574490 -0.003445
0.028885 -0.182097
-0.087509 0.276835
0.178975 -0.135690
0.280846 0.078899
0.099304 0.127335
-0.211342 0.128764
0.141164 -0.330860
-0.197210 0.032347
-0.177013 -0.279555
0.122292 0.287660
0.239032 0.188124
-0.180308 0.125247
0.200132 -0.148097
-0.044273 0.042280
-0.146722 -0.408313
-0.041348 -0.179107
0.055447 -0.137808
0.126843 -0.111464
-0.203993 0.143453
0.162807 -0.458691
0.152604 -0.280430
0.014210 -0.078706
-0.179660 0.244941
-0.069358 0.241699
-0.217848 0.157356
0.026961 -0.013213
0.149530 -0.137565
0.125822 -0.034362
-0.031177 -0.011961
-0.344026 0.162295
0.061693 -0.097945
-0.415710 0.358798
-0.600824 -0.214160
0.122814 0.261813
-0.150166 -0.136241
0.084844 0.101778
0.128588 -0.089868
-0.384181 -0.062918
-0.384703 -0.079936
0.238432 0.130040
0.050981 -0.013367
0.408182 0.122675
0.211452 0.382514
0.322630 0.239267
0.024793 -0.123571
-0.184783 0.079272
0.215261 0.002785
-0.088185 -0.273596
-0.232420 0.072491
0.055934 -0.166298
0.093446 0.069752
-0.040172 -0.311853
-0.101504 -0.327926
-0.008954 -0.059188
0.032300 0.095719
-0.029401 0.047402
0.057713 0.007179
0.098961 -0.105650
-0.348711 0.042410
0.208439 0.130978
0.074119 -0.091261
-0.195083 0.273678
-0.235161 -0.084912
0.024800 0.139326
0.108653 0.023826
0.061327 -0.053638
0.021769 -0.094950
-0.129340 -0.044279
-0.067228 0.236730
-0.078381 -0.032289
0.065195 -0.097450
0.165875 -0.102956
-0.030617 0.353871
0.291306 -0.265638
0.353453 0.183074
0.090436 0.041276
-0.185331 -0.040690
-0.117402 -0.211040
-0.191602 0.114950
0.169818 -0.072046
0.166407 0.125372
-0.398056 -0.190762
0.007535 -0.256031
-0.328803 -0.386671
-0.184264 -0.411039
-0.089579 -0.241681
-0.021958 -0.171573
-0.003207 0.040239
-0.116083 0.323595
0.260218 0.210554
-0.128694 0.280820
-0.045835 0.164659
0.024216 -0.144103
0.060925 -0.078923
0.054890 -0.066324
-0.052631 -0.046410
0.091152 -0.021145
0.098321 -0.155716
-0.078611 0.057686
-0.184919 0.026740
0.453837 -0.096935
-0.097400 0.098555
0.109545 -0.277390
-0.471033 0.006432
-0.324995 0.648335
-0.722201 -0.047848
-0.422832 -0.009720
0.246820 -0.200501
-0.063353 0.389701
0.170743 -0.112747
0.081132 -0.116141
-0.095450 0.069261
0.215876 0.118893
-0.011444 -0.107393
-0.113211 -0.082340
0.140251 0.346743
0.209322 -0.014043
-0.111334 -0.143603
0.164761 -0.091170
-0.350035 0.301829
0.202256 0.012920
0.204206 -0.137485
-0.172164 -0.212342
-0.141676 0.148952
0.021224 0.132797
0.168339 -0.171932
-0.030368 -0.159650
-0.057180 0.143224
-0.145395 -0.054464
0.281431 0.086161
-0.210506 -0.038450
0.101176 -0.152690
-0.139712 0.399439
0.015250 0.069590
-0.133114 -0.273741
0.417934 -0.004113
-0.250161 0.045986
0.206902 -0.142546
-0.090762 0.089351
-0.102743 0.003096
-0.050073 0.030947
-0.051572 0.038490
0.246906 -0.038195
-0.046069 -0.043139
-0.192958 0.121190
-0.310366 -0.304412
0.137049 0.358830
-0.419038 -0.160831
-0.076153 -0.131058
0.133851 -0.139732
0.021651 0.541949
0.079850 -0.291609
0.426584 0.250558
-0.266048 -0.135902
-0.144232 -0.036123
0.013417 -0.117421
0.015433 0.086484
0.087429 -0.020192
-0.059914 -0.036558
-0.207922 0.026091
0.306079 -0.102393
-0.110918 0.062294
-0.072320 -0.123825
-0.028742 0.296207
0.095296 0.018634
0.079530 -0.187154
-0.072138 -0.056813
-0.201621 0.303137
0.103894 -0.142640
0.287484 0.094844
-0.134033 -0.343137
-0.305356 0.184176
0.114833 0.308274
0.235404 -0.282821
-0.072496 0.032417
0.015806 -0.135547
-0.047324 -0.036683
0.563122 0.100466
-0.083941 -0.053596
0.161906 -0.286100
-0.084929 0.137150
-0.253774 0.117098
-0.585464 -0.114346
-0.107865 0.034616
0.313956 -0.114146
-0.194637 0.146291
-0.354993 -0.272785
-0.494348 -0.175124
-0.124339 -0.089883
-0.079115 -0.191896
-0.084033 0.045635
0.232129 0.115346
0.236590 0.594810
0.056241 -0.019482
0.251191 0.245427
0.019554 -0.104218
-0.347935 -0.093349
0.105607 -0.414847
-0.005831 -0.110368
-0.005188 -0.137225
-0.018518 -0.090800
-0.046063 0.061592
0.011505 0.138626
-0.064079 0.091096
-0.045937 0.127507
0.120431 0.177433
-0.348193 -0.048172
0.015210 0.307696
-0.375250 0.369587
-0.252970 0.166328
-0.175891 0.421144
-0.084178 -0.215168
0.288453 -0.152771
0.263874 -0.153361
-0.013438 0.284727
0.338523 -0.193140
-0.186216 -0.227974
-0.089327 0.177873
0.252877 0.063803
-0.186165 0.044679
0.420671 -0.094378
0.002592 -0.039865
-0.082279 0.138009
-0.183332 -0.163889
0.151360 0.144396
-0.153074 -0.127844
-0.118300 -0.248776
-0.065170 0.094494
0.170628 0.221781
-0.060464 -0.113443
-0.071960 -0.102091
0.038992 -0.238175
-0.175957 -0.021080
0.008324 0.041297
0.006888 0.070448
0.233990 0.208806
-0.204633 -0.178344
-0.074708 0.172640
0.151713 0.196448
-0.062350 0.161662
-0.149109 0.212004
-0.090492 0.120756
0.113547 0.098676
-0.150162 -0.005798
0.258267 -0.185069
0.193154 -0.303177
0.005341 0.019921
-0.030531 -0.037657
0.288982 -0.016372
-0.133311 -0.066069
0.428700 -0.182166
0.243802 -0.026145
0.067104 -0.047189
-0.204532 0.023641
-0.376623 0.085321
-0.592376 -0.013415
-0.188694 -0.269459
-0.179496 0.331835
0.127156 -0.192050
0.082782 0.098733
-0.247287 -0.026615
0.206589 -0.208701
-0.437464 0.013481
-0.184602 -0.170309
-0.124058 -0.199327
0.219284 0.119270
-0.053609 0.006629
0.042783 0.209091
0.026943 0.048400
-0.054127 -0.131284
0.037568 -0.203526
0.075408 0.172168
-0.079152 0.537339
-0.168181 0.518817
0.393276 -0.379398
-0.165906 0.352026
-0.047058 -0.213641
-0.065109 0.098685
0.095476 0.151564
-0.198460 0.077110
0.082370 0.020940
0.130503 -0.021614
-0.009781 -0.366748
0.207288 0.066429
0.071375 -0.027575
-0.157665 0.009885
-0.299503 0.102209
-0.078628 0.239761
0.173159 -0.267280
0.112743 -0.035096
0.173600 0.182017
0.248069 -0.178231
-0.587263 0.148701
-0.152587 -0.292487
-0.115871 0.069625
-0.047214 0.147117
-0.524013 -0.249592
-0.323565 -0.303056
-0.069065 -0.187475
0.029092 0.377933
-0.041633 -0.160190
0.284144 0.379435
0.325969 0.056336
-0.196510 -0.072300
-0.078125 0.039508
0.113908 0.265515
0.037892 -0.167096
0.217882 0.298736
-0.301629 0.094289
0.149042 0.046883
0.011627 0.232446
0.086854 0.031920
-0.197879 -0.153621
0.004076 0.259383
0.200757 0.144568
-0.463002 0.272341
0.085063 -0.065358
-0.087415 0.271382
-0.032745 0.164200
-0.092618 -0.078591
-0.041082 -0.083143
0.150222 0.031176
0.364398 -0.051892
0.163360 -0.303242
-0.079251 0.011149
0.112267 0.155059
-0.474510 -0.040079
-0.073929 0.015364
-0.036231 0.028841
0.146089 0.048191
0.291781 -0.056881
0.023326 0.037718
0.520890 0.314397
0.200707 -0.122501
-0.237716 0.021550
0.154025 0.129007
-0.007561 -0.327620
-0.437279 0.047554
0.275421 0.164674
-0.020490 -0.279069
-0.183987 -0.126528
-0.072719 -0.219116
-0.445086 -0.498111
0.344964 0.254559
0.005072 -0.173208
-0.179494 -0.095480
0.024830 -0.146186
-0.042590 0.074866
0.015481 0.271232
0.160311 0.184395
-0.192269 -0.113721
-0.230680 0.063972
0.217756 0.203344
0.199484 -0.073529
-0.362183 -0.004774
-0.203304 0.237310
0.294943 -0.057402
-0.547116 0.344331
0.140860 -0.163752
-0.046126 0.202929
0.028306 -0.072510
-0.214816 -0.161370
-0.507964 0.325817
0.104516 0.118557
-0.179461 -0.144484
-0.096591 -0.079007
-0.038528 0.024402
-0.219931 0.164776
0.043860 -0.236659
-0.802847 -0.186972
0.031642 0.154372
0.569561 0.009218
0.168393 0.190157
-0.147273 0.166676
0.116198 -0.025600
0.139240 0.120593
0.259956 0.134811
0.037436 0.241396
-0.270509 -0.266286
0.089347 0.091818
-0.003682 0.273097
0.376719 -0.074955
-0.174996 0.057643
-0.284247 0.225262
-0.043529 0.670870
0.313847 0.350939
0.238838 -0.441160
-0.474837 -0.078018
0.052545 0.010942
-0.086434 0.390728
-0.095612 0.300447
0.261208 -0.131140
-0.219991 -0.175022
-0.022199 0.090604
-0.269756 0.033834
-0.183525 0.392829
0.384445 0.086077
-0.436589 -0.296294
-0.025784 0.072967
-0.098544 -0.183761
-0.219928 0.490189
0.368254 0.097339
-0.240494 -0.454825
0.266714 0.078870
0.338216 -0.220334
-0.320651 0.731847
0.686171 0.108862
0.262444 -0.349547
-0.103562 -0.244083
-0.528205 -0.102372
-0.206987 0.646588
0.846658 0.012267
0.038329 -0.100039
-0.219928 -0.181136
-0.009751 0.105000
-0.108619 0.213733
0.230952 0.196831
-0.062101 0.607088
0.602008 -0.080389
-0.308534 -1.114602
-0.526892 0.498945
0.053428 0.820593
0.295861 0.447548
0.481664 -0.640298
-0.709312 -0.126912
-0.102221 0.442180
0.520836 -0.088556
-1.035439 0.214081
0.616919 0.741371
0.616287 -0.818492
-0.502641 -0.440829
-0.510887 0.147175
0.133945 0.880386
1.268870 -0.237902
-1.109601 -0.902940
-0.911668 1.042848
0.311322 -0.237940
-1.039206 -0.292555
0.387310 0.798418
0.835142 -0.010440
0.892469 0.194400
0.076637 -1.966958
-2.643721 0.828922
1.829830 2.662621
1.444989 -2.040558
-1.212941 -0.473378
-0.316656 -0.372105
-1.424718 -0.297220
0.815905 1.883617
1.117151 0.045175
0.167335 0.493789
1.841291 -2.569352
-4.652668 -0.463474
0.611996 5.458250
3.952578 -0.947667
-0.209705 -2.873415
-2.181295 -3.355054
-2.067188 2.262074
5.010751 1.285222
-5.298012 -4.214191
-2.840218 11.765020
16.779914 -3.013912
-11.905093 -15.832125
-12.419966 14.248012
5.300810 8.269830
11.474204 7.988651
27.766916 -31.223634
-41.318345 -29.585758
-22.864967 66.342715
60.655467 4.341537
-15.780942 -49.213728
-11.335673 23.072401
-39.320953 -64.684865
-114.518655 138.973752
244.433809 100.401644
