15498.610251 6825.822809
-7787.897080 -3169.069896
98.106177 -300.213174
-810.474090 -488.143982
-448.412939 434.839187
-109.828467 -209.050339
-147.115034 44.811175
67.250865 -2.007931
-166.015493 72.458239
-29.311010 15.557448
-78.888818 17.458010
17.080554 86.227377
-23.453254 -36.870397
-37.877508 29.176894
2.630277 -50.539861
4.936952 63.374651
-37.226706 -6.719089
-49.303039 16.130190
-9.364358 -12.486685
8.225649 43.517894
-17.508429 19.419099
-52.866200 -11.669117
-5.139722 -19.202315
1.583573 -6.990543
3.053864 13.183342
-10.279746 5.794323
-22.212553 5.417923
3.446965 -15.610038
2.659808 11.096917
-0.675292 -1.179482
-3.603609 9.417600
-5.006388 -7.497511
-20.747464 -2.209702
1.856707 -12.206994
8.654674 5.792251
-4.487489 24.867448
-14.009373 10.480959
-10.063273 0.975241
3.235481 -4.940142
1.918561 -10.143281
-2.448293 2.016207
-22.443693 7.462950
-6.447437 -18.598496
1.307298 2.639697
6.814836 5.145826
-5.245761 1.848569
3.128021 0.506373
-4.861488 -4.643741
-4.487624 -7.303671
-4.635849 -2.057143
-0.905227 4.564762
-8.542943 4.711831
0.803503 7.190683
3.349910 -2.578188
-2.938260 0.665845
8.339257 -3.288855
-10.419131 -0.238926
-6.321952 -0.160200
-6.530955 -0.865861
-0.434334 0.242023
-1.603940 6.446556
3.955091 -4.635259
1.198502 -6.886616
1.681396 3.551934
-5.832749 -5.078596
-6.239551 -0.697780
1.345115 1.674577
-2.980361 0.762920
1.928132 4.960481
-0.129630 1.954667
0.056824 -5.054818
-1.433443 -1.381109
2.131140 1.136969
-8.919433 -0.819514
-0.127101 2.731286
0.408741 -0.140192
-3.665345 2.183647
1.092746 -4.124493
2.875248 -2.520821
-1.423114 3.181093
-1.483352 0.010139
-1.548561 -0.743452
-3.024911 -0.960669
1.679960 0.932897
-1.263616 -0.102477
-0.192815 2.402931
0.599310 -3.783786
-0.734743 -1.410996
1.428857 -0.423604
-0.851796 0.848894
-1.729867 0.548978
-0.158817 2.742243
-3.600955 -0.674302
-0.337567 -0.718848
0.258775 -0.045470
-1.007170 -0.883714
-1.167472 0.951714
-1.034720 -3.769399
0.718844 -1.212220
0.979785 1.606363
0.097314 1.833094
-2.091793 0.156012
0.598769 -0.573153
1.067791 -1.755676
-0.883532 1.627236
-0.063951 -0.601548
-0.323272 -0.401191
0.169872 0.423370
0.079838 0.439215
-1.032502 1.682592
-1.702536 -1.217063
1.212245 0.552150
-1.844922 -0.666856
-0.414179 0.409790
-0.721699 -1.653684
-1.170639 0.400679
-0.532862 -0.221384
-0.902488 0.397301
-0.199774 0.074699
-1.310351 0.175303
-0.598707 -0.555012
-0.434672 -1.328740
0.637489 0.576855
0.301235 -0.449628
-1.731107 1.495817
0.362083 -2.444885
1.355225 1.084876
0.962240 0.224619
-2.585041 0.888450
-0.709132 -0.750744
-1.568502 -1.127680
1.381383 0.188023
-1.307486 -0.108956
-0.626089 -0.426294
0.204850 -1.410930
-0.148964 -0.413376
0.636541 -0.611504
-1.166297 1.124426
-0.335925 -0.453278
-0.066746 0.490793
0.597619 -0.898943
-0.046095 -0.662119
0.482303 -0.405265
-0.582710 0.465893
-0.468195 0.665375
-0.844264 0.330051
0.127803 -0.044629
-0.649195 0.476098
-0.139825 -0.033451
-0.163916 -1.212801
0.388102 -0.582938
0.511333 0.164023
-1.612422 0.745279
-0.621957 -0.580036
-0.354941 -0.642601
0.862684 0.240930
-0.162842 0.081453
0.255151 -0.261390
0.081238 -0.791818
0.409700 0.370128
-0.513936 0.172765
-1.437714 0.036757
-0.126100 -0.341995
-0.995415 0.932465
0.018213 -0.482207
-0.199317 0.072300
0.221017 -0.063706
-0.022077 -0.333531
-0.957360 0.262983
-0.864813 -0.974231
0.090571 0.032073
-0.698886 0.647055
-0.950536 0.167886
0.394373 -1.206010
0.659698 -0.837203
0.743821 0.105286
-0.717962 -0.338444
-0.458600 -0.460915
-0.541206 -0.277080
1.199231 0.104383
-0.269576 0.493149
-0.220727 -0.318300
-0.175318 -0.377211
-0.190267 -0.330950
0.591239 -1.431955
-0.055869 0.467158
-0.096991 -0.023061
-0.901708 0.251114
0.337013 0.333994
0.347731 0.302442
1.356645 0.297632
-0.317610 -0.564568
-0.938825 -0.323064
-0.511070 -1.518419
1.437822 0.355320
0.015646 0.180433
-0.321070 0.711375
-0.299173 -0.942145
0.328403 0.244104
0.158678 -0.007752
-0.423908 0.535554
-0.247258 -0.445659
-0.725876 -0.854214
0.269303 0.100178
-0.948348 0.045339
0.836188 -0.244902
-0.106716 -0.825836
0.717120 -0.044803
-0.002079 -0.813016
-0.352806 0.176657
-0.109632 -0.242443
-0.773123 0.345336
0.066787 -0.255093
-0.125541 0.151463
0.012479 -0.512431
0.132019 0.575664
-0.465608 -0.122569
-0.374524 -1.250873
0.568135 0.532814
-0.163621 0.152105
-0.013691 0.869656
-0.261377 -0.480439
0.248370 0.015656
0.268609 0.134066
-0.426127 -0.310372
0.259433 -0.410926
-0.695758 0.223500
0.255677 -0.294386
0.271513 0.333383
0.015421 0.072590
-0.024791 -0.006757
-0.442464 0.647832
0.029620 -0.250585
-0.785808 -0.301655
0.397872 0.174664
-0.038647 0.026335
-0.049956 -0.454192
-0.787310 -0.365271
0.701556 -0.435256
-0.532932 -0.082715
-0.046369 -0.339019
0.229581 -0.072831
0.243924 -0.441119
0.133999 0.472350
-0.335685 -0.256527
0.206472 0.362904
-0.260021 -0.232083
0.018859 -0.013631
-0.679527 -0.223313
0.535429 0.347684
0.198337 -0.125776
0.489019 0.019803
-1.115120 -0.376558
0.207224 0.045688
0.226382 -0.007636
0.237242 -0.177815
-0.499332 0.142401
0.585232 0.219215
-0.031944 -0.453864
-0.413575 0.080917
-0.073682 -0.219552
-0.283974 0.122516
0.326687 0.042027
0.256445 -0.702094
0.124343 0.283490
-0.219535 -0.556531
0.147468 -0.611357
-0.297906 0.039885
0.136351 0.983668
-0.097982 -0.617645
0.223375 0.379726
0.303391 -0.968777
-0.311708 0.266865
0.905608 0.046338
-0.005189 -0.450715
-0.018202 -0.457653
-0.263696 0.358045
0.493195 0.111381
0.310311 -0.670317
0.326948 0.328444
-0.157529 -0.494036
0.293251 -0.289606
0.049881 0.149323
-0.455539 0.200245
-0.316145 0.287122
0.294768 -0.314083
0.549758 -0.938703
-0.261693 0.766984
0.392632 0.062474
-0.139767 -0.361484
0.106349 0.570230
-0.376653 -0.350728
0.017511 0.471131
-0.776275 -0.080285
0.182576 -0.113429
-0.127626 0.041424
0.181579 -0.053306
0.281933 -0.308474
0.103991 0.457193
0.656982 0.457963
-0.332306 0.325799
0.225362 0.217705
-0.036715 -0.209358
0.158704 0.936272
-0.452190 -0.225508
0.764873 -0.303305
0.013284 -0.062586
-0.040880 0.257426
0.391892 -0.144971
0.051712 -0.041912
-0.081777 0.340495
-0.235945 0.329650
-0.652325 -0.059788
0.255896 -0.369272
0.076145 0.137271
0.069772 -0.024444
-0.526089 -0.151950
0.333639 -0.422453
0.397371 0.240594
0.222747 -0.467239
-0.131011 0.722931
-0.413046 0.106025
0.135827 0.109510
-0.256507 -0.263731
-0.288922 0.001824
0.144386 0.346450
0.296638 -0.086027
0.091960 0.548160
-0.110845 -0.260082
0.136241 -0.653907
-0.039530 -0.104638
-0.058260 0.052028
-0.161175 0.103512
-0.461859 -0.279357
0.714362 -0.259500
-0.502899 0.022547
0.212650 0.521741
0.369186 0.021412
0.459316 0.134016
0.278949 -0.167710
-0.161799 -0.242916
-0.346924 0.153852
0.254366 -0.093677
0.269292 0.333482
0.090576 -0.317951
-0.020944 -0.189924
-0.045342 -0.022452
-0.033184 -0.082774
-0.150597 0.407257
0.147537 0.248856
0.449250 0.455239
0.497336 0.031707
0.473871 0.274820
-0.039366 0.062727
-0.365887 -0.330746
-0.133403 0.087065
0.105774 -0.193971
0.022626 0.141517
0.220824 -0.070663
-0.319505 -0.476882
-0.373856 0.667696
0.160035 -0.001767
0.602370 0.029674
-0.343744 0.297586
-0.199451 0.015940
-0.223076 -0.433099
-0.209941 0.220274
0.186340 0.118403
-0.266455 -0.369506
0.225363 -0.138687
-0.293671 -0.184770
0.216258 0.436741
0.136007 -0.424084
-0.244621 0.043867
0.255596 0.064308
-0.115333 0.234439
0.182920 -0.353001
-0.176296 -0.102709
0.085097 0.076411
0.159845 0.457569
-0.248053 0.338700
-0.048517 -0.292657
0.116662 0.241463
-0.091159 -0.527687
0.155248 0.115120
-0.158856 0.098273
0.045630 0.009781
-0.231186 -0.168162
0.018763 -0.044850
-0.005273 -0.478817
-0.025401 0.003378
-0.308700 0.079622
-0.624918 0.041951
0.343320 -0.255044
0.094228 0.254094
-0.266139 0.255641
-0.028327 -0.361499
-0.158667 -0.069374
-0.398905 -0.030021
0.127460 -0.128828
0.003187 -0.190385
-0.363172 0.026367
0.454426 0.362298
-0.122513 0.018651
-0.189376 0.534201
-0.225595 -0.197347
0.660441 0.464381
-0.310551 0.018981
0.065453 0.022495
0.232533 0.214806
-0.053178 0.192621
0.297933 0.326825
-0.089659 0.290765
0.222921 -0.407077
0.286818 0.273181
-0.348098 0.223673
-0.199335 0.204224
-0.060633 -0.001315
-0.260453 0.222463
-0.084120 0.177877
-0.205660 0.048839
0.141362 -0.060566
0.121036 -0.221887
0.205544 0.252551
-0.505469 -0.847414
-0.272539 0.218172
0.028411 0.014326
-0.032687 0.468870
-0.385702 -0.037965
-0.108180 0.004976
0.368252 -0.061573
-0.124389 0.184839
-0.385595 0.195781
0.136131 -0.086311
0.453936 0.443024
-0.355820 0.438042
-0.065762 0.171025
0.095405 0.090854
-0.436367 -0.066557
-0.084128 0.213530
0.039541 0.170965
0.253761 -0.516204
0.030628 0.129773
-0.253272 0.374961
-0.015928 -0.517344
-0.007495 0.057142
0.147763 0.000681
-0.241618 0.235780
0.076960 -0.286068
-0.257295 0.274005
0.372755 -0.286690
0.045657 0.456053
0.010606 -0.640429
0.111415 -0.106674
-0.236368 -0.281363
-0.471546 -0.135111
0.274617 -0.189877
-0.364275 -0.090069
0.005261 0.134859
0.408945 -0.259482
0.212223 -0.034247
0.058323 -0.603518
0.302407 -0.046524
0.111330 0.003132
-0.299597 -0.143747
0.683497 0.208942
0.025276 0.041313
0.152331 0.056774
0.066725 0.457373
0.075829 0.372763
0.253909 0.551762
0.203091 -0.177900
0.144366 -0.198401
0.020221 -0.386837
-0.014555 -0.393081
-0.348907 0.378544
0.254415 0.135887
-0.021851 -0.015288
-0.441151 0.296976
0.045519 0.027420
0.181455 -0.163536
0.311269 0.083708
0.524975 0.259125
-0.567818 0.124853
-0.445812 -0.212922
-0.160469 -0.088611
-0.300466 0.190384
-0.040187 -0.163837
-0.454440 -0.207290
0.192623 0.099238
-0.365770 0.033273
-0.068814 0.067769
-0.055845 -0.373581
0.125011 0.111815
-0.070921 0.043338
0.180867 0.205056
-0.429858 -0.125893
0.096819 0.003872
0.538109 0.057133
-0.031019 -0.054876
0.449201 -0.209174
0.344571 0.249142
0.015332 0.334034
-0.206478 -0.192085
-0.107440 0.292446
0.181056 -0.170827
0.273392 0.150312
-0.229177 0.005293
0.198835 -0.163866
-0.298895 0.142081
-0.184367 0.424980
0.457731 0.075530
-0.371377 0.208236
0.159327 -0.225943
-0.376584 -0.119341
-0.132170 0.467283
0.041473 -0.151438
-0.234741 0.138041
0.067274 0.402161
-0.584706 -0.188866
0.163137 -0.101338
-0.136766 -0.319936
0.422277 -0.061974
0.109947 0.015059
-0.088139 0.167114
0.183234 0.368324
0.228414 0.044595
0.012705 0.057501
-0.264831 -0.196539
0.206264 -0.182893
-0.032276 0.301896
-0.020295 -0.091051
-0.127546 0.005251
0.354055 -0.008879
0.202747 0.225147
-0.081446 -0.368547
0.142618 -0.159504
0.083117 0.040535
-0.313724 -0.358518
0.132172 0.231972
0.419016 -0.069240
0.255871 -0.152530
0.267255 0.329100
0.188583 0.098051
0.252090 -0.568889
0.117519 0.235360
0.225486 0.154810
-0.295021 -0.081514
-0.177716 -0.490965
-0.041569 0.253551
0.019362 -0.058695
-0.134730 0.152017
0.047792 0.210468
-0.087774 -0.420129
0.233466 -0.225026
-0.258244 -0.207658
-0.108072 0.007837
0.106558 0.105725
-0.315133 0.195853
-0.041380 0.042572
-0.099443 0.153724
-0.142112 -0.008894
-0.231921 0.188628
-0.413556 -0.440050
-0.152496 0.014048
-0.184492 0.575392
0.019397 -0.063984
0.260628 0.350230
0.102349 -0.095579
0.121238 0.008004
0.182738 0.021519
0.157926 0.135605
-0.379067 -0.123728
-0.135403 -0.394838
-0.341651 0.168458
0.007063 -0.285589
-0.380986 0.194409
0.443728 -0.203537
-0.142531 -0.037119
0.067650 0.109356
-0.020251 -0.190633
0.066495 0.225181
-0.172609 0.472110
0.202610 -0.033568
-0.013236 -0.114409
0.121156 -0.182886
-0.155860 0.241076
0.318936 0.201319
-0.323805 -0.195024
-0.319253 0.441580
0.077292 0.054063
-0.347369 0.468303
0.157351 0.100350
0.298921 -0.330304
0.101833 0.008543
-0.080514 0.346901
-0.078443 -0.079019
-0.046812 0.268829
0.205071 -0.110872
-0.154464 -0.008557
0.035766 -0.387922
-0.366636 -0.209719
-0.069507 0.247310
-0.208611 -0.172245
0.260355 -0.161233
0.003963 0.143001
-0.068995 0.108248
0.101232 -0.224196
0.091727 -0.034285
0.118681 0.018876
-0.116503 0.195505
-0.015896 0.220660
0.010584 -0.164044
0.019517 0.211705
0.106657 0.284373
-0.234378 0.207832
0.257330 -0.521727
0.109746 0.161456
0.007696 0.368715
-0.147155 -0.132391
-0.138009 -0.191183
-0.524374 0.165039
-0.023821 -0.055563
-0.171774 -0.542121
0.023600 -0.019801
-0.246516 -0.014320
0.114279 -0.077508
-0.056959 -0.224022
0.238840 0.097074
0.220038 -0.238476
-0.214186 0.082983
-0.214608 -0.098954
-0.243111 0.118734
-0.135258 0.478182
-0.380458 -0.340767
0.327704 0.007398
-0.081138 0.058870
0.120957 0.195399
0.139365 0.143517
-0.279668 0.187246
-0.320502 0.057166
-0.335039 -0.286692
-0.038438 -0.556833
-0.166761 -0.445341
0.065054 -0.049368
0.067969 0.282039
-0.157513 -0.045413
0.115242 -0.165342
-0.114387 -0.190762
0.149467 -0.036918
-0.215246 0.611271
-0.273874 -0.215540
-0.095815 -0.365294
0.069586 -0.284460
-0.354922 -0.063178
-0.071650 -0.135866
-0.104235 -0.067356
0.147117 0.116131
-0.382013 -0.098018
-0.122508 0.002651
-0.199884 0.056718
0.040830 -0.378915
0.192957 0.045941
-0.145758 0.257980
0.222609 0.014036
0.049243 -0.027231
-0.011946 -0.162376
-0.407391 -0.434297
-0.108690 0.050654
0.150667 -0.007580
0.149580 0.255144
0.160879 0.101124
0.081607 0.120104
-0.073076 -0.059368
-0.242812 0.163764
0.097794 0.277123
-0.061086 -0.032136
0.040311 0.003451
0.084405 0.229188
0.158713 0.197994
-0.284317 0.073892
0.396868 0.229099
-0.395220 0.012425
0.004041 0.502480
-0.091477 -0.300160
0.209927 -0.206608
0.121223 -0.088654
-0.350276 0.176325
-0.085056 -0.153454
-0.054678 -0.061665
0.065084 -0.024119
-0.149965 -0.150410
0.497103 0.140500
-0.001169 -0.179284
0.013291 -0.168624
-0.229777 0.002798
-0.280813 0.273262
-0.132506 -0.040168
0.159633 0.246600
0.100785 0.015457
0.002262 -0.050180
-0.094047 -0.097730
-0.202343 0.254700
0.033863 -0.252131
-0.388714 -0.009377
0.328013 0.014987
-0.120226 -0.147862
-0.002794 -0.048414
-0.020537 -0.141167
0.246537 -0.134637
-0.076061 -0.019126
0.127082 0.050247
0.325519 -0.035876
0.213844 -0.180899
-0.005946 0.120985
-0.147198 0.050387
-0.137783 -0.132917
0.142391 0.093812
-0.287826 -0.173086
0.095514 -0.314866
0.074282 0.065740
-0.090545 -0.093966
0.135630 -0.055121
0.101160 -0.138183
0.243436 0.178659
-0.041885 0.303727
-0.015905 -0.152474
-0.138479 -0.133461
0.265512 -0.433455
0.042691 0.005727
-0.063045 0.022572
0.189088 0.156287
0.123485 -0.180401
0.390720 0.195137
0.211813 0.085454
-0.227305 -0.286180
0.065554 -0.215729
0.101262 0.127385
-0.186376 -0.171220
0.020453 -0.127106
0.242725 0.024003
0.035595 -0.212799
0.129013 0.231777
-0.344521 -0.158709
0.378071 -0.035698
-0.223232 0.277205
-0.146543 0.306444
-0.122273 -0.262107
0.058982 0.305596
0.357620 0.112611
-0.120629 -0.081139
0.099913 -0.302478
0.069663 -0.047619
-0.180713 -0.123654
-0.063315 0.033800
0.084341 -0.147583
0.318654 0.056943
0.317387 -0.189692
-0.082263 -0.176645
0.141045 0.007711
0.456981 -0.005174
-0.119702 0.137312
0.017420 -0.087179
-0.128110 -0.004935
0.345746 0.018095
0.042904 -0.417959
0.071720 0.021315
-0.302829 -0.307942
0.341165 -0.408034
-0.045907 -0.230158
0.168844 -0.078525
-0.128098 -0.042615
-0.233571 -0.010335
0.039313 0.360866
-0.095608 -0.134397
0.134434 -0.018374
-0.042311 0.116683
-0.057905 -0.240359
0.017876 0.106734
0.115799 -0.109715
-0.041528 -0.473684
-0.035854 -0.222336
-0.338611 0.193161
-0.051555 -0.007507
-0.234154 -0.155245
-0.139089 0.443514
0.250692 -0.087668
-0.430981 -0.114655
0.102369 0.083952
-0.041041 -0.150350
0.017053 0.231587
-0.071014 -0.206982
-0.243425 0.258459
-0.164218 0.030963
-0.404445 -0.158234
0.349966 0.068502
-0.058956 0.104044
0.034619 0.025647
-0.608747 0.174453
-0.194099 0.390745
-0.334322 -0.123037
0.307236 -0.161711
0.354627 0.143901
0.346210 0.208095
-0.146747 0.322207
-0.153974 0.182470
0.293185 -0.063127
-0.159368 0.192003
-0.085689 0.060362
-0.393389 0.291078
0.205483 -0.173599
-0.045230 0.000977
0.226494 0.190373
-0.074569 -0.085651
0.363370 0.376400
-0.110329 0.018586
0.111594 -0.043507
0.062559 0.086649
-0.195372 -0.029419
-0.075815 -0.258570
0.035692 -0.113710
0.408000 -0.187990
-0.303639 0.062123
-0.125904 -0.039801
-0.037323 -0.041565
-0.200999 -0.095375
-0.124945 -0.040914
0.195494 -0.003019
0.077111 0.095413
-0.095952 0.233740
-0.125562 -0.334964
0.192189 0.203588
0.305680 -0.356266
-0.116425 0.259959
-0.386042 -0.043771
-0.272703 0.103872
0.117080 0.167252
-0.349069 0.026260
-0.446673 0.042087
-0.017662 0.005852
-0.051158 -0.112553
0.192114 -0.237608
0.219402 0.020631
-0.103510 -0.113605
-0.087135 0.082551
0.224273 0.239790
0.033419 0.035468
-0.169059 -0.114368
-0.309641 0.028375
-0.050909 0.278975
0.095072 0.082508
0.022376 0.096620
0.214757 0.027816
0.242913 0.024608
-0.064805 0.198212
-0.088958 -0.013656
0.266200 -0.109115
-0.422385 0.428293
0.111141 0.254186
-0.027207 -0.033746
0.437404 0.311418
-0.090534 0.233680
-0.135458 -0.065289
-0.293428 0.293534
0.085941 0.297192
0.274826 -0.178593
-0.119107 -0.376217
-0.085458 -0.164145
-0.126688 -0.126890
-0.025522 -0.185800
-0.183962 -0.053272
-0.107185 -0.207567
0.017643 -0.190597
0.447023 -0.035965
0.044356 -0.113656
0.028504 0.229541
-0.018906 -0.289967
-0.051500 0.091962
0.100571 -0.034135
0.026582 0.011100
0.174602 0.042526
-0.011125 -0.108381
-0.042788 0.281259
-0.419720 0.062212
0.184370 0.046255
-0.272312 0.117611
-0.167212 -0.001825
-0.176967 0.123901
0.302233 0.330001
-0.099415 -0.061627
-0.167543 0.108992
0.093240 -0.017641
-0.159041 0.161764
0.125103 0.025656
-0.576798 0.068954
0.100337 -0.074507
0.206331 -0.252677
-0.034540 0.077554
-0.254541 -0.302472
0.439287 -0.080747
0.150105 -0.011411
0.286886 0.075314
0.058513 0.271925
0.291902 0.148982
-0.190830 -0.196229
-0.269783 -0.046461
-0.136079 0.012625
-0.208137 -0.013464
0.108790 0.363663
-0.172576 -0.138568
-0.058043 -0.283732
0.049053 -0.199430
-0.244835 -0.077613
0.191112 -0.218737
-0.198902 0.035761
0.173747 0.049348
-0.167349 -0.059712
-0.241906 0.041619
-0.324109 0.097488
-0.211047 0.200610
-0.060898 0.030579
0.117523 0.233027
0.075132 -0.230459
0.086986 -0.069975
0.186097 -0.348932
-0.280362 0.021786
0.299306 0.092004
-0.085157 0.147028
0.112373 0.250501
0.159999 -0.111741
0.231056 0.356375
0.133116 0.090386
-0.089716 0.026144
0.435685 0.002385
0.045786 -0.128852
0.097911 -0.277924
-0.025355 -0.032654
-0.144990 0.243802
-0.044876 -0.267437
0.185820 -0.125404
0.017689 0.040647
0.062611 0.026940
0.037047 -0.097973
-0.035404 0.034769
0.382091 -0.228517
-0.211075 -0.217110
0.018256 0.109908
-0.199713 -0.369230
0.116699 0.167528
-0.204268 0.043433
0.424088 0.026239
0.082916 -0.144823
0.145463 -0.044461
-0.131049 0.190457
0.156244 0.018817
-0.031638 0.138794
0.072178 0.190938
-0.148466 0.119390
0.181361 0.039173
0.141680 -0.074733
-0.262698 0.135760
0.247163 0.215989
-0.036113 0.082653
-0.091595 0.205918
0.092782 0.003441
0.171512 0.044761
-0.023491 0.074272
0.024851 -0.431633
-0.223693 -0.205043
0.166624 -0.185964
0.298446 -0.074503
0.281388 0.216072
0.072542 -0.138606
-0.019994 0.028471
-0.101020 0.092277
-0.079088 0.117305
-0.019735 0.074580
0.056164 -0.219877
0.098980 -0.280707
0.103155 -0.311788
-0.013833 0.139189
0.108313 0.363796
-0.078876 -0.422115
-0.106623 -0.092983
-0.103962 -0.128840
-0.270531 0.232178
-0.022814 -0.190514
0.001496 -0.027034
0.067694 0.520172
0.159099 -0.051909
-0.097024 0.281426
0.003913 -0.159716
0.035020 -0.172180
0.033467 0.016812
0.293221 0.272616
0.162429 0.123264
-0.246108 -0.054848
0.136474 0.297366
-0.105128 0.072154
-0.205427 0.401892
0.304280 0.083262
0.167523 0.047511
-0.173489 0.075081
-0.214521 0.051860
0.174931 -0.220668
0.053450 0.145610
-0.355846 -0.357521
0.195583 0.067027
-0.220357 -0.051565
0.307670 0.207233
0.099657 -0.089824
0.340653 0.085901
-0.235511 0.206626
0.027317 0.036782
0.145826 -0.322759
0.173856 -0.397459
0.116117 -0.331872
0.150488 0.460412
-0.068405 -0.013072
0.034514 -0.230951
0.176253 0.178020
-0.010071 -0.161552
0.006829 0.436121
-0.002979 -0.363824
0.189230 0.087854
0.180760 -0.099882
0.348997 0.378134
-0.410539 -0.209969
-0.044986 -0.050709
0.010219 -0.296157
-0.287475 -0.084861
-0.443537 -0.070744
0.325395 -0.215879
0.244104 0.241263
0.029155 0.232069
-0.145632 0.127004
-0.404267 -0.111824
-0.271943 0.277004
-0.417512 -0.156441
0.329467 0.146792
0.357589 -0.178051
0.316019 -0.092178
-0.292424 -0.091954
-0.003327 0.213252
0.215165 0.187631
-0.415655 0.088028
0.384192 0.103686
0.078726 0.350135
-0.005015 0.330968
-0.081252 0.387300
-0.101735 0.102459
0.047421 -0.341587
0.164327 0.072311
-0.044620 0.152692
0.386089 0.025121
0.098768 0.162254
-0.114665 -0.087423
-0.132854 -0.121439
0.273893 -0.104218
-0.114011 0.263441
-0.060686 0.101692
0.164355 -0.295150
-0.250789 -0.149864
0.289022 0.060702
0.134292 -0.127934
0.112265 -0.150245
0.410160 0.363469
0.180381 -0.275533
0.067988 -0.284961
0.019557 0.013912
-0.237877 -0.061541
0.071935 -0.115472
0.029544 -0.112541
-0.136536 0.369363
-0.057787 -0.009670
-0.114823 0.261912
-0.035599 0.052674
0.165155 -0.236452
-0.219931 -0.333960
0.192675 -0.290386
-0.049182 -0.144476
-0.118266 -0.051874
-0.223533 -0.192091
-0.022641 -0.583271
-0.386769 0.212743
0.087054 0.097412
-0.203473 -0.112816
0.166200 -0.577646
-0.147820 0.208786
-0.163113 0.049402
-0.442410 0.219769
-0.189209 -0.320516
-0.071201 0.017466
-0.092013 -0.020332
-0.093356 -0.527001
0.102607 -0.045783
-0.080157 0.198104
-0.172315 -0.129586
0.330912 -0.171344
-0.340627 -0.017645
0.348654 0.441374
-0.337004 0.122990
-0.234715 0.481998
0.043993 0.090580
-0.429630 -0.101783
0.248683 -0.127123
-0.516115 -0.147319
0.223405 -0.401831
0.091868 0.001646
0.097123 0.002376
0.066764 -0.033943
-0.216160 0.203533
-0.154495 -0.120825
-0.044799 -0.189167
-0.409620 -0.095379
-0.165039 -0.121898
0.112381 0.044666
-0.327750 0.205478
-0.253876 -0.173813
0.202223 -0.272347
0.126340 -0.126249
-0.084735 0.431775
-0.193714 0.059598
-0.226756 0.054055
-0.119879 -0.034452
-0.307617 -0.019860
-0.390965 -0.028608
-0.000601 -0.347900
0.271587 0.113890
-0.141764 -0.074624
0.025959 -0.191029
0.017095 0.122120
-0.168626 -0.175579
-0.099889 0.135925
-0.120017 -0.394778
-0.003040 -0.096746
-0.157284 -0.153004
0.087862 0.300746
0.129303 -0.054336
-0.448734 -0.083286
-0.019628 -0.033585
-0.236649 0.165040
0.272642 0.100896
-0.062139 -0.155712
0.134404 0.366601
-0.440300 -0.530732
-0.283277 0.132110
0.092611 -0.035518
-0.122277 0.078680
0.235262 -0.146265
0.145317 0.130305
0.100914 -0.012077
-0.171472 0.190596
-0.140802 -0.016294
0.100050 -0.228557
0.116795 -0.043017
-0.191765 0.391863
0.256376 -0.333374
0.016416 -0.139471
0.018634 0.174588
-0.473616 -0.065315
0.214937 0.259612
-0.024452 -0.094078
-0.059208 0.074504
0.034427 -0.102484
-0.131331 0.339277
0.230899 -0.194702
-0.582718 0.189215
0.119325 0.288845
-0.457020 0.147386
0.070430 0.199500
0.193958 -0.053192
-0.049883 -0.093153
-0.025073 0.065481
0.152784 0.314836
-0.145937 0.297431
-0.069927 0.218990
-0.316598 -0.289354
0.102935 0.046378
-0.188656 -0.210221
0.242252 0.378628
0.353655 -0.177252
0.225848 0.097556
0.190156 0.285632
-0.538714 0.151248
-0.166551 -0.026796
-0.451145 -0.074892
-0.116952 0.140558
-0.204186 0.285726
-0.262648 0.192404
0.458879 -0.705158
0.028942 -0.399983
0.511373 -0.464854
-0.176445 0.050549
0.055334 0.238468
0.041809 0.008734
0.299096 -0.057968
0.218486 -0.351149
0.130174 -0.006052
0.033512 -0.313154
0.185260 0.073472
-0.048881 0.643702
-0.171193 0.123668
0.072720 -0.086869
0.195780 -0.297960
0.104681 -0.018236
-0.202320 0.062364
-0.028378 -0.093078
0.161585 0.142718
-0.027852 -0.236590
-0.364757 -0.302731
0.086183 -0.205402
0.185471 0.467180
-0.193532 0.426670
0.013217 0.012746
0.166267 -0.065878
0.106926 0.047110
0.142677 -0.333751
0.150810 -0.204175
0.046531 -0.105575
0.017869 0.182677
-0.000750 0.146383
0.067478 -0.304859
0.202038 0.169796
0.188241 0.178286
-0.020046 -0.242125
0.383196 0.051347
-0.073183 0.464349
-0.220624 -0.065191
-0.593490 -0.401831
0.144428 0.167704
0.458224 -0.029024
-0.024708 -0.199398
0.178038 0.199243
-0.631586 0.045122
0.017658 0.416316
-0.322867 0.147812
0.105522 0.328691
-0.124754 -0.308155
0.071691 -0.104161
-0.307531 -0.501206
0.274628 -0.017171
0.293214 0.228532
0.124221 0.255904
0.068752 -0.113994
0.078073 -0.138577
-0.127137 0.577191
0.175604 0.145946
-0.127927 -0.083196
0.309738 -0.066066
-0.396643 -0.028706
-0.098012 -0.236612
-0.189150 0.028847
-0.078454 0.209621
-0.224497 0.293066
-0.289340 -0.161154
0.011456 -0.139940
0.438889 0.360235
-0.103142 -0.162436
0.399419 0.270553
0.231688 -0.100337
-0.196732 0.165101
0.126074 0.747061
-0.158124 -0.030791
0.272557 0.232616
-0.789391 -0.142179
0.334735 -0.178460
-0.066190 0.014291
0.052042 -0.195975
-0.131193 0.548601
0.027202 0.153244
-0.023658 -0.481467
0.917390 0.584351
-0.373823 -0.200744
0.260625 0.486741
-0.311337 -0.330027
0.150487 -0.241272
-0.636555 0.220438
-0.314944 -0.636131
0.086656 0.196318
0.130255 -0.302865
0.124507 0.365970
0.101724 -0.241423
0.341429 0.265902
0.046942 0.381710
0.006190 0.135332
0.174985 0.180865
0.438355 0.199267
0.124498 -0.027685
0.128692 -0.073379
0.023388 -0.189356
0.004455 0.142844
-0.130691 0.229961
0.100665 0.077229
0.194773 -0.163498
0.143717 -0.307356
-0.059781 0.222616
-0.020667 -0.278411
-0.368442 -0.170014
0.176064 0.323171
-0.027828 0.096110
0.099184 -0.067505
-0.042862 -0.447903
0.256672 -0.164806
-0.123027 -0.339255
-0.562113 0.250049
-0.215835 0.009566
0.134889 0.213668
-0.409636 0.139731
-0.031356 0.256772
-0.101920 -0.224851
0.051815 -0.350330
-0.370778 0.171178
0.085552 -0.396033
-0.254379 -0.082430
-0.058824 0.239141
0.142941 -0.056906
-0.223580 -0.175133
0.010486 0.208971
-0.156296 -0.039743
0.285131 0.178953
-0.034791 -0.103472
-0.315855 0.074022
-0.456949 -0.016357
-0.113681 0.224564
-0.286203 -0.595318
0.100402 -0.229994
0.627328 -0.126139
0.111911 0.104751
0.273857 -0.100586
0.364388 0.428521
0.042023 0.335857
0.091056 0.190485
-0.462275 0.286423
0.220894 -0.079786
-0.030317 -0.260744
0.315171 0.328541
-0.287136 0.021837
-0.162748 0.187853
0.446174 -0.026564
-0.444912 -0.313150
0.015343 0.275854
-0.054737 -0.480063
0.253482 0.235661
0.269351 0.103263
-0.295277 -0.019895
0.015199 -0.002108
-0.390987 0.251116
-0.143438 -0.460293
0.484879 -0.035128
-0.469148 0.268778
-0.137774 0.023316
0.011664 0.404560
-0.547281 -0.042251
0.561861 -0.140321
0.505792 0.103073
-0.253470 0.037726
-0.649163 -0.069439
-0.037842 -0.252872
0.154121 0.169911
0.275535 -0.187636
0.383906 -0.409772
0.271163 -0.296778
0.560676 0.015050
0.039149 0.334163
-0.028056 -0.232916
0.046505 -0.298355
-0.080200 -0.215032
0.389660 0.320203
-0.575341 0.556686
0.207405 0.122796
0.203038 -0.348896
-0.223062 -0.053244
0.684317 0.280359
-0.119477 -0.349613
0.127648 -0.002426
-0.372568 0.012131
-0.506510 -0.084339
-0.105035 0.114581
-0.553978 0.332589
0.276924 0.085183
-0.268535 0.032295
0.245733 -0.013686
-0.510590 0.369347
-0.166745 -0.076370
0.136856 -0.596839
-0.581553 -0.046524
0.286559 -0.496780
-0.388283 0.335826
0.038771 -0.240170
-0.016856 -0.327824
0.480160 -0.177203
-0.821633 -0.346450
-0.237983 -0.147247
0.682297 -0.227379
0.430380 0.130031
0.607213 -0.332583
-0.137933 -0.173559
-0.903152 -0.180360
-0.388044 0.028112
-0.476068 -0.058605
0.325274 -0.182448
0.484761 -0.064254
0.427487 0.060441
-0.211155 -0.709050
0.399547 -0.068813
0.341495 0.028398
-0.251365 0.061114
-0.096261 0.230096
-0.352728 0.459337
0.645385 0.156265
-0.314252 0.539499
-0.463675 -0.029058
-0.095557 -0.436552
0.058727 -0.481013
-0.138947 0.140957
0.155069 0.076239
0.237812 -0.108237
0.268946 0.480000
0.355104 0.081225
0.318715 -0.067497
-0.145843 0.131550
-0.007126 -0.108378
0.013839 0.472957
0.236582 -0.842936
-0.008454 0.158069
-0.139103 -0.466214
0.207289 0.040849
-0.185785 -0.364638
0.480960 0.333555
0.671616 0.412866
-0.452584 0.448659
-0.411082 -0.170867
0.149971 -0.364185
0.165937 0.235393
-0.121411 0.066096
-0.154701 0.285295
-0.381187 0.021190
-0.063842 -0.273376
0.189148 -0.279336
-0.364539 0.626172
0.235117 -0.133009
-0.780704 0.218447
0.619511 -0.290817
0.313977 0.388930
0.274981 0.011052
-0.332681 0.550681
0.071984 -0.123832
0.245411 0.114296
-0.396451 -0.030158
0.213959 -0.105030
-0.148617 -0.178552
-0.019978 -0.367716
0.124043 -0.156227
0.425028 0.048927
-0.448833 -0.074184
0.226333 -0.025881
0.188328 -0.125026
0.143496 -0.293441
0.273272 -0.443372
0.379347 -0.006189
-0.147223 -0.042231
-0.397183 -0.228750
0.378819 0.069213
-0.362415 0.221580
0.412231 -0.650125
-0.214177 -0.240227
0.380994 0.248363
-0.112695 0.276555
-0.439068 0.436080
-0.245154 -0.218290
0.226388 -0.090619
-0.308930 -0.198416
0.173531 0.071141
-0.090419 -0.040573
0.119278 -0.815915
0.297954 -0.282328
-0.794095 0.350789
0.113519 0.402828
0.500803 0.043222
0.084836 -0.381298
0.099270 -0.375246
0.078082 -0.090931
-0.199016 0.096382
-0.340364 0.442334
0.085142 -0.267652
-0.021163 -0.094430
-0.278309 -0.203808
0.505809 0.430508
-0.514218 -0.108366
0.329195 -0.627776
0.604894 0.069914
-0.182779 0.201645
-0.148845 -0.360696
-0.413219 -0.069192
-0.021450 0.206941
-0.328554 0.169894
-0.158605 0.084371
0.238522 -0.116082
-0.277096 -0.026774
-0.451532 -0.011740
0.040730 0.623369
-0.216993 0.537388
0.108838 0.669541
0.092760 -0.815405
-0.344249 -0.634609
0.016221 -0.183581
-0.671307 0.102881
-0.664724 -0.168615
0.207220 -0.167702
0.092969 -0.146713
0.261037 0.059728
-0.400718 0.455704
0.646006 -0.299951
-0.850973 0.630052
-0.093705 -0.389081
-0.056802 0.087107
-0.329877 -0.174743
0.519498 -0.382645
-0.388912 -0.306119
-0.011089 -0.332211
0.422800 -0.273479
-0.173459 0.002694
0.110455 0.538626
-0.431604 0.500508
0.117202 0.048672
-0.156397 0.203589
-0.202956 0.197515
0.465247 -0.323041
-0.247939 -0.616988
0.078050 -0.425078
-0.481859 0.720425
-0.082986 -0.107400
-0.090280 -0.341124
0.552709 -0.116671
0.334561 0.028708
0.187469 0.528103
-0.266326 -0.095961
-0.108319 0.175842
-0.085012 0.272936
-0.857134 -0.064388
0.076851 -0.020803
0.356792 -0.148636
-0.588113 -0.151568
0.196589 -0.115368
-0.346895 0.449729
-0.649094 0.283237
0.074956 -0.037846
-0.325398 0.491290
-0.173566 -0.515286
0.410885 0.070381
0.195303 0.139953
-0.129551 0.334360
0.103581 0.350884
-0.049550 0.251979
0.272438 0.472685
-0.329384 -0.142400
0.228441 0.098839
-0.039822 1.028747
-0.617993 -0.581171
-0.694028 -0.182341
0.310310 -0.212060
-0.187443 -0.585174
-0.127344 0.065639
0.252137 0.089891
-0.053141 -0.064373
0.398230 0.373501
-0.644200 -0.366616
0.171178 0.186385
0.003769 -0.149479
-0.385216 -0.733189
-0.362274 -0.239621
0.196633 0.585378
-0.319966 0.000222
0.029356 -0.023852
-0.650867 -0.189537
0.261631 0.353129
-0.460683 -0.357303
-0.095138 -0.126764
-0.834365 -0.030840
0.480974 0.074639
-0.383471 0.326683
0.078494 -0.366934
0.029462 -0.310930
-0.112221 0.423757
0.040297 -0.364576
-0.369846 -0.772063
0.138379 -0.082028
0.026484 0.015942
0.019539 0.346488
-0.138169 -0.322860
-0.059249 1.101019
-0.161764 -0.590440
0.988819 0.072697
-0.571760 -0.162503
-0.720164 0.036784
0.375162 -0.270199
0.101122 -0.260486
-0.078380 0.600117
-0.056870 1.121721
0.096034 -0.266720
-0.534285 -0.236998
0.397321 -0.872466
0.082349 0.701039
-0.585324 0.747734
-0.044491 -0.946038
-0.113692 -0.159893
0.305536 -0.189524
0.528179 0.327095
0.291202 0.152184
-0.490510 -0.145061
0.600071 -0.175229
-0.085993 0.217509
-0.122472 0.314528
-1.303781 0.389531
0.292045 -0.786992
-0.061503 -0.216772
-0.231452 -0.146386
1.145589 0.661178
-0.302234 0.180448
0.052938 -0.090246
0.237411 -0.635318
0.551457 -0.077982
-0.166479 0.503222
0.112225 0.107198
-0.359835 0.789318
0.356855 0.961782
-0.294417 -0.175403
-0.226270 -0.184581
-0.162994 -0.625795
0.248606 -0.161906
0.167951 0.809602
-0.068404 0.181113
-0.178122 1.207383
0.242599 -0.105992
0.480219 -0.058869
-0.357412 -0.036829
0.007851 0.148307
-0.568116 -0.378126
-0.593973 -0.108119
-0.074169 -0.947336
0.101168 -0.316536
0.838492 -0.013281
0.401069 -0.526760
0.190659 -0.116693
0.884285 0.137772
0.169776 0.549979
-0.907923 0.559331
-0.376997 0.131673
-0.054750 -0.109512
-0.091953 0.433945
0.431116 -0.491896
0.404002 0.193098
0.463265 -0.236982
0.004811 0.029062
-0.723642 -0.018598
-0.045589 1.093226
-1.173876 -0.159463
-0.524936 0.005177
0.509125 0.251193
-0.534873 0.077815
-0.041339 -0.250856
0.036514 -0.595029
0.427915 0.166051
0.226101 0.588907
0.010054 0.268485
-0.874896 0.290944
0.030870 -0.607019
0.265755 -0.491239
-0.287701 0.595811
-0.004559 -0.447556
0.161652 -0.370151
0.034646 -0.262442
0.615612 -0.134844
0.034489 0.042450
-0.296366 0.787616
0.108026 0.435177
-0.147886 0.416015
0.612473 -0.204807
-0.092758 -0.283494
-0.315208 -0.159503
0.037522 -0.842626
0.494610 -0.362534
0.795416 1.495531
0.635268 -0.276648
0.800855 0.765463
0.105332 0.792724
0.926940 0.049928
-0.676758 1.279128
-0.938526 -0.352226
-0.513861 -0.904086
-0.154091 -0.148206
0.429875 0.005002
0.197316 -0.117357
0.545601 0.310698
0.249113 -0.064143
0.447454 -0.171521
0.177872 0.342656
0.008338 0.777136
-0.199285 -0.579667
0.353265 0.803165
0.213920 -0.044421
0.210328 0.411315
0.343582 1.329361
-0.783507 0.199140
-0.065935 0.630957
-0.127582 -0.317956
0.111117 0.200530
-0.443134 -0.939863
-0.515049 0.775396
0.186022 -0.958153
0.384574 0.500628
0.096958 -0.352401
0.568739 -0.044014
0.348394 0.726170
0.679629 0.357730
-0.380253 -0.132348
-0.939426 -0.614334
1.112414 0.022270
-0.854233 0.061845
0.385957 0.686787
0.262680 -0.546538
0.224285 0.447798
0.200359 -0.624167
0.851259 0.551148
-2.375950 -0.482782
0.572653 0.699096
0.317314 -0.643773
0.762754 1.914403
0.248067 0.027270
1.544283 -1.095737
0.095648 1.214880
0.691167 0.318779
0.041673 -0.092113
-0.272800 0.867749
0.405011 -0.046220
0.994116 -0.414748
0.953125 3.402252
-1.127028 -1.674797
-1.691896 1.280177
-0.386038 -1.066317
0.721482 -0.143868
-0.239218 0.011659
0.925584 1.136932
-1.534667 -0.493727
-0.583756 -0.741933
1.963685 0.565116
-1.103186 1.321832
0.132478 2.220158
-0.155274 -1.140930
-1.968550 -0.566768
1.742437 -1.842631
0.531352 0.733965
-0.570553 0.606768
1.042628 1.912720
-0.236962 -0.425125
2.436740 4.073817
-0.469261 1.249075
-1.410190 -2.333677
-1.026806 1.344605
-2.717374 -1.574554
-2.459799 -0.154939
-0.125477 0.221437
1.489796 -0.436842
1.797704 -1.435683
3.004348 1.387104
-1.627659 -0.970640
-3.548126 1.183456
-1.159832 -1.975711
0.540541 0.716260
1.099147 1.861218
2.775190 1.301958
-0.698302 2.057158
-0.195523 -2.646006
2.316580 -1.804513
1.696691 2.399247
-3.503531 4.386362
-5.338030 2.312585
-2.269227 -1.411259
3.803984 -0.935124
0.475100 2.523005
1.302381 -1.919566
-1.789892 -0.236952
-1.708105 -1.730552
1.486377 -0.934667
-0.005298 2.830861
1.139031 1.439234
-1.020388 -0.072321
-2.622766 0.178011
1.016714 -0.765366
0.387217 -2.045619
-0.782305 1.722245
3.278163 2.359766
-6.998884 0.809875
1.030874 0.582562
-1.886485 2.177443
-7.603869 0.315028
0.278468 -1.531414
7.547121 -2.293086
-0.091104 3.056477
0.849868 0.912621
0.215504 -8.423010
-2.329997 2.868334
5.671441 -2.549871
-2.832569 8.156496
-4.498922 9.405439
-5.135299 -11.332275
18.963764 -3.326362
-1.098984 12.753605
0.529986 -7.415557
-15.773750 6.258005
-7.115300 11.719122
-5.564177 -4.384253
-1.176674 15.204161
-0.920946 10.521506
-15.150873 -5.009028
4.241759 -5.591301
-0.338058 -17.626104
-9.623329 -12.132910
-6.929980 2.313383
3.867988 12.814977
-26.782744 0.186010
32.800659 5.183993
1.817640 -0.464423
-3.347995 -8.176905
5.202701 -7.639142
7.137340 3.371192
-5.742923 39.113728
-11.438695 41.474343
-42.479680 22.642933
7.042918 20.798275
36.342010 22.879160
-66.144586 -1.899072
-59.373183 21.628641
-67.363354 -128.933576
67.927790 35.521319
-79.428739 54.123106
-69.600717 88.629005
-86.994820 35.362166
43.619069 35.652642
-46.395746 -134.227765
-100.511103 -12.586205
-1.325041 -201.997904
-339.346618 272.414394
-199.171712 277.077048
-579.280001 -135.526791
401.207381 -1895.523610
-4416.916717 -181.111166
