4823.499426 4981.266615
84.862362 278.171171
-190.107844 -167.761655
-347.768911 18.862344
86.003928 -116.452371
46.785350 480.141874
270.951491 145.457394
-236.745049 -94.030553
2.587913 -73.102186
54.630933 -9.827047
30.310635 -124.482101
61.556768 -95.932193
86.779925 -120.345859
24.160842 -69.861683
-33.045292 -112.293004
70.900293 -46.733617
-71.286047 -9.515957
-6.329692 -55.501618
-11.885972 -33.410354
22.223796 -64.903348
-11.461138 -76.654634
-25.056642 -31.079426
-17.490809 -28.547152
-31.662969 -50.844120
3.540516 -55.299870
-19.051765 -23.696826
-26.394436 -59.142673
-16.861370 -11.867798
-15.066128 1.904980
11.023498 -32.428363
-4.151835 2.656777
-5.722123 -10.215031
-12.393170 -16.250929
-7.292879 -23.749915
11.563622 -7.065892
2.734275 -36.384272
3.101337 -34.590653
3.116983 -17.753496
5.330999 -30.883573
0.824025 -18.880118
6.671070 -19.567394
-4.378659 -4.423222
-6.478345 -16.445075
2.176357 -17.215677
5.732022 -27.501278
-2.977120 -22.607174
-0.614373 -26.226757
-3.633887 -19.261149
5.131966 -20.481656
3.767932 -29.218116
-3.933462 -21.701338
1.298831 -18.750796
-4.769761 -18.182336
-8.644734 -19.103501
5.245334 -19.484153
0.576599 -15.819218
-13.077202 -16.510892
2.140865 -23.208462
-10.025349 -14.394020
-7.747448 -18.732310
-6.581801 -6.181510
-8.749447 -15.606728
0.907368 -16.532575
-6.718187 -9.897006
-6.156177 -10.727113
1.672304 -13.907068
1.269278 -6.406103
2.302565 -9.016867
0.413038 -10.768331
-1.992510 -8.338503
6.568689 -7.964280
-3.214185 -13.230715
1.637687 -7.487952
4.439500 -8.167734
8.013948 -10.942037
4.109476 -11.533985
8.061996 -14.610925
5.651714 -12.107481
12.178431 -12.114127
13.312321 -14.760655
9.462405 -18.249482
7.327579 -16.487799
3.757963 -18.976865
3.602168 -17.212523
5.377803 -22.817450
2.953661 -24.595526
-0.281673 -23.538430
5.577052 -23.969144
3.178640 -22.733558
1.397120 -22.510936
0.558091 -22.949183
-1.860910 -22.195673
-0.187185 -21.393903
-1.153483 -17.127555
-7.483041 -22.727876
-3.737465 -22.806414
-5.207596 -18.050159
-5.416019 -18.517312
-3.214390 -16.764980
-3.670938 -17.201149
-4.762636 -17.031403
-4.892563 -14.730670
-4.933279 -13.625620
-3.969916 -16.581049
-4.968264 -13.876450
0.587607 -12.789281
-6.291701 -15.161540
-2.774705 -13.823710
-4.561670 -9.836345
-2.819890 -13.957503
-1.732661 -15.864817
-3.515165 -17.013987
-0.412422 -15.636463
-2.140694 -14.616248
-2.268175 -18.269443
-2.031590 -18.142843
-3.743738 -18.267611
-0.378780 -19.290467
-3.203630 -17.769300
-5.735957 -20.416968
-4.045003 -20.634440
-4.704944 -20.773867
-5.496289 -20.990102
-4.692992 -18.156422
-7.603094 -19.782849
-8.346020 -21.553721
-8.906230 -21.268760
-11.851870 -17.939047
-8.376736 -19.211679
-12.379048 -17.513896
-11.573654 -17.678796
-14.116635 -14.051062
-14.360617 -14.685528
-16.077102 -12.196681
-14.756347 -13.358774
-14.386422 -13.668172
-15.169482 -10.610595
-15.350650 -11.276319
-15.343708 -9.786984
-15.994502 -7.303083
-14.345591 -6.317205
-14.196711 -7.423299
-14.187526 -5.451021
-12.786628 -3.119655
-11.211608 -2.794639
-12.243607 -3.761461
-9.826735 -2.193974
-9.831854 -3.987117
-9.230795 -1.752279
-8.188422 -2.150516
-8.703820 -3.148448
-7.901602 -3.139586
-5.896381 -3.749634
-7.071016 -2.666395
-5.500075 -2.512891
-5.271629 -3.890365
-4.729016 -3.017046
-3.516229 -3.551593
-5.904791 -4.499763
-3.449237 -3.851968
-3.332462 -4.442507
-3.053167 -6.378277
-3.990559 -5.066853
-5.260781 -4.419382
-4.235131 -5.380613
-3.701814 -6.976813
-4.059935 -5.249358
-3.391228 -5.908813
-4.347038 -5.088530
-2.972374 -5.638894
-3.257725 -5.028863
-3.843205 -4.900564
-4.023199 -6.661102
-1.285147 -5.229480
-3.430412 -5.470783
-2.947768 -5.182109
-3.152440 -5.963595
-2.035492 -6.480439
-1.502201 -5.434992
-1.831249 -5.564256
-1.110381 -7.760532
-1.136985 -6.617693
-1.077139 -8.418055
-0.662123 -7.604093
-1.135440 -9.096496
-1.356095 -9.443345
-0.654632 -9.438793
-1.809986 -10.253395
-2.151009 -10.496898
-0.776617 -10.980208
-1.802890 -11.380281
-1.765651 -12.230417
-2.211182 -11.765706
-2.781089 -13.173697
-3.581880 -12.876771
-4.441272 -12.772242
-4.712607 -13.684302
-5.317542 -13.475016
-6.217059 -14.376608
-7.287607 -14.475011
-7.427006 -15.189992
-8.525676 -13.950355
-8.696776 -14.528691
-9.083836 -14.018793
-9.046138 -15.294976
-11.704883 -12.977451
-11.776164 -13.909355
-11.709157 -11.619727
-12.080549 -11.851052
-13.262204 -12.003262
-13.249033 -10.904147
-13.253236 -9.499481
-13.448508 -9.497259
-13.569726 -9.729084
-13.628176 -8.547366
-13.616224 -6.435077
-12.948886 -6.691067
-14.158457 -6.390920
-13.048277 -6.254773
-12.781224 -4.704805
-12.779126 -4.330057
-12.803799 -3.034957
-12.270205 -4.198646
-12.889734 -4.033906
-11.567887 -3.583463
-11.662482 -3.055818
-11.349218 -2.885999
-10.521142 -2.404570
-10.530608 -2.437841
-11.040153 -2.502393
-10.531345 -2.597592
-10.503134 -2.085131
-10.140067 -2.214883
-10.449329 -1.902300
-9.522428 -2.217280
-9.346619 -1.965764
-10.051364 -1.014473
-9.684674 -2.535561
-9.982402 -1.665369
-8.929553 -2.462189
-8.334640 -0.867436
-9.291707 -1.500029
-9.508040 -0.975231
-9.753284 -2.393725
-8.439377 -0.343648
-8.363645 -1.628809
-7.976619 -1.554314
-8.974332 -1.859527
-6.593276 -1.300025
-7.703440 -1.355026
-6.779812 -1.754988
-6.855365 -2.191867
-5.528388 -2.624174
-6.949833 -1.916971
-4.964260 -1.702144
-6.396738 -1.578899
-6.344464 -1.804993
-5.581583 -1.766000
-6.151310 -2.565693
-6.109657 -2.129810
-4.770101 -2.774524
-6.286260 -3.402856
-5.974842 -2.760065
-5.812646 -3.378251
-5.779327 -4.699803
-4.824153 -5.047816
-6.265266 -4.470119
-6.019615 -4.342041
-5.501361 -4.916648
-6.788203 -4.787601
-5.371254 -5.156959
-6.767516 -5.123552
-7.332434 -4.596711
-8.122566 -4.705002
-7.382741 -4.363488
-7.219771 -4.629650
-8.620350 -3.802362
-8.458741 -4.341905
-9.452963 -3.794980
-7.998693 -4.774901
-8.984116 -4.141339
-8.896860 -4.044028
-8.402843 -3.941761
-8.878307 -3.561423
-9.859624 -3.367421
-9.690950 -4.000709
-9.304923 -3.232639
-9.890568 -3.973556
-9.337322 -3.327078
-8.558581 -3.077616
-8.119706 -2.993125
-10.282076 -2.317387
-9.845257 -1.979061
-8.822348 -2.173975
-10.371884 -3.110619
-8.469944 -1.358862
-8.238985 -2.217906
-8.863539 -2.160087
-9.846456 -1.532890
-8.697233 -3.446136
-9.299675 -2.149165
-8.939010 -1.050140
-9.993785 -3.021352
-8.799345 -2.432405
-9.324970 -2.375806
-10.101892 -2.226966
-8.948678 -2.784885
-9.975225 -2.272915
-9.939250 -1.902791
-9.292461 -1.281704
-9.854328 -1.909546
-11.392422 -1.424493
-10.891773 -0.491682
-10.248264 -0.446890
-10.420319 -0.065342
-10.697727 -0.702957
-10.041407 0.863635
-10.667549 0.463697
-10.036011 1.074555
-10.062345 0.917881
-9.812719 1.017803
-10.103788 2.093783
-9.521406 1.910910
-8.938846 1.356869
-8.771906 2.380112
-9.508880 2.458837
-9.106369 1.754877
-9.055013 1.515517
-7.942775 2.242762
-8.979141 3.253827
-8.093935 2.237884
-7.016519 1.745476
-7.478354 2.486728
-7.374583 1.583475
-7.120280 2.199466
-7.036193 1.066374
-7.106886 2.327856
-6.974870 1.382391
-6.648900 1.737032
-7.376688 0.452068
-6.797626 1.368109
-7.555088 1.255320
-6.974458 0.607985
-7.787513 0.799642
-7.413232 1.140900
-7.106867 0.588406
-8.052510 0.663982
-7.875006 1.111959
-7.808534 1.098034
-7.995381 0.971455
-9.060215 1.101837
-7.958767 1.337448
-9.011307 1.392165
-8.404018 1.640281
-9.039388 2.346354
-9.795155 2.447248
-7.841823 2.830513
-8.397852 2.675064
-8.520796 3.077970
-8.626893 2.618849
-8.241586 3.148136
-7.729164 4.699577
-8.112180 3.486308
-7.780446 3.119757
-7.217710 3.863332
-6.816328 3.546634
-6.728708 3.151455
-6.925419 4.981901
-6.679789 4.308484
-6.531778 3.775377
-6.319087 4.102157
-7.042669 3.834516
-5.727197 3.797419
-5.819081 3.368041
-6.296642 3.757273
-5.709761 3.024687
-6.342093 2.701894
-6.470382 3.301215
-5.771410 3.250514
-6.595133 2.440834
-5.713080 3.159596
-7.239983 3.034195
-6.555087 3.387734
-6.464397 3.032789
-6.569839 3.756415
-7.184693 3.145031
-7.134689 3.079681
-7.215284 4.042284
-6.918338 3.573005
-6.624338 4.210502
-6.440417 4.929793
-6.874580 4.104613
-6.416096 4.676806
-6.212298 5.521665
-5.995536 4.389859
-5.678286 5.790070
-6.120381 6.627305
-5.789840 6.893973
-5.496608 5.871244
-4.764451 5.964479
-3.924676 6.187638
-4.704285 6.226459
-3.856644 6.010923
-3.460967 6.050209
-3.113610 5.908119
-2.341770 6.167791
-2.018113 5.252960
-1.816151 6.109505
-1.529164 6.520170
-0.900525 5.227172
-1.013932 5.119732
-0.735534 4.413408
-1.304499 3.753528
-0.393340 4.105506
-0.620015 3.581799
-0.110945 3.532439
-1.476898 2.450781
-0.621619 2.767020
-1.102099 2.195683
-1.126408 1.571698
-1.648453 1.967640
-1.241367 1.300566
-1.815464 0.608946
-2.464151 1.369088
-2.847643 1.162168
-3.174928 -0.080000
-2.887449 0.832111
-4.432050 0.548327
-4.075250 0.446136
-3.947554 0.852995
-5.557522 0.698875
-3.809134 1.377152
-4.243938 1.291566
-4.165669 0.079879
-4.342477 1.328054
-4.526450 2.264570
-5.590915 2.632759
-5.157764 2.231566
-5.043953 2.554982
-4.046296 2.863574
-4.682287 3.197110
-5.519956 2.535449
-4.349664 3.276768
-4.933864 3.441627
-4.730962 3.556240
-4.252538 3.495336
-4.567924 3.604257
-3.714839 4.222390
-4.889389 3.409648
-3.833943 4.242180
-3.514041 4.550166
-3.971796 3.760849
-4.031816 4.064947
-3.874709 3.330965
-4.140576 3.300855
-3.718106 4.400117
-3.565770 3.441531
-3.065346 3.599293
-3.702049 2.834583
-3.354692 3.473636
-4.327732 3.758986
-3.602949 3.792505
-3.790055 3.858564
-4.495466 5.107764
-3.895913 4.192119
-3.116160 5.037125
-3.306070 4.974651
-4.356007 4.680820
-3.696925 5.501276
-3.333427 5.014163
-3.658564 6.019385
-3.589722 5.614919
-2.571929 5.849433
-2.667041 5.964392
-2.142519 6.761051
-3.010368 6.017649
-1.657603 6.529642
-2.339798 6.973077
-0.998057 5.732230
-0.765122 5.905522
-0.417309 6.700645
-0.832018 6.460308
-0.135083 5.580399
0.133113 6.039252
0.597429 5.519685
1.206990 5.556106
0.635296 5.546199
0.813389 5.673881
1.445167 4.410160
1.368053 4.456283
1.907302 3.043460
1.242497 3.059852
0.616668 2.801742
0.996981 2.764696
1.461184 3.015133
0.747289 2.306430
-0.304623 2.740831
0.680520 1.988942
1.063592 2.102426
0.417893 1.252670
-0.398821 0.547106
-0.071577 2.203011
0.007552 1.259654
-0.690584 0.791308
0.222428 2.379392
-0.459890 1.850298
-0.523816 1.094413
-1.050869 0.962084
-1.061357 2.030956
-0.491972 2.082035
-2.111506 1.864406
-1.094752 2.020931
-1.179751 2.126476
-1.103775 2.631996
-0.438980 2.289501
-0.466791 2.061712
-0.504437 2.785325
-0.145131 2.911176
-0.090508 2.723741
-0.213489 2.867895
0.042926 2.829000
-0.155853 1.993007
0.726861 1.802379
0.124454 2.287835
-0.420672 2.868471
-0.082645 1.770946
0.003869 2.078231
-0.379556 1.370286
-0.065212 1.700827
0.110703 0.854469
-0.222727 1.357126
0.270108 0.772894
-0.636513 1.006197
-0.826022 1.382579
-0.796769 0.938093
-1.349779 0.803450
-0.310388 1.102012
-1.332857 1.003390
-1.993287 1.338819
-1.296766 0.851230
-1.937790 0.960290
-2.488864 1.604731
-2.245460 1.290690
-2.145508 1.877778
-2.117194 1.437413
-2.736944 2.313265
-2.837041 2.218007
-2.542510 2.472763
-2.656290 2.471591
-2.178201 2.737877
-2.325995 2.290971
-2.317988 3.200898
-1.757805 3.716993
-1.724962 3.232016
-1.320009 4.384917
-1.611677 4.229420
-1.444499 3.915575
-1.323625 3.088752
-0.646837 4.062174
-0.131228 3.405085
-0.835409 3.337692
-0.092172 2.833401
0.323298 3.111338
0.758512 3.389225
0.203915 3.189490
0.493677 3.196057
-0.498688 2.348194
0.651313 2.818065
0.454257 2.481429
0.630291 2.347509
0.818865 2.229823
0.115923 2.328510
0.018699 1.939809
-0.204242 2.246785
0.289397 2.624991
-0.482233 1.537034
-0.041340 2.053398
-0.258703 2.227348
-0.699079 2.048619
-0.188580 2.087770
-0.404060 2.505032
-0.466084 2.530616
-0.329720 2.123319
-0.298740 2.741104
-0.499509 2.564997
-0.309746 2.843285
0.760540 2.198509
-0.452093 2.623509
0.541531 2.677404
0.420374 2.680311
0.849455 2.598029
1.423411 2.577615
1.041543 2.685921
0.812647 2.473195
1.067780 2.380808
1.568313 2.152118
1.292544 1.938920
2.195567 2.008965
1.991057 1.405607
1.790931 1.433553
1.728791 1.432991
1.526484 0.989319
1.753159 0.721085
1.624037 0.655535
1.515169 0.515500
1.884009 0.217460
0.825348 0.148513
1.482375 0.177345
0.569494 -0.603322
0.523119 -0.203003
0.365115 -0.372485
0.221863 -0.715260
-0.025830 -0.493749
-0.688101 -0.934368
-0.646273 0.112529
-0.830393 -0.236055
-0.586921 -0.045260
-0.641184 0.415697
-1.186179 0.985414
-1.081157 0.232086
-0.714266 0.271796
-1.000926 0.582907
-1.031203 0.611061
-0.723130 0.956555
-0.558197 0.943692
-1.570111 1.412460
-0.811518 1.625965
-1.296640 1.449191
-0.638313 1.350415
0.184705 1.662855
-0.239863 1.379580
-0.180320 1.346191
-0.033437 1.553778
0.000105 1.417567
-0.260178 1.457810
0.326896 1.222135
0.304395 1.048447
0.170053 1.188970
0.522529 1.276333
0.535718 0.719479
0.747897 0.092481
1.030426 0.190016
0.322027 0.346026
0.785311 0.546859
0.140488 -0.086223
0.182194 0.084570
0.215569 0.246054
0.301899 0.044367
-0.226421 -0.751156
-0.447919 -0.239267
-0.598143 -0.896983
-0.557731 -0.681032
-0.951181 -0.896123
-0.593908 -0.012551
-1.185426 0.168734
-1.370079 0.093998
-0.934869 -0.203219
-1.677103 0.343788
-0.945022 0.138789
-1.428947 0.782228
-1.508404 0.568500
-1.247320 0.738174
-0.986842 0.779848
-0.618608 1.016943
-0.873072 0.602929
-1.148480 0.866274
-1.181218 0.443396
-1.042094 0.646053
-0.449552 1.040577
-0.613941 0.709722
-1.165789 0.689004
0.058472 0.815225
-0.017450 0.366003
-1.139657 1.115649
-0.699140 1.012868
-0.363547 1.218724
-0.031509 0.739631
-0.017672 0.868089
-0.641547 0.578225
-0.475264 0.954420
-0.717164 -0.108695
-0.854377 0.576211
-0.031780 0.362192
-1.157802 -0.056646
-0.360305 0.272225
-0.520027 0.112558
-1.012315 0.690179
-0.822311 0.189583
-1.120977 0.952797
-1.091153 1.210508
-0.728748 0.746263
-0.567656 0.871775
-0.954314 0.939336
-0.232765 0.932659
-0.397897 1.229380
-0.383445 1.148704
-0.387559 1.666432
-0.217871 1.104668
-0.223823 1.327097
0.021152 1.635636
0.536369 1.625126
0.318546 1.026902
0.547639 2.129637
0.974554 1.096220
1.015227 0.980187
1.644946 0.887143
1.489748 1.172808
1.649376 0.570034
1.954081 0.367907
1.588466 0.386508
1.865769 0.329951
1.831251 -0.341214
1.781360 -0.483042
1.797908 -0.831061
2.071812 -1.386746
1.585347 -1.888523
1.932266 -1.371718
1.712413 -1.263991
1.665457 -2.126699
1.399478 -2.189559
0.787863 -2.450087
0.632017 -2.291061
1.015952 -2.534094
0.498339 -2.530793
0.110873 -2.895300
-0.015259 -2.623446
-0.427002 -2.748864
-0.284757 -2.416239
-0.504572 -3.114980
-0.803642 -2.531315
-0.791688 -2.275709
-0.841144 -2.419700
-1.512202 -2.575114
-1.318066 -2.349529
-1.305856 -2.271789
-1.776254 -2.229203
-1.547772 -2.510924
-2.109617 -2.532002
-1.953797 -2.126836
-1.577028 -2.101620
-1.940969 -2.491437
-2.064426 -2.115987
-1.982645 -2.146470
-2.842930 -2.002511
-2.625671 -2.131600
-1.910324 -1.936349
-2.388231 -2.265588
-2.473762 -1.977776
-2.269353 -1.656110
-2.444758 -2.181018
-2.554093 -2.742547
-2.379237 -1.979831
-2.796449 -2.172011
-2.740424 -1.919924
-3.258334 -1.647794
-2.837144 -1.798789
-3.590861 -2.142393
-3.522924 -1.443250
-3.931509 -1.572764
-3.766889 -1.347894
-3.624362 -1.764726
-4.104437 -1.225577
-3.792710 -0.228878
-3.853988 -1.132167
-4.526032 -0.742716
-4.187090 -0.490854
-4.084770 -0.151942
-3.784909 0.260655
-3.983105 0.328566
-4.214929 0.569489
-3.419094 0.367505
-3.785881 -0.079551
-3.812414 0.841114
-3.619582 0.915019
-2.899874 0.427545
-3.043537 1.070430
-2.635150 1.124801
-3.097790 0.960087
-2.669850 0.847666
-2.690346 0.563992
-2.683870 0.716056
-1.889398 1.145604
-2.072730 0.875814
-1.984233 0.415355
-1.923387 0.324556
-1.983366 0.288694
-2.037654 -0.006512
-1.668421 0.115190
-1.820531 0.474199
-2.119730 -0.141186
-2.150099 -0.045079
-1.907492 -0.230353
-2.305199 -1.119388
-2.122953 -0.571725
-2.170766 -0.634880
-2.669275 -0.799914
-2.608269 -0.780739
-2.787775 -0.808030
-3.296355 -0.620635
-3.231000 -0.531419
-3.540654 -0.608081
-3.895614 -0.395257
-3.226173 -0.044620
-3.414629 -0.417953
-3.309155 -0.218935
-3.227770 0.123003
-3.502018 0.119586
-3.807548 -0.494049
-3.363649 0.709509
-3.916035 -0.036652
-3.080066 0.881613
-3.461618 0.713127
-3.422554 0.242775
-3.567190 0.496008
-2.935389 0.124276
-3.019857 0.577196
-2.959984 0.314996
-3.519734 0.864926
-3.153575 0.294821
-2.786589 0.752849
-2.954171 0.307807
-2.507865 -0.165974
-2.355659 0.301302
-2.711509 -0.067682
-3.017174 -0.148145
-3.117363 -0.420162
-3.507695 -0.398695
-3.566253 -0.759828
-3.201255 -0.738919
-3.926008 -0.439949
-3.624536 -0.748609
-3.908261 -0.437985
-4.030825 -0.571525
-4.538655 -0.692715
-4.289954 -0.556114
-4.434728 -0.923011
-5.191202 -0.586351
-5.388110 -0.029450
-5.392380 -0.777989
-5.187440 -0.126058
-5.187146 0.118132
-5.860791 0.175823
-5.601615 0.816653
-5.665991 1.352490
-6.142663 1.489359
-6.287837 0.908813
-6.179692 1.962517
-5.891590 1.522143
-6.167681 2.453073
-5.602347 2.142851
-5.868306 2.458999
-5.456212 2.634408
-5.651392 2.734587
-5.525786 2.917519
-5.182515 2.972099
-4.923486 2.939200
-4.997576 2.932832
-5.080397 2.800175
-4.617081 3.514141
-4.911970 3.116686
-4.307899 3.318936
-3.769910 3.300593
-4.766374 3.673909
-3.989322 3.198374
-3.706677 2.890182
-3.607306 2.749658
-3.956507 3.011466
-3.781622 3.034622
-3.851756 2.544371
-4.139690 2.843317
-3.287167 2.618685
-4.148924 3.223822
-4.444401 2.705049
-4.825479 3.098328
-4.288949 2.702956
-3.937867 2.822299
-4.268344 3.308978
-4.327633 3.163340
-4.635664 2.980704
-4.140004 3.431780
-4.386293 3.473521
-4.693648 3.188342
-3.872412 3.862279
-3.900627 3.595951
-4.395875 3.553835
-3.927680 3.947322
-3.534860 4.182077
-3.746091 3.925719
-4.050434 4.070219
-3.941659 4.447053
-4.089772 4.708341
-3.672571 3.809520
-3.515328 3.982133
-2.803297 4.154611
-3.632785 4.403966
-3.008957 4.592250
-2.805256 4.165827
-3.538341 4.093683
-2.986851 3.639253
-3.591833 4.019225
-2.865807 3.237333
-2.970904 3.807589
-2.972073 3.547547
-2.734022 3.725594
-3.119643 3.280306
-3.723704 3.851878
-3.107912 3.151634
-3.852931 3.544299
-3.297010 3.882477
-3.386328 3.494131
-3.803290 4.281888
-3.590069 3.601103
-3.825301 3.946988
-3.623239 4.019309
-4.215234 3.632012
-3.916080 3.877833
-3.868926 4.546143
-4.266660 4.741351
-3.801697 4.628161
-4.123368 4.682788
-4.092086 5.092461
-3.825884 4.948254
-4.134512 6.283413
-3.418233 5.915478
-3.006879 6.202732
-3.305636 6.088736
-3.036132 6.189995
-2.952364 6.010673
-2.885923 5.562722
-2.038956 5.554448
-1.939494 6.266410
-1.945218 6.290232
-1.960253 5.900553
-1.009657 5.719344
-0.985441 5.549762
-0.996438 5.863534
-1.490413 4.886911
-0.848877 5.246464
-0.768426 4.788437
-0.972390 5.133310
-0.469224 5.527266
-0.425842 3.652732
-0.675935 4.242455
0.501007 4.174125
-0.268708 4.131798
-0.242164 3.844797
-1.144283 3.437797
-0.485659 3.436364
-1.046378 3.333006
-1.362936 3.220610
-1.279589 2.821432
-1.789786 2.830449
-1.154479 2.626866
-1.533444 2.890479
-1.184306 2.698324
-1.359149 2.873914
-1.899926 2.928894
-2.024599 2.704781
-2.277807 2.589906
-2.293255 3.020208
-2.157851 3.433436
-2.254279 3.322615
-2.547955 2.864810
-2.681854 3.704812
-2.709683 3.598300
-2.270673 3.031219
-2.827366 2.980750
-2.518534 3.250902
-3.020458 3.290381
-3.052469 3.061211
-3.459708 3.740291
-3.617171 3.144680
-3.647837 3.841809
-3.383212 3.948032
-3.410356 3.681431
-4.241830 3.691497
-3.723767 3.311161
-3.680316 4.058180
-4.602937 3.935662
-4.354652 3.976851
-4.231603 4.647337
-4.444434 4.694007
-5.094790 3.718619
-5.025503 4.754935
-5.085629 5.134978
-5.031930 5.567282
-5.425613 5.168230
-4.984464 6.020197
-5.390797 5.702996
-5.452815 6.794449
-5.302957 6.551207
-5.281926 7.532725
-5.103936 8.004429
-4.775318 7.478055
-4.677304 7.898325
-4.602557 8.714508
-4.661029 8.697647
-4.392597 9.076316
-3.498944 9.296484
-3.231428 9.984749
-2.949414 9.823755
-2.368337 10.210699
-2.138009 9.786577
-1.892791 9.933367
-1.537740 10.576167
-1.081505 10.644196
-0.197438 10.489536
-0.012049 10.471340
-0.035928 10.078028
0.024631 10.401599
0.692128 9.969097
1.587687 9.532753
1.241802 9.290513
1.845200 9.710965
1.453930 8.660300
1.930604 8.762112
2.320844 8.280754
2.394208 8.612953
2.016173 8.327196
2.266907 8.801877
2.373202 8.362596
2.532865 7.805062
2.036287 7.213705
2.473016 7.862472
2.264571 7.708371
2.317985 7.332985
2.306471 7.637346
2.859158 7.047960
2.526194 7.486587
2.232234 7.203659
2.608033 7.274756
2.813812 6.863524
2.749265 7.451509
3.217474 7.279972
3.230341 6.701423
2.369573 6.866748
2.789605 7.453928
3.162642 6.279583
2.886189 6.306926
4.190087 6.416371
3.613674 6.211113
3.678830 5.312914
4.175822 5.473035
3.625236 5.176571
4.331459 5.315331
4.310900 4.221212
4.219956 4.281115
3.528693 5.084254
4.152860 4.053162
4.558032 3.846646
3.732528 3.729438
2.938671 3.463822
4.385462 2.611261
2.860409 2.721245
3.002555 2.136209
2.645165 1.587373
2.270310 2.644886
1.665213 1.654388
1.285608 2.305976
0.673736 2.106443
1.164659 1.789360
0.419945 1.854698
0.058696 2.622510
-0.993843 2.456333
-1.236710 2.604124
-1.520347 2.344986
-1.488724 3.713955
-1.183727 3.320800
-1.756579 3.903545
-2.170972 4.142853
-1.553353 4.891956
-2.456844 4.693233
-1.662546 4.371630
-2.016137 6.107413
-1.536303 6.617242
-1.784023 6.255223
-1.897316 6.634628
-1.561220 6.246384
-1.397998 6.441826
-1.093189 7.099526
-1.032118 7.645013
-0.800940 7.086145
-0.621579 8.066517
-0.675049 7.828591
-0.448563 7.039617
0.010789 7.690971
0.861355 8.407648
0.069745 8.222185
0.987666 8.056818
0.580432 8.331853
0.086716 8.062122
0.759071 8.383653
1.351609 7.985725
1.291633 8.233641
1.515534 7.819368
1.655698 7.826155
1.022647 8.023109
1.502121 8.197579
1.726239 8.280410
1.283560 9.124709
2.095120 8.582146
2.059304 8.999867
1.230453 9.670917
2.261293 9.497284
2.113236 9.551493
2.441704 10.112144
2.656847 10.503298
3.365859 10.284502
3.584973 10.325176
3.703809 9.959185
4.330083 10.480459
5.163603 10.264025
5.183296 9.812345
5.005156 10.047842
6.277302 9.890187
6.959869 9.982574
6.913555 9.548724
6.989754 8.676749
8.234226 8.187869
8.000972 8.774293
8.341589 7.594991
8.896534 6.786365
8.556572 6.460370
9.321157 6.472337
8.910506 6.036050
9.155458 5.469745
9.191481 4.829758
9.195309 4.225600
9.137265 4.769946
9.290584 3.598489
8.733113 2.843406
7.956233 3.123062
7.925368 2.401897
7.840081 2.300631
7.022064 1.973016
6.805377 1.620729
6.439633 1.365166
6.166984 0.360067
5.658780 0.875680
5.463899 1.856953
4.569866 1.815935
3.847517 0.920337
4.273573 1.191496
4.393114 1.450171
3.767298 1.096760
3.225182 2.203883
4.247903 2.119438
3.211559 1.865514
2.780302 2.678893
3.284355 2.141606
3.308992 2.660148
2.700368 2.968259
3.036169 3.080492
3.364519 2.381190
2.367710 2.989104
2.126233 3.128526
3.474881 3.116018
3.268203 3.118400
3.237627 3.207469
2.389336 3.676702
1.895466 3.806494
2.390269 3.933538
3.287629 3.816718
3.496691 3.193519
2.815461 3.924031
2.965640 3.830713
2.441923 3.942115
2.870889 3.831113
2.155609 3.944082
2.018071 4.102785
2.364582 4.680593
1.784169 4.422869
1.571739 5.261585
2.454182 4.625779
1.624117 5.238286
2.514683 5.009507
1.229437 5.558311
3.405629 5.606018
2.412479 6.937256
2.636832 6.479191
3.027101 6.598047
3.132790 7.097734
3.476126 7.233444
3.473031 6.434473
4.054046 6.016884
4.612726 7.554307
4.449252 7.671902
5.028964 6.983102
5.578832 7.407639
4.879833 6.839798
5.032112 6.957173
5.575409 6.740054
5.959601 6.558294
6.163672 6.008465
6.177102 6.898166
6.520146 6.049052
5.288465 6.731165
6.794372 6.028639
6.728886 5.221849
6.130728 5.884526
6.249855 5.784738
6.596980 5.804287
6.725870 5.080140
6.282803 6.022706
6.190414 5.741951
5.633655 5.102215
6.269213 5.088767
5.652218 5.254200
6.128716 5.836490
5.723525 6.317348
5.956072 4.441417
6.134178 5.902213
6.203589 6.658349
6.934333 6.127734
6.228872 6.054599
6.565726 6.581516
6.440539 6.801874
6.979614 6.950906
7.511889 6.649986
8.797661 7.349192
8.941405 8.167018
8.492285 7.278953
8.822624 7.930972
9.142739 7.802154
9.770135 7.037407
10.965312 7.099275
10.889980 6.424772
11.892159 7.139677
12.201133 7.612393
11.772657 6.149708
12.135203 6.236714
12.857170 5.190795
13.521880 4.321434
12.315177 4.917131
13.742109 3.813193
14.315779 3.318478
13.833295 1.780462
12.975654 1.614965
12.889045 1.751724
13.668648 1.615187
12.721648 -0.043342
13.249983 -0.698992
12.851484 -1.055924
13.193309 -0.911752
11.502399 -0.398354
12.776686 -1.357752
11.513504 -1.637741
12.103904 -1.699353
10.475171 -0.958130
11.630090 -1.880610
11.478487 -0.879600
12.138262 -2.108897
10.138487 -1.608662
10.765502 -1.897254
9.364057 -1.580798
10.491208 -2.003546
10.776410 -0.875828
10.595702 -2.549966
9.750988 -1.974073
11.365500 -0.883938
11.295385 -1.393868
12.026883 -2.831434
9.710416 -2.922621
11.580457 -3.412681
10.953414 -3.204841
12.025781 -3.985048
11.161761 -5.775335
11.021174 -5.048931
12.584578 -5.022152
10.988811 -5.789804
9.286694 -6.785647
9.581984 -7.795724
10.466128 -7.898895
9.734906 -6.650124
8.070694 -8.123342
6.212870 -9.907050
7.161414 -10.758993
5.532465 -8.375188
5.895406 -8.939480
4.648206 -10.810801
4.300492 -9.760549
2.818957 -7.499972
1.618203 -8.053754
1.805697 -9.526880
0.987266 -9.495344
-1.057753 -7.886739
1.134908 -7.431868
-0.634302 -6.721315
-0.494664 -9.010611
-3.669056 -3.547834
-1.661011 -5.637496
-1.590444 -4.438950
-3.026216 -3.802473
-3.715190 -4.180373
-3.592207 -1.331111
-2.445579 0.570047
-2.667216 -2.134531
-3.952343 0.493992
-1.086026 0.548425
-0.980928 2.026174
-1.827636 4.068245
-0.042788 0.681263
0.550865 2.502626
1.882031 2.851307
0.421172 4.352169
2.571944 2.593344
4.165230 2.702524
4.784656 3.073934
3.152575 2.352126
5.429344 0.114142
5.865493 0.316354
6.080197 3.031770
4.466722 1.108556
4.933379 -0.309029
5.442622 0.896425
5.234768 -2.030050
3.446613 -0.854702
4.863568 -1.980046
4.199746 -0.976765
3.735837 -1.564109
-0.876866 -1.627624
2.821412 -0.543155
0.222380 -1.131764
-2.584677 -4.713467
-0.018426 0.907115
-1.162667 -0.349559
-1.338479 -1.730969
-1.577896 -0.559284
-0.828942 -0.011789
-0.526156 3.072848
-0.640156 6.427896
-1.355850 1.857776
0.004179 5.519042
2.433029 4.891252
2.480426 3.802369
4.196206 7.342319
4.970322 6.791637
6.741591 6.259212
5.088640 5.351292
7.472081 6.278373
9.522168 4.605462
10.665540 7.528250
10.464639 5.586530
11.293118 4.331574
13.819554 6.465322
13.222192 4.471744
11.934508 2.647768
14.747661 0.913891
16.004407 -2.125500
19.736918 -2.941346
13.810703 -3.332747
18.458453 -6.069578
15.801249 -6.848677
13.583388 -11.982531
14.824185 -12.384957
12.924085 -12.460888
9.443782 -15.942370
11.989883 -17.721074
9.152547 -18.258118
5.098808 -18.671830
10.370908 -16.025220
1.247138 -18.124999
0.604826 -19.503428
-4.242972 -20.192939
-4.675987 -23.853718
-5.850628 -18.650203
-7.731692 -19.985942
-4.975287 -20.456904
-9.007057 -17.699867
-13.259244 -17.513350
-16.061837 -15.422541
-16.528852 -10.800622
-19.320532 -13.332452
-18.296205 -14.283255
-20.182183 -10.611041
-23.520529 -8.172365
-20.972382 -1.763038
-24.907650 1.824303
-17.812938 -9.081623
-25.900539 1.868520
-19.485350 6.669275
-18.480451 7.952694
-18.534304 0.317583
-11.913401 6.578223
-19.747952 11.121169
-19.561671 6.657791
-10.652124 15.737735
-19.105218 4.122603
-14.452240 4.913542
-15.741419 13.166909
-18.972181 6.853068
-2.652761 16.234515
-18.745104 17.184051
-14.982015 5.372240
-16.007238 15.997161
-18.354751 15.684195
-19.912241 9.804184
-15.033405 6.931007
-19.896523 11.928565
-19.767613 11.289184
-19.245353 11.754115
-29.506433 22.192729
-38.352259 28.941465
-21.158090 27.985551
-41.982046 33.301360
-11.582043 7.842801
-32.561094 51.172793
-42.430511 27.041709
-5.230896 51.693328
-32.880115 54.289235
-39.387446 59.638880
-34.750427 44.806598
-20.242155 72.573940
-9.382922 59.663960
-21.535147 64.013917
-11.222121 70.494773
22.981720 91.539479
21.457483 84.785606
14.061477 97.119947
12.192688 49.086378
6.504543 79.984408
35.205344 106.017100
56.226123 79.866311
29.607299 82.992517
28.516237 88.648387
32.429122 85.837839
51.924731 71.905747
66.127944 78.163799
118.505273 82.954242
116.508452 34.421287
177.569555 -31.766753
107.125546 -39.797214
205.319611 85.297614
-210.273850 113.222170
38.206008 180.774834
131.690689 -5.569617
-75.959808 -73.508026
-100.560950 62.911652
164.451856 -80.069461
37.450322 -76.967244
182.552441 122.780550
-2609.439073 300.531814
