3829.245537 4580.014492
-3035.997018 121.207681
270.711865 114.982663
51.245149 -125.819706
191.629438 -108.509404
414.576872 -208.050945
0.107315 113.109717
37.543154 -168.931610
-91.376871 36.726890
-268.165239 -87.727002
93.436151 -109.713545
6.952097 -167.570075
-102.334762 22.177708
-145.372681 -115.302811
-80.157440 -48.107422
-44.790578 -15.878616
-21.484225 -23.531953
-75.837306 -37.754184
18.950534 -58.643906
28.916854 -3.511920
0.268298 19.868015
5.401904 -46.307358
17.306005 -25.852012
17.982826 -36.134672
48.913686 -66.794128
22.322875 -64.163999
-11.515155 -26.348383
7.487944 -54.229764
-0.963751 -36.333730
-0.270902 -79.457441
-14.097590 -48.521234
-18.084246 -80.444488
-37.912463 -58.749924
-32.363210 -31.967567
-26.939293 -29.749146
-47.655733 -52.305014
-26.002737 -26.091347
-23.968645 -40.034512
-31.250773 -19.971772
-17.820929 -8.230452
-1.915190 -19.549365
-10.099957 -16.479034
-12.014519 -9.636410
3.586864 -24.564506
1.463918 -25.123742
-0.693542 -23.486295
3.248177 -23.790367
9.327835 -29.168640
-20.755198 -31.982428
-9.112548 -36.730825
-0.036151 -46.729378
-22.348918 -47.704435
-18.534285 -25.516050
-16.901352 -25.920750
-22.879265 -28.075693
-23.709444 -29.664530
-27.445221 -18.156035
-16.980069 -18.995560
-16.497771 -14.947366
-17.877997 -8.254771
-12.537960 0.869940
-3.369612 -6.329664
-4.606446 -12.306238
-0.217834 -19.108760
-7.318624 -9.549389
5.922602 -13.843416
5.259220 -13.859176
3.948462 -31.769523
-2.252917 -29.278250
-2.555775 -31.484417
-6.430484 -30.041864
-2.175131 -42.287799
-9.465098 -33.977538
-16.111059 -31.505111
-18.392197 -30.055307
-24.435119 -30.999130
-24.992843 -24.960200
-21.213801 -30.316734
-22.490046 -19.224530
-23.767036 -12.114687
-24.676961 -12.416127
-25.221081 -4.400955
-20.929340 -5.677397
-16.055535 -6.421844
-9.261701 -3.162415
-7.891221 -6.882608
-9.136261 -3.891104
-4.731682 -5.501387
-5.719425 -9.337655
-5.345451 -11.315549
-2.573600 -14.567396
-2.586221 -14.310066
-5.674520 -16.651200
-3.428811 -22.885379
-11.740255 -19.337946
-14.551225 -19.897117
-14.389859 -16.917945
-10.361940 -15.247538
-14.275883 -18.378048
-14.060976 -16.911911
-16.609153 -11.585640
-17.258987 -12.136307
-20.573960 -12.468250
-16.846137 -8.925818
-13.606419 -7.317653
-9.832596 -9.366961
-14.172014 -7.806755
-12.062653 -5.560348
-10.159779 -10.758269
-11.051760 -14.227415
-13.840751 -11.962614
-10.385294 -10.074764
-9.426951 -8.789520
-12.564195 -10.822654
-14.564125 -11.179673
-14.736302 -10.046827
-14.901941 -10.732770
-20.557201 -8.527729
-18.085646 -7.975244
-17.645353 -1.899638
-16.718656 -4.272613
-18.420883 -2.669497
-14.659307 1.591079
-16.250699 0.124018
-13.663319 0.139880
-10.253543 1.574882
-10.162584 -0.633602
-8.385204 1.661724
-6.092286 -0.691782
-5.209943 -1.169561
-3.589069 -4.546443
-5.397386 -6.193498
-3.114276 -6.912251
-5.321851 -8.067133
-8.181119 -10.428954
-8.132788 -10.652806
-9.579963 -11.421568
-10.473335 -10.895287
-12.500563 -11.207940
-13.239333 -7.645051
-15.679472 -9.585297
-14.932475 -6.181595
-14.842282 -5.161816
-16.945919 -4.819725
-16.012953 0.184435
-14.763698 0.689984
-14.624943 -0.588172
-12.333153 3.185098
-13.622576 3.818953
-10.974584 2.877429
-6.731815 2.571000
-9.971307 1.849853
-7.180186 2.755598
-5.941465 2.050060
-6.384424 3.108654
-8.049079 -1.465675
-5.012902 -0.924616
-7.034310 -3.436064
-6.930561 -1.222318
-7.631609 -1.399742
-8.543103 -1.538892
-9.860374 -1.217523
-7.411944 -1.758346
-9.478842 -3.167923
-7.125677 -1.180672
-7.000779 0.289964
-6.255399 0.486182
-5.357573 0.213795
-6.777279 -0.692450
-5.333219 0.552660
-4.774980 -1.225921
-3.234860 -1.240100
-4.172018 -2.038600
-5.071056 -2.178584
-5.560736 -4.064886
-5.512165 -2.491559
-6.621583 -3.102729
-7.119601 -3.783828
-7.650450 -2.485211
-7.825199 -3.106441
-8.368427 -1.277283
-9.230268 -1.391329
-9.357120 -0.923491
-8.960766 0.218601
-8.554983 1.649699
-7.107395 2.090164
-7.455139 3.711719
-6.991279 3.156409
-7.311811 3.641447
-4.147253 4.195026
-2.409495 4.299707
-3.267623 2.823253
0.443561 2.475298
-0.431761 2.016770
-0.824505 0.630524
-0.109724 0.081014
-0.184156 -0.698070
-0.158083 -2.341629
0.394397 -4.225297
-0.865156 -2.616366
-1.264651 -3.954309
-2.883520 -4.370870
-4.457008 -5.484355
-4.477055 -4.099338
-4.777950 -4.266258
-5.250746 -3.462684
-4.429675 -2.061963
-4.993962 -0.163858
-5.037613 -1.745649
-4.909904 -0.810460
-4.453558 -0.947446
-3.775223 -0.210825
-3.174776 0.374967
-3.206641 -0.131100
-2.808377 0.585261
-2.757022 -1.216625
-1.369707 -1.389738
-1.883545 -1.043202
-1.103779 -1.970764
-1.915091 -0.665919
-1.814015 -0.820979
-3.305408 -1.299587
-2.766666 -1.955672
-2.293056 -1.887827
-2.178092 -1.494290
-2.436495 -1.159790
-2.078166 -0.289185
-1.825888 -0.887016
-1.940243 -0.900489
-1.753575 -0.862642
-1.393390 -1.366814
-0.641002 -2.193621
-0.148921 -1.869189
0.056350 -2.416796
-1.126699 -2.725187
-0.441207 -2.831728
-1.492526 -3.849504
-0.632854 -4.067555
-0.701516 -4.079544
-1.824406 -4.571757
-2.400579 -4.165658
-3.249451 -3.838329
-3.947800 -4.881363
-4.453610 -4.304336
-4.245945 -3.794818
-4.467423 -3.313465
-4.193059 -2.682496
-4.768976 -1.937419
-3.553389 -1.961278
-3.446655 -1.683985
-2.563379 -1.121235
-1.798863 -1.998250
-2.552055 -0.736875
-1.887239 -1.391618
-1.393810 -2.614019
-0.989971 -3.020787
-0.560725 -4.190304
-0.769839 -4.498064
-1.881582 -4.190544
-1.087038 -5.267777
-2.432294 -5.776047
-2.895910 -6.470056
-3.785466 -5.728369
-4.645740 -5.059237
-3.966284 -4.665941
-4.875507 -4.256248
-5.558370 -3.303672
-5.150869 -2.438911
-6.004381 -2.202765
-4.604539 -2.311258
-4.495759 -1.722948
-3.245291 -1.295025
-2.866355 -1.331634
-2.592610 -1.008153
-1.911226 -1.296478
-1.799864 -2.225145
-1.555424 -2.977701
-0.530566 -3.325470
-1.211654 -4.229788
-1.021869 -4.642070
-1.797392 -5.630198
-1.828703 -5.874481
-3.307889 -6.205471
-3.750701 -6.840306
-4.380801 -6.715578
-5.913376 -6.343324
-5.945952 -6.094587
-6.774802 -4.993997
-7.515568 -5.160482
-7.567545 -3.920426
-7.744398 -3.423677
-7.495361 -2.317581
-7.533121 -0.930703
-6.761645 -1.252978
-5.891728 -0.757830
-5.938328 -0.564759
-5.068921 -0.666876
-3.881490 -0.421991
-3.319909 -0.858996
-3.437722 -0.879552
-2.751611 -2.139571
-3.819197 -2.032333
-3.054901 -3.005920
-3.647710 -3.764075
-3.124044 -3.232002
-4.090651 -2.910262
-4.009381 -3.809095
-4.774974 -3.597839
-5.495184 -3.459574
-5.672161 -3.479688
-5.424497 -3.212903
-5.050048 -2.760660
-4.739310 -2.506959
-5.215333 -2.280206
-4.962913 -1.964823
-5.053984 -2.650434
-5.353875 -2.299105
-4.703145 -2.864047
-4.469599 -2.238564
-4.899845 -2.988311
-5.506339 -2.684213
-5.721839 -2.946576
-6.497397 -3.404200
-6.845530 -3.218004
-6.549213 -3.163848
-7.502308 -2.568861
-7.753310 -1.846324
-8.457347 -1.003894
-8.288624 -0.537448
-8.651964 -0.352925
-7.872925 -0.029735
-7.769588 1.135602
-6.561302 2.643171
-6.058530 2.427951
-5.019250 2.984486
-4.742545 2.867092
-3.571424 2.782187
-2.719084 2.109759
-1.857256 1.442247
-1.888678 0.847121
-1.594304 0.470472
-1.112643 -0.894225
-1.489884 -2.155292
-1.721468 -3.317305
-2.368400 -3.453117
-3.970631 -3.910368
-4.225022 -3.864939
-5.764683 -4.012060
-6.091290 -4.135404
-7.590924 -3.615224
-8.083058 -2.786045
-8.638537 -2.003193
-8.800071 -0.744736
-9.072207 0.254945
-9.029686 1.041880
-8.626725 1.862951
-8.339644 2.328460
-6.942355 3.266128
-5.644830 3.367767
-5.243387 4.565630
-4.059478 4.817345
-3.397333 3.893244
-2.538368 3.524230
-1.934163 2.491989
-1.733923 1.844017
-1.177474 1.032389
-1.636632 0.297455
-2.309981 0.097920
-2.400511 -0.365375
-3.088367 -0.791432
-3.462988 -1.191975
-3.850332 -1.267897
-4.191939 -0.585727
-4.488278 -0.117293
-4.956914 0.161658
-5.196641 0.148147
-5.070191 0.951304
-4.729143 1.163794
-5.037466 1.533423
-3.826346 2.058984
-3.998348 2.135514
-3.302222 1.912214
-3.409130 1.695959
-2.436975 0.903087
-2.420940 1.105763
-1.666322 0.941666
-2.520314 0.943616
-2.784966 0.177398
-3.104822 0.003237
-3.391515 -0.395058
-3.669921 -0.363346
-3.822450 -0.094087
-4.306732 0.860159
-4.449188 0.914385
-5.121801 1.428776
-4.743748 1.815719
-4.729631 2.455362
-3.694835 2.359217
-3.617094 3.229427
-2.489778 3.122075
-2.232853 3.191696
-1.407251 3.249449
-1.262919 2.872849
-0.460066 2.406223
-0.058288 1.785183
-0.079392 1.380535
-0.040172 0.999217
-0.025225 0.210768
-0.477704 -0.381788
-0.633366 -1.087141
-1.327341 -1.325466
-1.546885 -1.731364
-2.490738 -1.161309
-2.786592 -0.919804
-3.568087 -0.953384
-4.322890 -0.303077
-3.776854 0.226180
-4.039844 0.850373
-3.831473 1.441808
-3.329882 2.141051
-3.173304 2.556873
-2.640459 2.218359
-2.185681 2.676597
-1.134255 2.426519
-0.665195 2.223269
0.081726 2.018886
0.175601 1.443085
0.459852 0.709867
0.009498 0.255772
0.157057 -0.662169
-0.096962 -1.341650
-0.261310 -1.381722
-1.186021 -1.769124
-1.603749 -1.691382
-2.710341 -2.130605
-2.968259 -1.243407
-3.385534 -1.492506
-3.717990 -0.589578
-3.367444 -0.207062
-3.570532 0.828426
-3.449009 1.057399
-3.117961 1.696072
-2.981692 1.675548
-2.066532 1.977756
-0.946866 1.751174
-0.312847 2.296594
0.221986 1.581485
0.207336 1.619575
0.870849 0.720480
1.127003 -0.324389
0.955740 -0.790846
0.927049 -1.858017
0.474168 -2.216099
-0.062427 -2.089636
-1.183346 -2.845947
-1.575124 -2.872819
-1.917168 -3.340472
-2.552946 -2.992102
-3.040472 -2.804262
-3.364165 -2.141245
-3.878426 -1.747077
-4.232373 -1.248207
-3.871744 -0.432031
-4.029861 -0.032831
-3.236894 0.504830
-2.984573 0.714414
-2.646751 0.958518
-1.902920 1.047228
-1.903457 0.595359
-1.400698 0.488161
-1.143564 0.243858
-0.746543 -0.048762
-0.518968 -0.480853
-1.103466 -0.703138
-1.117413 -1.010186
-1.532665 -1.647620
-2.029561 -2.074646
-2.040116 -1.689944
-2.166142 -1.437418
-2.433113 -1.521513
-2.744659 -1.432233
-3.200739 -1.419324
-3.342399 -1.510480
-3.339258 -1.041967
-2.769955 -1.271370
-2.572617 -0.432838
-2.314049 -0.323740
-2.248501 0.063228
-1.676392 -0.687783
-1.832950 -1.117529
-1.567385 -1.181339
-1.661182 -1.316847
-1.548815 -1.655940
-2.363043 -2.328357
-2.566915 -2.161126
-3.444279 -2.627473
-2.915109 -2.955646
-4.079755 -2.577028
-4.091626 -2.889381
-4.725833 -2.021772
-4.932613 -1.545825
-5.289214 -1.276793
-5.481675 -0.923952
-5.016674 -0.354566
-5.121877 0.908690
-4.654818 0.483035
-4.261507 1.348144
-3.783048 1.583466
-3.225622 1.753552
-2.578529 1.269077
-2.061756 1.508166
-1.897181 0.812242
-0.972563 0.437623
-1.535011 0.003724
-1.541071 -0.403923
-1.509405 -1.272435
-1.789645 -1.773242
-2.208512 -2.239623
-2.646459 -2.283353
-3.211599 -2.523864
-3.504657 -1.973556
-4.367191 -2.034278
-4.206002 -1.782239
-4.822674 -1.904358
-5.216151 -1.625249
-5.237001 -0.530974
-5.369908 -0.465308
-5.260141 -0.126889
-5.101529 0.638845
-4.797579 0.523551
-4.263014 0.562621
-4.208605 0.791278
-3.941003 0.741543
-3.510866 1.032849
-4.058711 0.915423
-3.250590 0.403337
-3.258664 0.526786
-3.510984 0.333340
-3.301908 0.224251
-3.559738 0.086612
-3.907055 0.397123
-4.418029 0.214832
-3.942734 0.386299
-4.499152 0.427292
-4.258906 0.780270
-4.050310 1.121692
-4.079777 1.392863
-4.158784 1.575979
-3.912493 1.688900
-3.226562 1.790819
-3.193651 2.089742
-2.632430 1.691031
-2.782360 1.728651
-2.102095 1.334856
-2.082777 1.103511
-2.146409 0.674671
-2.396221 -0.205565
-2.470136 -0.458518
-2.955287 -0.280030
-3.190640 -0.437813
-3.774910 -0.385494
-3.801544 -0.726977
-4.315560 -0.185739
-4.865540 -0.518910
-4.843963 0.300356
-5.302008 0.573951
-5.315025 1.159369
-5.372224 1.566578
-5.241865 2.255261
-4.815699 2.758683
-4.679098 3.179783
-4.050698 2.868261
-3.653836 3.760823
-3.402495 3.506614
-2.753167 3.606749
-2.150240 3.396070
-2.224281 2.661095
-1.686697 2.598990
-1.526537 2.408171
-1.637387 2.111011
-1.267322 1.478328
-1.527797 1.456315
-1.782185 1.236655
-2.168556 0.616200
-1.762642 0.704190
-2.412616 1.190073
-2.945251 0.803461
-3.200717 1.254213
-2.994605 1.179088
-2.959043 1.146093
-3.189359 1.323315
-3.076472 1.457223
-2.840627 1.705261
-3.191956 1.891475
-2.971178 2.007475
-3.099051 1.983365
-2.527058 1.837010
-2.523069 1.715133
-2.366436 1.937668
-2.303355 2.062172
-2.302936 2.062937
-2.016893 1.615552
-2.466983 1.944140
-2.286250 1.488008
-2.307543 1.672607
-2.466280 1.726033
-2.072684 2.246401
-2.480667 2.643410
-2.432998 2.446877
-2.254536 2.472090
-2.194111 2.514452
-1.716740 2.911376
-1.209744 2.952008
-1.372890 2.657454
-0.779609 2.598212
-0.606430 2.304305
-0.708888 2.199826
-0.445196 1.961039
-0.307274 1.375019
-0.281252 1.252202
-0.614190 0.851248
-0.680146 0.686409
-1.032344 0.551055
-1.325175 0.161923
-1.689423 0.266500
-1.724986 0.428577
-1.802635 0.823428
-2.382464 1.318200
-2.714592 1.351188
-2.536065 1.337615
-2.201528 1.704306
-2.015209 2.226304
-1.764431 1.856679
-1.857431 2.356994
-1.033709 2.227142
-1.241517 2.195685
-0.639091 1.765411
-0.518401 1.889029
-0.091298 1.634215
-0.270565 1.224546
-0.423379 1.001198
-0.386925 0.805714
-0.246776 0.335599
-0.603769 0.363920
-0.718082 0.041171
-1.057592 0.173746
-1.275687 0.409020
-1.553113 0.295927
-1.955350 0.033523
-2.036430 0.534381
-2.064033 0.828912
-1.981511 1.145891
-1.406017 1.134117
-1.685573 1.826776
-1.621818 1.638057
-1.325627 1.843475
-0.673861 1.638077
-0.624642 1.575633
0.194827 1.195527
-0.030641 1.254771
-0.057266 0.731464
-0.501787 0.589928
-0.181052 0.024985
0.081647 -0.536400
-0.309877 -0.726395
-0.272726 -0.617874
-0.959799 -1.171987
-1.243917 -0.934282
-1.294739 -0.783763
-2.058174 -0.757749
-2.154798 -0.569277
-2.116164 -0.370289
-2.306164 -0.291138
-2.003978 0.119574
-1.928240 0.602672
-2.351150 0.206009
-1.833816 0.343129
-1.871761 0.445915
-1.288154 0.934262
-1.511395 0.728403
-1.656185 0.530487
-1.124777 0.713853
-1.597724 0.443422
-1.251518 0.028394
-1.192823 0.535713
-1.600768 0.284226
-1.418462 -0.016316
-1.832188 0.258484
-1.912064 -0.058916
-2.342546 -0.226879
-1.836489 0.330746
-1.684092 0.632690
-1.940184 0.285040
-1.900215 0.674972
-1.921037 0.498199
-1.800564 0.276021
-1.514022 0.518087
-0.917496 0.203275
-0.936223 0.511960
-1.095604 0.547603
-0.731097 -0.123773
-0.961177 -0.975006
-0.842464 -1.263599
-1.071631 -1.501607
-1.740282 -1.871205
-2.136313 -1.888161
-2.427117 -1.749547
-3.097531 -1.748804
-3.709651 -1.703776
-4.050807 -1.535540
-4.218619 -0.921371
-4.584715 -0.253410
-4.836990 0.474418
-4.864385 0.783989
-4.869886 1.706371
-4.501571 1.827257
-4.103822 2.505318
-3.550354 2.691757
-2.779643 2.965441
-1.964386 2.921145
-1.632407 2.998434
-1.071136 2.270752
-0.526341 1.788201
-0.471610 1.272163
0.033501 0.809571
0.158942 0.322911
-0.326298 -0.480127
-0.784543 -1.046993
-1.566275 -1.491504
-1.489688 -2.012006
-2.157938 -2.373218
-2.617982 -1.981072
-3.431212 -1.698128
-4.241244 -1.146798
-4.863379 -1.301437
-4.730009 0.050985
-5.224311 -0.099827
-4.848812 0.687463
-4.851611 0.792571
-4.645761 1.745551
-4.392513 2.146560
-4.211018 2.513199
-3.849267 2.234204
-3.179640 2.622434
-2.866201 2.222651
-2.496957 2.682264
-2.519245 2.216854
-2.150740 1.698985
-2.297264 1.592840
-2.532225 1.275522
-2.312735 1.133433
-2.564545 0.910516
-2.940979 1.174032
-2.884225 1.092878
-2.984965 1.096624
-2.985731 1.311430
-3.316345 1.204999
-3.038600 1.923134
-3.171597 1.863985
-3.129091 2.278112
-2.681403 2.275710
-2.799465 2.590678
-2.343705 2.097041
-2.042511 1.821501
-1.683230 1.967117
-1.497478 1.643780
-1.828170 1.265219
-2.133759 1.329297
-2.087642 0.667063
-2.222247 0.358435
-2.663374 0.085566
-3.284721 0.456062
-3.587399 0.788113
-3.885225 1.375312
-4.239628 1.144095
-4.679513 1.474821
-4.406976 2.117051
-4.934228 2.561551
-4.405561 3.328466
-3.756119 3.760491
-4.018933 3.794754
-3.238691 4.453200
-2.894140 4.620463
-1.812867 4.237284
-1.752064 4.326962
-0.983966 4.270275
-0.525620 3.884583
-0.628720 3.389340
-0.382855 2.587058
-0.028257 1.882499
-0.557705 1.781274
-0.376360 1.083947
-0.965809 0.973674
-1.623079 0.890348
-2.536810 0.625482
-2.780667 0.725359
-3.295682 0.742603
-3.285568 1.613869
-3.584597 1.689759
-3.844541 2.626927
-3.510202 2.836109
-3.868122 3.171123
-3.202892 3.641016
-2.697402 4.151619
-2.056058 4.241882
-1.590668 4.119818
-1.020943 4.206469
-0.567714 4.193959
-0.278361 3.669461
-0.370175 3.232616
0.039233 2.732484
0.016261 2.279591
-0.064178 2.108284
-0.461445 1.743240
-0.718777 1.358522
-1.213596 0.906127
-1.648707 0.565003
-1.695279 0.971401
-2.304974 1.442907
-2.766346 1.553196
-2.779843 1.947482
-3.086832 2.720034
-2.675395 3.026949
-2.417489 3.498093
-2.041256 3.786801
-1.566333 4.601405
-1.169604 4.405391
-0.481142 3.796919
0.015985 3.917944
0.099771 3.707007
0.830663 3.428577
0.769343 3.090880
1.214261 2.738748
1.273419 2.437390
0.761618 1.674879
0.500682 0.899287
-0.224806 0.525250
0.145158 0.488254
-0.186476 0.790795
-1.253798 1.227437
-1.406209 1.004454
-1.568581 0.823169
-1.822981 1.125985
-2.007604 1.674490
-1.790430 2.132719
-1.752705 2.291024
-1.711361 2.960268
-1.454239 3.098277
-1.251637 2.822221
-0.630619 2.293482
-0.275907 2.798492
0.235479 2.324971
-0.041103 2.655976
0.346276 2.151881
0.196559 1.679339
0.176819 1.457268
0.096915 1.241334
-0.295260 1.068299
-0.381136 0.878473
-0.662408 1.196504
-0.786840 1.112758
-1.347893 1.165996
-1.227747 1.023972
-1.431243 1.471521
-1.352002 1.638133
-1.265201 2.301105
-0.976293 2.555150
-0.737937 2.451016
-0.809900 2.726209
0.510095 2.378875
0.508253 2.498830
1.053399 2.032386
1.103165 1.540485
0.908763 1.051329
1.057142 0.749400
1.022512 0.290490
1.025853 -0.077152
0.071299 -0.798516
-0.046560 -0.712558
-0.425397 -0.583307
-1.031005 -1.180554
-1.853114 -1.138081
-2.201225 -0.015579
-2.539419 -0.194328
-2.702842 0.216337
-2.860613 0.865668
-2.923883 1.538971
-3.089443 2.199635
-2.423567 1.976185
-1.862007 2.554499
-1.980010 2.723837
-1.106340 2.913645
-0.871883 2.993612
-0.440082 2.763398
0.211290 2.611932
0.573030 2.043228
0.670867 1.746568
1.118677 1.258423
0.901823 0.598180
0.804745 0.046639
-0.230825 0.371928
-0.389497 -0.421738
-0.851514 -0.994783
-1.011569 -0.985224
-1.362439 -0.777966
-1.854533 -0.286559
-2.161446 -0.248298
-2.309392 0.017202
-2.125549 0.294114
-2.637816 0.376162
-2.169385 0.737203
-2.159297 1.207077
-2.252786 1.345462
-1.792446 1.297215
-1.743198 1.349954
-1.612702 1.110441
-1.537918 0.994371
-1.389502 1.087456
-1.585291 1.070037
-1.453143 0.894877
-1.796013 0.782277
-1.990893 0.383286
-2.426502 0.313140
-2.388583 0.835801
-2.673871 0.628651
-2.741195 1.104307
-2.913769 1.100769
-3.193070 1.414940
-3.390666 2.061361
-3.058149 2.207498
-2.261023 2.169815
-1.973495 2.428661
-1.823818 2.709518
-1.460968 2.479353
-1.438259 2.214187
-1.148045 1.858443
-0.644770 1.686438
-0.378455 1.599670
-0.494173 0.971466
-0.520432 1.355889
-1.051895 0.184780
-1.368483 0.264969
-1.241566 -0.085219
-2.074280 -0.128552
-2.434381 0.132470
-2.898920 -0.299626
-3.027338 0.107559
-3.668946 0.458935
-3.797922 0.628332
-4.001267 0.906975
-4.285759 1.866886
-4.245285 2.224811
-3.944955 2.511224
-3.672614 2.824035
-3.434994 3.168280
-3.290246 2.722505
-2.528964 3.720413
-2.336294 3.191349
-2.087298 3.520914
-1.796081 3.505033
-1.834379 2.786605
-1.302674 2.911563
-1.521192 2.629609
-1.557521 2.160632
-1.499901 2.115045
-1.946367 2.338152
-2.046582 2.401067
-2.314348 2.159683
-2.266379 2.206415
-2.439769 1.919712
-2.428514 2.560841
-1.934238 2.573557
-2.843740 2.879824
-2.474820 2.810383
-2.401162 2.628164
-2.046932 2.741575
-2.296495 2.555597
-1.924428 2.429234
-1.659664 2.708480
-2.094171 2.542357
-1.918738 2.294421
-2.165816 2.686026
-2.081102 2.311488
-1.869157 2.237660
-2.172165 1.994935
-3.048716 2.567383
-2.708360 2.436428
-2.757002 2.717428
-2.792870 2.980283
-3.497827 3.257092
-3.000907 3.251943
-2.322902 3.955513
-3.078721 3.773160
-2.959209 4.679321
-2.324000 4.600886
-1.380745 4.882543
-1.138916 5.364048
-0.752758 5.034044
-0.280384 4.335845
-0.059439 4.599388
0.129847 3.706297
0.033743 3.542478
0.034832 2.822494
0.109422 3.188597
-0.249837 2.720565
-0.408168 2.860941
-0.617139 2.613022
-0.948106 1.750069
-1.484834 2.216720
-1.652438 2.666045
-1.831746 2.486087
-1.744139 2.616944
-2.168686 2.851711
-2.051638 3.535547
-2.223684 3.807512
-2.217834 3.775046
-1.760570 4.329450
-1.021292 4.556459
-0.772146 4.739687
-0.904164 4.724821
-0.308177 4.409599
-0.175226 4.468480
0.584196 3.818590
0.407605 3.584002
0.583160 3.747122
0.132418 3.596888
-0.101630 2.927760
0.213365 2.984810
-0.426094 2.635952
-0.295487 2.638135
-0.463911 3.360897
-0.918031 3.038983
-1.115101 3.081701
-1.144458 2.923985
-1.588270 3.795878
-0.851649 4.068594
-0.753046 4.313064
-0.464747 3.700270
-0.278289 4.354923
0.150811 4.037819
0.531155 4.057402
0.511905 4.334536
0.699493 3.456056
0.717747 3.925902
1.319291 2.961511
1.171206 3.064850
0.906342 2.893140
0.685631 2.695464
0.101244 2.315067
0.288864 2.526281
0.546360 2.571692
0.383404 1.972008
0.184496 1.768669
0.144767 2.548964
-0.777918 2.528001
0.124847 2.162366
-0.519065 3.094832
0.161355 3.182169
-0.197394 2.695428
1.047990 3.008116
0.115883 3.271496
0.829260 2.715797
0.661251 2.890894
0.763152 1.912884
0.957005 2.641666
0.182686 1.574656
1.154849 2.315534
-0.655885 1.565717
-0.378490 1.988147
-0.392356 1.494197
-0.299569 1.838659
-0.441681 2.041581
-0.934891 2.741857
-0.175900 3.208149
-0.214621 2.975957
-0.593841 2.901437
0.299412 3.403257
0.704356 3.898922
0.915674 4.267136
0.939638 4.049252
1.455922 3.534262
1.699632 3.153115
2.476790 2.240821
2.972526 1.992372
2.649392 0.930361
2.616689 0.811643
1.724324 -0.407546
1.286419 -0.246009
1.050890 -0.782400
-0.036309 -0.721116
-0.050226 -1.166606
-0.293373 -1.103103
-1.914450 -0.296267
-1.680411 0.363420
-2.461457 0.449935
-2.491248 1.607753
-2.777707 1.721778
-2.509602 2.152954
-2.696239 2.592351
-2.559857 3.597660
-1.586329 4.276319
-1.435223 4.426536
-0.444563 4.792735
0.362840 4.196990
0.788542 4.542146
1.474100 3.833606
1.474980 3.208535
1.902423 2.351070
2.134801 1.586008
2.527509 0.997625
1.935393 0.538026
1.444497 0.635315
1.018111 -0.048140
0.219356 -0.327627
-0.269621 -0.549212
-0.248325 -0.580839
-0.521167 -0.181975
-1.516265 0.386914
-1.291531 0.663006
-1.926450 0.946710
-2.377707 1.204170
-2.688079 1.381155
-1.701499 1.358398
-2.011682 1.647110
-1.088423 1.757529
-1.764982 1.881333
-1.421663 1.862316
-1.794608 1.733322
-1.155474 1.754451
-1.349880 0.916711
-1.378944 1.160287
-1.668321 0.931676
-1.945615 1.165024
-2.347153 1.972065
-2.563108 1.790645
-2.314945 1.478912
-2.690032 1.836759
-2.147356 2.584892
-3.024324 3.493904
-2.321666 3.538735
-1.988960 3.717164
-1.247803 3.868572
-1.190166 3.952113
-0.218408 3.654421
-0.070991 3.120098
0.100902 3.164011
0.516357 3.070493
0.497848 2.470575
0.652000 1.639438
0.768811 1.195959
0.703762 0.556121
0.223055 0.408712
-1.209407 -0.387757
-1.326065 -0.593030
-2.449106 -0.824935
-3.483539 -0.197011
-4.093150 0.073062
-4.391334 0.150193
-4.738533 1.583528
-5.762293 1.725597
-5.724658 3.578654
-4.816174 3.387333
-5.256059 4.819699
-3.492396 5.447789
-3.351455 6.580776
-2.130093 6.396329
-2.166543 6.449599
-0.455024 5.869128
-0.459082 5.587477
0.525481 5.293600
1.124651 4.130756
1.444267 3.866365
1.631081 3.463659
0.637967 3.371993
-0.006795 1.483800
-0.457782 1.354335
-0.786418 1.135195
-1.813804 1.240305
-1.998290 1.693543
-2.800162 2.178407
-3.453846 2.728770
-3.826220 3.124972
-4.161520 3.954763
-3.774168 3.695757
-3.725214 4.707149
-3.804774 5.379934
-2.792298 6.212173
-2.310599 6.030579
-1.275862 6.264436
-0.789450 5.902928
-0.258739 5.756721
-0.420205 5.603128
0.221011 5.164395
0.134048 3.929948
0.212017 3.939617
0.050801 2.866665
-0.516720 3.076535
-0.688652 3.476591
-0.909272 2.517948
-1.820974 2.668260
-1.927625 2.267342
-2.965804 3.563624
-2.579903 3.850270
-3.027007 3.591694
-3.289307 5.351886
-3.106015 6.272705
-2.372392 6.636139
-2.598582 7.431395
-1.551922 7.638092
-1.198522 7.530740
-0.399379 7.390080
0.150838 7.035079
1.152998 7.030701
2.304953 7.219027
2.164842 6.133952
1.710398 4.930727
1.860396 4.256291
1.627305 3.707094
1.435902 3.868319
1.262137 4.045306
-0.077960 3.253499
-0.145473 3.197953
-1.187037 3.845110
-1.517082 3.541644
-1.286749 5.239434
-1.238049 5.041608
-1.363168 5.595122
-1.679169 5.942100
-1.054508 5.931926
0.136796 6.298991
0.460628 6.956332
0.870405 7.130391
0.897050 6.466969
1.257498 6.354624
2.309748 5.558979
2.243248 5.202257
2.479658 4.200317
2.192080 3.837387
2.115276 4.336199
1.929019 4.072300
0.556527 3.012815
0.615076 3.309151
-0.204546 3.580115
-0.435060 4.119406
-0.558312 4.947398
-1.530927 6.391949
-1.092553 6.569671
-0.336070 6.819453
0.375090 7.345895
0.679918 7.183518
1.590656 7.877251
2.232010 7.917108
2.645461 8.239644
3.319389 7.136644
3.773519 5.716175
4.870841 5.137781
4.778388 4.711212
4.831154 3.725729
4.504535 2.873205
4.059659 2.727863
3.363247 1.891759
2.593070 1.751006
2.702034 1.531045
0.796477 1.292137
0.607323 1.194357
0.801604 2.337050
-0.810799 3.031611
-1.421137 3.481271
-0.607016 3.234579
-1.298738 5.156536
-1.406486 5.444589
0.359407 6.344515
0.884797 6.987553
0.931903 6.760713
1.703052 6.767287
2.727814 6.545883
3.438593 6.500507
3.720142 6.448441
5.212746 6.064081
4.766672 5.156360
4.660602 3.913547
4.176759 2.728093
4.314981 3.134516
4.043805 2.349003
3.141935 2.881139
2.120395 1.590776
2.783129 2.436289
1.187845 2.138919
1.783773 3.559629
0.816150 1.921463
1.433778 3.449232
1.196341 3.679015
1.487838 4.019795
2.521192 5.189438
1.945982 4.544332
3.289966 3.861216
3.696064 2.923328
3.275833 2.663489
3.356308 2.624913
3.117154 1.898739
3.221925 2.530417
3.813345 2.425955
2.429191 -0.415278
2.032503 0.356671
0.155993 -0.530272
0.667539 0.848095
-0.423698 1.648631
-0.964230 0.595385
-1.339222 1.724900
-1.278303 2.141630
-1.917210 2.028259
-0.028843 4.314905
-1.245017 4.037536
-0.150150 5.844677
1.311521 5.336784
0.914646 6.754352
1.639487 5.903882
3.273106 5.801586
3.849217 4.954682
3.584367 4.852354
4.162850 4.329998
5.119989 3.325152
5.197423 1.829541
4.446604 0.801037
4.979321 -0.174954
3.517533 -1.242739
2.455229 0.391971
1.369557 -1.217121
1.715486 0.564695
0.758972 -0.983084
-0.884115 0.066594
-1.115572 0.854163
-1.331659 2.283166
-1.431758 1.803219
-2.452682 2.836247
-1.477179 3.746681
-0.789013 3.874966
-0.585371 4.178522
-2.441814 4.196125
-0.849617 5.597196
0.101693 5.313172
-0.233430 5.631303
0.394912 3.667349
0.583361 4.577908
0.715620 5.459999
0.186027 3.301415
1.392948 4.929517
-0.457025 4.802392
-0.453885 3.604383
-0.165593 4.815875
-0.341378 5.313762
0.011221 3.884323
-1.725184 4.122525
-0.803040 4.784136
-0.825304 5.434326
-0.324544 4.760148
0.880725 4.180869
-0.315698 5.533256
0.676495 5.654464
1.820459 4.371852
-1.095495 3.065322
0.178829 3.782871
1.921474 3.398103
1.690659 1.870700
2.235083 2.938376
0.527650 1.914796
-0.645471 0.548519
-1.951054 1.277280
-1.622333 2.914295
-3.811474 3.379840
-2.159627 4.127976
-3.904246 4.630416
-4.092857 4.375794
-5.017326 6.750412
-4.120550 8.354566
-6.047858 8.575070
-4.514466 8.676312
-2.926962 10.336251
-2.685499 11.572037
-0.553229 10.221125
-0.339304 12.024422
1.786564 11.150928
2.263426 8.232149
1.716616 8.801081
1.579257 8.650412
3.481312 7.928016
1.993000 7.827620
2.106280 6.065428
0.908010 5.023092
1.432222 4.646313
0.786061 6.394569
-0.497832 6.160174
-1.440697 6.951392
-2.291230 6.349795
-3.366331 6.897212
-1.099763 7.060829
-0.831078 8.031044
-1.408155 9.014299
-1.841079 10.630349
-0.555555 10.886109
-2.847614 11.158503
0.504389 9.755928
-0.231129 10.483494
2.639268 10.643805
1.338940 9.868798
1.702166 11.164970
2.466949 10.655819
3.830768 9.232280
0.779106 8.396605
1.053473 9.003627
2.616914 9.591137
1.170320 8.711627
1.843089 10.273106
-0.684004 9.563213
-0.467012 10.722630
-0.250050 9.761910
-0.020644 12.596890
-0.235905 11.354114
0.515663 12.604770
0.521194 14.915797
3.528828 13.804999
3.305381 13.850816
2.356691 16.192717
5.219150 14.025996
5.946206 11.774635
4.908092 12.552692
4.062169 11.426730
5.566875 11.439304
3.865297 11.715665
4.819676 9.938596
5.358427 7.139531
-0.090289 10.963651
2.704802 7.482221
1.954680 12.055053
3.762298 12.934838
5.768107 13.414831
1.733600 11.226443
1.876025 16.760050
5.240881 13.173608
7.123016 18.263118
7.146718 13.911401
7.643864 17.247327
9.836698 13.921700
7.877837 14.629700
8.661661 14.956980
8.940543 13.811365
8.841606 14.228412
10.614350 11.174072
8.972457 9.261203
7.267383 8.533836
6.697410 8.032105
4.875654 9.158910
4.601237 8.928689
2.596823 11.423551
1.014308 13.640003
1.528863 12.011049
4.255752 15.675138
3.736532 16.177173
3.911013 16.935691
3.800770 19.574723
7.640784 20.195197
11.889536 25.879865
13.127484 22.033981
14.159029 20.529559
18.417246 21.668159
20.954500 17.912571
21.276767 14.684808
22.309162 15.100240
18.962445 12.819832
21.751469 9.535456
23.151172 5.474911
20.281271 6.991895
20.357607 1.075186
15.108587 -0.603551
11.946719 -0.719029
7.576331 0.662424
7.648050 3.355237
7.170060 7.769196
5.220550 3.077124
1.063504 12.019131
-0.191325 12.787837
1.668042 10.129676
-1.032067 17.587123
5.523182 20.850555
7.201579 21.495078
8.644065 19.913073
8.164266 24.977398
16.923362 15.819211
16.496439 18.653505
22.025020 19.066977
17.550078 14.598851
19.052806 8.046280
25.480771 18.422834
24.563298 10.485447
23.898864 9.917532
20.279781 7.178436
19.881102 6.923186
17.487471 6.289111
18.478005 13.468122
21.125213 14.645350
18.082394 2.736129
12.651643 10.832686
20.900605 18.407336
27.652791 7.057951
21.722129 6.045158
21.459650 10.492904
21.253066 11.555912
27.087359 5.730316
21.209635 -0.063287
26.727120 2.197667
36.590399 0.798543
18.474613 -3.250223
13.994826 -0.431819
17.335917 -1.139187
22.436978 -3.625622
7.195327 -7.699217
-0.322814 1.065390
4.925375 8.938231
-2.102758 3.699695
1.895054 10.377682
0.693086 22.154149
0.511327 32.373203
2.629851 23.953962
18.548391 28.114543
13.642733 38.921565
27.103756 46.971124
41.690144 39.070707
56.161913 22.261662
49.150881 32.197408
63.568987 23.494984
69.419921 24.034322
85.107719 -3.057550
82.063862 -4.364778
56.021611 -25.589873
60.007392 1.192208
78.040156 -33.308032
47.517437 -67.993699
-14.850332 -42.002780
15.974209 -32.971453
-42.153526 -24.568753
-19.061152 -32.715160
-19.217383 -25.047362
-14.266949 -6.116476
-100.496832 24.812474
-58.326500 -1.176218
10.172117 17.597395
-47.612803 72.587260
-24.221694 100.567557
27.781816 132.373397
12.103847 103.951350
48.303561 169.206318
88.774289 130.897974
94.822008 129.406894
148.287335 168.165332
311.552103 113.166594
-79.301732 -53.645892
193.844470 254.998003
-622.243828 -64.715276
-55.108308 -132.597206
498.877109 -3.389722
120.187688 132.674659
366.327431 -54.372603
