6098.410076 7085.905835
131.619126 0.109522
42.476493 273.938653
838.008607 -37.264236
-131.799445 147.665036
-701.347364 43.263277
69.338456 380.016717
-578.335096 -79.343451
263.928782 87.381831
317.890657 -131.091199
48.609056 -53.820724
53.881396 -105.563916
30.841671 -1.428576
26.452691 -172.986932
20.375802 -178.157285
108.196548 -70.939462
-41.709505 -52.084792
15.475995 -97.417094
-54.488280 -125.147538
6.542556 -5.756523
-73.076046 17.386011
-73.529006 -83.582806
8.625257 -44.713091
-11.133748 -95.884829
-58.937148 -56.128677
-31.412609 -30.727765
-43.852340 -14.169677
-50.083267 -79.511177
-22.397513 -38.997432
-25.999689 -46.163044
-78.474994 -23.915528
-32.688166 2.274797
-45.873972 -4.344782
-30.790419 -32.744429
-37.671534 -5.236061
-19.326893 9.373394
-24.133092 2.451456
-16.974553 2.265054
-14.494093 -1.098516
-17.483485 -16.385207
-9.211616 -3.738191
-6.255753 -6.858046
1.191015 -9.273119
-1.652810 -15.104794
6.362518 -10.421728
-4.024644 -12.382663
6.728321 -6.677025
-3.141290 -11.616783
1.701426 -8.207656
5.165524 -12.995508
7.936349 -13.368807
8.751294 -12.245523
9.898936 -15.642611
8.311676 -8.240324
2.495734 -26.907676
4.304510 -24.982146
17.739145 -23.434903
-8.363873 -13.061397
-5.778056 -10.818291
5.951857 -25.059983
7.169773 -20.184314
-13.825527 -8.144972
-15.365966 -20.740560
-11.328182 -19.551466
-7.861785 -12.699985
-16.666763 -5.385718
-17.260395 -21.428475
-15.091713 -10.045145
-18.005187 -10.279905
-0.295847 -15.903005
-14.104667 -12.662427
-14.639850 -6.938603
-20.086022 -9.977148
-16.190724 -3.865579
-7.063455 3.478383
-8.394222 -6.833672
-2.849711 0.647005
-3.702832 -5.651041
-0.082773 1.187093
0.562846 -7.340378
-2.371909 1.424327
3.913078 -4.586685
-2.346068 4.854319
2.079581 0.157361
2.616769 -0.516612
3.618967 -2.122340
3.586195 -0.761247
6.590908 -3.260874
4.723332 -0.475344
4.589123 -2.366777
5.807934 -7.719014
8.373075 -1.013581
10.676358 -3.232530
6.401185 -8.710281
6.152586 -8.621860
5.920260 -10.453763
10.091634 -14.381386
5.627876 -15.981168
6.846686 -10.967582
2.999274 -14.731028
4.092720 -16.352974
6.606803 -11.941322
4.927860 -11.638191
-1.266177 -16.714442
-5.093953 -13.383749
0.760208 -15.217628
-6.517056 -11.598629
-2.785896 -16.806875
-2.510272 -13.460041
-5.777089 -17.359908
-1.952772 -12.737050
-3.309318 -9.083090
-2.358170 -7.968993
-8.836952 -8.706849
-5.934910 -9.324044
-6.993585 -5.258708
-10.485324 -5.391632
-5.455170 -9.434502
-8.228297 -7.263154
-4.518988 -7.892390
-3.130578 -6.171853
-4.626852 -4.303346
-3.726488 -6.180292
-7.622787 -4.601146
-3.203579 -8.577795
-5.154563 -2.239432
-0.562208 -10.072579
-0.586285 -2.689469
0.138226 -4.738252
3.985042 -4.952215
1.192409 -2.549155
3.714743 -2.881385
0.707956 -2.329947
2.500954 -4.324720
-0.856353 -5.983902
2.608277 -8.415696
-0.563026 -10.435334
-0.167167 -8.650474
2.106805 -7.859226
3.398190 -9.600121
-1.186356 -8.076271
1.142845 -12.466481
-2.812480 -8.463266
-4.846716 -9.271046
-3.979798 -9.738615
-4.247822 -8.878029
-3.294583 -13.695874
-5.399748 -9.241450
-2.408273 -11.648495
-2.886722 -9.522221
-7.315152 -9.417501
-5.826568 -11.546355
-6.934169 -7.573102
-7.338032 -6.389868
-9.631098 -6.673880
-7.902628 -8.229070
-4.993869 -5.493051
-9.222973 -2.606144
-8.295303 -4.468159
-7.009151 -4.056072
-6.352689 -2.850135
-7.481962 -2.058465
-7.267256 -1.321672
-6.508228 -3.370600
-5.196800 0.432369
-2.723209 -0.504660
-2.786683 1.151443
-2.860328 -0.697721
0.221317 -0.316965
-2.386424 1.450589
-2.434798 0.011671
2.222257 -0.024210
2.668924 2.008801
1.227300 -1.264879
1.718404 -2.064777
3.177508 -2.973636
5.214097 -2.675711
3.731308 -1.200088
2.528941 -5.740945
1.529591 -7.640190
2.453141 -5.473829
0.739599 -5.714202
2.365180 -6.266418
3.095178 -6.765228
3.547469 -5.551607
-0.296462 -6.950191
0.276384 -7.871555
-0.165265 -8.019768
0.383784 -7.784088
-1.409563 -6.902501
-0.813070 -9.125098
-1.850524 -7.248806
-2.476194 -8.185707
-3.053804 -8.564346
-3.453163 -6.171976
-5.073208 -6.444568
-4.786771 -7.697654
-5.641382 -5.675897
-5.144392 -6.468869
-4.987157 -5.686825
-4.677040 -5.864806
-3.798449 -3.579575
-5.475686 -4.122162
-3.585617 -3.013475
-5.062152 -1.785645
-3.900705 -3.883694
-4.361264 -3.054751
-2.658687 -2.161301
-4.409763 -2.101034
-1.533256 -1.313839
-1.474755 -1.683014
-0.452930 -2.004629
-0.414659 -0.758911
-0.844984 -0.786738
-0.876352 0.522443
-0.116214 -2.888233
1.193931 -2.435628
0.427553 -3.125262
1.498530 -2.593881
-0.393502 -3.062593
0.016571 -3.738935
1.544422 -3.968916
-0.016548 -4.234532
1.329812 -6.111876
-0.123504 -3.906323
1.280182 -5.836199
0.340868 -5.459499
-0.100579 -5.593089
0.524690 -6.005404
-0.169059 -6.161321
-1.372193 -5.994274
-1.005624 -6.168215
-2.231543 -5.938283
-2.291049 -7.049087
-3.147013 -6.494391
-2.823803 -6.592708
-3.638374 -6.053659
-3.857164 -6.949249
-2.872419 -6.312837
-3.187174 -4.906461
-4.780757 -4.819561
-3.270113 -4.044500
-3.663067 -4.658733
-3.541132 -4.050338
-3.978650 -4.338873
-4.523636 -3.391727
-3.900314 -2.974926
-3.680804 -2.935537
-3.047576 -3.203360
-3.699815 -3.348137
-2.337445 -3.599355
-1.444994 -1.125575
-1.945677 -3.307048
-0.917803 -3.015122
-0.511391 -2.491648
-1.345441 -2.244988
-1.191436 -3.536967
-0.060027 -3.221123
0.699674 -3.754357
0.064031 -2.479939
-1.087686 -3.772595
-0.037046 -3.586344
0.857347 -5.415820
-0.786439 -4.350864
-0.698612 -4.891804
-1.356282 -4.828781
-1.502443 -5.602860
-1.956001 -4.669551
-1.431966 -5.393423
-1.575825 -5.570673
-1.711981 -5.242231
-2.595809 -6.084561
-2.418811 -5.762907
-4.193290 -6.384818
-2.963163 -5.346895
-4.043457 -5.710780
-4.890576 -6.223989
-4.569236 -4.492762
-4.983872 -6.278227
-5.792436 -4.828903
-4.391363 -3.571619
-5.842099 -3.917918
-5.200496 -3.921855
-6.201752 -3.190972
-5.044218 -2.293119
-5.821360 -2.973868
-5.291872 -1.565140
-5.275137 -1.566154
-4.808368 -1.206205
-5.173318 -0.528720
-4.796512 -0.234015
-3.846983 -1.662685
-4.300445 0.797069
-3.785246 -0.333750
-2.246553 0.642320
-2.477114 -0.300569
-2.310113 0.209140
-2.816799 0.761537
-0.895773 -0.487335
-0.486477 0.138199
-0.663957 0.466169
-0.970971 -0.718071
-0.514138 -0.652810
-0.477729 -2.061691
0.810722 -1.231342
0.126955 -2.929357
-0.322094 -2.129291
0.025204 -4.161237
-0.402812 -2.466940
0.164392 -4.369033
-0.855339 -3.020133
0.488097 -4.596817
-0.859059 -4.020633
-0.441964 -4.489668
-0.417100 -3.695769
-1.721504 -4.994716
-2.691919 -3.647804
-2.683086 -4.899056
-4.065985 -4.447741
-3.406678 -4.348124
-4.523161 -4.967205
-4.020737 -4.487992
-4.809557 -3.590907
-4.930957 -3.162434
-4.931701 -2.764890
-5.502562 -2.448020
-4.593338 -2.558872
-5.807885 -2.619705
-5.897000 -2.135054
-4.856240 -1.188125
-6.212272 -1.482422
-5.238227 0.467015
-3.798509 0.024749
-4.786455 0.384235
-2.777046 1.163548
-4.618900 -0.027454
-4.113938 0.925531
-2.863244 0.531334
-3.727098 0.917820
-2.445635 1.670752
-1.297143 1.648367
-1.045937 1.351028
-1.000445 1.654434
-1.043896 1.015979
-0.990371 1.271629
-0.435769 1.008246
0.055683 0.023039
-0.461330 0.481773
0.324479 -0.391794
0.950190 0.263827
1.206603 -1.372633
1.362661 -1.048034
0.652237 -2.213911
0.896552 -1.549637
0.714540 -1.565181
0.444170 -1.747094
1.256020 -2.245235
0.946337 -1.997019
0.984850 -3.307984
0.141246 -2.560252
-0.961982 -2.148100
-0.597686 -2.514980
-0.847017 -3.558250
-1.157241 -2.598611
-0.864937 -2.957754
-1.054267 -2.441447
-0.820308 -2.433746
-1.846987 -1.818942
-1.585450 -2.940300
-2.835996 -1.709431
-2.029404 -2.187939
-2.462252 -1.606180
-2.347315 -2.316441
-2.268523 -1.434739
-2.013224 -1.442969
-2.739785 -1.719150
-1.304653 -1.632679
-1.655771 -0.836030
-1.399531 -0.796462
-1.806565 -1.174752
-2.208458 -0.946962
-1.177272 -0.806702
-1.074541 -1.429233
-0.132752 -1.264458
-0.593498 -1.343011
-1.272355 -0.813762
-0.622674 -1.353326
-0.057848 -0.975752
-0.071695 -2.425491
0.156265 -2.109634
-0.374224 -2.206722
-0.205465 -1.976061
0.302868 -2.136810
-0.289112 -2.408010
0.491604 -3.960242
-0.419596 -2.613873
0.000744 -3.662099
-1.086334 -2.859686
-0.211843 -3.194162
-1.271536 -3.990832
-1.594831 -4.231637
-1.815360 -3.491155
-2.171847 -4.106142
-2.012341 -3.350629
-2.040325 -3.705373
-3.374275 -3.877666
-3.628148 -3.495652
-3.316259 -3.856486
-3.418378 -2.655096
-3.771151 -2.033766
-3.108413 -2.335375
-3.211375 -2.285551
-3.910425 -1.822664
-3.784404 -1.634744
-3.618940 -1.201683
-3.490102 -0.542511
-2.760281 -0.795282
-3.423043 -1.035353
-2.730428 -0.280089
-2.257869 0.061573
-2.547678 0.565868
-2.114439 0.481237
-1.392782 0.150666
-1.768099 -0.350152
-1.363913 0.498296
-1.074615 -0.250252
-0.648888 0.982728
0.742689 0.147388
-0.079612 0.072982
-0.210820 -0.648671
0.603044 -0.508800
0.618122 -1.467090
0.239783 -1.064886
0.485092 -2.316982
0.801441 -2.145926
1.289105 -2.515590
0.625494 -2.904845
0.418712 -3.083467
-0.039697 -2.846329
0.020771 -3.200718
-0.558927 -2.867962
-0.831927 -3.742116
-1.234285 -3.246194
-0.483800 -3.810060
-1.380123 -3.500434
-1.729530 -4.293862
-1.661408 -3.302446
-2.271889 -3.697250
-2.117418 -3.621217
-2.108090 -4.308839
-3.376121 -4.388053
-3.937577 -3.739324
-4.272040 -3.828876
-3.567854 -2.858537
-3.991998 -2.968186
-3.735670 -1.857551
-4.745108 -2.525532
-4.672710 -2.017606
-4.648314 -1.136819
-4.548307 -1.426313
-3.969397 -0.944108
-4.631920 -1.067326
-3.551777 -0.680667
-3.280184 -0.091307
-3.516480 0.237464
-3.379557 0.075131
-2.620255 0.453858
-2.900928 0.262530
-2.660698 -0.017408
-2.177219 1.453327
-2.260235 0.577067
-2.205620 0.582396
-2.313612 0.654555
-0.764147 1.014043
-0.993679 -0.312254
-1.016476 0.089512
-0.962788 -0.189450
-1.132080 -0.905676
-0.321892 0.063415
-0.491550 -0.329728
0.054331 -0.738704
-0.289942 -1.414098
0.038960 -1.258667
-0.170456 -1.399082
-0.945038 -1.852586
-0.444418 -1.426159
-0.668878 -2.121849
-0.384753 -1.917205
-1.130838 -2.394362
-0.934038 -2.061526
-1.625974 -2.604998
-1.552492 -2.004293
-1.627669 -3.036365
-1.875328 -1.855174
-2.547058 -1.988570
-2.020962 -1.629133
-2.516254 -2.161226
-3.549174 -1.493884
-2.272531 -1.205673
-2.819855 -1.182169
-1.676477 -1.808916
-2.467028 -1.126103
-2.623052 -0.847081
-1.994294 -0.699228
-2.224976 -1.415547
-1.901502 -1.039096
-2.459584 -0.189100
-2.069259 -0.398096
-1.324461 -0.334038
-1.636848 -0.437670
-1.182732 -0.693704
-1.185304 -0.483719
-1.256018 -0.735478
-1.204791 -0.957985
-1.022838 -0.777839
-1.119220 -1.227409
-0.842456 -0.847280
-1.001893 -1.153176
-0.329378 -1.041886
-0.696647 -1.379085
-0.400820 -1.774844
-0.699507 -2.020459
-0.878443 -1.330580
-0.886549 -2.095063
-1.406760 -1.785047
-0.855591 -2.379902
-0.919882 -2.170310
-1.641911 -1.965843
-1.336449 -1.973209
-1.641794 -2.388097
-1.783282 -2.892151
-2.037370 -2.351664
-2.101284 -2.357434
-3.208872 -2.066572
-3.108431 -2.310484
-3.342119 -2.503245
-3.267257 -2.093771
-2.799925 -1.834370
-3.371813 -1.915384
-3.860366 -1.570391
-3.571131 -0.607082
-3.047486 -1.617741
-3.552180 -0.226577
-3.208050 -0.746834
-3.766804 -0.166671
-3.084290 -0.054193
-2.636637 0.469674
-2.567690 0.228906
-2.945957 0.447554
-2.448785 0.743417
-2.516055 0.441285
-1.673251 0.478982
-1.736320 0.806985
-1.079685 0.772629
-1.757253 0.005224
-1.347282 0.833768
-0.998041 0.838289
-0.495239 0.450447
-0.700427 0.081963
0.090985 -0.241949
-1.267018 -0.370771
-0.136340 -0.603434
-0.308758 -1.028014
-0.314668 -0.687832
0.116180 -0.600589
-0.170005 -1.227866
-0.606660 -1.364555
-0.828286 -1.627176
-0.813928 -2.034019
-0.355555 -1.698534
-0.959347 -1.791160
-1.055544 -1.567983
-1.613621 -2.326883
-1.543482 -2.132448
-2.007840 -2.784024
-1.896063 -2.373435
-1.831234 -2.203993
-2.525877 -1.866902
-2.445799 -2.046364
-2.404380 -2.112400
-3.442868 -2.075219
-2.669463 -1.719293
-2.619558 -1.235506
-3.145784 -1.080384
-3.446789 -1.941141
-3.762005 -0.720696
-3.007991 -0.832736
-2.683302 -0.742767
-2.764395 -0.287246
-2.972839 0.009825
-2.436959 -0.291583
-2.255581 0.319525
-2.710167 -0.134057
-2.430601 0.268158
-1.955490 0.570223
-1.943452 0.576640
-1.451095 0.552826
-1.210842 0.237894
-2.121255 0.348556
-1.328776 0.063967
-1.151062 0.227680
-1.064275 -0.099998
-0.349769 -0.058806
-0.951373 0.169833
-1.058479 -0.791143
-0.365540 -0.435117
-0.935325 -0.736657
-0.568094 -1.376721
-0.773087 -0.990170
-1.129764 -0.891264
-0.868372 -1.679009
-1.489131 -1.082724
-1.438372 -2.177780
-2.293793 -1.668151
-1.303836 -1.674786
-1.735491 -1.282573
-1.966731 -2.333006
-2.841691 -1.105235
-2.466962 -1.510594
-3.056232 -1.712099
-2.365888 -0.944420
-2.396285 -1.157968
-2.845029 -0.738024
-3.043189 -1.215239
-3.345636 -1.521536
-3.329870 -0.650119
-2.577605 0.240053
-3.499390 -0.357984
-2.906549 0.473154
-3.473812 0.099308
-3.115204 0.054119
-2.776312 0.758658
-2.995243 0.537357
-2.699475 1.002738
-2.082465 1.297419
-2.200578 1.211272
-1.911444 0.951142
-2.082153 1.228208
-1.572595 2.056379
-1.523472 1.461405
-1.168425 1.470565
-0.875766 1.182775
-1.335011 1.213715
-0.331055 1.024203
-0.519147 1.135528
-0.124095 0.583091
0.080575 0.935739
0.149299 0.101911
0.040391 0.403228
0.289935 -0.175939
0.315728 -0.072476
0.310962 0.192416
0.007018 -0.252582
0.169454 -1.199333
-0.365232 -0.565658
0.294788 -1.654603
0.013821 -1.097672
-0.650449 -1.185377
-1.109913 -0.558399
-0.401934 -1.551524
-1.008274 -1.038129
-0.623662 -1.976933
-1.100874 -1.371198
-1.188857 -1.402081
-1.307687 -1.497854
-1.623587 -1.240228
-1.360910 -0.533485
-1.121021 -0.898813
-1.502678 -1.049773
-1.845453 -0.793951
-2.643022 -0.377533
-1.868728 -0.298861
-1.979073 -0.073088
-1.408151 -0.237426
-1.766667 -0.168212
-1.950853 -0.314046
-1.369805 0.228466
-1.524919 0.155305
-1.608869 -0.078015
-1.013810 0.532748
-0.908206 0.032973
-0.785625 0.658952
-0.815979 0.185481
-0.635241 0.224554
-0.218023 -0.000871
-0.500500 -0.001173
-0.831704 -0.315445
-0.236636 -0.315537
-0.339039 -0.866278
-0.360547 -0.342690
-0.419798 -0.488680
0.473727 -0.395486
0.532496 -0.987285
0.004770 -1.177993
-0.255980 -1.466224
-0.306076 -1.704817
-0.286821 -1.679674
-0.623646 -1.760258
-0.943935 -2.058033
-0.782815 -1.512610
-1.264871 -1.922896
-1.308236 -1.861660
-1.106935 -2.530779
-1.661326 -1.947547
-2.119906 -2.142972
-1.757294 -1.688911
-1.832731 -2.033981
-2.633695 -1.764104
-2.345937 -1.521893
-2.442434 -1.109268
-2.727429 -1.557478
-2.605835 -0.906177
-2.884263 -1.202614
-1.990208 -0.541005
-2.661084 -0.684317
-2.562943 -0.041294
-2.317230 0.156707
-2.536824 -0.000656
-2.346832 0.490033
-2.541643 0.259566
-2.203012 0.346407
-1.593225 0.359285
-1.758273 0.488215
-0.789561 0.200312
-0.907566 0.132373
-1.001644 0.356315
-1.100578 0.183092
-1.023369 0.100140
-0.686760 0.391153
-0.792634 -0.022621
-0.285530 -0.307789
-0.584314 -0.324254
-0.350812 -1.014482
-0.315198 -0.741220
-0.359747 -0.867213
-0.441084 -1.032706
0.104144 -1.106510
-0.876935 -1.290364
-0.220478 -1.547069
-1.141559 -1.670899
-0.706471 -1.972746
-1.750815 -1.690303
-1.285533 -1.694278
-1.065737 -1.989919
-1.046191 -2.058052
-1.147125 -2.131458
-1.858129 -2.346542
-2.240163 -2.398521
-2.083720 -1.735209
-2.615870 -2.153685
-2.216319 -1.738224
-2.588082 -1.760776
-3.389245 -1.634430
-3.894222 -1.475554
-3.150279 -0.882927
-3.733582 -0.568743
-4.162315 -0.392475
-3.683638 -0.835685
-3.078742 -0.230730
-3.663470 -0.144320
-3.452837 0.209763
-3.284638 0.437429
-2.854509 1.009905
-2.932871 0.725384
-2.120925 0.940264
-2.638340 0.252232
-2.233759 1.196957
-1.700219 1.039190
-1.691072 1.284336
-1.755031 0.622605
-1.407185 0.929444
-1.074545 0.869459
-1.215750 1.254099
-1.191820 0.562040
-0.898540 1.147477
-0.281772 0.822837
-0.645811 0.240211
-0.456729 0.464557
-0.791139 -0.092033
-0.446702 0.034788
-0.446753 -0.294704
-0.244028 -0.191210
-0.950978 -0.976436
-0.691182 -0.819993
-1.040132 -0.614933
-0.755063 -1.380254
-0.858102 -1.246595
-1.308288 -1.092004
-1.220731 -1.072412
-1.497311 -1.132318
-1.538158 -1.391146
-1.788869 -1.048001
-1.973892 -1.216777
-2.310616 -1.408239
-2.393452 -1.200550
-2.081494 -0.858646
-2.370138 -0.761256
-2.863456 -0.846689
-2.654893 -0.588688
-2.595954 -0.120848
-2.664735 -0.243515
-2.521974 -0.051979
-2.631948 0.467702
-2.549345 0.211743
-2.352169 0.399305
-2.383285 0.589756
-2.725503 0.888133
-2.140971 1.412837
-1.934011 0.879835
-1.402902 0.619237
-1.823720 0.789282
-1.329099 0.348652
-0.920804 0.868299
-1.548617 0.966410
-1.436923 0.676187
-0.350404 0.502925
-1.020797 0.562781
-1.144423 0.432855
-0.760968 0.103936
-0.984445 0.553494
-0.828423 0.084181
-0.741354 0.251185
-0.532513 -0.090756
-0.879893 -0.088510
-1.406430 -0.069933
-1.334290 0.066275
-1.146432 -0.621732
-1.025194 -0.452636
-0.828463 -0.367247
-1.299302 -0.469645
-1.179885 -0.916245
-2.120629 -0.553417
-1.259916 -0.506353
-1.558126 -0.330242
-2.182377 -0.820350
-1.978703 -0.551341
-2.226803 -0.319383
-2.569762 0.049178
-2.207055 0.055465
-2.553740 0.262459
-2.397106 -0.490344
-2.451694 0.149127
-2.035684 0.560169
-1.993718 -0.054729
-2.222248 0.786243
-1.598176 0.563300
-1.776057 0.354201
-1.874894 0.821640
-1.444428 0.405799
-1.783562 0.648566
-1.347985 0.684189
-1.185432 0.726115
-1.056586 0.865038
-1.010705 0.664484
-1.286688 0.993535
-0.762100 0.361316
-1.112568 0.122556
-0.763709 0.326822
-0.467832 0.405595
-0.491278 -0.169464
-0.621510 0.224038
-0.302766 -0.597349
-0.571852 -0.476250
-0.016223 -1.167495
-0.806924 -0.765642
-0.540100 -1.224795
-0.633500 -0.763814
-0.723450 -1.453731
-0.958945 -1.331687
-1.318738 -1.443273
-1.480137 -1.519555
-1.293460 -1.914413
-2.032477 -1.407765
-1.706766 -1.385460
-1.893177 -1.450968
-2.569056 -1.323099
-2.753883 -1.510513
-2.717504 -0.818725
-2.574757 -0.993864
-2.687520 -1.197061
-2.918678 -0.683710
-3.128150 -0.866590
-3.478006 -0.384932
-3.245093 0.117823
-3.006701 0.552556
-3.581539 0.249014
-3.081547 0.806967
-3.137381 0.466533
-3.043156 0.849063
-3.126878 1.213143
-2.950892 1.676836
-2.390541 1.218580
-2.239244 1.967566
-2.242770 1.583466
-2.304475 1.696589
-1.804881 1.519270
-1.764702 1.729898
-1.255836 1.593014
-1.195314 1.691191
-0.723960 1.333585
-1.198864 1.238362
-0.714208 1.348267
-0.418605 1.490953
-0.222243 1.062267
-0.223895 1.129288
-0.034444 0.455283
-0.696172 0.378426
-0.323897 0.316764
-0.161932 0.485233
-0.447760 0.468497
-0.355525 0.166688
-0.113428 -0.386398
-0.510127 -0.191437
-0.701763 -0.475505
-1.044895 -0.740308
-0.363244 -0.326327
-1.109879 -0.298913
-0.907313 -0.432560
-1.310223 -0.734192
-1.439089 -0.837284
-1.898755 -0.737567
-1.939460 -0.347744
-1.786309 -0.645105
-1.613133 -0.208359
-2.357942 -0.656233
-2.162737 -0.118501
-2.363988 -0.412370
-2.173093 0.382244
-2.535441 0.300251
-1.966910 0.352394
-1.694605 0.322866
-1.727813 0.300288
-2.304120 0.639767
-1.989922 0.744704
-2.048638 0.652728
-1.583079 0.919257
-1.461081 0.606436
-1.681171 1.033921
-1.898315 0.848415
-1.331483 0.743744
-0.919314 0.427871
-0.987252 0.857811
-0.995292 0.706731
-0.873502 0.939449
-0.763873 0.459875
-0.405193 0.948098
-0.526822 0.579299
-0.470522 0.195526
-0.515068 0.069495
-0.828860 0.526856
-0.564123 -0.244232
-0.720078 0.419242
-0.622510 -0.069614
-0.646748 0.354053
-0.431426 0.042944
-0.777187 -0.412236
-0.932454 -0.503134
-1.543925 -0.565192
-1.122829 -0.469772
-1.035873 -0.220282
-1.144504 -0.607259
-1.704104 -0.212266
-1.207665 -0.260351
-1.570675 -0.191485
-1.857363 -0.213387
-1.525051 -0.253440
-1.888305 0.175152
-2.056929 0.389332
-1.339369 0.642371
-1.870977 0.524644
-1.862965 0.596746
-1.892507 0.690867
-1.623400 0.908144
-1.441442 0.645591
-0.917410 0.949694
-1.094843 0.844117
-1.303697 0.864360
-0.768739 0.808712
-1.170512 1.196557
-0.496159 0.960799
-0.331921 1.107804
-0.276952 1.343638
-0.317120 0.805801
-0.428823 0.342537
-0.035942 0.754947
0.221816 0.227846
0.340654 -0.060160
0.156906 0.358533
0.334088 -0.174960
0.263651 -0.439914
0.144100 -0.472339
0.281225 -0.479250
0.254598 -0.999743
0.130524 -1.100893
-0.528385 -0.876267
0.023068 -1.686609
-0.633631 -1.218143
-0.517043 -1.662140
-1.083941 -1.353642
-1.099374 -1.572668
-1.012836 -1.692391
-1.378088 -1.965078
-1.507325 -1.710878
-1.755362 -1.659778
-2.346904 -1.798643
-2.288941 -1.746920
-2.249795 -1.526195
-2.440193 -1.120918
-2.606616 -0.853490
-2.780549 -1.296959
-2.947027 -0.392722
-3.250266 -0.258528
-3.044184 -0.239215
-2.684746 0.406074
-3.005501 0.077751
-2.693656 0.215662
-3.336133 0.983026
-2.772143 0.470159
-2.778119 1.077852
-2.303049 0.972436
-2.350825 0.782043
-2.059159 1.232368
-2.273744 1.114142
-2.002064 1.681240
-1.700896 1.618584
-1.532815 0.942051
-0.978852 1.366411
-1.298628 1.654847
-0.931296 1.061465
-1.024370 1.260393
-0.942571 0.911107
-0.610474 0.829214
-0.463990 0.777378
-0.163122 0.694686
-0.351642 0.318228
-0.415805 0.111684
-0.710176 0.018353
-0.572401 0.018926
-0.446394 -0.091024
-0.397663 -0.581867
-0.838556 -0.700274
-0.805523 -0.490804
-1.363334 -0.787193
-0.905738 -0.781923
-0.931451 -0.949117
-1.433781 -0.654794
-1.691740 -1.281644
-1.719474 -0.519148
-2.259973 -0.951413
-2.054996 -0.912273
-2.577387 -0.453096
-2.233825 -0.661848
-2.305874 -0.670557
-2.579018 -0.294366
-2.515780 -0.109548
-2.932970 -0.021089
-2.640186 0.099661
-2.646439 0.410057
-2.309312 0.175360
-2.148141 0.816860
-2.385307 1.038757
-2.520751 0.911410
-2.437434 0.570890
-2.482307 0.884719
-2.022413 1.549982
-2.191872 1.025119
-1.973578 1.068190
-1.746752 1.029244
-1.508605 1.115035
-1.329881 1.003748
-1.231377 0.874651
-1.248655 0.854634
-1.259594 1.209493
-0.963782 0.505434
-0.809843 0.591915
-0.987846 0.575196
-0.939703 0.729006
-0.386399 0.507070
-0.745760 0.162523
-0.741243 -0.110767
-0.622879 -0.216705
-0.940491 -0.286484
-1.115852 -0.078801
-1.493443 -0.003933
-1.374460 -0.253059
-1.340149 -0.792986
-1.317111 -0.341363
-1.865749 -0.415485
-1.435472 -0.446404
-2.275099 -0.458659
-2.056958 -0.319407
-2.492885 -0.805956
-2.741333 -0.253931
-2.405601 0.111557
-2.958383 0.048652
-2.583594 0.256504
-2.771961 0.415012
-2.755800 0.538542
-2.962568 0.484976
-2.848980 0.872677
-2.817280 1.262445
-2.834252 0.919522
-2.724855 1.484510
-2.120470 1.441796
-2.632107 1.891581
-2.136749 1.633698
-2.365999 1.929794
-2.139226 2.016812
-2.066868 2.255106
-1.356597 2.080862
-1.570343 2.232807
-1.220135 2.095351
-1.251969 1.908716
-0.891635 1.983137
-0.609978 1.917490
-0.216558 1.750889
-0.545641 1.733694
-0.083045 1.257758
-0.294590 1.193715
-0.248160 1.164234
-0.211602 1.356909
-0.185267 0.757574
-0.210938 0.675346
-0.332677 0.809881
-0.564537 0.239425
-0.476617 0.137109
-0.917350 -0.080725
-0.592428 0.320736
-0.683251 0.037367
-0.476502 0.072980
-1.573028 -0.318748
-1.006722 -0.321106
-1.464269 -0.200491
-1.275311 0.239530
-1.600063 -0.365113
-1.551579 0.089808
-1.354414 -0.260479
-1.802940 0.386485
-1.793939 0.022243
-1.724931 0.693133
-2.093884 0.622772
-1.627266 0.838515
-2.048256 0.643506
-1.535862 0.783653
-1.944806 0.886512
-2.017015 1.084805
-1.333963 1.292282
-1.627620 1.689066
-1.796098 1.196398
-1.210980 1.151361
-1.181356 1.256839
-1.108967 1.516483
-1.184916 1.566332
-0.341754 1.479365
-0.518923 1.242238
-0.430234 0.928254
-0.047281 1.011202
-0.174162 0.986971
-0.391568 1.052707
-0.084218 1.013922
0.025483 0.623498
-0.165747 0.508870
-0.362980 0.070710
-0.126157 0.416806
-0.339587 -0.209476
-0.079046 -0.117647
-0.327996 -0.634987
-0.747314 -0.657448
-0.452920 -0.389151
-0.845343 -0.624205
-1.132224 -0.967195
-1.183077 -0.225782
-1.156006 -0.804503
-1.510527 -0.789110
-1.702269 -1.099261
-1.708897 -0.590819
-1.920157 -0.555851
-2.293695 -0.577626
-2.464416 -0.527600
-2.347494 -0.182898
-2.367195 0.144890
-2.652205 -0.063678
-2.685442 0.220795
-3.132629 0.267454
-2.580849 0.512341
-2.903618 1.024425
-2.938929 0.828102
-2.903615 1.515126
-2.376143 1.220800
-2.353615 1.367200
-1.746330 1.947801
-2.112721 1.578391
-1.709192 1.952046
-1.868054 2.219045
-1.551289 1.979689
-1.811511 1.351554
-1.436762 1.937185
-0.582500 2.336850
-0.683337 1.924982
-0.851540 2.153702
-0.304816 1.394221
-0.545932 1.872754
-1.004836 1.539663
-0.196801 1.079354
-0.272777 1.765838
-0.225937 0.785308
-0.302695 1.127560
-0.188106 0.437133
-0.163715 0.441180
-0.530181 0.363614
-0.410672 0.328534
-0.606104 0.040939
-0.285526 0.096522
-0.723829 -0.379565
-0.944396 0.101843
-1.085275 -0.214712
-1.086850 0.130436
-1.470939 0.007960
-1.461636 -0.178002
-1.473026 -0.297939
-1.698311 -0.186576
-1.553052 0.040275
-2.188248 0.242360
-1.847955 0.545806
-2.169649 0.582222
-2.196762 0.039820
-2.495936 0.228797
-1.969253 0.700983
-2.237601 1.051822
-2.125579 1.184369
-2.334146 1.568999
-1.656475 1.290134
-1.938665 1.349026
-2.127299 1.465750
-2.095298 1.799095
-1.659789 1.904521
-1.694150 1.478806
-1.296648 1.855428
-1.216445 1.971966
-1.098054 1.871099
-0.981426 1.697707
-0.876119 1.939002
-0.855559 1.475916
-0.855451 1.774437
-0.655525 1.492032
-0.199818 1.114403
-0.674820 1.445303
-0.322279 1.031502
-0.314737 0.953802
-0.249005 0.819320
-0.473698 0.553639
-0.498729 0.721638
-0.661488 0.255913
-0.300883 0.116174
-0.664829 0.278996
-0.552082 0.171008
-0.839896 -0.106546
-0.464811 0.119985
-1.217831 0.026596
-1.319045 -0.018213
-1.361892 -0.011489
-1.330494 0.257135
-1.254545 0.080608
-1.440652 0.107424
-1.870564 0.232151
-1.472935 0.492057
-1.710312 0.024417
-2.164488 1.067893
-2.094553 0.895920
-1.556210 1.334529
-1.882042 0.651363
-1.827384 0.798568
-1.673087 0.603427
-1.597764 1.410290
-1.186604 1.205337
-1.317215 1.265683
-0.951383 1.366615
-1.280288 1.678116
-0.718739 1.481158
-1.118990 1.496370
-0.724429 1.286603
-1.118097 1.418128
-0.472255 1.587753
-0.195633 1.248642
-0.103412 1.001852
-0.560825 1.261321
-0.289382 0.821272
-0.337524 1.129387
0.281576 0.638361
0.203261 0.632893
-0.113463 0.013413
-0.007509 -0.077439
0.111070 -0.392223
-0.240429 -0.278095
-0.370894 -0.367506
-0.498655 -0.222403
-0.293046 -0.669031
-0.629595 -0.374627
-0.964210 -0.453987
-1.308511 -0.952088
-1.312528 -0.713417
-1.657213 -0.676686
-1.631696 -0.744430
-1.922477 -0.694277
-1.673477 -0.901513
-2.483981 -0.658292
-2.316913 -0.154939
-2.502177 0.048603
-2.650485 -0.066367
-2.419538 0.509211
-2.230681 0.292098
-2.638917 0.003590
-2.879500 0.818835
-2.620074 1.109391
-3.119039 1.416544
-2.623662 1.354434
-2.440284 1.557958
-2.209295 1.355915
-2.351438 1.892824
-2.451902 1.602868
-2.111660 2.006455
-1.740943 1.843047
-1.439776 2.502039
-1.653160 1.751237
-1.373888 1.896388
-1.102124 1.872876
-0.850326 1.878935
-0.597424 1.430189
-0.276224 1.783831
-0.409523 1.388497
-0.514138 1.388908
0.043305 1.222701
0.092485 1.368561
-0.049235 0.550664
0.197834 0.717299
-0.083858 0.291095
-0.360721 0.532252
-0.296327 -0.110887
-0.488693 0.198392
-0.631716 -0.560594
-0.607888 -0.082448
-0.523874 -0.550050
-0.849397 -0.550091
-1.165380 -0.890301
-1.526032 -0.324339
-2.084263 -0.689407
-2.091569 -0.080338
-2.013365 -0.623657
-2.784113 -0.399635
-2.603108 -0.487641
-3.021121 -0.353535
-2.902247 0.026723
-3.011348 0.145472
-2.917898 0.139498
-3.567515 0.491457
-3.133980 0.768538
-3.467894 0.532143
-3.479880 0.839384
-3.689122 1.659737
-2.854829 1.683452
-3.181081 1.821296
-2.817372 1.617664
-2.600931 1.907715
-2.902776 2.121885
-2.429370 2.449414
-2.330806 2.741703
-2.473610 2.539667
-1.557361 2.458092
-2.017485 2.825470
-1.912246 2.685852
-2.014785 2.660317
-1.017008 2.768997
-1.000992 2.557362
-1.158016 2.225607
-1.060205 1.754571
-0.981703 1.984637
-1.133601 1.690934
-0.679250 1.880973
-0.622819 1.814552
-0.372890 1.969660
-0.760182 1.432850
-0.807112 1.292134
-0.916575 0.795785
-1.065345 1.543314
-0.781226 1.001605
-1.013437 1.293582
-0.678294 0.757349
-1.551744 1.156991
-1.334365 0.778309
-1.624251 1.013058
-1.660110 1.368452
-1.575636 1.108115
-1.793833 1.312961
-2.013479 1.496410
-2.466190 1.038428
-2.709471 1.141944
-2.607757 1.580031
-1.976393 1.703720
-2.088147 2.107721
-1.630797 2.148476
-1.717099 2.419283
-2.102112 2.238801
-1.655493 2.069769
-2.195667 2.913826
-1.773619 2.639105
-1.720243 2.762900
-1.164104 2.323673
-1.377313 2.530997
-0.644613 2.556524
-0.890342 2.802289
-0.375729 2.790114
-0.549642 2.389630
0.286377 2.361025
0.042183 2.126561
-0.005187 2.487212
0.059719 1.711939
0.298942 1.720150
0.321389 1.951132
0.568202 1.376667
0.202980 1.089741
0.351237 1.052557
-0.081488 0.901930
0.076965 0.807493
-0.039287 0.465553
0.191272 0.545938
-0.549533 0.019710
-0.316314 0.040157
-0.860843 0.082204
-0.836246 0.078407
-1.289281 0.062104
-0.904883 0.222001
-1.413632 0.279996
-1.209203 0.440898
-1.899064 0.183949
-2.430999 0.835953
-2.477267 0.789538
-1.823355 1.507554
-2.203181 0.965620
-2.352555 1.212323
-2.524112 1.058497
-2.622599 1.964811
-2.290273 2.065733
-2.166418 2.455603
-2.302167 2.336233
-2.483788 2.627853
-2.037230 2.185343
-1.878739 3.096587
-1.652044 2.375969
-1.836072 3.043796
-1.400470 3.364130
-1.106175 3.593261
-0.810333 3.092579
-0.191449 3.311022
-0.649366 3.082134
-0.411544 3.349829
0.435258 3.199312
0.368789 2.618953
0.586663 2.254353
0.822199 2.483608
1.229916 2.334896
0.383914 1.986649
1.269045 1.830249
0.866675 1.471289
1.271716 1.193570
1.079845 0.813055
1.257956 0.712516
0.281680 0.894770
0.614002 0.086857
0.474365 0.065617
0.472903 -0.417950
0.024862 -0.641445
0.115583 -0.317636
-0.464921 -0.734770
-0.642933 -0.098602
-0.628028 -0.402021
-0.850632 -0.387859
-1.364601 -0.622627
-1.000500 -0.593756
-1.980993 -0.537112
-1.990158 -0.010324
-2.683515 0.011702
-2.088094 0.470186
-2.545047 0.367630
-2.390840 0.376614
-2.948849 0.410694
-2.635224 1.133951
-2.584476 1.030026
-2.580027 1.834853
-2.933928 1.294119
-2.465156 1.883108
-2.331664 1.292988
-2.105814 2.320321
-2.395613 2.578801
-2.025870 2.797336
-1.520997 2.403202
-1.343773 2.749844
-1.469109 2.218878
-1.216175 2.734621
-0.931050 2.795294
-0.991958 2.327307
-0.969222 2.369141
-0.167700 2.374234
-0.308036 2.165292
-0.679650 2.296402
0.013611 2.185033
-0.710268 1.980442
-0.012949 1.458299
0.052068 1.837519
-0.056055 1.265247
-0.121218 1.331837
-0.306989 0.919664
-0.810067 0.990229
0.120709 0.827428
-0.914095 1.212036
-0.717677 0.745672
-0.879393 0.657972
-1.099431 0.211365
-1.281054 0.071059
-1.329301 0.659348
-1.534331 0.658031
-1.389428 0.903211
-1.856976 0.674010
-1.773859 0.545529
-2.276588 1.251490
-1.411521 0.987839
-2.127974 1.062313
-2.270325 1.753723
-2.244052 1.907569
-2.019422 1.925318
-2.128788 2.162139
-2.016315 2.310828
-2.296327 2.582307
-1.108297 2.428999
-1.726422 2.391756
-1.217933 2.486566
-1.157103 2.421758
-1.074315 2.824588
-0.940037 2.637974
-0.773120 2.998925
-0.583072 2.015626
-0.151560 2.785133
-0.266718 2.210325
-0.802730 2.500249
-0.320261 2.009249
0.075710 1.824331
-0.435837 1.785389
0.309075 1.667545
0.091715 1.205408
0.195212 1.036298
-0.105158 0.899484
0.181547 1.215993
-0.212956 0.777319
-0.435622 0.785785
-0.384342 0.290965
-0.202926 -0.070631
-0.735418 -0.086311
-1.519929 0.645465
-1.049691 0.462881
-1.597546 0.380389
-1.326584 0.052531
-1.360722 0.233261
-1.968421 -0.103930
-2.911115 0.974486
-2.198328 0.792062
-2.119863 1.073128
-2.234328 1.274264
-2.589272 1.051864
-2.525550 1.345654
-3.107146 2.085669
-2.897901 1.812947
-2.475713 2.516350
-2.302983 2.763881
-2.479074 3.097863
-1.780649 2.576991
-2.053189 2.905769
-1.671169 2.718204
-2.306930 3.585708
-1.508141 3.458096
-1.423354 3.784531
-0.659661 3.691435
-0.551225 3.136441
-0.511101 3.561754
-1.181330 3.558463
-0.168221 3.715457
0.098229 3.466817
0.663122 2.844415
0.115221 2.438231
0.144168 2.938518
0.278293 2.418708
0.504112 2.200466
0.889417 2.155105
0.905426 1.692936
1.094068 1.061355
0.716741 0.969957
0.431957 0.956576
0.144517 0.689408
0.177589 0.825258
0.353089 0.760022
0.023727 -0.022041
-0.460492 0.124296
-0.893277 -0.037831
-1.016349 0.232974
-1.437280 0.155788
-0.882629 0.384988
-1.519024 0.095206
-1.891151 0.869946
-2.111542 -0.150184
-2.425218 0.866489
-2.073938 0.821108
-2.725349 1.439517
-2.200029 1.239230
-2.223394 1.951865
-2.257205 1.467858
-2.769435 2.145261
-2.275711 2.274823
-2.829637 2.520863
-2.339429 2.653631
-2.171933 2.908185
-1.774747 2.511702
-2.274763 3.424031
-1.220858 2.657864
-1.409705 3.416277
-1.001961 3.062258
-0.810997 3.217137
-0.288192 2.919761
-0.776221 2.843765
-1.103590 2.593223
-1.104347 2.747208
0.154067 2.756416
-0.531251 3.107036
0.676965 2.488507
0.317199 2.300873
-0.208394 1.253492
-0.195712 2.373364
-0.264827 1.889053
-0.057077 1.821007
-0.205682 0.864351
-0.038378 0.782514
-0.365045 0.217781
-1.226770 0.997122
-1.552350 -0.075041
-1.120758 0.006469
-1.568392 -0.003847
-1.967029 -0.298218
-1.917180 0.057112
-2.434042 0.319899
-2.373471 0.504733
-3.186669 1.069336
-3.180914 0.300034
-3.887977 0.844577
-3.545818 0.735421
-4.016264 1.639080
-3.770932 1.689498
-4.061046 2.088043
-3.873026 2.569227
-3.800826 2.590425
-3.936110 2.866334
-3.785256 3.383504
-3.611670 4.208990
-4.102521 3.859268
-3.240079 5.321571
-3.867511 4.328086
-2.449807 4.776828
-2.325197 4.571069
-2.906697 5.114499
-2.529288 4.786740
-1.885575 5.983802
-1.291807 4.562272
-1.383365 5.830589
-0.231741 5.160119
-0.895770 5.447552
-0.095511 5.344168
-0.173900 5.576187
0.046079 4.589298
0.068158 4.809434
1.066428 4.128716
0.762821 4.568676
0.698631 3.956696
0.805761 3.469693
0.907640 2.778400
0.579407 2.818314
0.633744 2.766032
0.076540 2.527816
0.103905 1.924023
-0.542826 2.822411
-0.392184 2.049771
-1.024283 2.504854
-0.243920 2.525813
-1.863042 2.074454
-0.902198 2.425492
-1.264904 3.114882
-1.169841 2.163952
-2.136141 2.772771
-1.202135 2.765316
-2.161765 3.151450
-1.525174 3.000214
-2.380877 3.930925
-2.249545 3.960503
-2.136273 3.841288
-1.505344 4.320619
-1.987008 4.320377
-0.915836 4.297989
-2.385564 4.334346
-1.685746 4.543145
-1.655108 5.127548
-1.090318 5.847489
-0.924088 5.517679
0.660557 5.152161
-0.054382 4.956619
0.542227 5.054991
-0.113147 4.628074
0.554959 5.002695
0.491615 4.324493
1.769413 4.529930
1.412030 4.054724
1.661431 3.809857
1.320104 3.319868
1.912390 3.809917
1.591053 3.230292
2.165442 3.113637
1.378208 1.985005
1.622141 2.423549
1.543167 1.458391
0.235618 2.125841
1.126186 0.775663
0.305898 0.857717
0.854360 0.715478
0.094419 1.444826
-0.122257 1.383932
-0.918400 1.448423
-0.372530 0.647320
-1.460752 1.564591
-1.383847 1.306021
-1.622792 1.063760
-1.324199 1.315641
-1.849981 2.263757
-1.937401 2.721971
-3.075593 3.504119
-2.204643 3.281860
-3.101762 3.945817
-2.128907 3.677886
-3.608369 4.068696
-2.050889 5.212931
-2.651261 4.927880
-1.709002 5.452722
-1.799023 5.729436
-1.024231 5.236771
-1.508530 5.571474
-0.520896 6.029501
-1.105465 5.983299
0.649248 6.576698
0.455816 6.276226
1.604912 5.439258
1.968904 4.819828
2.315601 5.044645
2.483562 5.234050
2.744605 4.489652
2.414155 4.550022
3.709356 4.348419
2.981056 3.344927
3.478393 3.100189
3.210071 2.794675
3.221827 2.655013
1.916664 1.719515
3.136029 1.132430
2.258837 0.083956
2.204012 0.561468
1.180707 -0.388935
1.010789 -0.442622
1.175985 -1.282641
0.961163 -0.333402
-0.023808 -1.047400
-0.171570 -0.969347
-1.324660 -1.396792
-2.327327 0.301050
-2.317228 -1.206681
-2.436993 -0.377843
-1.752774 -0.450128
-3.952750 0.596608
-3.816566 0.191151
-5.059031 1.962786
-4.520687 1.131043
-4.243591 2.769813
-4.966152 3.520079
-4.045334 4.040576
-4.188487 3.768616
-5.104361 5.071377
-3.781990 4.216539
-4.892750 5.594830
-3.204958 6.024227
-3.517207 7.568254
-3.204564 6.980077
-2.613312 7.009970
-1.379554 5.338239
-1.504195 7.535303
-1.172319 5.541343
0.979402 7.989252
0.518984 6.098232
0.014775 6.265615
0.859427 5.165143
0.878719 5.444056
1.201736 6.645505
1.810549 6.569203
1.749397 4.893015
1.621615 3.989639
2.709125 3.995294
1.097518 4.078479
3.131293 3.616378
2.274318 3.221167
1.676223 2.493518
1.650482 1.833416
1.646665 1.469915
0.388527 1.077423
0.684909 2.511583
-0.118003 0.258888
-0.776676 1.864725
-2.234957 0.067190
-0.556068 0.324553
-2.443279 0.777932
-3.163127 -0.130675
-2.590700 1.657396
-2.811480 1.717853
-3.484692 1.668366
-1.465681 2.749680
-4.127599 2.564974
-3.770444 3.838014
-4.908050 3.936551
-5.084981 3.849048
-3.123857 5.854902
-2.791689 5.058421
-3.158948 5.761225
-1.573718 5.552991
-2.707620 6.198366
-3.111821 7.975042
-3.399898 5.799917
-1.508142 10.565519
-2.345165 5.929657
-1.057103 8.286822
-1.688933 8.347673
-0.607698 7.018723
0.518477 7.732777
0.375649 8.208867
-0.400847 6.391492
-0.454175 8.195958
0.267009 4.708064
-0.223998 6.745394
2.123090 5.039603
2.104278 6.472279
3.467475 4.250256
2.621769 4.750483
4.024476 3.785380
0.789566 4.035931
1.559702 4.088176
-0.923620 4.909141
0.431926 2.662207
-0.485071 2.332465
1.191826 1.931467
-1.357487 0.954404
-0.007905 2.240270
-0.424306 3.396479
-0.960409 4.644574
-3.114525 3.139156
-2.518422 3.843717
-3.079124 4.081157
-2.991393 4.795827
-4.161782 8.343850
-4.389707 5.165478
-2.120672 6.314683
-3.052309 7.732479
-3.867075 6.162223
-1.535660 6.895057
-4.694929 7.613070
-2.351362 8.534013
-3.983783 8.220575
-0.379266 9.542884
0.797808 9.376550
0.367728 10.768226
0.173479 11.264374
0.222792 10.689025
1.671860 10.615165
3.564191 14.181203
1.988721 7.883164
4.813574 10.695490
3.410908 8.694703
4.569055 11.124689
6.304555 8.426609
6.366325 9.488241
8.706644 6.985842
4.500735 4.706687
1.999680 4.018255
4.916059 5.476016
3.232328 0.375299
6.343641 6.578026
3.617586 -3.254649
7.580848 -0.133000
3.814851 -1.975764
3.435532 -1.815506
0.233373 -1.483996
1.190653 -4.546861
1.887353 -0.752121
0.584376 -1.350595
-3.069312 -3.853485
2.020390 -3.493262
-0.804382 -2.883497
-3.850709 0.560488
-4.206346 1.531324
-4.751983 -0.578290
-6.446086 3.487294
-9.393644 1.510069
-6.803308 2.202115
-13.010747 5.320347
-7.676194 3.778145
-9.710545 7.246854
-8.210132 4.918527
-10.702933 8.581932
-11.060024 7.872744
-11.608535 12.934846
-9.960101 16.739627
-10.700289 14.475815
-6.973121 13.473816
-3.604519 7.789051
-2.837030 17.402514
-10.139834 16.512743
0.994395 20.004092
-1.533146 16.834857
-0.064641 22.767731
-3.211983 14.566532
-0.620568 13.875738
1.530173 13.390256
0.034915 15.424257
1.170675 11.444981
4.657349 10.189496
3.251686 14.333813
8.835943 12.235659
1.930381 6.406311
8.402947 10.650849
5.570000 7.924336
5.375865 14.140723
0.175630 11.749367
7.281057 5.364075
0.336572 4.110124
-0.538708 7.091605
-0.785297 3.713377
1.633911 5.962731
2.615911 5.753620
4.711325 5.161862
-2.514433 4.644726
-0.378640 4.206550
-5.009889 9.034994
-4.411503 6.016447
2.680754 11.109682
-7.440787 13.070122
-3.118152 7.312974
-13.204913 14.704399
-5.418259 15.616654
-14.165329 23.396707
-2.590961 18.149462
-8.043000 22.551050
-6.019902 17.691840
-13.921579 23.874285
-9.902143 15.430738
-10.403291 21.497833
2.056723 21.847461
-8.735303 24.300156
5.015409 19.481903
-0.510235 22.978854
11.127778 28.692354
-11.239380 22.792538
-12.521358 14.458890
4.321533 23.775796
2.098340 17.985492
0.433610 22.795464
15.639465 13.848827
0.099265 12.123074
4.437103 22.059409
5.039068 26.762918
7.730246 11.091418
11.055180 14.674428
11.513385 9.331853
6.275030 8.674409
2.332488 28.165589
-11.378660 16.030181
4.652808 13.301225
7.155388 14.700772
-2.113799 23.258496
-20.940794 10.084734
-8.847281 11.897698
5.750324 20.757782
-12.660591 44.360448
-21.394363 18.235518
-2.839493 -10.329929
10.621176 24.338413
-10.638961 37.104781
-25.295830 22.348742
-10.409988 57.345871
-25.563057 28.737848
-17.001290 47.232596
-23.486545 40.988399
-17.552328 69.098428
-22.153712 44.399778
2.292343 50.332729
2.853128 64.891620
-16.829547 122.527167
8.854627 36.120455
26.008992 20.994860
32.805109 75.840507
18.401239 53.016692
39.310372 106.765254
20.003725 151.089638
72.982081 50.712248
5.576563 78.938603
11.399544 61.351479
38.819318 87.210703
18.498941 59.380320
107.551376 87.333195
106.961565 62.490793
103.588334 77.533172
133.727934 33.520732
54.107308 81.031850
150.796755 -47.474631
24.574932 -42.736089
90.414671 152.719392
229.601914 71.980624
285.236338 6.732066
-482.380940 -8.178853
-9.716317 5.000400
-45.448117 -46.211437
-0.551096 190.013065
220.048860 -27.718283
92.041417 436.594647
460.306409 52.839384
275.433681 -156.733105
-5003.023417 27.697466
