1805.250000 2701.583333
359.195627 184.381972
-260.063112 94.054289
-1.594161 75.436302
-0.422754 -14.608120
-62.431264 2.350963
-17.311311 30.997530
-1.160556 7.649335
6.812222 6.853569
-6.383478 8.717160
0.115939 -4.169566
-10.536043 -10.009723
-2.901598 0.173620
-7.107781 18.319862
-2.377275 -5.564849
8.528923 0.650071
-1.283611 4.137987
0.344404 -5.815899
-1.543272 -0.595295
-1.824855 2.265489
0.983816 0.594152
0.967638 0.908728
1.143002 -0.106240
-1.042754 1.801258
-0.760748 1.211881
0.362419 0.308008
1.520913 -0.292977
1.006261 0.110368
-0.544303 -1.896328
-4.620203 0.780522
-1.037360 -1.321358
3.982762 3.889826
-1.173537 1.182694
3.516315 -2.269610
0.767197 -0.591593
-1.902655 -2.558152
-0.913613 1.301960
-1.670556 1.447486
1.231552 1.518723
2.836276 0.414079
0.724178 1.280689
-1.406469 -2.778979
1.184697 -1.504761
-2.380558 1.016607
-0.065429 1.098788
-0.287275 0.212150
1.114420 0.420406
1.701153 -0.285749
1.445272 -0.523424
-0.841388 -0.284276
-0.345911 -0.130779
0.590841 0.610224
-0.185462 0.954502
0.476693 0.164624
0.997351 -0.942217
1.575452 -1.008157
-0.650361 0.168926
-0.923269 -0.339081
0.199710 0.975512
-0.266413 -0.168956
1.419730 0.285930
0.605366 0.128570
0.117539 -1.218420
0.049589 -0.604877
-0.205202 -0.302854
-0.169962 0.923636
0.352001 0.469302
0.916040 0.838503
0.401636 -0.513644
-0.298909 -0.862711
-0.505435 -0.774418
-0.138720 0.547481
-0.061019 0.255055
1.014058 0.039780
1.038859 -0.164685
0.324576 -0.298773
-0.303582 -0.301784
-0.724370 -0.823870
-0.015131 -0.049637
0.508337 0.761468
0.284522 0.793195
0.710327 0.201897
1.009088 -0.358200
-0.433964 -0.552612
-1.127727 -0.300453
-0.750266 0.400980
-0.140031 0.359910
0.564358 0.637353
0.530382 -0.140848
-0.018626 -0.383085
0.056726 -0.576176
-0.682915 -0.500665
-0.084112 0.230800
-0.016064 0.693798
1.095567 0.035056
0.850251 -0.435225
0.306918 -0.781597
-0.053811 -1.155707
-0.291796 0.357616
-0.587421 0.328175
-0.107429 0.399529
0.527996 0.573708
0.523282 -0.357998
0.177530 -0.213567
-0.688600 -0.481207
-0.073372 -0.420798
-0.220606 0.478179
0.232158 0.578614
0.139397 -0.348077
0.605461 -0.291260
0.304209 -0.059231
-0.413369 -0.381998
-0.321518 -0.077772
-0.067943 -0.231609
-0.207396 0.234644
0.500854 0.336315
0.700177 -0.015304
-0.157303 -0.278047
0.439215 -0.020792
0.007358 0.003902
-0.420438 0.294220
0.311496 0.300624
0.848483 0.357973
0.361951 0.122862
-0.230455 -0.476905
-0.076038 -0.461718
-0.866348 0.032493
-0.480990 -0.135283
0.474503 0.442815
0.989409 0.378906
0.514759 -0.431286
-0.568205 -0.480845
0.124442 -0.203976
-0.411654 -0.252536
-0.190792 0.232088
0.331972 0.128722
0.844842 -0.221923
0.633701 -0.825203
-0.022698 -0.585062
-0.498074 -0.315328
-0.072358 0.127728
-0.265818 0.981192
0.573140 0.345371
0.052339 0.203931
-0.208333 -0.791667
-0.063850 -0.397342
-0.239365 -0.122640
-0.531193 0.261000
-0.282550 0.634327
0.198551 0.049218
-0.007633 0.350758
0.377647 0.104599
0.012846 -0.374711
-0.113861 0.094228
0.067848 0.034207
-0.330094 -0.089760
0.206846 0.605608
0.508362 -0.110507
0.269385 -0.729928
-0.164334 0.130713
-0.149161 -0.377500
-0.286478 -0.051060
-0.053758 0.320194
-0.111937 0.112468
0.149883 0.298737
0.324312 -0.162371
-0.299547 -0.492565
-0.640681 -0.220428
-0.121180 0.375167
-0.141972 0.217989
0.361831 0.131557
0.156213 0.037823
0.521142 -0.717502
-0.126246 -0.141617
-0.379235 -0.232776
-0.350751 0.358564
0.300540 0.403616
0.468510 0.164479
0.114770 0.210094
0.061690 -0.650117
-0.544631 -0.367868
-0.439426 0.366642
-0.424261 -0.040762
0.392183 0.350896
0.419950 0.019789
0.472361 -0.164864
0.268637 -0.468839
-0.144941 -0.244228
-0.193966 -0.252016
-0.222502 0.321961
0.228953 0.562255
0.336645 0.218035
-0.295753 -0.140251
-0.196681 -0.375663
-0.129207 -0.678672
-0.017856 -0.262651
-0.320500 0.611180
-0.119980 0.168724
0.467488 0.251598
0.465305 -0.057601
0.059204 -0.030903
-0.182620 -0.017662
0.120295 -0.017401
0.106287 0.562653
0.163142 0.337095
0.005625 0.536038
0.298432 -0.267693
0.028166 -0.245014
-0.160412 -0.205678
-0.738205 0.395739
-0.157874 -0.180663
0.172999 0.096657
0.384163 0.022655
0.548403 -0.220029
-0.046286 -0.780338
-0.410249 -0.363507
-0.227686 -0.033650
0.420965 0.132484
0.135932 0.096274
0.416308 -0.104723
0.299058 -0.097576
0.150741 -0.178921
-0.193396 -0.197063
-0.344349 0.234898
0.216017 0.631798
0.507157 0.205647
0.184168 0.214392
0.366202 -0.557769
-0.015796 -0.441805
-0.640796 0.062320
-0.531498 -0.105366
-0.148184 0.144452
-0.019603 0.105885
0.143767 0.058541
-0.279894 -0.600305
-0.124404 -0.472458
-0.531358 -0.241504
-0.323429 0.102942
-0.184475 0.184887
0.105969 0.075282
-0.070272 -0.018243
0.487214 -0.239632
-0.659537 -0.161512
-0.525327 -0.323548
-0.309221 0.111806
-0.007342 0.215400
0.200948 0.207593
0.149933 -0.368475
0.208375 -0.313574
-0.126466 -0.669874
-0.146083 -0.079726
-0.140971 0.424809
-0.070182 0.095429
0.260732 0.289035
0.362528 -0.455288
-0.036466 -0.346830
-0.235663 -0.413069
-0.398328 -0.255215
0.006549 0.468027
0.031098 -0.126019
0.294600 0.137718
0.614204 -0.038215
0.175342 -0.812428
-0.298011 0.014069
0.054259 -0.079717
-0.185126 0.168415
0.118926 0.325072
0.371604 -0.081469
0.353789 -0.344130
0.040078 -0.293738
-0.165387 0.174768
-0.453551 -0.041799
0.029686 0.500276
-0.004664 0.447528
0.278184 0.133938
0.215521 -0.253448
-0.149016 -0.478006
0.099995 -0.290329
-0.251413 -0.090267
0.046942 0.202764
0.066206 0.015992
0.372409 0.077549
0.372218 -0.186290
0.088008 -0.491467
-0.318604 -0.402658
-0.240053 0.253459
-0.064187 0.397896
0.427547 0.193136
0.083333 0.000000
0.457513 -0.466118
-0.248339 -0.394741
-0.255517 -0.188055
-0.196508 0.207135
-0.143590 0.099314
0.345825 0.362252
0.281389 -0.065911
0.384564 -0.431341
-0.051801 -0.630042
-0.678651 -0.185558
-0.040819 0.393966
-0.113146 0.331907
-0.064743 0.131795
0.389424 -0.050479
0.050017 -0.357837
-0.167798 -0.612679
-0.219454 0.247821
0.105196 -0.130215
0.148303 0.242055
0.477569 0.155702
0.498320 -0.093067
0.024126 -0.416909
-0.191510 -0.297859
-0.042083 0.084967
-0.289300 -0.222375
0.191162 0.524717
0.269762 0.119697
0.230916 -0.103916
0.131913 -0.131998
0.011835 -0.530716
-0.368615 0.386860
-0.185535 0.067827
0.088136 0.127747
0.413741 0.326758
0.236769 -0.394972
-0.082199 -0.216892
-0.018283 -0.517882
-0.229530 -0.140033
0.067665 0.707263
-0.025675 0.457502
0.192049 0.197468
0.443870 -0.222736
0.027223 -0.249514
-0.584354 0.108142
-0.363677 -0.022631
-0.462009 0.246457
0.227023 0.370414
0.337420 0.013061
0.398244 -0.332166
-0.096391 -0.543781
-0.284845 -0.436183
-0.285758 0.181610
-0.206860 0.201982
0.032745 0.122979
0.387975 -0.131707
0.211927 -0.539155
-0.162572 -0.596043
-0.356961 -0.446129
-0.406462 -0.272983
-0.377840 -0.180976
0.289781 0.021764
-0.102215 -0.412871
0.012340 -0.418326
-0.087526 -0.572058
-0.386467 -0.227238
-0.275074 -0.080223
-0.133367 0.129796
0.123085 0.249209
0.702456 -0.213156
0.146640 -0.688097
-0.120324 -0.422391
-0.355647 0.078278
-0.323000 0.054005
-0.189972 0.019044
0.170531 0.097082
0.087992 0.050486
0.024338 -0.379696
-0.338787 -0.282651
-0.771348 -0.092321
-0.557243 0.205135
-0.020930 -0.189329
0.064603 0.444151
-0.042526 -0.484505
0.061982 -0.467189
-0.306922 -0.877912
-0.473689 0.181842
-0.409388 0.289761
0.161528 0.327496
0.201673 0.081948
0.246051 -0.101768
0.224912 -0.201385
0.017118 -0.519046
-0.393740 -0.144606
-0.048336 0.359507
-0.240701 0.539394
-0.079247 -0.068082
0.328340 -0.561516
0.157924 -0.769323
-0.126640 -0.322568
-0.184814 -0.286117
-0.295181 -0.015833
-0.059217 0.569487
0.224210 0.044426
0.479350 -0.137778
0.038439 -0.255795
-0.780578 0.051007
-0.302253 0.018018
-0.603145 0.254633
0.082659 0.449982
0.112802 -0.272241
0.289053 -0.495584
-0.051489 -0.491524
-0.447404 -0.407785
-0.368707 -0.023797
-0.318106 0.068485
0.367334 0.580154
0.113213 -0.048614
0.290138 -0.400135
-0.068538 -0.455489
-0.526731 -0.007735
-0.523751 0.203396
0.010570 0.201437
0.007786 0.290851
0.226064 -0.044964
0.464629 -0.249105
-0.125068 -0.718898
-0.676814 -0.471049
-0.279019 0.425332
-0.067650 0.098239
-0.143621 0.134625
0.141112 -0.401898
0.161222 -0.122025
-0.504537 -0.410732
-0.399153 -0.497789
-0.866873 -0.047760
-0.256117 0.521330
0.297164 0.335620
0.108801 -0.004761
0.320705 -0.124183
0.029179 -0.669993
-0.303686 -0.495291
-0.072688 0.360514
-0.104161 0.466941
0.375000 0.041667
-0.043530 -0.248637
0.476109 -0.423629
-0.365500 -1.012627
-0.230178 -0.336478
0.102976 0.323672
-0.017290 0.011787
0.227549 0.206041
0.554800 -0.051317
0.109375 -0.423424
-0.463755 -0.894550
-0.895900 -0.079748
-0.735158 0.382882
-0.420995 0.442357
0.506805 -0.110267
0.499780 -0.477523
0.253365 -0.108836
-0.268255 -0.380266
-0.922379 -0.163720
-0.538960 0.365107
-0.229480 0.143479
0.360258 0.159982
0.404939 -0.511336
0.119214 -0.751857
-0.520967 -0.401290
-0.635848 0.103931
-0.685958 0.352932
0.000530 0.545379
0.903062 0.399890
0.286427 -0.293662
0.063537 -0.348786
-0.200514 -0.311448
-0.943696 -0.234256
-0.415836 0.267042
0.433475 0.552833
0.225528 -0.094557
0.373777 -0.550533
0.128474 -0.597249
-0.554079 -0.092212
-0.453729 -0.018593
-0.323051 0.427518
-0.036416 0.490569
0.622123 -0.125432
0.464833 0.042084
-0.343875 -0.678808
-0.153245 -0.769887
-0.393477 -0.183635
-0.259229 0.767004
0.234749 0.156597
0.255109 0.062664
0.402561 -0.625928
-0.415989 -0.579328
-0.657358 -0.297098
-1.345020 0.116725
-0.645468 0.803342
0.135406 0.843270
0.975374 0.176217
0.445950 -1.031350
-0.304866 -0.870970
-0.721043 -0.443553
-0.995311 -0.102732
-0.509022 0.555339
0.063289 0.387689
1.189373 -0.407739
0.841880 -0.899853
0.231363 -1.101061
-1.181665 -0.305866
-1.096279 0.513152
-0.436579 1.012406
0.688747 0.276301
1.086329 -0.091838
0.079801 -1.754671
-0.522314 -0.799683
-1.153376 -0.107148
-1.013739 0.792352
-0.884168 0.402607
0.474267 0.286219
0.761808 -0.796157
0.442854 -0.893194
-0.535462 -1.453857
-0.476468 -0.685883
-0.487585 0.478517
-0.599073 1.198916
0.505554 0.389860
1.440410 -0.817262
-0.257164 -0.516634
-1.116023 -0.878216
-1.269398 -0.133443
-1.039740 -0.092040
0.340286 1.044734
0.391330 1.180618
0.176606 -1.373513
0.288924 -1.270176
-2.229992 -0.550176
-2.114696 -1.687135
-0.952827 0.976367
0.120913 1.528606
0.731763 0.689705
1.959714 -0.906851
-1.196253 -0.659959
-0.665545 -3.031570
-1.779244 1.179955
-2.562254 1.714773
-0.032879 1.165786
2.331641 -0.320777
1.396054 -0.366926
-1.460781 -2.298059
-1.725176 -2.280018
-2.632737 0.164681
-1.663309 2.979092
-0.586967 3.395459
1.704178 -1.067782
1.598225 -1.790265
-0.112462 -3.465999
-3.253621 0.543960
-7.567305 -1.054289
-1.868127 1.794029
0.854046 4.835296
1.913554 -0.934413
2.556633 -3.686041
-1.995444 -2.977494
-6.869724 -7.231900
-2.967317 0.571475
-6.598601 9.697884
1.078836 -1.327519
12.082591 3.637238
-8.361980 0.275935
-0.736523 -12.402227
-3.720860 1.481553
-13.305818 3.576271
-9.421143 15.019207
-0.019663 -4.363511
9.171149 1.664050
-17.740650 6.027877
-5.762379 -5.357748
-21.121967 -12.443136
-13.774244 5.280660
-10.767853 32.804320
-10.891862 -27.360836
-47.301738 -8.074154
-48.737952 68.042770
-24.365652 -86.394736
-58.960888 -8.744119
-1494.484153 1162.574029
