2315.454368 2937.409490
207.593065 191.432811
-283.584292 70.907921
-83.639251 174.304168
1.453413 13.590823
-16.110249 -20.920073
17.961436 -8.595039
-5.094371 -15.186459
-11.936082 -5.171193
-17.477705 6.434388
8.901834 -1.052686
8.223739 22.346691
3.974918 -8.191060
16.912082 -10.463965
-9.517848 7.466925
-6.449826 -6.918763
-0.437906 5.401839
-3.884067 10.391301
7.750465 1.675208
6.539189 -1.464763
-2.184265 -4.057773
-0.366640 -5.277767
-3.488845 1.642111
-5.531969 4.167703
3.859392 3.028988
5.361712 3.469443
2.635169 -4.823698
4.240860 -3.401741
-6.446449 -0.884419
-2.718052 -3.105499
0.077468 6.337068
-1.224105 3.878005
7.088745 -3.001919
3.706887 1.426885
-2.316863 -3.841155
-1.265279 -4.717290
-2.882535 3.196215
-2.038918 2.788245
4.326727 1.153417
3.047451 1.819653
2.644540 -4.038003
2.060867 -2.477979
-4.804900 -0.923488
-0.821167 -0.622656
0.748189 5.373247
-0.223973 0.392226
5.156220 -0.758393
0.730256 -0.273692
-2.459095 -4.014018
-0.589976 -0.542661
-2.302280 3.735356
-0.536789 1.471895
4.003214 1.270591
1.695643 -0.385079
0.399696 -3.970374
-0.103941 -1.430518
-2.984197 -0.106979
-0.594965 0.714141
0.967949 3.741426
2.208428 -0.244094
3.855715 -2.343960
-0.479974 -0.951096
-1.556080 -2.665319
-0.769219 1.255420
-2.008244 2.252741
1.969203 0.344139
3.123546 1.421196
0.519593 -1.568746
0.724824 -3.522052
-1.067171 0.026141
-2.620071 0.926209
1.114942 1.129846
1.791383 2.797131
1.967692 -1.054948
2.329695 -1.860965
-1.758153 -1.096605
-1.082376 -1.749149
-0.853597 1.953026
-0.691291 1.539865
2.569503 0.305240
1.578952 0.400809
-0.175366 -2.134522
0.172445 -1.357361
-1.420817 1.084872
-1.040380 -0.143543
1.584725 1.570355
0.891915 1.271562
1.267668 -1.896614
1.158764 -1.118249
-1.373297 -1.135412
-0.694636 -0.807520
-0.009658 2.190998
-0.002518 0.921903
2.514490 -0.200430
1.247411 0.136813
-0.268640 -2.413509
0.096296 -0.869596
-1.595659 0.656425
-0.394518 0.952847
1.936158 1.652796
0.772569 0.031087
1.061885 -1.914659
0.016964 -0.902474
-1.855350 -0.949564
-0.296181 -0.122472
-0.020113 1.746652
0.396575 0.266127
2.174677 -0.428718
0.563589 -0.669997
-0.330799 -2.327769
-0.300393 -0.021011
-1.316424 0.919073
0.681151 0.381383
1.617429 1.515444
0.921298 -1.106388
0.897584 -1.569267
-0.794947 -0.305037
-2.174645 -0.630115
0.094492 0.382239
-0.149416 1.566180
0.883364 -0.528515
2.045889 -0.721071
-0.246629 -0.795306
-0.384788 -1.534220
-0.690073 0.598890
-0.913450 0.861177
1.463960 0.356895
1.037719 0.655578
0.527823 -1.366098
0.874805 -1.596014
-1.573482 -0.299777
-1.034515 0.053268
0.785484 1.833319
0.399696 1.122039
1.240448 -0.786986
1.423965 -0.653506
-1.019241 -1.173267
-0.045435 -1.004313
-0.769866 1.137650
-0.727558 0.675145
1.491876 0.306259
0.914534 0.011435
0.399489 -2.253642
0.015599 -1.152216
-1.577407 0.189664
-0.650214 0.002968
0.874864 1.495896
0.485414 0.532206
1.238090 -1.095437
0.383318 -0.320388
-1.300196 -1.148863
-0.429685 -0.181976
-0.419790 1.779418
-0.396576 0.611243
1.737655 0.463734
0.296484 -0.611044
0.094637 -2.072015
-0.180171 -0.371514
-1.293858 0.425207
0.326759 0.290740
0.783878 0.990647
0.429632 -0.393112
1.355593 -1.124961
-0.008621 -0.465484
-1.039045 -1.047802
-0.166109 0.167202
-0.635679 1.334276
0.919241 -0.175250
1.338029 0.225221
-0.207689 -0.326362
0.000256 -1.581788
-0.821152 0.068717
-1.251243 0.363172
0.552083 0.806338
0.511914 0.970648
0.725357 -0.760628
1.154436 -1.299659
-0.870431 -0.621111
-0.935939 -0.717303
0.287950 0.882720
-0.256596 0.857337
1.219881 -0.300401
1.155571 -0.306168
-0.471839 -1.265288
0.121806 -1.090413
-0.748851 0.564840
-0.845692 0.278619
1.205958 0.578373
0.610714 0.808191
0.476349 -1.488601
0.425353 -0.848064
-1.185008 -0.494211
-0.650304 -0.092299
0.034291 1.423833
0.252397 0.668462
1.320275 -0.632102
0.786543 -0.394634
-0.555010 -1.354005
-0.353183 -0.597392
-0.904468 0.984000
-0.171388 0.277490
0.793206 0.725632
0.396553 0.294131
0.581008 -1.425830
-0.276063 -0.609915
-1.336835 -0.122703
-0.189985 0.194406
0.285434 1.590610
0.540311 0.150316
1.022190 -0.435104
-0.018882 -0.502492
-0.583519 -1.174918
-0.473596 -0.316720
-0.817869 0.519820
0.392665 0.031816
1.601099 0.338366
0.312704 -0.518602
0.524331 -1.204409
-0.489037 0.338822
-1.199310 -0.103449
0.256561 0.261022
-0.039830 0.858782
0.568480 -0.570570
0.952943 -0.596258
-0.831970 -0.750960
-0.556317 -0.870153
0.052354 0.725127
-0.636986 0.631659
0.814354 0.095585
0.967734 0.345251
-0.423507 -0.909752
-0.124099 -0.982420
-0.797999 0.472158
-1.044472 0.049325
0.898666 0.483393
0.618770 0.738494
0.517168 -1.127672
0.418046 -0.590295
-0.579311 -0.281179
-0.484280 -0.441136
-0.384261 0.530713
0.136846 0.561829
0.998651 0.107479
0.984255 -0.115518
-0.254545 -0.989699
0.324029 -0.714296
-0.662254 0.802798
-0.417300 -0.024668
1.087315 0.516360
0.731796 0.214705
1.100669 -1.098405
0.440377 -0.404660
-0.769558 -0.326264
-0.527804 -0.370885
-0.306037 1.207788
-0.047635 0.470527
1.342015 -0.573768
0.264710 -0.059811
-0.672618 -1.183235
-0.227894 -0.199038
-0.900363 0.587810
-0.242144 0.360219
0.838111 0.618909
0.065235 -0.362301
0.467979 -1.033598
-0.497572 -0.383202
-1.089007 -0.344654
-0.014802 0.284001
-0.255645 1.147367
0.360696 -0.041244
1.325404 -0.524491
-0.364678 -0.269969
-0.723218 -1.143407
-0.622551 -0.004909
-1.155688 0.526863
0.611114 0.255044
0.599607 0.592511
0.442106 -0.975457
0.183593 -1.035589
-0.916868 -0.119384
-1.049986 -0.622353
0.199929 0.555657
0.051056 1.148576
0.756505 -0.715451
0.764428 -0.049050
-0.527330 -0.579289
-0.319268 -1.182734
-0.682018 0.996862
-0.698995 0.472300
0.823533 0.219605
0.863430 0.530279
0.139170 -1.293539
0.091001 -0.820139
-0.974497 0.221464
-0.614558 -0.097129
0.127092 0.743232
0.324760 0.177663
0.864602 -0.740591
0.566285 -0.333810
-0.922531 -0.963903
-0.509121 -0.268125
-0.315229 0.655498
-0.324900 0.222793
0.991838 0.040281
0.752379 -0.262825
-0.337398 -1.228836
-0.265067 -0.413839
-1.201966 0.119687
-0.138197 0.107621
0.503621 1.089022
0.058399 -0.270888
0.894339 -1.334090
-0.282042 -0.821222
-1.001560 -0.605552
-0.497771 -0.533725
-0.091288 0.750053
0.195038 -0.108312
1.343959 -0.294190
-0.069907 -0.607449
-0.093119 -1.811979
-0.091338 -0.043106
-1.384523 -0.347767
0.337673 -0.396079
0.924903 0.960425
0.277674 -0.464967
0.601117 -1.155265
-0.691682 -0.416075
-1.311536 -0.478295
-0.024401 0.347369
-0.284123 0.843162
0.458992 -0.020041
1.196399 -0.128275
-0.065616 -0.730324
-0.425685 -1.264534
-0.659253 0.535135
-0.901359 0.274509
0.805468 0.500674
0.751276 0.589145
0.393043 -1.235489
0.221994 -0.593333
-1.078341 -0.018998
-0.765346 -0.195919
-0.102357 0.863491
-0.163098 0.724316
1.150937 -0.639487
0.784132 -0.484698
-0.855054 -1.234041
0.002400 -0.828729
-0.798272 0.801034
-0.664622 0.277935
1.070022 0.562289
0.652994 0.104380
0.237630 -1.512723
-0.096994 -0.836534
-1.465122 -0.449618
-0.685365 -0.430003
0.230952 0.983873
0.385668 0.040112
1.512659 -0.518077
0.125936 -0.214450
-0.625912 -1.215522
-0.616474 -0.250769
-1.380591 0.878781
-0.227355 0.214028
0.853978 0.380554
0.085257 -0.324081
0.260228 -1.644672
-0.338889 -0.132078
-1.261355 -0.102712
-0.147503 0.278217
0.108514 1.117071
0.203253 -0.206978
1.146548 -0.773942
-0.129787 -0.783746
-1.053537 -1.438715
-0.262974 0.262221
-0.786102 0.700684
0.605553 -0.202753
0.918576 0.355238
-0.315930 -1.037229
0.085391 -1.239926
-0.453346 -0.021103
-1.112650 -0.132423
0.347764 0.575351
0.457534 1.041092
0.382595 -1.234111
0.917845 -0.648450
-0.848557 -0.634940
-0.851577 -1.050083
-0.309513 0.974530
-0.657724 0.739840
1.030454 -0.138553
0.638920 -0.046216
-0.543467 -1.423099
-0.176579 -1.062956
-1.191650 0.432284
-0.758056 0.019451
0.491402 0.685539
-0.013008 0.589848
0.477713 -0.844517
0.536530 -0.745012
-1.301750 -0.654499
-0.703265 -0.387215
-0.350907 1.400698
-0.345241 0.251013
1.249823 -0.283781
0.760244 -0.194230
-0.604993 -1.457559
-0.443393 -0.731190
-1.515704 0.348836
-0.590151 0.263362
1.052149 0.877141
0.112738 -0.072303
0.439476 -1.588524
-0.145781 -0.681667
-1.716252 -0.657331
-0.303669 0.160507
-0.092983 1.452917
-0.178275 0.343820
1.067721 -0.349779
-0.417511 -0.430264
-0.375853 -1.526241
-0.449209 -0.091760
-1.409157 1.027079
0.043361 0.319901
1.121901 0.894345
0.217693 -0.803984
0.511214 -1.493645
-0.804827 -0.134072
-1.278054 -0.756592
-0.037131 0.465507
-0.208425 1.181603
0.361513 -0.537896
1.187960 -0.363203
-0.652732 -1.299791
-1.025318 -1.957749
-0.620776 0.538239
-1.419784 0.906093
1.037089 0.427044
0.707375 0.623305
-0.146876 -1.232452
0.296219 -1.421765
-1.243807 0.248317
-1.347089 -0.116425
0.454179 1.351601
-0.220796 1.055359
0.994341 -1.062302
1.009338 -0.602802
-1.581893 -1.482304
-1.066025 -1.233899
-1.011997 1.395003
-0.828534 0.825035
2.039809 0.317037
1.002402 0.419318
-0.337152 -1.765272
0.179012 -1.079797
-2.495414 0.295730
-1.017618 0.079928
0.845966 1.345195
0.289166 0.474801
1.266614 -1.903853
0.218573 -0.433563
-2.134051 -1.341784
-0.897037 -0.585607
-0.829472 2.134988
-0.600160 0.738962
1.863158 0.092905
0.630605 -0.503705
-0.729253 -2.596089
-0.895743 -0.436849
-2.451995 0.801477
-0.131212 0.393180
0.810058 1.641137
0.097630 -0.695340
1.365491 -2.084779
-0.903398 -0.905706
-2.024312 -0.888548
-0.579198 0.311908
-1.135635 2.346787
0.623518 -0.090535
2.168101 0.104967
-0.888656 -1.292436
-0.485188 -2.773292
-1.422447 0.860929
-2.592054 0.814993
0.903966 0.935819
0.915813 1.954966
0.313173 -1.858186
1.197162 -2.308321
-2.128676 -0.368166
-2.811726 -1.087852
-0.233246 2.136579
-0.324139 2.229337
1.497977 -1.044043
2.068122 -0.201102
-1.490838 -1.970379
-1.033156 -2.286670
-1.417173 1.860609
-2.418513 0.205030
1.685441 0.834358
1.004236 1.152459
0.170002 -3.144522
0.568222 -1.319868
-2.846094 0.008643
-1.690104 -0.903941
0.088776 2.651855
-0.620095 1.991641
2.506359 -1.499755
1.468283 -0.710901
-2.746533 -2.454267
-1.462138 -1.774580
-2.168830 2.483334
-1.579239 0.563017
3.216153 1.065935
1.030714 0.735953
-0.335735 -3.720960
-0.062030 -1.682090
-4.156414 -0.209267
-1.691927 0.771023
0.116828 4.052834
0.578569 0.527455
3.192789 -1.963015
-0.993995 -1.563148
-3.963242 -3.474088
-1.757730 0.050467
-3.180411 4.063145
-0.643327 1.124097
4.654511 1.058919
-0.020368 -1.731818
0.393140 -6.960438
-2.655208 -0.341256
-7.464368 -0.789693
0.705043 1.105970
1.622543 5.088852
0.504958 -1.918129
4.370269 -3.218892
-1.953428 -3.133350
-5.961423 -3.686223
-3.987661 4.426319
-2.499544 3.662822
3.475034 0.279752
4.031258 2.632760
-1.366538 -6.476455
-2.204027 -6.151485
-6.850960 2.830676
-9.956551 1.323669
2.655387 2.838683
2.896750 6.065022
1.340793 -7.358127
1.389536 -7.307010
-10.717080 -3.553045
-8.395875 -3.524272
-5.069483 6.763560
-2.428911 6.606607
7.427374 2.678918
5.439564 -9.133087
-5.444527 -11.864919
-11.967654 -4.986390
-13.376348 7.931816
-14.083445 -2.638389
16.928705 14.283529
-9.026643 16.599403
7.548031 -38.395424
13.174948 5.826808
-66.787516 -3.263006
-18.067307 -2.734689
0.430384 47.254845
-26.157539 0.774310
-24.964665 17.373800
-29.760303 70.844951
-135.638178 -230.335568
-125.025831 -25.054915
-1673.409619 1340.154374
