3992.471415 2464.782331
-896.671081 -277.656960
23.784043 -14.731638
51.120331 92.747063
-13.050316 -1.987937
10.599512 -32.004366
-9.212504 -11.430644
-12.423357 3.266653
0.900109 10.107717
2.004777 0.517176
8.869499 -6.543679
-2.609227 -1.891157
-7.879681 -0.439470
1.129185 1.605422
2.252538 3.459675
-0.792681 -0.882599
-0.635212 -2.785187
-0.345058 0.448281
-0.014895 0.751921
0.188062 0.901970
-0.181426 -0.541835
1.557453 -0.956332
0.425707 1.161157
-0.600016 -0.670204
0.436407 -1.050809
-0.148973 0.494445
-0.463963 -0.229660
0.187188 -0.190175
0.040394 0.286097
0.511716 -0.558731
-0.601615 0.316594
-0.561516 -0.755014
0.375766 0.600713
0.166739 0.917779
-0.296730 -0.612180
0.125454 -0.792525
-0.251873 -0.013332
-0.771150 0.511753
-0.206813 0.402878
0.322970 0.007072
0.140180 -0.512606
-0.497594 0.559070
-0.504231 -0.055478
0.126917 0.171557
0.210647 0.191199
0.014782 -0.368355
0.257545 -0.433773
-0.055928 -0.196089
0.069919 -0.153731
0.206157 0.008029
0.258736 -0.333836
0.522689 -0.023721
-0.509071 0.381635
0.482846 -0.162570
0.245962 -0.048669
-0.041213 0.084875
-0.287180 0.008301
0.560613 0.095726
-0.176597 -0.005223
0.209505 -0.451366
-0.154304 -0.201098
-0.300950 0.359680
-0.193498 -0.089803
0.201053 0.010488
-0.118302 -0.348423
-0.135377 -0.010026
-0.239031 -0.244085
0.127238 0.051306
-0.043972 -0.168300
0.512014 -0.287045
0.019655 -0.102791
-0.191723 -0.053804
-0.291555 -0.150014
0.234673 0.085452
-0.171118 0.183480
-0.366306 -0.308512
-0.338053 -0.014869
-0.120786 -0.327974
0.096341 -0.018442
-0.356580 -0.018677
0.234200 -0.449380
0.085605 -0.049719
0.126169 -0.078162
-0.186293 0.015007
0.186460 0.220714
-0.144613 0.017964
-0.090670 -0.050606
-0.112987 0.308696
-0.278996 0.216443
0.123974 -0.152795
0.058955 0.194961
-0.167776 -0.326563
0.111896 0.328738
-0.051848 -0.000000
0.098369 -0.049251
0.295169 -0.053178
-0.348640 -0.026921
-0.324889 -0.002788
0.004025 0.062273
0.063598 0.102073
-0.112771 -0.194352
-0.130658 -0.263984
-0.284528 -0.055102
0.189232 0.037226
0.020245 -0.044567
-0.013061 -0.154252
0.131886 -0.234117
-0.241214 -0.047584
-0.082132 0.187135
0.205515 0.051163
-0.170645 -0.039251
-0.020315 0.175990
-0.078973 0.166673
0.133775 -0.090466
-0.133502 0.418990
0.014683 0.012220
-0.078145 -0.184131
0.191460 0.064671
0.090121 0.296788
-0.116067 -0.445169
0.042980 -0.141299
0.175627 0.223642
0.101631 0.102109
0.158206 -0.101851
-0.000000 -0.037955
0.043973 -0.023605
0.056168 0.174968
-0.148472 -0.049944
0.014874 0.018822
0.040144 -0.414896
-0.156254 -0.076509
-0.182074 -0.117817
-0.175754 -0.248786
-0.006923 0.043369
0.140340 -0.127442
-0.197165 -0.217878
-0.300729 -0.034432
0.240518 0.105266
-0.181264 0.043916
-0.048878 -0.124202
0.120447 -0.144557
-0.017757 0.040094
-0.006408 -0.028202
-0.347628 0.028847
0.445589 0.124835
-0.046479 0.009834
-0.124644 0.051348
-0.169950 0.283238
0.005606 -0.217347
-0.086707 0.350258
0.244880 0.023388
-0.255369 -0.368673
-0.208876 0.046473
0.320899 0.018911
-0.112842 -0.122082
-0.112503 -0.126395
0.071726 0.160298
-0.145572 -0.145033
-0.051566 -0.000325
-0.209286 0.071409
-0.121635 0.134148
0.078995 -0.141291
-0.100974 -0.118749
-0.278261 -0.077490
0.217995 0.106016
0.044620 -0.121042
-0.272594 -0.055055
0.064840 0.162384
0.188372 0.070219
-0.269533 -0.193413
-0.187447 0.400751
0.079324 0.101081
-0.057182 -0.159154
0.083127 -0.001145
-0.055424 0.137105
-0.026591 -0.071737
0.103261 -0.016743
0.189323 -0.135112
0.044456 0.156394
-0.058474 0.113555
0.009869 -0.038051
0.002175 0.103349
0.089570 0.081867
-0.167080 0.130740
-0.064568 0.193646
-0.146243 -0.054686
0.207390 -0.155543
-0.050046 0.085534
-0.262040 0.027370
-0.219688 -0.192864
0.342620 -0.115285
0.026302 -0.054101
-0.160309 -0.060522
-0.093155 -0.161282
0.113163 -0.038214
0.217106 0.226220
0.077086 -0.080991
0.020551 -0.046817
-0.055048 -0.030940
-0.047420 0.051481
0.010304 0.054817
0.185258 -0.029081
-0.316794 -0.376945
-0.244452 0.094031
0.275641 0.019537
-0.032757 -0.187839
-0.233170 -0.050932
0.029603 0.268817
0.114633 -0.107348
-0.078205 0.004558
-0.072610 0.209322
-0.133358 -0.020388
-0.054163 -0.177877
-0.220344 0.225991
-0.087251 -0.052641
0.104406 -0.023356
-0.001145 -0.132512
-0.378188 0.032870
-0.045979 0.232671
0.397827 0.215156
-0.108249 -0.206165
-0.146576 0.194397
0.006611 -0.019755
-0.251859 -0.314237
0.167966 0.430923
-0.039361 -0.215169
-0.057891 -0.319461
-0.108597 -0.142066
0.208633 -0.002548
-0.391060 0.124700
0.229589 0.106913
0.136359 -0.121427
0.007716 -0.060503
-0.214839 0.054948
-0.231061 0.180596
0.283114 0.062144
-0.108636 -0.100723
-0.097385 0.098470
-0.094149 0.087729
-0.141445 -0.049012
-0.051132 0.435976
-0.103686 0.205841
-0.112090 -0.102979
0.027749 0.297282
-0.082683 0.038979
-0.217397 0.183226
0.076233 -0.186388
0.236819 -0.056079
0.000000 0.141650
-0.093225 -0.007294
0.247750 -0.253170
0.273930 0.084821
-0.245753 0.132546
0.067072 0.161085
0.298664 -0.052041
-0.112546 -0.036671
-0.046233 -0.115063
0.162334 0.159747
-0.309700 -0.263972
0.182830 -0.018921
0.069574 -0.195922
-0.048226 -0.230858
-0.286837 0.054239
0.078976 -0.003983
0.074609 -0.157959
-0.091179 0.158779
0.016950 0.069728
-0.031497 -0.025130
-0.065089 0.239865
0.134335 0.071571
-0.070094 0.067758
-0.113309 0.168556
-0.162166 -0.037353
-0.009670 0.086253
-0.228825 0.087465
-0.037932 -0.143471
-0.089157 0.174078
-0.077950 -0.100925
0.088296 -0.220101
0.051848 0.414781
-0.036496 -0.228301
0.105958 0.039923
0.086263 -0.159637
-0.194648 0.054342
-0.185705 -0.110949
-0.100792 -0.034729
-0.006334 -0.236502
0.079937 -0.098969
-0.199481 -0.069437
-0.325435 -0.167512
0.530095 0.302442
0.042956 0.187052
0.144032 0.023396
-0.321787 -0.001152
-0.102379 0.303740
-0.056558 0.402095
-0.116571 -0.038641
-0.342795 0.072822
-0.289483 -0.204822
-0.049151 0.123162
-0.194377 0.153339
0.226883 0.130053
-0.104857 0.050952
0.251227 -0.084950
0.026712 0.307604
0.068543 0.397872
-0.193993 0.093753
0.198356 -0.283616
-0.247449 0.435693
-0.244995 -0.018219
-0.013893 0.089803
0.013604 -0.023497
-0.350921 0.056120
0.266975 -0.025312
-0.108438 0.336638
0.135678 0.155783
-0.048821 -0.368525
0.406974 0.097787
-0.235386 0.139576
0.358633 -0.248119
-0.107775 -0.112042
0.367611 0.297108
0.149543 -0.056062
0.336295 -0.089100
0.005647 0.432644
-0.080731 0.330961
0.330874 0.213485
0.167321 0.090879
0.046200 0.063166
-0.285013 0.020196
-0.157669 -0.062841
0.002878 -0.483231
-0.144194 0.319841
-0.110041 -0.277934
-0.294682 -0.151705
-0.365622 -0.070415
0.030373 0.149396
-0.139223 0.010531
-0.245272 0.118181
-0.133563 0.105729
-0.152811 -0.254907
0.430036 0.122673
0.025600 -0.273822
-0.520005 0.347887
-0.508356 -0.465882
0.551810 0.750332
0.299252 0.539305
-0.140792 -0.576930
-0.481545 0.058671
-0.101976 0.423023
0.655866 0.655443
0.597433 0.588033
0.764140 -1.191297
0.562775 0.136258
-1.330024 0.255897
0.028890 -0.941889
0.497012 1.487820
-0.417206 0.451542
-0.592659 -1.000416
-0.882913 -1.999512
-0.732116 -0.318581
-0.483798 4.580933
-0.337076 -0.234563
0.642989 -4.487261
3.257835 5.734803
-8.100911 4.123141
3.337880 -4.653894
4.306215 0.936721
-36.994237 4.067194
-6.373988 25.572429
43.289724 32.571186
424.350138 -248.927364
