2485.839460 2582.098377
-491.256610 565.322398
-28.489339 24.740641
-82.274834 -31.684272
2.180331 4.260649
-1.365868 -37.703786
-2.129750 2.455082
11.604385 -3.024006
-7.898297 -3.825607
4.305655 3.099183
0.192209 -7.304851
-1.613975 -0.487592
7.329681 -1.563822
-0.054172 0.407987
2.707261 3.081201
1.255287 -0.217897
-2.868452 1.509058
-0.330996 0.204957
-1.132200 0.186588
-0.051419 0.480987
0.106843 -0.449707
0.500318 1.025249
-0.332331 0.182019
-1.090834 -0.358103
-0.696105 -1.254794
-0.487854 -0.910507
0.673845 -0.367421
-0.001843 -0.322402
0.244942 0.087284
-0.231908 -0.045280
-0.096274 0.090476
-0.342294 -0.228228
0.362933 -0.626986
0.673577 0.158923
0.450555 -0.142365
-0.351975 0.195450
0.314288 -0.027726
-0.612771 0.298073
0.213538 -0.344370
0.285105 -0.070138
-0.046847 0.079189
-0.446440 -0.066368
-0.259200 -0.012977
-0.033668 0.470219
-0.073039 0.013710
-0.160810 -0.210504
-0.180601 -0.274826
0.023509 -0.120903
0.100230 -0.208788
-0.011209 -0.323714
-0.144061 0.053140
0.245158 -0.263122
-0.071191 -0.205230
-0.278705 -0.036605
0.029682 -0.104842
0.276893 0.022687
0.190706 0.406758
0.080620 0.020607
-0.090448 0.014903
-0.023082 -0.053142
-0.288208 -0.186938
0.065706 0.113498
0.061533 -0.115662
-0.289144 0.100056
-0.179457 -0.037350
0.241051 -0.183953
-0.321028 -0.185004
-0.184061 -0.027381
-0.090758 -0.087535
0.362452 0.122768
-0.134853 -0.168947
0.072912 0.194963
0.177848 -0.197078
-0.025833 -0.280463
-0.231951 0.286618
0.090728 -0.150893
-0.181422 -0.190855
0.181611 0.140733
-0.024852 -0.104397
-0.216897 -0.000758
-0.178677 0.219006
-0.056670 0.021155
0.262191 -0.190921
-0.031363 -0.140166
0.089205 0.175735
-0.013738 -0.123471
-0.100172 -0.008808
-0.154169 -0.036958
-0.165775 -0.210841
-0.101293 0.112714
0.175661 0.168123
0.097838 -0.227834
-0.036243 -0.011396
-0.356220 0.141283
-0.053801 -0.262756
0.167633 -0.135036
-0.102281 0.303662
0.009544 -0.069471
0.323795 0.078121
0.039438 -0.247469
-0.204857 -0.203711
-0.186478 -0.059937
-0.255890 0.251791
0.158702 -0.045614
-0.047120 0.143649
-0.016760 0.050578
0.290538 -0.063899
-0.318096 -0.114769
-0.046986 -0.008350
0.088809 -0.117066
-0.085716 0.070795
-0.106720 -0.275500
-0.029000 0.285655
0.196037 0.188285
0.037833 -0.416243
-0.341703 0.073067
-0.195111 -0.073472
0.180109 0.093984
0.160095 0.053551
-0.348537 -0.054896
-0.031121 0.100368
0.141396 0.037741
-0.002868 -0.272779
0.129585 -0.080200
-0.132983 -0.117002
-0.021864 0.018191
-0.021959 0.071240
-0.175474 0.078994
-0.002641 -0.078596
0.091781 0.257540
0.181619 0.028361
-0.076911 -0.157991
-0.117466 0.074316
-0.326740 0.062752
-0.059926 -0.020013
0.164140 0.014331
0.051536 -0.104794
-0.274699 -0.119153
-0.034334 -0.243760
-0.147718 0.122794
0.104367 0.050454
0.111063 -0.178094
-0.017805 -0.080868
-0.019140 0.137773
0.098881 0.039217
0.067248 0.236638
0.070949 -0.067347
0.013757 -0.075920
-0.142834 0.027901
-0.276791 0.044303
-0.085684 0.251628
0.233941 -0.125254
-0.336678 -0.165772
-0.161123 0.074593
-0.135318 -0.066645
-0.067646 -0.006797
0.164824 0.028260
0.284737 -0.257988
-0.033446 -0.018105
-0.123282 0.004570
-0.069264 -0.014752
0.093664 -0.017021
0.043511 0.117692
0.055385 0.055385
-0.059343 0.075008
0.019807 0.086436
-0.263329 0.040129
-0.206721 0.007504
-0.154875 -0.088743
0.196207 0.234755
0.144987 -0.164198
-0.147875 -0.094213
-0.066500 -0.051364
-0.126625 -0.239277
-0.195090 0.132558
0.409162 0.049558
0.021705 -0.159349
-0.112201 0.054429
-0.157883 0.086165
0.041063 0.252563
0.011210 0.100275
-0.031712 -0.099720
0.079348 -0.029303
-0.193595 -0.106049
-0.059308 0.123356
-0.040742 0.052057
-0.000677 -0.059715
-0.122915 -0.331199
-0.102584 0.127131
-0.086402 0.047175
0.107328 -0.035209
0.282518 0.106776
0.094666 -0.034892
-0.383264 0.042686
0.045030 0.017528
-0.138750 0.126576
0.207220 0.186894
0.139814 -0.288636
-0.194732 0.225451
-0.134110 -0.002818
-0.245002 -0.183175
-0.098012 0.069350
-0.114063 -0.116789
-0.006632 0.053816
0.191336 0.227200
0.079130 -0.186449
0.034550 0.039708
-0.242328 -0.098927
0.057235 0.001515
0.389932 -0.073085
-0.237372 -0.017822
-0.268785 0.138751
0.128370 0.367604
0.026458 -0.048041
0.045652 -0.208501
-0.271377 0.164101
-0.123688 0.031517
0.153575 -0.036466
-0.157350 0.028851
-0.190209 0.155857
0.212939 -0.026346
-0.050537 0.055271
0.004400 -0.257234
0.066751 0.016856
-0.133241 -0.237839
-0.168583 -0.018924
-0.198035 0.318426
0.097740 0.252251
0.218001 -0.069151
0.010325 0.100767
-0.104987 -0.408874
0.158557 0.129212
0.055998 0.263272
-0.339355 -0.145176
-0.034825 0.120677
0.115169 0.243754
0.077707 -0.168246
-0.091543 -0.076567
-0.150446 0.128314
-0.194299 0.094629
-0.021439 0.052379
-0.122890 0.106477
0.020648 -0.077558
-0.058223 -0.000865
0.126904 0.124230
0.085771 -0.089951
-0.154547 -0.384486
-0.131547 0.124861
0.133419 0.054838
0.069586 -0.070483
-0.058932 0.288786
0.049207 0.022376
-0.229348 -0.128675
0.147559 0.249572
0.039884 0.302778
0.134086 0.024597
-0.305250 0.091906
0.134228 0.004154
-0.075590 -0.090617
-0.377017 -0.147684
-0.175500 0.178123
0.310992 -0.030144
-0.204969 0.151385
-0.124546 -0.144697
-0.060924 0.025636
0.183172 -0.055698
-0.146968 0.007344
0.035321 0.173789
0.165821 0.126120
0.011955 0.108576
0.105312 -0.103513
0.150450 -0.033462
-0.254371 0.095811
-0.278274 -0.029756
-0.108099 0.004496
0.243643 0.324423
-0.049841 -0.072705
-0.183715 0.296687
0.048353 0.226653
0.015726 -0.162445
-0.182028 0.144237
0.186783 0.132199
0.089681 -0.044112
0.102986 -0.116850
-0.203321 0.136559
-0.773674 0.213164
-0.080647 -0.050271
0.175578 -0.239068
0.278228 0.401273
-0.295381 -0.355792
0.207069 0.222719
-0.327955 0.134786
0.138662 0.027223
0.370331 -0.153455
0.480033 0.241885
-0.297761 0.017135
0.331209 0.062663
-0.148629 0.228939
0.020668 0.390453
-0.427181 0.322231
0.125795 0.086464
-0.526142 0.208469
-0.430048 0.680239
-0.205811 0.157060
0.086843 0.015230
0.877880 -0.161027
-0.128853 0.397415
-0.695654 -0.093498
-0.291743 -0.864487
-0.436459 -0.586241
-1.028740 0.193523
1.549896 0.609775
0.561142 0.782780
-0.812111 0.024543
0.787174 -0.006197
-1.934928 -0.001943
-0.285863 -1.956082
3.614728 -1.584791
3.234429 -0.209511
3.087447 1.062086
6.452024 8.844927
-2.812277 7.813977
-7.107222 8.861560
24.420899 -5.959292
-44.972419 -29.992599
205.296679 377.889190
