4668.731052 2003.829957
-1478.559541 44.669300
5.516867 -14.784451
-152.931426 18.052668
-15.252111 -6.702830
-15.002317 42.675311
-4.654491 7.181035
-14.690484 -42.417605
-2.316078 -1.819697
-15.470543 -38.884834
-12.690308 6.898552
-0.329514 -12.143989
-2.611749 7.267813
-10.184868 -7.376210
4.979995 0.532163
-7.106617 1.846405
-3.950083 4.664236
2.165654 6.281470
2.125062 2.665119
3.320281 1.777431
0.223393 -4.088641
1.379458 -1.217928
0.110987 0.301098
-2.956302 1.748207
1.019063 -0.654464
-3.015833 -0.808351
-1.323858 -0.897686
-2.777198 -1.268256
-1.156862 -0.467629
-1.785229 1.544934
-1.682522 -2.123455
-0.026066 -0.247631
-1.105774 -1.334752
1.367335 -1.298070
-1.116604 -0.198556
0.748594 -0.078904
-2.261938 -0.573067
0.073683 -0.056000
0.012028 0.508854
-0.616324 0.262830
0.085613 -0.342744
0.083074 0.008427
-0.242124 -0.142199
0.122601 0.399783
-0.184836 -0.659107
-0.313047 0.162613
-1.019783 -0.528078
-0.720929 -0.733272
-0.561910 0.419908
-1.106212 -0.058810
-0.517835 1.305751
-0.603730 -0.435077
-0.088132 0.591116
-1.198711 -0.406987
0.046002 -0.464979
0.026032 -0.168076
-0.198153 -0.021528
0.219475 -0.168148
0.531835 -0.087370
0.242250 -0.520010
-0.254484 -0.404614
-0.424131 0.153300
0.197410 0.064714
-0.000024 0.138340
0.354524 -0.398762
0.093081 0.280933
0.396611 -0.065015
0.113969 0.549225
-0.520009 -0.419708
-0.290102 -0.190870
-0.649757 -0.130365
0.145747 -0.307553
-0.750067 -0.118342
-0.592359 -0.069263
0.591255 0.431328
-0.448513 -0.452956
-0.037659 -0.062619
-0.012720 -0.500608
0.017430 0.070068
0.065979 -0.190476
0.294513 -0.513374
0.238253 -0.240192
-0.037032 -0.128551
0.186315 0.070033
0.084854 0.253535
-0.110817 -0.179625
-0.127434 0.170461
-0.047515 -0.109844
-0.285173 0.279315
-0.266050 0.205621
0.456311 -0.521631
0.015787 -0.002223
0.266686 -0.162193
-0.311589 0.203097
-0.054347 -0.181832
0.006085 -0.493387
-0.100555 -0.050324
-0.042278 -0.433499
-0.409129 -0.376577
0.047708 -0.024255
0.136802 0.244589
-0.280272 0.202006
0.082720 0.203670
0.113013 -0.105002
0.237538 -0.355098
-0.028653 -0.061680
-0.052955 -0.229682
-0.160447 -0.176370
-0.118797 -0.094510
-0.035656 -0.148540
-0.280924 0.405617
-0.319447 0.331516
0.337035 0.212703
-0.073735 0.318073
0.183997 0.019078
-0.178030 0.165691
0.234237 -0.267284
-0.253620 -0.293917
0.092236 -0.160895
-0.198822 0.075621
0.141193 0.131214
0.198754 -0.191696
-0.279136 0.047174
0.094464 0.011831
-0.027881 0.112164
-0.089443 0.313050
-0.050569 -0.117016
-0.021337 -0.324023
0.051857 0.058650
0.415741 0.087354
0.018890 0.033569
0.036189 0.430303
-0.219304 -0.136520
-0.502659 0.307345
0.311918 0.069155
-0.209173 0.077076
-0.070882 -0.148067
0.255784 -0.171930
-0.121217 0.099829
-0.087975 -0.064409
-0.085926 -0.195093
0.178795 0.055752
-0.014787 0.127154
-0.019298 -0.034862
-0.206392 -0.162329
-0.112637 0.304557
0.029444 0.143612
0.359725 0.236728
-0.117583 0.323593
-0.229560 0.301830
0.010015 -0.047326
-0.095908 -0.205279
0.070263 0.088685
-0.043575 -0.247600
0.109493 -0.022909
-0.046777 0.117342
0.028334 -0.060127
-0.199630 0.420283
-0.195891 -0.104957
0.056540 0.193112
-0.055106 -0.310705
0.110714 0.100007
0.291484 0.043936
-0.167367 0.019014
-0.000304 0.002575
-0.027442 0.110932
0.123603 -0.067063
-0.153122 0.138029
0.043052 -0.083141
-0.237416 0.189013
-0.180303 0.126943
-0.253315 0.207173
-0.168116 0.095988
0.162866 0.065730
-0.124498 -0.019113
0.194775 0.222824
0.128712 0.138714
0.151250 -0.220382
0.059882 0.066068
0.128549 0.075428
-0.387374 0.362312
0.049199 -0.077370
0.297313 0.014548
-0.192167 -0.376547
0.185789 0.229776
0.043683 -0.277503
0.046035 0.196581
-0.080170 0.037129
-0.053932 -0.037047
0.330768 0.063535
0.088316 0.055805
0.322503 0.118211
-0.181442 0.282524
0.062427 0.049694
-0.176578 -0.035495
0.138208 -0.395855
-0.116999 -0.257578
-0.014596 0.145060
-0.038167 -0.137640
0.105488 0.080281
-0.080755 -0.130687
-0.178141 0.460675
-0.084676 -0.286107
0.292664 0.034255
0.215182 -0.279261
-0.003033 -0.114846
0.138261 0.001529
0.285493 -0.113357
-0.007625 -0.020322
-0.150113 0.207125
0.015006 -0.149473
0.136786 0.173621
0.164757 -0.175810
-0.061249 -0.093758
0.197561 0.069925
-0.103174 0.157847
-0.037715 -0.144030
-0.260805 -0.134396
-0.041264 -0.032123
-0.064141 -0.224265
-0.099714 0.075096
0.097772 0.144315
0.248392 0.072387
0.098415 -0.287751
0.152620 -0.318286
0.057110 -0.245387
-0.080250 0.241110
-0.061216 -0.017063
0.091953 -0.105277
-0.259172 0.019942
-0.039974 -0.491981
-0.258817 -0.168372
0.059807 -0.058115
-0.203890 0.468267
0.187237 0.445196
-0.176943 0.323286
-0.028989 -0.185086
0.106872 0.115761
0.157787 0.476066
0.006166 0.199885
0.184417 0.219364
0.056612 0.238067
-0.026509 0.048832
0.022814 -0.204999
-0.017578 0.472456
-0.406681 -0.095354
0.048384 0.059629
-0.264600 0.230743
-0.056634 -0.039298
-0.435536 -0.324528
-0.178885 0.134164
-0.386886 -0.166021
-0.111850 -0.162550
-0.274914 0.376665
-0.179615 -0.454048
-0.144793 -0.031351
-0.259257 -0.016652
-0.373641 0.067494
0.063228 -0.257468
0.081925 0.303608
0.088003 -0.273354
0.130082 -0.170714
-0.018617 0.081981
-0.077833 -0.275670
0.335614 -0.279688
0.293735 -0.213524
0.178546 0.281942
-0.023308 -0.196511
0.002158 -0.005789
-0.186817 -0.350715
0.258835 -0.062610
0.145590 0.100880
0.310539 0.101926
-0.027988 -0.014422
0.222219 0.317601
-0.146649 -0.003665
0.048645 -0.194931
0.109669 -0.137039
-0.046956 -0.177995
-0.120095 -0.036228
-0.088280 -0.191957
-0.238947 -0.197649
-0.022137 0.025722
0.124192 -0.073697
0.217475 -0.203593
-0.179299 0.035262
-0.116543 0.074839
-0.279545 0.009657
0.149262 0.042450
-0.132328 0.222076
0.392627 -0.146850
0.136932 -0.013040
0.083482 0.042214
-0.285630 -0.229125
-0.073328 0.313174
0.267979 -0.360908
-0.206076 -0.077822
-0.155831 -0.425178
-0.181675 -0.019877
0.206602 0.173197
-0.153409 0.209573
-0.005293 -0.150154
-0.261950 -0.012703
-0.016534 0.026386
-0.355273 -0.124006
-0.072879 -0.203640
-0.170510 0.108522
0.242957 0.237435
-0.102788 0.278895
-0.017352 0.213058
-0.291096 0.059550
-0.028960 0.092137
0.060324 -0.151507
0.191151 -0.086160
-0.046218 -0.062329
-0.240793 -0.238902
-0.154269 0.005262
0.000986 -0.075458
-0.223556 -0.308428
-0.168834 0.327018
0.304999 0.053432
-0.061588 0.579075
-0.129508 -0.115899
0.190797 0.012016
-0.246934 -0.103942
-0.037783 0.038318
-0.180650 -0.083636
-0.294624 -0.170716
0.019356 0.267003
-0.028646 -0.076312
0.143740 0.252845
-0.302500 0.028797
-0.056582 0.174244
-0.222357 0.324933
0.154800 0.187331
0.060167 0.162503
0.253378 -0.026556
0.217148 -0.184648
-0.257174 0.098860
-0.006329 -0.161622
0.166764 -0.174564
0.013307 -0.309059
0.196650 -0.053852
-0.070931 0.000303
-0.097936 0.178761
-0.168538 0.074770
0.045532 0.151085
0.032415 -0.273424
-0.033482 -0.030754
0.066928 -0.197080
-0.167786 -0.137132
0.360380 0.347165
-0.040327 0.208327
-0.231879 0.045881
-0.354692 0.039431
0.017908 0.128564
-0.079554 0.000606
-0.015338 -0.096345
-0.019199 0.313328
-0.160895 -0.086746
0.088368 -0.062871
0.123069 -0.182193
0.201414 0.288277
-0.077927 -0.368265
0.197491 -0.032326
0.313761 -0.265880
-0.252845 0.228367
0.511687 0.045306
0.396738 0.052729
-0.030831 0.209127
0.178737 0.029628
-0.520879 -0.032454
0.031826 -0.039121
-0.025500 -0.266725
0.067791 -0.328046
0.089443 0.313050
-0.203079 -0.123126
-0.223663 0.054189
0.006179 0.131295
-0.251953 -0.075626
-0.096025 0.336956
0.128530 0.036315
0.131507 -0.020096
0.044812 -0.275925
0.214826 -0.153050
0.109163 0.221070
0.371271 -0.193136
-0.033853 0.199991
-0.165885 -0.123448
0.084694 0.364726
0.270275 0.404896
0.013596 -0.006067
0.192108 0.047145
0.170046 -0.160072
0.103120 0.027392
0.007553 0.070556
0.036402 -0.023805
0.062388 -0.021748
0.274699 0.164220
0.334560 0.049529
-0.170966 0.034296
-0.189771 -0.089304
0.177704 -0.360009
-0.049928 -0.476258
-0.115622 0.128527
-0.202049 -0.615380
-0.061787 0.224894
0.056936 0.201981
0.010000 0.309027
-0.180738 0.009647
0.040567 -0.389901
0.031553 0.216419
0.606225 0.150996
-0.216352 0.088333
0.199443 0.039312
-0.064609 0.183685
-0.176958 0.315014
-0.254593 0.549435
0.067780 0.171433
-0.196443 0.225655
0.027671 -0.270893
-0.084944 0.175928
0.456365 0.000119
-0.122144 -0.164397
0.401636 -0.587404
0.179060 -0.192056
-0.797746 -0.368559
0.150464 0.269080
-0.037935 -0.545432
-0.397012 0.152209
-0.201142 0.002527
0.294294 -0.018079
-0.220937 0.122919
-0.174221 0.479187
-0.792043 0.875516
-0.111387 0.155297
-0.235301 0.440121
-0.107043 -0.147628
-0.097486 0.559949
0.025616 0.128232
0.259540 0.162665
-0.457139 -0.116696
-0.267092 0.379245
-0.253385 0.133441
0.498816 0.051772
-0.358047 0.018425
0.195925 -0.683115
0.544863 -0.191179
0.196346 -0.106186
-0.494997 -0.253687
-0.039936 0.309791
-0.451476 0.420251
-0.671505 -0.087283
-0.692683 0.187455
-0.213048 -0.168527
-0.455799 1.040347
-0.468352 0.232252
-0.392735 0.700150
0.150287 0.692851
-0.300855 -0.133256
0.055436 0.133387
0.594802 0.136303
-0.074758 0.254652
0.224646 -0.297289
0.852171 -1.358974
-0.429112 -0.131502
-1.677968 0.036411
-0.328729 -1.178083
-1.507793 -0.079155
1.111593 -1.649446
-1.034545 -0.860708
0.326879 -0.621553
-1.570353 1.751641
-0.508694 -1.857247
0.257334 1.110400
-0.807089 -0.526466
-2.407039 -0.405065
-1.490600 3.761854
-2.126199 1.616050
-2.273056 2.215209
0.712248 -3.142674
-0.863704 -0.223301
-1.013893 -0.280271
-4.575608 -1.051212
3.666499 0.996044
-1.774633 -3.935389
-3.488372 -6.579782
-6.441119 -8.481912
-1.758682 -6.814787
-26.070900 4.575209
-0.688816 -3.840173
-2.389553 6.369422
-10.615355 -9.586693
17.122300 12.362559
-16.269556 -3.637436
9.801638 88.346750
-15.934963 -0.346285
38.434377 30.323446
-14.507626 8.950950
-590.250956 -153.380607
