4630.030627 1992.393504
-1393.471588 -42.205866
8.996009 6.866202
-176.720329 11.889367
-1.138681 3.213298
-9.021509 25.865617
-11.597637 11.847535
-8.091597 -21.583965
-4.933250 4.399580
-10.823408 -30.433491
-8.583447 -1.037562
3.062059 -15.464616
-4.309786 0.333730
-5.094964 -6.850428
2.352164 -0.742431
-9.710722 0.254058
-3.673814 -3.103966
-3.028210 0.851129
-1.240789 -0.962480
2.005480 2.553980
3.602208 0.111606
1.776580 1.668615
2.074432 0.539489
-0.520694 -1.722342
-0.498556 1.597478
-0.066793 -1.541536
-0.763216 0.719786
0.308222 -0.034517
-0.443638 1.070566
0.166648 0.849678
-1.294820 0.893475
1.056624 1.185399
-1.488284 0.821179
0.265411 0.609096
-0.441563 0.636272
-0.082723 -0.490954
-0.072473 -0.014756
-1.299545 -1.217995
-0.415221 0.370804
-1.751093 -0.648563
-0.041470 0.879489
-0.948229 0.199257
-0.277247 0.532214
-0.726559 -0.312218
-0.864184 0.149490
0.621749 -0.438666
-0.724181 0.286593
1.050820 -0.500034
-0.079962 0.338013
0.471829 -0.440677
-0.179742 -0.047774
0.157838 -0.399417
-0.169929 -0.194038
-0.112137 -0.254875
0.200354 -0.160978
0.416513 0.192007
0.301757 -0.215459
0.460883 0.045073
0.024691 0.311736
-0.138909 -0.316845
-0.093796 0.274114
0.268991 -0.274846
0.135609 0.223882
-0.028623 -0.217004
-0.214568 -0.157175
-0.004604 -0.108385
-0.606894 -0.074615
-0.050071 0.579113
-0.668325 0.251845
-0.199866 0.419547
-0.120939 -0.125198
0.381696 0.176641
-0.247595 -0.117959
-0.316963 0.034523
-0.022023 -0.413121
-0.548501 0.138674
0.115358 0.248475
-0.273384 0.051611
-0.168859 0.191396
0.000985 -0.250510
0.257905 -0.357814
-0.111430 -0.018085
-0.134138 0.144306
0.079135 -0.220337
-0.039952 -0.198755
0.374175 0.125350
-0.152604 -0.427882
-0.068040 -0.059986
-0.241521 0.147548
0.193133 -0.108746
0.159634 -0.104594
-0.035966 -0.007410
-0.079453 -0.162732
-0.240936 -0.220344
0.034683 0.472708
-0.017224 0.251681
0.132650 -0.007653
-0.031453 -0.008881
-0.214784 0.130039
-0.014197 -0.222233
-0.063875 0.175401
-0.119802 0.001527
0.148860 0.031521
-0.378393 0.115890
-0.123904 0.471802
-0.167962 0.140934
0.107285 -0.039158
0.118516 0.026021
-0.041793 -0.211406
0.016582 0.017289
-0.118242 -0.025854
0.064218 0.098065
-0.066426 0.079133
-0.056816 -0.134396
-0.243671 -0.036554
-0.017608 -0.059288
0.167499 -0.203644
-0.092709 0.135745
0.119087 0.164965
-0.012998 -0.136360
-0.013671 0.204814
0.196928 -0.234334
-0.036921 0.007423
0.120493 -0.227207
-0.180258 0.113361
0.197010 -0.072818
-0.017866 0.080893
0.035968 -0.131562
-0.054717 0.130022
0.003237 -0.055135
-0.061201 -0.034609
0.151521 0.129717
0.163306 -0.090603
-0.201256 -0.013081
0.087706 0.107105
-0.155749 -0.055369
0.085894 -0.174958
0.201425 -0.114531
-0.206094 -0.016809
-0.099740 -0.111448
-0.182919 -0.078088
-0.119605 0.141307
-0.094604 -0.143985
-0.092473 0.057957
-0.350687 0.005657
0.040689 0.131468
0.189596 -0.243338
0.047356 0.304772
-0.154319 -0.144093
-0.095764 -0.181481
-0.395964 0.083870
0.034428 0.078512
0.064929 0.031463
-0.165434 0.032971
-0.047019 0.094489
0.059757 -0.073760
-0.030289 0.232592
0.069023 0.338361
0.037851 -0.197097
-0.057084 0.061852
-0.022470 -0.071581
0.064393 0.056153
0.048865 0.239200
0.108237 -0.040142
0.220734 0.046743
0.041659 -0.067384
-0.076000 -0.095677
-0.135437 0.014783
-0.010077 -0.004745
-0.073009 -0.013591
0.166868 0.138119
0.169689 0.055001
-0.142364 -0.084302
0.279958 0.017577
-0.032939 -0.039849
-0.236132 -0.078086
0.258039 -0.180636
-0.118309 -0.023024
-0.093600 -0.106693
0.147558 0.112095
-0.146021 -0.003232
-0.145526 0.088876
0.175980 -0.296407
0.019648 0.131876
-0.225276 -0.077886
0.127241 -0.102972
-0.014189 0.136062
-0.076325 -0.012198
0.033084 -0.051505
-0.015280 0.029940
-0.253000 -0.139834
0.105691 -0.187494
0.054883 0.081153
-0.104363 0.064896
-0.042047 0.031804
-0.133197 0.009099
-0.132115 -0.039717
-0.145011 -0.089393
-0.006156 -0.001659
-0.084322 0.215981
0.241104 -0.061298
-0.101026 0.145647
0.162766 -0.033439
-0.250253 -0.044542
-0.261592 0.000873
0.054351 0.091399
0.059756 -0.100405
0.161356 0.114824
0.134509 -0.123816
-0.116113 0.194758
-0.312191 0.047035
0.054149 0.107138
0.019677 0.053346
0.253412 0.069747
0.160084 -0.252535
-0.007817 0.162801
0.048338 -0.195001
-0.142571 0.134311
0.002589 0.113819
-0.027221 0.103430
0.040745 -0.312025
0.142857 0.104152
0.080873 -0.331791
-0.172197 0.304721
-0.106635 -0.065629
-0.229519 0.213442
0.227411 -0.171901
-0.081134 0.064454
0.103480 -0.251765
-0.134830 0.259689
0.066553 -0.124504
-0.058709 0.094932
0.168930 0.136209
-0.208372 -0.425315
-0.200764 -0.047731
-0.006732 -0.048603
-0.022527 0.163706
0.042599 0.044276
0.099390 0.255873
-0.067018 -0.064600
-0.050914 -0.233453
0.091098 0.273293
-0.003241 -0.327320
0.172788 -0.070871
-0.037805 -0.042206
-0.008505 0.265212
-0.015137 -0.154482
-0.081047 0.242864
0.145599 -0.254662
-0.050304 -0.172222
-0.096996 -0.070261
-0.093192 0.313255
0.055227 -0.146060
0.063064 0.277898
0.078127 -0.012352
-0.146879 -0.115701
-0.088423 0.052178
0.001603 -0.141409
0.152915 0.197391
-0.017252 -0.167744
0.006921 0.052626
-0.373171 -0.173163
-0.064741 0.023478
-0.075037 -0.018454
-0.158353 0.386369
0.199194 -0.053581
-0.075842 -0.035440
0.196607 0.052523
-0.199825 -0.215703
0.016512 -0.020582
-0.195646 0.115755
0.042371 -0.123852
0.171824 0.037536
0.112330 -0.007511
-0.256175 -0.151412
-0.095148 -0.015854
-0.138035 0.102407
-0.108152 0.001497
0.284761 0.224427
0.147939 -0.095633
-0.117730 0.060971
0.102368 -0.012717
-0.076609 0.054095
-0.015504 0.090755
0.198995 0.041850
-0.062394 -0.023568
0.106410 -0.089800
-0.059654 0.067982
-0.000736 -0.010197
-0.028293 0.194487
-0.039518 0.026279
-0.037414 0.093756
0.133197 -0.094815
0.157643 0.148149
-0.148457 0.026744
0.148457 -0.096623
-0.037169 0.069549
0.006667 -0.259624
0.132588 -0.059617
-0.004614 -0.075344
-0.255455 -0.172085
-0.067634 -0.031373
0.035508 0.003817
-0.269821 0.025943
0.033964 -0.059492
0.087569 -0.131171
-0.137876 -0.071924
0.166568 -0.053585
0.080522 -0.046631
-0.323757 -0.003096
0.113557 -0.152850
-0.256402 -0.073246
-0.084631 0.003664
-0.002761 0.075770
-0.014209 -0.122494
0.126982 0.237174
-0.047609 -0.082036
-0.105115 0.102944
-0.210989 -0.021496
-0.052919 0.153890
0.022286 0.138812
0.106750 0.180715
0.129890 -0.043270
0.002508 0.118286
0.037944 -0.305228
-0.207587 0.389698
-0.044836 0.028407
-0.094998 -0.097702
-0.029011 0.055499
0.113165 0.118481
-0.236217 0.047145
0.006944 0.237396
0.018308 0.131841
0.255606 -0.271843
-0.102196 -0.064376
0.119781 0.157974
-0.365006 -0.220466
0.141659 0.077979
0.037218 0.095826
0.105323 -0.084763
-0.147322 -0.088998
0.027162 0.049437
0.047690 -0.137972
0.201586 -0.092677
0.117225 0.108736
-0.119355 -0.116456
-0.062025 -0.014245
0.146259 -0.054859
-0.083383 0.032006
0.353123 -0.117827
-0.139600 -0.181027
-0.011260 0.034785
0.096054 -0.154916
0.052845 0.122677
-0.209768 -0.113824
0.102505 0.057817
-0.338141 -0.132534
-0.031682 0.075926
-0.002321 -0.091293
0.103750 0.108717
-0.218289 -0.102003
-0.039530 0.010625
-0.225666 0.207537
-0.095072 -0.074413
-0.196946 0.026674
0.020031 0.232055
-0.287759 -0.240572
-0.001258 -0.003138
0.094474 0.205200
-0.129771 -0.111243
-0.124833 0.247507
-0.100274 0.022047
-0.073640 0.153045
0.102933 -0.269560
0.107966 0.077832
-0.182235 -0.151080
-0.016295 0.039118
0.001375 0.048167
0.121488 0.345188
0.124970 -0.099747
0.088097 -0.233468
-0.182038 0.022127
0.296448 -0.150346
-0.203748 -0.033913
0.250187 0.007863
-0.313456 -0.035705
0.021176 -0.117898
-0.301406 0.195944
0.142997 0.340922
0.184423 -0.235399
0.153335 0.020962
-0.134491 0.001862
-0.170442 0.062620
-0.356493 0.028255
0.027695 0.137234
0.240319 -0.011059
0.028039 -0.210095
-0.267896 0.195046
0.091440 0.091844
-0.198162 -0.001490
0.100318 0.326094
-0.167094 -0.081948
0.004712 -0.214838
-0.523172 -0.385268
0.718415 0.162530
-0.230264 0.192457
0.082645 0.246759
0.065418 0.066284
-0.024462 -0.371493
-0.165859 -0.314647
0.081174 -0.263515
-0.446786 -0.214732
-0.330031 0.003385
0.174251 -0.074160
0.175873 0.598845
-0.326567 0.267649
0.096775 -0.148262
-0.145922 -0.187072
-0.176518 -0.344677
0.088687 -0.113708
-0.144045 0.100234
-0.276288 0.281938
-0.037134 -0.056257
0.304847 0.112511
-0.205305 0.051077
-0.300792 -0.013838
-0.003575 -0.383422
-0.291070 0.407710
-0.053231 -0.262138
0.337840 0.175322
-0.084142 -0.146581
-0.026069 -0.058518
-0.091392 -0.453213
0.117887 0.177827
-0.556734 -0.323593
-0.019649 0.089033
-0.245407 0.011915
-0.433855 -0.091632
-0.146665 -0.394529
0.000813 0.028557
-0.691841 -0.250940
-0.394404 0.585565
-0.267069 0.534261
-0.497988 0.599477
0.351672 -0.092442
-0.848561 0.834866
-0.576538 -0.704826
-0.984264 0.824559
-0.103786 0.047648
-0.295689 1.146689
0.736733 0.241933
-0.258967 1.074888
-0.440850 0.785736
0.201584 -0.536799
-1.008312 0.849983
-0.618349 -1.331365
0.175447 -0.410418
0.519097 -1.616590
0.550420 0.659466
1.163707 -1.431532
-0.943147 -0.695901
-1.561675 1.248181
-1.949252 -2.347679
-2.195814 -0.347965
3.573752 -2.547838
-1.184778 -3.701537
6.659214 -3.357480
-1.302088 -0.901589
-1.483228 -0.804786
-10.496147 -0.511280
3.103171 0.934980
-18.671390 3.750665
5.980863 -0.836892
2.775536 6.577187
-3.925223 4.119368
9.780631 25.409381
-4.066448 11.517826
-0.990089 67.844759
-16.967686 -2.507251
47.739537 34.843341
-31.688012 -2.632950
-613.085066 -81.269685
