6954.527308 7607.363661
-2212.592446 2658.074105
64.568975 -1924.381454
-170.436701 -2860.322080
-1026.916511 -671.360264
-911.690459 442.981226
-570.451297 -209.831711
-276.407816 279.649732
-261.447082 -30.757936
-292.507645 -257.882078
81.718091 175.890257
35.110379 -77.322891
122.139087 -81.052959
-136.310922 -213.089291
-15.764314 -42.156239
-87.328654 -36.628742
55.845920 -61.338839
66.584607 -135.185002
-80.580452 -165.564988
-121.036170 -109.639524
-120.850269 -18.410291
-132.370805 25.001252
-160.785616 29.609013
-117.862137 3.888307
-106.328411 39.984680
-61.530920 47.248334
-24.947579 72.537526
39.209922 10.962588
39.917242 -11.823766
2.105024 -9.863717
-11.132707 4.104235
9.041820 7.592357
4.764049 -45.486279
-4.477224 -28.895085
-55.897984 -51.178612
-71.829766 -31.207249
-72.448475 -14.465740
-31.788369 6.041504
-14.385542 5.678390
-13.732180 14.333072
-12.727304 30.552607
-7.048312 39.933158
32.447716 31.968182
35.193430 3.201052
13.182214 -24.543979
-24.211746 -6.099568
14.393746 -8.653427
29.081379 -19.739610
29.700787 -65.980796
-10.362460 -70.942026
-47.848521 -51.424050
-59.858528 -7.106437
-35.640730 12.779100
-10.522109 -9.711817
-13.283380 -14.010092
-24.979023 -9.994524
-16.427665 12.378226
2.311919 18.436779
8.659288 12.996695
5.496126 4.758135
15.939541 0.832121
27.493837 -9.406067
22.009401 -27.749068
1.062133 -47.841983
-30.958699 -46.036952
-32.876270 -16.614244
-25.557366 6.517475
2.031847 -5.323940
-12.789256 -18.333927
-20.865610 -22.431647
-35.698331 1.460681
-20.434987 20.134819
0.322596 19.865000
4.752357 0.251495
-3.928956 -10.944348
-2.595010 0.517341
7.801997 1.953495
17.149618 -10.383851
16.451794 -31.798078
-3.352345 -44.936513
-31.419818 -37.141277
-33.612828 -14.790759
-17.957866 -8.844922
-12.364922 -12.369214
-25.100763 -11.925042
-33.114985 -3.298046
-24.153709 6.613596
-15.178389 12.416830
1.632118 10.206294
-5.413766 3.083158
-2.207561 -2.684128
-1.418491 -2.817630
9.269139 -8.844355
10.132008 -19.551975
-2.742769 -28.112955
-21.591460 -23.379078
-29.786563 -2.887819
-15.563502 6.482978
-4.932634 -2.324154
-9.203245 -8.540696
-17.385839 -5.630979
-20.700487 0.744894
-13.999285 9.362972
-1.693274 6.653047
3.088273 1.392797
-6.086033 1.900656
-1.473426 10.465898
15.901562 1.960939
13.952860 -15.785874
-0.195877 -20.436146
-17.851297 -16.966954
-15.226296 -7.574252
-7.965671 -0.861443
-4.098065 -9.908790
-14.785909 -18.095026
-25.729639 -5.909632
-21.298820 8.746527
-14.375766 11.152174
-6.747318 2.977353
-8.669577 -0.731948
-13.774122 3.589321
-8.943738 12.009679
6.975799 11.524516
12.977253 3.720667
5.537076 -9.490650
-5.421466 -10.558518
-8.422153 -6.359282
-4.130837 -1.505785
-4.430353 -6.611423
-11.819189 -5.757089
-15.940697 3.574941
-14.817965 9.355585
-2.673509 12.041993
5.835300 8.079324
3.687853 1.467206
-3.250910 3.351192
-3.072041 8.808951
7.464152 7.396864
9.358193 2.123298
11.140551 -6.306565
5.821779 -8.779876
1.452329 -8.271462
2.597164 -8.066994
2.685252 -14.748925
-7.889890 -17.158821
-15.528834 -11.707684
-16.480067 2.519855
-8.826895 5.231052
-0.164322 3.782392
1.598835 -4.938253
-3.254236 -3.111795
-4.977324 4.053738
3.041228 5.869954
10.025802 -2.242966
5.987808 -9.616533
-1.842450 -12.921484
-2.763512 -9.008893
-1.510711 -6.208492
2.772556 -10.265906
-4.152706 -19.165664
-15.059618 -17.077426
-22.487108 -2.017614
-15.230259 8.747789
-3.317805 8.483853
2.526013 0.952425
-3.124674 -2.496614
-2.806377 -0.927539
-0.749835 3.055383
4.102931 -2.648424
1.811158 -7.031972
-0.667206 -10.127130
-2.629405 -4.759151
-0.506765 -4.837855
0.896734 -9.862697
-3.490574 -15.381258
-13.959824 -13.074340
-16.778358 -5.372679
-10.114012 4.373235
-3.383657 3.413179
-1.472991 -0.195410
-6.184652 -3.667032
-6.319392 -0.436723
-4.623390 1.693017
-0.246783 2.182521
0.610633 -1.049856
-0.349569 -2.973031
-0.047772 -3.047020
4.580080 -6.715432
2.625185 -10.761608
-4.128284 -16.647873
-15.552711 -13.809852
-18.712768 -5.666248
-16.931746 4.418921
-9.037738 6.064987
-2.971609 2.918261
-2.741281 0.004605
-6.994688 0.551946
-6.129805 3.794734
-0.599549 4.346798
2.191662 -0.047297
1.014372 -1.719676
-1.923307 -1.974741
0.565816 0.809559
4.207635 -3.172787
4.948339 -10.585307
-2.313988 -16.612976
-13.173807 -14.193967
-18.809834 -4.011146
-13.062194 5.665776
-7.548025 6.323738
-4.143928 2.929922
-5.334269 2.819162
-1.728008 5.138173
0.433760 3.776248
2.347918 -0.960839
-1.355394 -4.195644
-4.013972 -1.055525
-1.426228 3.371684
4.926337 0.397671
4.631119 -7.357918
-2.773666 -12.437353
-10.277876 -7.523179
-9.638369 -1.988094
-5.641622 0.684228
-4.806859 -2.530428
-9.386053 -3.268065
-11.579690 2.653745
-6.831953 9.511761
2.423448 9.607531
6.693399 2.350906
2.730046 -3.101090
0.473124 -2.104520
1.501614 -0.178604
4.036949 -2.618222
2.973331 -7.985860
-1.698075 -10.184906
-7.460753 -6.801777
-7.168518 -2.085213
-4.096075 -0.590737
-3.470354 -2.025380
-5.243727 -3.033583
-6.567628 -0.200798
-5.085248 3.168401
-1.267057 3.016086
1.913142 0.698782
2.540995 -2.164724
0.438080 -3.234928
-0.963935 -2.559703
-0.430460 -3.407252
1.650906 -4.510266
0.550659 -8.691117
-2.486514 -10.476359
-6.176074 -10.056350
-9.232384 -6.865223
-8.818582 -5.185885
-9.686376 -4.231756
-10.840236 -2.319660
-11.566907 1.458999
-7.677584 6.137321
-1.793863 5.623161
0.527385 1.964363
-0.086856 -2.200678
-2.552993 -2.538500
-2.868182 -0.084243
0.440247 -0.646794
0.777885 -5.104620
-4.251911 -6.956133
-7.990307 -4.009091
-6.839275 0.264838
-3.150728 -1.215059
-3.980225 -5.470185
-10.919294 -6.421165
-14.192755 1.574364
-10.232989 10.600073
-1.089162 10.647609
3.796361 3.744998
1.668250 -1.122473
-1.087063 -0.668294
1.318016 0.965784
4.214855 -2.679396
0.931839 -8.318101
-6.338809 -8.522494
-8.833784 -3.566387
-5.078010 1.075384
-2.052394 -1.932085
-4.568529 -6.664002
-11.508474 -5.412738
-14.065547 2.230327
-9.345773 8.444262
-2.308366 8.734191
0.437050 4.917738
-0.258402 3.509769
-0.153877 2.754195
1.941630 0.997768
2.305934 -1.777668
-0.736047 -4.291806
-3.490576 -3.263738
-4.112113 -0.937539
-1.470363 -0.532632
-1.149210 -3.736360
-4.737263 -4.745581
-9.167548 -2.586261
-9.625727 1.719616
-7.146277 5.132801
-3.957523 6.542166
-1.520621 5.482479
0.094652 3.816756
1.165026 3.495583
2.917764 2.027947
3.650511 -0.195334
3.342672 -3.661917
0.650791 -5.520276
-2.741040 -4.309919
-4.250894 -2.542151
-3.046245 -0.158981
-1.714181 -1.669139
-2.467600 -4.335839
-6.303532 -4.315904
-8.567773 -0.076845
-6.330018 5.327914
-1.254370 5.467210
0.896518 1.579728
0.224864 0.163922
-1.109899 1.376750
0.295147 3.433956
3.984772 0.595193
3.296106 -4.137826
-0.772095 -5.235815
-3.763379 -1.995843
-0.850421 -0.106333
1.508265 -3.031212
-1.649607 -7.121353
-7.319172 -5.972705
-9.532728 0.563972
-4.423600 5.202899
0.314953 3.875112
0.781423 -0.430634
-1.987870 -0.745606
-2.228848 2.260938
1.848751 2.864238
5.243230 -0.716448
3.504963 -5.853702
-0.893966 -5.895726
-1.909389 -4.092338
0.694924 -4.885546
-0.662987 -8.165564
-6.163723 -8.822197
-10.686846 -4.194569
-9.325452 2.022732
-3.627345 3.371848
-1.334775 -0.855837
-4.239054 -2.385709
-7.245166 -0.239272
-5.206752 3.850683
-0.400827 4.073635
1.858024 0.705084
1.059390 -2.771575
-1.404526 -3.415154
-2.565767 -2.091693
-2.723380 -2.551762
-2.966133 -4.489204
-5.512646 -3.981139
-7.218491 -2.052398
-8.090790 1.010391
-6.581760 2.312237
-4.521734 3.772851
-2.710428 3.068410
-1.881002 2.186519
-1.610022 1.884489
-1.394701 2.332348
-0.777933 2.331546
1.017785 1.719085
1.423188 0.255906
0.902936 -1.373043
0.132747 -2.535837
-0.416680 -3.608856
-2.253163 -4.706487
-5.312533 -5.201704
-7.821100 -2.454966
-7.526665 2.010822
-4.003990 4.157171
-1.315878 2.268857
-2.424490 -0.318225
-4.835527 0.799886
-3.454890 4.017955
0.816762 5.342487
4.052562 1.969627
2.642031 -2.684562
-0.165844 -3.326737
-0.545297 -1.709192
1.204637 -2.299655
0.019042 -5.332341
-5.100915 -6.217159
-9.097257 -2.293262
-6.742693 2.787683
-1.524885 3.753436
-0.513861 -0.337985
-3.414980 -2.837609
-6.965663 0.578398
-4.707520 5.868636
0.988280 6.168242
3.790474 1.701887
1.308253 -1.323525
-0.583422 -0.743136
0.902366 0.912014
3.629614 -1.590650
2.305426 -5.352887
-2.539854 -7.378897
-6.076802 -4.240197
-5.303450 -0.318251
-3.609666 -0.277742
-3.190684 -1.743624
-5.091589 -0.552657
-4.841185 2.558847
-1.969855 4.576167
1.468235 2.575243
2.218124 0.012238
0.568766 -1.104013
0.432906 -0.795336
1.710595 -1.063688
1.673381 -3.312432
-0.052117 -5.433569
-3.074400 -5.150993
-4.950460 -3.345122
-4.781325 -1.491282
-3.520984 -1.112839
-4.467712 -1.405373
-4.891931 -1.023834
-5.106733 0.452765
-4.054479 3.071002
-1.701578 3.548250
0.675213 2.541567
2.078696 -0.081740
0.084816 -1.734411
-0.709222 -1.631262
-0.535628 -1.058568
0.308277 -2.822493
-0.408361 -5.428055
-4.297467 -5.727812
-6.099537 -3.555107
-5.249490 0.141624
-3.723775 -0.549808
-3.430839 -2.645941
-5.965255 -2.727650
-7.674932 1.358217
-4.372937 4.885569
0.103992 4.334085
1.820688 -0.076687
-1.607008 -3.564381
-3.837273 -2.049066
-3.117218 0.660428
-0.552286 -0.118790
-0.933271 -3.043422
-4.027418 -3.072777
-5.444273 -1.772393
-3.796008 -0.156386
-3.310070 -1.770604
-5.876589 -3.198093
-10.050373 -0.431238
-9.766309 5.778842
-3.714370 8.771331
1.599265 5.930519
2.506244 0.995646
-0.832761 -0.230150
-2.319066 0.949879
-0.523170 2.318401
0.895431 -0.893430
-1.351989 -2.538425
-4.112429 -1.481043
-4.152882 1.611669
-1.080598 2.115068
-0.091537 -0.903639
-2.377954 -3.904034
-6.241623 -1.859529
-7.490414 2.901273
-4.477824 5.441120
-1.028717 5.108255
0.121596 3.752918
0.388133 2.903739
1.267614 2.877051
3.135799 1.635083
3.111040 -1.196176
0.839974 -3.744747
-1.419523 -3.733319
-3.078399 -2.342557
-2.645840 -0.711949
-2.339876 -1.108424
-3.181599 -2.153469
-4.699398 -1.840080
-6.493599 0.228595
-5.318169 2.821042
-3.300959 4.754659
-0.952980 3.853759
0.426327 3.103660
0.285583 1.609191
0.097694 1.727065
0.824577 0.639079
1.237074 -0.921030
0.442195 -1.859613
-1.081300 -2.044841
-1.731196 -1.464972
-1.074365 -1.434213
-1.985138 -2.694534
-4.896950 -2.731731
-6.756787 0.243057
-5.313434 3.320001
-1.353479 4.791904
1.017829 2.407897
-0.267590 0.335319
-1.616603 0.899674
-0.490413 2.231880
2.280570 1.988920
3.537831 -1.714268
0.784474 -4.635092
-2.692138 -3.594161
-3.556763 -0.726415
-1.079418 -0.004595
-0.169085 -2.319533
-2.531107 -4.007919
-5.442601 -2.490741
-6.178134 0.167063
-4.183776 2.240720
-2.841724 1.358669
-3.580169 1.042165
-3.608571 2.986679
-0.906558 5.187770
2.472166 2.969826
3.220926 -1.207872
1.194808 -3.882660
-2.660745 -3.260996
-3.283288 -1.798066
-2.202233 -1.007778
-2.261998 -1.947527
-4.129293 -2.357532
-5.149703 -0.675184
-4.426544 1.108362
-3.216848 1.507760
-2.942194 0.549359
-3.817802 0.889220
-4.969050 3.103154
-2.348059 5.179377
1.236499 4.106399
2.821232 1.289701
1.874878 -1.551003
-0.106681 -2.664616
-1.557152 -2.510894
-2.511345 -2.139362
-3.686567 -2.387241
-4.729436 -1.737999
-5.626037 -0.042262
-4.922772 2.029221
-2.047663 2.441864
-1.577910 1.377901
-3.085787 0.132217
-4.974263 1.399783
-4.775619 4.370943
-1.110921 6.474314
2.504936 4.913992
4.126472 1.187534
1.630429 -2.221333
-1.059605 -2.687491
-1.602822 -1.377871
-2.231929 -1.184179
-3.015129 -1.180892
-4.796629 0.212612
-4.573753 2.292736
-2.876165 4.159072
-0.414643 2.862086
-0.410854 1.335891
-2.293433 1.530889
-3.099513 3.407857
0.354214 5.386543
3.119469 3.825605
4.368427 0.618147
2.382472 -1.482286
0.875841 -2.065813
0.014582 -1.105340
0.192813 -1.655874
-0.584956 -2.807628
-2.682171 -2.097562
-3.133759 -0.235122
-2.272983 1.133227
-0.607935 -0.248785
-2.103378 -1.424390
-3.980948 -0.994238
-4.518928 2.063379
-1.778440 4.526367
1.470125 3.911756
3.020733 0.702302
1.530707 -1.473833
0.174081 -1.513847
-0.096287 -0.982432
0.266842 -1.893135
-0.718176 -2.946694
-3.188026 -2.928157
-3.884093 -0.996072
-3.233492 0.964152
-1.272975 0.816157
-1.077557 -0.667143
-2.651022 -2.049499
-5.011213 -0.071504
-5.072997 3.010800
-0.915544 4.410900
1.459997 3.739097
2.320329 0.762504
1.605760 -0.997847
1.080459 -1.135964
1.034311 -2.036829
-0.424108 -3.644703
-1.998609 -3.848369
-4.016808 -2.287744
-4.313444 -0.257370
-2.669200 0.354490
-1.737944 -0.465455
-3.361168 -1.111229
-4.580218 0.513635
-3.768011 3.257594
-0.726801 3.174500
1.072165 1.430608
0.937158 -0.894066
-1.109711 -0.729091
-1.420459 0.504174
0.269940 -0.038880
0.931612 -2.285832
-1.070827 -4.266412
-3.668928 -3.127056
-4.767900 -1.226240
-3.897595 -0.246459
-3.406886 -0.236298
-4.655123 -0.455151
-5.728649 1.400475
-4.048491 3.982765
-0.936671 4.182876
-0.098764 2.161354
-0.272027 0.553109
-1.367885 0.757397
-0.732568 1.809302
0.545393 1.677348
1.289403 -0.569727
-0.162178 -2.814102
-2.641077 -3.181830
-4.120069 -1.796897
-4.246697 0.350750
-3.372266 0.864249
-3.707033 0.938195
-4.472703 1.358786
-3.622244 3.409991
-1.580947 4.312756
0.243948 3.462560
0.485397 0.919231
-0.243786 -0.133504
-1.209895 0.748826
-0.710382 1.467617
0.497973 0.688470
0.160759 -0.581305
-0.780239 -1.434975
-2.306623 -1.229812
-2.002762 -0.598595
-2.104526 -0.583521
-4.022468 -1.157357
-5.484395 0.712407
-4.950947 4.100314
-2.074544 5.856884
1.516908 4.892991
2.532947 1.195927
0.438715 -0.018411
-1.071699 1.132311
0.657234 2.853040
2.707963 1.337095
3.171773 -1.388042
0.671164 -3.633628
-1.694476 -2.427236
-1.889669 -0.825762
-0.969971 -1.448986
-1.625172 -2.637957
-4.517039 -2.114850
-5.309108 1.110041
-2.804637 3.856057
-0.215123 3.020300
0.314546 0.954747
-0.760696 -0.050253
-1.071559 1.950015
0.697244 2.350723
3.029921 0.793560
2.644784 -2.893150
-0.437525 -4.563899
-3.055638 -3.453663
-2.865142 -1.594251
-2.766872 -1.711989
-3.463464 -2.208368
-4.993600 -1.143517
-5.071236 1.084307
-3.228647 2.686065
-1.552197 1.939405
-1.511827 0.855285
-1.643695 0.403446
-2.358688 2.018780
-0.825865 2.190169
0.390268 1.336023
0.444677 0.013196
-0.563963 -0.827785
-1.781235 -1.134441
-1.504499 -0.602230
-1.364221 -1.241354
-2.398250 -2.343065
-4.437030 -1.703063
-5.753996 0.555953
-4.512599 2.449518
-2.362713 3.750142
-0.667938 2.325371
-1.042344 1.044465
-1.667394 1.183971
-0.973931 2.779876
0.458968 2.612928
2.283223 0.434291
0.730755 -2.221845
-1.822003 -2.702910
-3.428942 -1.008336
-2.540312 -0.106058
-1.630403 0.184625
-2.292156 -1.326692
-4.719311 -0.792076
-5.150269 1.117814
-3.494887 2.637509
-2.059099 2.039782
-2.253766 1.142098
-4.445112 1.985933
-3.062834 4.536210
0.312000 5.379423
2.933551 1.809939
1.388166 -1.711228
-1.508481 -2.225727
-3.147186 0.414942
-1.672038 1.282565
-0.984318 0.052598
-2.143042 -0.857431
-3.887895 0.323644
-3.324819 2.613393
-1.625022 2.849999
-1.305256 0.878352
-3.686061 0.511373
-4.802668 2.623870
-2.432605 6.334302
1.727738 6.269490
4.028240 1.693748
2.397923 -1.060993
-0.263133 -1.196013
-1.070777 0.611067
0.291950 0.399093
0.332561 -1.593008
-2.409593 -2.252543
-4.221981 -0.528567
-3.810987 2.399418
-1.689840 2.940879
-0.690226 2.189955
-1.573932 1.413086
-2.589421 2.384067
-1.787442 4.009045
0.341256 4.399441
2.388213 3.376086
3.077837 1.385124
2.159854 -0.259719
1.128433 -1.205593
-0.057114 -1.547689
-0.907555 -1.533522
-1.775625 -1.337518
-2.099907 -0.900291
-2.626680 0.006509
-1.879352 0.703537
-1.532101 0.810721
-1.866161 0.694088
-2.603474 1.023931
-2.480557 2.503986
-0.797693 4.028193
1.544074 3.693026
3.429900 1.118872
2.618194 -1.225536
0.026961 -1.880048
-0.610580 -1.251354
0.033502 -1.107340
0.264056 -2.325764
-1.929065 -2.900461
-3.725871 -1.799940
-3.759253 0.657863
-2.030244 0.828145
-1.863018 -0.581833
-3.835318 -0.830449
-5.183623 1.725109
-3.045459 4.849376
1.086548 4.384001
2.021978 0.982126
0.151684 -1.046601
-1.953861 -0.176086
-0.854561 1.534811
0.959817 0.670883
0.588016 -2.780836
-3.025391 -3.855821
-5.655595 -0.679639
-4.655213 2.885678
-1.363616 2.705071
-1.153627 0.606950
-3.189160 0.394938
-4.110204 2.437607
-2.002569 3.957669
0.141185 3.396916
0.348801 1.614156
-0.630726 1.070869
-0.490975 2.519226
1.504336 2.706826
3.132960 -0.215338
1.134508 -2.864485
-2.102672 -2.845442
-3.595803 -1.269752
-3.111886 0.372597
-2.105995 0.259106
-3.208143 0.000740
-4.092822 1.012131
-3.172962 3.510264
-1.364492 4.054214
0.579157 2.957601
0.668283 0.816769
-0.424628 1.041530
-0.851210 1.564997
0.063094 2.073310
1.105790 1.533781
1.429966 -0.407477
-0.114264 -1.765915
-1.883012 -1.912612
-3.322924 -1.116836
-3.853016 0.424890
-3.050289 1.292830
-2.861873 1.762864
-2.776471 2.643432
-2.097483 3.110711
-0.893454 3.809824
0.812738 3.085100
1.188043 1.185870
-0.202511 0.647265
-0.893547 2.262013
0.731043 2.463415
2.477862 1.052263
2.643547 -2.160779
-0.754697 -3.685018
-3.678011 -2.075382
-3.483434 0.980372
-1.838624 1.964926
-1.141775 1.182601
-2.052645 0.999652
-1.819200 2.951644
0.334330 3.509238
1.623601 1.536077
0.314620 -0.508198
-1.782560 0.179283
-1.577925 2.710136
1.587288 3.697241
4.159615 0.984337
2.619241 -2.633715
-0.562877 -3.906094
-1.846642 -2.043534
-1.355888 -1.035294
-1.530360 -1.688417
-3.731038 -2.295408
-5.500203 0.180627
-4.456351 3.960141
-0.183122 4.194277
1.796476 1.771838
0.472964 -0.473734
-1.850232 -0.099458
-1.522453 2.013203
0.654269 2.543617
2.160035 0.335109
1.355050 -1.525465
-0.440767 -2.160530
-0.728485 -1.540003
-0.877231 -1.789292
-1.340852 -2.538740
-3.753572 -2.272987
-4.279511 -0.441137
-4.668207 1.482607
-2.780432 2.211898
-1.520361 1.961971
-1.247481 1.318081
-0.962053 1.203351
-1.144609 1.464732
-0.572309 1.724462
-0.042299 1.430747
0.898942 -0.010088
0.294232 -0.700547
-0.806044 -2.026923
-2.314069 -1.937061
-3.264023 -1.237803
-3.785143 -0.671457
-4.115426 0.109438
-4.523298 1.402841
-4.035761 3.061823
-3.000450 4.038820
-1.183018 3.648533
-1.647074 2.540323
-1.702615 2.921573
-0.428148 3.931103
1.562805 3.397387
2.298722 0.413910
0.640244 -1.752242
-2.036470 -1.136005
-2.018320 0.934665
-0.247584 1.242932
0.113844 -0.515850
-2.034225 -2.068469
-5.213779 -0.870498
-5.189119 2.624826
-2.319369 4.669616
-0.220487 3.207127
-0.223123 1.749281
-1.384972 2.342785
-0.482044 3.579363
2.092100 2.897944
2.753196 0.421231
0.179923 -1.920475
-1.829058 -0.898981
-1.696134 1.007281
0.331081 0.882057
0.247387 -1.229028
-1.610482 -1.903994
-4.312534 -0.313643
-3.888813 1.704331
-1.761164 2.825003
-1.513690 2.175480
-2.539183 2.389608
-2.522939 4.103202
-0.353944 4.377911
1.682421 3.190938
2.069024 0.582260
0.765768 -0.469075
-0.609716 0.360295
-0.441559 1.372580
0.356159 0.594816
0.300700 -0.868026
-1.460901 -0.983510
-2.985585 0.037742
-2.622078 0.901384
-2.501478 1.736439
-2.730392 2.340549
-2.038096 2.830249
-1.072726 3.880704
0.701755 4.588013
2.747751 2.700082
3.428427 0.454905
1.669859 -1.746264
-0.758435 -1.844460
-1.136843 -0.603146
-0.819436 0.857177
0.328688 0.583428
0.899002 -1.838173
-0.887191 -3.070294
-3.916537 -1.986517
-4.608272 -0.050989
-3.561886 1.944575
-2.679206 2.321411
-2.240460 2.381895
-1.492406 3.394151
0.382537 3.890438
2.231254 2.427702
2.362240 0.031222
0.191378 -1.533869
-1.573671 -0.709646
-0.769040 0.664609
-0.034112 0.726663
-0.397891 -1.525447
-1.958685 -1.911867
-3.898255 -0.597255
-3.626202 1.436265
-2.072743 1.183483
-2.102955 0.468377
-3.933679 1.361806
-3.902425 3.869434
-0.880422 5.405267
2.230775 3.421701
2.235785 0.228395
-0.512346 -0.754281
-1.803140 0.438778
-0.530467 1.757571
1.037529 0.826996
-0.032071 -1.748532
-2.655386 -1.993419
-4.408222 0.218134
-3.192688 2.310834
-2.175985 1.999114
-2.490700 0.494728
-4.030575 1.428233
-3.995464 3.802826
-1.653915 5.245345
0.974872 3.984321
0.972661 1.902629
-0.405767 1.072954
-1.005500 2.576047
0.203770 3.232344
1.433912 2.115902
1.707987 -0.198451
-0.433946 -1.668098
-2.233316 -0.669704
-2.906813 0.470550
-2.487337 1.643900
-2.707989 2.192295
-2.179703 2.577685
-1.568047 3.642371
-0.290576 4.389458
0.987972 3.910510
1.076057 2.354432
1.293728 1.332425
0.432460 2.344399
1.297438 2.704736
2.977936 1.955909
3.140935 -1.146345
1.329545 -2.075877
-1.209536 -2.662116
-2.488529 -0.881481
-2.215621 0.785583
-1.800971 0.273358
-2.576594 0.522281
-3.171414 2.034431
-2.015739 4.328180
0.700310 4.056412
2.186256 2.573808
0.967093 0.421313
-0.187050 0.849131
0.288427 2.327014
1.652879 2.286317
2.726130 -0.588589
0.692498 -3.092366
-2.471830 -2.101316
-2.812218 0.142352
-1.279358 1.562527
-0.302750 0.656322
-1.575053 -0.269793
-3.215956 0.988235
-2.917739 3.784396
-0.603582 4.631317
1.561710 2.852884
1.031234 1.542581
0.029816 1.582069
0.809061 2.438093
3.116714 1.830794
3.888089 -0.770143
1.724479 -3.447139
-0.883258 -3.514774
-2.633708 -1.716697
-2.679451 -0.094586
-2.497985 -0.404549
-2.831934 -0.088605
-3.127659 1.718825
-1.587591 3.070465
-0.039546 2.301991
0.733513 0.690081
-0.839427 -0.603532
-2.535715 1.167396
-1.419199 3.127290
1.321104 3.176605
3.092249 0.866207
2.382282 -1.967738
-0.781586 -2.975761
-2.522940 -1.508536
-2.092001 -0.741798
-2.116707 -0.905811
-3.055253 -1.090638
-4.722961 -0.099415
-5.094383 2.936994
-2.832473 4.463840
-0.399186 3.636405
-0.169649 1.895639
-0.485465 1.390710
-1.369758 2.137688
-0.095104 3.253780
1.426946 1.713394
0.780219 -0.163820
-0.992388 -0.654001
-1.833041 0.072340
-0.553750 0.863482
0.102611 -0.223795
-1.280887 -1.746552
-4.193483 -1.095082
-5.498378 1.416202
-4.263403 4.414559
-1.328527 4.489744
-0.062666 3.410210
-0.430070 2.950868
-0.407084 3.548548
1.315210 3.391952
2.144245 2.013622
1.683431 0.004067
-0.066326 -0.830583
-1.125186 -0.029669
-0.705235 0.944094
0.283999 0.049802
-1.070932 -1.426171
-3.348383 -0.500928
-4.057059 1.926587
-2.593792 3.646727
-0.799088 3.711512
-0.193077 2.638593
-0.922807 2.729878
-0.733650 4.113458
1.214281 4.297640
3.331349 2.476442
2.726698 -0.274674
0.589251 -1.059155
-0.881387 -0.222709
-0.310828 1.414061
1.719326 0.732097
1.546481 -1.308217
-0.651574 -2.756760
-3.385110 -1.621937
-4.545015 1.477884
-3.009888 3.250089
-1.099438 3.458710
-0.126478 2.611956
-0.068823 2.722442
0.803918 2.383658
2.090536 1.614812
1.763799 -0.400511
-0.206533 -1.368647
-1.748689 -0.213599
-0.750710 1.252498
0.925148 1.119854
1.300338 -1.106133
-1.498372 -2.893913
-4.059356 -2.108173
-4.608303 0.670624
-3.461577 2.844545
-2.138884 2.790176
-1.585959 2.533727
-1.599430 3.422675
0.024983 4.234356
2.157876 2.855681
2.396116 0.171314
0.028356 -1.089602
-1.769637 0.183403
-0.703149 2.157298
1.210752 1.834896
1.861082 -1.250856
-0.481997 -3.179722
-3.790129 -2.026375
-4.409690 0.485235
-3.501262 1.980458
-2.663729 1.534112
-3.168971 2.458266
-2.676195 3.753490
-0.735318 5.163585
2.233790 4.313318
3.538081 1.156924
1.055231 -0.945912
-0.694715 -0.508692
-1.320152 1.256535
0.220277 1.032059
0.862843 -0.552397
-0.561700 -1.973457
-2.585900 -1.907770
-3.336082 -1.040107
-3.948058 0.236808
-4.422741 1.121582
-5.139925 2.383516
-4.031436 4.298910
-2.047404 5.424253
0.374688 5.098293
1.913577 3.463709
1.687835 1.217551
0.480971 0.806416
-0.868417 1.328417
-0.552961 1.036960
-0.060112 1.235166
-0.300060 -0.322122
-1.975861 -0.261615
-3.363652 0.965791
-3.033327 3.059099
-1.639012 3.134715
-1.565912 2.559474
-2.843684 2.970136
-2.267913 4.632801
-0.684464 5.591747
2.095917 5.054571
2.193668 2.882115
1.204415 0.572409
0.443806 1.767333
1.440659 2.274095
2.321630 1.116310
1.691656 -1.464956
-0.958703 -2.351523
-3.863113 0.529129
-2.359879 2.787925
0.315841 2.843855
-0.067214 1.041643
-2.312962 0.740566
-3.468125 3.370606
-1.599718 5.891347
1.585677 5.839473
3.262249 3.210285
2.056534 1.886649
1.354248 1.923347
1.692556 1.683180
2.601415 0.617473
1.994631 -1.876367
-0.975657 -1.690713
-1.847363 0.463584
-1.004490 1.922755
0.420058 1.227070
-0.626163 -0.176401
-2.818324 0.364749
-2.594766 3.278904
-0.545711 4.513845
1.111746 3.063230
1.287104 1.836748
0.528665 1.978238
0.751668 2.551200
3.143993 2.202772
3.701365 0.142742
2.097033 -2.487154
-1.076014 -3.076671
-2.279791 -1.619081
-2.358082 0.751121
-1.489100 0.864932
-0.913710 0.470506
-1.710106 -0.125581
-2.348747 0.961754
-2.473014 1.964781
-1.846915 3.532705
-0.356014 3.720025
0.462421 3.497590
1.033531 2.896505
2.216659 2.099861
2.760248 0.780991
2.168544 -1.184171
0.008073 -2.789991
-3.200680 -2.233119
-3.624448 0.471160
-2.609708 3.220684
-0.541224 2.545409
-0.136013 0.523374
-2.532364 -0.261046
-4.468164 2.071148
-3.069131 5.303769
-0.343493 5.072076
1.328907 4.177568
1.020992 2.940431
1.350885 3.311857
3.455681 2.876733
4.203386 -0.269352
1.856821 -3.205158
-1.684920 -2.853407
-3.073840 -0.301113
-1.510515 1.728544
-0.300697 0.963563
-1.636315 -0.429014
-3.744814 0.345850
-3.647023 2.958103
-1.370319 3.739235
-0.251083 2.800789
-1.056362 0.783778
-2.859632 2.490999
-1.317956 6.035604
2.924280 5.788569
4.615187 1.871650
2.147016 -2.234021
-1.466543 -1.525808
-2.627576 0.911859
-0.840093 2.143283
0.440567 0.423830
-1.701120 -0.991280
-4.337935 0.621919
-4.225331 3.513635
-2.144751 5.263811
-0.286633 5.083015
-0.106910 3.902879
-0.342152 5.029071
1.669124 5.683945
3.736004 4.093996
3.995263 1.513872
2.618148 -0.224889
0.999221 -0.318484
0.375180 0.449690
0.334583 0.865033
0.448315 -0.359827
-0.333657 -0.076195
-1.265440 0.131222
-2.396669 0.740653
-2.607032 2.341175
-1.536225 4.043498
-0.420782 3.830467
0.495195 3.585543
1.771252 3.280108
2.090919 3.528105
3.279146 2.022552
4.539675 -0.016183
2.737292 -1.211441
1.031253 -1.809096
-0.101240 -0.809031
0.557730 -0.980925
0.654440 -1.942406
-2.365240 -2.409685
-5.057600 0.071201
-4.470030 3.882255
-0.502671 4.831887
1.847121 3.096543
0.668205 0.408323
-1.210764 0.763340
-0.764750 3.585066
2.473613 4.106968
4.166750 0.779133
1.966928 -1.751143
-0.866202 -1.328738
-0.558386 0.762791
1.904848 -0.221670
1.882061 -3.378883
-2.817127 -4.374287
-6.364860 -1.899605
-5.752546 3.366702
-1.820530 4.281036
-0.069011 3.349333
-0.504004 1.394880
-1.476338 2.893674
0.149258 3.883260
2.958054 2.469536
2.368365 -1.130049
-0.916516 -2.359777
-2.455478 0.514219
-0.971148 2.393975
1.598596 0.790772
0.376705 -1.968088
-2.923361 -2.430727
-4.896573 -0.029572
-4.678038 2.523206
-2.522194 3.468652
-2.557173 2.572110
-3.503969 3.030431
-2.278914 6.065398
0.178429 6.226541
1.715049 4.629431
1.938761 2.078362
0.612775 1.333791
0.322049 2.494061
2.001335 2.375565
3.164462 0.795969
1.745840 -1.637824
-0.831983 -2.907160
-3.966070 -1.320416
-4.973828 1.386429
-3.107117 4.087828
-1.085756 3.699363
-0.655797 2.902378
-1.336468 2.172087
-1.838069 3.553244
-0.654299 4.666796
1.671420 5.041767
2.759703 2.400651
2.165958 1.474866
0.696507 0.807966
0.434200 1.244435
1.432766 0.341208
0.569351 -1.884321
-3.074480 -2.033194
-4.913827 0.676037
-3.821962 3.180474
-1.981096 4.008622
-1.047966 2.460051
-2.635009 2.472712
-3.142623 5.534592
0.157056 7.500939
3.522755 6.060904
3.348899 2.051588
0.843711 1.404341
-0.046695 3.088226
2.614491 4.804487
5.090778 0.972047
2.636493 -2.630900
-1.994771 -2.781654
-3.740424 1.175016
-1.345619 3.466044
0.697971 2.831974
-0.256360 0.667053
-2.769829 2.054534
-2.972603 5.227882
1.190257 7.190684
4.128453 4.634598
4.076500 1.582843
1.986607 0.627208
1.759527 2.797514
4.580202 2.409284
5.042103 -1.534247
1.745640 -4.354795
-2.036451 -2.964662
-3.768348 0.892510
-0.830775 2.671544
0.828360 1.174119
-0.215747 -1.113574
-3.380275 -0.328408
-4.391211 2.170297
-2.665552 4.803895
0.215501 4.865732
0.534460 4.486654
1.793986 3.595263
2.765289 2.348862
3.247215 -0.149529
2.465177 -1.568926
-0.464497 -2.870895
-2.391454 -1.686468
-3.306841 0.896530
-2.106731 1.783046
-0.668951 1.957368
-0.884065 -0.048549
-2.587362 0.016082
-4.036016 1.734822
-3.912436 4.608733
-1.565435 6.030173
-0.154885 5.299331
0.797871 3.868038
1.959420 4.270737
3.360088 3.983864
4.835599 2.071773
4.406589 -2.635223
0.568361 -4.694362
-4.608509 -2.879193
-5.639030 1.488574
-3.180253 3.475046
-1.113617 2.263364
-2.382631 0.165725
-4.515652 1.950086
-5.250199 5.788236
-1.372385 7.643859
1.520884 5.775201
1.076288 3.977960
0.295418 5.124643
1.494504 6.677373
5.141505 4.758774
6.011177 0.385603
2.139871 -3.214787
-2.613301 -1.476380
-3.166981 1.938314
-0.376110 3.513790
1.105776 1.484843
-1.389636 0.029057
-3.899054 2.145356
-3.483949 5.665954
-0.287071 6.353763
0.959446 5.315780
0.489452 4.287118
0.719574 6.037023
3.645721 6.788318
6.350659 3.712271
6.583754 -1.166922
2.047713 -2.465182
-1.399342 -0.705928
-1.037246 1.425659
1.463999 1.795537
1.049809 0.286465
-1.504903 -0.733325
-3.040630 1.744238
-2.891026 4.420475
0.479701 5.391527
1.589881 4.414991
0.895524 2.913059
-0.648154 4.231756
1.459140 5.769835
3.785578 4.916055
5.812398 2.684263
5.189186 -0.757511
1.791654 -1.545687
0.166243 -0.813492
-0.361924 0.394739
-0.358677 0.243682
-1.212532 -0.493431
-2.377522 1.419557
-2.506765 3.472483
-0.362104 5.690474
1.949487 4.224650
1.948458 2.771191
0.522224 2.591761
0.301171 4.740192
2.120269 6.035865
6.413773 4.986650
7.314779 0.564501
5.172688 -2.110671
2.515774 -2.473418
2.110869 -1.819863
1.215752 -2.407015
-0.323741 -2.601595
-2.908846 -1.646308
-3.328815 1.715616
-0.967975 4.196321
1.720280 3.115870
0.577532 0.366558
-2.141768 -0.056605
-2.705853 3.173912
0.448810 5.715130
4.010797 4.416176
4.717273 0.339837
2.395999 -1.549511
1.248369 -1.213810
2.128033 -1.466760
1.879699 -3.342597
-2.377679 -5.773212
-7.478684 -3.593241
-9.343425 3.076451
-5.108586 7.745482
0.549455 7.523982
2.455322 3.559200
-0.017344 0.924800
-2.249866 2.161221
-2.091554 4.768449
0.832271 5.678951
2.437389 3.811988
2.960039 2.303843
2.910008 2.198884
2.956508 0.775977
2.505933 -1.614937
-0.032480 -3.946397
-4.752309 -2.505997
-7.173448 1.830694
-5.170360 6.033093
-1.973324 5.796359
-0.153865 4.658131
-0.943605 3.771859
-1.116589 5.610994
0.067686 7.544964
3.506675 6.585437
4.882535 4.228619
4.527777 1.560488
2.353610 0.764463
2.708682 1.501541
3.030726 0.331862
2.433009 -2.297723
-2.305458 -3.131226
-4.614953 0.209271
-4.083815 4.006981
-1.497509 5.349409
0.266410 3.775650
-1.370509 3.035349
-3.517222 4.671770
-1.477026 7.564349
2.839470 8.533230
5.715545 6.134840
4.164317 3.221301
3.672660 2.927893
4.899788 2.939132
5.788433 1.140058
5.133008 -3.328598
0.282514 -6.375492
-4.505367 -3.578679
-5.719103 2.589970
-1.575772 6.466328
1.276411 3.987835
1.245168 2.323690
-1.533336 2.134234
-1.878861 4.554321
0.178149 6.540936
2.960756 5.707740
3.566700 3.715971
3.909905 3.302406
5.227504 2.455449
5.975727 0.418918
4.744332 -2.455810
1.428328 -4.836699
-3.400407 -2.942552
-4.874591 0.503106
-3.095966 3.317714
-1.910510 2.434388
-2.392079 2.276674
-4.034652 3.746161
-2.700430 7.634489
2.238774 8.980373
5.798293 6.543190
5.977398 2.994848
4.148763 1.251205
2.488678 1.585279
4.277881 1.626157
5.342701 -1.316275
3.744383 -4.335762
-1.597044 -4.085668
-3.646035 -0.948696
-2.233759 1.821521
-0.341819 1.392285
-1.986485 -0.436335
-4.474713 0.261380
-5.978324 6.233125
-1.002748 10.242982
4.883584 7.784877
6.631019 1.210331
3.053459 -2.013372
-0.751877 -0.435074
0.425133 2.336033
2.995639 1.120612
2.174312 -2.364706
-1.897946 -4.506539
-4.083912 -0.632006
-2.873971 2.088475
-1.765396 0.904614
-3.437700 -1.647345
-7.936124 0.228260
-9.455838 5.664076
-5.266422 10.676720
0.044890 10.801835
2.444207 6.967811
1.717343 4.791909
1.449243 4.852291
4.049798 5.138951
4.687638 1.854112
2.593542 -1.435853
-2.694307 -0.605813
-4.410693 3.616585
-2.356388 5.873379
1.111109 3.554893
-0.849066 -0.024542
-6.039303 0.851880
-6.961329 6.019957
-3.999238 10.662571
1.435618 11.730968
3.549568 8.592743
3.963102 7.183243
3.733180 7.368982
5.591542 7.357255
7.608964 4.444281
6.894296 1.023546
4.617892 -1.284029
1.078206 -1.426432
0.119296 0.593553
1.149192 1.055567
-0.717706 0.163089
-3.563152 0.306668
-6.944789 3.530044
-4.948765 9.404096
-0.226417 12.065728
4.653684 9.769352
5.876309 5.522769
3.327005 4.478572
2.529376 6.552987
5.383399 8.095452
9.046415 4.988496
8.502289 -0.677592
4.735587 -2.403348
1.408480 -0.792560
2.722070 0.471262
2.020368 -1.602895
-1.379427 -2.286426
-5.608543 1.182417
-5.869174 7.889101
0.835239 11.235178
5.535346 8.683632
4.111674 3.965955
1.824976 6.072435
4.615988 8.533838
11.477947 6.714647
12.698967 -1.510034
6.668069 -7.283359
-1.371343 -5.321003
-2.792600 1.320838
3.450666 2.282608
3.890099 -2.383211
-2.282672 -6.356228
-8.457164 -1.595321
-8.281907 7.808262
-0.479628 10.554889
4.737009 7.238001
2.527800 2.983686
-2.158688 4.342811
0.224207 10.910620
6.879567 10.092456
11.573682 5.288323
8.361720 0.167555
4.887174 -2.271307
4.192307 -0.697184
4.843987 -3.871087
1.238037 -5.800781
-5.366518 -4.350868
-9.307971 3.135549
-5.761622 9.645900
-1.093346 10.742149
3.550402 7.172041
1.613552 3.945029
-0.315822 4.409350
0.717272 8.512036
3.752352 9.572728
8.552077 6.686470
10.290789 2.755414
8.935653 -1.069154
6.458429 -4.220611
2.797831 -3.239614
-0.231569 -5.191656
-4.082455 -3.340910
-7.252866 -1.031603
-7.312360 4.541843
-4.065561 9.976684
1.648269 8.960529
2.391189 4.798966
-3.302681 2.404210
-5.977254 7.180914
-0.906850 13.887655
6.947413 13.633111
13.050231 6.002643
7.436719 -1.760118
1.506241 -0.814539
0.529290 3.541275
4.997522 1.152545
1.729627 -4.120310
-8.848316 -3.837989
-15.450151 5.089657
-8.764906 15.454017
2.635398 19.002109
9.747012 7.803336
3.948680 2.397650
-3.296512 6.314150
0.953306 18.200271
8.633455 17.717964
14.203537 8.038690
10.701389 3.368034
8.108373 6.273890
11.527240 6.571870
16.158675 -0.763572
7.610105 -10.745266
-3.827035 -8.985622
-11.446082 1.161707
-2.945141 12.765907
4.637927 11.509131
5.060885 4.804761
-1.784549 4.706185
-1.724728 12.810363
6.732935 16.331700
15.293222 9.469666
13.299831 3.786709
8.911042 0.462016
4.576779 5.810182
11.028399 4.753870
14.264323 -2.171830
8.005362 -10.880991
-1.626697 -8.282957
-4.350541 -0.378523
-0.818830 2.772121
1.988251 1.830305
2.194901 2.274496
-3.638772 1.102712
-4.379656 8.281314
-1.054175 11.810624
6.961299 13.757460
9.018690 8.963569
11.693508 5.008089
10.615665 2.085412
8.504594 1.842999
10.132006 0.413442
13.439629 -4.839768
6.715136 -8.991265
-2.043177 -12.165292
-9.890824 -5.902714
-8.709617 2.060645
-7.239119 9.173113
-2.976294 7.529721
-1.405260 8.152495
-0.424115 12.080847
5.186283 15.425524
12.047639 9.605859
12.577629 0.749436
3.487764 -1.357015
2.841181 4.504660
12.102289 3.767538
20.048230 -3.510268
12.887068 -15.412086
-2.118898 -17.936316
-14.150153 -8.260099
-9.809587 3.460158
-2.464092 1.960387
-8.738034 -4.436850
-20.733135 7.024106
-12.261588 25.019045
4.294956 28.555144
19.268790 14.036388
18.278651 -0.953643
7.255437 -5.485056
0.876992 7.357095
10.917879 11.719201
19.188692 -2.023295
8.243140 -12.803027
-7.957844 -6.945624
-9.643090 3.446210
2.316703 5.003727
5.090604 -5.519495
-12.433462 -8.905538
-27.609273 5.876593
-19.105133 26.285268
2.184154 32.665419
16.597047 19.009166
14.210610 -0.085331
2.154766 0.091297
-0.552221 13.774564
8.312548 13.908616
9.129613 3.913176
4.323980 5.040776
6.651456 9.908898
6.699555 4.587546
4.934579 0.981260
-2.933922 -3.246571
-15.953347 -0.477291
-21.150077 17.516478
-9.919423 34.163226
5.279204 34.062399
14.558617 26.033330
21.192802 23.704454
21.990827 16.667115
16.877815 15.409355
14.875156 15.197439
17.669605 13.386551
21.667129 2.964262
22.309075 -6.132611
12.048116 -2.978192
1.969597 4.166527
2.986742 -1.683388
2.380129 -12.505125
-15.173455 -4.825466
-20.830143 21.505927
-13.963303 38.108305
11.449354 43.614847
32.100441 35.804116
38.171223 14.402548
25.666402 2.831866
20.368677 11.697064
31.542863 12.514290
36.264282 -6.688982
18.784851 -17.594182
5.254332 -22.508484
1.661805 -10.634863
14.893612 -15.056414
14.086242 -21.258003
-13.897277 -30.886473
-41.457043 -8.990332
-27.697489 30.759296
4.979087 46.393252
20.797217 29.875653
15.392333 11.237085
2.001442 10.164800
15.183242 29.988077
33.129696 14.741894
43.474741 -16.488849
16.039085 -28.504817
-7.015985 -8.384590
4.742544 5.229827
9.184793 1.282840
7.834738 -5.151550
-13.164673 -5.958561
-29.770223 7.748107
-10.982808 24.556492
5.083333 41.331116
6.230923 20.982957
-23.856088 39.799709
-12.906211 61.331350
31.329909 71.351398
64.456152 38.417121
61.700560 -18.367601
31.517597 -32.723116
3.427714 -15.658562
-3.207951 -4.730379
13.450348 0.751875
-1.457969 -21.795997
-14.113402 -16.894740
-33.501247 3.110599
-50.099059 36.003767
-23.000742 66.163418
-26.671729 42.851224
29.843267 24.643638
-20.457662 46.620039
-4.891977 77.905525
56.814800 58.684685
82.770188 44.882134
97.103772 28.208503
40.680411 36.445730
27.493370 -4.865102
2.143945 19.751110
-1.198251 43.814510
-11.621160 -24.741963
-51.766287 -19.047004
-60.026768 35.980186
-26.888801 82.838247
40.767463 131.122789
30.071532 37.041036
21.305339 99.367202
28.419801 166.505561
76.769695 139.532880
383.288106 203.376847
145.610582 -112.037246
420.618000 -26.836164
-176.424786 -85.941156
388.445434 113.486595
-10.863274 89.413670
-105.367628 -22.750936
271.886432 -287.764880
-262.247170 -60.200099
-482.479653 481.475583
434.949120 26.054539
