7133.527081 7767.156112
-2884.314124 -2544.659331
-1034.531831 -65.708990
309.723982 -472.357957
-179.694679 -325.970945
-338.175922 -63.452485
-44.491920 45.037771
-112.007428 331.785837
25.960418 -72.486763
10.924186 217.286478
208.156680 138.959524
-58.071476 118.517294
-83.259886 -98.602472
7.975033 18.344781
43.958964 58.148191
50.880902 59.207734
20.822528 49.948986
26.277661 -56.159993
-113.988202 45.818760
24.231590 8.566940
42.739761 22.688628
-4.915173 23.193619
-42.358437 22.044037
-8.371024 -0.188679
19.729830 12.334993
11.066710 31.692185
3.613206 -9.025357
-18.000218 14.208226
-1.599020 11.496379
3.351064 10.347380
-7.508077 2.645651
14.436843 23.001706
17.145085 5.212405
-4.353568 14.784715
-5.328138 15.905855
2.709112 9.443208
27.673568 17.221503
2.912073 10.435168
24.113249 16.122805
8.711629 7.286143
11.090122 13.344728
13.688973 15.304166
-0.808491 12.655674
24.421522 8.724893
15.600043 24.239423
13.702175 16.930302
10.915766 2.192361
18.114027 17.284994
9.920838 13.339622
15.947885 11.755982
21.201126 18.985690
17.219252 8.049134
9.690925 11.266967
11.896544 8.727430
18.092174 9.057650
8.411753 13.200575
11.411994 13.724428
14.296106 10.095287
16.159152 6.932887
16.555873 13.590962
18.738144 11.704233
15.571849 9.187678
11.156737 12.147705
16.339239 6.427090
13.958269 8.288177
13.731562 5.696404
13.416166 3.470112
17.758212 5.928984
13.442786 8.587157
14.749202 10.044393
14.595976 4.891523
12.795399 12.732752
19.749758 5.133339
13.616371 6.950713
11.856503 6.340277
14.577562 3.873264
15.623656 1.947580
16.815163 6.367951
15.176373 5.984901
14.993002 2.534384
15.635328 5.405362
15.143329 4.389903
13.096375 3.648051
14.215536 4.921188
16.721576 6.652174
14.232437 2.700260
13.634538 3.541853
15.630761 5.535938
15.533984 5.028514
15.588090 3.189909
15.751696 3.657451
15.844889 3.393972
16.092580 2.341560
16.371989 5.351010
16.007534 1.770583
15.805783 2.704499
15.500152 3.624506
14.284508 2.988303
16.629680 2.488523
16.013968 3.529776
16.923803 3.142046
14.286624 1.768712
15.411219 1.202241
15.705711 2.562334
14.841277 0.929769
14.618433 2.570457
14.820406 0.317612
16.534021 0.328631
12.172373 -0.075852
16.328138 -2.567772
14.534017 -1.842308
15.985286 1.530970
14.815016 0.149515
14.672406 -0.705523
16.409286 1.214724
14.425797 0.319946
16.132747 -0.638244
14.982508 0.368587
16.227507 -1.147284
16.022634 -2.091434
15.997229 -0.762602
15.286151 0.081907
16.271262 -1.149828
13.659627 -0.683774
13.975462 -1.876404
13.789098 -2.025912
14.069464 -2.475888
14.264861 -2.106142
15.703685 -2.780503
14.411630 -2.470918
14.477522 -1.119837
13.685540 -3.200499
13.358993 -3.644127
14.857159 -2.795599
14.103033 -3.579729
13.341770 -1.778105
14.379745 -3.380566
14.529527 -3.636462
14.126828 -3.528151
12.560921 -3.560135
14.917452 -4.088575
13.580597 -3.995554
12.164765 -3.720070
14.641454 -4.168873
13.914055 -1.819614
12.902101 -3.060214
13.770866 -3.993230
12.456287 -5.050754
13.292212 -4.601957
12.918454 -5.740783
14.127173 -6.535629
13.331260 -3.674019
12.946764 -4.508185
12.266920 -5.014475
12.643831 -3.951935
11.562085 -5.309113
12.271373 -5.418349
12.282286 -6.707341
12.846209 -6.037101
12.181065 -5.698718
12.732122 -5.604188
11.755084 -4.804166
12.224815 -5.994777
11.026650 -6.456483
11.249688 -6.322124
11.707651 -6.597111
11.143729 -6.810567
11.745560 -5.273301
12.051401 -6.852351
11.078939 -6.220742
10.338000 -6.325359
10.908028 -6.944013
9.890797 -7.051682
9.958909 -6.776008
10.746631 -6.394484
9.623610 -6.430685
9.933475 -6.870964
10.182984 -7.068922
9.738061 -7.867003
8.974852 -8.687124
9.113216 -7.665302
10.027974 -7.553178
9.159858 -7.417294
9.255893 -8.015174
9.606488 -7.833832
8.530482 -7.166555
8.817497 -8.018212
8.860621 -8.086652
8.133364 -7.956209
9.219557 -8.757807
8.942684 -7.990483
7.688203 -8.182144
8.300276 -8.372108
7.646387 -8.480926
7.391159 -8.531413
8.091467 -7.794002
7.762923 -8.470849
7.688019 -8.602148
7.499635 -8.691746
7.233884 -8.135088
7.205807 -7.530206
7.011530 -8.066859
7.355862 -8.515535
7.123643 -8.599943
7.178658 -8.336661
7.282085 -7.927007
5.938276 -8.446699
6.407966 -8.648812
6.088815 -8.529877
6.076732 -9.231685
6.559716 -8.889966
5.344596 -8.417857
5.909525 -8.709001
6.103922 -8.714594
6.041740 -8.058281
5.559269 -8.568818
5.312895 -8.710810
5.556029 -9.275689
4.858480 -9.090584
5.113681 -8.340833
4.436062 -8.838243
4.941226 -8.423066
4.477245 -8.552526
4.593596 -8.803661
4.525120 -8.780086
4.205179 -8.431970
3.986002 -8.236167
4.128533 -8.492958
4.065851 -8.207980
4.279244 -8.251521
3.236594 -8.564282
3.837704 -8.762834
2.785554 -8.769777
3.390498 -8.547988
3.338297 -8.028195
2.954831 -8.770635
3.422856 -8.183107
2.925473 -7.915274
2.151986 -8.278081
2.625097 -9.046319
2.464685 -8.407056
2.804973 -8.656902
2.880811 -8.584567
2.345985 -8.053832
2.059270 -7.889239
2.291978 -8.125850
2.264305 -7.889499
2.054349 -7.650528
1.703513 -7.671493
1.692051 -7.372594
1.838832 -7.988998
1.936222 -7.865981
0.969316 -7.935627
1.061888 -7.494671
1.088867 -7.357392
0.944536 -7.552765
1.197995 -7.514463
0.457231 -7.605974
0.716991 -7.053421
0.874679 -7.350425
1.343759 -7.503128
1.063428 -7.588062
0.681935 -7.383234
-0.092889 -7.308141
0.230032 -7.209426
0.130482 -7.302355
0.427893 -7.087731
0.031170 -6.518215
0.104757 -6.793500
-0.059990 -6.820837
-0.546729 -6.843546
0.666180 -7.145859
-0.323746 -6.423981
0.085948 -6.694929
-0.396022 -6.431960
-0.372564 -6.824516
-0.359485 -6.360795
-0.630860 -6.436128
-0.329572 -6.161448
-0.751720 -6.783323
-0.802605 -6.173876
-0.481616 -6.104893
-0.662509 -5.956327
-0.668761 -6.074272
-0.454814 -5.533560
-0.667960 -5.415430
-0.742463 -5.840849
-1.362327 -5.551221
-0.642633 -5.246981
-1.110470 -5.234519
-1.153047 -4.939428
-1.031332 -5.378550
-0.895679 -5.123789
-0.846536 -5.383221
-0.949877 -5.358003
-1.023712 -4.904663
-1.636789 -4.668707
-1.911210 -5.359195
-1.414303 -4.525966
-1.066928 -3.867653
-1.695231 -4.365134
-1.317269 -4.838606
-1.227762 -5.132121
-1.229731 -5.145486
-1.210769 -4.223210
-1.520583 -4.447333
-1.628140 -4.139478
-1.853602 -4.082200
-1.233825 -3.771592
-1.692908 -4.175349
-1.265469 -4.499270
-2.263974 -4.115742
-1.417270 -3.261787
-1.939658 -3.924462
-1.443905 -3.606333
-2.002683 -3.627179
-1.800780 -3.827308
-1.636577 -3.772835
-1.951612 -3.558877
-1.795043 -3.353402
-1.579597 -3.254163
-1.575923 -3.327591
-1.865068 -2.900875
-1.901676 -2.602555
-1.997086 -3.433121
-1.917987 -2.489951
-1.472852 -3.012368
-1.403397 -2.897333
-1.801610 -3.048315
-1.838373 -2.800746
-1.786746 -2.251851
-2.034875 -2.590416
-1.464763 -2.018495
-1.362410 -2.333314
-1.685777 -2.118515
-1.793518 -1.863085
-1.696501 -2.012766
-2.261897 -2.016935
-2.018312 -2.362795
-1.277959 -2.086378
-1.060120 -1.630437
-1.522814 -1.719646
-1.751871 -1.615623
-1.564450 -2.087470
-1.889000 -1.924221
-1.793213 -1.393850
-1.726367 -2.081515
-1.333740 -1.668707
-1.595083 -1.143204
-1.197597 -1.416944
-0.991511 -0.965831
-0.985525 -1.595865
-1.452659 -1.404731
-1.546211 -1.540567
-0.861536 -1.026267
-1.262062 -0.872869
-1.031856 -0.855681
-0.796094 -0.967676
-1.310402 -0.586318
-0.559741 -0.665138
-1.197922 -1.095805
-0.878189 -0.686523
-0.900874 -1.099562
-0.945370 -0.389831
-0.557999 -0.663672
-0.388091 -1.080458
-0.630231 -0.755300
-0.498012 -0.675245
-0.927675 -0.347531
-0.189216 -0.319684
-0.672094 -0.195709
-0.765598 -0.339102
-0.438631 -0.424261
-0.510096 -0.521632
-0.176975 -0.021035
-0.896922 -0.143160
-0.531836 -0.322389
0.142143 -0.618321
-0.214232 -0.203687
-0.307205 -0.026680
-0.262640 0.017832
-0.301747 -0.208636
-0.365656 -0.189442
-0.387213 -0.120731
-0.326176 -0.296246
-0.580968 -0.328871
0.402645 0.092667
-0.057949 -0.011997
0.198728 0.020365
0.764581 0.095016
0.738496 -0.362477
0.217675 -0.089159
0.566082 -0.334197
0.516333 -0.253308
0.579148 -0.007453
0.335409 -0.178697
0.520119 0.419368
0.595534 -0.052194
0.498538 0.465887
0.619563 -0.217242
0.785762 -0.057219
1.252389 0.394680
1.082849 -0.044641
0.593155 0.256251
1.079889 0.106336
0.746693 0.125707
0.868993 0.070429
1.429729 0.192661
1.352346 -0.356751
1.359225 0.483417
1.005080 -0.235894
1.551804 0.391465
1.225770 0.186160
1.389724 0.009327
1.278761 0.077643
1.244439 0.223666
1.655588 0.086014
1.621629 -0.315445
1.691003 -0.120615
1.368125 0.017127
1.379545 0.177838
1.699172 -0.364487
1.576044 -0.139284
1.830038 0.135158
1.629603 -0.078327
1.554803 -0.293681
1.786372 -0.211307
1.768112 0.011139
1.822129 -0.497091
1.985271 -0.309118
2.020426 -0.278210
1.984049 -0.359759
1.892418 -0.020336
1.790247 -0.612970
2.115574 -0.991957
2.474436 -0.545012
2.330799 -0.300901
2.369893 -0.472517
2.656007 -0.492155
2.325296 -0.073692
2.500091 -0.517522
2.500612 -0.538740
2.349873 -0.232720
2.439480 -0.552653
2.335684 -0.545844
2.461656 -0.814421
2.579162 -0.759243
2.490583 -0.809022
2.533395 -0.867136
2.455112 -1.010627
2.559275 -1.000757
2.768531 -0.861745
3.055722 -0.738598
2.847588 -0.934632
2.744423 -1.279768
3.188912 -0.949788
3.012514 -1.286564
2.953109 -0.951175
3.027222 -1.141504
3.131347 -1.171044
3.213520 -1.466723
2.676988 -1.376752
2.802144 -1.507470
2.894764 -1.282147
2.948197 -1.467248
2.839684 -1.742076
3.001985 -1.784279
3.004791 -1.717632
2.922995 -1.304232
2.797085 -1.554917
2.995670 -1.496748
2.895890 -1.859761
2.711111 -1.303922
3.328911 -1.724102
3.139248 -1.505373
3.133464 -2.457827
2.863376 -1.986631
3.049854 -1.855950
2.956724 -2.234136
3.494063 -2.032265
2.975865 -2.319799
2.870732 -2.047989
3.108159 -2.391418
3.128999 -2.227899
2.647900 -2.317280
3.419390 -2.298818
3.465391 -2.291550
2.907915 -2.390124
2.989740 -2.736063
3.062387 -2.459923
2.903250 -2.594076
2.832485 -2.792966
2.970645 -2.943325
2.434895 -2.655993
2.782386 -2.957940
3.157093 -2.886854
2.702113 -2.632220
2.653053 -2.851819
2.772259 -2.647304
2.656149 -3.284417
2.948670 -2.851356
2.694202 -2.902295
3.090335 -3.076743
2.599215 -2.947521
2.850268 -3.376196
2.783917 -3.517684
2.623506 -3.155843
2.766251 -3.362089
2.526442 -3.267962
2.655637 -3.198446
2.585970 -3.373467
2.471394 -3.504793
2.569413 -3.518336
2.721801 -3.491196
2.637586 -3.641053
2.566271 -3.534322
2.243915 -3.669316
2.421543 -3.769283
2.534537 -3.721146
1.999834 -3.367362
2.256332 -3.688144
2.540482 -3.749149
2.321473 -4.301455
2.476559 -4.058581
2.362895 -3.968735
2.459161 -4.027147
2.536812 -4.282286
1.959382 -3.702614
1.818405 -3.929637
2.282800 -4.038636
1.927568 -4.289920
1.948381 -4.423344
2.199275 -4.341837
2.047266 -4.271749
2.084818 -3.897944
1.699117 -4.299599
1.654524 -4.167481
1.569456 -3.978401
1.825313 -4.834371
1.970862 -4.618472
1.763506 -4.313453
1.836245 -4.178286
1.418571 -4.213018
1.557544 -4.422166
1.597695 -4.375832
1.838770 -4.494281
1.285324 -4.506285
1.365541 -4.476702
1.244028 -4.868507
1.245404 -4.762076
1.286218 -4.760251
1.686200 -4.342474
1.150993 -4.612819
1.142877 -4.552144
0.884370 -4.807937
0.760510 -4.369871
1.244198 -4.703836
1.273296 -4.639625
0.933625 -4.884814
0.549887 -4.682594
0.629652 -4.791477
0.412316 -4.332042
0.579891 -4.648879
0.600394 -4.588143
0.571008 -4.663599
0.780425 -4.509964
0.234175 -4.417747
0.489028 -5.076579
0.494877 -4.520364
0.678138 -4.966912
0.270714 -4.684274
0.148223 -4.814445
0.459522 -4.631584
0.076773 -4.553116
-0.066010 -4.905667
-0.006825 -4.907369
-0.321071 -4.814964
0.328513 -4.740100
-0.469296 -4.742032
0.104949 -4.795625
0.111306 -4.700359
-0.478047 -4.620103
-0.440307 -4.673253
-0.505620 -4.988668
-0.108631 -4.785545
-0.750960 -4.222851
-0.227280 -4.475780
-0.613841 -4.621184
-0.697328 -4.352532
-0.552777 -4.630712
-0.754160 -4.223354
-0.742610 -4.374958
-0.817368 -4.712354
-0.671631 -4.775448
-0.993758 -4.514968
-1.074645 -4.382030
-1.188357 -4.543123
-0.577297 -4.368161
-0.782633 -4.572163
-1.244826 -4.826041
-1.009647 -4.385264
-1.075484 -4.419263
-1.108626 -4.806191
-1.271255 -4.294809
-1.258681 -4.292705
-1.116824 -4.466815
-1.470154 -4.501582
-1.476720 -4.140206
-1.710464 -4.295829
-1.569490 -4.472205
-1.552959 -3.839366
-1.550427 -4.197457
-1.579191 -3.916139
-1.808697 -4.132564
-1.989201 -4.120324
-1.578470 -3.886623
-1.690611 -3.844397
-2.072008 -3.839852
-1.938686 -3.802598
-1.759063 -3.624527
-1.689262 -3.674441
-2.013285 -3.829050
-2.259220 -3.797837
-2.441008 -3.626415
-1.914263 -3.780741
-2.241830 -3.334795
-2.151381 -3.480067
-2.068364 -3.563423
-2.124986 -3.338016
-2.341903 -3.387528
-2.119702 -3.451723
-1.887920 -3.317448
-2.106837 -3.500775
-2.093586 -3.520047
-2.687657 -3.334770
-2.252391 -3.534714
-2.341753 -3.447476
-2.293089 -3.279514
-2.264282 -3.228145
-2.411895 -3.084367
-2.211778 -2.624142
-2.356353 -2.850123
-2.123705 -3.094785
-2.576465 -2.717331
-2.153655 -2.844841
-2.281081 -2.992085
-2.799308 -2.714994
-2.502611 -2.694839
-2.516916 -2.883555
-2.342283 -2.516862
-2.628681 -2.272802
-2.520527 -2.792718
-2.734254 -2.953690
-2.782884 -2.710076
-2.497358 -2.206530
-2.590793 -2.470793
-2.719768 -2.306117
-2.253627 -2.372697
-2.732431 -2.484023
-2.614270 -2.131340
-2.795271 -2.236849
-2.558842 -2.241871
-2.589851 -2.156810
-2.452563 -2.175423
-2.345554 -1.921532
-2.460634 -1.947111
-3.071009 -1.860937
-2.793596 -1.572464
-2.485995 -1.883326
-2.859112 -2.101021
-2.596898 -1.405276
-2.418923 -1.704869
-2.578248 -1.749418
-2.770125 -1.562289
-2.535020 -1.662180
-2.698229 -1.767960
-2.591987 -1.447096
-2.630785 -1.418221
-2.677833 -1.406309
-2.675602 -1.385765
-2.552237 -1.291027
-2.683632 -1.231786
-2.693910 -1.416366
-2.781823 -1.373589
-2.780858 -1.288273
-2.632924 -1.247268
-2.566228 -1.214018
-2.843910 -1.115386
-2.482585 -0.877349
-2.518618 -1.102331
-2.449302 -1.022411
-2.626115 -0.882614
-2.442893 -0.919708
-2.320609 -0.883096
-2.436193 -0.971050
-2.418623 -0.576285
-2.059421 -0.530830
-1.999180 -0.754632
-2.231557 -0.878384
-2.306003 -0.748481
-1.998007 -0.722119
-2.160788 -0.708387
-2.250167 -0.631475
-2.517240 -0.388292
-2.037055 -0.673410
-1.921554 -0.761249
-1.980279 -0.486575
-2.138915 -0.426334
-2.290254 -0.567089
-2.075716 -0.320038
-1.773405 -0.438673
-1.677195 -0.352592
-1.831093 -0.302542
-1.882529 -0.456102
-2.080901 -0.056535
-2.034781 -0.339983
-1.819908 -0.071018
-1.791726 -0.230655
-1.730843 -0.556486
-2.023987 0.137682
-2.122511 -0.322119
-1.349322 -0.215562
-1.522128 -0.365560
-1.600152 -0.218201
-1.552077 -0.187239
-1.624144 -0.129367
-1.352137 0.058953
-1.200173 -0.224418
-1.502737 0.154733
-1.564248 -0.147495
-1.187532 0.110039
-1.220912 -0.069566
-0.996062 0.181576
-1.211750 0.135660
-1.097104 -0.038215
-1.092039 0.031972
-1.216681 0.145638
-1.095350 0.259055
-1.449230 -0.061827
-1.067481 -0.006448
-0.818442 0.180078
-1.152519 0.411162
-0.566856 0.417445
-0.866622 0.002772
-0.903500 -0.163839
-0.795914 -0.040368
-0.853190 -0.154889
-0.764042 -0.089184
-0.566865 0.063678
-0.985986 0.198990
-0.877562 -0.075397
-0.729459 0.192949
-0.657814 0.037447
-0.780660 -0.006052
-0.398929 0.082259
-0.397071 -0.054987
-0.494357 0.313224
-0.592648 0.129858
-0.203114 0.052483
-0.281736 0.114819
-0.434867 -0.330536
-0.426949 0.044394
-0.271646 0.265526
-0.106940 0.025599
-0.194046 0.158290
-0.040549 -0.011100
0.033914 0.054866
0.107947 0.190785
0.026301 -0.006287
-0.079707 0.069139
0.046556 -0.029709
0.187498 -0.469549
0.304637 0.195248
0.261958 -0.197195
-0.014611 -0.086569
0.098042 -0.035268
0.117544 -0.041309
0.122105 0.038578
0.498993 -0.228006
0.257643 -0.323280
0.359371 -0.186713
0.261089 -0.238259
0.545145 -0.259341
0.282300 0.029139
0.349337 -0.555140
0.558259 -0.338548
0.264607 -0.422172
0.607093 -0.410261
0.242948 -0.347623
0.558307 -0.489346
0.900860 -0.374390
0.441658 -0.263534
0.686405 -0.450826
0.894849 -0.573902
0.420868 -0.700878
0.847679 -0.820831
0.868464 -0.874592
0.679116 -0.636411
0.758115 -0.373840
1.118399 -0.767412
0.910213 -0.773585
1.099407 -1.143114
1.055865 -0.868731
1.091827 -0.964939
1.091163 -1.161297
0.797258 -1.019403
1.054845 -1.110857
0.901538 -1.045109
1.321995 -1.357440
0.662646 -0.928002
0.877132 -0.714450
1.175093 -0.984573
0.938647 -1.237151
0.729630 -1.355127
0.982926 -0.924810
0.973348 -1.301728
1.096472 -1.211248
0.899428 -1.243963
0.818339 -1.278304
0.751809 -1.600246
0.825684 -1.552687
0.869938 -1.349357
1.151556 -1.562053
1.352166 -1.433722
1.054126 -1.686303
1.105514 -1.676284
1.147867 -1.817347
1.150030 -1.362733
1.417275 -1.648353
1.119224 -1.926981
1.019670 -1.731815
1.214428 -2.035979
1.356388 -2.154248
1.071090 -1.953216
0.863850 -2.223614
0.910453 -2.182068
1.411767 -2.185172
1.439003 -2.147787
1.239229 -2.143326
1.010641 -2.275178
0.900520 -2.224423
0.971128 -2.315346
1.025833 -2.214209
1.249020 -2.190523
1.211883 -2.401371
1.223359 -2.502005
1.096755 -2.522606
1.037658 -2.156358
1.059626 -2.482726
1.240945 -2.496905
0.921567 -2.794350
0.666638 -2.748963
0.757028 -2.778572
1.128258 -2.765635
1.049355 -2.503523
0.879574 -2.858787
0.704049 -3.075113
0.830980 -3.109179
0.926067 -2.972803
0.745401 -2.814203
0.443213 -2.872946
0.705480 -3.195415
0.984190 -3.119167
0.698299 -2.731826
0.687614 -2.969936
0.398374 -3.413541
0.336300 -3.169347
0.625215 -3.208445
0.480254 -3.293896
0.370222 -3.186876
0.880096 -3.312037
0.392991 -3.496745
0.281270 -3.262043
0.332599 -3.331291
0.450798 -3.506737
0.231696 -3.629104
0.012634 -3.556642
0.148282 -3.302708
0.377238 -3.585166
-0.090168 -3.527779
0.225479 -3.265046
-0.175799 -3.725082
-0.526506 -3.937745
-0.183555 -3.376240
0.261152 -3.646596
-0.064924 -4.038940
-0.346869 -4.073061
-0.210271 -3.681666
-0.449254 -3.712703
-0.734811 -3.808921
-0.634990 -3.642976
-0.420313 -4.040155
-0.219416 -3.975037
-0.444687 -3.626895
-0.123354 -3.864943
-0.357468 -3.973893
-0.215286 -3.702582
-0.624790 -3.700786
-0.588709 -3.897862
-0.604958 -3.860717
-0.748119 -4.049977
-0.666661 -3.883313
-0.847075 -3.860246
-0.570093 -3.945591
-1.175354 -4.209249
-0.817728 -3.975107
-0.906000 -3.749368
-1.169979 -3.981010
-1.247257 -4.108658
-1.220936 -4.133453
-1.084071 -4.277531
-1.034940 -3.845689
-1.395396 -4.089605
-1.210432 -3.964374
-1.344340 -3.962456
-1.438936 -4.410539
-1.628697 -4.230659
-1.513314 -4.258506
-1.523039 -4.190498
-1.639927 -4.088872
-1.749813 -4.026686
-1.790627 -3.761936
-1.696137 -4.180391
-1.553711 -3.683560
-1.935602 -3.776414
-1.790556 -4.245726
-1.755846 -3.933417
-1.863446 -3.952549
-1.980932 -4.202938
-2.067281 -3.919211
-1.824005 -3.774458
-1.946865 -4.123585
-2.207566 -3.934635
-2.057576 -3.713988
-2.333023 -3.783427
-2.434852 -4.160312
-2.249473 -3.799868
-2.283898 -3.787345
-2.099912 -3.941471
-2.463084 -3.686505
-2.888777 -3.888805
-2.852400 -3.926665
-2.857826 -3.845595
-2.313485 -3.766571
-2.993036 -3.928615
-2.646048 -3.729299
-2.841476 -3.610276
-2.960325 -4.050636
-2.803870 -3.844886
-3.033393 -3.837884
-2.740754 -3.911797
-3.110876 -3.468200
-2.981469 -3.349774
-3.087391 -3.740903
-3.163056 -3.361715
-2.813436 -3.547780
-3.494881 -3.549661
-2.969504 -3.393021
-3.418379 -3.107379
-3.295496 -3.627077
-3.608908 -3.234791
-3.200211 -3.290541
-3.518162 -3.300638
-3.543563 -3.361042
-3.350578 -3.161476
-3.661302 -3.013744
-3.497839 -3.088147
-3.786490 -2.915637
-3.659188 -3.034807
-3.473143 -2.964389
-3.649776 -3.093685
-3.670558 -2.939158
-3.736231 -2.594793
-3.972210 -2.732295
-3.701868 -3.065267
-3.935354 -2.981781
-3.714302 -2.619277
-4.038467 -2.680279
-3.668522 -2.447825
-3.780763 -2.937154
-3.944063 -3.118092
-4.184187 -2.517713
-4.125970 -2.571714
-3.710946 -2.396459
-4.276380 -2.265080
-4.352967 -2.446381
-4.362573 -2.243158
-3.893276 -2.236895
-4.272964 -2.237423
-4.231751 -2.091984
-4.157641 -2.184390
-4.120168 -2.134481
-4.545056 -2.476364
-4.115678 -2.197774
-4.321087 -1.879951
-4.409246 -1.988633
-4.368433 -1.681932
-4.141616 -1.777849
-4.200816 -2.097343
-4.623419 -1.992161
-4.118464 -1.619574
-4.366335 -1.448327
-4.342881 -1.955755
-4.331864 -1.823015
-4.076382 -1.935875
-4.568131 -1.219221
-4.534334 -1.563409
-4.656218 -1.758990
-4.439784 -1.460320
-4.310805 -1.432421
-4.504394 -1.163662
-4.263490 -1.287374
-4.379347 -0.701868
-4.385469 -0.825870
-4.196846 -1.055475
-4.365827 -1.306727
-4.583330 -0.921074
-4.504824 -0.937709
-4.456038 -0.771798
-4.411171 -0.858788
-4.193639 -0.551635
-4.039845 -0.829464
-4.308209 -0.634939
-3.954056 -0.672309
-4.396631 -0.595636
-3.979619 -0.268768
-4.308181 -1.019814
-4.163225 -0.617844
-4.540785 -0.288946
-4.427276 -0.578658
-3.995542 -0.316302
-3.968982 -0.280678
-4.492880 -0.104382
-4.320110 -0.239731
-4.174269 -0.150461
-4.274634 0.149601
-4.153966 0.004897
-4.049288 0.180894
-4.128293 -0.094718
-4.232244 0.202995
-3.852146 0.253959
-3.777453 0.028965
-4.058617 0.217612
-4.005286 0.117748
-3.982271 0.700956
-4.076523 0.136576
-3.772812 0.319601
-4.041122 0.266730
-3.791514 0.202190
-3.641179 0.475575
-3.429716 0.654130
-3.993478 0.551625
-3.615275 0.665728
-3.566658 0.321583
-3.791653 0.763931
-3.312940 0.586870
-3.677291 0.986201
-3.554711 0.649848
-3.692424 0.712531
-3.453811 0.696758
-3.656343 0.934215
-3.715572 0.898404
-3.467690 0.663206
-3.552572 1.140752
-3.467607 0.716698
-3.387753 1.165011
-3.423248 1.124102
-3.333850 0.953187
-3.050135 1.222830
-3.390787 1.399736
-3.026967 1.187706
-3.146265 0.977710
-2.795051 1.119923
-3.467361 1.039903
-3.309934 1.069086
-2.982719 1.257663
-3.014418 1.431294
-3.016952 1.053406
-3.044237 1.585189
-2.721145 1.379045
-2.609190 1.361896
-2.737620 1.443976
-2.708646 1.651560
-2.379864 1.544762
-2.280990 1.430384
-2.193401 1.458771
-2.731490 1.383888
-2.459588 1.553253
-2.386906 1.312559
-2.398898 1.301415
-2.653757 1.152818
-2.189478 1.352375
-2.031787 1.178899
-2.264176 0.842979
-2.139695 1.218683
-1.976610 1.403637
-1.873151 1.285258
-1.652675 1.372009
-1.601087 1.382009
-1.720039 1.542007
-1.944621 1.388142
-1.606416 1.453527
-1.674442 1.430465
-1.611022 1.486243
-1.672865 1.620417
-1.560964 1.648784
-1.460522 1.523728
-1.573440 1.407951
-1.721913 1.344706
-1.289312 1.296616
-1.329156 1.892975
-1.336266 0.858550
-0.867724 0.946955
-0.898121 1.590099
-0.968056 1.430433
-1.423581 1.392520
-1.348277 1.028968
-1.333667 1.421071
-0.719141 0.895624
-0.933175 1.186730
-0.920664 0.844532
-0.811963 1.251420
-0.837332 1.351830
-1.000910 0.852981
-0.951164 0.973874
-0.568286 1.048611
-0.692209 0.888151
-0.734262 1.145815
-0.429034 0.738855
-0.600416 0.652393
-0.987393 1.330856
-0.822900 0.660695
-0.715128 0.586087
-0.237069 1.085194
-0.278523 0.896281
-0.361741 0.778492
-0.164876 0.448335
-0.209267 0.644268
-0.575102 0.376420
-0.160286 0.416127
-0.446314 0.111964
-0.168932 0.314929
-0.201835 0.228032
0.039523 0.480629
-0.183461 0.445118
-0.389864 0.399925
0.179708 0.281428
-0.222314 0.238589
-0.250471 0.444752
0.084577 -0.024792
-0.517200 0.154435
-0.190135 0.266896
-0.354424 0.088354
0.235167 0.021647
0.171488 0.106564
0.054332 -0.497131
-0.105346 -0.286386
-0.071686 -0.669611
0.377262 -0.326980
0.100948 -0.474564
-0.345485 -0.146572
0.278012 -0.468270
0.183812 -0.355514
0.107883 -0.464368
0.118578 -0.770980
0.009403 -0.483666
0.457789 -1.160060
0.119906 -0.849527
0.679732 -0.547084
0.349199 -0.862589
0.270298 -0.734545
0.149569 -1.132878
0.069460 -1.044221
-0.014203 -0.792657
-0.024217 -1.207563
-0.157553 -1.069490
0.578034 -1.128362
-0.087253 -1.375490
0.160816 -1.350094
0.127622 -1.727700
-0.113941 -1.571061
0.259479 -1.382774
0.173945 -1.649253
0.021693 -1.179935
0.272530 -1.544379
0.021646 -1.995067
0.233264 -1.838288
-0.083755 -2.011587
-0.163172 -1.775813
-0.333711 -1.870832
0.091431 -2.305065
-0.245544 -1.831789
-0.340346 -1.887195
-0.246717 -2.447131
0.135364 -2.314105
-0.012466 -2.521935
-0.171330 -2.607520
-0.475734 -2.855953
-0.070524 -2.223072
-0.648497 -2.261919
-0.254356 -2.983440
-0.356376 -2.561961
-0.009911 -2.904038
-0.001486 -3.202104
-0.418363 -2.862041
-0.188382 -2.886098
-0.159515 -3.139092
-0.558479 -2.755618
-0.240921 -3.185542
-0.135514 -2.825632
-0.934924 -3.118337
-0.637198 -3.186456
-0.850093 -3.653159
-1.024548 -3.883392
-0.909064 -3.260812
-0.159169 -3.206547
-1.009372 -3.363275
-1.127164 -3.291787
-0.702986 -3.546554
-1.333884 -2.938553
-1.236147 -4.380937
-1.189124 -3.685759
-1.418630 -3.861213
-1.380462 -4.217552
-1.516436 -3.472959
-1.585988 -3.349069
-1.513646 -4.331962
-1.575005 -4.627606
-1.640861 -4.370790
-1.621824 -3.795893
-1.924340 -3.668671
-1.737881 -4.104729
-2.307479 -3.766776
-1.705825 -4.227537
-1.971356 -4.393790
-2.206482 -4.746727
-2.105857 -4.574702
-2.675159 -4.336121
-2.711452 -4.234812
-2.520702 -4.290214
-2.615170 -4.976644
-2.692309 -4.650519
-2.505649 -4.389125
-2.810059 -4.336931
-2.261953 -4.900945
-2.683779 -5.074144
-3.161029 -4.950115
-3.508775 -4.708719
-4.178474 -4.438871
-3.299665 -4.587564
-2.871604 -4.933087
-3.225441 -4.576739
-3.223491 -4.760090
-3.160642 -4.501591
-3.420001 -4.712810
-3.964382 -4.436144
-4.158895 -4.204840
-3.905677 -4.449155
-4.165706 -5.400497
-3.900362 -5.179473
-4.187186 -4.822833
-4.324473 -4.361547
-4.408992 -4.218017
-5.169541 -4.604217
-4.312197 -4.760028
-4.467924 -4.750488
-4.241745 -4.429086
-4.555877 -4.765158
-5.270692 -5.274136
-4.504739 -4.777354
-4.900848 -4.445454
-5.342995 -5.010916
-5.024196 -5.004097
-5.451356 -4.678551
-4.870118 -5.089807
-5.708412 -4.230877
-5.645233 -5.569342
-5.125616 -4.444314
-6.329169 -4.737790
-6.038451 -5.003467
-6.211126 -4.704848
-6.044504 -4.394964
-6.017120 -4.832482
-6.453412 -4.330614
-6.449719 -4.736947
-6.325875 -4.993194
-6.388329 -4.772764
-6.165171 -4.805622
-6.905386 -4.705737
-6.580170 -4.544914
-7.301634 -4.137487
-6.847024 -4.436008
-7.093116 -4.138047
-7.082887 -3.359804
-7.341993 -4.000937
-7.405449 -3.761645
-7.295499 -4.243785
-7.922794 -3.844782
-7.450389 -3.943106
-8.298102 -3.517366
-8.780424 -4.322171
-8.289191 -3.919432
-8.591697 -4.390398
-8.195184 -3.589592
-8.048558 -3.061997
-9.498380 -3.005146
-8.827746 -2.909371
-9.346349 -3.941539
-8.197241 -3.772444
-8.916997 -3.160450
-8.874418 -3.320980
-9.064334 -3.815388
-8.846203 -2.824626
-9.163535 -2.254111
-9.792076 -2.283645
-9.398694 -2.798490
-9.490299 -3.463254
-10.040456 -3.001183
-9.896818 -2.358497
-9.289692 -2.050185
-9.425585 -2.613858
-8.633930 -2.229405
-9.587072 -2.357535
-10.255191 -1.914760
-10.853304 -2.197368
-10.294652 -2.392311
-10.341656 -2.015231
-10.464483 -1.833654
-9.799704 -1.472386
-10.537554 -1.774425
-10.182241 -1.963894
-10.336025 -2.062716
-11.456409 -1.309529
-10.324415 -1.249286
-10.854893 -0.824338
-10.787906 -1.549643
-10.612358 -1.365598
-11.382679 -0.950606
-11.062207 -1.208483
-10.674257 -0.260057
-10.772105 -0.686361
-11.463545 -0.087630
-11.175997 0.095748
-11.096957 -0.241714
-12.183573 -0.609136
-11.836771 0.039340
-12.377354 -0.013324
-11.972656 -0.122997
-10.949224 0.153499
-10.850423 0.654304
-11.985030 1.023351
-12.110541 0.340825
-12.302834 1.805546
-12.859472 1.359597
-11.562252 1.079274
-12.082702 0.731841
-12.105960 2.272928
-11.269808 1.380650
-11.966234 2.041834
-12.570336 1.124670
-11.990463 1.671602
-13.484841 2.092605
-12.122133 1.776015
-12.784259 2.295263
-12.016439 2.035800
-11.818451 2.364991
-12.620169 3.279505
-11.759058 3.569953
-11.786857 2.447687
-11.924243 2.954653
-12.513435 3.564337
-11.526834 3.179416
-12.629110 4.330483
-12.462782 4.305134
-12.944204 4.176891
-12.817661 4.925766
-12.818918 4.322837
-11.966653 4.806716
-12.228151 3.826764
-11.570115 4.956622
-12.062435 6.632035
-13.115965 4.652003
-12.486717 5.496855
-12.311925 5.073565
-13.015086 4.899686
-13.642269 4.724225
-12.397538 5.917404
-12.644519 4.932752
-11.749700 6.929827
-12.365018 6.897921
-14.006112 5.511981
-13.362833 6.243834
-12.713929 6.149455
-13.687409 5.596019
-12.091920 6.880626
-12.242603 6.240337
-12.094600 7.891295
-11.955237 7.898362
-12.343364 7.717571
-12.602529 5.686009
-12.318668 5.939872
-12.945167 8.393913
-13.497579 8.535105
-12.211485 7.591964
-11.604204 9.205618
-12.239548 9.133348
-12.119742 8.759792
-11.820685 8.209278
-12.143674 8.145816
-10.968569 8.530125
-11.303884 8.156699
-11.131108 9.698405
-11.261105 9.891393
-12.344320 9.520224
-11.630892 8.490424
-12.169267 9.214921
-11.810349 9.163952
-10.359111 11.062522
-8.704350 10.221079
-10.245901 11.696848
-9.729129 13.462049
-9.970694 11.037067
-10.345323 10.192298
-11.181471 13.122580
-10.391144 10.558172
-10.720716 13.058674
-8.510025 13.921951
-9.325934 10.103355
-9.701398 12.878728
-12.900943 11.097587
-10.912196 10.919656
-11.464825 14.479773
-10.010897 12.626574
-11.416872 11.207201
-9.159530 10.694379
-8.881869 13.575645
-8.246440 12.003868
-11.638968 11.701973
-8.803923 11.571094
-8.367727 12.396529
-5.677505 13.511119
-7.505896 12.395368
-10.186303 10.599672
-8.751780 13.597203
-9.664145 13.377686
-8.504380 13.866433
-7.986908 14.299434
-5.471545 11.183796
-6.683218 11.390545
-8.662682 15.943346
-7.995944 14.361975
-6.855265 12.217012
-7.822466 15.555937
-6.209974 13.258657
-5.458370 14.951416
-3.569081 12.557475
-7.489190 12.534933
-11.840713 14.719494
-5.423177 15.177328
-5.887834 21.175431
-6.537829 17.310071
-6.833186 14.968563
-3.864495 12.741561
-8.733555 19.295861
-6.281982 17.490128
-3.450674 19.149112
-5.308455 16.696443
-5.813355 16.675831
-2.863366 15.113295
-5.992176 18.120491
-3.206473 15.299281
-1.419690 17.890628
-9.311651 26.349114
-7.424749 19.246874
-2.658586 18.394023
-7.480908 11.702004
-1.627353 12.027089
-5.066125 17.608805
-6.971942 20.069254
1.930023 18.455569
-7.194666 22.420708
-2.413666 12.549660
-0.752326 21.084635
-8.818436 15.940579
0.490658 16.968105
0.426245 9.353814
-9.884546 16.388905
0.608966 13.670141
4.019357 13.952134
0.255384 18.572629
-3.543220 12.262450
-3.342716 9.346372
0.030327 22.760996
1.704213 21.229667
0.607928 14.973058
-0.375453 18.161338
1.837321 16.343660
11.747077 4.986256
-1.671341 26.633653
10.998335 10.083695
-4.010531 10.025461
-7.117822 25.373069
11.826805 28.470393
2.987114 11.934369
-11.472321 20.799000
-2.612500 7.973463
-8.711209 27.361928
-4.866133 27.667521
11.270287 32.786347
-2.078919 9.598876
-3.431990 18.842037
20.090253 29.156262
-28.437798 23.456637
-38.941336 -0.000011
13.124762 3.992551
-6.887562 14.266590
-13.727087 117.411130
-24.738110 -31.414374
-0.747215 0.351768
-32.611595 -37.546717
-45.200853 95.510878
-21.177749 -16.063855
49.679414 78.372726
69.458185 21.170909
-124.600445 -17.348217
-39.966821 32.090320
-124.097349 -61.900455
87.444492 -259.004047
-4.938340 429.534657
-24.546327 -48.263513
77.058502 38.482998
37.652716 -3.933640
-103.903360 -546.824033
241.796844 -469.654154
-170.933231 -561.955147
