18358.469580 15871.785744
2075.693452 9.294739
-1049.238216 -2378.003954
786.880892 -1652.276051
-187.236512 -339.993695
583.731715 -0.234539
64.349678 -264.190626
873.352132 -582.207878
1229.350821 8.795156
121.203461 -536.277345
352.498296 59.640127
648.433423 69.008230
-71.262466 -153.389486
504.932805 -500.939823
229.828068 -344.323388
168.619374 -373.004264
264.016412 -188.438400
-43.217790 -240.856338
315.258529 -162.913547
-32.379073 -370.310475
-28.081146 250.027708
102.253091 -505.623811
103.911015 -118.368386
322.676198 -190.090957
-42.068809 -103.268736
78.155606 -409.575748
111.487868 -298.158230
-42.573303 -265.382539
110.557412 -104.839738
-72.439577 -464.413556
-20.544800 -96.656690
-103.651661 -227.086527
25.977983 -235.755651
-61.897737 -79.681506
-56.765758 -223.431329
-241.316763 -169.927770
19.847183 -111.965423
-215.218829 -159.832944
-74.323048 -31.574240
-49.350317 -42.973335
-2.301392 -156.839496
-64.090254 -66.170374
-55.012694 -113.177037
-28.745560 54.065629
57.685210 -225.088031
-89.357405 -8.941607
56.052987 -108.338562
-63.615233 -56.864482
-16.944594 -148.575103
-56.301509 -111.168192
-70.812619 -85.191042
-89.278401 -8.925435
-146.783956 -99.269134
-105.128465 41.501046
-52.233294 -81.950281
-72.743196 51.294522
-35.914230 -34.527528
-76.105694 45.933989
-43.252299 -22.483275
7.687086 26.001141
-23.401602 -82.670991
-43.922960 23.115764
-15.134682 -58.972941
-49.164721 9.411295
-23.708650 -42.774501
-49.750708 -17.312527
-14.673889 -9.727268
15.994249 -22.035583
-114.963651 4.365122
25.025658 16.133967
-62.760141 -24.392344
10.823573 46.721401
2.155589 -21.218131
-11.625452 24.506819
26.603410 -6.197312
-36.877123 -63.806765
-4.742135 15.798697
17.548681 -40.852233
-68.108031 -4.840042
46.805943 -10.888236
-76.923414 -60.042360
14.614806 53.819434
-16.856214 -64.936379
-31.607939 11.713805
-9.107068 12.290448
-10.425325 -13.806385
-17.795571 38.689297
19.794520 -7.079755
-21.271617 37.562060
34.640055 24.895124
43.694511 13.538538
7.632490 3.221675
43.447508 19.028842
33.156485 -31.398091
20.819469 3.489540
24.245359 -42.367391
-32.487601 5.370265
10.617541 -10.511133
-8.160033 -20.318821
-2.672766 15.404586
9.580062 -6.975807
-28.811800 33.875980
60.367456 -14.937995
-6.477962 -10.391325
15.118711 -3.636381
25.957063 -6.656668
15.474111 -7.521385
58.043450 -4.201917
10.030826 -49.150842
21.696745 -9.639292
28.380610 -33.197442
14.622125 -40.853751
6.711868 -34.744505
-8.076794 -36.324623
12.170966 -11.747306
-6.076019 -44.944121
-20.781767 -15.728526
14.302238 -14.022109
-13.811608 -41.396398
-15.179552 -15.162965
1.598857 -22.016620
-17.382786 -38.043307
-21.506439 5.840601
13.509217 -41.045390
-28.897622 -4.861461
14.470508 -15.915860
-9.857228 -30.167386
-2.754636 -23.447443
-4.670921 -44.316049
-30.534867 -11.970674
2.247981 -14.610832
-35.606274 -32.427937
-19.549696 19.000446
-4.406700 -25.668655
-42.732397 23.249165
25.487059 -4.475396
-24.996757 8.434944
-5.277162 -2.148322
1.040675 0.166748
-11.012509 0.748089
17.701362 6.081066
-24.603399 -19.476001
-3.327034 6.125296
3.876174 -10.094507
-4.417712 -10.495820
-9.650196 -8.783402
-14.644623 -17.879543
-24.787895 3.261051
6.838613 4.796403
-27.759548 -26.894328
-24.560940 29.001412
-1.820120 -5.889371
-6.398865 21.603042
-3.383158 -0.755311
-10.454897 20.057185
8.496829 21.377377
19.594415 -8.176113
-30.824299 8.659438
24.515933 16.831477
-11.086919 14.262317
34.891914 7.175394
-4.617033 -11.628970
8.968709 6.413876
0.392115 13.296492
14.949699 -13.016866
-5.716408 15.168026
5.085028 -8.686294
-7.352500 24.007308
31.088506 -7.196849
-9.904946 10.002547
20.617183 20.847332
24.004032 5.355440
5.566890 -21.639650
17.356447 16.680276
9.736295 -19.064421
7.174242 15.084668
15.458041 -16.269783
1.894782 7.637707
13.302197 2.918087
21.447437 -3.657635
-0.533573 1.027219
24.298433 -0.633132
-1.185264 -6.941234
24.159672 14.449716
15.547978 -24.311307
-0.198286 18.940772
34.874735 -3.351165
8.467792 -7.251288
18.019317 8.867050
39.587914 -15.411946
2.475776 -6.601577
43.621917 -9.134625
-0.584741 -17.540053
36.913350 -2.185976
7.951768 -22.649387
25.371845 -14.665528
6.731243 -14.412642
20.596006 -17.332959
5.812452 -13.903085
19.893540 -24.943847
-5.085244 -9.050796
21.106919 -14.335128
6.136475 -9.143384
17.122199 -20.433365
6.438021 -11.114464
15.945300 -21.895418
15.282336 -2.463827
21.872328 -37.484286
-3.887610 -9.807677
23.614041 -26.033903
3.302492 -28.287945
8.503642 -22.555281
5.649744 -23.689651
-4.138580 -19.315342
12.975378 -18.898147
-1.834657 -38.885478
-6.329958 -3.059067
9.865830 -30.093191
-11.789463 -15.568189
4.990302 -27.552261
-11.295155 -18.615385
-6.152240 -15.359071
7.754199 -21.159417
-27.551288 -16.264289
17.662196 -5.161480
-16.254633 -28.445956
1.916124 -6.084461
-3.017363 -22.383031
-7.164722 -15.040091
-9.040793 -9.345923
-1.044571 -13.488082
-9.572582 -9.654816
9.046044 -11.345149
-17.013229 -17.925618
0.614783 -5.157481
-10.443070 -21.945793
-10.083101 -6.116568
-4.551205 -4.928420
-9.892402 -15.494804
-9.432522 2.479157
1.483653 -16.194496
-8.066398 -0.090792
7.063196 -16.536624
-14.312215 -16.403570
-1.491681 -3.279787
2.701211 -25.268650
-21.643687 -10.371488
-1.939524 -5.042792
-15.448965 -18.721589
-4.909229 1.854683
-8.498339 -13.363343
-8.691997 1.883108
-5.880877 -9.716993
-6.065497 -1.320803
-9.327265 -4.625008
-4.747923 -0.079357
-8.862098 2.414372
4.705714 1.631706
-8.152762 -6.637767
-3.093643 6.709418
5.676559 -5.994797
1.108693 -10.320550
-12.984766 -3.724527
6.589346 -1.925431
-10.749371 -5.831667
5.507480 -2.529716
-8.350670 -6.050210
1.931372 -0.645458
0.855909 -4.092831
-4.501254 -4.983408
4.953401 -0.005910
-9.172462 -10.222239
6.632631 8.341809
-0.736392 -14.992464
-7.857951 5.269169
8.641866 -0.109977
-2.086463 -6.537543
5.337174 7.677925
13.926399 -12.561650
-5.637642 -3.758106
11.627345 -7.789402
-6.428153 -17.383466
0.572355 2.290332
4.604820 -14.741617
-6.346440 -4.330207
-0.463446 -4.630419
0.816108 -5.308993
-1.242645 -6.187105
3.224997 -5.625117
-7.193060 -11.825162
6.937298 -3.225684
-2.959948 -14.521603
-4.695176 -7.183557
-2.772806 -0.981364
-0.538928 -15.345099
-6.557501 3.393018
3.258571 -23.154930
-13.324063 2.092732
4.164246 -13.732360
-7.278391 -5.649731
-10.320861 -12.432503
-3.090870 -3.071988
-12.055916 -3.984401
3.951230 -3.100913
-15.170200 -8.386676
-1.565566 7.025619
-2.925716 -8.852996
-6.033836 0.199383
4.752889 -4.866157
-8.100562 -4.990458
-3.366176 -3.112900
3.597332 -5.434076
-9.880823 -9.506269
3.206560 -0.766058
-7.083106 -13.768759
-4.783672 -3.935413
-7.436016 -11.664480
-14.116300 -6.134140
-9.366260 5.266985
-5.788271 -7.781294
-13.335485 6.237638
-3.791745 0.541512
-11.093354 1.597555
-3.672475 8.886461
-0.278777 -4.291758
-9.051583 5.261060
1.214454 5.823343
-1.387824 -3.771323
-3.346598 6.899529
0.482565 -5.638977
-10.495033 9.424818
9.051071 -2.060536
-9.558232 -5.951014
-6.149071 3.508547
0.163192 -0.364395
-15.269044 3.633425
0.767753 10.633239
-4.871005 -2.502555
-5.705995 15.195870
5.292099 2.696888
-1.392348 6.463968
4.060241 1.322355
-0.305344 1.707020
2.692131 4.476564
7.047999 -0.186295
-9.151069 -1.345716
9.359987 10.890245
-0.070497 -7.813764
-3.385958 6.872376
5.326480 0.984595
-0.582970 -2.207956
-4.498154 5.927548
5.542873 -0.329966
-9.947418 6.115053
10.440573 7.012642
-7.611574 5.870365
13.897591 12.832330
3.754242 1.824801
10.741431 7.624317
10.710349 4.654761
6.531780 -4.298234
7.781743 9.899257
8.393509 -11.625965
-2.705861 8.863743
10.821605 -2.835537
1.188114 3.047695
4.720746 -0.386238
5.838344 0.884711
1.726580 2.276327
11.679471 3.982497
-0.173007 -1.183040
8.054820 9.417693
9.332093 3.333003
13.993433 2.095639
9.197435 1.547596
15.439013 -0.221014
10.214039 1.837755
17.776382 -5.624782
8.890464 -7.496468
11.585648 -5.979275
10.591964 -5.698177
11.015831 -9.972708
5.164385 -8.356114
6.088484 -10.304955
4.865221 0.178717
14.328114 -14.124341
-4.837793 -5.907267
13.349164 -1.261644
6.178165 -9.210210
5.049616 -3.288402
10.653900 -6.304858
5.800429 -7.295621
11.556782 -4.777093
5.591454 -13.555019
3.253184 -4.443079
10.926081 -13.958587
-2.680235 -8.293787
11.247496 -7.816950
-2.876077 -11.193102
5.031537 -1.529195
6.241566 -9.116445
-3.971761 -8.744452
7.875615 3.672371
6.186232 -13.206113
7.299780 -3.410229
4.128945 -12.106977
5.749896 -4.157968
6.094957 -9.070870
5.812732 -11.441326
0.575185 -4.946701
13.212605 -9.153187
-0.779049 -15.775247
7.496795 -4.925765
1.473073 -20.861276
0.599466 -4.120282
3.542696 -13.599528
0.399075 -11.968651
-7.193112 -8.399980
5.729897 -8.759562
-6.325604 -5.930868
5.993863 -7.737621
-8.284300 -4.093184
7.223909 -3.366184
1.355359 -8.087240
1.252214 -7.766615
7.061658 -1.049146
7.509053 -16.167597
0.970164 -4.882948
5.914835 -16.076864
-1.228105 -9.798933
1.606210 -13.129585
-0.312120 -11.115371
-3.586290 -12.845123
-1.000011 -5.541176
-7.325401 -15.429728
-2.816318 -1.000474
-0.454587 -12.307030
-4.356805 -5.407564
1.237645 -9.881991
-4.770297 -13.069936
-5.781899 -7.606292
0.022064 -8.143674
-7.901827 -9.193932
-0.881302 -3.296269
-7.498101 -12.623418
-1.528847 3.076752
0.087960 -14.105120
-8.518548 -2.018291
0.903496 -4.041365
-3.217978 -10.266478
-7.250629 -1.511938
4.076094 -7.158154
-11.047010 -1.736891
7.479750 0.882689
-3.292602 -9.762999
0.092713 -0.712892
0.674493 -6.665617
0.542311 -3.876063
4.423709 -6.163255
-2.292086 -12.831804
-4.389997 0.890092
7.344083 -9.221477
-5.445261 -9.962030
0.011079 -6.350544
-1.422994 -7.429605
-1.752647 -9.512003
-1.250386 -7.636408
-8.328812 -11.536914
-3.948902 0.553479
-2.490732 -8.957704
-3.265226 -1.601187
-1.924939 -8.047367
-6.011166 -2.672308
-0.975827 0.368142
5.165553 -8.128386
-9.330910 -8.947037
0.185135 -1.384865
-2.218148 -7.272831
-0.465394 -8.321063
-5.862622 -6.850737
-3.684278 -5.064521
0.588932 -5.146565
-5.571719 -12.399093
-3.516719 -4.685980
-4.880755 -8.779614
-5.735702 -5.746614
-3.631582 -6.024015
-7.361360 -8.531193
-9.104394 -1.559913
-0.632408 -2.352151
-4.562921 -10.737029
-8.707700 0.293563
-4.426475 -4.332274
-4.898277 -1.214726
-5.207369 -6.173344
-5.645811 -3.327357
-6.527170 1.612705
-0.477335 -5.948471
-11.238135 -0.693751
0.733845 -2.115457
-8.477401 -4.268725
-2.628657 -0.221665
-3.918762 -2.617756
-7.873265 -1.653647
-1.044895 1.416394
-6.666038 -5.412609
-3.182721 6.056305
-0.050786 -6.053372
-6.981560 1.747805
2.081577 -3.367762
-6.605758 -4.111615
-1.858969 1.680329
1.599051 -5.504037
-10.127970 -5.238361
-1.230981 3.121530
-6.461398 -6.414275
-2.934220 1.104891
-7.642794 -4.071376
-6.626992 2.533215
-2.919094 0.276982
-5.352754 -1.819523
-9.204128 -0.532413
-3.384190 5.162299
-6.521248 0.365832
1.244749 5.998981
-5.387108 -3.708959
-1.535222 8.212853
2.471972 -0.683870
0.408638 -3.418583
-6.533147 -0.043106
-0.365868 1.004578
-4.442736 -0.184201
-0.187296 -0.030644
-8.837509 0.043067
-1.988480 5.522578
-1.303595 -0.210486
-5.189825 1.064462
-3.352225 4.900531
-2.308916 0.349800
-4.943289 6.257751
1.522147 1.135639
-8.041398 6.106496
3.636668 8.224981
2.001782 3.691987
0.822130 3.054012
4.020471 5.750069
0.877878 0.147172
4.189668 5.932132
1.544699 -5.975828
-3.137063 7.619392
7.241397 2.487101
-0.070010 0.405823
0.868550 3.281895
4.350802 2.266656
-0.811598 -0.332256
7.350346 5.666398
0.776107 -5.192325
2.374645 8.842800
6.745089 -2.445244
1.276171 3.807637
7.448877 -0.617355
2.630656 -0.461828
5.202460 1.580317
9.113750 -3.878206
-3.842828 -3.905613
7.451705 1.039572
-1.135077 -4.264286
4.369980 1.212147
-0.279382 -3.410678
1.357503 2.051685
5.358483 5.013499
4.407939 -3.843125
1.731706 3.847986
8.439591 1.022873
4.368585 0.363498
7.878752 -0.727285
3.929818 -2.977796
6.702375 0.921980
8.677321 -2.206891
6.927704 -7.797652
3.619762 -0.267760
7.541938 -9.409904
1.689565 -1.905459
6.320547 -8.208187
-0.828003 -4.344484
1.613722 -4.793563
4.802192 -2.699008
-0.785223 -5.917493
5.781142 1.427263
3.198994 -5.992350
5.378653 0.338912
3.892953 -7.287312
1.925071 -0.472646
6.321655 -2.998504
4.602360 -5.951998
2.546442 -2.176108
8.214632 -6.229738
0.754461 -6.224728
9.008264 -4.968236
0.408579 -11.157881
2.637250 -4.779897
3.732483 -9.464399
-0.265478 -7.427590
1.607054 -5.246148
0.149204 -6.718152
1.365616 -2.649674
4.883409 -6.147524
-0.672130 -4.824942
6.370616 -3.530629
2.275228 -10.567174
2.514916 -5.956359
2.572342 -5.992135
1.691515 -11.300687
-0.981460 -5.843108
1.283101 -11.322306
-4.732527 -4.573734
1.648666 -7.451306
-2.150195 -8.174799
-5.374731 -5.107199
-0.062398 -1.916296
-1.559661 -3.830038
2.251736 -3.211003
-1.288222 -6.510389
1.702200 -0.665820
5.424186 -7.668905
0.013022 -6.624927
1.065142 -5.621881
1.336961 -7.526762
-0.202406 -7.808969
2.674818 -9.312112
-6.788236 -9.403835
2.296603 -4.756032
-1.604150 -10.276295
-1.379221 -8.164537
-5.179444 -7.525242
-3.298671 -3.462528
-1.906464 -3.262698
-1.664193 -8.922879
-7.531069 -0.724529
3.303160 -3.998889
-4.726917 -5.377117
0.467561 -2.737131
-1.403516 -4.583519
-0.767421 -4.837262
1.859393 -3.462832
-1.928842 -9.615459
-2.336152 -1.722804
0.954603 -7.740120
-5.167440 -4.383931
2.411857 -5.550927
-3.707778 -9.764080
-2.473522 -2.919545
-0.835299 -7.082307
-5.627424 -7.256087
-1.760992 -3.360437
-3.721146 -8.615054
-4.388398 -2.157622
-1.462052 -5.735511
-2.608576 -5.203696
-2.418479 -4.290174
-2.418628 -8.597091
-5.845812 -4.392153
-0.950001 -6.259293
-7.755811 -6.677007
-5.978317 -3.972867
-5.542157 -5.684984
-6.740228 -3.576815
-5.891570 -1.743177
-6.077006 -2.525479
-6.021180 1.183252
-1.721923 -4.617078
-7.283033 -0.505763
-0.496608 -2.448009
-6.366680 -1.322956
-1.468695 -1.211667
-1.447594 -2.742477
-5.369947 -3.950075
-0.403961 1.496657
-1.433405 -7.486024
-4.698381 -3.035091
-3.005835 -3.951784
-4.432695 -3.809269
-3.442359 -4.496094
-6.213766 -5.087380
-6.394343 0.597173
-2.480360 -2.515122
-8.206256 -2.156398
-2.988746 -0.612125
-7.433681 -4.253966
-4.978213 2.536744
-2.114911 -0.156764
-5.624875 -4.073273
-6.722110 3.998719
0.004644 -3.063129
-5.763981 1.650668
-0.653926 -2.314673
-4.530232 0.572064
-3.210434 -2.366435
-1.753185 -2.237080
-5.490887 -3.380713
-1.996686 0.669563
-6.754110 -3.718022
-4.895223 2.893684
-4.065482 -2.872345
-5.077096 2.172185
-2.179843 0.600253
-2.534005 0.011215
-7.081922 1.291382
-1.510039 0.287853
-7.336540 0.069506
-1.305611 1.871892
-7.653607 -0.233037
-3.132927 4.736454
-2.739804 1.002047
-5.201614 -0.362488
-5.503017 4.472004
-1.733374 1.810730
-6.125396 4.218776
-0.580626 2.525881
-7.683543 5.471357
1.414210 5.891148
-2.639313 3.217837
1.030980 4.325226
-1.844910 6.029419
2.875117 1.488419
0.099256 4.620849
2.894533 -1.349277
-2.964648 5.861096
4.088836 0.550837
0.058449 1.726784
2.025143 -0.890266
0.768929 1.955790
0.482478 0.137406
0.823947 1.956363
-3.234743 -2.579408
-0.974172 6.501443
1.501342 -0.850986
-1.882581 3.647423
-0.879460 0.643722
-0.566530 3.920598
-0.095707 2.606949
1.772819 3.048806
-2.325333 1.191277
3.253627 7.600918
1.569582 -0.591759
3.081707 5.788284
2.330969 0.003058
3.887983 2.753328
1.353004 1.810737
5.751564 -1.644926
-3.968259 1.011507
8.336176 2.810006
-3.180227 -2.380390
3.792895 3.377451
0.001005 2.736017
4.369792 0.779725
0.888868 3.707149
5.020297 -1.107087
0.310262 4.358669
7.118767 -1.755099
-1.115424 0.814964
4.833588 0.781700
0.887378 0.978485
4.390984 0.483840
3.785298 1.639867
1.497637 -0.299272
6.749731 6.785018
6.574726 -5.040037
2.210098 2.045829
5.996375 -0.631694
2.633059 1.567662
7.304829 -0.329174
2.913400 -1.767751
3.775992 1.390732
7.623069 2.872053
5.502756 -3.998461
5.865308 2.664673
6.481824 -6.458813
6.007477 2.601945
7.277297 -8.727475
4.214514 -3.826433
3.004515 -3.410964
6.963897 -3.452563
1.216455 -6.775326
4.952555 -3.290538
0.686506 -5.591208
4.547793 -1.839104
2.531568 -7.285194
1.044750 -2.063065
2.836696 -3.182833
3.441218 -3.913008
1.342728 -3.251299
6.243178 -3.626055
1.929126 -2.356801
6.975206 -3.510303
3.550625 -5.599548
3.698969 -5.776733
3.580047 -4.681624
2.519504 -8.933262
1.201584 -3.250333
3.472146 -9.800625
-1.992993 -3.577578
4.813948 -5.838367
-1.014594 -5.292405
2.110846 -5.006968
1.325639 -4.631666
-0.230683 -4.970034
2.790290 -2.015530
0.447253 -8.021595
1.411884 -2.178850
3.079992 -7.171215
0.503595 -3.809894
3.763838 -5.387319
0.619035 -7.006201
0.700488 -4.128689
2.633071 -7.276319
-1.636228 -5.904973
2.796025 -3.960198
1.248712 -7.112363
0.368830 -4.638303
2.122890 -5.326094
-0.463374 -7.321410
0.298031 -6.377151
-0.775435 -6.751516
0.658316 -3.758771
0.582074 -9.641409
-1.383710 -4.782565
2.039262 -6.739257
-0.361828 -9.175733
-0.998125 -6.039895
1.949245 -10.112909
-5.109308 -9.256823
-1.739195 -6.053322
-3.086584 -9.717805
-4.570213 -5.339276
-3.207920 -6.193447
-6.122003 -4.648597
-1.930829 -3.102177
-3.420558 -7.077392
-4.938971 -2.163689
-0.885916 -3.323573
-5.326814 -4.628412
-1.580008 -2.095582
-2.486205 -4.141062
-1.502981 -4.261415
-0.708287 -3.219282
-0.202477 -7.177728
-4.113690 -4.996148
-1.247122 -6.902508
-4.404339 -4.814426
-3.027176 -6.681077
-7.109761 -4.375469
-3.497357 -3.994238
-4.225937 -2.416099
-5.036324 -6.447056
-4.962990 1.364946
-2.116874 -6.934288
-4.570377 -0.214772
-3.510697 -3.935919
-3.349923 -1.730813
-4.098354 -3.880445
-2.031439 -2.463668
-5.034964 -2.874117
-2.030080 -1.082091
-5.313999 -5.104767
-1.566521 1.014000
-3.830410 -7.565794
-5.032107 0.782278
-2.454674 -3.580804
-3.202913 -2.995758
-5.654718 -1.012582
0.891722 -2.692276
-8.944569 -2.349963
0.676198 -1.002109
-7.691366 -3.071362
0.172196 -1.147214
-4.654491 -2.487690
-3.130243 -2.452021
-3.192729 0.289813
-1.422655 -6.996118
-7.068971 -1.106117
0.100883 -4.261132
-9.240938 -1.925504
-2.054709 -1.991127
-9.249908 -1.565183
-5.111234 0.265312
-7.547037 2.132482
-5.466105 0.235936
-4.694546 6.276733
-3.780427 -1.404270
-4.442467 7.826849
0.959719 -2.304872
-3.924386 2.101273
-1.947268 -0.193038
-1.017644 2.951621
-3.632557 -1.737794
-0.857540 2.777556
-3.057920 -0.985482
-0.620725 3.158476
-3.670960 -1.785380
-0.315108 3.589079
-3.840777 -2.511485
-2.758853 1.920102
-3.735537 0.826879
-0.172421 1.868553
-5.683276 -0.590972
-1.539111 4.671202
-1.549083 -0.984515
-2.217084 2.223391
-2.517656 2.878446
1.134710 0.118648
-6.678302 2.559104
1.806965 1.540346
-6.541794 1.495517
2.137679 1.941236
-5.475335 2.627172
1.364825 3.369774
-1.692109 1.450509
-2.404916 0.243127
-0.528629 5.216012
0.100050 -2.711920
-2.598474 6.301263
0.325150 -0.897382
-1.308117 4.452950
2.023641 1.211879
-0.518613 2.595646
0.997118 2.185162
0.969246 1.085409
-0.784964 1.105470
2.562022 2.162319
-1.273779 -2.762233
-0.148038 4.459858
-0.265137 -2.189342
-3.089971 2.884918
1.585924 0.638118
-1.181384 2.609761
-0.989710 3.572471
2.483921 3.853050
-2.384425 1.001082
3.226483 5.250314
-0.561283 -0.048506
2.811409 6.502859
3.932012 1.716293
3.882644 1.286156
1.210329 2.870023
5.751245 0.692431
2.084567 1.232011
4.622566 -1.644391
1.054896 1.664016
5.194375 0.527694
2.796716 -0.003217
2.340576 -0.174723
2.962098 0.685992
3.918810 -0.363720
2.774503 0.353007
4.085682 -2.112761
0.989934 0.844555
3.739941 -0.543467
3.379021 1.714715
2.787332 -2.853074
2.679879 2.390983
3.116895 -0.206018
4.630759 0.691713
2.488037 -1.517216
5.350827 0.689659
4.257413 -1.873675
3.484597 -3.167401
3.003488 0.620800
5.622753 -2.978800
1.268050 -1.809545
5.592096 -2.275609
1.310091 -3.724583
4.691089 0.643583
3.179079 -5.759100
3.827890 -1.268740
4.237965 -2.359233
3.654668 -4.156573
3.275743 -0.421841
5.385751 -6.468524
-0.031645 -1.260001
8.303007 -5.511169
0.107063 -5.766595
2.543849 -2.934599
3.768942 -3.824462
2.561378 -4.094759
2.443946 -4.148043
0.831010 -4.390629
3.248781 -1.269334
3.112955 -5.523717
0.397739 -2.766923
3.856542 -4.928381
3.318395 -2.569904
2.872428 -4.763844
4.621880 -5.256669
0.714887 -6.709589
4.921322 -2.497406
4.551201 -8.128199
2.357233 -7.362018
1.137452 -7.148977
2.618018 -6.510189
1.166424 -6.984051
1.878482 -8.463629
-2.471323 -6.686450
2.749122 -6.641700
-2.522413 -8.654990
1.079347 -5.059630
-3.223530 -7.222350
0.020146 -7.054315
-1.989364 -4.975277
-0.185933 -9.187890
-5.152100 -3.025049
1.835184 -5.872247
-2.967700 -3.194632
0.520620 -7.926243
-2.275141 -4.081576
1.340919 -7.482487
-0.071979 -5.710030
-1.911668 -9.944065
-2.680975 -4.464582
-3.136120 -10.066561
-4.010320 -4.094231
-3.144558 -7.407641
-2.705302 -3.530699
-4.762329 -6.619103
-2.248508 -2.645167
-5.111188 -6.121396
-0.187549 -3.838018
-4.727984 -7.536693
-1.081561 -2.609065
-4.005579 -7.757489
-4.066336 -4.503045
-2.614613 -5.037926
-4.817139 -6.555322
-6.609937 -3.392157
-1.567878 -6.061440
-8.754003 -5.083333
-3.986899 -3.517174
-7.128096 -3.279514
-3.109673 -1.209227
-5.655606 -2.774223
-4.241566 -1.139393
-2.783798 -1.529298
-2.721969 -3.742551
-4.172156 -1.933732
-2.230539 -4.983662
-6.237887 -1.975941
-1.986014 -3.679365
-4.209582 -3.003383
-5.396201 -5.155042
-3.367138 0.249458
-3.948483 -6.371668
-5.931615 -1.772468
-5.452200 -5.131924
-4.717701 -0.301250
-5.112293 -4.752244
-6.941471 -0.990212
-7.635881 -0.884272
-6.147937 -0.231661
-6.044258 -0.113210
-3.339003 0.796738
-5.601112 -0.971486
-4.027710 4.215014
-1.710284 -3.184207
-4.519637 -0.002191
-3.924758 -1.845307
-2.698781 0.029342
-4.196686 -1.662108
-3.706503 -2.694423
-7.351859 1.586199
-0.634077 -0.259935
-7.858323 -0.348661
-1.790831 -0.476185
-5.338342 0.404881
-2.423900 0.461922
-3.730844 1.735459
-2.270225 -0.339859
-2.860459 2.513023
-0.686938 -1.483643
-2.821082 -0.187572
-1.847970 -1.599224
-3.743386 1.514685
-2.547173 -2.820982
-1.970262 1.757865
-5.180855 -3.431828
-3.610390 3.555497
-2.304917 -2.503921
-4.901004 2.458087
-3.282478 0.960353
-2.337020 1.177832
-2.814435 2.125299
-0.379604 -2.057123
-6.167409 2.772016
1.988446 1.786415
-3.244720 -1.513245
-1.287826 1.825163
-1.121927 0.275753
-1.192100 0.572444
-1.821763 0.649016
-1.665891 -2.764734
-3.401040 1.406294
-0.440695 -3.193213
-5.395981 -0.011040
-1.424653 -2.445773
-5.958208 2.122799
-2.457048 1.038872
-4.130017 2.142777
-2.761735 0.411114
-3.999300 6.030337
0.341496 0.289388
-2.988829 3.437726
0.531225 0.794770
-1.141082 3.256220
-0.596755 0.654267
-0.746212 3.102925
-2.533682 -1.381737
-0.570032 3.840750
-3.757362 -1.609970
-1.649637 5.189474
-3.278653 -1.091170
-1.943241 4.738617
-2.415709 1.809198
-1.340451 3.216126
-2.468864 3.034637
1.228173 3.275040
-2.730749 3.503937
2.719634 4.262847
-2.196168 2.346253
2.502030 2.243291
-1.155110 1.470502
2.240024 2.752430
-0.014767 2.596634
1.557208 -0.454829
-2.176263 1.664668
3.517393 1.430629
-1.416894 2.054420
1.741642 1.476839
0.026956 3.795221
3.209551 1.181138
0.539880 4.781377
3.677230 -1.178404
-0.431710 5.775016
4.834672 -1.418185
0.161324 3.787628
3.652773 -1.241937
1.268230 1.850128
2.316291 0.776151
5.637208 2.015177
1.274265 -2.904933
3.872522 3.049335
1.726423 -2.361804
2.573562 2.494770
1.731169 -2.501849
1.628525 3.476397
0.842902 -1.712182
2.438115 3.028500
1.337557 1.362060
4.454161 1.277355
1.222471 0.685339
6.224780 1.760864
2.946080 -0.523011
6.526600 0.124892
1.580928 -0.350350
6.810798 0.374656
3.927465 -1.936061
4.516730 -1.299118
3.675331 -2.368062
6.819363 -1.491791
2.560963 -3.895047
6.390884 -1.006680
1.804238 -4.222729
5.075884 -2.436558
3.284467 -1.028429
6.544605 -5.613575
0.642233 -1.052136
6.855720 -5.218178
1.219259 -2.853738
5.933793 -6.352256
1.358370 -5.138285
3.146002 -4.620432
2.240739 -6.419336
1.261164 -5.602284
2.697568 -5.051369
0.599119 -6.711451
1.768060 -2.389642
2.359146 -7.790272
0.160244 -4.773683
1.113127 -6.348138
2.485630 -4.813014
0.123054 -6.305913
1.764685 -4.997893
-0.195827 -6.447571
1.444902 -5.280698
-0.660943 -6.852579
0.294179 -5.788929
-1.852465 -6.607082
-1.212365 -6.538848
-1.147809 -5.456388
0.447292 -8.291338
-5.736801 -5.639110
1.129852 -4.294326
-3.595490 -7.497260
-1.783658 -4.085914
-2.852282 -7.543798
-2.929981 -4.728532
-2.431451 -4.773340
-3.588692 -6.247070
-4.648917 -3.215010
-1.893762 -4.639197
-4.003329 -2.435095
-0.408997 -4.423810
-4.789515 -3.743304
-1.708755 -2.592794
-1.718692 -4.906409
-3.303814 -4.557759
-1.817379 -3.030051
-4.556315 -3.894207
-1.757149 -3.814517
-5.283721 -3.916313
-2.339072 -3.986635
-4.218275 -2.504308
-2.631749 -2.358759
-4.507628 -3.080212
-2.981190 -3.590862
-3.790986 -2.163024
-3.353591 -3.275393
-4.655423 -2.338017
-4.548833 -2.442243
-3.204325 -1.082523
-4.296145 -4.981853
-5.395469 -0.377580
-2.644631 -3.220946
-6.487206 -0.611612
-2.992794 0.071055
-5.340632 -1.670071
-4.295041 1.436608
-0.998803 -1.702830
-4.503813 -2.400676
-1.662590 0.665119
-3.702574 -1.922529
-1.926322 1.062795
-3.737180 -3.219039
-3.993040 2.165054
-3.706737 -0.279622
-1.605391 0.963182
-5.186251 0.030220
0.249652 1.476647
-3.501443 -0.799696
1.223144 -0.182971
-3.693594 -1.279182
-0.794846 -1.684567
-3.785571 -0.651142
0.281517 -2.378382
-4.655421 0.786911
-0.884611 -1.178358
-3.352986 -0.283467
-0.418055 -0.200780
-4.337457 -0.001339
-0.694547 0.371833
-2.921272 -1.677768
-1.065614 -0.468906
-2.400547 0.934577
-1.106170 -1.992530
-2.692568 1.553976
0.952548 -3.077016
-3.541503 2.185387
-0.471509 -3.212959
-3.613946 1.680529
-0.692616 -2.401709
-2.073582 -0.187865
-2.902736 -2.292992
-0.857347 -0.764676
-3.578191 -2.138185
-1.276541 0.838193
-4.130796 -3.238590
-2.272045 0.170646
-4.275730 -2.293970
-1.049398 1.970833
-3.819911 -3.962294
-1.945557 1.232179
-3.239342 -2.695308
-1.325744 2.017391
-3.501259 -2.173021
-1.157587 -0.602265
-4.013498 -0.496205
-0.843250 -1.928133
-5.704272 -0.404934
-0.362027 -2.640115
-7.165789 -1.481610
-0.792032 0.782207
-5.641921 -1.737915
-2.806442 1.862110
-5.070179 0.741490
-3.922425 0.883942
-2.731047 3.188843
-3.599971 -0.625360
-4.020765 5.375699
0.166899 -1.622605
-4.748694 3.478953
-0.678033 -0.172631
-3.702276 2.043223
-1.325847 0.650751
-2.063283 1.882095
-2.275022 -0.274301
-3.049479 2.143949
-2.942568 2.048597
-2.128044 5.234726
-0.782528 -1.388587
-3.304471 4.009634
-1.637514 2.372460
-0.507072 3.615339
-2.130762 0.199525
-0.637764 4.651293
-1.415913 0.976767
-0.116934 4.686286
-1.792667 1.271114
-0.161670 3.759122
-1.588129 2.235696
1.177116 2.660924
0.010552 1.687749
-0.676542 0.950721
-3.203620 3.752964
3.221199 2.801687
-2.371322 1.344831
-0.036468 3.722157
-1.038853 4.946142
2.353250 2.665863
0.071721 3.054743
2.047362 4.021701
1.573745 5.030067
3.164120 1.850421
3.156107 3.205727
4.691533 1.043785
1.780490 3.041016
4.002287 0.576511
3.505475 2.337903
2.879709 -1.551343
1.718837 4.064417
4.491207 -1.483020
0.990788 0.979734
1.982200 2.263670
4.275194 -0.130816
0.609168 2.852630
6.042499 1.234351
2.718135 -0.099604
6.354020 0.604817
3.059088 -2.343848
5.496994 1.976800
5.235785 -2.422873
4.682043 -1.703562
4.941301 -0.808180
4.328891 -3.419828
3.153491 -0.542817
4.984236 -4.696753
0.561592 -0.627413
4.359099 -2.900874
2.444767 -0.619652
3.833775 -2.436428
4.005358 -2.199965
2.615051 -1.545141
5.313663 -2.668704
3.289683 -3.236600
4.140331 -4.550280
3.043413 -3.319159
4.031186 -4.869217
3.167081 -5.623489
0.622948 -5.294425
2.600481 -5.049389
1.641535 -6.279543
1.086541 -5.940993
0.810419 -3.919560
0.907201 -5.610184
0.432674 -5.200535
-0.012247 -4.702049
0.023290 -5.185185
-1.823864 -4.358715
2.129067 -3.467244
-0.908216 -4.890453
0.277365 -3.284385
0.108140 -5.126341
1.235340 -5.108199
-0.080843 -5.439409
0.464680 -5.258872
-0.275616 -5.877184
-0.693646 -5.643102
-1.825877 -4.624887
-0.826207 -5.533646
-3.597489 -5.348214
-1.536248 -5.255769
-2.388144 -3.353904
-3.114742 -6.554976
-3.341690 -2.536080
-1.526541 -4.613177
-3.051659 -2.937977
-0.391661 -3.875752
-1.905499 -3.149041
-0.247879 -4.360604
-1.609717 -4.357964
-1.570611 -4.297942
-0.882245 -3.209618
-4.283056 -6.611217
-2.221569 -1.425789
-5.046082 -5.523355
-2.942474 -0.944187
-3.198241 -3.822157
-3.367406 -1.067719
-3.438510 -1.814624
-1.638625 -2.238602
-3.365179 -1.477443
-1.059168 -2.538013
-4.403859 -0.824311
0.355094 -2.437012
-4.820163 -2.784874
-2.229502 -2.402182
-3.459242 -1.891283
-2.201476 -2.771800
-3.547824 -1.888136
-4.567131 -3.396648
-4.072206 -0.931040
-3.312936 -2.909664
-2.835177 -0.847314
-3.450193 -1.735196
-2.998797 0.086766
-2.363054 -1.407355
-2.325887 -0.149642
-3.898356 -1.858616
-2.524625 1.895349
-2.406784 -1.191514
-2.536241 1.061718
-1.459715 -0.462884
-0.864807 -0.332819
-2.122268 -0.145911
-0.413462 -1.794641
-3.342579 -2.269761
-0.452397 -0.777377
-3.130602 -3.079831
-1.936936 0.302120
-2.742640 -2.445728
-2.672403 0.831628
-2.111201 -0.905024
-1.517477 0.413990
-2.376827 -0.793528
0.090746 -0.726038
-2.417645 -0.683177
-0.468105 -1.730828
-2.145484 -1.404581
0.234548 -3.380832
-2.566785 -0.155437
-1.091146 -3.468244
-3.497507 -1.319393
-1.005559 -2.897938
-3.508311 -1.498712
-1.935871 -0.392068
-2.150146 -1.926971
-3.062279 -2.739272
-3.732217 -0.914103
-2.417826 -1.886949
-1.755578 0.051505
-3.071696 -4.692549
-2.809639 0.867448
-1.977098 -4.662520
-3.268156 -1.067534
-2.492925 -2.989772
-3.373306 -2.005266
-5.010798 -0.566859
-0.959236 -2.088539
-5.902575 -2.017921
-2.199008 -0.328408
-4.376113 -1.232324
-1.250513 -1.254931
-5.256824 -1.900877
-4.186671 1.010726
-4.841194 -0.563780
-3.021408 -0.748280
-5.619216 1.478405
-2.232490 -0.249089
-5.739572 1.991165
-1.935494 -0.653599
-4.151349 1.837017
-3.111897 -0.418396
-3.916318 2.519812
-0.647753 -0.716462
-3.883239 0.439755
-2.774201 1.030526
-3.038688 1.406866
-3.054837 -0.141443
-3.097855 1.204099
-3.319847 0.255712
-3.286326 1.751248
-3.813302 1.161183
-2.133056 3.551663
-2.561285 -0.547709
-2.618628 2.640857
-2.886872 0.282167
-1.584532 2.812470
-3.033155 -0.037907
-2.179881 1.688069
-3.920953 1.640748
-2.130124 1.987103
-2.735300 1.558262
-1.991250 2.876198
-2.694538 2.222707
-0.584519 3.431511
-2.615261 3.150636
0.098773 2.677545
-3.687481 2.304801
0.718152 5.049348
-1.582449 1.746228
-0.206166 2.620395
-2.672703 2.843476
0.636744 4.100274
-0.150455 2.226202
-0.420895 2.472186
-0.127298 4.389981
0.719341 1.103132
-0.905630 4.088072
2.404227 0.794691
-0.370273 4.504781
1.463740 2.412259
1.236595 4.009303
0.952669 1.334593
2.289366 2.370269
0.230674 2.835656
4.700206 2.865784
0.399732 0.036098
2.128870 4.361247
3.243485 0.836782
3.373364 2.776952
2.551406 0.771060
3.861754 1.259183
3.287309 0.136527
4.994774 1.479165
2.972230 -1.685917
3.217133 0.439073
1.642174 -0.706812
4.407046 -0.351570
2.085777 -1.719826
2.710377 -1.502382
2.146258 -0.041746
3.901374 -1.790832
0.811173 -1.712607
2.395133 -1.950662
2.720767 -1.116745
1.328471 -1.539901
2.052531 -1.130314
2.365978 -2.366362
2.885009 -0.934803
1.714097 -3.412453
2.915426 -0.080506
2.658952 -4.187889
1.822520 -0.764894
1.991301 -3.979059
2.590373 -2.680059
1.691224 -3.571797
2.655203 -2.865784
0.899752 -4.072747
1.540471 -2.756294
1.107920 -3.225710
0.842082 -4.602189
0.162716 -3.982246
0.041811 -3.909503
-0.133712 -3.786340
0.955529 -4.083935
-1.537321 -4.172300
1.361073 -1.201547
0.009938 -3.873317
-0.110852 -3.521120
-0.280328 -4.077404
-1.591358 -4.395444
0.841223 -2.839701
-0.928546 -7.387064
-2.304371 -1.897146
-0.210486 -4.609393
-1.192581 -3.350287
-1.619604 -3.792853
-1.248290 -2.720404
-1.139022 -2.506840
0.004453 -2.269125
-1.566326 -4.759676
-1.279335 -1.808064
-0.737264 -4.060725
-0.182111 -3.019647
-1.781241 -5.666215
-1.788826 -2.322026
-1.118337 -4.953214
-2.449308 -4.227485
-4.366795 -4.621467
-2.602872 -3.159708
-3.488818 -3.493446
-3.400240 -2.600967
-4.243150 -2.054367
-1.932052 -1.915331
-3.661808 -2.484408
-2.849044 -1.216110
-4.335844 -2.152258
-2.966402 -0.882941
-3.658062 -0.335007
-2.602646 -1.064426
-4.163379 0.597286
-1.949199 0.029743
-2.347784 -0.112965
-2.110370 -2.106925
-2.377597 0.661517
-0.945773 -2.163560
-2.651719 -1.105987
-2.317194 -2.165736
-3.424403 0.036892
-2.242178 -2.639149
-2.916103 -0.378670
-2.148283 -2.103058
-2.526815 1.138808
-0.933674 -1.653110
-2.581925 0.238770
-1.920262 -1.596806
-1.089487 0.322957
-1.630193 -0.228635
-0.349016 -1.100525
-2.686540 -1.144768
-0.213830 -0.705984
-2.460247 -1.977583
-0.854976 -1.124246
-3.174726 -2.486981
-1.903801 0.622726
-2.718044 -0.834177
-1.429053 -0.125790
-2.717035 0.769676
-0.002705 -1.157455
-1.873376 0.477060
0.624946 -1.540215
-1.809430 -0.437296
0.480825 -2.286602
-1.871278 -0.890383
0.684286 -1.848601
-1.014961 -2.562799
-1.620498 -2.904919
-1.841749 -1.160202
-1.623298 -3.273752
-3.057876 -1.058661
-1.148319 -4.013136
-3.937340 -1.052456
-1.953315 -2.303438
-2.676038 0.072250
-2.204190 -3.358197
-3.752472 0.372266
-2.496963 -1.456799
-2.221279 -0.495619
-3.292032 -1.972432
-2.445740 0.326080
-2.195066 -0.669012
-1.268494 0.056706
-2.526799 -1.386865
-1.262690 -0.292052
-2.575887 -1.631607
-0.816418 -0.286473
-3.360828 -3.486653
-2.624106 -1.209174
-3.520437 -1.324030
-2.111335 -1.402489
-4.394421 -0.643274
-2.476493 -1.119203
-5.154823 1.468341
0.154322 -0.674246
-4.131860 -0.677013
-2.100523 -0.772161
-4.210128 -0.745847
-2.411762 -0.941359
-2.821964 -0.574496
-3.598359 -3.191112
-5.614701 1.851657
-1.549684 -1.756815
-4.708508 0.337245
-4.196168 -1.164589
-3.880718 2.729805
-4.185722 0.036970
-2.448204 1.548468
-5.654300 0.131703
-2.036232 3.350078
-3.028056 0.488444
-1.137567 2.887650
-3.494707 0.097594
-2.240221 2.452752
-2.557380 0.998724
-0.877034 1.381937
-3.920770 0.466699
-2.586896 3.263617
-2.948694 1.290100
-1.589216 1.114180
-4.473190 2.480460
-0.588545 2.317964
-3.134013 2.348971
-1.775405 1.897785
-3.251910 3.207406
-1.366747 2.146541
-3.315538 3.694063
-0.633789 3.009557
-2.306239 3.841827
-0.818961 3.226707
-0.054312 4.010539
0.544228 1.670729
0.282130 4.589934
1.314145 1.554072
-0.335227 4.033584
0.821210 1.617849
0.668321 4.021692
1.239815 1.608004
0.273214 2.825424
0.017435 2.648582
2.570828 3.313405
0.123375 0.087677
0.429775 3.797501
1.056175 0.883314
1.830075 3.429135
1.868328 0.388427
1.949159 2.244609
0.995680 2.034229
4.628238 1.861645
1.227387 -0.179299
3.305419 0.506729
0.013233 1.286194
4.025524 0.831983
-0.053205 0.341987
2.803914 -0.109452
0.615947 2.563332
4.477587 0.835655
0.992897 0.161894
3.923295 -0.817254
1.421757 0.962349
5.705966 -1.915083
1.316433 -1.321046
3.594255 -2.170514
1.946829 0.381371
3.333166 -3.712515
1.180085 -0.625328
1.361209 -3.226508
2.679559 -0.038098
2.058472 -4.275739
2.519416 -1.590930
0.749861 -3.798295
1.725512 -1.048741
1.721856 -3.798000
0.853091 -2.257510
0.245134 -2.182798
1.720354 -1.154438
0.776327 -3.479428
0.932241 -2.091379
-0.244078 -1.536256
2.230946 -1.397302
-0.049728 -3.588049
1.683872 -1.638851
0.630322 -1.880168
3.030483 -2.873761
0.715724 -3.557156
1.541899 -3.863169
0.712814 -3.233216
0.475228 -4.696350
-0.228157 -3.246399
-0.902159 -5.269096
-1.652905 -2.689253
1.201959 -3.811542
-2.473691 -3.805455
-0.065470 -3.193793
-1.503520 -3.264107
-0.867752 -3.440537
-1.006979 -3.334592
-2.251523 -4.600255
-1.630784 -1.268121
-1.544474 -4.944613
-2.408669 -1.730062
-1.833621 -4.420632
-3.043595 -1.479607
-1.848366 -2.648503
-2.886836 -1.475168
-2.953751 -2.359354
-2.246369 -0.905026
-2.697460 -2.344971
-1.062093 -0.881664
-3.746524 -3.539108
-1.593637 -0.013603
-2.094362 -2.298273
-0.446965 -2.057684
-3.934583 -2.314642
-1.560142 -0.567160
-3.423872 -2.263447
-2.170978 -0.852036
-3.125756 -1.246272
-1.376766 -0.511800
-2.480030 -0.718002
-1.854385 -1.382026
-2.754535 -1.267974
-3.021270 -1.999176
-3.251386 0.642595
-2.026604 -1.663786
-3.847124 0.649767
-2.629766 0.449872
-0.587602 2.166943
-2.027338 -0.156070
-0.277738 2.758636
-0.891390 -0.177244
0.785499 0.515453
-1.196136 -1.018394
1.103493 -0.061330
-1.162962 -1.299574
0.368932 0.054843
-1.674651 -0.423833
1.619795 -0.896012
-2.145296 -2.129410
0.804620 0.037411
-1.111917 -2.045081
-0.888261 -1.447086
-1.473002 0.292717
-0.736110 -2.003632
-1.507266 0.623333
0.548887 -2.283827
-1.555774 -0.466393
0.106107 -1.579699
-2.458930 -1.182191
1.094313 -0.522620
-1.090708 -3.410468
-2.302078 -1.187144
-1.272358 -0.215162
-0.725676 -2.327755
-2.274143 0.547489
-0.237504 -2.623210
-1.871427 0.715085
0.449891 -3.243261
-1.192586 -0.064825
-0.398757 -3.535949
-2.073330 0.013469
-0.385261 -1.901528
-0.913635 -1.856032
-1.650499 -2.240959
-0.418817 -0.129814
-0.730079 -2.976611
0.024344 -1.894328
-2.421120 -3.429192
-0.030810 0.093607
-2.320110 -4.566637
-0.470398 -1.235896
-3.683811 -3.241453
-1.482029 -0.982582
-3.007379 -2.322772
-0.518408 -1.808553
-4.373841 -2.391022
-1.428445 -1.099503
-3.385465 -0.854733
-0.414006 -2.209058
-4.245379 -0.193880
-0.590487 -1.553440
-3.021192 -0.191810
0.234783 -3.517262
-3.660896 -0.864792
-0.797758 -3.511095
-4.773398 -0.904407
-1.724473 -3.972318
-4.992927 -1.573686
-3.794323 -3.856644
-4.761676 0.609827
-4.030360 -2.483292
-4.050042 0.433576
-4.393315 -2.640807
-3.642965 2.088016
-3.379378 -3.410978
-4.850456 1.794543
-3.634133 -2.637122
-4.197362 2.469729
-4.062363 -1.459261
-3.890952 1.282609
-5.370718 -0.078190
-2.248843 1.911859
-5.902946 0.419793
-0.749881 2.489823
-5.878244 0.451373
-1.270373 4.400279
-3.883324 1.325960
-1.522730 1.988301
-3.650199 1.837405
-2.026127 1.877384
-2.911339 2.393055
-2.557835 0.923326
-3.653633 3.144941
-0.479700 1.538329
-4.561866 2.503486
-0.104130 2.678791
-3.032065 2.239185
0.015122 1.960922
-2.974816 2.104932
0.293415 1.400361
-2.395690 1.992837
-1.184203 1.922322
-2.411244 3.005538
-1.571608 1.614021
-1.497748 4.683980
-0.116920 1.606245
0.198299 4.283793
-1.039486 1.104426
0.915718 5.516984
0.436335 -0.971282
-0.131341 3.879619
2.037272 1.601169
1.175359 1.309884
0.761965 1.401603
2.433699 1.455112
0.215113 0.744235
2.194482 0.483308
-0.106641 -0.479715
0.757623 1.794804
-0.039963 -0.369744
0.594756 1.823749
0.995079 0.667178
1.985034 0.534835
-0.203175 0.841067
2.993225 0.397190
0.487757 -0.170533
1.517367 0.383764
0.818009 -0.006422
0.902345 -0.592244
-0.024374 1.023714
0.316873 -0.524589
1.295878 1.497156
2.632007 -0.203891
1.353609 0.935047
3.637987 0.096597
1.540222 -1.969246
2.186713 -0.798700
2.786241 -1.883505
1.386794 -2.802000
2.375750 -1.368031
0.564361 -3.182124
2.842365 0.151721
1.497736 -3.811868
1.585602 -1.383554
2.084203 -3.101500
0.773650 -3.699059
0.564363 -2.126167
1.908553 -4.615901
-1.769222 -2.639911
1.351600 -3.684930
-1.506597 -3.545097
0.034934 -4.270988
-2.869414 -2.732884
-0.470430 -3.117929
-2.458068 -2.654490
-1.730737 -3.690521
-2.796468 -1.858765
-1.752933 -3.183354
-2.456238 -0.297714
-1.163311 -2.810569
-0.729038 -1.142409
-2.258373 -3.895945
-1.466745 -0.270968
-1.541499 -3.424047
-2.487528 -1.476621
-2.393757 -2.982053
-2.521452 -0.123305
-1.730006 -2.809733
-2.774528 -0.554542
-1.942916 -2.357545
-1.565277 -1.191508
-3.783864 -1.953462
-0.761936 -0.927153
-4.678227 -2.447214
-2.111600 -0.667440
-4.476294 -0.884153
-1.337871 -1.542284
-5.674706 -0.550077
-1.487080 0.454012
-3.455348 -0.140332
-1.329370 -0.576915
-4.040971 1.043584
-1.679152 0.332196
-2.098110 1.111427
-1.178278 -0.934663
-3.193984 1.706820
0.481139 -1.323771
-3.910413 1.345519
1.082396 -1.170201
-4.342120 0.052041
-0.606698 0.634092
-2.081228 1.471627
-0.804288 0.006806
-1.040918 1.486763
-1.745944 -0.502652
0.470518 2.846137
-0.796117 -2.619735
-1.314934 2.308620
-0.558743 -2.542445
-2.056877 2.725150
0.107719 -2.135259
-1.931896 0.989100
-0.885830 -0.418014
-0.366065 0.506436
-2.305507 0.187415
1.574447 -0.042461
-3.702749 -1.239162
1.567913 2.864548
-1.410392 -2.082715
0.486224 2.349753
-2.003448 -0.788373
2.437176 1.988278
-1.104099 -0.810144
2.670951 -0.168290
-2.091624 -0.186560
2.800219 -0.668068
-0.646012 -0.156242
2.432159 -2.097289
-0.909174 -0.108056
0.875721 -2.454158
-0.760759 1.225681
2.623374 -3.447411
-1.818511 -1.470498
1.009330 -1.556355
-0.142055 -2.580861
-0.568253 -2.852627
-1.268098 -1.896255
-0.299445 -2.253716
-0.881480 -1.389398
0.341249 -3.114295
-1.057653 -0.039529
1.155612 -4.286392
-1.177823 -1.240263
0.613034 -4.416598
-0.204147 -2.247826
-2.004280 -4.784056
-0.930174 -2.482404
-2.718931 -5.355114
-1.859729 -1.879124
-2.055056 -4.625079
-3.240319 -2.521044
-3.185709 -3.237733
-1.794170 -0.996766
-3.490615 -4.141754
-1.811901 -1.782137
-4.802628 -2.257055
0.038630 -1.250923
-4.674805 -4.562451
-2.585083 -1.755438
-3.147563 -3.535980
-3.856041 -3.102592
-2.700329 -2.284842
-5.784675 -3.966827
-4.962863 0.819103
-2.743744 -2.766572
-6.550687 -1.206333
-2.980540 -0.988220
-6.094141 -0.270436
-1.833390 -0.404574
-5.313784 -1.605120
-5.410438 -0.868283
-3.245015 0.347948
-4.814540 -2.010434
-4.094934 1.726343
-5.641641 -1.475076
-3.793196 2.862826
-3.501569 -1.985206
-4.251943 1.210903
-5.615615 -0.866927
-3.771876 2.039959
-4.782842 -0.661194
-5.541895 1.917620
-5.017302 1.510381
-3.888197 2.147580
-4.316018 2.539936
-3.122022 1.461772
-5.773270 3.929538
-0.551149 2.348638
-4.793636 2.062336
-1.679179 3.255429
-3.015801 4.152047
-1.217583 1.818884
-1.215225 3.639378
-1.559626 1.309641
-0.309663 3.637696
-1.242860 -0.949599
-2.507427 2.276914
-2.789422 -0.089999
-2.991621 3.239951
-1.979649 1.200325
-2.270631 3.120148
-2.205957 3.051379
0.282221 4.154691
-0.076576 1.771550
-1.097229 2.615831
-0.522400 2.159210
0.539868 1.786823
-1.369445 0.182972
-0.987764 2.485300
-2.128681 1.137827
0.174789 3.948542
-1.302200 1.123565
0.475551 3.575971
-1.604999 1.474108
1.608945 2.711929
-0.505614 1.346190
0.437261 1.790457
-0.328302 3.158796
1.397431 0.046140
-0.000779 3.785838
2.441631 -0.622537
-0.419044 3.847025
4.213094 -0.421154
-0.562659 0.051404
2.798130 -0.312194
0.661858 0.149397
1.347107 -1.259842
0.203978 0.335149
1.069775 -2.898821
0.040669 1.160468
1.010169 -3.476381
-0.921414 1.184708
0.297464 -3.055111
-0.556163 0.548547
-0.680508 -2.614720
0.215793 1.859245
0.505117 -1.908385
0.157345 0.940343
0.930526 -1.411939
0.398816 -0.936819
0.808444 -1.114673
1.741467 -2.083897
-1.290333 -2.456685
1.159453 -1.174217
-2.169118 -3.818618
0.690369 -1.256676
-3.369659 -3.482030
-1.123724 -0.142921
-2.020071 -1.862857
-0.875963 -1.254225
-1.823663 0.309925
-0.522525 -3.491442
-2.886171 0.916865
0.468687 -2.616855
-3.721547 -1.499152
-0.057538 -2.462662
-3.459736 -1.930729
-0.660756 -1.619180
-4.115804 -2.128896
-3.465018 -1.034060
-3.776997 0.834939
-2.444237 -2.120398
-4.189029 0.449720
-2.584335 -0.040675
-2.652185 1.991053
-1.518231 0.180053
-2.121150 0.967763
-3.683005 0.945185
-1.398477 2.260966
-1.837559 -0.509751
-2.265202 2.575547
-1.829020 0.183802
-2.317215 2.589005
0.722128 1.426852
-1.521139 -0.435351
-1.924047 1.389978
0.183672 1.442878
-1.869590 -0.944124
-0.113929 1.752586
-3.662905 -0.095216
0.081505 3.496362
-1.134889 -0.700702
-1.202885 2.321293
-0.826585 1.921619
0.170453 0.145458
-2.172535 2.059643
1.236100 0.839227
-1.556820 0.440001
0.413814 1.244529
-0.516316 1.269104
1.166599 -0.677211
-1.213063 2.664702
1.432661 -0.540654
-0.510255 0.786440
0.078154 -0.478750
-0.327489 1.270897
0.195506 0.432346
0.101861 -0.051296
-1.300506 2.040251
3.211818 0.999896
-1.070577 -1.302292
1.636321 1.267697
1.109111 -0.667156
2.091118 -0.557157
1.067268 -1.345786
0.269705 -0.528527
1.106411 0.437799
0.329540 -1.782631
0.320534 0.692493
1.533576 -1.159700
-1.111933 0.237454
2.935604 -0.569737
-1.231720 -2.068171
1.340414 0.160979
0.475856 -0.539588
2.156428 -1.135624
0.259094 -1.755061
1.176874 -1.540013
1.643595 0.162554
2.688664 -5.084272
-0.263561 -1.055852
0.135653 -3.789389
0.677853 -0.860628
-1.198020 -4.067557
0.280988 -0.706343
-1.113606 -4.030637
0.451703 -1.011080
0.654762 -3.002953
-0.248205 -3.691723
-0.665518 -2.029372
0.748020 -3.654726
-0.869397 -3.240293
-0.481733 -4.346197
-2.784568 -2.908929
0.014978 -1.693083
-2.722176 -4.533578
-1.807169 -0.930138
-1.593704 -3.419795
-1.943518 -3.130938
-3.599204 -2.984931
-1.997299 -3.999524
-4.232283 -2.703488
-1.809071 -3.312490
-4.865142 -1.626404
-2.579971 -3.206142
-4.258591 -0.928086
-2.279603 -2.423310
-4.279983 -0.968401
-1.863428 -2.897416
-4.984962 -0.224092
-1.208694 -3.440327
-6.120195 -0.679883
-1.769813 -1.756774
-4.286414 -0.629722
-3.699310 -2.473082
-4.328280 0.665314
-5.378864 -1.937519
-2.995312 1.935609
-4.755932 -3.078274
-4.245805 3.097531
-3.121144 -0.999157
-4.026957 2.043211
-1.955736 0.732608
-2.338088 0.041429
-3.086815 0.604188
-0.300771 -0.017934
-4.783012 -1.114528
-0.679274 0.953969
-5.969753 -2.340232
-1.447193 2.305607
-4.511705 -1.996261
-3.091662 2.063085
-4.705334 1.607379
-1.939434 0.427866
-4.410233 0.915752
-0.747524 1.061470
-4.158919 1.114060
-0.529697 1.570523
-3.767435 -0.211074
-1.666485 0.953888
-4.137666 2.016377
-0.440776 -0.548743
-6.053716 2.041999
-0.624295 0.104592
-5.808925 2.233156
-0.672963 1.513113
-3.643970 1.833147
-3.009365 2.050873
-0.806157 3.269179
-2.426049 0.545746
-0.412021 3.735012
-1.924457 -0.231523
-1.675331 4.302331
-0.455860 0.478455
-2.047994 2.570941
-0.804865 2.721443
0.243071 1.559206
-1.862658 2.411433
1.337863 1.938811
-1.338528 0.256660
1.123292 2.063634
-0.984583 -1.438171
-0.798251 1.223044
-2.210827 0.080191
-0.815404 1.547088
-1.968150 0.773762
-0.245269 1.853543
-1.630112 2.594631
2.428704 2.051794
-1.077559 -0.128012
1.178072 2.326839
0.867450 0.488621
1.417793 -0.939216
-0.426398 -0.004959
-0.094938 -1.647221
-0.912869 0.698709
0.734886 -2.120898
-2.843311 -0.550432
-0.970349 0.102808
-2.472774 -0.399847
-0.947375 1.118119
-2.086812 -0.422424
-2.445161 1.144241
0.555104 3.135500
-0.279603 -2.375337
-1.364046 1.959102
0.290448 -1.054987
0.257956 0.784284
-0.754590 -1.673918
-0.997689 -0.557385
-2.514038 -0.267218
-0.889490 0.195126
-2.062500 0.200867
-1.270526 -0.083843
-2.303507 0.888906
-1.134113 1.148655
-0.679261 0.519982
-0.945442 -0.107019
-2.284498 1.166649
0.115063 1.467397
-1.374941 0.193657
-0.621767 1.658865
-1.053013 1.072319
-0.266458 0.634079
0.083885 1.016308
-0.740368 -1.346337
-0.444877 0.741290
-1.709179 -1.767222
-1.022982 2.201362
-0.434634 -1.524863
-2.659232 0.400399
-2.383604 0.446285
-0.881778 0.831398
-2.216627 0.273245
-1.298562 1.865025
-2.358765 1.039998
0.466623 2.626939
-1.804034 1.017982
1.135360 2.413735
-0.442669 -0.112484
0.839142 0.916041
-0.256900 1.561155
1.057812 -2.343987
-2.783898 0.199392
0.368177 0.552100
-1.482717 -0.610638
-2.486939 -0.373279
-0.772408 1.680119
-2.744516 0.234604
-1.139276 2.593813
-0.724493 0.420694
-1.754025 2.539809
0.211863 0.534886
-1.774530 2.200951
2.250563 0.757857
-0.920069 -0.751124
-0.951882 1.992405
2.568763 1.145487
-0.683193 -1.526339
0.378191 1.773915
-0.877649 -1.238730
-0.636501 3.013397
1.475349 -0.842481
-1.907687 1.766580
0.246538 1.366625
0.514606 1.743147
0.859363 1.349786
2.880766 1.809073
0.223113 -0.001400
2.576913 2.232823
2.215962 -1.552511
1.874268 -0.471887
-0.068006 -0.894225
3.288705 0.673655
0.809350 -1.431546
2.598839 -1.248909
-1.126512 -0.683785
3.567297 -0.652012
-0.390033 -2.066944
0.658083 -1.193565
-0.712024 -0.500780
0.620517 -1.656105
-0.753811 1.175786
2.174234 -3.053173
-1.570888 1.164366
3.004675 -1.309596
0.134790 -0.989049
2.014083 -1.898973
0.002181 -0.829141
1.676116 -1.740357
1.364957 -1.906715
-0.364886 -4.034931
0.519116 0.031420
1.131200 -5.994111
-1.788300 -1.601167
0.866702 -4.263501
-1.119129 -2.491711
-1.564723 -3.570387
0.003859 -1.827567
-2.740608 -2.484541
1.763763 -0.692564
-2.452181 -3.384271
1.088377 -0.730779
0.027200 -3.377638
0.363808 -3.662996
-0.038201 -3.259247
-1.371012 -5.211522
-3.273205 -2.018356
-0.129595 -3.912679
-5.153315 -3.638945
-1.277441 -1.262003
-3.053131 -3.143288
-1.598573 -0.965085
-2.161923 -2.736386
-2.248032 -1.710236
-0.186415 -1.722987
-1.638928 -3.811038
-2.790211 -1.442567
-1.428476 -2.713069
-3.668413 -2.236115
-0.497978 -3.158417
-4.018866 -3.002884
-0.987012 -2.046897
-3.497220 -3.624343
-2.637577 -2.997554
-3.680710 -2.037456
-3.330023 -3.552342
-3.534537 -0.723075
-3.382897 -3.890321
-3.910357 -0.399128
-4.139837 -3.402481
-2.722966 -0.921145
-5.128311 -3.240261
-4.536454 -0.510529
-4.258239 -1.024520
-3.403071 -0.944044
-4.555203 -0.483663
-2.665781 0.250234
-3.157519 -0.898992
-3.104816 -1.142879
-6.074335 -1.667981
-2.197602 -0.423153
-6.809625 -1.777295
-3.575454 1.081035
-6.102566 -1.538885
-5.092920 1.624243
-4.070397 1.877250
-4.045024 -0.381997
-4.435786 2.986216
-2.963780 -0.066283
-4.253096 2.761829
-1.905885 -0.584350
-5.417048 0.383032
-3.139327 2.450277
-2.602911 0.098869
-4.600072 0.631358
-3.261156 1.797781
-4.293548 -0.010539
-4.083898 2.509477
-3.141952 -0.137880
-4.586299 2.380393
-3.355884 2.446778
-2.443600 2.875273
-2.683994 3.051810
-0.976301 2.388194
-4.132574 1.971720
0.522016 3.121387
-3.482758 -0.660690
-2.366396 2.852267
-2.564985 0.760929
-2.777137 1.386106
-2.336510 3.394799
-1.690123 0.722551
-3.168385 4.032711
0.554996 1.443194
-2.149209 2.617292
0.034534 1.239136
-1.978952 1.383528
-1.506736 2.700409
-0.744994 1.078922
-2.058377 1.167718
-1.392534 3.459214
0.475820 1.123880
-1.684325 2.045258
0.593744 1.175907
-1.294523 1.590202
-0.253180 0.955531
-0.934151 1.519273
-1.012363 -0.961762
-1.152821 2.631941
-1.636624 -1.195732
-1.141105 2.300015
-1.178084 -0.091993
-1.749117 0.838335
-2.239390 0.675072
-0.154367 0.915802
-3.330720 1.114871
1.250263 1.173885
-3.926457 -1.164235
-0.095250 3.870846
-0.861326 -0.905823
-1.062318 0.924962
-2.005928 -0.039478
-2.008451 0.271690
-2.491339 2.550742
-0.212854 -1.512994
-5.549773 2.445593
0.396194 1.771199
-1.081670 1.870111
-0.670315 2.386887
-0.736901 0.313211
-2.061322 1.888616
2.056414 1.845707
-0.766859 -1.400772
-2.214376 1.799740
-0.677377 -0.566709
-1.305300 1.094454
-0.379631 -1.410107
-3.556874 0.319992
-2.800789 1.517788
1.529590 0.591660
-3.926682 -1.121662
-0.924651 2.194587
-2.954956 0.240998
0.218880 1.933064
-2.090254 -0.843578
-2.669681 1.626149
-0.969058 2.404574
-0.633054 0.256926
-2.200574 0.698183
-1.219698 -0.145718
-3.134017 1.656992
0.511801 1.760668
-3.141502 -0.163355
-2.264777 2.831849
-0.814299 2.312737
-1.191981 0.766183
-1.787160 2.397485
-0.844365 1.636229
-0.976519 3.164926
-0.401479 1.077436
-1.555917 2.184840
-0.715762 2.740465
0.171689 1.988484
-1.344393 1.569870
0.337912 3.365524
-0.283085 1.451579
-0.025936 2.800097
0.365869 0.357707
-1.164322 2.714271
-0.380404 2.407025
1.413169 1.997276
-1.441780 1.471678
1.349225 3.003233
-0.786418 2.752731
2.825047 2.916491
0.327081 1.070193
0.853288 4.504449
2.927534 2.245231
2.030064 1.114313
1.733590 3.462091
3.930310 0.495312
1.794447 2.121322
5.892643 -0.528312
0.713919 -1.202087
3.435576 0.263171
1.745911 -1.452333
1.656874 -1.929174
1.165227 -0.585865
0.317819 -1.494402
1.844888 2.033879
2.905235 -2.821796
0.102065 0.823892
3.376143 -0.911458
1.558227 -0.470406
2.523705 -2.040742
1.102453 -0.996398
0.454650 -2.662463
3.050998 -0.151351
0.512599 -4.854633
0.731639 0.474199
1.232140 -3.974594
0.233707 -1.611703
0.671009 -2.502674
1.593878 -1.580452
-0.858762 -2.020557
2.574861 -0.933191
-0.229362 -4.043167
1.211187 0.176837
1.665770 -3.314199
0.845887 -2.135598
1.130308 -4.061674
0.229464 -3.954904
-0.369484 -2.862159
2.245996 -5.578063
-3.170269 -3.699579
1.282448 -2.977745
-1.117124 -4.873836
-0.674936 -4.766483
-1.014312 -3.872432
-2.059834 -5.267855
-1.472477 -2.094480
-1.032515 -5.943960
-4.447982 -2.281024
-1.331875 -3.923726
-3.684921 -1.782377
-0.088980 -3.452629
-3.345685 -3.095831
-2.272644 -2.962800
0.003717 -1.950609
-2.166623 -6.808047
-2.742031 -1.275910
-2.994142 -5.482433
-3.588406 -2.662476
-3.232557 -5.617887
-6.132844 -3.557696
-4.528760 -2.322857
-4.509400 -4.449078
-6.040097 -2.430808
-5.206084 -2.035050
-7.896039 -2.476958
-3.710126 0.806408
-5.201544 -3.891869
-6.701557 0.990190
-3.959561 -0.677761
-3.494150 -1.479092
-6.065348 -1.096890
-4.339393 -1.416464
-7.628236 0.167933
-2.971702 -0.828987
-8.133976 -1.508191
-6.231729 1.844079
-4.937962 0.979681
-4.582392 1.034386
-5.083331 1.932298
-3.802168 0.334862
-5.234495 3.201925
-1.954251 0.240264
-5.624965 1.320073
-2.474723 1.859849
-3.829684 1.017094
-4.248486 1.521056
-2.256258 2.211391
-4.143328 -0.368889
-2.691068 3.153166
-2.708620 -1.213416
-4.781893 1.952575
-3.033703 0.226904
-4.602336 1.024298
-3.481320 2.233518
-3.795526 1.854494
-4.496728 2.692433
-2.214296 2.248142
-5.788721 1.564398
-2.162247 5.398525
-3.013404 1.235805
-2.670942 3.380857
-1.882038 3.428695
-1.723103 2.359606
-1.396379 3.212116
-0.030060 -0.532881
-2.770031 2.544198
-0.746133 0.626782
-2.175040 1.249492
-2.357730 0.752190
-3.473762 1.247015
-3.341392 1.714388
-1.209372 2.988956
-3.643774 -0.102360
-3.081118 4.850224
-0.882322 2.149725
-1.857195 1.853773
-1.134277 2.386882
0.218410 0.911880
-1.958308 2.359742
0.155101 1.290048
-2.497810 0.093280
-1.219543 1.719782
-1.752377 0.440943
-1.558715 2.750789
-0.579439 0.183237
-3.541763 2.077141
-1.094564 2.439216
0.150402 1.227970
-3.427642 0.645298
1.165687 3.584603
-1.813032 0.286409
0.598298 2.620305
0.419203 0.688400
-1.241077 -0.011246
-1.240746 1.900325
-0.437453 -0.657876
-2.428692 1.403582
-0.457366 -0.049298
-2.974564 0.947123
-0.015500 0.054258
-2.785028 0.080299
-1.173764 -0.448440
-2.738520 0.926683
-2.959980 -1.579547
-3.354770 3.626704
-2.487680 -1.888384
-5.067283 4.665222
-1.726998 1.571187
-3.410769 3.538815
-1.284420 2.359270
-0.973416 2.522652
-3.176608 1.944270
1.144842 3.651163
-2.792111 -0.953926
-1.266665 3.013879
-1.678773 0.088086
-2.810606 3.186125
-1.506556 2.154115
-0.804732 1.362784
-4.031755 3.804253
0.114982 2.815476
-5.051869 4.047630
1.293257 3.930915
-3.215049 3.388503
-0.539723 4.063549
0.153354 4.839615
-0.242372 1.050218
-0.357662 6.688352
0.993464 0.314343
-0.991007 4.978416
2.020307 1.697356
-2.024485 2.307948
-0.098622 3.876675
0.603377 3.268233
-0.167870 2.511096
1.301367 3.931200
-0.795612 1.570267
1.619143 5.594305
1.674114 0.171069
-0.012258 4.295912
3.448127 2.740848
1.466679 0.929751
0.131548 3.522629
3.405196 0.912970
0.272515 2.285650
3.119696 2.856295
0.989387 -0.440277
1.157594 3.167317
2.058991 0.190731
1.243024 2.058569
2.136298 1.923840
1.485040 0.852252
0.618045 1.758511
4.126324 0.795812
-0.002551 1.014264
2.360041 2.701048
1.776194 0.431161
3.129971 0.602763
2.452428 2.469146
3.977736 1.206204
4.082849 1.686676
4.469007 -1.601587
2.226184 1.666969
7.047199 -1.780632
1.492802 -2.551679
3.054961 -1.578254
2.411101 -2.181986
0.918444 -2.337044
3.569415 -0.297603
0.457913 -3.767818
1.415286 1.637039
4.416027 -2.845316
2.175406 -1.071190
3.109034 -3.739627
1.590798 -2.264715
1.373460 -1.541221
4.148515 -4.191125
-2.147269 -3.473574
4.761741 -0.186895
-0.723590 -5.991831
2.672901 -1.648945
0.492601 -4.231998
1.645949 -2.867269
1.399814 -2.295041
1.472265 -7.001644
-0.649612 -1.805707
3.015776 -4.856724
-1.479458 -3.954928
1.512705 -3.728865
-0.183085 -5.237112
0.255988 -3.609738
-0.422618 -5.397395
-1.704711 -5.737602
-1.101738 -3.579755
-1.831759 -6.672602
-2.564087 -2.866103
-1.416787 -6.682078
-4.022190 -3.941578
-2.219592 -3.745462
-1.656118 -4.771219
-5.940839 -4.693981
-1.395587 -2.366405
-5.604110 -6.099701
-4.538861 -1.943789
-4.816928 -3.073105
-3.143283 -1.066905
-4.065089 -3.265655
-3.366849 -1.148585
-3.909336 -2.484180
-0.652552 -2.271881
-5.570575 -3.237141
-0.945464 -1.012097
-5.430639 -4.969017
-3.013015 -0.742026
-2.980143 -3.441991
-4.619355 -4.813451
-6.509876 -0.895046
-2.234406 -2.692850
-7.401086 -3.808624
-4.358190 -1.328967
-7.280224 -1.880681
-2.989264 0.509106
-7.206267 -2.032359
-5.005873 0.085056
-4.904337 0.604191
-5.418106 -2.994259
-6.766991 4.152808
-2.534220 -4.328516
-9.293480 1.964727
-3.535723 1.044505
-5.167703 0.761590
-6.221331 0.502801
-3.257456 2.821380
-6.174113 0.432939
-1.244670 3.667882
-4.497586 -2.456785
-4.400752 4.347599
-1.826287 -1.359714
-5.274282 2.401015
-2.367307 0.196469
-3.615209 0.315440
-5.103214 0.043271
-0.967472 2.254025
-4.910920 -2.487820
-3.502713 2.637334
-5.142576 -1.450169
-2.802575 1.810400
-3.832046 -1.030706
-4.423724 0.370120
-4.267167 1.965286
-2.232787 -0.765741
-7.668242 0.871825
-2.794528 1.273107
-6.530350 1.039820
-4.724286 2.321115
-4.959832 3.036673
-4.836031 1.735265
-3.920335 5.195423
-2.652374 1.954300
-2.593959 5.088554
-1.141633 1.247360
-3.940090 3.539484
-0.560172 2.752517
-4.502470 0.632983
-3.374196 2.322656
-1.547459 2.842649
-3.706616 0.312409
-3.314782 4.822886
-0.778239 0.547360
-2.744005 3.139024
-0.530208 1.058272
-3.239056 2.054306
-1.184544 1.484410
-2.324296 -0.365015
-4.068498 2.702492
-1.148371 2.755836
-3.565111 0.617235
-3.103420 4.182229
-2.116626 0.203148
-3.857562 3.816939
-0.795676 2.242668
-2.882211 1.606619
-3.929449 4.136292
-0.119120 2.663888
-4.428917 2.911473
2.085217 2.386646
-4.822439 0.378295
-1.113948 4.640156
0.387923 0.147751
-5.239092 0.411984
-1.099643 3.892896
-3.683310 -0.573759
-2.553130 4.734637
-1.409866 0.533863
-5.035744 3.691168
-0.340287 3.721866
-2.795245 1.341205
-2.762840 3.694709
-0.574541 1.033590
-4.379197 2.110908
-0.111494 2.022122
-5.464030 1.045945
-1.873324 4.843064
-2.975954 3.070342
-2.746599 3.746341
-2.267313 5.363835
-0.935163 2.473996
-2.226809 5.697942
-0.005418 3.858095
-1.907090 4.133777
0.054200 4.541878
-1.488141 3.183929
-0.153072 3.438084
-1.323176 4.875541
0.494811 3.017156
-2.146215 5.441577
1.790064 1.411936
-2.337491 5.561828
3.014186 3.385055
-0.362022 4.157901
-0.306026 3.052611
2.591024 4.479424
-1.506156 -0.302267
2.031265 6.016660
0.115786 0.021076
-0.102541 3.766812
0.717687 2.949005
0.512505 3.194297
-0.551062 3.879501
3.181010 3.457908
-0.400732 4.020034
4.578280 4.082065
-0.456478 1.644067
4.819937 4.723283
1.527157 -0.444349
2.188879 2.388247
2.222020 1.214833
2.656236 -0.635804
-1.462068 3.538366
4.887952 -0.360504
-3.029989 1.461866
4.131351 1.561384
-0.412767 0.574254
2.637696 2.106026
2.098661 0.719025
0.801071 0.707597
3.741763 3.885543
2.481676 -2.040527
2.028734 4.389264
4.246943 -3.651466
-0.322273 3.506007
5.822040 -0.274804
1.475991 -0.051251
1.995083 0.042573
4.339394 1.742205
2.349627 -2.567076
3.841851 2.514796
2.130273 -3.505951
3.801165 3.211742
2.416615 -4.301981
3.579339 0.419524
1.326660 -3.806024
3.940842 0.443555
1.740468 -2.976851
5.170511 -0.800935
2.000170 -4.756008
4.121168 -1.078507
3.779177 -4.522503
2.254993 -4.120767
2.586612 -4.120406
2.643317 -6.187306
-2.711646 -5.596749
3.591816 -3.580292
-3.343652 -7.175080
2.219978 -1.800346
-3.218031 -5.824301
-0.034441 -1.387830
-0.438546 -3.840655
-0.899837 -5.553292
-1.133358 0.850939
2.608882 -6.003404
-2.364634 -1.151121
4.364061 -5.729202
-3.593831 -3.957041
2.615624 -3.764924
-0.586512 -6.806163
-1.543270 -7.149696
-2.481857 -5.310076
-4.284771 -7.670371
-2.753995 -2.153371
-4.407544 -9.569344
-6.349380 -0.053763
-2.007003 -4.478951
-3.262965 -3.665899
-5.242409 -3.681710
-2.444873 -2.541251
-4.794426 -3.312505
-1.769851 -3.064963
-4.929724 -6.848370
-4.605332 -0.164820
-2.695185 -5.753223
-5.463213 -1.882081
-2.491182 -5.458317
-7.117877 -3.722993
-5.758268 -1.569631
-2.164278 -4.260680
-9.278320 -3.563905
-2.974128 0.388842
-7.125573 -3.385130
-4.070398 0.882428
-5.053406 -3.776569
-6.389785 -0.353581
-2.839203 -0.424267
-4.896005 -3.183932
-7.033028 -0.465063
-2.652613 -2.681460
-8.325925 -3.086705
-2.789016 -0.803123
-7.718329 -4.269355
-6.208614 -2.949112
-8.587665 -1.366569
-7.379106 -3.447566
-9.867025 0.904315
-8.241645 -1.910585
-10.723392 2.210638
-8.115305 1.641029
-8.328371 3.286207
-8.259567 5.021784
-4.687166 2.257911
-9.267013 3.734232
-2.106248 6.112131
-5.464399 -0.297213
-6.923789 4.909083
-3.390865 2.770746
-5.674641 1.104832
-4.284962 2.563125
-6.654930 -0.428821
-7.235079 3.983948
-3.438859 2.746918
-8.904923 2.264056
-4.847180 4.681271
-7.941298 2.674108
-5.332639 7.696998
-2.195586 4.922330
-4.308542 2.786324
-3.317434 6.292181
-1.084791 2.493050
-2.331327 3.940075
-3.144973 0.582090
-3.787758 3.458668
-4.255925 1.921580
-3.123551 2.524323
-6.479842 1.585085
-1.382576 5.558234
-5.713266 1.866798
-1.254740 5.942896
-3.224538 1.475341
-5.189500 4.506997
-2.308782 6.327597
-2.309909 1.499615
-4.668294 6.895490
0.695267 3.172315
-3.950072 3.772957
1.085605 5.322252
-2.556231 0.120419
-2.851603 4.892730
0.568500 1.914757
-4.064929 0.100004
-2.416839 2.915767
-5.015834 0.201276
-4.005272 5.457285
-3.816135 1.404806
-5.923358 4.614893
-3.563198 5.186074
-3.112389 5.160416
-3.674540 6.029843
-1.449162 6.616156
-1.048562 4.507643
-2.132612 7.979855
2.337669 2.966500
-1.455440 6.351809
1.887856 2.727381
1.959688 3.643240
-2.537268 -0.992858
0.698153 4.320172
-3.619240 -0.963757
-0.913929 5.515475
-4.692560 -0.903829
-3.350847 7.816184
-1.347446 2.294394
-3.082702 5.098672
-2.184741 5.934467
1.295350 3.703546
-3.188155 4.991447
5.138616 3.351700
-5.890073 1.085987
2.715046 5.298120
-2.830189 0.327769
0.117326 3.329208
-4.350895 3.263933
-3.050608 3.060569
-1.106912 6.920297
-0.875060 0.807538
-4.040960 7.173647
0.552283 3.316913
-3.216202 5.160245
-0.167146 4.436195
-2.565139 5.394570
-0.873292 4.329569
0.441709 7.317675
0.739682 0.203354
-1.485664 8.778784
4.074985 1.050143
-1.803435 6.642755
3.229364 2.089869
0.520775 2.897086
-1.111238 3.127095
3.164140 2.846745
-4.505131 0.895188
1.162799 6.638231
-2.734166 0.457706
-2.370969 8.387063
1.261127 3.770524
-2.662225 7.772046
2.983603 7.967500
1.642591 4.970280
1.049754 8.876695
7.656729 4.947336
1.474653 3.980250
6.831807 5.387288
3.225150 1.628499
4.756397 3.681148
4.873922 2.150371
2.887715 1.035626
2.194951 4.556164
5.638614 1.615118
1.915607 2.820980
4.908368 1.972610
1.891559 3.229861
5.856708 2.945836
5.316887 1.747773
4.200462 0.224811
4.559623 4.640761
7.097062 -2.867135
2.571342 3.323418
8.436640 -3.757228
-0.688097 0.974880
8.194671 0.191697
1.710965 -2.617718
1.882767 0.772081
5.506042 -0.561805
0.031852 -2.462410
7.349445 2.714318
1.114664 -6.065339
3.425036 3.697234
5.515293 -3.934230
2.895088 -1.752674
4.415249 -0.934268
4.623538 -4.525825
3.012908 0.008392
6.899017 -5.284587
2.046910 -4.010731
4.662820 -4.662286
2.972971 -5.707183
2.684092 -5.837955
4.003507 -7.108055
-1.003591 -8.196518
-1.308813 -2.771207
3.118957 -7.682118
-4.094799 -5.511671
0.747665 -3.948459
-0.828667 -6.040471
-1.819037 -4.104239
0.911010 -3.752950
-4.495939 -7.265747
0.459671 -2.362242
-1.729726 -7.501558
-1.774029 -3.208659
0.225131 -6.848120
-4.898203 -6.249770
1.079942 -3.154625
-2.587159 -9.497073
-5.539293 -4.647427
-1.869617 -5.646842
-6.021961 -6.587843
-2.969759 -2.670418
-5.453786 -6.538976
-4.115873 -3.438986
-5.358976 -4.231793
-3.661791 -4.480023
-4.698525 -4.546100
-4.823374 -6.320417
-6.177102 -3.663885
-4.756154 -5.631938
-6.938021 -5.481472
-8.961257 -3.195414
-6.709932 -3.133278
-8.748519 -4.344725
-9.035553 -1.026637
-6.560622 -4.130503
-11.766209 1.073687
-4.263619 -2.942533
-12.314292 -0.163709
-4.990976 0.893430
-10.028986 -1.106939
-8.015752 3.116119
-3.070252 -0.094245
-12.023777 -2.684504
-6.410220 5.100634
-6.083319 -2.792619
-9.463501 4.878310
-4.731220 -0.458741
-12.012077 3.672334
-3.870681 3.158617
-8.213970 1.662581
-9.027021 3.026718
-4.146301 4.801912
-8.623214 0.701211
-4.938696 6.810849
-7.431701 0.054982
-5.713894 5.453233
-6.284214 4.591182
-2.790954 2.524642
-8.987756 5.547191
-1.966796 3.548048
-7.644159 5.826238
-0.926403 3.977393
-7.087855 3.440706
-3.231088 6.530522
-3.604827 3.346949
-6.967743 3.914778
-1.641595 10.074564
-0.209898 0.137359
-7.686555 7.751528
1.701441 4.285814
-5.274063 4.022748
0.858093 5.843481
-3.969894 2.596973
-0.984801 6.366221
-0.115350 3.341072
-2.944563 1.626894
0.555417 6.200826
-2.785886 -2.064133
-3.666779 8.070223
0.336218 -1.074449
-5.979912 3.434781
-3.651273 5.792753
0.834643 4.394565
-4.770223 2.331193
-0.810588 6.842799
-2.110555 3.342674
0.511469 4.765534
0.930441 0.505133
-0.566256 2.527068
0.696225 2.813357
0.679778 -1.519244
-6.103955 2.605754
1.722160 0.318276
-8.996644 0.876379
2.288569 5.123812
-6.315023 -1.811861
-4.351557 6.434057
-0.409776 2.634822
-6.539458 1.383955
-0.223435 6.853456
-3.541007 -0.284995
-2.492259 8.027893
1.829937 1.266497
-5.999519 1.698471
1.287578 6.664784
-2.957864 -1.114821
-2.414753 4.366741
-3.210475 1.713002
-2.691403 4.389657
-1.806575 3.796489
-2.966158 -0.122765
-4.248605 7.271160
-0.098574 2.946325
-2.905092 3.314145
-3.009169 2.770807
-0.698896 4.484097
-4.499977 2.629527
-0.347196 6.669740
-2.266488 1.794865
-2.270930 4.873230
-1.272118 4.719797
-0.003461 2.188242
-2.990621 3.278279
-2.025080 1.481319
-4.918908 4.657495
-0.063811 -0.515403
-11.051356 2.420428
-3.786968 7.358094
-5.206762 3.067642
-7.560970 8.381924
-1.416036 8.815518
-6.576106 6.877219
-0.189943 12.451774
-0.826559 7.333007
-0.274051 10.000100
2.242143 7.459354
-1.231682 7.376421
5.208828 7.103137
-0.109653 3.438042
-1.462609 5.882928
1.763171 7.909846
-0.245357 1.714455
-1.409277 10.971011
2.016734 5.069209
-1.025201 9.690332
1.797939 9.582258
5.446814 6.851981
-0.143062 9.459361
7.711933 7.211742
1.960907 7.373573
9.166975 7.005054
2.949296 2.823048
4.410577 9.088042
8.758312 3.718434
2.431031 3.030510
7.275219 7.049559
5.924924 0.170639
3.845212 7.158539
10.074808 -0.035703
1.511699 4.675031
8.432251 2.503721
3.770518 4.172321
7.147542 3.247088
8.157769 3.833662
6.357949 2.375558
9.427137 4.786230
9.147960 -2.115771
7.713084 2.333408
9.441896 -2.785970
8.327952 -1.480438
7.139427 -4.104717
8.326055 -1.745767
5.265585 -7.415103
4.388884 -2.475085
4.370398 -6.606561
2.685709 -1.641057
3.894853 -6.222087
-1.710201 -3.054994
3.457355 0.948547
5.676399 -4.000154
-0.210548 -1.254504
9.577456 0.056375
1.275223 -4.133766
10.400752 0.829236
5.218648 -11.105259
3.806214 -3.296392
5.219283 -6.541147
2.172162 -9.392182
3.393099 -2.912744
2.436182 -14.914940
-4.570388 1.558899
9.302904 -11.323169
-5.940169 -8.610759
1.084587 -3.631728
-0.510386 -6.205723
0.352567 -6.629646
1.286992 -5.624856
-0.085559 -8.544846
-0.786215 -1.543070
4.953949 -11.205304
-4.106505 -7.626805
2.088401 -10.083071
-4.541645 -10.036540
-1.658536 -8.219381
-1.592244 -12.197641
-12.420291 -10.676143
-2.730193 -2.682314
-7.169780 -14.523524
-9.654773 -3.724542
-6.922296 -7.496719
-9.257263 -3.374086
-5.551694 -4.112760
-7.940232 -6.359643
-9.358845 -1.470690
-3.243680 -4.651757
-11.815534 -2.955668
-1.043947 -2.988627
-11.815604 -8.051457
-6.333798 -0.335983
-5.708978 -5.650809
-10.914831 -5.201424
-9.892180 -0.360156
-9.441631 -5.006046
-13.386095 -1.177074
-10.496401 0.995546
-11.747846 -1.134870
-9.702253 2.681798
-11.775397 1.210676
-8.696536 3.479780
-9.943560 3.129051
-5.966482 3.050457
-9.380666 6.656664
-1.412741 2.329564
-9.398232 2.359459
-2.183751 4.519240
-5.004083 -3.360734
-9.196538 3.628762
-0.995271 -0.194983
-10.161178 -2.758378
-8.447602 3.441899
-8.559141 -0.707698
-12.272570 7.232243
-2.692857 3.422355
-12.846881 5.606343
-2.588353 9.336122
-4.357825 3.204218
-6.848755 6.613455
0.305608 4.972709
-6.800307 0.948873
-1.134616 6.733757
-5.711076 -1.236927
-4.897304 3.839362
-4.501779 1.904748
-4.844400 2.135581
-5.354866 3.219254
-4.560471 -0.530581
-9.419871 4.253605
-3.279762 5.199563
-6.201008 2.079522
-7.313332 6.250878
-2.760160 4.745445
-8.141611 4.021275
-0.210739 8.238030
-5.681185 1.627634
-2.031117 7.495008
-1.610639 0.918671
-6.049977 1.896987
-2.381007 6.007666
-3.493269 -2.390023
-7.442861 8.346064
0.217453 1.828434
-7.352133 3.337386
-1.783040 5.989725
-4.761906 -0.088295
-6.135652 5.969398
-3.503667 2.206912
-7.095997 5.586769
-2.877642 5.266752
-3.795346 3.908877
-5.239386 8.611101
2.165304 6.014841
-2.590836 0.649187
-1.218178 5.325178
0.278255 1.918528
-1.435774 0.006855
-2.357829 1.347679
-2.549336 -1.419838
-7.378147 2.636695
-2.213521 0.624887
-7.892312 1.176436
-7.327814 4.643353
-6.652972 3.072548
-8.606255 5.878485
-0.675322 3.945717
-13.609106 1.665253
-1.037052 11.134619
-2.384480 -1.401474
-7.731578 6.486484
-0.760843 3.163349
-8.694697 0.412516
-3.514730 7.580699
-5.855739 -1.882830
-10.419705 8.663560
-1.795473 5.465994
-12.205573 3.381596
-1.889157 11.676441
-7.466219 2.283878
-7.185190 10.978646
-2.707145 7.891255
-5.841021 2.601556
-9.151119 11.820582
-1.951450 5.049729
-8.874097 10.771235
-0.000236 9.400897
-7.642535 8.778553
-1.460748 12.334224
-0.719848 7.826173
-5.414995 7.454239
-0.932907 12.734116
-1.484070 1.898773
-6.694719 15.868548
2.119361 4.687265
-7.714621 12.620105
0.266047 11.900256
-3.252934 10.894281
-1.991207 13.600901
5.774173 11.476756
-5.166376 10.660244
7.104098 16.598202
2.312435 4.306141
2.399416 13.842688
7.461774 7.743238
0.914198 8.128663
5.362010 10.719675
7.153749 5.409776
0.593030 5.036683
5.577024 8.743226
0.888451 5.596345
5.097724 8.047921
0.117262 5.592924
3.885966 8.868209
4.322241 9.146924
6.024307 4.263761
2.509818 11.266357
10.337772 5.359774
-0.019198 5.232418
9.898661 10.684193
6.169279 1.553387
2.414371 8.221235
10.507635 9.389155
7.051203 2.203105
7.669490 8.813102
9.184448 0.866969
7.303554 9.629250
14.221670 -0.814563
2.952035 2.451819
13.925750 2.979838
6.242135 -2.718541
6.567186 3.917706
13.355043 -0.959635
1.215386 -3.305473
10.570114 6.515504
9.126951 -7.479696
5.495667 0.774280
7.613925 -3.480034
6.786501 -2.614864
5.193719 -2.815297
8.570595 -5.107129
-1.250056 -3.835941
11.453585 -2.200279
-0.934367 -9.140268
6.801995 0.479411
3.370899 -9.526828
1.331797 -3.524060
4.199405 -3.987728
3.066999 -6.594374
-0.387763 -2.313671
9.370036 -4.881299
-1.810447 -6.653746
8.633590 -3.407517
1.770948 -9.521891
3.445869 -4.231054
5.073454 -8.102804
-2.164734 -11.500248
3.018803 -4.059728
0.592304 -14.126658
-3.034116 -5.817133
-0.377841 -8.141193
-3.335241 -7.245427
-1.203928 -8.079336
-4.473865 -10.874012
-6.855492 -5.453255
-2.616296 -5.614304
-8.622703 -10.119290
-4.415838 -3.267895
-7.258627 -9.043920
-6.588617 -2.774577
-4.782006 -7.702895
-8.841702 -7.392146
-9.890673 0.047255
-1.952622 -5.478375
-12.606734 -5.489575
-6.079754 0.865864
-6.248972 -4.910246
-7.474809 -0.390497
-1.807770 -6.674568
-13.654796 -6.536132
-4.349001 1.161296
-7.116906 -10.060462
-14.987095 -1.256407
-5.409431 -4.335090
-15.952143 -4.101224
-7.436996 1.092417
-11.355541 -7.018187
-15.576357 3.209989
-4.469242 2.557891
-15.819948 -3.045715
-6.738665 6.549779
-10.688436 -5.760486
-15.413596 9.296891
-4.076415 1.236774
-16.807861 -0.760605
-8.690081 9.599147
-7.394525 0.439947
-14.340150 3.430894
-9.339364 10.050691
-10.381452 0.745092
-9.606455 11.452999
-5.061322 2.564200
-13.668711 10.070127
0.853992 8.085850
-10.286524 0.706963
-5.971522 12.099848
-4.550636 1.331920
-11.036398 6.244885
-3.279200 10.460146
-4.919880 -1.369892
-10.129828 10.748753
2.206430 1.865503
-11.322325 1.736664
-5.530015 8.293264
-6.271268 1.367348
-8.102312 8.713562
-3.899447 1.254455
-13.566343 6.992819
-6.061400 8.724783
-6.274773 6.064987
-11.540640 7.654102
-2.482550 10.826917
-9.004269 6.441934
-3.290954 14.044009
0.381092 3.988123
-9.141295 11.111906
3.722955 10.325023
-2.969868 4.064935
-0.115817 5.975335
0.751219 4.546313
-3.359329 2.538855
1.607240 8.840712
-5.191085 -3.136617
-6.905591 10.016042
-0.216497 2.729350
-9.718649 3.698842
-1.346538 14.092272
-4.107312 0.987511
-5.476537 16.345688
6.973669 1.125194
-7.721435 6.147958
7.427991 8.171966
-0.060921 -4.752160
-8.487132 5.530343
5.658534 4.357352
-9.047438 -5.360098
-2.482336 10.601091
-5.026288 -3.063104
-5.796623 9.471562
-2.475302 -0.222032
-4.840445 3.983882
-4.876637 3.773564
-4.182261 2.493963
-8.976540 4.934157
-0.907260 2.512166
-11.299699 0.022000
-3.927572 12.775082
-1.370540 -1.131503
-9.747916 4.386761
-5.401483 3.951568
-6.088360 3.000016
-7.465237 6.743257
-2.240191 1.337385
-12.740111 4.975320
-6.355309 1.186847
-12.933550 7.777622
-9.372497 6.651686
-10.353595 6.417137
-14.579838 10.654528
-6.336225 16.459314
-7.429646 7.832569
-12.913800 14.995785
-0.119124 17.809651
-6.479621 12.356600
3.070086 15.607180
-4.376230 9.252512
-1.064719 11.305363
-1.904495 13.422349
-0.391694 1.867323
-8.268256 15.410689
-1.541751 1.295306
-12.869507 18.400255
1.709860 9.029798
-9.782800 8.372908
-8.232660 16.758839
0.903030 17.678508
-5.613691 10.109529
-0.574730 22.478734
-3.267921 5.541837
-1.407435 26.691346
7.291386 6.181809
-4.158237 21.387379
9.859901 14.698337
2.590028 8.612932
-2.108264 15.781713
14.995750 8.450438
-8.937763 10.840014
9.495973 19.809860
0.554670 5.184901
2.416765 18.549350
7.349802 11.003682
2.532705 11.179653
6.538058 20.774252
10.304356 6.802211
0.205480 20.140294
20.160039 9.381912
0.648781 11.398345
15.715899 12.690182
12.048192 10.925747
6.740706 5.396442
12.564017 17.645135
12.740616 -3.805929
8.910797 11.787030
11.123994 -0.313283
2.564870 11.185898
13.852626 6.559472
7.557109 2.775207
8.121757 10.206441
13.442610 9.305242
11.034181 5.112705
13.015064 14.853335
17.819709 -3.466509
7.757917 15.607547
28.778780 4.376133
14.893027 -0.488420
19.658155 -0.985476
17.210456 -2.945461
19.824250 -5.860949
24.033716 -15.701505
0.860457 -16.521922
15.742649 3.592050
11.694282 -24.467672
-0.020590 -8.086209
9.033280 -10.796209
1.844172 -9.967979
1.400766 -4.214522
11.801742 -14.228560
-6.810194 -6.583327
15.136736 -2.324862
1.866683 -15.021985
5.191529 -5.781595
3.905442 -16.376078
-1.638696 -6.575742
9.772619 -8.114718
-2.211910 -23.751824
-8.545132 -1.700381
13.135050 -15.631799
-14.319983 -13.410020
6.201432 -8.687606
-10.550160 -14.094036
0.244982 -5.373917
-2.403398 -12.879764
-12.827510 -13.108407
-2.894007 -0.330174
-5.234605 -14.360625
-7.289562 -2.976316
-3.128660 -13.788778
-11.363192 -9.274460
-2.041043 -4.990566
-9.347906 -14.954108
-12.356706 -6.142761
-3.114728 -10.619159
-15.108135 -11.781277
-11.019609 -3.819175
-12.179042 -11.161648
-19.435983 -5.672804
-11.495849 -2.060855
-18.911296 -7.312445
-16.982022 10.727676
-11.420093 -2.273727
-16.180091 4.855430
-11.039522 4.615346
-8.128895 2.459827
-7.897893 12.366689
2.929399 -6.008354
-16.328374 1.972459
3.170263 -1.753878
-10.549204 -10.282984
-14.387152 -1.111681
-9.147811 -6.795629
-21.974298 -3.650866
-11.360052 0.823438
-18.084982 -12.012727
-31.592626 7.384453
-12.266843 5.265541
-31.417029 5.895622
-15.822457 14.192112
-16.808958 13.151850
-13.643710 14.782900
-4.762793 13.167753
-16.396415 6.756756
-4.863076 19.075490
-8.608321 -0.122063
-14.195156 16.078635
0.500379 9.063853
-19.382228 2.536768
-9.762364 25.796481
-3.778639 3.147502
-17.670717 15.159955
-2.709688 21.823094
-4.920115 4.739809
-11.667876 22.234238
-0.100636 4.328110
-12.167593 17.634645
7.673970 12.567680
-7.827928 9.199739
-1.600996 22.279297
9.169563 4.805683
-7.065871 5.708260
14.555887 14.958862
2.579255 -10.265835
-6.629330 11.621234
0.227466 -1.602143
-2.541814 -0.817530
-12.805445 -0.986591
-2.617068 7.784836
-13.220219 7.214426
4.392370 8.788890
-23.054347 0.202624
-2.464350 21.954682
4.995487 5.906448
1.899893 13.001824
1.168942 9.791868
8.982676 2.481371
1.995454 6.728017
22.925725 -14.855354
-17.641264 -4.259980
17.251088 -0.032034
-15.378424 -26.573168
-10.434320 -2.629967
-9.782206 -8.388034
-28.418030 -6.139952
-8.687077 14.164509
-17.656265 -15.636214
-24.627004 18.969821
-4.905711 5.177917
-21.021905 6.631333
-8.222548 12.825237
-10.369024 2.645241
-19.687351 11.825761
-5.713523 13.319989
-21.026390 -5.465895
-9.874526 28.861394
-5.641324 -9.816760
-15.720969 19.831939
-7.167899 -5.821517
-23.047841 2.332240
-21.959012 10.045492
-2.966726 9.962481
-28.989045 0.471487
-4.781802 22.453768
-21.355747 1.172099
-13.781632 27.441955
-8.152962 -4.477489
-16.074427 25.269235
-2.510970 12.864588
-14.769973 5.485745
-20.868949 18.539687
7.109230 -5.911240
-34.937653 11.985515
-7.168320 16.456153
-26.928557 10.622380
-16.284070 13.905913
-25.914081 4.218031
-33.409692 18.682492
-20.466672 33.188543
-26.044949 21.569905
-23.727662 43.425134
-9.682857 19.310026
-29.650609 52.591708
23.915412 33.110754
-9.370761 31.302775
-6.454704 23.953560
7.992842 43.578504
2.775889 1.985513
-10.526834 36.635514
-0.786089 18.012658
-4.044990 28.752244
-14.597171 18.627310
-2.237250 19.714314
-20.324732 24.106692
-5.823801 31.653373
-20.713172 31.821211
6.197208 38.243410
-24.283861 17.148931
-3.888886 58.214682
12.020749 20.845837
-13.117211 35.917694
17.002659 48.645549
13.998018 19.844691
7.748972 43.471601
23.464754 7.037843
-8.435537 46.033928
32.650736 36.373252
3.086333 20.549442
19.702596 52.666288
45.346570 23.980929
10.386136 15.600759
25.456336 37.617837
20.999948 8.024661
4.422458 38.012204
29.310223 23.540353
14.578814 25.800168
35.569675 33.223102
35.955120 10.462474
18.741719 12.699531
51.880890 12.740939
21.435658 -8.061473
23.135915 16.497926
31.915991 -14.076507
15.086860 8.986857
32.208400 -2.528258
9.612675 -21.187531
0.228405 16.000518
28.584851 -6.021632
-11.301457 14.456994
36.259805 9.762023
-13.617910 1.558195
52.036018 27.476058
10.986363 -2.409921
27.161325 1.344071
33.343865 7.874018
29.890007 -29.535807
19.146127 14.954213
30.579410 -33.865126
10.479647 -13.491097
17.554495 -47.165971
1.497304 -26.047384
-13.210192 -22.118099
12.322941 -21.816105
-11.410920 -25.452746
1.062031 -12.712881
6.405391 -39.530259
-12.063022 -1.275382
26.842222 -25.464417
-19.935554 -40.625615
0.047103 -8.188986
9.378027 -27.980867
-33.262636 -37.199308
-3.741016 8.085164
-27.977810 -39.962304
-32.203735 42.444435
12.962446 -41.094648
-38.645721 7.948901
-11.528760 1.779812
-7.413501 -23.093416
-42.200718 9.311088
13.156668 -4.315712
-67.875555 -11.874024
-6.966186 1.493359
-28.875908 -25.476710
-45.579238 -3.214945
-27.994113 -0.011679
-54.303242 5.602791
-26.104630 7.289389
-16.824026 -34.538354
-72.442724 13.111163
-10.524312 28.388986
-50.318079 -0.045488
-14.406788 21.710993
-44.527458 -10.384405
-59.299262 -6.894625
-25.485990 53.390386
-50.881887 -19.254878
-66.699734 96.189147
-33.851291 -19.139708
-47.597514 52.004638
7.175097 53.621338
-51.943106 -2.007508
-68.918039 64.095614
2.384798 8.580855
-75.631094 25.351184
13.765952 62.656471
-38.345771 3.309093
-43.528251 79.182900
0.907597 -25.865894
-86.252608 47.257595
-9.708515 71.762713
1.687799 20.133725
-46.726850 46.651875
17.501061 20.249319
-81.160547 68.415434
6.251703 34.201746
-28.298062 22.607985
-25.695999 64.710217
-39.400694 46.288386
-8.184727 63.109104
-0.882904 88.374699
7.660239 29.800796
-22.442565 69.845123
48.915516 121.634467
22.625952 40.330516
-7.571030 82.693457
17.982074 46.415757
16.084100 30.910299
99.453199 63.099884
66.733213 -37.283817
-86.743311 24.813057
19.468298 -29.671894
-61.886541 -19.010966
51.852540 64.845491
-34.346396 24.644483
-45.492860 29.127034
39.075118 5.939503
-76.096600 -46.051149
7.560763 43.765485
-98.910852 -29.252975
17.627678 179.399151
-26.804931 -60.461086
-83.794702 -23.719394
36.721896 90.754572
68.525459 -133.162699
21.652972 166.545370
2.472958 -42.177887
-178.444609 -84.636529
11.040817 -0.180027
34.470689 25.309577
-63.444263 -18.406258
-76.300087 87.383621
-186.405986 -87.444174
-0.587361 250.432000
143.871934 121.371520
-428.357581 132.852492
119.360431 -78.737453
-57.254106 -184.380945
-184.663271 192.993183
-35.700176 -212.834126
-452.678424 194.940157
123.366801 228.928278
-211.546892 -150.368909
-293.331342 115.193063
-603.808380 -121.763655
-524.166490 118.244293
-105.591106 -278.837810
-739.131629 -535.251240
-1043.483216 411.150726
-553.000504 1007.076644
-3075.223138 1093.872300
-921.197363 826.056673
-3516.910518 -474.038002
-1785.472578 -3160.178330
3246.545829 2520.621435
