6103.515561 2476.349045
-3248.852756 -992.641047
211.952880 35.915830
-182.810318 -206.476842
58.932303 162.706082
-58.560284 16.512456
-74.198964 80.671473
-68.889618 7.765536
-51.077848 -13.283541
-40.875346 -5.125767
-4.547033 -18.340920
-30.637360 -0.542220
0.899425 -1.108074
-27.891242 -7.921612
-3.717785 -1.982311
-9.347190 -10.790037
-1.108638 1.095953
-2.336550 3.895314
-6.714929 2.838794
-8.625841 7.576370
-6.950065 -2.141275
-9.796907 2.357951
-1.634930 -2.725020
-6.468578 0.146474
-2.177202 0.835876
-5.819116 -2.664944
-2.752490 -2.471800
0.410963 -2.747289
-0.903005 -0.472572
-0.762670 2.246002
-3.038187 -1.208400
-2.187154 1.611553
-1.840022 -0.778922
-3.108836 0.840200
-1.696393 -0.858663
-0.546861 -0.672556
-0.747027 1.223724
-0.977385 1.036534
-2.741946 -0.742158
-0.335954 -1.223069
1.119074 -2.094055
0.829686 0.807980
1.276556 0.469349
-1.130935 0.898222
-0.289732 0.850941
-1.362520 -0.282052
-1.180657 0.099830
-0.135855 -0.638686
-0.634816 0.030285
-0.006125 0.491407
-0.765582 -0.007870
-0.543113 -0.007929
0.114021 -0.686973
0.182536 -0.302896
0.937566 -0.283646
0.134554 0.285076
0.470773 -0.175211
-0.241731 -0.143557
0.597862 -0.488296
0.287196 -0.131581
0.431033 0.076999
0.376878 0.258093
0.025486 0.358595
-0.112288 0.576878
-0.343049 -0.229130
-0.013165 -0.425175
1.177471 -0.339911
0.646442 0.404444
0.467933 0.824712
-0.283864 0.000029
0.120669 -0.076831
0.246444 -0.034670
-0.241803 0.034160
-0.135956 -0.466945
0.251951 -0.555255
0.945832 -0.123961
0.142366 0.714554
0.124633 0.241598
-0.249710 -0.127235
0.652606 -0.120649
0.612254 0.072095
0.282638 0.275955
0.605144 0.136200
0.203366 -0.009118
0.343247 0.463519
-0.060048 -0.068524
-0.243348 0.033679
0.116412 -0.205365
-0.079126 -0.086018
0.002844 -0.054043
0.177821 0.026199
0.163001 -0.192544
0.465878 0.456394
0.444353 -0.002237
0.295239 0.741996
0.228903 0.309618
-0.187989 0.289779
-0.008424 -0.107117
0.100022 -0.267981
0.222225 -0.039014
-0.103574 -0.052055
-0.060011 0.043739
-0.416860 -0.305290
-0.168748 -0.004921
-0.163579 -0.519186
-0.086187 -0.097327
0.431508 -0.163321
-0.081502 -0.004549
0.314726 0.089214
0.180760 -0.398698
0.515624 -0.011045
0.548653 -0.062569
0.203278 -0.026075
0.372205 -0.178629
0.287279 -0.248172
0.569150 -0.048459
0.059873 0.142163
0.407939 0.184375
-0.252615 0.217389
0.119821 0.463730
-0.388802 0.051428
-0.172469 0.254896
0.088332 -0.062916
-0.065463 0.197305
0.110491 0.242503
-0.097769 0.036323
-0.131282 0.072442
0.040400 -0.101003
-0.144522 -0.143126
0.065170 -0.035079
-0.177451 0.027549
-0.296184 -0.076397
-0.410626 -0.028291
-0.223746 -0.407558
-0.290279 0.020224
-0.168421 -0.259574
-0.354538 -0.096934
-0.063734 -0.330753
-0.120209 -0.113546
-0.017147 -0.151035
-0.291972 -0.193370
0.065054 -0.239274
-0.183676 -0.334960
0.023687 -0.057890
-0.134804 -0.397279
-0.079498 -0.207771
0.161998 -0.137379
-0.156730 -0.179778
-0.107527 0.116095
-0.093453 -0.392880
-0.173699 -0.017298
0.102968 -0.152405
-0.231758 -0.161253
0.009468 0.015016
-0.101336 -0.167028
-0.176072 0.117215
-0.296817 -0.022116
-0.282312 -0.144442
-0.360362 -0.117016
-0.023512 -0.223552
-0.230736 -0.075790
0.057153 0.001808
-0.245249 0.054686
-0.202122 0.036361
-0.367444 -0.162622
-0.166577 -0.228222
-0.203098 -0.378254
0.026116 -0.162776
-0.098504 -0.321257
-0.030397 0.050171
-0.207779 -0.126287
-0.282963 0.027282
-0.318307 -0.129942
-0.213390 -0.135169
-0.214709 -0.069980
-0.120478 -0.090540
-0.129496 -0.080734
-0.054948 -0.095169
-0.020580 -0.115035
-0.015187 -0.128548
-0.020110 -0.228912
0.094753 -0.174040
0.012645 -0.319820
0.168302 -0.053873
0.048404 -0.199641
-0.000906 0.163612
-0.148277 -0.020302
-0.243857 0.017982
-0.132293 -0.136042
0.000834 -0.064331
0.081150 -0.064946
0.092635 0.143467
0.180454 -0.078248
0.043117 0.176946
0.280484 -0.087748
0.024777 0.064145
0.240403 0.002577
0.056222 0.003641
-0.034530 0.070094
0.028139 -0.042708
-0.180419 -0.039301
0.025736 0.010577
-0.142317 -0.100157
0.010827 0.003475
0.119463 -0.089918
0.122680 0.118955
0.179493 0.105137
0.066404 0.118512
0.147856 0.040542
0.162166 0.072868
0.070120 0.055314
0.082221 0.000294
0.020117 -0.073759
0.161817 -0.066288
0.053586 0.091407
0.013474 -0.004052
-0.050886 0.108981
0.073761 -0.092713
0.044599 0.248243
0.038680 0.122793
-0.207084 0.218402
-0.064252 -0.049335
-0.084490 -0.083096
0.101612 -0.062279
-0.023040 -0.027977
-0.010582 -0.122871
-0.062490 -0.110900
0.075959 -0.295127
0.045778 -0.064083
0.199446 -0.212261
0.093751 0.119815
0.128308 0.008518
-0.053757 0.218004
-0.048680 -0.029521
-0.087929 0.060725
0.030525 -0.116976
-0.086604 -0.022247
0.097199 -0.177021
-0.043702 -0.158337
0.227341 -0.143233
0.014249 -0.107411
0.177163 -0.046197
0.067272 -0.011613
0.073411 0.086761
-0.026419 0.173627
-0.152441 -0.010431
-0.010079 0.066664
0.085318 -0.070813
0.019294 0.279194
-0.013248 0.130050
-0.335261 0.067765
-0.037113 -0.115408
-0.149849 -0.251444
0.084865 -0.091967
-0.019480 -0.161885
0.010446 -0.106685
-0.000888 0.016492
-0.033510 -0.048282
-0.227775 0.123101
-0.135733 -0.100755
-0.212784 -0.163609
0.048278 -0.089027
0.104241 -0.175077
0.052061 0.081450
0.190666 -0.048125
-0.014293 0.007490
0.135663 0.018276
0.025074 -0.149797
0.098100 -0.011029
0.158295 -0.130694
0.071986 0.100266
0.036589 0.031032
-0.046909 0.119605
-0.098155 0.089810
-0.135909 0.099280
-0.236039 0.038160
-0.063828 -0.134007
-0.031343 -0.027700
0.153843 -0.023970
-0.048599 0.039896
0.126228 -0.068630
0.150985 -0.093123
0.240003 0.102048
0.047019 0.111534
-0.020918 0.015732
-0.019556 -0.092008
0.203826 0.008108
-0.090349 0.126732
-0.052897 0.131432
-0.241640 -0.092569
0.031867 -0.028282
-0.019516 0.025864
-0.028704 0.075619
-0.101940 0.005307
0.073100 -0.041936
0.056822 -0.045283
0.136949 0.127297
0.070884 -0.067076
0.061812 0.127609
0.107346 -0.023646
-0.019120 0.077415
-0.059484 0.010859
-0.002931 -0.069480
-0.126040 -0.061837
0.068114 -0.011816
-0.103518 -0.070957
-0.018722 0.088527
-0.057928 -0.015512
-0.113224 0.074089
-0.116594 0.007620
-0.042583 -0.051913
-0.103618 -0.134780
0.211694 0.000288
-0.021141 -0.161849
0.180279 0.147467
0.025047 -0.203350
0.105021 0.122067
0.034195 -0.050474
-0.095549 0.038982
-0.083738 -0.112957
0.025591 -0.107480
0.007451 0.059838
-0.097062 0.114590
-0.265370 0.005201
-0.058375 -0.125571
-0.036643 -0.059015
0.119083 0.101274
-0.192939 0.006013
0.062706 -0.038761
0.012178 -0.125685
0.183400 0.051681
-0.080427 0.095695
-0.018124 -0.073986
-0.203184 -0.037881
0.064723 -0.135466
-0.239010 -0.160042
0.073265 -0.071856
-0.005470 -0.263757
0.057019 0.134358
0.117901 -0.035441
-0.099808 0.091241
0.097724 0.118898
0.012993 -0.050653
-0.007132 0.198805
0.175882 -0.045034
-0.102395 0.197221
0.073359 0.059601
-0.222686 0.011303
0.017164 -0.088840
-0.043734 -0.072374
0.062219 0.033533
-0.087772 -0.003519
0.008716 0.079594
-0.026159 -0.011864
-0.003102 0.180493
-0.054530 0.089446
-0.075535 0.094069
-0.096156 0.083169
-0.000306 -0.027780
-0.097632 0.015912
0.083039 -0.003098
-0.068401 -0.004784
-0.070882 0.040735
-0.019674 -0.106202
-0.059800 -0.054702
0.101049 0.046918
-0.067015 0.013262
-0.058723 0.102789
0.015869 -0.053142
-0.046439 0.063937
0.097244 0.011441
-0.034983 0.037856
0.100173 0.023028
-0.020524 0.037853
-0.003582 0.000552
0.014235 -0.088100
0.014132 -0.019902
0.157424 -0.003291
-0.109052 0.096991
0.086036 0.117862
-0.207232 0.037412
-0.051532 0.097038
-0.066802 -0.139551
0.118353 -0.024745
0.248366 0.136269
0.076862 0.229167
-0.172908 0.255009
-0.028907 -0.059087
-0.165329 -0.046177
0.144329 0.027687
-0.230265 -0.048343
-0.005219 -0.008901
-0.118802 -0.064646
-0.067047 0.044388
-0.229056 0.064218
-0.147220 -0.161431
-0.041556 -0.015598
0.064911 -0.038125
-0.040289 0.169575
-0.074934 -0.048653
-0.019830 0.036875
0.030576 -0.117994
-0.041486 0.082752
-0.020248 -0.153309
-0.130609 -0.019713
-0.034909 -0.196527
-0.132105 -0.090707
-0.054474 -0.233066
0.026957 -0.080031
-0.014770 -0.105310
0.082126 0.083041
-0.109083 -0.000623
0.079152 0.075442
-0.125013 -0.038526
0.196542 0.010356
-0.009331 -0.032041
0.228550 0.119043
-0.058899 -0.006896
0.120271 0.067417
-0.003469 -0.022187
0.085294 0.145443
-0.180697 0.097251
-0.055507 0.068642
-0.246589 0.010756
0.002172 0.078319
-0.269379 0.011091
0.020655 0.011666
-0.065814 0.051709
0.018648 0.169802
-0.251761 0.172239
-0.196299 -0.156965
-0.034623 -0.180684
0.237900 -0.163625
0.140016 0.149738
0.054259 0.151967
-0.147483 0.136557
-0.107842 0.062500
-0.201264 -0.060905
-0.021406 -0.074800
0.073917 -0.107358
0.125840 0.189826
0.006900 0.194620
-0.264324 0.204962
-0.100458 -0.053248
-0.166510 -0.098909
0.182096 -0.059771
0.012335 0.056093
0.107164 0.152682
-0.129289 0.190112
-0.132513 -0.001669
-0.088470 0.060997
0.009975 -0.149522
0.021305 0.202877
0.036262 -0.094185
-0.065932 0.223955
0.067563 -0.046963
-0.208598 0.180755
-0.036052 -0.111354
-0.152772 -0.069527
0.096721 -0.122572
-0.032590 0.068163
-0.040237 -0.085659
-0.008760 0.074649
0.030218 -0.069108
-0.053017 0.258017
-0.167149 -0.078945
-0.068059 -0.041981
0.110350 -0.195975
0.229968 0.084756
0.059282 0.080232
0.040611 0.109420
-0.034862 -0.029900
-0.006602 0.034578
-0.057579 -0.072866
-0.033498 -0.040800
0.015164 -0.040848
-0.032926 0.122523
-0.171200 0.110739
-0.244130 0.061830
-0.222372 -0.037815
-0.154704 -0.111699
-0.085212 -0.035219
-0.042289 -0.178020
-0.026189 -0.006852
0.006372 -0.234924
0.016931 -0.080672
0.070959 -0.245832
0.066300 -0.060242
-0.008230 -0.160749
-0.022369 -0.073544
-0.058003 -0.136865
-0.092462 -0.086998
-0.101053 -0.121789
-0.006234 -0.183697
0.023017 -0.037701
0.116963 0.026913
-0.156065 0.005722
0.081371 -0.034721
-0.018217 -0.192270
0.173397 0.042030
-0.004769 -0.123849
0.074377 -0.109662
0.116412 -0.094226
0.131552 -0.019417
-0.103973 0.121738
-0.092367 -0.120326
-0.070529 -0.054314
0.044648 -0.048310
-0.044370 0.140067
-0.100120 -0.018366
-0.039507 0.060054
0.057563 0.008631
-0.078711 0.169537
-0.102084 0.037056
-0.140595 -0.056181
-0.076815 -0.164174
0.074674 -0.056763
-0.017956 -0.193088
0.093368 0.171577
-0.059956 -0.107784
-0.170152 0.215678
-0.099594 -0.151177
-0.140115 -0.004410
0.008088 -0.010462
-0.040108 -0.011921
-0.083459 0.058805
0.014057 -0.026686
-0.123805 -0.025216
0.018442 -0.065667
-0.018235 -0.180941
0.162314 0.002393
0.039804 -0.025974
-0.003596 0.164373
-0.108805 -0.069257
-0.046832 0.034542
0.014247 -0.031116
0.013247 0.052208
-0.028435 0.143453
-0.010863 0.035208
-0.157233 0.042431
0.074449 -0.064632
0.070539 -0.146525
0.155623 0.167631
0.144296 0.021770
-0.206489 0.179420
0.074359 0.005563
-0.193790 -0.072260
0.013071 0.140669
-0.055981 -0.105762
-0.127626 0.161113
0.047331 0.015837
-0.194581 0.114697
-0.030154 0.030277
-0.069837 -0.024253
0.024492 0.000931
0.034050 -0.003498
0.022704 0.020084
0.037254 -0.025434
-0.083865 0.081783
-0.067538 -0.121776
-0.169914 -0.118505
0.097945 -0.153647
-0.051589 -0.081714
-0.003668 0.049317
-0.039196 -0.149982
0.090759 0.045339
0.086437 0.083350
-0.011221 0.213821
-0.170487 -0.007630
0.106612 -0.008201
0.049632 -0.058668
0.101582 0.182661
-0.079788 -0.050685
-0.025729 -0.073839
0.108411 -0.079901
0.047415 0.015443
-0.093647 0.096050
-0.100773 -0.063063
-0.130936 -0.061672
0.053863 -0.035481
-0.111139 0.059784
0.052158 0.051673
-0.224256 0.088941
0.089429 0.017263
-0.265344 -0.031261
0.171090 -0.060897
-0.044607 -0.157334
0.265846 -0.010815
0.134149 0.035462
0.128271 0.060638
-0.030459 0.171270
0.048084 -0.038334
-0.189574 0.111051
0.070338 0.003131
-0.261569 0.007419
0.017065 0.034445
-0.156527 0.010455
-0.052112 -0.008883
-0.123952 0.096621
0.079388 -0.202556
-0.008767 0.220007
0.221952 -0.034879
-0.191995 0.221473
0.150110 -0.101542
0.024961 -0.000682
0.218196 0.094550
-0.052981 0.193338
-0.114789 -0.010216
-0.108123 -0.007293
0.057292 -0.098696
-0.158944 0.170309
-0.096999 -0.090315
-0.211807 -0.026548
0.133711 -0.152645
-0.013136 0.143530
0.041892 0.067760
-0.063446 0.058319
0.052905 0.000128
0.146610 0.053017
-0.033245 0.061687
0.111730 0.031497
-0.018290 -0.140380
0.148911 0.059010
0.096595 -0.104756
-0.025872 0.139913
0.036024 -0.005136
-0.190815 0.085654
-0.149800 -0.023519
-0.138436 -0.098863
-0.081483 -0.152882
0.126443 -0.032346
0.019294 -0.029465
0.097099 0.066348
-0.019921 0.005129
0.047921 -0.087949
-0.041537 -0.105854
0.182351 -0.296571
0.140748 -0.229561
0.431134 -0.102736
0.156777 0.015965
0.136675 0.178547
-0.128336 -0.060038
0.063860 -0.037713
0.009919 -0.091646
0.219236 0.092088
-0.104382 0.056454
0.165825 0.063635
-0.026489 -0.042593
0.228246 0.120485
-0.009271 0.061570
0.014921 0.037841
-0.016595 -0.059996
0.078213 -0.110916
-0.006885 0.010078
0.089208 -0.075453
-0.141544 0.007811
0.133757 -0.003188
-0.266211 -0.001474
0.062737 0.016466
-0.232318 -0.184608
0.158056 -0.051695
0.033912 -0.143049
0.161012 0.000356
0.126457 0.006034
0.090519 -0.006396
0.035893 0.102467
0.000808 -0.041291
-0.089542 0.017480
0.001799 -0.011821
-0.155644 -0.044944
-0.070146 -0.017935
-0.053241 -0.167994
0.107241 -0.044457
0.146822 0.056144
0.101421 0.085031
0.070063 0.117626
0.175070 0.010281
0.210055 0.175997
0.111224 0.291648
-0.042613 0.247568
-0.265201 0.212052
-0.097210 -0.000697
-0.300046 0.125304
-0.121253 0.044579
-0.374772 0.014954
-0.106051 -0.023938
-0.102100 -0.074515
0.027734 0.116612
0.074588 0.056428
0.082529 0.180881
0.129626 0.220419
0.059847 0.258037
-0.135644 0.252721
-0.054564 0.076841
-0.200950 0.050281
-0.040715 0.012472
-0.193079 0.067982
-0.165067 -0.005533
-0.202002 0.092461
-0.132316 -0.032483
-0.149584 0.110361
0.063894 0.126661
-0.075598 0.173383
0.043109 0.407125
-0.111483 0.104588
-0.093645 0.328050
-0.025993 0.023396
-0.160411 0.123967
-0.085006 -0.027704
-0.101249 -0.144552
-0.023307 -0.084313
-0.011117 -0.033257
-0.057878 0.008662
-0.206411 0.094952
-0.082392 -0.034109
-0.229753 0.005976
0.094372 -0.050951
0.050539 0.060253
0.169458 0.176014
0.059371 0.230559
-0.038443 0.139907
0.019318 0.043563
0.000588 -0.054776
0.115310 -0.064288
0.120752 -0.098765
0.123287 0.069128
0.144194 0.016878
-0.193793 0.208592
0.076562 -0.027076
-0.316511 0.004520
0.202699 -0.001507
-0.082970 -0.087895
0.221570 0.143504
0.174409 0.082915
0.095244 0.239885
0.039239 0.268991
0.022620 0.116927
-0.210429 0.150528
0.108516 0.054681
-0.260517 -0.117266
0.241855 0.117117
-0.099734 -0.020292
0.045182 0.253354
-0.236186 0.050367
-0.011783 -0.005321
-0.146342 0.062470
-0.004978 0.052889
-0.208229 -0.014310
-0.060545 -0.049923
-0.027258 0.013952
-0.156676 0.005404
-0.289654 0.072026
-0.067506 -0.297896
-0.282377 -0.050289
0.256845 -0.141851
-0.286786 -0.123409
0.356944 -0.026853
0.072375 -0.040615
0.199085 0.214907
-0.012916 0.111774
0.029053 -0.099623
0.145317 0.013163
0.166772 0.045373
-0.007749 0.106818
-0.107897 0.114866
-0.058447 -0.032802
-0.142557 0.064577
-0.008752 0.112990
-0.021114 0.127686
-0.064477 0.383744
-0.052678 0.266312
-0.095269 0.355843
-0.010790 0.208000
0.090455 0.501602
-0.146225 0.170735
-0.148564 0.443104
-0.016964 -0.050242
-0.369916 0.263152
-0.043417 0.190253
-0.619485 -0.150884
-0.230042 0.379384
-0.556475 -0.150148
-0.808734 0.297386
-0.561708 -0.375595
-0.423318 -0.382633
0.093883 -0.094539
0.021392 -0.040550
0.016976 0.150727
-0.009326 -0.107440
0.227424 -0.019131
0.089847 -0.232133
0.284507 -0.012893
0.336431 -0.249742
0.005555 0.183233
0.215459 0.028591
-0.419412 -0.064091
0.157037 0.101874
-0.241736 -0.003732
-0.090972 0.245278
-0.158288 0.076778
0.058399 0.033231
0.199233 0.209828
0.258184 0.320920
0.251580 0.292247
-0.079623 0.516416
0.045495 0.079856
-0.431585 -0.015327
0.125125 -0.252168
-0.102769 -0.262209
-0.070050 -0.178121
0.069007 -0.305628
0.266834 -0.266353
0.248392 0.378945
0.181626 0.389900
-0.498510 0.214033
0.328714 0.211170
-0.035067 0.104130
-0.090032 0.493308
-0.176483 -0.126142
0.042560 -0.627572
0.593381 0.442668
-0.052576 -0.148694
-0.881446 0.411628
-0.118014 -1.459081
0.239523 -0.724961
1.269775 -0.317868
0.426429 0.383540
0.528470 0.498298
0.283784 0.503335
0.192870 0.771523
-0.304993 0.681345
-0.382954 -0.062882
-0.055754 0.086308
0.041898 -0.425147
-0.262244 0.362203
-0.249258 -0.798030
-0.464542 -0.473718
0.341846 -0.839804
0.196822 -0.880877
0.531383 0.070291
0.918755 -0.590689
0.155329 0.605403
1.217398 0.168391
0.165824 0.379325
0.771868 0.936221
0.441093 0.178604
-0.140254 0.756186
0.230027 0.248620
-0.849179 -0.441433
-0.367808 -0.823013
0.639844 -1.851847
0.899823 -0.746732
1.409350 -0.126836
0.757208 0.195154
0.730641 0.419969
1.357708 1.581546
-0.668681 1.237070
-0.455990 1.567947
-0.334035 -1.114065
0.974550 0.854767
0.830662 0.939447
-1.772364 0.561776
-0.878336 -1.425171
0.090486 -3.701902
2.122741 -1.645335
2.058886 -2.170975
2.166746 -0.931346
3.487328 -0.335730
2.666210 2.114107
0.635152 3.773608
-1.305731 2.552543
-1.694388 1.470335
-0.911687 1.717675
-1.822111 1.031928
-2.753194 1.083751
-2.952132 -1.787652
-2.245951 -4.028600
-0.759577 -5.437286
4.890758 -7.492389
4.205459 -2.295735
7.457680 0.168695
0.015215 2.877967
-0.848051 1.802709
2.862074 6.119735
-9.179462 4.974713
-4.885727 31.612866
-40.567445 2.713336
-62.919264 46.111333
-89.864552 -53.891978
-137.379421 -39.876322
-83.323562 -163.173370
-56.377573 -192.420233
-1527.297957 211.666180
