4432.263894 4721.706094
378.997907 452.288515
-723.534319 -1040.723380
-65.152343 -207.064269
118.408573 -72.401045
110.829651 -197.997764
149.166093 106.154580
-14.715852 41.388722
13.878804 60.664174
-16.381118 -83.903579
-78.248840 -100.124861
-47.158346 96.588097
21.409926 -12.952811
70.791683 32.544076
-55.869851 9.696058
-52.110823 -31.028392
-25.288393 27.014623
-27.515091 -13.392311
20.117695 -38.330973
0.977787 10.612108
-7.780623 -6.690453
14.379984 2.190705
-7.369316 -0.486721
-11.602830 -4.172748
9.971337 -5.643669
2.032185 0.092203
-11.242686 23.170028
23.768052 -2.652175
-12.509264 5.198405
-18.331069 4.359016
4.684464 -4.362796
-15.136741 5.535060
-4.674820 4.308197
9.240037 3.204938
-12.893671 -12.165181
-8.098131 -2.283224
-2.039829 4.647277
-3.197651 -6.347378
3.733817 4.805376
-3.892151 -5.595777
-2.593155 5.984186
3.399047 -2.257019
-7.283093 -2.293411
-5.045337 8.126322
6.721256 3.179302
-4.787206 -3.706755
-6.879840 8.807292
0.877698 -0.177404
-4.422834 1.832951
1.820584 -2.616445
-3.743928 1.029868
-2.255174 6.111276
1.048268 2.404236
3.932881 1.106192
-3.226595 -0.412402
0.222078 0.070652
-3.053963 4.297588
3.573425 4.903114
0.384601 1.740495
0.984229 0.221177
-2.475276 3.895421
-1.772634 0.150038
0.336743 0.593828
1.922629 1.393091
0.724301 -4.578480
0.271560 0.753579
-2.611514 2.772917
4.969293 -1.506678
0.253166 -0.639076
0.969774 -2.164423
-1.376777 2.619549
4.379155 1.521476
-1.406963 1.747596
2.569815 -1.001647
-0.882971 -0.104966
-3.385292 0.295871
-0.513211 2.454322
2.136430 2.389507
-0.505397 -2.716436
-0.688870 0.210464
-2.145453 -0.430285
1.303040 1.205594
0.160804 -2.879336
-1.724056 1.394662
1.855616 -0.765221
0.686763 -0.759975
0.085782 -0.349381
1.689530 -0.386010
-0.141457 -1.650914
0.092129 1.278910
-0.206809 -0.233341
2.629344 1.289633
0.143761 -2.431984
-0.116859 0.412442
-0.199402 -0.483228
-0.537819 -0.073299
0.703171 -0.767051
0.273425 -0.847030
-0.236985 -1.782474
-0.258772 -0.417103
0.727365 0.240561
0.802870 -2.637292
-0.729702 -1.089378
-0.297894 0.687788
0.548045 -1.936857
1.612233 0.040949
-0.199106 -0.844426
-0.071640 -0.044833
-0.951582 0.613814
0.088430 0.990231
-0.420149 0.300072
1.803420 0.134631
-1.124272 -1.110818
-1.055119 0.639145
0.433338 0.360453
-0.775189 0.929297
0.314827 -0.558027
0.153195 1.071035
-1.024383 -0.628720
0.077763 1.563999
-0.302676 -0.900315
-0.965135 0.866046
-0.151380 -0.012194
-0.740492 0.603989
0.591176 0.906071
0.079749 -0.068896
0.222399 0.428699
-0.343710 -1.761250
-0.082016 0.245331
0.621419 -0.256733
0.911644 0.055776
1.273518 -1.330854
-0.497668 -0.794250
0.082304 -0.352872
-0.428024 0.136452
1.171589 0.914655
0.739735 -0.003853
0.186598 0.016286
-0.209629 -1.006668
-0.007254 -0.160878
-0.104419 1.395071
0.918220 -0.000932
0.352462 -0.037461
-0.414674 0.352653
0.369474 0.793700
0.873366 -0.526176
-0.110889 0.393796
-0.256872 -0.100954
0.319221 0.993974
0.463192 0.284210
-0.653342 0.362660
1.556394 1.166206
0.182010 -0.214352
0.313528 0.484707
0.464321 0.582724
0.227220 0.032192
-0.018786 0.179740
0.235068 0.770896
0.252640 0.157896
0.160938 -0.710132
-0.510460 0.242872
-0.448243 -0.146072
0.498052 0.447763
0.911521 -0.017919
-0.138040 -0.586326
0.354613 -1.108349
-0.256760 0.407341
0.460780 -0.291429
0.832889 1.265100
1.205565 -0.971695
0.187819 -0.359102
-0.633945 0.523749
0.407473 -0.072779
-0.169268 0.333445
0.416682 -0.060705
-0.257497 0.670275
-0.392910 -0.017599
0.690048 0.582165
0.502342 0.289465
0.310567 -0.244445
-0.276615 0.354220
0.371247 0.649301
0.668356 -0.094842
-0.604346 0.215458
0.459070 0.393790
-0.138899 0.301312
0.195231 0.550141
-0.719681 0.886785
-0.454526 0.078230
0.931950 -0.432767
-1.345502 -0.397566
0.916033 0.153278
-0.287196 0.252038
-0.306189 -0.131863
0.149275 -0.624043
0.334382 0.134768
0.421393 -0.714800
0.469262 -0.406734
0.371082 -0.573099
-0.645264 0.246319
0.121571 -0.231219
-0.180559 0.096732
0.229701 -0.165816
-0.062953 0.039558
-0.450299 0.374661
-0.137487 -0.378414
-0.020594 -0.432099
-0.560277 0.153290
-0.165557 -0.731622
-0.128896 -0.188483
-0.270246 0.088221
0.083579 0.131567
0.380641 -0.215194
0.456157 -0.119769
-0.095044 0.078806
0.132811 0.081786
0.217035 0.202537
-0.647439 0.061597
0.439228 0.150173
-0.259870 -0.285019
-0.045284 0.184431
0.327419 0.048683
0.430959 -0.416915
0.156278 -0.306189
0.170028 0.573184
0.233308 -0.758560
-0.147852 -0.141011
0.454998 -0.041658
0.062761 -0.084074
0.603340 -0.289626
-0.374276 -0.263929
0.392088 -0.098597
-0.277192 -0.316120
0.833483 -0.007615
0.139913 -0.327980
0.713781 -0.239592
-0.607876 0.713829
0.241287 0.322564
-0.252886 0.346160
-0.141199 0.058803
-0.040002 -0.371688
-0.057762 0.604365
0.008294 -0.471168
0.321184 0.583057
0.005667 -0.186843
-0.440116 0.254229
-0.186797 0.166497
-0.479478 0.325464
0.042587 0.239538
0.188711 -0.278794
-0.370956 -0.099277
-0.314968 -0.374655
-0.223439 -0.273780
0.036737 0.345118
-0.209786 -0.421339
-0.288432 0.148639
-0.310793 0.377269
0.026048 0.046176
-0.365952 -0.158453
0.233931 -0.259663
0.447748 -0.272836
0.624394 -1.017370
-0.305864 -0.088614
0.559558 -0.065102
0.147780 0.184627
0.265137 -0.127670
0.232642 -0.066812
0.147669 -0.280117
-0.526935 -0.496334
-0.522415 0.594517
0.254004 -0.751405
-0.065071 -0.048713
0.172349 -0.203838
-0.234677 0.607085
-0.027895 -0.089377
0.517110 -0.286260
-0.126471 -0.373325
-0.119465 0.235645
-0.301535 0.625606
-0.252499 -0.010061
0.050015 0.174573
0.195062 0.367328
-0.086726 -0.021324
-0.424818 0.357804
0.412606 0.164557
-0.021071 0.390691
0.652122 -0.564373
-0.023608 0.014817
-0.237217 0.524705
0.193453 -0.284083
0.125476 -0.495301
0.094948 0.284914
0.171163 -0.159867
0.264857 -0.150649
-0.217305 -0.196591
0.230998 0.506588
0.259773 -0.129360
0.217589 0.566402
0.183813 -0.092484
0.243419 -0.048300
0.172451 0.032827
-0.374290 -0.124266
0.024250 0.684472
0.095724 -0.464771
-0.170152 -0.162074
0.375090 0.201782
0.468320 0.453937
0.014920 -0.329911
-0.572964 0.032322
0.567379 0.207699
-0.441420 0.261231
0.009821 0.557259
-0.317372 0.168160
-0.302768 -0.069379
-0.531832 -0.175627
-0.139040 0.755148
-0.005691 0.075257
0.385600 0.514880
0.156814 -0.825299
0.157806 0.371753
-0.189045 -0.150618
-0.163702 -0.264821
0.161147 0.238198
0.246220 -0.721683
0.755337 0.069190
0.225168 0.084387
-0.240211 0.043214
-0.226881 -0.356269
-0.490410 0.637839
-0.128793 -0.262759
-0.117601 0.562744
0.757641 0.027137
-0.120697 0.025039
0.066427 0.063529
-0.433461 -0.267020
-0.064171 -0.205349
0.182622 0.057193
0.105893 0.454895
0.528957 -0.395916
0.309218 0.244274
0.161448 -0.339516
-0.101499 0.229607
-0.294975 -0.245562
0.165802 0.278347
0.021982 -0.282348
0.147566 -0.422927
-0.027468 0.091173
-0.075343 -0.111042
-0.027317 -0.100469
-0.215649 -0.439952
0.226984 0.042629
-0.146083 -0.098957
0.167334 0.069184
-0.105179 0.052755
0.031261 -0.200543
-0.057781 -0.270088
0.576571 -0.051817
-0.500333 -0.125514
0.007837 0.070848
0.057508 0.020132
0.146544 0.425461
0.193061 -0.053427
0.439441 0.416915
-0.036233 -0.006696
-0.035730 -0.210827
0.130524 0.274702
0.280699 0.311493
0.357240 -0.031227
-0.315562 0.094493
-0.170105 -0.041377
0.316446 -0.033531
-0.363763 0.195671
-0.251630 -0.215600
0.113965 0.092141
0.051586 -0.226138
0.005344 -0.041095
0.015015 -0.265300
-0.409393 0.034088
-0.195664 0.160766
-0.376577 0.340959
0.271829 -0.021782
-0.094038 0.102499
-0.282533 -0.276073
-0.633089 0.419549
-0.059986 -0.013788
0.014051 -0.395257
-0.304775 -0.410573
0.291772 0.263771
0.062898 -0.278237
0.117589 0.158882
0.526466 0.380300
0.129768 -0.030882
-0.349799 -0.146717
-0.110346 0.176613
-0.293221 0.214800
0.292242 -0.270799
0.063505 0.466700
-0.478901 0.159907
0.394513 -0.049043
0.190336 -0.181181
-0.104955 0.025921
0.220717 -0.417546
-0.706808 0.013043
0.128648 -0.109584
0.249827 -0.057486
0.215495 0.410188
-0.025757 0.309256
0.254141 -0.181601
-0.085890 -0.566038
0.086372 0.223472
-0.358266 -0.121850
0.041076 -0.525378
-0.073427 -0.166588
0.517291 -0.251210
0.423447 0.152772
0.224634 -0.309707
-0.032713 0.155387
0.257702 0.101704
0.002810 -0.043006
-0.585468 -0.466537
0.034875 0.281174
0.434971 -0.424570
0.168523 0.151703
0.192334 0.072122
0.418699 -0.091584
-0.279299 0.042397
0.021119 0.102269
0.545796 0.077001
0.095332 -0.177236
0.120782 0.360916
0.418435 -0.053885
-0.237403 -0.011143
0.012326 -0.281989
-0.042517 0.573476
0.105117 -0.404446
-0.459426 0.351144
-0.027164 0.022635
-0.076330 -0.125168
-0.078419 0.068071
-0.100506 0.362382
-0.143469 0.167249
0.303900 -0.298775
-0.293282 -0.191583
0.143846 -0.346116
-0.024962 -0.537473
0.256498 0.163814
0.098147 0.025004
0.127348 -0.357402
-0.144192 -0.247010
-0.040622 0.441402
0.058702 -0.267139
-0.093767 0.015063
0.006493 -0.188918
-0.037198 0.087532
0.186887 -0.585957
0.073598 0.251501
-0.154553 -0.094372
-0.197648 -0.097173
0.525993 -0.291537
-0.286699 0.176321
-0.035716 -0.140791
0.122242 0.122290
-0.407263 0.159519
-0.010667 0.243179
-0.157880 0.049126
0.004865 0.234926
0.065690 -0.222134
-0.069943 -0.051579
-0.316083 0.063119
-0.348247 -0.143362
0.010364 0.070134
-0.361180 0.206971
-0.223813 0.200634
-0.145114 -0.389034
0.055736 0.165695
-0.092684 -0.160259
0.051911 -0.197705
-0.113456 0.149979
-0.285068 -0.047456
-0.017653 -0.131504
-0.154828 0.217403
0.513946 0.078916
0.098807 -0.074269
-0.064643 -0.213616
-0.391168 0.018787
-0.066040 -0.166983
-0.222822 0.169272
-0.377581 -0.361638
0.008300 -0.136754
0.179370 0.136504
0.357373 -0.087146
-0.022994 -0.176054
0.074843 0.275063
-0.691932 -0.022816
-0.012445 0.155901
-0.141608 0.012410
-0.030099 0.174896
-0.149141 0.016186
-0.167245 0.156172
-0.166526 -0.331719
-0.104583 0.057282
0.011112 -0.106687
-0.397288 0.156170
-0.061108 0.430050
-0.107438 -0.178303
0.085799 0.214192
-0.082250 -0.082567
0.234936 -0.256899
-0.091588 0.272625
-0.399384 0.060521
-0.064803 -0.486561
0.066714 -0.407276
-0.072367 0.290320
0.234287 -0.258150
0.495820 -0.300662
0.049972 0.107812
-0.074064 -0.026311
-0.077734 0.055182
-0.011215 0.208510
-0.141748 -0.308583
-0.017140 0.038605
-0.008002 0.034975
-0.045342 -0.080006
-0.109485 -0.029204
-0.149119 -0.069697
0.054426 -0.168551
-0.183422 -0.167757
0.126290 0.351563
-0.178822 -0.199043
-0.041749 0.022141
0.061271 0.185987
0.117349 0.178863
-0.460767 -0.045848
-0.099840 0.168510
-0.175572 0.116042
-0.065472 0.136165
-0.189522 -0.172420
0.191227 -0.145208
0.108673 0.291402
0.010573 -0.301312
-0.118861 0.134501
0.218655 -0.018961
0.399244 -0.215369
-0.164457 0.300535
0.142134 0.080842
-0.171781 -0.064622
0.255109 0.193687
-0.105017 0.082982
0.068194 -0.066102
-0.321010 0.019791
0.103465 -0.148214
0.298924 -0.514725
-0.094625 0.002643
-0.094451 -0.132780
-0.015924 0.249046
0.027393 -0.259936
0.119797 0.367951
0.084893 0.273726
0.010853 -0.025818
-0.042212 -0.204288
-0.032528 0.359948
-0.015356 -0.061907
0.058604 -0.369459
-0.014398 -0.081854
0.102222 -0.171953
-0.158644 -0.305080
-0.131514 0.085795
-0.169408 -0.211242
0.059449 -0.288624
0.229537 0.151962
0.372509 0.037132
-0.121065 0.055839
-0.014198 0.222490
0.536029 -0.270771
0.072405 -0.041166
0.086899 -0.143247
-0.065560 -0.130133
-0.115873 -0.235915
0.196558 -0.009318
0.197218 -0.247880
0.032476 -0.391046
0.215724 -0.141044
0.170806 0.170091
-0.130031 0.086848
0.072892 -0.165575
-0.022114 -0.070504
-0.238990 0.077391
-0.135747 -0.196300
0.067609 -0.012209
-0.372068 0.184384
-0.152425 -0.149075
-0.295554 -0.039272
0.072169 0.075924
-0.032954 -0.026174
0.114200 -0.003897
-0.094819 0.243526
0.156929 0.075648
0.014832 -0.068918
0.229353 -0.058384
-0.185924 -0.129624
-0.023233 0.112082
0.107092 -0.192095
0.279436 -0.020549
0.375915 0.041585
0.141215 0.143605
-0.119178 -0.197305
0.260379 -0.257317
0.332257 -0.101268
-0.052141 0.051755
0.209109 0.128303
-0.241083 -0.257061
0.193656 -0.082935
-0.143758 0.264941
0.179938 0.162811
-0.009547 0.290512
-0.026091 0.126893
0.173715 -0.074198
0.276541 -0.187098
0.099960 0.285037
0.160612 -0.119912
0.021819 -0.337943
-0.259832 0.028322
0.104432 0.358969
0.153504 0.052276
0.309531 0.045930
0.246265 0.300662
-0.025030 -0.228826
-0.197202 -0.076682
-0.096057 0.225024
-0.065396 -0.240854
-0.066793 -0.401222
0.089564 0.011521
0.428812 0.089502
0.125444 0.040024
0.254439 -0.141643
-0.206953 0.209744
0.268697 0.301669
-0.012068 -0.296477
0.458528 -0.293976
-0.034582 -0.206232
-0.016232 -0.190823
-0.247908 0.000198
-0.312307 0.337137
0.030960 -0.153107
0.041704 0.239781
0.072192 0.172683
0.102059 -0.071055
0.113715 0.161100
-0.150041 -0.159812
-0.398014 -0.288062
-0.168273 -0.147042
-0.274931 0.151807
0.135724 0.186685
-0.038238 0.182108
-0.433225 0.114210
-0.019733 -0.203307
-0.195861 -0.177002
-0.352184 -0.155355
-0.140275 -0.306176
0.210071 -0.177299
-0.150501 -0.307850
-0.424640 0.225300
-0.074816 0.221530
-0.414885 0.188562
0.093569 -0.158233
0.331095 0.102609
0.134086 -0.154431
0.086914 -0.509255
0.220067 0.012214
0.063559 -0.151883
-0.133543 -0.035146
-0.228281 0.062039
0.314904 0.072863
-0.101486 0.093464
0.261253 0.096154
0.202480 -0.092995
-0.075804 -0.010938
0.082938 -0.221653
0.155369 -0.263056
0.117072 0.033937
-0.112780 0.317058
-0.114837 0.036521
0.180484 0.002863
0.068942 -0.118872
-0.141487 0.107662
-0.019409 0.014461
0.225497 -0.059129
-0.189779 -0.445195
0.116297 -0.059674
-0.153289 -0.088861
-0.209713 0.167189
-0.378625 0.218273
0.029528 -0.109883
-0.102800 0.140172
-0.201339 0.110287
-0.075621 0.174981
-0.060908 -0.256387
-0.067013 0.321140
-0.075234 -0.216638
0.153785 -0.119895
-0.104432 -0.006772
-0.038486 0.102835
0.008660 -0.095729
-0.135873 -0.102220
-0.090253 -0.109427
0.146285 0.127893
-0.158924 -0.176639
-0.169107 -0.087294
0.034983 -0.334156
-0.036974 -0.026853
-0.210190 -0.002111
-0.049760 -0.179187
-0.188671 0.054665
-0.395766 -0.092853
-0.057106 -0.121281
-0.053420 0.009219
-0.366805 0.185361
0.031399 0.023975
0.336677 -0.312951
-0.277435 0.036401
-0.158854 0.088850
0.350730 -0.227970
-0.060700 0.065284
-0.119261 0.148780
0.143430 -0.044566
-0.002440 -0.055910
0.146465 0.345351
0.313817 0.052782
0.033653 -0.170704
-0.127306 0.009060
0.344689 -0.207246
0.005398 0.109215
-0.162227 -0.072814
-0.101124 0.097166
0.115119 0.194341
-0.413926 -0.129207
-0.082734 -0.133646
-0.108335 0.129623
0.252996 0.216385
0.164254 0.053632
0.049222 0.086474
-0.212017 0.259483
-0.066599 -0.081604
0.166778 -0.168449
0.030117 0.186475
-0.177436 -0.130118
-0.255298 -0.315102
-0.242842 -0.438640
-0.195893 0.050965
0.107237 0.082391
0.059899 -0.211248
-0.162104 -0.001365
0.177696 0.120420
0.330626 -0.126578
-0.018721 -0.322484
0.066876 -0.184596
-0.135023 -0.069460
0.141920 0.208165
-0.124373 0.081979
-0.035598 -0.021149
-0.098051 -0.092649
-0.049680 -0.326820
0.018505 0.206851
-0.020656 -0.191356
-0.141713 -0.344135
0.069789 -0.125174
-0.081676 0.108240
-0.286804 0.092004
-0.065896 -0.198354
0.123507 -0.042350
0.061349 -0.239796
-0.214839 0.377243
-0.405295 -0.074808
0.030845 -0.009822
-0.321127 0.097127
0.040169 0.020484
-0.124148 -0.069794
0.064916 0.201698
-0.244088 -0.146678
0.140488 0.002890
-0.024940 -0.197398
-0.132713 0.061556
0.105124 0.139857
0.079987 0.045687
-0.089896 -0.204199
0.229464 0.039039
0.139260 -0.071334
0.205808 -0.162824
0.288727 -0.146220
0.384802 0.271928
-0.087856 0.278977
0.156062 0.002951
0.173527 0.087996
0.160189 0.212595
-0.039195 -0.355439
0.291186 0.143583
0.401441 0.155923
-0.329039 0.024303
-0.196976 -0.079439
0.211020 0.095406
-0.055756 -0.140459
0.104745 0.218575
0.146474 -0.018637
-0.199203 -0.131940
-0.328579 0.032080
0.269665 0.418490
0.218411 0.122722
-0.155709 0.027808
-0.052354 -0.033957
-0.166718 0.034241
-0.042305 -0.182607
0.466865 0.033279
-0.125516 0.259029
0.006972 0.064321
-0.154745 -0.046844
0.267607 0.078982
-0.121528 -0.192112
0.205326 -0.165887
0.206199 -0.168711
0.075018 0.071201
0.441230 0.074573
0.283106 0.002659
0.145273 -0.017760
-0.158849 0.023761
0.087808 0.087150
0.152374 -0.125495
-0.138557 -0.307976
-0.004186 0.204049
-0.388097 -0.351288
-0.063476 -0.357431
-0.031583 0.109697
-0.097632 -0.141975
0.297549 -0.235404
-0.181888 -0.148096
-0.088489 0.089718
-0.134482 -0.261261
0.082183 -0.133317
-0.116070 0.153267
-0.113553 -0.124691
0.008999 -0.100433
-0.385573 -0.253295
0.192575 -0.304754
0.084666 -0.242409
-0.334691 -0.049138
-0.029880 -0.207111
0.255105 0.128115
-0.062704 0.197107
0.041073 -0.353897
0.295073 0.040727
0.061369 -0.273091
0.043303 -0.050270
-0.030251 -0.410613
0.116310 0.105577
-0.150719 -0.074525
0.143576 -0.122536
0.279999 -0.099268
-0.100413 -0.003833
0.193707 -0.070022
0.323308 0.207497
-0.165201 0.371512
-0.038543 -0.021882
-0.162411 -0.553886
0.030055 -0.561912
-0.242823 0.043847
-0.055759 -0.115977
-0.040285 0.154400
-0.230244 -0.205488
-0.272639 -0.188074
-0.022843 -0.021168
-0.199047 0.054424
-0.326148 -0.094375
-0.043827 0.159054
-0.154166 -0.181558
0.214188 -0.090873
-0.102275 -0.001325
-0.002141 -0.253018
-0.091026 -0.039402
0.128394 -0.241489
0.223161 -0.169704
0.099743 0.052269
-0.170289 0.063829
0.044339 0.170989
-0.292484 0.088311
0.027360 0.265668
-0.580159 0.454088
0.437601 -0.523359
0.019838 -0.468632
-0.135020 0.139419
0.298417 0.052616
-0.395957 0.124413
0.003953 0.337885
0.275709 0.132251
-0.255481 0.338238
-0.355943 -0.249264
0.152654 -0.552488
-0.145507 -0.191037
0.101838 0.221308
0.124300 -0.198787
-0.488666 -0.012209
-0.166608 0.278756
-0.289060 -0.084746
0.102378 -0.208132
-0.262666 -0.172803
0.400495 -0.105769
-0.035109 -0.127105
-0.150215 0.214148
-0.290318 -0.158928
-0.023167 -0.008931
-0.030270 0.014834
-0.160635 -0.133082
-0.046809 -0.033749
0.004466 -0.056921
0.032844 -0.045849
-0.032195 -0.029812
0.021090 -0.042141
-0.168308 0.201095
0.023001 -0.198275
0.193378 0.124458
-0.421766 -0.098956
-0.448996 -0.138958
0.094507 0.061288
-0.345684 -0.200159
0.073897 -0.290982
-0.264929 0.248925
-0.227760 -0.520819
-0.247053 -0.035713
0.098939 0.169722
-0.238833 -0.021551
-0.368886 -0.203349
0.146750 -0.048043
0.216969 -0.462533
-0.249301 -0.192213
0.047785 -0.034628
-0.117455 -0.157347
0.295711 -0.005902
-0.083749 -0.180969
0.208025 -0.014221
0.085134 -0.526737
-0.109887 0.026685
0.195148 -0.124649
0.380848 -0.536598
0.157153 -0.183012
-0.427930 -0.015923
-0.067917 -0.086943
0.154789 0.050588
0.095729 0.301835
0.530765 -0.237313
-0.180450 0.338606
-0.291239 0.206068
-0.320998 0.257151
-0.349047 -0.006917
0.029440 0.059572
-0.007741 0.304419
0.084519 -0.457371
-0.340418 -0.060959
-0.341335 0.504840
-0.093192 -0.459557
-0.297009 0.328509
-0.352823 0.101627
0.212552 -0.261784
0.266418 -0.752578
-0.290179 0.303590
0.208953 -0.382725
-0.088714 -0.233114
-0.444184 -0.202307
0.118371 -0.298605
0.162482 -0.243881
0.175231 -0.265511
-0.011829 -0.074390
0.043435 -0.204402
-0.552805 -0.367512
0.347458 -0.383628
-0.314865 0.061538
-0.090266 0.178205
-0.487853 -0.337865
0.209715 -0.130679
0.137177 -0.023467
-0.408943 0.170278
-0.035694 0.204487
0.034481 0.226999
0.165071 -0.064718
0.382286 0.145487
0.239340 0.016600
-0.188661 -0.020893
-0.113950 -0.336691
0.131909 0.077768
-0.121786 -0.099898
-0.220423 -0.025487
-0.128817 0.047372
-0.518229 -0.142870
-0.353593 -0.254533
-0.194251 -0.217250
-0.500319 -0.141044
-0.277481 -0.265916
0.445388 -0.074140
0.033037 0.108827
-0.057148 -0.282750
0.177882 -0.180857
-0.376846 0.081431
-0.114469 -0.089659
0.033636 -0.148461
0.075230 0.004987
0.105116 -0.144385
0.107909 -0.266348
-0.112740 0.211916
-0.230909 -0.194017
0.305997 -0.086596
0.023244 0.504309
0.134140 -0.341286
0.174227 -0.097387
-0.542784 0.074345
-0.378371 0.354476
0.104367 -0.367654
-0.012360 0.668135
0.190393 0.009243
0.658979 -0.358217
0.162805 -0.151045
-0.190641 0.044434
0.003311 -0.331751
-0.052230 -0.465631
-0.257318 0.283484
-0.120759 0.057914
-0.027820 -0.462898
-0.247915 -0.036101
-0.236466 -0.475096
0.150653 -0.487888
-0.151474 -0.093499
-0.136541 -0.054315
0.589166 -0.215074
-0.124201 -0.036839
0.122288 -0.346560
0.402676 0.406776
0.072901 0.337497
-0.378854 -0.068453
-0.154558 -0.043482
0.038352 0.043281
0.007115 0.557871
0.030913 -0.106785
-0.028275 0.536409
0.000833 -0.416222
0.482245 0.134500
-0.040955 0.274423
0.026457 0.131655
-0.224656 -0.359281
-0.085955 -0.397442
-0.545582 -0.195461
-0.213662 -0.219232
0.401499 -0.210855
-0.268649 -0.171937
-0.188422 -0.269816
0.068626 0.190731
-0.244795 0.653415
-0.162220 -0.362400
-0.095274 -0.131928
-0.137139 -0.771562
-0.264082 -0.310888
0.166091 -0.289888
0.310405 -0.146767
0.083640 -0.585889
-0.041434 -0.132772
0.451364 0.279631
-0.202220 -0.502587
-0.074294 -0.479122
0.036646 -0.197152
0.192349 -0.373742
-0.133137 -0.351802
0.468019 -0.016328
-0.243096 -0.426657
0.351019 0.147028
0.327388 0.368321
0.099023 0.346925
-0.007484 -0.378397
0.006056 0.179586
-0.525596 -0.138528
-0.502755 0.464699
0.361736 0.204205
0.016764 -0.603200
0.075254 -0.364100
-0.195440 0.008707
-0.073188 0.326654
0.008396 -0.370752
0.041227 -0.389146
-0.801556 0.057566
0.228420 -0.611395
-0.152397 -0.160078
-0.278818 -0.164017
-0.220124 -0.370851
0.202736 -0.788381
-0.301878 0.021789
0.037657 -0.373566
0.596796 -0.706518
-0.427400 -0.004717
-0.228659 -0.085092
0.383694 -0.270971
-0.009847 -0.025500
-0.965868 0.261795
0.306387 -0.122112
0.385036 -0.285755
-0.634978 -0.068919
-0.060192 -0.286044
-0.478908 0.245985
-0.398650 0.314001
0.139718 0.261353
0.039439 -0.370383
-0.417385 -0.521596
-0.394215 0.085841
0.224972 0.797145
-0.518072 0.030957
0.224580 -0.546897
0.095461 -0.154801
-0.337142 -0.526302
-0.548987 0.110944
0.224493 0.182016
-0.776189 -0.264260
0.050825 -0.871169
-0.689320 -0.151402
0.142974 -0.344942
-0.316284 -0.023998
0.076833 0.000183
-0.068491 0.113373
-0.180924 -0.614606
0.249386 -0.495485
0.471033 0.175308
-0.894450 0.339853
0.269086 0.088965
0.044207 -0.159036
-0.684593 -0.773394
0.060617 0.394551
-0.412209 -0.352999
0.324394 0.045790
-0.564885 0.020033
-0.378642 -0.009958
-0.764666 0.547873
0.723676 -0.115207
0.875015 0.167012
-0.349371 -0.131633
0.117929 -0.119624
-0.923381 0.236932
-0.087342 0.799229
-0.232751 -0.213782
-0.119371 -0.915965
-0.585783 0.606862
-0.352513 0.309003
0.365266 -0.792134
-0.698496 0.608822
0.044533 -0.060170
0.270562 -1.014740
-0.633199 0.558309
0.273930 -0.541974
0.577817 0.074582
0.196690 -0.703059
-0.275709 0.237078
0.082851 -0.317462
0.618190 0.296202
-0.656291 -0.637374
0.662232 -0.096457
-0.283149 1.049241
0.048817 0.319468
0.605114 0.436713
-0.764571 0.167762
0.583505 0.776089
0.099121 -0.069369
-0.298273 0.289452
-1.704591 0.702276
-0.109121 0.311930
0.692931 0.836630
-1.023802 -0.741744
0.355808 -0.551552
-1.000846 0.612401
-0.453736 0.670706
-0.547261 -0.395125
1.056652 1.002016
0.377995 -0.884780
-0.202222 0.142859
-0.272449 -0.148546
-0.322250 0.205571
0.243210 -1.346516
-0.542436 -0.231951
1.123713 -1.470062
-0.982227 0.117709
1.411378 0.068790
-0.780180 -1.135347
-0.745726 -0.041050
-0.577836 0.699227
0.708872 0.509564
0.240017 0.470319
0.062826 -0.147702
-0.153195 0.266184
-1.549306 1.155654
-0.454780 0.496923
0.320287 0.960971
-1.578981 0.611239
0.140805 -1.405996
-1.614867 1.566122
-0.065719 0.045938
-0.441774 -0.454170
-0.975552 1.461551
-1.059002 0.977088
0.799598 0.755385
-0.635068 0.629811
-1.300922 0.993372
-0.766615 -0.777864
-0.996650 3.330346
-1.014394 0.044988
0.302213 0.822214
-1.780598 -1.595853
-2.114198 0.737572
-1.374040 0.353618
-0.003116 -0.902691
-2.269019 0.342111
0.382925 -1.577689
-0.509239 -2.891491
-1.802609 0.866195
1.668020 -1.038496
1.180313 -2.571565
-2.809764 0.812247
1.103640 1.152338
0.187216 0.966466
2.340123 -0.889122
-2.820674 -1.382069
-0.899442 1.982026
-0.593945 1.044249
-1.790772 1.204084
-1.730011 0.051552
0.208597 2.008626
-1.680607 -6.170229
-3.990858 4.228635
2.660954 -2.003373
-2.331684 1.329670
-3.248977 -1.533852
2.315508 2.886234
-1.900790 -0.647068
0.786190 -0.363060
-0.281469 0.243681
-3.731328 0.759523
-3.033654 1.564027
2.849349 0.146531
-3.553147 -0.043293
-1.630159 -4.836039
-2.691391 1.139056
-0.010129 -0.135991
-1.339667 -6.010118
1.560344 3.706096
2.795831 -6.263709
-3.353941 -3.535347
-1.788513 0.985160
1.003721 2.921408
0.168324 -2.321905
-3.073443 2.322281
-1.833361 1.949703
-2.210967 -0.267558
-0.799164 -2.192442
-9.563313 0.346882
-2.257211 5.455370
-0.866821 -4.552440
-5.751097 -1.520873
-9.326272 5.441271
5.973873 -5.411020
-6.969056 -2.673186
-7.567373 6.385523
7.152264 -2.763177
-6.574801 -2.558575
-6.801867 6.866809
9.293263 2.400018
-4.065743 -2.642588
-0.003546 6.100961
-4.658293 2.429050
-4.174674 6.299613
-0.448844 10.462838
-3.235848 5.472995
9.249852 -1.746935
-10.423768 -8.147788
-23.477937 5.086804
-0.623423 7.155359
9.701558 7.400427
-1.590850 -14.331951
9.509177 -16.319136
-2.649901 13.510923
-9.586101 -18.272561
8.540621 5.834766
33.309497 40.169675
-5.369265 -20.080981
43.328319 -5.484294
-35.118154 38.531018
-26.474649 6.349208
32.720640 52.766442
-11.115767 20.868323
-16.320692 -30.378730
-7.636052 25.178064
-34.319360 20.215887
-14.955601 5.246593
-98.455540 47.534358
52.148836 10.798361
-21.516009 -3.124306
-85.143865 43.837339
82.164199 263.490934
-281.572002 -149.391994
-142.750823 -518.373971
1.053052 -462.028469
52.299999 -100.781005
-3541.949165 -1810.586669
