4857.480445 4002.491151
-1060.758521 1346.645640
-82.311798 80.511420
86.633551 -66.902040
-29.805205 -63.116234
-84.441716 -153.072050
-54.462407 36.128296
-97.197848 -1.216441
37.333812 -46.103173
-31.245487 9.385239
1.436846 46.572231
-19.364898 -18.173405
-11.618698 -1.331059
0.896307 -9.670302
4.388619 -8.268614
-28.612487 0.651210
9.936596 -9.806335
0.608096 3.406287
-4.024626 10.098562
-9.528696 -10.148637
-0.927821 -8.020012
-7.647087 -1.975375
3.227451 -8.208975
-10.170561 2.333792
0.633490 -2.298175
0.049872 -3.055492
-2.058485 5.782546
-4.238547 -2.619069
1.646326 -4.740019
-2.582334 -4.231814
-1.884674 -3.468278
-0.005874 3.098898
-1.210742 -4.504312
-6.927495 -0.239709
4.983435 2.790064
-4.526695 -5.612171
-2.415855 0.556454
2.196756 -1.411574
-2.824137 -3.226221
-0.695745 1.047585
0.046420 1.716217
-1.754338 -2.681194
-0.338861 0.312156
0.176631 -0.635810
-0.822101 -2.076888
-0.449373 -0.833971
-1.834682 -0.797835
-0.766183 -0.824795
-0.887035 0.817263
-1.413263 0.599310
-0.674972 0.638816
-0.516828 -0.696631
-0.366227 -0.253038
0.833434 1.168257
-1.135266 0.241727
-0.354642 -0.724786
0.982378 -0.648528
-0.974613 2.012996
0.395519 -0.838556
-0.841706 -0.186847
0.872112 -0.162556
0.836002 -0.632690
-1.658021 0.640508
-0.344790 0.084638
0.003160 -1.397411
-0.936334 1.804167
-0.046781 0.874122
-0.092009 -0.988345
0.231094 -0.122333
0.881361 -0.149264
-0.741786 0.365434
-0.373282 -0.047534
-0.417928 -0.259651
0.768175 0.319170
-1.007205 -0.453549
-0.213328 0.164814
0.074015 0.205498
-0.128119 -0.384781
-0.704776 0.987648
0.154956 0.438741
0.061098 -0.000689
-0.239917 -0.163936
-0.194715 0.399628
0.301337 -0.492737
-0.006355 -0.031922
0.094974 -0.071294
0.027422 -0.053259
-0.274338 0.332860
0.202536 -0.617304
-0.248487 0.542844
0.716948 -0.084123
-0.666789 -0.270421
-0.033626 0.197373
0.003122 -0.383870
-0.627546 -0.302301
-0.022264 0.959196
0.100439 -0.865564
0.083396 -0.346079
-0.228836 0.128990
-0.072656 0.325870
0.023702 -0.087258
0.315933 -0.458475
0.070716 0.366313
0.024932 -0.158089
-0.992292 -0.132532
0.438227 0.190319
0.322664 0.390697
-0.344264 -0.363448
0.231645 -0.180783
0.371804 -0.257113
-0.255106 -0.405300
0.013970 -0.168786
-0.199084 -0.126364
0.066109 0.006804
-0.456791 -0.567532
-0.585147 -0.021432
-0.052089 0.075467
0.293226 0.117822
-0.334861 0.203167
-0.153844 0.085781
-0.172105 0.194827
-0.048483 -0.036384
0.073174 0.214906
-0.255278 0.126910
-0.190338 -0.054242
0.025192 -0.045341
-0.132106 0.080302
0.202889 0.211217
-0.244648 -0.036163
0.294109 -0.142427
0.056328 -0.105399
0.202329 0.413755
0.147744 0.013024
-0.151351 0.033860
-0.278640 0.435249
-0.326238 -0.055770
-0.079865 -0.179817
-0.281228 0.086957
0.327460 -0.012917
-0.069065 -0.004937
-0.265388 0.011251
0.523839 0.237027
0.204490 0.267425
0.134930 0.002792
0.177654 0.088666
0.231432 0.059566
-0.289790 -0.067193
-0.129085 -0.216059
-0.135069 0.062040
-0.468902 -0.014580
0.253241 -0.126698
-0.028562 -0.098975
0.165852 -0.044814
0.097463 0.236089
0.191301 0.084553
-0.241456 0.409230
0.082630 0.037099
0.116539 -0.399522
-0.004528 -0.116149
-0.032799 0.051079
-0.209028 -0.041030
-0.042647 0.195136
0.048354 0.027420
0.274288 0.121911
-0.050078 -0.084758
-0.160100 0.100065
0.024086 -0.311996
0.079835 0.065377
-0.015133 -0.080524
0.047690 0.347148
-0.073803 -0.136212
-0.174403 0.062972
0.140871 0.128890
0.093939 0.036353
-0.119483 0.211000
0.193036 0.033490
-0.135326 -0.165992
0.387389 -0.248998
-0.021336 0.087444
-0.060821 -0.245104
-0.034662 0.229353
-0.021404 0.169029
-0.201395 0.138289
-0.016443 -0.152902
-0.046910 0.018614
-0.233670 -0.038266
0.035280 -0.095429
0.106255 0.095501
0.309228 -0.231206
0.033207 0.143101
-0.238300 0.265514
-0.129709 0.027015
-0.007293 -0.002879
0.069477 0.005731
-0.383970 0.022690
0.015090 0.002756
-0.328189 -0.336211
0.043898 0.080668
0.009970 -0.026727
-0.154639 0.222000
-0.163486 0.075304
0.007343 0.049391
0.017443 0.252981
-0.232326 0.008654
-0.226702 0.312210
0.018657 -0.202660
0.097078 0.096788
-0.009714 0.127128
-0.060219 0.189471
-0.139201 0.064657
-0.051090 0.122147
-0.087477 0.180590
0.141580 -0.250861
0.068722 -0.055810
0.075511 -0.204054
-0.313108 -0.222625
0.084927 0.383324
0.038910 0.147101
-0.000967 0.188216
-0.058107 -0.069387
-0.304515 0.084726
0.051731 -0.033822
0.051641 -0.076248
-0.088368 0.264008
-0.004160 -0.064237
0.028809 -0.182209
0.140229 -0.090973
0.069652 -0.085917
0.095725 0.150810
-0.089681 -0.192636
0.029269 -0.023546
-0.096244 0.094405
0.064484 0.141173
-0.242296 0.187141
0.143695 -0.065381
-0.109151 -0.206865
0.038832 0.036317
0.005304 0.038593
0.126297 -0.038609
0.117225 -0.098249
-0.084925 -0.194035
0.051419 0.025953
0.100069 0.289039
-0.050626 -0.065249
0.056142 -0.058489
-0.121164 0.220459
-0.129891 0.021930
0.242119 -0.046497
-0.020253 0.061999
-0.117177 0.011249
0.380909 0.050249
0.085559 0.003630
-0.165466 -0.041672
0.128548 -0.075188
0.013484 0.313247
-0.233472 -0.137295
0.048299 0.097296
0.192121 0.252006
0.101694 -0.043037
0.317650 0.105026
0.263592 -0.017495
-0.002616 -0.302110
-0.104332 0.165462
-0.044552 -0.021837
-0.101721 -0.040570
0.068582 0.220008
-0.107424 -0.206191
-0.116693 -0.038566
0.384556 -0.037154
-0.101545 0.042450
-0.101069 -0.226508
0.114061 0.328516
-0.270854 -0.138914
0.002576 0.036764
-0.088532 0.250201
0.305164 0.047560
-0.337148 -0.088491
0.090205 -0.099353
-0.116334 0.149544
-0.154722 -0.032764
-0.047967 0.220765
0.043073 -0.154992
0.019241 -0.060493
-0.009954 -0.031889
0.012819 0.014209
0.014834 0.091224
0.153121 0.065765
-0.081681 0.037359
-0.173516 0.011464
0.008274 -0.298847
0.059386 0.200156
-0.146777 -0.323279
0.127058 -0.151639
-0.104657 -0.259605
-0.322769 -0.090152
-0.118242 -0.048925
0.146315 0.326182
-0.375068 0.236661
-0.116299 -0.235537
0.331256 -0.268022
-0.160195 0.150248
-0.132130 0.222570
0.236653 -0.258232
0.158462 -0.187242
0.087814 -0.109317
-0.330205 -0.156453
0.163318 0.252176
0.001395 -0.138599
0.115984 -0.536637
-0.107609 -0.204700
0.029957 -0.105064
-0.368249 -0.125014
-0.018917 -0.008933
-0.081556 -0.053449
-0.095310 -0.068049
0.023374 -0.115785
-0.039128 -0.274385
-0.312956 -0.220240
-0.210232 0.110789
0.052722 0.077946
0.095375 0.270198
0.163573 0.244142
-0.185308 -0.010831
-0.081655 0.166425
0.286169 -0.034531
0.032199 -0.509515
-0.281219 -0.096606
0.162033 -0.107569
0.190043 -0.139020
0.151868 -0.130904
-0.052578 0.249554
-0.084778 0.176356
-0.351466 0.136435
0.380349 -0.000252
-0.132900 -0.151333
-0.252423 0.136950
0.105791 -0.210611
0.271411 0.164154
0.112233 0.066230
-0.104465 -0.132592
0.087991 0.081156
-0.204816 -0.145291
0.073325 0.028198
0.211600 -0.001588
-0.074452 0.078970
-0.097148 0.169971
0.241104 0.010148
0.003183 0.262050
-0.003257 -0.080054
-0.150890 -0.010116
0.019858 -0.156730
0.016132 0.216473
0.129615 -0.184048
0.021265 0.140822
-0.082705 0.127012
0.013580 -0.200817
-0.068282 0.017146
0.318376 0.291542
-0.305404 -0.336578
0.153017 0.300444
0.296513 0.125780
0.037016 0.197918
-0.081449 -0.065146
-0.027719 0.169147
-0.155005 -0.275644
0.183624 -0.127178
-0.180294 -0.469485
-0.270152 0.126339
0.086616 0.066706
0.295196 0.324909
0.188663 0.083066
-0.175688 0.450053
0.042379 0.123937
-0.043672 -0.114845
0.202754 -0.073973
0.047163 -0.257847
-0.018016 0.046149
0.427380 0.158125
0.228233 -0.281981
-0.035018 -0.108778
0.012223 -0.028080
-0.378206 0.168371
0.152286 -0.090853
0.107381 -0.355825
0.457290 -0.171253
-0.237163 0.009181
-0.109420 0.064041
0.123175 0.043459
-0.218476 -0.029877
-0.199805 -0.019858
0.163940 -0.289887
0.005714 0.009430
-0.372372 0.004586
0.172335 0.124704
0.351959 0.252466
-0.222447 0.169038
0.138468 -0.028582
-0.119413 -0.015757
-0.176333 0.039040
0.338678 -0.085798
0.327029 -0.312912
-0.107425 0.347465
-0.074183 -0.266737
-0.135391 -0.107846
0.201278 0.274809
-0.034226 0.004600
-0.167541 -0.026448
-0.179067 -0.230662
-0.020306 0.308790
-0.045540 -0.091901
-0.195086 0.171729
0.061173 0.088946
-0.149627 -0.235209
-0.002020 0.261679
-0.202951 0.236539
0.290598 -0.002672
-0.086309 0.263397
0.234324 0.013415
-0.107689 0.173640
0.186887 -0.180929
-0.460201 0.233781
0.265650 -0.333160
0.067262 0.158925
-0.516437 -0.096621
-0.093078 -0.129965
0.083950 -0.110489
-0.018237 0.239044
-0.226100 -0.045923
-0.227440 0.137586
0.055863 -0.157866
-0.163904 0.111647
-0.129433 0.204017
-0.223381 0.045072
0.000869 -0.172027
-0.261099 0.263862
-0.172120 -0.071947
-0.030776 -0.014076
-0.130464 0.144665
0.062557 -0.029736
0.057974 -0.343513
-0.209231 0.224887
-0.336860 -0.191354
-0.363655 0.190030
0.049523 -0.089666
-0.475650 0.032573
-0.082924 0.111849
0.156313 0.253782
0.114802 -0.102889
0.190307 0.043078
-0.139397 0.168604
-0.380822 0.132515
0.015925 -0.466733
-0.059463 -0.027808
-0.018441 -0.077292
-0.231560 -0.272534
0.058038 -0.058012
0.010165 -0.248063
-0.318684 0.175449
0.175333 0.170167
-0.380842 -0.218650
0.084477 0.025880
0.009219 0.102715
-0.106034 -0.140029
-0.007335 0.168568
0.109049 -0.037665
-0.248146 -0.244854
-0.254228 0.010782
0.020379 -0.186879
0.162933 -0.131219
0.083897 -0.149718
-0.153739 0.103752
0.140471 -0.042065
0.048858 0.066888
0.137043 0.084048
0.084839 -0.043746
-0.496281 -0.038622
-0.131656 -0.213121
0.204294 -0.154349
-0.095270 0.326437
-0.028309 -0.102967
0.174138 -0.192194
-0.118307 -0.068265
0.020801 -0.019726
-0.092398 0.534816
0.167270 0.061601
0.062031 -0.124498
0.239646 -0.087529
0.178159 0.293275
0.083452 -0.341866
-0.099294 0.276056
0.070164 -0.232703
0.113395 0.160763
-0.042698 0.131433
-0.092776 0.044569
0.272703 -0.169221
-0.033941 -0.133094
-0.011840 0.067059
0.301503 -0.010095
-0.015594 0.041153
0.225891 -0.019716
0.076213 0.137473
0.163985 0.188011
0.107525 0.056538
0.033490 0.004784
-0.000326 -0.169723
-0.179864 -0.353200
0.145918 -0.226684
-0.182020 -0.105388
0.055291 0.179464
0.186818 -0.010380
-0.019327 -0.021124
0.142028 0.315151
-0.256278 -0.209586
-0.183401 0.361008
-0.205494 -0.085948
0.200376 -0.136481
0.037276 -0.144251
0.082370 0.425964
0.184848 -0.134423
-0.156610 0.201418
0.262581 0.028690
0.039807 -0.178260
0.106056 0.042146
-0.428594 -0.142168
0.081425 -0.182303
-0.046295 -0.303606
-0.257810 0.208884
-0.071441 0.473419
-0.003535 -0.015105
-0.249835 0.074531
0.197642 0.248511
-0.034773 -0.103512
-0.004719 0.028331
0.334024 0.319107
0.152518 0.066415
0.183230 -0.451473
-0.000861 0.009543
-0.179549 0.079011
-0.310915 0.008650
-0.510657 0.033223
0.197587 0.109672
0.083097 -0.281432
0.000851 0.217060
-0.140855 -0.026808
0.066578 -0.273048
0.179270 0.154335
-0.329879 0.256509
-0.004116 0.289131
0.205842 0.029469
-0.251465 0.273820
-0.500068 0.348861
0.042600 -0.264859
0.092671 -0.175846
-0.327172 0.298779
0.415581 -0.240044
-0.136441 -0.197581
0.376188 -0.041227
-0.237415 0.484948
0.141781 0.096653
-0.316454 0.097436
-0.145187 0.331454
-0.131879 0.047056
-0.365887 -0.053342
0.361004 0.104530
-0.374396 0.293660
0.062354 -0.002857
-0.005799 -0.265654
0.209830 0.129123
0.047667 0.197770
0.225543 0.044629
-0.144923 -0.092990
-0.052296 0.227976
-0.213593 0.369727
0.491380 -0.279617
-0.410238 0.252420
0.483288 0.319513
-0.094136 -0.322691
0.321554 -0.487055
0.265053 0.347753
-0.023969 -0.227389
-0.181555 -0.455898
-0.094723 -0.904898
-0.206066 0.237107
-0.283556 0.247259
0.016541 -0.220323
0.032559 0.167114
-0.146251 -0.407999
-0.347154 0.273454
0.383239 0.004302
0.007185 0.207901
0.402441 -0.173568
-0.069898 -0.203796
-0.579174 -0.204064
-0.164208 -0.051920
-0.056982 -0.294580
-0.271831 -0.119242
0.400176 -0.017384
0.095435 -0.386989
0.029694 0.108080
-0.304402 0.215921
-0.153169 0.316626
0.069242 -0.194766
0.213274 0.137407
0.067309 -0.035762
-0.125357 -0.116928
0.280551 0.273158
0.142257 -0.199801
-0.201264 -0.315930
-0.561762 -0.217243
0.054913 -0.500228
0.136768 -0.206918
0.135235 0.466693
-0.662300 0.478304
0.112908 0.351799
-0.147207 0.132349
-0.088972 0.597002
0.195713 0.532912
0.274450 0.238408
1.191404 -0.239137
-0.162515 -0.258948
0.277171 0.547110
-0.391108 -0.520251
0.193258 -0.073189
-0.704545 0.110745
0.995012 -0.054333
-0.063427 0.081018
-0.352003 0.029889
-0.061870 0.642672
0.274924 -0.845606
-1.228563 1.310099
1.479888 0.222862
-0.230469 -0.393534
0.154051 0.431630
-0.641257 0.500585
-0.197754 1.036752
0.085890 -1.271724
-0.777242 0.242417
2.015238 1.177346
-1.018129 -0.938250
0.213408 1.166816
0.367834 0.684853
0.601211 1.093279
-1.984430 -0.273640
1.144581 -0.294590
3.492677 0.736937
-0.367190 -1.417887
-1.338384 2.151647
3.868459 -2.063882
-1.520177 -0.055277
-1.431153 0.749717
-0.107224 -2.450334
0.084074 -2.246263
2.344196 0.600097
-1.962718 3.670576
1.754807 -1.076192
-3.408267 -2.957391
2.676907 4.180361
-1.562293 -1.440391
1.675466 -3.655793
0.921567 0.717879
5.701461 -0.181867
-2.759786 2.622631
0.752604 -3.042848
-0.203782 -2.372044
0.143141 -4.883513
-3.321846 -1.681361
-0.814050 -5.019541
1.642016 3.518294
-6.620606 -0.597283
-0.451759 3.106712
-3.565085 -1.917171
-0.804124 4.143755
-1.247250 -1.919500
5.543569 -7.223095
1.247332 9.629354
15.807934 4.612206
-28.070276 -2.255040
17.767587 2.311640
10.109215 -14.626111
-12.906091 -22.466407
-7.365418 7.056784
-6.989278 -41.105566
-25.102026 5.749411
-37.368725 8.972831
-81.739135 57.314992
-6.362964 -69.620114
-27.134597 91.616083
-53.370197 124.047467
53.207587 -64.885335
-211.382174 235.358899
-372.848350 -36.997390
