3980.932559 2184.440671
-2561.598824 -266.213205
-33.309327 11.499068
-186.724901 144.124235
1.673103 -24.437552
-64.612721 2.800965
15.604835 -10.336760
-4.788761 -4.337935
-16.571566 -45.459532
4.708310 -8.587047
10.135385 1.390333
-20.273095 -10.158492
-1.313426 -1.728719
8.323848 7.885031
-7.523590 14.145763
-9.263560 -4.992005
6.819900 12.653341
-4.800261 6.140851
-11.969807 0.551165
1.228775 -2.800574
4.269643 3.338427
-9.954159 0.224016
2.627737 -3.539184
-1.127089 -0.142063
0.230478 0.903267
-5.426052 -4.208184
4.282173 -2.568444
-1.167939 0.751007
-3.729053 -5.622994
2.867489 -1.312604
-1.692682 -1.875211
-2.103257 -0.104381
-1.608916 -4.071559
0.670195 0.974891
-3.622555 -0.073806
-1.753003 -2.026524
-1.578654 -0.720576
0.346628 0.830953
-3.249155 -0.853837
0.883497 -0.858484
-0.655676 0.980797
-1.516797 -0.699531
-0.458182 0.585316
0.038322 -0.103115
-1.475499 1.445532
-1.317883 -1.533481
0.392104 0.723783
-0.498744 -0.176942
-0.288135 -1.127724
0.289003 -1.298923
1.794628 0.016436
-1.866418 -0.380505
0.601550 -0.939787
0.033255 -0.197680
0.171167 0.468035
-0.709555 -1.169388
0.985775 -0.108445
0.010217 1.304514
-1.541406 -0.043932
-0.065104 0.291635
-1.263266 -0.628483
-0.886140 0.429213
-1.219957 -1.767933
-0.151291 0.972342
-0.763919 -0.757399
-1.333569 -0.213340
0.892915 -0.350697
-1.111162 1.019632
-0.455535 -0.074864
0.342821 -0.489245
0.228890 0.709743
-0.333780 -0.680179
-0.452256 -0.307697
0.791818 -0.336864
-0.873578 0.256348
0.387868 -0.712991
0.584531 -0.241366
0.257647 0.385995
-0.455180 0.053032
1.325959 -0.750229
0.964910 0.833573
0.240312 0.304274
0.285900 -0.514480
0.871239 -0.081256
0.666012 0.117159
-0.309071 -0.163687
0.805078 -0.731663
-0.176817 0.270033
-0.107343 -0.000762
-0.198444 -0.518216
0.991264 0.427905
-0.161867 0.114776
-0.469728 -0.486155
0.482655 -0.825776
0.143279 -0.040764
-0.178387 -0.177530
0.040656 -0.330541
0.497501 0.218317
-1.056734 -0.012034
-0.104056 0.303923
-0.097942 -0.404455
-0.407097 0.474095
-0.840616 -0.423032
0.160784 -0.034895
0.066965 0.619592
-0.233237 0.379173
0.083736 -0.273644
-0.031827 0.082446
-0.062556 0.253595
-0.214992 -0.232070
0.284945 0.558295
-0.732558 0.143745
-0.072427 0.761373
0.069866 0.200119
0.291243 0.908067
-0.319319 -0.127935
-0.071965 -0.250574
0.271180 0.639716
-0.483858 -0.161373
0.121151 -0.100575
0.375052 0.035278
-0.270388 0.569440
-0.395545 0.040096
0.352473 -0.134297
0.155623 -0.064712
-0.317673 -0.440362
-0.443832 -0.024221
0.328789 0.073526
-0.668274 0.014958
0.058008 -0.567689
0.139709 -0.239861
-0.405295 0.365857
-0.043150 -0.190849
0.251888 0.042220
-0.111626 0.259446
-0.595505 -0.158885
0.078524 -0.157108
0.574948 0.187372
-0.209988 0.058450
-0.340340 -0.327544
0.691578 -0.034155
-0.149217 0.276114
-0.520345 -0.277168
0.151664 -0.323720
0.155082 0.333955
-0.040460 -0.088887
-0.122000 -0.174419
0.064668 0.140170
-0.110515 0.357852
-0.254068 -0.429670
0.508101 -0.135885
0.012236 0.154050
-0.515116 0.253011
0.324721 -0.073832
0.082673 0.448652
-0.334538 0.058519
-0.259394 -0.015226
0.171065 0.078911
-0.088662 0.057056
-0.474546 -0.472532
0.055970 -0.114114
0.299728 0.442323
-0.730366 -0.031713
-0.163742 -0.188987
-0.014404 0.192108
-0.097251 -0.052199
-0.107473 -0.046518
0.222249 -0.215700
-0.341638 0.218027
-0.242865 0.000168
0.268006 -0.212394
-0.145513 0.271356
-0.343663 -0.243729
0.008249 -0.141346
0.413861 -0.011640
-0.437922 0.159060
-0.008848 -0.252006
0.247826 0.063844
-0.081335 0.129123
0.046253 -0.272336
-0.019945 -0.274190
0.239976 0.238341
-0.305395 -0.330004
0.252889 -0.274259
0.027072 0.397849
-0.281531 0.081450
-0.184182 -0.177621
0.295797 0.042118
-0.244454 0.265620
-0.423207 -0.393630
0.098826 -0.031738
-0.154614 0.364176
-0.434796 -0.068244
-0.182515 -0.300808
0.446436 0.023011
-0.282043 0.004145
-0.322584 -0.193820
0.260268 -0.099943
-0.239248 0.246113
-0.633315 0.028231
0.124744 -0.132562
-0.228886 0.168750
0.223758 0.443204
-0.240041 -0.270205
0.370363 0.349224
-0.059656 0.088333
-0.009999 0.055371
0.104572 -0.047491
0.041436 0.532070
-0.060818 0.022732
0.235565 -0.194648
-0.360625 0.210054
-0.400191 0.340703
0.265716 -0.453496
0.111038 0.070451
-0.140069 0.439131
-0.250182 -0.195173
0.555124 -0.360444
-0.038099 0.388274
0.188762 -0.159750
-0.076914 -0.493549
0.411659 0.347616
-0.376675 0.053508
-0.180996 -0.280781
0.621984 0.283720
0.116601 0.084305
-0.413378 -0.107677
0.242837 0.200499
0.290474 0.362250
-0.149384 -0.269696
-0.100202 -0.242848
0.170429 0.218664
-0.052174 0.239364
0.115811 -0.409416
0.191197 -0.021715
-0.097599 0.725726
0.207699 -0.352905
0.167561 0.021243
0.348398 0.364227
0.042708 -0.336856
-0.043273 0.097039
0.379667 0.041500
-0.340552 0.222637
-0.398782 -0.138016
0.284365 0.133970
-0.317260 0.160159
-0.055873 0.380023
0.297440 -0.055961
-0.068093 0.041766
-0.228830 0.002356
0.245017 0.120942
0.149315 0.031081
-0.353482 -0.130300
-0.093594 -0.031047
0.387282 -0.151416
-0.210057 0.264964
-0.209656 -0.209032
0.203440 -0.272436
0.111863 -0.056453
-0.131396 -0.095817
0.186902 -0.257027
0.126047 0.261535
-0.062814 0.302220
-0.313074 -0.233376
0.228442 0.123749
-0.053831 0.165236
-0.202009 0.194348
0.284959 -0.143215
-0.039742 0.094062
-0.054359 0.212257
0.041816 -0.267433
0.367723 0.289724
-0.067361 0.357707
0.044709 -0.126832
0.198146 -0.200687
0.093661 0.008144
-0.015262 0.016673
0.006798 -0.197537
0.132970 0.007021
-0.461007 -0.089631
0.022816 -0.200180
0.014470 -0.259599
-0.104726 0.122535
-0.320432 -0.354202
0.029727 -0.253252
-0.176769 0.093612
-0.227054 0.406289
-0.221967 -0.318141
0.432902 0.174507
0.192337 0.017848
0.372128 0.045290
0.374529 -0.324486
-0.064411 0.086728
-0.217162 0.055172
0.100861 -0.452129
-0.075205 -0.007109
-0.143446 0.466944
-0.284328 -0.098665
0.255293 0.090060
-0.191280 0.123597
-0.266496 -0.204717
-0.087014 0.105971
-0.106219 0.203698
-0.066135 -0.008435
-0.230463 0.199321
0.224339 0.153949
-0.201061 -0.072323
0.452027 -0.676122
0.652018 0.171298
-0.169074 0.371094
-0.280852 -0.256569
0.079807 -0.483649
-0.002060 0.339183
-0.185088 -0.093801
-0.076317 0.134905
0.361627 -0.027282
0.044600 0.338546
0.110991 0.140597
-0.208937 0.288327
-0.425819 0.014599
-0.183548 -0.816350
0.072652 -0.563320
0.063082 0.106425
0.210727 -0.032023
-0.121285 -0.242426
-0.195008 0.303173
-0.141466 0.031575
0.389310 -0.363185
-0.275866 0.219207
-0.011542 0.070355
-0.249621 -0.044098
-0.200201 -0.145590
0.104218 0.020834
-0.131053 -0.051538
0.476370 -0.201883
-0.430432 0.332947
-0.220233 -0.260931
0.401414 -0.413345
0.114942 -0.318971
-0.005944 0.137278
-0.186249 0.060265
0.481839 -0.079490
-0.161846 0.390479
-0.190901 0.076360
0.244741 -0.105084
-0.141173 0.152017
-0.100255 0.484176
-0.203787 -0.318561
0.171635 -0.353160
-0.362749 0.147845
-0.119577 -0.262242
0.551796 0.049541
-0.144840 0.358560
-0.079640 0.179768
-0.141677 -0.163790
0.594545 -0.057876
0.124959 0.458522
-0.083150 -0.245337
0.254145 0.134830
-0.269251 0.084734
-0.418385 -0.151013
0.204272 0.214566
0.044154 0.081664
-0.592783 0.253806
-0.216951 -0.201726
0.206199 -0.234280
-0.048432 -0.413899
0.458704 -0.415252
0.458073 0.159464
0.266805 0.543201
-0.564098 -0.227725
0.127239 -0.379684
0.176230 0.108921
-0.153330 0.210329
-0.132558 -0.542017
0.251573 0.026001
0.169186 0.096508
-0.140479 0.285158
-0.129062 0.097438
-0.076376 0.082696
-0.060058 -0.220463
0.262368 -0.145445
0.582332 0.263996
-0.050381 0.176244
-0.142215 -0.739028
0.230878 0.223880
-0.041254 -0.220862
-0.566793 -0.196167
-0.217512 -0.040756
-0.064698 0.414346
-0.273100 0.562463
0.021793 -0.144812
0.236308 0.216984
0.065269 0.275608
0.264362 -0.235326
0.163507 0.000798
-0.138944 0.195722
-0.418427 -0.316169
0.198601 -0.140758
0.173095 0.172117
-0.016982 0.020288
-0.015148 -0.092159
0.301484 -0.020484
-0.363571 0.078322
-0.209233 -0.364677
0.036054 0.230907
-0.197539 0.112505
-0.285822 0.067837
0.046749 -0.250694
0.014006 0.455712
-0.388906 -0.020951
-0.217500 -0.251999
0.223294 -0.202445
-0.131802 0.016307
-0.221958 -0.242620
0.090088 -0.055131
0.052384 -0.358890
-0.248757 -0.197357
0.084365 -0.554429
0.020860 -0.120389
-0.142518 0.050169
-0.151047 -0.248435
0.139533 0.189750
0.207726 0.055244
-0.244045 0.122157
0.140922 0.309557
0.121151 0.214264
-0.434319 -0.084311
0.084379 -0.076369
0.028192 0.080968
-0.090180 0.201226
-0.245618 0.007317
0.176033 0.316589
-0.144942 0.239559
-0.153322 -0.049051
0.258149 -0.113555
0.005805 0.475705
-0.423689 -0.108452
0.204966 -0.348792
0.073092 -0.038303
-0.559474 0.306040
-0.139057 -0.129541
0.184145 -0.114800
-0.134465 0.243400
-0.254441 0.025706
0.051796 0.085022
0.131011 0.271795
-0.645471 0.069507
0.191263 -0.134061
0.332065 0.292950
-0.647693 -0.257811
0.267241 0.339865
0.429401 -0.429818
-0.419591 -0.004271
-0.428048 -0.174444
0.548704 -0.248844
-0.166180 0.063623
-0.259757 0.027602
-0.044208 -0.471759
0.165435 0.573581
-0.030234 0.339416
-0.091884 -0.497189
-0.147153 0.079896
0.059155 0.375070
-0.022055 -0.091652
-0.006180 -0.265229
0.010485 0.273086
-0.260746 0.111524
-0.177231 -0.210484
-0.001641 0.140880
0.107699 0.157674
0.056327 0.081948
0.195218 -0.157409
-0.164482 0.038939
0.195930 -0.104572
0.287516 -0.183834
0.013740 0.207859
-0.262068 -0.185996
-0.173723 0.165251
0.245243 0.300914
-0.030613 0.058013
-0.158726 -0.230169
0.260271 0.218463
0.217315 0.096601
-0.389565 -0.248782
0.275296 0.037850
0.310512 -0.042076
-0.224601 0.088445
0.127701 -0.305784
0.042368 0.489434
-0.169151 -0.002314
-0.280706 0.237066
0.107433 -0.314350
0.219432 0.737075
-0.104153 -0.413694
0.289619 0.209693
0.513381 -0.137379
-0.326211 -0.018637
-0.049290 -0.453729
-0.020810 -0.288342
-0.103032 0.381810
-0.488789 -0.257314
0.072703 0.184523
0.068234 -0.003803
-0.261848 0.255347
-0.118202 -0.384804
0.554527 0.126167
0.058810 -0.005748
-0.191066 0.018388
0.344102 -0.200473
0.190882 0.293856
0.037857 0.096719
-0.146949 -0.063067
0.224984 0.294768
0.086341 0.172371
0.059808 0.087573
0.304964 0.374299
0.008203 0.205881
0.038923 0.220387
0.482055 -0.298246
-0.309743 0.414412
-0.225615 -0.279256
-0.027358 -0.173707
0.487036 0.440817
-0.382110 -0.230939
-0.185915 0.353355
0.341215 -0.094507
-0.179632 0.281309
-0.198496 -0.582691
0.560327 0.113052
0.158039 0.472086
-0.269468 -0.092516
0.412160 -0.339523
0.171130 0.509969
-0.379859 0.219376
0.066623 -0.466307
0.122177 -0.339636
-0.274176 0.402597
-0.419209 -0.414703
0.512642 -0.225961
0.178553 0.549742
-0.793288 -0.259676
-0.028486 -0.387478
0.506704 0.072537
-0.409867 0.150134
-0.025183 -0.419202
-0.131392 -0.193950
0.116125 0.623977
-0.484867 -0.571582
-0.259329 -0.050240
0.495185 0.336218
-0.649085 -0.009358
0.465594 -0.357661
-0.006358 0.176481
-0.506379 0.528652
-0.251066 -0.359842
0.290189 -0.094933
-0.240292 0.010790
-0.513992 0.013511
0.317163 -0.172673
0.252359 0.457902
-0.255729 0.087154
-0.235594 -0.769146
0.300056 0.285512
-0.223090 0.371229
0.140439 0.005342
0.280800 -0.240426
-0.273828 0.205826
-0.127024 -0.595754
0.424101 -0.272098
0.007020 0.079349
-0.303550 -0.359310
-0.247894 -0.223876
0.335421 0.451580
-0.619194 0.841549
0.269779 -0.588097
0.477335 0.214345
-0.295512 0.566647
-0.448771 -0.394621
0.449060 -0.499549
0.218901 0.370601
-0.661417 0.204258
-0.092475 -0.367162
0.395611 0.216650
-0.192924 -0.051710
-0.382329 -0.549551
0.438277 -0.292700
-0.562487 0.858193
-0.468628 0.061512
-0.244167 -0.531612
-0.270415 1.091093
-1.042645 -0.123214
-0.702723 -0.377974
0.391658 -0.346820
-0.729001 0.246448
-0.719746 -0.073932
0.027874 -0.249572
-0.443994 1.121346
-0.474591 -0.412579
0.150824 0.026769
0.847061 -0.201631
-0.869446 0.951416
0.223041 -0.827192
0.789346 -0.130940
0.322835 0.537783
0.084427 -0.260864
0.383491 -0.473455
0.607358 0.006598
-0.288099 0.075753
0.972830 -1.039014
0.302896 -0.003976
0.405957 0.058981
-0.371836 -0.100232
1.316632 -1.003784
0.173159 1.186968
0.362417 -0.783243
-0.513311 -0.092807
0.923397 0.152217
-0.574292 -0.001792
-0.085570 0.041789
0.560876 -0.636041
-0.989642 -0.268155
0.443337 -1.115221
-0.775606 -0.937476
1.637464 -0.246974
-1.873246 -1.633091
2.000940 -0.893747
0.383333 -0.687626
-0.588136 0.450448
0.046889 -0.952249
0.283061 -0.586012
-0.820430 -0.058252
-1.270153 -1.212184
1.598042 -0.873268
-0.649029 0.717135
-0.372212 0.305119
-0.411788 -1.845818
1.117211 1.277735
-1.995572 0.228582
0.606635 -0.478224
1.504661 0.137115
-0.022321 3.194598
0.014437 -0.734842
1.246441 0.574191
0.686548 2.566410
-0.987016 0.236647
1.077992 -1.137600
0.797898 1.100445
-0.438719 0.065980
0.190240 -1.886418
1.528595 0.629690
0.009337 -0.780258
-0.595939 -1.005974
1.191824 0.561685
-1.333812 2.576894
-3.964602 -2.372933
2.484932 3.188971
-3.142668 1.765217
-4.456758 2.786938
-0.715797 -1.194868
-0.973010 6.111215
-3.784428 3.146645
-5.533013 2.443003
1.660560 4.173020
-2.596211 2.769976
-8.325681 8.910229
3.743245 -2.735801
-6.137204 4.353552
4.896946 4.525117
-2.607255 5.117897
-0.638572 -1.219377
0.128527 6.298451
-4.669708 5.458153
-6.357679 -2.735085
-11.025760 -8.084971
9.722096 6.096948
-21.570134 -9.486447
-14.864910 -15.421972
4.664163 -2.571191
-3.257218 -14.942471
-36.262721 15.112578
19.138770 -0.489877
10.170514 44.300878
-98.027259 53.451991
-7.986602 103.429301
-803.018130 -419.140442
