17041.818143 7457.873902
-11005.764934 2469.073605
-661.912245 259.648151
-535.565205 1594.472684
-197.450980 -373.255252
-30.080367 275.404764
61.457641 146.184587
-106.271385 -203.510287
-186.986030 -2.496035
8.959913 -88.879675
-127.582695 -40.685611
-145.946200 -37.044611
105.350173 -128.595361
108.799802 71.601380
-28.918376 28.193651
135.320100 4.853472
-14.253138 64.526386
-12.418060 6.869385
-34.718351 19.937520
-11.745062 -21.423840
-34.418601 6.785091
19.643643 12.960351
4.135102 20.459889
-21.558832 15.461654
31.561841 10.379897
-13.178578 13.656439
-6.278729 -20.220067
6.826621 39.788172
-15.410640 -22.764390
-24.020104 40.822231
3.396722 -10.635774
-12.639169 29.729653
-19.554172 -16.683088
28.253573 25.846084
-18.134642 -10.894455
-3.670007 11.541561
-2.249430 -3.945357
-10.608861 -11.193251
-3.495577 4.209765
2.558607 1.051949
-5.253257 -5.555986
0.547403 9.723227
9.078073 4.679371
-19.260057 3.049334
-1.237302 -8.653534
-0.933075 3.501563
-12.349593 -10.359923
-2.242607 6.498907
-5.782293 -12.745606
2.148164 3.962917
-1.540922 -3.415457
2.126698 8.260000
-3.791899 -6.892599
4.396142 3.476772
-4.266588 8.604400
-9.830896 -8.179999
-0.577537 1.378225
-3.267805 -1.845465
3.471796 -3.427518
-8.004655 -0.797492
10.039042 -1.188907
-4.521572 -4.783943
1.315623 7.123436
-3.210026 -5.888464
-0.982908 -2.444092
2.806681 3.434378
-6.773496 1.631108
-2.883586 -4.346833
-0.723025 0.068800
4.065005 -3.580411
-3.297424 2.342948
3.980461 -5.074834
-1.596292 3.227463
2.253105 -1.791984
-7.248524 2.841153
-2.270029 -1.037720
2.802910 -3.623799
-3.714622 1.531502
2.692018 -1.264805
-1.801258 -5.193235
1.070535 1.236815
2.583608 -0.859555
-1.015739 -1.133043
-2.490377 2.457072
3.354973 -0.465805
-3.426268 1.704201
-2.037503 3.628574
-0.901057 -4.954416
-1.573510 2.526654
0.549900 -2.855183
-2.494526 -0.202466
1.671913 -2.023721
-0.731340 2.139470
0.177698 1.540481
-3.051477 0.659176
-0.685049 -0.564640
-1.066334 0.839995
1.166187 -0.029199
-5.242410 0.270993
3.797562 -0.221702
-3.056474 -2.008277
-0.179490 2.471589
-1.335990 -1.885990
-1.467151 0.293691
-1.104898 1.219292
1.853701 0.164817
-2.444418 0.592107
0.586722 -0.335857
-0.025246 -1.196240
0.339214 1.633635
-0.330377 -0.617540
0.830155 -0.153964
0.473435 -0.097339
0.357501 0.585412
-1.484900 0.650091
0.563842 -2.677829
-1.045127 -0.499639
1.291081 0.014076
-0.890488 -1.817665
-1.122856 0.145046
1.845098 -0.077087
-2.261933 0.002380
-0.503793 1.352456
0.694364 -1.046922
-0.671173 -0.014965
0.295474 1.883801
-0.623759 -1.020255
-0.814267 -1.009827
1.351278 0.576452
-0.144886 0.063714
-1.908132 0.108920
1.149342 -1.899358
-0.647365 0.904516
0.964136 -0.103355
-2.247618 -0.310093
0.454427 -0.448319
-0.437796 -1.230039
-0.167627 0.237757
0.811453 -0.591711
0.266281 -0.249468
0.083060 0.555691
0.216017 0.927568
0.153835 -1.910981
-0.162576 2.182496
1.123920 -0.920387
-3.140473 1.106997
0.523125 -0.541584
-1.582649 -0.075208
1.257658 0.246930
0.210445 0.564526
-0.163451 -0.177641
0.010562 -0.464118
1.218235 0.846675
-1.019278 -0.177124
0.766574 0.329929
-0.993621 -0.801160
0.254205 1.273262
-0.677899 -0.793549
-0.604479 -0.044103
1.338638 -0.209108
-0.231530 -0.633339
0.115072 0.630892
-0.311258 -0.571606
-0.895691 -0.278240
-0.383458 0.994010
0.016586 0.306237
-1.248281 -0.562902
0.469293 -0.724012
-0.454811 -0.673272
-0.068981 0.169309
0.078614 0.281168
-0.141653 -1.189819
0.719965 1.232170
-0.626696 -0.828071
-0.235222 -0.178053
-0.685332 0.082821
-0.662484 1.189386
-1.037964 -0.058859
-0.007398 -0.281610
-0.499930 0.004750
0.600020 0.201905
0.905795 0.064819
-0.153464 -0.100972
0.987461 -0.840125
-0.557521 -0.178699
-0.148247 0.188795
-0.487373 -0.280536
0.122403 -0.045901
-0.204066 0.503523
1.214402 -0.570406
-0.240629 -0.025206
0.258921 -0.039700
-0.553834 0.078170
-0.387357 -0.888527
0.289210 0.104702
-0.103599 -0.133898
-0.205133 0.550671
-0.424976 0.124529
-0.739252 -0.583501
0.281531 0.225486
0.562827 0.343450
-0.200241 -0.384360
-0.127341 0.382949
-0.441566 0.638767
0.384843 -1.217378
-0.437059 0.109715
0.169486 -0.775887
0.621713 0.186365
-0.699609 -0.730546
-0.480890 0.161059
0.040298 -0.649775
-0.095213 0.590958
-0.683942 -0.165268
-0.454498 -0.096136
0.026061 -0.131708
0.661463 -0.680340
-0.319297 0.229859
-0.504039 -1.001948
0.836390 0.080481
0.010680 -0.546908
0.850751 0.519738
0.241813 0.402149
-0.681041 0.074048
-0.095257 -0.062918
-0.535788 -0.227042
0.503917 -0.423946
0.303772 -0.291460
0.924382 0.382918
0.046320 0.486248
0.240562 0.696124
-0.575819 -0.408394
1.016661 0.407719
0.003435 -0.403016
-0.230841 0.117323
0.258058 -0.845155
-0.224501 -0.542600
0.285199 -0.572323
0.181343 0.097327
-0.016065 -0.232959
-0.165428 0.364289
0.111517 0.131913
-0.960003 0.717495
0.546358 0.374869
-0.136464 -0.786423
0.083106 0.249319
-0.170050 -0.405295
-0.230112 -0.377405
-0.118734 0.110351
-0.463719 0.158474
-0.424374 -0.067413
0.250794 0.365309
-0.136072 0.113362
-0.125686 1.066848
-0.254531 0.630802
-0.085329 -0.037832
-0.290061 -0.541829
0.009352 -0.714387
-0.007447 0.839983
-0.172742 -0.648667
-0.435874 0.157138
-0.153153 -0.200609
0.056669 -0.320020
-0.006221 -0.793305
0.094505 -0.243203
-0.102221 -0.426090
-0.184803 0.475817
-0.385393 -0.313538
0.315895 -0.531743
0.407298 0.487883
-0.368981 -0.416588
0.124334 -0.201151
0.155408 -0.317129
-0.296396 0.258291
0.056841 -0.504856
0.259982 0.377657
-0.136363 -0.625676
0.669513 -0.336169
0.238132 -0.633514
0.513131 -0.000403
0.029386 -0.370451
-0.249265 0.190852
0.012893 -0.156934
-0.065550 -0.365994
0.144397 -0.068395
0.128438 0.209911
-0.508968 -0.226605
-0.059529 0.028624
-0.042833 -0.187940
0.069175 0.350074
-0.208425 0.835059
-0.147213 0.022892
0.110707 0.062318
-0.078305 0.033321
0.164487 -0.627805
-0.295630 0.279541
-0.033211 -0.029344
-0.475831 0.172018
0.060093 0.136298
-0.193824 0.279014
-0.278969 0.604089
0.054231 0.393224
0.174400 0.042941
0.050778 0.492620
-0.234555 0.251650
-0.501910 -0.620020
-0.352125 0.077056
-0.143760 -0.691744
0.222918 -0.336811
0.538566 -0.048852
-0.063710 0.091557
0.292549 -0.229595
-0.241056 0.091374
-0.272010 -0.139748
-0.162682 -0.107771
0.177261 -0.267942
0.338363 -0.302251
-0.161237 0.327082
-0.238706 -0.076522
0.216906 -0.199902
-0.099033 -0.288092
0.225803 0.505017
-0.179759 -0.359448
0.033449 -0.151582
0.101719 0.101610
-0.088447 0.295825
-0.489124 -0.163721
0.387024 -0.114758
-0.221257 0.228912
0.197267 0.424208
0.190718 -0.595687
0.391588 0.117971
0.182978 0.063298
-0.494197 -0.379000
-0.258068 0.027437
0.347576 -0.018277
-0.410046 0.006351
-0.513877 -0.312510
0.157967 -0.466694
-0.495777 -0.373138
0.225896 -0.382678
0.068900 0.255305
-0.151776 0.009061
-0.254807 0.141281
-0.048466 -0.298882
0.374143 0.098950
0.015715 -0.258416
0.390741 0.344437
-0.162995 -0.199509
0.571198 0.065669
-0.378773 -0.255350
0.047237 0.022965
0.262755 0.003740
0.123642 0.045635
-0.421648 0.105886
-0.374256 0.191366
0.116045 -0.340186
-0.231418 -0.134708
-0.076310 -0.337153
0.227548 -0.406424
0.066968 -0.053484
-0.294397 -0.094761
-0.106754 0.593367
-0.214197 0.002791
0.038175 0.213141
-0.013955 -0.207025
0.228014 0.263084
-0.243884 0.068660
0.336076 0.274726
0.174298 0.018849
-0.246685 -0.205669
0.139112 -0.393025
0.170039 0.002312
-0.166397 0.026383
-0.110474 -0.041570
0.185631 0.243908
-0.265062 -0.114794
0.330804 0.082786
-0.117939 -0.117189
0.186642 -0.204458
0.268323 -0.237881
-0.057985 0.329784
-0.615163 -0.187142
-0.002866 -0.373729
-0.327776 0.111693
0.073865 -0.296595
-0.057027 -0.401079
0.116873 -0.188390
0.160649 -0.119852
-0.074883 -0.065644
0.033175 0.035669
0.196366 0.045074
-0.019963 0.092431
0.144044 -0.237266
-0.438098 0.272872
0.229924 -0.320921
0.319406 0.037759
0.186178 -0.260866
0.191917 0.084864
-0.109133 -0.254746
-0.113768 0.265180
-0.196103 0.026828
-0.041624 -0.177176
0.025413 0.078725
0.084550 -0.316148
-0.113070 -0.133201
0.050011 0.012821
0.304019 0.014600
0.416604 -0.215828
0.362409 0.033426
0.234691 -0.140314
0.331526 0.357379
0.061177 -0.250638
0.395859 -0.295194
0.175832 0.334142
0.192781 0.024231
0.537722 -0.217620
-0.222365 0.311592
0.323439 -0.103151
0.197504 -0.010642
-0.215510 -0.245545
0.142498 -0.016219
0.142742 -0.001466
0.091020 0.182817
0.399983 0.152622
0.312934 -0.169903
0.104149 -0.012301
-0.365674 -0.038348
-0.161548 -0.147141
-0.286458 0.078581
-0.399476 -0.007494
0.189315 0.068205
-0.379883 -0.045167
-0.016281 -0.143311
-0.278999 0.060520
0.518262 -0.079508
-0.214109 -0.098189
0.407689 -0.079523
0.306195 -0.390316
0.152445 0.126147
-0.170853 0.095768
-0.208797 -0.357745
-0.347521 -0.129097
-0.314574 0.214776
0.086268 0.016564
-0.492437 0.188962
0.392022 -0.072470
-0.153647 0.470937
-0.045269 -0.308561
-0.310728 -0.035669
0.042242 -0.202048
0.197984 -0.159464
-0.295838 -0.229848
0.041984 0.152620
0.263338 0.349727
-0.102704 -0.246384
-0.207701 0.285882
0.334300 -0.048755
0.150845 -0.208858
-0.054073 0.037809
-0.412744 -0.100775
0.502668 -0.328536
-0.072374 0.004188
0.382717 -0.115773
-0.286488 -0.226378
0.227768 -0.474022
-0.087875 0.127246
0.040861 -0.436551
-0.065991 0.132313
0.416020 0.200028
-0.052489 -0.188329
0.489321 0.278325
-0.205153 0.203025
0.441631 0.039112
-0.098389 -0.049462
0.021326 -0.177342
0.011559 0.136108
0.119798 0.311136
-0.129620 -0.135550
0.164177 -0.077081
0.373271 -0.000579
-0.066226 -0.040859
0.265488 -0.057024
-0.266424 0.446407
0.010144 -0.109830
-0.035074 -0.039407
-0.010520 -0.148500
-0.201428 -0.175168
0.235274 -0.315014
-0.296908 0.151882
-0.039241 -0.338206
-0.117757 -0.164582
-0.077573 -0.008587
0.092628 -0.039370
-0.302764 -0.366629
0.256137 0.243616
0.123901 0.221838
0.414751 -0.230737
0.109244 0.065351
-0.011071 0.006893
0.176557 -0.090109
-0.024492 -0.046823
-0.002827 -0.001736
0.037534 -0.074665
0.086702 -0.006934
0.193988 0.130398
-0.434271 -0.212043
-0.222135 -0.103880
0.186447 -0.009991
0.287740 -0.195315
-0.425501 0.332248
-0.078351 0.078314
0.087551 -0.424554
-0.292723 -0.092107
-0.450478 0.164307
-0.040199 -0.288061
-0.252951 0.004379
-0.090110 0.364612
-0.499392 0.205674
-0.316398 -0.411458
0.009715 -0.003713
0.064225 -0.128801
-0.038186 -0.401249
-0.009045 -0.147454
-0.141434 0.045360
-0.247746 -0.042630
-0.076352 -0.265156
-0.108828 -0.147060
-0.039519 -0.011683
0.002632 -0.137712
-0.206791 0.169723
-0.346260 0.117160
0.084101 -0.096250
-0.068472 -0.144570
0.385746 0.030432
-0.120082 -0.011685
0.250726 -0.001988
-0.276527 0.144958
0.019582 -0.056513
-0.137508 -0.107430
0.273749 -0.104640
-0.032916 -0.032313
0.265806 0.030188
0.194184 0.294550
-0.009991 -0.230940
0.434920 0.029515
-0.223041 -0.058404
0.002146 -0.380260
0.087864 0.016687
-0.032970 -0.032977
0.074399 0.088481
-0.213499 -0.192051
-0.078520 -0.251749
0.079028 -0.045879
-0.086430 -0.153802
0.033650 0.022992
0.316275 0.029229
-0.114509 -0.324084
0.015876 -0.024560
0.178845 -0.143537
0.243423 -0.277055
-0.369014 0.112620
0.215599 0.194463
-0.003835 -0.196096
-0.111579 0.182533
-0.191942 0.056228
-0.025872 -0.108696
-0.679007 -0.022424
-0.330016 -0.039607
-0.199638 -0.262002
-0.300106 0.301446
-0.466980 -0.161240
0.328826 -0.297846
0.115469 -0.002080
0.340652 -0.002689
-0.014774 -0.199510
0.430686 0.051682
-0.166480 0.360437
-0.160352 -0.147024
-0.008990 0.117313
-0.065894 -0.203947
0.544663 0.108439
0.171512 -0.150066
0.353442 0.149195
0.066152 0.004278
-0.099949 -0.217636
0.181610 0.236866
-0.242406 0.069000
0.053460 -0.253139
0.203100 0.264008
0.054751 0.135331
-0.238108 0.193794
-0.007686 -0.209297
0.353605 0.274662
-0.311682 -0.045354
-0.156287 -0.177004
0.039067 0.177190
-0.031960 0.120490
-0.111781 -0.018926
0.177700 -0.090998
-0.056339 -0.394675
0.062769 -0.078453
-0.156887 -0.151760
-0.083821 -0.183621
-0.275269 0.011891
-0.191035 0.158301
-0.050587 -0.053123
-0.033482 0.045468
-0.147186 0.037112
0.352676 0.152066
0.300593 0.001938
0.003215 0.140852
-0.129016 0.125325
-0.280596 0.101420
-0.371003 0.055486
-0.038451 -0.016788
-0.039992 -0.210018
0.549102 0.301010
-0.260271 -0.160107
0.140181 0.073623
-0.295344 -0.116723
0.142073 -0.059174
0.039475 -0.100505
0.048739 -0.083255
-0.245821 -0.102022
0.479338 -0.015607
0.004108 0.222920
-0.027279 0.122228
0.078045 0.160377
-0.039834 0.122756
-0.155926 0.206078
-0.149003 0.064947
-0.058084 -0.017650
0.017171 0.103108
-0.110006 0.096080
0.101739 -0.176925
0.069061 0.275055
0.013048 0.037194
-0.338826 0.026851
-0.193949 -0.087680
-0.204132 -0.193227
-0.233743 -0.237397
-0.008561 -0.168843
0.036374 -0.111649
0.258731 -0.130307
0.244160 0.116837
0.140286 -0.067006
0.046741 0.128225
0.206979 0.181470
-0.049879 0.089248
0.364525 0.225365
0.120798 0.364824
0.074403 0.063474
0.269798 0.302006
0.318062 0.106618
0.045406 0.034744
0.077604 -0.033892
0.226712 -0.122161
0.136654 -0.068129
-0.062034 -0.034235
0.275151 -0.033593
0.007855 0.234453
0.039983 0.157151
-0.118759 0.244001
-0.177866 0.324157
-0.095960 0.033833
-0.300758 -0.041276
-0.115429 -0.326033
0.272828 0.000688
-0.148414 0.060764
0.217323 -0.151040
-0.259163 -0.331897
0.083282 0.212690
-0.156783 -0.239571
-0.191913 -0.192276
-0.096715 0.209225
0.039212 0.078341
-0.037075 0.152365
0.045825 0.216806
0.013838 0.294655
-0.275312 0.005581
-0.136991 0.057834
-0.142255 -0.038081
-0.168014 -0.096657
-0.539949 -0.203197
0.069928 -0.151087
-0.289901 0.092029
-0.123140 0.173143
0.095723 0.085822
0.275835 0.160368
-0.164412 0.151385
0.056309 -0.274803
0.120507 -0.149012
-0.097565 -0.190739
0.096892 -0.052985
-0.038880 0.145174
0.075231 0.045781
-0.249733 0.222169
0.256144 -0.161217
0.037924 0.062253
0.074917 0.003600
0.181098 -0.068757
-0.005556 -0.027159
0.119768 0.227236
0.235699 -0.098785
-0.291406 0.156770
0.066889 -0.051773
0.077315 0.198796
-0.211315 -0.099885
0.258612 -0.077256
-0.004376 0.498752
-0.008249 -0.068460
0.080162 -0.097898
-0.255395 -0.100116
-0.122974 -0.164507
0.188257 -0.087520
0.096070 -0.053652
-0.045028 0.137211
0.010462 0.109378
0.136515 0.034572
-0.368947 0.131614
-0.237407 0.084908
0.010730 -0.141224
0.370307 0.011195
-0.399547 0.176357
0.175755 0.032534
0.061983 -0.239968
-0.010234 -0.140175
0.180681 0.088325
0.091270 -0.221275
0.133271 0.076655
-0.039874 0.042869
0.374486 -0.147107
-0.190994 0.044141
0.305175 0.007595
-0.029309 -0.186032
0.108199 0.071828
-0.216201 0.085620
-0.114160 -0.163427
0.015697 -0.221744
0.105717 0.090441
0.108100 -0.150345
0.075397 0.141367
0.355022 -0.064947
-0.076936 0.106559
0.055327 -0.083583
-0.080437 0.144156
-0.132493 -0.176000
-0.499915 0.209781
0.051238 0.000968
0.138123 0.046839
0.190025 -0.128483
0.058740 0.075703
0.020416 0.262609
-0.127993 -0.033328
-0.285050 -0.005464
-0.046531 0.166421
-0.153757 -0.253434
-0.107027 0.111997
0.157843 -0.314664
-0.029790 0.040912
-0.024011 -0.002261
0.222234 0.121202
-0.289092 -0.181123
-0.057172 -0.048581
-0.149939 0.059002
-0.091799 -0.315059
0.040423 0.205202
-0.326143 0.097675
0.305720 -0.035026
-0.080185 0.083955
0.101841 0.054611
-0.038949 -0.041692
0.170957 -0.093731
0.023530 0.058195
-0.055287 0.005508
0.068235 0.008772
0.036460 0.082035
-0.182411 -0.091544
0.093832 -0.193955
0.081412 -0.143013
-0.041500 -0.072710
0.158650 0.374560
-0.088744 0.139868
0.227531 0.012486
0.113480 0.250939
-0.023732 -0.224765
0.345542 0.014908
-0.096222 0.124504
0.061219 -0.041889
-0.101596 0.190674
-0.243638 -0.015587
0.269472 0.019370
-0.121913 -0.099650
0.046827 0.052529
0.132058 -0.077428
0.070750 0.059230
-0.099930 0.022514
0.161792 -0.095462
0.070478 -0.087819
0.182701 0.046670
-0.084175 0.229235
-0.045549 0.150947
-0.117304 0.038391
-0.113380 0.041430
-0.031022 -0.137277
-0.145078 -0.193077
0.060698 -0.380872
0.075292 0.295355
-0.065642 -0.060238
-0.007233 0.136814
0.072366 0.140707
0.096302 0.133767
-0.188339 0.013044
-0.120344 0.018279
0.066142 -0.019109
-0.174857 0.100607
-0.037761 -0.210753
0.108699 -0.123684
-0.171915 0.043682
-0.317063 0.050439
-0.158351 -0.083055
-0.029850 -0.001250
0.013373 0.177240
-0.048533 0.235260
-0.128333 0.195389
-0.022995 -0.074432
0.005096 0.080497
0.095043 0.048876
0.050204 -0.266047
0.084201 0.187849
0.078880 -0.084030
0.088374 -0.192621
0.066392 -0.127460
0.231066 -0.042012
0.278934 -0.082320
0.197979 0.020906
0.218585 0.159970
-0.340295 0.117425
0.112496 -0.207788
-0.128489 0.034994
-0.416640 -0.171441
-0.026302 0.136322
-0.054788 -0.223918
0.074845 0.184875
0.144039 0.234190
0.041332 -0.073025
0.132670 0.012028
0.126290 0.360586
-0.368954 0.153338
-0.114631 0.057246
0.040173 0.153974
0.099450 -0.006810
-0.280027 -0.024313
0.137221 -0.054718
0.209915 0.136874
-0.180370 0.115372
-0.102495 0.024340
0.209977 -0.138364
0.071511 0.019672
-0.105933 0.041740
-0.284379 -0.114738
0.000396 0.124951
-0.105285 0.136762
0.034617 0.158584
-0.002046 -0.248011
0.106637 0.134098
-0.277042 -0.177080
0.096652 0.099071
-0.260776 -0.062473
0.160150 0.243413
0.037643 0.068023
0.085348 0.077926
0.273968 0.185651
0.289570 0.009077
0.074210 0.113523
0.021551 0.040005
-0.011923 -0.313031
-0.145162 -0.062031
-0.107694 -0.066016
-0.110721 -0.149314
-0.000890 -0.137630
-0.098334 0.052902
0.017848 0.018324
-0.108016 0.029838
-0.162163 -0.071530
0.064849 0.056935
-0.138882 -0.040874
-0.094659 0.062522
-0.372811 -0.242988
0.072609 -0.017144
-0.193787 -0.001161
0.099153 0.024318
-0.100295 0.300127
0.059414 -0.065425
-0.002990 0.208617
-0.089779 0.246071
0.210399 -0.025615
0.115843 0.040580
-0.126100 0.032915
0.128905 -0.295602
0.056083 0.142310
-0.333438 0.118942
0.097277 -0.032100
0.082214 -0.095330
0.200393 0.146034
-0.078403 0.057564
0.233389 0.139339
-0.244594 0.008942
-0.157523 0.094405
-0.042025 0.011665
0.042049 -0.025645
0.205474 -0.188980
-0.026509 0.186462
0.047286 -0.156543
-0.215600 -0.101218
0.005778 0.059959
-0.031926 0.101202
0.085877 -0.013374
0.333079 0.160903
0.228859 -0.051686
0.191775 0.049408
0.157824 0.183494
-0.024850 -0.210459
0.232229 -0.006016
0.026959 0.148775
-0.222950 0.104753
-0.242513 0.003170
-0.217169 -0.015296
-0.218522 0.241288
-0.116848 -0.233028
0.109401 -0.091013
0.034456 -0.191808
0.117080 -0.219948
0.114696 -0.039129
-0.078923 0.041709
0.227924 0.030155
-0.181584 -0.232105
-0.010440 0.069666
-0.213174 -0.133586
0.308905 -0.117961
-0.110118 -0.155707
0.320389 0.243828
-0.014505 -0.016576
-0.261031 0.171088
0.050358 0.065416
-0.115136 0.185995
-0.200055 -0.364534
0.274447 0.054519
-0.082149 0.088593
-0.006626 0.012773
0.133225 0.242584
-0.083152 0.243257
0.110722 -0.039466
-0.220733 0.046715
-0.217775 0.081608
-0.477663 -0.042743
-0.193712 0.275814
-0.288585 0.131689
-0.334902 -0.105454
-0.079182 0.081082
-0.040275 -0.089593
-0.131943 -0.259272
0.077140 0.082627
0.084899 0.387572
-0.075467 -0.123337
-0.200959 0.074122
-0.260979 0.225100
-0.030982 -0.231884
0.229993 -0.098907
-0.006277 0.221274
-0.045137 -0.211333
0.178973 -0.053606
-0.068852 0.238644
-0.118916 -0.207852
0.302449 0.079452
-0.072772 0.152304
0.260805 -0.153546
-0.268522 0.128061
0.119331 -0.259255
-0.038976 -0.131962
-0.145116 -0.387507
-0.042881 0.085151
-0.016080 -0.022629
-0.022828 0.091924
-0.193814 0.138220
0.061269 -0.046047
-0.029873 -0.029202
0.075127 -0.092768
0.030834 0.000694
-0.068130 -0.109645
0.249940 -0.102193
-0.081590 -0.026328
-0.188785 -0.082140
-0.052497 -0.121655
-0.141084 0.211227
-0.324708 -0.001228
0.017062 -0.133040
-0.010026 0.014648
-0.070113 -0.232397
0.238990 -0.204638
-0.120695 -0.009515
0.016844 -0.224985
0.211731 0.350855
-0.477230 -0.121508
0.222070 0.186747
-0.143649 0.234691
-0.051683 0.004680
-0.118469 -0.106427
-0.003572 -0.261388
-0.210480 0.013433
-0.196867 -0.135766
0.066616 -0.045471
0.101079 0.039746
-0.214201 -0.179185
0.045632 -0.052996
0.052997 -0.262870
-0.092913 0.097485
-0.248400 -0.131406
0.182455 -0.032674
-0.457823 0.076384
-0.049192 -0.085096
-0.054411 0.087608
-0.154666 -0.033295
-0.051650 0.132287
0.065335 -0.198941
-0.160231 -0.007271
-0.182314 -0.280229
0.117246 0.052596
-0.160833 -0.059328
0.005537 0.064366
-0.070334 0.197971
-0.269335 0.115154
-0.259650 -0.013437
-0.202782 0.009895
-0.385324 -0.009762
0.020698 -0.147834
-0.074714 -0.056921
-0.124578 0.086129
-0.169293 0.027103
-0.139030 -0.193916
0.004698 -0.111483
0.245070 -0.090083
-0.209452 0.123061
0.069047 -0.215260
-0.002541 0.063485
0.268556 -0.054445
-0.182885 -0.188057
0.005739 0.031286
0.042491 -0.089032
-0.011277 -0.180632
-0.053470 -0.024070
0.121270 -0.134278
0.026882 -0.076669
-0.047700 0.015743
-0.106265 0.066771
0.011316 0.124929
-0.345483 0.019696
-0.098740 -0.195856
0.155531 0.117473
-0.336390 -0.027285
0.053139 -0.229348
-0.026896 0.078580
-0.096594 -0.096588
0.041771 -0.072531
-0.104192 -0.014480
-0.063149 0.034011
-0.092921 -0.127894
-0.329132 -0.129714
-0.022289 -0.145393
0.095785 -0.363664
-0.071472 0.082200
-0.041654 -0.131623
0.098049 -0.220271
-0.002705 -0.022145
-0.034160 -0.081040
0.064671 0.013745
0.048807 0.005612
0.157033 -0.016007
-0.040912 0.233029
0.285250 -0.063716
-0.350902 -0.120380
0.115974 -0.084540
0.110530 -0.237600
0.135996 0.013091
-0.091563 -0.322688
0.231776 -0.061937
0.103939 -0.151007
0.098468 0.078347
0.351642 -0.138443
0.043198 0.410832
-0.236810 -0.081853
-0.033513 0.044673
-0.085069 -0.050253
-0.185693 0.074296
-0.281049 -0.142327
-0.297111 -0.009960
0.067294 -0.141809
-0.119313 0.016971
0.004579 -0.037178
0.224402 -0.175740
0.281221 0.112299
-0.298798 0.129681
-0.078490 -0.140672
0.102371 0.138758
-0.288257 0.124569
-0.203004 -0.126940
0.035796 -0.126551
-0.055135 -0.058359
-0.114035 -0.042317
0.174581 -0.213831
0.109934 0.181035
-0.120133 -0.116324
0.206582 0.255714
-0.225506 -0.075511
0.235692 0.188376
-0.068870 0.100438
0.491942 -0.026340
-0.036653 0.059833
0.037252 -0.097091
0.158898 0.239195
-0.421509 0.222779
-0.042842 0.021716
0.056202 0.026919
-0.210731 0.046336
0.019572 -0.051116
0.140902 0.033079
-0.293381 0.041381
0.048688 -0.280643
0.025723 0.066964
-0.014288 0.081448
-0.033463 -0.187606
0.242394 0.329824
-0.349246 0.008784
0.025789 -0.187558
-0.021904 0.125834
-0.108950 -0.157047
0.225313 0.123739
0.185395 0.160415
0.005970 0.001000
0.126565 -0.223757
0.122569 0.138173
-0.226047 -0.146088
0.166371 -0.198962
-0.026720 0.055745
0.094497 0.149367
0.056254 -0.001912
0.064519 -0.004354
0.097375 0.201562
0.070468 0.220305
0.291139 -0.080980
-0.027434 0.313941
0.206316 -0.183784
0.231131 0.279105
-0.055724 -0.099719
0.115140 0.026439
0.061378 -0.160842
0.041704 0.317493
-0.283015 -0.118742
0.127614 -0.146957
-0.022116 0.247979
0.176680 -0.211398
0.027167 -0.188664
-0.184593 0.184679
0.003070 -0.187863
0.208647 -0.142748
-0.166123 -0.064200
-0.114643 -0.038955
-0.018194 0.059940
-0.197958 -0.230010
-0.037383 0.158888
0.062027 -0.116510
0.048905 -0.095467
-0.022032 0.004548
-0.099168 0.141811
-0.161126 -0.014410
0.162755 0.218558
0.237754 0.088630
-0.029342 0.115596
-0.036135 -0.123043
0.135682 -0.009354
-0.174850 -0.120246
0.035901 0.227136
0.109011 0.156741
-0.084477 0.006596
-0.100175 0.315364
-0.088589 -0.038315
-0.052962 -0.105077
0.007604 -0.023984
0.207391 0.110160
0.018134 -0.172121
0.237388 0.226152
-0.176876 0.627276
0.069652 -0.077665
0.067533 0.251711
-0.119591 0.111827
-0.162775 -0.304810
0.304330 -0.056826
-0.048319 0.176513
0.087739 0.028216
-0.090437 -0.058891
0.155915 0.219970
-0.191084 0.260673
-0.007627 0.290839
-0.044583 0.020273
0.250458 0.216507
0.203139 0.221247
-0.263753 0.033157
0.076459 -0.260217
-0.119994 0.189337
-0.179862 -0.326883
0.085101 0.022017
-0.017283 -0.251144
-0.177603 0.010059
0.118084 -0.141761
-0.178420 0.158112
0.025177 -0.110652
0.096617 -0.124254
0.368285 0.134939
0.101647 -0.147585
0.061159 -0.092992
-0.197759 0.092522
0.235758 -0.128072
-0.274164 0.174899
-0.000507 0.046560
0.054646 0.103620
0.183699 0.052281
-0.181307 0.011978
-0.054975 -0.163146
0.088758 -0.121896
-0.200966 0.020565
0.005911 -0.213274
0.317828 -0.125304
0.066728 -0.295009
0.197376 0.026595
0.028865 0.120799
-0.315217 0.015240
-0.166139 -0.035095
-0.159421 0.042451
-0.299246 -0.107160
0.043397 0.064081
-0.165297 -0.087538
0.291253 0.090740
-0.016165 -0.093060
0.169610 0.054400
-0.226595 0.223672
-0.134532 -0.259712
0.103333 0.079379
-0.083977 0.489101
-0.054653 0.128065
0.084693 0.127417
0.037880 0.125097
0.248128 0.070486
0.185916 -0.093014
0.094432 -0.068401
0.360438 0.037053
-0.272674 -0.044437
-0.042874 -0.148852
-0.010096 -0.078362
0.053158 -0.044001
-0.073266 -0.115291
0.248614 -0.028218
0.034597 0.167147
-0.186125 0.157804
-0.115821 0.172378
0.061356 -0.173977
-0.008700 0.134970
-0.101863 -0.304442
0.081002 -0.003217
-0.066969 0.063108
0.084707 0.417289
0.096954 -0.018977
0.059255 0.153506
0.081037 0.135855
-0.039161 0.090380
-0.366323 -0.192493
-0.254686 -0.062080
-0.156092 0.016883
-0.140971 -0.290555
0.148217 -0.168154
0.176093 -0.205316
0.163635 0.065438
-0.171202 -0.065089
0.172396 0.116193
-0.156196 -0.001660
-0.394461 0.089899
0.010292 -0.253226
-0.122108 -0.011140
-0.075267 -0.046007
0.012227 0.119101
0.398295 0.250984
-0.196061 0.212963
0.214134 -0.101066
0.085843 0.148834
0.339273 -0.148790
0.095781 0.355710
-0.230163 -0.034425
0.067868 0.127579
0.052793 0.115771
-0.167838 -0.160056
0.187154 -0.082785
0.233401 -0.070548
0.071015 -0.081531
-0.247654 0.153789
-0.170011 -0.393036
-0.034028 -0.030991
-0.372558 0.075588
-0.034533 -0.142827
0.153144 0.123454
-0.310306 0.306960
0.052512 0.030749
-0.366633 0.242013
0.160959 -0.131140
-0.174158 0.060342
-0.027013 -0.283358
-0.134740 -0.212698
-0.021635 -0.049764
-0.087750 -0.071614
0.242969 0.055267
-0.136436 0.027320
0.315334 -0.002194
0.086280 0.135682
-0.243358 0.067057
-0.034508 0.125352
-0.033330 0.060607
-0.156207 0.102209
-0.023849 0.156902
-0.092973 -0.108924
-0.049572 -0.284861
0.267951 0.080377
0.087056 -0.085066
0.241767 0.231544
-0.062732 0.114817
-0.135961 0.165911
-0.103183 -0.058583
-0.200145 -0.115574
0.150481 0.114693
-0.189371 0.105696
0.219467 -0.273694
-0.021873 0.129266
0.046880 -0.084073
0.058967 -0.105755
-0.069985 0.005089
0.048722 0.057892
0.017071 -0.176033
0.050952 0.239910
0.138881 -0.228916
0.083870 -0.154064
-0.331341 0.030296
0.158642 -0.239266
0.004801 0.226215
-0.128476 0.303447
0.143468 0.007812
-0.025366 0.275446
-0.086045 -0.130280
0.138496 -0.229911
0.059748 0.014867
0.012499 -0.146797
-0.071082 -0.127007
-0.115063 0.212895
0.109061 0.020200
-0.355312 0.211884
-0.229351 -0.096653
-0.007685 0.183763
-0.152828 -0.230855
0.076338 0.049788
-0.195275 0.229698
0.100198 -0.113646
-0.219993 0.062243
-0.391168 0.006845
0.068060 -0.380689
-0.093093 0.104075
0.292114 -0.120654
0.122439 0.193209
-0.329278 -0.034734
0.266949 -0.157681
-0.278944 -0.023852
-0.134778 -0.322829
-0.042535 0.151281
0.353979 0.051841
0.030536 0.102239
-0.289451 0.100184
-0.251470 -0.022375
0.121742 -0.246482
-0.197433 0.204892
-0.058727 -0.184599
0.329254 -0.214697
0.209940 0.282381
-0.060181 -0.024992
0.045428 -0.071262
0.058788 -0.034883
0.203648 0.254948
-0.191376 -0.161014
0.182677 0.367389
-0.118022 0.053064
0.147823 0.028778
0.000806 0.108159
0.151851 0.043685
0.197078 -0.142142
-0.020286 0.271831
0.026763 -0.086543
-0.056335 -0.068938
-0.035473 -0.107177
0.116992 0.383780
0.023549 -0.273071
-0.359442 0.035838
0.278325 -0.194353
0.373995 0.090051
-0.407995 -0.049062
-0.227696 0.180974
-0.182680 -0.171522
-0.205527 -0.098314
-0.083702 0.079440
0.244113 -0.254071
0.131120 0.421695
0.061431 -0.296253
-0.066580 0.084444
-0.223935 0.234429
0.113153 -0.386437
-0.113213 -0.278634
0.168284 -0.102096
-0.055243 -0.095087
0.293890 -0.096738
0.052588 0.172571
-0.021119 0.051381
0.178925 0.238813
0.044367 -0.152659
0.035214 -0.059866
0.090278 -0.060488
-0.145516 -0.150783
-0.023181 -0.038480
-0.089837 -0.009643
0.028728 -0.103356
0.082641 0.135347
-0.006052 0.069187
0.129223 -0.223745
-0.051826 0.036062
0.139815 -0.081458
-0.008058 -0.262854
-0.030228 0.007488
0.121846 -0.083520
0.122354 -0.122256
-0.334902 -0.003991
0.123155 -0.242883
-0.017770 -0.014612
-0.292424 0.223227
0.274847 -0.009402
0.140026 0.108215
0.070512 0.423770
-0.070083 -0.080306
0.001773 0.157120
-0.467297 0.095412
-0.181836 -0.318153
0.065685 -0.098914
-0.257184 0.159255
-0.225680 0.102111
-0.167465 0.203475
0.113977 -0.010969
-0.280940 0.242781
0.235653 -0.155547
0.210301 0.189827
0.069856 -0.567989
0.088919 0.311566
-0.086150 -0.207256
-0.090393 -0.085441
0.085286 0.204967
-0.141735 -0.126100
0.104247 0.026845
0.378645 0.415309
-0.033286 -0.103373
0.219916 0.079386
0.473776 0.330738
-0.228888 -0.031311
0.218228 -0.067792
0.024802 0.005277
0.299984 -0.045781
-0.099787 -0.028658
0.359781 -0.327267
0.076785 0.167175
0.343643 -0.152733
-0.118356 0.271313
0.048798 -0.048707
-0.334929 0.317771
-0.503033 -0.002903
-0.204496 -0.066441
0.015239 -0.017911
-0.168289 0.055984
-0.120664 -0.261012
0.219796 -0.136419
-0.035737 0.190877
-0.030005 -0.120317
-0.105404 0.224274
0.041679 0.081563
-0.372378 0.185134
0.165303 -0.154261
-0.180942 -0.062663
0.417753 0.219743
-0.478020 0.061422
-0.036489 -0.077930
-0.363783 0.024498
-0.384690 0.075643
-0.669230 -0.380314
-0.081456 -0.307343
0.008470 -0.349181
0.290337 0.077461
-0.113269 -0.325295
0.290508 0.052533
0.233315 0.071371
-0.076584 -0.046926
0.241907 -0.289373
-0.361901 0.306944
-0.110792 -0.159004
-0.166130 0.050611
0.144905 -0.221875
0.212279 0.127551
0.077606 -0.306082
0.297869 0.038438
-0.110928 0.084860
-0.398160 0.168381
-0.078152 -0.173475
0.149471 0.155678
-0.673563 -0.223119
0.127819 -0.118476
0.041570 0.253098
-0.179523 -0.159068
-0.367065 0.428214
-0.281298 -0.342490
-0.092448 -0.110238
-0.000161 -0.131024
0.030165 0.201026
0.387893 -0.271149
0.175225 0.565473
0.295474 -0.254831
-0.147712 -0.013835
-0.026056 -0.357727
-0.007519 0.154639
0.218013 -0.282429
0.075686 0.510645
-0.185436 0.105702
0.069485 0.128624
-0.071678 0.213975
0.121089 0.044134
-0.002532 0.105605
0.300161 -0.178224
-0.274008 0.572074
-0.280401 -0.316818
-0.104946 0.149464
-0.144955 -0.071389
0.178081 -0.163109
0.447253 -0.009373
-0.137943 0.238944
0.093021 0.144536
-0.479839 -0.357306
0.012299 0.026993
-0.296307 -0.136346
-0.361955 -0.430698
0.373946 -0.045231
0.122670 0.221226
-0.364080 -0.246331
0.157247 0.379171
-0.215995 -0.222440
-0.488984 0.322849
-0.338066 -0.115245
-0.211576 0.273878
-0.252029 -0.185027
0.125901 0.465572
0.049731 0.179313
0.102218 0.235705
-0.519050 0.108105
-0.236538 0.052884
-0.060773 -0.135015
-0.505851 0.028274
-0.313708 0.033350
-0.144663 -0.158808
-0.110284 -0.261564
-0.142609 -0.273592
-0.010407 -0.372084
0.129938 -0.343684
0.039555 0.041639
0.255794 -0.032459
0.150570 0.020810
0.072212 -0.195992
0.242187 0.169275
0.121447 -0.204011
0.143291 0.084113
0.574677 -0.050794
0.173319 0.136035
-0.101779 0.131013
-0.365914 -0.303691
-0.041989 -0.497285
0.395970 -0.030053
-0.026025 -0.223012
0.323459 0.083818
0.122695 -0.049550
0.243549 0.133127
-0.143996 0.112821
0.196216 -0.264954
0.184226 0.020116
0.011742 0.134901
-0.514194 -0.043182
-0.170409 0.254299
-0.364312 -0.081910
-0.055101 0.217705
-0.075007 0.164616
0.119404 0.030591
0.232946 -0.492216
0.040507 0.538476
-0.428919 -0.100736
-0.052590 -0.401225
-0.070829 -0.306196
0.158092 0.078687
0.186573 -0.144380
0.030040 0.046744
0.351723 0.711248
-0.160311 0.012156
-0.129657 0.286737
-0.546703 0.127890
0.593351 0.166443
-0.343063 0.406296
-0.122745 0.039467
-0.261974 0.339312
0.306519 -0.422092
-0.030305 0.199968
-0.270457 0.134414
0.092136 0.007757
0.304453 -0.130313
0.433191 0.651662
-0.184164 0.201296
-0.066288 0.354048
0.081068 -0.367912
0.161577 0.145711
-0.251978 0.251767
0.094928 0.088090
0.148841 0.090010
-0.476033 -0.060705
-0.417401 -0.048009
-0.312888 -0.431526
0.478142 -0.294310
-0.042063 0.545660
-0.019827 0.106066
0.136104 0.071821
0.018969 0.143372
0.197105 0.079435
0.123671 -0.078558
0.414425 0.447875
0.024227 0.291346
-0.153948 -0.121580
-0.158252 0.343130
-0.342837 -0.033454
-0.016837 0.070370
-0.171573 -0.024573
0.220205 0.148427
-0.054804 -0.270525
0.172744 -0.336554
-0.200857 -0.220308
0.063715 0.088890
0.026422 -0.464339
0.255219 -0.083603
0.288187 0.054740
0.063561 0.523478
0.062682 -0.168996
-0.303164 0.158275
0.195917 -0.394019
-0.181879 0.007340
0.264848 0.221317
-0.322186 0.057723
0.318312 0.161435
0.184748 0.191876
0.565777 -0.251014
0.305589 -0.051084
-0.140203 0.096792
0.547037 -0.471852
0.260750 0.582475
-0.102181 -0.385449
0.115231 1.156174
-0.332434 0.067481
-0.130713 -0.116636
-0.237667 0.157162
0.379929 0.323539
-0.228059 -0.098938
-0.461251 -0.123571
0.064707 0.018874
-0.521450 -0.447866
0.105483 -0.424190
0.192048 0.261261
0.178837 0.177562
-0.251075 0.364963
-0.329298 0.384207
-0.087303 0.245304
-0.079280 0.098247
-0.205680 0.317701
0.127745 -0.432236
0.418542 -0.027567
-0.049336 0.275987
0.083245 -0.402694
-0.092444 0.042361
-0.433429 -0.072644
-0.266593 0.358198
-0.168390 -0.286142
0.305475 0.315684
-0.142912 0.073734
0.457452 0.007180
-0.315886 0.048448
0.350545 0.166785
0.371640 0.571112
-0.055619 0.511237
-0.134086 0.240664
-0.186779 0.122927
-0.744622 -0.511135
0.218507 -0.101116
0.163953 0.099525
-0.187623 0.129874
-0.119432 -0.296502
0.523935 0.000376
0.070433 0.035203
0.438785 -0.461439
0.063690 0.099435
0.507074 0.248231
-0.105066 -0.082624
-0.195926 -0.156012
0.122254 -0.058111
0.470331 0.027251
-0.072911 0.007530
0.134350 -0.320840
-0.117124 -0.282487
0.075666 0.146185
0.083903 0.036759
-0.149449 0.333774
0.057663 -0.399744
0.656629 0.125107
-0.112143 0.533369
-0.107264 0.249164
-0.202644 0.130029
0.145845 0.244754
-0.078941 -0.182811
-0.420142 -0.118644
-0.261683 0.005138
-0.042161 -0.212283
-0.316213 0.203207
-0.137527 -0.418200
0.007780 -0.492576
0.513526 0.147180
-0.250411 0.199351
-0.357855 0.057619
0.140985 -0.212373
0.247940 0.042532
-0.186129 0.056146
0.015098 0.253262
-0.032548 -0.624935
0.347797 0.327680
0.262674 -0.019759
0.183221 -0.143749
0.256315 0.408675
-0.153249 -0.111160
0.146158 0.224529
-0.471454 -0.131211
0.274077 0.177587
-0.513433 -0.041895
0.364358 -0.016364
-0.467428 0.062232
0.756324 -0.077792
0.066065 -0.472917
0.042718 0.066876
-0.449548 -0.592243
-0.389320 -0.467920
0.148922 0.029480
0.012854 -0.129490
0.076205 0.037369
-0.303735 0.260561
-0.116165 -0.150591
-0.033432 -0.076096
0.352028 -0.491861
0.086751 0.183669
0.889085 0.097368
-0.423390 0.227246
-0.501279 0.123193
0.300012 -0.019454
0.077995 0.029269
0.124107 0.067472
0.395906 -0.124537
0.081863 0.248605
0.575275 0.153369
-0.422476 -0.463452
0.048621 0.550160
-0.200977 -0.690955
0.374897 0.038902
-0.457899 0.939879
-0.120763 -0.492826
-0.467747 0.288729
-0.036067 -0.229643
-0.418631 -0.316360
0.122006 -0.455273
0.599247 0.099263
0.268821 0.397747
0.643443 0.655252
-0.363550 -0.090129
0.287613 0.032936
0.214521 0.148622
-0.045664 0.181529
0.304611 -0.008563
0.130098 0.041275
0.012376 -0.154454
-0.501881 0.024088
0.086790 -0.532596
0.396759 0.166986
-0.145797 0.044469
0.048837 0.400292
0.414368 -0.107854
0.078364 0.222473
0.007400 0.454089
-0.301822 -0.369083
0.313314 -0.020207
-0.202236 -0.046166
0.070343 0.393469
0.256631 0.254039
0.245637 0.298796
-0.481753 0.004350
0.504742 0.129529
-0.389264 0.212358
-0.271361 0.117330
0.213823 -0.122389
-0.257075 -0.104387
0.739988 -0.147621
0.345217 -0.236981
0.246214 0.797951
-0.116018 -0.155582
-0.063688 0.057652
-0.399982 0.009730
0.172667 -0.775013
-0.039666 0.167732
-0.754922 -0.055388
0.143840 0.172375
-0.717183 0.199291
0.254887 0.033121
-1.014805 0.131457
0.384631 -0.420265
-0.418390 -0.286561
0.667800 0.067774
-0.485894 -0.153266
-0.558408 -0.924093
0.509870 -0.672131
-0.157933 0.111272
-0.186873 0.087564
0.045849 0.168425
0.475899 0.211529
-0.086862 1.085165
0.076288 0.059472
-0.206653 -0.210091
0.574987 -0.092788
-0.108115 -0.223569
0.042688 0.289876
0.690593 -0.205114
0.216613 0.881417
0.519250 0.446714
0.590206 0.081942
0.199106 0.280024
0.242018 0.389843
-0.523174 -0.393617
-0.483903 0.786981
-0.515843 -0.691272
0.446863 0.173660
0.254934 1.071848
0.439024 0.075747
-0.309451 0.505197
0.139087 0.007228
-0.688101 -0.248216
-0.369777 0.796408
-0.204552 -0.489808
-0.164035 0.123960
-0.078470 0.451512
0.009573 -0.068864
0.308683 -1.139508
0.730818 -0.064810
0.152394 -0.069725
0.590480 0.224444
0.073076 -0.295545
-0.688224 -0.076733
-0.171739 0.039154
-0.674007 -0.067536
0.172474 0.416790
0.006215 0.046991
0.065976 0.996653
-0.300121 -0.033924
0.060787 -0.371806
-0.624162 0.194790
0.504527 -0.396216
-0.151284 -0.108848
0.559714 0.106624
-1.022673 0.157855
0.071260 0.451469
-0.208174 0.318175
0.134279 0.010707
0.491652 0.869188
0.331593 0.066584
-0.243637 0.571843
0.272356 0.022901
-0.278859 -0.519413
0.792678 0.207786
0.340636 -0.181712
-0.419295 0.373925
0.109361 -0.351108
0.156062 -0.406854
-0.377742 0.309482
0.550987 -0.853463
0.795233 0.057890
-0.438423 0.858396
0.232558 -0.149416
-0.246650 0.826193
0.165054 0.315017
-0.304585 -0.008510
0.704522 -0.085165
-0.554216 0.149140
-0.336722 -0.340660
0.087415 1.097988
-0.911588 -0.586828
-0.221441 0.053385
-0.448666 -0.141557
-0.049826 -0.242097
1.203529 -0.056988
-0.695353 0.728861
0.179040 0.946367
-0.672518 0.365028
-0.262108 -0.522433
-0.394718 0.340613
1.212148 -0.117978
-0.970104 0.274632
0.127310 -1.072557
-0.787799 -0.203499
0.924257 -0.441062
-0.458903 -0.750277
-0.169909 -0.003078
0.305780 -0.098280
0.128786 0.418648
-0.193365 0.245291
0.349777 0.267826
0.652381 -0.294748
0.039425 0.413601
0.072077 -0.568575
-0.201303 -0.019193
1.301464 0.348447
-0.218370 0.730538
0.010673 0.331435
-0.006853 -0.184762
0.349869 -0.067578
0.633679 -0.164589
-0.247208 1.569672
-0.116976 -0.683814
0.766715 -0.383065
0.499720 -0.180984
-0.660180 -1.113684
0.813371 0.387953
-0.699360 0.485278
0.217659 -0.369740
-0.828179 0.929197
-0.411253 1.192489
-0.361595 -0.289600
0.439206 1.618063
-0.095061 -0.651196
-0.516651 0.142713
1.098246 -1.278060
-1.252606 -0.001585
0.030116 0.963029
-0.906079 0.661650
0.670675 -0.012066
-0.118975 0.885744
0.977593 -0.078227
-1.543406 0.967072
0.303245 -0.604995
-0.361144 -0.228888
0.069687 0.503214
0.447411 0.299388
-1.048781 0.227719
1.120429 0.413935
-0.704296 0.241017
-0.055160 1.014383
-0.183684 -1.005644
0.702524 -0.617122
-0.746928 1.079638
-1.564455 -2.092773
0.486647 -0.365239
1.318921 0.224746
-0.224704 -0.099288
-1.065945 1.052287
0.602771 -0.466516
-1.275738 -0.472313
1.011354 1.467153
-0.295335 -1.476129
0.264318 1.301031
0.188633 0.440886
-1.949598 -0.291897
0.316971 -0.533125
0.724747 0.033232
-0.321687 0.465332
-0.986629 1.297376
-0.690354 -2.090729
0.534893 0.785591
1.052648 -0.928798
-0.357793 0.937804
0.006758 0.012303
2.179415 -0.830728
-0.607296 1.884795
0.814897 0.552642
-1.061336 -0.777753
0.020217 1.407095
-0.972546 -1.223149
-0.829965 0.108065
0.822109 -0.075323
-0.699093 0.669332
-0.713210 0.882462
-0.839454 0.652621
1.025248 -1.721880
1.109475 3.021489
0.709129 -0.211905
-1.176265 1.295936
1.588296 0.506811
-1.227758 -1.406751
1.235260 1.671006
0.074194 -1.623697
1.525079 1.705699
-0.499600 -0.969058
1.103677 1.362351
-3.041541 -0.904304
1.169933 1.853295
-1.349478 -0.611573
-2.383290 1.529221
-0.736738 -1.908399
-1.550131 0.537727
-1.609343 -0.779527
0.264400 0.279189
0.312862 -0.748711
-1.393275 0.014318
2.774242 -0.779949
-0.970678 1.554302
-2.588521 1.948574
-0.788471 0.406832
-4.474521 -0.450011
0.633316 0.694869
-1.976105 -1.947541
-0.192736 -0.035179
-0.702168 0.494706
1.785018 -1.244664
-3.915303 0.933729
2.122408 -0.602344
-0.505539 0.016207
-1.994696 4.590314
-3.285249 -2.548352
-1.140767 -0.248559
2.224693 -1.358307
-1.340011 1.589320
0.427761 -2.178543
-0.924978 0.051703
2.095932 -0.813509
2.385361 3.904596
-3.120251 -1.204479
-0.459830 1.048559
0.642902 0.635163
-4.821222 -0.805025
1.921515 1.171426
0.690191 -6.639697
3.038415 4.971306
1.863696 0.157554
-1.679242 -1.374930
-2.544377 0.164962
9.686379 -0.316806
-7.658543 5.443201
3.934532 0.696952
0.907741 -0.641203
-0.357464 4.583744
1.617617 2.092071
-2.283535 -3.821080
2.164237 4.372984
3.660320 -2.009368
-2.516593 0.290576
0.525840 5.373956
2.685240 -9.605648
-1.366918 13.334688
0.817614 -2.505150
-1.770030 -3.157093
6.569061 7.795834
1.394389 5.694899
-8.723349 5.200419
-0.211102 4.617376
-1.512426 0.145914
-4.800037 -0.771583
7.783740 13.041838
-10.222474 -6.916491
11.614134 12.505830
-8.664115 3.145054
2.099856 1.593584
-1.047804 1.151246
4.336751 8.457452
-8.317913 9.001376
-0.652718 -7.548426
-8.386837 18.097883
-0.601756 -13.244026
-5.564393 -0.520284
0.558230 0.133620
8.651288 -5.185756
-8.505465 5.526788
-7.287786 26.727503
-2.684592 -11.109755
-42.521257 22.415795
8.345853 13.033024
-35.397845 -27.383132
12.610899 18.071790
-27.198556 7.555162
7.488088 -53.904182
-34.920474 24.422396
33.822117 -14.128303
-23.528709 -7.562459
-14.648651 70.633815
0.169003 29.483405
-61.060913 3.667093
-56.895625 61.693590
-41.263907 -93.024801
5.914856 -147.026000
-30.211623 80.751650
26.071348 -149.866767
-118.053843 -29.187752
63.825451 234.405364
-68.578168 2.290037
-122.481497 193.952155
426.886891 254.271132
338.751441 93.605727
-288.329618 692.358825
-3849.067967 -1789.292911
