24740.413883 8538.188867
-10297.148703 3249.941470
302.842223 -817.369142
-1251.251039 746.277409
-394.117947 31.071009
80.316272 134.862580
-115.117478 -83.090601
-168.537077 -245.804483
4.848312 61.947152
73.138348 -95.130086
55.685333 -16.827902
-27.126460 -118.831101
43.639377 108.069812
-20.527486 -35.116840
42.177733 -16.931701
-64.256418 -42.621157
-1.442834 -12.396296
-9.509768 -43.045620
-21.631576 -39.136926
-28.790209 -39.228163
2.178851 19.387792
-44.990566 -0.903401
-4.534009 6.281528
-21.607352 61.091284
-22.628298 6.339039
0.867885 13.367474
-31.560724 9.122014
1.020096 14.550629
-9.972645 7.173545
-3.665690 -1.204546
-19.703873 21.681421
-3.592481 31.227404
-2.262145 2.587789
9.210799 3.068255
-24.120815 5.224580
6.918834 -8.929396
0.441676 -6.510531
-6.312198 -14.311257
-14.519186 -2.739512
0.089248 4.218472
-0.995059 1.766545
-7.601615 -5.545298
-10.065192 0.125396
-8.161023 0.611107
-6.992963 -7.239916
-16.312822 -0.954663
-11.442991 3.280500
-3.626395 8.975594
0.071461 6.888780
-2.286607 6.704224
5.343167 2.590193
0.829153 -0.608149
-0.929248 -8.030132
-9.489625 -3.839924
-2.911233 -3.057893
-6.291996 5.122137
-5.693704 1.961228
-0.377715 10.806549
7.196497 10.310146
6.630756 1.833844
6.989325 -0.049438
3.697871 0.239559
7.779188 -1.637130
2.288201 -6.118633
0.721592 -3.490001
3.395851 0.656398
2.937231 1.021132
4.216300 -5.130993
0.972710 -1.808083
1.441396 -2.617963
0.191321 -5.481521
0.914502 -4.846453
-3.044847 -2.594255
2.030951 -2.211996
-0.199535 -2.211407
2.617909 -2.785957
1.672547 0.267043
1.858867 -3.305511
-0.656659 -4.511550
-1.269177 -2.320985
-2.947286 -2.411523
-0.100092 -2.025642
-2.429355 -1.243783
-2.156098 0.998337
-0.579334 3.544372
0.179111 0.847219
1.191854 0.231633
-2.214870 1.837557
0.310187 0.801328
2.260045 -2.219610
0.598975 -0.647090
-0.963298 -1.435519
1.572269 -0.199009
1.637380 0.530212
-0.891401 -0.963655
-0.322356 0.434455
0.926698 0.660486
1.335615 0.604671
-1.208789 -1.929198
0.008695 -0.547652
1.411342 -0.126931
-0.755106 -1.580614
-0.936743 -0.869863
-0.674446 2.104885
-0.868747 0.204241
-0.357464 -0.489287
-0.376766 0.202943
1.278143 -0.237561
1.692170 -0.889131
-0.985360 -1.767670
0.410986 -1.039346
-0.381375 -0.395220
-0.172416 -1.368814
-1.044419 -0.611665
0.516517 1.247208
0.678484 0.731068
0.517835 -0.816006
1.206137 -0.150459
0.326147 0.288584
0.592888 -0.485174
0.221877 -0.966159
0.140765 0.028185
-0.352755 0.004220
0.772688 -1.076407
0.375097 -0.323090
0.342530 -0.598774
0.669642 -0.705335
0.878833 -1.744632
-0.098706 -0.943149
0.362217 0.361680
0.785974 -0.741859
1.392197 -1.096507
-0.365947 -0.206008
0.215281 -0.112542
2.040722 -0.227628
-0.104505 -0.685768
-0.199627 -0.841459
0.296265 0.757892
1.044417 -0.535788
1.106083 -0.364155
-0.355365 -1.021833
-0.030341 0.159589
0.607426 -1.068097
0.766465 -1.016704
-0.698823 -1.255432
0.349123 0.301188
1.128869 0.603905
-0.265543 -0.632614
0.501848 -0.811095
-0.287426 0.448095
-0.391763 -0.741579
-0.657192 0.229534
-0.508908 -0.267735
0.181813 -0.096886
-0.724825 0.431609
0.347073 0.446165
1.654581 1.530203
-0.453716 -1.226700
0.080876 -1.337251
-1.085733 0.844209
0.342590 -0.504492
-0.065876 -0.471252
-1.080592 0.247871
-0.745690 0.842084
0.529364 1.403971
0.539263 0.305273
-0.091053 0.498783
-0.069461 -0.729921
0.081128 0.530959
0.354495 -1.284533
0.123349 -0.715470
-0.530674 0.139151
-0.822587 -0.515191
-0.330428 0.190951
-1.355468 -0.295753
-0.421043 0.764465
-0.867219 0.338026
-0.215136 0.285304
-0.881525 0.421474
-0.392563 -0.243645
-0.371295 0.029318
-0.493444 0.116227
-0.348362 -0.927794
-0.494099 0.306600
-1.028337 -0.368332
0.376577 0.906674
-0.268013 0.073480
-0.134353 -0.174518
0.074727 0.540914
-0.384752 0.285602
0.310321 0.930766
-0.037691 -0.259482
-0.525808 0.106927
-0.426773 0.417591
0.857481 0.871070
0.849775 0.334400
-0.215614 0.102636
0.103845 0.701091
0.551992 0.097910
0.834170 -0.439601
0.876840 -0.301992
-0.509740 -0.096731
0.456919 0.564259
-0.037416 -0.226856
0.216061 -0.656410
-1.124487 0.016225
0.673144 0.335195
0.165442 0.307420
0.074975 -0.649133
0.033021 -0.343529
-0.075018 0.346793
-0.388547 -0.841437
0.519217 0.052726
-0.558660 -1.115720
-0.215488 -0.322151
-0.491079 0.276400
0.243580 -0.095014
0.463019 -0.395411
-0.967681 -0.680291
-0.035531 0.072147
-0.069293 0.072727
-0.130903 -0.353752
-0.105028 -0.961286
0.006012 0.052544
0.369950 -0.267833
0.930420 0.109301
-0.040769 -0.503121
0.132834 -0.106891
0.144341 -0.470330
-0.173777 -0.532037
-0.460730 -0.519430
-0.192144 0.096578
-0.552364 -0.791144
-0.254437 -0.742179
-0.143751 0.357513
-0.542323 -0.403879
-0.283886 0.769968
-0.535608 -0.248588
-0.168223 -0.481215
-0.329469 -0.144792
0.037798 0.100575
0.236194 0.062773
-0.567205 -0.382359
-0.794656 -0.531823
-0.649740 -0.405807
-0.362691 0.042943
-0.159003 -0.033588
-0.382702 -0.212886
-0.129313 0.342271
-0.315844 -0.368263
0.417807 -0.013157
0.143929 -0.019051
0.350361 -0.815847
-0.314904 0.173215
-0.172616 0.203630
0.279687 -0.073915
-0.387711 0.026179
0.031523 0.032504
0.078284 0.175651
0.331384 -0.438987
-0.141998 0.070329
-0.352856 -0.308558
0.172767 -0.277727
0.303800 0.086613
-0.216346 -0.262696
-0.003939 0.665907
0.309086 0.616500
0.299653 -0.293958
0.270614 -0.265722
0.039605 -0.698517
0.000678 0.238638
-0.183380 -0.227769
0.032830 -0.721620
-0.579061 -0.020453
-0.445733 0.338312
0.252149 0.667306
-0.250406 -0.086496
0.255254 0.092243
-0.195515 -0.408350
0.318288 -0.082293
-0.085330 0.710748
-0.043690 -0.007314
-0.786143 0.095149
-0.373553 0.044906
0.100060 0.197609
-0.015312 0.517248
0.165681 -0.079588
-0.346359 0.222106
-0.277905 0.162521
0.056975 -0.241315
0.281339 0.116022
-0.391600 0.386645
0.233576 0.525512
-0.284383 -0.259216
-0.030696 0.395741
-0.104649 0.388100
-0.224378 0.296756
0.183941 0.258268
-0.312406 0.716560
-0.397439 -0.446196
0.145506 0.670636
0.007290 0.071490
-0.164776 -0.223543
-0.078086 0.066572
-0.165673 0.355642
-0.170207 0.515041
-0.093061 0.015197
-0.109126 0.203281
-0.098288 -0.148979
0.077160 -0.051767
0.133223 -0.024564
-0.139226 -0.009522
-0.235224 -0.055541
-0.185547 -0.337554
-0.072254 0.414789
0.401162 -0.042770
-0.175316 -0.020100
-0.238594 0.048701
-0.135715 -0.287227
-0.050174 -0.277963
-0.298678 -0.057720
-0.166078 0.099590
-0.323468 0.361482
-0.268592 0.101724
0.417572 -0.290662
-0.001190 0.248955
0.268801 -0.041689
0.413518 0.380067
-0.364366 -0.375492
-0.084337 0.068174
0.231868 -0.404553
0.226140 0.288101
0.407048 -0.149299
0.338779 0.016060
-0.015930 -0.085296
0.076801 -0.259515
0.244426 -0.275250
-0.011842 -0.282759
-0.312845 0.124310
-0.193359 -0.291625
0.041375 0.169635
0.024914 -0.079098
0.017839 -0.170626
0.626070 0.434805
-0.135209 0.009527
0.103111 -0.166456
-0.168900 0.432100
0.106409 -0.216088
-0.156313 -0.000028
-0.211862 -0.033020
0.367995 0.069941
0.215566 -0.144866
0.253662 -0.038684
0.273600 -0.069809
-0.072377 0.012727
0.143910 0.009143
-0.166682 -0.168507
-0.182712 0.230229
-0.122444 0.573750
-0.304003 -0.077742
-0.108276 0.074159
-0.195120 0.110809
0.343633 -0.217218
0.045062 0.093885
-0.123467 0.017270
-0.084493 0.256863
-0.168294 -0.170127
0.163571 0.025959
-0.216582 -0.126939
0.072056 0.149967
0.298829 -0.106009
-0.109921 -0.377368
0.030591 0.193313
0.378453 0.195379
0.071312 0.174614
0.050681 0.124558
0.023095 0.207307
0.117310 0.144652
-0.279778 -0.178636
0.084535 0.053943
-0.314747 -0.211465
-0.106100 -0.199879
0.182816 -0.003578
-0.084696 0.240910
0.048218 0.050115
-0.043922 -0.202810
-0.231509 -0.212174
-0.048609 0.007292
-0.105736 -0.047005
-0.133053 0.149264
-0.309500 0.314231
-0.110389 0.001035
0.220577 0.339721
0.279555 0.153059
0.301021 0.336280
-0.111989 -0.265287
0.083626 0.043569
-0.158258 -0.192947
0.087263 -0.057360
0.189934 0.129403
0.012852 0.035690
-0.012621 0.474371
0.263285 0.208890
0.294190 0.234172
-0.218495 -0.082164
-0.009880 0.067672
-0.210817 -0.385477
-0.176088 -0.081684
-0.195975 -0.216501
-0.240720 -0.170923
-0.140916 -0.290567
0.055840 0.260973
0.442568 0.158732
-0.098001 0.091942
-0.023306 0.656263
-0.400638 0.113455
-0.158969 -0.132346
-0.088523 -0.140062
-0.125902 0.068295
-0.181042 0.194995
-0.044601 -0.351482
0.109069 -0.062272
-0.011039 -0.437868
0.303712 0.072725
0.320547 0.009318
-0.268987 0.143005
-0.391370 0.093006
0.071842 -0.470302
-0.212551 0.170828
-0.304293 -0.018165
0.345672 -0.091668
-0.240312 -0.025608
-0.303351 -0.053204
-0.084198 0.287667
0.199355 0.003367
-0.332966 0.081033
-0.045314 0.049853
-0.115258 -0.139255
0.111199 0.002239
0.176983 0.161032
-0.227141 -0.415095
0.417556 0.041201
-0.252558 0.124522
0.221712 0.070690
-0.160741 0.002945
-0.016679 0.187921
-0.559349 -0.280406
-0.296672 -0.344796
-0.168798 0.110743
-0.056317 -0.205159
-0.096299 -0.158701
-0.142684 -0.101203
0.280859 0.239845
-0.143562 0.179780
0.411119 -0.131347
-0.117949 0.269708
-0.134401 0.107275
-0.160741 -0.067419
0.093898 0.305825
-0.221884 -0.074674
0.054627 -0.233180
-0.145335 -0.065149
-0.171481 0.179733
0.215472 0.197604
-0.366471 0.090088
-0.253345 0.206284
-0.199193 0.378672
-0.049193 -0.104220
0.051260 0.231835
0.106242 -0.055283
-0.022120 -0.276844
-0.084393 -0.111232
-0.045111 -0.086412
0.073852 -0.139008
-0.086147 -0.084566
-0.075564 0.056878
-0.002953 -0.148107
0.076998 0.158660
0.178422 0.017616
-0.036036 -0.205436
-0.035639 -0.009183
-0.030403 0.056487
0.070093 -0.287304
-0.027858 0.022169
0.163514 -0.019928
0.010553 -0.071073
0.157387 -0.156671
0.059505 0.094776
0.100438 0.086299
0.026869 -0.213860
0.006073 -0.032239
-0.179529 -0.225681
-0.039378 -0.036042
0.117525 -0.205024
0.111537 -0.220177
-0.058149 -0.188215
0.253008 0.030538
0.230602 0.219350
0.289944 0.047285
-0.093428 -0.126729
0.001701 0.130429
0.224082 -0.091785
0.107820 -0.051334
-0.096011 -0.051313
-0.014808 -0.006359
-0.229201 -0.240204
-0.082027 -0.288419
0.177646 0.088823
0.184596 -0.187025
-0.172162 0.050582
-0.060577 0.158059
0.108130 -0.087460
-0.005500 -0.057943
0.032792 0.009512
-0.061551 0.117849
-0.353630 0.126776
-0.210670 0.180319
-0.079436 0.218197
-0.227338 0.199010
-0.165861 0.211558
-0.070976 0.330550
-0.061326 -0.101558
0.166595 -0.118486
0.050700 -0.140300
-0.134921 -0.005261
0.019083 0.193959
-0.127941 0.026425
-0.133846 0.031613
-0.054569 0.174765
0.006387 0.088900
0.140829 -0.021823
0.125353 -0.077626
0.015799 -0.225343
0.317403 -0.244158
0.141226 0.050401
0.088106 -0.091791
0.012472 0.022806
0.102425 0.298607
-0.068198 -0.188740
0.088847 -0.021710
0.189542 0.203030
0.293391 0.053460
0.153585 -0.070849
-0.079930 -0.059644
-0.008956 0.175525
-0.005739 -0.295378
0.024694 -0.222188
-0.184880 0.097757
-0.084842 0.027392
0.043777 -0.037246
-0.147307 -0.206537
0.009113 -0.007813
0.004864 -0.259635
0.057807 -0.216177
-0.154389 -0.087658
-0.141364 -0.109085
0.084177 -0.054493
-0.120165 0.105413
0.093386 0.133476
-0.012617 0.173717
0.152722 -0.103529
0.016688 0.048194
0.031272 0.009180
0.212221 -0.165828
-0.089932 0.019831
-0.042517 -0.160323
0.094677 0.013860
0.163013 -0.358304
0.051001 0.009840
-0.138749 -0.362230
0.002809 -0.046695
-0.111237 -0.222074
-0.233680 -0.148419
-0.070294 -0.033053
-0.212352 0.342780
-0.038145 -0.142550
-0.319209 0.176812
-0.044464 -0.020337
0.175780 -0.174019
-0.122498 -0.013353
0.013715 0.014513
0.169518 0.249917
-0.054505 -0.016371
-0.179383 -0.042655
0.163639 0.153820
0.056335 0.197707
0.140177 -0.109765
-0.031369 0.087570
-0.275949 0.383275
0.027625 -0.085928
-0.038702 -0.059131
-0.119962 0.066329
-0.068674 0.051821
0.199108 0.016447
-0.084737 0.097243
-0.024661 -0.138662
-0.174338 -0.128164
-0.001541 0.174235
-0.131917 -0.011478
-0.165361 -0.073345
-0.075047 0.052297
0.075877 0.107348
0.078982 -0.295260
0.438708 0.149182
0.201564 0.044947
-0.082414 -0.096517
0.130983 0.047024
-0.300803 0.129683
0.014129 -0.262266
-0.063153 0.204532
0.016828 -0.151109
-0.047021 -0.061699
-0.083564 -0.022514
0.106821 -0.329528
-0.027803 -0.252719
-0.260584 -0.084211
-0.006851 -0.069708
0.065626 0.081658
-0.044329 -0.010316
0.157347 0.096004
0.257104 0.184510
0.040864 -0.160543
-0.104500 0.188466
-0.096296 -0.092613
0.020671 -0.141335
-0.252303 0.120601
-0.277962 0.003272
0.346252 0.180169
-0.182286 0.096438
0.166638 -0.068018
0.059158 -0.024827
-0.034965 0.103248
0.003567 0.045400
0.038410 -0.214793
-0.083012 0.136110
0.038203 0.124503
-0.103311 -0.043293
0.034656 -0.041128
-0.099980 0.100204
-0.132849 -0.233212
0.043240 -0.013903
-0.170744 0.231765
-0.059024 -0.064963
-0.189099 0.003179
0.151960 0.010450
-0.166188 -0.214448
0.101772 -0.189980
0.002539 -0.101905
-0.234055 -0.133346
0.098857 0.002645
-0.205674 0.133962
-0.089676 0.089840
-0.209468 0.463393
0.000520 0.241099
-0.068180 0.003516
0.026930 0.168070
-0.036011 -0.183288
-0.023007 0.047810
-0.016204 -0.011572
0.101156 -0.114981
-0.238365 -0.152707
-0.153416 0.019648
0.192649 0.013641
0.020799 -0.033225
0.058263 -0.281069
0.213461 0.153057
-0.295292 0.013626
0.235735 0.050109
-0.144232 0.184847
-0.125770 0.023933
-0.012986 0.189290
0.027971 0.052917
0.116639 -0.039609
0.162207 -0.058274
0.204286 -0.058537
-0.061273 0.026263
-0.074532 0.025181
-0.271733 0.151193
-0.164271 -0.075080
-0.142339 0.119182
-0.015856 0.021617
-0.131407 0.036020
0.077384 -0.001208
-0.194537 -0.074094
0.317417 -0.028942
0.044384 -0.135870
0.136965 0.050483
-0.035120 0.060994
0.218114 0.106077
0.057825 -0.300606
-0.014639 -0.169642
-0.120629 -0.066932
-0.051749 0.078742
-0.052878 -0.175934
-0.163868 -0.133903
-0.096088 0.169089
0.035471 -0.077548
0.114959 -0.013256
-0.240524 -0.101080
0.002672 0.006814
0.108083 -0.304241
-0.143899 0.039450
-0.158774 0.035317
0.059693 0.039105
-0.100205 -0.000044
-0.142632 -0.200559
0.018524 -0.016580
-0.224523 -0.242440
-0.121973 -0.153447
-0.144733 -0.316402
0.126339 -0.551996
0.171237 -0.222766
0.225904 -0.159455
0.347359 0.007423
0.089219 0.097385
0.151199 -0.117008
-0.040489 -0.034499
-0.035855 0.201738
0.163702 0.172665
0.116390 0.336840
-0.109108 -0.163123
0.104432 0.223069
0.075738 0.024776
0.185792 0.008477
0.244561 0.028537
0.001124 -0.116814
-0.102991 0.004436
0.026538 0.037722
0.052957 -0.005056
0.222699 -0.044805
-0.147781 -0.247375
0.155152 -0.035902
-0.075022 0.029021
0.203577 -0.209429
0.021001 -0.043059
-0.152644 -0.245524
0.098536 0.358558
-0.129564 0.124695
0.039353 0.236222
-0.087179 0.375516
-0.078659 -0.083459
-0.012203 0.013651
0.127530 0.067039
0.015515 0.248027
0.350279 -0.225591
-0.287853 0.117956
0.041431 0.042733
0.025953 0.268306
0.160827 0.233205
0.025219 0.049939
-0.398844 0.023760
-0.098473 0.053198
0.028273 -0.001628
0.165954 -0.193001
-0.052862 0.030448
-0.153106 -0.109553
0.207780 0.129970
-0.066490 -0.094149
0.382172 0.059990
-0.048086 0.022775
-0.028218 0.304870
-0.160548 0.087211
0.097376 -0.059531
0.090746 0.002634
0.112742 -0.153114
-0.118347 -0.118312
0.181209 0.092866
-0.119562 -0.031378
-0.174685 -0.218930
0.179556 0.060139
-0.462232 0.325489
0.199985 -0.157818
-0.049199 0.213428
0.152234 -0.056686
-0.216535 -0.129379
0.141998 -0.050772
-0.009235 -0.026009
-0.083594 -0.032888
0.110183 -0.003528
-0.071053 0.306697
-0.263291 0.535164
0.057436 0.104780
-0.112499 0.161720
-0.224981 0.254243
0.028286 0.014583
-0.164323 0.103899
-0.259575 -0.134010
-0.253031 -0.102088
-0.001000 -0.391841
-0.063825 0.012221
0.106554 0.234510
0.030708 0.024928
-0.130583 0.281059
-0.156056 0.024630
0.019075 -0.028747
-0.074009 -0.134028
0.024219 -0.307362
-0.288035 0.087716
-0.033660 -0.352867
-0.156590 -0.145364
-0.091540 0.027086
-0.017784 0.084327
0.241303 -0.032821
-0.192814 0.212712
0.018063 0.095069
0.014257 -0.091917
0.063139 -0.180618
-0.153091 -0.044791
0.141391 -0.195530
0.110129 0.018768
-0.081417 0.157539
-0.081939 -0.105133
-0.102277 0.308462
0.028345 -0.103159
-0.248671 0.026418
0.012452 -0.016644
0.045649 0.145012
-0.083669 -0.223648
-0.055095 -0.229214
-0.009040 -0.059100
-0.039072 -0.010442
0.162943 -0.092403
-0.090993 0.095483
-0.048227 0.113244
-0.156563 0.161549
0.331903 0.095273
-0.211625 0.113297
0.140703 0.081226
-0.119195 0.074445
-0.245509 0.136826
-0.112013 0.104129
-0.192667 0.003452
-0.252180 -0.190391
-0.223103 -0.066097
-0.176472 -0.148813
-0.037761 -0.155084
-0.167251 -0.077350
-0.331417 -0.171900
-0.127602 -0.115320
-0.214677 0.046773
0.106581 0.054634
-0.037078 -0.005783
-0.040163 0.095858
-0.273501 -0.143994
0.128517 -0.105711
0.200649 -0.092225
-0.005987 -0.053117
0.154310 0.060499
-0.346975 0.137130
0.105446 -0.039834
0.046975 0.044999
0.087534 -0.105892
-0.123879 0.340597
-0.209030 0.145989
-0.098010 -0.027533
-0.058147 0.074403
0.090774 -0.050262
0.117633 0.383061
0.060272 0.312749
0.001727 0.233082
0.033778 0.137971
0.134675 0.216835
0.277786 0.256162
-0.259919 0.116795
-0.052879 0.321007
-0.340828 0.019073
-0.178633 -0.132420
-0.257750 0.081055
-0.149267 -0.069508
-0.082118 0.071706
-0.080694 0.015726
0.272776 -0.110940
-0.023955 0.120909
0.244972 -0.105114
-0.026620 -0.004045
0.109911 0.039694
0.022814 -0.026983
0.022199 -0.030934
-0.174768 -0.063457
-0.007505 0.143847
0.138668 -0.173095
-0.071682 0.124777
0.142132 0.183820
-0.174526 -0.001133
-0.227945 0.007555
0.065786 -0.060032
0.037761 0.004036
-0.028266 -0.185804
-0.134329 0.052437
-0.251085 0.105347
-0.087220 -0.160919
0.001295 -0.018469
-0.171754 0.119607
-0.182256 0.096036
-0.063155 0.210102
0.007883 -0.227641
0.021310 0.171369
0.277273 0.019449
0.069399 0.124182
-0.024184 0.134738
-0.071570 0.077928
0.198666 0.096632
0.038952 -0.065551
-0.305558 0.251814
-0.068698 0.165641
-0.172194 0.199728
-0.043963 -0.181014
0.065031 0.231390
-0.091803 0.080819
0.172025 0.219045
0.171688 -0.003178
0.051228 0.017955
0.155328 -0.218204
0.222336 0.301053
0.037037 -0.097902
0.023330 -0.089346
0.140023 0.079230
-0.015953 0.001482
-0.005110 -0.111026
0.012321 0.099752
-0.194791 0.048320
-0.096012 -0.266505
-0.060457 -0.075333
-0.066932 -0.222937
0.003534 -0.007243
0.211615 -0.236110
0.109651 0.319630
0.172625 -0.111466
0.155745 0.277487
0.090944 0.089410
0.016040 0.050677
0.044044 0.083192
-0.145084 -0.174183
-0.128214 -0.106076
-0.302037 -0.184292
-0.076074 0.198292
0.026914 0.088858
-0.198924 0.156584
-0.240606 0.212803
0.020284 0.274220
-0.009220 -0.292853
0.247376 0.128075
0.088421 -0.068721
0.157344 -0.103828
0.081221 0.160870
0.289697 0.085242
0.432245 -0.053997
0.164587 0.004924
0.172361 0.360836
0.076602 -0.220658
0.151742 -0.137915
-0.231829 -0.230623
-0.010723 -0.447479
-0.048598 -0.051877
-0.201625 -0.286507
-0.034774 -0.367260
0.076846 -0.010014
-0.194973 -0.156099
0.180678 -0.097873
-0.054791 0.145269
-0.038753 -0.074810
0.130592 -0.011581
0.046070 -0.064664
0.110365 0.021075
-0.065979 -0.075722
0.163752 0.053965
0.111576 0.023265
-0.166578 -0.008122
0.067875 0.069984
0.052514 0.164601
0.074649 -0.007975
0.073065 -0.098606
0.162193 0.092979
-0.039954 0.196800
0.106409 0.072043
0.096118 0.242040
-0.180039 0.229489
-0.111857 0.071684
0.041674 0.274688
-0.226137 -0.105677
0.194570 0.044876
-0.051198 0.058984
-0.083059 0.019761
-0.054359 0.108606
-0.088003 0.266765
-0.042086 -0.146836
-0.201409 -0.166844
-0.004658 0.116853
-0.152071 -0.062013
0.231054 -0.281777
-0.050501 -0.040082
-0.070716 0.096296
0.119429 -0.241265
0.221820 0.215530
-0.066213 -0.201408
0.181649 -0.009755
0.060157 -0.079120
-0.059930 -0.060606
0.097900 -0.203083
0.094299 -0.099697
0.143746 -0.269594
-0.024925 -0.006153
-0.019739 0.066643
-0.065504 -0.112208
-0.141795 -0.061305
-0.236220 0.101164
-0.062552 0.022263
-0.149690 0.085852
-0.145934 0.353974
-0.001948 -0.045929
0.253287 -0.111914
-0.212245 -0.022431
0.263177 0.037232
0.223176 0.011379
0.066617 -0.333087
-0.220955 -0.058896
-0.076129 0.066742
0.252668 -0.106933
0.214002 -0.154469
0.074537 0.066431
0.307289 0.205127
0.369160 0.138881
-0.023831 0.060733
0.161404 -0.082481
0.068358 0.006996
0.032090 -0.138762
0.026146 0.238185
0.163163 0.092704
0.031739 0.115242
0.236564 0.056056
0.096846 0.212708
0.198712 -0.150286
0.270127 0.103806
-0.200580 -0.080816
0.162409 -0.378633
-0.029070 0.227809
-0.041209 -0.076544
0.281811 0.156192
0.233536 0.240356
-0.032724 -0.013936
0.339426 0.096911
0.195872 0.118977
0.207967 -0.367604
0.314582 -0.297543
0.045524 0.123136
0.250957 -0.339617
0.213691 0.057878
-0.071562 0.051299
-0.107060 -0.056891
0.177110 -0.059790
-0.286764 0.151674
0.008560 -0.032239
0.108120 0.045763
-0.019666 -0.030281
0.027449 -0.027816
0.133185 0.038982
0.253549 -0.015503
0.065611 -0.104125
0.029148 -0.197627
-0.102571 -0.066460
0.042566 -0.151552
-0.065712 -0.216136
-0.007554 -0.443707
-0.093059 -0.000212
0.128602 -0.194486
0.085755 0.087692
0.034422 0.101631
-0.132637 0.076020
-0.054377 0.326556
-0.262706 0.267395
-0.086036 0.108839
-0.000817 0.125575
-0.101126 0.206188
0.275529 -0.053028
0.452632 0.271497
0.160974 0.221765
0.201140 0.156944
0.199660 0.131073
0.048875 0.288032
-0.264844 -0.090128
-0.008729 0.382666
-0.062488 0.139282
-0.235746 -0.149618
-0.060326 0.051405
0.060224 0.171501
0.066023 0.038451
-0.162746 -0.070854
-0.075528 -0.060338
-0.091463 -0.336672
0.005297 -0.230222
0.278563 -0.223597
0.135244 -0.402812
-0.073659 -0.272930
-0.086065 -0.002499
0.099679 -0.340920
-0.033789 0.136910
-0.170008 0.035734
0.012408 0.226002
-0.013839 0.122310
-0.001188 0.037047
0.029333 0.100803
0.043058 -0.191386
-0.019581 0.078776
-0.170411 -0.033384
-0.215215 0.029236
0.246954 0.131165
-0.228846 0.132495
0.242791 -0.226845
0.121129 0.242562
0.163721 -0.047189
0.149882 -0.087892
0.035689 -0.153988
-0.057285 0.177397
-0.082641 0.078961
0.011610 0.038207
-0.259020 0.423591
-0.180849 -0.180024
0.027578 0.060772
-0.071811 -0.121327
0.072507 -0.025621
0.091295 0.002138
0.071932 0.028918
0.167553 -0.034886
0.177013 -0.033747
0.157922 0.220422
0.198899 0.185499
0.124205 -0.161308
-0.041435 -0.156568
0.121595 -0.124564
0.113413 -0.195343
0.081297 0.029070
-0.292620 -0.313093
-0.056818 -0.018726
-0.236703 -0.384146
-0.101371 0.026881
0.059975 -0.046449
-0.163577 -0.019755
-0.122709 -0.209012
-0.061266 -0.101013
0.040926 0.058611
-0.021684 0.028868
-0.093250 -0.025908
-0.299474 0.044290
-0.144175 0.011942
0.002889 0.055022
0.166187 0.037456
-0.297498 0.197961
-0.035927 0.116187
-0.292843 -0.150346
-0.103994 0.353461
-0.124144 -0.016641
-0.141759 0.096834
-0.193338 0.218851
-0.243690 0.275371
0.104337 -0.082565
-0.127194 0.105414
-0.095358 -0.007414
-0.053059 -0.102367
-0.043899 -0.106389
0.123803 -0.201342
-0.092571 -0.080100
0.022113 -0.244928
0.324610 -0.246089
0.067221 -0.169814
0.051913 -0.086516
0.214106 0.006754
-0.234093 0.004187
-0.236045 -0.086980
-0.140275 -0.282642
-0.138625 0.061988
-0.212966 0.096946
-0.153196 -0.045418
-0.156217 -0.253206
-0.100336 -0.182001
0.225764 -0.008981
0.088835 -0.139870
0.338774 0.201382
-0.428124 0.056552
-0.030383 -0.177733
0.075716 0.095669
0.109212 0.085549
-0.064364 0.036762
0.042757 0.172310
0.024170 -0.146088
-0.099054 0.054204
0.195687 -0.220583
0.169583 0.238838
-0.097025 0.035479
-0.260218 -0.091957
0.022021 0.101867
-0.002649 -0.136488
0.217506 -0.007186
-0.123650 -0.327051
0.113087 0.010005
-0.295502 -0.116043
0.160102 -0.232224
-0.111903 -0.227027
-0.130928 -0.034107
-0.204489 0.011296
0.065105 0.162050
-0.055904 -0.179557
-0.154880 0.239977
-0.100433 -0.243598
-0.114194 -0.061493
-0.273529 -0.119599
-0.152270 -0.243825
-0.326826 -0.138989
-0.375351 -0.261569
-0.277055 -0.058748
-0.229029 -0.120840
0.181386 -0.165223
0.071433 -0.042116
0.153679 -0.182636
0.033855 -0.039133
0.220986 -0.371795
-0.006449 -0.192236
-0.145720 -0.138066
0.023170 -0.241618
-0.187894 0.315836
-0.145457 0.077160
0.019935 -0.007534
0.140016 0.108344
0.062528 0.018257
0.154835 -0.156196
0.246406 0.019847
0.052823 -0.077859
-0.212095 -0.106526
-0.109440 -0.077199
0.097786 0.114848
-0.262973 -0.164191
0.017099 -0.029524
0.044908 0.296233
0.065917 -0.125960
-0.207486 -0.136009
0.137553 -0.050475
0.046144 0.011331
0.050332 0.009788
-0.192230 -0.089821
-0.359626 0.325535
-0.191830 0.005716
-0.253834 -0.308676
0.063906 -0.033266
0.116460 -0.031229
0.225239 -0.159816
-0.027209 -0.200009
0.210736 -0.164044
0.072276 -0.074014
-0.254816 -0.354822
0.077515 0.334360
-0.434185 0.319897
-0.361580 -0.102602
-0.071496 0.144678
-0.174445 -0.088871
-0.117334 0.101883
0.360899 -0.268438
0.165049 0.094462
0.033399 -0.045240
0.042305 -0.029057
0.287137 0.328149
-0.028994 0.260159
-0.086116 -0.138410
0.193526 0.111220
-0.263292 0.364491
0.274865 0.089130
0.055222 -0.077095
0.124755 0.123736
-0.074085 0.189756
0.187972 0.159433
0.265201 0.451737
-0.330784 0.112661
-0.419828 0.034521
-0.213903 0.245154
-0.134690 -0.029020
-0.060652 0.081819
-0.151148 -0.026037
-0.139555 0.148131
0.010520 0.138114
-0.053302 0.087594
0.328365 0.206599
-0.075262 0.336087
-0.006393 0.330874
-0.095051 0.048599
0.088600 0.179800
0.189221 0.156576
0.088811 -0.275382
-0.077374 0.104651
0.061955 0.132608
-0.027891 0.119179
0.490465 -0.150599
0.008590 0.204493
0.072945 0.130873
-0.051875 0.101976
0.128714 0.042097
0.030495 -0.217774
-0.261955 -0.234954
0.000689 -0.060372
0.035113 0.171526
0.075958 -0.139052
0.153185 -0.103228
-0.007993 -0.227111
0.043292 0.006279
-0.005454 -0.332865
0.104112 -0.158385
0.012665 -0.339110
-0.256137 -0.048146
-0.045630 -0.143634
0.056185 -0.044324
0.097669 0.184818
0.070120 -0.253731
0.170131 0.226199
-0.263591 0.129089
0.085413 -0.022852
-0.073914 -0.042740
0.034993 -0.120317
-0.079827 0.091271
-0.067910 -0.033211
-0.283107 0.032465
0.115641 -0.201302
-0.161228 -0.255561
0.059478 -0.427331
0.134884 0.160042
-0.000011 -0.131453
0.100194 -0.049274
0.098793 -0.044540
0.107338 -0.052789
0.027949 0.125365
0.054617 0.064284
0.030391 0.133538
-0.309553 -0.158011
-0.282585 -0.028948
-0.024810 -0.028012
-0.465824 -0.082041
-0.042189 -0.153361
-0.262900 -0.093273
0.054712 -0.246828
-0.380102 0.003364
0.035424 0.071469
-0.226179 0.151647
-0.394811 0.028653
-0.235133 0.040022
-0.060443 0.390977
-0.068068 -0.141650
0.116741 0.047443
-0.051718 0.039486
0.266743 -0.210237
0.355647 -0.112973
-0.147291 -0.160917
0.257543 0.243854
0.044759 0.132802
0.188211 -0.288124
0.097920 0.022072
0.114829 0.049832
0.540853 0.063642
0.176600 -0.163117
0.029400 -0.143879
-0.168646 0.037900
0.123721 -0.098946
-0.016623 0.006976
-0.250212 -0.045245
-0.001433 0.013925
-0.084666 0.219220
-0.026732 0.012740
0.213075 0.134417
0.038950 -0.006422
0.101233 0.074996
0.077673 -0.146971
-0.040563 -0.073039
-0.015594 -0.096360
-0.127570 -0.176965
-0.146183 -0.065894
-0.103541 0.076251
0.091356 -0.016996
-0.009259 0.099732
0.150428 0.251795
0.394015 -0.012694
-0.063152 0.197146
-0.170070 0.168566
0.089498 0.214203
-0.325323 0.112054
-0.205487 -0.135447
-0.233461 0.196868
0.022758 0.057450
-0.069447 0.203932
0.157028 -0.207722
-0.062285 0.180606
0.182598 0.116711
0.016832 -0.143304
0.041517 0.139103
-0.051177 -0.034148
-0.044504 -0.146865
0.031424 -0.157009
-0.047819 0.233671
-0.050602 -0.054583
0.099454 0.157818
-0.128266 0.088071
-0.082321 -0.141363
0.061044 0.158628
0.054788 -0.002474
-0.032023 -0.299128
-0.192097 0.157413
0.087279 -0.046699
-0.073248 -0.089606
-0.014301 -0.045193
-0.049392 -0.092148
0.098447 -0.054048
-0.111908 -0.266532
0.101536 -0.054440
-0.340782 0.064626
-0.255964 0.042936
-0.033777 0.180982
-0.297172 -0.096585
-0.224462 0.090479
-0.066507 0.079341
0.247498 0.051235
-0.152902 -0.250409
0.138793 -0.176871
0.025786 0.366659
0.383578 -0.125869
0.108586 0.255032
0.119265 -0.000795
0.188758 0.037691
0.115441 0.113793
0.029616 0.043158
0.191737 -0.043078
-0.312883 0.185800
-0.290040 0.084148
0.150663 0.029123
-0.074284 -0.017478
0.088765 0.041171
0.003378 -0.084383
-0.001946 -0.108283
-0.112732 -0.040404
-0.306961 -0.235056
-0.154112 -0.346090
-0.040443 0.337733
-0.543422 -0.101471
-0.025001 0.066077
-0.040753 0.439438
-0.163588 -0.048007
0.057593 -0.083048
0.052644 0.431096
0.156052 -0.025225
-0.056621 -0.165151
-0.092787 -0.087868
-0.001659 0.072412
0.158836 0.159380
0.092598 -0.262982
-0.092126 0.428494
-0.080548 0.132511
0.248239 0.135214
0.024776 -0.486145
0.070375 0.087648
0.214138 -0.060938
0.213299 0.021430
-0.015314 0.124729
-0.013267 0.281191
-0.148058 0.277109
0.191535 0.112060
0.127365 0.241130
-0.035874 0.014189
0.069438 -0.024388
0.116368 -0.123400
-0.187406 -0.207478
-0.042510 -0.141634
-0.087799 0.117119
-0.183844 -0.018165
-0.078288 0.218037
-0.186947 0.090550
0.156929 -0.052662
-0.004692 0.224682
0.000026 -0.249857
0.016008 -0.108639
-0.075705 -0.311533
-0.176902 -0.088631
0.002784 -0.307074
-0.071587 0.067824
-0.134277 -0.145126
0.102924 0.168155
0.155729 -0.067549
0.269797 -0.045201
0.087592 0.218266
0.136476 -0.193389
0.272243 -0.018957
-0.087208 -0.199130
0.176984 0.107126
0.189468 0.132120
0.013033 0.088294
-0.021099 0.162964
-0.160901 0.136735
0.114756 -0.136898
0.113852 -0.075056
-0.136716 -0.004568
0.037593 -0.255081
-0.159514 -0.037718
-0.304473 -0.044683
-0.169761 -0.295865
-0.174915 -0.194242
-0.069589 0.076675
-0.273653 0.028084
0.173607 -0.081768
-0.150367 0.137720
0.060760 -0.094648
-0.049491 -0.076205
0.006917 0.056455
-0.103061 0.280701
-0.163842 -0.000390
0.081452 0.132997
0.076105 0.163599
0.096782 0.283631
0.302568 0.178157
0.209346 -0.132180
-0.147326 -0.110806
-0.145851 -0.018852
-0.043125 0.086873
-0.093061 0.199333
-0.604034 0.470894
-0.154128 0.066654
-0.053094 0.544389
-0.147915 0.145220
0.220226 0.017541
-0.288212 -0.131790
-0.222058 -0.088823
0.140190 -0.313094
-0.103458 -0.201937
0.185475 0.184790
0.023782 0.391287
0.008804 -0.016082
-0.146031 0.108002
0.172638 0.258390
0.208156 -0.187323
0.033306 -0.077022
-0.163192 0.190697
0.002489 0.078176
0.146651 -0.092065
0.109586 -0.021669
-0.182871 -0.063405
0.251542 0.173544
-0.019390 -0.049248
0.227288 -0.064394
0.029096 0.072321
-0.095674 -0.008058
0.198377 0.247716
-0.252941 0.196880
0.122451 -0.097872
-0.152652 0.431375
-0.330178 -0.014594
0.118831 -0.006590
-0.203338 0.226510
0.140972 -0.191619
0.090053 -0.116152
-0.150010 0.079511
0.059801 0.075392
0.055690 -0.147591
-0.112335 -0.036373
0.041504 -0.086249
-0.329119 -0.263889
-0.032613 -0.384997
-0.092548 -0.200295
-0.056856 -0.435748
-0.202205 -0.170258
0.080776 0.144955
-0.097798 0.214886
0.165657 0.116186
0.446793 0.401820
0.076233 -0.086846
0.027476 -0.003701
0.063541 -0.081889
0.278180 -0.576368
-0.134170 -0.241821
0.072589 -0.309316
0.051304 0.234365
-0.054309 0.013358
-0.147891 0.180211
0.023268 0.210460
-0.249331 -0.090638
-0.176313 0.021101
-0.147687 -0.020738
0.174857 0.083983
0.291883 -0.268824
0.079790 0.001412
0.080075 0.066423
0.466874 -0.015716
0.398314 -0.122193
0.037574 0.068701
0.204095 -0.072290
-0.046275 0.208798
0.159489 0.097976
0.149695 -0.179893
0.304126 -0.060942
-0.174571 -0.141178
-0.074278 0.256377
-0.081918 -0.448678
0.060174 0.142220
-0.333258 -0.267634
-0.154624 -0.216140
-0.161828 0.400597
0.272249 -0.256426
-0.021213 -0.115291
-0.491458 -0.224756
-0.020629 0.445980
-0.448700 -0.053844
-0.135637 -0.431789
-0.422218 0.367527
0.130529 0.140780
-0.539897 0.256580
-0.023145 -0.179327
-0.113503 -0.120161
-0.248422 -0.374795
0.043770 -0.105828
-0.045773 0.078301
-0.325255 0.365385
-0.504877 -0.434633
0.280822 0.407262
-0.046138 0.232465
0.403333 0.446547
-0.032290 0.055700
-0.321216 0.100119
-0.309684 0.376319
0.046997 -0.706107
-0.188325 -0.046343
-0.612106 -0.057335
-0.108375 0.234547
0.086734 -0.222302
0.102950 0.096317
-0.067399 0.218688
0.061486 -0.015219
0.365450 0.546740
-0.180477 -0.053737
0.159949 -0.138228
-0.450996 0.168250
0.199554 -0.051673
-0.056646 -0.436742
0.085442 -0.299102
0.143430 -0.130918
0.161029 0.147329
0.070354 -0.153149
0.141240 -0.270684
0.185943 0.127268
0.099255 0.000686
0.486325 0.034625
-0.310679 -0.052318
-0.234466 -0.022065
-0.039297 0.053669
0.319835 0.003146
-0.076729 0.164421
0.230678 0.203681
-0.292969 0.305034
0.461997 0.027456
0.133987 0.126598
-0.265000 -0.122653
-0.018623 0.376762
-0.414232 0.497380
-0.008874 0.316906
0.009724 0.104433
-0.156938 0.292045
-0.205069 0.301805
0.283535 0.130974
0.330224 -0.463720
-0.528210 -0.258471
-0.151153 0.149902
-0.051802 -0.279990
-0.183302 -0.265452
-0.338474 -0.426867
-0.065693 -0.216045
0.095604 0.146636
-0.233355 -0.081512
-0.128056 -0.297951
-0.088571 0.387855
-0.056963 0.178412
0.213916 0.350136
-0.056354 0.519159
0.047493 0.199405
-0.083580 -0.098463
-0.091676 0.058623
0.537453 -0.025875
-0.262687 -0.080513
-0.190630 -0.183636
-0.161949 0.318543
-0.427808 -0.045268
0.079813 -0.151706
-0.360439 -0.186262
-0.249795 -0.098109
0.220179 0.189693
0.281989 -0.477624
0.092823 -0.287800
-0.196536 0.331719
0.120225 -0.246088
0.249977 -0.587994
-0.352055 0.081615
-0.078629 -0.584610
0.379463 0.008925
0.207317 -0.522110
-0.183674 -0.632311
0.551720 -0.495484
0.393939 -0.005521
0.296274 -0.295044
-0.122980 -0.169443
0.036094 0.156877
-0.200838 -0.347310
0.468071 -0.126696
0.399100 -0.616299
0.113279 -0.203707
-0.307880 0.013978
0.239250 -0.515059
-0.077774 -0.158651
-0.289279 -0.126628
0.193903 0.335853
-0.205729 0.485871
-0.056530 -0.190402
-0.214152 -0.257489
-0.446805 -0.403704
0.200459 0.016795
-0.222176 0.082701
-0.795725 -0.117134
-0.247530 0.843504
-0.005370 0.222168
0.088399 0.279292
0.071383 0.058781
-0.007250 0.248351
-0.166738 -0.035465
0.384721 -0.614219
0.061625 0.202509
0.030918 -0.099249
0.340432 0.604405
0.338018 0.222699
0.081787 -0.022419
0.385928 -0.263789
-0.173943 -0.175007
0.216806 -0.001197
-0.065772 -0.196523
0.097888 0.111937
0.106064 0.603181
-0.078374 0.050841
0.303087 0.391382
-0.041033 0.266379
0.525688 -0.698375
-0.467858 0.228160
-0.119910 -0.054311
-0.396258 0.072112
-0.538574 -0.167233
0.131868 0.151788
0.005307 0.457161
0.200559 -0.244801
-0.118099 0.559567
-0.147271 -0.722620
0.265098 0.046934
0.372438 -0.469228
-0.126392 0.095600
-0.486832 0.437061
-0.171246 0.306291
-0.295829 -0.431326
0.026250 -0.241926
-0.145676 -0.307774
-0.411953 0.073647
-0.076212 0.181082
0.102016 -0.273252
-0.258377 -0.314801
-0.138047 0.256594
0.083174 0.567562
0.211762 -0.181740
-0.010901 -0.248282
0.029228 -0.634254
-0.317157 -0.015526
0.015835 0.342638
0.001319 -0.528382
-0.187851 -0.249067
-0.367773 -0.093637
0.115018 -0.185754
0.317425 0.312086
-0.514747 -0.549821
-0.372975 -0.210474
-0.523255 0.082269
-0.137663 -0.074807
-0.302720 -0.140264
-0.375581 0.802611
-0.077748 0.240639
0.044667 0.235721
-0.819777 0.318221
-0.030129 0.015295
-0.455621 0.155957
-0.082565 -0.179447
-0.122545 0.150899
-0.482218 -0.482280
0.033443 0.316743
-0.185820 -0.382919
0.259861 0.009672
-0.138447 0.124721
-0.471548 0.496272
-0.818063 0.406856
-0.207925 -0.072772
0.174642 -0.033302
0.278559 -0.423180
0.349885 -0.100471
-0.080056 -0.078210
-0.510693 0.010798
0.474573 -0.455962
-0.740464 -1.080684
-0.473585 0.218055
-0.532111 0.668203
0.127394 -0.235005
-0.134603 -0.092269
-0.636617 0.454804
-0.024158 0.374150
-0.113079 0.914092
-0.119082 0.034554
-0.114715 -0.062769
-0.125234 -0.255909
0.114490 -0.052167
0.060558 0.090837
-0.696332 -0.262254
0.025634 -0.005389
-1.269282 0.234857
-0.277786 1.033791
-0.499906 0.503002
0.066042 0.664817
-0.517754 0.288374
0.218584 0.796142
0.565863 -0.234041
0.093808 0.391695
-0.332619 0.231509
0.747453 0.203013
0.296998 0.114469
-0.034058 -0.089590
0.264462 -0.029305
0.750330 -0.256507
0.422118 -0.130273
0.487307 -0.465101
-0.087149 0.148262
-0.117500 0.071384
0.343927 0.386055
0.484602 -0.937051
0.342106 0.453721
0.417330 0.405677
0.455808 0.031433
0.335462 -0.008004
0.112312 -0.780300
0.487876 0.032648
0.018923 0.215912
0.192817 0.312571
-0.074754 0.304148
-1.357308 0.551634
0.222807 0.775315
0.001172 0.344252
-0.044300 0.452931
-0.193941 -0.162624
0.273096 0.415778
0.135627 0.345797
0.073606 -0.167890
-0.111193 0.353871
-0.893255 0.837034
0.693581 1.144879
1.031848 0.970888
0.308742 -0.659823
0.557340 0.255371
-0.051908 0.465574
0.483452 -0.705488
0.161239 0.004723
-2.109160 0.148707
-0.897097 1.349470
-0.668138 1.123143
1.313771 0.870754
0.366993 0.013775
0.628801 0.146454
1.244231 0.767506
-0.280706 -0.434225
0.237136 -0.883182
-1.526001 0.225332
-1.029287 0.075337
-1.236521 0.891682
-0.180299 0.479227
0.221653 0.128354
-0.303202 0.189163
0.116840 0.798875
0.082474 0.720054
-0.304274 -0.798474
-0.171902 0.319907
-0.678050 0.278348
1.167255 -0.457171
-0.096437 0.488767
-0.540769 -0.411120
0.887088 0.493896
0.073243 -0.299686
0.034247 0.278852
-0.785968 0.673444
1.116921 -0.438409
0.201912 0.255739
0.374797 -1.587877
1.369698 -0.486377
0.043527 -0.069430
0.408406 -1.036062
0.305354 0.058260
-0.651253 -0.817363
0.425486 0.958818
-0.273635 -0.178769
0.481576 -0.557731
-0.755116 -0.309208
-0.277882 -1.164691
-0.124677 -0.466556
-0.592057 -1.035522
-0.486159 -0.724823
-1.213295 0.238829
-0.546299 -0.960175
0.076305 0.042185
-1.544897 -1.853564
-0.973616 -0.737755
-1.660999 0.086282
-0.230600 -0.735243
-0.725882 1.009961
-1.918367 0.319894
0.630751 2.867224
-0.927409 2.066307
0.912525 -0.207362
-1.341131 0.987487
-1.256783 -0.406602
-0.598411 1.923966
-0.544638 -0.441705
-0.815837 0.186898
-1.133837 2.611028
-0.328949 2.371661
2.327141 2.032497
-1.409546 1.133143
-0.937274 0.373092
0.392947 2.437255
0.824248 0.011917
1.425466 0.353797
-0.500066 1.965002
1.203392 2.970595
1.204384 0.861317
1.617005 0.301098
-1.534737 0.532789
0.684837 -0.564928
0.430349 2.547882
0.613448 -1.104252
0.272372 -1.409550
0.336757 0.980403
0.517003 0.703752
2.266116 -0.828308
-1.615310 -2.388730
-1.000111 -0.268595
-1.294225 1.175964
1.152069 -1.475994
2.928842 1.083327
-1.557290 -0.888737
3.261563 0.793260
1.119569 0.114117
1.388927 -0.956274
-1.948914 -1.572083
-1.736133 0.541921
-1.605923 0.122321
0.736302 1.777032
0.548619 -0.436869
1.265737 -0.359645
-0.411719 1.221414
1.976627 0.605249
0.927213 -1.933838
0.849067 -1.507084
-1.242406 1.894202
3.183526 0.058046
4.801731 -0.547231
4.028305 -5.783509
2.437745 -1.111670
0.455974 -5.371055
3.620259 -1.438320
-4.301337 -4.003747
-4.995151 -1.030703
-3.406631 1.963056
-0.420562 4.784348
1.507710 0.759125
1.185261 -0.335658
1.616742 1.071512
3.617988 1.962195
1.592473 -1.126151
0.657836 -5.187610
-5.211679 3.513710
-4.105922 0.489529
-1.481244 2.059971
-0.235496 -1.210225
-4.617466 7.763787
-3.105301 4.977788
6.420186 14.267950
2.120664 8.454916
2.871441 6.300211
1.558132 9.938326
9.175808 8.981390
8.455877 1.253886
3.442527 -1.742738
-0.103817 3.331959
6.604992 9.058607
5.934188 6.074899
6.094561 -1.448167
-3.249079 6.882570
7.269838 2.472829
6.680445 3.996567
1.144748 -20.521701
5.268649 5.556320
0.698993 2.122145
13.760122 -4.095701
11.426277 -3.788565
1.188849 10.031325
6.119558 -11.876360
5.344255 -14.531646
-19.971898 -20.586155
-21.246082 -3.834823
-12.314296 -7.300727
-9.593136 -9.216605
-33.129805 18.907538
-17.759338 24.579674
19.672187 5.535317
-2.545608 -22.094980
-55.497613 -14.771679
-12.220354 -22.982708
2.597640 17.140318
-43.917507 -71.058994
-32.716324 26.236510
-34.423386 63.458121
90.922089 58.683513
16.107591 -32.931110
-64.798728 2.048552
-37.021675 -2.442503
49.110898 30.224536
-136.003808 -251.045077
-92.024123 -49.212083
-153.629633 109.924896
199.142512 210.516146
83.979563 -199.995280
23.114147 160.225925
-588.447028 609.696236
-4617.427046 -968.962165
