17680.974496 8538.188867
-10759.174225 912.995593
-790.409689 -367.502721
-1174.342700 862.251910
34.732803 -393.812133
-155.059515 -24.396021
-139.824930 -24.598186
252.384853 -158.513331
5.998963 -61.846328
-102.700401 -62.061090
51.899158 -26.277594
-97.569574 -73.053773
-106.811120 -46.635436
-40.113963 -6.740930
-16.482735 -42.355202
-76.144931 12.140832
1.902608 -12.334099
5.966692 43.677908
-10.570597 -43.449817
23.363484 42.683398
19.265637 3.077188
16.019672 42.051602
1.624855 -7.574608
-6.867873 64.434890
-22.239788 -7.590463
3.570106 12.911116
-29.672555 14.100706
12.618766 7.316294
-7.806756 9.485145
-2.312942 -3.088448
-3.433267 29.095349
10.784149 -29.525562
2.063651 2.748690
7.801118 -5.778889
21.740136 -11.682312
11.103078 -2.079913
-6.524669 -0.103851
15.549206 1.696501
-11.421667 -9.373218
-2.039447 3.693795
-0.826806 -1.851274
5.642730 -7.529573
-7.856394 6.292923
4.398062 -6.901651
6.488385 7.695374
-5.550823 -15.369057
4.628106 10.967423
1.139043 -9.613252
-0.837771 6.838022
-4.043560 -5.815910
-2.583814 5.346255
0.936046 -0.425626
-7.859575 -1.890398
6.228291 8.124431
-4.200604 -0.425341
2.911436 7.572915
-5.391082 -2.683452
3.145763 10.345450
-0.518406 -12.562640
-1.768453 6.648495
1.020255 -6.914635
1.150347 3.522548
-3.342164 -7.212898
-1.177352 6.425526
-0.196525 -3.558396
3.140087 -1.450005
-1.766562 2.559160
6.576620 -0.923220
-1.938617 0.676087
2.215678 -2.005524
-4.340952 3.352583
1.788891 -4.596117
-3.434340 2.050991
-2.469981 -1.707888
1.109930 1.923068
-3.756070 0.711999
0.030947 -1.693449
-2.835903 2.517825
4.085957 -2.022433
-2.328909 1.254577
3.342217 -1.825246
0.313321 2.003765
1.315056 -2.391525
-2.023623 1.245145
3.589431 0.119100
-0.865870 -0.011391
0.851744 0.865276
0.804668 2.763110
0.466443 -0.721647
-2.631346 -1.763659
0.854840 0.216205
-0.634193 -1.608247
0.528040 -1.494258
0.809624 1.518765
1.291627 0.234362
-0.013469 -0.540817
-1.049854 0.439111
1.216274 -0.818641
0.004672 -2.276610
0.449919 0.312363
-0.448525 1.344181
1.679741 0.496985
-1.230646 -0.345919
-0.699383 2.096731
-0.794625 -0.406211
0.281022 -0.536851
-0.427514 0.019254
-0.955023 0.882052
1.281496 -1.418366
-1.887452 -0.730149
0.689168 -0.879884
-0.542841 0.083486
0.518836 -1.278354
-0.956221 0.742016
0.172139 1.338912
-0.161626 -0.984214
-0.924437 0.281841
0.003979 -1.215479
0.411251 0.143267
-0.164020 -0.748337
-0.052619 0.989911
-0.136753 0.043678
-0.311278 0.166012
-1.322957 -0.074045
0.416360 -0.267824
-0.560688 0.401854
0.304774 -0.923597
-0.428543 1.905896
0.370774 -0.872811
0.327085 -0.393738
-1.040705 -0.291623
1.734485 -0.363456
-0.085900 -0.411069
0.094161 -0.223932
0.729006 1.919612
0.524626 -0.453836
-0.451254 0.737750
-0.239144 0.777807
1.173779 0.010872
-1.000549 0.595761
0.854662 0.663310
0.157279 -0.040652
0.692044 -1.015319
-0.100492 1.269274
1.072347 -0.956313
0.331793 -0.320179
-0.757794 1.031889
0.291671 0.621000
-0.932807 0.198991
-0.434259 0.307933
-0.837686 -0.041221
0.328353 0.613817
-0.570104 0.075177
-0.185289 -0.090061
-0.838543 -0.092210
0.088276 0.558329
-0.844042 -2.089678
-1.238873 -0.419338
1.189127 -0.617056
-0.202445 -1.360339
-0.135912 -0.594481
-0.057105 0.472395
1.090047 -0.202278
-1.123567 -0.052502
1.106371 1.013559
-0.310272 -0.536402
0.424043 -0.277961
0.563072 -0.469638
0.277073 -0.460141
-0.354495 -1.284533
0.386331 0.614704
0.474920 -0.274644
0.154508 0.958226
0.194014 -0.328639
0.778668 1.148233
0.254499 -0.834814
0.661283 0.655008
-0.209796 -0.289254
0.974412 0.072439
-0.115724 0.447299
0.177600 -0.327380
-0.129940 0.490012
-0.991033 0.003276
0.114097 0.570193
-1.088496 -0.091221
-0.410017 0.892050
-0.276885 0.023761
-0.019244 -0.219401
-0.458501 -0.296563
0.303168 -0.371069
-0.980895 0.021670
-0.217872 0.145888
0.428203 0.323341
-0.402833 -0.440729
-0.523867 1.104355
0.414317 -0.813807
0.187014 -0.148491
-0.692856 -0.149208
0.269194 0.491748
-0.215588 -0.917938
0.648495 0.662948
0.515517 -0.058596
0.258930 -0.678320
-0.118789 -0.196857
0.682659 0.107396
0.110124 -1.119199
-0.522797 -0.540520
0.341914 -0.070517
0.235280 -0.609621
0.000995 0.345111
0.173357 0.309581
0.233972 0.896795
-0.199098 0.482417
1.052875 0.669617
-0.370105 -0.115061
0.093038 0.555787
0.167827 0.200483
-0.416131 -0.444490
-0.743062 0.920360
0.072626 0.034543
-0.097330 0.024854
-0.335394 -0.172589
0.954544 -0.154748
0.045198 -0.027463
-0.187760 -0.416345
0.936737 0.012353
-0.090068 -0.496669
0.170439 0.004598
-0.478797 -0.113131
0.502725 0.246027
-0.617572 -0.317308
0.037565 0.211744
-0.880164 0.395382
0.361595 -0.696288
-0.225132 -0.312722
0.198953 -0.646259
-0.805059 -0.159132
-0.161212 -0.568051
0.507021 0.052888
-0.309779 -0.183170
-0.085298 0.065333
0.243350 -0.022564
0.468563 -0.498366
-0.343600 0.892329
0.006653 -0.766026
-0.105993 0.349505
-0.066557 -0.148257
0.392602 0.194024
0.078074 -0.357457
0.378467 -0.303543
0.411774 -0.071958
-0.129882 0.064878
0.873561 0.158901
0.231002 -0.275329
-0.166284 0.208832
0.092973 0.273942
0.306443 0.238952
0.037467 -0.025425
-0.044470 0.187094
0.517069 0.187520
0.138544 -0.076910
0.226675 0.410285
-0.243055 0.218872
-0.236227 -0.209746
-0.328131 0.090250
-0.143474 0.650279
0.202108 -0.659362
-0.409819 -0.090837
0.373681 -0.064829
-0.688864 -0.122314
-0.235772 0.036881
-0.289968 -0.037753
0.399837 -0.601618
-0.567129 -0.118720
0.490940 0.268535
-0.126177 -0.702109
0.080500 -0.252398
-0.025966 -0.270165
-0.431558 -0.136870
-0.089838 -0.316242
0.362591 -0.617229
0.044101 0.004175
-0.791843 0.007664
0.346416 -0.146814
-0.094777 -0.200197
0.502649 0.122980
0.059037 -0.174066
0.024262 -0.410739
0.117140 0.299871
-0.011645 0.247676
-0.266678 0.146615
-0.529318 -0.150558
0.262516 0.511670
0.167719 0.346320
0.390541 -0.070926
-0.292463 0.275752
0.015029 -0.371731
-0.251554 0.193022
-0.377563 -0.684471
0.144557 -0.579786
-0.420768 -0.542106
0.065952 0.028535
0.236529 0.145522
0.023587 -0.099864
-0.104816 0.378077
-0.001711 -0.542434
0.093933 0.008242
-0.188660 -0.132812
-0.047936 -0.171923
0.073712 -0.056568
-0.015850 0.134538
0.069791 0.120846
-0.212898 -0.114409
0.286108 -0.257899
-0.095262 -0.410116
-0.380350 0.134513
-0.102550 0.143608
0.126294 -0.208203
0.293222 0.122225
-0.273087 0.072140
0.258915 0.159696
-0.121378 -0.150889
0.336681 0.349209
-0.286594 0.018804
-0.497614 0.105981
-0.233199 -0.087168
-0.034179 0.269859
-0.515263 -0.223500
-0.522834 0.020021
0.053809 0.094154
0.239348 0.400173
-0.092925 0.354269
0.390817 -0.187723
-0.111092 0.320449
0.085440 0.015137
-0.209178 0.171729
0.020088 -0.367564
-0.118551 0.256980
0.312845 0.124310
-0.067838 0.343265
0.089999 0.149627
0.082559 0.007828
-0.170784 0.016252
-0.636464 -0.419444
-0.087435 -0.103573
-0.028415 -0.193732
-0.160839 -0.435165
-0.177640 -0.162669
-0.113049 0.107952
0.055879 -0.207011
-0.059654 -0.369802
-0.059011 0.252928
-0.145208 -0.211555
0.220025 0.176972
0.071854 0.015409
0.131864 -0.058357
0.008621 -0.236861
-0.285911 0.068147
0.578818 -0.095657
0.175688 0.259990
-0.017501 -0.130066
0.128208 0.184155
0.330992 0.236034
-0.011731 0.103477
-0.103869 0.068947
0.267845 0.037102
0.158825 0.178999
0.076876 0.146696
0.237901 0.080152
0.131626 -0.101767
-0.290128 -0.127916
0.012802 0.392843
0.102208 0.166911
-0.001082 -0.425909
0.168045 0.085653
-0.134047 -0.010707
0.173771 -0.115383
-0.171096 0.073566
-0.295150 0.151898
-0.065014 0.076349
-0.108940 0.363201
-0.125935 -0.188014
0.022218 -0.181496
0.206912 -0.149662
-0.069278 -0.006085
-0.136077 0.156665
0.253686 -0.185088
-0.048739 0.006369
0.053769 -0.102462
-0.195275 0.043018
0.349245 -0.269367
0.028398 0.106678
0.403619 -0.034003
-0.318652 -0.006237
0.342111 -0.294377
0.039954 -0.285171
0.040152 -0.085319
-0.086519 -0.234069
0.068930 -0.078445
0.172516 0.151850
-0.036287 0.011054
0.232690 -0.413574
-0.291330 0.167574
0.229600 -0.297772
0.127746 -0.195377
-0.062900 -0.026847
-0.347502 -0.268847
0.120038 0.152545
-0.290165 -0.032910
0.294703 -0.017633
-0.187335 0.263044
0.003277 0.266860
0.270493 -0.384572
0.130190 -0.033287
-0.650150 -0.092350
0.025876 -0.415588
0.199223 0.055648
-0.150547 0.069206
0.111111 0.090388
-0.216866 -0.154170
-0.160027 -0.316102
0.112176 -0.056482
-0.427413 -0.095754
-0.130249 -0.283839
0.184922 0.261994
0.142644 0.269178
-0.364331 -0.170540
-0.157528 -0.448922
-0.271308 -0.027421
0.157908 -0.260747
0.162917 -0.318356
-0.067428 -0.232076
0.207804 0.227310
0.096761 -0.283688
-0.195160 -0.040819
-0.341811 -0.024455
0.064831 0.018318
0.045889 0.174845
-0.023428 0.108726
-0.186874 -0.149439
-0.472640 0.022558
-0.361236 -0.213446
-0.215419 -0.181345
-0.208790 0.102760
-0.139456 0.079990
0.160559 0.099061
0.132720 0.611461
-0.382679 -0.245878
-0.010258 0.201622
-0.169074 0.129136
0.133893 -0.128577
-0.128346 0.118862
-0.124387 0.347758
-0.230045 0.003205
-0.236082 0.361298
-0.253524 0.149599
0.027808 -0.169701
0.167895 0.046841
0.174447 -0.268168
0.212193 -0.098906
0.160073 0.178140
0.040498 -0.154034
-0.221052 0.113338
0.218564 0.194178
0.093939 0.365503
-0.064787 -0.320218
0.079473 0.420422
-0.039308 0.108336
0.062351 0.229102
0.110593 -0.045965
-0.257244 -0.104677
0.117894 0.074804
-0.097476 -0.000692
0.034050 -0.153681
-0.108162 0.053605
0.079580 0.051107
0.063740 0.133723
0.069210 0.162209
0.040333 -0.174694
-0.207345 -0.022603
0.023923 0.027967
0.014700 -0.062442
0.028145 -0.294389
-0.029050 -0.020582
-0.156108 0.052577
0.059830 0.039789
-0.200563 0.095348
-0.097438 -0.055038
0.120689 0.054494
0.124989 -0.175601
-0.005453 0.032350
0.171016 -0.232198
-0.020889 0.049125
-0.229968 -0.054420
0.245421 -0.026213
-0.189763 -0.052879
-0.130670 -0.218795
0.318263 0.000562
-0.287313 -0.061276
-0.091057 0.128444
0.050305 0.120350
0.222025 -0.096653
-0.087752 0.080993
0.052203 0.095530
-0.011620 -0.011167
0.331879 -0.009323
-0.185610 0.235506
-0.177646 0.088823
0.241878 0.102708
0.157901 -0.085237
-0.169174 -0.005700
-0.088461 0.107312
0.055832 -0.016445
0.029681 0.016877
0.009611 0.132607
-0.351212 -0.133327
0.261784 0.091468
-0.208122 -0.102982
0.274193 -0.126908
-0.216100 0.159898
0.283901 -0.183579
0.116041 -0.024687
0.102469 0.176898
-0.045450 -0.142087
-0.124773 0.051605
0.117249 0.155682
-0.078073 0.104746
0.037797 -0.132232
-0.146133 0.110298
0.070271 -0.054826
-0.117628 -0.080454
0.120831 0.084493
-0.088925 -0.207657
0.399487 -0.027722
-0.016856 0.148999
0.097325 -0.081952
0.025596 0.004529
-0.292547 0.118633
-0.145555 0.138157
-0.086988 -0.028251
0.117058 -0.251883
-0.188484 0.231107
0.133145 -0.104309
-0.052757 -0.084634
-0.164628 0.061535
-0.230153 0.185232
0.081390 -0.208214
-0.175008 -0.114494
0.089144 0.001325
0.057470 0.000986
-0.112313 -0.227470
0.008702 -0.008268
-0.247550 0.078442
0.132014 -0.180683
-0.177520 0.002570
0.152627 -0.092673
0.095924 0.029219
0.159641 0.008129
-0.070725 -0.146747
0.173971 0.008415
0.059121 -0.174777
0.048306 -0.016361
-0.031696 -0.007588
0.188909 0.191964
0.092007 -0.003979
0.063274 0.153322
-0.035886 0.088703
0.377481 -0.111638
0.022197 0.046959
0.373263 -0.105529
-0.021561 0.041515
0.142913 -0.203142
-0.191370 0.200029
0.037187 -0.068197
-0.403219 0.002520
-0.134771 -0.060101
-0.098552 0.351347
-0.042454 -0.024256
-0.057053 -0.240679
-0.123011 -0.007233
-0.010164 0.017188
-0.005265 -0.301939
0.015464 -0.054769
0.010477 0.184087
0.185035 0.127280
-0.194711 0.065947
0.057728 0.168421
0.014644 0.091859
-0.348028 -0.319256
-0.071033 -0.055688
0.027891 0.064934
0.088336 -0.104819
-0.037517 0.077420
0.123748 0.156847
0.015688 0.128025
-0.052304 0.130766
0.147646 -0.158178
-0.096233 -0.145257
0.065491 -0.115086
0.036594 0.177157
0.038299 -0.083067
-0.131303 -0.006350
-0.105397 0.286894
-0.460841 0.048432
0.191265 -0.077884
0.018848 -0.125508
0.038201 -0.133823
0.195467 -0.262855
0.256775 -0.055221
0.141619 -0.160517
0.075696 -0.131861
-0.060420 0.048653
0.079306 -0.034647
0.260837 0.227956
-0.185871 -0.173471
0.016862 0.273333
-0.069983 0.002903
-0.103628 -0.015363
-0.041521 -0.018641
-0.176753 0.052282
0.230988 -0.216312
-0.115292 -0.118960
-0.212959 -0.032981
-0.063626 -0.117481
0.137813 -0.037557
-0.018251 -0.279049
0.215979 0.175006
0.382468 -0.077908
0.191887 0.075549
0.178809 -0.020541
-0.056457 0.030473
-0.108928 0.004185
0.045527 -0.001085
0.171088 -0.135426
0.022270 -0.157864
-0.073013 0.107841
-0.098847 0.052695
-0.049800 -0.020312
-0.141014 0.012324
-0.182216 -0.197064
0.010242 -0.044250
0.128270 -0.257712
0.087067 -0.011105
-0.178746 -0.061791
-0.150764 0.021710
-0.052450 0.266186
-0.210144 -0.047851
0.097372 0.030164
-0.148281 -0.224891
-0.045858 -0.087617
-0.065116 -0.236659
0.055199 0.114307
-0.234972 -0.450997
0.103562 0.217725
-0.048294 0.048255
0.149149 0.082020
0.184763 0.027457
0.033586 -0.041075
0.019761 0.002451
0.055140 0.142873
0.232524 -0.161462
-0.147753 0.045734
-0.121766 0.149908
0.038441 -0.007665
-0.279335 0.066076
-0.226565 -0.132893
-0.204189 -0.213751
-0.237834 -0.038952
-0.147643 -0.182134
0.124916 -0.028055
-0.144755 -0.122659
0.038717 0.045645
0.038523 -0.117002
0.009435 0.172099
-0.103923 -0.185363
-0.046669 -0.047603
0.074532 0.025181
-0.308824 -0.036414
0.063854 -0.168952
-0.165175 0.084745
0.021763 -0.015655
0.015437 0.135377
0.053085 0.056318
0.207958 0.009376
0.316824 0.034837
-0.090710 -0.110463
0.064215 -0.131090
0.070001 -0.007318
-0.099954 -0.220987
-0.260566 0.160664
0.133802 -0.105307
-0.137524 0.010888
0.048786 0.080611
0.011241 0.183364
0.029974 -0.209486
-0.193863 0.015525
-0.079112 0.031830
-0.026280 -0.112697
-0.236196 -0.110815
-0.005350 0.004994
0.090957 0.309792
0.148873 -0.009994
-0.142264 0.078851
0.008863 0.070809
-0.006471 0.099996
-0.235626 -0.071052
0.000357 -0.024858
-0.309368 0.116100
0.133035 -0.143961
-0.039233 0.345715
-0.454405 -0.337901
0.276368 -0.050670
-0.177773 0.211791
-0.111957 -0.328906
0.131944 0.005884
-0.079503 -0.173871
-0.043516 0.030593
0.093403 0.182373
0.016868 -0.237333
0.241745 0.261853
0.151135 0.125187
0.243549 0.036739
-0.066824 -0.043412
0.166956 0.081953
-0.246217 0.001139
0.033233 0.111993
0.083529 -0.060413
-0.019916 -0.041600
-0.011403 0.051962
-0.016116 -0.226589
-0.286034 0.034901
-0.116751 -0.108307
-0.070622 -0.038510
-0.250612 -0.149992
0.042791 0.021543
-0.134726 -0.255795
-0.341386 -0.147409
0.088615 -0.156471
-0.212828 0.109789
0.117958 -0.367013
0.090157 -0.070883
-0.015116 -0.010334
-0.063289 0.129432
-0.203570 -0.142539
-0.277898 0.310418
-0.048499 0.307280
0.058876 0.008729
-0.164013 0.213919
0.197416 -0.203167
-0.013546 0.054281
-0.339800 0.210183
0.097762 -0.054493
0.006570 -0.027547
-0.153400 0.203122
0.004971 0.060801
-0.188075 0.008434
-0.228222 0.089328
-0.045987 0.105689
-0.282908 0.263851
-0.045556 0.027488
0.304554 0.031448
-0.054417 0.174414
0.004204 0.114054
-0.076634 -0.048672
0.079302 0.172818
0.094442 -0.138147
0.101342 -0.176609
0.042095 -0.116223
0.176887 0.217155
0.090749 0.166198
-0.026303 0.564721
0.072667 0.244172
0.000764 0.219023
0.159548 0.030544
0.115257 -0.224371
0.124063 -0.085729
-0.023183 -0.014977
0.045632 0.077378
0.054428 0.095866
-0.123866 0.289429
-0.127567 -0.582623
-0.041277 0.112134
-0.179564 -0.081032
0.338323 -0.028173
-0.007102 -0.031021
0.080055 -0.177168
0.246817 0.156267
-0.263171 -0.072025
0.101796 -0.378389
-0.064871 -0.003836
0.024182 0.256445
-0.000869 -0.039543
0.305684 -0.051024
-0.005640 0.157887
-0.015740 0.030701
0.141193 -0.059206
-0.061314 0.302156
0.296008 0.055111
0.140257 0.325540
-0.014886 -0.213142
-0.051982 0.080069
0.082072 -0.026298
-0.085202 -0.228134
-0.013938 -0.286757
-0.045131 0.085601
0.022726 0.090197
-0.139844 -0.130587
-0.063942 0.146132
-0.229095 0.075754
-0.027904 -0.108176
0.103003 -0.144352
0.130573 -0.026789
-0.001347 -0.324973
-0.035931 -0.100768
-0.234137 0.087834
-0.020731 -0.001524
-0.122817 -0.089601
-0.228615 -0.068951
0.230083 -0.051342
-0.045957 0.038243
0.040334 0.002968
0.167840 0.083177
0.123286 0.046875
-0.116377 -0.040080
0.204877 -0.092927
-0.110589 -0.327119
0.013122 -0.239686
-0.158549 -0.035458
-0.086087 -0.111079
0.250426 0.127606
-0.145107 -0.048310
0.134251 -0.138235
0.088595 0.303306
-0.072292 -0.221173
0.207662 0.100816
-0.134397 0.086106
0.183924 -0.011307
-0.328164 0.178031
0.071221 -0.156552
-0.183199 0.121292
0.011074 0.119255
0.006127 0.037023
0.072676 -0.074297
0.295636 0.090202
0.078622 0.146664
-0.200649 -0.092225
0.014677 0.051399
-0.067040 0.151583
-0.261336 0.266271
-0.040812 0.105071
-0.059242 -0.026870
-0.014886 0.136579
-0.021778 0.361771
-0.206280 -0.149849
0.081312 -0.061257
-0.093435 -0.013669
-0.082799 0.062534
-0.379633 -0.128267
0.313798 -0.054547
-0.171268 0.158105
0.087946 -0.111546
-0.142641 0.211679
0.172032 -0.336435
0.270376 -0.089977
-0.313234 -0.087900
0.034886 -0.339574
0.184894 0.123526
-0.112537 -0.245643
0.164649 0.001703
-0.077994 -0.076172
0.081383 -0.011646
0.277743 -0.097845
0.119121 0.031669
0.120819 -0.237620
-0.012341 -0.023931
-0.102071 -0.056899
0.008301 0.034346
-0.019840 -0.032498
-0.146392 0.114629
0.099079 0.104554
0.217307 -0.044365
0.130330 -0.061005
-0.218156 -0.079996
-0.112914 -0.133083
0.198324 0.112621
0.059930 0.065878
-0.034920 0.014925
0.096117 0.161504
0.109730 -0.093558
-0.130424 0.239022
-0.179070 -0.037897
0.013565 -0.012600
-0.093027 -0.187486
0.170435 0.115725
-0.118544 -0.184604
-0.147404 -0.173650
-0.139035 -0.102425
-0.014114 0.277596
-0.138179 -0.033824
0.091622 -0.101708
0.023337 0.103200
0.209525 -0.070037
-0.054508 -0.053320
-0.395654 -0.015298
0.177650 0.024427
-0.221720 0.142767
-0.186261 0.002365
-0.224319 0.086323
-0.037294 -0.116485
-0.202582 0.191139
0.167460 -0.038002
-0.030724 0.044751
0.267182 -0.018800
0.262317 0.266938
0.086741 -0.058586
-0.058967 0.071063
-0.160738 -0.006877
-0.015483 -0.004118
-0.019578 -0.109405
-0.047352 -0.088658
0.145378 -0.138360
0.245493 0.141339
-0.086444 -0.043098
0.221495 -0.071559
-0.000983 0.007999
-0.164330 -0.271154
0.042463 -0.335237
-0.205438 0.004418
-0.145183 -0.283157
0.070073 0.106558
-0.052826 -0.005907
0.093674 -0.009271
0.217773 -0.062959
-0.147083 0.077831
0.262772 -0.236941
-0.171838 -0.124815
0.057840 0.072626
-0.195222 0.161177
0.167223 -0.274249
-0.242207 0.130168
-0.176131 0.234149
-0.269580 0.070176
0.098630 0.053038
-0.188452 -0.004827
-0.083298 -0.159804
0.016239 0.301541
-0.014691 -0.435357
0.090003 0.137886
-0.352243 0.189303
0.021569 0.232578
-0.170501 -0.113910
-0.080559 0.316925
-0.352149 -0.276303
0.038184 0.059958
-0.311747 -0.159853
0.334486 -0.155591
0.055081 0.054513
0.228575 -0.100672
0.191850 0.073601
0.119779 0.098783
0.035345 0.076479
-0.045939 0.122793
0.058639 -0.053529
0.072374 0.085944
0.098724 -0.018458
0.172280 -0.006809
-0.108293 0.035540
-0.142125 0.087262
0.011883 0.096765
-0.142893 -0.097122
-0.000314 0.075073
0.052327 -0.111012
0.184344 0.031127
-0.019475 0.199868
0.099263 -0.081608
0.027373 0.258984
-0.291535 -0.009293
0.102112 -0.084992
-0.277209 -0.018577
-0.197250 -0.152964
-0.177140 -0.092157
-0.030331 -0.071974
0.084298 0.013536
-0.097269 -0.072725
0.259054 0.108623
0.125684 0.086809
-0.179586 -0.190135
-0.102894 0.055582
-0.154949 -0.054424
-0.125704 -0.342028
-0.048188 0.042835
0.105345 0.056357
0.259118 0.073006
0.128121 0.281501
0.204266 0.056784
0.068014 0.168718
0.009279 -0.098958
-0.077194 0.036135
-0.105381 -0.199303
0.127149 0.051622
-0.295016 -0.079435
-0.003085 0.025487
0.066066 -0.021589
0.129141 0.014282
-0.144897 -0.053563
0.183331 0.180066
-0.062955 -0.021096
0.171485 0.019246
-0.355505 -0.142164
-0.041910 -0.018890
0.109555 -0.254317
-0.103251 -0.186790
-0.213161 -0.158778
0.210716 0.074403
-0.066617 -0.333087
-0.181920 0.138547
0.101055 -0.006168
0.196822 -0.191146
-0.156451 0.212557
-0.089388 -0.044483
0.361291 0.077285
-0.393943 -0.019372
-0.022697 -0.061166
-0.180340 -0.018211
0.044616 -0.052261
-0.139835 -0.027037
-0.237364 -0.032776
0.144538 0.119686
-0.105796 0.055634
0.238513 0.047080
-0.104686 0.208962
0.238429 0.072274
-0.128559 0.259262
-0.011636 0.215935
-0.385769 0.144644
-0.204668 0.104177
-0.084432 0.020698
-0.321622 0.019305
0.246570 -0.226965
0.026332 -0.023910
0.189800 -0.297620
0.020694 0.228239
0.380347 -0.183626
-0.181395 0.393179
-0.122793 0.046440
0.072131 0.416072
-0.217401 0.041843
-0.083961 -0.026519
0.044514 -0.112770
0.134044 -0.130289
0.175104 -0.273088
0.028150 -0.017895
0.104500 0.053517
0.031486 -0.017673
0.024749 0.030243
-0.115913 0.076302
0.205744 -0.148985
-0.122774 0.008566
0.199570 -0.008825
-0.092867 -0.079457
0.091269 -0.128257
-0.161591 0.157865
0.056893 -0.440109
-0.089406 0.025817
-0.221517 -0.072757
-0.034528 -0.117693
0.096741 0.046422
-0.037955 0.148092
0.224657 -0.243157
0.094936 0.362631
-0.071186 -0.119083
0.033103 0.121136
-0.205352 -0.102814
-0.184999 0.210959
-0.205961 -0.485969
0.254793 0.100861
-0.246094 -0.067279
0.238631 -0.009987
-0.091012 0.277611
-0.235579 0.150890
0.233118 0.303588
-0.151434 -0.019284
-0.110659 -0.256352
-0.036132 0.070543
0.174434 -0.051112
-0.076369 -0.002316
-0.172272 0.042764
0.060308 -0.075552
0.119032 0.327941
-0.197044 -0.119180
0.269058 -0.234948
-0.364951 0.217623
0.266460 -0.094421
-0.073527 -0.044802
-0.034951 -0.353470
-0.060886 -0.127197
0.160830 -0.065675
-0.181493 -0.135245
0.122671 0.010145
-0.036113 0.008351
0.100220 -0.031265
0.071589 -0.182640
-0.003177 -0.081111
0.161305 -0.064305
-0.196389 0.092756
-0.032340 0.277749
-0.178029 0.195528
-0.180663 0.278867
-0.269665 0.028100
0.106704 0.132837
-0.126724 -0.118872
0.060834 0.145895
0.142488 0.120203
-0.112340 0.021073
0.034507 0.020097
-0.377557 0.322446
-0.247905 -0.060482
-0.058154 0.032739
-0.098760 0.100616
-0.075503 -0.014595
0.077250 -0.048701
-0.019862 0.074939
0.075402 -0.153641
-0.008821 0.179985
-0.270011 -0.024881
0.270619 -0.027132
-0.078514 -0.187837
-0.020769 0.160621
-0.167440 -0.047597
0.223857 0.030155
0.006371 0.086103
0.346082 0.252747
-0.044129 -0.040393
0.423961 -0.154445
-0.090057 -0.053744
-0.064772 -0.039485
-0.133898 0.096016
-0.085702 -0.226713
0.079439 0.087444
0.062482 0.034730
-0.015181 0.032758
-0.088497 -0.039182
0.273345 0.130111
-0.144661 0.001491
0.023012 0.050062
0.077974 -0.151463
0.278547 -0.223842
-0.112778 0.045509
-0.267444 -0.191924
-0.150321 0.336383
-0.123168 -0.022765
0.148561 0.086036
-0.270918 -0.108989
0.367700 -0.003218
0.111581 -0.072477
0.096921 -0.133779
0.048602 0.082376
-0.107597 0.041438
0.076403 -0.086072
0.134833 0.194129
0.048948 -0.112204
0.196631 0.147699
-0.341126 0.222630
0.166507 -0.075037
-0.056428 0.083642
-0.162166 -0.139962
-0.218195 -0.084901
0.232649 -0.095694
-0.010451 0.315363
0.140017 -0.058775
-0.166165 0.164749
-0.049671 -0.151871
0.294830 0.039906
-0.198247 0.062368
-0.207078 -0.090383
0.091420 0.138194
-0.230754 0.319492
-0.339022 0.267493
-0.153683 -0.094306
-0.096369 -0.074823
0.121303 0.067316
0.019850 0.071415
0.105110 -0.143076
-0.024170 -0.146088
-0.112229 -0.012432
-0.294262 -0.018972
-0.154028 -0.249153
0.036379 -0.096691
0.182142 0.207349
0.088381 -0.055233
0.056706 -0.124179
0.217335 0.011228
-0.003609 -0.349627
0.074893 -0.085322
0.013984 -0.317162
0.236597 -0.153565
-0.251955 -0.024126
0.114409 0.072222
-0.181398 -0.095070
-0.071083 0.159518
0.009655 0.187810
0.276446 0.071795
0.178230 0.194064
-0.056121 -0.116928
0.204820 0.217188
-0.283023 0.050343
0.354808 0.015638
-0.389347 0.240241
0.242397 -0.146474
-0.091299 0.242325
-0.228165 0.090223
0.046671 -0.068544
-0.123940 0.203990
0.007318 -0.051225
0.030916 0.431405
0.020713 -0.191226
-0.095595 0.176517
-0.174458 -0.168761
-0.366780 0.023005
0.089044 -0.138501
0.001163 -0.021279
0.172957 0.037795
-0.063850 -0.012893
0.139670 0.169892
-0.229770 0.091188
0.090241 0.026623
0.006447 -0.237256
0.065626 0.116747
0.137901 0.061119
0.292874 0.101675
0.000786 0.034109
-0.077601 0.289394
0.098040 0.102952
0.078357 -0.235391
0.111317 -0.095274
0.005686 0.047173
-0.022838 -0.045908
-0.188810 -0.096805
0.150108 0.461271
-0.189467 -0.030559
0.165857 -0.363599
0.070999 -0.012237
-0.085801 0.084712
0.189566 -0.200844
-0.200501 0.023311
0.005373 -0.267004
0.024030 0.100620
0.304576 -0.313151
-0.004756 -0.343195
0.539303 0.001589
-0.100938 0.362048
0.154126 -0.047840
0.126653 0.149291
0.014321 -0.154733
-0.164155 -0.418760
0.178474 -0.065658
-0.042580 -0.036730
0.051320 -0.000595
0.122587 0.418452
-0.261207 -0.017162
-0.153529 -0.054792
-0.201468 -0.096089
-0.022160 -0.449094
-0.286603 0.036792
0.069726 0.064275
-0.033985 0.172394
-0.199087 -0.043130
0.119949 0.215325
-0.494595 -0.172550
-0.088922 -0.337940
0.328368 0.263859
-0.159665 -0.283482
0.127006 -0.053414
-0.095440 -0.035556
0.064434 -0.139183
-0.174366 0.104951
0.137814 -0.013908
-0.045260 0.092007
0.387431 0.020107
-0.000954 0.344409
-0.061403 -0.325189
0.106369 -0.009067
-0.094371 -0.176839
0.108794 0.220192
0.257977 -0.131037
0.048970 -0.120584
-0.128330 0.070389
0.001441 -0.122391
-0.507366 -0.076266
-0.097606 -0.179900
0.061229 0.136747
-0.111664 0.024927
0.059576 0.121615
0.172508 -0.136368
-0.350747 0.028292
0.014869 -0.058516
0.012559 -0.174632
-0.135051 -0.082862
0.175465 -0.057738
-0.216782 -0.068183
-0.011451 -0.042220
-0.292978 0.158091
0.016602 -0.188811
-0.081161 0.329498
0.249187 -0.076356
0.029100 0.147872
-0.069770 0.015922
-0.149445 -0.146161
-0.245249 0.095650
-0.279764 -0.042926
-0.121710 -0.267078
-0.074966 -0.046880
-0.069628 0.049415
-0.086899 -0.090273
-0.121227 0.002608
-0.011156 -0.074768
-0.008697 0.284829
-0.126319 0.194779
0.288531 -0.089755
-0.076276 0.424655
-0.122622 0.169620
0.058905 0.117516
-0.102925 0.043280
0.073778 -0.079376
-0.045698 0.110543
-0.124880 0.030042
0.083509 -0.011899
-0.072559 0.116151
-0.300265 0.175019
0.242434 -0.148047
0.004170 0.037187
0.079821 -0.466209
0.155156 0.035019
-0.195743 -0.198748
0.126813 -0.218715
-0.355475 -0.134634
-0.032743 0.072736
-0.268699 -0.044212
0.290855 -0.268515
-0.120801 0.205661
0.389140 -0.071320
0.157087 0.004666
0.117203 0.046290
0.033840 0.055576
0.270605 0.205243
-0.371243 0.037770
0.012672 0.217780
0.130574 0.329763
-0.133213 -0.043523
-0.192181 0.285491
-0.085095 -0.053238
0.125153 -0.002386
-0.540853 0.063642
0.225386 0.083643
-0.122149 -0.081518
-0.100536 0.140608
-0.100092 0.122796
-0.000293 0.018025
-0.206879 -0.147832
-0.004223 0.013346
-0.080576 -0.220756
0.029533 0.002158
0.061314 -0.244355
-0.021689 0.032984
-0.072144 -0.103284
-0.109877 0.124742
0.081033 -0.020339
-0.054146 0.081220
0.134060 -0.172101
-0.114367 0.112391
0.127828 -0.013964
0.054052 -0.075586
0.100055 -0.004616
-0.287770 -0.056724
0.254587 0.300989
-0.028096 0.205098
-0.160410 -0.177784
-0.014191 0.231714
-0.317813 0.131856
-0.031256 -0.244118
-0.211630 0.220167
0.061711 0.003203
-0.108328 0.186215
0.047276 0.256069
0.048696 0.184735
0.137284 -0.167680
-0.105822 -0.098087
-0.104814 -0.100436
-0.029752 -0.053851
0.153448 -0.001917
-0.100206 0.124892
-0.066250 0.229128
-0.055449 0.049651
-0.048837 0.180035
-0.155015 0.013381
-0.085623 -0.139388
-0.151569 -0.076915
0.013197 0.053232
0.252973 -0.162813
-0.092673 -0.230417
-0.081539 -0.056124
-0.045756 0.106306
-0.016820 -0.044317
0.056203 0.088159
-0.065521 0.091215
0.286709 0.036892
0.019237 0.113593
0.263513 0.225543
-0.248229 -0.075786
0.079210 0.166196
-0.177961 0.256846
0.191508 -0.147967
-0.087813 0.054836
0.111091 0.227022
0.292128 -0.027290
0.028311 0.223036
-0.079828 0.358791
0.402554 0.030416
0.063060 0.269918
0.062853 -0.101362
0.007520 0.192338
-0.137319 -0.086134
0.052330 -0.001116
-0.139889 -0.138022
-0.277575 -0.235308
0.301469 0.017898
0.106427 -0.110547
0.025154 -0.072048
-0.024936 -0.094617
-0.081746 0.021204
0.090221 -0.059911
-0.116543 -0.027549
0.345117 -0.174272
-0.080624 0.370174
0.222759 0.257056
-0.215766 0.508968
0.069671 -0.011711
-0.423189 0.125209
-0.130419 -0.109803
-0.001161 -0.101057
0.139086 -0.411424
-0.158025 0.004052
0.042514 0.169332
-0.019605 -0.126277
-0.071116 -0.013741
0.184806 0.128365
0.172100 -0.219352
0.171350 -0.403402
0.049237 0.147047
0.222257 -0.174664
-0.278299 -0.399375
-0.030148 -0.108286
-0.108612 0.194350
-0.054726 -0.207270
0.098457 -0.078091
-0.155420 0.234710
-0.077439 -0.304489
-0.172817 0.139203
-0.014484 -0.272316
0.032832 -0.020257
0.040868 -0.061207
-0.106031 0.132388
0.273742 0.056864
-0.119611 0.086951
0.054706 0.135768
-0.179933 0.041866
0.176353 0.150229
-0.186147 0.092184
-0.092550 0.137239
-0.222478 0.031740
-0.217901 0.122260
0.054842 -0.095137
-0.158528 0.278663
0.165938 -0.107771
0.150175 0.267862
0.097732 -0.013162
0.100987 0.169981
0.177781 0.085224
-0.014132 -0.169158
0.179761 0.206203
-0.147712 0.183013
0.153836 0.179887
-0.249869 0.109732
0.096688 0.194704
0.048689 0.201069
-0.147489 -0.177766
0.084508 -0.028708
-0.089728 0.137663
-0.110438 -0.179970
-0.124609 -0.127994
0.135416 0.016069
0.086257 -0.106168
0.253717 0.045904
-0.048009 -0.156724
0.174053 0.253783
-0.323263 0.108886
0.229002 -0.126027
-0.073754 -0.072677
0.258986 -0.092743
0.177023 -0.074082
0.180355 -0.095128
0.091723 -0.065091
-0.089988 -0.012602
-0.043307 0.036871
0.000395 -0.299023
0.163714 -0.006479
0.018973 -0.154799
0.067348 0.167394
-0.230880 -0.191070
0.186524 0.297483
0.035755 -0.244988
-0.183078 -0.021576
0.142735 0.035421
-0.044732 -0.086057
0.164654 0.145888
-0.758702 0.104732
0.119197 -0.118281
-0.543872 0.058152
0.076219 -0.192765
-0.168791 -0.142537
-0.316680 0.012200
0.222058 -0.088823
0.248786 0.236192
-0.068631 -0.216268
-0.098055 -0.242762
0.391049 0.027418
0.011654 -0.014154
-0.024384 -0.179985
-0.261153 0.168430
0.204638 0.191160
-0.059011 -0.059661
-0.249718 -0.025258
0.070426 0.034027
0.096118 -0.144027
0.018598 0.110149
0.171303 0.090095
0.300858 -0.053621
0.021207 -0.048493
0.235532 -0.018200
0.027539 0.072928
-0.033177 0.090099
0.238233 0.209670
-0.100069 0.304511
0.009396 0.156476
-0.048424 0.455019
-0.330478 -0.003833
-0.114405 0.032800
-0.302405 -0.034708
-0.234094 0.042318
0.121761 -0.082311
0.027397 -0.167554
-0.096132 0.004339
-0.016365 0.156897
0.114727 -0.027928
0.066254 0.069079
0.079075 -0.414372
0.327659 0.204758
-0.191862 -0.108959
0.432577 -0.077366
-0.260353 -0.045727
-0.138888 0.090813
-0.077432 -0.223035
-0.124334 0.159632
0.090119 -0.594106
-0.112573 0.026097
0.006486 -0.026955
-0.060457 0.084191
0.274113 -0.578314
-0.233962 0.147446
-0.037710 -0.315474
-0.015184 -0.239434
0.050882 -0.023215
-0.229525 0.040820
0.206121 0.048467
0.153761 0.216192
-0.091419 -0.152231
0.138442 0.055455
0.184277 -0.060584
-0.351228 -0.184663
0.062635 -0.049451
0.016851 0.102665
0.080444 -0.460160
-0.019452 0.416181
-0.077529 0.010994
0.138039 0.166810
0.014827 0.213350
0.131407 -0.133297
-0.227057 -0.056704
0.210549 -0.227762
-0.111950 -0.194611
-0.232381 0.131320
-0.412233 0.195157
-0.126322 0.088827
-0.373173 0.208401
0.102977 -0.244991
-0.362941 -0.234393
-0.362523 0.091929
0.109771 0.041138
-0.323904 -0.432589
-0.355316 0.270323
-0.405575 -0.199348
0.213105 -0.399281
-0.488051 -0.274134
-0.029216 0.189745
-0.512218 0.308147
-0.171433 -0.057486
0.139893 0.088042
-0.449650 0.000102
0.023053 -0.112178
-0.028919 -0.085965
0.387183 0.298975
-0.186509 0.639547
0.175645 0.462463
-0.236961 -0.004230
0.510461 0.318609
-0.029642 0.057153
-0.205011 -0.266785
0.218759 0.435505
0.163925 0.688422
0.135266 -0.138987
-0.310448 0.530645
0.253200 -0.051451
0.205885 -0.120633
0.135863 0.037643
-0.074819 0.216262
0.056057 0.029491
-0.280408 0.594853
-0.127295 0.138765
-0.206454 0.045470
-0.274975 0.395087
-0.023439 0.204799
0.405496 -0.171830
-0.113175 0.289748
-0.104912 -0.163417
0.140551 -0.166978
-0.137200 -0.097880
0.300440 0.054358
0.073157 0.213120
-0.012644 -0.098449
0.268123 0.407211
0.276125 0.151703
-0.231484 -0.043322
0.045026 0.048962
0.278875 -0.156631
0.176161 0.043462
-0.129734 -0.279048
0.273540 -0.322572
-0.242685 -0.394080
0.183894 -0.012754
0.289310 -0.039607
-0.053511 -0.373407
0.597928 0.247904
-0.248672 -0.196649
0.096623 0.040802
-0.277911 0.180791
0.174919 -0.320224
-0.300702 -0.084408
0.169754 0.543385
0.507549 -0.296997
-0.202306 -0.066259
-0.177303 -0.222804
0.192945 0.258528
-0.447971 -0.310005
0.222919 -0.036032
0.168798 -0.046361
0.247182 -0.000358
-0.111249 0.304626
0.247257 0.311673
-0.170606 -0.077261
0.257509 0.319444
-0.515980 0.080411
0.200773 -0.041333
0.128171 -0.015897
-0.065739 -0.086715
-0.538044 -0.005880
-0.205656 0.182188
-0.003665 -0.264667
-0.355271 0.038468
-0.057178 -0.426380
0.106211 -0.134551
-0.389333 -0.114146
0.268370 -0.000661
0.216615 -0.193753
-0.448666 -0.326100
0.271038 0.134104
0.381019 -0.059063
0.244960 -0.122508
-0.444385 0.459073
0.192653 0.305760
-0.295178 0.510707
-0.379463 0.008925
0.390401 0.403938
-0.314550 -0.578457
0.671117 -0.315439
-0.009182 0.393870
0.163687 -0.384754
-0.207213 0.029968
-0.095501 0.129587
-0.207259 0.343517
-0.482119 0.052001
0.714234 0.170224
-0.232158 0.020774
-0.022556 0.307371
-0.396749 0.406345
0.168949 -0.051721
-0.315745 -0.004720
-0.206252 0.328413
-0.361092 -0.384717
-0.087278 -0.178413
0.142703 0.302981
-0.382511 -0.465077
-0.083399 -0.183059
-0.087479 -0.220338
0.768380 0.237679
-0.200129 -0.855990
0.078032 0.208083
-0.119037 -0.267672
0.021391 0.089962
-0.248297 -0.008913
-0.086895 -0.146658
0.211086 -0.693338
0.145851 -0.153412
-0.023460 -0.101271
0.135735 -0.680276
-0.112580 0.388815
0.057280 -0.062535
-0.295112 0.362538
0.219358 0.112983
0.138271 0.166996
0.149567 -0.143447
0.107854 -0.102368
0.075363 0.607781
-0.092831 0.010473
0.201507 0.452147
-0.269176 0.013631
-0.520203 0.702470
0.116018 0.507433
-0.131250 -0.010077
0.385769 0.115769
-0.471743 0.309011
-0.009261 0.200856
-0.396119 -0.228285
-0.267191 0.169589
-0.507914 0.262843
-0.661184 0.326655
-0.253332 -0.091118
0.308403 0.513588
0.146736 0.059857
-0.652095 -0.052905
0.350842 0.007016
0.386030 0.352900
-0.227830 0.085505
0.333772 -0.067399
-0.315721 -0.274681
0.048540 0.190375
0.164445 0.240897
0.022484 -0.406636
-0.290935 -0.015960
0.547404 0.171445
0.128091 -0.247922
-0.208033 0.135959
0.310859 -0.553623
-0.315315 -0.037505
0.060358 0.337651
0.305262 0.431282
-0.109204 -0.292227
0.027569 0.378504
-0.157124 0.151808
-0.437159 -0.083951
-0.731213 0.180541
0.405450 -0.137913
-0.529059 0.025697
0.072095 -0.139102
-0.050408 0.329807
0.860215 -0.212782
-0.220990 0.122944
0.221137 -0.093050
0.500634 0.722955
-0.026395 -0.021095
0.476596 0.069060
0.028550 0.195456
0.193802 -0.015132
0.368998 0.573558
0.317692 -0.022723
0.422805 -0.048914
0.218048 0.141691
0.107425 0.152259
-0.547605 -0.410818
0.909430 -0.087723
-0.062164 0.211339
-0.072624 0.162280
0.374077 -0.341677
0.096659 0.350957
0.110797 -0.015806
-0.493269 -0.132702
-0.536893 -0.380613
-0.080674 1.307539
0.458056 -0.249029
-0.779411 0.349508
-0.215021 0.158816
0.147642 0.069521
-0.231091 -0.747479
-0.072932 0.367767
-0.230734 -0.891691
0.120496 -0.029243
-0.020736 0.129111
-0.213320 -0.188859
0.037986 -0.119943
0.108851 0.008376
0.708834 0.226295
0.023161 0.012236
1.287536 0.092120
-0.740884 -0.772645
0.705349 -0.073480
-0.618643 -0.252236
0.234025 -0.544483
-0.804855 0.183927
0.288630 0.540064
-0.204481 0.347005
-0.352671 -0.199638
-0.567492 0.527117
0.102907 -0.301199
-0.075126 -0.059519
0.007105 -0.265985
0.114282 0.784685
-0.236549 -0.373094
0.318630 0.593516
0.097922 0.141378
-0.137031 -0.011152
0.065669 0.512847
1.042785 -0.159698
0.475004 0.311883
-0.547890 -0.196351
0.362021 0.278729
-0.314228 -0.117725
0.155630 0.772826
-0.426034 0.239966
-0.147595 -0.158719
0.229258 0.286914
-0.300347 0.088803
-0.074429 -1.463231
-0.688826 0.419852
0.120177 -0.322596
0.061105 0.450971
-0.109052 0.228402
0.116681 0.483568
-0.275232 -0.249435
-0.165772 0.078258
-0.278203 0.245340
-0.068171 -1.222245
-1.062107 0.814696
1.013622 -0.989901
-0.545666 -0.482635
0.205492 -0.577595
0.451481 0.124974
0.700964 -0.489988
0.067091 0.146694
1.393654 1.590093
-0.316084 -1.589322
0.668138 1.123143
0.883578 -1.305181
-0.251011 0.268080
0.109764 -0.636232
0.755908 1.251311
0.507477 0.099071
-0.467824 0.785739
1.310551 0.813578
-1.027708 -0.094456
1.475972 0.381559
-0.461318 -0.222153
0.027260 0.254679
-0.197543 0.297810
0.788393 -0.174038
-0.581836 0.432141
-0.607968 0.600431
0.159892 0.326075
-0.732475 -0.026629
-1.168633 0.453637
-0.483668 -0.119410
-0.385554 -0.559284
-0.764070 -0.668622
-0.173385 0.255174
-0.151217 0.236780
-0.747209 -0.716206
-1.198948 -0.047300
-0.018453 -0.325316
-1.590879 -0.361843
0.574401 -1.335177
-0.051877 0.063434
0.513885 -0.987999
0.299080 0.084774
0.710174 -0.766724
0.106431 -1.043572
0.092119 -0.313606
0.716060 -0.173887
-0.245033 -0.778311
1.194236 -0.086750
-0.437754 0.203936
1.005472 -0.641767
-0.551334 0.676573
1.230015 -0.127229
0.187467 1.088685
0.001083 0.087183
1.686208 1.726010
-0.984008 -0.723836
0.975327 1.347257
-0.555886 0.533619
0.608958 1.084480
-1.932318 0.220473
1.284037 2.640088
-2.255856 -0.202053
-0.315843 0.880877
-0.594697 1.555666
-1.091708 -0.743641
-0.437653 1.966774
-0.597348 0.367299
0.836457 -0.029329
-2.483658 -1.390860
2.212768 0.914681
-1.689375 -2.587013
0.747615 -1.646786
0.261777 0.974245
1.588395 -1.889872
-0.816916 -0.110341
1.299376 -0.684653
1.564368 1.289982
-1.907671 -2.575535
0.661074 1.324911
-0.665371 -1.504210
-0.462383 -1.557397
-0.282104 -0.841761
0.848624 -2.440643
-0.842538 -0.941181
1.034173 0.995743
0.646133 0.810621
-0.601979 -0.632598
-0.328691 2.390259
2.883487 -0.027580
-0.984952 -0.319742
1.054581 1.394909
1.427783 1.211304
-1.818663 2.538539
-0.119991 1.789024
0.145615 3.353484
-0.329091 -1.076177
-0.029343 1.686036
2.495127 -0.209890
-1.589920 -0.883171
1.600863 -0.176600
-0.350912 -1.891254
-0.671187 0.203335
0.619987 -1.160625
1.130085 -0.619896
-1.572157 -1.342276
-0.355137 2.115025
-0.494623 -1.657578
-1.540490 -1.660863
-2.670457 1.734032
3.245185 -3.581181
-6.555714 2.588209
0.714236 -2.582301
-4.345782 3.189095
-2.071176 -3.299283
-5.134507 2.858028
4.787300 -1.759442
-3.931234 0.064164
4.085305 2.525300
-0.360937 -1.648995
-0.167687 1.220406
-1.741650 -0.853608
4.067322 0.630030
-1.249064 -1.498008
1.325409 5.058392
6.268917 0.456548
-2.903900 2.943739
2.380035 -0.879204
1.229787 0.087903
4.512227 -7.825419
-0.652558 5.830560
10.099323 -11.949764
-1.166414 8.638420
-0.513753 -6.904628
6.759140 7.450645
-6.003706 -11.349728
2.110372 8.283745
-0.092561 -3.857403
2.035055 -2.640318
-8.969730 6.725194
5.344746 -6.599446
-6.069462 1.549996
-7.362817 -1.927489
0.162386 7.677178
-4.540772 -6.323154
-17.736373 10.386132
-7.614479 0.806883
1.323908 -1.799822
-14.026364 -3.062162
11.912396 -1.734317
6.790010 7.479078
13.209297 -2.002845
-14.153434 6.277746
27.272530 8.881194
-18.445879 -11.218352
14.028884 -2.851828
-9.064497 9.736989
38.045397 2.761663
-30.145524 -3.286614
-1.421536 20.386611
22.189384 1.516403
-36.864737 -44.036108
24.552345 -8.644319
8.366112 -15.183755
41.245892 -72.642305
-40.650159 -10.309068
69.843829 18.268615
-22.628620 -105.823091
-32.469223 17.019460
24.447370 60.044965
-28.465966 -23.796198
-56.735612 10.318583
-131.313825 253.529773
64.865510 -81.747990
-185.912234 33.499072
121.348531 263.152659
199.206091 -85.834795
156.592476 -41.053713
-11.088025 847.275906
-4638.765378 -861.031925
