5634.295019 8215.611892
-448.129221 1949.270695
-253.759510 132.926786
-368.981940 433.802225
-145.078260 -79.436176
-55.183271 114.511595
-135.065998 -7.294550
-35.973165 13.507137
-38.008104 -18.932768
-15.735898 17.396793
-46.961419 -9.496028
5.401622 1.676087
-22.102612 10.710174
-6.039951 -2.254390
-12.470964 0.196798
0.820065 -1.214081
-15.500418 6.462470
-3.416412 -5.573672
-4.596071 8.760678
-6.728368 -0.930486
-5.627195 3.328525
-2.937666 -2.571085
-3.273238 4.997151
-6.994180 -4.288850
0.587217 1.506930
-5.380890 0.785802
-2.453103 1.106289
-4.594509 -0.013946
2.057414 1.730373
-6.604256 0.266674
0.382572 -1.295472
-2.638064 0.400345
-1.548041 0.486895
-3.483096 0.865484
0.041966 -1.009224
-2.524276 2.465667
-2.157899 -1.489489
-1.073360 0.715018
-1.175397 -1.150178
-1.338442 0.764883
-1.692383 -2.043420
-0.166856 1.325484
-2.361570 -0.233771
0.412443 0.204709
-1.175363 -0.362516
-0.113977 0.193515
-2.071939 -0.446926
0.706375 0.122990
-1.837599 1.308657
-0.365758 -0.518734
-1.344182 0.717920
-0.208345 0.027651
-1.620960 0.863654
-0.132378 -1.790634
-0.644915 0.721585
-1.511951 -0.761124
-0.621453 0.781938
-0.558157 -1.314923
-0.842922 1.329313
-0.900285 -1.443692
-0.247300 -0.223650
-0.964607 -0.306409
0.201294 -0.071288
-0.874448 -0.485231
0.277690 0.097200
-1.242912 0.300064
0.098268 -0.331676
-0.840698 0.315893
-0.012296 -0.415160
-0.761615 0.003337
0.292421 -0.507126
-0.692729 0.665560
-0.332614 -0.762915
-0.317711 0.460584
-0.554439 -0.361501
-0.614971 0.417944
-0.243011 -0.851441
0.435764 0.512249
-0.938636 -0.731298
-0.106835 0.032474
-0.733514 -0.034481
0.169231 0.464127
-0.896448 -0.736250
0.331654 -0.551472
-0.953447 0.056314
0.451417 -0.171931
-0.589544 0.061543
0.750565 0.224954
-0.773251 0.032216
-0.261218 -0.134710
-0.260523 0.485245
-0.225960 -0.607397
-0.180756 -0.054537
0.017857 -0.605653
-0.167338 0.216606
-0.403506 -0.690786
0.145809 0.346920
-0.544910 -0.290980
-0.134737 -0.086133
-0.080447 -0.616501
0.388209 0.093942
-0.618464 -0.746715
0.369015 -0.234055
-0.687934 0.133586
0.163642 -0.044033
-0.674055 -0.138996
0.222901 -0.692790
-0.713841 -0.013151
-0.062818 -0.740329
-0.427346 0.078562
0.011342 -0.323186
-0.447622 0.459144
-0.283768 -0.517540
-0.468546 0.495843
-0.692918 -0.530900
-0.349256 0.474544
-0.269573 -0.480516
-0.473738 0.185281
-0.426056 0.033778
0.125305 0.223768
-0.795403 0.156872
0.068022 0.233127
-0.221085 0.129353
0.342738 -0.013227
-0.493743 0.103992
0.584291 -0.162940
-0.020676 0.386656
0.087947 -0.272678
-0.272756 0.136673
0.108110 -0.214015
-0.264000 0.225693
-0.207899 -0.610105
-0.147763 0.182867
-0.252610 -0.247249
-0.176371 0.342171
-0.408529 -0.150307
-0.018292 0.612577
-0.422104 -0.186608
-0.072586 0.218283
-0.706002 -0.087641
0.038064 0.262994
-0.458832 -0.001537
0.306199 0.051719
-0.507211 0.039800
0.313563 -0.124308
-0.386735 -0.102464
-0.101376 0.192334
-0.003401 0.093507
0.167555 -0.580362
-0.275542 0.183476
-0.216160 -0.434198
-0.009804 0.044438
-0.179470 -0.417527
-0.211428 0.302904
-0.328740 -0.314299
0.113925 0.260090
-0.386739 -0.061609
0.064510 0.239827
-0.081677 -0.121026
0.383565 0.027035
-0.441314 -0.104395
0.458223 0.067273
-0.099156 0.320176
0.268250 -0.452322
-0.182693 0.187373
-0.166901 -0.052399
-0.146382 -0.102130
0.025194 -0.136575
-0.424040 0.010887
-0.065785 -0.190234
-0.371636 0.235859
-0.151437 -0.083118
-0.139204 0.462394
0.139944 -0.347978
-0.141981 -0.109241
0.041274 -0.183056
0.212389 -0.019094
-0.128973 -0.198242
0.380831 0.114333
-0.225880 0.166938
0.050986 0.207477
-0.398104 0.129684
-0.095204 0.147236
-0.719347 0.194099
-0.201512 0.026104
-0.446284 0.186530
-0.021542 -0.073915
-0.224036 0.081745
0.003879 -0.385687
-0.159072 0.122968
0.017259 -0.275836
0.091660 -0.008209
-0.083307 -0.436367
-0.074234 0.046506
-0.010612 -0.357995
0.005211 0.054929
-0.335668 -0.319657
-0.050626 0.233402
-0.173255 0.191758
0.111393 0.352629
-0.259629 -0.063244
0.247333 0.278492
-0.391471 0.040049
0.102980 -0.034042
0.043108 -0.038461
-0.001879 -0.283847
-0.085859 0.127838
0.148423 -0.332922
-0.060355 0.024817
-0.106552 -0.410839
-0.303077 -0.061044
-0.309319 -0.318180
-0.062301 0.323642
0.160634 -0.159871
0.312356 0.011260
-0.185965 -0.256096
-0.084999 0.123907
-0.404099 0.067636
-0.088585 0.052760
-0.450846 -0.367493
-0.191342 -0.371438
-0.649209 -0.193436
-0.059759 -0.075163
-0.205190 -0.005459
0.165089 -0.139995
-0.412322 0.010946
-0.282887 -0.151597
-0.167792 0.157905
0.017266 -0.151840
-0.176294 -0.157076
0.074465 -0.214476
-0.119397 0.287827
0.121853 0.058188
-0.067615 0.062971
-0.414152 0.059537
-0.138384 0.215726
-0.431238 -0.126671
-0.093005 0.185460
-0.197412 -0.043691
0.338197 -0.007198
-0.200447 -0.118050
0.093380 -0.106336
-0.206412 -0.113789
-0.043772 -0.236066
-0.455057 -0.147778
-0.140952 -0.234388
-0.163614 -0.003958
0.049227 -0.341530
-0.281605 -0.020594
-0.010970 -0.097020
0.165440 0.336420
0.203192 -0.260389
-0.045730 0.088404
-0.111038 0.035080
0.003214 0.394708
-0.036639 0.030927
-0.141748 0.169935
-0.418014 -0.100200
-0.124187 0.331081
-0.292279 0.113532
0.112958 0.245146
0.115776 -0.153606
0.104936 0.050522
-0.529314 -0.065299
0.303880 -0.354225
-0.526866 0.333663
-0.088801 -0.848745
-0.023768 0.045513
-0.529279 -0.362718
0.088200 0.123486
0.092896 0.191650
0.043030 0.275350
-0.000895 0.077285
0.185901 0.300947
-0.225728 -0.013198
-0.074526 -0.112522
-0.289088 -0.161087
-0.085751 -0.012685
-0.383771 -0.117494
-0.022314 -0.109037
-0.221413 0.038380
-0.035201 -0.043002
-0.198901 -0.210528
-0.009188 -0.162186
-0.090308 -0.106780
0.074668 -0.460964
-0.138832 -0.292139
-0.090449 -0.293798
-0.063691 -0.048051
-0.010107 -0.133401
-0.124811 0.074865
-0.080769 0.342909
0.344663 0.256650
0.010483 -0.159634
-0.084825 0.027230
-0.213096 -0.245572
-0.004550 -0.081608
-0.325447 -0.174724
0.134734 0.027361
0.208683 -0.095421
0.292404 -0.123033
-0.273443 -0.078226
0.027604 0.110271
-0.025097 0.403004
0.012842 -0.114250
-0.182338 0.010293
-0.007339 0.026435
0.014910 0.083388
0.013431 -0.246748
-0.171629 0.151337
-0.008481 0.090734
-0.091679 0.118076
-0.250035 -0.015184
-0.131656 0.250266
0.019936 0.009878
0.186786 -0.244208
-0.172758 -0.399876
-0.168134 -0.134062
-0.006586 -0.095950
0.012145 -0.043782
-0.075669 0.080242
0.155061 -0.014361
0.105896 0.164541
0.303494 -0.211712
-0.063085 -0.291737
-0.076343 -0.347490
-0.122209 -0.065999
-0.044584 -0.080002
-0.015505 -0.139748
0.307608 -0.046619
-0.126306 0.018172
-0.036090 -0.181705
-0.048302 0.383914
-0.177286 0.092229
-0.075085 0.227521
-0.284191 0.006778
-0.214338 0.162500
-0.407713 -0.138236
-0.176705 -0.008042
-0.471769 -0.107732
-0.188192 0.039909
-0.008366 0.131346
0.156542 -0.011350
-0.045022 -0.097477
0.058210 -0.062980
-0.129253 0.062446
-0.099118 -0.201749
-0.384071 -0.235837
-0.399631 -0.054294
-0.154727 0.174486
-0.029809 -0.205451
0.187367 -0.114584
-0.117726 -0.343345
-0.237637 0.010856
-0.141044 -0.011555
0.019701 0.165218
-0.105674 -0.163863
0.039838 0.018754
-0.078988 -0.131615
0.123144 -0.063562
-0.031243 -0.066068
0.125531 -0.150539
-0.287615 -0.200601
-0.134859 -0.183281
-0.404194 0.162075
-0.128729 -0.059907
-0.028148 0.215656
-0.002596 0.096609
0.024735 0.157265
0.048277 0.224664
-0.045596 0.111679
0.003283 0.088580
-0.020973 0.084483
-0.089936 -0.304145
-0.230051 -0.167961
-0.362549 0.017831
-0.173339 0.205350
0.005234 0.032850
-0.084584 -0.184170
-0.377415 -0.031698
-0.024971 -0.086194
-0.106592 -0.335897
-0.021973 -0.302752
-0.250001 -0.172213
0.114948 -0.025709
0.089150 0.019180
0.190221 -0.101364
-0.074535 -0.016172
-0.005705 0.012851
0.045592 -0.000987
0.030106 -0.222082
-0.279413 -0.109283
-0.171567 -0.154293
-0.124992 0.203010
0.017655 -0.112954
0.144954 -0.003626
-0.008557 -0.319359
0.001470 -0.100806
-0.011366 -0.155075
0.063062 -0.140382
-0.054002 -0.281032
-0.023569 -0.289821
-0.283040 -0.101849
-0.061185 0.037729
0.174803 0.065100
0.277238 0.021085
0.107996 -0.108302
0.041303 -0.086871
0.001210 0.040418
-0.074207 -0.224238
-0.345569 0.134823
0.111603 0.128773
0.408511 0.134876
0.379149 -0.299487
0.046414 -0.135838
0.130555 0.017295
0.132408 0.284657
0.127552 -0.073499
-0.038759 0.036160
-0.185329 0.074795
-0.012569 0.349161
0.005209 0.020976
0.134979 0.252171
-0.157738 0.070303
0.045728 0.115820
-0.078966 -0.090486
-0.023960 0.387023
-0.315824 -0.430191
0.789421 0.214877
-0.733005 0.354729
0.500040 -0.832866
0.130569 1.070888
-0.586234 -0.395995
0.562897 0.060174
-0.338822 0.053876
-0.100457 -0.276969
-0.222180 -0.171705
0.262474 0.007057
-0.316246 -0.033560
0.315783 -0.091794
0.107868 0.057828
-0.027661 -0.192041
-0.307567 -0.123843
-0.008334 0.092101
-0.227384 0.210614
-0.044440 -0.117216
-0.031988 0.179635
-0.020238 0.086466
-0.111698 0.077256
-0.141337 -0.277327
-0.338222 0.223492
-0.371786 0.110942
-0.055462 0.083411
-0.033795 -0.175554
-0.187147 0.005282
-0.124192 -0.324494
0.062472 -0.173262
-0.192641 -0.109262
0.123786 -0.065170
0.116548 0.027840
0.318309 -0.028699
-0.006745 -0.077054
0.049850 -0.125962
-0.232304 0.083078
-0.277651 -0.080966
-0.144421 0.141412
-0.049446 -0.153534
-0.111238 -0.112836
0.035736 -0.358024
-0.185826 -0.153331
-0.116052 0.013448
-0.018094 0.365880
0.357468 0.097221
0.312958 0.151978
-0.074670 -0.172642
-0.145464 0.008604
-0.253608 0.145408
-0.117250 0.224196
-0.252110 -0.051442
-0.011180 0.153930
-0.092455 0.058908
0.126289 -0.057859
-0.158586 -0.134060
0.001789 0.099563
-0.143655 0.140658
0.032074 0.042681
-0.106581 0.128491
-0.214116 -0.014787
-0.247235 0.196260
-0.045614 0.094485
-0.083239 0.118410
0.109745 -0.298512
0.023930 -0.091521
-0.217795 -0.296167
0.098156 0.063142
-0.101403 0.051566
0.303912 0.255479
0.020776 0.002093
0.041000 -0.005969
-0.239411 -0.036742
-0.276391 -0.024100
-0.488012 -0.067556
-0.178186 0.024088
-0.081136 0.088040
0.128619 -0.127229
0.134909 -0.186763
0.197204 -0.209673
-0.141582 0.020050
0.112471 -0.061096
0.093471 0.135294
0.032374 -0.128202
-0.084446 0.057061
0.004219 0.023949
-0.022876 0.134250
-0.064208 -0.022624
-0.053513 0.038824
-0.266272 0.025609
-0.117165 0.057558
-0.274150 -0.045097
-0.055853 0.210164
-0.088913 0.133653
0.232834 -0.182603
-0.103912 -0.076786
-0.291960 -0.064036
-0.268840 0.201293
0.146029 0.026368
-0.246925 0.089102
-0.199732 -0.025543
0.178419 0.008232
0.106043 -0.088023
-0.263059 -0.415470
0.113249 -0.079547
-0.104747 0.151262
0.158285 -0.343975
-0.082571 0.069106
-0.374770 0.013539
-0.026445 0.471567
0.067459 0.098647
0.165203 0.009131
-0.149895 -0.275495
0.048531 -0.083822
-0.018417 -0.120744
0.204046 0.000212
0.079636 -0.156382
0.131105 -0.192024
-0.226792 0.111645
-0.017723 -0.102351
-0.095749 0.022826
0.060555 -0.120210
0.027199 0.060068
0.218847 -0.232366
0.171622 -0.022698
-0.044501 -0.064921
0.097879 0.315208
0.148876 -0.234219
-0.042072 -0.042832
-0.470306 -0.230530
-0.162352 0.159902
-0.104616 0.108104
0.082060 -0.032642
-0.154572 -0.085894
-0.008554 0.156863
0.011519 0.084214
0.200276 -0.210188
-0.249920 -0.064047
-0.114208 0.147898
0.011279 0.239358
0.334431 0.063612
-0.090596 0.002849
0.019690 -0.161250
-0.064555 0.042850
0.045926 -0.239364
-0.126157 -0.154546
-0.229880 -0.134641
0.128055 0.238585
-0.047137 -0.078412
-0.117573 0.019487
-0.328653 0.013898
-0.065098 0.263691
-0.132722 -0.105324
0.126501 -0.260973
-0.277027 -0.208461
0.062729 -0.135840
-0.205257 0.000343
0.162838 0.004474
-0.174116 -0.020656
-0.139004 -0.139110
-0.342088 0.152584
-0.085674 0.031874
-0.097734 0.109621
0.150793 -0.084922
0.164516 0.255250
0.100930 -0.371456
0.274178 -0.003689
-0.359284 0.004911
0.021741 0.041757
0.103490 0.088588
-0.164459 -0.182911
-0.332226 -0.114269
-0.157945 0.326550
0.210529 0.092913
0.253952 -0.204939
-0.034951 -0.134775
0.103244 -0.027234
0.017600 0.043542
0.159637 0.052147
-0.162588 0.230262
0.159595 0.181444
0.128456 0.239365
0.054896 -0.114610
-0.092521 0.116047
-0.026334 -0.072554
-0.059932 0.193745
0.001752 -0.094152
-0.109864 0.074755
-0.085383 -0.092690
-0.009351 0.080803
-0.105966 -0.145175
0.045729 0.018222
-0.071622 -0.057623
0.035942 -0.002414
-0.262845 0.114948
-0.086339 0.227303
-0.117357 0.205901
0.150757 0.149031
-0.018386 -0.182333
0.083258 -0.392752
-0.192655 -0.231560
-0.023994 -0.040439
0.009327 0.018129
0.263533 0.085994
0.128786 0.279047
0.118413 -0.139012
-0.006701 0.278897
-0.250170 -0.056589
-0.141901 0.266900
-0.248741 0.121676
-0.004378 0.171207
-0.090301 -0.033262
0.166894 0.045941
-0.128690 -0.126331
0.172417 0.052002
-0.043659 0.019938
0.215921 0.173848
-0.017348 0.086481
0.065761 -0.023586
-0.266022 0.279984
-0.037168 0.310931
0.092348 0.248803
0.180654 -0.144966
-0.112177 -0.031379
-0.116897 -0.197364
-0.171816 0.146945
-0.058571 0.037954
-0.004824 0.372838
0.037245 0.194520
0.238527 0.240465
0.009519 -0.024853
-0.242628 -0.063361
-0.355540 0.102395
-0.155176 0.119532
-0.139008 -0.107099
0.171893 -0.191117
-0.206902 -0.421944
0.013741 -0.283273
-0.123561 -0.054244
0.135135 0.023437
-0.055399 0.097109
0.273449 0.016597
-0.067463 0.269262
0.078260 -0.152954
-0.210917 0.130350
-0.104306 0.112911
-0.088978 0.221638
0.024437 -0.076903
-0.001122 0.166782
0.084637 -0.109672
0.137755 -0.047480
-0.129614 -0.194462
-0.043147 0.234155
-0.025441 0.117904
0.330197 0.248253
-0.045368 -0.103234
0.065793 -0.036758
-0.037793 -0.011686
0.073111 0.079084
-0.270606 -0.171047
0.084253 0.194893
-0.158082 0.376542
0.008445 -0.067737
-0.221016 -0.010812
0.055467 -0.008305
-0.833482 0.081392
0.332947 -0.589833
-0.183130 0.910887
-0.393620 -0.889915
0.872333 0.446781
-0.931317 0.189295
0.350218 -0.150363
-0.080311 0.575684
-0.132282 0.092954
-0.157929 -0.027476
-0.026162 0.097926
-0.365291 0.468406
0.012007 0.111705
0.047703 0.226290
-0.163131 0.034360
-0.305966 0.263932
-0.001028 -0.047767
-0.020303 0.121890
-0.256222 -0.187788
-0.265625 0.110645
-0.211836 0.183898
-0.255804 0.237184
-0.431515 0.031000
-0.290421 0.386202
-0.174235 0.189387
0.150589 -0.311071
-0.391380 -0.400342
-0.289737 -0.078814
-0.374494 0.063385
0.141100 0.146697
0.011364 0.048300
0.055258 -0.066903
-0.137138 -0.153084
0.101909 -0.125742
-0.257358 0.011757
0.039386 -0.257559
-0.203651 -0.065069
-0.120603 -0.030572
-0.319363 0.135861
-0.049705 -0.056943
-0.043461 0.258386
-0.177632 -0.131364
-0.008542 0.004568
-0.144557 -0.112649
-0.082641 -0.140303
-0.284442 -0.299192
-0.127445 0.053012
-0.133031 -0.056537
0.175022 -0.021390
-0.027749 -0.076619
0.014912 0.056774
-0.115052 0.093446
0.149974 -0.012625
-0.125423 -0.061394
-0.301353 -0.250154
-0.179639 0.173098
0.202073 -0.025730
-0.054138 0.046040
0.153849 -0.137088
0.103141 0.175173
0.074562 -0.145406
-0.159970 -0.052955
-0.295719 -0.095731
-0.086195 0.361323
-0.023094 0.093490
-0.006119 0.136920
0.012096 0.137752
-0.142284 0.487515
0.024948 0.146895
0.267830 0.293932
-0.166836 -0.170775
0.049377 -0.207112
-0.295738 -0.089447
-0.074467 -0.078065
-0.241925 -0.033670
0.101322 -0.114476
-0.397137 0.070738
-0.141280 -0.072377
0.019632 0.190441
0.127716 -0.108328
-0.040014 -0.101192
0.036987 -0.190697
0.007523 0.146312
-0.198776 -0.005595
0.040782 0.187397
-0.138181 -0.092091
0.104691 0.196876
-0.026640 -0.414224
0.088556 -0.309883
-0.315707 -0.234182
0.017267 0.091086
0.005956 0.114959
0.289189 0.171079
-0.167280 0.119396
0.239182 0.300860
-0.040661 0.260352
0.190583 -0.053765
-0.135873 0.012712
-0.064548 -0.073033
-0.220154 0.241063
0.148704 -0.088282
0.153364 0.240094
-0.041837 -0.227152
0.076349 0.151127
-0.233675 -0.020309
-0.052330 0.234968
-0.133866 0.149216
-0.096379 -0.075322
-0.264325 -0.277984
-0.340781 -0.051510
-0.468109 -0.259650
-0.194568 -0.224837
-0.415413 0.032061
0.002164 -0.046552
-0.085508 0.099354
0.385391 -0.121334
-0.152299 -0.133250
-0.038361 -0.108442
-0.242855 0.121493
-0.123385 -0.088528
-0.374700 0.234731
-0.027529 0.069230
0.014384 0.240896
0.055680 -0.319701
-0.164998 0.160426
-0.104439 0.147885
0.090489 0.143172
-0.187936 -0.202962
-0.331692 0.231000
-0.317566 0.071607
0.164309 0.082600
-0.173918 -0.203637
0.121776 0.012328
-0.218396 -0.013662
0.168206 0.021294
-0.323621 0.255273
-0.078523 0.228317
-0.179276 0.197490
-0.087315 -0.252819
-0.550709 -0.026858
-0.440698 -0.173195
-0.124243 0.102650
-0.263719 -0.260836
-0.101538 0.307923
0.259748 -0.162021
0.191747 -0.023303
-0.044844 -0.478123
-0.033854 0.054285
-0.180780 -0.202509
0.092175 -0.065359
-0.274642 -0.266524
-0.005326 0.080224
-0.227545 -0.128548
0.158794 0.061536
-0.049134 0.044555
0.203602 0.012172
-0.194547 -0.054767
0.041297 -0.057242
-0.343231 0.139797
-0.034065 -0.222730
-0.313716 -0.053198
-0.173357 -0.225155
-0.200613 0.355455
0.283479 0.121516
0.163159 0.160198
0.360474 -0.157411
-0.203822 0.420720
-0.111298 -0.580098
0.234409 0.416009
-0.645839 -0.357894
0.460304 -0.344916
-0.624970 0.103196
0.124080 -0.034731
-0.248523 0.195012
0.234646 0.329460
-0.301240 0.256367
0.187835 -0.088052
-0.169659 0.390492
0.012293 -0.113187
-0.149324 0.018587
0.059265 -0.124692
-0.304919 0.413478
0.041073 -0.156671
0.079398 0.142318
-0.296335 -0.110926
-0.155744 0.373911
0.019552 -0.091240
0.269918 0.090019
-0.386829 -0.354519
0.000325 -0.078801
-0.197479 -0.180947
0.233433 -0.136347
-0.235617 -0.452360
0.163040 -0.131977
-0.381193 0.164797
0.154045 0.077559
-0.128006 0.477520
0.176036 0.055617
-0.118743 0.060352
-0.094039 -0.404815
-0.177817 0.525808
0.233074 -0.360200
0.134983 0.093077
-0.014331 -0.153034
-0.184646 0.396672
-0.052355 -0.020613
0.154745 0.236256
-0.168542 -0.320210
0.006310 0.045994
-0.099660 -0.291500
0.399396 0.281563
-0.026623 -0.040889
0.409123 -0.064742
-0.189284 -0.050204
0.054377 -0.126127
-0.354733 -0.123747
0.251245 -0.328402
-0.180704 -0.147112
0.217626 -0.480360
-0.148598 0.159456
0.150973 -0.122283
-0.099953 0.396927
0.155425 -0.078730
0.106241 0.307686
-0.136822 -0.484306
-0.001625 0.015517
-0.260719 -0.202148
-0.058207 0.166645
-0.466073 -0.192295
0.290397 0.409909
-0.699425 -0.185167
0.023215 0.167845
-0.528595 -0.016505
0.090794 0.149212
-0.361223 0.172739
0.330296 -0.143543
-0.159043 0.185706
0.281276 -0.082395
-0.073192 0.083693
0.269219 -0.405532
-0.238273 0.079018
-0.110764 -0.260752
-0.013981 0.250150
-0.015486 -0.295493
-0.098444 0.275468
-0.158622 -0.185739
0.084564 0.472860
-0.359116 -0.088749
0.219226 0.427047
-0.241255 0.067601
0.188552 0.172925
-0.226279 -0.187556
0.400024 -0.040583
-0.310456 -0.031239
0.369555 -0.213530
-0.048158 0.170076
0.343742 0.005353
-0.315755 0.500098
0.245770 -0.328172
-0.524263 0.691305
-0.124120 -0.010007
-0.422641 0.273968
-0.083615 -0.031415
-0.016632 0.561206
-0.030760 -0.433783
0.181025 0.062495
-0.283112 -0.110833
-0.083721 0.059060
0.067879 -0.352511
-0.140406 0.260014
-0.359649 -0.485001
0.410348 0.250968
-0.682584 0.045765
0.270826 0.195332
-0.307607 0.301727
0.261608 0.046564
-0.804899 0.350769
0.167921 0.051326
-0.138634 0.590700
0.242225 -0.290311
-0.354171 0.139421
0.082489 -0.338692
-0.001966 0.589858
-0.097142 -0.660645
0.008931 0.123515
-0.437798 -0.352257
0.146585 0.438603
-0.521901 -0.515343
0.409115 0.675688
-0.173366 -0.372698
0.185899 0.165742
-0.513405 0.119573
0.440714 0.549411
-0.317044 0.241948
0.574477 0.045533
-0.530419 0.397318
0.280929 -0.088396
-0.165654 0.415401
0.367754 0.034869
-0.098797 0.506263
0.399380 -0.401650
-0.030017 0.710923
-0.191243 -0.171205
-0.055722 0.408585
-0.212532 -0.460347
-0.321215 0.578024
-0.597352 -0.410082
0.300167 0.464060
-0.534352 -0.198808
-0.023597 0.465964
-0.744874 0.190715
0.500338 0.500286
-0.753020 0.263307
0.388654 0.101287
-0.311884 0.543200
0.794486 -0.168724
-0.588855 0.545350
0.974363 0.037959
-0.417936 0.502700
0.286670 -0.272905
-0.035812 0.619196
0.244073 -0.406695
0.027446 0.426292
0.164789 -0.575643
0.326284 0.932420
-0.220609 -0.305612
0.252055 0.314205
-0.609667 -0.394735
-0.112905 0.481977
-1.023042 -0.524957
0.784267 -0.011972
-0.713624 -0.026953
0.461749 -0.473681
-0.611511 -0.038633
0.215273 -0.074659
-0.908775 0.449008
0.409475 -0.312207
-0.408523 0.419093
0.224327 -0.481113
-0.294680 0.672915
0.147025 -0.435522
-0.492038 1.035845
-0.499409 -0.374289
-0.143252 1.080208
-0.943713 -0.695884
-0.115137 1.007823
-0.332023 -0.898353
0.044547 0.949401
-0.703220 -0.141964
0.576253 0.402362
-0.818521 0.198049
0.174128 0.291334
-1.210785 -0.266761
0.621267 -0.007154
-0.920076 0.659050
0.721824 -0.470459
-0.415152 0.393149
0.176176 -0.204400
-1.082448 1.409855
0.245881 -0.338714
-0.091759 1.302871
-0.388525 -0.693849
-0.464478 1.065517
-0.563373 -0.304966
-0.148408 1.607360
-1.092184 -0.621085
-0.007706 0.962161
-1.691648 -0.264324
0.242412 0.552897
-1.100770 -0.502356
0.988254 0.514891
-1.701333 -0.182313
1.300421 -0.301476
-1.680471 1.277998
1.018971 -0.069197
-1.611758 0.006349
0.872410 0.274498
-1.109004 1.572436
0.192883 -0.897670
-0.131756 1.831586
-0.413337 -0.267071
-1.438388 1.767453
-1.199864 -0.795444
-0.353496 2.774699
-1.898363 -0.575563
0.431357 1.127665
-1.783816 -0.352038
0.138446 1.638479
-2.466384 -0.492926
1.203949 1.024780
-3.324232 0.574580
0.632004 0.027614
-2.195330 1.516464
1.256093 0.524999
-2.895284 1.290026
0.875670 -1.173916
-3.076083 3.817030
-1.482033 -0.998859
-1.770120 2.885119
-0.239266 -0.796727
-2.556656 4.144876
-2.376700 -3.077395
0.446905 5.340937
-3.770105 -1.331628
-2.634302 2.950265
-3.198748 -1.231201
-0.540215 4.416843
-7.485137 0.159408
3.500593 1.305785
-5.776219 2.533235
-0.621659 0.948286
-8.550954 1.889633
1.503279 1.418476
-12.194110 7.677232
-0.687674 -4.215739
-6.030717 9.363919
-4.890103 -2.182992
-11.373469 9.459525
-2.193464 -6.289653
-8.810250 19.606423
-21.957422 -12.261421
-3.515389 15.135344
-22.177363 3.482826
-9.799109 26.655743
-31.705993 -15.273397
17.577869 30.118444
-111.370750 9.275297
-33.726371 8.406130
-109.263641 68.154529
27.092032 12.316794
-472.889216 -132.453452
-86.409735 -356.601397
-2882.669880 4342.518212
