5685.778368 8394.552738
-388.883613 2023.128816
-213.811289 595.321597
-849.794036 314.746747
-105.126386 -160.450659
-123.099698 10.522563
-42.123347 -33.923140
-63.164411 -18.089749
28.343119 10.783714
-45.613958 11.254945
-0.298279 -1.327869
-26.424452 16.403083
-14.428484 18.258587
-26.198620 -5.578284
0.824953 6.785220
-20.021781 -0.443876
-3.989939 -2.833850
-6.631213 -4.848413
-4.447392 7.884549
-9.756644 -4.071893
1.003864 5.421246
-7.367379 1.602441
-5.167834 3.320080
-3.033556 -2.670015
-3.575549 4.937435
-6.345357 -4.075370
-2.166646 1.167446
-2.368551 -0.668798
-4.542455 1.899469
-1.357978 -2.687490
-1.881715 4.866906
-1.591173 -2.033359
-3.386267 0.860967
0.375488 0.157780
-5.021041 0.280761
-0.956473 -1.872817
-1.978239 1.402506
-0.885383 0.127850
-2.398706 -0.459164
0.835066 0.350982
-2.924999 0.838414
-0.170769 -0.648505
-1.641116 0.133737
-0.781219 0.659571
-2.817169 -1.364354
0.257116 0.267970
-2.124888 0.241702
-0.227139 0.319790
-0.789873 -0.958029
-0.146865 0.959291
-1.913191 -1.132301
0.037258 0.569784
-1.292387 -0.113033
-0.989374 0.556657
-0.406866 -1.192446
-0.490171 1.603803
-1.360246 -0.771586
-0.494143 0.112350
0.129292 -0.892203
-1.232162 0.432458
-0.256528 -1.398668
-0.644039 1.023658
0.074190 -0.641596
-1.480868 0.004514
0.761993 0.171588
-1.336635 -0.146485
-0.441744 -0.519740
-0.587135 0.216604
0.107033 0.042067
-1.044049 -0.416391
0.271533 0.083921
-1.181453 0.228779
-0.163085 -0.059919
-0.600343 -0.562786
0.269346 0.493497
-0.801324 -0.622589
0.393860 0.310560
-0.715733 -0.142231
-0.369000 0.297826
-0.327226 -0.688930
-0.194992 0.827223
-0.900610 -0.559044
-0.178959 0.249353
0.072841 -0.317969
-0.387301 0.464078
-0.087358 -1.111901
-0.551311 0.279358
-0.323118 -0.413814
-0.546783 0.410626
0.441382 -0.128950
-0.714983 0.251260
0.232106 -0.659576
-0.652275 0.361843
-0.038028 0.108499
-1.196349 -0.267144
0.678642 0.160191
-0.217095 -0.243210
-0.388754 -0.004853
-0.493889 0.053483
-0.008540 0.220497
-0.494166 -0.614887
0.569687 -0.052416
-0.330227 -0.298615
-0.174465 -0.114112
-0.291023 -0.625550
0.043866 0.660389
-0.393733 -0.438862
0.054578 0.002507
-0.007021 -0.424874
-0.401903 0.215123
-0.031974 -0.801096
-0.182932 0.173303
-0.252911 -0.460840
-0.457752 0.077543
0.220957 -0.304264
-0.533463 0.061902
0.131625 -0.812978
-0.546819 -0.089213
-0.178699 -0.257392
-0.911739 -0.432386
0.338183 -0.211047
-0.726260 0.271014
-0.007070 -0.209301
-0.307355 -0.351693
0.060093 0.204523
-0.861564 -0.310971
0.073304 0.517973
-0.272410 -0.020363
-0.710646 0.185925
-0.379476 0.019292
-0.070053 0.611590
-0.763158 -0.011490
-0.190545 0.288361
0.002363 0.075385
-0.246586 0.525206
-0.173291 -0.386214
-0.005837 0.443755
0.082250 -0.138077
-0.155047 -0.099947
0.207454 -0.364797
-0.606184 0.285677
-0.137145 -0.373987
0.011744 -0.228274
0.276382 -0.164420
-0.696182 -0.162730
0.166879 0.017361
-0.602709 0.186528
0.053906 -0.250341
-0.517680 -0.225669
0.076791 0.294623
-0.595575 0.006127
0.023584 0.087071
-0.384146 -0.166905
-0.013953 0.241162
-0.129605 -0.205214
0.236035 0.378604
-0.120551 -0.252514
0.112095 0.282608
0.175155 -0.086100
-0.531246 0.281821
-0.299940 -0.028109
0.222765 0.017957
-0.062352 -0.495687
-0.040174 -0.147799
0.222016 -0.227370
-0.119058 0.420379
-0.246987 -0.362252
0.019991 0.182039
-0.465217 0.253974
-0.111004 -0.334393
0.047331 0.491070
-0.568695 -0.269684
0.258416 0.436850
-0.370960 0.176806
0.178742 0.156639
-0.312017 -0.151556
0.014384 0.368405
-0.243933 -0.226344
0.283938 -0.112301
-0.181649 -0.520375
-0.263094 0.173280
-0.259420 -0.415635
0.040124 0.094815
-0.025706 -0.327096
-0.368186 0.108113
-0.194178 -0.348982
-0.237121 0.157004
0.116119 -0.145919
-0.126276 0.308559
0.315916 -0.020974
-0.176148 -0.149109
0.096422 0.168397
-0.092511 0.041802
0.015718 0.032689
-0.620972 -0.186163
0.330494 -0.220827
-0.509924 0.146412
0.083853 -0.133721
-0.142465 -0.136084
0.194414 0.102095
-0.551846 -0.143752
-0.056501 0.166097
-0.365625 -0.026466
0.015499 0.224042
-0.062955 -0.015927
0.080680 0.401525
-0.296911 -0.280872
0.015913 0.043706
0.008138 -0.180348
-0.002973 0.096621
0.137806 -0.619280
0.021736 0.086420
-0.162573 -0.131949
-0.532828 0.161503
-0.163270 -0.295362
-0.317030 -0.116147
0.150688 -0.304666
0.099258 0.309034
0.013879 0.447056
-0.366067 -0.041858
0.502657 0.059463
-0.087084 0.092560
-0.035468 0.113777
0.066974 -0.163732
0.209101 0.107121
-0.339594 0.181410
0.074424 0.017531
-0.334577 -0.329787
-0.118281 -0.173237
-0.140424 -0.526555
0.151202 0.053142
-0.348848 -0.156413
-0.265338 0.196577
0.087631 -0.231668
0.135726 0.078161
-0.050580 -0.345203
-0.358899 0.113883
-0.290455 -0.204243
-0.194529 -0.044539
0.296416 -0.471722
-0.196119 -0.084489
-0.174156 -0.516470
-0.333883 -0.006105
-0.044861 0.131826
-0.403279 0.238767
-0.042265 0.020110
-0.331986 -0.309609
-0.039220 -0.205396
-0.270464 0.047716
0.068535 0.323597
-0.128675 -0.106471
0.144742 -0.018028
-0.239366 -0.100369
-0.325300 0.297130
-0.167271 -0.090355
0.003221 -0.167353
-0.148116 -0.178983
0.033599 0.201562
-0.359807 -0.017963
-0.413951 0.351411
0.045057 -0.003603
0.330504 0.244260
0.228691 -0.334699
-0.259338 -0.206562
0.069866 -0.171630
-0.164448 0.214563
0.128950 -0.163440
-0.424799 -0.009072
-0.278562 -0.186495
-0.218399 0.139493
0.219682 0.130220
-0.455792 0.019607
-0.268841 -0.134248
-0.287745 0.000283
0.162799 0.114361
-0.247041 -0.337124
0.038530 -0.023831
-0.149263 0.123944
-0.079583 0.251923
-0.146186 -0.271437
-0.063548 0.021488
-0.283499 -0.074589
-0.118053 0.241608
-0.009156 0.062946
-0.158966 0.255914
0.126937 -0.177649
0.283018 -0.143123
-0.010396 -0.045480
-0.158738 0.158053
-0.146862 -0.137006
-0.337795 -0.020165
0.013971 -0.310484
-0.345358 -0.266874
0.031589 -0.358501
-0.251642 -0.011520
0.113102 0.081726
-0.164045 0.098750
0.231659 0.188124
0.011978 0.156326
0.178461 0.120040
-0.126950 -0.107368
0.214550 0.065202
-0.116288 -0.086019
-0.093486 0.038791
-0.355542 -0.257923
-0.079279 0.096239
0.012190 -0.112095
0.080242 0.338956
-0.151487 -0.062460
-0.262065 -0.054509
0.076000 -0.224757
0.011282 0.256875
-0.220217 -0.284896
-0.132622 -0.223264
-0.045262 -0.147968
-0.266500 -0.030084
-0.183659 -0.092141
-0.328515 -0.094459
-0.142509 0.179599
-0.012055 0.305205
0.254936 -0.065273
-0.331488 -0.124345
-0.016624 -0.192080
-0.010990 -0.202479
0.291821 0.013374
-0.154732 -0.166072
0.026902 0.158894
-0.236445 0.029723
-0.099316 0.022361
-0.016501 -0.370987
0.000595 0.118313
-0.231031 -0.080102
0.040818 0.151878
0.156058 0.006892
-0.154220 0.369556
-0.009533 -0.206853
-0.291658 0.078514
-0.142199 -0.594524
-0.211315 0.208512
0.128699 -0.199190
0.203458 0.236316
-0.363357 -0.156137
-0.218053 -0.157650
0.298180 0.264913
0.142218 0.369003
0.202851 -0.263172
-0.195921 -0.331005
-0.286972 -0.172997
-0.172069 -0.272607
0.283589 -0.058529
-0.074686 0.298640
-0.086015 0.114242
-0.124851 -0.041370
0.420310 0.126953
0.045814 -0.293740
0.013030 -0.175894
-0.267596 -0.388007
-0.090198 -0.139817
-0.016272 -0.303668
-0.086290 0.362023
-0.281290 -0.295608
0.262258 -0.125052
-0.313958 -0.268441
0.100924 0.058579
-0.299487 0.455279
-0.200678 -0.164324
0.154517 -0.133922
-0.362269 0.016597
-0.368825 -0.098480
-0.145391 -0.249369
0.168043 -0.018840
-0.347640 -0.131459
-0.326997 -0.063964
0.051515 0.014924
0.346549 0.321565
0.057802 0.123293
-0.011893 -0.044307
-0.033239 -0.297073
0.052967 -0.091168
-0.078292 -0.154805
-0.358584 0.003946
-0.384671 -0.074589
-0.090322 0.053651
-0.097059 0.037843
-0.187254 0.108749
0.090889 -0.628055
0.030630 -0.095185
-0.042767 -0.119508
-0.095278 0.175114
0.073188 -0.159663
0.052097 0.036876
0.020386 0.137088
-0.144144 0.037212
0.146447 -0.163913
0.032873 -0.047673
-0.053444 -0.119800
-0.275315 -0.265660
0.073223 -0.177020
-0.075005 0.038379
-0.092733 0.297055
-0.290446 0.225073
-0.144096 0.346253
-0.203122 0.045384
-0.101677 0.050678
0.005759 -0.020549
-0.097180 0.119692
-0.141750 -0.022001
0.138290 -0.005947
0.209286 -0.200461
-0.159510 -0.315558
-0.187746 -0.302434
-0.294210 0.094726
0.185126 0.061479
0.242616 0.195097
-0.165287 0.033639
-0.501191 0.206967
0.062721 -0.290719
0.161665 -0.209487
0.062824 -0.074306
-0.451059 -0.056401
0.027514 -0.091162
0.091028 -0.049476
0.139966 -0.064530
-0.002598 -0.174901
0.241798 0.224936
-0.025151 0.261204
-0.070593 -0.084361
-0.145215 -0.385225
-0.019672 0.121044
-0.278401 0.148100
-0.216997 0.095550
-0.007122 -0.229005
0.170804 0.000075
0.084124 -0.224445
0.002361 -0.283414
0.149177 -0.128747
0.072903 0.017697
0.192744 0.120530
-0.050462 0.206784
-0.153811 -0.013743
-0.440396 -0.017292
-0.260235 -0.024897
-0.197353 0.018879
0.178672 -0.030921
0.197511 -0.067963
0.094879 -0.092945
-0.275675 0.013864
-0.017337 0.010735
-0.272623 0.083415
-0.149324 0.311616
-0.074450 -0.063619
0.346959 -0.056316
0.150802 -0.176225
-0.094397 0.007363
-0.040416 -0.129036
0.085506 0.229299
-0.141190 -0.054234
-0.305124 -0.248462
-0.150781 -0.413965
0.162450 0.340312
0.050246 0.349763
-0.061840 0.082401
-0.009447 -0.062636
-0.238313 0.035547
-0.011485 -0.123281
-0.067892 -0.101758
-0.099265 0.038897
-0.279440 -0.205273
0.135175 -0.349340
0.440503 -0.084786
0.382699 0.268697
-0.090216 0.194965
-0.024073 -0.029387
0.028144 -0.248339
0.103270 -0.083898
-0.021734 -0.062547
-0.035429 -0.053734
-0.044307 -0.164238
0.194170 0.060448
-0.012232 0.119034
-0.183821 0.306175
0.055194 -0.257773
-0.052389 -0.217416
-0.017749 -0.373753
-0.193813 0.110032
-0.106567 -0.108494
-0.061604 -0.001895
-0.025351 0.030623
-0.071221 0.159754
0.063256 0.043863
-0.107769 -0.002923
-0.120826 -0.153043
-0.339730 -0.064209
-0.083889 0.068642
0.015165 0.000665
0.182957 -0.038018
-0.085360 -0.151012
-0.114172 0.015590
-0.038890 -0.101653
0.041798 -0.083276
0.060587 0.011537
0.002946 0.181761
0.000076 0.058004
0.293466 -0.049601
0.299477 -0.087540
-0.082582 -0.140488
-0.129949 0.082301
-0.408602 0.107033
-0.053966 0.120071
-0.349245 0.065347
0.072075 -0.392615
-0.001434 0.197371
0.013192 0.053834
-0.333616 -0.242450
-0.149961 -0.005814
-0.461753 0.328222
-0.041517 0.289997
0.137298 -0.085294
0.096923 -0.162869
-0.319440 -0.503609
-0.304919 -0.283630
-0.193210 -0.228872
0.185650 0.089409
0.296882 0.097577
-0.103662 0.300240
0.043667 -0.389982
0.145311 -0.127140
0.214695 -0.012412
-0.423572 -0.154126
1.018770 -0.038467
-0.791069 0.815700
0.490894 -0.894257
0.115938 1.210080
-0.338960 -0.548473
0.485203 0.734404
-0.203706 0.167318
-0.004990 0.234671
0.023899 -0.012269
-0.280982 0.375151
-0.177731 -0.231172
-0.084882 0.145103
-0.179061 -0.051406
-0.501616 0.240266
0.044036 0.107442
-0.175770 -0.082761
0.114223 -0.511442
-0.026346 -0.352117
-0.061971 0.009192
-0.409697 -0.047415
-0.013549 -0.008281
-0.049033 0.084732
0.124816 0.065001
0.128569 -0.045199
0.296893 0.166991
-0.137944 0.181381
-0.285414 0.004261
0.089985 -0.104510
-0.200985 0.014714
0.023639 -0.436532
-0.040434 0.052254
-0.149848 0.027862
-0.317301 -0.096253
0.108557 -0.232695
0.130483 0.054421
0.050388 -0.161483
-0.090968 -0.123461
0.192657 -0.100767
-0.074510 0.205233
0.082195 0.238624
0.035073 0.144458
0.355200 0.034119
-0.006447 0.065451
-0.158383 0.099963
-0.444633 0.026722
0.183414 0.275672
0.050820 0.175798
-0.083966 0.347334
-0.106365 0.009917
0.277493 0.226092
-0.034063 0.055792
-0.197683 -0.043720
-0.183955 0.062634
-0.297790 0.216703
-0.295701 -0.135736
-0.350622 -0.177046
-0.171246 -0.063652
-0.179215 0.404482
0.181954 0.196225
0.095353 -0.041494
0.079077 -0.129239
-0.250989 -0.029210
0.103729 0.034931
0.078902 0.144838
-0.114275 0.282868
-0.406441 -0.069659
-0.067703 -0.288191
-0.085099 -0.017356
-0.151736 0.188708
-0.426600 -0.199589
-0.178466 -0.153742
-0.270075 -0.199359
-0.118916 -0.099459
0.192470 -0.400867
0.292021 -0.029125
-0.305903 -0.291196
-0.105994 -0.066688
0.225937 -0.180367
0.161136 0.065911
-0.064794 -0.138647
-0.472861 0.008148
-0.385018 0.018435
-0.337377 0.005559
-0.049198 -0.288379
-0.145678 -0.223449
-0.068381 -0.029666
-0.249180 -0.037552
-0.046548 -0.462806
-0.003461 -0.518377
0.375940 -0.055505
0.212627 0.085654
0.279793 0.020476
0.094668 -0.128398
0.056498 0.084058
0.042527 -0.181469
0.219760 -0.143209
0.043129 -0.050652
-0.397668 0.018105
-0.269182 -0.239180
0.129020 -0.092716
0.136910 -0.414213
-0.114511 -0.097369
-0.090139 -0.217904
0.091360 0.104922
0.269137 -0.154240
0.259064 -0.245275
0.402592 -0.300802
0.025033 0.323490
-0.100423 0.200959
-0.198311 0.009253
0.408871 -0.016189
0.014477 0.058072
-0.218356 0.011623
-0.315076 -0.005253
0.043085 0.203349
-0.127257 -0.041645
0.097968 -0.088913
0.176750 0.177064
0.293979 0.432335
0.128850 -0.095848
0.302439 -0.168130
0.001525 -0.060332
-0.091567 0.143674
0.212205 0.075703
0.014668 0.201784
-0.117734 0.074738
-0.356378 0.317260
0.096660 0.249066
0.157635 0.327858
0.034966 0.151059
-0.184704 0.111425
0.054003 -0.179284
-0.124418 0.134189
-0.127050 0.259693
-0.397217 0.206293
0.132211 0.097875
-0.001533 0.134339
-0.107867 -0.005177
-0.385747 -0.265403
0.086143 -0.033499
-0.216258 0.009975
-0.011333 0.061771
0.088945 -0.395917
0.237390 -0.050465
0.053134 -0.170582
0.136915 0.227805
-0.184142 0.037503
-0.090380 0.071091
-0.144109 -0.012799
-0.049402 -0.066349
0.015842 0.045135
-0.284145 0.292460
-0.035813 0.151599
-0.079921 0.169488
0.189770 -0.108567
-0.022837 -0.357908
0.229741 -0.278714
-0.106539 -0.027313
-0.068145 0.118271
-0.180635 -0.200519
0.193464 0.038906
0.185515 0.147166
0.393652 0.131934
0.153928 -0.100569
0.052317 0.420732
-0.255413 0.018179
0.038745 0.394785
0.094773 0.209506
-0.567776 0.550311
0.265539 -0.538462
-0.099360 1.476575
-0.724508 -0.947928
0.707449 0.777180
-0.877093 -0.141712
0.371574 -0.035649
-0.224711 0.227426
-0.227771 0.097133
-0.365898 -0.315097
-0.351855 0.092535
-0.313205 -0.202355
0.319842 0.066240
0.388694 0.057361
-0.112576 0.018871
0.001186 -0.516535
-0.084172 -0.085789
-0.097865 0.060798
-0.212912 0.055557
0.274624 0.161985
0.149220 0.296785
0.313644 -0.007659
0.092102 -0.296706
0.005974 -0.045843
-0.246156 0.255277
0.216980 0.466870
-0.191326 -0.033239
0.344942 -0.134821
-0.163699 -0.108794
0.024306 -0.061786
0.020659 0.054038
-0.105307 0.182208
-0.372694 0.072925
-0.367129 0.211991
-0.062631 0.040847
-0.020255 0.209417
0.006065 -0.160554
-0.269373 -0.233314
-0.064155 -0.099503
-0.044233 0.085101
0.196736 0.041563
0.007840 0.108384
0.016473 0.145181
-0.092779 0.063692
0.071485 0.003674
-0.201226 -0.075793
-0.063858 0.012040
-0.082149 0.074950
0.135229 0.276373
0.130449 -0.132585
0.075017 -0.039342
-0.047542 -0.207142
-0.026950 0.263724
-0.300210 -0.067649
-0.233267 -0.093435
-0.159212 -0.139578
0.183828 0.139240
0.048106 0.025341
-0.112073 0.183738
-0.040926 -0.182495
-0.142191 0.144313
-0.165788 0.104752
-0.532053 0.095370
-0.341812 -0.254810
-0.164033 -0.168074
0.254065 0.013107
-0.242509 0.304488
-0.256294 0.116628
-0.259298 -0.202367
0.195242 -0.018621
-0.032760 -0.098547
-0.060895 -0.077360
-0.177771 0.057739
-0.071202 0.267843
0.043432 -0.026140
0.234497 0.129528
0.071406 0.317619
-0.320034 0.427055
-0.240587 -0.411430
-0.015138 -0.143601
-0.096346 -0.168759
-0.173015 -0.011517
0.178339 -0.135734
-0.026636 0.255413
-0.239486 0.181971
-0.364537 0.317046
0.034712 0.242591
0.063735 0.125944
0.026031 -0.360155
-0.291106 -0.177145
0.052282 -0.070599
-0.135645 0.205532
0.209553 0.318034
-0.038053 0.146025
0.109318 0.082483
-0.213212 -0.082788
-0.004840 0.033284
-0.183108 -0.045242
0.099579 0.197422
-0.176829 -0.017694
-0.278035 0.001324
-0.260752 -0.206420
-0.297954 -0.022673
-0.089742 -0.030421
-0.100151 0.185529
0.102060 -0.258240
0.229678 -0.005089
0.181899 0.225057
-0.303678 0.285398
-0.150836 -0.277057
-0.250116 0.076504
-0.171525 0.283244
-0.333081 0.132163
0.137902 -0.109386
-0.277550 -0.088866
-0.282718 -0.175331
-0.031407 -0.206814
0.504736 0.134768
-0.072363 0.086780
-0.360270 -0.088776
-0.423252 0.029758
0.270517 0.371058
0.049735 -0.050336
0.102142 0.190637
-0.347437 -0.146891
-0.087678 -0.096476
-0.091740 -0.299565
-0.166313 -0.050033
-0.188178 -0.147307
-0.015742 0.241936
0.209360 0.058641
-0.055332 0.326559
-0.008053 0.217833
-0.243389 0.309273
-0.003462 0.125366
0.019878 0.132877
0.312833 0.009997
0.007057 0.059859
-0.049068 -0.013824
-0.344304 -0.092675
0.007638 -0.116280
-0.190565 0.000193
-0.153882 0.114559
-0.353237 -0.131417
0.050468 0.155416
-0.041047 0.142871
-0.210524 0.041292
-0.080514 -0.430980
0.056149 0.254665
-0.254189 -0.067141
-0.109570 -0.082787
-0.219212 -0.265439
0.135344 0.224694
0.114985 -0.093233
0.172037 0.163233
0.319253 -0.322506
0.005941 -0.057951
-0.220040 -0.013724
-0.656215 0.315723
-0.239139 -0.060513
-0.028030 0.064034
0.105695 0.065541
-0.484617 0.112564
0.073116 -0.053527
0.274728 -0.058375
0.285495 -0.069826
-0.213204 -0.194316
-0.011464 -0.049637
-0.049389 0.205624
0.158507 0.125117
-0.069717 0.065006
-0.163317 -0.300794
0.354704 0.069236
-0.412799 0.436158
-0.058965 -0.486586
-0.100912 0.124957
0.090600 -0.294632
0.056246 -0.008619
0.006082 -0.256053
-0.380114 -0.007183
-0.040114 -0.317017
-0.172280 0.047406
-0.387104 0.029107
-0.572956 0.232003
0.230974 -0.087025
0.162091 0.207975
0.326716 -0.073830
-0.453739 -0.246677
-0.252806 -0.002694
-0.444496 -0.053533
0.079775 -0.102872
-0.145203 -0.115485
-0.104158 0.382151
-0.308071 0.077899
0.000793 0.062884
0.288691 -0.429330
-0.161523 0.468047
-0.241253 -0.332816
0.116893 0.336857
-0.377807 -0.353403
-0.070059 -0.054976
0.098202 -0.081978
-0.006563 0.442514
-0.039404 -0.141643
-0.032684 0.304846
0.017334 0.041824
-0.390524 0.144337
-0.117365 -0.307923
-0.331988 -0.018859
0.093159 -0.173334
0.033025 -0.017322
0.233480 -0.079861
-0.441643 0.056402
-0.205975 0.011333
-0.307617 0.144167
0.151229 -0.044139
-0.343640 0.001123
0.297415 0.314492
-0.036301 -0.097705
0.241305 -0.227118
0.104881 -0.310563
-0.125219 0.235381
-0.128173 -0.233769
0.089256 0.129361
-0.013166 -0.249468
-0.291873 0.333096
-0.218864 -0.181599
-0.121095 0.079792
0.258889 -0.145118
-0.045095 0.278365
-0.006470 -0.099384
-0.183107 0.062875
0.179597 -0.177934
-0.258435 0.131931
-0.084374 0.001665
-0.514770 0.212173
-0.102088 0.092979
-0.465529 0.141209
0.088073 0.182151
-0.207338 -0.052180
0.249395 -0.097819
-0.097663 -0.184409
0.169487 0.072890
-0.273201 -0.248368
0.158319 -0.086172
-0.254213 -0.111912
0.021555 -0.134268
-0.058869 -0.359239
0.101905 0.448419
-0.265597 -0.126181
-0.407412 0.310742
-0.054062 0.003653
-0.110228 0.325868
0.175708 -0.206155
-0.017052 0.216742
0.067959 -0.132168
-0.345415 -0.033762
0.176584 -0.161642
-0.175764 0.313334
0.273367 0.108216
-0.053292 -0.139419
0.037680 -0.114785
-0.567437 0.140907
0.222125 0.162682
0.249571 -0.140002
0.462293 -0.097412
-0.330415 -0.102265
-0.013963 0.426954
-0.118718 -0.098670
0.453801 0.066796
-0.228256 -0.378096
-0.327959 0.013479
-0.426469 -0.209272
-0.101565 0.311763
-0.173418 -0.005786
-0.075437 0.357646
0.106882 -0.217862
0.205652 0.063906
0.146191 -0.224108
-0.113710 0.674067
0.136019 -0.091791
-0.411855 -0.048130
0.122260 -0.204610
-0.323325 0.162994
0.190017 -0.023367
-0.117794 -0.015201
0.364821 -0.028065
-0.150349 0.081479
0.228256 0.272320
-0.431420 0.022789
0.045917 0.002388
0.112632 -0.223568
0.312894 0.126594
-0.134028 -0.460716
0.200886 -0.047391
-0.095407 -0.326054
0.040518 0.216690
-0.223944 -0.336414
-0.037747 0.154335
-0.003231 -0.418625
0.098707 0.161147
-0.003700 -0.212557
-0.457196 0.269370
0.038994 -0.319949
0.216114 0.130820
0.316900 -0.331901
-0.326342 -0.046463
0.008773 -0.247809
-0.418334 0.145432
0.153560 -0.344796
-0.115388 0.218677
0.431323 0.199815
-0.752748 -0.028278
0.060179 0.190188
-0.480818 0.295307
-0.191522 0.365048
-0.391008 -0.233441
0.290319 -0.013196
0.012400 -0.029549
0.056801 0.564243
-0.124274 -0.167479
-0.002398 0.123632
0.000008 -0.677980
0.116335 0.027618
-0.070919 -0.223999
-0.249350 0.261417
-0.027502 -0.313767
-0.250199 0.388418
-0.083433 -0.247986
-0.306678 0.172876
0.191455 -0.107166
-0.207612 0.509170
0.439630 0.108957
-0.271081 0.205905
0.201809 -0.174660
-0.302045 0.007662
0.333259 0.083529
-0.421783 0.001380
0.402888 0.004647
-0.366203 -0.081709
0.384767 0.122548
-0.676168 0.005959
0.513832 -0.046374
-0.309958 -0.166669
-0.121316 0.455381
-0.201511 -0.189037
-0.172023 0.486248
-0.172421 -0.099744
0.121550 0.414711
-0.068894 -0.315351
-0.253790 0.056355
0.195771 -0.509595
0.055239 0.348594
0.163593 -0.339945
-0.186001 0.031119
0.228969 -0.232954
-0.324099 0.281040
0.069271 -0.285098
-0.582675 0.278623
0.117252 0.012672
-0.252688 0.221932
0.506142 0.046205
-0.596200 0.278970
0.595475 0.093992
-0.120959 0.822360
-0.017836 -0.094370
0.093165 0.090635
-0.418647 0.446161
-0.200346 -0.321692
0.232069 0.225434
-0.077259 -0.538061
-0.039445 0.204995
-0.194987 -0.157955
-0.068627 0.732260
-0.239280 -0.452709
-0.439390 0.523163
0.369230 -0.280861
-0.376217 0.283820
0.054930 -0.083978
-0.432268 0.514220
0.159784 0.036416
-0.427555 0.314023
0.353969 0.102035
-0.482739 0.288762
0.403452 -0.110004
-0.174711 -0.017731
0.479411 0.386726
-0.406225 0.082651
0.600230 0.083542
-0.587267 -0.108603
0.244335 0.066529
-0.167911 -0.137146
0.402656 0.378673
-0.585038 -0.355922
-0.097313 0.194662
-0.191400 -0.311940
0.090034 0.520229
-0.153778 -0.514491
-0.164859 0.554805
-0.340594 0.022679
-0.146612 0.767514
0.380993 -0.116685
-0.183961 0.899363
0.086398 -0.100502
-0.011003 0.748846
0.627219 -0.011973
-0.598361 0.764217
0.943115 0.112131
-0.337807 0.147150
0.246528 0.215410
-0.367455 0.189416
0.528246 0.359618
-0.640708 -0.140806
0.371239 0.007347
-0.381727 -0.160822
0.557470 0.508702
-0.308000 -0.520650
0.536857 0.018132
-0.404170 -0.485553
0.048805 0.367767
-0.394064 -0.428014
0.045065 0.689748
-0.162706 -0.536526
0.133819 0.528698
-0.157262 -0.612502
-0.476863 0.438204
-0.023182 -0.510492
-0.469215 0.871140
0.065929 -0.432754
-0.459128 0.403198
0.257379 -0.212142
-0.792018 0.534229
0.382127 -0.488710
-0.818097 0.322242
0.173007 0.033234
-1.039009 0.421770
0.474158 -0.017942
-1.051106 -0.083263
1.012987 0.543112
-0.527427 -0.257561
-0.137750 1.066168
-0.722011 -0.103256
0.501713 0.678212
-0.602920 -0.282570
-0.073622 0.684861
-0.686141 -0.421361
-0.149585 1.098195
-0.204258 -0.421828
0.139373 0.984929
-0.245463 -0.690279
-0.597198 0.528516
-0.154991 -0.502918
-0.767096 1.568294
0.088598 -0.280629
-0.438823 0.785032
0.409528 -0.386812
-1.313290 0.787893
0.391852 -0.146073
-1.072332 0.906822
0.618290 -0.018142
-1.259461 0.412001
0.308423 0.513405
-1.796597 0.526463
0.592171 0.266733
-1.140589 -0.024772
0.533486 0.640693
-1.129647 -0.480466
0.701642 1.249654
-1.737601 -0.203184
0.375065 1.670011
-0.492000 -1.052660
-1.102532 1.496930
-0.801975 -0.721095
-0.231447 1.407733
-0.803597 -0.589041
-0.676571 0.973314
0.106224 -1.042663
-1.455526 1.837464
-0.653973 -0.894862
-0.948175 1.592862
0.574990 0.166749
-1.868877 1.584101
0.519846 -0.441600
-2.319587 1.610067
0.122137 -0.151364
-2.282923 0.626351
0.897149 0.488084
-3.207648 0.376224
1.134177 0.399257
-2.309638 1.256821
0.513926 1.768938
-2.486139 -0.810659
0.709092 1.889481
-4.006619 -0.525294
-0.113845 1.772227
-2.367728 -0.495614
-0.805254 3.417719
-2.202612 -2.268227
0.347019 3.850234
-2.847117 -0.843547
-2.209493 3.866380
0.005090 -2.294840
-4.650283 4.324272
-1.971535 -2.025582
-2.791057 3.303345
-1.948209 0.234360
-5.023228 3.707535
2.482555 -1.948239
-5.580656 5.397225
-1.556557 -1.478888
-6.502459 3.072894
0.329491 3.291901
-13.389171 3.422159
2.111786 0.406655
-10.774785 5.382514
-2.475422 2.031219
-12.272727 -3.192155
4.193190 9.923437
-20.002836 0.456276
1.486141 3.848148
-17.870663 2.336710
-14.639862 21.469272
-28.404515 -12.041897
0.528088 29.372816
-38.218996 -6.894922
-14.005008 9.046356
-24.482561 -28.741876
-78.021523 76.804698
-78.141737 -49.342783
11.884452 159.360599
-155.963397 -26.450032
-649.507079 -125.844181
-279.039291 -816.523842
-2097.549105 5054.961469
