807.952427 438.153460
-106.757442 -184.258847
-100.192330 -59.775656
-84.839800 -19.059094
-64.269962 -25.231824
25.928167 -52.636824
-37.899731 1.819777
8.346022 28.362743
4.817850 26.975327
-12.152039 14.714639
-1.162842 -11.064095
29.594019 -4.673322
15.821745 -15.795249
8.782953 -7.643587
3.017945 -9.582679
-2.805500 -9.592596
-7.098599 -5.500381
-7.066365 -6.411798
-2.658539 -7.113079
2.482077 2.400306
2.440690 6.525924
0.696933 4.794616
0.192368 -4.888308
9.656989 -9.446187
9.755867 -5.844301
3.354936 -4.407589
-2.144467 -7.503965
-2.566245 -8.489514
-3.417850 -8.053738
-5.390588 -4.974319
-5.186117 -3.690820
0.557679 0.445923
0.620188 3.332774
-1.059937 3.520008
-1.818635 -0.624602
1.991213 -2.579468
5.501009 -3.407772
3.818159 -1.184763
-0.164320 -2.020183
-2.960472 -4.830891
-2.399914 -4.684720
-3.684826 -3.034549
-3.430393 -1.060044
-2.101266 0.895181
-1.368460 3.990862
-1.000303 4.605899
-0.328098 2.562614
2.272952 -1.456849
5.609459 -1.078113
4.877853 0.195324
1.266210 -0.552685
-0.347432 -2.651394
-0.133885 -4.005820
-0.601110 -3.860354
-1.249390 -1.142203
-1.192181 -1.258126
-0.495903 0.660687
-0.836778 1.796208
-0.663740 1.414415
1.508251 -1.012213
4.020707 -1.246678
4.640926 -0.732383
1.246625 -1.161770
-0.358806 -3.605872
-0.253391 -5.145459
-0.815525 -4.971797
-1.257861 -3.007818
-1.899268 -2.072576
-1.923888 -0.981496
-1.833381 0.010926
-2.078733 0.882879
-0.975080 -0.795477
1.905199 -1.397419
2.789644 -0.305238
1.080463 -0.118093
-0.862099 -2.097372
-1.113817 -3.745753
-0.685851 -3.208682
-0.906431 -2.207323
-2.232476 -1.122185
-3.163247 -0.417774
-2.576187 0.556819
-2.513867 1.395628
-1.559040 1.106896
0.721717 0.428729
1.908919 1.368686
1.257402 1.446401
0.348984 -0.230585
0.173711 -1.923412
0.631875 -2.893588
0.781151 -1.877405
-0.680274 -0.856868
-1.609693 -0.280960
-1.731707 0.253105
-1.172497 1.109852
-1.239480 0.664054
0.681378 0.118774
2.119193 0.917968
2.024044 1.255472
1.072921 -0.017073
0.573727 -1.821066
1.253148 -3.136262
1.139150 -2.432873
-0.136188 -1.612913
-1.856346 -1.711792
-2.336615 -0.929123
-1.449500 -0.933735
-1.647997 -0.105664
-0.870606 0.152157
1.019289 0.510173
1.335651 1.038526
0.219188 0.714266
-0.384369 -1.291535
0.379630 -3.156222
0.879891 -2.479064
-0.488918 -1.280933
-1.874450 -1.365096
-2.780640 -1.474536
-2.456225 -0.328237
-1.870427 0.344096
-1.187515 0.442372
-0.087173 1.087362
0.562635 1.402852
-0.096566 1.570988
-0.028535 0.007879
0.641999 -1.885491
1.389637 -2.147974
0.683745 -0.773667
-1.214969 -0.811818
-2.181528 -1.348697
-1.701284 -0.706708
-1.489712 -0.248831
-0.884036 0.566692
-0.600624 0.818108
0.430362 1.466949
0.804832 1.540711
-0.004404 -0.008385
0.929818 -1.569214
1.759159 -2.463457
1.611792 -1.056570
-0.584684 -1.123750
-1.887845 -1.564501
-1.958773 -2.345688
-1.452029 -1.262962
-1.176507 -0.280235
-1.384180 0.319972
-0.422460 0.533285
-0.369366 1.086001
-0.636545 0.416991
0.022732 -1.172309
1.223173 -1.494611
0.958096 -1.061357
-0.849964 -0.700846
-2.103236 -1.769493
-2.387156 -1.957600
-2.297844 -1.664328
-2.078503 0.067017
-1.885516 0.826044
-1.724515 1.487841
-0.934680 1.932276
-0.603843 1.524682
-0.299537 0.561803
1.040331 -0.461018
1.750055 0.037668
0.335843 0.314257
-1.454996 -0.737285
-1.911074 -1.963829
-0.652822 -1.633419
-1.410665 -0.208595
-1.260012 0.876270
-1.517571 1.000832
-0.956611 1.677479
-0.563040 1.631648
0.073130 0.585240
1.678010 -0.189332
2.453297 -0.596609
1.054560 -0.665518
-0.236931 -1.607617
-0.746604 -2.093374
-0.616822 -2.786164
-0.617281 -1.595093
-1.472501 -0.042566
-1.901851 0.623277
-1.785372 0.744097
-0.964377 0.977090
-0.557429 0.479904
0.738678 -0.301940
1.407033 -0.271457
0.785653 0.070758
-0.490035 -0.715645
-1.581196 -2.881356
-1.485235 -2.974882
-1.717145 -1.851729
-2.245967 -0.217892
-2.609482 0.351222
-3.099431 0.407673
-2.357454 1.360325
-1.227147 1.430979
-0.434636 0.887461
1.098621 0.713208
1.276874 0.821926
-0.590311 0.339231
-1.399856 -1.288932
-0.725322 -2.279744
-0.319830 -1.729475
-1.449320 0.130674
-2.717350 0.938047
-3.062588 1.284427
-1.767085 1.796988
-0.935440 2.145980
0.296151 1.821968
0.816189 1.835696
1.906036 2.056215
0.822160 1.360604
0.028234 -0.929505
0.226705 -2.845004
0.449053 -2.650871
-0.178449 -0.715082
-2.183413 0.286416
-3.023543 -0.014802
-2.705449 0.617735
-1.476059 1.189382
-0.610659 1.493349
0.623337 1.389883
1.339535 0.872094
0.554785 0.686721
-0.470257 -0.691714
-0.122765 -2.930258
0.953733 -3.620059
0.132150 -1.895307
-3.431440 -0.391352
-4.743844 -0.209123
-4.510421 -0.035447
-2.714564 0.834910
-1.725062 2.606046
-0.794215 3.085860
0.110649 2.889756
0.659419 2.797588
-0.223872 1.248771
0.254152 -2.062608
0.840189 -2.322653
0.814500 -0.840452
-2.394073 0.881925
-4.955970 0.598760
-4.664927 -0.122601
-3.007653 1.019037
-2.488939 3.061538
-1.116669 4.571822
-0.407578 4.123232
1.551481 3.791917
1.648334 2.510106
1.159964 -0.736819
3.319938 -2.397599
3.522521 -2.581868
0.799456 -0.174395
-4.867215 -1.824951
-5.524137 -2.589936
-3.147467 -1.380848
-2.304948 1.208973
-2.722244 3.452277
-1.926439 4.683027
-0.090553 3.049374
-0.243448 1.407496
0.417616 -1.584934
2.959800 -4.136261
2.276564 -3.662340
0.533475 -1.382845
-4.180042 -2.960954
-9.509865 -4.542838
-7.678256 -4.445468
-6.065134 2.022972
-7.986526 6.101120
-8.192796 9.454227
-3.334403 9.306927
-1.311728 6.166438
-0.347334 5.115235
3.827634 1.478745
5.639678 1.994686
5.148852 -0.698490
-4.886171 -2.517856
-12.863797 0.382128
-13.120838 -3.251621
-8.506538 2.132914
-7.080429 10.981251
-4.224500 15.520740
-19.475316 29.914350
12.309359 20.869456
11.528699 21.291481
13.095487 7.110491
21.317286 -3.905190
-0.108424 -11.711154
32.220512 29.124819
-41.769938 -38.266748
-59.453276 -80.263381
-43.527284 -52.988131
-51.079548 51.835527
-129.541736 364.298944
