4368.531559 2461.141243
-2031.582709 1092.180457
-944.153258 -611.155958
36.554187 -454.666402
67.442833 -33.228224
-59.875176 -29.580471
38.332444 -183.801819
-382.634668 150.786709
37.337777 45.213408
10.271752 36.011527
-23.023741 7.308003
-23.035082 -30.508146
28.074154 -42.128677
-47.556416 2.288501
35.283922 40.624119
17.784150 -23.591050
20.571797 -7.089832
-8.291209 -6.558775
4.026714 -2.713426
-32.912934 -4.355792
-3.697854 -3.840994
21.432993 -41.021560
3.814703 0.771257
-12.006189 -16.592238
8.251060 -14.788925
-1.531876 4.844166
-14.591476 -26.649268
-4.542847 3.092659
-8.129146 11.018082
-7.144644 -10.189742
8.992783 -4.395177
-8.276329 7.549786
-3.641012 -11.553438
5.383519 0.502706
2.428838 4.916699
-2.180968 1.029409
-1.116867 2.268902
-10.656384 0.698303
-5.561096 -10.661301
11.151864 -1.967701
-10.655387 1.225419
-5.331829 -1.897826
6.892819 2.905035
5.603392 9.923156
-2.258183 5.846284
6.007908 2.359287
0.612592 1.783030
-3.350318 11.193013
-6.615795 3.757013
-4.504450 -0.529642
0.049007 -6.240422
3.008657 -0.474107
-2.371643 -1.501817
-0.816916 -6.802638
4.227065 -2.444594
-1.476864 2.017379
-1.502619 -4.054383
3.649035 -0.841008
-1.658085 1.192592
-6.647341 2.656118
-0.976205 2.976721
-4.104226 -2.343925
-0.751151 -1.037071
-4.731226 0.560781
1.149581 -0.894673
-4.879479 1.220261
2.878004 0.811149
0.429324 -3.901075
-1.697637 -1.662484
-0.909658 -0.694420
1.437602 3.406536
-2.754219 -0.687154
2.291704 0.438340
-0.552229 -2.378063
-0.839820 -2.410136
2.365252 0.533595
-1.740433 1.059875
0.404003 -2.910641
1.504888 0.547514
-1.196588 0.197107
-0.874821 -2.251795
0.988885 2.243640
-1.116293 -0.139621
-1.044447 0.269640
-0.997892 -0.323062
-0.894474 -2.676206
-0.890694 -2.585534
-0.962163 1.489263
-2.053761 -0.404300
-0.320890 -0.557460
-0.425668 0.401352
-0.517571 -0.121400
-0.981035 -1.249591
-0.161323 0.876549
-1.222140 -0.197982
-1.038475 0.783051
-1.040980 0.478832
-0.488513 0.223310
0.443484 0.252311
0.378654 0.184793
-0.129836 0.258883
0.030925 0.551174
0.508588 0.071598
0.243225 -0.443677
0.208159 0.378447
0.166931 -0.160464
-0.557420 -0.154678
0.045732 0.128442
0.794951 0.997818
-1.245546 -0.735714
0.094859 0.542324
0.469360 0.826604
0.031767 -0.158800
-0.001707 0.292839
-0.011348 -0.282790
-0.154939 -0.079330
0.840483 0.670352
0.622411 0.059781
-0.245796 0.233299
-0.286887 0.553179
0.462468 0.149079
0.043630 -0.210797
0.216340 -0.446958
0.062382 -0.366793
-0.327120 -0.612350
-0.158693 0.786216
0.452847 -0.597328
-0.050791 -1.277893
0.102101 -0.759739
0.045698 -0.210625
-0.013814 -0.043922
-0.142456 0.113929
0.749458 -0.672452
-0.490190 -0.425286
-0.538722 -0.758972
-0.359672 0.137115
-0.152597 0.318203
-0.083463 0.066361
1.113751 0.569356
-0.383981 -0.046302
-0.344099 -0.677894
0.453659 0.208576
0.423620 0.333295
0.173393 0.181892
0.500552 0.971907
-0.174875 -1.047021
0.154872 -0.120591
-0.161732 -0.045854
0.753846 0.144849
-0.481393 0.483870
-0.325244 -0.406129
-0.104763 -0.850702
-0.167309 1.000299
0.189105 -0.651044
-0.021687 0.273541
-0.435423 0.239494
-0.627198 0.088411
-0.076003 -0.751829
0.460335 -0.859414
0.281325 0.032799
-0.083816 0.691946
-0.089400 -0.448615
0.277908 0.401482
0.163813 -0.311923
0.353207 -0.186206
0.116465 0.080434
0.587058 -0.040519
0.173559 0.655901
-0.090947 -0.048994
0.654697 -0.227754
-0.024174 0.203867
0.136982 0.260336
0.426870 0.596124
-0.493016 0.103589
-0.747857 -0.047834
0.459859 -0.896602
0.003856 -0.487183
0.098655 -0.601969
-0.505139 0.319002
-0.399095 0.092197
-0.778506 -0.257984
-0.280220 -0.794493
0.302770 0.229445
-0.081861 0.206812
-0.071689 0.183686
-0.274960 0.443790
-0.167716 0.310203
0.357451 -0.296097
-0.209168 0.483723
-0.105957 0.487367
0.605435 0.551318
-0.560066 0.391098
-0.694180 -0.477035
0.410357 -0.639219
-0.205725 -0.050639
0.139329 -0.156310
0.450683 0.370058
-0.654877 0.395459
-0.360821 -0.764935
0.865616 -0.022382
-0.327712 0.468003
-0.068151 0.650609
-0.602821 0.390440
-0.497729 0.018733
-0.080354 -0.972343
0.316143 -0.091545
-0.119446 0.288181
0.229688 0.060871
-0.441575 0.879069
-0.670192 0.842263
-0.547827 -0.332066
1.067036 -0.063331
0.134388 0.669773
-0.108414 -0.001426
0.294806 0.203319
-0.276726 0.430523
0.026013 -0.660576
0.504485 0.060412
0.180859 0.320573
-0.148894 -0.013399
0.099830 0.523872
-0.958604 -0.370109
-0.157682 -0.807778
0.377879 0.378327
-0.123042 0.294918
-0.275826 -0.245933
-0.193418 0.604470
-0.559068 -0.237387
0.184755 -0.522847
0.530687 0.352420
-0.142984 0.666047
0.551418 0.283339
0.112218 0.248314
-0.082434 -0.542876
0.159985 -0.609425
0.815609 0.433135
0.058778 0.408883
0.096870 0.175012
0.147269 0.470680
-0.303912 -0.146088
0.177719 -0.555000
0.862392 0.107387
-0.069958 0.453785
-0.421859 0.279596
0.086987 -0.289032
-0.260450 0.122438
0.266596 -0.319112
0.070698 -0.011258
-0.465109 0.628316
-0.600543 -0.119037
0.086981 0.306116
-0.502397 -0.876555
0.062905 -0.929969
0.816486 -0.156404
-0.459542 0.222073
-0.008693 -0.373355
0.245916 0.099316
-0.825562 0.030889
0.402698 -0.676470
0.798541 0.391117
-0.507505 0.573579
-0.290259 -0.084200
-0.008236 0.162268
-0.038586 -0.123712
0.474470 -0.024337
0.328212 0.345121
-0.375760 0.363592
-0.395301 -0.809089
-0.236748 0.021634
-0.214983 -0.209749
0.331800 -0.416895
0.592537 0.837264
-0.177196 0.066088
-0.348546 -0.357229
0.080565 -0.006477
-0.130399 0.192104
0.480235 -0.732595
0.588234 0.349447
-0.504699 0.423576
-0.172328 -0.137246
0.469478 0.000161
-0.477466 -0.084547
0.242074 0.182699
-0.160122 0.350713
-0.737991 -0.065803
-0.333890 -0.361073
-0.014725 0.124814
-0.002218 0.049726
0.523282 -0.444676
0.527351 0.514280
-0.390496 -0.270287
-0.027072 0.002732
0.175562 0.204822
-0.285858 -0.096853
0.806626 -0.730626
0.125037 0.530423
-0.629811 0.208873
-0.455112 -0.460989
0.074894 -0.086104
-0.539721 0.046746
-0.091662 -0.379965
0.076327 0.474582
-0.486979 0.082189
0.014165 -0.475568
0.641637 -0.018693
0.025528 -0.076539
0.212724 -0.386357
0.267450 0.663706
-0.181213 -0.078066
-0.098499 -0.217620
0.204885 0.258960
0.101596 0.195620
0.090873 -0.001644
-0.140181 0.472910
-0.530651 -0.168145
-0.128213 -0.461733
0.183473 0.546738
-0.035038 -0.127403
0.504366 -0.326423
-0.055961 0.232102
-0.781696 0.352029
0.008038 -0.451251
0.229760 0.199435
-0.492154 -0.234094
0.134472 0.103036
0.629669 0.275044
-0.431585 -0.056155
0.398699 -0.370742
0.371400 0.255709
-0.265784 0.397094
0.241022 -0.242450
0.413102 0.528882
-0.354714 -0.199251
-0.111899 -0.429938
-0.120500 0.470432
-0.142824 0.002051
0.280406 0.225842
-0.378423 0.127187
0.240165 0.412134
0.146281 -0.055203
0.253332 0.003852
-0.784998 -0.197967
-0.060068 -0.397732
0.191144 0.723494
-0.248585 -0.197384
0.123322 -0.440631
0.348759 0.122584
-0.069493 -0.288335
0.105315 -0.108207
-0.315751 0.149777
-0.245040 0.058632
-0.048440 -0.313864
0.381619 -0.021932
-0.154263 -0.300403
-0.016755 -0.142605
0.419613 0.326735
-0.368640 -0.239979
0.040433 -0.097678
0.151056 0.145734
-0.145519 0.064763
0.228525 -0.653280
0.167882 -0.255626
-0.446437 -0.057260
0.009699 -0.095665
0.039571 -0.013799
-0.143947 0.058803
0.132830 0.058187
0.540012 0.469816
-0.187227 -0.057658
-0.166943 -0.187131
0.282413 0.234877
-0.247509 0.143334
0.259743 -0.259176
-0.372633 0.094997
-0.511145 0.530224
0.179753 0.131462
-0.033689 0.065465
0.117519 -0.185957
0.106386 -0.163963
0.173661 0.291178
-0.318542 -0.078350
0.306377 -0.270906
-0.359093 -0.079948
0.120544 -0.103414
0.149516 -0.301621
-0.173113 0.339317
-0.036611 0.005818
0.288928 -0.019777
-0.191993 0.022531
0.005388 -0.244738
-0.032897 0.001097
0.052742 0.015495
-0.298103 0.323136
0.026239 -0.326463
-0.088581 -0.269280
-0.176299 -0.070147
0.155398 0.165225
0.042355 0.276375
-0.197026 0.015804
-0.070991 -0.375291
0.085564 -0.066655
0.040436 -0.020613
0.319017 0.119350
-0.021807 0.153071
-0.295016 -0.112363
-0.461641 0.084231
0.207156 0.115261
0.475901 -0.057765
0.201141 -0.067622
-0.092299 0.299413
-0.190625 -0.034402
-0.037366 -0.026718
0.251207 -0.111274
-0.053511 -0.035205
0.268055 0.052580
-0.388974 0.197392
-0.115565 0.019670
-0.039015 -0.218695
0.247656 -0.323695
0.230214 -0.168946
0.163913 0.198821
-0.092840 -0.422677
0.125076 -0.107496
-0.237425 -0.142016
0.367130 0.100043
-0.011036 -0.136064
0.133828 -0.041007
0.116161 -0.066961
-0.554551 0.139154
-0.295277 -0.790079
0.357770 0.057105
0.069062 -0.229607
-0.078649 0.165131
-0.224517 -0.051617
-0.176774 -0.112479
-0.083711 -0.283257
0.132906 0.093637
0.175121 0.039128
-0.027790 0.337533
-0.170457 0.244400
-0.182076 0.075889
0.380777 -0.305523
0.205624 0.014798
0.283849 0.113617
-0.074014 0.229532
-0.206374 0.105238
-0.414339 0.164981
0.092893 -0.458807
0.203800 -0.014058
0.201973 0.154597
-0.092138 0.129070
-0.284769 -0.199324
-0.176557 -0.112995
0.176773 -0.123282
0.275688 0.056608
0.252287 0.035898
-0.148292 0.174506
-0.246363 0.074892
0.038048 -0.080035
0.195266 -0.112956
0.223557 -0.089108
-0.094110 0.365968
-0.369009 -0.066530
0.013069 -0.110868
0.051896 -0.038496
-0.005682 -0.457475
0.438052 0.076903
-0.078266 0.012328
-0.094690 0.153102
-0.405342 -0.256656
-0.107920 -0.292957
-0.006090 0.016157
0.300051 -0.228300
-0.269792 0.224333
-0.619428 0.375141
-0.324367 -0.068308
0.319478 -0.326051
-0.204401 -0.118528
0.007328 0.089507
0.056903 0.119380
-0.261027 0.055455
0.025945 -0.115879
0.232084 0.072715
-0.096334 -0.301770
0.185205 -0.086432
0.166628 0.275139
-0.258274 -0.055063
-0.276416 -0.257438
0.296085 -0.261765
0.468361 0.004996
0.168161 0.050712
0.284993 0.531810
-0.495145 -0.009289
-0.184465 -0.290704
0.406240 0.041762
0.013635 -0.086743
0.082982 0.015402
0.234732 0.312579
-0.330340 -0.065973
0.279688 -0.428676
-0.153136 0.050394
0.062402 0.372518
0.170798 0.186198
-0.295297 0.449055
-0.196470 0.069656
0.243641 0.019467
0.109752 0.123379
-0.104905 0.200882
0.392210 0.000607
-0.170708 0.199625
-0.344286 0.212823
0.234361 -0.627977
0.091796 -0.031004
0.003070 0.230173
0.142158 0.037060
-0.282573 0.042701
-0.501488 -0.177766
0.083581 -0.263627
0.088776 0.140149
0.018030 -0.148033
0.136819 0.152684
-0.075697 0.282759
-0.431783 -0.050698
0.395241 -0.323909
0.262822 0.001147
0.296241 -0.142685
-0.060906 -0.131097
-0.271275 -0.030142
0.027968 -0.047527
0.385330 -0.255008
-0.129175 -0.174170
-0.087962 0.131614
-0.157484 -0.291602
0.000181 0.177810
-0.226659 -0.020323
0.070151 -0.048517
0.186018 0.143294
0.039302 0.003716
-0.147206 0.180739
-0.073269 0.054848
-0.198999 -0.282508
0.228475 -0.136393
0.250359 -0.013835
-0.025487 -0.004556
-0.156466 -0.126627
-0.099197 0.045275
-0.040169 0.001529
0.105390 -0.488921
-0.073194 0.156481
0.101084 -0.080731
0.231204 0.234442
-0.029904 0.205338
-0.215990 -0.416666
0.258126 0.155386
0.132820 0.258952
-0.506770 -0.165060
-0.074885 -0.053938
-0.218630 0.099553
-0.449047 -0.080379
0.544135 -0.263562
0.133557 0.149876
-0.124945 0.233996
-0.177375 -0.107762
-0.009803 0.417963
-0.223048 -0.004348
-0.034680 -0.135720
0.028588 0.010138
-0.438332 -0.174533
0.125075 0.016166
0.225907 0.218278
-0.283159 0.074158
0.372891 0.026414
-0.101360 0.515953
-0.009395 0.150992
-0.197511 -0.260566
-0.072285 0.113377
-0.145267 -0.173233
0.057929 -0.060131
0.085949 0.431530
0.113721 -0.392533
0.229035 -0.084055
-0.333287 0.117921
-0.418635 -0.089172
0.067495 -0.212121
0.029260 0.117041
-0.215453 -0.283934
-0.001745 -0.267816
-0.261797 0.255994
-0.158332 -0.049438
0.125726 0.012914
0.061008 0.088360
-0.094000 -0.144200
0.106482 0.043971
-0.065288 0.158854
-0.235958 -0.051491
0.210699 -0.045743
-0.088172 0.411776
-0.219644 0.048529
-0.144314 -0.203611
-0.001617 0.499670
-0.410824 -0.403949
0.171728 -0.466840
0.426841 0.290592
-0.086454 -0.041597
0.368043 -0.013599
-0.109174 0.118546
-0.415468 0.137703
-0.160671 0.024614
-0.281703 0.253467
-0.166991 -0.149059
-0.045067 -0.240102
-0.167998 0.323871
-0.222009 -0.422141
0.255883 0.145252
0.215381 0.309649
-0.078658 -0.203935
0.125760 0.138869
-0.107607 0.362416
-0.389672 -0.260041
0.061469 -0.178848
-0.140314 0.201643
0.000315 0.107039
0.097886 -0.162385
-0.069892 0.327117
-0.209855 -0.210743
0.083294 -0.003838
0.114195 -0.109935
0.169245 0.169653
0.018581 0.222490
0.348072 -0.051595
-0.332097 -0.442396
0.238776 0.314504
0.103023 -0.137404
-0.023387 0.070991
-0.013669 0.207156
-0.269975 -0.135800
-0.250891 -0.470666
0.302785 -0.129044
-0.040462 0.247009
-0.044928 0.220608
0.255524 0.059613
-0.448894 -0.173441
-0.421991 -0.188287
0.290216 -0.095695
0.026195 -0.152822
0.036769 0.066715
-0.114349 -0.254380
-0.145296 0.003277
-0.299187 -0.225481
0.090217 -0.321934
0.039204 0.241081
-0.359119 -0.040074
-0.091208 -0.023111
0.096756 -0.006498
-0.447463 -0.334720
0.138566 -0.096723
0.129123 0.299220
0.176866 0.004682
-0.114758 0.140642
-0.215155 -0.108793
-0.058939 -0.334831
0.116117 0.023762
0.239780 0.301682
-0.238074 0.133242
-0.115686 -0.214100
0.067903 -0.081804
-0.068414 -0.437569
0.309459 0.119531
-0.115136 0.455471
-0.335727 0.406895
0.132378 0.160337
-0.475293 -0.186996
-0.186425 -0.380838
0.133781 -0.057601
0.146889 0.168428
-0.380171 -0.279389
0.324436 0.068422
-0.323943 -0.314015
0.330431 -0.298610
-0.050736 -0.004356
0.080091 0.009716
-0.217686 -0.427131
-0.234935 0.152769
-0.242930 -0.072670
0.071462 -0.528925
0.489627 -0.044640
0.501422 0.896700
-0.337436 0.032435
0.255344 -0.096966
0.340021 -0.049714
0.355370 -0.088430
0.103770 0.057103
0.308659 0.485419
-0.039756 -0.099311
-0.203987 -0.277657
-0.187068 -0.413778
0.056031 -0.115131
0.360400 0.068405
-0.305040 -0.193617
-0.343295 0.303391
0.008819 -0.388992
-0.252631 -0.207711
-0.032239 0.030398
0.077771 0.064047
-0.163925 0.122221
-0.231695 -0.031910
-0.096151 -0.184640
-0.192160 -0.230387
0.414347 0.162756
0.333123 0.554868
-0.329530 0.842149
-0.189867 -0.160055
-0.140131 -0.112338
0.167430 0.292472
-0.050049 0.262848
0.250057 0.034240
0.002503 0.036421
-0.150033 0.169508
-0.142298 -0.382200
0.324979 -0.262979
0.005675 -0.085991
0.004264 0.071337
-0.009395 0.086756
-0.751497 -0.205017
-0.242952 -0.173427
0.043928 -0.137918
0.091427 -0.124444
0.443853 -0.018688
-0.450940 -0.344517
-0.147997 -0.183792
0.196252 0.003550
0.275567 0.031259
0.435228 0.194458
-0.127183 0.104485
-0.241685 0.316003
0.033111 0.432315
-0.144583 -0.326076
0.045840 0.279098
0.482380 0.285705
-0.027790 0.218464
-0.362660 0.162374
-0.146278 0.229049
0.233102 -0.123423
0.514753 0.018016
0.378255 0.051193
-0.155310 0.186800
-0.358700 0.100677
0.351912 0.047505
-0.065599 -0.437847
0.312441 0.149950
-0.130526 0.426720
-0.002836 0.505064
0.018047 -0.059308
-0.204915 0.173224
0.398149 -0.009076
0.478769 -0.056417
0.132485 0.198739
-0.073097 0.139332
-0.046934 0.045016
-0.210247 -0.163495
-0.030862 0.133393
0.164927 0.307505
0.067219 -0.101830
-0.093263 -0.141283
-0.419653 -0.022443
-0.161683 -0.017512
-0.000406 0.239639
0.319745 0.223672
0.180925 -0.120451
-0.811749 0.313133
-0.253205 -0.040595
-0.301327 0.275724
-0.516692 0.084370
-0.284369 0.378080
0.138120 0.490699
-0.473518 -0.075725
-0.051222 -0.536696
-0.164368 -0.038015
-0.359686 -0.131048
0.474774 0.014365
0.265187 -0.130462
-0.232263 0.155152
-0.054871 0.072996
0.501499 -0.381054
0.526318 0.182120
0.607067 0.041812
-0.072471 0.095881
0.014832 -0.079354
-0.133387 0.279422
-0.086805 0.340666
-0.007275 -0.031651
0.382092 0.013000
-0.192729 0.265198
-0.194027 -0.458048
-0.039602 0.101095
0.012142 0.458818
0.358308 -0.359426
0.309363 0.039014
-0.387725 0.077036
-0.162698 -0.245331
-0.157274 0.030276
0.301088 0.324270
-0.456466 -0.079802
0.284293 0.148799
0.094992 0.287688
-0.192376 0.054672
-0.269844 -0.237867
-0.173266 0.124669
0.327504 -0.369766
-0.074473 0.019012
-0.051265 -0.226048
-0.094500 -0.118387
-0.206482 0.176818
0.130683 0.150114
-0.473787 -0.003452
0.048380 0.093192
-0.386557 0.008954
-0.398086 -0.299300
-0.124242 -0.342237
-0.456363 -0.353698
-0.023657 -0.188422
-0.329424 0.143464
-0.082685 -0.153471
-0.151484 -0.000157
0.311833 0.595908
-0.067838 -0.148004
-0.237448 0.117464
0.074214 0.097687
-0.054908 0.257380
-0.200943 0.130811
-0.226579 0.110150
-0.307812 0.029063
-0.168618 -0.303836
0.240874 -0.075961
-0.300832 0.472862
-0.510688 -0.174883
0.108318 -0.152163
0.056205 -0.050509
-0.104526 -0.562148
-0.105307 -0.327520
0.146669 0.424061
-0.047641 -0.022861
0.541125 0.058745
-0.224823 0.474328
-0.474538 -0.562484
0.239584 0.211513
0.266450 1.167173
-0.292829 -0.205731
-0.170470 -0.507339
0.000905 0.146503
0.186600 0.541137
-0.235453 -0.274367
0.394718 -0.291206
-0.333591 0.553975
-0.164797 0.392202
-0.276060 0.059492
0.221931 -0.416401
0.621865 0.189582
-0.558097 -0.035762
-0.010371 -0.660470
0.356066 -0.153069
-0.222300 0.214891
0.531200 -0.074734
0.944293 0.405525
-0.238351 0.180700
-0.127417 0.135166
-0.103131 -0.095916
-0.319461 0.082026
-0.236205 -0.304568
0.649184 0.498183
-0.020589 -0.165872
-0.328129 0.166974
0.146039 -0.333550
-0.515022 0.255705
0.164026 -0.403081
0.382770 -0.110181
0.292603 0.497425
-0.426423 -0.097771
0.108469 0.143467
0.181693 -0.279594
-0.118759 -0.288145
0.420293 0.459095
-0.384389 0.542563
-0.081344 -0.361148
-0.181721 -0.289606
0.084453 -0.165413
0.285696 -0.036788
0.297613 0.331016
0.054350 0.623816
-0.231781 -0.328418
0.504661 -0.100499
0.290592 0.107242
0.462791 -0.189660
0.649040 0.176035
0.313013 0.281882
-0.671829 -0.387353
0.074290 0.376056
0.037564 -0.192501
0.507878 0.070923
0.457672 0.472983
-0.669408 0.027745
0.056357 -0.573406
0.365180 0.119074
-0.403936 0.238913
0.948535 0.146290
-0.137271 0.438231
-0.131547 -0.040164
-0.336964 -0.685272
-0.214801 -0.324697
-0.531059 -0.149923
1.131190 -0.140220
0.480408 0.093667
-0.379844 -0.172424
-0.017244 -0.578670
-0.022895 -0.226714
0.295283 -0.342077
-0.013223 0.028919
0.030154 1.114226
0.044226 0.359575
-0.219610 -0.347693
0.025990 -0.358259
0.060830 0.448946
0.890673 -0.045997
-0.046331 0.381511
-0.206111 -0.220624
-0.292616 -0.464759
0.435338 -0.250116
0.026191 0.545368
0.100780 0.034637
-0.051743 0.284384
-0.678111 -0.017994
-0.804395 -0.408769
0.285363 -0.509344
-0.108126 -0.158323
-0.220479 0.499037
-0.092633 0.293041
-0.478765 -0.135798
-0.608534 -0.306164
0.089311 -0.185521
-0.083348 0.260326
0.031975 0.299553
-0.416048 0.222798
-0.262752 -0.106743
0.036561 -0.650776
0.461594 -0.099917
-0.157796 0.417348
0.340290 0.591498
-0.286156 0.576045
-0.329641 0.031612
-0.065895 -0.611451
0.776087 0.124450
0.174169 0.310352
0.112953 0.524715
0.027788 0.095324
-0.967361 0.449122
-0.239783 -0.251283
0.346597 0.114137
-0.104607 0.278929
-0.637370 0.457804
0.186956 0.529056
-0.978506 0.149540
0.588497 -0.578102
1.070657 0.810492
-0.102158 0.489896
0.223557 0.339710
0.661613 -0.026165
-0.742203 0.461311
1.083282 -0.536473
-0.088951 0.263011
0.095533 0.183906
-0.099527 0.470784
-0.264681 -0.657539
-0.801351 -0.051369
0.384769 -0.669633
0.018021 0.344104
0.087086 0.280518
-0.461170 -0.145966
-0.428426 0.010643
-0.450729 -0.203713
0.228668 -0.772286
0.463394 -0.136835
0.469685 0.737065
-0.113082 0.223712
-0.681652 0.361401
0.114028 -0.697110
0.608394 -0.314612
-0.160594 -0.003926
-0.315234 0.511743
-0.089677 -0.264359
0.555019 -0.078828
-0.128253 -0.342377
0.672792 0.040532
0.546816 -0.224346
-0.411965 0.346089
-0.465691 0.439628
-0.188900 0.651446
-0.232809 -0.429465
0.761709 -0.795015
-0.110055 -0.130389
-0.649971 0.198669
-0.144619 -0.042193
0.123274 -0.116700
0.762611 -0.726465
1.284279 -0.201819
-0.209318 0.430624
0.295102 0.219330
-0.043540 0.637324
-0.144401 0.184907
0.307476 -0.183780
0.120164 0.114919
0.131798 0.959853
0.603991 0.737404
0.298364 -0.700848
0.231897 -1.044399
0.288417 -0.592829
-0.102176 0.611428
0.263217 -0.970731
0.427679 0.198168
0.394707 -0.586323
0.466832 -0.547523
0.597807 -0.983863
-0.332272 -0.150853
0.261872 0.130632
0.164675 0.918257
0.404943 -0.306554
-0.591333 -0.858047
0.806320 -0.107438
-0.897682 -0.359782
-0.172308 -0.258087
0.389682 1.143370
-0.499674 -0.147317
-0.938912 -0.780230
0.226059 -0.766688
-0.321490 -0.069376
-0.005358 -0.789855
-0.466001 0.502728
-0.515720 -0.282406
0.657244 -0.281749
0.609893 0.507506
0.074013 -0.068009
-0.023607 -0.885847
0.179559 0.044881
-0.864235 -0.794180
-0.037894 -1.196685
-0.170210 -0.100713
-0.131174 -0.095220
0.041015 -0.252864
0.431614 0.257071
-0.439419 0.534157
0.156178 0.608403
-0.136559 0.434492
0.171096 1.422680
-0.196102 -0.168083
-0.413892 -0.248138
0.080926 -0.227088
0.612845 -0.251228
0.935720 0.027379
0.299756 -1.184048
1.647578 0.100616
-0.109630 0.921285
-0.431848 1.667412
0.256662 -0.008071
1.249747 0.750163
-0.933139 -0.245730
-0.826783 0.932781
0.306578 -0.520950
0.382536 1.096050
-1.258055 -0.332129
0.422961 -1.148762
-0.070294 -0.443842
0.729552 -0.127535
0.695672 0.084060
-1.429416 0.308147
-0.053760 -1.378554
0.916901 0.506657
-1.010653 -0.169498
-0.762431 -0.383595
3.020094 0.856948
-0.474729 0.512261
0.463838 -1.045027
0.815171 0.277191
-1.231330 -0.595485
0.147163 0.992159
0.938712 3.431147
-1.299616 -1.332599
0.176994 -0.016122
1.439084 -0.428980
-0.372460 -0.995688
-0.685542 -0.302423
2.129628 1.774750
0.263402 -0.409627
-0.617103 0.527087
-0.153797 0.834507
1.218630 0.648520
-0.573119 0.524399
-1.423131 -0.560793
-3.475358 0.667856
-2.549751 -2.193111
-0.036240 -1.985964
-0.496108 0.398709
0.248324 0.713449
0.712103 1.081617
2.739007 -0.699389
-2.013967 -0.490789
0.648707 2.456544
-0.999944 -0.572287
0.784248 0.121932
-1.173889 2.224090
-3.792147 -0.676888
-2.379646 -4.562635
2.956455 -2.021842
1.325851 -0.020311
-0.184797 -1.871058
1.815374 0.540322
1.921894 2.712768
1.765839 2.331038
1.661299 2.297474
-1.186639 0.686348
2.599842 1.698780
-5.654587 8.990248
-7.404349 -1.546108
3.614531 -1.148257
5.399297 -3.971277
-8.164326 -1.105836
2.206890 -4.050987
1.515940 -0.908321
-1.497478 0.043773
-3.025276 -3.504503
1.144850 1.468078
7.379439 5.805268
2.375549 -4.273089
0.333060 2.758965
-4.182933 -6.916138
4.749713 -12.266336
7.080977 -2.350960
-15.144361 -9.857506
2.384816 3.360189
1.329110 -3.770324
-9.533631 -7.132400
2.173964 -12.535336
-3.860581 -4.437127
-9.316725 -14.284292
0.266527 3.218988
-7.638005 -6.103135
-2.731618 -12.666436
1.300617 -7.408801
-2.480466 -2.153427
-4.169154 7.227567
-16.711015 39.135545
27.119415 0.240657
-9.452612 -10.372032
5.735595 2.103130
-2.046268 -1.854967
5.780038 -11.439826
-3.810238 -15.473555
-97.053107 -21.803887
31.361691 100.821145
-49.741715 29.052846
23.256670 12.756463
5.160922 90.738065
-38.609977 51.867441
115.948028 42.090460
-82.901948 -426.597583
-46.035093 55.188761
-156.537308 -94.694829
-8.073398 -62.352692
-180.355273 89.981796
-495.934410 -253.382619
