624.820491 284.613953
-14.289042 -138.771225
-27.974934 -72.732434
-29.930473 -32.883140
-13.125934 -53.371212
15.888706 -29.186085
28.560619 -51.913688
16.992164 -9.934494
0.941296 1.850240
-9.812858 -21.066995
-3.621458 -27.750656
6.866436 -24.983787
6.219821 -9.183638
4.102532 -9.972514
0.567280 -7.503446
2.468338 -11.540924
1.900641 -6.318011
-1.564420 -11.373966
3.162215 -13.325071
6.355405 -6.357467
3.559946 -9.661383
-1.783598 -0.836422
-3.582069 -5.287949
1.186099 -10.915957
3.660101 -7.083671
3.259644 -8.286773
1.204207 -1.003743
0.487198 -5.267282
-1.865414 -8.051251
-0.283827 -5.819266
0.789944 -5.003445
0.603176 -5.059289
2.266522 -4.839261
-0.132068 -1.713581
-1.623659 -3.059541
-1.897426 -5.944744
0.442162 -8.337974
2.855333 -3.780082
0.501950 -1.637579
-1.498800 -2.976053
-1.395619 -2.460795
-0.240604 -5.702959
0.196591 -4.519540
0.478239 -3.877111
0.637254 -3.212601
0.121351 -2.086935
-1.509260 -3.843531
-2.236840 -3.216479
-0.701493 -3.677994
0.536180 -5.066722
0.517622 -3.338205
-0.985148 -1.560994
-2.515785 -2.249079
-1.572801 -3.861982
-0.357347 -5.253640
0.937635 -2.604306
0.146192 -1.240314
-1.291757 -2.134860
-0.800743 -2.605309
-0.973474 -2.844654
-1.416195 -2.942900
-0.357034 -3.480931
0.567075 -2.810660
0.240300 -1.457851
-1.299409 -1.410056
-2.317923 -2.752339
-1.506273 -4.085662
0.016601 -2.734552
0.211262 -1.621538
-1.231537 -0.741045
-1.844233 -1.612794
-1.608302 -2.728626
-1.097681 -2.871708
-0.997912 -2.469145
-0.731805 -2.173310
-0.071088 -1.926007
-1.087130 -0.940287
-1.964319 -1.482475
-2.381609 -2.603891
-0.172705 -3.605814
0.343623 -1.955880
-1.037241 -0.974947
-1.885897 -0.915197
-2.131672 -2.171405
-1.020696 -2.820824
-0.770356 -2.236666
-1.378288 -1.511547
-1.111790 -1.599371
-0.926943 -0.906791
-1.481117 -1.023377
-2.043284 -1.657829
-1.300152 -2.880124
-0.403502 -2.248424
-0.324526 -0.670501
-1.693881 -0.650528
-2.510017 -1.584432
-1.505318 -2.386038
-0.812196 -1.960583
-0.668425 -1.094697
-0.790863 -1.159965
-1.391760 -0.869225
-1.941120 -1.183058
-1.730827 -1.267513
-1.643453 -1.988213
-0.685423 -2.113623
-0.801544 -1.122928
-0.921358 -0.478679
-2.548435 -0.715295
-2.580036 -1.931739
-1.721289 -1.783202
-0.867895 -1.642968
-0.865062 -0.423700
-1.251883 -0.422842
-2.183733 -0.806482
-1.776656 -1.318514
-1.647251 -1.390887
-1.572749 -1.342627
-1.045373 -1.208783
-1.092231 -0.497557
-1.703049 -0.072530
-2.345880 -0.852841
-2.016446 -1.954983
-1.207084 -2.046770
-0.482272 -0.637596
-1.535957 0.222811
-2.268690 -0.343779
-1.841931 -1.647849
-1.756876 -1.631385
-1.081149 -1.201390
-1.534539 -0.725249
-1.648197 -0.631259
-1.351422 -0.275406
-2.309165 -0.297169
-2.034792 -0.948735
-2.004191 -1.558511
-0.815678 -1.009474
-1.314046 0.406908
-2.241581 0.590447
-2.772586 -0.542531
-2.197003 -1.137691
-1.259937 -1.096140
-1.171750 -0.428083
-1.791457 -0.358213
-1.839037 -0.697486
-1.634301 -0.097761
-2.221484 -0.398136
-2.259397 -0.914824
-1.175679 -1.334254
-0.871801 -0.318162
-2.049639 0.996938
-3.286029 0.443222
-2.747021 -1.093530
-0.913381 -1.722613
-0.765334 -0.439048
-1.829211 0.332719
-2.246240 0.053330
-2.432435 -0.116714
-2.510629 -0.281212
-2.567569 -0.414471
-1.729602 -0.492862
-0.998173 -0.108248
-1.438407 0.577768
-2.366826 0.718608
-3.231222 -0.081161
-2.448721 -0.758442
-1.130516 -0.639220
-1.421204 0.386718
-2.151948 0.641277
-2.756063 -0.160262
-2.680652 -0.184504
-2.318243 -0.347719
-2.077647 -0.113089
-1.446721 0.167335
-1.393779 0.312244
-2.135344 1.120584
-2.728191 0.415521
-2.929309 -0.109669
-2.028926 -0.449259
-0.956391 0.153021
-1.467651 1.806973
-2.795649 1.449639
-3.477275 -0.119434
-2.824850 -0.643600
-1.801145 0.016200
-1.748504 0.940152
-2.290671 1.074052
-2.633194 1.093769
-3.035964 0.610297
-3.214980 0.532095
-2.841969 -0.437920
-2.020712 0.369078
-1.061972 1.522015
-2.187596 2.793508
-4.031650 1.523814
-3.605857 -0.279125
-2.378107 -0.257812
-1.779753 0.604292
-2.313774 1.774165
-3.126662 1.227541
-2.758041 1.009369
-2.423006 0.435728
-2.618725 0.332324
-2.386297 0.499969
-1.729788 1.103424
-1.791457 3.139090
-3.684336 4.167989
-4.617895 1.351176
-3.041089 -0.939267
-1.241505 1.244294
-1.220879 3.254804
-3.630060 2.574079
-4.615698 2.572299
-3.775326 1.685450
-3.432813 2.437435
-3.394517 1.390747
-2.891066 1.500818
-1.696055 2.465400
-4.195862 3.511805
-5.605442 3.568235
-5.665483 -0.185071
-1.657950 1.532038
-0.831649 3.493527
-3.015382 5.309521
-6.361873 4.060894
-5.455823 1.460161
-3.822651 2.524952
-3.572001 2.904112
-3.219970 3.035086
-2.468312 5.173548
-3.152088 5.571581
-6.882930 6.659912
-8.419045 2.073653
-4.548477 2.533192
-0.098374 4.761475
-1.680897 5.598237
-7.161418 8.877646
-9.254115 6.192730
-7.679082 3.903607
-3.868597 3.302075
-3.698747 1.434495
-4.051639 19.585226
-2.082280 11.716450
-6.476751 -3.861732
-13.774895 18.845858
-17.580844 2.040980
-7.938072 14.076206
-5.152243 22.566386
-4.111457 42.041442
-30.291841 -0.631095
-46.380349 31.361449
-49.100660 10.942346
-24.644180 47.358301
-6.362375 106.237423
5.294464 313.848950
