5834.690493 5137.652728
-2794.515892 -1936.883245
-899.897092 -1119.261738
295.645805 316.669880
-142.812997 -80.222172
-250.673328 92.472192
145.770026 17.178780
-27.215855 -133.751275
-66.327936 -2.288437
-19.259687 12.302901
-47.496627 52.229604
35.153413 -20.826676
-14.149033 -31.577837
-12.470696 13.519062
-22.705924 6.352148
3.805913 16.991657
-3.683789 -10.343055
-17.344015 2.014252
15.298492 13.114616
-9.284446 -5.917622
-6.770288 2.975351
0.621471 -6.990352
-8.501305 3.847564
7.688770 2.967258
-5.517119 -3.655969
-3.449403 0.549997
-6.285242 -7.885351
-1.397561 4.241343
-2.382989 5.117855
-1.058256 0.373420
0.068700 0.531687
-5.367627 -2.914428
-2.718242 3.306038
3.410137 0.747005
-2.634589 1.881529
-2.230071 3.697959
1.151096 -1.526757
-1.364466 2.891334
0.748918 -1.187536
-0.658039 0.952755
0.668000 3.070814
0.834627 0.207230
0.285187 -2.382999
-0.608400 0.362935
-2.116259 -0.027474
0.237458 0.036940
0.705621 2.238045
0.222357 0.562413
-0.602431 0.540151
-1.327216 -1.011495
0.052702 0.455339
-0.328804 0.709957
-0.489910 1.159935
-0.588385 -0.476738
-1.581469 -0.768513
-1.473556 1.109856
0.337570 -0.853584
-0.660278 1.031141
1.996469 0.335902
-2.026710 0.859132
-0.498258 -1.489133
-0.340893 -1.102944
-2.066229 1.069393
0.865524 0.396596
-1.083990 0.826829
0.886648 0.100831
-1.267151 -1.325646
0.535060 1.038575
0.109371 -0.555666
-1.367522 -0.332895
0.140471 0.377946
-1.508715 0.768531
-0.647569 0.484744
-0.020381 -0.983857
-0.535058 0.416527
0.133848 1.085106
0.286330 -0.238347
0.477250 -0.374546
0.106807 -0.296841
-0.895793 0.506092
0.451625 -1.193496
-0.448045 0.663485
-0.069081 0.191530
-0.318542 -0.091573
0.073245 0.012354
0.491804 -0.713934
0.102548 -0.257091
0.154397 0.137595
-0.371377 -0.925818
0.448978 0.334467
-0.246070 0.753260
-0.023867 -0.421670
0.070097 -0.080105
0.490402 -0.276838
-0.048527 0.272389
0.015224 -0.330222
0.110361 -0.280528
-0.268330 -0.185523
0.444296 0.240069
-1.356625 -0.251748
0.467731 -0.437485
-0.392049 0.088813
-0.279387 -0.385393
0.186983 -0.596199
-0.399631 -0.215895
0.556769 -0.409470
-0.475690 0.418702
-0.236305 0.240884
-0.041852 -0.747970
-0.102890 -0.530452
-0.180138 0.128199
-0.319936 -0.050374
0.782621 -0.071215
-0.133035 0.267740
0.023231 0.220805
-0.082481 0.509179
0.363120 0.238694
-0.086827 0.011940
-0.229938 -0.026005
-0.375688 0.158883
0.139397 -0.518994
0.134620 -0.327391
0.200199 -0.094143
-0.026599 -0.483852
0.096638 -0.534446
-0.488560 -0.353647
0.000453 -0.016441
0.216579 -0.539061
-0.009859 0.483765
0.265874 0.509657
0.302935 0.421132
-0.444485 0.571727
0.378974 -0.381276
-0.450155 -0.230101
-0.169068 -0.382865
0.338656 -0.308589
0.229358 0.229951
0.295220 -0.552546
-0.443097 0.122502
-0.558664 -0.453650
0.069341 -0.213543
0.173416 0.134043
-0.210759 0.020724
0.075017 0.208108
0.055043 0.212907
-0.291506 -0.269185
0.286971 0.132813
-0.009186 -0.578054
-0.141354 -0.258955
-0.241198 -0.303813
-0.296752 0.105939
-0.318681 -0.139073
0.032767 -0.092745
0.055770 -0.072929
-0.061922 -0.389237
-0.039845 -0.157739
-0.188000 0.240860
0.081865 0.265665
-0.028943 0.348387
-0.020121 -0.368042
0.013399 -0.010030
0.105556 0.135362
-0.060683 -0.512230
-0.045331 0.104677
0.305655 0.040638
0.114968 0.235317
-0.226306 0.014602
-0.212504 0.030570
-0.063602 0.415196
0.154839 -0.152162
0.111358 -0.146048
0.322730 0.172069
-0.693208 -0.179859
-0.085673 0.229718
0.387084 0.193504
0.234280 0.147659
-0.458841 -0.068917
-0.067365 0.039293
0.411395 0.137185
0.055280 0.178892
0.003040 -0.162569
0.095054 -0.008475
0.065460 -0.203180
0.062454 0.212463
-0.250476 0.000399
0.015219 0.155855
0.336589 0.763192
-0.153995 -0.091411
-0.317509 -0.279883
-0.274384 0.105560
-0.083186 0.097875
-0.050573 0.213381
-0.138198 0.085273
0.130496 -0.360743
-0.108590 -0.281755
0.109299 -0.206651
-0.131075 0.092558
0.060777 0.190815
-0.266416 -0.627127
-0.084681 -0.135449
-0.084251 0.162710
-0.239915 0.101375
0.282047 0.199308
0.295499 0.094400
-0.085673 0.136603
0.104247 -0.359298
-0.045759 0.092980
0.187234 0.044885
0.088018 -0.123475
-0.167841 -0.040499
-0.151112 -0.251893
0.140477 0.184113
0.164468 0.305581
0.238356 -0.358795
-0.027286 -0.250105
0.014226 -0.272472
0.135753 0.119864
-0.184677 -0.384168
0.093618 0.112732
0.195689 0.242362
0.323917 0.010097
0.305720 -0.153890
-0.095309 0.179697
0.012402 -0.382547
-0.082705 -0.234780
-0.133864 -0.143396
0.182391 0.378833
0.076006 -0.248695
-0.012273 0.297610
0.038225 -0.057965
-0.218390 -0.346883
0.140883 -0.083008
0.007155 -0.227774
-0.201715 0.150103
-0.054658 0.307233
-0.154417 0.049330
0.114503 0.119969
-0.063603 -0.040315
-0.282215 -0.038771
-0.258811 -0.188941
-0.113210 -0.087767
0.322889 -0.104765
0.091180 -0.272234
-0.027078 0.068094
-0.059824 -0.035743
0.072582 -0.089927
-0.197294 0.092707
0.041720 0.022682
-0.042266 -0.303321
0.061051 -0.082943
-0.386537 -0.396536
-0.086507 -0.193688
-0.163428 0.049709
0.271475 0.046387
-0.029171 0.136087
0.005923 -0.308462
-0.197743 -0.165292
0.058232 -0.123994
-0.069741 0.028395
0.058645 0.060276
-0.082023 0.015306
-0.112872 0.194934
0.198709 -0.582967
-0.181765 0.147711
-0.011004 -0.157733
-0.018403 -0.287036
-0.069237 0.192391
-0.166166 -0.028063
0.152712 -0.152712
0.021251 -0.059496
0.135482 0.097168
0.020041 0.180650
0.136923 -0.179006
0.006978 -0.067138
-0.245567 0.155247
-0.047821 0.094948
-0.180373 -0.052437
0.077426 0.071925
-0.044185 -0.151493
0.098881 0.129316
-0.122675 0.452020
0.318569 0.198107
0.041202 -0.014971
0.180845 -0.071516
-0.073522 0.046809
0.300169 -0.114991
-0.081039 -0.112420
-0.234743 -0.003775
-0.044770 0.045259
0.022954 0.002448
-0.008995 -0.237211
-0.357282 -0.261646
0.123356 -0.231258
0.203821 0.006441
0.018334 -0.068098
-0.182490 0.146675
-0.466129 0.095344
0.220625 -0.167705
0.383312 0.225477
-0.254154 -0.062270
0.124235 0.024613
-0.016279 0.149318
-0.231816 0.100053
-0.171944 0.041628
-0.105615 0.230122
-0.135323 -0.021185
-0.102299 -0.095488
-0.035304 0.240342
0.238629 -0.184871
-0.061796 -0.174314
-0.153328 -0.076611
0.298664 -0.158441
-0.087783 0.019215
0.131428 0.168842
-0.039415 -0.021111
0.195800 0.063050
-0.167034 0.393696
0.182185 0.273295
0.049064 -0.012482
0.122641 -0.027384
-0.091295 0.001633
0.167300 -0.149888
-0.057225 -0.152452
-0.131157 -0.018281
-0.114654 -0.107869
0.006551 0.029153
-0.049877 0.154490
-0.164230 -0.033076
0.194574 0.073055
0.072708 -0.161314
-0.094009 -0.039765
-0.024502 -0.033649
-0.124712 0.145212
-0.022667 0.340985
0.194453 0.129881
-0.066540 0.073723
-0.048723 -0.007657
0.234082 -0.153538
-0.180044 -0.115085
-0.017747 0.202282
0.122506 -0.076172
-0.016918 0.065611
0.187243 0.141325
0.048261 -0.232212
0.065790 0.082931
-0.040548 -0.091057
0.027155 0.044595
0.044125 -0.037258
0.193149 -0.308227
0.084311 0.068274
-0.152931 0.236596
-0.020978 0.229338
-0.442091 0.255669
0.088359 -0.106373
-0.177660 -0.209935
-0.088817 0.378019
0.133635 0.290627
0.064540 -0.092850
0.070877 -0.197952
0.088069 0.055074
0.116552 0.400391
0.007359 -0.070198
0.300257 0.051968
0.270730 0.081934
0.035984 0.199370
0.244035 0.066668
0.154836 -0.238454
0.055864 -0.109153
0.057771 -0.167523
-0.014870 -0.020221
-0.124711 -0.220949
-0.144603 -0.385685
0.274118 0.353021
-0.124237 -0.044587
-0.029773 -0.077524
0.080238 -0.106337
-0.020218 -0.042039
-0.122112 -0.296230
-0.056153 0.102667
0.120956 0.164000
-0.282596 -0.317861
0.247459 -0.412432
-0.170096 0.136691
0.188121 0.063419
-0.168218 -0.436177
0.193985 -0.012855
-0.047911 0.157884
-0.017323 0.009759
-0.097573 -0.215481
0.002047 0.000181
0.189367 0.072132
0.148309 0.066500
0.008518 0.193536
0.119935 0.118678
0.311415 -0.307173
-0.051230 -0.347427
0.121181 0.135705
0.043659 -0.033981
0.082275 -0.185269
0.064175 -0.038120
0.350927 -0.050762
-0.188439 -0.393846
-0.014186 -0.066961
-0.100750 0.181815
-0.180381 -0.121170
0.000944 -0.183766
-0.032815 -0.207463
0.144398 -0.102676
0.047383 -0.039284
-0.124326 -0.265976
-0.162191 0.218447
0.104898 -0.027576
-0.203147 0.175720
-0.011907 0.069850
-0.156995 0.004420
-0.057988 -0.069898
0.033258 0.179685
-0.095321 0.295977
-0.263787 -0.133498
-0.197692 0.265756
0.167919 0.129644
-0.007531 -0.193934
0.163380 -0.030576
0.206689 0.095936
-0.135901 -0.490997
0.046124 0.010156
-0.276303 -0.023161
-0.101155 -0.289692
0.446635 -0.054831
0.023772 0.031898
-0.086047 0.150512
-0.245976 0.092112
-0.090251 -0.017796
0.192192 0.167842
0.084590 0.086922
-0.266413 -0.352167
0.053673 0.004741
0.333713 -0.232504
-0.329091 -0.218100
0.007216 0.169052
0.019249 0.045043
0.135545 -0.006054
0.202733 -0.120755
0.046856 -0.111389
-0.328472 0.121861
0.405569 -0.175896
-0.272917 0.186449
0.073513 0.320727
-0.130042 0.314550
0.286503 -0.436441
-0.181899 0.113910
-0.074787 -0.214771
0.008556 0.245370
-0.051595 0.204503
0.121763 0.007782
-0.022874 -0.098476
0.137210 0.355684
0.307017 -0.165642
-0.077062 0.257773
0.242144 0.210042
-0.162076 -0.084293
0.417450 0.006493
-0.157654 -0.051430
0.174230 0.195540
-0.013529 -0.098851
0.005792 0.075598
-0.088234 0.234367
0.053837 -0.117617
0.006948 -0.052194
-0.077005 -0.231923
-0.007805 -0.002102
0.050087 0.306780
-0.194343 0.014143
0.089746 -0.294498
-0.028706 -0.348792
0.212100 -0.041710
-0.215564 -0.150687
-0.248011 -0.046062
0.002638 0.034901
0.141339 -0.231339
0.030459 0.479051
-0.011035 -0.493140
0.078615 0.191000
-0.510125 -0.100386
-0.312832 -0.075935
-0.078434 -0.183571
0.008398 -0.064383
0.039606 0.187916
-0.232718 -0.021321
-0.170548 0.235665
-0.021669 -0.193346
-0.069383 0.092261
-0.026886 -0.050062
-0.052816 0.152473
-0.155414 -0.104110
-0.314381 -0.018786
-0.096680 -0.173923
-0.065794 0.125830
0.000734 0.343024
0.123856 -0.085994
-0.059108 -0.311661
-0.289582 0.185387
0.047136 0.350273
-0.192848 0.019402
-0.198892 -0.022542
0.258120 0.203392
0.081710 0.106794
-0.071943 0.200043
-0.370213 -0.041929
-0.331853 0.040398
-0.065382 0.159983
0.191261 0.045727
-0.352432 -0.030842
-0.356007 0.096889
0.160343 -0.111938
-0.042021 0.642195
0.122230 0.189075
0.051980 -0.236405
0.176671 0.244365
-0.374985 -0.014426
0.119220 -0.112629
0.117541 -0.148940
-0.077262 0.299205
-0.361464 0.032575
0.284938 0.013449
-0.172374 -0.220539
-0.227594 -0.039572
0.171226 0.067035
0.016924 0.240863
0.006127 -0.140866
-0.131457 -0.024084
-0.233218 0.147734
0.008873 0.018068
0.179019 0.010501
0.244586 0.075808
-0.285597 -0.468710
-0.427593 -0.183254
0.232591 0.266177
0.047253 0.024846
-0.470457 -0.353871
-0.089064 -0.003847
-0.074885 0.141034
-0.087956 -0.190558
-0.391364 0.224198
0.232234 0.044770
-0.053547 -0.375686
0.163363 0.086949
-0.346786 0.051350
-0.279804 0.154973
-0.083724 -0.032676
0.122485 -0.219188
-0.241695 0.090383
0.214084 -0.198293
-0.330892 0.017319
-0.472988 0.154163
-0.123162 -0.174921
0.051782 -0.155878
-0.043329 0.490679
-0.127152 0.136685
-0.175581 -0.162723
0.361861 0.096551
-0.245257 0.267357
0.005084 0.038117
-0.048645 -0.113153
-0.068279 -0.170219
-0.318727 -0.245626
0.207051 0.148949
-0.086179 -0.043650
0.085893 -0.119945
-0.137555 -0.007485
0.152950 0.263376
-0.111117 -0.113942
0.200902 -0.237829
0.134886 0.007884
-0.239536 -0.081514
0.100214 0.313705
0.065059 -0.011111
0.165132 -0.058804
-0.290132 -0.090984
0.231662 0.232826
-0.145346 -0.552719
0.046422 0.089034
-0.117642 0.121609
-0.089390 0.074100
0.103435 -0.141763
0.178580 -0.173071
-0.077190 0.049786
0.142000 -0.033490
0.137056 0.287748
-0.280264 -0.198423
-0.066313 -0.416547
0.138741 -0.334453
-0.156152 -0.227138
0.126568 0.322382
-0.244888 0.027506
0.182703 -0.434077
0.104107 0.077283
0.147434 -0.065641
-0.315273 -0.136304
-0.144404 -0.287086
-0.337810 0.171295
-0.175805 0.008690
0.068786 -0.153426
-0.038972 -0.074769
-0.154091 -0.278273
-0.263634 0.194942
-0.131419 -0.157707
-0.238808 -0.127234
-0.164648 -0.123196
0.350455 -0.088438
-0.385165 -0.121767
-0.034133 -0.032149
-0.255095 -0.085427
-0.128799 0.001345
-0.084973 0.071052
0.162315 -0.128554
-0.203605 0.097678
0.015515 0.066774
-0.108849 0.226013
-0.054332 0.092678
0.168966 0.144815
0.248764 -0.070139
-0.282095 -0.044984
0.054814 0.157297
-0.421073 -0.121284
0.304480 0.332290
-0.117220 -0.247964
0.082835 0.082591
0.363416 0.034674
0.056611 0.023112
-0.043371 -0.073131
-0.233100 0.008583
0.083931 0.139856
0.177452 0.383303
0.363698 -0.061560
-0.178573 -0.057651
-0.181492 -0.051787
-0.022337 0.289910
-0.002358 -0.042784
-0.205998 0.418460
-0.214455 -0.244219
0.015750 0.087497
0.525189 0.136847
-0.256668 -0.167689
-0.084580 0.090958
0.642845 0.273763
-0.173781 -0.029854
0.045355 0.130855
-0.344465 0.044474
0.062203 -0.250490
-0.040941 0.167322
-0.100511 0.233868
-0.247021 0.249193
-0.217447 0.183878
-0.094126 0.148076
0.231909 -0.024862
0.196204 0.113043
-0.119111 0.007594
0.022404 -0.075755
0.166006 0.200847
-0.035798 -0.020529
0.263576 0.077339
0.229221 -0.127808
0.142321 0.003655
0.157265 -0.167695
0.359506 0.145286
-0.181704 -0.057246
0.006708 0.128892
0.199208 0.244208
-0.036759 -0.260134
0.046899 -0.166898
0.228024 -0.162333
-0.009564 -0.020233
-0.141855 0.051799
0.033453 -0.070261
0.167560 -0.120315
0.028139 -0.014842
-0.236738 0.104641
0.070502 0.206531
0.061476 -0.294192
-0.319674 -0.000501
-0.116401 0.239749
0.339521 0.367596
0.202619 -0.101577
-0.090839 0.112344
0.257023 0.120282
-0.033763 0.036985
-0.074661 0.096000
0.323250 -0.168304
0.305985 0.169649
-0.093547 0.214968
-0.217898 -0.079026
0.205237 0.076379
0.129652 0.034282
-0.229623 0.057618
0.028738 -0.047370
0.149253 0.117334
-0.048946 -0.136819
-0.131000 -0.230054
0.124223 0.278897
-0.074845 -0.062434
0.104057 -0.006199
0.107686 -0.242195
0.210801 0.184367
-0.369399 -0.281540
-0.125655 -0.066864
0.018293 -0.313227
-0.377938 -0.154607
-0.024035 0.234472
-0.178819 0.119059
-0.029285 -0.143350
0.022315 -0.144636
0.126727 0.339550
-0.159076 0.269727
-0.068855 0.013938
0.190871 -0.018692
-0.034488 0.117515
-0.109314 0.249824
0.040668 0.142214
-0.069652 0.202529
0.089535 -0.047015
0.156476 -0.162886
0.010468 -0.125296
0.234129 -0.433275
0.097699 0.108331
0.148642 0.234103
0.279372 -0.202906
-0.250492 -0.071161
-0.135204 -0.083674
0.268264 -0.066023
-0.200043 0.010613
0.126370 0.328014
-0.088712 -0.345243
0.157779 0.203458
0.029947 -0.079474
-0.064756 0.004721
-0.057197 0.065759
-0.169787 -0.037220
-0.118176 -0.017457
0.061149 0.038473
0.192673 0.084193
0.113736 -0.094791
0.230657 0.075274
-0.052549 -0.170563
-0.057165 0.070411
0.179639 -0.110535
-0.154902 0.131834
-0.007097 0.060945
0.177248 -0.021643
0.267998 -0.169295
-0.064587 -0.105635
-0.114493 -0.241958
-0.271780 -0.034962
-0.170489 0.026565
-0.086298 -0.051179
0.084184 -0.094311
-0.302522 -0.059907
0.073401 0.129064
0.252274 -0.193708
0.195014 0.065225
0.121911 0.151670
0.132426 -0.037258
-0.113008 -0.158472
0.067102 0.120401
-0.068668 0.285787
-0.111448 0.004280
-0.206555 -0.140062
-0.171430 0.473511
0.111081 -0.164936
0.044187 0.004299
-0.143078 -0.009744
-0.121778 -0.240321
0.195606 -0.216971
0.189067 0.028163
0.028244 -0.001437
-0.107373 0.132679
-0.194768 0.031990
0.482926 -0.135671
-0.042791 0.199436
0.199103 -0.404889
0.128238 0.177306
0.050740 -0.058165
-0.221204 0.098896
-0.277840 0.015317
-0.049504 -0.019216
0.046549 -0.198333
0.061576 -0.181360
-0.293351 -0.185551
-0.210236 -0.020373
-0.119355 0.059633
-0.158039 0.010298
-0.137980 -0.123320
-0.160172 0.100803
0.097335 0.293418
0.187752 -0.025232
0.026358 0.190470
0.043378 0.147029
-0.064258 -0.002412
0.146048 -0.175604
-0.202373 -0.073971
0.007437 0.116922
0.408905 -0.090362
-0.063845 -0.012125
-0.228217 0.107804
0.274881 0.030542
0.140129 0.307942
-0.204596 0.159129
0.335804 -0.052556
-0.047592 -0.010400
0.167974 -0.064572
-0.220821 0.203730
-0.227516 0.046565
0.055814 0.067551
-0.077799 0.042724
0.309666 0.063265
0.097131 -0.023596
-0.103448 0.183828
-0.151271 -0.072823
-0.030484 0.078429
0.116668 0.125614
0.016285 0.154177
0.323486 0.048811
-0.121554 0.203862
-0.175888 -0.051135
-0.028921 -0.062013
-0.091758 -0.054185
-0.165460 0.042042
-0.103331 0.123284
-0.088308 -0.143036
0.206085 -0.022761
0.015431 0.030351
0.042882 0.316994
-0.231661 -0.043721
-0.180534 0.320839
-0.115921 0.093343
-0.058101 -0.058005
-0.359073 -0.095127
0.122987 0.093047
-0.158537 -0.213698
0.300151 0.190421
-0.027495 -0.075347
0.306705 0.054678
0.103075 -0.139316
-0.273474 -0.169286
-0.393349 -0.039546
-0.008586 0.082081
0.411097 0.036329
0.289856 0.047648
-0.199442 -0.117027
0.073482 0.002158
-0.126848 -0.283582
-0.308502 -0.260558
0.020883 0.314264
0.225255 -0.055807
-0.084812 0.252473
0.221401 0.161493
0.259301 -0.194203
-0.183971 0.299001
-0.128632 -0.208791
0.090438 0.159633
-0.161364 0.075639
-0.243849 0.047904
0.059553 0.228413
-0.037657 0.128496
0.209802 0.203972
-0.081819 -0.149280
-0.115289 -0.234816
-0.149902 0.056993
-0.210237 0.329520
-0.080621 0.382522
0.102589 -0.067646
0.303468 -0.060173
0.130631 0.257574
-0.217757 0.517495
0.115031 0.073231
0.334762 -0.154651
0.092147 -0.136815
-0.326748 -0.220089
-0.142440 0.322803
0.036069 0.424149
-0.420561 -0.195198
0.053176 0.173113
-0.001507 0.044059
-0.519396 -0.110568
0.200917 0.092077
-0.270281 -0.052811
-0.257490 -0.210222
0.280811 -0.267328
-0.062205 -0.044564
0.522185 0.067193
-0.389658 0.034081
0.067206 -0.054656
0.397167 -0.356676
-0.163221 0.120315
-0.248793 0.120713
-0.369039 -0.029070
0.396541 0.166285
0.223796 0.167946
-0.253467 -0.036214
0.115971 -0.286344
0.069380 0.240195
0.106620 0.054424
-0.046947 -0.151823
0.038487 0.207484
0.333809 0.077774
-0.273820 -0.418375
-0.469642 0.158852
0.628316 0.258643
0.274623 -0.082081
0.395490 -0.374254
-0.088970 0.005104
-0.015988 0.335907
-0.286121 -0.003598
0.092781 0.331144
0.071685 -0.342266
0.179953 0.356265
-0.064898 -0.075067
0.391639 -0.151406
0.202071 0.388277
0.171029 0.019455
-0.076557 0.196690
0.181168 0.075549
-0.002036 -0.119987
0.028968 -0.131751
0.008571 0.040065
0.086792 0.049396
0.062733 -0.444770
-0.616644 -0.044026
-0.447135 -0.009395
-0.068989 0.041050
0.362686 0.373560
0.399916 -0.125501
0.158614 -0.092774
-0.353293 0.011862
0.049137 -0.238699
-0.108842 0.190628
0.009444 -0.558843
0.217256 -0.118810
-0.230153 0.494554
-0.528396 -0.069845
-0.418225 0.095617
-0.884110 -0.237017
0.282023 -0.347252
0.111221 0.146479
0.141870 -0.099631
0.450798 0.559665
0.700943 0.058891
-0.106725 0.013481
-0.033257 -0.160428
-0.129586 0.168098
0.111489 -0.213641
-0.659539 0.023309
-0.140612 0.587197
-0.485982 -0.108994
-0.445680 0.328173
-0.317756 -0.147257
-0.321060 -0.372877
-0.132870 0.058236
0.244397 0.230696
-0.436436 0.255303
0.663958 0.037581
0.402871 0.199422
0.400197 0.232196
-0.269519 0.548161
-0.415979 -0.094416
0.068597 0.153909
0.237181 0.119352
0.219499 0.038304
-0.266724 -0.249099
0.218198 0.112184
-0.197634 1.328894
-0.145080 -0.793490
-0.216886 0.282286
-0.657539 -0.130190
0.202869 0.044042
0.003551 0.386240
-0.423746 -1.295050
-0.290653 0.333182
0.372816 0.193299
-0.966869 0.373462
0.098026 -0.591905
-0.066684 0.294644
-0.392542 0.524372
-0.238688 0.094213
0.415105 -0.034159
0.168717 -0.213344
0.310125 0.353836
-0.994088 0.208035
-0.632911 0.337388
-0.051523 0.496978
-0.099056 0.524221
-0.422168 0.008093
0.155997 0.354136
0.013304 -0.289558
-0.251308 0.095524
-1.224172 0.152508
-0.528009 0.080271
0.711807 1.376027
-0.616198 0.632247
-0.474523 -0.359468
-0.254597 0.834361
-0.229545 1.462890
-0.018825 -0.337327
0.964578 -1.184294
-0.506115 -0.605223
-0.246310 0.900786
-0.207350 -0.018926
-0.582820 0.122549
-1.066866 -0.173530
0.613888 0.641425
0.830048 1.339197
0.421160 -1.469842
-1.446043 -0.070380
-0.983941 -0.685092
-0.090522 0.740194
0.113610 -0.799165
0.687925 -0.509606
-0.956899 1.230276
-1.826092 0.484055
0.501325 -0.282487
0.269186 -1.578525
0.560278 -0.721244
-1.711482 -1.390423
-1.857577 0.472175
0.555786 0.158034
0.930075 -1.039240
-1.927227 -0.946951
0.907693 -2.081281
-0.713512 2.676865
1.996653 -1.638884
-2.342086 -0.818165
-1.572809 -2.240863
-1.462741 2.160121
0.846681 -1.846030
-0.054181 0.059519
-3.648486 0.522857
-0.265250 3.045695
-1.650016 -0.432203
4.795603 -0.517287
-2.870449 -2.629300
0.413001 1.967437
-1.548513 3.109864
0.600888 1.471998
2.457995 -4.035567
-1.358306 -3.580152
-0.465299 3.274801
0.749042 3.544953
2.784882 -6.033412
-0.666719 -1.966951
-5.428409 -7.374512
-3.534913 7.389923
4.946994 -6.515378
-6.751096 0.455465
-7.605740 -8.325189
-6.480451 5.460240
2.620899 4.983988
2.795142 -9.236949
-8.034934 -7.158381
-9.449040 1.143592
-5.852477 8.467998
35.035389 -6.183042
-19.446748 -10.976277
-7.180124 -32.370174
-42.471634 42.646093
62.973272 -39.997529
-75.618404 22.601999
131.199321 -107.677065
-269.886503 56.650456
125.028165 -127.617972
-278.700713 84.216487
239.189759 -527.127153
-244.437928 142.170949
