10157.463132 10151.451850
-7785.655335 16.739497
40.793415 -22.242433
11.930167 -5.836351
38.104263 7.998252
214.382687 -8.899967
-7.549739 2.627290
13.432954 -3.557335
7.084914 -4.928475
-520.622553 8.061252
16.689621 -6.678390
13.791587 -4.043677
20.796740 -3.786282
-126.005260 -1.616722
11.555499 -6.391969
14.245051 -7.300649
16.936557 -7.749343
-37.592408 -5.031924
13.139873 -10.514149
13.489539 -9.008579
18.521995 -7.810338
65.177611 -10.748111
5.391565 -6.978183
11.221010 -9.710976
7.570190 -11.816071
-6.523397 -5.706412
11.968655 -8.246170
9.671924 -9.796609
9.559938 -10.621175
-5.473065 -5.873592
12.065066 -7.281077
10.200013 -10.069254
9.037580 -9.296820
-20.781396 -4.777955
15.073985 -9.916112
10.970258 -8.895520
15.065838 -6.644720
16.950332 -8.932834
9.206851 -6.810880
10.435576 -7.770008
11.683147 -8.175040
12.907888 -8.511561
9.433310 -6.314798
9.743599 -7.655112
12.124258 -8.909622
18.647650 -9.118725
7.800430 -5.835836
9.959194 -9.581022
9.177217 -9.326055
0.705345 -7.095475
10.978155 -8.805833
10.785354 -10.020860
12.486333 -7.786198
6.381291 -8.590338
9.156413 -8.114353
10.755489 -9.756979
11.656237 -8.209229
3.904440 -8.448779
10.322255 -9.120206
10.452976 -8.590477
13.242137 -8.404620
13.146538 -9.968716
8.060038 -8.258541
10.111623 -9.208915
10.754993 -8.972586
7.039076 -9.009555
9.407963 -9.816122
9.731234 -9.169820
10.410677 -9.461364
6.363655 -9.049143
8.582448 -9.446506
9.241462 -9.722904
8.272441 -10.520263
2.225193 -8.269764
10.199162 -10.682038
8.988303 -9.605758
10.046827 -10.460445
8.746114 -9.757894
8.311567 -9.861251
9.114623 -10.391535
9.580792 -10.170525
9.424318 -10.130963
8.094585 -10.566226
8.710634 -10.540349
9.476435 -10.413301
10.497836 -10.713347
7.260026 -9.825570
8.053210 -10.555692
7.659451 -10.841166
6.064634 -9.783109
8.458241 -10.586783
8.002304 -10.374141
8.144444 -10.714958
6.507884 -9.994934
8.054139 -10.576067
8.252585 -10.711960
8.000864 -10.216439
5.613674 -10.095235
8.362055 -11.261900
7.982080 -10.711207
8.871083 -10.430200
8.444157 -11.027654
6.923408 -10.472269
7.538327 -10.406694
7.838137 -10.605908
6.363841 -10.468768
6.865726 -10.373838
7.329915 -10.240454
7.309882 -11.058497
5.991722 -10.291071
6.478745 -10.693508
6.908625 -11.084466
6.160452 -11.253122
4.424285 -10.003951
7.189057 -11.552584
6.962935 -11.144967
7.021737 -11.109217
5.634757 -11.053316
6.521432 -11.178379
6.770539 -10.794844
6.222788 -11.660463
6.284409 -11.338634
6.014944 -11.230136
6.481322 -10.955222
6.594232 -11.565780
7.324606 -11.909608
4.828462 -10.851779
5.759855 -12.023319
4.621991 -11.275795
4.545183 -10.859651
5.927473 -11.468581
5.471597 -12.113054
5.242844 -11.447740
4.423646 -11.019162
5.906355 -11.621659
5.311922 -12.030544
5.248705 -11.436699
4.310943 -10.937960
5.593264 -11.184068
5.714300 -10.934294
5.331248 -11.863668
5.224521 -11.672188
4.462221 -11.300338
4.937027 -11.656776
4.427441 -11.566630
4.054129 -11.209964
4.454055 -11.596219
4.514447 -11.830314
5.024911 -11.748088
4.036661 -11.373954
3.807605 -11.293982
3.937519 -12.313532
4.059527 -11.312916
2.571806 -10.770569
4.406265 -11.483795
4.566588 -11.189548
4.404083 -11.731168
3.300168 -11.382301
3.796623 -11.915924
4.076778 -11.178052
3.802386 -11.891674
3.613887 -11.828810
3.513318 -11.911684
3.311476 -11.864911
3.754321 -11.748707
3.586293 -12.109896
3.362770 -11.806357
2.704478 -11.929370
3.045512 -11.804374
3.308176 -11.393045
3.015124 -11.004387
3.061958 -12.197990
3.033699 -11.498187
2.576399 -11.688861
3.228898 -11.892004
2.213268 -12.179367
2.220533 -11.627278
2.707956 -11.610123
3.426258 -12.025546
2.540725 -11.590283
3.203672 -11.828954
2.693164 -11.930894
1.959685 -11.204790
1.909464 -12.696328
1.737038 -11.316398
1.960298 -11.582640
2.434361 -12.346672
2.077544 -11.539785
2.608136 -11.578301
1.905698 -11.641178
1.672288 -11.608204
1.431448 -11.720775
1.448611 -11.430963
1.829521 -11.483889
1.640585 -11.547879
1.404567 -11.685443
1.541165 -11.379102
1.488027 -11.459775
1.552184 -11.091816
1.694259 -11.322708
1.303729 -11.597766
0.682164 -11.591594
1.130279 -12.161338
1.029222 -11.235769
1.240323 -11.457189
0.601358 -11.248673
0.671866 -11.071694
0.650206 -11.678309
0.758761 -11.488164
0.941451 -11.783348
0.712254 -11.473692
0.808260 -10.866381
1.093038 -11.678601
0.341680 -11.137820
-0.012468 -10.996719
0.015253 -11.702430
0.052011 -11.084215
-0.318615 -10.837333
0.466644 -11.714749
0.154733 -11.208503
0.434145 -11.499535
-0.088366 -11.248157
-0.320179 -11.505296
-0.235131 -10.970735
-0.034503 -11.268448
-0.633092 -10.814501
-0.168251 -11.020708
-0.515653 -11.015043
-0.905795 -11.281231
-0.497411 -10.730686
-0.396785 -11.420489
-0.377742 -11.281672
-0.102568 -10.915183
-1.033460 -10.607679
-0.432718 -10.867936
-0.621658 -10.930946
-0.833201 -11.359310
-0.790117 -11.141868
-0.868473 -11.088580
-0.677585 -10.470747
-0.687454 -11.407106
-1.200610 -10.939470
-1.488824 -10.548113
-1.359664 -11.140281
-0.785100 -10.802883
-1.744932 -10.929659
-1.329183 -11.135020
-1.573824 -10.408311
-0.871046 -10.588897
-1.727448 -10.074076
-1.343638 -9.973458
-1.132025 -10.383832
-1.323574 -10.946737
-2.149171 -10.382127
-1.855228 -9.873728
-2.068550 -10.709255
-2.477283 -10.737826
-1.739661 -10.727573
-2.330315 -10.630194
-2.377826 -10.466843
-2.733214 -10.154248
-1.780745 -9.843317
-1.619025 -10.506888
-1.896874 -10.330774
-1.974316 -10.901952
-1.906424 -10.466775
-2.593333 -10.153756
-2.465804 -10.622663
-1.963158 -9.698652
-2.218873 -10.471194
-1.766187 -9.962638
-1.661774 -9.418805
-1.817465 -10.671899
-2.391411 -10.253166
-2.941809 -9.127922
-2.748663 -9.946312
-2.698734 -9.720617
-2.586602 -9.730910
-2.574161 -9.506983
-2.856786 -9.775867
-3.030912 -9.891523
-2.802526 -9.830353
-2.508290 -9.995145
-2.952345 -9.483433
-2.765569 -10.069962
-2.920930 -10.059737
-3.039854 -9.427361
-3.155254 -9.525111
-3.004557 -9.504983
-3.338219 -9.422212
-3.242757 -9.615433
-3.606798 -10.033592
-2.440321 -9.342596
-3.112237 -9.827010
-4.020334 -9.039613
-3.638633 -9.716028
-2.858703 -8.596866
-3.440815 -8.985082
-3.528148 -8.732404
-3.619916 -9.228957
-3.743322 -9.132952
-3.576522 -8.645496
-3.385186 -9.036073
-3.526910 -9.124543
-3.958299 -9.365809
-3.501625 -9.247214
-3.753750 -9.147144
-3.103420 -8.448208
-3.849482 -9.025185
-4.254465 -8.721387
-3.764544 -9.005253
-4.130894 -8.421515
-4.002112 -8.888082
-3.748690 -8.894279
-4.073629 -8.432233
-3.832497 -8.661490
-4.099075 -8.790320
-4.353959 -8.405045
-4.730312 -8.348122
-4.661776 -9.326750
-3.717244 -8.083761
-4.674961 -8.350057
-4.220519 -8.521167
-4.552272 -8.403428
-4.035574 -8.489475
-4.388646 -7.825812
-4.491395 -8.178440
-4.382720 -8.138172
-4.399736 -8.111312
-4.878291 -7.630734
-4.266159 -8.148866
-4.803311 -8.311728
-4.662847 -8.089035
-4.688408 -8.187036
-4.843301 -8.179779
-4.399963 -7.858113
-4.669538 -7.842323
-4.911579 -7.605474
-4.783514 -7.905942
-4.636450 -7.544314
-4.948360 -7.919619
-4.884460 -7.514057
-5.223481 -7.513552
-5.151802 -7.554663
-4.787768 -7.351712
-4.452005 -7.786264
-5.017358 -7.149668
-4.471389 -7.213373
-4.957106 -6.969710
-5.113482 -7.023172
-4.677767 -7.534427
-4.968588 -7.332797
-4.818216 -7.488236
-5.103282 -6.951633
-5.087525 -6.922102
-5.125683 -7.230206
-5.405877 -7.242800
-5.417533 -7.008759
-5.385842 -7.019475
-5.284491 -6.782131
-5.252257 -6.646776
-5.301455 -6.974459
-4.717899 -6.959558
-4.937046 -6.558246
-5.165023 -7.242908
-5.465481 -6.375869
-5.372859 -6.520341
-5.698938 -7.120954
-5.309324 -6.309395
-5.315349 -6.927151
-5.377634 -6.896014
-5.426244 -6.612707
-5.354824 -6.601451
-5.086084 -6.533261
-5.528610 -6.134917
-5.556712 -6.534044
-5.293618 -6.603163
-5.307324 -6.510139
-5.386689 -5.559951
-5.052714 -6.131015
-5.493191 -5.939259
-5.767587 -5.600727
-5.241501 -6.466843
-5.546504 -6.269187
-5.049857 -6.510504
-5.883702 -5.948617
-5.728668 -5.811334
-6.019355 -5.720540
-5.599418 -5.624267
-5.466993 -6.159911
-5.667675 -5.925556
-5.334338 -5.312465
-5.665163 -5.507086
-5.550974 -5.137034
-5.224127 -5.674365
-5.472402 -5.922425
-5.576693 -6.091362
-5.852375 -5.321978
-5.658240 -5.211657
-5.465940 -5.672310
-5.508611 -5.863519
-5.737499 -5.504212
-5.666439 -5.189137
-5.803670 -5.293685
-5.967364 -5.580087
-5.502184 -5.708758
-5.785598 -5.244005
-5.888291 -5.437159
-5.715516 -5.491868
-5.842968 -4.984545
-5.811587 -4.684758
-6.082624 -5.353024
-5.574349 -4.963729
-6.072614 -4.716260
-5.226730 -5.131010
-5.584058 -4.727532
-5.459593 -5.055100
-5.936543 -4.719786
-5.072035 -5.205914
-5.388948 -4.820947
-5.735682 -5.486297
-5.986317 -4.932033
-5.965043 -4.445069
-5.637093 -4.644136
-5.670715 -4.516971
-5.859187 -4.541681
-5.976934 -4.435244
-6.193504 -4.592354
-5.364199 -4.307466
-5.416063 -4.455751
-5.735234 -4.335162
-5.568498 -4.271854
-5.267664 -4.327679
-5.280867 -4.292337
-5.235500 -4.316596
-5.109478 -4.511411
-6.308426 -4.541620
-5.854145 -4.524053
-6.174917 -4.495868
-5.691536 -3.950340
-5.145976 -4.294952
-5.368146 -4.821037
-4.979990 -4.131107
-5.521800 -4.121760
-5.972449 -4.391939
-5.947250 -3.703780
-5.807024 -3.644226
-5.408259 -4.129715
-5.793192 -3.297058
-6.406828 -3.765362
-5.187011 -3.804641
-5.743231 -3.492617
-5.841810 -3.789569
-5.653526 -3.812217
-5.984784 -3.769506
-5.705483 -4.111043
-4.833308 -3.880763
-5.449318 -4.045837
-5.613065 -3.075737
-5.612857 -3.726382
-5.284264 -3.439648
-5.147687 -3.762500
-5.473758 -3.589858
-5.133557 -3.498785
-5.691393 -3.249452
-5.732699 -3.109028
-5.524005 -3.861911
-5.419858 -3.200692
-5.504432 -3.450824
-5.544061 -3.367777
-5.648895 -3.307311
-5.350456 -3.629243
-5.420959 -3.209502
-5.405014 -3.498551
-5.807335 -2.760438
-5.246748 -3.624776
-5.630353 -2.941543
-5.446538 -2.952614
-5.920748 -3.032277
-5.375076 -2.993825
-5.234132 -2.778889
-5.418743 -3.213237
-5.075326 -3.315984
-5.217860 -2.919575
-5.584523 -3.354465
-5.520486 -2.761248
-5.424537 -2.443805
-5.019758 -3.091257
-5.510235 -2.550000
-5.722371 -2.596458
-5.425702 -2.825585
-5.580667 -3.015599
-5.373492 -2.752199
-5.476050 -2.688379
-5.567930 -2.528346
-5.481187 -2.719815
-5.050462 -3.005736
-4.968924 -2.684019
-5.043388 -2.075558
-5.161406 -2.861245
-5.818415 -2.328926
-5.197587 -2.582641
-5.682284 -2.886327
-5.067497 -2.805842
-4.999509 -2.659517
-5.359454 -2.678643
-5.334426 -2.566547
-5.067235 -2.558646
-4.842694 -2.552929
-5.207018 -2.307438
-5.159458 -2.416195
-5.287298 -2.773687
-5.450887 -2.318962
-5.263132 -2.247990
-5.430642 -2.207324
-4.534828 -2.459409
-4.877681 -2.107458
-5.195566 -2.023022
-4.575357 -2.355735
-5.456889 -2.377967
-5.358423 -2.229599
-5.055045 -2.317822
-5.390916 -2.203825
-5.255671 -2.161092
-4.904274 -2.243172
-4.710350 -2.846466
-5.183682 -2.000919
-5.002527 -2.286715
-5.084473 -2.099518
-4.889046 -2.180266
-4.955642 -1.620826
-4.958116 -2.290540
-4.877237 -1.815412
-4.963735 -1.677858
-4.759617 -2.155657
-5.097807 -1.966598
-4.642920 -2.138528
-5.051184 -1.996150
-4.583563 -2.161829
-4.582587 -1.797324
-4.823597 -1.959038
-4.962263 -1.836015
-5.179726 -1.977739
-4.671533 -2.080754
-4.357296 -1.745618
-4.977266 -2.235711
-4.620104 -1.570063
-4.989709 -2.063589
-4.523852 -1.917915
-4.180233 -1.831495
-5.110301 -1.698908
-5.019999 -2.512329
-4.495185 -1.780985
-4.760031 -2.184158
-4.353171 -1.974794
-4.427203 -1.680010
-4.759709 -1.911573
-4.510681 -1.675696
-4.953593 -2.443648
-4.897030 -2.010317
-4.997010 -1.939634
-4.894622 -1.791952
-4.728733 -1.365219
-4.500491 -1.530717
-4.331383 -1.705358
-4.353831 -1.840086
-4.667927 -1.962070
-5.011429 -1.883659
-4.693058 -1.761985
-4.613621 -1.352329
-4.785378 -1.551816
-4.362766 -1.647963
-4.177906 -1.854029
-4.605663 -1.644423
-4.373412 -1.516196
-4.364641 -1.582175
-4.188403 -1.678460
-4.466420 -1.990684
-4.531350 -1.834850
-4.684734 -1.696926
-4.550994 -1.610024
-4.533640 -1.921350
-4.645510 -1.772542
-4.527278 -1.539962
-4.388662 -1.790232
-4.322926 -1.353032
-4.770064 -1.662777
-4.656095 -1.915173
-4.523755 -1.158743
-4.937773 -1.930150
-4.064057 -1.731208
-4.155691 -1.342899
-4.445957 -1.929578
-4.103540 -1.078895
-4.396025 -1.521359
-4.676850 -1.762698
-4.511085 -1.254876
-4.320105 -1.501141
-4.433615 -1.404752
-4.468345 -1.347867
-4.172465 -1.524173
-4.247994 -1.948024
-4.178808 -1.539756
-3.907038 -1.366109
-4.076935 -1.516021
-3.982491 -1.596604
-4.307766 -1.771232
-4.514570 -1.812035
-4.207985 -1.440023
-4.184367 -1.712064
-4.175130 -1.762344
-4.602788 -1.722721
-4.461755 -1.489975
-4.422297 -1.512387
-4.113553 -1.337364
-3.842838 -1.236436
-3.950210 -1.708777
-4.169909 -1.832679
-4.289404 -1.759280
-4.125960 -1.444060
-4.253878 -1.375751
-4.457666 -1.479903
-3.903390 -1.432274
-3.985697 -1.487898
-4.138653 -1.555625
-4.051092 -1.332834
-3.625870 -1.242677
-4.643666 -1.313630
-4.440143 -1.514260
-3.872828 -1.547434
-4.590946 -1.530098
-3.994751 -1.756105
-3.846911 -1.373470
-4.392340 -1.652565
-3.945489 -1.647758
-4.578748 -1.332632
-4.027849 -1.641813
-4.201346 -1.732928
-3.814834 -1.442852
-4.083745 -1.424602
-4.014540 -1.741867
-3.762678 -1.522154
-4.501168 -1.767538
-4.061385 -1.924432
-4.176874 -1.501720
-4.180965 -1.318319
-3.616785 -1.419475
-4.189348 -1.233605
-4.136100 -1.881922
-4.123787 -1.932800
-3.996789 -1.682831
-3.957716 -1.534618
-4.224799 -1.565580
-3.951573 -1.121905
-3.961582 -1.556815
-4.437881 -1.390615
-3.992643 -1.537025
-4.119625 -1.953789
-4.192425 -1.782795
-4.292718 -1.819552
-4.039938 -1.829767
-4.081347 -1.576045
-3.652541 -1.290079
-4.112650 -1.985208
-4.548725 -1.164690
-4.071285 -1.138612
-4.311385 -1.745512
-4.446612 -1.417608
-4.383062 -1.882875
-4.221969 -1.635916
-3.944074 -1.723045
-4.046306 -1.381540
-4.286563 -1.968007
-3.915678 -1.779581
-4.034567 -1.620616
-3.254640 -1.892197
-4.113039 -1.463800
-4.095521 -1.646527
-4.067595 -2.097878
-4.922698 -1.281547
-4.244681 -2.119909
-4.265868 -1.769980
-4.036416 -1.624156
-4.011811 -1.970026
-4.175704 -1.565101
-4.270055 -1.530117
-4.219823 -1.893771
-4.096744 -1.710127
-3.959581 -1.778521
-4.298508 -1.724954
-3.857662 -1.995779
-4.336931 -1.493999
-4.276806 -1.562810
-4.150477 -1.641195
-4.048378 -1.781597
-4.571817 -1.665981
-4.401992 -1.585011
-4.239124 -1.658707
-4.417098 -1.454808
-4.151276 -2.086393
-4.279610 -1.805564
-4.395962 -1.956772
-3.921313 -1.511554
-4.082865 -1.617798
-4.185793 -1.983331
-4.347251 -1.973136
-4.512412 -2.138566
-4.442214 -1.538589
-4.105311 -1.716018
-4.389766 -1.571510
-4.121580 -2.004787
-4.362221 -1.661749
-4.314505 -1.634526
-4.467054 -2.089345
-4.151635 -1.868111
-4.067497 -1.875831
-4.485994 -1.820691
-4.248019 -2.039695
-4.600473 -1.857285
-4.602753 -1.742700
-4.416279 -1.931810
-4.301685 -1.679867
-4.193917 -1.774719
-4.757403 -1.732342
-4.183504 -1.694684
-4.681853 -1.834431
-4.828618 -1.934109
-4.741130 -2.167050
-4.152133 -1.748591
-4.925849 -1.910858
-4.549015 -1.873820
-4.801345 -1.854717
-4.530171 -2.405579
-4.689339 -1.743868
-4.272699 -1.654156
-4.618967 -1.634392
-4.939543 -1.795234
-4.729297 -2.137196
-5.264605 -1.587815
-4.492754 -1.924402
-4.967335 -1.471841
-4.776739 -1.882981
-4.497251 -1.598523
-5.396553 -1.426721
-4.894830 -1.821994
-4.561982 -1.660180
-4.810488 -1.577020
-4.779843 -2.009808
-4.930238 -1.660173
-4.873362 -2.192534
-5.556908 -1.944540
-4.936833 -1.679513
-5.072071 -1.727039
-4.951802 -1.538035
-4.519135 -1.977007
-5.033448 -1.545706
-4.995937 -1.922497
-5.021161 -1.556623
-4.992969 -1.854913
-4.883454 -2.130461
-5.031797 -1.674803
-5.148661 -1.932053
-5.338572 -1.825109
-5.319810 -1.856846
-5.130467 -2.313418
-4.842802 -1.599000
-4.985723 -1.782600
-5.145249 -1.714350
-5.329383 -1.061306
-5.396939 -1.820993
-4.719489 -1.787369
-5.410773 -1.504196
-5.205837 -1.995830
-5.414932 -1.751466
-5.772814 -1.595019
-5.254961 -2.124922
-5.423662 -1.677175
-5.494152 -1.985119
-5.292336 -1.576509
-5.666003 -1.483308
-5.712525 -1.752646
-5.437602 -1.764456
-4.897880 -1.633137
-5.345115 -1.706086
-5.519933 -1.668829
-5.820183 -1.882688
-6.125675 -1.672606
-5.965722 -1.398854
-5.531427 -1.459587
-5.411799 -1.383729
-4.896617 -1.547869
-5.517299 -2.007668
-5.745829 -1.745789
-5.700912 -1.881444
-5.725860 -1.504023
-5.605606 -1.786471
-5.979975 -1.706253
-6.111470 -2.003761
-6.559427 -1.746437
-6.038380 -0.981455
-5.847800 -1.401181
-5.616228 -1.122057
-5.349726 -1.802975
-5.481899 -1.881417
-5.693933 -1.646220
-6.196170 -1.844579
-6.103800 -1.545121
-6.103732 -1.644920
-5.861558 -1.672173
-5.898129 -1.713078
-6.348222 -1.395088
-6.334290 -1.266278
-6.301330 -1.193225
-5.925219 -1.610195
-5.372229 -1.438598
-6.319614 -1.059549
-6.425228 -1.438765
-6.496267 -1.362291
-6.857327 -1.450792
-6.481888 -1.109986
-6.066184 -1.075809
-6.445598 -1.227210
-6.193273 -1.286400
-6.717146 -1.300817
-6.331013 -1.719147
-6.543659 -1.660253
-5.981446 -1.150912
-6.569330 -1.232700
-6.645021 -1.429504
-6.245430 -1.016566
-6.569107 -1.291109
-6.401378 -1.119084
-6.716164 -0.673894
-6.725354 -1.000289
-6.963252 -1.260171
-6.718669 -0.934800
-6.710222 -1.550820
-6.446964 -0.833778
-6.225750 -1.253519
-6.517351 -1.519768
-6.769482 -0.849002
-7.005777 -1.430414
-6.686168 -1.028754
-6.865265 -0.769174
-6.874273 -1.104597
-6.327813 -0.465184
-7.223317 -1.117731
-6.806138 -0.693079
-6.775524 -0.298679
-7.449355 -1.086405
-6.467107 -0.793614
-7.135944 -1.122676
-6.774344 -0.947895
-7.451655 -0.940045
-7.475310 -0.413396
-7.355430 -0.592950
-6.925024 -1.271838
-7.101307 -0.781216
-7.289953 -0.599936
-6.949937 -0.662281
-7.237259 -0.794789
-7.204731 -0.801187
-6.577742 -0.832879
-6.975722 -0.455792
-7.304169 -0.362061
-7.263640 -0.365864
-7.598506 -0.555952
-7.416870 -0.124427
-7.287566 -0.918527
-7.227203 -0.309333
-7.487589 -0.286081
-7.566001 -0.266729
-7.243992 -0.133581
-7.604737 -0.548537
-7.611011 -0.236815
-7.512167 -0.217170
-7.410286 -0.029734
-7.237307 0.089919
-7.854835 -0.333210
-7.537744 0.238073
-7.590617 0.166420
-7.569068 0.048757
-7.347622 -0.188641
-7.673715 -0.178755
-7.557257 -0.364412
-8.132374 0.174669
-8.051265 0.560252
-7.653464 -0.098100
-7.425686 0.037139
-8.181230 -0.028272
-7.649025 0.607151
-7.768248 0.393054
-7.596779 0.103336
-7.579947 0.539133
-7.534824 0.147950
-7.812950 0.399641
-7.890572 0.514179
-7.976259 0.450862
-7.951392 0.597987
-7.932753 0.494166
-8.150348 0.393744
-7.904338 0.353212
-7.696241 0.950831
-8.134226 0.913252
-7.783042 1.021131
-8.075892 0.456653
-8.120432 0.971598
-8.108990 0.768827
-7.862186 0.760570
-7.577929 1.136884
-8.238622 0.352411
-7.992188 0.731611
-8.483876 1.144792
-8.639354 0.690726
-8.058377 0.793952
-8.263542 0.756902
-8.593136 0.933658
-8.424531 1.018810
-8.382819 1.433309
-8.170145 0.909693
-8.358138 0.884488
-7.938499 1.611010
-8.037090 1.354579
-8.276502 1.272072
-8.171368 1.873874
-9.152003 1.183964
-8.402205 1.924688
-8.336531 1.160003
-8.421958 1.475896
-8.369859 1.609046
-8.137097 1.501280
-8.304301 1.199904
-8.813055 1.831743
-8.322638 1.910977
-8.309462 1.868591
-8.537600 2.329730
-8.600963 2.525609
-8.775495 1.739494
-8.680690 2.069440
-8.417206 1.771553
-8.927433 1.978056
-8.925852 2.094317
-8.401093 2.003729
-8.435938 1.855181
-8.702342 2.344026
-8.685902 2.108515
-8.236284 1.990837
-8.843076 2.334400
-8.830148 2.069431
-9.189117 2.355550
-8.544226 2.090263
-8.525797 2.113933
-8.689473 2.449845
-8.599690 2.795562
-8.990613 2.433092
-8.377977 2.942798
-8.784814 2.898553
-8.968540 2.146512
-7.812037 2.561877
-8.988103 2.778568
-8.424922 2.836672
-8.302771 2.890780
-8.876263 3.320222
-8.812283 2.977362
-8.709286 2.817798
-8.812125 3.094356
-8.675827 3.113440
-8.459134 3.262431
-8.763761 3.494646
-9.397791 3.369862
-8.534507 3.253198
-8.842056 3.792680
-8.663976 3.400861
-9.096214 3.773906
-8.957953 3.786489
-8.785805 4.174659
-8.719160 3.687060
-8.940797 3.364040
-8.694255 3.893737
-8.854188 3.863743
-8.869003 3.732451
-8.731931 3.438344
-8.335163 3.502280
-9.096703 3.535361
-9.263850 3.953294
-9.370394 4.098608
-8.645905 3.870450
-8.817784 4.022826
-8.818721 4.214831
-8.264458 4.219568
-8.677712 3.750208
-9.018330 4.358164
-8.887065 4.726910
-8.190677 4.125379
-8.791216 4.546293
-9.243997 5.091488
-8.811936 4.372810
-8.839791 4.702489
-9.059813 4.895445
-8.585469 4.457749
-8.769922 4.948350
-8.674833 4.800534
-8.621780 5.361679
-8.566070 5.419126
-8.495722 4.845922
-8.474210 5.059605
-8.643615 4.967034
-8.612958 5.448439
-8.708105 4.734097
-8.872546 5.643459
-8.897563 5.176595
-8.047646 5.097410
-8.735533 5.476934
-8.670993 5.283396
-8.434191 5.517841
-8.759246 5.678459
-9.011378 5.221546
-9.009197 5.813726
-8.517492 6.077683
-8.548752 5.669018
-8.463564 5.825793
-8.110231 5.493253
-8.506958 5.763116
-9.129933 5.830463
-8.911060 6.051434
-8.831213 6.401644
-8.953658 6.539735
-8.323659 6.167252
-8.157102 6.315511
-8.576763 6.126873
-8.422009 5.949537
-8.720480 6.792379
-7.786186 6.369530
-8.649189 6.563378
-9.093263 6.318059
-8.450081 6.294414
-8.135946 6.700595
-8.231887 6.270848
-8.306491 6.885785
-8.555539 6.798914
-7.991866 6.832778
-7.877074 6.672834
-8.365388 6.775337
-8.100086 6.812304
-8.243415 7.371589
-8.212808 7.265886
-8.100245 7.410662
-7.937053 7.263617
-7.884396 7.353569
-7.938983 7.345326
-8.008619 7.865753
-8.053183 7.874053
-7.862916 7.194373
-7.785677 7.820187
-8.261699 7.925134
-7.395002 8.059761
-8.016421 7.712451
-8.046877 7.856596
-7.561473 7.721774
-7.400039 8.106197
-7.532525 7.825316
-7.916426 8.339963
-7.725860 7.620762
-7.646002 7.429404
-7.553338 7.813064
-7.243717 8.331364
-7.268189 7.943059
-7.910805 7.996954
-6.883540 8.176948
-7.160585 8.091267
-7.789526 8.461052
-7.788425 8.133959
-7.136763 8.474400
-7.743001 8.285504
-7.313420 8.354999
-7.546771 8.317300
-7.107791 8.703962
-7.457860 8.756640
-7.343196 8.377652
-7.038860 9.004000
-7.160498 8.615893
-7.289735 9.090376
-7.741148 8.537137
-6.902276 9.151958
-7.672683 8.708006
-7.760658 9.092957
-6.639759 8.911953
-6.983363 8.973368
-6.835274 9.022411
-6.660006 9.005904
-7.015083 9.447452
-7.201966 9.126456
-7.453007 9.209529
-6.407376 9.786657
-6.273316 9.708258
-6.652931 9.463160
-6.339982 9.541535
-5.935786 9.994289
-6.604470 9.531213
-6.314571 10.173585
-5.778826 10.270189
-6.706563 10.314236
-6.896026 10.477306
-6.303603 10.129082
-6.259960 9.558316
-6.333644 10.481050
-6.729195 9.822080
-6.060090 9.899085
-6.532420 10.325227
-6.203780 10.428839
-5.865583 10.183207
-5.962304 10.093590
-5.866968 10.359510
-6.041423 10.297836
-5.726357 10.515189
-5.885631 10.175877
-5.574439 10.215074
-5.857556 10.656903
-5.800214 9.884302
-5.723033 10.292522
-5.547908 10.686024
-5.181814 11.064097
-5.283294 10.197902
-5.371966 11.094381
-5.254147 10.865738
-5.117917 10.719690
-5.106034 11.025958
-5.459950 10.839705
-5.193617 10.614805
-4.501697 10.853101
-5.314852 11.323114
-4.876465 11.365768
-5.311081 10.570019
-4.717733 11.214924
-5.049996 10.855130
-4.596345 11.742712
-4.603281 11.205347
-4.588467 11.641789
-5.232360 11.447139
-4.698974 11.507020
-4.846666 11.811704
-4.196123 11.614670
-4.092861 12.254558
-4.393097 11.436554
-4.294665 11.209217
-3.902469 11.488581
-4.251507 11.507390
-4.101609 11.588827
-3.834445 11.577636
-4.190663 12.327297
-4.163929 11.168084
-3.204012 12.015425
-3.368488 12.155045
-4.497765 11.690649
-3.988116 11.615010
-4.329590 12.339547
-3.913010 11.972610
-3.694635 12.297353
-3.623343 11.948535
-4.664149 11.326333
-4.082048 12.399198
-2.604208 12.253850
-2.191556 11.947836
-3.630064 12.068309
-2.591710 12.288270
-3.329202 12.289844
-3.131104 12.362972
-3.163095 12.378334
-3.237612 12.430033
-3.034085 12.358899
-3.037641 12.587583
-2.766638 12.908272
-3.183026 12.712158
-2.548511 12.529016
-2.843752 12.841318
-2.306857 12.409668
-2.838661 13.080380
-2.213490 12.432341
-1.929972 12.865226
-1.980632 12.177953
-1.937588 12.312973
-2.529773 12.591519
-2.683317 12.071124
-2.119862 12.165136
-1.810847 13.074536
-2.101137 12.903248
-2.186936 12.813348
-1.966764 12.884380
-1.708942 13.171701
-1.711783 12.609075
-1.493063 13.486331
-1.890143 12.889514
-1.339528 13.299174
-1.468989 12.744561
-1.099309 12.878371
-1.706077 12.732762
-0.680253 13.302833
-1.566845 13.485053
-1.286778 12.358593
-1.330847 12.717174
-1.013891 13.341415
-1.176634 13.461841
-1.118691 12.644761
-0.923112 13.333506
-1.121373 12.933175
-0.798817 13.151398
-1.127021 12.547491
-0.841506 13.867581
-0.483783 14.075642
-0.466248 13.528924
0.167158 13.171701
-0.499950 12.763144
0.162095 13.588138
0.641389 12.999732
0.435125 13.198041
0.159700 13.198947
0.084736 12.924437
0.081858 12.954592
0.109511 12.712475
0.395054 13.396360
0.478252 13.475195
-0.136504 13.190085
0.359964 13.718515
0.349935 13.287082
0.516584 13.145940
0.256506 13.412869
0.910358 13.248307
0.417392 13.021532
1.287731 13.794875
1.286188 13.321803
1.590857 13.025271
1.218472 12.992068
1.636488 13.701757
1.741697 12.965811
1.574013 13.469072
1.687336 13.776133
1.359289 12.911487
0.800576 13.946897
0.816087 12.976887
1.904902 13.354264
1.405765 13.690746
1.104624 13.922387
1.794227 13.164182
1.785263 13.258023
1.735267 13.239576
2.232780 13.211968
2.197939 13.257593
1.993443 13.499866
1.924881 13.338517
3.100276 12.579170
2.476620 13.250448
2.647151 13.894246
2.501803 13.670102
2.430092 13.105760
2.864380 13.786018
2.518522 12.997370
2.826548 13.272516
3.006039 13.375962
2.913259 13.592839
3.330915 13.632585
3.386977 12.696280
2.641108 13.929950
2.850992 13.322873
3.293379 13.590397
3.444915 13.099839
3.590993 13.248375
3.448787 13.018121
3.775021 13.343814
3.859658 13.720601
4.245585 12.672243
3.911696 13.488663
3.956477 13.467575
4.176777 13.817343
4.166260 13.251072
4.596779 13.665259
3.728575 13.040804
4.389582 13.101195
4.712083 13.595549
4.370852 13.008775
4.771103 12.825520
4.563623 13.361481
4.884131 12.805875
5.225371 12.701358
4.988811 12.819390
5.528811 12.479258
4.614860 13.183330
4.627829 12.706460
5.009793 12.820355
5.666358 12.678561
5.478178 13.103132
5.192624 12.995187
5.506634 13.159675
5.364989 12.573738
5.187190 12.947770
5.694762 13.152505
5.297645 12.392451
5.336865 12.725827
6.560375 11.545394
6.189846 12.927815
6.364356 13.176231
6.101898 12.606012
6.200439 12.274863
6.280819 12.901064
6.325156 12.329574
6.291524 12.734869
6.561352 12.484506
6.746007 12.286035
6.465344 12.267815
6.860225 11.856951
6.171223 13.165638
6.056493 12.018922
6.903022 12.778825
7.543718 12.895935
7.021393 12.586306
7.344160 12.554116
7.273985 12.294520
7.019094 12.004956
6.876152 12.574917
6.927051 11.808223
7.361772 11.950140
7.438043 12.694920
8.036896 11.450630
8.257393 12.052965
7.307011 11.711039
7.486761 11.368953
7.631383 12.045269
7.718055 11.614351
7.821020 11.893964
8.253029 11.615335
7.869459 11.965821
7.963027 11.380838
8.508498 11.688104
8.808577 11.954758
8.801790 11.031946
8.729403 11.897492
8.721371 11.514101
8.499387 11.012407
8.372641 11.352336
8.442259 12.025482
8.393036 11.705241
8.548648 11.510062
8.677620 11.947735
9.125740 10.728057
8.462116 10.287430
8.809149 11.199298
8.672206 11.443447
9.102830 11.027740
9.067167 10.758850
9.048831 11.138052
8.863737 11.302070
9.204478 10.402462
8.929480 10.749492
10.095723 10.988485
10.014449 10.380798
9.348463 10.163606
9.661112 10.698157
10.279244 10.985453
9.824643 9.932705
10.056752 10.483107
9.327323 10.266246
10.800836 10.311990
9.621100 10.787737
9.969269 10.550444
9.639584 9.764251
10.543399 10.240113
10.108385 10.284887
10.378849 10.530893
9.766790 9.475049
9.929738 10.020622
10.555243 9.554469
10.041452 9.215055
10.222843 9.349478
11.127906 10.000366
11.191175 9.067438
10.495226 9.445337
10.625178 9.237741
10.456136 9.706007
11.032333 9.650889
10.874770 8.660661
10.305590 8.532739
11.001594 9.254726
11.350873 9.211653
11.115486 9.267633
11.143142 9.044062
10.926365 9.220958
11.336603 9.064859
11.443576 8.760342
11.475671 8.816506
10.731524 8.754746
10.629710 9.492297
10.755751 8.662116
11.614660 8.878621
11.524781 9.037315
11.602305 8.724455
11.513150 8.599695
11.657493 9.110845
12.474862 8.343409
12.318818 8.992504
12.272109 8.036757
11.761860 8.134779
12.294763 7.612597
11.764605 8.691934
12.517906 8.297280
11.928540 7.753141
12.340519 7.747691
11.881852 7.742113
12.614409 7.709997
12.572575 7.349933
11.896074 7.664872
12.019999 7.531038
12.272074 7.420510
12.956024 7.621097
12.639191 7.318259
12.807664 7.167094
12.455247 6.551037
13.323560 7.242942
14.002373 7.088185
12.764807 6.027791
13.722026 8.019123
12.615136 6.795622
12.890872 6.538019
12.570830 6.905129
12.514237 6.344089
12.829212 6.352210
13.168965 6.867982
13.114972 5.959021
12.769927 6.506211
12.864301 6.280597
12.500397 6.682865
12.977796 6.418722
12.661202 5.998259
12.798293 6.262080
13.606284 6.105731
13.431055 6.111833
12.874779 5.614597
13.122406 5.524497
13.536711 5.959105
13.565428 5.417401
13.281782 5.115150
12.383196 4.936563
13.759265 5.292947
13.756216 5.119577
13.586804 5.155933
12.308558 4.662817
13.328908 5.274663
13.611905 5.206619
13.534566 4.808907
12.880623 4.455531
13.888242 4.948632
13.621736 5.146622
13.839461 4.568179
13.572985 4.265063
13.189848 4.567139
13.438649 5.110788
13.296332 3.910332
14.694416 4.697349
14.475526 4.360268
14.179039 3.829306
14.279870 4.587687
13.239873 4.095899
14.088819 4.069665
13.983206 3.876855
14.533785 4.419012
12.331046 3.420470
14.084687 3.908584
13.942141 3.745498
14.227145 3.400745
12.491132 2.642699
13.773720 3.232862
13.519250 4.418817
13.124715 2.810333
14.753320 3.131546
14.982950 3.151669
14.295237 2.519832
13.935961 2.831879
13.897758 2.589090
14.467883 2.690392
14.391787 1.839099
14.118123 2.460984
13.889715 2.356816
15.622505 2.182093
14.278807 1.829949
15.018827 2.582558
11.834173 0.994201
13.897769 1.911189
13.787190 2.808257
14.157625 1.923353
12.989155 1.543425
14.546737 1.388762
14.185519 1.912246
13.933862 1.411642
15.010324 1.823451
13.900748 1.973313
14.127107 1.199768
13.466872 0.764127
17.678939 2.309191
15.530531 1.591228
14.710951 0.574623
14.630423 1.014089
13.989045 0.716262
14.438895 0.765197
14.388645 1.574652
14.561928 1.415995
12.136425 0.107703
14.280470 0.440271
13.953351 1.311280
14.601281 0.928606
10.065565 -0.612105
13.126376 0.775904
13.682786 0.172471
12.959967 -0.723709
15.475298 0.332977
15.556331 0.130896
14.474288 -1.065303
13.451480 -1.110999
15.363621 -0.212427
15.840591 -0.955999
14.675169 -0.746870
14.242356 -0.638495
13.559889 -0.753538
15.546252 -1.339488
14.298008 -0.534898
15.256482 -0.411172
6.243546 -2.447363
12.915796 -0.768862
13.726308 -0.874684
13.531471 -2.089352
10.285224 -1.685675
14.060741 -1.058983
14.039371 -1.676399
13.210816 -2.488335
14.251628 -1.383184
14.178801 -1.711953
14.513515 -1.419833
12.277965 -2.986325
21.778920 -0.491155
16.014234 -2.535884
14.089224 -1.705279
14.339307 -2.364583
11.900277 -2.513770
13.585159 -2.104520
13.158660 -1.450524
14.001295 -2.752770
7.079175 -3.374274
12.816530 -1.797655
12.891157 -2.117273
15.129953 -1.873818
-0.560674 -4.675400
10.457408 -1.090903
12.867072 -2.279502
12.197880 -3.750885
19.023021 -2.486838
14.209112 -2.189777
12.945888 -3.864974
13.683553 -3.423107
16.008483 -3.458767
13.875549 -2.618646
13.197140 -3.676826
13.280091 -2.716751
14.220828 -3.720141
15.740956 -4.288575
14.115894 -2.809389
16.932725 0.003351
-27.507785 -7.146589
10.037977 -2.602323
13.969525 -1.383249
12.968474 -2.524409
-8.402175 -5.404472
12.515362 -2.251562
13.303708 -3.834256
12.054815 -4.730887
-6.262843 -5.891423
11.336535 -2.226636
13.804670 -7.518887
5.556940 -8.316960
67.546859 -1.913343
21.432840 -9.564800
15.404028 -9.345217
13.290056 -4.356474
-48.457165 -7.576278
16.222099 -10.901423
14.599535 -6.971698
14.976919 -4.613202
-108.037076 -8.682286
16.552117 -11.410299
11.018475 -5.597784
25.097956 -2.900520
-552.787520 -17.241290
-9.865748 2.399113
8.286740 -5.435839
3.108490 -10.261095
781.914471 0.632567
5.132512 -3.380574
9.231135 -6.682334
