10933.659671 9982.917148
53.958202 27.712068
-20.378425 11.227416
203.453680 508.824774
-37.450102 34.922669
-8.809024 -3.518000
3.976511 -4.122325
-0.333375 -56.057640
3.432108 -8.678902
2.261979 0.005120
-4.752446 1.730379
5.869102 17.895587
-3.163938 3.917075
-1.085590 -0.756702
2.512256 2.257683
5.732210 -10.649085
2.248955 0.588784
-0.363718 0.947315
0.388476 -1.409774
-5.732893 0.482033
0.131307 -0.988435
0.730778 0.132485
-0.243559 0.227671
1.713638 1.621466
-0.569724 -0.211010
0.152603 -0.288648
0.363411 0.034407
0.057402 -0.895729
-0.409162 0.400948
-0.426233 0.036270
0.540199 -0.178136
-0.013829 -0.019960
0.402386 0.293418
-0.029411 0.526483
-0.009436 -0.641136
-0.525037 0.155988
-0.016251 -0.887620
0.472164 0.115039
-0.635306 0.351775
0.299591 0.458853
-0.711870 0.024691
-0.258918 -0.035575
1.003898 0.280677
0.044756 -0.030073
0.200778 -0.138480
0.453087 0.649059
-0.039097 -0.669815
-0.090162 -0.031058
-0.174788 -0.211982
0.398362 -0.041005
-0.145231 0.301970
-0.141022 0.177467
-0.038626 -0.072901
0.369976 -0.355872
0.237401 -0.059431
0.112915 0.213631
-0.169775 0.187057
-0.004115 -0.115942
0.172088 0.238791
-0.091937 -0.054168
0.204370 0.186395
0.247404 0.292716
-0.022087 -0.293214
-0.007832 -0.370097
-0.090432 0.239027
0.292927 -0.211205
-0.235766 0.644004
0.076894 0.182561
0.049616 0.140677
0.000296 -0.028021
0.342189 0.186811
0.111257 -0.070240
0.351133 0.010005
-0.043354 -0.038491
-0.256454 -0.412463
0.067006 0.256701
0.339403 0.018293
0.146221 0.115275
-0.312721 0.167278
-0.256071 -0.144835
0.194341 -0.112339
0.147350 -0.315249
0.161609 0.073007
-0.189774 0.146536
-0.159730 -0.167094
-0.400396 -0.006625
-0.130017 -0.288878
0.196676 0.010944
-0.051815 0.303217
-0.228382 0.444565
-0.061530 0.123399
0.166161 -0.339116
-0.041325 -0.038392
0.076316 0.203746
0.243180 0.423216
0.207836 0.064462
-0.214204 -0.029014
-0.009958 -0.344863
0.275919 -0.391144
-0.010516 0.299321
-0.186730 0.174288
0.097029 -0.109680
-0.272662 -0.179631
0.196899 0.248103
0.019779 0.150464
-0.149754 0.078170
0.162165 0.440590
-0.237868 0.293857
0.296043 -0.175724
-0.051503 0.030936
0.261228 0.304193
0.001619 -0.136272
-0.166300 0.044722
-0.337229 -0.005933
0.084581 -0.159486
-0.239146 0.149965
0.204536 0.164810
0.465143 0.275500
-0.378609 -0.060566
-0.126049 -0.176271
0.035390 -0.012906
0.199975 -0.133106
-0.140878 0.412726
-0.053810 -0.015412
-0.306354 0.013491
-0.366105 0.030429
0.212692 -0.316936
0.116099 0.296600
-0.478691 0.207736
-0.274793 0.126239
-0.014219 -0.256263
0.013820 0.090662
0.222766 -0.068570
0.178496 -0.430697
-0.002221 0.487178
0.171727 0.077326
0.081582 -0.156950
0.051712 0.049128
0.069836 0.030578
0.088031 -0.015580
0.017998 -0.274596
0.043384 0.349020
-0.012257 -0.327953
-0.499671 -0.012668
-0.002853 -0.054348
0.007595 0.012098
-0.031034 -0.009839
0.161877 -0.082201
0.070016 0.109169
0.519349 -0.124176
0.287385 -0.012768
0.053089 -0.153739
-0.174490 -0.327307
-0.009475 -0.262441
0.166920 0.064840
0.208619 -0.044038
-0.092841 0.031714
-0.323868 -0.097763
-0.327903 -0.018067
0.102362 0.137447
0.214598 0.319636
0.054430 -0.010092
-0.089312 0.047586
-0.181851 -0.129928
-0.161987 -0.014339
-0.145659 -0.112539
-0.265544 -0.076659
-0.255089 0.130580
-0.106399 -0.109703
-0.005320 -0.013470
-0.063921 0.177637
-0.101524 -0.114743
0.148337 0.051322
0.115549 0.169326
-0.014237 0.095047
-0.049869 0.066252
-0.234548 -0.080098
-0.016823 0.000855
-0.054783 -0.130003
-0.248562 -0.130967
-0.069292 -0.033838
-0.043644 -0.304758
0.078729 -0.003681
-0.272602 -0.051189
0.021139 0.131564
-0.000246 -0.270822
0.023466 0.003677
-0.031350 0.162672
0.075739 0.050863
-0.198609 0.189059
-0.051868 -0.175500
-0.012334 0.070033
0.035714 -0.021034
-0.179033 0.293951
-0.233494 0.033943
0.195753 -0.136362
0.248747 -0.297569
-0.050269 0.260694
0.088660 -0.085676
0.064862 0.161957
-0.079552 -0.040559
0.046727 -0.071304
-0.100937 0.251717
0.105456 0.072819
0.008089 0.244460
0.154227 -0.184499
-0.059860 0.017635
0.129457 0.051189
-0.025442 0.055292
0.018952 0.080167
0.090748 0.079512
0.011638 0.013187
-0.100454 -0.125072
-0.387022 -0.151042
0.146203 -0.047667
-0.134668 0.030642
0.051997 -0.070767
0.179786 0.102855
-0.127426 -0.436081
-0.003006 -0.051878
-0.066782 -0.074301
-0.124081 -0.029944
-0.075332 0.147693
-0.023557 0.061244
-0.243463 0.259351
0.121690 -0.152190
0.077048 -0.003075
-0.093819 0.079187
-0.372019 0.062751
-0.064855 0.131143
-0.192242 0.457950
0.065694 0.082117
-0.154449 0.183085
-0.278054 0.066213
-0.256776 0.317465
-0.037134 0.120972
0.002736 0.107606
0.170393 0.172344
-0.147420 -0.201473
-0.153638 0.054989
0.117282 -0.157167
-0.438473 -0.286123
0.121079 0.113974
0.089643 0.122352
0.173456 -0.148242
-0.136136 0.258727
0.107556 0.308163
-0.153405 0.417216
0.203547 0.548274
0.053233 0.307149
-0.073609 0.217464
0.154908 0.107328
-0.292447 -0.264845
-0.077150 -0.104027
0.187632 0.113475
0.152530 -0.125884
-0.090362 -0.083189
-0.013719 -0.204711
0.058829 -0.003483
-0.281005 -0.189208
0.040201 0.149318
0.207302 0.042323
0.164940 -0.314247
-0.142930 0.033989
0.113720 0.034757
0.065256 -0.146855
0.086089 -0.222138
0.389744 0.452703
-0.249142 0.274896
0.220111 -0.065283
-0.178938 0.107043
-0.003984 -0.107876
0.026858 -0.262413
0.040701 -0.195406
-0.199285 -0.012693
-0.373642 -0.010485
0.156110 -0.275375
-0.228243 -0.042979
0.086704 0.037862
0.002666 -0.066301
0.109021 -0.017315
0.421104 0.008642
0.116782 -0.074386
-0.095072 0.051038
-0.013796 0.026069
0.173962 0.012613
0.111577 -0.040636
0.039307 0.206899
0.040924 0.155537
0.075982 0.099976
0.069550 0.009849
-0.000705 -0.115348
0.336184 -0.157414
0.145245 0.028581
0.090369 -0.112462
-0.046843 0.042403
-0.358547 0.046348
0.382296 0.048825
-0.073175 0.201129
-0.099644 -0.108805
0.197981 0.151199
-0.296192 -0.286075
0.066998 -0.105791
0.128571 -0.173989
0.131006 -0.059196
-0.024429 -0.034438
-0.023183 0.026367
-0.043177 0.195236
-0.030246 0.155441
-0.104753 -0.030476
0.125169 0.100804
0.330459 -0.067351
-0.099584 -0.140090
0.140254 0.303508
-0.341067 -0.226549
-0.108332 -0.038792
-0.178558 -0.097509
0.256849 -0.112318
0.091638 0.085227
-0.322491 0.083886
0.132112 0.110659
-0.041801 -0.250914
-0.116586 -0.048267
-0.413592 0.190725
0.067839 -0.232865
0.058109 -0.180649
0.149510 -0.318477
0.019075 0.049896
-0.316547 0.178327
-0.119654 0.070444
-0.391932 0.117518
0.062340 0.038731
0.125471 -0.042348
0.007939 -0.080842
-0.394864 0.328788
-0.243196 -0.046533
0.310730 0.224570
0.299068 0.152192
0.323810 0.100874
0.172045 0.084203
-0.007459 -0.001869
0.010427 -0.031036
0.401482 -0.221702
-0.053884 -0.349996
0.102858 -0.029498
0.115121 -0.069166
-0.088276 -0.275861
-0.273667 -0.256108
-0.306669 -0.369728
-0.607244 -0.009039
0.344538 0.053162
-0.030358 0.139066
-0.514889 0.206376
-0.164882 0.095721
-0.214803 0.011726
0.285822 -0.213983
0.024756 -0.211040
0.125211 0.035106
-0.193857 0.073080
0.090440 -0.164528
-0.058897 -0.170827
0.048750 0.000583
-0.048276 0.056826
-0.504554 -0.213782
-0.019729 -0.114480
0.259880 0.092873
0.152558 0.175798
0.046881 0.326279
-0.098319 -0.120533
-0.467475 -0.002355
0.058646 -0.067458
-0.000975 -0.206857
-0.305876 -0.242534
-0.194649 0.052443
0.011571 -0.074802
0.003682 0.088637
-0.376381 -0.259852
0.040734 0.315730
-0.185304 0.220424
-0.050549 0.262196
-0.010125 0.357309
-0.223047 0.070763
0.179078 0.399317
0.144796 -0.036883
-0.071356 0.144983
-0.041873 0.174838
0.329488 0.004911
-0.241770 -0.311097
-0.067774 -0.370354
0.139601 0.220650
-0.123709 0.454423
0.346495 -0.294531
-0.026579 -0.283011
-0.047569 0.068245
0.057604 0.011985
0.182614 0.003729
-0.057222 0.334757
0.076284 -0.250041
0.122025 0.167001
0.221445 -0.609577
-0.010650 -0.569657
-0.103642 0.352856
0.361547 0.092791
0.069687 -0.081758
-0.048439 -0.267226
0.093542 -0.023515
0.211427 0.344533
0.149564 0.193929
0.123646 0.071059
0.213856 0.231760
-0.343957 0.167377
0.030573 0.156665
-0.064661 -0.033400
-0.301013 0.082814
-0.124858 0.248472
0.011662 -0.071130
-0.437731 -0.273944
-0.597608 0.171983
0.272085 -0.113666
-0.376957 0.067304
0.286175 0.245300
-0.145359 -0.155222
0.309673 0.143700
0.175836 -0.266585
-0.169429 -0.397347
-0.159805 0.523810
-0.655939 -0.034348
0.054134 -0.159077
0.345994 -0.581360
0.088035 -0.545514
0.241871 0.216372
0.110109 -0.014069
0.050448 0.142853
0.028605 0.178168
-0.115298 -0.003547
0.038602 0.045270
0.240692 -0.093744
-0.087451 -0.260711
-0.465100 0.004185
-0.109697 -0.311479
-0.150221 -0.089085
0.250544 0.007027
-0.022904 0.196162
0.070003 0.228476
0.393741 0.082542
-0.054429 0.127100
-0.367059 -0.033990
-0.194423 0.268263
-0.219567 0.338932
0.357926 -0.156448
-0.140596 -0.570208
-0.174551 0.260508
-0.209087 -0.031808
-0.151019 0.061413
0.289331 -0.077045
0.097857 -0.204165
0.183322 0.169466
0.331199 0.244582
0.110475 0.365918
0.014206 0.193064
0.238431 -0.186731
-0.160770 0.099494
-0.071347 0.193555
0.107929 -0.476716
-0.089777 0.087741
-0.180427 0.528141
0.160307 -0.373430
0.005020 -0.418716
-0.202998 0.119515
0.096550 0.093759
-0.210718 0.030862
-0.203138 -0.301549
0.410937 0.033442
-0.244924 -0.368199
-0.262245 0.036679
0.035385 0.244677
-0.044792 -0.373852
-0.209900 -0.284360
-0.103330 0.073484
0.020562 -0.019325
-0.398188 0.456787
0.038079 0.003038
-0.075748 -0.121030
-0.280769 -0.050950
-0.103988 -0.673804
-0.174124 -0.056501
0.176734 0.147222
0.305415 -0.083245
-0.071143 0.033642
-0.175603 0.025235
-0.183636 0.023533
-0.249319 0.195124
-0.158000 0.168206
-0.159175 -0.119572
-0.040034 -0.159773
0.115122 0.153807
0.210849 0.046051
0.023748 0.415121
-0.174719 0.272392
0.426766 -0.103521
0.165276 -0.345097
-0.163037 -0.204020
-0.336066 -0.141705
-0.137038 -0.479495
-0.003926 -0.247550
-0.182407 0.350806
-0.045230 0.351890
0.036740 -0.131359
-0.052374 -0.216026
-0.026754 0.218465
0.455175 0.293443
0.702377 0.207367
0.436724 0.033972
-0.043486 -0.402072
0.510614 0.015880
-0.057286 -0.258156
0.204146 -0.443272
-0.212965 0.403977
-0.190180 0.162519
-0.094348 0.339640
-0.080531 0.390445
-0.166791 -0.460197
-0.369099 0.084094
0.095159 0.069797
-0.194846 -0.035190
-0.079114 0.148669
-0.149608 0.092703
0.084006 -0.036809
0.173131 0.081842
0.035866 0.056771
0.107234 -0.191606
0.464389 -0.248606
-0.265418 -0.149583
-0.376951 0.543186
0.441735 0.288281
0.418094 0.363159
-0.247714 0.016470
-0.155103 0.272155
-0.577189 0.625155
-0.200202 0.020361
0.261268 -0.361126
0.272216 0.063648
-0.141161 0.065986
0.245760 -0.125522
0.547547 0.146019
-0.146515 -0.087026
0.251111 0.088732
0.146487 0.261323
0.176820 0.123731
-0.115719 -0.337816
-0.162297 -0.103217
0.142045 -0.232809
0.093919 -0.679982
0.265339 0.008743
-0.441827 -0.376596
0.148023 0.101181
-0.318353 -0.404539
-0.381454 -0.192555
0.570081 -0.480986
-0.358153 -0.535642
0.559406 -0.118270
0.017924 -0.182403
0.005334 0.290850
0.205266 -0.630470
-0.734677 0.769862
0.041188 0.511958
0.202730 0.088709
0.171504 -0.340712
-0.322462 0.384409
-0.137761 0.189967
-0.363363 -0.222816
-0.446962 -0.379560
-0.013850 0.214689
0.163215 0.047190
0.098530 -0.154146
0.519089 -0.143005
0.001514 0.481325
-0.780704 0.544687
0.177901 -0.177808
-0.237166 -0.107237
-0.203283 -0.004061
0.111733 0.050287
0.303512 -0.364320
-0.019957 0.269012
-0.638735 -0.459323
-0.192118 -0.134809
0.303756 0.239304
-0.216109 -0.201373
0.154940 -0.814966
0.039168 -0.067632
0.134574 -0.655794
0.399544 0.174251
0.086154 -0.602823
-0.352679 -0.353200
-0.114342 0.392509
0.236720 -0.633143
0.301905 0.070036
-0.416723 0.113051
0.376488 -0.358364
0.166830 -0.426416
-0.327489 0.251462
0.191136 -0.023352
0.413316 0.054914
0.233647 -0.196489
0.018012 -0.422356
0.021200 -0.032666
-0.035227 -0.365502
0.426417 -0.209719
-0.177511 0.462610
-0.133013 0.298092
-0.178055 0.007060
0.471904 -0.000068
0.027225 -0.462392
0.109765 -0.283014
-0.005776 -0.310177
-0.373989 0.068924
-0.256566 0.310228
-0.093294 -0.075749
-0.640966 -0.140073
-0.247109 0.046812
-0.358152 0.128185
-0.190809 -0.033085
0.361910 -0.327331
0.304629 0.262287
-0.233177 -0.067618
0.061919 -0.730340
-0.241885 -0.082492
-0.057971 0.434071
-0.260319 -0.015064
0.163573 -0.433507
-0.128856 0.606311
0.108692 0.154151
0.299588 0.324977
-0.030111 0.313145
0.330675 -0.817508
-0.426468 -0.351375
-0.015913 0.381968
-0.264851 0.089676
0.325960 0.835763
-0.774364 0.456446
-0.688934 0.430901
-0.380888 -0.107515
-0.044039 -0.033849
-0.295674 -0.278978
0.200269 0.125388
-0.136557 -0.549917
0.220751 -0.011038
-0.470573 -0.261477
-0.366378 -0.266645
-0.386130 0.192258
-0.974026 0.218834
0.411975 0.340826
-0.290213 -0.678519
0.026604 0.126714
0.035561 0.033678
-0.671560 0.111161
-0.234708 -0.281370
0.117594 0.204993
-0.021676 -0.065241
0.582614 0.081469
-0.173871 -0.077346
-0.361619 0.106076
0.200726 -0.474101
-0.326914 0.140141
0.265973 -0.250691
0.055711 -0.375062
0.398519 -0.208334
-0.207097 0.041391
-0.151886 0.433451
0.133227 -0.070197
-0.328272 -0.044929
-0.493160 -0.410133
0.035130 -0.794059
-0.169844 -0.071665
-0.446440 -0.143725
0.123867 -0.303832
-0.102813 0.101738
0.180877 -0.510355
-0.364919 0.032674
0.268900 0.994315
0.280048 0.205683
-0.021840 -0.360576
-0.110790 -0.074667
-0.146730 0.662772
-0.130055 -0.462688
0.204706 -0.038526
-0.135081 0.004684
-0.165079 -0.345169
-0.084680 0.456681
0.518995 -0.512382
-0.378435 0.897567
0.237586 0.067039
-0.177950 -0.478183
0.097680 0.375506
-0.546622 0.011198
-0.166549 0.007066
-0.122411 0.215131
0.283592 -0.081035
-0.059557 -0.044794
-0.837671 -0.531555
0.801531 -0.123983
-0.741984 -0.001794
0.319672 0.312063
0.056640 -0.437578
-0.004336 0.275793
0.417562 0.202878
-0.361972 -0.254537
-0.217094 -0.036187
0.250165 0.357124
-0.217417 -0.180620
-0.048170 -0.890507
-0.291639 0.147991
0.118913 0.236270
0.077087 0.147936
0.539241 -0.397053
-0.295005 0.024843
-0.166084 0.493345
0.342399 0.098749
-0.334626 0.440955
-0.489983 0.069744
0.109380 -0.021782
-0.653304 0.367335
-0.531094 0.180158
-0.037223 0.022239
0.144873 0.119853
0.531758 -0.151043
-0.083929 0.115686
0.440785 0.566165
-0.343387 0.362878
-0.078415 0.114495
0.095844 -0.587818
0.164860 0.231237
0.027919 -0.273385
-0.282422 0.145731
-0.030313 0.455912
-0.088099 -0.258192
0.092748 -0.270296
-0.214708 0.568294
-0.232702 -0.742729
-0.562708 0.345629
-0.336412 -0.029266
-0.314098 0.596039
0.136274 0.382227
-0.242113 -0.537930
-0.054141 0.064824
-0.112401 -0.218513
-0.330848 -0.075005
0.047460 0.201135
-0.437655 0.477980
-0.269454 0.097260
-0.928140 0.192262
-0.160048 -0.335235
-0.209932 -0.042568
-0.253741 -0.729811
-0.144747 -0.129428
1.071850 -0.178376
-0.315778 -0.274475
-0.043378 -0.377339
-0.491870 -0.081331
-0.678712 0.167522
0.230434 0.088308
0.208039 0.110423
0.073381 0.049093
0.282985 -0.067832
0.169244 0.547659
-0.205661 -0.191770
0.341985 -0.643840
-0.044421 -0.272048
-0.298704 0.510922
-0.497892 0.026928
-0.092090 -0.125585
-0.289496 0.801548
0.044046 0.069388
-0.312347 -0.061752
-0.402143 0.086859
-0.054253 -0.132250
0.063427 -0.045662
0.234212 -0.187448
0.073053 -0.174586
-0.392446 0.216821
-0.319056 0.201508
-0.627061 0.169278
0.553480 0.176078
0.060264 0.279421
0.262839 -0.116306
0.427308 -0.022586
0.284001 0.148461
0.091578 0.104916
0.041085 -0.227756
-0.403876 0.088592
0.154870 0.358374
0.634667 0.049953
-0.262142 0.209463
-0.064370 -0.330473
0.331011 0.556708
-0.255655 0.165005
-0.154401 0.030225
0.335580 0.454485
0.097624 0.201034
0.494926 -0.003402
-0.434697 0.115153
0.146041 0.543887
0.432178 0.108438
-0.294433 0.193419
0.114515 0.387161
-0.317800 0.915975
-0.459721 -0.264816
0.660832 0.194715
0.009216 -0.309763
-0.417451 0.052024
0.034015 0.207836
0.176453 0.150761
-0.550747 0.060959
-0.213188 -0.173191
0.102384 -0.251053
0.046424 0.165048
-0.122006 -0.643280
0.241323 -0.388561
0.067229 0.657657
-0.008350 0.372750
-0.087691 0.105631
-0.289527 -0.387939
-0.169822 0.074165
-0.197391 -0.211112
-0.057406 -0.418825
-0.646606 -0.308457
0.172127 0.553320
0.030674 0.097017
0.157575 -0.274515
0.078387 -0.863297
0.027205 0.779058
0.570229 -0.261074
-0.287245 0.378626
-0.038415 0.762924
-0.284617 0.015361
-0.137029 0.729032
-0.101080 -0.076252
0.127614 0.350083
0.321873 0.136807
-0.295738 0.193725
0.208851 0.287918
-0.172364 0.345888
-0.020580 -0.012230
0.050792 -0.061245
-0.231935 0.206965
0.501187 -0.114257
0.357157 -0.128211
0.175004 -0.037000
0.076294 -0.047685
0.643542 -0.010358
-0.013223 0.169338
-0.514588 -0.260444
0.134814 -0.075316
-0.307990 0.206376
-0.061954 -0.357013
-0.084877 -0.749196
-0.343035 -0.454159
-0.154086 0.200357
0.626049 0.033730
0.395678 0.221123
-0.139120 -0.449216
-0.045876 -0.098684
0.281187 0.225015
0.003473 -0.024477
-0.138342 0.098646
0.092298 -0.002165
0.099384 -0.205250
-0.334005 -0.153922
0.211479 0.028054
-0.452329 -0.184810
-0.252321 -0.068279
-0.409424 0.003604
-0.700173 0.088870
0.407533 0.087735
0.286864 0.045747
0.336769 -0.162110
0.347602 0.070332
0.129551 0.075437
0.050033 -0.334871
0.447856 -0.191841
-0.265038 -0.076776
0.297581 0.209893
0.417151 0.311373
0.179437 -0.238165
-0.190752 -0.128068
-0.125776 0.179932
0.154253 0.258623
-0.017772 -0.161434
0.128525 -0.116576
0.162945 0.362711
-0.087425 0.081583
-0.557687 -0.109508
-0.388609 -0.206256
0.169918 0.074567
0.277248 0.243485
0.066981 0.019822
0.139299 -0.045122
-0.009772 -0.056326
0.140356 -0.183383
-0.118005 0.107268
-0.279008 0.023603
-0.124871 -0.102478
-0.111696 -0.458078
-0.071728 -0.227700
-0.078148 0.053053
0.172661 0.181575
-0.117550 0.546460
0.132365 0.112254
-0.153927 -0.128360
-0.806412 0.299330
0.154083 -0.119151
-0.124562 -0.016009
-0.101390 0.295992
0.292791 -0.022885
-0.177658 -0.278690
-0.150708 -0.060675
-0.092714 0.378832
-0.047809 -0.095523
-0.045608 0.170425
-0.329005 -0.041677
-0.171086 -0.050853
0.110425 0.216977
-0.096859 0.369054
0.058943 0.123763
-0.168867 -0.108651
-0.084124 -0.212076
0.149027 0.400661
-0.035761 0.290264
0.132960 -0.369087
0.078831 -0.055947
-0.159768 0.227904
0.132091 -0.437804
-0.176458 -0.435716
0.073530 0.138408
0.332556 -0.047586
0.103504 -0.301926
0.131006 0.237219
0.243339 -0.028267
-0.201478 -0.016603
0.139958 0.579884
0.256688 -0.236806
-0.406156 -0.266947
-0.139694 -0.280660
-0.214017 0.339452
-0.006949 0.186935
0.026491 -0.298264
-0.168756 -0.308801
-0.288880 -0.367664
0.161801 -0.189180
0.285595 0.326785
0.183299 0.149696
-0.283309 0.186546
0.146474 0.195728
0.084099 -0.284801
-0.196493 0.021700
-0.131751 -0.086534
-0.237664 0.056262
-0.164725 0.174918
0.055219 0.056906
-0.100970 -0.318228
0.408639 0.113366
0.513809 0.204437
0.205211 0.149781
-0.102067 0.301724
-0.462828 0.122439
0.114977 0.540234
0.142075 0.004439
-0.256942 -0.399630
0.265892 -0.266866
-0.270246 -0.140300
-0.291692 0.332481
0.371416 0.116045
-0.622723 -0.009056
0.220894 0.406327
-0.036855 -0.083792
0.031992 -0.005902
-0.456716 -0.099474
-0.257385 -0.188125
0.001435 -0.034131
-0.140098 -0.227688
-0.063124 -0.157069
-0.222624 -0.031104
0.049709 -0.284636
-0.259056 -0.402102
0.361881 -0.123117
0.161198 0.363719
0.050901 0.052457
0.367655 -0.084536
-0.246371 -0.175027
0.244467 0.244051
0.352901 0.322843
0.337323 -0.084628
0.153076 -0.062859
-0.476811 0.081233
0.001289 0.313291
0.122020 -0.284245
-0.069971 0.186800
0.185135 0.080280
0.342776 0.048051
-0.331309 -0.034983
0.084930 -0.246957
0.004460 0.312410
0.072965 0.559428
0.426959 -0.290842
0.016497 -0.161991
-0.149895 0.097019
0.000964 -0.057864
0.120411 -0.261623
-0.050773 -0.068183
-0.107157 -0.308216
-0.107034 -0.070770
0.023728 -0.260327
-0.199315 -0.327461
-0.028492 0.025213
0.002867 -0.100685
-0.131111 -0.141894
-0.025790 -0.094557
-0.431924 0.186759
0.225137 0.035317
0.049751 0.203523
-0.282220 0.042495
-0.262504 0.197446
-0.245085 -0.220643
0.153794 -0.130424
-0.247618 -0.280562
-0.040280 0.164759
-0.104047 0.170369
0.041189 -0.170889
0.203198 0.239291
0.056069 0.173572
-0.292181 0.068948
-0.215139 0.036551
0.242236 -0.157674
0.003624 0.006820
0.314786 0.213129
-0.039663 0.000155
-0.136503 -0.143409
-0.463995 0.228312
0.020021 0.015115
-0.096227 -0.343860
-0.404564 0.147312
-0.120682 -0.016251
-0.096386 0.115406
0.113931 0.482097
-0.262564 -0.156814
-0.373970 0.093901
-0.132313 0.271771
0.312873 0.137754
0.093359 0.230173
0.154782 0.258393
-0.067194 0.083147
0.341428 -0.042105
0.145330 -0.199948
0.192699 -0.278838
0.083434 0.128470
-0.120167 -0.093261
0.217368 0.030369
0.257709 -0.141697
-0.135358 -0.137021
-0.362811 -0.241124
-0.121843 0.008993
-0.238108 0.101935
0.069846 -0.005351
-0.083843 -0.066385
-0.004722 -0.030936
0.051921 -0.129584
-0.189634 -0.083696
-0.086012 0.393067
-0.028230 0.332609
-0.118629 0.102605
-0.436573 -0.219987
0.027652 -0.103583
0.143858 0.130010
0.187671 0.117887
-0.215372 0.079751
0.036136 0.147271
0.146446 -0.034932
-0.176737 -0.094998
0.177158 -0.079365
-0.349519 -0.147430
0.203058 -0.214915
-0.294478 0.154513
0.050656 0.095215
0.098959 0.202040
-0.314243 -0.075610
0.354049 -0.014899
0.190741 -0.145252
0.210008 -0.101864
-0.040655 0.463257
0.036594 -0.282301
-0.080854 0.199134
-0.207938 -0.054653
0.028926 -0.137779
-0.136154 0.187234
-0.102512 0.053992
0.090818 -0.037927
0.267356 0.053297
0.093965 -0.172028
0.074373 0.007967
0.043514 0.106021
0.075850 -0.048889
0.095796 0.158685
-0.114671 -0.035725
0.154352 -0.021697
0.192824 -0.049331
0.120707 -0.168641
0.125585 -0.081136
0.083848 0.025403
0.260297 -0.156259
-0.082693 -0.037334
-0.102251 -0.191790
0.059293 0.065486
0.105948 0.239218
0.228822 0.222094
-0.313224 0.297544
0.060776 0.022052
-0.062461 -0.058462
0.131271 0.207131
0.024604 -0.006812
-0.299996 -0.143747
-0.011560 0.197411
-0.281211 0.133249
-0.016958 -0.326111
-0.054386 0.060582
0.341136 0.198983
0.130738 -0.297652
0.280146 -0.080030
0.162325 0.339049
0.020016 -0.155705
-0.070706 -0.119789
-0.218594 0.007504
0.125980 0.205130
0.076189 0.243265
-0.002325 0.067666
-0.181062 0.121800
0.132075 -0.175073
0.078504 0.207826
-0.011553 0.201720
0.211310 0.129955
0.028233 -0.068189
-0.082547 -0.286504
-0.399893 -0.296087
0.058133 -0.253830
0.003333 -0.333105
-0.160622 -0.209684
0.454161 -0.059609
-0.045829 -0.501661
0.135030 -0.203654
-0.027129 0.147183
0.140416 0.088440
-0.134238 0.118379
0.104941 0.048536
-0.363644 -0.231477
-0.010135 0.039561
0.009267 -0.094078
-0.413387 -0.045084
-0.000365 0.161192
-0.065097 -0.130456
0.004562 -0.226151
-0.170036 -0.285645
-0.143333 -0.204923
-0.200045 -0.114504
-0.083584 0.020283
0.127397 -0.457047
0.062204 -0.069620
-0.424971 -0.204696
0.004867 -0.067747
-0.309106 -0.004483
-0.057829 0.213326
-0.076898 -0.111218
0.009044 -0.088538
0.140815 0.287032
-0.015706 -0.133910
-0.097398 0.091207
-0.165177 0.088416
-0.084547 0.129686
0.082227 0.200127
0.095433 0.214978
0.001650 -0.009917
0.128191 0.018968
-0.354364 -0.231029
-0.055579 -0.114295
0.080839 -0.090467
0.053266 -0.061021
0.044992 0.191054
-0.185507 -0.138084
0.079808 -0.055138
-0.167281 -0.080083
0.234899 0.261479
0.104467 0.043116
0.066257 -0.044364
0.141143 -0.212250
0.045453 -0.242381
0.155211 -0.059267
0.258811 -0.119506
-0.225980 0.116189
-0.245410 -0.350363
-0.061200 0.308992
-0.035847 0.089002
-0.067321 0.058746
-0.248447 -0.095639
0.190485 0.048243
0.000334 -0.095424
-0.047598 0.108118
0.106166 -0.033102
0.096647 -0.206339
-0.051947 -0.073952
0.083971 -0.042840
-0.127567 0.226784
-0.111862 -0.110767
-0.350903 0.015223
0.025388 0.083060
-0.142039 0.300140
-0.169921 0.231556
-0.263090 0.139164
-0.102290 0.036022
0.194614 -0.083627
-0.011053 -0.105304
0.165882 0.034058
0.010214 -0.114094
0.109286 -0.229433
0.065962 0.069284
-0.320120 -0.104379
-0.060761 -0.114035
-0.216592 0.111948
-0.172081 0.077198
-0.210551 0.036297
-0.403600 -0.066175
-0.055921 0.115216
-0.071649 -0.208858
-0.119313 0.044542
-0.116003 0.268888
0.024080 0.114845
0.214386 -0.083689
0.308734 -0.077319
0.012673 -0.250345
-0.264648 -0.037457
-0.087987 0.014322
0.119004 0.057564
0.120117 -0.107017
0.059332 0.312032
-0.338636 0.161233
-0.015689 0.078338
0.063116 0.241801
0.619671 0.316646
0.264879 0.105313
-0.047612 0.337520
0.236400 0.129722
-0.066472 -0.603604
0.044318 -0.038332
-0.195237 -0.359280
-0.103685 -0.019944
-0.196020 -0.062631
-0.142132 0.310659
-0.080660 0.113837
-0.203986 -0.118580
0.405025 0.299235
0.287482 0.140435
0.310072 0.084455
0.341327 -0.053750
-0.125899 0.097136
-0.088959 -0.007497
0.051326 -0.432008
0.072064 0.046247
-0.396458 -0.106806
-0.453540 -0.302520
-0.040108 -0.117645
-0.264245 0.143952
-0.079964 0.053651
-0.240402 0.096260
-0.074185 0.178098
0.038586 -0.120258
0.292482 -0.054201
0.187654 -0.034587
-0.194877 0.086124
-0.243174 -0.095901
0.318997 -0.023522
0.132560 -0.069628
-0.006035 -0.215758
0.068409 0.085944
-0.395702 -0.310934
-0.004692 -0.181693
-0.349244 0.122762
0.320929 -0.429678
-0.201199 0.209708
0.028080 0.282818
0.152001 -0.355156
0.001773 -0.126086
0.134032 -0.054974
0.123861 -0.172866
0.081204 -0.274484
-0.081655 0.186649
0.096343 0.208411
-0.220713 -0.246667
0.020613 -0.278213
0.134800 0.197195
-0.121772 0.065343
-0.278071 0.053189
0.266743 0.266661
0.367587 -0.368601
-0.034631 -0.242304
-0.089672 0.053405
0.152689 0.139284
-0.186193 -0.037601
-0.207945 -0.283797
0.212381 -0.150137
0.039060 -0.041639
-0.172918 0.187268
-0.226976 0.009390
-0.247387 -0.083047
-0.184936 -0.112042
0.091260 0.054552
0.021209 0.336785
0.156935 0.328671
-0.361318 0.020813
-0.134553 -0.125532
0.317114 -0.059183
0.650049 0.009035
0.424223 -0.032809
-0.374720 0.098214
-0.151773 -0.095113
0.188457 -0.271944
-0.086053 -0.233517
0.267765 0.029860
0.147452 0.125671
-0.236948 -0.150118
0.076847 0.187574
0.240210 -0.769364
0.147688 0.077715
0.090217 -0.139838
-0.042836 0.335465
-0.675960 0.198484
0.384013 -0.073359
0.199223 -0.106181
0.023729 -0.278903
0.732835 0.237822
0.078376 -0.014104
-0.159938 -0.367655
-0.127749 -0.068975
0.024519 -0.425807
0.231259 0.418857
-0.284624 0.369282
0.086972 -0.020976
-0.133132 0.083145
0.448603 -0.202718
0.114739 0.138414
-0.030560 -0.269133
0.008974 0.322110
0.584058 -0.379582
-0.166488 0.283705
-0.401463 -0.040321
0.923588 0.278786
-0.434345 -0.567435
-0.206146 -0.110696
0.702417 0.398991
-0.288985 -1.062100
0.019257 0.487851
-0.554390 0.604509
-0.006846 -1.481305
-0.867873 0.970785
0.653822 -0.395196
0.690288 0.187398
-1.540787 0.444269
1.385236 0.862664
-0.601469 -0.786625
-0.207627 -0.880757
0.318225 2.260286
0.483338 -0.983635
-0.440001 0.836477
-0.868967 0.332944
4.875013 -0.667281
-0.483466 -0.127224
1.454623 0.533581
0.168409 0.749588
-6.222257 -11.183961
-0.555769 0.828478
0.431169 -2.518985
1.659722 1.213737
-20.997781 29.688156
3.545308 0.934753
-4.655194 -0.223529
4.427172 -8.827026
107.942807 20.145918
-1.111605 -9.922227
3.885080 11.549016
-31.040115 8.444474
-106.621997 -345.664344
-18.150665 12.686648
8.221472 -29.223441
7.534842 -42.233030
-7711.794636 2422.599540
