13587.734494 14504.411079
-3660.028462 -3266.894823
1571.035696 302.111276
-466.686775 257.688530
-671.356092 -1312.819543
-319.657456 87.044894
-656.745316 578.231214
-49.017299 420.663439
142.955625 25.312138
-127.944772 10.293204
-168.918991 637.360342
-92.271500 -258.431181
-340.856700 60.777218
63.936548 -215.185178
69.373854 -8.704472
69.630833 33.608743
-10.728843 9.042894
34.176756 -102.731563
-36.239684 -20.145162
-35.174825 -4.875864
-17.500273 22.229972
16.789225 -23.962904
-59.146800 15.678859
-24.659457 6.400689
19.080292 -13.776110
-25.944935 -6.368028
5.697397 0.381636
-9.044349 29.963475
4.200688 16.665413
23.717229 5.701802
-6.018380 -7.808220
5.910591 20.241300
-12.262592 -16.517126
-10.257032 2.615305
-14.628046 -1.111233
-16.613397 -38.740779
8.791451 -17.217991
14.653868 0.291716
10.295544 0.016068
-22.493041 -4.439280
-10.742397 7.048169
2.308502 0.251024
4.266990 1.193515
-2.869378 6.610352
-8.721347 2.038644
6.315053 -6.362557
-0.761511 -6.407955
0.631215 -2.874475
11.615240 -10.674828
3.976076 3.992156
3.859385 0.044672
2.811351 -3.641722
-4.078627 -12.327948
-0.530402 5.475060
-6.347786 -7.374489
-0.209338 4.462041
-5.950192 -9.879652
-5.097122 -4.796779
6.012143 -0.459272
5.054583 -7.047069
3.769075 -0.169858
2.383162 6.524304
1.380762 1.620620
-3.433049 -2.538073
9.520419 -6.037786
-0.039282 -0.818257
1.709128 -2.432139
-3.249230 -6.668501
2.481364 -3.516713
2.428374 -10.076260
1.139192 -3.785322
1.277923 0.854130
5.836089 -3.308634
-4.032619 -2.420670
-0.601937 1.151554
-1.927083 -2.888190
3.093984 -2.420314
3.816507 -0.821746
-3.751094 -1.518265
4.572689 -4.358945
1.997766 -4.479091
6.043428 -3.311989
3.086666 -2.184267
2.565890 -2.733714
0.414736 -0.264373
1.279371 -3.490575
0.582315 -5.288676
-2.072256 -4.143031
1.687946 -3.689919
1.906361 -1.131215
-0.272929 -4.251025
-0.701750 -5.460755
3.995455 -1.312838
5.196156 -1.456802
1.743634 -1.419099
1.084088 -1.298808
2.674207 -1.212904
1.227825 -4.163895
3.407130 -3.034815
4.381851 -3.924632
0.625124 -3.547064
3.326481 -1.667777
0.721854 -3.848927
3.401033 -5.167727
1.657323 -2.570323
1.456790 -1.225717
0.218435 0.998029
1.292075 -6.335622
-1.203658 -0.550216
2.018777 -2.337215
0.973859 -3.347477
2.784290 -2.664693
1.771337 -3.559769
2.154589 -2.387405
3.025184 -3.229994
3.743639 -3.014058
3.343045 -2.911898
1.985191 -2.081896
-0.036702 -2.442738
1.477299 -3.625567
2.986968 -5.222340
0.245957 -2.285020
2.294159 -2.964664
1.544127 -1.570870
1.673393 -3.116319
0.779961 -3.210736
0.957830 -2.171448
3.188018 -0.838653
1.573833 -2.784757
0.296401 -2.126578
1.914336 -2.634403
0.775144 -4.175592
3.465062 -3.289135
0.655956 -3.911238
2.383463 -3.984535
1.630190 -3.913303
3.251260 -2.581447
1.803659 -3.594066
1.587344 -3.900136
1.529232 -1.891908
1.108129 -1.891807
1.771727 -3.233281
0.594796 -3.635523
1.833422 -1.607535
3.082067 -3.474366
1.820729 -1.385401
1.389919 -3.562357
1.052876 -2.057500
2.115532 -3.438979
2.081004 -2.440944
1.580591 -3.842947
1.662607 -2.630626
0.616774 -3.225225
0.315220 -4.189371
2.033667 -3.511612
1.321628 -4.616488
0.493273 -2.446826
2.458176 -3.101137
2.252516 -4.101584
1.121790 -2.980452
2.291348 -2.388692
1.284489 -2.278622
2.095637 -3.057334
1.902081 -3.572761
1.744335 -1.500777
2.027039 -4.331136
1.398451 -2.900835
2.777075 -3.348979
0.641353 -2.761421
1.002657 -3.024836
1.166731 -3.214463
2.106156 -3.856761
0.632404 -3.337657
1.950317 -2.746294
-0.080913 -2.872896
1.829081 -3.401116
0.939360 -3.479623
1.351625 -3.127710
2.484779 -3.042766
2.022481 -3.767750
1.766900 -2.558768
1.603476 -3.679784
2.458022 -2.927009
1.293217 -2.570282
1.700660 -3.053727
1.644444 -3.760115
1.559944 -3.223932
1.144608 -2.848077
1.484574 -3.030458
0.756255 -3.177678
1.068410 -2.948605
1.158350 -2.617441
1.698219 -2.862296
0.340187 -3.658738
1.641342 -3.141320
1.717297 -3.117552
0.810404 -2.719377
1.604941 -3.128600
0.859413 -3.681761
1.966000 -3.805776
1.309793 -3.852264
1.815263 -3.386857
1.341778 -3.607321
1.370404 -3.562581
1.317534 -2.960947
1.279841 -2.831675
1.617452 -3.832094
0.740111 -2.946311
1.289424 -3.420508
1.226103 -2.610074
1.513399 -3.339334
0.804774 -2.622195
1.315863 -3.224229
1.703626 -3.437577
1.273350 -3.362936
1.076338 -2.985647
1.453330 -4.057330
0.637005 -2.848425
1.697777 -3.595674
1.077869 -3.292445
0.823256 -3.631030
0.718786 -3.802031
1.261450 -3.683671
1.433299 -3.600559
1.300666 -2.760257
0.981205 -3.425425
1.533963 -2.500322
1.430359 -3.454160
1.246909 -3.077480
0.970328 -3.284163
1.316511 -2.957352
1.477778 -3.248781
1.223230 -3.352964
1.114458 -3.017020
1.040301 -3.880111
0.992872 -3.300187
1.002760 -3.986186
1.096493 -3.469330
0.771649 -3.175521
0.671596 -3.023175
1.339377 -3.743640
0.657616 -3.408595
0.654262 -3.330428
1.070359 -3.114527
0.746975 -3.733610
1.330035 -3.378685
1.401588 -3.362412
1.514112 -3.018333
1.135547 -2.901265
1.030041 -3.956748
1.140216 -3.089734
0.502523 -3.290743
1.098197 -3.249687
1.036069 -3.766622
0.904004 -3.316726
0.631696 -3.332383
0.605720 -3.344549
0.941555 -3.508040
0.696477 -3.549551
0.716631 -3.052962
0.992932 -2.765886
1.167021 -3.371175
0.332715 -3.552398
0.883955 -3.185390
0.735681 -3.607247
1.107137 -3.265376
0.688087 -3.488454
0.819594 -3.612120
0.789342 -3.606837
1.276929 -3.366653
0.537487 -3.485777
0.440333 -3.215655
0.117618 -3.272415
0.662833 -3.348548
0.769958 -3.425462
0.326543 -3.156491
0.603416 -3.414661
0.499109 -3.211574
0.802742 -3.400499
0.606146 -3.062104
0.685989 -3.632318
1.076278 -3.016740
1.154204 -3.395233
0.491534 -3.217957
0.354479 -3.609142
0.894379 -3.504479
0.301005 -3.682663
0.752873 -3.532152
0.733271 -3.705464
0.642993 -3.481922
0.351671 -3.601666
0.821853 -3.426656
0.246751 -3.404563
0.705646 -3.013650
-0.083006 -3.196337
0.764052 -3.473630
0.146569 -3.488932
0.753589 -3.506533
0.480280 -3.244381
0.450060 -3.706446
0.434294 -3.152365
0.832418 -3.498439
0.535717 -3.522979
0.602416 -3.403586
0.472171 -3.409051
0.446334 -3.403709
0.518388 -3.261686
-0.060225 -3.525596
0.216252 -3.353904
0.923083 -3.838732
0.358276 -3.340439
0.164964 -3.454646
0.573601 -3.511347
0.291368 -3.445396
0.223695 -3.402861
0.427999 -3.626987
0.525701 -3.252336
0.037819 -3.586947
-0.151454 -3.504726
0.656049 -4.011768
0.050655 -3.413127
0.227095 -3.260472
0.257375 -3.592995
0.328506 -3.579946
0.246725 -3.502223
0.222111 -3.164469
0.206659 -3.704205
0.515386 -3.142811
-0.335851 -3.417434
0.377645 -3.194587
0.044329 -3.985003
0.401898 -3.534676
-0.018329 -3.701734
0.371893 -3.395775
0.129305 -3.452741
-0.170447 -3.525451
-0.167518 -3.563767
0.358526 -3.587443
-0.072154 -3.317472
-0.308026 -3.484118
-0.031090 -3.658246
-0.052580 -3.346301
0.121743 -3.345201
0.319183 -3.529875
-0.046595 -3.156125
-0.041665 -3.451694
0.194709 -3.443917
0.069478 -3.579383
-0.021626 -3.549353
0.078222 -3.353782
-0.002340 -3.578819
-0.060415 -3.629289
-0.220968 -3.845819
0.058987 -3.454459
-0.346438 -3.648114
0.006234 -3.386149
-0.274251 -3.445888
-0.179724 -3.123565
-0.510128 -3.659704
0.026211 -3.090602
-0.368734 -3.645543
0.014458 -3.101227
-0.314503 -3.577207
-0.010917 -3.105285
0.065768 -3.857674
0.274500 -3.355649
-0.139801 -3.296803
0.090945 -3.790513
-0.022549 -3.407517
-0.171589 -3.290822
-0.137637 -3.794890
-0.275327 -3.690639
-0.024705 -3.381490
-0.666977 -3.532098
0.023750 -3.689959
-0.563679 -3.705527
-0.222797 -3.356234
-0.322240 -3.128654
-0.085033 -3.731025
-0.520369 -3.320912
-0.352001 -3.371347
-0.490847 -3.430734
-0.135131 -3.635902
-0.302368 -3.762587
-0.247613 -3.391945
-0.302485 -3.367053
-0.356470 -3.976118
0.026264 -3.383522
-0.492093 -3.780441
-0.486540 -3.432423
-0.108395 -3.228212
-0.486428 -3.490953
-0.715650 -3.730537
-0.581041 -3.477976
-0.143302 -3.178675
-0.691897 -3.584215
-0.670785 -3.612033
-0.670703 -3.438782
-0.315603 -3.392270
-0.505853 -3.702832
-0.480172 -3.489503
-0.745218 -3.544582
-0.348377 -3.398382
-0.781020 -3.714516
-0.280968 -3.471998
-0.705609 -3.554471
-0.539626 -3.304817
-0.575336 -3.630442
-0.552777 -3.270014
-0.769865 -3.612565
-0.566417 -3.394569
-0.541883 -3.458292
-0.472384 -3.246907
-0.648636 -3.417541
-1.110775 -3.361917
-0.085047 -3.674175
-0.933691 -3.288138
-0.788828 -3.397742
-0.598875 -3.525240
-0.630045 -3.496069
-0.976002 -3.449294
-0.565357 -3.489055
-0.729638 -3.306113
-0.760097 -3.587824
-1.036367 -3.486634
-0.422569 -3.226304
-0.758314 -3.753759
-0.633681 -3.245440
-0.608905 -3.457132
-0.728387 -3.349735
-0.602929 -3.451006
-0.782493 -3.240933
-0.822206 -3.728264
-0.705860 -3.347476
-0.815020 -3.668150
-0.721569 -3.381569
-0.779159 -3.702690
-1.018139 -3.363128
-0.887937 -3.433563
-0.766421 -3.510175
-1.109268 -3.438293
-1.011364 -3.290533
-1.015447 -3.380464
-0.992683 -3.491074
-1.083665 -3.461089
-1.021092 -3.317085
-0.811613 -3.383848
-0.996222 -3.634185
-0.970146 -3.334986
-0.892628 -3.293235
-0.851019 -3.813679
-0.779792 -3.350199
-1.053710 -3.174720
-0.945218 -3.613658
-0.855760 -3.494808
-1.133802 -3.292389
-0.926814 -3.397477
-1.129747 -3.514666
-1.032183 -3.385212
-1.047477 -3.201269
-1.158728 -3.465940
-1.175249 -3.547629
-1.007693 -3.255365
-0.976283 -3.359629
-1.241501 -3.317342
-1.225419 -3.476451
-1.085090 -3.372756
-1.211526 -3.367782
-1.050382 -3.599289
-1.116413 -3.288679
-1.276582 -3.362208
-1.027434 -3.557037
-1.198129 -3.213909
-0.888655 -3.440402
-1.235584 -3.205798
-1.223693 -3.274052
-1.126962 -3.287856
-0.944052 -3.519195
-1.067424 -3.106708
-1.329806 -3.500390
-0.884235 -3.153227
-1.140631 -3.279572
-1.233540 -3.541754
-1.343746 -3.225458
-1.279353 -3.368982
-1.477918 -3.613456
-0.988015 -3.408239
-1.618470 -3.517957
-1.493985 -3.330004
-1.324625 -3.398065
-1.169145 -3.414678
-1.551378 -3.364176
-1.590969 -3.112562
-1.471014 -3.206308
-1.085961 -3.389602
-1.555641 -3.503283
-1.449309 -2.901771
-1.230621 -3.433798
-1.013082 -3.191841
-1.561975 -3.407379
-1.228832 -3.133059
-1.297865 -3.273757
-1.334753 -3.340674
-1.261217 -3.219244
-1.660943 -3.310397
-1.364540 -3.283347
-1.558328 -3.188989
-1.669867 -3.257327
-1.515001 -3.498568
-1.678867 -3.215982
-1.697004 -3.192318
-1.369338 -3.251303
-1.743860 -3.552909
-1.481373 -3.017421
-1.359314 -3.185509
-1.513742 -3.023240
-1.736922 -3.200188
-1.632807 -3.009663
-1.417895 -3.311414
-1.721891 -3.160335
-1.613879 -3.345472
-1.316529 -2.775324
-1.675090 -3.764708
-1.470271 -3.022560
-1.512428 -2.733728
-1.527773 -3.548737
-1.506966 -3.022953
-1.794443 -3.012038
-1.712358 -3.242566
-1.477869 -3.411382
-1.488543 -3.270744
-1.787181 -3.039631
-1.615783 -3.306316
-1.601768 -3.372374
-1.661109 -3.015638
-1.891118 -3.328843
-1.809995 -3.399688
-1.645422 -3.124667
-1.609779 -3.164581
-2.191191 -3.053864
-1.826408 -3.444384
-1.556911 -2.968273
-1.876463 -3.092361
-1.980346 -3.096177
-1.755979 -3.171357
-1.615530 -2.997789
-1.654344 -3.246070
-1.812505 -2.976717
-1.373692 -2.840561
-1.804510 -2.957206
-1.804757 -3.213815
-1.864016 -2.866996
-1.685367 -3.070164
-1.651169 -3.182505
-2.068778 -3.071107
-2.059337 -3.009392
-1.557757 -3.182958
-2.031693 -3.154443
-2.159594 -2.887377
-2.074404 -3.201631
-1.837642 -3.298059
-1.967003 -2.706675
-2.225928 -3.220553
-2.108090 -3.355481
-1.447635 -2.825560
-2.140432 -2.903651
-2.014238 -3.031204
-1.770077 -2.937941
-2.214495 -2.774826
-1.641414 -3.009444
-2.254004 -2.953418
-1.970106 -2.780071
-2.019036 -2.950570
-1.850853 -3.316102
-2.185073 -2.624078
-1.873340 -3.134471
-1.802132 -2.875998
-2.040665 -3.055140
-2.351341 -2.918521
-1.754701 -2.909585
-1.942598 -3.229279
-2.248217 -3.082537
-1.932421 -2.987986
-2.029225 -2.850058
-2.002180 -3.333141
-2.097362 -2.722721
-2.451411 -3.067559
-2.024026 -3.132137
-2.088037 -2.983290
-2.156423 -2.759976
-2.407507 -3.185517
-2.140021 -2.935250
-2.119271 -2.619250
-2.143297 -3.016340
-2.370477 -2.919043
-2.394591 -2.795301
-2.048891 -2.877845
-2.090373 -3.101736
-2.001617 -2.941581
-2.303747 -2.485935
-1.859721 -2.947057
-2.331309 -2.506038
-2.450239 -2.929685
-2.157442 -2.675223
-2.412491 -3.048108
-2.329507 -2.670125
-2.414445 -2.831028
-2.109588 -3.114658
-2.413804 -2.932514
-2.265848 -2.598842
-2.260427 -2.860044
-2.161963 -3.057363
-2.299988 -2.822930
-2.428131 -2.777100
-1.981962 -2.798233
-2.105213 -3.054895
-2.150353 -2.642731
-2.391248 -2.499447
-2.288900 -2.776028
-2.328521 -2.706239
-2.149185 -2.780004
-2.542446 -2.609227
-2.485876 -2.516142
-2.153661 -2.650030
-2.524872 -2.687972
-2.418689 -2.713074
-2.467301 -2.449399
-2.077238 -2.516348
-2.685512 -2.617168
-2.502718 -2.920384
-2.039562 -2.593949
-2.325270 -2.700456
-2.381737 -2.659837
-1.997913 -2.661868
-2.443120 -2.751984
-2.251378 -2.550171
-2.435152 -2.536038
-2.359547 -2.538435
-2.553407 -2.943038
-2.493206 -2.542608
-2.665612 -2.463136
-2.305570 -2.702895
-2.530873 -2.829164
-2.672407 -2.433160
-2.620062 -2.409198
-2.308273 -2.566277
-2.831025 -2.726103
-2.443198 -2.638445
-2.583200 -2.434981
-2.374728 -2.561163
-2.330642 -2.740535
-2.766727 -2.330899
-2.504339 -2.501963
-2.510820 -2.678065
-2.664201 -2.429900
-2.571818 -2.646237
-2.677834 -2.704931
-2.593013 -2.466023
-2.424373 -2.470127
-2.679020 -2.655395
-2.583102 -2.361480
-2.723615 -2.389776
-2.381725 -2.608113
-2.614561 -2.364006
-2.690567 -2.458580
-2.369091 -2.331311
-2.510494 -2.652147
-2.498087 -2.058763
-2.577046 -2.398183
-2.520156 -2.212150
-2.912949 -2.526383
-2.715899 -2.375041
-2.435952 -2.409926
-2.893314 -2.225771
-3.010915 -2.707133
-2.637476 -2.402455
-2.632554 -2.396710
-2.930952 -2.438679
-2.637784 -2.467360
-2.773689 -2.288791
-2.883174 -2.127458
-2.755304 -2.436138
-2.592433 -2.424128
-2.818287 -2.126709
-2.692991 -2.098498
-2.720889 -2.052342
-2.661211 -2.553197
-2.651456 -1.899612
-2.925342 -1.734496
-2.672276 -2.426203
-2.732957 -2.224731
-3.060895 -1.952267
-2.590568 -2.321372
-2.917662 -2.271610
-2.417321 -2.307633
-3.129344 -1.907621
-2.592423 -2.443140
-2.938033 -2.054781
-2.976731 -2.515665
-2.473776 -2.345024
-2.719769 -1.989700
-3.025247 -2.245569
-2.554954 -2.086705
-2.719891 -1.864013
-3.162822 -2.160875
-2.885728 -1.855918
-3.070182 -1.860096
-2.800595 -2.479339
-3.195013 -1.872109
-2.564111 -2.166767
-2.662220 -1.716195
-3.035583 -1.997090
-2.987999 -1.899347
-3.076135 -1.955366
-2.772863 -2.170982
-2.988035 -1.955746
-3.109479 -2.386121
-2.607414 -2.005487
-2.966932 -2.104005
-2.839110 -1.997220
-3.016304 -2.110450
-3.204385 -1.965192
-3.077196 -2.154641
-2.783819 -2.129529
-3.146661 -2.256380
-3.026429 -1.917377
-2.834391 -1.820268
-3.147703 -2.164244
-3.010661 -2.001657
-3.376926 -1.870220
-2.594127 -2.173485
-3.236597 -1.994081
-2.992711 -2.201142
-2.749113 -1.855320
-3.001045 -1.740073
-3.310089 -2.026435
-3.051918 -1.872572
-3.182833 -1.873348
-3.260198 -2.109277
-3.208137 -1.984310
-3.078530 -1.905141
-2.810986 -1.996314
-3.410578 -1.564269
-3.119076 -1.841494
-3.087205 -1.544201
-3.039253 -2.245022
-3.053838 -1.320428
-3.143132 -1.634484
-2.926520 -1.771045
-3.078763 -1.701998
-2.953611 -1.591737
-3.089181 -1.644447
-2.997288 -1.738075
-2.773432 -1.781413
-3.292081 -1.669424
-2.701327 -1.906800
-3.057691 -1.343639
-3.042470 -1.668554
-3.327562 -1.802673
-3.416844 -1.855966
-3.130833 -1.933264
-2.853211 -1.934258
-3.205852 -1.934360
-3.360747 -1.636000
-2.843618 -1.793321
-3.176949 -1.746219
-3.546824 -1.585938
-3.187898 -1.926250
-3.137008 -1.637383
-3.592636 -1.713536
-2.928875 -1.805124
-3.233985 -1.321537
-3.353017 -1.673958
-3.477975 -1.367711
-3.296088 -1.383479
-3.105770 -1.799596
-3.617646 -1.460042
-2.924378 -1.439092
-2.913427 -1.197925
-3.318380 -1.202303
-3.255368 -1.372577
-3.562142 -1.290441
-3.084379 -1.428044
-3.201655 -1.480550
-3.204370 -1.903856
-3.028946 -1.383378
-3.022308 -1.375750
-2.808959 -1.427309
-3.182587 -1.509481
-3.613352 -1.314030
-3.188208 -1.441713
-3.090090 -1.716533
-3.275406 -1.795462
-3.160481 -1.460053
-3.019500 -1.280139
-3.200339 -1.391026
-3.552681 -1.440978
-3.234729 -1.375813
-3.372569 -1.543963
-3.424898 -1.369876
-3.314111 -1.319255
-3.370736 -1.795882
-3.056809 -1.289276
-3.631027 -1.152798
-3.445503 -1.357711
-3.486495 -1.463251
-3.132874 -1.647217
-3.746380 -1.589298
-2.951539 -0.977971
-3.043372 -1.363208
-3.457401 -1.354854
-3.550091 -1.121643
-3.266455 -0.889934
-3.281813 -1.337752
-3.382684 -1.456433
-3.383636 -1.138832
-3.231625 -1.026395
-2.973795 -1.167232
-3.387670 -1.067469
-3.210143 -0.922186
-3.494387 -1.005346
-3.350104 -1.110155
-3.218571 -1.089664
-3.226223 -1.121982
-3.376830 -1.254441
-3.129615 -0.861113
-3.194789 -0.704127
-3.560234 -1.261802
-3.019203 -1.387666
-3.514211 -0.675820
-3.040140 -0.957522
-3.408240 -1.075112
-3.233945 -1.055735
-3.638023 -0.911871
-3.601368 -0.951160
-3.138519 -1.109331
-3.730272 -1.282169
-3.589242 -1.258900
-3.355541 -1.174036
-3.141906 -1.083944
-3.168960 -0.878502
-3.610348 -1.106675
-3.756543 -0.578052
-3.327310 -1.090250
-3.399906 -0.999118
-3.554807 -0.841437
-3.802872 -0.839889
-3.184251 -0.914357
-3.566386 -0.691542
-3.690391 -0.862474
-3.435656 -0.885724
-3.762279 -0.779853
-3.482032 -0.910692
-3.463465 -0.567175
-3.573696 -1.341421
-3.383596 -0.502531
-3.692777 -0.644449
-3.434959 -0.679273
-3.605741 -1.087978
-3.536796 -1.027340
-3.278247 -0.398106
-3.437925 -0.971029
-2.870620 -0.757316
-3.705818 -0.453509
-3.418855 -0.588474
-3.240177 -0.416639
-3.746469 -0.689876
-3.555879 -0.801347
-3.476334 -0.678448
-3.753323 -0.649559
-3.112086 -0.919799
-3.669924 -0.538516
-3.680029 -0.821860
-3.399567 -0.549485
-3.696308 -0.722721
-3.503918 -0.815659
-3.597022 -0.896514
-3.205067 -0.396811
-3.568709 -0.590762
-3.730793 -0.671295
-3.385958 -0.512128
-3.455714 -0.857240
-3.564525 -0.211208
-3.804590 -0.772535
-3.282288 -0.927543
-3.412193 -0.515864
-3.432354 -0.525171
-3.554716 -0.632052
-3.435009 -0.511082
-3.615193 -0.613167
-3.557092 -0.793272
-3.199930 -0.426054
-3.465709 -0.744168
-3.520606 -0.098795
-3.447631 -0.524132
-3.415993 -0.519969
-3.677752 -0.182496
-3.659732 -0.222273
-3.745402 -0.442000
-3.531342 -0.628948
-3.777113 -0.288209
-3.754645 -0.488700
-3.350381 -0.362654
-3.661441 -0.499101
-3.930464 -0.329096
-3.444429 -0.253578
-3.679782 -0.647967
-3.666551 -0.415516
-3.301552 -0.045323
-3.637914 -0.548485
-3.649634 -0.284701
-3.422972 0.124055
-3.419705 -0.490112
-3.467921 -0.229429
-3.641887 0.055927
-3.504926 0.124454
-3.594346 -0.440999
-3.740248 -0.260548
-3.355614 -0.019716
-4.028506 -0.074643
-3.746169 -0.426321
-3.489289 -0.612314
-3.814483 -0.367697
-3.658725 -0.505789
-3.478511 -0.405166
-3.285605 -0.437877
-3.707697 -0.538539
-3.438226 -0.281577
-3.345220 0.019792
-3.379033 -0.519918
-3.617225 0.067942
-3.688043 -0.164012
-3.529171 -0.253190
-3.591308 -0.068794
-3.415122 -0.195298
-3.715969 -0.223636
-3.578941 -0.078009
-3.736784 -0.162561
-3.185468 -0.062183
-3.715643 -0.092142
-3.993959 -0.162920
-3.394109 0.055506
-3.595478 -0.171224
-3.478463 -0.097569
-3.929471 -0.070945
-3.485928 0.129152
-3.630775 -0.002081
-3.397965 -0.170185
-3.733511 0.234118
-3.719396 0.036461
-3.401891 -0.099260
-3.410600 0.272570
-3.864118 0.152365
-3.421355 -0.195713
-3.446640 0.208137
-3.773566 0.499849
-3.427346 -0.449143
-3.393152 0.227167
-3.681487 0.041091
-3.601218 0.285878
-2.988801 -0.063472
-3.479333 0.379114
-3.782879 0.186768
-3.611935 0.293193
-2.986523 0.252033
-3.476916 0.366247
-4.029509 0.437642
-3.677652 0.336766
-3.222961 0.173843
-3.584133 0.193862
-3.557081 0.334149
-3.752244 0.209079
-3.058332 0.238923
-3.651161 0.298776
-3.166374 0.065623
-3.247532 0.246037
-3.545928 0.584761
-2.955820 0.308281
-3.480903 0.078491
-3.284810 0.381472
-3.258903 0.586989
-3.493973 0.626010
-3.479615 0.176150
-3.705666 0.375377
-3.773692 0.160128
-3.403523 0.533413
-3.718636 -0.061327
-3.587653 0.183271
-3.426973 0.576183
-3.933904 0.474879
-3.657568 0.141993
-3.538547 0.168333
-3.670635 0.677643
-3.895416 0.344089
-3.586647 0.058707
-3.226215 0.497231
-3.594730 0.562171
-3.436153 0.479719
-3.679220 0.722434
-3.692449 0.389568
-3.374379 0.482577
-3.647511 0.516163
-3.755238 0.407040
-3.283857 0.558636
-3.438808 0.558269
-3.815403 0.691585
-3.757600 0.155520
-3.612472 0.864595
-3.397086 0.373415
-3.609174 0.238819
-3.712119 0.623023
-3.045270 0.752648
-3.132880 0.520879
-3.901852 1.045847
-3.307661 0.875491
-3.431085 0.763906
-3.895689 1.025682
-3.254143 0.644091
-3.557694 0.832273
-3.750280 0.764992
-3.458606 0.798992
-3.190219 0.917281
-3.757993 0.836108
-3.776663 0.656987
-3.276514 0.957700
-3.405582 0.746715
-3.395774 0.402132
-3.399564 1.162051
-3.357115 1.177931
-3.372032 0.545579
-3.256569 1.210435
-3.591403 0.675587
-3.344963 1.318413
-3.373045 0.796160
-3.521937 0.467131
-3.294732 1.285090
-3.365898 0.696016
-3.378772 0.819301
-3.250471 1.155971
-3.511670 0.602533
-3.412487 1.146331
-3.864533 0.815947
-3.207835 0.685290
-3.274309 1.083666
-3.922695 0.572889
-3.383775 1.202881
-3.250274 0.747770
-3.561345 0.586748
-3.213603 1.129687
-3.608711 1.265774
-3.262489 0.788761
-3.413683 1.015285
-3.514670 0.973273
-3.126761 1.004876
-3.437462 1.043095
-3.498830 1.257267
-3.359607 0.873331
-3.429528 0.781209
-3.442344 1.275075
-3.260273 0.969650
-3.385615 0.830504
-3.474287 1.049022
-3.357037 1.060634
-3.356688 1.211689
-3.392056 1.285217
-3.762093 0.916219
-3.376252 1.348858
-3.959319 1.114858
-3.633455 0.996148
-3.547422 0.674531
-3.457770 0.997129
-3.442251 1.069496
-3.448852 1.240364
-3.265333 0.555015
-3.099813 1.193047
-3.574510 1.388893
-3.292659 1.177530
-3.153151 0.763125
-3.368322 1.380788
-3.084157 1.196171
-3.318595 1.276201
-3.261834 0.921892
-3.141186 1.675218
-3.220523 1.210932
-3.840690 1.212619
-3.095004 1.408887
-3.447908 1.205480
-3.119622 0.967924
-3.673085 1.671729
-3.282360 1.168757
-3.217532 1.292178
-3.496432 1.582879
-3.607844 1.102451
-3.152707 1.323650
-3.293968 1.190916
-3.211043 1.201158
-2.893045 1.342293
-3.061203 1.417069
-3.024207 1.478672
-2.988430 2.074010
-3.118222 1.049460
-3.231837 1.917860
-3.374364 1.527550
-3.199940 1.295976
-2.814918 1.508886
-3.255872 1.688651
-3.347069 1.748203
-3.111332 1.676180
-3.612972 1.545390
-3.278003 1.288720
-3.443372 1.653219
-3.247482 1.373848
-3.168446 1.135543
-3.239045 1.836346
-2.647587 1.340854
-3.455266 1.658654
-3.258377 1.850712
-3.382494 1.525413
-2.855879 1.112709
-3.554535 1.568469
-2.661349 1.396621
-2.765889 1.404624
-2.791028 1.806880
-2.931415 1.578822
-2.992986 2.076686
-3.324381 1.624901
-2.796318 1.516425
-2.931568 1.832884
-3.143521 1.626959
-3.082943 1.550202
-2.759735 2.070795
-3.034069 1.543898
-3.426427 1.949665
-3.235213 1.579233
-3.298922 1.622819
-2.878281 1.394659
-2.946167 1.094048
-3.119717 1.804578
-2.577689 2.085932
-2.955723 1.503603
-3.284954 1.757749
-3.150583 2.005871
-2.985043 1.637363
-3.143487 1.176258
-2.677955 1.702324
-2.837475 1.872126
-2.380687 1.569580
-3.145614 2.256365
-2.738624 1.989559
-2.491379 1.803152
-3.734283 2.105527
-2.893595 1.628703
-2.700816 1.772116
-2.777423 1.788511
-3.244906 1.695795
-2.929190 2.194928
-2.854133 1.683506
-3.119677 1.299147
-3.178054 2.226336
-2.974334 1.109712
-2.653073 1.571271
-2.393069 1.932377
-2.756561 1.888513
-3.005341 1.970712
-2.698187 1.917534
-2.812109 2.253715
-3.132590 1.546848
-2.769211 1.903615
-2.937176 1.778305
-2.278357 2.157580
-2.783947 1.648718
-2.726171 2.314033
-3.115136 2.428221
-2.728573 1.973681
-3.181468 1.996762
-3.137030 1.931356
-2.875836 2.022883
-2.759975 1.852019
-2.968371 2.117756
-3.162159 2.157147
-2.695330 1.891099
-3.463510 2.268393
-2.890902 1.855296
-2.962040 1.702710
-2.684820 1.854680
-2.980449 2.261443
-2.748722 1.912095
-2.607880 2.178977
-3.051765 2.228109
-3.016462 2.352324
-3.161310 2.021640
-2.930618 1.834395
-2.823764 1.879557
-2.871939 2.168340
-2.725092 2.272518
-3.021136 1.883144
-2.819217 2.697443
-3.043455 1.780113
-2.952670 2.211379
-3.390043 2.322367
-2.548580 1.709622
-2.666582 2.113396
-3.144660 2.277502
-2.697733 2.422565
-2.702237 2.377473
-3.164223 1.959978
-3.012321 2.199707
-2.958037 2.506771
-2.509515 1.606034
-2.737459 2.033053
-2.435976 2.739952
-2.477270 2.199532
-2.914425 2.618361
-2.791239 2.473167
-2.721561 2.335635
-3.066981 2.299006
-2.870443 2.331097
-2.609745 2.052835
-2.428763 2.329162
-2.853106 2.492711
-2.937067 2.469600
-2.606403 2.420996
-3.133402 2.320764
-2.690894 2.199926
-2.745895 2.169118
-2.817185 2.374075
-2.207624 2.549816
-2.771856 2.294219
-2.825130 2.719588
-2.712838 2.720525
-3.066870 2.397381
-2.516421 2.104051
-2.542600 2.310678
-2.709058 2.577678
-2.157107 2.381711
-2.370250 2.741007
-2.567205 2.847521
-2.705722 2.457392
-3.044414 3.112554
-2.300889 2.149566
-2.896037 2.137321
-2.359059 2.842503
-2.734725 2.123487
-2.147204 2.665651
-2.256758 2.656806
-2.839306 2.569996
-2.575828 2.503507
-2.368645 2.820913
-2.286574 2.116089
-2.549042 2.947023
-2.281837 2.589454
-2.397046 2.890114
-2.487687 3.012103
-2.784997 2.670691
-2.329141 2.548565
-2.800798 2.964567
-2.587570 2.532174
-2.253522 2.567007
-2.230789 2.569189
-2.613559 2.635879
-2.087643 3.242881
-2.624724 2.571449
-2.298614 2.456258
-2.684302 2.867128
-2.319604 2.537108
-2.291900 2.428371
-2.289606 2.628923
-2.177146 2.488999
-2.286603 2.611528
-2.515918 2.861072
-1.874967 2.417179
-2.213547 2.788658
-2.676639 2.717640
-2.306613 2.755866
-2.011726 2.707752
-2.249391 2.413215
-2.315556 3.071538
-2.292690 2.741200
-2.273961 2.867806
-2.034337 2.640809
-2.424135 2.532001
-2.092442 2.944942
-2.105252 2.802201
-2.130639 2.375650
-1.838799 2.840130
-2.129060 2.849935
-2.318443 2.718783
-1.782905 2.856422
-2.243191 2.718590
-2.184750 2.703012
-2.364089 2.698156
-1.978450 2.679747
-1.862660 2.672625
-1.936416 2.784115
-2.487834 2.935559
-1.776385 3.068338
-2.089054 2.711676
-1.854725 3.152918
-2.445968 2.755495
-2.055454 3.396741
-1.806978 2.934354
-2.285819 2.748175
-2.098757 3.334811
-2.302456 3.134297
-2.128722 2.686004
-2.076869 3.014158
-2.326269 2.777779
-2.076037 2.650110
-1.984075 3.090652
-2.205468 2.565707
-1.487029 2.728811
-2.334362 3.043930
-1.904544 2.895849
-1.814212 3.209351
-1.974957 2.585112
-2.200773 3.037184
-1.709820 3.488299
-2.021907 2.793016
-1.891849 3.143198
-2.109005 3.184518
-1.772218 3.031417
-1.910964 3.764161
-2.140182 2.934037
-2.015234 3.326667
-2.172819 3.409611
-2.203165 3.079034
-1.857767 3.039804
-2.099216 2.985620
-1.957617 3.188267
-1.794429 3.214309
-2.077408 3.011455
-1.689972 3.012222
-1.779276 3.077447
-1.752668 3.198436
-1.768476 3.130173
-1.508775 3.348170
-1.812433 3.008501
-1.730156 3.238288
-1.357271 3.883769
-2.237055 3.120519
-1.929319 2.925637
-1.742693 3.344126
-1.859662 2.975398
-1.600746 2.910837
-1.379439 3.396494
-1.927844 3.074302
-1.756705 3.294520
-1.555770 3.128005
-1.942704 3.230010
-1.760806 2.900598
-1.649328 3.282878
-1.880327 3.055670
-1.625574 2.977481
-1.323130 3.080034
-1.793470 3.127441
-1.774818 3.310779
-1.560541 3.143499
-1.529981 2.855367
-1.444184 2.938155
-1.551003 3.216300
-1.103503 3.343867
-1.402437 3.147487
-1.617458 2.956894
-1.602413 3.530985
-1.283790 3.335849
-1.596131 2.821261
-1.615607 3.283195
-1.321928 3.090559
-1.638539 3.637848
-1.754506 2.913860
-1.542450 3.435936
-1.716007 3.360419
-2.034396 3.340428
-1.759940 3.297331
-1.904977 3.007319
-1.560491 3.094775
-1.827373 3.409565
-1.802301 3.164608
-1.417706 3.320250
-1.474694 3.005204
-1.590826 3.402601
-1.391463 3.497427
-1.347249 3.134065
-1.271204 3.281619
-1.370068 3.872379
-1.387068 3.374039
-1.484070 3.440053
-1.371650 3.585355
-1.544633 3.610039
-1.656980 3.185812
-1.409492 3.222183
-1.633741 4.001561
-1.659583 3.022887
-1.480527 2.820675
-1.168892 3.500905
-1.391073 3.493387
-1.729879 3.283063
-0.939627 3.035169
-1.432727 3.207337
-1.187587 3.799627
-1.248358 3.280104
-1.108214 3.140058
-1.075884 3.497952
-1.680047 3.382277
-0.780358 3.478087
-1.106100 3.283236
-1.220063 3.475999
-1.325246 3.505381
-1.101587 3.494700
-1.346492 3.213500
-0.988141 3.149344
-1.282985 3.592791
-1.129968 3.509701
-1.389485 3.215439
-0.964669 3.356879
-1.149476 3.243470
-1.288487 3.218084
-0.965521 3.435972
-1.151143 3.700187
-1.180050 2.716838
-1.081520 3.505168
-1.023848 3.574135
-0.947917 3.284026
-1.172733 3.170153
-1.486150 3.538756
-1.027799 3.141972
-0.968191 3.073066
-1.015535 3.491290
-1.115205 3.058048
-0.874743 3.379596
-1.021505 3.169870
-0.874155 3.503512
-0.818457 3.239328
-0.946320 3.617866
-0.854393 3.696310
-1.028744 3.504767
-1.039761 3.365298
-0.686172 3.650008
-1.104558 3.829074
-1.216694 3.422743
-0.959472 3.593239
-0.751621 3.496751
-0.982437 3.413283
-1.174257 3.624185
-0.614262 3.186577
-0.578969 3.411336
-1.107527 3.801516
-0.543686 3.361999
-0.662911 3.402260
-0.774154 3.704946
-0.705507 3.514815
-0.801219 3.484616
-0.780632 3.436510
-0.654988 3.550678
-0.856372 3.691347
-0.669691 3.513460
-0.600166 3.346185
-1.005933 3.738259
-0.953856 3.696352
-0.745061 3.205823
-0.820366 3.537472
-0.908147 3.498097
-0.915283 3.324672
-0.391093 3.555715
-0.832554 3.386204
-0.885497 3.335561
-0.859606 3.588870
-0.501937 3.275930
-0.410509 3.585323
-0.831652 3.446178
-0.454768 3.581253
-0.896690 3.544228
-0.371334 3.726888
-0.697805 3.266457
-0.800412 3.844763
-1.051138 3.508701
-0.410742 3.212640
-0.246542 3.246564
-0.638986 3.418527
-0.588624 3.732775
-0.421225 3.657799
-0.446630 3.402819
-0.585892 3.438658
-0.508431 3.768403
-0.691428 3.448263
0.188866 3.611466
-1.018378 3.822881
-0.672977 3.402451
-0.282039 3.962543
-0.724527 3.624396
-0.396454 3.617705
-0.964613 3.595942
-0.326535 3.236410
-0.449304 3.709691
-0.182146 3.747227
-0.613672 3.561251
-0.343384 3.544184
-0.544832 3.760387
-0.234502 3.470785
-0.398356 3.252621
0.126758 3.326303
-0.376829 4.078458
-0.242309 3.578737
0.171595 3.705415
-0.621459 3.575715
-0.206546 3.580454
-0.444024 3.855696
-0.078648 3.261035
-0.367374 3.589159
-0.243467 3.503530
-0.170745 3.753761
-0.238177 3.551496
-0.227837 3.571028
-0.630480 3.307383
-0.323654 3.403564
0.070882 3.356308
-0.081445 3.571920
-0.278855 3.643436
-0.321790 3.404760
-0.076162 3.523434
-0.244708 3.637478
-0.425901 3.638746
-0.151150 3.315549
-0.182070 3.616007
-0.150891 3.863095
-0.103118 3.762955
-0.401084 3.623147
-0.348145 3.633346
-0.656050 3.791312
0.028364 3.369625
0.128075 3.576111
-0.405553 3.701670
-0.034651 3.738809
0.059640 3.722125
-0.168634 3.757180
-0.419969 3.467187
-0.084859 3.763738
-0.110730 3.599569
0.011188 3.240760
0.050800 3.667864
0.031949 3.640790
-0.262333 3.452046
0.063559 3.424018
-0.012064 3.613567
0.187708 3.259726
-0.038443 3.240577
0.484251 3.657778
0.314758 3.611700
0.109007 3.612026
-0.284397 3.587567
0.031939 3.382003
0.242151 3.387143
0.274124 3.332052
0.359315 3.248672
-0.215667 3.585601
0.589425 3.713829
0.321799 3.241325
-0.335371 3.782823
-0.102507 3.587499
0.109082 3.290439
0.186815 3.007528
0.038838 3.415461
0.291662 3.507593
0.234668 3.687734
0.070949 3.383127
-0.038745 3.621463
0.218375 3.462299
0.371668 3.282552
0.267266 3.867021
0.134747 3.526917
0.515906 3.703196
0.158815 3.894342
0.219279 3.832440
0.134796 3.639267
0.235832 3.523054
0.313416 3.465772
0.502123 3.472163
0.659407 3.706586
0.374536 3.861496
0.445424 3.314548
0.610711 3.808541
0.074494 3.647554
0.489652 3.002339
0.554540 3.323769
0.511790 3.323958
0.806101 3.585817
0.447048 3.188141
0.588472 3.293933
0.582427 3.664571
0.493314 3.297640
0.429882 3.346443
0.249568 3.347659
0.764288 3.543768
0.311846 3.369919
0.632756 3.426291
0.320369 3.693731
0.157678 3.343219
0.605919 3.657308
0.494264 3.143863
0.506786 3.801137
0.447420 3.826994
0.356896 3.453839
0.660416 3.457584
0.467790 3.500796
0.380622 3.801778
0.722643 3.444094
0.659483 3.278038
0.801713 3.419711
0.754798 3.723689
1.059269 3.446377
0.530679 3.666994
0.835926 3.269114
0.763097 3.673086
0.709972 3.398571
0.905725 3.372330
0.802528 3.629916
0.533448 3.031398
0.874660 3.674077
0.563411 3.228505
1.084945 3.435123
0.431640 3.118799
0.924688 3.326221
0.974251 3.616466
0.841606 3.375212
0.607720 3.091722
0.810962 3.438482
0.852883 3.587045
0.967702 3.116428
0.881278 3.080927
0.748624 3.300512
1.512069 3.311981
0.892912 3.828070
1.066270 3.133732
0.499812 3.622542
0.890629 3.424929
1.030037 3.554255
0.798880 3.161778
0.574809 3.193110
1.098488 3.534853
1.059687 3.592697
1.032341 3.255996
0.836533 3.518195
0.832559 3.750280
0.994413 3.493112
1.047177 3.180262
1.137711 3.316136
1.024432 3.988585
0.901535 3.190705
1.333163 3.576483
0.801222 3.345465
1.271813 3.235042
0.745517 3.640566
1.090400 3.206868
1.433452 2.953547
0.941081 3.618198
1.062935 3.340722
1.076853 3.748912
0.974808 3.066357
0.954442 3.391561
0.765482 3.296526
1.220825 3.524589
1.259760 3.013317
1.258909 3.471252
1.086456 3.649110
1.082849 3.619004
1.424729 3.354783
1.061921 3.543684
0.804729 3.441488
1.432352 3.173035
1.300044 3.573629
1.091918 2.979610
1.431732 3.142865
1.426602 3.466115
1.492306 3.381400
1.103707 3.076731
1.440831 3.167950
1.400748 3.440762
1.374209 3.164732
1.378509 3.457599
1.010011 3.097921
1.418656 3.495292
1.336234 2.957396
1.137581 3.401309
1.489138 3.249379
1.174940 3.443775
1.223956 3.065487
1.339898 3.311038
1.454431 3.291305
1.211555 3.333194
1.235883 3.024918
1.465608 3.267096
1.466362 3.144608
1.329608 3.117579
1.539647 3.295276
1.509313 3.104208
1.470110 3.014613
1.498687 3.320168
1.621257 3.278275
1.534164 3.047067
1.343404 3.401439
1.558288 3.418251
1.283337 3.002693
1.376740 3.075566
1.479897 3.281707
1.404846 2.751967
1.865072 3.100407
1.486331 3.286613
1.654982 3.110340
1.906338 3.063523
1.413075 3.226741
1.544500 3.212458
1.737531 3.147324
1.640920 2.939064
1.460620 3.111538
1.824219 3.171549
1.729825 3.284935
1.430407 3.068676
1.601540 3.038740
1.319146 3.348220
1.570846 3.114689
1.669304 3.084622
1.389050 2.926858
1.506886 3.257313
1.705603 3.098636
1.800659 2.996612
1.578226 3.133755
1.538165 3.267954
1.811110 3.023971
2.080540 3.025055
1.798348 3.288202
1.591960 3.089537
1.851516 3.133025
1.928239 3.124849
1.829078 3.185473
1.467903 3.150428
1.921529 3.016731
1.555872 2.959975
1.873362 2.924740
1.589475 3.046546
1.935691 2.661617
1.612334 3.228152
2.005404 2.973500
1.818142 2.975949
1.779551 2.693897
1.849289 3.151710
1.795287 3.007251
2.009188 2.663863
2.051719 2.931308
1.841633 3.088421
2.282065 2.977686
2.019284 3.022204
1.951625 3.051868
1.649558 3.046498
2.141604 3.009987
1.720255 2.961799
2.117048 2.747203
2.047506 3.039284
2.095580 2.875700
1.938638 3.052409
1.995625 2.757352
2.227326 3.103450
1.814295 2.896384
2.257046 2.904610
1.916506 2.858131
2.233560 2.639950
2.000033 2.995133
2.182277 2.734006
1.882249 2.765464
1.981269 2.948112
2.099317 2.757267
2.127296 2.215447
2.129929 2.915640
1.988871 2.891726
2.220563 2.656729
2.210806 2.832779
1.902208 2.855979
2.208725 3.118982
2.167292 2.894708
2.127346 2.805380
1.861992 2.747864
2.206589 3.037917
2.221023 3.063750
2.238793 2.832268
2.148677 2.796357
2.169318 2.962260
2.225828 3.073538
2.170698 2.576252
2.122780 2.722426
2.153542 2.711021
2.340783 2.934376
2.321620 2.598964
2.526698 2.200633
2.110361 3.104215
2.471225 2.399506
2.511875 2.672820
2.373896 2.978178
2.065088 2.783110
2.649837 2.532538
2.282491 2.701815
2.330470 3.220730
2.197915 2.674480
1.992644 2.621851
2.139637 3.007169
2.304163 2.892631
2.268249 2.645558
1.952865 2.584367
2.310777 2.501121
2.440397 2.776834
2.377941 2.875306
2.203953 2.353544
2.490502 2.740776
2.632149 2.737350
2.341280 2.675846
2.410171 2.204181
2.603096 2.486710
2.352836 2.780833
2.550194 2.477558
2.821348 2.405584
2.502500 2.681620
2.156848 2.573064
2.554193 2.664086
2.615956 2.177331
2.095543 2.919383
2.134849 2.673797
2.597677 2.461615
2.414166 2.379780
2.367020 2.525681
2.334478 2.816486
2.312248 2.410727
2.586786 2.461816
2.275321 2.826379
2.438799 2.488893
2.884533 2.372544
2.357503 2.606357
2.597195 2.443390
2.735938 2.547616
2.412197 2.743619
2.631614 2.384358
2.745845 2.603728
2.727405 2.297652
2.569258 2.612098
2.694937 2.284754
2.896245 2.572131
2.163633 2.416010
3.059999 2.671928
2.564633 2.547669
2.399674 2.226227
2.460405 2.434142
2.721999 2.116227
2.491814 2.247550
2.772044 2.739049
2.450482 2.425900
2.554542 2.297751
2.584313 2.353037
2.616809 2.360226
2.618566 2.352907
2.455887 2.141998
2.760776 2.424851
2.898500 2.486716
2.878712 2.265701
2.877040 2.236337
2.822110 2.392348
2.678906 2.399992
2.837833 2.345651
2.846698 2.111368
2.538814 2.497338
2.860148 2.097526
2.820231 2.246564
2.600213 2.112487
2.635883 1.938583
2.306488 2.201371
2.947805 2.396389
3.109108 1.938179
2.450683 2.564008
2.304732 2.231997
2.880717 2.238211
2.844908 1.932443
2.368255 2.437151
2.862004 2.268558
2.734414 2.443356
2.837337 1.880828
3.099934 2.126684
2.826551 2.215591
2.628240 2.182379
2.964360 2.220004
3.161199 2.179220
2.703170 2.168639
2.791492 2.299857
2.812953 2.147399
2.858069 1.851694
2.736145 2.028261
2.492218 1.966082
3.026463 2.195749
3.204890 1.794489
3.223115 2.123417
2.470887 2.182244
3.197307 2.241262
2.670140 1.967959
2.567359 2.046382
3.079825 1.957429
2.988331 1.978610
2.922896 2.112439
2.831246 1.973189
3.078689 1.647711
2.870815 1.946489
2.908748 2.500047
2.949495 1.878174
3.239991 1.800805
2.846409 2.205756
3.117740 2.007467
2.768001 2.004380
3.037021 1.748668
2.828536 1.974714
3.090361 1.857695
3.068370 2.001065
3.190187 1.557236
3.112454 1.694376
3.054267 2.073049
2.849768 1.926100
2.856981 1.910111
3.031784 1.830762
2.754113 1.699791
3.176112 1.845659
3.128817 2.014108
2.743320 1.748894
2.690573 1.828456
3.043544 2.133909
3.119214 1.813558
3.131205 1.619966
2.985219 2.163839
3.031954 1.871174
3.051218 1.518176
3.018568 1.877359
2.949420 1.860936
3.162870 1.673645
3.236106 1.596901
3.361840 1.638402
3.162772 1.592414
3.065754 2.042623
3.155265 1.622701
3.246018 2.097489
2.746628 1.863222
2.884370 1.509220
3.333204 1.686457
3.329043 1.508551
2.984505 1.634624
3.044695 2.038066
3.194054 1.795661
3.156744 1.618076
2.965078 1.455258
3.262396 1.490649
3.474117 1.805477
2.804986 1.279369
3.068012 1.691424
3.398867 1.332082
3.322552 1.694230
3.012515 1.472179
3.512115 1.457963
3.167836 1.204352
3.311082 1.767945
3.240431 1.633955
3.227486 1.856092
3.026065 1.636259
3.019932 1.386818
3.003762 1.537542
3.182690 1.230507
3.002369 1.401823
3.156637 1.336420
3.459841 1.508233
3.013259 1.795386
3.120428 1.322295
3.193491 1.182670
3.410188 1.364672
2.912601 1.452793
3.375846 1.753784
3.208975 1.196246
3.335010 1.233216
3.023799 1.553300
3.491885 1.307901
3.360803 0.907906
3.091315 1.462978
3.339732 1.440643
3.336080 1.433975
3.179534 1.556929
3.128026 1.479048
2.654213 1.101606
3.099942 1.310983
3.221242 1.336207
3.078765 1.423416
2.972605 1.141539
3.537804 1.521810
3.395985 1.585397
3.141281 1.481141
3.023662 0.870666
3.368091 1.594170
3.681417 0.979107
3.537299 1.552374
3.358995 1.100065
3.398688 1.280854
3.456305 0.910106
3.591510 1.186020
2.875520 0.908166
3.828350 1.385432
3.226526 0.888827
3.290282 1.503674
3.294793 1.131169
3.242217 1.200259
2.980363 1.305458
3.088742 1.271450
3.403781 0.992479
3.114128 1.330714
3.618018 1.211628
3.267572 1.090962
3.529503 1.060683
2.994895 0.906741
3.877145 1.385215
3.074930 0.523176
3.679879 0.624742
3.643558 1.238407
3.762991 1.112437
2.991750 0.605440
3.658670 0.849164
3.031073 1.261748
3.758709 1.010600
3.179664 0.847050
3.521595 1.263800
2.842727 1.251422
3.799095 0.939255
2.884213 1.031233
3.355277 1.319660
3.042972 0.548504
3.589972 0.906406
3.540859 1.089615
3.375961 0.553694
3.353959 0.884958
3.253483 0.717409
3.400783 0.890370
3.426052 0.327888
3.370662 0.471356
3.540067 0.927854
3.604950 0.783391
3.497013 0.525239
3.273007 0.941590
3.732547 1.254834
2.830226 0.860210
3.591081 0.776369
3.496525 0.760546
3.201327 1.336618
3.329583 0.700716
3.322910 0.835940
3.291115 1.185147
3.163843 0.447632
3.054182 0.872471
3.681197 0.667886
3.070181 0.419311
3.663179 0.807945
3.142565 0.743630
3.308325 0.564644
3.591263 0.278603
3.356285 0.659102
3.712112 0.636249
3.490217 0.393739
3.680273 0.609919
3.489165 0.838681
3.753201 0.487295
3.269195 0.601135
3.423257 1.042520
3.317066 0.312208
3.319112 0.831726
3.216762 0.280558
3.513604 0.966599
3.385923 0.843609
2.816028 0.330435
3.324887 0.837680
3.619510 0.558575
2.956334 0.705739
3.504880 0.386670
3.722450 0.653676
3.368781 0.464785
3.296237 0.271424
3.762476 0.419687
3.837703 -0.020689
3.625178 0.415017
3.914004 0.578698
3.702394 0.356290
3.809120 0.403777
3.094382 0.344748
3.656742 1.015653
3.160438 0.173804
3.422302 0.550325
3.140249 0.554140
3.356663 0.438574
3.524379 0.383422
3.569413 0.273236
3.054715 0.913780
3.573576 0.397919
2.989222 0.579431
3.719783 -0.044202
3.242881 0.454297
3.527191 -0.309291
2.860160 0.464016
4.188070 -0.206065
2.830631 -0.111911
3.492762 0.259418
3.850242 0.026537
3.916660 0.238996
3.221282 0.631838
2.958690 -0.029779
3.590427 0.732486
3.595977 0.281946
3.157996 0.482866
3.468514 0.277358
3.458893 0.238801
3.537627 -0.069082
3.274408 0.045318
3.750486 -0.151689
3.417519 0.344760
3.531327 0.138775
3.494541 0.551610
2.765344 -0.359155
3.225877 -0.800777
2.918140 0.418137
3.791854 0.088421
2.584393 -0.621853
3.619970 0.221771
3.610938 0.157904
4.211860 -0.082677
3.173112 0.147167
3.725538 0.722405
3.078751 0.273704
3.427572 0.094121
3.502311 0.221717
4.066264 -0.493010
3.177884 0.191572
3.472710 -0.372352
3.054855 -0.204028
3.720969 -0.610399
3.304135 0.184911
3.358124 0.084750
3.754103 0.049565
3.098396 0.117484
2.782038 -0.363261
2.627211 0.004816
3.253525 -0.201305
3.890108 -0.731471
3.515074 0.247361
4.068062 -0.123343
3.478695 -0.534507
3.939172 -0.559565
3.976520 0.292835
3.339857 0.020828
2.687059 0.211200
3.940659 -0.119000
3.126425 -1.088356
3.517468 -0.571995
3.127465 -0.284354
3.250708 0.046778
3.014884 -0.483727
3.290831 -0.218986
4.102338 0.143379
3.687729 -0.092285
3.843840 0.042439
3.068729 0.363236
2.955111 -0.476296
2.873597 0.575233
3.567119 -0.863904
3.695650 -0.791867
4.301187 -0.941369
3.799278 -0.196138
3.058676 -0.181317
3.210365 -0.312490
3.242168 -0.474779
2.868236 0.315439
3.727737 0.633097
2.549925 -0.741779
2.627746 -1.446159
3.259756 -0.673030
4.065766 0.271991
2.874652 -0.449130
3.608514 0.436196
4.049937 -1.010904
3.772998 -0.716509
3.902869 -0.678039
4.339865 0.197771
2.054100 -0.775716
2.906588 0.458396
2.979843 -0.514295
3.625579 -1.421280
3.146831 -1.320834
3.454166 -1.307258
3.311919 -0.038486
3.445407 0.015564
3.228001 0.539848
2.026366 -0.236046
3.459715 -0.215436
5.035372 -1.054203
2.117268 -0.844083
2.739462 -0.809825
3.495899 -1.436385
4.423367 -0.788476
4.408002 0.001310
4.151453 -0.496254
2.684533 -1.666433
3.028715 -1.025349
4.876005 -0.580170
2.802230 -0.438535
1.278689 1.094495
4.102489 0.862982
2.605168 -1.374773
2.611004 -1.334433
3.130758 -1.354277
3.421665 -0.523435
3.931426 0.594077
3.634561 -0.179369
3.868859 0.730887
1.812541 -0.066601
4.227503 -2.112688
1.411254 -2.009048
4.238561 -2.006444
1.642755 -1.156699
4.380233 0.484508
2.482413 -1.710257
5.621001 -1.702573
3.079738 -1.570219
2.240695 2.043092
2.889511 -0.951419
3.520977 -1.899417
2.610590 2.050466
5.554208 1.932555
2.818846 -0.133108
0.946268 -1.753973
3.148098 -1.495285
3.355869 -2.954762
2.752088 0.893556
4.550148 -0.051769
4.519756 -2.012790
1.557338 0.637088
1.752707 -0.641875
1.925634 -2.884201
0.316105 -2.016334
2.155619 -1.498034
4.452863 0.545484
4.858174 -0.457701
3.509860 0.290206
2.690041 -3.149846
3.492200 1.080961
4.344458 -0.170607
3.325688 0.808063
2.909651 0.908524
4.089610 -0.856184
5.607222 -0.800208
2.202409 -0.235711
-2.138169 0.933656
0.993027 -5.332991
-1.812233 -1.580403
8.621000 1.315546
0.640187 -2.520798
2.796979 -0.557598
-1.105078 0.860507
3.874217 -2.649626
-1.449805 0.330890
1.285887 -1.493065
4.226741 -0.418825
8.257737 -4.001831
5.149103 0.729955
5.023532 -2.156749
1.316186 -1.799207
2.005035 -0.024475
3.592407 -0.684337
7.522215 -2.968215
1.341021 2.575931
3.750404 -1.045918
-0.911900 -2.928493
1.564932 2.620321
-1.008492 -1.240153
-6.845379 4.419680
6.333313 -0.877152
2.286715 -5.575570
7.167876 -1.270488
0.416685 2.858838
0.348573 1.038828
-0.958597 -8.062089
4.960925 4.558550
5.630689 -5.790479
2.319064 -4.725573
5.635719 -6.219323
11.089702 -3.796644
-3.691814 -1.691950
-0.208312 4.135254
-3.014602 6.454570
8.600449 -9.581361
-0.784814 3.358140
8.725511 2.720959
-3.586475 3.893184
0.186576 5.648207
-5.096393 6.814884
-2.588416 -0.144560
2.662789 5.343386
6.270169 -5.531265
-3.507808 -7.315458
3.256063 -15.487373
5.420301 5.536165
-8.056138 -5.907623
0.036640 10.730444
1.990674 -23.960150
-4.843008 -5.048872
12.272211 -3.121181
-2.742730 -3.852633
-0.928437 -2.936918
-7.473307 0.662005
19.726258 35.144833
-0.647341 -1.861260
-9.452590 -3.033689
21.372113 -0.962191
5.730101 -5.622180
0.456574 25.827958
-2.379834 21.298669
-7.467259 -2.808492
-31.629124 -1.490906
15.295908 -13.213131
-20.450053 -22.862339
-13.835311 -31.913988
-25.022690 -1.376307
-12.904662 7.677305
-1.886956 14.034187
23.985865 -21.717429
-56.583199 25.736370
24.622028 -29.000368
-19.380769 3.335649
66.155485 -0.108828
-75.618291 56.785711
66.796848 16.122138
43.608888 0.126150
-1.379101 -7.719142
51.020375 7.956506
-128.512974 -83.999740
-9.860826 19.479127
78.697515 78.296240
36.035247 122.187647
-435.105800 84.194834
-209.155672 64.053916
-15.787513 -345.546482
-444.485548 -54.145480
-155.420154 -49.677299
0.994058 407.507889
44.377462 215.928081
389.355353 -209.858631
46.728805 -80.987474
-8.211509 -186.208458
-487.150691 78.119047
-567.735975 215.578024
