11414.074463 11691.149744
60.873403 5.940868
5.073793 11.314609
-1319.021378 -570.569513
8.030087 10.589797
2.839591 -2.065460
9.521924 -5.124184
55.834577 416.059841
2.444425 1.691516
-3.559702 5.333631
1.255908 -5.558373
109.871755 99.584141
6.930208 4.919668
2.235288 -0.774235
9.957382 -5.529434
-61.419462 58.976465
0.165995 2.934350
-0.890149 -2.719414
1.707764 -5.371437
10.482219 39.303343
1.997687 1.343118
1.290147 0.944012
-0.663660 1.028740
22.171985 -20.313639
2.816253 -3.282128
1.622996 -0.740917
0.372809 -3.909930
10.289570 14.399340
2.419913 0.048256
-1.348191 0.527657
-3.215280 -4.597654
23.116090 14.030381
3.231311 0.371441
0.192859 -0.092742
0.592586 -0.492259
-1.253740 -3.673523
-0.621075 -1.202960
-0.357456 -1.383558
-0.157070 -2.366586
0.528118 2.005644
-0.261218 -0.754066
-0.118427 0.158448
-3.434488 0.877528
11.314118 -8.328933
1.487463 -2.792342
0.812541 0.040858
-1.238109 -0.062924
2.492181 -3.710756
0.127796 -0.867002
-1.130911 -0.142234
-2.090453 -1.752677
4.130608 3.132459
0.620709 0.199358
-0.007100 0.661883
-1.259661 1.385446
0.124295 -4.955360
-0.825860 -1.275226
-0.258995 -0.814654
0.489196 0.752018
-3.443507 -2.881931
-1.651986 -1.073884
-0.469759 0.001388
-2.351089 1.330812
3.076079 -2.425700
0.516361 -1.151802
0.257875 0.554831
-0.786417 1.989632
0.152716 -3.072551
-0.210188 -0.605460
-0.229109 -0.591507
-0.252008 -0.158060
-2.004886 1.985604
-0.198098 0.900691
-0.226860 0.506040
-0.383270 1.137272
-0.759890 -1.005947
-0.731865 0.170469
0.351852 -0.248563
1.420119 1.452075
-3.144808 -1.895652
-1.062191 -0.169109
0.410176 0.104129
-0.004731 0.279976
-0.043053 0.533538
0.183707 0.300988
0.054215 0.379953
0.045573 1.196882
0.233811 -0.208951
0.059472 -0.006364
0.272872 -0.103136
1.791777 0.167378
-2.044479 1.152253
-0.375367 1.294705
-0.305743 0.013295
0.307952 0.192246
-0.712099 0.923278
0.225086 0.770205
0.560225 -0.190066
1.319599 1.270145
-0.544599 -0.862445
-0.315910 -0.388927
-0.063160 -0.162141
1.000366 -0.261619
-0.182907 1.035765
0.405455 0.682120
0.173765 0.300190
-0.065823 -0.079752
1.130136 0.993305
0.658673 0.575932
0.144496 -0.154457
1.347102 0.093890
-0.855416 0.881710
-0.432128 0.775852
-0.475810 -0.122141
0.283580 -0.770724
-0.561619 0.868321
-0.102041 0.326160
0.008162 -0.052621
0.072501 0.555567
0.215112 -0.213619
-0.031525 -1.290261
0.462286 -0.445793
0.360770 -0.469668
-0.436611 -0.152595
0.311593 -0.063025
-0.201261 0.265709
-0.660862 -1.043814
0.737003 0.426764
0.928633 -0.158345
0.266575 0.134482
-0.082526 -0.109139
0.030681 0.111281
0.331618 -0.082538
-0.280221 0.010565
0.121684 -0.754367
-0.011964 -0.219207
-0.216519 -0.168985
0.077600 -0.014554
-0.899431 -0.174172
0.365048 0.083635
0.423007 -0.320617
0.105787 -0.104065
-0.209408 0.303258
0.285936 -0.429785
0.048153 -0.534087
-0.206680 0.164646
-0.550201 -0.831150
0.143615 0.248889
0.485416 0.040878
0.001087 0.497122
-0.591618 -0.018493
-0.060102 0.206080
-0.381426 -0.245188
0.239243 -0.352563
0.054614 0.166965
-0.174080 -0.154323
-0.258076 -0.204639
-0.313801 0.202773
-0.472637 -0.211842
0.205962 -0.066294
-0.154383 -0.193208
0.272000 0.080187
-0.210986 0.762782
0.082891 -0.054621
0.117657 -0.336363
0.088925 -0.021164
-0.441315 -0.254131
0.127145 -0.108423
-0.157395 0.156658
0.322838 0.190160
-0.278181 0.512407
0.024854 0.029795
-0.215805 0.333149
0.075669 -0.358806
0.071679 0.490929
-0.155308 0.078194
-0.443682 -0.276989
-0.011479 -0.145688
0.184008 -0.170444
-0.018857 -0.012618
0.026459 0.053384
0.082135 0.226123
-0.266167 0.373201
0.212661 0.205283
0.140546 -0.179670
0.271486 -0.068361
0.276700 0.269500
0.028873 0.085607
-0.014783 0.012860
-0.054890 0.240262
-0.076384 -0.333827
0.308230 0.240664
-0.036489 0.227115
-0.098333 -0.081687
0.314397 0.383162
-0.168580 -0.093224
-0.372634 0.077785
0.028073 -0.267784
0.316917 -0.162236
-0.112474 -0.115903
0.337565 -0.229271
0.290050 0.091667
-0.231140 0.077122
0.080612 0.158383
0.136459 0.445811
-0.286717 -0.285619
0.584922 0.050810
0.006206 -0.165717
-0.097824 -0.094308
-0.196640 0.240066
0.107034 -0.132588
-0.052860 -0.314643
0.249681 0.171674
-0.058774 0.004251
-0.041725 0.036169
-0.002796 0.063616
-0.254484 0.369416
-0.066021 -0.160321
0.007636 -0.045004
0.136643 -0.020008
0.384495 -0.582072
-0.245492 -0.043375
-0.198018 -0.233657
-0.309233 0.062090
0.190349 -0.049949
0.207929 0.155356
-0.130670 0.177382
-0.086842 -0.291263
-0.197009 0.211325
-0.430539 -0.271424
0.330245 -0.341080
0.000042 -0.038805
-0.007060 0.010787
-0.092041 0.000237
-0.480519 0.051103
0.034574 0.019442
0.285817 -0.097672
-0.130366 0.116824
-0.168236 0.498421
-0.256689 -0.080629
0.081296 -0.243051
-0.135885 -0.026079
0.034067 -0.507159
-0.531532 -0.155486
0.200791 0.000481
0.384396 0.149843
0.265902 -0.132253
0.003287 0.240882
0.109028 -0.277408
-0.142721 0.181745
-0.294903 0.067243
0.203030 0.136990
-0.116840 0.116709
-0.426168 0.206493
-0.248036 -0.271614
-0.087108 0.277876
-0.271603 -0.156246
0.310385 0.027140
-0.007491 0.232208
-0.144974 0.063077
-0.067746 -0.344859
0.102831 0.050489
-0.148076 0.065439
-0.379205 0.125920
0.364154 0.132548
0.165152 -0.164119
-0.115794 -0.347277
0.226770 0.166951
-0.102121 0.064731
0.151369 0.140156
0.292474 0.338982
0.233751 0.051149
-0.310635 0.023445
-0.265939 -0.068682
-0.150006 -0.115017
-0.097423 0.230467
-0.207626 -0.133261
0.098778 0.152287
-0.114539 -0.185486
-0.044766 -0.211310
0.009762 -0.023222
-0.034897 -0.016860
0.302649 0.180226
0.060447 0.066121
0.089407 -0.267951
0.193048 -0.208651
-0.159770 0.293771
-0.153021 0.189508
-0.368012 0.226143
-0.239890 -0.043664
0.111869 -0.031996
0.464226 -0.144385
0.131010 0.180900
-0.301044 -0.016419
-0.036936 -0.128712
0.355415 -0.114233
0.196288 0.209739
0.158568 -0.177613
-0.050853 -0.148239
-0.378477 0.261313
-0.378643 -0.222120
-0.034799 -0.338803
-0.281985 0.134076
-0.141890 -0.015688
0.183972 -0.273051
0.020818 0.060804
-0.147753 0.251830
0.278364 -0.149462
0.277416 0.116359
-0.070687 0.199170
-0.011153 -0.364338
0.216890 0.101688
-0.383241 0.426439
-0.246479 -0.360958
-0.180305 0.163064
0.049261 -0.015233
-0.119643 0.043467
-0.044562 -0.043408
-0.018694 -0.207226
0.039963 -0.071684
0.182724 -0.261034
0.433670 -0.081823
-0.263422 0.244433
-0.120032 0.051064
0.015028 -0.003515
-0.299898 0.540127
-0.225993 0.191296
0.522048 -0.267305
-0.140545 -0.196675
-0.054565 -0.135002
-0.082645 -0.004721
-0.338324 0.089461
-0.091442 0.021673
0.135609 -0.530641
0.113945 -0.184655
-0.020754 0.156774
-0.102237 0.339874
0.246135 0.585047
0.133939 0.153773
-0.165292 -0.211216
0.248052 0.141630
-0.154056 -0.036003
-0.115140 0.392351
-0.104028 0.189104
0.151832 -0.249450
-0.532393 -0.081308
-0.104479 0.056959
-0.072356 0.040976
0.118645 -0.209090
0.043013 0.342038
0.476638 -0.154122
-0.251577 -0.154498
-0.106906 -0.007257
-0.073684 0.022205
0.143443 0.134606
-0.118293 0.052531
-0.371289 -0.332116
-0.151167 0.045056
0.107699 0.361865
-0.093997 0.144461
0.251570 -0.215766
0.011097 -0.308074
-0.087086 -0.226021
0.278621 0.334937
-0.183716 -0.350996
-0.231430 0.150838
-0.191641 -0.058548
-0.089077 0.045173
-0.257045 -0.129292
0.111442 0.837754
0.329210 0.095289
0.021189 0.215861
-0.053964 -0.201123
0.312052 0.097775
-0.132572 -0.271141
0.157669 -0.308944
-0.200200 -0.027509
0.078037 -0.092121
-0.043729 -0.097761
-0.505011 -0.003953
0.116323 0.126650
0.024407 -0.005790
-0.067009 -0.318965
-0.051351 0.281852
-0.257815 0.170003
-0.161534 -0.244983
0.051794 0.045393
-0.063747 0.118253
-0.107032 0.310056
-0.500085 0.181715
-0.228684 -0.048724
0.195722 0.230791
0.023700 0.057335
0.046500 0.340865
0.050198 -0.018800
0.163345 -0.230372
0.155633 0.516978
0.046818 0.328289
-0.245484 -0.205379
0.046157 -0.122578
0.100553 -0.108720
0.699723 0.091789
-0.158614 0.011573
0.310075 -0.026659
0.331767 0.057070
0.709191 0.128593
-0.204168 -0.207245
-0.182207 0.072325
0.053985 -0.414104
0.085434 -0.405521
-0.092709 0.001737
-0.302434 -0.093023
0.205390 -0.235693
0.052607 -0.699428
-0.123497 0.176016
-0.233149 -0.001254
-0.112978 -0.274714
-0.248295 -0.550660
0.062966 0.568984
0.036689 -0.233302
-0.314318 -0.048590
-0.207639 -0.074981
0.016856 -0.022839
0.209870 0.330829
-0.030166 -0.366622
-0.513647 0.614525
0.664403 -0.024609
-0.309972 0.255184
-0.127876 -0.069945
-0.470943 0.302195
-0.042910 -0.149491
0.030686 0.044314
0.249235 0.208716
-0.095968 -0.039068
0.083713 -0.086237
-0.388147 0.117566
-0.092355 -0.218430
0.059170 0.170316
0.272886 0.199847
0.225624 0.110789
-0.126701 0.659381
0.269582 0.109596
-0.073127 -0.184715
-0.035387 -0.167051
0.446646 0.167070
0.027435 0.015503
-0.053735 0.213276
-0.219374 0.471508
0.104010 -0.271578
-0.065642 0.106756
0.005802 -0.085762
0.080589 0.170472
-0.067278 0.017525
0.044686 0.196149
-0.330563 -0.012673
-0.145691 0.001876
0.204453 -0.115387
-0.169533 0.124831
-0.014356 0.000713
0.090757 0.293949
-0.147173 0.367587
-0.048351 -0.239530
-0.039411 -0.057650
-0.083608 -0.327811
0.389974 -0.334337
-0.079620 0.223682
-0.179493 -0.068903
-0.093869 -0.133637
0.216499 -0.109124
-0.167189 -0.438747
0.435582 0.143086
0.083139 -0.055809
0.017404 0.073049
-0.167895 0.068720
-0.182332 0.137461
-0.205009 -0.122215
0.215697 -0.113694
0.310628 0.099015
-0.054639 0.239455
0.274324 0.052862
0.086479 -0.192438
0.106059 -0.111816
-0.174778 -0.158086
-0.104533 -0.318301
0.070196 -0.085261
0.074903 0.270656
-0.305593 -0.246231
0.002368 0.198810
-0.123750 -0.015107
-0.265391 0.228270
-0.187004 0.219597
0.150411 -0.116364
0.032373 -0.247949
-0.094772 0.049876
-0.212300 -0.244106
0.084702 0.099289
0.238430 0.313868
-0.254718 -0.137924
-0.135919 0.222144
0.084009 -0.369829
-0.221829 -0.226083
0.252151 -0.208129
0.028294 -0.076200
0.436990 0.109067
0.060108 -0.343558
-0.159264 0.280876
0.165846 0.051891
-0.398801 0.172720
-0.146553 -0.008452
-0.084254 -0.042778
0.125800 -0.254305
-0.017564 0.124212
-0.141742 -0.290009
-0.400351 0.201826
0.194337 -0.025776
-0.028637 0.037874
0.136200 0.134450
0.076289 -0.220331
-0.131289 0.385464
0.237490 -0.473746
0.196664 0.001001
-0.177880 0.122950
0.558685 0.340438
-0.391970 0.189199
0.118122 -0.241055
0.240470 0.165305
0.265327 -0.383265
0.038671 0.242555
-0.123104 -0.244390
0.010547 -0.109430
0.136563 0.005276
-0.151929 -0.149827
0.239353 0.179825
-0.375663 -0.046196
-0.199757 0.453866
0.099085 -0.181644
-0.311483 0.310951
0.519409 0.217699
0.186188 -0.038134
0.176406 -0.071540
0.061670 -0.125978
-0.013889 -0.155233
-0.002700 0.095887
0.235376 -0.102425
0.341914 0.101511
-0.488042 0.120180
-0.118802 -0.076735
-0.018645 -0.013357
-0.325557 -0.041710
0.393293 0.133669
0.068572 0.247880
-0.029835 -0.059363
-0.146626 0.329109
-0.060768 -0.103931
0.330628 -0.165070
0.010886 0.330989
0.226699 -0.065619
-0.321267 -0.020618
-0.153657 -0.103146
-0.142527 -0.304612
-0.051623 -0.075971
0.196020 0.113025
-0.110391 -0.320162
0.016029 -0.174300
0.128009 -0.064921
-0.400533 0.143561
-0.102966 -0.099446
-0.404400 0.189622
-0.171296 0.255628
0.074707 0.020769
-0.244406 0.216307
-0.099674 -0.428242
-0.091285 0.505501
-0.120505 -0.195927
0.110498 -0.386449
0.188201 -0.228132
0.204241 -0.619766
-0.064948 0.231667
0.254960 -0.745752
-0.122455 0.014649
0.268117 -0.268720
-0.236477 -0.069577
-0.054476 -0.280911
0.112898 0.168508
0.185570 0.223657
0.186052 0.258493
0.092764 0.208961
-0.151216 0.074316
-0.052314 -0.194974
-0.229785 0.302801
-0.136540 -0.113393
0.184667 0.072249
0.058151 -0.304332
-0.607397 -0.018917
0.211795 -0.117168
-0.555271 -0.142605
0.098891 0.504206
0.376665 0.067814
-0.492670 0.038920
0.209108 0.246315
0.305649 -0.392703
-0.234849 0.265686
0.152644 -0.280138
0.163142 -0.346946
0.274829 0.198828
0.143899 -0.103575
-0.136565 -0.023768
0.003476 -0.210010
-0.374856 -0.137304
-0.719106 -0.456878
0.021179 -0.355278
-0.332479 -0.212494
0.339342 0.258693
-0.026817 -0.518476
0.474868 0.518772
0.076247 0.180166
-0.111563 0.368950
-0.125697 0.144948
0.053937 0.068939
0.175390 0.079866
0.578974 -0.166927
0.089143 -0.055914
0.197082 0.326315
-0.276391 0.022694
-0.064099 -0.010223
0.199855 -0.907589
-0.261270 -0.261785
0.271782 -0.099096
-0.263681 -0.415078
0.299344 -0.037281
-0.467110 0.098585
0.445139 0.106408
-0.490748 0.044285
0.345957 0.205038
-0.105215 -0.046873
-0.392024 0.140844
0.544511 0.241752
-0.063645 0.186071
0.382382 0.071289
-0.139257 0.236791
-0.001331 -0.240345
-0.118525 -0.123332
0.496573 -0.102047
-0.178748 0.053578
-0.020486 -0.139821
-0.203945 0.071857
-0.222196 0.210124
0.027970 -0.489849
0.129377 0.040505
-0.204014 0.039694
-0.041831 -0.084562
-0.257886 -0.049205
-0.032138 0.067737
-0.084460 -0.078171
-0.116394 -0.090704
0.292991 -0.178912
-0.110848 0.149834
-0.137593 0.062065
0.017934 0.405434
0.367718 -0.119503
-0.239491 0.403660
-0.369476 -0.705069
-0.096312 0.175108
-0.309717 0.330578
-0.235938 -0.023764
-0.515952 0.315108
0.155583 0.113737
0.081724 -0.307697
0.291327 -0.371613
-0.189296 -0.578336
0.022495 -0.328870
-0.134121 -0.241986
0.242473 -0.039199
-0.550136 -0.015253
0.022504 0.074637
-0.203181 0.013618
-0.030124 0.603965
0.019169 -0.275360
-0.065122 0.240270
-0.000920 -0.162116
-0.498963 -0.083735
-0.582787 -0.188850
0.116149 0.095066
0.102809 -0.310906
0.189202 -0.321551
-0.338869 0.060963
0.153469 0.039536
0.128243 -0.066419
0.474872 -0.499963
-0.292761 -0.100266
0.271938 -0.491574
-0.038714 -0.145296
0.057554 0.406311
0.268000 -0.234489
-0.078604 0.117626
0.520468 0.374223
0.176456 0.370358
-0.224884 -0.238260
-0.143466 -0.109778
0.116471 -0.097818
-0.493510 -0.043411
-0.236175 -0.103515
-0.184132 0.418689
-0.453802 -0.061557
-0.213400 0.274355
0.254540 0.035256
0.015096 0.162115
0.013775 -0.139316
-0.346165 0.158895
0.097418 -0.062043
-0.268223 -0.132125
0.366418 -0.482957
-0.012085 -0.459034
0.239946 0.125384
0.233175 -0.141850
0.220340 -0.032173
-0.395803 -0.201823
-0.378725 0.082947
-0.129971 -0.577620
0.259135 -0.241789
-0.074250 -0.158087
0.198266 -0.053747
0.128903 0.073242
0.173694 0.060566
-0.452760 0.027129
-0.505462 0.290044
0.243390 0.106720
-0.240950 0.111121
-0.148784 -0.212177
-0.087785 0.090210
0.825651 0.678102
-0.196512 -0.169070
0.121644 -0.030061
0.068997 -0.030920
-0.087658 0.082581
0.275546 -0.383119
0.005427 -0.302477
0.123435 -0.618384
-0.231350 -0.074387
-0.037041 0.010317
-0.510215 -0.103530
0.381919 0.515758
-0.433765 0.037248
-0.165128 0.460906
-0.361824 0.090855
0.144760 0.050071
0.125454 0.256020
0.064298 -0.275653
-0.146668 0.127133
-0.128951 -0.043854
-0.025964 0.457257
-0.201764 -0.701466
-0.357991 0.043462
-0.195729 0.184656
-0.166194 -0.008723
0.203177 0.350166
0.006442 -0.333771
0.344081 0.396512
-0.344996 0.200907
0.029249 -0.198169
-0.541138 -0.190521
-0.074098 -0.373299
-0.388057 -0.105016
0.247988 0.093672
0.037343 0.641802
0.075333 -0.221474
0.067525 0.083872
-0.556929 -0.073307
-0.239484 0.375459
-0.335640 -0.051828
0.247756 -0.367281
0.046141 -0.177100
-0.477471 -0.094087
0.405194 0.004217
-0.049331 -0.088470
-0.046519 -0.351732
-0.508793 0.532344
-0.110784 -0.495576
-0.156080 0.043746
-0.644196 -0.277317
-0.280696 0.314376
-0.087230 0.117071
0.745531 -0.321499
-0.023929 0.327386
0.407200 -0.119191
-0.038097 0.029107
0.126781 -0.237062
-0.253167 -0.045511
-0.280963 0.073391
0.389657 -0.409216
0.205380 -0.073535
-0.195375 0.231529
-0.252003 -0.523812
-0.235593 0.122974
0.147938 -0.422560
0.277960 0.160405
-0.523599 -0.594735
-0.574424 0.168184
-0.006166 -0.580078
0.390674 -0.268732
0.191176 -0.054645
0.145121 0.008920
-0.436906 0.577073
0.501501 -0.169675
-0.123797 0.187345
-0.361219 0.197713
0.006118 -0.315754
-0.541924 0.444904
0.292758 0.321338
-0.282512 0.327426
0.299950 0.346575
-0.234982 0.121620
-0.383939 0.236360
-0.096943 -0.066956
-0.348514 -0.180604
-0.557832 -0.172280
-0.237117 -0.047551
0.465512 0.198034
0.117361 0.359705
-0.169779 0.104937
-0.025485 -0.594267
-0.466122 0.011513
0.123939 0.107736
0.081345 -0.397430
0.139919 -0.117929
0.709613 0.417129
-0.242597 -0.058848
0.244963 0.599945
0.010616 -0.800890
0.173705 0.215124
0.009410 -0.350809
0.218019 0.004858
-0.307559 0.348124
0.205288 -0.616905
0.593134 0.075451
-0.162224 0.002519
-0.003582 0.598206
0.056896 0.023651
-0.130404 -0.385836
-0.357007 -0.136282
-0.219773 -0.001856
0.292221 0.106231
-0.254784 -0.308534
-0.807614 0.055402
-0.026450 0.245203
-0.254402 0.150396
0.254748 0.350498
-0.667480 -0.242089
0.277312 -0.061471
-0.218110 0.106601
0.003165 -0.280799
-0.144805 0.647350
0.354810 0.024666
0.406489 0.527911
-0.122706 0.067447
-0.164215 -0.040957
-0.512647 -0.006797
-0.035911 -0.015892
-0.252825 0.013299
-0.366803 -0.472578
-0.357907 -0.125794
-0.233145 0.338483
0.130939 0.321812
-0.262232 0.264534
0.075131 -0.063142
-0.163287 0.422379
-0.217466 -0.454816
0.176797 -0.265742
-0.397025 -0.503974
0.046936 0.067734
-0.330687 0.246028
0.237433 -0.080956
0.310955 0.613620
-0.332885 -0.171956
-0.366423 0.300478
-0.210745 -0.076824
-0.185835 0.145729
0.147274 -0.292775
0.263502 -0.096428
-0.447326 0.388502
-0.198348 -0.110264
-0.138031 0.062630
-0.011508 -0.388854
-0.323127 -0.087875
-0.300295 0.140627
0.211821 -0.059774
0.213169 0.356091
0.098283 -0.246551
0.050320 0.422022
0.272653 -0.274566
-0.000667 0.038701
0.168801 -0.164994
0.118498 -0.048539
-0.117844 -0.764684
0.314073 -0.085363
-0.281165 -0.041117
-0.179470 0.013188
-0.069961 -0.217763
-0.298648 0.516310
-0.538549 0.328901
0.135104 0.469730
-0.194473 -0.392311
0.144676 0.178813
0.032623 0.001790
-0.016107 -0.062041
0.856581 0.239988
-0.209186 0.015032
-0.294645 0.142160
-0.159822 -0.210593
0.378915 -0.044079
0.083585 -0.632804
0.000771 -0.023028
0.702523 0.090849
-0.062975 0.304697
0.323832 0.073240
-0.219034 0.062320
0.022001 0.320053
-0.520726 -0.055594
-0.013839 -0.231200
-0.555410 -0.031076
-0.155299 0.578913
-0.240266 -0.003300
-0.087945 0.172938
-0.559065 0.496108
0.054200 0.211972
-0.097555 -0.119651
-0.001062 0.007751
-0.266710 -0.632976
-0.043910 -0.135992
0.048755 0.110173
0.263894 0.079164
-0.019064 -0.364918
0.049591 0.024152
0.447112 -0.205962
-0.132325 0.120682
0.284956 -0.034625
0.086616 0.091426
-0.386690 -0.110849
-0.574468 0.114818
0.047237 0.175031
0.636572 0.376940
0.029290 -0.260333
-0.071850 0.591637
-0.152169 -0.143876
0.087396 0.069051
-0.294573 0.074577
-0.127037 -0.151632
-0.257088 0.057294
0.016205 0.142330
0.037192 0.342842
-0.345185 0.275475
0.269073 0.426265
0.276849 0.295297
0.127088 0.195442
0.006016 -0.074603
-0.359440 0.030201
0.127890 0.085290
-0.181709 -0.159935
-0.573972 0.314195
-0.071682 -0.124681
-0.277456 -0.139167
0.126266 -0.063288
-0.005979 0.153801
0.115801 -0.153801
0.161903 -0.259729
-0.131550 0.026994
-0.685841 0.056201
0.008163 0.605931
0.029116 0.039720
0.169707 0.489176
-0.017380 -0.281964
-0.106267 0.306504
-0.006464 -0.258856
0.014539 -0.054087
-0.624050 0.121345
-0.048639 -0.417857
0.209663 0.208068
0.072602 -0.294860
-0.204382 0.240956
0.137411 -0.149541
-0.043245 0.325955
0.415314 -0.284763
-0.273051 0.090751
0.530308 -0.059009
-0.416154 -0.289488
0.173171 -0.029903
-0.283074 -0.053058
0.210684 -0.095027
-0.509040 0.210047
-0.128229 -0.189819
0.137351 -0.331273
-0.223581 0.495768
0.183200 -0.332007
-0.111328 0.324616
0.008438 0.170670
-0.195971 -0.010817
-0.042381 -0.149162
0.428467 0.138153
0.306688 0.272029
0.452627 0.025911
-0.385980 -0.086558
-0.185664 -0.193071
0.059059 -0.076915
0.469767 -0.531777
0.178067 -0.054274
-0.047134 -0.285571
0.335000 0.166818
-0.586623 0.117860
0.027246 0.268775
-0.398257 -0.541104
-0.105907 0.846477
-0.089871 -0.196329
-0.228715 0.209856
0.275429 0.108417
-0.199594 0.714479
-0.069349 0.212692
-0.006861 0.151704
-0.009015 -0.064318
0.045835 -0.502158
0.189181 -0.373672
0.429284 -0.032417
0.520957 0.127798
-0.190669 0.202922
0.780202 0.120736
-0.332968 -0.178646
-0.235269 0.417210
-0.234042 -0.132434
-0.389422 -0.248972
-0.167887 0.532340
-0.103817 -0.068960
-0.476436 0.449001
0.160292 0.204031
-0.156891 0.133878
-0.155364 0.273395
-0.219156 -0.335633
-0.008905 0.053449
0.035253 0.287290
-0.099416 -0.483960
0.251106 0.117415
0.360611 -0.516780
-0.259018 -0.275627
0.183328 0.336130
-0.177622 -0.064246
0.280769 0.271635
0.180488 0.214528
0.300318 0.341470
-0.238706 -0.212175
0.004836 0.266177
0.348973 0.063074
0.046068 -0.014342
0.500001 0.051318
-0.450124 -0.339066
0.218394 0.321359
-0.323335 -0.008678
-0.220712 -0.212428
-0.008684 0.009965
-0.125047 -0.056519
-0.032313 0.536791
-0.086333 0.132155
-0.078251 0.404010
0.226929 0.131971
-0.118010 0.529075
0.025568 -0.376785
0.092523 0.123118
0.005266 0.271342
-0.123297 -0.013358
-0.209718 0.204175
-0.012243 -0.315280
-0.145611 -0.441530
0.130175 -0.203338
0.101487 -0.195382
-0.213775 0.050824
0.009448 0.016502
-0.148182 0.065844
0.090131 -0.303733
0.051551 0.073712
-0.181197 -0.023907
-0.054509 0.076487
-0.427303 0.056993
0.104372 0.133268
0.208005 -0.341759
-0.102118 0.296651
0.034667 -0.159708
0.112879 0.061987
0.094993 -0.159720
0.259973 -0.033902
0.235376 -0.145339
-0.493241 -0.236599
0.024016 0.022990
-0.277016 -0.211183
-0.278054 0.025065
0.333737 -0.015217
-0.135159 0.236902
0.229476 -0.039015
-0.269327 -0.072667
0.231429 0.287367
-0.189434 -0.088950
0.403141 0.147646
0.269072 -0.030154
0.023271 -0.106991
-0.223992 0.161118
0.027224 -0.628844
-0.168007 -0.128324
0.299815 -0.040022
0.090198 0.115785
-0.117019 -0.058860
-0.140569 0.225375
-0.089620 -0.129640
0.049103 0.059363
0.084296 0.136412
-0.018904 0.270019
-0.044241 0.379563
-0.235432 -0.386392
0.408573 0.244638
-0.100866 -0.266945
0.201866 0.119952
-0.364961 0.458167
0.179715 -0.249390
-0.236520 0.248662
0.299664 0.119362
0.244359 -0.188204
0.118591 0.078424
0.323695 -0.315111
-0.112250 0.303332
-0.026978 0.111337
-0.168290 0.234541
-0.292570 0.083806
-0.005718 -0.374412
-0.098058 -0.180192
0.188287 0.194101
0.076121 -0.064974
-0.030170 0.181068
0.390274 -0.008278
-0.147301 0.023272
-0.116018 0.055395
-0.120790 0.056590
-0.291221 0.357780
0.254464 0.150472
-0.384824 -0.080408
0.360372 -0.144833
0.256018 0.279967
-0.114065 -0.003455
0.092271 -0.018333
0.018257 0.233241
-0.080852 -0.096981
-0.108835 -0.269314
0.014473 -0.535368
0.065612 -0.126877
0.269142 0.247873
-0.178793 -0.189864
0.071117 0.146170
-0.149608 -0.239200
0.024730 -0.071456
-0.112309 -0.289539
0.180000 0.266195
0.175552 0.081322
0.076777 0.382743
-0.015482 0.011223
-0.124581 0.060454
0.235880 0.060628
0.132368 -0.019347
-0.048306 -0.287850
0.112211 -0.061979
-0.378760 0.000425
-0.162571 -0.220009
0.191170 0.130999
-0.377183 0.013270
0.169988 0.019210
0.012845 0.201340
-0.113634 0.071868
0.057952 -0.147554
-0.134730 0.312077
-0.266744 -0.067157
-0.128109 -0.075079
-0.292477 0.080509
0.251051 -0.044602
-0.218616 -0.096573
-0.128815 -0.097040
-0.188638 -0.128343
0.036420 -0.083210
0.151321 -0.059910
-0.089139 -0.243345
0.101266 -0.303203
-0.338636 0.031939
0.143976 -0.101634
-0.154877 -0.184966
0.058134 -0.027524
-0.081251 0.305837
0.046679 -0.110263
0.098451 -0.157287
-0.103028 0.340925
0.221727 0.132937
-0.175934 -0.028067
-0.298276 -0.038772
-0.255268 0.353929
0.524338 -0.116302
0.013832 0.051240
0.200030 -0.096500
-0.118427 -0.073674
0.062172 0.280707
-0.089171 -0.555183
-0.213210 0.071101
0.264306 0.191092
0.341337 0.299755
0.181974 0.200094
-0.601424 -0.034864
0.503860 0.066988
0.163733 -0.228539
-0.018616 -0.266142
0.166127 0.581010
0.462899 -0.578735
0.008167 0.133325
0.079984 -0.050061
-0.106189 0.364699
0.130820 -0.370635
0.242051 -0.263930
0.067951 0.054660
0.269621 0.332778
-0.049863 -0.673626
-0.329251 -0.359986
-0.009465 -0.375282
0.228198 -0.006474
-0.522242 -0.216725
-0.002508 0.208670
-0.284501 -0.127115
0.212489 0.260662
-0.655552 0.113121
-0.512514 -0.139781
0.021709 -0.445141
0.100140 0.126380
-0.082446 0.040264
-0.157880 0.289269
-0.141454 -0.139771
0.037946 -0.012691
-0.081791 0.723583
-0.246814 0.192901
-0.105788 0.191466
-0.063746 -0.088222
0.336438 0.301261
0.196456 0.039249
-0.493139 0.112492
0.377041 0.086007
0.143734 -0.114211
0.111055 0.174327
-0.152003 0.324335
-0.039429 -0.215858
0.044947 -0.203394
0.249319 0.226370
0.203034 -0.165117
0.292341 0.063152
-0.042150 -0.249457
0.065968 -0.209781
-0.027870 -0.088084
0.022984 -0.275168
-0.384978 -0.282768
0.247202 0.150287
-0.195209 -0.179506
-0.216891 0.103147
-0.109801 0.262027
0.432641 -0.092233
-0.364381 0.089077
-0.198148 -0.169569
0.194472 0.191521
0.021661 0.038925
-0.053944 0.058875
0.015337 -0.323073
0.362428 -0.156205
-0.097221 0.125685
-0.269084 -0.038210
0.050037 -0.191721
0.251295 -0.178341
-0.352643 -0.414847
0.334310 0.370915
-0.216571 0.020476
-0.260960 0.118499
0.134247 0.102790
0.190940 -0.019875
-0.223239 -0.124401
-0.230428 0.167719
-0.125286 -0.109316
-0.176973 0.228618
-0.175469 -0.399178
-0.063217 -0.414876
-0.418116 -0.209395
-0.051835 0.163584
0.183153 0.317740
0.293411 -0.347663
-0.379611 0.096466
-0.132702 -0.281424
0.020458 0.282968
0.169616 0.074445
-0.269616 0.162091
0.275264 -0.009817
-0.266491 -0.090985
-0.607235 -0.072770
0.025676 0.276420
0.357485 -0.016417
-0.093930 -0.085661
0.097025 -0.477592
0.211223 -0.088423
-0.068010 0.207783
0.032491 0.198276
0.207793 -0.081549
0.082920 0.138887
-0.111547 -0.446794
0.113729 0.233396
-0.200100 0.611038
-0.400841 0.196161
0.181691 0.092484
-0.210255 0.084107
-0.022041 -0.191515
-0.339782 -0.127135
0.412120 -0.230404
0.149001 -0.203763
-0.186338 -0.033289
0.089890 0.081863
0.105304 0.142470
-0.243509 -0.064472
0.314914 0.055235
0.183373 0.282997
-0.131247 0.148043
0.172938 -0.075587
-0.099201 0.196898
-0.141920 -0.129940
-0.076504 -0.298743
-0.123547 0.231215
0.017652 0.115384
0.132260 -0.036849
0.405255 -0.093009
0.015870 0.024457
-0.011514 -0.019934
0.095467 0.232317
0.336488 -0.131428
-0.125440 -0.521520
-0.231779 0.054719
-0.596355 0.068137
-0.292966 -0.455195
-0.187564 -0.148610
0.233539 0.233890
0.321261 0.111592
-0.051570 0.017250
0.118691 -0.119406
-0.027282 -0.170204
0.428402 0.052598
0.166957 0.131688
-0.192546 0.341547
-0.311390 -0.166245
-0.007262 0.030033
-0.316429 -0.419004
-0.153106 -0.201983
-0.035962 0.311195
-0.208803 0.354655
0.117111 -0.143866
0.134387 -0.298781
-0.072010 -0.314801
0.127536 -0.198952
-0.233022 -0.061303
0.075902 0.284001
0.109655 -0.026528
0.018344 -0.251611
-0.512840 0.039335
-0.361980 0.111230
-0.011686 -0.150470
0.222201 0.168396
-0.215364 -0.021578
0.093978 0.059969
0.050134 -0.117596
-0.081903 -0.103806
0.000985 0.004918
-0.231978 0.272278
-0.438562 0.346565
0.154067 0.091338
-0.102948 -0.100671
-0.179989 0.019739
-0.087846 -0.062957
0.173158 -0.022494
-0.343866 0.217326
0.415876 -0.061789
0.125333 -0.015493
-0.201247 -0.253775
-0.183394 0.185323
-0.030162 0.331828
-0.054580 0.019452
0.249410 -0.181328
0.035450 0.127263
-0.512564 -0.159852
-0.074342 -0.111562
-0.036451 -0.043292
0.438018 0.111585
0.051145 0.284077
0.171948 0.306958
-0.108438 0.124628
-0.123361 0.095493
0.139298 0.298550
-0.047074 0.246286
-0.304067 -0.161882
-0.239187 0.240339
0.164457 0.036604
-0.024098 -0.298524
0.180013 0.076862
-0.027445 -0.021311
0.041812 -0.233228
0.115481 0.093775
0.338745 0.123526
0.269985 -0.165651
0.110340 0.289134
-0.194069 0.034873
-0.459068 -0.226823
0.041941 0.356615
0.355801 -0.241570
0.069565 0.161625
-0.105589 -0.147281
0.091423 0.054694
-0.002743 -0.239938
-0.263560 -0.179396
-0.214254 0.389213
-0.031484 -0.039328
0.210237 -0.254811
-0.024669 0.126463
-0.113283 -0.445797
0.260827 -0.217559
-0.029154 -0.280391
0.238776 -0.178449
0.255391 0.233802
0.062914 0.044628
-0.007710 -0.425319
0.237132 -0.027977
-0.403945 0.380613
-0.099194 0.205682
0.224149 -0.052746
-0.428578 -0.015860
-0.150053 -0.248556
0.117883 -0.280597
0.033956 -0.314047
0.028693 -0.102942
0.051188 0.304806
-0.174610 -0.272623
-0.536572 -0.139608
0.096127 -0.192642
0.217453 -0.024723
-0.169163 -0.266415
0.020655 -0.118476
-0.138391 0.012199
-0.073788 0.270731
0.398697 0.026751
-0.498453 -0.306853
0.180077 -0.041663
-0.107550 0.566064
-0.078661 -0.021257
-0.377664 0.076166
0.042170 0.120721
-0.380945 0.071984
0.041959 0.153843
-0.279619 -0.266639
0.070887 -0.290020
0.223783 0.147917
0.109619 -0.232200
-0.659786 0.597537
0.015601 -0.156760
0.317288 0.240430
-0.006874 -0.378159
-0.459889 0.243249
-0.195916 0.068814
0.270177 0.362173
0.290586 0.045667
0.001021 -0.046637
0.028863 0.339961
0.099840 0.180186
0.043880 0.253466
-0.624900 0.219712
0.001083 0.055473
0.099969 0.159265
-0.454382 -0.090017
0.427228 0.619896
-0.249676 0.120859
0.506748 -0.438392
0.071542 -0.120647
-0.173411 0.537227
0.092520 -0.342152
0.689146 0.137168
0.377911 -0.327323
-0.290487 0.666102
0.033533 0.390523
0.160763 -0.109631
0.068858 -0.114334
0.263798 0.259954
0.439210 0.206902
0.077072 0.132681
0.238036 0.127498
0.029801 0.288259
-0.228418 -0.128417
-0.006557 -0.636586
-0.533728 -0.234169
0.791526 0.601666
-0.070234 -0.047486
0.636583 -0.573946
0.014709 -0.496609
0.428789 0.086201
0.315085 -0.077692
0.348919 -0.251664
0.147211 0.074188
-0.036936 0.218204
0.333334 -0.209349
0.241682 0.452382
-0.190937 0.003533
0.697715 -0.474383
0.232525 0.496559
-0.666035 0.040587
-0.638869 0.606332
0.339611 -0.657081
0.071354 -0.237848
-0.544273 -0.761116
-1.243110 -0.651394
0.490302 -0.078667
-0.143021 0.131489
-0.797270 -0.492546
-0.724606 -0.780394
0.837801 -0.670732
0.358337 -0.155410
-0.186529 0.004789
0.229255 -0.049411
-0.399426 -1.153984
-0.029882 -0.483590
-0.597360 -0.206242
-0.287543 0.136557
0.618401 -0.761319
0.008374 0.229911
-1.065524 -0.119380
-1.065420 1.383493
0.489917 -1.398728
0.241481 -0.020794
-0.250672 -0.404505
-0.314680 -0.034757
-0.324112 -0.377687
-0.501378 -0.618090
-0.570007 0.039947
-0.548384 -0.140522
0.241498 -0.230298
0.039051 0.310579
0.091836 1.197748
0.988672 1.598168
-1.043904 -1.633096
0.325960 -0.571721
-0.072240 0.604611
0.490983 1.277273
-0.421226 -0.260616
-0.428180 0.445529
-1.347928 0.750777
-1.240090 1.532194
0.425979 -0.608816
-0.218097 0.232475
0.410569 0.483729
1.152210 0.516088
-1.669896 0.239546
0.058652 -0.178579
0.831559 0.096114
1.885268 -1.711028
-1.184528 1.349155
-0.262586 0.303596
0.745944 1.597911
2.414502 2.189812
-1.235906 -0.657669
0.792598 0.302136
1.173706 1.803066
3.726908 1.112894
-1.574298 0.180420
-0.580062 0.653236
-0.061010 0.233211
-1.049488 -1.256553
0.932663 1.268091
-0.219765 0.590986
1.105211 0.607608
2.441917 -1.058363
-0.420624 0.448239
-0.008527 -0.496085
2.279694 -0.607549
6.443161 -6.495710
-1.238163 2.989420
-0.409418 -0.225259
1.285608 0.688198
1.812056 -1.031748
0.803566 0.320269
1.563389 0.715044
1.560752 1.191307
3.877018 1.532546
-0.231920 -0.214801
-0.012981 -0.241265
0.688879 -2.240099
-4.580696 -11.014322
2.477533 2.888482
-0.598876 1.110326
0.578425 -1.589779
-6.164453 -8.466614
2.846776 0.501599
0.747547 -0.780684
3.753668 -2.127220
10.930111 -13.790244
-1.437025 2.108685
-0.121559 -1.560604
0.311465 -2.452141
-8.681053 -10.046253
3.930779 0.230365
1.269280 1.085632
-1.123075 0.073062
-17.576988 14.809575
2.394211 -4.909773
1.247361 -0.836881
-0.753213 -5.625560
-27.792565 -30.213203
3.943818 2.818656
-2.297644 0.329236
-4.516653 -5.789401
-71.755734 -31.299306
9.059164 -1.861992
0.683396 -0.996741
1.701672 -1.540136
22.459170 18.739315
-7.745114 -7.206565
-0.561101 -5.252404
-5.153971 -5.163657
-98.271925 9.773298
4.126523 2.214311
2.058142 3.480502
-16.893083 5.931656
-704.178929 906.366816
26.946812 -58.647678
3.150246 -7.969267
-113.281373 -21.217558
-6119.275457 49.319036
