14900.572457 14911.767812
51.494241 18.246095
4.490830 18.983478
46.872961 -24.652753
19.836062 12.180858
21.762357 72.959799
0.227113 3.353416
45.528563 -5.144059
5.421384 -11.025172
-1989.472994 330.009690
39.082542 -5.043028
35.367661 -6.241331
48.233229 0.795690
47.357155 71.896836
42.120663 1.841965
55.998194 -31.546481
40.396565 4.593684
47.284420 12.470505
24.769833 17.619688
16.492263 144.614962
32.643992 5.872020
35.681627 9.242599
31.269996 1.468501
18.175837 -19.475629
33.679522 1.477838
32.657548 16.445121
27.949370 -0.111222
34.174298 0.573296
32.833939 0.511184
-199.798689 -31.201677
47.411026 -0.055776
45.102685 0.105645
42.499720 7.571266
27.304700 30.695130
36.716279 1.662499
55.332880 -12.098520
40.514299 8.220001
36.471813 12.455096
34.510157 11.293862
59.429210 63.217217
34.538543 0.953329
39.256771 5.069460
35.479407 0.297093
43.201055 -14.357478
34.118440 1.383156
33.424494 8.329179
33.255477 0.256596
35.246046 -0.907668
37.353522 -3.333162
-13.505233 -27.135290
44.953278 0.083767
39.526146 -0.790061
40.225413 3.317149
33.018608 10.757223
37.393686 -0.388485
51.539708 0.632937
38.589758 4.814883
40.370422 2.684165
32.601779 2.488924
30.845543 34.014726
38.195538 -4.757153
36.397827 -0.874659
37.375568 -6.075438
42.798236 -11.503018
39.779519 -3.589566
34.393145 -2.298487
36.941722 -3.879725
40.590133 -5.646066
38.190673 -4.516831
9.769145 -14.333400
42.467939 -1.527521
41.425655 -4.041187
39.858201 -2.105268
32.667667 8.154432
40.939832 -5.256164
49.237505 -7.216451
38.147135 -1.775365
39.942976 -3.240700
34.617753 -0.817160
31.078455 18.939247
37.666376 -7.152979
41.632005 -5.975088
38.212300 -8.479083
44.475429 -9.254101
38.039286 -9.047323
35.761273 -10.404759
37.972937 -8.927697
40.690018 -6.998716
40.584638 -7.131569
32.491308 -15.432090
40.916443 -5.281475
41.065209 -8.004689
37.384882 -6.464842
29.441747 -5.273125
39.141408 -8.870418
48.415975 -6.937704
36.702452 -6.991107
37.565868 -6.512810
35.139500 -9.097291
30.627362 2.012177
38.637038 -12.536924
38.150913 -9.233372
39.548784 -13.006613
44.440791 -12.236955
38.887396 -11.689077
36.289244 -14.010807
37.757810 -12.962677
39.029899 -13.520045
40.124431 -9.928379
35.008455 -13.359161
38.149658 -9.832199
37.437619 -12.022060
37.653918 -10.568102
32.137802 -10.403409
37.611943 -13.648471
42.822142 -11.169325
35.770443 -12.330456
37.284640 -12.474688
34.038992 -13.084077
30.236886 -5.624988
38.205748 -17.525508
36.271684 -15.147806
39.399813 -15.818188
42.144610 -14.016222
36.386342 -17.212008
36.072489 -19.839010
36.549948 -15.499442
37.090634 -16.339159
38.556838 -14.136712
36.694997 -15.470500
36.160387 -14.701899
37.321640 -16.570956
34.882681 -16.546117
30.333328 -18.036288
36.017752 -17.210472
39.218649 -15.417945
34.027833 -16.275187
36.034946 -16.677026
32.924166 -19.439550
29.996582 -13.677638
36.452602 -20.971627
34.422935 -18.452172
36.628021 -19.248679
38.768598 -16.670400
35.094590 -20.178908
35.107304 -23.041185
36.499760 -19.807985
36.456261 -20.498504
34.672118 -17.299261
34.520261 -18.625817
32.605712 -19.351115
35.699634 -21.205146
32.784739 -20.411270
28.242247 -22.646001
33.632103 -21.400842
33.590366 -20.403970
31.916682 -20.791588
32.765448 -20.225050
31.488162 -23.007578
30.991804 -19.344195
34.913644 -22.799714
31.480777 -23.091123
32.874141 -21.529666
34.346570 -18.718862
32.343249 -24.301625
33.340243 -26.448779
32.563968 -22.767868
32.395462 -24.488181
31.739797 -21.693103
31.252278 -22.386367
29.894299 -23.763356
32.526105 -23.864903
30.503016 -24.695454
28.939151 -26.559617
30.062183 -23.937777
30.619432 -24.092802
28.807432 -25.028707
29.224330 -24.629021
29.734639 -26.902496
29.056501 -24.512052
31.396582 -26.107767
29.460032 -26.219207
30.394027 -25.367619
29.695720 -22.794273
30.169723 -27.058870
30.751708 -28.958626
29.325104 -25.531572
29.900455 -27.313335
27.041208 -24.646244
27.581159 -25.865117
27.301533 -27.205785
29.624487 -27.817632
27.159016 -27.689082
26.124630 -28.523434
26.766923 -28.774200
26.739115 -27.936620
25.892090 -27.712199
25.784280 -27.995055
26.734017 -28.197689
25.616278 -26.642085
28.106811 -28.247050
26.224981 -29.370489
26.545435 -28.164754
25.850490 -24.560913
26.228855 -29.942617
27.676317 -31.471580
25.060125 -28.033430
25.791420 -29.899890
23.196844 -27.875054
23.177437 -28.072056
23.274062 -30.243105
24.782425 -30.070138
23.475668 -29.992077
24.032449 -31.613313
22.905120 -30.813534
23.525531 -30.212122
23.091310 -30.437622
21.336956 -29.977767
23.690641 -31.404677
22.130179 -29.488620
24.145774 -30.670805
21.969383 -31.894571
22.245289 -30.174722
21.537869 -28.008116
22.267154 -31.450825
22.625884 -33.209570
21.070058 -30.276404
23.428120 -31.047219
18.854678 -30.635224
19.255657 -31.496904
19.900765 -32.080557
20.581906 -31.959425
20.233122 -32.257212
19.877303 -32.499270
19.767686 -32.890395
19.777808 -32.455612
19.359781 -32.378667
17.835996 -32.036628
19.893355 -31.700757
19.263761 -31.260069
19.106930 -31.333636
17.609065 -32.913870
17.546773 -31.967148
17.148290 -30.362429
18.029372 -32.786145
18.175016 -33.962994
16.803695 -31.832223
18.618381 -31.649333
15.799325 -32.642138
17.037497 -33.516982
16.672252 -33.930862
16.386881 -32.440764
16.784192 -32.823689
16.252295 -33.599822
15.890985 -33.349352
15.067969 -33.908500
15.302193 -32.941324
14.002433 -33.950425
15.912771 -32.561890
15.392161 -32.173375
14.269789 -32.160357
13.816259 -34.105196
13.921664 -33.055984
12.985594 -32.976881
14.232387 -33.231134
13.718688 -34.127023
12.490296 -32.612183
13.739955 -32.619961
11.960777 -34.144615
12.963663 -34.988279
13.077689 -34.165954
12.306772 -34.263134
12.117805 -33.519913
12.234206 -32.912940
11.409235 -34.761051
11.100179 -34.942440
11.719153 -33.132346
10.188290 -34.598790
11.014723 -32.484349
9.888222 -32.462344
10.431070 -32.876320
10.229567 -34.847660
9.502971 -33.536090
9.315193 -33.695172
9.750816 -33.941178
9.082159 -34.878041
8.933266 -33.097515
9.449128 -32.927760
7.879116 -34.029732
8.636440 -33.539711
8.884407 -34.508488
7.775355 -34.057584
8.100364 -33.827983
8.666730 -32.968007
7.300260 -34.066137
7.006997 -33.983976
7.922454 -33.304435
6.045750 -34.407182
7.527382 -32.521096
6.027300 -32.489974
6.358711 -32.569767
6.644950 -34.078091
5.057850 -33.544504
5.194708 -33.331709
4.976501 -33.466611
5.018675 -34.667629
5.124965 -33.314154
6.069296 -32.716847
5.112444 -34.135402
5.880197 -33.566893
5.283477 -33.851552
4.227565 -33.091355
3.974383 -33.175444
5.032950 -32.950013
3.613914 -33.361951
3.863358 -34.013871
4.268432 -32.545264
3.139341 -33.850145
3.099637 -32.491480
1.597604 -32.760204
2.146954 -32.113199
1.731097 -32.811259
2.343371 -32.795854
2.538481 -32.376293
2.522988 -32.306359
1.425213 -32.789536
1.805659 -32.935659
2.628280 -31.531873
1.302828 -33.509199
2.647021 -32.918877
1.120658 -32.619102
0.679103 -32.652443
0.987576 -31.813714
0.537196 -31.992994
0.420348 -32.370643
0.582601 -32.385130
0.162514 -32.114589
0.747082 -32.178606
-0.635575 -31.693276
-1.495111 -32.168505
-0.664381 -31.631091
-0.898530 -32.112217
-0.663661 -32.093251
-1.039511 -31.210168
-1.465375 -31.304163
-0.722852 -31.262795
-1.260098 -31.586923
-1.459040 -29.772808
-1.096147 -32.032202
-0.917786 -31.418784
-1.852358 -31.484307
-0.917497 -31.040157
-2.387454 -30.630655
-1.998022 -31.185259
-2.822035 -30.866326
-2.993680 -30.460782
-2.754593 -29.633863
-3.059007 -30.400646
-3.478996 -30.672017
-3.872042 -31.208640
-3.414130 -30.675429
-3.631938 -30.727685
-3.591987 -30.024295
-3.559748 -29.731229
-4.502160 -29.755236
-3.831731 -29.490346
-3.950284 -29.734289
-4.834107 -29.224041
-3.732968 -30.209351
-4.526953 -29.428136
-4.567675 -29.842494
-4.516283 -29.573600
-4.691496 -28.513313
-4.761801 -29.539596
-5.293390 -29.126798
-4.967882 -29.384429
-5.458658 -29.055094
-5.109469 -29.622050
-6.463191 -28.927487
-6.148765 -29.035372
-6.591611 -28.417011
-5.767671 -29.204329
-5.536388 -28.400781
-6.448288 -28.141669
-6.086644 -28.622550
-6.490802 -28.857850
-5.920085 -27.995706
-6.974322 -26.996579
-6.736949 -27.724027
-5.938578 -27.859380
-7.792056 -27.690196
-7.530829 -27.981765
-6.923033 -27.765428
-8.170047 -27.574537
-7.417834 -27.409391
-8.308558 -27.210192
-7.482557 -26.576688
-7.552577 -27.304818
-8.163286 -26.842214
-7.973326 -26.765755
-8.017513 -26.860284
-8.365975 -27.300044
-8.241859 -26.497368
-8.510636 -26.014958
-8.635941 -26.481522
-8.869847 -27.123239
-8.324766 -25.996110
-8.786795 -25.276306
-8.451640 -25.224938
-8.214225 -25.387147
-9.088542 -25.830987
-9.479538 -25.727524
-8.894345 -25.762820
-9.468777 -25.917478
-8.892286 -25.619205
-9.469488 -25.949842
-9.567178 -24.122589
-9.161935 -24.893305
-9.892477 -24.371159
-10.200096 -24.105668
-8.695162 -24.917375
-9.435352 -24.770715
-9.428703 -24.039977
-9.523911 -23.695939
-10.417245 -24.128313
-10.741590 -25.305840
-9.656180 -23.650525
-10.358439 -23.203399
-9.743019 -23.346950
-10.439221 -24.301399
-11.032330 -23.838734
-10.838988 -22.983611
-11.016019 -23.769872
-10.544888 -23.449111
-10.295227 -23.576351
-11.629609 -23.683250
-9.793824 -22.459781
-10.146625 -23.257848
-10.254553 -22.393858
-11.127989 -22.452988
-10.295147 -22.132918
-10.913034 -21.688028
-11.587533 -22.204726
-11.595604 -21.997513
-11.255860 -22.352788
-11.599321 -22.666518
-10.759440 -21.733985
-11.341636 -22.463475
-11.336086 -21.249959
-11.842552 -22.391816
-11.329916 -20.926623
-11.691874 -20.347204
-12.510497 -21.361978
-11.248435 -21.875297
-11.212596 -20.987991
-11.438720 -21.288057
-11.293286 -20.569914
-10.992269 -21.091631
-11.393028 -20.914200
-11.780607 -20.635431
-11.836207 -19.929275
-12.323134 -20.765093
-12.774468 -20.187325
-12.359201 -20.625517
-12.165334 -20.121219
-12.179094 -20.455268
-11.517045 -19.780406
-12.166984 -19.893654
-12.299777 -19.698882
-12.479805 -19.966479
-12.048661 -19.353941
-12.783924 -19.126119
-12.547283 -18.509752
-12.117357 -19.156740
-12.032211 -19.035944
-12.233297 -18.892874
-12.427119 -18.978265
-12.251206 -19.157562
-12.688463 -19.044003
-12.338194 -18.515152
-12.752141 -17.879894
-11.841892 -18.247990
-13.223725 -18.615005
-13.036993 -18.077959
-12.524781 -18.025842
-13.051790 -17.291674
-12.539159 -17.667696
-13.010413 -17.677931
-12.649466 -18.387610
-12.643143 -18.302184
-12.469666 -17.269690
-13.067901 -18.093709
-12.781377 -16.907195
-12.807891 -17.210409
-12.929366 -17.328702
-12.663507 -17.580275
-13.457540 -17.043859
-12.547962 -17.565839
-12.754300 -16.716001
-13.678714 -16.869430
-13.194758 -17.560892
-12.448341 -16.801315
-13.136890 -16.886934
-13.486962 -17.239844
-13.671464 -15.958764
-12.668541 -16.889738
-12.625417 -15.417968
-13.116927 -16.200586
-12.700239 -16.450649
-12.722378 -16.002694
-13.249566 -16.709971
-13.647303 -16.302787
-13.176359 -15.832394
-13.476921 -16.022071
-13.443944 -15.370335
-12.567939 -15.410309
-13.396077 -15.117349
-12.456489 -15.321791
-13.275901 -15.206744
-13.855913 -14.939690
-14.102837 -14.677054
-13.540755 -14.369202
-12.812953 -15.947513
-13.406885 -15.089343
-12.811709 -14.590540
-12.685771 -14.853148
-13.591033 -14.908020
-13.080503 -14.966656
-13.156628 -14.664925
-12.760495 -14.778488
-13.696015 -14.136115
-12.911645 -13.963053
-13.575269 -14.217933
-13.750076 -13.787710
-13.360737 -14.110668
-13.506479 -13.910351
-12.732952 -13.641915
-12.767351 -14.121364
-13.010159 -13.516283
-12.973308 -13.423845
-13.883675 -14.428430
-13.223869 -13.969718
-13.815512 -13.560402
-13.311574 -13.243467
-12.465297 -13.314980
-13.994027 -13.174938
-13.053877 -13.251528
-13.949773 -13.846950
-12.697449 -13.272036
-12.708221 -13.426999
-13.540837 -12.782203
-13.152461 -12.969419
-13.717658 -13.006144
-13.100039 -12.727258
-13.125403 -12.366928
-13.407406 -12.350930
-12.660175 -12.291248
-12.839324 -12.127382
-13.200165 -12.704333
-13.519935 -12.155739
-12.397067 -12.715916
-12.995626 -12.224296
-13.380205 -12.776093
-13.545900 -12.166816
-13.925297 -12.160425
-14.127304 -12.397147
-13.347670 -11.375547
-14.119390 -11.651617
-12.286146 -12.230131
-13.236405 -11.910056
-12.385060 -11.824434
-13.723604 -11.885859
-13.223520 -10.884695
-12.966157 -10.837047
-12.465786 -11.436662
-13.424912 -10.994655
-13.027663 -11.379322
-13.114285 -11.339501
-13.501244 -11.047357
-13.200095 -10.327206
-13.168586 -11.257874
-12.967419 -10.622601
-13.291333 -11.891231
-13.169195 -10.652797
-12.866953 -11.302702
-13.789738 -10.833584
-12.876539 -10.319623
-13.151750 -10.499975
-13.224654 -10.316198
-13.788566 -10.502026
-12.781481 -10.102319
-12.997570 -10.194338
-12.948416 -10.744633
-14.073453 -9.766794
-13.876741 -10.703319
-12.672266 -10.655035
-12.387862 -10.932586
-13.207693 -10.273737
-12.235107 -10.237481
-13.024010 -10.325093
-13.181757 -9.447579
-12.807768 -9.958647
-13.142813 -10.976545
-13.187419 -10.765247
-12.827068 -10.214946
-12.062318 -9.843789
-13.107151 -9.685497
-13.376570 -10.047681
-12.594987 -9.520976
-12.641991 -9.993502
-12.681564 -9.309805
-13.001410 -9.348370
-13.081489 -8.623516
-13.137525 -8.588657
-12.758237 -9.818044
-13.030948 -9.141934
-13.806141 -10.141832
-12.683396 -9.137165
-11.787843 -9.580408
-12.856707 -9.264141
-12.848018 -9.521794
-12.486226 -8.970313
-12.669563 -8.335324
-12.336336 -8.617160
-13.132597 -8.758149
-12.984765 -8.701040
-13.097203 -8.732800
-12.629084 -8.997859
-12.934047 -8.707047
-12.313849 -9.096126
-12.890464 -9.416153
-12.974924 -8.848466
-12.842556 -8.131933
-12.948798 -8.364750
-13.020396 -7.598926
-13.025415 -8.666039
-13.284140 -8.548802
-13.050996 -8.224306
-12.535279 -8.768495
-12.592344 -9.078690
-12.442935 -7.659598
-13.503376 -8.343896
-13.158371 -7.747909
-11.911526 -7.666009
-12.234613 -7.783007
-13.392427 -8.282274
-12.745844 -7.952212
-12.686456 -8.417151
-12.844684 -8.435791
-13.230646 -7.705888
-12.931124 -8.091407
-12.398148 -8.425117
-13.190504 -8.064533
-13.008120 -8.253098
-13.096180 -7.537147
-13.570507 -7.648620
-12.130351 -7.237703
-12.416911 -6.587903
-13.171475 -7.329954
-12.941289 -7.575126
-12.510663 -7.821444
-13.235145 -7.360400
-11.821392 -7.163667
-13.270890 -7.327382
-13.026526 -7.623464
-12.486392 -6.219535
-13.394169 -6.915851
-12.373326 -7.499801
-12.773935 -7.269113
-13.508335 -6.718968
-12.703256 -6.544539
-13.451921 -7.281426
-13.280511 -7.788668
-12.481598 -6.760030
-13.108342 -7.258332
-13.600051 -7.512853
-12.277710 -5.868982
-13.059388 -6.729901
-12.062602 -6.785331
-13.359989 -6.750338
-12.056488 -7.197926
-12.660042 -6.115830
-13.214843 -6.315873
-12.958091 -6.381713
-12.972599 -6.313031
-13.046295 -6.774903
-12.789417 -6.717598
-12.794083 -6.541128
-12.867891 -6.141945
-13.752373 -6.817180
-13.039338 -6.695713
-12.027174 -5.541480
-12.444964 -6.242724
-13.447816 -5.832294
-13.032705 -5.949548
-12.414522 -6.284556
-12.428096 -6.495240
-12.882753 -5.633155
-12.851050 -5.816908
-12.668292 -5.130383
-12.599010 -5.784180
-12.981221 -6.018760
-12.659456 -6.011286
-13.103542 -5.273773
-12.478444 -6.579050
-12.245679 -5.539631
-12.371640 -5.575524
-13.117738 -5.365874
-13.066681 -5.451060
-12.408400 -5.611969
-12.406943 -4.989567
-13.054256 -4.469102
-12.763478 -4.229357
-12.814439 -5.161799
-12.411731 -5.623109
-12.867056 -4.997082
-12.569084 -5.118010
-12.592751 -5.737250
-12.176570 -4.598356
-12.964468 -4.622240
-12.957144 -4.773074
-12.045717 -4.945455
-13.432455 -4.665091
-12.538176 -4.922799
-13.084191 -4.609490
-12.457901 -4.717555
-13.167603 -5.002112
-12.692196 -4.848160
-13.085032 -5.027875
-12.668017 -4.121682
-12.620227 -4.330043
-12.284655 -4.461660
-12.807710 -4.509204
-12.713044 -4.695357
-12.443793 -4.456487
-12.955230 -4.279398
-12.725474 -4.358433
-12.789863 -4.133070
-12.542403 -4.325546
-12.662108 -3.285655
-12.185352 -3.923294
-12.287291 -3.710268
-12.700058 -3.334282
-12.681032 -4.382795
-12.688629 -3.904063
-12.729980 -3.350490
-12.614882 -2.794293
-12.982517 -3.507926
-12.515631 -3.546456
-12.131104 -3.313224
-12.543640 -3.765451
-12.914395 -3.619159
-12.279261 -3.637734
-13.661874 -3.753892
-12.728617 -3.072408
-12.854082 -3.041573
-12.858774 -2.860539
-11.844432 -3.593974
-13.707669 -3.705553
-12.444979 -3.017783
-12.867891 -2.897689
-12.983520 -2.875040
-12.674790 -2.745121
-12.590766 -2.848928
-12.189664 -3.394556
-12.504390 -3.001897
-11.908719 -3.641152
-12.617624 -3.388352
-12.713227 -2.987837
-11.915956 -2.589997
-13.088612 -3.026388
-11.869348 -2.673648
-12.572920 -3.167566
-12.398035 -1.438376
-12.095134 -2.243112
-12.738985 -2.400146
-11.621618 -2.511681
-11.534750 -1.752916
-11.927199 -1.817083
-12.584257 -2.651584
-12.263215 -2.831502
-12.291995 -2.524706
-12.485026 -2.388270
-12.539870 -1.728957
-12.408843 -1.954038
-11.795779 -1.180966
-12.062742 -1.717650
-12.529025 -1.189183
-12.592409 -1.415624
-12.361788 -1.594854
-12.394388 -2.078750
-11.964772 -1.752833
-12.625177 -1.254145
-11.919227 -1.622952
-11.692909 -1.036011
-12.110438 -1.398204
-12.486682 -1.107556
-12.237171 -1.224138
-11.914643 -1.555698
-12.218454 -1.312766
-12.162330 -1.083865
-12.438777 -1.532710
-12.056457 -1.057814
-11.795450 -1.004822
-12.271016 -1.277255
-11.669407 -0.946670
-12.741966 -0.698418
-11.584684 -1.017976
-11.854534 -0.705071
-11.335051 -1.064415
-11.576674 -0.735777
-12.158076 -0.837431
-12.400164 -1.227576
-11.197310 -0.566832
-12.254880 -1.357688
-11.644000 -0.564330
-12.089087 -0.529001
-11.825108 -0.521683
-12.008841 -0.375842
-12.178075 -0.174610
-11.968280 -0.200103
-11.357526 -0.523920
-11.894860 0.351804
-11.773196 -0.208989
-11.345914 -0.541752
-11.417228 -0.408664
-11.307240 -0.017697
-11.272763 0.260984
-11.084508 -0.812670
-11.291152 -0.077016
-11.733993 -0.361101
-11.783009 0.240994
-11.040070 -0.367252
-11.292151 0.671077
-11.492663 -0.276990
-11.145230 0.585288
-10.456612 -0.052678
-11.043120 0.624612
-10.846302 1.395277
-11.181822 -0.192762
-11.433371 0.800091
-11.181155 0.679275
-10.899867 0.328856
-11.051857 0.327374
-10.509517 0.505798
-11.145385 0.611753
-10.881558 0.722708
-10.895517 0.825035
-10.707566 0.298761
-11.059641 1.859845
-10.512790 0.827729
-10.943331 0.670898
-11.094870 1.371820
-10.648388 1.091135
-10.796487 0.986049
-11.011503 1.040266
-10.064088 1.056494
-10.612255 1.695353
-10.352399 0.799604
-10.262564 1.197572
-10.373738 1.028831
-9.976807 1.713964
-10.892351 1.289564
-10.865446 1.702314
-10.537649 1.078915
-10.910910 1.940215
-10.176971 1.580889
-10.294035 1.867174
-10.791367 1.493819
-10.418722 1.710211
-10.221920 1.142813
-9.771381 0.813947
-9.975996 1.588739
-10.575536 1.583588
-10.250439 1.991345
-10.025270 2.327455
-9.857255 2.417559
-10.210235 1.730676
-10.201903 2.033684
-9.085255 1.742891
-9.046796 1.427179
-10.014191 2.001232
-9.174898 2.722855
-9.576945 1.818905
-9.446656 1.609608
-9.377333 1.879856
-9.532506 2.304393
-9.248740 2.094636
-9.050681 2.331868
-9.751052 1.805203
-8.975233 1.759613
-9.289334 2.205372
-8.574114 1.410171
-9.388998 2.398416
-8.941554 2.473129
-9.465339 2.133871
-9.024526 2.693659
-9.174136 2.331525
-9.421303 1.844577
-8.569118 2.627125
-9.165883 2.328355
-8.763845 2.894034
-8.770409 2.373606
-9.208643 2.768721
-8.556875 2.324123
-8.910301 2.611064
-8.225812 2.581130
-8.499550 2.550332
-8.619898 2.306471
-8.691981 2.726796
-8.232603 2.937200
-8.830228 2.695487
-8.549293 3.090163
-8.207890 3.298974
-8.185503 1.795859
-8.282166 3.184244
-8.094542 2.318481
-8.268878 2.462506
-8.181914 3.087645
-7.517386 3.083265
-7.759425 2.689036
-7.226601 3.067242
-7.717410 3.059148
-7.381628 3.546889
-7.621196 2.729045
-8.085898 3.077814
-8.546538 3.122971
-7.650176 2.931835
-8.462924 2.733671
-7.176316 3.335705
-7.643763 3.036296
-7.363921 2.500880
-7.071377 3.128984
-7.284734 3.071713
-7.909767 3.216024
-7.365775 2.960340
-7.396709 3.574883
-7.677307 3.505486
-7.091717 3.096971
-7.321304 2.657219
-7.255776 3.675079
-7.027031 3.131814
-7.115274 3.322164
-6.684015 3.609710
-6.549398 2.721655
-7.051504 2.838670
-6.465363 3.633390
-6.796781 3.374432
-6.751520 2.880676
-6.608570 3.240116
-6.138146 3.401961
-6.834797 3.331774
-6.423391 2.981335
-5.692056 2.353702
-6.297945 3.028731
-6.599815 3.321718
-6.573495 2.829653
-5.681566 3.067836
-6.923773 3.010272
-6.453692 3.404376
-6.041725 3.468188
-6.196734 3.499483
-6.231186 2.995886
-5.959237 3.745113
-5.306560 2.781769
-6.142235 3.383012
-6.397346 3.122865
-5.786230 2.469440
-6.061024 3.189850
-5.929537 2.974217
-5.972216 3.830555
-5.469063 3.425085
-5.846156 3.523009
-5.412407 3.450482
-4.976636 3.303484
-5.917031 3.044021
-5.388083 3.520904
-5.905195 3.570132
-5.250062 2.685244
-5.440666 3.113331
-5.118482 3.473595
-5.273369 2.809614
-4.869598 3.324611
-5.097999 3.054899
-5.332034 3.498909
-5.443773 2.856007
-4.716967 3.176656
-4.688004 3.266444
-4.676620 2.229027
-5.051179 2.965509
-4.651629 2.833859
-4.741716 3.463908
-4.702905 3.172280
-4.419539 2.668086
-4.714766 3.229247
-4.604966 3.014596
-4.918189 3.138012
-4.378815 2.922414
-4.738124 2.631976
-4.878195 3.373845
-4.202073 2.574941
-4.382729 3.078728
-4.657936 2.910859
-4.109876 2.285983
-4.321759 3.181799
-4.219878 2.933319
-4.846119 2.545487
-3.514646 3.034224
-4.473123 2.242169
-4.105221 3.235466
-4.451666 2.879312
-4.249826 2.023470
-4.209922 2.911348
-4.411148 2.946482
-3.687765 3.045668
-3.781770 2.535996
-4.096782 2.671075
-4.010371 2.675101
-3.706736 2.377531
-4.034763 2.767814
-3.342784 2.467455
-3.652658 2.769070
-3.723142 2.453701
-3.385380 2.384580
-3.353426 2.403699
-3.933356 2.533696
-4.360637 2.678363
-3.594684 2.554769
-3.477167 2.872876
-4.065297 2.248494
-3.509844 2.440966
-3.251353 3.021000
-2.855455 1.720743
-3.418005 2.468060
-3.516818 1.769538
-3.538747 2.491941
-4.241383 2.456532
-3.316695 1.567061
-3.401709 2.472694
-3.517849 2.402863
-3.211145 2.510365
-3.198973 2.414668
-3.033476 1.776898
-3.154106 2.166713
-3.207792 1.779428
-2.962668 2.050963
-3.402980 2.683833
-3.545353 1.996114
-2.927424 1.682200
-3.094915 2.189034
-3.081391 2.093111
-3.124286 1.995555
-2.962995 1.890998
-2.718433 1.536309
-2.796150 2.028753
-3.535232 1.351628
-2.837114 1.626396
-2.638046 1.765869
-3.075066 1.545364
-2.997080 1.731604
-2.906272 2.038496
-2.684980 1.654804
-2.636586 1.490977
-2.832301 1.187947
-2.873379 1.686535
-3.036746 1.696461
-2.938086 1.214368
-2.680925 1.497130
-2.577825 1.552836
-3.572427 1.803475
-2.993509 0.843695
-2.437408 1.479379
-2.696796 1.559204
-2.743157 0.876718
-2.652700 1.723931
-2.695864 1.195587
-2.773763 1.507521
-2.887583 0.809250
-2.707835 1.058953
-2.524731 1.139589
-2.843992 0.703129
-2.144951 0.737741
-2.917131 1.064010
-2.475375 1.338637
-2.279019 0.697581
-2.456517 1.299286
-2.921326 1.147237
-2.518749 0.532843
-2.563435 0.977180
-2.618056 1.160223
-2.294130 0.931115
-2.868196 0.112913
-2.535253 1.145549
-2.373400 0.751256
-2.377759 1.056470
-2.190589 0.516229
-2.419246 0.901684
-2.768073 0.766700
-2.752841 0.712333
-2.802326 0.814427
-2.582702 0.607324
-2.509213 0.346308
-2.378284 0.600329
-2.030661 0.892842
-2.405173 0.827832
-2.526309 0.803980
-2.372636 0.577542
-2.618830 0.328079
-3.071906 0.221057
-3.016555 0.345773
-2.640426 -0.099899
-2.478879 0.387194
-2.870404 0.644337
-2.773333 0.186602
-2.419498 0.463636
-2.920313 0.239282
-2.532229 0.019923
-2.283026 0.482060
-2.195086 0.585755
-2.530987 0.548143
-2.514427 0.201951
-2.503550 -0.069417
-2.851469 -0.114018
-2.369719 0.433909
-2.636346 -0.216350
-2.451862 0.366173
-2.620120 0.232748
-3.309643 0.068685
-2.423400 0.261561
-3.260116 0.266073
-2.503897 -0.588753
-2.715358 -0.503317
-2.583118 -0.274545
-2.492825 0.114688
-2.750734 0.277024
-2.588416 -0.259108
-2.113977 0.286750
-2.914858 -0.184318
-2.516598 0.108061
-2.583256 -0.009243
-2.692863 -0.714362
-3.103572 0.152646
-2.467717 -0.291427
-2.839624 -0.240733
-2.684904 -1.038436
-3.256958 -0.750617
-3.141314 -0.403599
-2.663907 0.202924
-3.022034 -0.224442
-2.401034 -0.518324
-2.986068 -0.298885
-2.980087 -0.245499
-2.773714 -0.495276
-3.080811 -0.533317
-3.029593 -0.005532
-3.402143 -0.647847
-2.702476 -0.529326
-2.929370 -0.680710
-2.699923 -0.504027
-3.113417 -0.846663
-2.824280 -0.761234
-3.359733 -0.404095
-2.946682 -0.191046
-2.627399 -0.565383
-2.594666 -0.921273
-3.364815 -0.349887
-2.907556 -0.492849
-3.522663 -0.850659
-3.442988 -0.789218
-3.321556 -0.395589
-3.197500 -0.116706
-3.043901 -0.941769
-2.996815 -0.556598
-3.207505 -0.680227
-3.358824 -0.789316
-3.306445 -0.843506
-2.997015 -0.855669
-3.629570 -0.522167
-2.750939 -0.907728
-3.036854 -0.747268
-2.812932 -0.931896
-3.548964 -0.810926
-3.365851 -0.900820
-2.758025 -0.471650
-3.141555 -1.048786
-3.419653 -0.394190
-3.533532 -0.189598
-3.143724 -0.519733
-3.192027 -0.799247
-3.661469 -0.758062
-3.243146 -0.634732
-3.393224 -0.473642
-3.579481 -0.672152
-3.100487 -0.887490
-3.886453 -1.120135
-3.669968 -0.808357
-3.684177 -0.816915
-3.908662 -1.088498
-3.741802 -0.689981
-4.010013 -1.302912
-3.655693 -0.565965
-3.600760 -0.954567
-2.928775 -0.643248
-3.447545 -1.185154
-3.240085 -0.930000
-4.186314 -1.101202
-3.581423 -0.785457
-3.699925 -0.545839
-3.851390 -0.435278
-3.979839 -0.621090
-3.388953 -0.521908
-4.037203 -1.455339
-3.407740 -1.134939
-3.921023 -1.054836
-3.776959 -1.167371
-4.071099 -0.587909
-4.164371 -0.557553
-3.982626 -0.776436
-4.019829 -0.587703
-4.060547 -0.702945
-3.814600 -0.332721
-3.935413 -0.402979
-4.198651 -0.660832
-3.460953 -0.848701
-3.981830 -1.115612
-4.093412 -0.605077
-3.733127 -0.754059
-4.011166 -0.547823
-3.929953 -0.778545
-4.279918 -0.625129
-4.008721 -0.851533
-4.186939 -0.310971
-4.216009 -0.967953
-4.339437 -0.674524
-4.335480 -0.406387
-3.918128 -0.254150
-3.773147 -0.563086
-3.965063 -0.685982
-4.141236 -0.560234
-3.828213 -1.023169
-4.396555 -0.418720
-4.081462 -0.746123
-4.305148 -0.721506
-3.811424 -0.386141
-3.772384 -0.867628
-4.375240 -0.333944
-3.764963 -0.424998
-4.413828 -1.000641
-4.375241 -0.698915
-4.201477 -0.577772
-4.200494 -0.577800
-4.223701 -0.287944
-4.853309 -0.366231
-4.077424 -0.447712
-4.147147 -0.814958
-4.213374 -0.788586
-4.027472 0.009482
-4.383972 -0.520829
-3.871309 0.051309
-4.318184 -0.389871
-3.841002 -0.555814
-4.452105 -0.760613
-4.552252 -0.606756
-4.089770 -0.095310
-4.445136 -0.324031
-4.290245 -0.047685
-4.925921 -0.228462
-4.153119 -0.338078
-4.352000 -0.470779
-4.809706 0.224272
-3.837169 -0.554815
-4.488093 -0.513525
-4.560444 -0.050020
-4.714684 -0.382154
-4.828118 0.062839
-4.400794 -0.606336
-4.533196 0.171527
-4.636140 -0.256829
-4.599237 0.036635
-5.061708 0.443526
-4.880223 -0.148637
-4.371610 -0.048144
-4.684335 -0.179074
-4.612340 0.260175
-4.620979 0.011489
-4.657085 0.054623
-4.447008 0.140183
-4.326213 0.198324
-4.729562 0.088111
-4.606524 -0.282946
-3.850925 0.269251
-4.737567 -0.119186
-4.588774 0.388003
-4.398046 0.702592
-4.602474 0.091763
-4.454416 -0.439782
-4.520404 0.370986
-4.210801 0.055260
-4.737509 0.408996
-4.199444 0.094050
-4.803500 0.390729
-4.145379 0.243775
-4.496593 0.338201
-4.803872 0.202053
-4.427828 -0.260321
-4.701695 0.414258
-4.484411 -0.000478
-4.494058 0.538725
-4.442608 0.517083
-4.178647 0.360586
-4.293674 0.718127
-4.275280 -0.173286
-4.427570 0.488683
-4.556408 0.288249
-4.778627 0.203709
-4.533354 0.457207
-5.089811 0.135588
-4.991673 0.255824
-4.203783 0.349944
-4.710035 0.582164
-4.793169 0.593482
-5.033075 0.606357
-4.591738 0.554856
-4.903162 0.655692
-4.184126 0.422605
-4.561339 0.142557
-4.714854 0.741577
-4.661565 0.804773
-4.799731 0.988864
-4.593915 0.587735
-4.351487 1.030058
-4.924894 0.506751
-4.016598 0.846874
-4.795834 0.620030
-4.572312 0.743838
-4.318651 0.903005
-4.208218 0.751452
-4.430421 1.100041
-4.338398 0.600600
-4.090889 0.470285
-4.210202 0.331154
-4.734981 0.918982
-4.275177 0.368180
-4.446900 1.045660
-4.180342 0.927031
-4.374743 1.135691
-4.232987 1.453526
-4.311594 0.838317
-3.954631 0.802107
-4.370290 1.186435
-4.407883 1.039839
-4.279300 0.659065
-4.520121 0.710812
-3.774674 1.241453
-4.421037 1.190396
-4.202815 0.923060
-4.024517 0.894620
-4.182831 0.898815
-4.415309 0.867839
-4.372293 1.486490
-4.125777 0.745957
-4.271133 0.780370
-4.300047 1.469596
-4.056483 0.704309
-4.226457 1.353313
-4.157307 0.801389
-4.007357 1.286678
-4.029991 1.595552
-3.840194 1.179556
-4.186160 1.245234
-4.189411 0.913601
-4.139073 1.167061
-4.414582 0.880046
-3.758161 1.316658
-3.482703 1.220691
-4.198103 1.004600
-3.924173 1.121358
-3.986042 1.283459
-4.117149 1.049048
-4.392042 1.145673
-3.611400 1.084130
-4.077646 1.221451
-3.628843 1.778811
-4.080765 1.215564
-4.033397 1.092166
-4.104468 1.224870
-3.873909 1.454048
-3.809206 1.247710
-3.486921 1.285525
-3.725268 1.435304
-3.286121 1.240027
-3.437640 1.483302
-3.462282 1.002574
-3.370265 0.838090
-3.535177 1.470697
-3.884284 1.496847
-4.038429 1.393784
-3.675250 1.375164
-3.664474 1.592918
-3.847742 1.393539
-3.288936 1.620053
-3.446501 1.189634
-3.421870 1.257433
-3.467336 1.023557
-3.164815 1.695466
-3.154721 1.079522
-3.569706 1.798253
-3.334799 1.195172
-3.436328 1.527325
-3.494547 1.367447
-3.028236 1.485589
-3.081515 0.832939
-2.780457 1.369279
-3.324866 1.195148
-3.153667 1.726081
-3.502984 1.465315
-3.660341 1.245662
-3.369030 1.106377
-2.748332 1.545663
-3.046740 1.280394
-3.427827 1.144196
-2.602705 1.038784
-3.055803 1.088957
-3.104030 0.835287
-2.707219 0.981952
-3.029076 1.184489
-2.945802 1.294744
-3.283750 1.525505
-3.020675 1.329644
-3.106422 1.402818
-3.025760 1.714654
-2.977129 1.136093
-2.891947 1.175255
-3.061927 0.739270
-3.013620 0.825728
-2.786473 1.319111
-2.866386 0.962283
-2.669767 1.403525
-2.723413 1.243285
-2.842331 1.308290
-3.122208 1.204587
-3.022175 0.953168
-2.623144 1.307231
-2.747706 0.965464
-3.027002 1.048802
-2.614710 0.934578
-2.549352 0.707508
-2.449774 0.881670
-3.049592 1.081532
-2.743833 1.185943
-2.612899 1.232349
-2.828290 1.167620
-2.744303 0.825346
-2.395274 1.022459
-2.758537 0.846374
-2.430300 0.864730
-2.390464 0.814302
-2.709763 1.047339
-2.707446 1.032190
-2.735408 0.446248
-2.785808 0.575234
-2.331681 0.683944
-2.503733 0.871614
-2.365733 1.116157
-2.689740 0.962049
-2.611045 1.062576
-2.376947 0.443633
-2.327992 0.507385
-2.392590 0.708692
-2.445000 0.711448
-2.313130 0.541097
-2.447318 1.235252
-2.944186 0.591369
-2.517834 0.860161
-2.595743 0.759511
-2.172579 0.554521
-2.357059 0.696001
-2.492373 0.173754
-2.712745 0.793918
-2.617329 0.383211
-1.966963 0.278589
-2.265216 0.233917
-2.565399 0.702383
-2.094652 0.343392
-2.705512 0.328742
-2.689699 0.712594
-2.219868 0.581748
-2.465360 0.593988
-2.481170 0.470668
-2.128044 0.429066
-2.030797 0.019605
-2.114450 0.218327
-2.319827 0.037562
-1.977444 0.625043
-2.211199 0.657546
-2.428166 0.066417
-2.015932 0.303556
-2.124131 0.117397
-2.498819 0.177762
-2.861458 0.064632
-1.669547 -0.149842
-3.190280 -0.145281
-2.394995 -0.033363
-2.443007 0.223568
-2.249467 0.204046
-2.043086 -0.019088
-2.720438 -0.077172
-1.508722 -0.127411
-2.648389 -0.040216
-2.223982 -0.290167
-1.891209 0.196739
-2.172084 0.328674
-2.312693 0.447948
-2.134244 0.319046
-2.061750 -0.576698
-2.334258 -0.194377
-2.042245 -0.162422
-1.615946 -0.234769
-2.169118 0.266631
-2.480155 0.016658
-2.153724 -0.399101
-2.557629 -0.017695
-2.183687 -0.405763
-2.434159 -0.790171
-2.422406 -0.737612
-2.149949 -0.098903
-2.561901 -0.061857
-2.078819 -0.657966
-2.659458 0.038556
-2.412977 -0.062391
-2.288524 -0.729045
-2.412508 -0.338024
-2.300126 -0.393775
-2.636639 -0.021141
-2.148038 -0.273407
-2.302326 -0.561968
-2.602100 -0.553433
-2.153925 -0.422239
-2.600859 -0.692601
-2.518357 -0.443921
-2.768307 -0.448914
-2.155574 -1.126939
-2.466894 -0.950787
-2.620955 -0.857779
-2.435659 -0.680926
-2.343570 -1.031937
-2.603279 -0.796073
-2.808471 -0.801900
-2.535593 -0.244073
-2.547155 -0.182081
-2.658752 -0.715760
-2.441819 -0.804952
-2.506831 -0.610706
-2.517964 -0.978803
-2.760219 -0.786110
-2.169913 -0.782509
-2.226097 -1.167867
-3.080484 -1.054383
-2.682917 -1.005051
-2.381553 -0.801586
-2.959612 -0.429049
-2.813890 -1.340636
-2.638715 -0.965522
-2.790943 -1.338645
-2.853013 -0.973554
-2.965925 -1.404963
-3.003667 -0.952549
-2.795828 -0.925571
-3.026683 -1.324697
-3.183023 -0.957064
-2.725354 -1.106680
-3.501096 -1.567490
-3.142235 -1.058571
-2.495257 -1.505015
-3.316837 -0.936884
-3.131994 -1.199035
-2.853719 -1.409727
-3.375624 -0.852730
-3.014637 -1.339747
-3.233966 -1.629820
-3.408485 -0.971020
-3.314269 -1.480266
-3.308921 -1.121810
-3.194653 -1.258045
-3.060428 -1.328902
-3.738088 -1.193385
-3.591861 -1.320054
-3.397365 -1.488400
-3.675072 -1.601464
-3.592190 -1.834958
-3.279436 -1.943643
-3.521608 -1.295110
-3.338097 -1.767903
-3.487616 -1.637125
-3.581767 -1.532842
-3.950346 -1.111117
-3.080932 -1.703508
-3.427769 -1.528493
-3.260366 -1.662807
-3.716130 -1.026024
-3.287238 -1.693724
-3.497122 -1.310221
-4.061694 -1.599694
-3.648738 -1.725660
-3.914562 -1.895080
-3.834425 -1.442113
-3.812100 -1.673955
-3.738302 -1.203785
-3.644195 -1.570792
-3.842120 -1.810385
-4.002213 -1.342454
-3.844820 -1.448624
-4.251399 -1.843938
-3.679282 -1.436755
-4.086645 -1.933312
-4.116902 -1.279992
-4.239001 -1.713077
-3.891845 -1.920752
-3.972825 -1.580217
-4.506732 -1.390495
-4.418839 -1.281128
-4.207847 -1.510141
-4.005544 -1.996339
-4.133764 -1.921297
-4.406992 -1.613072
-4.325094 -1.572591
-4.354631 -1.787227
-4.673464 -1.418837
-4.671569 -1.957034
-4.955501 -1.469224
-4.656015 -1.723260
-4.377428 -1.625023
-4.337703 -1.612462
-5.341778 -1.057272
-4.671079 -1.459868
-4.660717 -1.672787
-4.495150 -1.778024
-4.836144 -1.549299
-5.150565 -1.572569
-4.390466 -1.266364
-4.838073 -1.515282
-5.402120 -1.180411
-4.877678 -1.807542
-4.901894 -1.508991
-4.977965 -1.861493
-4.403956 -1.365541
-4.901208 -0.728808
-5.152633 -1.159110
-5.149425 -0.977058
-5.205234 -1.462922
-5.204748 -1.328486
-5.073543 -1.542002
-4.756719 -1.632005
-5.192343 -1.213420
-4.922202 -1.639694
-5.787775 -1.395438
-4.820382 -1.313005
-5.350395 -1.037277
-5.676294 -1.288075
-5.741718 -0.697002
-5.605699 -1.417668
-5.358764 -1.051045
-5.727230 -1.259634
-5.646903 -1.269105
-5.717646 -1.447874
-5.414101 -1.127170
-5.409464 -1.294009
-5.939679 -1.491370
-5.679408 -0.691240
-5.770653 -0.808087
-5.862110 -0.780803
-5.765841 -1.124072
-6.161536 -0.704020
-5.569247 -1.141967
-5.986841 -1.380529
-5.725940 -0.948446
-5.898219 -0.986374
-6.065280 -0.417475
-5.834707 -1.247209
-6.203319 -0.900048
-6.204743 -0.978870
-5.945522 -0.745804
-6.180283 -0.979374
-6.122550 -1.271596
-6.310125 -0.761622
-5.617783 -0.855681
-6.236063 -0.595940
-6.110230 -0.616941
-6.542065 -0.938281
-5.999963 -0.613959
-6.575777 -0.595597
-6.344185 -0.725728
-6.619675 -0.760885
-6.510867 -0.759763
-6.598275 -0.957561
-6.478891 -0.575807
-6.637467 -0.685818
-6.529367 -0.288082
-6.449936 -0.404319
-6.886735 -0.197842
-6.439792 -0.379361
-6.731147 -0.155390
-7.004862 -0.161229
-6.533079 0.068014
-6.264475 -0.176530
-6.965685 -0.033610
-6.698569 0.207616
-6.748577 -0.300049
-6.488440 -0.424692
-7.248951 -0.260006
-7.033470 0.122347
-6.654850 -0.422429
-6.898640 -0.245892
-7.133015 -0.331849
-7.243941 -0.206681
-7.157465 0.248538
-6.440928 0.043491
-7.213985 0.271579
-6.952245 0.406054
-6.935272 0.677470
-7.272019 0.451576
-7.501381 0.194091
-7.053122 0.638536
-6.934058 0.520124
-7.219000 0.691455
-7.065348 0.285718
-6.855743 0.248196
-7.296192 0.466165
-7.184491 0.552296
-7.065268 0.240913
-7.498193 0.618109
-7.064055 0.304892
-7.385796 0.887562
-7.188854 0.364423
-7.592992 0.705570
-7.104862 0.890436
-7.770102 0.802423
-6.913963 1.215053
-7.578593 0.656235
-7.398089 1.252512
-7.618707 0.857549
-7.674814 0.967543
-7.380820 1.073944
-7.421890 0.602845
-7.557958 1.630287
-7.195418 1.021838
-7.350919 1.471260
-7.342895 1.112475
-7.644214 1.242267
-7.538278 1.512464
-7.768030 1.473115
-7.572059 1.538312
-7.986278 1.566019
-7.497292 2.096461
-7.402021 1.467820
-7.672360 1.420062
-7.845540 2.101864
-6.868991 1.757293
-7.449538 1.233958
-7.399512 1.842040
-7.537346 2.046907
-7.576985 1.974077
-7.220054 2.137101
-7.779828 1.747952
-7.798402 2.108140
-7.829180 1.619719
-7.373132 2.067057
-7.416566 2.229930
-7.684877 2.390546
-8.086613 2.222194
-7.642264 2.285683
-7.344531 2.451208
-7.532986 2.311997
-7.683027 2.301707
-7.540249 2.528811
-7.598507 2.697439
-7.631143 2.475836
-7.763792 2.410888
-7.676776 2.478520
-7.690414 2.769506
-7.507323 2.596463
-7.421183 2.943438
-7.707951 2.941854
-7.605117 2.753619
-7.385561 3.314329
-7.764408 3.104597
-7.912501 3.054693
-6.915822 2.779070
-7.006483 2.921118
-7.260791 2.582270
-7.256548 2.979337
-7.457893 3.054280
-7.328140 3.331155
-7.703967 2.841339
-7.513659 3.322739
-7.550846 3.339986
-7.178130 3.447184
-7.436930 3.289307
-7.285658 3.361722
-7.651506 3.403115
-7.442042 3.531169
-6.703403 3.768198
-7.372364 3.163851
-7.435037 3.255283
-7.330787 3.646634
-7.428917 3.709805
-7.326438 3.797275
-7.561696 3.622620
-7.499215 3.602507
-6.996190 3.782535
-7.277844 4.115096
-6.746845 3.972660
-7.359054 3.829327
-7.160481 4.010831
-7.160516 4.251651
-7.040407 4.163010
-7.132514 3.936661
-7.439184 3.713094
-7.219458 4.474497
-6.873317 4.001185
-7.059549 4.389310
-6.902137 4.549657
-6.723011 4.389632
-7.091386 4.675180
-7.003763 4.711239
-7.286575 4.121927
-6.646554 4.899272
-6.976516 4.097300
-6.962629 4.290967
-6.971254 4.288992
-6.601906 5.012258
-6.888072 4.657365
-6.828865 4.681672
-6.578572 4.571361
-6.398930 4.634719
-6.371381 4.742387
-5.939518 4.504325
-6.639188 4.891129
-6.601629 5.103209
-6.374648 5.166691
-6.597707 5.322332
-6.520086 5.100286
-6.617912 4.805593
-6.419114 5.186918
-5.718372 5.055326
-6.375861 5.660921
-6.260871 5.172041
-6.254718 5.299680
-6.330519 5.473378
-6.054307 5.285430
-5.976797 5.064405
-6.169744 5.602333
-6.234314 4.948305
-6.203897 5.492576
-5.796768 5.528073
-6.076729 5.469354
-5.919931 5.578888
-5.737971 5.463642
-5.852762 5.615973
-5.850338 5.949126
-5.874359 5.358779
-5.863936 5.946957
-5.687082 5.662420
-5.949432 5.675036
-5.643979 5.676448
-5.811661 5.878740
-6.058935 5.849478
-5.590177 6.007070
-5.413351 5.739322
-5.698274 5.912625
-5.825939 5.827581
-5.230983 6.230430
-5.498283 6.480150
-5.414984 6.405886
-5.365064 6.161127
-5.544452 5.962152
-5.438605 6.280011
-5.453906 6.409849
-5.382003 5.808276
-4.854702 6.053685
-5.471734 5.715581
-4.836140 6.313069
-4.856152 6.492828
-5.097377 5.956933
-4.668800 6.040588
-4.946338 6.178390
-4.977631 6.152134
-4.769806 6.406581
-5.048947 6.361174
-4.912959 6.661186
-5.106156 6.407752
-4.918704 6.369505
-4.545834 6.790744
-4.213802 6.671286
-4.480740 6.605593
-4.249683 6.131064
-4.588902 6.804571
-4.515500 6.585274
-4.409239 5.847374
-4.641476 6.383183
-4.507505 6.588421
-3.952178 5.968100
-3.923610 6.516450
-4.294557 6.880128
-4.265034 6.931820
-4.534510 6.356952
-3.828080 6.286845
-4.274359 6.622333
-4.386360 6.458941
-3.856253 6.911466
-4.180556 6.974307
-3.976085 6.830535
-4.269755 6.936824
-3.580578 6.826334
-4.182694 6.774301
-3.717244 6.347903
-3.645967 6.471857
-3.379834 6.435006
-3.832058 6.574229
-3.297464 6.644064
-3.066687 6.181548
-3.754271 7.002312
-2.947438 6.492483
-3.237347 6.585139
-3.141561 6.621375
-3.620255 6.351859
-3.288392 6.480062
-3.254877 6.866423
-2.887710 6.985746
-3.467457 6.509156
-2.920029 6.757658
-3.068219 6.884280
-3.352591 6.623910
-2.833687 6.591564
-3.220214 6.354641
-2.800240 6.407994
-2.753806 6.639979
-2.836744 6.587149
-2.617105 7.016988
-2.710310 6.746658
-2.813520 6.649187
-2.644096 6.423681
-2.317457 6.285868
-2.041654 6.891900
-2.580178 6.649078
-2.553965 6.685681
-2.351787 6.604738
-2.265285 6.645098
-2.118168 6.258359
-1.932452 6.444724
-2.317217 6.520962
-2.417770 6.746540
-2.157889 6.926256
-1.753096 6.774917
-2.583674 6.654035
-1.995009 6.246087
-1.712791 6.324635
-1.842805 6.603736
-1.954629 6.912536
-2.048677 6.268115
-2.202757 6.850581
-1.821202 6.328343
-1.824589 6.207466
-1.807068 6.559442
-1.491406 6.192507
-1.506828 6.451666
-1.642866 6.422670
-1.577731 6.667426
-1.745647 6.747535
-1.644330 6.104203
-1.488240 6.272393
-1.483094 6.515220
-1.325026 6.198298
-1.119186 6.197169
-1.650628 6.208524
-1.516325 6.162106
-1.470889 6.397112
-1.054343 6.161377
-1.305195 6.431352
-1.145257 6.285807
-1.101961 6.195051
-0.954848 6.230629
-0.860978 6.035172
-1.057888 6.265014
-1.332388 6.106756
-1.129732 5.938163
-0.877361 6.346195
-0.876876 5.966043
-1.043775 6.293463
-0.764256 6.092391
-0.854286 5.976153
-0.605737 6.082871
-0.508714 5.667399
-0.640201 6.034290
-0.663622 5.935796
-0.872932 6.308714
-0.549842 5.935694
-0.756266 5.823290
-0.569426 5.816597
-0.718293 5.529544
-0.573505 6.121127
-0.509858 5.869913
-0.797710 5.878312
-0.716618 5.930027
-0.758110 5.214805
0.032524 5.397367
-0.168774 5.506004
-0.588521 5.767768
-0.098766 5.598759
-0.376513 5.952678
-0.298162 5.610683
-0.515601 6.010781
-0.096103 5.547129
-0.547888 5.422024
-0.336371 5.206045
-0.265082 5.788991
-0.313917 5.304400
-0.016493 5.756684
-0.120474 5.218717
-0.014129 5.637527
-0.131708 5.153237
-0.213917 5.453543
0.169423 5.252413
0.211639 5.393068
-0.104327 5.214255
0.350716 5.109411
0.210562 5.222327
0.125534 5.412248
-0.171402 4.877395
0.058180 5.027660
0.608130 5.240577
-0.003703 5.378053
0.240979 4.932215
0.058653 4.980762
0.205915 4.953488
0.328723 4.522889
0.328205 4.917393
0.443935 4.592202
0.268261 4.605882
0.327307 5.412604
0.473079 4.692024
0.322425 4.934748
0.614887 4.902776
0.373691 4.792210
0.900664 4.722963
0.350524 4.277189
0.845392 4.366162
0.306559 4.353620
0.418623 4.562706
0.582836 4.291488
0.474725 4.419945
0.325057 4.507788
0.414575 4.519351
0.731093 4.563425
0.870001 4.482156
0.581852 4.091084
0.426824 4.310449
0.469540 4.266163
0.265728 4.109988
0.765941 4.409437
0.435103 3.947538
0.844353 4.067789
0.856411 4.094843
0.734118 4.319767
0.510294 3.812121
0.342945 3.781780
0.456405 3.895421
0.851768 3.983123
0.560788 3.824297
0.692181 3.435816
0.529957 3.825669
0.773171 4.175677
0.729670 4.089905
0.765388 3.890290
0.585681 3.515990
0.858245 4.132071
0.703956 3.681286
0.496612 3.559029
0.441462 3.602840
0.310000 3.342637
0.647848 3.501733
0.484601 3.275875
0.661390 3.623937
0.535524 3.290979
0.830263 3.856414
0.472496 3.527446
0.835273 3.315233
0.824523 3.510536
0.725954 3.174074
0.244169 3.100179
0.807880 3.038568
0.706559 3.189695
0.802241 3.225007
0.511335 3.347045
0.954292 3.355469
0.619319 3.711624
0.508889 3.046438
0.503931 3.580307
0.749866 2.995168
0.799101 3.121460
1.166787 2.783957
0.751399 2.712324
1.007641 2.602629
0.552608 2.763786
0.844238 2.690935
0.903793 2.729792
0.501601 2.838899
0.368626 2.776243
0.766028 2.888693
0.755151 2.784130
0.507448 2.593604
0.683754 2.749319
0.310507 2.606020
0.216277 2.716708
0.570382 2.348894
0.102893 2.611156
0.669478 2.344801
0.401351 2.743967
0.139207 2.217013
0.327827 2.503210
0.298726 2.564104
0.780869 2.338865
0.120764 2.939647
0.451725 2.527871
0.338410 2.373877
0.461037 2.227777
0.338521 1.910955
0.263341 2.439513
0.353028 2.524438
0.053386 2.942079
0.513745 2.014728
0.230808 2.829303
-0.326683 2.132103
0.509929 2.181961
0.383230 2.358543
-0.356509 2.031776
0.189541 2.214976
0.228561 2.251903
0.542599 2.402151
0.391422 2.318499
0.285034 2.254572
0.568085 2.117932
0.460446 2.142366
0.210946 1.989175
0.009946 1.902110
0.223875 2.198379
0.178026 1.925288
0.263183 2.215663
0.377123 2.044290
0.056077 2.141425
0.023243 1.735957
-0.017706 2.004528
0.612461 2.143653
-0.037582 1.757502
-0.048353 1.592050
-0.115873 1.374875
-0.116318 1.892557
0.105770 1.740950
-0.133295 1.754995
-0.035324 1.879204
-0.027579 1.627321
-0.541026 1.704127
-0.227191 1.930976
-0.220833 1.926316
-0.096095 1.822143
-0.178489 1.769099
-0.595510 1.491952
-0.467324 1.503677
-0.194455 1.665233
-0.426320 1.602715
-0.143401 1.679799
-0.464527 1.397855
-0.225603 1.814038
-0.082551 1.740546
-0.366415 1.314356
-0.403935 1.779091
-0.252636 1.211641
-0.576178 1.290816
-0.436375 1.745460
-0.448940 1.433668
-0.646570 1.627978
-0.284113 1.442431
-0.933558 1.408332
-0.473036 1.322113
-0.665439 1.448813
-0.616416 1.738380
-0.544486 1.630052
-0.559379 1.531564
-0.451079 1.361528
-0.645308 1.279152
-0.519833 1.569448
-0.410200 1.377159
-0.589902 1.587104
-0.512238 1.261935
-0.620176 1.640530
-0.966039 1.308175
-0.588945 1.492085
-0.613687 1.184324
-0.737747 1.505085
-0.595202 1.404002
-0.291286 1.842222
-0.528456 1.063032
-0.943904 1.128973
-0.755442 1.592397
-0.851919 1.239854
-0.725530 1.529229
-0.801943 1.776918
-0.620764 1.195136
-0.873774 1.330680
-0.811043 1.155575
-0.714684 0.861610
-0.995338 1.410089
-0.617853 1.477738
-1.159588 1.275662
-0.554153 1.327466
-0.874980 1.288550
-0.675647 1.183741
-1.152789 1.532300
-1.120966 0.973609
-1.434575 1.359540
-0.860138 1.159474
-1.088056 1.488800
-1.197851 0.987675
-1.349704 1.580687
-0.976663 0.866125
-1.076661 1.223483
-0.783421 1.016172
-0.967146 0.866837
-1.180581 1.132270
-1.032781 1.473730
-1.283195 1.457947
-0.813069 1.417163
-1.305328 1.143041
-0.989129 1.613846
-1.377911 1.548104
-1.229019 1.450874
-1.201353 1.662002
-1.671155 0.893464
-1.550033 1.495746
-1.400799 1.192380
-1.185256 1.449718
-1.560897 1.084317
-1.698914 1.399383
-1.792401 1.520570
-1.211568 1.214804
-1.423972 1.204439
-1.696451 1.237907
-1.479006 1.243820
-1.249186 1.284510
-1.459562 0.989559
-1.281127 1.174319
-1.165119 1.391980
-1.346320 1.503145
-1.335179 0.978563
-1.392417 1.030636
-1.546605 1.872364
-1.260202 1.875973
-1.764786 1.643890
-1.531725 1.212733
-1.392606 1.727060
-1.252795 1.298700
-1.930658 1.073037
-1.747075 0.966907
-1.990163 1.348506
-1.451270 1.353061
-1.751576 1.214367
-1.436051 1.330204
-1.438552 1.726060
-1.810401 1.084905
-1.751965 1.561423
-1.247202 1.472715
-1.793853 1.922030
-1.814744 1.453615
-1.519487 1.217244
-1.691668 1.755760
-1.457811 1.001082
-1.778959 1.077315
-2.076519 1.268141
-1.684712 1.401999
-1.920033 1.886541
-1.331926 1.662609
-1.619689 1.128834
-2.126624 1.573660
-1.863164 1.364839
-1.674640 1.701708
-2.120408 1.019138
-1.888056 1.587438
-1.682219 1.720961
-1.720100 1.427592
-2.276722 1.759858
-1.828058 1.538187
-2.312367 1.737282
-1.656487 1.481304
-1.974352 1.763521
-1.581674 1.179548
-1.787391 1.480188
-1.910649 2.070059
-1.755751 1.290703
-1.688594 1.873539
-1.941342 1.159974
-1.998606 1.621231
-1.953335 1.890083
-2.049583 1.805918
-2.100716 2.276337
-1.972105 1.830077
-2.281395 1.567099
-1.810679 1.699744
-2.040467 1.267180
-2.335328 1.387390
-1.669511 1.529219
-1.900299 1.769852
-2.200120 1.686333
-1.695118 1.579807
-1.959197 1.918926
-2.112825 1.831146
-2.208139 1.802894
-1.859834 1.871866
-1.595408 1.656020
-1.971132 1.813125
-2.260168 1.667141
-2.150952 1.806882
-1.973854 1.421423
-2.290772 1.476411
-2.260568 1.725692
-2.010890 1.681271
-2.441397 1.771834
-2.211782 2.058385
-1.973031 1.961134
-2.322833 1.964676
-2.189345 2.266632
-2.201644 0.894210
-2.086138 1.930719
-2.073560 1.589288
-2.004583 2.083914
-2.132086 1.609590
-2.252818 1.762808
-2.268084 2.124821
-2.641223 1.520824
-2.128914 1.776328
-1.775434 1.894525
-2.255419 1.577863
-2.064077 1.471390
-2.494429 1.989547
-2.245981 1.733436
-2.453481 1.294621
-1.954166 1.919903
-2.107540 1.968279
-2.144924 2.097907
-2.341747 1.812088
-2.043878 2.233571
-2.301961 1.727917
-2.166506 1.496628
-1.793128 1.600922
-2.503112 2.229483
-2.249479 1.859972
-2.316437 1.674692
-1.908637 2.632583
-2.341276 1.866214
-2.451707 1.756876
-2.109502 1.674533
-2.089868 2.083858
-1.955244 1.679457
-2.194327 1.732201
-2.510348 1.900307
-2.492701 1.864342
-2.765236 2.087506
-2.134731 1.690277
-2.140701 2.452341
-2.654598 1.615329
-2.169830 2.028565
-2.070053 2.021393
-2.049820 1.614615
-2.657098 1.889180
-2.457751 1.791861
-1.993966 2.131583
-2.572810 2.353689
-2.329307 1.943309
-2.513734 2.055513
-1.990528 1.882117
-2.204012 2.275737
-2.207933 2.100764
-2.062967 1.958278
-2.301369 2.381583
-2.607411 1.583893
-2.832512 1.958615
-1.930580 2.248567
-2.347663 2.319160
-2.343820 2.275977
-2.202451 1.663379
-2.523870 2.089014
-1.899511 2.338924
-2.187569 1.868597
-2.482601 1.795621
-2.545363 2.046670
-2.553456 2.267490
-2.041677 1.852683
-2.228456 2.487669
-2.841980 1.519430
-2.831188 2.157207
-2.419195 2.062304
-2.173973 2.569172
-3.020980 2.269233
-2.394012 1.792654
-2.589157 2.564816
-2.154396 1.888149
-2.349060 1.975340
-2.859017 2.084356
-2.470972 1.870646
-2.419342 1.953669
-2.516578 1.893076
-2.776655 1.718420
-2.511239 1.982119
-2.425366 2.142812
-2.553962 2.203289
-2.198634 2.263747
-2.293932 1.841675
-2.769632 2.197762
-2.315254 2.109059
-3.043826 1.863129
-2.208458 1.984395
-2.580145 2.056683
-2.417090 2.119925
-2.370726 1.931469
-2.441009 1.914345
-2.830427 2.344275
-2.569157 1.647839
-2.827285 2.213439
-2.692970 2.141743
-2.722119 2.059844
-2.700188 2.378589
-2.329147 2.205929
-2.822801 1.967444
-2.540251 1.927543
-3.340220 1.957958
-2.843566 2.317708
-2.681647 2.109946
-2.906398 2.036988
-2.236088 1.742658
-2.923612 2.246144
-3.096617 1.885570
-2.515263 1.945548
-2.990339 2.028492
-2.624012 2.481983
-3.414433 2.393083
-2.315280 2.014358
-2.926196 2.702815
-2.649245 1.825503
-2.837257 2.293280
-2.405653 2.118872
-2.674026 2.304788
-2.883037 2.269994
-3.049790 1.889009
-2.934240 1.960932
-2.750422 2.226354
-2.955026 2.180347
-2.626337 2.289995
-2.855000 2.309008
-3.258909 2.544927
-2.493661 2.050651
-2.518435 1.856599
-2.839980 2.379597
-2.772560 1.995253
-2.680025 2.396512
-2.788994 1.753046
-3.360452 2.045584
-3.003635 1.566625
-2.758669 2.330702
-2.944872 2.242940
-3.787844 1.965242
-3.283512 1.872801
-2.729742 2.331192
-3.149553 2.364764
-2.894799 1.906665
-2.884576 1.921927
-3.179027 2.230029
-3.260169 2.301479
-3.275699 2.191422
-3.824286 1.775319
-3.404701 2.640040
-3.137689 2.325204
-2.982303 2.359270
-2.907703 2.357886
-3.142416 2.380372
-3.407050 2.364340
-3.053532 2.023702
-3.256270 2.749128
-3.199201 2.067132
-3.264419 2.403929
-3.406229 2.231443
-3.224724 2.569565
-3.079706 2.303496
-2.940963 2.386639
-3.264523 2.376115
-3.122642 1.979742
-3.473341 2.154948
-2.773818 2.070084
-3.812209 2.284945
-3.021796 2.545107
-3.828399 2.416241
-3.433133 2.340257
-3.783375 2.710824
-3.742891 1.997521
-4.047114 2.786818
-3.262608 2.578308
-3.648584 2.401871
-3.619036 1.901105
-3.570058 2.763445
-4.046057 1.988046
-3.604236 2.534756
-3.724834 2.192556
-3.318640 2.426268
-3.446175 2.313875
-3.573896 2.605940
-3.327674 2.696853
-3.575478 2.606272
-3.917011 2.319984
-3.776969 2.795643
-3.759702 1.977604
-3.776432 2.690272
-3.988210 2.662856
-3.704852 2.583567
-3.907738 2.573087
-3.854474 2.746942
-3.667335 1.946340
-3.914503 2.695647
-3.646137 2.683804
-3.620676 2.550311
-3.861682 2.911383
-3.633296 2.743275
-4.378922 2.253665
-4.047324 2.572300
-3.982099 2.551828
-3.833538 2.360969
-4.484363 2.462003
-4.187473 2.738869
-4.367933 2.329880
-4.211207 2.201520
-4.518262 2.941697
-4.405278 2.640444
-4.512436 3.188221
-3.648975 2.840758
-4.529566 2.577640
-4.462200 2.805366
-4.170679 3.261008
-3.777099 2.404314
-4.235624 2.979717
-4.494135 3.274535
-3.968552 3.176116
-4.016192 2.848689
-4.796073 3.371524
-4.593188 2.784200
-4.245409 3.051855
-4.003905 3.035975
-3.671817 2.921337
-4.100686 2.962587
-3.995360 3.185407
-4.019443 3.616802
-4.152831 3.168735
-4.021159 3.229210
-4.577341 2.965527
-4.670455 3.589165
-4.405913 2.777757
-4.635485 3.222849
-4.311335 3.653722
-4.622261 3.607715
-4.952282 3.652363
-4.357716 3.655769
-4.637358 3.147882
-4.576160 3.952282
-4.577812 3.545652
-4.654289 3.377094
-5.087300 3.539684
-4.426289 3.690537
-4.717854 3.371707
-4.472541 3.258198
-4.743191 3.703229
-4.427661 3.839816
-5.481837 3.754649
-4.925736 3.476344
-5.145663 3.549688
-4.784941 3.719263
-4.906958 3.896639
-4.757962 3.554869
-4.586792 4.232984
-4.734963 3.956246
-4.908500 4.029893
-4.686354 3.736399
-5.253198 4.175337
-4.701388 4.199729
-5.909315 3.311218
-4.586346 4.355019
-4.750881 3.370502
-5.342531 3.961409
-5.380286 3.817600
-5.060104 4.134694
-5.034862 4.180075
-5.128538 4.272266
-4.906385 3.980224
-4.786657 4.435838
-4.629675 4.809719
-5.050702 4.134522
-4.999769 4.123916
-4.366225 4.324056
-4.956320 4.700583
-5.060262 4.397979
-5.032790 4.779804
-5.023455 4.641846
-4.972487 4.421817
-5.087775 4.448311
-4.773226 4.449472
-5.228632 4.885999
-5.058511 4.845528
-5.675792 4.451162
-4.648721 4.989224
-5.296645 4.931688
-5.048750 4.627225
-5.261750 4.704672
-5.055566 4.610389
-5.271149 5.133795
-4.832090 5.263620
-4.806728 4.568621
-5.096890 5.416300
-5.117755 5.256517
-5.533462 5.128579
-5.358078 5.099097
-5.102733 5.419187
-4.884484 5.320102
-5.477374 5.712127
-5.525940 5.367465
-4.939445 5.616660
-5.012674 5.534344
-5.288720 5.584146
-5.059397 5.699884
-4.646488 5.640317
-4.891950 5.717724
-4.725323 5.593018
-5.347064 6.373318
-5.180277 6.129500
-5.378245 5.805329
-5.453772 5.518039
-5.142924 5.561731
-5.549214 5.788007
-5.019440 5.789494
-5.260435 6.398866
-5.361335 6.829431
-5.413035 6.127532
-4.922380 6.389902
-5.055732 6.291088
-5.411618 6.443550
-5.628089 5.374974
-5.381600 5.966369
-5.328688 5.488930
-5.381414 6.522023
-4.923324 6.376972
-5.126124 6.360396
-5.733449 6.276930
-5.372274 6.387321
-5.141268 6.496049
-5.154839 6.820128
-5.037898 6.256513
-4.824649 6.590785
-4.244842 6.594935
-4.808836 6.469970
-4.597362 6.472332
-5.318649 6.628580
-5.034765 6.576830
-5.015048 7.308190
-4.358248 7.125331
-4.698919 6.793297
-5.224047 7.060252
-4.425339 6.956237
-4.659135 7.195233
-4.725727 6.954611
-4.794718 7.055320
-4.916784 7.168989
-4.610511 8.027124
-4.745007 7.741424
-4.920566 7.579138
-4.480396 7.210471
-4.811585 8.034184
-4.736834 7.606257
-4.957770 7.585530
-4.945873 7.714771
-4.319688 7.850364
-4.815064 7.637457
-5.011807 7.920963
-4.516874 8.294952
-4.918778 7.141272
-4.611344 7.245292
-4.776835 7.539784
-4.344407 7.887061
-4.470320 8.263064
-4.580584 8.035223
-3.995833 7.837683
-4.691094 7.968050
-3.942733 8.118497
-4.202269 8.293250
-3.766680 8.461396
-4.704876 7.662888
-4.062799 7.660686
-5.132950 7.875726
-3.910717 8.068960
-4.225075 8.603544
-4.390188 8.619334
-4.472411 8.321069
-4.088212 8.867783
-3.975968 8.473338
-4.323310 8.683142
-4.262108 8.029380
-3.725200 9.097199
-3.662010 9.086564
-4.015288 8.552693
-4.229941 8.457762
-3.757840 9.080579
-3.793306 8.695979
-4.024006 9.382542
-3.703628 9.020468
-3.975496 8.245331
-3.810786 9.307837
-4.011148 8.838070
-3.519115 7.975179
-3.676143 8.872885
-4.062086 9.722999
-3.435909 8.771526
-2.844425 9.115324
-3.602484 8.701835
-3.427533 9.598566
-3.006237 9.171070
-2.956106 8.670768
-3.653400 9.485910
-3.640754 9.604705
-2.598302 9.298723
-3.326566 9.241275
-2.992329 9.398675
-3.158393 9.454815
-3.289349 8.828377
-2.432311 8.848915
-3.181569 9.604483
-2.573853 9.448343
-2.609899 9.758441
-2.818510 10.027412
-2.886056 9.274810
-2.599833 9.380742
-2.935831 10.186399
-2.263651 9.477306
-3.160860 10.043200
-2.585225 8.869772
-2.400599 9.328733
-2.615550 10.007613
-2.366541 9.499261
-1.850454 9.787780
-2.047645 9.871498
-2.266612 9.831581
-2.150033 9.862063
-2.105699 9.036353
-1.884585 10.420837
-1.881094 10.667789
-2.387131 9.844285
-1.916344 9.533766
-2.528216 10.194939
-1.735179 10.243877
-1.766757 9.997390
-1.949639 10.140897
-1.578051 10.108441
-1.684442 10.911121
-1.614825 10.215080
-1.714950 10.013904
-1.164514 10.440004
-1.273831 9.579655
-2.093299 10.113865
-1.423072 10.022773
-1.456724 10.213286
-0.887358 10.221098
-1.046793 10.007528
-1.768867 9.904138
-1.439357 10.710469
-0.907162 10.079873
-1.458089 10.143170
-1.572970 10.257999
-0.483976 10.346937
-0.578601 9.798344
-1.203980 10.851364
-1.381902 10.332841
-0.779172 10.330474
-0.528163 10.675327
-0.704108 10.809359
-1.018417 10.069755
-0.589786 10.836166
-0.838039 10.182217
-0.365709 10.695103
-0.492566 10.022393
-0.643797 10.620207
-0.670378 10.112334
-0.294133 10.755461
-0.421084 10.077722
0.169079 10.407015
-0.140110 10.397595
0.068115 10.662862
-1.012339 10.531326
-0.020610 10.766983
-0.346484 10.619444
0.213701 10.137773
-0.428712 10.189084
-0.325951 10.467953
-0.104888 10.643498
0.598018 9.791518
0.435697 10.446456
-0.085120 10.403367
0.569222 11.000875
0.758910 11.389043
0.131175 10.537865
0.378037 10.051296
0.132654 10.580136
0.710117 10.606079
0.905554 10.114637
1.044219 10.698052
0.807903 10.278170
0.627309 10.054853
0.608875 10.005033
0.776108 10.006725
0.357867 10.377526
1.434973 10.664974
0.824642 9.970422
1.005489 10.096381
0.972336 10.053610
1.098461 10.200304
0.393824 10.191842
1.498895 10.277875
2.143626 9.916686
0.750667 10.255968
1.520237 10.371743
2.194525 10.456420
1.856816 10.400462
1.389555 10.208674
1.641965 10.619002
1.493985 10.256809
2.191073 10.210194
2.222407 10.301158
1.579322 9.872208
1.591929 9.509911
2.252042 10.568130
1.918036 9.953334
1.885530 10.516281
2.410645 10.194376
1.934557 10.227224
2.285410 10.182324
1.756264 10.244361
1.845520 10.034120
2.527202 10.246413
2.276126 10.123042
2.458086 9.880032
2.175241 10.020987
2.132674 9.743194
2.056412 9.507499
3.339863 9.658708
2.422007 9.717630
3.043820 9.520203
2.262612 9.174812
2.709538 9.903000
2.873099 10.218623
2.874760 9.454073
2.789624 9.496249
3.159441 9.665775
2.900753 9.232072
2.441361 9.961032
2.813106 9.959369
2.750670 9.238426
3.442602 9.497214
2.715614 9.176443
2.467528 9.048893
2.702117 9.554941
2.485924 9.335281
2.695741 8.569902
3.175905 9.206824
3.131090 8.695819
4.018627 9.178575
3.593249 9.234673
2.429695 9.237858
3.070178 9.180887
3.516871 9.146229
3.595592 8.592645
3.082532 8.510054
2.863062 8.935133
3.395784 8.867093
3.306503 8.765415
3.408791 9.027076
3.894702 8.307206
3.582055 8.645300
3.559431 8.541169
3.856655 8.755760
3.098729 8.745427
3.891361 8.214632
3.015148 8.883782
3.723795 8.270641
3.226379 8.476495
4.085333 8.388728
3.595640 8.314081
3.525426 8.339977
3.239309 8.682285
3.343111 8.441716
3.912552 8.307046
4.753057 8.472123
3.817105 7.850021
4.156117 8.067879
3.394297 8.204856
4.151595 7.707880
3.607087 8.285530
3.723826 8.015076
3.516162 7.960771
3.513832 8.128352
4.131870 7.755589
4.338237 7.699223
3.596542 8.049521
3.648380 7.875576
4.157118 7.640105
4.600543 7.685575
3.162210 7.396808
4.149260 8.038040
3.525013 6.673979
2.985205 7.126864
4.137619 7.095533
4.230925 6.830162
3.676551 7.406486
3.763201 7.558881
3.702952 7.393267
4.134290 6.669973
3.599595 6.780495
4.473150 7.168087
3.697125 7.128124
3.893617 7.658314
3.848432 6.451163
3.904592 6.819559
3.908362 7.552311
3.759496 7.029905
4.776914 6.987989
4.248332 7.241374
3.470197 6.795056
3.901267 6.258991
3.457403 7.094463
3.650195 6.559140
3.065021 7.096109
4.619370 7.141582
2.928354 7.046320
3.796823 6.232546
4.053883 6.725616
4.068094 6.224497
3.696205 7.421318
3.354120 7.284151
4.028970 6.567226
3.758452 7.002951
3.517212 6.238453
4.383406 5.946276
3.046686 6.573334
3.951828 6.735960
4.025017 6.052223
3.466649 6.065850
3.226888 6.068658
3.114906 5.933216
3.057447 5.991552
3.394729 6.066544
3.461673 5.479831
3.675937 6.254431
3.204314 6.094060
3.562072 5.468200
3.873961 6.353085
3.605305 5.727400
2.662548 5.949377
2.785714 6.567396
3.321356 5.344370
3.657915 5.763785
2.924754 5.672812
3.974449 5.493681
2.733764 5.596586
3.284433 5.482390
2.760719 5.241775
3.087454 5.650393
2.632808 5.557878
2.859205 5.910448
2.935300 5.425314
3.779991 5.221659
3.589137 5.456234
3.270085 5.415511
3.233388 5.999042
2.516309 5.691905
2.183156 5.012926
2.591255 5.679253
2.942238 5.986382
1.864077 6.009084
3.320424 5.030201
3.209320 4.734729
3.004125 5.486607
3.075775 4.561688
1.693271 5.315692
1.998040 5.373365
2.835898 4.836440
3.249952 5.317015
2.678799 4.904916
2.680301 5.624371
1.772489 5.419732
2.472214 4.589992
2.547643 5.451660
1.536988 5.153681
2.215978 5.196116
2.123629 5.392486
1.905244 4.816018
2.478369 5.071446
1.341773 5.574986
1.603850 5.341762
2.844299 5.069169
1.850062 5.172714
1.808035 4.898598
1.953834 5.086894
1.609034 5.156274
2.147898 4.491055
1.636609 4.885379
2.675283 4.561839
0.755676 4.155950
1.470408 4.861388
1.606466 4.761811
1.629626 5.082718
1.878006 4.766597
1.173792 5.070699
1.992681 5.462125
1.802779 5.228258
1.219460 4.635915
2.133394 5.303919
1.219705 5.231656
1.215715 4.798772
1.814631 4.690640
0.934674 4.662919
1.477449 4.748814
1.125795 4.995429
0.671406 5.635994
0.723183 5.171009
1.239649 5.159265
1.281272 5.155822
0.682488 4.543851
0.539949 5.236563
0.870348 4.616230
0.510150 5.140124
0.212879 5.307960
0.880341 4.831613
0.243894 5.340114
0.751680 4.843856
0.496373 5.109871
0.223142 5.253184
-0.320312 5.112377
0.030857 5.588953
0.175166 5.377871
0.038430 5.628528
-0.346596 4.918687
0.426643 5.243890
0.190932 5.572176
0.014606 5.423100
-0.432153 5.089508
0.122070 4.713448
-0.614632 5.922285
-0.053926 5.387245
0.489679 5.395923
-0.362435 6.658988
-0.349479 5.733864
-0.309119 6.012635
-0.265792 5.959536
-0.638997 5.279276
0.198033 5.636568
-0.689147 5.245093
-0.105497 6.557548
-0.486022 6.422745
-1.141278 6.245689
-0.386641 6.814124
-1.341429 5.848777
-0.328117 5.764121
-0.915431 6.090498
-1.046214 5.650549
-1.036812 6.256626
-1.285133 5.865122
-1.089677 7.887832
-1.198844 6.582404
-0.583409 6.120860
-0.707578 6.259876
-1.654567 6.811618
-0.955271 6.990146
-1.064696 6.647204
-1.492726 5.890392
-0.800831 7.908462
-2.006811 6.313528
-1.449868 7.820278
-1.283426 7.274083
-1.449424 6.211063
-1.075278 6.818145
-1.629887 6.800530
-0.833750 6.664425
-1.798615 7.314450
-1.565674 6.700818
-1.544231 7.315447
-1.847200 7.324875
-1.832197 8.225636
-1.825972 7.936444
-1.799225 7.173140
-1.934221 7.891005
-1.063302 7.828325
-1.484738 7.583569
-0.888424 7.089617
-1.785663 7.203846
-1.740447 8.946894
-2.280589 8.069331
-2.087290 9.247277
-2.476793 8.955303
-1.914636 8.201140
-2.211791 8.428162
-0.778109 8.039010
-1.203683 7.862208
-1.607230 8.028413
-1.645931 8.204704
-2.255229 8.345654
-2.317020 8.305534
-2.482146 9.541217
-2.076230 9.179175
-2.486113 8.979674
-1.780311 9.119745
-2.074916 9.459331
-2.339233 9.504443
-1.274706 9.298978
-2.410118 9.375547
-1.588828 10.019605
-1.960695 9.044774
-1.673143 10.734120
-1.965681 10.364461
-2.343641 10.177361
-2.490424 9.841489
-2.537224 9.613072
-2.058309 10.089310
-2.306075 10.583359
-1.973570 10.182742
-1.277458 9.789429
-2.653957 9.708637
-1.452848 11.549280
-2.447127 11.352777
-2.247757 10.843326
-2.283218 11.388698
-1.986370 10.146905
-2.203230 10.847335
-1.685395 10.780426
-1.808399 10.861552
-2.529564 10.280503
-2.351379 10.579083
-1.428422 11.861579
-2.482172 11.855268
-1.836918 11.496312
-1.960571 12.033197
-2.330010 11.182966
-2.209080 12.511239
-2.002663 12.648506
-2.006088 11.767688
-0.577543 11.875766
-2.367048 11.839926
-1.834022 13.090177
-2.260462 13.046027
-2.036542 11.943840
-1.554113 12.837241
-1.637509 12.907157
-1.732638 12.947965
-1.536721 11.708833
-1.921611 12.464548
-2.502588 12.848338
-1.731652 13.334268
-2.342503 14.844615
-2.060042 14.682698
-0.899792 13.833575
-1.524094 14.376377
-1.470557 13.784826
-1.736963 14.834407
-1.844744 13.026855
-1.899876 13.663033
-1.058753 14.188139
-1.614166 13.644302
-0.365734 15.607607
-1.609715 15.365097
-2.101495 13.899629
-1.282201 14.960921
-1.130928 14.368497
-0.793324 14.656174
-1.612307 14.823987
-0.892926 14.357732
-0.586404 15.108171
-1.341203 15.105190
-0.007397 16.359648
-0.610115 16.517069
-0.125445 14.896399
-0.298347 15.957991
-0.632726 16.599855
-0.301434 16.048151
-0.452553 15.014195
-0.641756 15.735361
0.445437 15.384590
-0.658477 15.652649
1.251548 17.381054
0.493413 16.451161
-0.559990 16.360705
0.048011 16.699344
0.065653 17.061217
0.540079 17.399298
0.605245 15.393471
0.487433 16.807508
0.223181 17.262655
1.096417 16.760786
1.031644 18.208779
0.719078 18.157323
1.589142 17.191730
0.726077 17.828724
1.506554 18.277974
1.309991 18.297877
0.599344 17.170833
1.025833 18.048228
1.670322 17.704306
1.521807 18.103680
2.326891 19.759795
1.807021 19.073550
1.958260 17.487935
1.747696 19.515564
1.669278 18.239293
2.125038 18.921059
2.641834 18.287994
2.862892 18.194034
2.072682 18.967608
1.985400 18.394390
2.906884 19.472758
2.249401 20.346646
2.583725 19.460822
3.238674 20.602251
3.364747 19.679482
3.544117 20.294056
2.932089 18.486900
2.243175 18.581754
3.885093 19.997029
3.392936 19.346161
4.372254 21.369177
4.657244 20.937985
5.327852 18.635978
4.933326 20.035954
3.996057 20.305055
5.135622 21.081192
3.610196 18.205799
4.406181 20.734335
3.804373 20.822576
4.827029 21.079943
5.725277 21.151762
5.191623 20.716788
4.631758 21.278372
6.088705 22.367147
5.652530 20.812598
5.548492 22.688584
4.989455 18.793806
5.628134 20.349720
6.933708 22.679904
6.245845 21.198248
7.341527 23.607323
6.444218 22.276763
7.501789 19.442689
7.332111 22.075100
7.496296 21.830017
9.349401 22.372436
5.309677 20.301166
7.176725 23.683524
8.269440 21.005265
6.590500 21.566762
8.544228 22.224690
8.097301 23.233401
5.438954 23.433938
7.489937 22.944131
9.830983 22.348907
8.663429 22.356247
9.331570 19.546520
9.345156 20.909811
9.674690 22.893127
10.878000 23.022994
9.706405 24.691415
10.104419 23.423570
10.660710 21.054380
11.003742 22.500581
8.552002 23.099436
11.002975 24.673318
7.315768 18.556735
9.292632 23.568428
10.618371 22.411753
11.165290 22.050722
13.759235 23.849261
12.456373 23.203717
7.869648 23.303815
11.981185 24.284344
12.260460 23.404413
12.777515 23.536738
10.476075 19.762598
13.031087 23.504970
12.840233 22.244582
12.319410 23.378171
12.975439 26.417412
11.918823 24.560350
14.976318 21.999199
14.834356 23.651545
13.988393 24.515309
15.928488 25.445182
7.289203 18.112428
11.977892 23.625141
14.742852 22.421924
13.755637 23.135744
17.672641 22.272300
14.518418 25.114943
10.445406 21.011343
15.131737 22.188289
15.806068 24.356965
16.502662 22.992510
11.575766 21.057907
17.117585 22.125770
17.174924 25.689940
16.442044 25.646561
15.298590 26.305202
16.914589 24.781819
19.183970 23.734591
18.366549 25.628814
15.655162 22.295698
18.357305 25.525585
11.044006 11.525717
16.451339 22.347119
16.153784 22.036530
17.283318 23.149997
24.148040 21.290781
19.249741 23.480021
12.807509 21.117265
19.102773 23.396960
18.667806 22.717808
22.011326 22.829672
10.347352 23.208020
21.110716 24.332856
18.389119 22.248897
19.848887 25.308349
20.213252 24.715918
20.047896 25.526640
21.032795 24.731879
21.871922 25.231243
21.280966 22.284768
22.133060 24.479007
6.013723 9.123422
18.583296 21.453695
20.651995 21.281222
20.796848 23.219454
29.051766 23.510150
23.307768 24.914755
14.350877 13.104437
22.672603 22.502665
24.728329 21.197757
25.209378 19.911326
0.039389 29.222301
23.745973 22.610277
24.962922 24.453981
22.411764 24.141463
22.157961 24.456086
25.728293 23.382625
26.226907 28.327770
24.267511 26.915058
21.836663 20.912693
25.094846 23.738776
14.810313 -14.702539
20.442560 18.434491
27.403170 16.871403
26.063075 17.153512
35.851697 23.073854
27.530764 23.029377
18.512664 12.851060
29.662420 21.841988
24.037878 23.642341
33.975042 21.158808
-34.344948 30.821712
25.127728 25.735787
25.107227 25.674710
24.356692 22.733059
25.242239 14.200937
25.243762 22.932353
32.880678 28.506480
29.467820 23.677142
26.417550 19.404069
29.717973 24.063852
-17.774779 -25.422132
24.356991 16.600566
24.533930 15.143744
27.939157 15.841999
46.493875 24.318395
27.344183 24.944732
17.449499 1.575005
32.020371 17.652306
35.376382 20.555716
42.261948 18.336623
-152.304742 65.915633
29.032134 22.045361
23.539510 23.736137
24.427731 23.571218
29.085178 8.351833
26.749240 24.108807
24.078067 57.658280
27.883634 23.072433
31.337752 13.337998
26.348730 15.689972
49.934296 -139.566859
25.589455 2.001574
31.354267 10.168513
42.969263 12.796548
76.194195 55.557812
45.311767 23.107844
0.197099 -35.550098
57.485795 18.513425
34.925173 34.078889
50.228925 22.992922
-1884.555827 523.633045
10.595100 43.438666
44.006636 26.422287
14.232753 38.921552
11.414638 -16.136628
29.198794 27.807872
46.815957 2.468689
27.533555 26.608001
48.033219 15.479434
49.255528 39.003649
-10099.564139 -877.655677
