10658.802988 8880.774548
-4337.560686 -2683.724220
-379.275315 167.500820
88.116683 22.495989
-884.286088 -606.773052
127.109141 -82.005460
47.035973 -139.409688
-80.107558 -70.122253
-9.147796 -3.362192
5.812136 17.066523
-80.936135 -62.544470
3.775661 -15.206484
-1.202193 -24.702069
10.047948 -4.541321
-30.481329 2.703713
-1.521244 -3.309846
-10.228594 -23.387754
-12.741333 0.517538
2.899174 -20.242075
18.076935 1.758153
-21.847820 8.727207
-3.251566 -7.454036
3.734392 -7.775688
-13.155926 3.686048
-1.990479 -12.698060
14.061710 0.701048
-16.523674 6.567623
-2.815474 -7.740932
2.984764 -4.463897
-5.539583 2.289545
-3.274530 -7.609346
8.944857 1.617175
-9.990850 0.939256
-4.127705 -2.342822
1.566904 -3.928688
-2.284662 -1.612051
-2.094054 -3.090329
3.890094 0.240031
-3.007822 -0.533569
-1.577032 0.137887
-0.861476 -2.488462
0.625391 -1.974409
-1.724796 1.909926
0.637936 0.328341
-1.488565 -1.815585
-2.084098 1.530867
-4.001219 -2.123673
2.325792 -3.185207
-1.327556 1.127046
-1.543119 -0.349140
0.329479 -3.105894
-0.834169 1.175625
-2.190837 -2.008880
2.595215 -2.576219
-0.468464 1.675371
-0.914168 0.541654
0.372748 -0.762661
-1.009416 0.898374
-2.283958 -0.792558
1.410608 -1.549113
-1.259434 0.491573
-1.213915 0.027356
-0.749088 -1.157806
-0.172123 -1.115912
-1.464347 -1.287027
1.254146 -0.866982
-0.865493 -0.917845
-0.163821 0.475970
-0.058273 0.168984
-0.911775 -0.907007
-0.538348 -0.112888
0.019783 0.609220
-0.305681 -0.703598
0.262358 0.075382
-1.534360 0.456789
-0.275268 -1.648577
0.115725 -0.246080
0.525321 0.329457
-0.604584 -0.484482
0.014101 -0.376128
-0.919134 0.569931
-0.211716 -1.490611
-0.329170 -0.033765
-0.249431 0.642370
-0.088998 -0.446330
-0.304510 0.543596
-1.247826 -0.095465
-0.242944 -0.734674
-0.582647 -0.577780
0.063807 -0.148154
-0.029969 0.059880
-0.353570 -0.454934
-1.068325 -0.309451
0.696869 -0.544380
0.207530 -0.104123
-0.235986 0.185115
0.041221 -0.262046
-0.607189 0.000863
-0.124419 -0.050721
0.001477 0.257713
0.027911 -1.005925
-0.498384 -0.186703
0.429143 -0.484868
-0.260468 -0.108264
-0.411190 -0.203480
0.119748 -0.216842
-0.483736 -0.688359
-0.339481 0.028646
0.133013 0.034019
0.075757 0.180739
-0.915866 -0.205228
0.466414 -0.477372
0.047868 -0.409602
-0.018308 0.049483
-0.463619 0.075119
0.194599 -0.516269
-0.532583 -0.162364
0.043783 -0.037100
0.233780 0.438629
-0.190401 0.140646
-0.546575 0.135467
-0.184109 -0.380515
-0.355022 0.461536
-0.108864 0.198017
-0.332273 -0.101391
-0.287901 -0.353407
-0.460540 -0.049649
0.271992 -0.501723
0.032809 -0.407565
0.161484 -0.387974
-0.393262 -0.153784
0.121090 0.190220
0.228943 -0.095857
0.386774 0.367059
0.120528 -0.201999
-0.026524 -0.294236
-0.109885 0.301178
-0.133697 -0.216030
-0.330809 -0.148044
-0.071985 -0.052809
-0.174987 -0.067508
0.002941 -0.071078
-0.233483 -0.295649
0.115209 -0.538164
0.083529 -0.066814
0.130887 0.139459
-0.085536 -0.145820
0.458306 0.117416
0.268819 0.372525
0.233553 0.164128
0.147714 -0.070961
-0.120438 -0.095392
-0.205552 0.197089
-0.167201 -0.219583
-0.120085 0.033123
0.040591 -0.031404
-0.231966 -0.110995
0.125568 -0.060056
-0.139971 -0.425539
0.017126 -0.371252
0.499946 0.077818
0.148762 0.250857
-0.352318 -0.355561
0.234613 -0.302403
-0.018963 -0.177898
-0.008615 -0.135977
0.295289 -0.022893
0.313005 0.024482
-0.369859 0.134279
-0.224346 0.015148
0.309759 -0.125080
-0.102916 -0.038497
-0.664259 -0.393413
0.007189 0.202609
-0.286693 0.150238
-0.564681 0.103586
-0.570824 0.015327
-0.013927 0.035328
0.016472 -0.094637
-0.041437 0.066720
-0.228350 0.057744
-0.230784 0.137493
0.189483 0.404818
0.015250 0.034151
0.282361 -0.066917
0.078681 0.325362
0.151299 0.251342
-0.111905 -0.329034
-0.164477 0.170499
0.031857 0.102912
0.160291 0.087509
-0.178390 -0.013396
0.020174 0.237973
-0.396850 0.031773
-0.038901 -0.061760
0.296616 -0.095662
0.212415 -0.128997
-0.118598 0.006040
-0.216411 0.448673
-0.015999 -0.042098
0.038583 -0.195963
-0.377983 0.204050
-0.151145 -0.395247
-0.324751 -0.080588
-0.110062 0.208324
-0.225396 0.037284
-0.244567 -0.142086
-0.234507 0.104836
0.096264 -0.393213
0.056668 0.113279
0.171468 0.223675
0.134683 0.063139
0.123684 0.036934
-0.152255 -0.184342
0.075423 -0.056908
0.223289 0.529544
-0.107799 0.204657
-0.052358 -0.179134
-0.061123 0.252184
0.120792 0.013145
-0.283092 0.159995
-0.038815 0.120486
-0.483912 -0.355808
-0.363785 0.281053
0.272458 0.143367
-0.187385 -0.391581
-0.128045 -0.153674
-0.051586 -0.152410
-0.124434 -0.159556
0.004923 -0.055885
-0.182669 -0.286662
-0.511432 -0.129371
0.271094 0.237443
0.074419 -0.236707
0.274921 -0.194727
-0.052321 -0.244417
-0.296882 0.164667
0.076876 0.046310
-0.056681 -0.213966
-0.251701 -0.066939
-0.248766 -0.097606
-0.079618 0.236409
0.359595 0.239572
0.013639 -0.253388
0.024582 0.045226
-0.041768 0.202238
0.016917 -0.045471
0.386871 0.132111
0.139704 -0.164234
-0.183779 -0.344925
0.082674 -0.163368
-0.257928 -0.107115
0.004201 -0.191428
-0.027870 0.016338
-0.122032 -0.030462
-0.011252 -0.090384
0.124721 0.413717
-0.052954 0.040196
0.135686 0.063104
-0.018051 0.507843
-0.130639 0.079843
0.094313 -0.147266
0.313056 -0.079872
-0.097896 -0.350164
0.098077 0.025260
0.460346 -0.218490
0.296492 -0.309075
0.088018 0.332555
-0.077435 -0.293801
0.146729 0.040349
-0.019035 0.179699
-0.026228 0.259860
0.506162 -0.260681
-0.366877 -0.009527
-0.255502 0.116713
0.139329 0.150938
0.209164 0.136380
-0.182452 -0.034279
-0.458752 -0.071141
-0.279744 0.050541
0.130765 0.104937
-0.043108 0.023923
-0.071457 0.000623
-0.002695 -0.292928
-0.416615 -0.071435
-0.043031 -0.166349
-0.001526 -0.366804
-0.130631 -0.136029
-0.004503 -0.406348
-0.025985 -0.172278
0.072480 0.160314
0.030628 -0.297880
0.240285 -0.291796
0.069567 -0.038706
-0.026265 0.114560
-0.135921 -0.051506
0.110985 0.290960
-0.241130 -0.018286
-0.230658 -0.264834
-0.294021 -0.111589
0.122376 0.048287
-0.162490 -0.207589
0.141978 -0.118075
0.028588 -0.195579
-0.019046 0.078908
0.178534 0.214585
0.108327 0.126616
-0.126940 0.402143
-0.179893 0.029902
-0.028466 -0.112871
0.138422 -0.374505
0.172415 0.038307
0.158236 0.105118
0.088110 0.246704
-0.270225 -0.213980
-0.302283 -0.240582
0.180616 0.160517
-0.032027 -0.261130
0.025246 -0.285103
-0.050788 -0.154452
0.122103 0.147604
-0.108091 -0.314032
-0.120732 0.417103
-0.010300 0.154039
0.048161 -0.288188
-0.013436 -0.074959
0.264098 0.002087
0.523265 -0.316611
-0.098878 -0.065815
-0.001214 -0.078102
0.239424 0.198811
0.088137 -0.188553
-0.017554 -0.156291
0.044421 -0.208582
0.272206 -0.031063
0.365508 -0.423891
0.044795 -0.008165
0.110243 -0.154140
0.022462 -0.201119
0.344345 0.211875
-0.168628 -0.024828
-0.090261 -0.106977
0.372408 0.194068
0.024914 0.094202
-0.120466 0.101642
-0.182562 0.166716
-0.051461 0.216800
-0.134207 -0.080524
-0.116173 0.004822
-0.257805 -0.061057
0.225100 0.331263
0.345716 0.181591
-0.069525 -0.213576
0.006368 -0.084204
-0.095188 0.036181
-0.180610 0.018424
0.137426 -0.057976
-0.057834 -0.207755
-0.193766 -0.382337
0.006256 0.185402
0.038843 0.042241
-0.006209 -0.123722
0.257046 0.033425
-0.504150 -0.101257
-0.399711 0.312671
-0.343185 0.109903
-0.436683 0.007854
-0.159755 -0.135943
0.028750 -0.100348
-0.155029 -0.016821
-0.231544 0.125813
0.133713 0.143530
-0.016882 -0.412673
-0.328871 -0.168166
0.231323 -0.193926
-0.173868 -0.287939
-0.063881 -0.379662
0.045354 0.078049
-0.176614 0.414153
0.133632 -0.015754
0.201155 -0.155691
-0.097906 -0.282829
-0.146638 -0.289948
0.186303 -0.175804
-0.230858 -0.087861
0.121086 -0.148453
-0.202594 0.084486
-0.151961 0.658531
-0.037090 0.224967
-0.028167 0.347866
-0.154217 -0.225312
-0.409036 -0.074032
0.114171 0.173709
-0.041354 -0.115106
-0.048343 0.296916
0.177582 0.256110
0.226940 0.105134
0.146839 0.304760
0.268530 -0.024890
0.062324 -0.429119
-0.474865 0.208440
-0.129797 0.183038
0.231638 0.197448
-0.116782 -0.132371
-0.257732 0.313797
-0.040190 -0.185313
0.085040 0.285015
-0.440086 0.247541
-0.253128 -0.336364
-0.002307 0.030730
-0.636632 -0.209025
-0.144614 0.257176
-0.136007 -0.298928
-0.030232 0.440049
0.105931 0.253346
-0.013749 0.024379
-0.200180 0.006324
0.295482 0.062080
0.142485 -0.079727
-0.000195 -0.259766
-0.027534 -0.184693
-0.080912 -0.319357
-0.158429 0.079870
-0.216658 0.093806
-0.238459 0.151229
0.282424 -0.101567
-0.052833 -0.038791
0.153565 0.054953
0.142725 0.025668
0.181475 -0.059512
0.175303 -0.226285
-0.052230 0.239494
0.333513 0.152639
0.200928 0.213861
-0.123847 0.075516
-0.126711 -0.045028
0.405352 0.109958
0.093585 -0.011764
0.028696 0.089857
0.214074 0.043809
-0.076586 0.016764
-0.083194 0.310170
0.082825 -0.013916
-0.160332 -0.065358
-0.202500 0.541205
-0.198594 -0.175039
0.186124 -0.372149
-0.005519 -0.461044
0.165156 0.079620
0.255025 -0.169434
0.145971 -0.018874
0.344664 -0.358732
-0.235961 -0.285733
-0.355651 0.153486
0.549461 0.124694
-0.399363 -0.108967
-0.129573 0.055338
-0.127629 -0.260963
0.070218 -0.114373
-0.051568 -0.291919
0.095345 0.169569
-0.185936 -0.152339
-0.188553 0.204793
0.086483 -0.088372
-0.096137 -0.085432
0.235878 0.416166
0.238985 0.206276
-0.052952 -0.222773
0.136558 -0.010154
0.005128 -0.348824
-0.065418 -0.191661
-0.560969 0.042378
-0.178143 0.102834
0.120479 -0.047009
-0.276670 0.374106
0.077727 0.110285
0.472576 0.249536
-0.307008 0.082974
0.083776 0.047038
-0.003316 -0.379941
-0.053898 -0.052160
0.088077 -0.051278
-0.262222 -0.342085
-0.023762 -0.138036
-0.173949 0.169620
0.257544 0.013297
-0.455694 -0.131146
0.048938 0.023862
0.126803 -0.359804
-0.232508 -0.154287
-0.025567 0.527344
0.511123 -0.107774
0.153783 -0.279412
-0.493040 -0.220178
-0.158044 -0.230889
-0.042850 0.189772
-0.078097 -0.028385
0.203385 0.367387
0.214147 0.226782
0.030710 0.133413
-0.146851 0.267888
0.538333 -0.478271
0.086917 -0.096758
0.209443 -0.141398
-0.403556 -0.057845
-0.058296 0.005680
-0.107787 -0.052786
-0.161040 0.378976
0.394550 -0.046305
0.112341 -0.408015
0.206500 -0.096064
0.072391 0.064596
0.133502 -0.151757
0.127180 -0.170304
-0.051098 0.076898
0.296924 0.103506
-0.127790 -0.483704
0.314571 -0.192317
-0.022788 -0.365341
-0.117787 0.478063
-0.119382 0.128098
0.158879 0.501289
-0.187409 -0.236957
-0.352706 0.106969
-0.273787 0.232771
0.332067 -0.067942
0.095825 0.196380
-0.137016 0.020636
0.380557 0.052373
-0.282427 0.196458
-0.479890 0.324354
0.252776 -0.239702
-0.012298 0.117127
-0.107330 -0.402125
-0.039364 -0.105282
-0.125749 0.170071
-0.072792 0.002696
0.015510 -0.145584
0.105018 -0.084815
0.421561 -0.176943
-0.120234 -0.129833
0.000881 0.127539
0.141106 0.038033
0.099544 0.071663
0.146326 -0.438156
0.214634 -0.327958
-0.269872 -0.131240
-0.029577 -0.175861
0.119841 0.492727
0.045077 0.125207
-0.097173 0.016717
-0.255698 -0.048731
-0.505698 0.389124
0.158547 0.011251
-0.216062 0.123765
-0.086499 0.158915
-0.066455 0.084559
0.108647 0.233429
0.045700 0.513080
0.152023 -0.027855
0.139535 -0.127799
-0.003688 0.291605
-0.005717 0.116532
0.043675 0.184959
0.258021 0.207328
-0.098202 0.208557
0.250890 0.267479
0.139136 -0.000590
0.231063 -0.660407
-0.041012 0.174551
-0.131342 -0.142944
-0.219406 -0.012025
-0.223766 -0.209086
-0.054491 -0.168290
-0.235538 0.240194
-0.351437 -0.317755
0.202373 -0.061996
-0.246126 -0.091398
-0.025599 0.001131
-0.184978 -0.379014
0.567934 -0.271961
0.085972 -0.088844
-0.099850 -0.061999
0.002832 -0.279512
0.007119 -0.492114
0.344604 0.356763
-0.135125 0.080425
0.014321 -0.199008
-0.108206 -0.060149
0.008838 -0.140022
0.169698 -0.128007
-0.074885 0.261838
0.239376 -0.121714
-0.195867 0.176815
-0.275748 -0.039228
0.183953 -0.149805
0.350693 0.016019
-0.011184 0.323193
-0.086570 -0.250133
-0.530177 -0.037038
0.387229 0.221958
-0.241445 0.193029
0.047257 -0.207883
0.290200 0.037101
0.244959 0.022839
-0.142246 -0.023770
0.164175 -0.131859
0.079041 -0.404536
-0.161547 0.463453
-0.269457 0.200392
-0.103972 -0.402280
-0.184315 -0.246211
0.209338 0.374262
-0.475840 -0.317589
0.039514 -0.052034
0.412735 -0.104174
-0.123630 0.051458
-0.231576 0.083395
0.455701 0.009127
0.225137 -0.134618
-0.241392 0.144691
-0.359491 -0.239365
0.064221 -0.564267
0.208577 0.017703
-0.460488 -0.159424
-0.366043 -0.070948
-0.056003 0.002859
0.422092 0.031748
-0.776968 0.115444
-0.268527 -0.056435
-0.147659 0.301240
-0.172140 -0.028445
-0.638521 0.205634
0.297875 0.050729
-0.010824 0.068942
0.344665 0.137919
-0.089136 -0.148429
-0.090038 -0.125053
-0.000498 0.267466
0.182014 0.107073
-0.098089 0.027880
-0.252603 0.042359
-0.301644 -0.207947
0.166454 0.600188
0.483067 -0.230828
0.348029 0.041583
-0.319411 -0.043996
-0.408023 0.063625
-0.103541 0.142325
-0.130033 -0.085499
0.234047 0.043632
-0.320822 -0.541455
-0.223968 0.159063
0.306856 0.267965
0.100258 -0.222806
0.268084 -0.380836
-0.296511 0.163538
0.305345 0.316430
-0.437102 -0.224766
0.498975 -0.173673
0.082644 0.380884
0.111912 -0.470384
0.435719 0.120087
-0.188301 -0.357167
0.001803 -0.446240
0.173220 -0.357969
-0.161522 -0.160857
0.212102 0.586586
0.235885 0.035173
-0.224008 0.152735
-0.415399 0.060008
0.109125 0.193513
-0.117670 -0.525693
-0.366121 -0.137519
0.274981 0.030588
0.070945 0.496092
0.233436 -0.081739
-0.170175 0.008190
-0.150284 0.438805
0.237017 -0.061976
-0.384446 -0.501082
-0.500449 -0.302359
0.190694 0.064595
-0.428331 0.386133
-0.094825 0.043651
-0.148187 -0.114607
0.321771 0.014403
-0.208429 0.009894
-0.002200 -0.168085
-0.039339 0.315974
0.263641 0.325978
0.452639 -0.342007
0.104290 -0.219275
-0.200346 -0.169604
0.134207 0.187890
0.274107 -0.020939
0.183430 -0.404481
-0.330695 0.070862
-0.259389 0.383328
0.224430 0.278378
0.031964 0.446831
0.023383 -0.292064
-0.108074 0.176687
0.024015 0.478106
-0.049113 -0.031768
-0.119031 0.260035
0.369698 -0.075871
0.311026 0.109110
-0.143651 -0.371206
-0.168746 -0.320850
0.079913 -0.069175
0.272777 0.471438
-0.331863 -0.104577
-0.284315 0.122801
-0.025994 0.251542
0.193400 -0.423626
0.024564 -0.646535
0.155824 0.414399
0.487631 -0.339983
0.115752 0.342463
-0.192400 0.113898
-0.320540 0.011164
0.645110 0.125278
-0.133306 -0.400893
0.172637 -0.557765
-0.155889 0.093522
0.218850 -0.514519
-0.257352 0.150958
0.059597 -0.036931
0.151540 0.413122
-0.280819 -0.059933
0.102900 0.406580
0.143929 0.080929
0.109969 -0.175974
-0.285010 0.459443
-0.614675 0.063979
0.305833 0.351977
0.040905 -0.201535
-0.361356 -0.210675
0.112648 0.035133
-0.105020 0.314863
0.310177 0.265936
-0.273018 -0.432724
-0.000434 -0.139297
-0.512307 -0.121258
-0.344756 0.349256
0.485484 0.207602
0.124838 -0.293327
0.035051 -0.185243
-0.026887 0.389851
0.376349 0.120042
-0.188723 0.442740
-0.109595 -0.191592
-0.285544 -0.110353
-0.239958 0.241421
0.029740 0.433075
0.222154 0.038093
-0.227808 -0.072491
0.349763 0.152757
0.343594 0.154067
-0.023711 -0.069550
0.364017 -0.419401
-0.056599 0.331834
0.059093 0.088339
0.232569 -0.212157
0.231569 -0.942337
0.249835 0.374612
-0.093238 0.072739
-0.079689 -0.424371
-0.049915 -0.325771
0.090545 0.600952
-0.521983 -0.098760
-0.021775 -0.062846
0.147236 -0.117226
-0.338079 0.070830
-0.100626 -0.207054
0.349174 -0.097510
0.092942 -0.321122
0.046808 0.259715
0.003246 0.093268
-0.194613 -0.404082
0.635800 -0.024779
-0.223283 0.155749
-0.583366 -0.301216
0.021144 -0.026024
0.212411 -0.198764
-0.683256 0.075699
0.233389 -0.070941
0.240635 0.120654
0.106099 0.228339
0.033983 -0.110992
-0.265464 -0.216271
-0.131660 -0.279181
0.319255 0.480442
-0.217398 -0.211897
-0.049478 -0.355891
0.235064 0.156785
-0.034088 -0.139212
0.252955 -0.248335
0.182381 0.339844
0.031009 -0.441999
0.144915 0.184886
0.087079 0.095942
0.176475 -0.205891
0.342816 0.440964
-0.309530 0.176482
-0.285156 -0.161722
0.022105 -0.443725
0.170032 0.216949
-0.436084 0.142778
-0.030709 0.076088
-0.068326 -0.042717
0.083055 -0.075902
0.000375 0.363323
-0.210147 -0.177335
0.369812 0.201842
-0.343016 0.038122
-0.179983 0.007425
-0.217469 -0.197750
-0.134359 -0.410330
-0.278227 -0.280493
-0.538218 -0.114602
-0.470534 -0.129962
-0.210044 -0.032390
0.233207 -0.226752
-0.414059 0.356059
0.032532 -0.079273
0.306174 0.013069
-0.237323 -0.123974
-0.393979 0.204125
0.175772 0.026716
-0.231434 0.491346
0.123183 -0.093286
-0.035577 0.186468
-0.208776 -0.069025
0.121738 -0.086397
0.487074 0.005948
0.169185 -0.057709
0.231870 -0.211936
-0.022099 0.076744
-0.005467 0.194292
0.426273 -0.081357
-0.035274 -0.373642
0.283960 -0.301148
-0.061061 -0.307437
-0.063289 -0.025925
0.061138 0.155770
0.034182 0.182859
0.044210 -0.097630
-0.016447 -0.114871
-0.137969 0.077945
-0.123568 0.141915
0.120380 0.085886
-0.115241 0.079986
0.224734 0.177519
-0.069181 -0.116991
-0.384698 -0.223597
-0.106293 0.235879
-0.084794 0.123518
0.076698 -0.172756
-0.071691 0.143298
-0.121294 -0.001572
-0.573621 -0.224170
0.046756 0.022113
-0.012013 -0.221176
0.689714 0.036902
-0.043514 -0.309010
0.159458 0.138522
-0.064077 0.525552
0.173639 -0.124662
0.291172 -0.570101
-0.048003 -0.144393
-0.026978 -0.321793
-0.060734 -0.276504
0.440594 0.040306
-0.013372 -0.226443
0.141950 0.275654
-0.063633 -0.103275
0.122255 0.113037
0.004928 -0.076954
-0.525902 0.042718
-0.127288 0.587286
0.509129 -0.018021
-0.178584 0.215445
-0.060916 -0.015886
-0.197966 -0.289222
-0.007385 -0.537040
-0.343294 -0.075068
-0.169259 0.145410
0.235273 -0.346719
-0.148042 0.427260
0.245975 0.339693
0.104457 0.213023
0.013860 0.111048
0.485142 0.240704
0.266343 -0.352680
-0.007569 -0.130787
-0.550092 0.413416
-0.001553 0.280032
-0.002778 0.070758
-0.201966 -0.276456
0.199408 -0.051986
0.028096 0.091222
-0.069926 -0.037557
0.296433 0.064343
-0.168311 0.224475
0.015421 0.068319
0.032595 -0.744604
0.010347 0.340332
-0.163177 -0.174618
-0.001351 0.198336
-0.471951 0.005702
-0.110267 -0.068200
-0.045853 0.254981
-0.224148 0.321762
0.145501 0.006461
0.192008 0.172341
-0.022080 -0.283536
0.275482 -0.291353
0.246710 -0.317015
-0.185317 -0.016235
-0.230104 0.034732
-0.329033 -0.177146
-0.136353 0.021032
0.294839 0.229611
0.153001 -0.048424
0.027878 0.030694
-0.028006 0.043569
0.364886 0.107938
-0.002705 -0.502873
-0.038062 0.336765
0.348351 0.001686
-0.268833 -0.134070
0.044519 0.073338
0.030708 0.050887
-0.067013 0.095784
0.149315 -0.150556
-0.085333 -0.229388
-0.526889 -0.467103
-0.225536 0.215059
0.165681 -0.074483
0.021761 -0.677704
-0.162809 0.282496
-0.080255 0.219731
-0.083814 -0.162923
0.437390 0.456266
-0.411993 0.178695
-0.262599 0.059993
-0.360978 0.204082
-0.155751 -0.194771
-0.299950 -0.451493
-0.331962 -0.188784
-0.009257 -0.107788
0.294734 -0.165673
-0.200631 -0.083402
0.299792 -0.247133
0.063727 0.108908
0.182101 0.597540
0.171923 -0.155455
-0.112713 0.028673
-0.244063 0.170934
-0.011437 0.261227
0.275517 -0.020300
-0.176729 0.310511
-0.247143 0.369579
0.317124 0.024753
0.178267 0.029100
0.082445 0.051167
0.104683 -0.060080
-0.214234 -0.135442
-0.584731 0.028975
0.280419 0.089610
-0.284374 0.213958
-0.176368 0.338451
-0.222068 0.129262
0.022913 0.267878
-0.250594 0.391159
0.085323 -0.073312
0.216487 -0.178213
0.102303 -0.182601
0.190028 0.217070
-0.428173 -0.072576
0.274269 0.113739
-0.326899 -0.014769
-0.009338 0.007186
-0.224728 -0.268630
-0.238738 -0.002130
0.239896 0.089654
-0.026366 -0.316043
0.153311 -0.475229
-0.184164 -0.237758
-0.154392 -0.062033
0.095467 0.288223
-0.072139 -0.004936
-0.234137 0.353505
0.343582 0.081719
-0.002363 -0.154055
0.272966 0.025091
0.074785 0.030714
-0.033328 0.036924
-0.108447 0.198014
0.289170 0.444969
0.223003 -0.159017
0.023183 -0.176627
0.266982 -0.043965
0.071712 -0.432469
0.361874 -0.345918
0.275474 -0.155517
0.066967 0.146461
-0.008458 -0.034891
-0.008358 0.791377
0.290857 0.146463
0.000214 -0.151113
-0.163457 0.015760
-0.136466 0.018084
0.173785 -0.447296
-0.025034 0.201676
-0.335739 0.192345
-0.052137 -0.054852
-0.053979 0.332669
0.061344 -0.076228
-0.145538 -0.302582
0.053254 0.464759
0.011559 -0.124007
0.281285 0.086135
0.161514 -0.022500
-0.234467 -0.378376
-0.301844 -0.155636
-0.422318 0.019970
0.309807 -0.440274
0.198418 -0.468957
-0.163640 -0.239798
0.142811 -0.236808
0.052815 0.045400
0.178659 -0.023687
0.094958 -0.286059
-0.275071 0.085179
-0.477241 0.008346
0.017610 0.072800
-0.116842 0.124015
-0.044985 -0.252472
-0.080524 -0.456304
0.159392 0.146598
0.237409 -0.163108
-0.019844 -0.243435
0.006892 -0.018451
0.027834 -0.292627
0.092878 0.024280
0.133035 -0.337632
0.139109 -0.395140
0.363184 0.076582
-0.004549 -0.048425
0.060236 -0.366561
0.023197 -0.360119
0.124840 0.011319
0.099800 -0.134730
0.297842 0.132061
-0.016326 0.010430
-0.077198 0.265728
0.176662 0.300550
-0.244656 -0.073623
-0.269958 -0.123897
-0.243990 0.290947
-0.122738 -0.142566
-0.170627 -0.025752
-0.222036 -0.061400
0.326906 0.336337
0.379481 -0.072817
-0.140383 0.071352
-0.063204 0.052154
-0.061924 -0.031045
0.093313 -0.376051
-0.015728 0.035469
0.527505 0.338117
-0.280154 0.164451
-0.334272 0.117645
-0.283039 0.088745
-0.005448 -0.258757
-0.382900 -0.126710
-0.087314 0.016309
0.083689 -0.005985
-0.098759 -0.183037
0.197148 0.256173
-0.018093 0.155718
-0.037376 0.206757
0.053030 -0.126108
0.061211 -0.050791
-0.264404 -0.278775
0.246288 0.177606
0.417830 -0.037846
-0.000619 -0.025256
0.070607 0.079126
0.112873 0.013331
-0.078473 0.216614
0.047748 0.153540
0.049998 -0.201906
-0.100438 -0.076781
-0.094314 0.057028
-0.328298 -0.100747
0.305160 0.069499
0.108220 0.000352
-0.168051 -0.150946
-0.011363 -0.175970
-0.054188 0.230447
-0.002831 0.077132
0.073641 -0.191661
-0.354674 0.094447
-0.460329 0.032112
-0.096947 0.259737
0.005906 0.096741
-0.225598 -0.070923
-0.083959 -0.521276
-0.416821 -0.151062
-0.051855 0.219278
0.029189 0.017797
-0.082027 -0.824958
-0.256151 -0.297643
0.049166 0.081898
0.134902 -0.373455
0.412103 0.055425
-0.064928 0.011249
-0.248812 -0.238352
0.396331 -0.088798
-0.368843 -0.048986
-0.108656 0.057318
-0.080783 -0.130160
-0.025809 -0.055430
-0.162504 0.005085
-0.235913 0.387748
0.033555 0.109884
0.055107 0.113137
-0.321351 0.434308
-0.020480 0.070405
-0.085747 -0.121245
0.096001 0.157256
0.139066 -0.366973
-0.037864 -0.043675
0.334629 0.122380
0.127745 -0.284672
-0.127126 -0.183269
-0.049296 -0.210971
-0.319169 0.106337
0.029167 0.392094
0.039811 0.108172
-0.179118 0.083790
-0.277719 -0.040557
-0.170002 0.184940
-0.009684 0.361464
0.299923 -0.112521
-0.009879 -0.025753
-0.004117 0.012526
0.013256 0.006178
0.260253 0.176052
-0.024858 -0.289670
-0.146270 -0.004496
-0.314063 0.207366
0.006225 0.112212
0.166748 0.084821
0.058578 -0.047235
0.033998 0.051029
-0.157045 0.218127
-0.046300 0.177195
-0.306899 -0.289020
-0.539884 -0.004276
-0.136780 -0.042624
0.011253 0.188808
-0.050533 0.076207
-0.245416 -0.162990
-0.388023 -0.343301
-0.125928 0.089784
0.186054 -0.284043
-0.390087 -0.034595
-0.222959 0.107215
-0.045931 -0.528631
-0.017864 0.291699
0.298421 -0.151414
-0.172244 -0.378667
-0.193935 0.156016
0.082056 0.122407
-0.050108 0.117483
0.017433 0.233004
0.094312 -0.215742
-0.007992 0.084269
-0.035377 0.211177
0.291480 0.206839
-0.014483 0.239626
-0.257154 -0.294030
-0.376117 -0.340896
0.268956 -0.087731
-0.259433 0.090204
0.007560 0.025038
-0.419986 -0.019417
-0.321066 -0.483805
-0.173718 -0.220167
0.017837 -0.045425
-0.090021 -0.376492
0.267973 0.009165
-0.244633 0.254523
0.028772 -0.361002
-0.106916 -0.033725
0.003188 -0.147656
0.208798 -0.156888
-0.121060 0.019767
-0.194184 0.171631
0.070118 -0.149988
-0.314825 0.221488
-0.185106 0.120673
0.453803 0.419653
0.086819 0.053950
-0.339679 0.247463
-0.109864 -0.396425
0.018363 0.246507
-0.006673 -0.054520
0.338742 -0.116675
0.387993 -0.351865
-0.032256 0.222764
0.071455 -0.320952
0.071535 -0.909652
0.296619 -0.358321
0.141321 0.197214
0.392015 -0.364356
-0.309642 0.191592
0.009380 -0.031260
0.049522 -0.345902
0.090495 -0.450654
0.065570 0.101633
0.049866 0.044016
-0.271796 -0.048684
-0.127832 -0.313282
-0.260757 0.053521
0.067635 -0.198997
-0.346149 -0.168026
0.392884 -0.329611
-0.122152 0.012887
-0.264922 0.028034
0.024786 -0.031020
0.502793 -0.319182
-0.174794 -0.173579
-0.009853 -0.228266
-0.290666 0.393340
-0.338310 -0.048076
0.099780 0.083864
0.010822 -0.018639
-0.335607 0.156011
0.464173 -0.190264
0.034165 0.231583
-0.254276 -0.277991
-0.313101 -0.184617
0.388629 -0.059731
0.068051 0.050502
0.054204 0.063603
-0.173836 -0.023619
0.077845 -0.596454
0.142284 0.015198
0.010253 -0.322563
-0.024347 0.240495
0.131676 0.558065
-0.259026 0.514312
0.061341 -0.234301
-0.150649 0.300520
0.307215 -0.312292
-0.593468 0.272284
-0.258362 0.296664
-0.694490 -0.087886
-0.169041 -0.275735
-0.059276 -0.188219
0.271190 -0.276353
0.035881 0.442122
-0.187940 0.014145
-0.283232 -0.294285
0.349697 -0.685227
0.393866 0.273788
0.245013 0.140101
0.203671 0.503292
-0.465740 -0.290774
-0.114096 -0.413379
-0.001316 -0.517634
0.124906 0.397243
-0.161584 0.169699
-0.222610 -0.309429
-0.316400 -0.000462
0.116542 -0.088875
0.334367 -0.174841
0.268882 -0.580788
-0.014089 0.020910
-0.125034 0.433698
-0.289194 -0.340600
-0.413847 -0.469289
-0.037594 -0.349468
-0.239898 -0.429489
0.503802 -0.011643
-0.213962 1.503285
-0.299593 -0.856563
-0.940507 0.069847
0.620419 -0.682729
-0.094870 0.342453
0.148955 0.282691
-0.831671 1.040464
-0.500160 -1.102261
-0.182104 -0.217129
-0.267488 -0.253059
0.054568 0.019870
0.198164 -0.183842
-0.704258 0.481578
-0.228125 -1.138309
-0.860910 0.012825
0.847178 -0.251644
0.500087 -0.208683
0.351937 -0.821928
-1.085630 1.202533
-0.652115 -0.962332
-0.028896 -0.309624
-0.128313 -0.451644
-0.203411 0.247874
-0.703009 -0.634794
-0.647935 0.123264
-0.265616 -1.064868
0.303330 -0.792910
0.167656 -0.343576
0.829825 0.930236
0.153109 -0.775023
-0.636753 1.462615
-0.360040 -1.233821
-0.288500 -0.488233
0.068875 -0.964922
-0.038221 1.039381
-1.006522 -1.024636
-1.579100 0.053119
-0.577916 -1.203089
-0.007522 -1.734793
0.469417 -1.241738
0.276878 1.744042
-0.770295 -1.463965
-0.623780 0.262872
-1.012804 -0.097134
0.422054 -0.848682
0.422878 -1.770220
-0.218154 2.666232
-2.119339 -1.535947
-1.722343 -0.075356
-1.058244 -1.678671
-0.051554 -1.283452
0.239658 -3.063612
-0.195589 2.398475
-1.015724 -1.509045
-1.004931 -1.595880
-1.220632 -2.060159
1.419004 0.308724
0.257705 -2.297943
0.329676 2.737133
-2.204273 -0.039817
-3.361945 -1.454392
-2.787911 -4.785564
3.354051 2.190018
-1.918277 -4.566540
-0.145423 0.988648
-1.135743 0.550973
-6.025876 -1.208100
-1.383427 -10.723113
5.329290 4.449627
-4.168187 -3.305431
-1.260781 -2.685610
-0.507902 4.160569
-8.593497 -2.570307
-2.804595 -18.817036
10.792419 8.970404
-8.327844 -1.726179
0.324341 -7.715946
-4.429545 6.923777
-12.341834 -0.212434
-5.270590 -37.027354
16.727559 18.576238
-11.640845 -5.451142
-1.059777 -10.774973
-6.128590 6.564155
-20.021520 -0.687157
-4.331281 -57.201179
28.782696 28.476570
-26.120854 0.817099
-3.868695 -6.041873
-74.726673 -19.514624
-29.216342 -6.583259
-22.382287 -200.888483
-22.971663 17.502050
-3.607360 -57.292598
-48.997524 -29.907296
-2032.838687 -1055.016840
-356.531509 293.350130
