12991.424418 12951.334085
-47.936074 -4.788062
46.704644 6.673759
5.042354 32.809218
93.164478 31.271922
-2074.886645 34.723118
-37.722309 32.387400
61.721700 28.149846
12.353930 7.364276
110.866180 1.591403
23.973681 12.499794
95.413745 8.635707
45.563217 9.393518
0.973786 -4.717723
38.496370 4.421003
-25.794808 13.611499
47.725775 15.052722
-233.240206 10.848901
-6.784679 9.870105
73.170475 11.768290
31.141833 3.048943
49.910539 0.257286
31.787834 5.845696
41.755365 1.129135
40.535971 4.432589
12.472582 0.721787
36.298436 4.324508
8.289037 7.863287
37.072866 8.205967
-56.044928 -0.025787
10.161806 5.360513
54.563541 5.967993
29.160988 -0.649892
36.350602 -5.442738
33.668041 0.870944
33.889803 3.848105
38.227284 0.348943
19.097478 -0.902461
31.455268 -2.671537
14.248835 0.334878
34.912721 4.677168
-10.751542 -0.722005
13.919094 -1.290434
46.856337 -1.522451
32.246601 -2.995883
33.327350 -5.490629
31.006159 -2.988557
32.380372 -0.397600
32.783160 -3.200218
19.658879 -4.926246
29.187524 -3.708741
16.900039 -2.433052
31.455070 -2.119636
8.728685 -7.342297
16.364559 -4.379639
40.584231 -3.641520
28.467090 -4.421243
31.775959 -8.652292
29.438082 -6.781335
27.644557 -5.941079
30.881273 -6.283416
19.450873 -9.021425
28.809971 -8.856078
20.696793 -6.989313
27.239816 -4.701350
17.258774 -6.656763
15.612105 -6.710607
35.881768 -8.086401
29.129841 -8.952300
28.341860 -12.977719
28.530353 -9.742335
23.103102 -8.473039
30.370553 -9.004792
20.047646 -11.338218
24.878778 -10.587950
20.268889 -8.318948
23.564820 -7.078944
19.203031 -12.085723
15.460227 -10.733034
30.863698 -11.730465
27.300220 -11.859970
23.077978 -13.550543
27.315442 -12.660815
21.284456 -10.079555
27.025380 -11.506430
18.012181 -10.812393
21.555629 -12.754162
18.710119 -13.099303
20.535465 -9.600262
19.058258 -12.977323
15.700126 -14.988938
26.382873 -13.947786
25.386721 -13.085577
21.019748 -14.247994
24.332567 -15.123603
18.043191 -12.846763
22.448607 -12.709898
17.550458 -15.406878
19.088068 -13.839415
17.502663 -12.910520
18.504707 -12.698580
18.578998 -15.048088
13.557985 -15.504090
22.121929 -13.799649
23.519432 -14.595479
17.571534 -17.856348
19.674952 -16.050701
15.351686 -15.112894
19.818107 -13.960628
14.998454 -16.396066
15.956360 -16.985115
16.566207 -14.153251
15.079108 -14.050448
17.391851 -15.739188
12.883168 -17.195252
18.594403 -16.465384
20.040393 -15.521519
14.501448 -18.696567
17.130199 -16.645567
13.600444 -15.844608
16.099540 -15.194559
13.734279 -16.588974
12.872423 -16.928411
13.833583 -16.096396
12.421298 -15.784250
14.340892 -15.884652
11.941119 -17.570965
13.963039 -17.229383
15.817772 -16.087824
12.056419 -17.541819
13.972773 -17.106267
10.910261 -16.779365
12.086958 -15.102889
11.930997 -17.477832
9.962155 -17.864459
11.359601 -17.084070
9.684178 -14.973514
10.104734 -16.095946
9.121207 -18.568460
10.508813 -17.752851
13.827853 -15.595487
8.354235 -17.949581
11.662586 -17.683526
9.797983 -15.942343
9.098862 -15.482429
8.122232 -16.583956
6.587451 -17.075405
8.330871 -16.281877
6.482198 -16.557985
8.259376 -15.724382
6.173418 -17.041708
7.826851 -18.433578
11.086759 -15.600240
6.657002 -16.911097
6.899754 -17.214558
6.078003 -16.177899
6.600097 -16.015782
6.175781 -16.148403
3.863743 -17.749574
5.778084 -16.661621
5.870304 -15.126904
5.401999 -16.324474
4.538486 -16.005534
4.972347 -16.630694
6.953708 -16.101675
4.917167 -15.560887
3.749755 -17.348224
4.280780 -14.858590
2.587698 -16.052763
3.108984 -15.943958
2.073697 -16.809651
3.833808 -15.514040
3.420998 -14.287136
2.190686 -14.475241
3.201055 -15.411850
3.182565 -15.547744
4.475522 -15.148407
2.162208 -15.287435
2.010123 -15.567810
2.245468 -13.711481
0.653744 -13.755721
1.347359 -15.104603
0.735895 -14.828650
0.703275 -13.977484
1.525238 -13.269838
0.096293 -14.124907
0.689011 -15.023668
-0.285778 -14.507643
2.019004 -13.669777
0.120942 -13.503702
-0.632449 -13.818700
0.325491 -12.731738
-1.624456 -11.746083
-0.762091 -12.625787
-1.237895 -13.481110
-1.136371 -13.141455
-0.504277 -12.622543
-1.658344 -12.410973
-0.264341 -12.523118
-1.758276 -12.552322
0.051654 -11.478291
-0.738035 -11.783615
-2.294523 -11.545128
-0.763821 -11.690276
-2.190711 -10.321403
-2.315655 -12.133486
-2.387714 -12.372777
-1.880621 -11.659174
-0.796329 -10.441144
-2.578534 -10.332968
-2.233948 -10.109339
-2.100887 -11.326804
-2.019178 -10.074085
-1.003112 -10.109370
-3.778894 -10.421957
-2.857858 -9.899518
-2.967284 -9.470431
-2.955695 -9.320142
-2.978675 -9.275293
-3.624115 -9.527477
-2.766823 -8.697238
-2.982150 -8.791234
-3.108650 -8.895313
-3.488430 -9.235534
-2.203675 -8.952178
-2.369335 -8.444832
-3.043039 -8.387757
-4.059123 -7.329657
-3.798985 -6.940910
-4.270455 -7.736125
-3.703419 -7.709063
-4.679530 -7.808829
-3.494240 -7.951378
-4.264201 -6.386384
-3.432739 -6.996288
-3.321245 -7.312417
-3.720848 -7.445860
-2.839666 -6.558877
-3.758536 -6.224721
-4.602839 -6.679458
-5.036039 -5.462818
-5.204449 -6.048163
-4.503406 -5.341445
-4.641423 -5.886939
-4.335390 -6.242593
-3.606301 -4.826101
-4.231105 -4.128622
-3.938166 -6.625938
-3.943041 -5.864250
-3.608153 -4.709800
-3.940892 -5.148695
-4.554312 -4.779259
-4.244191 -3.437688
-4.107465 -3.767916
-3.631917 -4.420316
-3.886583 -3.713518
-4.633148 -4.359085
-3.628372 -3.578417
-4.040647 -3.570397
-4.039354 -3.944283
-3.682729 -4.097499
-3.610673 -3.163808
-3.803902 -3.057968
-4.627037 -2.731189
-4.348364 -2.126911
-3.888823 -2.221567
-3.683596 -3.061446
-3.615430 -2.450799
-2.753180 -2.210971
-3.704389 -2.285143
-2.362472 -1.650999
-2.890309 -3.141628
-3.988896 -1.331148
-3.115756 -0.597819
-4.265850 -1.496981
-3.731233 -0.491296
-3.471736 -0.435001
-3.677849 -0.373182
-3.277701 -1.903737
-2.956768 -1.214355
-2.920529 -0.891006
-2.172729 -0.347393
-3.144277 -0.829560
-2.742916 -0.316219
-2.890045 0.205604
-3.343596 -0.638816
-2.337646 -1.497058
-3.273634 0.160200
-2.970618 0.675811
-1.816609 0.107638
-2.044408 -0.173391
-1.582554 0.838236
-2.082369 0.429281
-1.988698 0.684055
-1.577806 0.731967
-1.704096 0.188742
-2.144868 0.833064
-1.931286 1.547466
-2.327103 1.109269
-2.239384 0.757963
-1.873856 1.280578
-1.381736 1.083652
-0.370621 0.165819
-1.199263 1.334438
-0.986218 1.884282
-0.698459 2.024053
-0.596347 1.160484
-1.315549 0.711002
-0.341935 1.398674
-1.141077 1.407221
-0.224250 2.088128
-0.713495 1.650254
-0.113550 1.758584
0.416466 2.122308
-0.143428 2.687194
0.789910 1.551157
-0.256382 2.029986
-0.179760 2.397465
0.152947 1.982422
-0.185102 1.653477
0.436627 1.490516
0.070254 2.688060
0.429265 2.315245
1.314349 2.621118
0.753366 2.091109
1.315350 1.421935
0.520656 2.392317
1.614913 1.662825
1.814613 1.495826
1.296761 2.071648
1.570826 1.889427
1.372763 2.160848
2.333236 2.627502
1.880133 1.949317
1.462145 3.237538
1.527417 2.437485
2.456671 2.894721
1.437185 2.422521
2.615268 2.416803
2.489394 2.498949
2.608399 2.556764
1.466003 2.722182
2.938006 2.230310
2.218376 2.345714
2.883380 1.735702
3.081059 2.116255
3.403996 2.343404
3.853243 2.700797
2.683355 2.437467
3.033483 2.049935
4.187509 2.008168
4.617217 1.211803
3.144139 2.793432
3.516646 2.359305
3.792536 1.336690
4.243390 2.669787
3.355193 2.193563
4.042201 2.244523
3.598310 1.847091
4.085734 1.551319
4.857145 2.876516
4.578281 1.781741
3.755743 1.534694
4.697325 1.282460
4.568544 2.038012
5.037793 1.144783
4.970170 1.512652
4.538481 2.139052
5.481014 1.184239
4.579623 2.101921
5.183019 1.445166
4.784116 1.783477
5.591554 1.564696
5.475846 0.719360
5.446587 1.669472
5.615091 0.799716
5.290337 1.219400
5.817449 0.839201
6.371882 1.285709
5.665754 1.482516
6.388604 -0.197406
5.331992 1.659389
5.487930 0.705997
5.771673 0.338286
6.423324 0.657012
6.298199 -0.125603
5.678299 0.710533
6.322302 0.325832
6.108428 0.540619
6.789740 0.253424
6.675630 1.207027
6.481433 0.571210
6.705516 -0.654121
6.059650 -0.156646
6.207297 -0.864036
6.174682 -0.751403
6.378041 -0.905877
6.924858 -0.026331
6.506278 -0.300251
6.252614 -0.216145
6.905554 0.502294
7.035303 -0.388580
6.692260 -1.098805
7.202554 0.086890
6.981221 -1.564711
7.166472 -1.391861
7.288911 -1.602691
7.119531 -1.710103
6.568112 -1.451482
7.809772 -1.824306
7.359686 -0.474398
7.250707 -1.973042
6.850714 -1.475920
7.077373 -1.242338
7.403357 -1.960237
7.051558 -2.035911
7.508339 -2.320035
6.621943 -2.248481
7.239393 -2.143332
7.396664 -2.581016
6.527076 -2.515774
7.156643 -2.868017
7.208568 -2.838510
7.250835 -2.304806
7.564629 -2.997964
6.835742 -3.963679
7.102789 -2.290618
7.980683 -3.872234
7.273129 -2.975524
7.432133 -3.422641
7.079682 -3.151016
7.209707 -3.188211
7.455798 -3.558100
6.898876 -3.751038
6.512427 -3.643545
5.808966 -3.987588
7.148758 -3.957607
6.773891 -3.863640
7.135268 -4.223659
6.632078 -4.068244
6.713909 -4.208741
7.594074 -4.043167
7.215495 -4.359061
6.631993 -3.943123
7.066615 -4.081583
7.198794 -4.617484
6.152597 -4.824064
6.888856 -5.394034
6.150730 -4.068497
6.486680 -5.007570
6.432632 -4.575510
6.378371 -5.191945
6.269505 -5.331285
6.540268 -4.706205
6.844398 -6.193093
5.936042 -5.435927
6.469343 -4.856189
6.025089 -5.725341
5.479077 -5.477544
6.181647 -6.137821
5.565936 -5.490448
5.471818 -6.243021
5.816540 -6.470453
6.034259 -5.007099
5.687260 -6.188779
4.949364 -5.901037
6.279850 -5.702612
6.354482 -6.201816
5.510398 -5.910732
4.536438 -6.697419
5.490593 -6.476125
4.953232 -6.596221
5.085326 -6.845519
4.823577 -6.258394
5.541344 -6.491654
4.728638 -6.565115
5.209742 -7.400600
5.168935 -6.364026
4.930176 -7.097689
4.836754 -6.714519
3.835620 -6.758222
3.970569 -6.840975
5.393831 -6.783651
4.385846 -7.497728
4.531257 -7.113078
4.183876 -6.998412
4.431220 -8.083266
3.479494 -7.707284
3.474700 -7.596074
4.139400 -6.864818
3.105278 -6.768903
3.514977 -7.713261
2.801240 -7.054100
3.490893 -6.974956
3.681629 -8.035361
3.151222 -7.545109
3.921480 -7.436938
2.558277 -6.859308
4.380255 -8.540380
3.291372 -7.506644
3.391101 -6.719643
2.453663 -7.614363
2.869158 -8.149812
3.021613 -7.412553
1.899532 -7.318298
2.434199 -7.762712
1.796862 -7.934896
2.394180 -7.596009
3.049387 -7.366298
1.442322 -7.418283
1.947954 -8.354380
1.641554 -8.098988
1.818869 -7.855126
0.593456 -7.327038
1.035109 -7.010082
1.292067 -7.606439
2.034447 -7.626253
1.698480 -7.705670
0.904577 -7.567835
1.419342 -7.274304
0.715648 -8.249800
0.902852 -8.278452
1.232635 -7.491221
1.363208 -7.297236
0.221806 -7.926004
0.196955 -7.768894
0.641342 -7.981842
-0.439899 -7.529701
-0.367950 -7.709966
-0.114200 -7.254001
-0.137241 -7.853517
-0.103588 -8.033479
-0.236816 -7.272934
-0.290168 -8.021530
-0.208710 -7.586366
-0.448113 -7.415699
-0.329886 -7.356112
-0.470607 -7.454205
-0.877354 -6.509236
-0.884092 -7.358048
-0.613235 -7.192858
-0.434665 -7.163471
-1.085805 -7.167944
-1.364590 -6.922739
-1.166455 -7.315187
-1.826283 -7.328579
-1.267753 -6.679433
-1.533572 -6.336408
-1.615072 -6.733163
-1.602541 -7.042090
-1.103684 -7.329342
-1.420249 -5.866523
-2.315839 -6.067079
-1.754694 -6.209866
-3.162495 -6.777018
-1.526792 -7.366942
-2.347408 -5.672227
-1.901828 -5.859833
-1.929737 -6.979277
-2.313768 -6.318524
-2.909348 -5.871429
-3.014378 -5.779794
-2.469456 -5.201841
-2.357164 -5.763217
-2.328573 -6.388889
-2.734008 -6.458119
-2.840548 -5.519285
-2.452799 -5.122950
-3.322374 -5.703638
-2.827364 -5.126682
-3.204179 -5.280833
-2.658723 -5.158491
-3.381480 -4.667636
-3.127443 -5.103693
-2.686325 -4.821101
-3.548649 -5.839530
-2.775126 -4.547827
-3.272027 -5.630599
-3.561078 -4.708560
-3.406583 -4.584108
-3.345622 -5.207773
-4.039042 -3.958022
-4.190717 -4.286401
-4.455929 -4.104642
-3.373786 -4.978079
-3.733884 -4.607911
-3.341127 -3.888457
-3.583902 -3.385132
-3.912942 -3.875406
-3.898490 -4.011276
-3.507527 -3.829798
-3.748281 -3.671705
-4.375542 -4.190323
-4.243085 -3.252591
-4.548507 -3.290291
-4.251473 -3.767200
-3.541246 -3.592735
-4.561081 -3.300071
-3.386185 -3.635137
-3.615556 -2.680771
-4.209948 -2.692329
-3.777944 -2.415525
-3.964869 -2.147760
-3.595945 -3.010335
-3.798015 -2.256125
-3.713235 -2.540887
-4.036356 -2.001133
-4.681347 -2.175234
-4.127044 -1.867381
-3.904082 -2.241039
-3.821282 -2.375309
-4.463556 -1.891704
-3.786006 -2.361606
-4.721779 -1.714102
-2.875182 -2.138117
-4.359555 -0.812888
-4.239077 -0.990632
-3.961575 -1.511535
-4.045905 -1.082090
-3.937826 -1.580018
-3.633965 -1.823847
-4.365944 -0.983156
-4.056059 -0.675508
-4.553658 -0.946185
-3.821777 -0.808537
-3.965064 -1.477715
-3.836354 -1.637128
-4.681307 -0.913348
-3.531888 -0.990344
-4.857006 -0.174908
-3.848142 -0.777986
-4.291324 0.269381
-3.856684 -0.500367
-4.464490 0.346224
-3.525273 -0.158649
-3.687075 -0.209133
-3.758365 -0.029265
-3.910399 0.193723
-3.716838 0.818724
-3.197157 1.285099
-3.672696 0.122285
-4.098458 0.178943
-3.355924 -0.057573
-2.734545 0.876732
-2.876207 1.164474
-3.489921 0.552260
-2.526906 0.508834
-2.899397 1.589083
-3.225537 1.852657
-2.972453 0.513456
-2.957331 1.114248
-3.102556 1.397576
-3.293496 1.413252
-2.133622 2.672194
-2.671637 1.205854
-2.840616 1.697938
-2.448232 1.212323
-2.880187 1.836203
-3.413532 2.083318
-2.506102 1.344100
-2.249009 2.271531
-2.541790 2.411434
-2.385182 2.303922
-1.893125 2.096083
-1.191814 1.872006
-3.168841 2.560001
-1.633818 2.019814
-1.859004 2.272057
-1.647051 2.583402
-1.642321 2.662705
-1.901856 2.131384
-1.038404 2.199515
-1.841906 2.038778
-1.881039 2.079252
-1.756235 2.548758
-1.459114 2.668205
-1.415007 3.294941
-1.700136 3.364103
-0.535787 2.835674
-0.988324 2.932320
-1.816859 2.708738
-0.502688 3.002402
-1.179337 2.474597
-0.856643 2.985922
-0.904462 3.512884
-0.695065 2.766353
-0.855358 3.267667
-1.179849 2.917493
-0.360357 3.256875
0.251720 3.202366
-0.147094 3.257476
0.609201 3.573731
0.350833 2.874525
-0.294858 3.645703
-0.129025 3.710370
0.994044 3.434639
0.375587 3.563933
0.277338 3.506931
-0.460071 4.341482
0.867065 3.384227
0.136331 3.406342
0.806276 3.003062
0.602661 3.255002
1.508911 2.941730
0.911702 3.016020
1.636298 3.678410
1.793327 2.890744
1.312390 3.499973
0.863472 3.745974
1.286204 3.103079
1.506532 3.107737
1.103195 3.725726
1.265437 3.304520
1.961917 3.273622
1.308902 3.450837
2.057078 3.777480
2.035496 3.339573
2.476721 3.020070
2.174039 3.263172
2.123734 2.586104
3.298581 2.832851
2.197523 3.911011
2.752119 3.255122
2.520566 3.375435
3.562404 3.470467
2.443202 2.763687
3.294602 3.384899
3.063916 2.806195
2.879146 2.777586
2.254841 2.940820
2.317475 3.058634
3.499628 3.202138
3.294374 3.153660
4.047560 3.474940
3.718610 3.004436
3.412867 2.826689
3.535163 3.582952
3.886582 2.963578
3.727146 2.748821
3.240390 2.501106
4.017347 2.769504
3.683651 2.703901
3.494026 2.040263
4.074241 2.299160
3.819343 2.150737
4.033069 1.991231
4.309291 2.615042
4.363711 2.234753
5.238206 2.717920
4.289367 2.206988
4.495618 2.203894
4.460352 2.549396
5.024501 1.757547
5.338027 2.326758
4.148423 1.869880
4.342124 2.023270
5.194104 2.445625
5.346119 1.106428
5.677549 1.540060
4.644047 1.987242
5.013076 1.924033
5.702545 1.100669
5.447936 2.245208
5.398800 2.364579
5.901345 1.397930
5.310419 1.620691
5.251170 1.070177
5.450420 1.343571
6.219818 1.039244
5.577566 1.442716
5.804061 1.303280
5.241744 0.675562
5.747173 1.072569
5.785805 1.266472
5.563871 0.590564
5.241601 0.760238
5.599750 0.759296
6.210544 0.479987
6.050842 -0.147005
6.134530 0.541481
6.358942 -0.336927
5.580479 0.571582
5.899407 0.101491
6.058776 0.251885
6.109679 -0.193613
6.424446 -0.152343
6.155655 0.936505
6.032413 -0.174270
5.736763 -0.150024
6.178735 0.247622
6.052506 -0.188794
6.227277 -0.449156
6.648185 -0.268232
6.359469 -0.257242
6.827466 -0.926847
6.792132 -0.563107
5.758001 -1.177824
6.981819 -1.255152
6.816972 -1.102009
6.932053 -1.182377
6.734469 -1.258632
6.543912 -1.208526
6.144249 -1.327654
6.454883 -1.397287
6.156955 -1.291431
6.918331 -1.461068
6.469227 -1.637467
6.721389 -2.343197
6.488452 -1.633422
6.623786 -2.084000
7.110036 -2.272443
6.457009 -2.075453
6.489686 -2.526635
6.779641 -2.323466
6.953393 -2.174312
6.792617 -2.605059
6.945060 -2.545073
6.319797 -2.165084
6.742590 -3.102106
7.279810 -3.071589
6.588219 -3.172368
6.335496 -2.687901
6.659268 -3.283053
6.854057 -3.252544
5.892673 -3.273125
6.088168 -3.181849
7.196844 -3.529034
6.236637 -3.521419
6.631610 -3.769191
6.421133 -3.577916
6.263469 -3.408323
5.750900 -3.853480
6.235188 -3.626518
6.839766 -3.905996
6.348281 -3.858814
6.045058 -3.742190
6.679216 -3.528909
6.286745 -3.941983
5.719983 -4.375005
6.159662 -4.159680
5.950007 -3.884807
5.915175 -4.348458
5.709884 -4.361019
6.542631 -4.371660
5.990514 -3.977020
5.736368 -5.408719
5.659763 -4.222380
6.401346 -4.817511
5.866899 -5.205510
5.537163 -4.670017
5.726466 -4.862677
5.546323 -4.358638
5.827562 -4.822380
5.067498 -4.904229
5.427238 -4.815106
5.238031 -4.967348
5.700256 -5.036260
5.439843 -5.592370
5.407981 -4.759781
5.451951 -5.054975
5.486528 -5.480918
5.461822 -6.159823
4.609624 -5.777310
4.872197 -5.706267
5.313717 -6.131194
4.676092 -5.570488
4.984469 -5.906199
4.351429 -6.111016
5.448155 -5.548569
4.326282 -5.265007
4.597697 -6.143661
4.351084 -6.374046
4.337929 -5.756782
4.143561 -6.351732
4.643632 -6.422968
4.879738 -6.409599
4.269258 -6.477873
4.478731 -5.780000
4.202061 -6.040020
3.445293 -6.229458
3.744612 -6.447480
3.785717 -6.274655
4.052685 -6.513298
3.779907 -6.299405
3.301969 -6.907276
3.760240 -6.599905
3.528456 -6.049230
3.943441 -6.585425
3.535622 -6.380715
3.368431 -7.048974
3.225935 -6.871997
3.541692 -7.128245
3.029930 -6.627175
3.486095 -6.963213
3.615293 -6.560162
3.120549 -7.079316
3.013267 -6.909048
3.175819 -7.421131
2.646127 -6.687131
3.286768 -7.082570
2.856112 -6.634788
3.202368 -7.065497
2.491910 -6.937302
2.579248 -6.680229
2.497853 -7.101613
2.837630 -7.538965
2.118472 -7.574536
2.691487 -7.184027
2.784652 -7.423863
2.710472 -7.023814
2.361634 -7.434625
1.818833 -7.252571
1.655692 -7.259621
1.917289 -6.951812
1.900973 -7.207636
1.916050 -7.605117
1.799499 -7.343788
1.614660 -6.976022
2.249481 -7.141766
1.399802 -7.616852
1.361171 -7.163918
1.666051 -7.158114
1.904737 -7.977450
1.752850 -7.780804
1.760235 -7.555088
1.410794 -7.076849
0.902762 -7.409647
1.371879 -7.355923
0.670065 -7.096632
1.469283 -7.182480
0.705517 -7.189552
0.175426 -7.067493
1.143296 -7.081077
0.893424 -6.942624
0.666518 -6.713200
0.535933 -7.013264
1.072932 -6.808542
0.959188 -6.842480
-0.001998 -7.002541
0.621474 -7.209386
0.485590 -7.431070
0.516478 -6.793551
0.312434 -6.755746
-0.016223 -6.761964
0.079719 -6.889868
-0.076130 -7.018617
-0.404339 -6.894900
-0.194569 -6.621171
-0.253927 -6.812177
0.215455 -6.490559
-0.495676 -6.233681
-0.117624 -6.341677
0.189976 -7.115273
0.166683 -6.783204
0.115421 -6.229140
-0.508195 -6.859152
-0.759265 -6.619406
-0.051234 -6.500983
-0.485121 -6.540303
-1.119656 -6.677587
-0.593510 -6.490969
-1.469224 -6.408912
-0.687704 -6.399998
-1.072964 -6.702096
-0.984857 -6.259683
-1.485448 -6.218237
-0.853790 -6.503740
-0.930424 -6.261035
-0.866659 -6.086673
-1.222739 -6.196811
-1.202440 -6.541205
-1.255855 -6.024510
-0.688784 -5.874696
-1.234770 -6.461330
-1.478270 -5.207125
-0.751632 -6.102995
-0.898536 -5.821190
-1.454685 -6.002323
-1.107227 -5.621697
-1.503873 -5.472851
-1.334257 -6.394269
-1.375523 -5.115656
-1.215159 -6.012573
-1.918438 -5.663076
-1.629802 -5.565229
-1.349282 -5.600810
-1.126609 -5.061720
-1.694390 -5.655574
-1.502619 -5.581925
-1.272467 -5.734884
-1.752762 -5.228955
-1.771993 -5.616916
-2.004324 -5.623575
-1.798306 -4.523387
-2.028120 -5.448008
-2.257710 -5.236694
-2.203859 -4.874208
-2.307077 -5.446628
-2.447955 -4.492805
-1.608119 -4.628233
-2.045826 -5.715607
-2.380942 -4.984194
-2.157596 -5.274347
-1.717753 -4.227404
-1.740612 -4.772750
-1.749589 -3.982582
-1.844403 -4.506099
-2.019717 -5.061111
-2.136883 -4.512799
-1.929910 -4.563736
-2.415225 -4.615280
-2.142869 -4.442513
-1.387616 -4.321710
-2.145594 -3.839333
-1.908178 -4.842918
-2.295217 -4.661480
-1.389061 -4.078046
-2.266662 -4.198948
-2.585014 -4.312532
-2.234776 -4.508278
-2.162071 -4.030878
-1.731497 -3.939452
-2.042258 -4.250614
-2.026856 -3.735522
-2.387909 -4.398053
-2.084363 -3.725710
-1.812924 -4.329403
-2.379777 -3.900351
-1.535712 -3.612113
-1.977191 -3.707585
-1.956115 -3.845862
-2.364293 -3.491677
-1.917928 -3.588476
-1.930396 -3.012292
-2.366731 -3.454159
-2.034549 -3.109640
-1.797385 -3.518767
-2.574061 -3.828735
-2.070583 -3.784982
-2.075067 -3.186930
-1.607821 -3.583273
-2.364827 -3.511305
-2.032746 -3.265549
-2.046462 -3.007642
-2.288239 -3.005028
-1.901569 -3.300245
-1.687649 -2.905759
-1.681563 -3.581922
-1.684319 -3.042658
-1.751488 -3.164904
-1.942526 -3.197360
-1.021138 -2.771648
-2.132664 -2.830635
-1.410634 -3.053516
-1.935373 -2.994411
-1.552036 -2.932772
-1.540945 -2.473275
-1.777032 -2.841005
-1.423922 -2.809522
-1.785004 -3.197622
-1.684447 -2.835174
-1.348804 -3.201119
-1.385649 -3.032251
-1.363649 -2.919719
-1.703380 -2.908251
-1.429803 -2.192792
-1.274694 -2.863850
-1.302467 -2.709243
-1.825606 -2.766337
-1.847157 -2.819829
-0.934014 -2.925674
-1.596088 -2.635272
-1.737665 -2.556576
-1.807653 -2.504713
-1.427545 -3.235905
-1.139853 -2.938532
-1.550403 -2.838258
-1.473032 -2.462294
-1.191149 -2.818611
-1.040357 -2.771094
-1.116486 -2.573031
-1.337266 -2.336793
-1.412490 -2.559028
-1.497325 -2.594994
-0.780558 -2.576172
-1.009789 -2.268916
-1.380200 -2.466774
-1.154476 -2.423634
-0.562863 -2.768699
-1.078707 -2.522798
-1.456391 -2.670401
-0.907700 -2.519407
-1.255031 -2.064089
-0.782507 -2.488875
-0.942352 -2.596979
-0.706483 -2.626214
-0.734069 -2.388374
-1.292929 -2.462903
-0.579384 -2.344970
-0.562751 -2.756412
-0.954856 -2.207617
-1.165237 -2.641688
-0.635021 -2.833871
-0.638681 -2.481965
-0.716011 -2.415724
-0.878819 -2.365233
-0.588605 -2.822780
-0.448755 -2.125344
-0.657112 -2.403816
-0.758647 -3.056264
-0.373561 -2.508269
-0.215145 -2.553310
-0.848977 -2.254552
-0.625950 -2.845365
-0.398279 -2.768277
-0.033785 -2.833642
-0.489388 -2.611365
-0.488171 -2.713097
-0.290543 -2.977903
-0.195139 -2.632580
0.120627 -2.673894
0.101717 -2.962766
-0.636856 -2.821336
-0.173610 -3.299776
-0.372750 -2.984567
-0.443299 -2.808185
-0.360836 -2.830302
-0.405096 -2.734368
-0.083548 -2.953863
-0.683291 -2.311562
0.104934 -2.806683
-0.150316 -2.800319
-0.545142 -2.586418
-0.040271 -3.491162
-0.196470 -2.679006
0.223766 -3.474126
-0.253287 -2.597899
0.195024 -3.235957
0.149433 -3.510111
-0.362140 -2.824186
-0.033023 -3.036483
-0.455992 -2.794556
0.106901 -3.128569
-0.082341 -2.489910
-0.112793 -3.193652
-0.764956 -2.976619
-0.264282 -2.819235
-0.394060 -3.341501
0.122543 -2.372069
-0.597796 -3.276508
0.071642 -3.319231
0.235853 -3.179816
-0.165319 -2.924391
-0.598734 -3.318371
-0.072523 -3.413028
0.006386 -3.396248
-0.184569 -3.182720
0.200331 -3.688932
-0.102256 -3.400315
0.019092 -2.989438
-0.102581 -2.945686
-0.065221 -3.188361
-0.085495 -3.819587
0.044991 -3.324819
-0.468983 -3.567901
-0.362211 -2.971028
0.201209 -3.932103
-0.403198 -3.929590
0.124785 -3.713628
0.337450 -3.550708
-0.331077 -3.277097
-0.389769 -4.044897
0.081844 -4.094195
-0.360537 -3.510282
-0.293152 -3.632678
-0.077609 -3.433197
-0.185562 -4.004241
0.212456 -3.611381
-0.687126 -4.260142
-0.197506 -3.988697
-0.143553 -4.496026
-0.185321 -3.740813
-0.424379 -3.979085
-0.022213 -4.531362
-0.146795 -4.468796
-0.215474 -4.159719
-0.308616 -4.175822
-0.211318 -3.988731
-0.585352 -3.983846
-0.906616 -4.317105
-0.528146 -3.926473
-0.225907 -4.238093
-0.347338 -3.970144
-0.225134 -4.622926
-0.514941 -4.715081
0.186971 -4.214956
-0.738188 -4.112112
-0.491320 -3.926823
-0.415932 -4.341950
-0.434173 -4.525932
-0.477044 -4.268962
-0.787446 -4.370175
-0.404125 -4.353401
-0.448006 -4.406326
-0.645899 -4.320760
-0.174181 -4.357948
-0.582750 -3.890083
-0.886218 -4.443401
-0.635842 -4.474841
-0.878968 -4.086694
-0.756859 -4.593611
-1.173036 -4.541343
-0.708786 -3.948397
-1.183996 -4.763540
-1.010005 -4.509699
-0.757420 -4.747314
-1.027957 -4.764121
-0.855933 -5.218817
-1.420178 -4.593349
-1.159068 -4.804556
-1.079839 -4.775526
-1.423567 -4.263548
-1.404490 -4.674575
-0.944045 -4.945463
-0.819671 -5.400499
-1.490044 -4.813192
-1.386383 -4.679563
-1.515623 -4.439093
-1.267603 -5.015201
-1.547751 -4.792845
-1.024818 -4.706501
-1.739899 -4.960979
-1.140643 -5.094122
-1.311106 -4.965014
-2.051015 -4.846086
-1.893743 -4.843977
-1.085955 -4.567957
-1.456858 -4.545843
-1.919276 -4.855678
-1.715677 -4.827125
-1.966589 -4.612866
-1.596999 -4.956766
-1.938724 -5.075549
-1.683992 -5.257871
-1.907338 -4.990461
-2.054705 -4.913915
-2.000545 -4.578833
-1.909106 -5.512845
-2.136945 -4.778689
-2.119452 -5.043458
-2.127998 -4.912550
-2.138053 -4.420041
-2.260024 -5.121566
-1.798992 -4.441794
-2.201804 -5.090468
-2.267004 -4.934486
-2.275615 -5.270854
-2.570395 -4.705346
-2.166748 -4.880240
-2.767011 -4.871174
-2.415583 -4.719271
-2.436290 -4.644664
-2.483335 -4.632198
-3.064519 -4.626338
-2.557832 -4.474879
-2.718264 -4.575298
-2.630310 -4.720386
-2.636741 -4.628557
-2.452684 -4.831744
-2.682506 -5.088140
-3.037941 -5.143491
-3.235676 -4.971611
-3.214009 -5.156179
-3.330691 -4.523330
-3.505901 -4.954981
-3.144067 -4.481130
-3.082279 -4.918840
-3.215856 -4.667968
-3.319594 -4.745447
-3.037785 -5.111886
-3.258270 -4.559757
-3.643197 -4.039121
-3.123750 -4.089717
-3.595281 -4.481084
-3.201531 -4.873690
-3.070019 -4.637957
-3.566823 -4.452780
-3.275081 -4.200435
-3.359646 -4.480959
-3.452321 -4.360518
-3.126212 -4.422419
-3.567002 -4.232044
-3.279270 -4.198113
-3.663731 -4.265465
-3.681721 -4.064074
-3.507474 -4.181019
-3.466123 -4.176880
-3.835721 -4.299028
-3.428254 -4.369261
-3.857458 -4.329368
-3.900368 -4.660194
-3.567942 -4.489333
-3.987291 -4.800877
-3.919903 -4.101524
-3.724707 -4.134238
-4.211694 -3.935047
-3.985454 -4.245503
-3.950425 -4.226764
-4.344696 -3.602079
-4.015466 -3.317880
-4.256476 -3.714465
-4.150106 -3.734972
-4.070343 -3.896973
-4.358226 -3.995032
-4.375063 -3.828579
-4.089873 -3.696868
-4.245427 -3.864725
-4.328723 -3.481163
-4.226453 -3.327725
-4.377536 -3.254015
-4.263201 -3.838250
-4.292652 -3.584100
-4.583625 -3.524660
-4.222824 -3.225823
-4.500922 -3.457293
-4.149694 -3.558497
-3.989003 -3.383986
-4.290157 -3.673982
-4.167127 -3.752665
-4.559432 -3.622703
-4.248079 -3.523388
-4.392553 -3.109237
-4.376848 -3.425331
-4.410051 -3.150855
-4.628197 -3.027568
-4.677576 -3.266293
-4.823418 -3.087018
-4.581145 -3.071745
-4.964720 -2.725286
-4.852421 -2.634022
-4.538065 -2.465861
-4.341436 -2.645738
-4.682071 -2.860306
-4.532025 -2.937658
-4.972953 -2.638512
-4.718052 -2.869736
-4.620239 -3.291597
-4.772529 -2.314402
-5.112145 -2.880227
-4.580273 -2.502234
-4.683597 -2.542843
-5.196758 -2.507978
-4.363210 -2.552585
-4.833079 -2.316393
-4.947768 -2.330621
-4.723905 -2.306428
-4.689299 -2.576948
-4.816524 -2.763613
-4.641767 -2.326373
-5.151262 -2.521387
-4.861507 -1.971536
-4.731411 -2.343052
-4.802842 -2.407938
-4.963937 -2.050516
-4.601993 -1.970483
-4.777706 -1.775059
-4.888894 -2.016723
-4.666487 -1.865958
-5.025493 -1.786160
-4.727859 -1.806611
-4.916278 -1.786650
-4.731349 -1.753221
-5.018020 -1.946974
-4.739154 -2.025059
-4.864474 -1.883767
-4.865834 -1.718510
-5.121756 -2.187089
-4.787160 -1.205706
-4.765708 -1.233035
-4.410530 -1.416134
-4.504038 -1.918186
-4.865479 -1.440284
-4.818042 -1.602043
-4.789158 -1.718036
-4.759382 -1.437373
-4.667284 -1.474298
-4.299504 -1.139123
-4.861590 -1.550891
-4.811379 -1.160763
-4.619135 -1.449515
-4.526103 -1.014322
-4.354156 -0.849295
-4.673397 -0.768186
-4.428070 -1.020332
-4.872410 -0.716996
-4.777982 -0.945446
-4.701231 -1.040137
-4.686653 -0.898982
-4.574159 -0.859758
-4.742647 -0.881971
-4.795100 -0.464242
-4.444433 -0.715705
-4.638151 -0.974202
-4.658724 -0.821991
-4.281881 -1.251952
-4.569240 -0.560706
-4.568821 -0.822193
-4.770351 -1.127841
-4.334870 -0.408605
-4.642363 -0.729394
-4.211785 -0.551707
-4.277777 -0.623540
-4.360879 -0.564506
-4.491835 -0.994779
-4.337487 -0.632874
-4.231782 -0.380076
-3.894046 -0.390621
-4.597853 -0.530403
-4.474670 -0.766082
-4.385273 -0.923934
-4.470998 -0.982497
-4.491258 -0.444680
-3.986958 -0.664758
-4.366674 -0.299897
-4.291423 -0.825201
-4.223529 -0.171912
-3.816529 -0.306065
-4.434492 0.231436
-3.991536 -0.335647
-4.538849 -0.632543
-4.160313 0.329998
-4.074971 -0.219161
-4.544081 -0.309736
-3.588074 -0.268942
-4.077691 -0.451746
-4.242098 -0.179893
-4.171541 -0.214649
-4.074956 0.015409
-4.352159 -0.024000
-4.061939 0.302786
-3.653729 -0.009724
-3.832547 -0.262310
-3.837338 -0.217507
-4.269534 -0.070597
-3.520662 0.590805
-3.862464 0.102963
-4.002998 -0.176397
-3.741650 -0.191426
-3.926524 0.382821
-4.146111 -0.025676
-4.099239 0.238934
-3.198552 -0.409771
-3.795850 0.260729
-3.421576 -0.071095
-3.477215 0.205315
-3.513465 0.184305
-3.714218 0.298165
-3.487802 0.125911
-3.527665 0.255411
-3.127512 0.152620
-3.846948 0.426205
-3.398105 0.554693
-3.749206 -0.291898
-3.419884 0.065533
-3.605003 -0.014298
-3.853710 -0.030059
-3.602684 -0.015646
-3.785381 -0.381730
-3.238914 0.054934
-4.011005 0.193862
-3.669950 0.384039
-3.310867 -0.007439
-3.337438 0.766269
-2.937967 0.163766
-3.459617 0.136977
-3.409958 0.329873
-3.371056 -0.097990
-3.244242 -0.130481
-3.368097 0.273274
-3.505641 0.154115
-3.384852 -0.231972
-3.631671 0.081114
-3.293446 0.181074
-3.350281 -0.131530
-3.373896 0.363385
-3.840363 0.211229
-3.125895 -0.001341
-3.223385 0.136794
-3.212125 0.623083
-3.460834 -0.078765
-3.115717 -0.089386
-3.024639 0.054092
-3.064452 0.724163
-3.449152 0.467958
-3.314903 0.249206
-2.886015 -0.052178
-2.896758 0.430549
-3.320833 0.259572
-3.151677 -0.088675
-3.008942 0.340041
-2.652426 0.137306
-2.913285 0.539723
-3.051888 -0.051838
-2.830421 0.306298
-3.308442 0.339219
-3.357983 -0.033157
-2.739745 0.259712
-2.772313 0.243761
-2.941483 0.693599
-3.019112 0.131970
-2.925661 -0.028289
-3.030291 0.427463
-2.917952 -0.021070
-3.188764 0.357060
-2.859514 0.194915
-2.885318 0.374733
-3.143050 -0.224248
-2.826668 0.544663
-2.716801 -0.000526
-2.776333 0.238900
-3.133777 0.555045
-3.127462 0.233122
-2.818978 0.194772
-2.807984 0.266495
-2.959987 -0.012977
-3.034679 0.075981
-3.073779 0.016361
-2.746803 0.571648
-2.788706 -0.076347
-3.010082 0.102448
-3.075788 -0.236571
-2.612758 -0.021978
-2.591154 0.364512
-2.974404 0.381861
-3.414943 0.103047
-2.803412 0.417442
-2.709255 0.410665
-2.978801 0.023517
-3.111300 0.163554
-3.475933 0.378125
-2.749065 0.143871
-3.083721 0.259882
-3.344150 0.332254
-2.897210 -0.133285
-3.023888 0.331313
-3.124987 -0.046214
-3.030892 0.494952
-3.045578 0.667387
-2.837222 0.352012
-3.170457 0.461020
-3.027841 0.124655
-3.176390 0.129088
-2.848746 0.648294
-3.524639 0.203277
-2.803060 0.218159
-2.868320 -0.169323
-3.002633 0.621907
-2.997062 0.654144
-3.100347 0.284865
-2.610251 0.118809
-3.002386 0.343140
-2.358416 0.355454
-2.855742 0.371786
-2.738249 0.317081
-3.206247 0.138975
-2.523406 0.441206
-2.902997 -0.023534
-2.633169 0.506344
-3.207523 0.492942
-3.005079 0.878920
-2.874649 0.683952
-2.682510 0.586969
-3.215849 0.716623
-2.778168 0.318618
-3.081210 0.216963
-2.852481 0.604688
-3.075774 0.208799
-2.808146 0.354413
-3.292238 0.356615
-3.247000 0.564188
-2.811227 0.369100
-2.780021 0.861785
-2.535901 0.403640
-2.980777 0.308882
-3.239626 0.773622
-2.835954 0.161360
-2.953925 0.485209
-2.935678 0.993662
-3.179012 0.712513
-2.865536 0.123710
-3.324182 0.544613
-2.935838 0.760568
-3.457779 0.509653
-2.893262 0.898109
-2.776230 1.014219
-2.939569 0.758243
-2.942766 0.577662
-3.048057 0.847654
-2.957458 0.311609
-3.227433 1.048718
-3.058696 0.571204
-3.086155 1.139695
-2.903900 0.880016
-2.711417 0.691452
-2.833235 0.361454
-2.752975 0.901475
-2.146298 0.899981
-2.944964 0.652689
-2.781947 0.902116
-2.814194 0.567045
-2.900954 0.711430
-3.194348 1.034531
-3.126363 0.346023
-3.017096 0.798957
-3.529855 1.023092
-3.438222 0.892109
-2.560607 0.893648
-2.916655 0.642713
-3.059527 1.268751
-3.285531 1.467180
-3.637694 0.744131
-2.885303 1.151426
-3.138750 1.081788
-3.172663 0.935506
-3.163174 0.748597
-3.133029 1.365941
-3.173222 1.422521
-3.149104 1.033848
-3.019070 1.517729
-3.357576 1.112493
-2.867402 1.473002
-2.986153 1.337135
-3.305388 1.278447
-3.218012 1.072061
-2.581586 1.001443
-2.460762 1.411706
-3.152848 1.413685
-2.718760 1.155137
-3.239290 1.758579
-2.357554 1.452504
-2.744283 1.563236
-2.291592 1.424988
-2.891747 1.427708
-2.945842 1.380841
-2.691157 1.130624
-2.779062 1.379499
-3.141791 1.896595
-3.263472 1.553390
-2.813713 1.496032
-3.129870 1.907470
-2.980246 2.133562
-3.326004 1.675562
-2.887420 1.501266
-2.416883 1.937870
-2.358480 1.876707
-2.914450 2.176657
-2.738751 1.897980
-2.521545 1.911468
-2.208757 1.780807
-2.552140 1.891670
-2.704720 1.312086
-2.689286 2.070051
-2.548903 1.942783
-2.986588 2.004053
-2.656651 2.220268
-2.605190 2.013329
-2.569224 1.820220
-2.821080 2.025758
-2.795984 2.223480
-2.224825 2.135971
-1.999594 2.377115
-2.341971 2.692493
-2.540335 2.187340
-2.003180 2.038420
-2.166482 1.858983
-2.527558 2.127577
-2.407432 2.066253
-2.618309 1.927080
-2.182601 1.975964
-2.544449 2.298632
-2.254896 2.082960
-1.969337 2.026413
-2.895703 2.138233
-2.095542 2.450884
-2.252921 2.142347
-2.056294 1.875943
-1.944913 2.957225
-1.751588 2.520871
-1.751293 2.636854
-1.477786 2.423265
-1.983913 2.100712
-2.322186 2.673170
-1.762808 2.163918
-1.490824 2.741216
-1.720225 2.225140
-1.757928 2.673586
-2.101897 2.382574
-2.155776 2.690962
-1.712573 2.744067
-2.253879 2.426044
-1.126411 3.012146
-1.508145 2.482292
-1.208443 2.404447
-1.663174 2.621676
-1.643089 3.011718
-1.473387 2.986201
-1.601627 2.691402
-1.409012 2.316287
-1.000762 2.730727
-1.449173 2.565440
-1.534900 2.940075
-1.016717 2.470357
-0.828175 3.134774
-1.323728 2.644576
-0.961272 2.930367
-1.332812 2.856241
-0.957770 2.362903
-0.779715 2.855055
-0.806613 3.163902
-0.421173 2.944445
-0.484741 2.957086
-0.890141 3.222367
-0.801646 2.929589
-0.554111 2.926113
-0.636567 2.648492
-0.605384 2.763704
-0.657591 2.847550
-0.322289 3.037422
-0.212715 2.866596
-0.633121 2.712889
-0.519947 2.919552
-0.439947 3.065464
-0.700360 3.444774
-0.080176 2.634648
-0.227349 3.094062
0.343140 2.871335
-0.288406 2.710446
0.044958 3.108167
-0.183586 2.548772
-0.234151 2.543040
-0.320218 2.746996
0.255634 3.123095
0.394988 2.947988
-0.543649 2.539796
-0.103881 2.960528
0.110560 2.969833
0.336686 3.741663
0.627531 2.748396
-0.066192 2.961102
0.369390 3.847903
0.396262 2.930099
0.864168 2.687473
0.300990 2.565103
0.312027 2.873023
0.544516 3.001682
0.343924 2.719285
0.686997 2.994397
0.324071 2.636463
0.745896 2.622792
0.450507 2.422446
0.999456 2.796927
0.896076 2.763312
0.875354 2.749924
0.770320 2.592766
0.599755 2.792256
0.966116 2.634134
1.484724 2.996663
0.821845 2.228065
1.217717 2.939107
1.015527 2.246463
0.795251 2.311048
1.311801 2.661275
1.148412 2.371521
1.327288 2.254372
1.164074 2.172912
1.691643 2.296132
1.545337 2.223531
1.314643 2.148314
1.486886 2.223261
1.273655 2.141143
1.462542 1.613609
1.358885 2.017922
1.529768 2.108396
1.833179 2.098103
1.913320 1.990772
1.282218 2.007585
1.278533 1.704476
2.025302 2.456238
1.804226 2.082315
1.844059 2.037754
1.586642 1.925181
1.763532 1.827369
1.741600 1.839754
1.812149 1.370345
2.118041 1.711349
1.964303 1.696234
2.701616 1.401280
2.444836 1.945519
1.838592 2.144920
2.262833 1.525317
2.629005 1.728704
1.989136 1.648843
2.478071 1.312026
2.073140 1.526194
2.463123 1.166538
2.257453 1.007458
1.794812 1.224847
2.141722 1.778058
2.565866 0.985456
2.531378 1.516712
2.714577 1.271323
2.627057 1.662432
2.601591 1.168384
2.269592 0.967497
2.975396 1.857468
2.738354 0.885010
3.007327 1.102750
3.166683 1.165126
2.910037 0.764314
2.587772 0.983287
2.623430 0.158969
3.034073 0.747882
2.523531 0.225814
2.633582 0.822240
3.388402 0.090812
3.279833 0.701420
3.025166 0.359054
2.885291 0.503721
2.784638 0.456100
2.715311 0.198153
3.393802 0.437653
3.265380 0.430883
2.879084 -0.061288
3.605303 0.353610
2.910429 0.129540
3.011218 0.113618
2.809529 0.164436
3.293355 0.714942
2.818788 0.139287
2.505081 0.106017
2.761141 -0.377353
3.356860 0.047017
3.117397 -0.102841
3.048160 -0.712982
3.221660 0.427758
3.368496 -0.425044
3.613957 -0.677861
2.915770 -0.802378
2.843072 -0.702783
3.447246 -0.277543
3.089839 -0.442028
3.260348 -0.564560
2.884724 -0.746801
3.141499 -0.495005
3.351584 -1.050861
3.073082 -0.764139
3.187840 -0.983514
3.445986 -1.462245
3.526001 -1.266542
3.187039 -1.210638
3.450470 -1.438999
3.580238 -1.778871
3.576097 -1.416288
3.662323 -1.173639
3.172900 -1.096779
2.998161 -1.108246
2.976449 -1.069328
2.854861 -1.143939
3.321866 -1.162927
2.875147 -1.086980
3.759041 -1.778958
2.912029 -1.799783
2.952916 -1.887524
3.140254 -2.123324
3.240050 -1.642520
3.536383 -1.964269
3.198785 -1.739251
3.385078 -2.025723
2.841710 -1.943653
3.381311 -2.352524
2.144058 -2.156911
2.950454 -2.419403
2.824127 -2.058644
2.816272 -2.348799
2.881339 -2.507000
3.224064 -1.790022
2.855183 -2.702192
2.815806 -2.637951
3.782125 -2.342511
3.350814 -2.810413
3.160372 -2.761192
2.822285 -2.659307
3.697689 -2.399231
3.172632 -2.558576
2.766910 -3.026059
2.910501 -3.034195
2.840932 -3.162754
2.522079 -2.884456
2.803056 -3.332926
2.834441 -3.259704
3.222022 -3.653795
1.998692 -3.203734
3.529821 -2.653575
2.860124 -2.985794
3.365011 -3.092807
2.639796 -3.404000
2.977162 -2.600333
2.521406 -3.016965
2.075947 -3.923463
2.335947 -3.068571
2.516610 -3.386681
2.453618 -3.493620
2.672052 -3.838803
2.775015 -3.886467
2.479784 -3.418023
2.260640 -3.680288
2.917090 -3.495690
2.361719 -4.343418
2.567720 -4.140321
2.588737 -3.938000
2.700682 -4.218889
2.681060 -3.645615
2.264135 -4.095023
1.966922 -3.969068
2.685007 -3.952893
2.418911 -4.383431
2.241921 -4.318624
2.348241 -4.207253
2.326453 -3.903820
1.730551 -4.560687
2.217152 -4.584554
2.398676 -4.657836
2.479045 -4.712283
1.762759 -4.712535
1.765627 -4.971326
2.353345 -4.717998
1.089452 -4.567668
1.501682 -4.053647
2.147318 -4.170964
2.233580 -4.379352
1.632928 -4.884212
2.319846 -5.093701
2.073025 -4.765165
1.746519 -4.330495
1.871110 -4.820602
1.655661 -4.791623
1.642991 -4.752520
1.522687 -4.572043
2.042632 -5.056534
1.697800 -4.978402
1.567865 -5.724447
1.512411 -4.629147
1.636405 -4.883843
1.313187 -4.339861
0.983382 -5.129051
0.992786 -5.852885
1.366286 -4.765010
1.196808 -5.478953
0.922743 -5.416416
1.526802 -5.043321
1.178485 -5.653576
0.914590 -5.019098
1.283711 -5.464401
1.163584 -5.809387
0.954680 -5.632046
0.692220 -5.419483
1.322821 -5.392965
1.178503 -5.070287
1.076895 -5.200362
1.486973 -5.225917
0.630041 -6.005700
1.296626 -5.847323
0.859200 -6.794475
1.267427 -5.960543
0.987435 -5.869473
0.866652 -5.738566
0.835251 -5.792307
1.285193 -6.105486
0.149142 -6.151406
0.663129 -6.374762
0.761101 -6.037792
0.098681 -6.166591
0.499258 -5.449413
0.324967 -6.058749
0.240858 -6.043362
0.619505 -5.472152
-0.191197 -6.450782
0.089927 -6.311985
0.069534 -6.496046
0.676114 -5.833966
0.199258 -5.877844
0.360694 -5.565632
-0.293916 -6.300502
0.686567 -6.442613
-0.384809 -6.615252
-0.341472 -6.931353
0.226666 -5.522653
0.070724 -6.239098
0.158968 -5.845058
-0.579508 -5.797424
-0.691931 -6.288819
-0.545952 -6.269618
-0.700998 -6.458668
-0.466154 -6.418161
-0.235097 -6.566692
-0.319577 -6.517812
-0.171060 -6.688059
0.199091 -6.829179
0.018392 -7.064434
-0.311242 -6.907135
-0.642633 -6.352162
-0.530805 -6.348067
-0.508327 -6.931487
-0.871356 -6.163522
-0.770432 -6.655071
-0.816270 -6.710332
-1.139796 -7.443286
-0.217582 -6.301542
-0.340231 -6.355955
-0.808694 -6.456493
-0.490838 -6.955319
-1.079915 -6.916028
-1.265723 -7.289166
-0.416421 -7.118436
-1.365486 -6.348749
-0.973617 -7.092807
-0.875908 -6.883331
-1.712498 -7.247699
-1.672838 -7.017941
-1.090899 -6.922621
-1.051519 -6.358294
-1.564951 -6.930648
-0.931143 -7.422586
-1.404380 -6.232761
-1.970775 -6.765271
-1.891098 -7.376652
-0.841735 -6.744384
-1.419287 -7.218623
-1.385039 -7.278958
-1.360117 -6.645355
-2.192376 -7.253556
-1.480329 -7.521641
-1.795695 -7.226164
-1.556030 -7.123423
-1.461214 -6.962952
-2.269053 -7.396109
-1.065172 -7.587751
-1.964780 -7.244252
-1.372279 -7.422351
-2.613490 -6.962511
-2.019242 -7.791583
-1.964703 -7.481031
-1.608429 -6.836410
-1.386193 -7.015145
-2.583376 -7.795222
-2.082494 -7.454685
-2.749705 -8.123177
-2.383365 -6.960846
-2.113666 -7.104103
-2.731231 -8.110995
-2.308186 -7.723800
-2.108705 -7.641918
-2.453685 -7.240767
-2.819684 -7.650541
-2.986254 -7.944260
-2.583862 -8.242649
-2.973050 -7.528357
-3.069062 -7.874489
-2.535424 -7.681112
-3.210300 -7.926121
-2.784742 -8.177269
-2.460857 -8.230996
-2.525733 -7.672970
-2.867662 -7.692418
-3.202567 -7.980503
-2.938824 -8.793064
-3.520560 -7.913899
-2.882155 -7.770195
-3.171954 -8.375757
-3.611824 -8.342194
-3.384507 -8.756471
-4.104603 -8.431515
-3.178041 -7.781121
-4.487845 -8.128138
-3.726149 -7.845343
-3.561411 -8.309721
-3.319363 -7.840023
-3.079956 -8.479851
-4.149967 -8.551253
-3.754530 -8.039576
-4.075845 -8.249912
-3.439711 -8.807992
-4.294942 -8.053109
-3.965727 -8.543236
-3.804524 -9.040202
-4.072184 -8.643498
-4.123380 -8.152353
-4.331872 -8.731207
-4.562087 -8.957434
-4.305309 -8.676162
-4.150959 -8.096198
-5.250485 -8.627342
-5.407354 -9.390093
-4.577145 -8.805507
-5.751654 -9.100404
-4.059391 -8.857792
-5.128486 -8.633702
-5.240490 -8.311614
-5.121524 -8.711964
-4.872574 -9.309780
-4.874750 -8.910017
-5.228293 -8.420452
-4.437320 -9.234559
-5.208315 -9.645678
-5.640228 -9.085630
-5.429727 -8.952498
-5.301225 -9.101098
-5.500735 -9.272307
-6.204016 -8.744729
-6.026956 -9.431714
-5.496485 -9.641123
-5.925683 -9.568182
-6.466484 -8.644812
-6.332305 -9.209399
-6.535463 -8.799917
-6.639872 -9.120285
-6.159213 -9.387812
-6.096021 -8.703810
-6.308858 -10.048879
-6.623928 -9.166882
-7.002114 -9.313604
-6.125557 -9.651604
-6.966766 -8.882879
-7.242604 -9.455564
-7.014156 -9.024348
-6.905229 -9.264791
-7.342660 -9.226517
-7.639302 -9.248385
-7.510808 -9.735119
-7.310001 -9.420601
-7.309549 -9.338204
-7.482949 -9.414819
-7.310807 -9.455082
-7.303910 -9.414388
-7.685981 -9.946372
-7.653857 -10.029432
-7.777252 -10.270864
-8.492124 -9.287117
-8.805300 -9.159941
-7.873398 -8.934201
-8.380924 -9.561130
-8.814699 -9.621413
-8.357950 -9.388657
-8.941104 -10.193929
-8.588353 -9.501238
-9.123423 -9.926341
-8.889171 -9.704986
-9.042820 -9.590631
-9.394908 -9.473705
-10.073855 -8.812344
-9.431052 -10.295475
-9.206572 -9.294903
-9.882736 -9.270616
-9.833639 -9.935844
-10.187163 -9.484916
-9.576520 -9.953995
-9.598217 -9.595428
-10.095597 -9.504682
-10.373830 -9.739721
-10.156824 -9.359475
-9.978629 -9.924337
-10.809843 -9.965280
-10.737490 -9.100820
-11.641214 -10.033335
-11.343548 -9.282705
-11.245840 -9.912315
-11.939005 -9.934337
-11.940140 -9.648749
-10.556836 -9.330433
-11.755745 -10.151812
-11.392157 -9.486247
-11.679053 -10.005249
-12.184630 -9.526832
-11.845453 -9.128429
-11.864203 -10.189952
-12.103205 -9.634195
-12.842888 -9.063093
-12.228884 -9.544566
-12.654410 -9.394546
-12.962886 -8.934434
-13.280444 -8.484003
-13.276008 -9.398884
-12.751240 -9.659687
-13.395120 -9.958742
-13.156436 -9.739778
-13.957975 -9.068307
-13.986052 -9.310439
-13.802635 -9.689847
-13.965304 -9.323288
-13.670389 -8.675746
-14.715684 -8.961944
-13.816766 -8.171872
-14.301761 -8.301908
-14.742946 -8.891780
-14.421353 -8.990488
-14.343863 -9.076873
-14.290211 -8.918954
-14.914082 -8.968444
-15.264273 -8.949185
-15.118987 -8.433243
-14.970720 -8.629798
-15.600722 -8.390615
-16.240937 -8.603678
-15.743981 -8.464946
-16.329552 -6.799310
-16.545132 -8.583937
-15.895966 -8.117774
-16.813054 -8.234690
-15.792533 -8.004788
-16.403247 -7.804939
-17.346475 -7.975661
-16.704006 -7.571562
-17.003938 -7.363910
-17.002665 -7.672304
-17.931222 -7.464154
-17.240216 -7.152460
-17.924836 -6.806944
-18.418327 -7.270420
-17.991874 -6.709152
-18.096337 -7.153431
-18.537107 -6.333292
-18.114075 -6.400792
-18.842612 -6.636026
-18.325257 -6.606787
-19.051083 -6.918110
-18.678975 -6.521478
-19.173070 -6.266476
-18.764475 -6.037821
-19.356575 -5.844407
-19.260310 -6.178081
-19.948447 -4.757172
-20.086230 -6.846490
-19.687770 -6.243293
-19.452171 -4.936637
-19.305432 -4.725241
-20.414268 -4.959066
-21.168602 -5.393768
-20.698758 -5.363749
-20.204867 -4.497635
-21.069528 -5.032799
-20.688666 -4.912337
-21.162413 -4.751015
-21.020275 -4.698768
-22.230524 -4.695542
-21.660486 -3.712322
-21.334660 -4.564903
-21.862432 -4.381865
-21.982129 -2.944713
-21.940752 -3.648733
-21.512613 -3.198656
-22.048336 -3.943272
-21.724959 -2.851994
-22.917345 -3.018380
-21.776483 -3.158410
-22.914674 -1.981955
-22.421866 -2.376814
-22.497382 -1.485459
-23.408026 -2.007765
-23.372495 -1.605605
-23.030864 -1.620556
-23.031183 -1.703879
-23.082981 -1.854228
-24.455128 -2.161692
-23.672367 -2.370790
-23.053977 -0.651867
-23.773904 -0.621813
-24.242665 -0.993844
-24.746812 -0.420901
-23.298030 -0.046237
-24.571771 0.032227
-23.897765 0.481575
-24.462169 0.225974
-24.416664 0.021726
-24.283692 1.163067
-24.305713 0.041783
-24.380509 1.052437
-24.694450 2.211891
-24.987325 1.938223
-25.013458 1.794681
-25.034725 1.586345
-25.435587 2.928232
-25.995072 2.283407
-25.011351 2.706971
-24.938447 2.218802
-26.014535 2.026094
-25.038664 3.435679
-25.625656 3.352567
-25.507238 3.032272
-26.230751 3.452086
-25.716182 4.383944
-25.541488 4.055403
-26.223387 4.800907
-25.557577 4.114781
-25.601802 5.019288
-25.936064 5.431555
-24.790121 5.214739
-26.575636 5.063442
-26.758927 5.660167
-25.808203 5.740616
-26.872377 7.072542
-26.638397 7.001756
-27.135826 6.701410
-26.322516 6.478900
-26.186872 6.585317
-25.947120 7.111406
-25.668233 7.754863
-26.225521 9.207587
-27.092200 7.680428
-26.167482 7.019295
-27.091443 9.508879
-27.077065 9.187955
-26.336464 9.219215
-26.290363 9.399351
-26.683094 10.502054
-26.399194 9.720325
-26.569126 10.627041
-25.849460 10.435203
-27.048900 10.888696
-26.754261 12.250672
-26.784105 11.345492
-26.799572 11.604854
-26.956761 11.798604
-26.263848 12.346665
-26.166214 11.586617
-26.835190 13.360491
-26.657961 13.222072
-27.103825 12.468068
-26.609318 13.466426
-26.919018 13.799948
-26.569270 14.810595
-25.753437 13.493233
-26.299919 14.425213
-26.683911 14.326031
-26.026704 14.483511
-26.785584 14.622678
-25.158654 15.570579
-26.517499 15.251570
-26.316563 16.281191
-25.818708 15.814657
-26.237062 16.461937
-25.922062 16.300734
-26.183113 16.994520
-26.026866 17.982073
-25.273122 16.438362
-25.684494 17.128774
-25.457495 18.428851
-25.717003 17.305606
-24.724903 18.161388
-24.647773 18.989189
-25.358741 19.802855
-24.751648 19.496070
-25.021101 18.486175
-24.645494 20.566558
-24.177357 19.552375
-24.143885 19.829740
-24.473167 20.076879
-24.301697 20.312618
-24.569148 21.404254
-23.915115 20.728014
-24.017041 22.154914
-23.564181 22.053526
-23.537636 22.916184
-24.031760 22.386958
-22.814930 22.349280
-23.691330 23.072522
-22.687385 23.344126
-22.399395 22.515211
-23.433597 23.932529
-22.064465 24.353241
-23.244218 24.584573
-23.334336 24.249968
-21.728392 25.032564
-22.099852 24.814665
-21.560195 25.968380
-21.439238 25.457378
-21.221159 25.773266
-20.936739 24.934083
-21.515396 26.236337
-20.904845 25.994407
-20.905167 26.725577
-20.453211 27.232810
-20.026988 27.739970
-20.606668 27.118826
-19.965722 27.152417
-18.718978 27.827029
-19.881350 27.478955
-19.582765 28.376277
-19.732958 28.315272
-19.932341 27.922610
-18.234773 28.863907
-18.390120 29.480777
-18.095732 29.970596
-18.601515 28.908484
-17.823524 28.508353
-17.836331 29.775541
-17.418346 30.294514
-15.893077 30.233205
-17.420290 30.523570
-16.558172 30.926150
-16.465115 31.221025
-16.020586 30.032273
-15.131607 30.627812
-14.778559 31.278473
-15.483266 32.485350
-15.260255 31.926889
-14.841847 32.068575
-15.237525 32.276907
-15.952011 32.349025
-12.590915 31.572001
-14.253038 33.169068
-14.170864 32.917313
-13.413230 32.040840
-12.963110 32.815194
-12.011102 33.391628
-13.160950 33.936371
-13.068602 34.671002
-12.121544 33.137161
-13.163152 34.315962
-11.583871 33.757084
-12.030500 35.299080
-9.570855 34.393517
-9.740803 35.442355
-10.659262 35.072807
-8.807797 34.587290
-10.942559 34.472387
-9.825264 35.943774
-8.664761 34.452128
-10.448657 35.366017
-8.913610 35.409119
-8.473211 35.662493
-7.583335 35.723292
-7.710991 36.419396
-6.459447 36.264437
-5.888884 36.062298
-7.737184 36.111111
-7.587700 35.471128
-6.493243 35.730228
-5.724474 36.377171
-4.800362 37.019475
-6.186368 37.595648
-5.729263 36.912551
-3.768572 36.582531
-5.174093 37.043900
-4.343165 37.279741
-2.375310 36.406669
-4.300253 36.845816
-2.248971 36.274090
-2.468676 36.555676
-2.613042 37.829304
-3.181284 38.277304
-1.369990 38.141164
-1.631873 37.100059
-1.939047 37.631536
-1.541595 36.868087
0.232692 36.212174
-0.771794 38.018717
2.069550 36.170402
0.899641 37.705061
0.109552 37.395680
1.662975 37.349161
1.263926 37.486161
1.106874 37.885452
3.644599 38.617233
2.932921 37.012842
2.958101 37.418296
2.790521 36.766466
4.548340 37.102495
3.025454 38.923805
6.301241 37.333553
4.003119 37.172420
4.186534 37.921381
5.064575 36.854542
6.148186 36.512113
5.504546 37.807917
8.798278 36.434469
9.042951 36.857479
6.998378 36.640671
6.213118 38.259542
7.983010 36.243734
6.848569 38.139983
9.890875 37.665852
7.995919 36.445562
9.215795 36.382112
9.099705 36.108046
10.582434 35.492314
9.733294 37.144098
13.782916 35.779100
12.389466 36.151672
8.997413 35.752517
10.000609 37.539042
11.986492 34.682727
10.036911 36.890827
14.637152 34.582867
12.473499 36.409633
12.819475 34.098722
11.803164 34.654499
17.062309 35.111898
11.863821 36.471558
16.075863 35.871912
15.812683 36.506837
11.887292 33.811106
11.797958 35.121467
14.594846 31.233463
14.429858 35.845527
18.332307 32.258114
14.655698 33.423239
16.666171 33.807498
14.746697 32.673906
19.521174 32.738785
14.683649 35.372113
21.295272 33.404289
21.090894 33.375089
15.475744 31.888057
15.081115 33.603004
21.549410 29.977231
14.714801 31.939570
21.292119 32.919443
18.922533 32.780038
20.654607 31.849625
15.738404 31.766954
22.300322 30.618340
19.451196 32.541222
24.772271 30.111589
25.800277 30.030219
17.562959 28.417232
13.621179 29.440106
24.643819 27.046772
18.605223 32.655646
25.745301 32.261706
22.098499 30.630275
22.883375 27.851519
19.385372 27.524474
27.437349 26.966628
24.300269 30.857973
27.855243 27.116054
31.011105 27.414082
19.078037 25.585582
10.977067 30.639643
28.013385 25.186067
19.187950 26.824195
27.726161 27.178296
23.576130 25.366587
26.962952 25.193305
24.035039 26.126439
29.727119 23.833001
25.427912 28.240875
30.370585 23.817422
37.597749 25.099014
16.808338 22.872124
-1.076396 24.251065
32.159880 20.129431
17.896214 22.638929
30.297774 25.153702
24.109796 24.709512
31.189278 20.422930
21.756984 19.097561
35.080790 20.346283
26.909424 28.256262
31.340274 24.183388
47.210142 17.456466
16.969585 17.038611
-33.440109 21.640143
37.222093 14.990971
10.646371 19.699862
32.070316 19.182362
15.988886 20.028919
40.057133 14.203753
25.841133 22.451124
38.463745 16.048030
39.801082 21.888467
35.622315 18.254544
71.414764 9.666276
0.673776 14.101687
-165.051838 18.287046
44.532528 9.650148
-45.210203 15.009918
45.036855 18.943285
28.524952 26.901593
56.756344 5.166890
77.227372 14.797285
32.366380 7.794626
73.131433 26.300067
21.935211 14.983630
79.205766 -10.606116
-37.095598 -17.871857
-2224.944170 40.315198
139.981648 -6.270734
28.747264 -6.458788
51.867046 22.717116
-42.616490 11.554738
11.073458 -5.189372
-7581.653343 105.659124
