14668.397072 15912.764956
97.942662 83.159309
-49.827494 41.500495
-125.492565 165.206015
748.765253 1169.456097
-103.834704 103.446228
-21.411229 -92.102570
145.095591 -99.182663
-65.195746 -701.157620
-1417.694978 289.877351
31.060803 -589.387316
183.867895 -36.836588
86.516691 5.933496
86.351759 -96.562775
-69.682162 18.561310
4.659084 40.423142
-43.299266 -26.829967
-15.368603 -1.069798
-17.098691 68.748737
34.237851 17.202520
-9.609929 45.916799
-12.157333 -12.511954
37.288021 -34.957059
-36.539202 -21.057680
37.955947 15.138558
-6.622503 9.734786
4.481034 -19.726517
-52.934584 -21.171453
-29.504358 45.330725
18.780133 -5.238564
-7.487615 48.818604
-29.261971 -21.761732
4.521073 -50.905081
9.252062 19.869064
24.334496 2.398790
-1.005508 20.499875
28.766678 23.563045
25.785850 10.965931
-0.251886 5.338981
17.593035 7.389862
9.584952 -13.771432
-5.354087 0.030281
-31.954173 36.250761
8.259038 -3.903862
-7.921683 10.224509
11.829297 -7.097195
0.341048 17.237975
2.335473 10.058607
17.977555 7.518921
5.529198 14.102170
15.477110 5.594648
10.219602 6.524740
-2.273286 17.712662
0.400676 -3.130043
15.685325 -1.908445
19.130697 -2.767584
0.049010 4.504846
16.386862 12.486857
8.155306 6.705484
-4.006626 12.006645
-5.365895 19.854938
11.606956 14.131310
10.372010 6.318036
13.850381 19.323063
6.137013 1.255014
3.448749 3.151485
2.528710 5.076407
17.661638 4.764372
1.726164 13.347309
14.250647 -5.677648
6.937522 6.054746
12.386181 11.528152
10.561582 4.332599
7.732111 8.706148
2.365505 15.624569
3.272644 9.767149
11.220230 2.648551
7.603915 10.161141
12.035056 5.551963
15.515222 9.647258
10.734346 10.546677
10.706411 15.273903
4.921623 2.594160
8.368228 1.565470
2.959346 9.673901
9.333718 10.516090
7.756368 5.112955
10.236363 8.280267
10.405445 -1.492423
11.362520 11.973663
7.885344 7.191398
7.738854 3.459617
9.966603 10.110420
13.007320 10.404359
8.892787 6.585963
15.928920 9.703363
11.071135 10.141437
5.441320 5.771032
6.738658 6.897904
9.294053 7.223158
11.861706 4.484190
9.926873 6.396363
13.695502 5.541423
5.980655 13.060841
9.808654 4.046105
11.461000 7.593299
8.978226 6.460076
8.178927 6.381473
9.052225 6.238240
11.027577 6.533779
10.386945 6.541667
14.800854 9.517108
10.780617 5.575535
11.544532 7.211704
14.909937 6.170891
8.316649 5.255134
8.360521 5.498284
11.289538 8.219007
11.434271 9.329220
8.911861 8.158816
9.421160 4.025502
9.366100 4.294889
9.999058 8.255826
10.777776 3.299849
11.993130 7.203380
10.959314 8.183331
13.118449 4.180725
11.146357 7.919804
13.056564 6.128790
10.286070 5.421819
11.743657 3.328606
10.136240 5.931718
11.986414 5.674575
11.573858 4.990137
8.583175 5.132830
11.959498 6.956343
11.093353 8.394559
12.353013 6.369713
11.731107 6.284381
11.818988 4.688910
10.894736 7.721688
8.831904 5.831303
10.749325 4.339902
13.401511 5.585295
12.674670 3.928721
10.291783 3.123319
13.546581 6.013874
12.076273 2.685089
10.277539 5.433681
11.568899 6.626777
11.628607 6.292444
11.534442 5.759757
11.895706 5.236849
11.346735 4.833108
12.592476 4.911644
11.515318 5.742549
12.236465 4.454222
12.568698 5.214924
11.034933 3.621807
11.829164 4.550503
11.518561 5.109196
14.490855 4.609176
10.200004 5.949572
10.721516 3.041931
11.525614 3.914193
12.853284 3.264402
10.495599 4.265413
12.671879 4.784124
13.820931 4.225452
12.167065 4.612271
14.081461 5.070635
12.546353 3.737001
11.160186 4.097245
12.185126 5.122890
10.743828 4.304235
12.834998 3.886667
12.924707 3.115370
12.548975 3.548248
11.834203 4.263790
12.471294 3.899449
11.673562 2.585711
11.655945 4.132857
12.752426 2.269022
13.645173 4.613699
11.659252 4.568462
12.327715 3.248585
12.673292 3.389575
12.928657 3.627953
11.968490 3.516861
14.227836 1.926050
12.143074 3.110803
12.600604 3.510618
12.778479 3.754599
12.457798 3.575550
13.605875 3.365151
11.624846 3.380136
11.353813 2.359397
11.873922 2.817674
12.311845 1.543160
13.147772 3.755451
12.869105 3.009255
12.868491 2.386079
12.927527 2.718504
13.229737 2.473306
12.439555 0.835478
13.722592 2.832400
12.645295 2.202020
12.639677 2.561511
13.447042 1.880495
12.085281 2.649227
11.846447 1.980486
12.995176 2.357760
13.051061 1.795016
12.906139 2.033279
12.044186 2.144161
13.480251 1.776581
12.670485 2.782149
12.432545 2.650003
13.207623 2.070787
12.211948 1.021699
13.278332 0.835919
13.034327 1.570255
12.822530 0.491087
11.919332 1.327474
13.283025 1.071614
12.664491 2.557992
13.282942 1.363163
13.383566 1.384290
11.947923 2.053619
13.218606 1.639549
12.330323 1.014871
12.747229 1.768847
13.170985 1.417737
12.773581 0.387760
13.141342 0.570797
13.091193 1.459256
13.046286 -0.076176
13.382748 0.135619
12.799800 1.574699
12.154780 0.502693
12.537576 0.506928
12.605147 0.414227
12.882623 0.752268
13.222208 0.304333
13.049768 0.768670
13.299304 -0.201253
13.403424 -0.287130
12.335509 0.639235
12.879502 0.277018
12.644904 1.149051
13.444325 0.785466
12.488756 -0.125012
11.785505 -0.422746
13.329568 0.126503
12.142021 -0.445048
12.238474 -0.602473
12.726121 0.305374
12.760628 -0.542462
12.811442 -0.376612
13.976545 -0.553563
13.091094 -0.062937
12.191235 -0.270539
12.736390 -0.338005
12.712570 -0.966192
13.021693 -0.639701
12.979252 -1.233009
12.582293 -0.511861
13.015251 -0.625664
13.106517 -0.336038
12.970727 -1.285811
12.497609 -1.320582
12.735845 -0.734112
12.873510 -0.878895
11.303149 -0.635537
12.552761 -1.151495
13.018364 -0.662300
12.123822 -1.147071
12.953972 -1.232435
12.862818 -1.634774
12.618547 -1.957159
12.787252 -1.795916
13.182802 -1.280017
12.681558 -0.462612
13.632252 -1.718315
12.076427 -1.527856
12.303806 -1.765565
12.592289 -1.999948
12.304206 -1.983238
12.674444 -1.857879
12.588065 -1.392001
12.349922 -1.547504
12.507555 -1.908356
12.994791 -2.211646
13.193350 -1.684585
12.241726 -1.582651
12.597991 -2.380367
12.915969 -2.767393
12.417800 -2.045724
11.989191 -2.311579
12.627593 -2.221806
12.379156 -2.478536
12.521597 -2.642869
12.591220 -3.171530
12.879830 -2.353862
12.322848 -2.469613
12.762087 -1.941322
11.770101 -1.946865
12.773570 -2.862759
11.839568 -2.859302
12.549637 -2.982704
12.244336 -3.229155
12.224867 -3.338272
12.360730 -3.029102
11.812876 -3.307543
12.634452 -3.314865
12.815035 -2.740268
11.952073 -3.232879
11.445866 -2.872970
12.467416 -3.328904
12.085341 -3.095068
11.864541 -3.451529
12.390804 -3.418379
11.739431 -3.387106
11.973552 -3.344732
12.089742 -3.578558
12.857511 -3.376987
12.226005 -4.065703
11.732410 -3.111667
11.673212 -3.581477
11.242977 -3.891637
11.377599 -4.115385
11.723620 -3.867466
11.735640 -3.618582
12.386292 -4.262210
11.770493 -4.162392
11.639316 -4.067730
12.179728 -3.886585
11.845028 -4.097353
11.783770 -3.194037
11.791007 -4.209482
11.872173 -4.698281
11.448820 -3.791772
11.848421 -4.470674
11.742508 -4.816940
11.635284 -4.617579
11.249714 -4.078394
10.950593 -4.697273
11.786782 -4.587033
11.438878 -4.378489
11.376423 -4.208982
11.347965 -4.793682
11.104841 -4.539960
11.304787 -4.997698
11.299622 -5.079280
11.438922 -5.145955
11.075327 -5.120858
11.563883 -4.748667
11.684619 -4.713992
11.535939 -5.063822
11.478847 -4.921729
11.080008 -5.002465
10.870580 -5.467889
10.785934 -5.020505
11.263165 -5.228137
11.070044 -5.232999
10.530205 -5.055403
11.521337 -5.096253
10.644847 -5.382022
10.809362 -5.615005
11.480096 -5.218766
11.148139 -5.273205
10.946976 -5.299725
10.568343 -6.072842
10.851484 -5.764397
10.489497 -5.499768
11.079526 -5.682598
10.473015 -5.758317
11.036074 -5.923266
10.444076 -5.437180
10.611371 -5.957976
10.557697 -5.408640
10.836528 -5.341162
10.330068 -5.682753
10.401537 -5.812973
10.491901 -5.978890
10.641436 -6.546403
10.046728 -5.666532
10.660512 -6.456776
10.091511 -5.831878
9.865439 -6.140230
10.622593 -6.684201
10.077250 -6.643730
10.141618 -5.888709
10.307014 -6.039126
9.808947 -6.208853
10.158038 -5.951507
10.582803 -6.136609
10.083934 -6.229965
9.784386 -6.561304
10.652985 -6.265157
9.954648 -6.450324
10.081094 -7.011319
9.638773 -6.539498
9.876396 -6.482940
9.368831 -6.385229
9.403989 -6.951642
9.355836 -6.549031
9.691516 -6.138529
9.910816 -7.138320
9.674113 -7.030411
9.324604 -6.592586
9.265911 -6.794018
9.715937 -7.236303
9.748584 -6.771168
9.906169 -7.282391
9.470705 -7.387926
9.551326 -6.745944
9.269321 -7.008065
9.029802 -7.086413
8.934135 -6.888173
9.322650 -7.102238
9.253216 -6.705451
9.050971 -7.108155
9.392721 -7.136088
8.938511 -7.186365
9.826673 -7.024412
8.888494 -7.298767
8.979448 -7.355652
8.951052 -7.595323
9.151042 -7.290141
8.474728 -7.180202
8.939012 -7.414727
9.013284 -7.345439
8.623005 -7.381130
9.073044 -7.556903
9.021473 -7.359504
8.890577 -7.692625
8.453268 -7.397294
9.186513 -7.717098
8.576541 -7.633626
8.451164 -7.590817
8.527460 -8.022072
8.353372 -7.371968
8.034057 -7.835496
8.095790 -8.294623
8.148057 -7.659107
8.558139 -8.150517
8.427129 -7.779818
8.120287 -7.854507
8.135208 -7.916001
8.203359 -7.978955
8.195238 -7.943062
7.944464 -8.197406
7.867136 -8.120226
7.694873 -8.148909
8.003256 -7.819695
7.963557 -7.956888
8.009083 -8.213268
8.124812 -7.684917
7.532621 -8.102877
8.211241 -8.625343
7.416002 -8.007930
7.552027 -8.426992
7.505028 -8.017467
7.835785 -7.995657
7.451583 -8.692848
7.313712 -8.326484
7.608096 -8.308334
7.613560 -8.719590
7.418711 -8.508818
7.124342 -8.289271
7.258360 -8.468524
7.436703 -7.977636
7.023902 -8.221349
6.778422 -8.686134
7.241146 -8.173344
7.132055 -8.626914
7.065499 -8.356137
6.958476 -8.223893
6.971393 -8.355559
6.613510 -8.278023
7.035869 -8.586302
6.991679 -8.293546
6.695085 -8.862573
6.763103 -8.516202
6.606666 -8.410734
6.758497 -8.470949
6.364054 -8.790634
6.773923 -8.568254
6.606058 -8.623579
6.759630 -8.674672
6.618785 -8.280989
6.412875 -8.627789
6.749087 -8.540530
6.347763 -8.864150
6.257672 -8.771723
6.125650 -8.670083
6.524483 -8.934619
6.222673 -8.831829
5.716847 -8.760399
6.281836 -9.086669
6.102692 -8.291938
6.340028 -8.436359
5.754259 -8.704368
5.908412 -9.278886
6.335667 -8.745698
5.954553 -8.726023
6.340844 -8.774215
5.509477 -8.930173
5.932093 -8.802029
5.603230 -8.447150
5.583826 -9.347362
5.974031 -8.510294
5.626976 -8.873785
5.690710 -8.389662
5.108931 -8.642100
5.829287 -9.003201
5.302808 -8.985038
5.743943 -9.187855
5.177986 -8.665962
5.268384 -9.335642
5.009204 -9.175745
5.053232 -9.347248
5.339678 -8.618239
5.050383 -9.050950
5.499512 -8.961555
5.024604 -9.044405
5.193384 -9.242245
4.985925 -8.775025
4.912890 -8.945978
4.866654 -8.896437
4.977466 -8.954938
5.030610 -8.655790
4.789196 -8.944669
5.111657 -9.009338
4.748012 -9.050412
4.558560 -8.816060
4.748811 -8.766983
4.900524 -8.912702
4.785262 -8.643423
4.478536 -9.411825
5.045851 -9.208324
4.452271 -9.404508
4.493439 -9.578303
4.394839 -9.212203
4.560756 -9.231369
3.849631 -9.124833
4.390244 -8.924288
4.360283 -8.975614
4.628610 -9.234648
4.397115 -9.253815
3.797477 -9.031974
4.030158 -8.915034
3.596385 -9.048986
3.818060 -9.201946
3.788118 -8.822473
4.171007 -9.255957
3.822214 -8.924263
3.904558 -8.738244
3.515864 -9.224872
3.604631 -9.268205
3.789208 -8.881054
3.576216 -9.099760
4.040767 -8.795877
3.746417 -9.195104
3.513273 -9.316915
3.234281 -9.088812
3.793894 -9.424366
3.419217 -9.010232
3.433275 -8.820460
3.617269 -9.225577
3.695932 -9.295679
3.035596 -9.186363
3.088637 -9.233443
3.429871 -8.630554
2.721041 -9.078065
2.992868 -9.367313
2.930710 -9.206849
3.126022 -9.428357
2.612968 -9.029003
3.284750 -9.071456
2.676488 -8.866388
3.387204 -9.007500
2.943249 -8.919405
2.952606 -8.969544
2.962654 -9.002791
2.686664 -9.330533
2.608704 -8.856156
2.822545 -8.949291
3.141132 -9.021136
2.552151 -9.066679
2.312823 -9.117626
2.433840 -8.932793
3.059890 -8.943098
2.321597 -9.007387
2.998291 -8.724155
2.337003 -8.934422
2.352764 -9.430688
2.263248 -9.148045
2.235779 -9.112263
2.411800 -8.917716
2.295559 -8.954169
2.351156 -8.756833
2.583295 -8.998076
2.660843 -8.947087
2.205009 -8.628202
2.248373 -8.381978
2.316221 -8.588742
1.777233 -8.614494
1.539252 -8.388878
1.715702 -9.012700
2.116969 -8.389130
1.426780 -8.590479
1.783099 -8.215793
1.664169 -8.638386
1.671763 -8.581590
1.117725 -9.098771
1.563060 -8.588033
0.944039 -8.935091
1.144592 -8.423309
1.258931 -8.976292
1.302887 -8.976498
1.580393 -8.984230
1.307869 -8.961725
1.129925 -9.049284
1.829760 -8.777241
1.458943 -8.487560
1.528191 -8.827081
1.605212 -8.901217
1.346229 -8.828313
1.252155 -9.076799
1.075718 -8.841334
1.255116 -8.687992
1.266277 -8.909405
1.132424 -8.712750
1.049021 -8.304069
1.125601 -8.431407
0.972114 -8.896135
1.287759 -8.482009
0.820386 -8.699537
0.934310 -8.732006
1.144517 -8.776891
0.575963 -8.607358
1.090672 -8.515041
1.198115 -8.328716
0.508954 -8.279404
1.144122 -8.489354
0.617327 -8.743746
0.899406 -8.843828
0.951107 -8.491692
0.910696 -8.588751
0.682300 -8.241344
0.660642 -8.315376
0.070554 -8.250219
0.821296 -8.817164
0.525826 -8.218772
0.432863 -8.279252
0.550347 -8.698374
0.559061 -8.195195
0.543952 -8.207567
0.705719 -8.794591
0.769633 -8.184286
0.350446 -8.492212
0.412394 -8.284416
0.446634 -8.118468
0.264539 -8.441139
-0.039054 -8.189865
0.631048 -8.335874
0.487559 -8.273591
-0.049875 -8.444112
0.548765 -8.264841
-0.032320 -8.311435
0.118304 -7.914878
0.131174 -8.156847
-0.215684 -7.495774
-0.295654 -7.813261
-0.153151 -8.147695
0.012374 -7.630418
0.220533 -8.406449
0.071180 -7.972232
0.370801 -7.735611
0.211169 -7.944452
0.037070 -7.702229
-0.412641 -7.521430
-0.097000 -7.917354
-0.120492 -7.581965
0.151273 -7.805966
-0.046797 -7.966260
0.156786 -8.072000
-0.335393 -8.056656
-0.079845 -7.738131
-0.180501 -8.329836
-0.295775 -7.328259
-0.183880 -7.743060
-0.830072 -8.089350
-0.601567 -7.670744
-0.764779 -7.633349
-0.574585 -7.545891
-0.160543 -7.633683
-0.174465 -7.862371
-0.651827 -7.467088
-0.472337 -7.671690
-0.360373 -7.298236
-0.319144 -7.069576
-0.811595 -7.813871
-0.709371 -7.976473
-0.728305 -7.355294
-0.740309 -7.321700
-0.611467 -7.330374
-0.747703 -7.664780
-0.636076 -7.399810
-0.869041 -7.361560
-0.929023 -7.420617
-0.920238 -7.349750
-0.624709 -7.568147
-1.170088 -7.001152
-0.807373 -7.268385
-1.362943 -7.538698
-0.699158 -7.084432
-0.533418 -7.138637
-0.793749 -6.903952
-0.736722 -7.076022
-0.232924 -7.180457
-1.098025 -7.120619
-0.865853 -7.327086
-1.058282 -7.096311
-0.909298 -7.128418
-1.124139 -7.105636
-0.874246 -7.039822
-0.904022 -6.732333
-1.289361 -7.249600
-0.775080 -6.870652
-0.998364 -7.293635
-1.435935 -6.567390
-1.438938 -7.390926
-1.287677 -7.030282
-1.350540 -6.930046
-1.394358 -7.142842
-1.200492 -6.981824
-0.892414 -6.720197
-1.623181 -6.842870
-1.367266 -6.903237
-1.709143 -6.834899
-1.268929 -6.736449
-1.019247 -6.706269
-1.452559 -6.630788
-1.122885 -6.599614
-1.244721 -6.474301
-1.143824 -6.723461
-1.320020 -6.834221
-1.455521 -6.386483
-1.489800 -6.376458
-1.101329 -6.673740
-1.039192 -6.633023
-1.555240 -6.503893
-1.839248 -6.690099
-1.235495 -6.418518
-1.393250 -6.396459
-1.559966 -6.160876
-1.398699 -6.453181
-1.882248 -6.275071
-1.178056 -6.422263
-1.307067 -7.125795
-1.805437 -6.457423
-1.963494 -6.689577
-1.821917 -5.921996
-1.688365 -6.107136
-1.784803 -6.330816
-1.686281 -5.938055
-1.753735 -6.184079
-1.514956 -6.477074
-1.393834 -5.887430
-1.509766 -6.371989
-1.774771 -6.055832
-1.435167 -6.020332
-2.206545 -5.821795
-1.546678 -6.374439
-1.718882 -5.923824
-1.389292 -5.767020
-1.551972 -6.480426
-1.611048 -5.833396
-1.543414 -6.150408
-2.077587 -6.057626
-1.516591 -5.703895
-1.966910 -6.070027
-1.769425 -5.971730
-1.744460 -5.982542
-2.082892 -6.076599
-1.921615 -5.436036
-1.228240 -6.191640
-1.514280 -5.533933
-1.630185 -5.653564
-1.874844 -5.940982
-1.059531 -5.769945
-1.825786 -6.022489
-2.032079 -5.673491
-2.013752 -5.411606
-1.487586 -5.432119
-1.674396 -6.010394
-1.991413 -5.975075
-1.328345 -5.836281
-1.777124 -5.773099
-1.910200 -5.366258
-1.789144 -5.724833
-2.144447 -5.287351
-1.976885 -5.385312
-2.284498 -5.608873
-2.058916 -5.681920
-1.430083 -5.959729
-1.881282 -5.000036
-2.049853 -5.403703
-1.879853 -5.797199
-1.792378 -5.456108
-2.024751 -5.821722
-1.893888 -4.960488
-2.443612 -5.201838
-1.990295 -5.061661
-1.936533 -5.265412
-1.998777 -5.477469
-1.748640 -5.534281
-1.756851 -5.510642
-2.208966 -5.367176
-2.308261 -5.127386
-2.409671 -5.228473
-1.815233 -5.227337
-2.047552 -4.878757
-2.188407 -5.332990
-1.648517 -5.204471
-2.101540 -5.040541
-1.761305 -5.397006
-1.676295 -4.651406
-2.148517 -4.565951
-2.060628 -5.446017
-1.852688 -4.891747
-1.866926 -5.673795
-1.215986 -4.931066
-2.272072 -4.958281
-1.986469 -5.112379
-1.944845 -4.426638
-2.295808 -4.822174
-2.167169 -5.220437
-1.991635 -4.804423
-2.214043 -5.165740
-2.177580 -4.421951
-2.707756 -4.700733
-1.769405 -4.846246
-1.703031 -5.073395
-2.054301 -5.014250
-1.565074 -4.743296
-2.452186 -4.815950
-2.299539 -4.855950
-2.255843 -4.776411
-2.035971 -4.660267
-1.822614 -4.842019
-1.988861 -4.507076
-1.927591 -5.107626
-2.206821 -4.401079
-2.346808 -4.440124
-1.872764 -4.669049
-1.982157 -4.503542
-1.796541 -4.398729
-2.053464 -4.251216
-2.197002 -4.844841
-1.950199 -4.307191
-2.448793 -4.269689
-1.874561 -4.391374
-2.079237 -3.983698
-2.000654 -4.532984
-1.775613 -4.768285
-2.355091 -4.572839
-1.412102 -4.645556
-2.148756 -4.226615
-2.108418 -4.775781
-1.641805 -4.150980
-2.116771 -4.645274
-1.839018 -4.583650
-2.215462 -4.394571
-2.447241 -4.857917
-2.337395 -4.622666
-1.888163 -4.490889
-1.650489 -4.425519
-2.322965 -3.923374
-2.439281 -4.485597
-1.992387 -3.848120
-2.111686 -4.441467
-1.671398 -4.167534
-2.157668 -3.971999
-2.070430 -4.193335
-1.970118 -4.366763
-1.887472 -4.538071
-1.928332 -3.917206
-2.226299 -4.174693
-2.194760 -4.125457
-2.186730 -4.266233
-1.805145 -4.037238
-2.100802 -4.385775
-2.255300 -4.273717
-1.496110 -3.831557
-2.602654 -3.995413
-1.977434 -4.379516
-2.035604 -3.992506
-1.901289 -3.918399
-2.001414 -3.632278
-2.076472 -3.863570
-1.918600 -4.319260
-1.803955 -4.286533
-1.564546 -3.993997
-1.511227 -3.880174
-1.573224 -3.602251
-1.898751 -3.710479
-2.144813 -4.082534
-1.581396 -4.105327
-1.947726 -3.608390
-1.734065 -4.141563
-1.637159 -4.193363
-2.007895 -4.009469
-1.943402 -4.033725
-1.667332 -3.817746
-1.552868 -4.098141
-1.827501 -3.548561
-2.163592 -3.694992
-2.009124 -3.965859
-1.978099 -4.165893
-1.635082 -3.863842
-1.462111 -4.023381
-1.943655 -3.805814
-1.497458 -3.697020
-1.947901 -3.931309
-1.605104 -3.868464
-1.776348 -3.779780
-1.690983 -3.693824
-1.540350 -4.157664
-1.784968 -3.721273
-2.055391 -3.681231
-1.883577 -4.143492
-1.739707 -3.535722
-2.072154 -3.636913
-1.846161 -3.800722
-1.860115 -3.756264
-1.779756 -4.008651
-1.600683 -3.955537
-1.601142 -3.247804
-1.923278 -3.787828
-2.217147 -3.725269
-2.185538 -3.766202
-1.381398 -3.501332
-1.529313 -3.729438
-1.650045 -3.311257
-1.787317 -3.740683
-1.619702 -3.431198
-1.542835 -3.702124
-1.490807 -3.517321
-1.722445 -3.604440
-1.980471 -3.038694
-1.738493 -3.523677
-1.657533 -3.595279
-1.456288 -3.778524
-1.951313 -3.435890
-1.667687 -3.389775
-1.324666 -3.515367
-1.519233 -3.511442
-1.801003 -3.517790
-1.906562 -3.707392
-1.560225 -3.695890
-1.904776 -3.719005
-1.533773 -3.790601
-1.411164 -3.815410
-1.472812 -3.224893
-1.818618 -3.506455
-1.439080 -3.748348
-1.782273 -3.781971
-1.734357 -3.695187
-1.816610 -3.515275
-1.607554 -3.424380
-1.447278 -3.409888
-1.731701 -3.597553
-1.800674 -3.385083
-1.095938 -4.046696
-1.781707 -3.396460
-1.937137 -3.408521
-1.559401 -3.657732
-1.352652 -3.554738
-1.685264 -3.245479
-1.663486 -3.695332
-1.232778 -3.599500
-1.429075 -3.640865
-1.899836 -3.480292
-1.337371 -3.748184
-1.497540 -3.560600
-2.172160 -3.091807
-1.669479 -2.874641
-1.202680 -3.691473
-1.166811 -3.175067
-1.062949 -3.237935
-1.694196 -3.251146
-1.841037 -3.464629
-1.424913 -3.375116
-1.665568 -3.242368
-1.771915 -3.555744
-1.107868 -3.529373
-1.299226 -3.192866
-1.147719 -2.953213
-1.795900 -3.449016
-1.751845 -3.481535
-0.989921 -3.596604
-1.559692 -3.284907
-1.332037 -3.168561
-1.233095 -3.844364
-1.026885 -3.522169
-1.647429 -2.906632
-1.297893 -3.421476
-1.593571 -3.558063
-0.768591 -3.365099
-1.581943 -3.255430
-2.191680 -3.159947
-0.683649 -3.547605
-1.078684 -3.436355
-1.519179 -3.125600
-1.341715 -3.109889
-1.732408 -3.700481
-1.075335 -3.309160
-1.452362 -3.575640
-1.657777 -3.604023
-1.602067 -3.497441
-1.518783 -3.477411
-1.228281 -2.889641
-1.247732 -3.864965
-1.439158 -3.115795
-1.481185 -2.845581
-0.987708 -3.609794
-1.386470 -3.628010
-1.420619 -3.365579
-1.032476 -3.587966
-1.386102 -3.372134
-0.686012 -3.298741
-1.419824 -3.385963
-1.078129 -3.661038
-1.205048 -3.179639
-0.972084 -3.657986
-1.375762 -3.532836
-1.050593 -3.835045
-1.499210 -3.736806
-1.611719 -3.455519
-1.241373 -3.068397
-1.401560 -3.921930
-0.854857 -3.373965
-1.137692 -4.161123
-1.835568 -3.596354
-1.725207 -2.816961
-1.034296 -2.733752
-1.125730 -3.943831
-1.480208 -3.824918
-1.260996 -3.489900
-1.641200 -3.206365
-0.822751 -2.736347
-1.090328 -3.253826
-0.909406 -3.900303
-1.678404 -3.992521
-0.973869 -3.593944
-1.587366 -3.080278
-0.931973 -3.291132
-0.920691 -3.575505
-1.624413 -3.625152
-1.510444 -3.668714
-1.367941 -3.605686
-1.784275 -3.638840
-1.073836 -3.598413
-1.109313 -3.656578
-1.374484 -3.564586
-0.985566 -3.647071
-1.529693 -3.411661
-1.300120 -3.264182
-1.358436 -3.392570
-1.209395 -3.855874
-1.209217 -3.646064
-0.932364 -3.715486
-1.367411 -3.724290
-1.385664 -3.216273
-1.051759 -3.769222
-0.827378 -3.535134
-1.274167 -3.533231
-0.856426 -3.561471
-1.314207 -3.992132
-1.503543 -3.464557
-1.200651 -3.668739
-1.495317 -3.597788
-1.134733 -3.691724
-1.043068 -3.879451
-1.409060 -3.584265
-1.804675 -3.656631
-1.355417 -4.007750
-0.920991 -3.597800
-1.320670 -3.257967
-1.123409 -3.837938
-1.249048 -3.498812
-1.580495 -3.528316
-1.269986 -4.034515
-1.320358 -3.498479
-0.945426 -3.720756
-1.194306 -3.504970
-1.260596 -3.932019
-1.354293 -3.906811
-1.170241 -3.373940
-1.597193 -3.705107
-1.066469 -3.341303
-1.462919 -3.863805
-1.264868 -3.537931
-0.937460 -4.082852
-1.402286 -3.691918
-1.469517 -3.868135
-1.487155 -3.237544
-1.439931 -3.868611
-1.595175 -3.658158
-1.235336 -4.113665
-1.355481 -3.673007
-0.868717 -4.117262
-0.911981 -3.517545
-1.268723 -3.439660
-1.433197 -3.569629
-1.298398 -3.584074
-1.240826 -3.611508
-1.354297 -4.119207
-0.858241 -3.678828
-0.963755 -4.052491
-1.318240 -3.554942
-1.255806 -3.450689
-1.308557 -3.698624
-1.028725 -3.783693
-1.331949 -3.617702
-0.970656 -3.909213
-1.304941 -3.755546
-1.320960 -3.879749
-1.528943 -3.971327
-0.963616 -3.978912
-1.713848 -3.748916
-1.454474 -4.200337
-1.678917 -4.054256
-0.919484 -3.767809
-1.262371 -3.871672
-0.945236 -4.144076
-1.400814 -3.752861
-1.042145 -3.965350
-1.147685 -3.846241
-1.752113 -4.155587
-1.652134 -4.023195
-1.135696 -4.160692
-1.451123 -4.095256
-1.111940 -4.097086
-1.090524 -3.922754
-1.443089 -4.356188
-1.682907 -4.072379
-1.343826 -3.602522
-1.539268 -4.078813
-1.738581 -4.066269
-1.395917 -3.955422
-1.128030 -4.204773
-1.400236 -4.416079
-1.754976 -4.219730
-1.341125 -4.330339
-1.556491 -3.994302
-1.720136 -3.882360
-1.622587 -3.993686
-1.577282 -4.107403
-1.152482 -3.971986
-1.132009 -3.859899
-1.829339 -4.109558
-1.383116 -3.811436
-1.512770 -4.314698
-1.612268 -4.177712
-1.549316 -4.058533
-1.616936 -3.870750
-1.294250 -4.465039
-2.006947 -4.037293
-1.516477 -4.070715
-1.702626 -4.104086
-1.799515 -4.289482
-1.775455 -4.334353
-1.573466 -3.882833
-1.380887 -4.099129
-1.739427 -4.334080
-1.920689 -3.998758
-1.798040 -4.419948
-1.674000 -4.022201
-1.981879 -4.451402
-1.598632 -4.053371
-1.603123 -4.189484
-1.958913 -4.293097
-1.328870 -4.447197
-1.754807 -3.387507
-1.853684 -4.053085
-1.594907 -4.193920
-2.027425 -4.296376
-2.043458 -4.191804
-1.669214 -3.960208
-1.549888 -4.357696
-1.599933 -4.575244
-1.873627 -4.292859
-1.797411 -4.332842
-1.484356 -4.241183
-1.743331 -4.315477
-2.092250 -4.512206
-1.871827 -4.157144
-1.971725 -4.197426
-1.810648 -4.401968
-1.666963 -4.363849
-1.909266 -4.586721
-1.846398 -4.497017
-1.885385 -4.511605
-1.798104 -4.612381
-1.822166 -4.243115
-1.931022 -4.027825
-2.256786 -4.165585
-1.778207 -4.523145
-1.771557 -4.239528
-1.415577 -4.425560
-2.087078 -4.300795
-2.010604 -4.574578
-1.898665 -4.677635
-1.991013 -4.710632
-2.076839 -4.545818
-2.054856 -4.282095
-1.534192 -4.246204
-2.298466 -4.095067
-1.686967 -4.043483
-2.192871 -4.724548
-2.008947 -4.278043
-2.076984 -4.599995
-1.955440 -4.324587
-2.270966 -4.247344
-2.449717 -4.463398
-2.021024 -4.308585
-2.328625 -4.351124
-2.087259 -4.435229
-2.599896 -4.555714
-2.353431 -4.276253
-2.024977 -4.512273
-2.230517 -4.312881
-2.846097 -4.449636
-2.294768 -4.515148
-2.240870 -4.594391
-2.340357 -4.478225
-2.337952 -5.034026
-2.574182 -4.544057
-2.432190 -5.055495
-2.301695 -4.501136
-2.694317 -4.565866
-2.553818 -4.530621
-2.612911 -4.436291
-2.225481 -4.406841
-2.231534 -4.726812
-2.678685 -4.003130
-2.878788 -4.648894
-2.312211 -4.727542
-2.823880 -4.630176
-2.588570 -4.529106
-2.338426 -4.150345
-2.528365 -4.623765
-2.572752 -4.957087
-2.730518 -4.282201
-2.775087 -4.227250
-2.333981 -4.328027
-2.987096 -4.490576
-2.647096 -4.433475
-2.538201 -4.781739
-2.290363 -4.425921
-3.004014 -4.751974
-2.858376 -4.505837
-2.557896 -4.446992
-2.310728 -4.550498
-2.777594 -4.597962
-2.716236 -4.432695
-2.314338 -4.332424
-2.773856 -4.546085
-2.899244 -4.911303
-2.985393 -4.483932
-2.826161 -4.682546
-2.806605 -4.745881
-2.758863 -4.279094
-2.712112 -4.436963
-3.015671 -4.730175
-2.334029 -4.598334
-2.815628 -4.947564
-3.072825 -4.640039
-2.834555 -4.702199
-2.780325 -4.587455
-2.753573 -4.542377
-3.133290 -4.200141
-2.764780 -4.677252
-3.226191 -5.019457
-3.198180 -4.724494
-2.788618 -4.675737
-2.782664 -4.606844
-3.072124 -4.563284
-2.864845 -4.166768
-3.036587 -4.564669
-3.152591 -4.710331
-2.973982 -4.519714
-3.235975 -4.502340
-3.490522 -4.525595
-3.078439 -4.205956
-3.102012 -4.593070
-3.265936 -4.566862
-3.318692 -4.395833
-2.688055 -5.179581
-3.081882 -4.477443
-3.254261 -4.359687
-3.312053 -4.542228
-3.101684 -4.602192
-3.669023 -4.415396
-3.428140 -4.439176
-3.280698 -4.888177
-3.587120 -4.470250
-3.162512 -4.541790
-3.466793 -4.782986
-3.477136 -4.519112
-3.216988 -4.303044
-3.099804 -4.618762
-3.746888 -4.232846
-3.718030 -4.372098
-3.553703 -4.358215
-3.267476 -4.353844
-3.799325 -4.183976
-3.417108 -4.059274
-3.574172 -4.522204
-3.499528 -4.733482
-3.125735 -4.484320
-3.468759 -4.549489
-4.086542 -4.494728
-3.448467 -4.429830
-3.648611 -4.513887
-3.883192 -4.470490
-3.551957 -4.464014
-4.008031 -4.657457
-3.868139 -4.719947
-3.583251 -4.353755
-3.672006 -4.510612
-3.776551 -4.722030
-4.236694 -4.251915
-3.847553 -4.417733
-3.614895 -4.415161
-3.834686 -4.388115
-3.832539 -4.511701
-3.546108 -4.229006
-3.981137 -4.014953
-3.921585 -4.164925
-4.127376 -4.275897
-4.174118 -4.163255
-3.920745 -4.645285
-3.753389 -4.384148
-4.161528 -4.459149
-4.384430 -4.307040
-3.858116 -4.365146
-4.137099 -4.327139
-4.110790 -4.233792
-4.403217 -4.527746
-4.470053 -4.540762
-4.273707 -4.519758
-4.217812 -4.153442
-4.117838 -4.507736
-4.578516 -4.039079
-4.220259 -4.224621
-4.064119 -4.599400
-4.007706 -4.346228
-4.516262 -4.435448
-4.229207 -4.124444
-4.118132 -4.075431
-4.305303 -4.094839
-4.275919 -4.248572
-4.833139 -4.091831
-4.496690 -4.206836
-4.557395 -4.195035
-4.504995 -4.257519
-4.534376 -3.639883
-4.154693 -3.995209
-4.841969 -4.255813
-4.426980 -4.102732
-4.574736 -4.000628
-4.766478 -4.311395
-4.793317 -4.126854
-4.634746 -3.804807
-4.181935 -4.082310
-4.388321 -4.072044
-5.220551 -3.614467
-4.691765 -4.326118
-4.971860 -4.037143
-4.587926 -3.964186
-4.513685 -4.087296
-4.522800 -3.853401
-4.635107 -3.948626
-4.402675 -4.190696
-5.200958 -4.420002
-5.688293 -3.734631
-4.684934 -3.560654
-4.826078 -3.835234
-5.089651 -4.029783
-4.917230 -3.792193
-4.634125 -4.195560
-5.243626 -4.266787
-5.178484 -3.690006
-5.194873 -3.712097
-4.947837 -3.550250
-4.602105 -3.962416
-5.059199 -4.048550
-5.050260 -3.513520
-5.380460 -3.537050
-4.716600 -3.933313
-5.392101 -3.919468
-5.338613 -3.305876
-4.893387 -3.516883
-4.682525 -3.674812
-5.517590 -3.738845
-5.280234 -3.330726
-4.987589 -3.484709
-5.224588 -3.522194
-4.823020 -3.511674
-5.115007 -3.535425
-4.926885 -3.621341
-5.175911 -3.557048
-5.451746 -3.505721
-5.534984 -3.678758
-5.591327 -2.933000
-5.189140 -3.462165
-4.997916 -4.122139
-5.091339 -3.293240
-4.835598 -3.431159
-5.450009 -3.451439
-5.688709 -2.903492
-5.543749 -3.247133
-5.041373 -3.380356
-5.585950 -3.260386
-5.583228 -3.266038
-5.570181 -3.470114
-5.483777 -3.385593
-5.607784 -3.194251
-5.488366 -2.890224
-5.624291 -3.084467
-5.386960 -3.183136
-5.220018 -3.379626
-5.762301 -3.416350
-5.404524 -2.878005
-5.778978 -3.127142
-5.579829 -3.291029
-5.814933 -3.229551
-5.679164 -2.896166
-5.475169 -3.460117
-5.557418 -3.075195
-5.397932 -3.093996
-5.503742 -2.693878
-5.431970 -2.745976
-5.664040 -2.908455
-5.477961 -2.778044
-5.705883 -3.120387
-5.591192 -2.826705
-5.428949 -2.606132
-5.764415 -2.756945
-5.603673 -3.106710
-5.674526 -2.725539
-5.862606 -2.595705
-5.841316 -2.918016
-5.751612 -2.986045
-6.086813 -3.146306
-5.595683 -2.629276
-5.653260 -2.338616
-5.986949 -2.760955
-5.991322 -2.735747
-5.951777 -2.409074
-5.895973 -3.049163
-6.094424 -2.758750
-5.910343 -2.450412
-5.449520 -2.838848
-5.601166 -2.487376
-5.926609 -2.437970
-5.799592 -2.613422
-5.673060 -2.508275
-5.805869 -2.327814
-5.604910 -2.128767
-5.911248 -2.550626
-6.037721 -2.678697
-5.868886 -2.459124
-5.582474 -2.674124
-6.423610 -2.548543
-6.020758 -2.254718
-6.088726 -2.761106
-6.112453 -2.418809
-6.081968 -1.927149
-5.952077 -2.013324
-6.241111 -2.382324
-6.080254 -2.214094
-6.203221 -2.437067
-6.019462 -2.455784
-6.300003 -2.366381
-6.245324 -1.958663
-6.210238 -2.186135
-6.097578 -2.080295
-5.503097 -1.677306
-6.185051 -2.472044
-6.142446 -2.223945
-6.034675 -2.035467
-6.092765 -2.037404
-6.220576 -2.143304
-6.171106 -1.801268
-6.098846 -1.775099
-6.237764 -2.107080
-6.521786 -2.093995
-6.073602 -2.416997
-6.026526 -1.856941
-6.596585 -1.532256
-6.160067 -1.621129
-6.287297 -2.102190
-6.369953 -1.810526
-5.945719 -1.760737
-6.326239 -2.001169
-6.390592 -1.946150
-6.327944 -1.422377
-6.186416 -1.654543
-6.618521 -1.781710
-6.417900 -1.567678
-5.949459 -1.965299
-6.179454 -1.698858
-5.955986 -1.730452
-6.299620 -1.691536
-6.074772 -1.554092
-6.436381 -1.538106
-6.340031 -1.536278
-6.454343 -1.560150
-6.371985 -1.344134
-5.892419 -1.741126
-6.445377 -1.734676
-6.523706 -1.260958
-6.026792 -1.342136
-6.224571 -1.730083
-6.382755 -1.449308
-6.221073 -1.267601
-5.937024 -1.404025
-6.343281 -1.501158
-6.555783 -1.337090
-6.823974 -1.128178
-5.909246 -1.389977
-6.418801 -1.220733
-6.493511 -1.412260
-6.392196 -1.484028
-6.118427 -1.080533
-6.492282 -1.259464
-6.534216 -1.212894
-6.451916 -1.097467
-6.297056 -1.064341
-6.334490 -0.841796
-6.627187 -0.824690
-6.517383 -1.027752
-6.327148 -0.937089
-6.465959 -1.323531
-6.407137 -1.126133
-7.059134 -0.426645
-6.422443 -1.226610
-6.152949 -1.061167
-6.534647 -0.751633
-6.282471 -0.370399
-6.637440 -0.464398
-6.437423 -0.662428
-6.221997 -1.080359
-6.381366 -0.287979
-6.245204 -0.482823
-6.199353 -0.884933
-6.382294 -0.700775
-6.441473 -0.551878
-6.137928 -0.689720
-6.368526 -0.312369
-6.244918 -0.442078
-6.232534 -0.298385
-6.371462 -0.241149
-6.448693 -0.107732
-6.436185 -0.149491
-6.658490 -0.460805
-6.587005 -0.043360
-6.181261 -0.215504
-6.724729 -0.200701
-5.861429 -0.576799
-6.610151 -0.061189
-6.325221 -0.105451
-7.002286 -0.324205
-6.450058 -0.211217
-6.495996 -0.120832
-6.455645 -0.054464
-6.424522 0.097971
-6.466469 0.074720
-6.224695 0.015832
-6.418429 -0.331060
-6.231390 -0.325804
-6.472594 -0.371334
-6.342700 -0.036480
-6.459265 -0.061640
-6.499096 0.076568
-6.507706 0.417905
-6.444443 0.087113
-6.258647 0.178272
-6.141724 -0.008483
-6.246559 0.066020
-6.699244 0.131457
-6.623643 0.143070
-6.242361 0.108581
-6.027978 0.298797
-6.540751 0.106406
-6.182475 0.335970
-5.930220 0.482805
-6.372285 0.247964
-6.201375 0.229821
-6.150586 0.496417
-6.176376 0.128070
-6.313600 0.521776
-6.536100 0.315564
-6.122553 0.585891
-6.188275 0.473012
-6.476489 0.304995
-6.388924 0.035500
-6.447772 1.120155
-6.313720 0.240933
-6.109145 0.653579
-6.305437 0.583767
-6.533973 1.129295
-6.176239 0.730090
-6.415808 0.593912
-6.182721 0.401234
-6.530972 0.913225
-6.393329 0.799804
-6.121022 0.497465
-6.193121 0.828686
-5.730264 1.046691
-5.961406 0.925730
-6.448417 1.179511
-6.613921 1.046795
-6.209630 1.226312
-6.023014 0.699869
-6.242322 1.564291
-6.032886 1.087063
-6.268550 0.845576
-6.043882 0.927216
-6.356157 0.792469
-6.101499 1.036514
-6.300354 1.121894
-6.036668 1.197842
-6.453574 1.268302
-6.235185 1.309246
-6.273187 1.394658
-6.059988 1.303611
-6.283670 0.973797
-6.071739 1.568826
-5.869943 1.041282
-5.828165 1.137306
-6.252649 1.410532
-5.762398 1.654949
-5.729497 1.458133
-6.401869 1.696644
-6.222426 1.480904
-5.685529 1.326011
-6.091165 1.587091
-6.069054 1.654166
-5.712403 1.598304
-5.876138 1.324938
-5.913281 1.570165
-5.896634 1.743723
-5.857510 1.312109
-5.953002 1.592300
-5.469314 1.544114
-5.871435 1.465585
-5.479989 1.601018
-6.054072 1.673253
-5.888499 1.823793
-5.897441 2.091927
-5.327715 1.833497
-6.147680 1.711447
-5.555892 1.538331
-5.174000 1.877312
-5.508620 1.540513
-5.981306 1.929863
-5.662150 2.111394
-5.760648 1.926943
-5.648602 2.007960
-5.950807 1.997647
-5.882502 1.480612
-5.493263 1.524480
-5.891834 1.877050
-5.442770 2.116895
-5.309315 2.087452
-6.038177 1.824430
-5.766038 1.487383
-5.894348 1.731805
-5.455916 1.906905
-5.589992 1.799545
-5.341922 2.529371
-5.542863 2.204611
-5.586156 2.058479
-6.046692 1.791533
-5.551176 2.163902
-5.533386 2.154462
-5.299495 2.570049
-5.371901 1.953248
-5.343935 2.059994
-5.200287 2.330738
-5.663249 2.095228
-5.627855 2.663121
-5.807971 2.329085
-5.368663 2.334304
-5.184322 2.144164
-5.295129 2.438030
-5.088243 2.040818
-5.911422 2.487539
-5.239137 2.187921
-5.093474 2.510893
-5.502316 2.387171
-5.456919 2.357322
-4.983100 2.511529
-5.452141 2.581336
-5.259793 2.641273
-5.281308 2.460215
-5.038743 2.613736
-5.335257 2.897805
-5.183557 2.114845
-5.355990 2.954829
-4.675987 2.494174
-5.064290 2.803814
-4.928132 2.715238
-5.104080 2.631711
-4.833625 2.380030
-5.466559 2.789499
-4.724546 2.600403
-5.254211 2.709340
-4.722453 2.572020
-5.067644 2.625847
-4.828100 2.666505
-5.056041 2.464175
-4.597137 2.610073
-5.233430 2.889115
-4.791830 3.156960
-5.047572 2.222942
-4.820055 2.547211
-4.785735 3.102796
-4.584765 2.823311
-4.898283 3.343613
-4.602716 3.290209
-4.403791 2.447037
-5.030678 2.708096
-4.913793 2.926950
-4.521197 3.137267
-4.173509 3.232597
-4.332510 3.202329
-4.421145 2.574138
-5.020424 2.486131
-4.764964 3.132996
-4.841931 3.200995
-4.427592 3.020680
-4.388711 2.662317
-4.928314 2.546589
-4.636646 3.197618
-4.852986 3.750853
-4.405658 3.092195
-4.538387 3.136262
-3.845061 2.386343
-4.947994 3.183415
-4.767343 3.688302
-4.138198 3.623545
-4.045384 2.976863
-4.010174 3.047877
-4.803421 3.001006
-3.877465 3.361354
-3.905829 3.486788
-4.266999 2.924111
-4.595601 3.137527
-4.176926 2.971773
-3.784760 2.841734
-4.205347 3.269804
-3.868840 3.091387
-4.291377 3.188775
-4.297255 3.092892
-3.663334 2.962731
-4.070734 2.998165
-4.556382 3.174074
-4.162108 2.946725
-4.233255 3.066929
-3.526268 3.745354
-3.737183 3.196238
-4.316192 3.498328
-3.500716 3.373789
-3.595319 3.350801
-4.403595 3.478781
-3.868009 3.211358
-3.657678 2.781954
-4.056807 3.945339
-4.107725 3.274596
-3.717505 3.195613
-3.357781 3.224029
-3.920843 3.495645
-4.016684 3.459935
-3.901509 3.033653
-3.589919 3.270097
-3.941580 3.610360
-3.513658 3.058092
-3.760839 3.039577
-3.206763 3.635577
-3.251489 3.406842
-4.246198 2.924046
-3.720066 3.244753
-3.482438 3.233612
-3.408749 3.628517
-3.598495 3.405936
-3.337666 3.263110
-3.493772 3.617415
-3.446981 3.640279
-3.795310 2.937660
-3.718858 3.354630
-3.407339 2.967782
-3.782208 3.505586
-3.606981 3.257744
-3.375522 3.494942
-3.463039 3.436417
-3.480567 3.812597
-3.950155 3.062842
-3.115847 3.438235
-2.888133 3.561987
-3.531017 3.460533
-3.372928 3.311568
-2.938794 3.220898
-3.566659 3.155589
-3.271280 3.675218
-2.974428 3.205730
-3.053491 3.991449
-3.254408 3.385736
-3.232406 3.304093
-3.211856 3.245676
-2.956140 3.586822
-3.183531 3.483299
-2.868994 3.367267
-3.239530 3.630544
-3.024383 3.668574
-2.922679 3.500996
-2.626834 3.226923
-2.927376 3.470013
-2.708630 3.269011
-2.813356 3.163623
-2.598158 3.817532
-2.774427 3.753488
-2.771447 3.598726
-2.838555 3.473963
-2.779201 3.388493
-2.341336 3.259204
-2.737799 3.021465
-2.748966 3.628425
-2.710342 3.645799
-2.899303 3.634250
-2.775576 3.164177
-2.336443 3.827853
-2.583897 3.513933
-2.785107 3.211898
-2.734429 3.085964
-2.977392 3.393662
-2.498865 3.207244
-2.709792 3.403069
-2.721279 3.284928
-2.611939 3.425309
-2.354399 3.371626
-2.552586 3.688843
-2.406745 3.434100
-2.839387 3.351573
-2.476995 3.211269
-2.110667 3.626845
-2.496730 3.578416
-2.543601 3.201242
-2.480992 3.586723
-2.569292 3.658825
-2.114353 3.294924
-2.328818 3.178461
-2.251386 3.765466
-1.856864 3.304688
-2.438740 3.422587
-2.165310 3.636347
-2.437587 3.322517
-2.134838 3.200376
-2.303395 3.175100
-2.143112 3.243412
-1.971379 3.156585
-1.962913 3.263344
-2.046849 3.453126
-1.988116 3.312543
-2.106216 3.345122
-2.302829 3.357946
-1.867942 3.371908
-2.311752 3.409674
-1.721082 3.030214
-1.775276 3.346542
-2.031398 3.162532
-1.617147 3.062778
-1.935522 3.732684
-1.997133 3.019387
-1.748683 3.198633
-1.945083 2.818301
-1.931320 3.113909
-1.888367 2.989396
-1.569719 2.906307
-1.698862 2.897765
-1.790881 2.990764
-2.283674 3.347632
-1.840514 2.847681
-1.916199 2.940169
-1.979197 3.272832
-1.742443 2.531965
-1.452856 3.441920
-1.893589 2.995436
-1.587419 3.362581
-1.643940 2.740142
-1.559601 3.125086
-1.778947 3.357230
-1.480447 3.111596
-1.654645 3.158981
-1.995443 2.987107
-1.429502 3.035934
-1.449526 2.791106
-1.304481 2.881136
-1.627937 3.118045
-1.922654 2.772416
-1.523343 2.959120
-2.072111 3.157282
-1.480003 3.162217
-1.569337 3.467306
-1.620198 2.680832
-1.595986 3.066702
-1.353632 2.772500
-0.847802 3.243783
-1.820035 3.221136
-1.262449 2.747924
-1.293487 3.139172
-1.070564 2.648723
-0.685109 2.915135
-1.363899 2.988354
-1.334656 2.529186
-1.351643 3.311071
-1.270373 2.621454
-0.887475 2.950341
-1.477847 2.974661
-1.381224 2.370003
-1.469125 2.786422
-1.204319 2.905145
-1.050593 2.661801
-1.653550 2.734970
-1.029438 3.039305
-0.908043 2.933250
-1.748200 2.491205
-1.571915 2.518493
-1.550577 2.880443
-1.267623 2.348516
-1.250675 2.960379
-0.733492 2.513168
-1.191589 2.735223
-1.206729 2.670842
-1.077368 2.610741
-1.040634 2.993083
-1.238666 2.272973
-0.887640 2.748022
-0.859631 2.701000
-1.181296 2.439159
-1.079797 2.519202
-1.587174 2.425774
-0.950825 2.605809
-1.314814 3.133109
-0.948125 2.560062
-0.826229 3.258146
-1.164109 2.316402
-0.886639 2.240169
-1.097945 2.472971
-1.179513 2.388737
-0.525448 2.595922
-1.373294 2.868653
-0.700148 2.232090
-0.823061 2.413155
-1.408370 1.797645
-1.045717 1.741779
-0.984523 2.382422
-0.920272 2.302960
-1.031603 2.478183
-1.028803 2.696487
-0.928703 2.187757
-1.063291 2.313252
-1.079651 2.326397
-0.596461 2.439168
-0.865389 2.401444
-1.071338 1.729657
-0.759893 2.475564
-0.745146 2.138689
-0.932951 2.056882
-0.988193 2.412426
-1.244396 2.422515
-0.447896 2.296924
-0.993884 2.333983
-0.778078 2.183286
-0.726107 1.902187
-1.202810 2.117707
-0.704084 1.896561
-1.072581 2.363455
-0.615155 2.496119
-0.681812 2.016726
-1.475798 2.710308
-0.701154 1.787578
-0.346612 1.615074
-0.665610 2.270670
-0.908242 2.216619
-0.887935 2.250749
-0.375276 1.705362
-1.020592 2.035737
-1.034824 1.996102
-0.939205 1.774233
-0.212236 1.876167
-1.169566 1.671419
-0.402625 2.015374
-0.758173 1.605879
-0.896156 1.780837
-0.508147 1.487572
-1.173587 1.538460
-1.051795 1.897850
-0.455765 2.067114
-1.099331 1.854448
-0.364871 1.735706
-0.981916 1.529788
-0.617524 1.748924
-0.338568 1.334957
-1.135179 1.579764
-0.456740 1.414876
-0.933435 1.730946
-0.822728 2.135635
-0.792871 1.430469
-0.380815 1.829036
-0.924842 1.373239
-1.111137 1.277638
-0.721134 1.331623
-0.629277 1.383006
-0.581732 1.221946
-0.967062 1.603303
-1.411977 1.695509
-0.863671 1.856425
-0.829430 1.136156
-0.959186 1.578477
-0.411744 1.583526
-0.831415 1.688731
-0.672274 1.594576
-0.703342 1.431126
-0.674393 1.654576
-0.822196 1.315454
-0.897595 1.272685
-0.569577 1.226464
-1.025543 1.500871
-0.980687 1.512113
-0.532503 1.684506
-0.672971 1.366833
-0.820869 1.110063
-0.820542 1.089334
-1.022152 1.411719
-0.911597 1.146563
-1.209701 0.904865
-1.087805 1.120539
-0.759474 1.106849
-0.802083 1.434034
-0.627616 0.670008
-0.971489 1.080618
-1.017475 1.502646
-1.228184 0.909519
-0.635985 1.354660
-1.022495 1.188810
-1.091803 0.782543
-0.635858 1.502784
-0.652993 1.020829
-0.953188 1.575573
-0.754887 0.813490
-0.933019 1.413563
-0.952361 1.153497
-0.852415 1.320614
-0.791114 1.087847
-1.095066 1.042239
-1.198105 1.011119
-0.513982 1.042200
-0.898787 1.080190
-0.937765 1.011677
-0.804640 0.916793
-0.965659 0.842311
-1.126404 0.552529
-0.843706 0.601432
-1.207056 0.534164
-0.868627 0.671222
-1.544628 0.982812
-0.927757 1.082707
-1.011956 0.672368
-1.193211 0.999724
-1.099288 1.025031
-1.009537 0.775142
-0.853856 0.772359
-1.033415 0.596537
-1.360961 0.853597
-1.235569 0.768522
-1.120511 0.909877
-0.953788 0.898705
-0.746163 0.820901
-1.380689 0.603369
-0.952845 0.581457
-1.516123 0.916316
-1.237915 1.128607
-1.330143 0.200475
-1.115040 0.299509
-1.062727 0.713105
-1.153917 0.575974
-1.796988 0.930233
-0.834562 0.980697
-1.224637 0.568294
-1.331165 0.949989
-1.370166 0.610389
-1.478971 1.085414
-0.926004 0.599885
-1.198198 0.155233
-0.923587 0.494231
-1.217823 0.424702
-1.297523 0.187569
-1.082961 0.838397
-1.431412 0.702245
-1.457971 0.376663
-1.318475 0.587831
-1.505557 0.263093
-1.228403 0.161836
-1.501837 -0.056759
-1.472601 0.452720
-1.051278 0.266173
-1.869800 0.165210
-1.685075 0.724302
-1.788054 0.227735
-2.037371 0.808084
-1.411391 0.408908
-1.564114 0.436889
-1.829217 0.406783
-1.469668 0.514996
-1.566766 0.156080
-1.572587 0.421264
-1.594570 0.271579
-1.526906 0.271940
-1.402868 0.547717
-1.587123 0.338794
-1.955381 -0.041527
-1.260101 0.313464
-1.870843 0.296977
-1.521965 0.174505
-1.412365 0.088082
-1.974292 0.093235
-1.592097 0.007335
-1.841184 0.310354
-1.738493 0.618792
-1.851348 0.236658
-1.777781 0.507065
-1.713628 0.196507
-1.567698 -0.095671
-1.854756 0.173977
-1.621150 0.080332
-1.666805 0.068160
-1.869097 0.308855
-2.049363 0.175297
-1.864584 -0.139408
-2.028983 0.032846
-1.976398 -0.127446
-1.681835 0.688061
-1.649390 0.086150
-2.046825 0.101200
-1.963150 0.135734
-2.024140 0.324783
-2.110334 -0.130699
-2.114307 0.212599
-2.017708 0.270765
-2.060156 0.172712
-2.071769 -0.332582
-2.041985 0.319510
-2.104747 0.101067
-1.751549 -0.048649
-2.148985 0.129944
-1.935091 -0.012238
-1.944628 -0.357529
-2.188541 -0.208802
-2.199145 -0.144699
-1.823595 -0.113991
-1.996516 0.058450
-1.835436 0.091874
-1.993066 0.504929
-1.819417 -0.117145
-2.014694 0.201391
-1.733314 0.329708
-2.402560 0.553367
-2.190199 0.191859
-2.163805 0.420866
-2.253081 0.345611
-2.592643 0.427412
-2.111401 0.232916
-2.640921 0.642346
-2.742605 0.654677
-2.706155 0.581613
-2.629974 0.625707
-2.680222 -0.150260
-2.587792 0.234317
-2.586907 0.163745
-2.906550 0.401575
-2.792103 -0.083637
-2.739814 0.129723
-2.864608 0.176891
-2.691829 0.137631
-2.882317 0.310820
-2.582831 0.346953
-2.839024 0.031552
-2.436129 0.205196
-2.929364 0.076392
-2.509050 0.227359
-2.817144 -0.250866
-2.877268 0.405267
-2.991951 0.593718
-2.803787 0.281049
-2.664195 0.176843
-2.949384 0.028795
-2.782242 0.037426
-2.964568 -0.005526
-2.815505 -0.036727
-3.394184 0.183429
-2.987503 0.175472
-3.241997 0.187492
-2.831211 0.253003
-3.368268 0.135660
-2.968120 0.290021
-3.209763 0.428173
-3.052109 0.254325
-2.966432 0.526458
-2.742445 0.265919
-3.512061 0.240304
-3.209637 0.374409
-2.957972 0.447192
-3.230405 0.015766
-2.911665 0.381851
-3.326714 0.352407
-3.079790 0.448172
-3.165082 0.070787
-3.471732 0.417741
-3.625145 0.411897
-3.296148 0.475355
-3.081438 0.405316
-2.920661 0.129049
-3.029397 0.103717
-3.768304 0.223089
-3.594408 0.406360
-3.837089 0.492493
-3.310328 0.670431
-3.424608 0.250284
-3.290101 0.343090
-3.698192 0.862099
-3.699493 0.591022
-3.831998 0.291742
-3.912312 0.593029
-3.772044 0.599469
-3.508183 0.479855
-3.469695 0.759072
-3.780615 0.685425
-3.475596 0.498204
-3.617155 0.673174
-3.615988 0.680256
-3.635932 0.664941
-3.218846 0.641807
-3.762590 0.322932
-3.816676 0.249324
-3.559542 0.548635
-3.702490 0.343626
-3.841672 0.140449
-4.155971 0.757044
-3.782510 0.847896
-4.026148 0.706987
-3.921791 0.687746
-4.041491 0.795251
-3.984133 0.404115
-3.633193 0.561322
-4.530269 0.661315
-4.176733 0.560655
-4.429233 0.511330
-4.003918 0.377595
-3.763468 1.119755
-3.943067 0.441425
-3.963401 0.953854
-4.743089 0.625026
-3.874143 1.341480
-4.432314 0.664322
-3.829911 0.774325
-4.206214 1.244595
-3.656360 0.594953
-4.157315 0.910909
-4.270987 0.463742
-4.192998 1.260366
-4.680626 0.651413
-4.126927 1.339227
-4.533562 1.263191
-4.209632 0.784642
-4.654976 1.086783
-4.481034 0.750214
-4.563106 0.996179
-4.149539 0.768859
-4.490672 1.278989
-4.935364 0.763232
-4.479333 1.213717
-4.521777 1.018935
-4.637225 1.225907
-4.567351 1.198699
-4.240762 1.060666
-4.439367 1.124358
-4.837391 1.217737
-4.412523 1.251298
-4.451652 1.107475
-4.328211 1.023197
-4.789440 1.394501
-5.001126 1.278399
-4.837510 1.105850
-4.596747 1.134771
-4.832919 1.229614
-4.793861 1.906927
-4.733109 1.058061
-4.564060 1.524649
-4.631509 1.422265
-4.706339 1.460242
-5.086300 1.115361
-4.593943 1.668187
-5.153485 1.600045
-4.950416 0.913272
-4.917371 1.566496
-4.886190 1.513222
-5.020365 1.400816
-4.821095 1.677549
-5.432168 1.908598
-5.106845 2.222612
-4.820931 1.582651
-5.234669 1.939964
-5.308712 1.526345
-4.806209 2.031249
-4.824663 1.696239
-5.024766 1.901686
-5.041993 1.778964
-5.117334 1.768746
-4.912364 1.590878
-4.867192 1.988085
-5.128436 1.913057
-5.435749 2.168827
-5.125475 2.084114
-5.003324 1.985108
-5.104148 1.703579
-5.415114 1.922783
-5.062600 1.937457
-4.950790 2.274602
-5.276047 2.015309
-5.051132 2.231748
-5.075092 2.637357
-5.280593 2.158509
-5.225872 2.054274
-5.396193 2.215083
-5.072261 1.864518
-5.276791 2.114919
-5.436902 2.075267
-5.334107 2.828908
-5.163549 2.396263
-5.560729 2.903742
-4.952561 2.420596
-5.117203 2.771208
-5.130850 2.542785
-5.339349 2.506243
-4.774997 2.459960
-5.424261 2.511868
-5.383469 2.534414
-5.039761 2.479858
-5.163997 2.404177
-5.351179 2.435003
-5.647563 2.458639
-5.747979 3.096329
-5.423244 2.752514
-5.713165 2.697239
-5.659240 3.032061
-5.056442 2.638050
-5.205668 2.801076
-5.017460 2.771428
-5.500644 2.750422
-5.757899 2.775723
-5.576658 2.696519
-5.731153 3.128398
-5.431904 2.572024
-5.843118 3.063176
-5.791945 3.090379
-5.728278 3.246665
-5.054786 3.042667
-5.850236 3.073446
-5.733153 3.009573
-5.579791 3.001493
-5.092414 3.771451
-5.659244 3.040260
-5.838365 3.217178
-5.273944 3.171860
-5.565376 3.226258
-5.686641 3.205261
-5.671224 3.198224
-5.822506 3.753306
-5.307611 3.474551
-5.344888 3.563244
-5.685306 3.895971
-5.713199 3.767663
-5.608432 3.583929
-5.639909 3.561209
-5.711796 3.696237
-5.424401 3.431161
-5.683381 3.556659
-6.066780 3.876788
-5.885086 3.708807
-5.652798 4.135474
-5.816376 3.574315
-5.609800 4.064939
-5.637890 3.760860
-5.892049 3.781029
-5.694043 3.908258
-5.279179 3.913640
-5.935341 4.022051
-5.667051 4.226357
-5.690946 4.084467
-5.448901 4.043760
-6.098048 3.999885
-5.572151 4.462709
-5.897949 4.381956
-5.574337 4.521622
-5.864469 4.250482
-5.787190 4.354300
-5.883934 4.236707
-5.606209 4.463456
-5.601732 4.609066
-5.505370 4.438993
-5.991367 4.396587
-5.642165 4.375785
-6.082886 4.586994
-5.539007 4.426654
-6.166594 4.215009
-5.908960 4.909001
-5.208539 4.355622
-5.711785 4.683031
-5.893012 5.240347
-5.582485 5.044799
-5.823687 4.979668
-5.441211 4.888547
-5.401718 4.793990
-5.639106 4.648491
-5.937994 4.526894
-5.888083 4.743814
-5.783915 5.198439
-5.697771 5.036616
-5.490623 4.655143
-5.905861 5.228563
-5.579090 5.338228
-5.737912 5.354533
-5.511955 4.852226
-5.571150 5.350082
-5.708753 5.236804
-5.379883 5.423686
-5.861125 5.699045
-5.214099 5.105575
-5.414830 5.137089
-5.315757 5.750087
-5.379471 5.290674
-5.282554 5.928827
-5.756296 5.463902
-6.067055 5.578905
-5.882987 5.434081
-5.682061 5.797578
-5.171543 5.391153
-5.865586 5.904316
-5.503723 5.837042
-5.516924 5.761329
-5.504169 5.370653
-5.292039 5.772331
-5.341745 6.241239
-5.650671 5.806147
-5.195233 5.761095
-5.294679 6.358098
-5.531618 5.590513
-5.619267 6.165894
-5.507135 6.093913
-5.385022 6.250357
-5.375367 6.056106
-5.485902 6.058679
-5.268406 6.569151
-5.399162 6.729708
-5.309632 6.714547
-5.521397 6.444806
-5.531713 6.498829
-5.212040 5.852349
-5.344489 6.224291
-5.491603 6.662534
-4.811773 6.156662
-5.596842 6.612067
-5.106192 6.635220
-4.916702 6.412381
-5.277968 6.743966
-5.351286 6.556490
-5.305413 6.981140
-4.998750 6.928235
-5.264230 6.974854
-4.793195 6.988497
-4.940452 6.672653
-5.468819 6.989613
-5.004424 6.813930
-4.555674 6.870624
-4.719710 7.166565
-5.200047 6.965409
-5.070620 6.850560
-5.187074 7.092031
-5.338274 6.729571
-5.164090 6.314115
-5.351196 8.058008
-4.699323 6.818936
-4.864545 7.113061
-5.047595 7.022998
-4.997604 7.428185
-4.577093 7.809503
-4.498467 7.640046
-4.953517 7.266267
-4.333542 7.216762
-4.760738 7.442139
-5.120955 7.058653
-4.792154 7.137219
-4.545612 7.766705
-5.138303 7.153845
-5.438178 7.062316
-4.298129 7.596507
-4.379676 8.134494
-4.595757 7.830502
-5.232254 8.270777
-5.104228 8.227497
-4.574809 7.297115
-4.174440 7.961706
-4.476865 8.013261
-4.085181 7.273319
-4.442272 8.261941
-4.215388 7.883721
-4.446281 7.747305
-4.121557 7.785045
-5.305558 8.384939
-4.851222 8.812882
-4.474093 7.964242
-4.528623 8.110393
-4.515050 7.954774
-3.565736 8.127659
-3.848376 8.377534
-4.892615 8.909012
-4.156298 7.349723
-3.578377 8.208238
-4.093476 8.526684
-3.179049 8.328939
-4.267987 8.845367
-4.399398 8.530914
-5.030691 8.107733
-3.971538 8.956454
-4.515481 7.934291
-3.367990 8.707562
-3.991983 9.077142
-4.160293 9.468123
-3.766278 8.781477
-3.472211 9.355046
-3.945329 9.486124
-3.783197 8.699625
-4.335720 8.344003
-4.017152 8.659381
-3.562616 8.406396
-3.181739 8.645688
-3.276097 9.460996
-3.715163 9.293038
-3.745974 7.963015
-3.082384 9.140003
-3.666736 7.731736
-4.017882 9.841024
-3.192457 9.900227
-3.413385 9.607545
-3.776764 9.396589
-3.778107 9.408450
-3.603040 8.778658
-2.730210 9.230928
-3.595576 9.314615
-2.896519 9.379607
-3.121764 8.832089
-3.152494 9.724523
-3.018073 10.073053
-3.983197 9.293273
-3.421348 8.489706
-3.771195 9.674149
-3.163369 9.121208
-2.921434 9.315496
-2.784546 9.854934
-3.765239 9.781520
-2.668029 10.848923
-2.268160 9.513766
-2.472837 9.487305
-2.416152 10.411906
-2.263026 8.789306
-3.771514 10.108098
-2.726562 9.990160
-2.995006 9.514755
-2.615915 9.299715
-3.027859 10.276446
-3.019875 9.634703
-2.440584 8.894824
-2.659794 9.396597
-2.105589 9.934975
-2.707568 11.902137
-2.129845 9.989797
-1.998976 10.228398
-2.135636 9.861802
-1.742666 9.471552
-2.126606 10.090497
-1.497370 10.137755
-2.527341 10.009803
-1.884059 9.185972
-3.380979 9.235038
-1.669800 11.294146
-1.780802 10.199573
-2.609993 10.595401
-2.708551 11.267787
-2.863843 10.512423
-1.851264 9.788565
-1.876587 10.398422
-2.492698 10.502283
-1.629254 10.355546
-1.083469 9.922267
-0.777189 9.080909
0.458091 10.517762
-1.985098 10.483110
-2.885578 9.275077
-2.661809 12.026900
-1.374265 9.717977
-2.779027 10.188941
-0.711273 9.906823
-1.581841 12.202211
-1.596522 11.256837
-2.119002 10.358792
-1.077008 10.137838
-0.543653 10.628914
-1.219971 10.787091
-0.107313 11.134027
-1.500134 10.983699
-2.414145 9.375900
-0.165304 10.380812
-2.196274 10.794873
-0.315216 9.394643
-1.181435 9.795934
-1.811404 9.330434
-1.636926 10.798558
2.084399 13.075946
-1.261647 11.319484
-0.786099 12.300327
-0.888656 10.885707
-2.054230 11.459306
-1.616654 9.823956
1.130433 9.102349
-0.200991 12.322050
-0.147038 11.836228
-1.885179 10.593643
1.217374 9.909994
-1.044253 10.387191
-0.751969 8.991373
-0.704842 11.085477
-0.859808 13.135807
0.812273 8.563400
-0.714688 12.161755
-1.966205 10.935068
0.351353 12.696038
0.531260 10.308666
-0.083713 11.541460
1.244501 9.622937
2.397738 10.637988
-1.184463 12.473572
1.673971 13.255555
-1.387913 10.932750
-0.415091 12.155179
-2.231268 8.113248
0.512596 9.790720
2.457637 10.028170
-2.943610 10.627104
-2.030554 9.815012
3.133754 14.481036
0.951265 12.470752
0.486582 10.235739
2.337043 11.847669
1.257864 9.860493
1.868295 10.881320
1.766184 12.878455
2.117403 9.908049
0.044008 11.483029
-0.257136 9.147613
-1.401941 13.083067
2.754057 7.102238
-0.253646 11.164058
1.685086 11.593075
-0.421197 14.885759
0.084533 11.625709
0.656028 12.022088
-3.866511 12.091247
4.340292 11.045228
3.293150 11.725756
0.236629 9.896012
6.792797 5.989107
3.568350 7.146264
-1.273420 11.420434
0.218861 13.939445
3.920196 10.128430
-1.583649 11.118654
2.249983 13.317325
-1.158347 10.588083
3.234574 13.441268
-0.021018 11.284330
-2.658217 13.669288
0.658640 11.285645
4.232757 8.567350
5.274485 11.008258
6.879314 11.165555
-1.582187 11.483603
3.436659 6.963056
-0.690777 14.655960
1.645270 6.705651
3.257878 5.163818
-5.323831 13.022515
0.106572 10.448493
4.298679 12.113576
6.695041 9.820569
3.542256 15.886753
5.699228 7.782382
-0.077064 16.230057
3.250412 12.779529
-0.650762 11.938176
-2.413108 12.642008
10.897504 12.250343
-2.278982 12.012191
1.973868 10.628202
-1.912315 -3.898583
-3.145005 0.634358
9.732128 12.619796
2.745540 20.483492
3.274079 5.726338
2.761239 12.210291
-2.328605 17.114774
-2.150762 5.872396
9.942777 12.867415
-0.015328 9.562775
3.497934 10.266123
4.338161 8.251409
8.643975 14.521939
1.781723 13.778404
11.348111 9.589779
-2.843230 16.690018
3.459120 0.307469
-12.067946 13.989064
18.786712 -11.678888
-17.726198 8.256358
-17.858897 25.662911
1.575562 18.952947
-12.135192 2.417942
18.275833 -12.589042
24.794228 12.515653
-3.123749 9.210833
13.757313 10.738254
18.739755 22.344292
1.711695 34.961248
-11.174738 -4.103023
16.249950 -3.383818
-16.462127 12.069447
18.007276 -6.947253
-33.145343 -39.843330
-1.756699 29.313360
-3.649306 23.129877
3.801101 31.532678
-27.154141 2.621585
-40.602522 53.779010
-7.029312 -16.562280
66.359141 -12.743954
-0.869997 51.334521
64.771534 -39.886411
-44.604115 -27.250620
-57.417909 -17.881299
23.995845 -42.825296
44.166195 9.192946
9.241689 -42.509500
-6.500914 -11.837222
64.202695 30.137487
-75.042221 179.337813
-149.114653 -151.547567
-196.638483 220.551699
50.578527 148.207550
-127.172772 56.271480
-126.709166 -286.907783
612.022809 -184.513534
-117.624935 -185.449520
-35.016366 41.126305
-17.809313 94.210858
-322.330368 86.112459
-650.669003 -1674.081368
-581.202110 233.974046
-104.789747 84.878041
-105.150738 89.968885
-88.899607 115.752025
-4984.722765 -1349.494699
