13371.955642 13177.010224
-6671.771292 2033.071602
1889.646765 -1507.558700
574.137519 -1189.461528
-38.804677 -834.138092
-173.755092 -407.356616
-223.871193 -104.112922
-126.198604 26.392607
-401.228117 -321.825430
354.238633 95.679279
293.652208 -141.834413
175.765370 -217.075796
56.650989 -277.435315
-48.177928 -203.868368
-50.829130 -153.863479
-115.711039 -25.861518
10.549691 -1.957149
54.751708 -30.360703
65.048114 -30.976843
53.665263 -77.974653
52.012120 -111.059970
-17.758484 -145.473822
30.953855 -130.969637
-70.892647 -45.043394
-35.216611 -50.679192
-13.867740 -26.441277
-38.606774 -8.268720
-45.439949 -28.421012
-18.814770 -23.819423
-35.274634 -2.825961
-23.806016 32.506081
13.257623 56.411174
32.454334 29.549399
73.638599 2.866840
66.252972 -14.085239
67.856378 -40.075362
31.913910 -51.758929
-3.140333 -40.826272
-25.936465 -1.012315
-42.210517 43.514426
-12.288042 44.644995
49.827669 36.541604
54.028385 34.481975
68.789319 -12.703573
66.346262 -50.011761
19.941476 -51.592348
19.881853 -43.554009
-9.449030 -13.612404
-5.588736 12.230124
2.483537 29.536704
53.855953 22.832554
60.993420 14.491235
54.093105 -26.517091
46.685180 -41.488293
18.767029 -41.496999
4.569182 -7.583796
-8.621664 -8.587745
4.743454 1.347560
25.913774 24.374810
54.590995 -10.018330
46.472031 -22.728422
46.342915 -41.400567
40.220561 -57.800962
18.691853 -44.507407
-13.543675 -45.528526
-11.430337 -25.098113
14.324748 -16.976892
20.121088 -10.910321
16.858029 -4.986360
36.877665 -14.952913
19.932589 -44.791297
24.453855 -27.169256
-17.483187 -26.824845
0.552425 -0.477982
8.040751 -11.158262
16.612865 -15.176853
9.335306 -10.933200
25.216370 -10.086286
11.278976 -33.638479
10.004496 -36.673321
10.508063 -30.142334
-18.428375 -29.583930
-29.146381 -12.743439
1.360106 -23.242748
-4.220651 8.230743
-8.200925 0.616429
23.965871 -3.112036
15.845404 -12.103269
16.951700 -19.158554
12.717941 -40.126219
18.180891 -25.611136
5.394418 -39.641962
-1.149095 -19.878781
4.024484 -13.212299
-7.098880 -33.176898
-5.781535 -32.806761
13.072754 -21.338321
-0.624938 -10.979413
-6.065856 -14.909205
-13.038635 -29.475481
-15.650746 -1.876170
-4.838787 -2.331121
4.987408 4.049735
-7.225495 -9.852076
10.486740 -11.436496
-9.602304 0.692408
0.638475 -4.521933
4.973867 0.670998
-5.268133 12.757145
8.867196 19.703199
8.041191 -8.409668
15.365795 -5.284897
9.534449 -16.793199
16.491947 -20.904586
4.997612 -2.267506
-7.173710 -16.427621
-4.182952 -11.677442
-8.015922 -9.525428
0.743339 3.174092
1.003777 5.588157
8.739007 9.219091
10.223208 6.557716
-3.636304 1.629585
10.752022 1.057608
2.064677 2.154109
2.303777 0.621005
10.654981 -1.083007
9.558481 1.414935
14.413608 -6.208328
8.960558 2.615697
-4.785843 -6.612688
10.379140 -10.523920
11.216550 -12.104950
9.454230 -5.835048
-7.457249 -11.295281
4.573808 -8.082636
16.783101 -8.285107
11.291603 6.254240
17.526881 -7.750998
12.554099 -9.934937
9.379665 -12.161349
-1.028350 2.416455
1.492854 -0.825334
1.189904 -11.544873
5.496836 1.909423
6.704856 -6.156598
15.811994 -6.016907
12.961708 0.151036
16.627253 -7.075129
9.190291 -15.025832
4.705735 -7.392547
0.605256 -7.813967
3.678047 -2.421028
3.127911 1.311519
9.909399 -4.165832
6.516431 -6.818604
6.666355 -9.702985
6.953693 -9.166434
4.654232 -8.023879
-2.755403 -6.520923
-0.851787 -7.992416
1.190448 -0.760128
3.690809 -4.997614
4.987920 -6.957240
10.904203 -10.216499
4.540380 -6.226661
4.275234 -18.416053
-4.988567 -8.717490
-8.594964 -4.013615
-4.401690 -1.067039
-0.156840 10.218892
6.726423 5.791472
13.937281 3.039439
14.848248 -9.310480
10.643284 -15.471769
4.023075 -18.225121
-5.972677 -5.748095
-3.126210 -5.338523
-4.560104 1.851497
-1.272248 6.784925
6.743661 3.668124
10.343117 4.975960
15.825739 -1.349722
13.324302 -10.240465
11.330810 -8.555245
-4.136039 -10.139726
-5.016101 -4.503398
-5.341623 2.296812
1.801944 0.740687
3.668790 4.940743
11.009684 -1.763747
7.782146 -6.440432
1.814662 -6.668315
-0.696730 -6.492655
-1.552788 -1.515574
-1.448747 2.689378
-0.180865 1.437916
8.296047 3.350657
11.868800 -0.692245
11.606052 -2.883117
6.761657 -9.340718
4.188832 -3.500937
2.513303 -1.202058
1.299524 0.106009
5.535848 3.802468
12.890346 5.455200
13.242214 1.433882
15.255335 -2.911811
10.863316 -7.341095
8.459768 -7.948766
7.129359 -3.993605
6.805260 -8.441326
7.531081 -9.127043
12.353756 -7.774666
9.795561 -10.192696
5.521599 -13.590460
4.338750 -11.842609
4.850805 -13.856636
-1.868724 -10.829950
-0.873378 -8.984889
-0.848659 -5.366895
4.295312 -1.746664
12.201282 0.544944
14.015463 -4.480405
13.407578 -12.802785
11.825336 -20.322471
3.602288 -13.676505
-1.911604 -12.530292
0.592370 -10.916807
3.438181 -8.906824
5.558964 -6.332890
4.326765 -12.780985
3.270619 -17.696200
1.287322 -18.297153
-5.342228 -19.402812
-11.629499 -13.015069
-11.671627 -8.499337
-11.287421 -3.788811
-2.926377 0.254770
1.399348 0.698437
5.129546 -0.551882
6.881595 -8.815105
2.346143 -11.630073
-4.813117 -8.180049
-6.465257 -8.302130
-5.123705 -6.274947
-3.553599 -4.526599
0.394603 -2.754498
2.111494 -0.241235
4.518472 -9.725407
1.884336 -11.964048
-3.752011 -10.227442
-8.286322 -9.287571
-9.179830 -4.858028
-4.453153 1.039294
-1.278589 5.159016
4.838530 1.206825
4.454947 -1.464406
6.858658 -4.709597
1.192096 -9.132614
-4.764932 -10.142466
-5.576153 -5.938301
-6.767945 -2.728700
-7.534328 2.397313
-4.655902 1.588247
3.365505 2.236215
5.692606 0.154972
6.127209 -4.380333
-0.028333 -6.236107
-0.804405 -8.745301
-5.222806 -6.954368
-5.880030 -5.154766
-4.869502 -1.334302
-4.089935 -0.140102
-3.040835 -0.258625
-1.444672 -0.643975
-2.716831 2.020747
-1.710376 2.665936
-0.724244 5.740532
1.221444 5.268875
2.930294 4.662703
6.879421 3.782250
7.116548 0.002495
4.900310 0.704989
4.289023 -1.539219
3.442184 -3.325638
1.429390 -1.131393
2.803603 -0.226776
2.717321 -0.336225
4.713854 -2.062081
4.940230 -4.560556
5.424430 -1.927760
2.679727 -5.632930
-0.653064 -4.669590
-1.973130 -1.657246
1.588869 -0.250977
-0.199800 1.089693
5.760029 1.726207
7.091830 -2.670412
7.803742 -2.534854
4.699578 -5.706178
4.709770 -8.271921
1.118704 -6.384307
2.712195 -3.476267
0.749135 -2.283352
2.762234 -0.789122
5.557505 -2.819842
6.694957 -0.998256
6.197694 -4.771731
3.465010 -7.008265
3.265899 -8.598798
1.150000 -6.966589
-1.803141 -4.314564
-0.451600 -4.358709
0.014189 -3.832742
0.874436 -0.795765
1.012723 -3.214549
0.739661 -2.020694
-0.150705 -4.991824
-0.918663 -2.775456
0.028866 -2.670143
-0.160118 -0.905973
3.509549 -0.691263
3.777320 -1.316544
3.790277 -1.881690
4.383543 -2.258458
3.876015 -3.745256
2.708801 -5.389330
0.527118 -4.673493
0.984849 -4.068228
0.301657 -3.830843
0.223455 -2.923348
0.093978 -2.647605
1.172398 -3.901202
-0.804265 -2.514022
-1.109002 -0.641453
-0.998747 -2.035735
-1.857298 -0.959324
-0.103074 -0.888820
0.942258 1.211718
2.377591 0.936229
3.003143 -0.561855
3.605173 0.726044
3.083962 -3.419931
3.226720 -1.825076
2.311563 -1.884643
0.685061 -3.542152
1.606574 -1.143513
1.179205 0.157320
2.347529 -1.733614
3.657019 -0.521018
3.401000 -2.621891
5.797685 -2.962660
4.221830 -4.678433
2.386374 -5.572703
3.562595 -5.862951
1.732000 -2.983537
-1.955150 -3.838717
0.656048 -2.697367
1.075124 -0.873984
1.688726 1.062724
3.829016 -1.641461
5.750568 -3.348628
3.986151 -3.098756
4.715152 -3.540296
2.289625 -4.488084
0.577670 -5.532445
1.647761 -2.721062
2.742868 -1.788310
0.980735 -0.999313
1.266406 -1.341321
3.659858 -3.620704
2.788452 -4.121927
2.175349 -4.007018
1.345077 -5.825631
1.430119 -6.947543
-1.096919 -3.381777
-1.353380 -1.103987
0.086057 -0.796262
1.128056 -1.053405
4.247838 -0.234717
3.728299 -1.184114
4.284765 -0.815778
5.843341 -3.561189
5.773995 -4.951650
4.050295 -2.851361
3.018201 -5.422983
1.072108 -6.072892
1.551375 -4.503658
2.097486 -3.950605
0.657624 -3.825293
2.178512 -2.370621
3.408807 -2.420856
3.901918 -3.191675
3.712160 -4.166243
3.060513 -5.607663
1.867007 -5.796733
-0.418893 -5.288428
-2.301790 -3.412291
0.272983 -2.584666
0.246491 -2.185940
0.798272 -1.383822
3.396567 -1.322135
3.443825 -4.801432
2.774810 -4.960460
1.613326 -5.911078
-0.488792 -4.678690
-0.627995 -6.044652
-0.027337 -2.663959
-0.355827 -2.353316
1.577440 -2.581027
2.050957 -2.239809
2.571934 -4.652643
1.283939 -5.202112
-2.294089 -5.532769
-3.906951 -2.472805
-3.549208 -0.717398
-2.071207 2.422500
-0.539943 2.721038
3.738413 1.553969
3.914861 -0.031745
4.498460 -2.186073
5.479516 -5.430362
1.242103 -6.076750
2.058719 -4.761897
0.638720 -4.179652
-1.578329 -2.885790
0.869999 -2.717150
1.883390 -2.433714
1.587053 -3.448747
0.695458 -5.703687
1.829675 -5.219599
0.519469 -4.268872
-1.021150 -1.128678
1.382466 0.310404
3.030358 -0.844998
4.018626 -0.774547
4.917078 -3.654411
2.452208 -5.601679
2.575746 -6.621883
0.456934 -5.371426
-1.296121 -4.138488
-1.817370 -3.376192
0.093896 -2.054402
3.704984 -1.515873
3.588891 -3.223876
3.179651 -4.434881
2.016853 -7.713851
0.146939 -8.326314
-1.812530 -6.218363
-4.627399 -4.608056
-2.602692 -3.110745
-1.423880 -1.023946
1.514742 -1.216921
1.261748 -2.794796
1.528025 -3.908034
1.028549 -4.919453
-0.357457 -5.548542
-1.340307 -3.991997
-1.478846 -2.958479
-0.584527 -3.410323
0.128643 -2.037129
0.790204 -2.382708
1.206689 -3.431161
0.103705 -5.191609
-0.641603 -4.556099
-1.736559 -3.031955
-1.850394 -3.631820
-1.970695 -2.723474
0.410612 -1.247621
0.200533 -3.135755
-1.016064 -3.313315
-2.118239 -3.978364
-2.748805 -3.193507
-3.587670 -1.054413
-3.311341 -0.844308
-1.272413 0.294088
0.993693 -0.044454
0.814954 -1.458776
1.022803 -3.550810
-0.185726 -4.840895
-1.562023 -5.689592
-3.626196 -3.392092
-4.549624 -0.978916
-4.576039 1.621539
-1.888802 2.407284
0.539364 2.357027
1.189547 0.642368
2.929640 -2.019421
0.091856 -3.481662
-2.289019 -2.705155
-2.907678 -0.751618
-3.201469 0.850416
-1.483767 1.919452
0.317184 3.216862
2.419956 0.833237
2.499939 -0.562239
1.395345 -2.071074
0.174474 -2.499538
-2.085864 -1.904268
-2.902981 0.112801
-0.888287 2.736985
1.423687 2.914975
2.931073 2.574032
5.359386 0.273270
5.220108 -2.234383
2.482456 -3.111976
0.301789 -3.990792
-0.042653 -3.692469
-1.441320 -1.313997
0.047355 1.857937
1.055802 2.210013
3.544789 1.027224
4.871075 -0.919873
4.891727 -2.096472
3.199859 -2.495847
1.904817 -4.231401
0.879959 -1.665199
0.852861 -0.295306
1.887671 -0.104254
3.672490 0.338596
4.059922 -1.682130
4.426834 -1.967775
4.211925 -2.528159
1.497946 -4.697896
0.537637 -3.409142
0.395183 -2.017684
-0.680192 -1.978823
1.402305 -0.632635
2.838464 -2.116012
3.850948 -2.624652
3.563639 -3.208490
1.773146 -5.867302
1.842306 -4.930366
0.945805 -4.460174
-0.870332 -3.005651
0.140597 -1.330266
1.602131 -0.576980
2.392480 -0.306377
3.520384 -1.448875
2.920306 -3.263560
3.270862 -3.155290
3.216535 -2.881332
3.065824 -3.871511
1.794075 -3.507916
2.008818 -4.462799
2.741045 -3.823949
0.922604 -5.472943
1.383254 -4.868777
0.477074 -5.166258
-1.002069 -5.709013
-0.972990 -3.848868
-0.900413 -4.534064
-0.747934 -3.731981
-1.119215 -3.524570
-0.876928 -2.681435
-1.092700 -2.776397
-0.630215 -3.334363
0.700783 -1.877309
-0.218537 -3.138788
0.086956 -2.973785
0.870962 -3.107831
0.906090 -4.423063
0.390047 -4.271633
-0.936312 -4.994004
-2.078629 -5.187295
-2.494565 -4.346798
-3.461502 -3.109846
-3.243751 -2.106885
-2.031825 -1.162401
-2.415154 -0.045626
-0.139328 -0.211537
0.735112 -1.405540
0.074920 -1.043462
0.907504 -2.182890
-0.749595 -2.699885
-2.704719 -2.921929
-2.742440 -1.118971
-1.683319 -0.501981
-1.308167 0.362007
-0.586996 0.407172
1.334750 0.119688
2.122605 -1.028115
1.198404 -1.889992
0.235421 -2.512528
0.256738 -3.721886
-0.065192 -2.574592
-0.973373 -2.820750
-1.276855 -1.936113
-1.921965 -1.973869
1.173369 -0.828937
1.774587 -0.968180
1.299501 -0.807020
1.396267 -1.811256
0.655322 -2.669801
0.531066 -0.813365
-0.458203 -1.283893
0.271222 -1.366348
0.512037 -0.299307
1.343417 0.110995
2.265874 -1.413524
1.639128 -3.119468
1.192272 -2.755890
0.993951 -2.362985
-0.545557 -1.832869
-1.000866 -2.602579
-0.076678 -0.925874
1.080824 -0.357373
1.277065 -0.270153
3.101098 -1.941970
3.070450 -3.487864
1.399281 -3.680863
0.233813 -2.925203
-0.299304 -4.088862
-0.191876 -2.242026
1.017270 -2.462575
1.152395 -1.744149
2.402799 -2.670362
1.880809 -3.673290
2.147921 -4.033415
1.005888 -4.628544
-1.129941 -5.152691
-1.153801 -3.972241
-1.405232 -2.789589
-2.198318 -0.553449
-0.599273 -0.283238
-0.004898 -1.990826
0.693156 -1.670070
0.378305 -2.993228
0.198093 -3.057786
-0.922009 -3.360188
-0.948034 -2.004880
-0.654486 -1.786099
-0.145209 -2.211617
0.011943 -2.609109
-0.242218 -3.265665
-0.545253 -3.489705
-1.808290 -3.770262
-1.426782 -3.396102
-2.789959 -2.413871
-2.539046 -0.934944
-1.967786 0.073821
-0.756434 -0.128855
0.771946 -0.440276
0.629475 -0.652836
1.481614 -2.274797
0.214264 -2.293950
-0.241420 -2.554007
-0.186956 -2.448709
-1.291823 -2.461914
-1.130387 -2.369784
-1.466013 -1.659648
-1.652787 -0.680396
-2.447312 -0.667823
-1.513762 0.277113
-0.313045 1.888556
0.212572 0.347988
1.757452 1.459449
3.047413 -0.711710
3.191643 -2.352154
2.132264 -3.230614
0.245344 -4.618506
-1.147837 -3.828510
-1.137396 -2.651747
-2.091113 -1.262945
-1.466349 -0.529946
0.600237 -0.590159
1.233713 -0.143374
1.257463 -1.276808
0.813755 -2.428212
-0.478901 -2.606218
0.397119 -2.505931
-0.981915 -1.402589
-1.365428 -0.263530
0.561315 -0.711334
1.325620 -0.149232
2.498169 -0.535002
2.616987 -2.106501
1.788491 -3.978803
-0.175636 -4.160482
-0.466210 -2.537811
-1.548434 -2.029568
-1.243178 -1.610487
0.047545 -1.200554
-0.020714 -1.508804
-0.474827 -1.953205
-0.886933 -3.076219
-1.405308 -3.176025
-1.764949 -2.225399
-1.768451 -1.026335
-1.902519 -0.495654
-1.043473 0.177584
0.774178 1.628745
0.537172 0.376487
1.050738 -1.189691
0.807227 -1.843060
0.724820 -1.500753
-0.519707 -0.403961
0.116194 0.568453
1.698418 -0.130543
3.019498 0.194850
3.453480 -0.852581
2.603086 -2.557351
2.463640 -3.406320
0.708671 -4.218325
-0.185333 -3.493123
-1.587666 -3.061906
-1.645803 -1.540363
-0.365822 -0.482435
0.623413 -0.853335
0.073651 -0.837457
1.821708 -1.400297
1.753215 -2.009173
0.040973 -2.661330
-0.058149 -2.636142
-0.129056 -2.846919
0.522717 -1.839193
0.233964 -1.883416
0.037133 -2.591693
0.085609 -2.354913
-0.211384 -3.141769
-1.025357 -1.987159
-1.506209 -1.732793
-1.459606 -1.357285
-0.854692 -0.582364
-1.143014 0.216125
0.393018 0.895628
0.960685 -0.227726
1.153895 -1.098720
1.830893 -0.845388
1.514596 -1.482524
1.640076 -1.341006
0.596424 -1.790617
0.091779 -1.618556
-0.546827 -1.770039
-0.592828 -2.172661
-0.351083 -0.438831
-0.485931 -0.854527
0.290652 0.084783
0.877423 -0.102560
1.833673 -0.298119
2.862464 -1.043365
2.543665 -2.686575
0.954532 -3.585402
0.962738 -3.307994
-0.797142 -3.296476
-1.095089 -1.352660
-0.331955 -1.022522
-0.292076 0.678566
1.739414 0.525740
2.725453 -0.146680
2.307091 -1.542317
3.080749 -2.753182
1.921753 -3.150093
0.311528 -2.448625
-0.353458 -2.641691
-0.276985 -1.834868
0.478864 -0.482513
1.498974 -0.537188
2.256680 -1.101509
1.631383 -2.491276
1.500422 -2.023085
1.137895 -2.704703
0.818948 -2.724762
0.458733 -1.174187
1.297884 -1.269187
1.892320 -1.317647
2.110313 -2.022517
2.207308 -3.191090
2.309741 -3.719835
1.498895 -3.071346
0.552989 -3.265478
0.450461 -3.226141
0.595607 -2.510078
0.883346 -2.050288
1.286465 -2.135510
2.522186 -3.284550
2.271454 -3.989871
1.903353 -4.155480
0.957934 -5.403592
0.337612 -5.497600
0.055249 -4.235094
-0.035380 -4.537631
-0.986982 -4.426147
-0.841843 -4.407989
-1.126162 -5.101679
-2.252953 -4.694067
-3.203162 -4.705938
-2.864629 -3.773778
-3.649942 -2.490206
-3.395308 -1.250039
-3.194317 -1.347598
-2.066692 -0.599977
-0.244676 -0.105396
-0.131266 -1.016383
0.349834 -2.067314
0.288766 -2.747703
0.334310 -3.128190
0.131043 -3.557549
-0.981409 -3.747529
-1.274150 -3.582050
-1.983889 -3.602247
-2.356031 -2.551572
-2.808292 -1.941621
-2.265750 -1.607444
-1.450956 -0.148904
-1.423412 -0.679302
-1.420992 -0.613984
-0.614296 -1.492878
-1.241900 -1.829320
-2.107626 -1.623463
-2.353592 -1.295610
-2.638650 -0.890291
-1.529234 -0.336428
-1.509079 0.197878
-1.064869 -0.188200
0.217173 -0.612067
0.233342 -1.251128
-0.591567 -1.723068
-1.345061 -1.430391
-1.196566 -1.672163
-0.472422 -1.306537
-0.641183 -0.774799
-1.128543 -0.878196
-0.817334 -0.862186
-0.070136 -0.934919
-0.814691 -0.785570
-1.585143 -1.486896
-1.296280 -1.246755
-1.667668 -0.411427
-1.385879 1.210346
-0.987790 1.727942
0.219403 1.789906
2.008200 0.813732
2.311842 0.122816
2.656140 0.103752
2.061686 -1.962901
2.293456 -2.239981
1.627373 -2.801657
0.056910 -2.677811
-1.195344 -2.388751
-1.538096 -1.602284
-1.845570 -0.724506
-1.441849 0.637307
-0.605334 0.341438
1.095860 0.518172
2.587786 0.303039
2.042251 -1.522143
2.505911 -1.775523
2.220036 -3.807680
0.877771 -3.725375
-0.071437 -2.943308
-0.861566 -2.217791
-0.217294 -0.911025
0.782480 -0.393535
1.418210 -0.737844
2.336410 -2.375724
2.490064 -3.418139
1.774428 -4.464669
0.155993 -4.536206
-1.533407 -4.867445
-2.591669 -3.371246
-2.087585 -1.539073
-1.924360 -0.946242
-0.834924 -1.145393
0.242852 -0.624661
1.111380 -1.264434
0.658537 -2.758635
-0.083185 -3.220895
-0.535458 -3.168547
-1.327701 -3.033098
-1.010048 -2.476064
-1.236315 -1.335099
0.320069 -1.676704
0.398861 -2.590898
0.326784 -2.694890
0.099698 -3.235747
-0.123926 -3.438178
-1.144069 -2.776081
-1.357322 -2.942266
-1.596625 -1.812775
-1.487811 -1.992944
-1.690648 -2.189645
-1.707375 -1.495413
-1.657812 -2.671795
-1.454834 -2.210362
-1.552774 -1.289501
-2.432310 -0.729971
-1.964364 -0.461236
-1.090423 0.253139
-1.369620 0.254708
-0.767211 1.246864
0.128579 -0.109615
-0.163308 -0.372403
0.986781 -0.505377
0.545317 -0.924234
0.764423 -1.810646
0.808034 -2.836360
1.069763 -2.681294
-0.429306 -3.200868
-1.257509 -2.866868
-1.690713 -2.723986
-1.546624 -2.278936
-1.858673 -1.143071
-1.902672 0.074820
-0.311739 -0.872978
0.291250 -0.760079
-0.192893 -0.515604
-0.059871 -1.488444
-0.692037 -1.696183
-1.150938 -1.160969
-1.590782 -0.167518
-1.473936 -0.491629
-1.349360 -0.430957
-0.345183 0.302190
0.717524 0.462660
0.041199 -0.486436
0.043125 -0.969823
0.719980 -1.059365
0.422758 -1.200488
-0.104537 -1.218349
0.200023 -1.723414
0.119451 -2.212831
0.136037 -1.823463
-0.612675 -1.664210
-1.604043 -1.843213
-1.262307 -1.109885
-0.845439 -0.114930
-1.183997 0.955172
-0.003272 1.147173
1.165525 0.063369
1.516459 -0.422560
1.049223 -0.772132
0.729505 -1.160367
0.889640 -1.581520
0.828310 -0.645524
0.547206 -0.700181
1.369159 -0.418490
2.309110 -0.533622
2.084609 -1.224500
2.906524 -2.193548
1.173514 -3.428902
0.427324 -3.668827
-0.220437 -3.370749
-1.270015 -2.329040
-0.962209 -1.275794
-0.537126 -1.059189
1.129907 -0.816066
1.121575 -1.773084
1.509395 -2.570537
1.140105 -3.241621
0.715998 -3.222323
-0.444959 -3.078502
-0.177816 -3.005391
0.148207 -2.671399
0.198661 -3.096294
0.045937 -2.721897
-0.698167 -3.352981
0.013598 -3.579351
-0.814925 -2.953683
-1.398114 -2.469315
-2.098810 -1.694134
-1.898672 -1.468268
-0.516427 -1.087226
-0.154213 -0.830921
0.264142 -1.412358
0.535139 -2.328633
0.450742 -3.075597
-0.889850 -2.659042
-1.417405 -2.358242
-1.875035 -1.954942
-1.221524 -1.801717
-0.896186 -0.902126
-0.453939 -1.256094
-0.042197 -1.763846
1.126124 -1.870579
0.522635 -2.412379
-0.176701 -3.195957
-0.346975 -3.293125
-0.797165 -3.482904
-1.575116 -2.801920
-2.519963 -2.995973
-2.825516 -2.056750
-2.235751 -1.357697
-1.916544 -0.855907
-1.868813 0.474597
-0.199627 -0.383834
0.879481 -0.821015
0.087883 -1.753280
-0.249002 -2.097143
-0.731992 -2.814544
-1.189112 -2.234250
-1.518897 -1.357228
-0.914355 -1.183267
-1.113035 -1.360445
-0.964280 -1.237349
-0.138964 -1.062470
-0.483013 -2.617622
-1.874359 -2.533315
-2.281619 -2.507048
-2.274087 -1.138985
-2.750495 -0.621617
-1.800514 0.336180
-1.273622 0.491509
0.624323 0.640587
1.421768 -0.951877
0.933755 -2.869584
0.110370 -3.116447
-0.591977 -2.575446
-2.070649 -2.111522
-2.275090 -1.020196
-0.964911 -0.510161
0.179134 0.219863
0.772893 -0.177285
1.411648 -1.279425
1.525397 -2.519580
0.940378 -3.695378
-0.961731 -3.269379
-2.126828 -3.460390
-2.523873 -2.494887
-2.809396 -1.042984
-2.670121 -0.738626
-1.774397 -0.832817
-0.702107 -1.267263
-0.762885 -1.183029
-1.307245 -1.120011
-1.833239 -1.353625
-1.844644 -1.276611
-1.445540 -0.760281
-0.998478 -0.345610
-1.908881 -0.836532
-0.152806 -0.870980
0.000107 -1.131854
-0.998337 -0.865597
0.223912 -1.257254
-0.085470 -2.321457
-1.118266 -2.213680
-0.820339 -1.465136
-2.116149 -1.850410
-2.233880 -1.869033
-2.583997 -1.335709
-2.762722 0.071768
-2.246352 0.605777
-2.094095 1.551073
-0.255592 2.181201
0.496544 1.477487
2.028878 0.442982
1.137996 -0.797695
1.262984 -2.295200
-0.378651 -1.964934
-2.274774 -2.124067
-1.895977 -1.147004
-1.892066 -0.363517
-1.368664 -0.096268
-0.884153 0.041753
-0.064584 -0.503700
0.056455 -1.102770
-0.085362 -1.208593
-1.360168 -1.008271
-1.884804 -1.380113
-1.145072 -0.123822
-0.825711 0.694813
-0.676917 0.109631
-0.105044 0.884015
0.708188 -0.224012
0.565561 -0.005951
0.052226 0.159491
0.262517 0.367645
-0.108700 -0.036770
1.290605 0.792285
1.382794 0.010612
1.761823 -0.565627
1.938126 -1.284748
1.847095 -2.645655
1.248118 -2.764884
0.221987 -3.009529
-1.237974 -2.595882
-0.757230 -1.599667
-0.934157 -0.937498
-0.595583 -0.478005
0.696670 -1.322620
-0.301160 -1.638198
0.688678 -0.968725
0.164096 -1.553796
0.561330 -0.963886
0.450161 -1.139412
1.043197 -1.805788
0.926202 -1.458796
0.277813 -1.967106
0.239825 -2.679251
-0.734226 -2.607686
-0.955858 -2.820248
-0.689423 -1.577387
-0.795454 -1.163297
-0.992538 -0.373572
0.365531 -0.351390
0.535679 -1.550322
0.220034 -1.452146
0.196821 -1.989234
-0.866077 -1.887425
-1.295661 -1.977510
-0.952011 -1.137960
-1.222650 -0.354343
-0.776207 -0.736495
0.519892 -0.820959
1.015251 -0.963939
0.045055 -1.403613
-0.074222 -1.873880
-0.100857 -1.920438
0.414651 -2.323226
-0.583197 -1.650555
-0.559304 -1.342195
0.602084 -1.289678
0.477697 -2.064189
0.457525 -2.557676
0.484976 -3.160374
-0.376876 -3.043905
-1.091425 -2.162141
-1.531475 -1.716303
-1.486516 -1.124273
-0.557403 -1.300736
-0.098154 -1.316041
-0.397661 -1.538764
-0.794711 -1.987719
-1.398962 -2.305843
-1.498942 -1.939654
-1.151166 -1.360065
-1.340850 -0.926418
-1.395199 -0.729629
-0.700651 -0.919290
0.005212 -0.904478
0.015655 -2.508523
-0.184130 -2.764098
-0.514806 -2.637184
-0.970969 -2.828000
-2.251046 -2.461346
-2.138479 -1.551105
-2.356646 -1.602265
-1.644147 -0.740898
-1.508444 -0.181356
-1.173760 -0.766882
-0.167768 -0.424501
-0.432500 -1.038348
-0.411089 -1.727671
-0.368374 -1.851432
-0.153756 -1.071305
-0.415659 -1.423831
-0.230438 -1.426236
-0.610250 -0.903991
-0.311584 -0.554860
-0.147449 -0.822102
-0.910656 -1.476739
-0.752800 -1.406355
-0.437996 -1.642680
-0.598926 -1.496887
-0.228991 -1.596520
-0.660035 -1.806644
-0.586278 -1.948092
-1.320823 -1.197522
-1.434421 -1.238317
-2.050574 -0.993654
-1.176103 -0.214603
-1.367621 0.010278
-1.016253 0.667684
0.528363 0.246109
1.217703 0.220026
2.004617 -0.256976
1.682831 -1.639028
1.431204 -2.412784
1.331713 -3.591818
0.031636 -2.891310
-1.021049 -2.610004
-1.055969 -2.385373
-1.078339 -1.781124
-0.290395 -1.139115
-0.221487 -1.437596
-0.259680 -2.412016
-0.646874 -3.674602
-1.248728 -3.409962
-1.928387 -3.212250
-3.267095 -2.432386
-2.789329 -0.898773
-1.595340 -0.067483
-0.547819 0.160853
0.710185 -0.577557
1.723905 -2.018681
1.184893 -3.035632
0.055506 -3.781605
-2.046881 -3.918631
-3.345895 -3.517467
-3.281082 -1.758905
-2.380834 -0.202889
-2.081249 0.081246
-0.899596 -0.291315
-0.260752 -1.068681
-0.327137 -1.769260
-1.840371 -2.080495
-1.887248 -2.028320
-2.387001 -1.406513
-2.876053 0.440205
-1.725978 0.933250
-0.001216 0.742566
0.550284 -0.053488
1.219676 -0.315893
0.734622 -1.919915
-0.215995 -2.550445
-1.336361 -2.797154
-1.364777 -1.656547
-1.786498 -0.675924
-1.343555 -0.464647
-0.381474 -0.941681
-0.497384 -2.178653
-0.106787 -2.408030
-0.587586 -2.803511
-1.055007 -2.695467
-1.952734 -2.355979
-2.043828 -1.451197
-1.179769 -1.355801
-1.546770 -1.748365
-1.149484 -1.305746
-1.743173 -1.486657
-2.414259 -1.111011
-2.273328 -0.498971
-1.590601 0.060420
-1.111420 0.477386
0.089454 0.293303
0.874671 -1.010295
0.351444 -2.127838
-0.242813 -3.201870
-1.820723 -3.859122
-2.916073 -3.209893
-4.570466 -2.032217
-4.955274 0.091390
-3.640462 1.320008
-1.821598 1.292793
0.141808 1.372377
0.566205 -0.354210
-0.696237 -1.617794
-1.107371 -1.794869
-2.313676 -1.186055
-2.642614 -0.504220
-2.102215 1.256626
-0.673556 1.837036
0.699850 1.739278
0.927948 0.471463
1.141103 -1.043982
0.676642 -2.046193
-0.864850 -1.837249
-1.793128 -1.249236
-1.384619 -0.651256
-1.013965 -0.011362
-0.102219 0.088706
0.046044 -0.289530
0.557984 -1.601210
-0.096614 -2.549376
-1.326467 -2.126205
-3.585357 -1.389755
-3.820626 0.492984
-2.321484 1.480067
-1.135830 2.399524
-0.126052 1.387912
0.986034 -0.258396
0.490448 -1.359595
0.407675 -1.753435
-1.853865 -1.820655
-1.804175 -1.050684
-1.711990 -0.241284
-0.204241 1.604853
0.848665 1.125922
1.827275 -0.910663
1.551367 -1.984224
1.463000 -3.666035
-0.968960 -3.447513
-2.731512 -2.473885
-3.187465 -1.132622
-3.037563 0.498259
-1.148330 2.583450
0.303191 1.274483
1.400023 0.408173
1.473717 -0.446794
0.613951 -1.903955
-1.253716 -2.252001
-1.257458 -1.579695
-1.418559 -0.642506
-0.644607 1.100256
0.385349 1.010060
1.340097 -0.043492
2.705585 -1.758733
1.415221 -2.668668
0.092530 -3.358786
-1.373647 -3.380704
-2.189870 -2.473348
-2.217738 -0.745143
-1.244946 0.630330
-0.277668 0.694921
1.029043 0.019102
1.466568 -0.662252
0.465489 -1.659884
-0.256603 -2.838013
0.029556 -2.551062
-0.318817 -2.077068
-0.573772 -1.258377
0.176604 -0.820875
0.580554 -0.937501
1.326891 -2.012563
1.509194 -2.604121
0.107236 -3.594425
-0.985911 -3.347058
-1.941303 -2.767687
-1.455944 -2.208914
-1.642753 -2.216163
-1.067764 -1.336993
-0.905075 -2.517440
-1.278428 -2.361251
-1.481775 -2.032302
-1.982387 -1.818161
-2.375827 -1.119160
-2.170820 -0.248281
-2.011109 0.375957
-0.240290 0.522566
0.320683 -0.455002
0.960730 -1.268074
0.616972 -2.408000
0.101693 -3.297505
-0.714997 -2.274861
-1.544312 -2.504518
-1.874407 -2.329123
-0.947557 -1.379937
-1.104670 -1.010953
-0.737674 -1.169129
-0.843716 -2.163745
-1.126057 -2.202334
-2.054636 -2.363619
-2.707052 -1.731675
-3.367862 -1.477006
-2.552021 -0.806000
-2.379506 0.154765
-1.804672 0.134781
-1.269002 -0.563988
-0.619899 -1.301009
-0.425665 -1.360721
-1.138576 -1.920846
-1.435319 -1.590126
-1.531140 -1.324263
-1.336697 -1.386118
-1.531265 -0.863593
-1.133993 -1.243125
-1.359352 -2.335267
-0.927335 -2.970998
-1.656629 -2.371902
-3.010626 -2.774323
-4.032200 -2.338059
-3.435657 -1.344105
-3.288107 0.043176
-2.604475 0.383719
-2.545452 0.136842
-1.217120 -0.185110
-1.769705 -0.598368
-2.192506 -1.337957
-2.665552 -0.871961
-3.143521 -0.049567
-3.053518 0.784683
-1.539230 1.624469
-0.998247 0.438720
-0.103317 0.653942
0.402728 0.903832
-0.220042 -0.764487
-0.777906 -2.161206
-1.639438 -2.061139
-2.547534 -1.409309
-2.619187 -0.495335
-2.051223 0.530698
-1.437314 0.796171
0.347372 0.882360
0.087042 0.215074
0.359445 -0.562656
0.808254 -1.556449
-1.534629 -1.586918
-2.077667 -0.233903
-2.004934 -0.563097
-1.387059 0.584674
-0.745935 0.888994
-0.263172 0.557944
-0.257572 -0.149127
0.770878 -1.119791
-0.518869 -1.112826
-1.086326 -1.297545
-1.958082 -0.500895
-1.287206 0.033451
-0.806201 0.605964
0.233991 -0.312905
0.247741 -0.452753
0.492554 -1.779323
-0.261752 -2.262405
-1.312468 -2.187472
-1.651035 -2.080156
-1.547986 -1.321746
-1.547250 0.003201
-1.123978 -0.313762
-0.523089 -0.806520
-0.315233 -0.492970
-0.699064 -0.517503
-1.097783 -0.946591
-1.287870 -1.165815
-0.718782 -0.857851
-0.628335 -0.051817
-0.797165 -0.415878
-0.872645 -1.973631
-0.166767 -2.376481
-1.861961 -2.960768
-3.338823 -2.461231
-3.643415 -1.603982
-3.613577 0.303719
-2.515487 1.978569
-1.280980 2.438513
0.291868 2.049121
1.386422 0.010563
1.264320 -0.974239
0.063987 -1.407361
-0.739683 -2.396136
-2.337483 -2.137626
-1.987700 -0.401440
-1.247239 0.225689
-0.319120 0.425742
1.133497 -0.759966
1.650800 -1.941631
0.983210 -3.195991
-0.984774 -4.185281
-2.361422 -3.402999
-3.742566 -1.991939
-3.706795 -0.312136
-3.071596 1.175494
-1.415442 1.476203
0.058497 0.417635
0.304126 -0.272167
-0.619679 -1.129474
-1.363886 -2.304107
-2.011122 -0.737708
-2.520143 -0.170495
-1.812214 0.564189
-0.983454 0.471130
-0.219841 -0.432639
0.239573 -0.945552
0.069159 -2.158500
-1.428265 -2.653857
-2.390659 -2.178148
-2.310185 -1.490263
-2.783828 -0.138181
-0.893406 0.755923
-0.351089 -0.035492
0.769766 -0.482698
0.066381 -2.404721
-1.709723 -2.962512
-2.799430 -1.405185
-3.717473 -0.108800
-2.729535 1.382141
-2.017560 2.390787
0.428318 2.974295
1.301579 2.041511
2.035061 0.259645
1.608102 -0.937183
0.645977 -1.687630
-0.227428 -1.717112
-2.246339 -0.999280
-1.503342 0.322457
-0.496104 0.372355
-0.121900 -0.163321
0.627711 -0.940365
0.313720 -2.419760
-1.156531 -2.360889
-2.309495 -2.459173
-3.553805 -0.957740
-3.025197 0.078596
-1.933108 1.941856
0.515897 2.453424
1.679337 1.383816
1.890400 -1.171992
1.645205 -3.004750
-0.152992 -3.806626
-2.447508 -3.218178
-3.460834 -2.106466
-2.873612 -0.671686
-1.925285 1.433935
-1.135399 1.179376
0.983396 0.657069
0.908845 -0.038767
1.540874 -0.812464
-0.216102 -1.413850
-0.818717 -2.179296
-0.425210 -1.659745
-0.292490 -1.074005
-1.070378 -0.609869
-0.420160 -1.651846
-0.564254 -1.791949
-0.371014 -2.195402
-0.970110 -1.667615
-2.309574 -1.116046
-1.135586 -0.849405
-0.882192 -0.413358
0.043074 -0.572964
0.299762 -1.005290
0.253022 -1.443209
-0.639459 -1.861436
-0.660147 -2.057706
-1.908663 -1.601081
-1.275394 -1.102047
-1.130871 -0.363384
-0.861124 -0.015127
-0.183396 -0.125352
-0.301916 -0.678517
0.351369 -1.490757
-0.451513 -1.328763
-0.626972 -1.051470
-1.270534 -1.078667
-0.791210 -0.746506
0.594000 -0.680658
0.672250 -1.068623
0.954605 -2.368957
1.405324 -3.091771
-0.497966 -4.404037
-1.737221 -4.016217
-2.642858 -3.476626
-2.653334 -1.745687
-2.410390 -1.574054
-1.748399 -1.278172
-0.985834 -1.754068
-0.966164 -1.969898
-1.117625 -2.729999
-2.743006 -2.886216
-2.875405 -3.048278
-3.333053 -2.004394
-3.221846 -0.307941
-2.153607 0.306282
-1.609303 0.200493
-0.217573 -0.365497
-0.420392 -1.259169
-0.718925 -2.740598
-1.794116 -2.812273
-2.390098 -3.134446
-3.398552 -1.659878
-3.201176 -0.644826
-2.779351 -0.501185
-1.800475 -0.638082
-1.469778 -0.229330
-2.144117 -1.238198
-1.659267 -1.894761
-2.704625 -2.135471
-3.250335 -1.711908
-3.936492 -0.668836
-3.923113 0.457089
-3.119317 1.773141
-1.895763 1.639181
-0.864881 1.616888
0.371849 0.746387
0.889579 -0.257266
0.805543 -1.306162
-0.092278 -2.111291
-1.308735 -2.466336
-1.003342 -1.907488
-1.411834 -1.716569
-2.193391 -0.548362
-2.000962 -0.664809
-0.851224 -0.651939
-1.187032 -0.747808
-0.764686 -0.743839
-1.486715 -1.717718
-2.334879 -1.428672
-1.843542 -1.318413
-2.255426 -0.945643
-1.602466 -0.659218
-1.789003 -1.023895
-1.766758 -0.256764
-1.655537 0.004331
-2.002005 -0.133512
-1.304074 -0.097938
-1.252007 -0.565080
-0.924663 -0.373726
-1.458300 -0.279291
-1.582050 -1.193407
-1.312807 -1.549002
-0.708739 -1.799945
-1.142138 -1.393851
-1.281771 -1.450152
-1.425091 -1.032454
-1.779574 -1.177927
-2.067950 -1.382773
-2.161029 -1.159533
-2.186619 -0.898939
-2.470344 -0.330157
-2.468917 -0.227887
-2.513493 0.031977
-2.219838 0.702934
-2.289290 0.922068
-1.940835 1.294992
-0.973740 1.812917
-0.588873 0.300223
-0.455903 -0.452442
-1.085325 -1.376231
-1.829480 -1.642164
-2.019366 -0.801428
-3.366008 -0.243873
-2.756339 1.036045
-1.334810 0.459482
-0.690420 1.507555
0.795450 1.031666
0.700020 -0.427879
-0.129432 -1.420107
-1.172493 -2.237322
-2.567151 -1.231885
-2.790398 -0.573327
-3.009323 0.174003
-2.028109 1.400161
-1.227803 2.049107
-0.237394 1.954394
0.909863 0.465519
0.969577 -0.157054
0.445290 -1.023990
-0.323958 -1.433957
-1.041855 -1.093321
-0.463956 -0.408399
-1.073174 -0.251399
-1.509661 -0.278467
-0.517455 -0.945091
0.087628 -1.908942
-0.927139 -1.414069
-1.952167 -1.057117
-1.550143 -1.611133
-2.042211 -0.669794
-1.505485 0.258817
-0.701655 -0.197093
-1.045570 -0.649894
-0.458772 -1.198710
-1.428193 -1.155129
-1.726666 -1.830898
-2.105597 -0.812047
-1.952616 0.422360
-1.052728 1.501285
-0.377945 0.124530
0.650266 0.005006
1.016437 -1.634671
1.218322 -3.008623
-1.185441 -2.473802
-2.530960 -2.479054
-3.391911 -0.863908
-2.806179 0.313620
-1.747498 1.188125
-1.467257 0.894536
-0.197131 0.513815
0.388948 -0.396260
-0.423326 -0.668243
-0.898053 -1.620969
-1.222441 -1.376165
-1.690731 -0.211721
-0.545105 0.152065
-0.259383 -0.097550
1.299582 -0.945315
1.921630 -2.396285
1.338363 -2.572355
-0.308308 -3.116614
-2.259442 -3.459300
-2.808820 -1.805015
-2.276794 -1.191274
-2.523837 -0.692691
-1.355178 0.328763
-0.035898 -0.275634
-0.294978 -1.327757
-0.849860 -1.800024
-1.975983 -1.898755
-1.918716 -1.028512
-2.426667 -0.360902
-2.445792 0.386009
-0.887263 0.423413
-0.005954 0.336491
-0.052583 -1.377325
-0.142052 -1.716650
-1.015483 -1.846699
-1.734726 -2.126185
-1.525645 -1.967942
-2.447497 -1.691163
-2.574114 -1.168683
-1.492358 -1.127049
-2.115822 -1.191455
-2.373119 -1.491727
-2.478693 -1.822773
-3.120312 -1.078154
-2.988845 -0.340553
-2.474642 0.452138
-1.641813 1.327046
0.235565 0.488075
0.066457 -0.306876
-0.504510 -1.136526
-0.554667 -2.209140
-2.609224 -1.830833
-3.307309 -1.029756
-2.880005 -0.272240
-1.327411 0.578037
-0.455852 0.297773
-0.125334 -0.193301
-0.503172 -1.164127
-1.622123 -2.105533
-2.304762 -2.194812
-3.784159 -1.155250
-3.309204 -0.087631
-2.757377 -0.342483
-2.571370 0.224431
-2.222223 0.419227
-1.890698 0.207924
-2.394180 -0.360327
-2.700009 -0.844708
-2.697289 0.001593
-3.679506 0.958344
-1.808724 2.229549
-0.585987 2.635203
0.913275 1.763477
1.015997 1.024788
0.186608 -1.349649
-0.339749 -2.125248
-2.236665 -1.322271
-2.521261 0.518377
-3.164196 1.247521
-1.993643 3.013644
0.148514 2.966650
1.444643 2.278110
1.636078 0.262317
1.755946 -1.260283
1.354277 -2.440472
-0.638429 -2.578186
-1.938274 -1.168815
-1.884254 -0.542007
-1.058033 0.918691
0.277870 1.055602
1.151088 0.399667
1.694111 -1.027536
1.295707 -2.283253
0.800122 -2.778185
-1.032148 -3.056015
-1.521828 -1.985351
-1.442513 -1.426624
0.033541 -0.696013
0.262820 -1.396559
-0.060430 -1.921643
0.058637 -2.846459
-1.079226 -3.865452
-2.534091 -3.675980
-2.719883 -3.044916
-3.792211 -2.646741
-3.844077 -1.002903
-3.413474 -0.625887
-2.909891 -0.853353
-2.446963 0.138078
-2.619787 -0.198258
-2.758341 -0.067373
-1.787920 -0.733473
-1.492151 -0.837896
-1.463073 -1.777022
-2.171389 -1.879649
-2.234171 -2.662168
-2.404737 -2.385198
-3.653533 -2.141534
-3.571853 -1.570959
-3.909638 -1.036737
-4.018670 -0.146681
-3.140622 1.215096
-1.934634 -0.527692
-1.600213 -1.065236
-2.244448 -1.097834
-2.006967 -1.720150
-3.086493 -0.926579
-3.976513 -0.745526
-3.426486 0.575501
-3.337326 0.816489
-3.119305 1.277120
-1.977400 0.553230
-1.533009 0.237317
-1.791786 -0.176667
-2.646224 -0.525513
-2.629895 -0.627703
-3.515135 -0.956239
-3.735191 1.011387
-2.653954 1.538249
-2.188594 0.607554
-1.374203 0.981857
-1.014921 0.288448
-2.109469 -0.719269
-2.914928 -0.673937
-3.857953 -0.594935
-3.779288 0.420406
-4.055581 1.985262
-2.867984 2.304087
-1.778974 3.056159
-0.656088 3.502872
-0.723516 2.148917
-0.088813 1.091469
0.154716 0.291782
-0.340227 -0.220316
-1.032555 -0.889133
-2.461737 -0.318695
-2.633040 0.012229
-1.771097 0.833428
-1.882887 0.885158
-2.472692 1.491245
-1.113092 1.188550
-1.258764 0.992732
-1.160999 1.832144
-0.818291 1.728118
-0.746127 1.491725
-1.097245 1.125550
-0.871932 1.127884
-1.220766 -0.063429
-0.788835 0.157822
-0.096636 0.130829
-0.469106 0.267248
-1.306837 0.172750
-1.043227 0.839425
-0.114547 1.779701
-0.056207 0.987796
0.135885 1.120360
1.269434 0.175590
1.475090 -0.359853
0.414988 -0.621532
0.303146 -1.383512
-0.584660 -0.903499
-0.802456 -0.592485
-1.208746 -0.233476
-0.440035 0.681067
0.092447 0.907946
0.864795 0.418644
1.177174 -0.109545
0.907277 -1.739208
-0.191625 -2.505770
-0.225067 -1.966658
-1.759589 -2.016299
-1.959296 -1.594038
-1.437919 -1.598678
-1.456057 -0.888801
-0.859833 -0.597648
-1.271701 -1.183048
-0.703274 -2.021768
-0.880360 -2.063305
-1.873394 -2.011050
-2.241452 -0.883619
-1.735910 -0.771853
-1.046429 -1.202283
-0.533229 -0.348637
-1.143915 -1.440279
-1.257162 -1.359083
-1.259884 -0.928361
-1.722004 -1.187802
-1.742976 -0.577228
-1.975913 -0.582414
-1.388852 -0.109730
-0.904225 0.423556
0.008462 -0.423989
-0.286119 -1.561455
-0.473610 -1.365231
-1.507627 -1.440237
-2.178323 -2.231056
-1.527132 -1.505558
-1.724299 -0.890342
-1.622026 -0.632484
-1.946210 -1.902912
-1.952578 -1.948118
-2.251894 -2.761817
-2.782902 -2.409398
-3.828384 -0.604562
-2.909669 -0.129906
-2.019864 -0.043844
-1.619853 1.025310
-0.173059 1.076232
-0.278985 -1.319155
-0.947528 -1.845813
-1.574276 -2.248506
-3.482315 -1.333115
-4.593255 -0.264258
-3.404414 0.940503
-2.411079 2.302918
-1.299807 2.552852
-1.052858 1.399758
0.441980 0.319306
-0.465035 -1.678798
-2.049380 -2.303713
-2.853985 -1.351518
-4.126096 -1.048591
-3.544617 1.073274
-2.038309 1.324180
-1.289196 1.162040
-0.389682 0.669262
0.397410 -0.541950
-1.545023 -0.963112
-2.129646 -1.416897
-2.264981 -0.795925
-2.409211 -0.011233
-0.853952 1.166929
-0.254807 -0.225616
0.413487 -0.789761
1.568433 -1.687745
0.271721 -3.369662
-1.963928 -4.052904
-2.885151 -3.226623
-3.910407 -1.824998
-4.082057 -0.949605
-2.706073 0.905338
-1.411709 0.502997
-0.969571 -0.385229
-1.101396 -1.983640
-3.201585 -2.588045
-3.813432 -1.635427
-4.122537 -0.316101
-4.113900 1.664084
-2.444269 2.247633
-1.241694 2.210113
0.581501 0.937636
0.818426 -0.672684
0.056445 -2.316365
-1.034037 -3.966537
-2.797818 -3.116545
-4.341172 -2.320533
-4.405283 -0.726768
-3.070341 0.820982
-1.208621 1.215063
-1.098028 -0.111131
-0.317934 -0.083615
-0.250270 -1.787216
-1.389454 -2.608489
-2.621327 -1.181615
-3.059102 -0.935443
-2.909413 -0.595679
-1.699886 0.293407
-1.134764 0.297836
-0.801830 -0.675014
-1.315520 -2.209048
-1.713187 -2.027404
-2.343667 -2.114967
-4.407621 -1.863822
-5.034139 -0.909043
-4.151218 -0.529635
-3.356952 1.246650
-2.596903 0.896921
-2.382321 -0.605247
-2.776110 0.030827
-3.051851 0.648600
-3.593789 0.169503
-3.073286 0.727980
-2.425278 0.787051
-1.555793 0.576853
-2.318148 0.857244
-3.090096 0.755367
-2.639147 0.273001
-2.613763 0.970694
-3.019970 0.979560
-1.848175 2.086111
-0.931196 1.296418
-1.149226 1.441120
-1.502216 1.072840
-0.997740 0.530619
-0.950889 -0.490098
-2.053681 0.549689
-2.183920 1.608217
-2.640219 2.080289
-1.112176 2.780474
0.192583 1.474144
-0.228234 0.802286
-0.035334 -0.847238
-0.600186 -1.907129
-1.631299 -1.410433
-1.089580 -1.426619
-2.791173 -0.836451
-1.935906 0.081979
-1.811090 -0.278031
-1.753668 0.746999
-0.869186 -1.013766
-1.358522 -2.086734
-1.264083 -1.977730
-2.558029 -2.049236
-3.212028 -0.943801
-3.266152 0.466461
-1.533960 0.788900
-1.681933 1.276854
-0.210268 0.094966
-0.571975 -1.381986
-0.933845 -1.719320
-2.060679 -2.108076
-3.162955 -1.009494
-2.714661 -0.423278
-3.311873 0.252317
-3.345769 1.787311
-1.763547 0.835170
-1.606690 0.644607
-1.071447 0.387305
-1.517628 -0.128040
-2.103634 -0.782452
-2.482730 -0.798845
-2.541866 -0.556768
-1.742831 0.013410
-2.125629 0.122239
-0.913710 -0.015568
-0.446801 -0.535904
-1.237865 -0.686889
-2.205365 -1.442545
-2.968404 -2.179299
-3.808803 -1.011537
-3.918667 0.061837
-4.240929 0.276023
-3.821441 0.536349
-2.959874 1.238117
-2.181300 1.912769
-2.094071 1.912226
-1.734925 1.626001
-0.975164 0.582795
-1.321645 1.218834
-2.407557 1.539747
-2.034121 0.635681
-2.949397 0.132631
-2.482766 1.525553
-2.795826 1.792134
-1.270059 1.625928
-0.643079 0.318935
-0.800817 -0.038074
-0.354590 -0.321856
-1.289478 -2.276546
-3.012779 -1.021047
-3.676421 0.022127
-4.376111 0.372900
-4.315139 1.940159
-3.358447 2.932927
-1.680608 4.113808
1.019468 3.234524
0.620824 2.846807
1.032598 1.468404
2.285359 0.729439
0.964572 -0.122453
-0.006722 -0.024185
-0.436243 -0.468412
-0.823547 -0.190583
-1.259583 -0.831273
-2.046488 0.020262
-1.456264 0.028599
-1.473474 -0.742500
-2.390850 -0.618961
-2.956401 -0.127677
-0.723379 -0.050656
-1.332687 -0.071267
-1.730067 -0.192436
-1.541152 0.465394
-1.007094 0.065186
-1.137840 -0.473320
-0.688863 -0.841952
-1.114836 -0.168469
-0.773461 -0.721074
-1.172641 -0.696333
-1.594047 -0.936898
-0.946911 -1.188167
-0.942612 -0.962248
-1.701152 -0.477103
-1.834604 -0.067719
-2.031214 -0.159288
-1.010867 1.275869
-0.221450 0.042537
0.393881 0.631395
0.518770 -2.044596
-0.962633 -2.260459
-1.650881 -1.326365
-1.645394 -1.645934
-2.556181 -1.328764
-1.245280 -0.334377
-1.202437 0.020806
-1.410528 1.034440
-0.629762 -0.216839
-0.404168 -2.256476
-0.165426 -2.019858
-2.065213 -2.671255
-2.978493 -2.193253
-1.697073 -2.251152
-3.189322 -0.268461
-2.691385 0.272069
-1.962975 -0.183659
-2.152165 -1.005266
-1.275360 -0.367840
-1.682129 -0.416640
-2.171577 -1.225687
-2.494274 -0.485667
-0.787319 -0.419588
-0.477544 -0.620739
-1.343091 -1.485855
-1.396732 -2.137031
-2.153103 -2.357267
-2.337998 -2.090935
-3.870669 -1.441275
-4.228879 -2.051111
-4.181474 -1.262325
-4.128600 -1.092565
-4.225102 -1.166408
-4.362350 -2.738744
-4.516780 -2.996011
-5.362457 -2.486663
-5.788184 -1.641002
-7.365188 1.202726
-6.209583 1.003662
-5.757540 2.473762
-3.870304 4.428394
-2.398229 3.348412
-1.791574 0.939009
-1.156478 1.101592
-1.364319 -0.388800
-2.689048 -0.757068
-3.126157 -1.786933
-3.391988 -0.772222
-3.922396 1.616460
-4.044723 0.802996
-3.067005 0.407361
-2.159276 0.287731
-3.225376 -0.524694
-3.257583 0.585264
-3.924700 0.375138
-4.167114 0.854339
-3.722669 1.637285
-4.375197 0.980227
-3.673709 1.381899
-3.578618 1.342466
-4.219650 1.499108
-4.037053 2.249728
-3.357519 2.642948
-2.116726 2.603529
-1.440324 1.636516
-2.204041 1.735506
-1.662692 0.102815
-2.919368 0.000133
-2.495627 0.629043
-2.169491 1.420338
-1.396732 1.689097
-1.270273 1.138955
-1.056265 1.385733
-1.066623 -0.396234
-0.704089 -1.896955
-2.215503 -2.100798
-4.514445 -1.938603
-5.795306 -2.378645
-7.302248 0.773895
-6.291219 4.076121
-4.717435 5.003367
-2.792270 5.141020
-1.371394 4.419938
-1.010331 3.536745
-0.067349 1.051304
-2.150318 0.765577
-2.062927 1.353574
-3.394126 2.037026
-2.978151 4.195904
-0.730934 3.485846
1.184065 1.794147
2.438070 0.866645
1.351182 -1.137099
0.100908 -1.533669
-1.450870 -2.559446
-3.710058 -1.526321
-3.299817 1.321454
-3.345631 1.286884
-2.356423 2.242413
0.229624 2.873462
-0.749827 0.509523
-1.875862 -0.053624
-1.840696 -1.794181
-3.275195 -0.336346
-4.206505 1.481546
-3.949112 2.805002
-3.216729 4.121502
-0.194108 4.010992
0.392825 3.787997
0.212749 2.474796
0.797908 -0.392558
-1.528759 -1.185068
-0.644395 0.611742
-2.025947 -1.043734
-1.945296 -0.435609
-1.196248 0.208396
-0.977105 0.107601
-1.895644 0.013035
-1.781481 -1.275467
-2.778777 -2.498114
-2.435602 -0.802343
-4.488856 0.944076
-3.387705 0.157263
-1.488799 2.001706
-0.239670 1.285409
-0.303383 1.829541
1.326570 -0.116974
1.295091 -1.023050
0.551097 -2.683754
-1.770102 -1.019534
-3.071760 -1.836487
-1.769598 -1.479927
-2.615152 -0.954831
-4.353163 -0.634954
-3.482581 1.674001
-2.802217 0.188661
-1.894740 2.363821
-1.754788 1.066849
-2.499039 0.006809
-1.430233 -1.461604
-2.081509 -1.659863
-3.915390 -1.498227
-3.930216 -0.877354
-3.952828 0.448933
-3.705739 1.246557
-1.685897 3.248727
-0.565130 2.019773
0.150569 2.016629
1.644431 -1.143612
0.729966 -2.525074
-1.717102 -4.811827
-4.389395 -3.428048
-6.169157 -3.355048
-6.413514 -0.750191
-5.987576 1.955933
-4.280682 2.830625
-2.715094 3.261783
-2.135871 1.914326
-2.160419 1.217749
-3.334417 -0.142273
-4.132784 0.909382
-4.465231 0.632040
-2.886965 2.990181
-4.024035 3.959238
-0.016255 3.502345
-0.589177 1.930412
2.034371 0.629021
-0.465400 -2.458151
-0.781833 -1.922330
-3.259812 -1.226694
-4.138263 -0.624306
-3.199375 -0.240102
-3.959535 0.114958
-4.040879 1.817421
-3.323982 1.289264
-2.028193 -1.738114
-3.433772 -0.120628
-1.700433 0.686015
-3.523641 0.737355
-3.118748 1.587090
-3.039387 1.998277
-0.756087 3.621321
-1.698171 2.590104
-0.628319 1.136438
-0.900558 1.158770
-1.068695 -0.529696
-2.292215 -0.682259
-3.656325 -0.639082
-1.544325 0.770442
-1.897452 -1.026192
-1.593225 -1.687326
-2.596405 -2.714381
-3.738740 -1.969815
-3.676639 -2.119033
-4.831369 -0.427196
-4.202563 0.262380
-3.214005 1.436501
-4.371280 0.551799
-2.168821 -0.050820
-2.472132 0.252440
-3.477285 -1.681083
-1.618792 0.024670
-3.949566 0.245507
-3.992214 1.910850
-3.720729 1.206671
-1.914092 3.188891
-1.575329 2.882164
-0.260103 0.125751
-0.375676 -0.478945
-0.646692 0.227474
-1.637628 -1.379684
-2.593447 -1.144733
-2.158634 0.051919
-1.275699 -2.316187
-3.365532 -0.911512
-4.549390 0.332107
-3.727423 -2.116709
-5.714116 0.642486
-5.404672 0.683407
-2.342205 2.088531
-1.116051 1.738214
0.473621 0.573716
-0.293853 -0.481088
-0.992989 -2.185283
-1.890221 -3.830123
-2.655339 -1.904488
-5.383005 -1.750972
-5.722456 -0.630699
-4.555296 -0.096214
-1.688227 2.796595
-2.504732 -0.287182
0.276395 0.133723
-0.283822 -2.716654
-2.805051 -3.062603
-4.191004 -3.741204
-6.767993 -2.799113
-8.173957 0.375872
-7.272773 2.419352
-6.658180 4.502290
-3.542136 3.705152
-0.781720 0.241620
-1.706320 -2.382723
-1.967708 -1.121816
-3.676037 -2.852429
-4.630782 -2.225445
-5.513605 -2.694338
-6.142237 -1.375163
-6.288171 -1.221610
-5.786157 -2.439744
-5.394610 -0.000136
-5.013942 -2.534801
-6.643810 -0.893007
-6.406097 -1.724378
-5.533189 0.171295
-8.048110 -0.631431
-8.181065 2.465778
-8.901526 2.816816
-8.449743 1.419736
-8.527372 4.493288
-8.612553 3.075309
-8.394173 5.318616
-4.515838 6.381902
-3.389834 7.548527
-0.573398 5.493581
-2.486567 3.717069
-2.236279 0.765790
-0.773773 2.836266
-5.764620 2.689429
-4.489114 2.274781
-4.107224 4.309921
-1.919218 3.888970
-1.744929 4.854247
-4.711340 3.656781
-3.032746 0.094922
-4.780796 -2.247553
-6.169850 1.640878
-7.649470 1.900894
-6.098647 5.577069
-4.101876 5.398243
-1.526926 5.041891
0.620693 4.212433
1.373604 2.753071
0.404988 -0.117993
-0.800834 -0.706496
-5.798540 -3.104589
-7.499814 -0.418598
-3.397330 2.648823
-4.998661 3.698791
-4.138615 3.786770
-5.812745 1.998571
-1.384721 3.278773
-2.614236 2.684146
-2.088807 0.219907
-4.913929 1.141892
-9.303219 2.579939
-7.521560 5.345151
-8.515566 4.374317
-5.445201 8.158651
-3.154342 7.078735
-3.352130 5.154803
-1.592670 4.345128
1.408268 2.551994
-2.639755 4.164572
-3.255270 6.040328
-0.514982 1.029490
-0.626985 3.946597
-1.507021 4.478459
-1.010348 4.026590
-2.710644 3.481851
1.716698 2.401991
-1.470873 1.918908
1.622968 3.102443
-3.198260 -0.215514
-3.089084 1.170054
-1.490257 5.042568
-3.765049 3.467896
-2.054750 4.298217
-2.004552 4.552045
-0.323717 2.330234
1.250854 4.250964
2.250828 -0.612734
0.299833 -1.429151
0.743066 -2.520535
-0.618014 -6.167208
-4.381426 -4.020591
-3.539049 1.302543
-0.897311 -2.697051
-4.526121 0.743384
-2.706706 0.144980
-3.589416 -2.121783
-3.114434 -4.550680
-7.095006 -1.601755
-11.095211 1.360238
-7.107133 3.002884
-4.541582 3.726551
-1.290455 8.226196
-0.770187 5.339391
2.709090 3.736381
0.519213 -0.501200
1.723732 -3.317293
-0.322851 -4.479770
-3.043876 -2.639512
-5.761129 1.359633
-5.544233 0.505665
-5.191041 3.645947
-5.529295 4.959656
-2.986519 1.843728
-3.155802 -0.730528
-0.937491 -1.089985
-4.412729 -7.573319
-4.290125 -4.087063
-7.373854 -2.918754
-6.881447 2.119874
-7.685085 -1.652260
-6.103633 -0.255709
-3.092067 4.855557
-8.950944 3.165619
-6.552959 2.044183
-3.981338 2.390173
-0.338714 5.666901
0.263777 2.416095
-2.858924 -0.951370
-0.084372 1.893143
1.704853 0.329897
-1.907001 0.976736
-5.919121 -3.616665
-7.818454 -3.626607
-9.096866 -4.901814
-8.349263 2.039492
-9.324288 2.554589
-11.296295 2.396149
-8.347913 3.032410
-9.169807 3.819157
-6.737437 1.711730
-6.561644 4.607489
-6.951984 2.957845
-6.327268 4.846578
-2.433138 5.755534
-2.933010 2.178735
-4.857948 2.020028
-6.895572 3.409115
-4.483533 6.514416
-8.473514 2.038902
-6.266231 10.706133
-2.255661 7.279878
-3.354385 5.262934
0.902717 2.819044
1.476052 2.230153
-3.720373 0.315341
-2.508798 2.716656
0.659045 2.645484
-1.688169 0.205490
-6.771033 5.100735
-6.576423 0.474883
-5.811266 4.490359
-7.026013 1.341932
-4.834506 3.360286
-9.282321 4.255840
-8.275955 2.784993
-5.362993 11.303233
-2.129514 12.141521
4.945436 5.445142
5.425295 1.350613
5.901543 -5.439067
-0.094095 -9.590670
-4.607279 -13.598539
-16.666200 -7.661686
-15.985683 -5.870308
-19.242490 5.161633
-10.542972 11.932613
0.035489 13.595782
2.510181 7.711522
4.175623 2.802431
-4.419816 -6.660471
-1.748865 -5.227681
-12.301048 -2.299852
-12.482954 1.409382
-14.824487 9.172337
-3.301635 11.538290
5.559506 10.479636
14.501749 7.651645
3.023527 -1.297469
3.070031 -4.088134
-6.566625 -10.625767
-11.802477 -12.505969
-11.261581 -8.062236
-16.476796 0.424700
-13.575515 7.763133
-8.740714 6.997633
-5.765889 4.602526
-3.671208 3.302294
-4.178992 -3.803710
-13.968053 -1.772404
-17.702224 7.115285
-21.753697 12.242167
-15.691271 16.550682
-7.392949 16.577090
-3.215098 11.317307
2.393987 8.291776
-5.868317 0.691900
-3.889484 2.187764
-0.146666 5.169049
-5.776201 1.619315
-12.510434 2.085239
-11.567239 10.297231
-7.682259 6.615849
-12.663000 3.650424
-13.582799 2.785801
-16.923716 2.726235
-11.569997 12.191506
-15.043039 16.986916
-11.886893 14.354928
-2.032668 16.620403
-0.641154 14.834148
6.433136 7.940504
4.312933 6.814204
-0.806116 -0.802029
-2.786523 2.837890
-13.137674 1.043635
-5.461843 8.550296
5.742628 4.503908
15.845272 5.441355
0.508920 -5.861224
9.674127 -9.185863
-11.399912 -7.148270
-12.982363 -0.375453
-14.568522 2.496503
-21.334803 1.755984
-18.317190 13.271083
-3.913709 17.528514
0.390637 17.130059
3.840578 -1.690814
-1.439209 -0.057055
-1.548097 -6.520009
-20.540692 -6.901911
-15.810923 8.913690
-6.048598 11.513314
-8.344207 15.343555
-9.947489 9.325340
7.456353 7.269243
-1.418832 5.426882
-6.825083 -2.588201
-11.586769 -5.796046
-10.715153 -12.461776
-20.032718 6.271904
-24.846703 2.567638
-8.962628 6.040091
-9.376482 9.417105
-8.702223 4.276258
16.880594 3.870413
-10.879064 12.356252
-9.927516 -10.226693
-16.726747 -2.358981
-8.470540 9.667152
0.356307 8.932416
-10.443690 6.956930
4.642907 0.137357
8.436059 3.380999
-2.977421 5.176107
-0.022210 0.847155
-20.420745 -22.064309
-21.256364 9.136309
-11.704879 14.496885
-19.866115 21.560003
-0.507900 11.021149
-7.283489 12.527480
-9.489105 -5.931441
-15.410013 6.705033
19.372175 -5.195737
-10.866617 17.898737
-29.227176 15.314366
-16.623469 15.564887
-32.070026 18.159280
-21.830370 7.634546
-19.859782 8.466994
-4.563498 21.485285
20.814045 23.184092
2.746962 -13.828145
12.147394 16.499820
2.196613 2.767738
13.951623 4.270394
-9.811040 10.668459
-11.221302 17.202572
-12.173452 12.025223
10.594982 21.641256
0.199385 11.381906
4.489640 31.982689
-26.080037 25.829886
-24.829542 19.678004
-8.488078 13.105191
-31.293050 29.233301
0.582602 15.995324
-0.859035 -0.118552
-19.566032 32.982764
-6.757331 7.767881
-9.391053 25.621533
-10.258705 13.829815
-3.086469 26.394416
7.997321 28.359814
22.447963 33.859949
28.064767 4.510587
51.052845 -6.201457
10.640852 -8.697507
-15.534807 -10.008247
4.174648 -36.828457
-12.546910 -8.763524
-24.606839 6.307717
-13.155206 13.041540
10.307100 -3.932131
20.528941 -14.360900
1.652850 -10.418273
-4.241588 -11.692836
2.160222 -35.060709
-19.507597 -9.476164
-35.276480 -6.073952
-17.424414 12.617232
-7.664236 16.285271
15.187823 -7.246365
25.516908 10.233142
-0.098920 -43.281199
-4.056130 -58.423514
-25.570182 -47.202728
-54.051862 -26.073722
-79.957631 -0.039820
-52.145777 2.533153
-36.663055 22.618815
-5.184781 14.702895
-5.370362 20.823790
-9.860416 -6.993897
-21.792679 -10.304245
-48.162593 14.027669
-40.509084 5.130201
-61.488457 37.499188
-15.122069 55.433770
4.920302 31.082812
42.107014 19.317575
41.000897 -4.427948
22.718448 -50.757539
7.160832 -94.764098
-42.118802 -84.477329
-49.006177 -43.506461
-69.242498 -34.124477
-52.370809 -9.756135
-37.278502 -27.426973
-55.494603 -79.396646
-98.703009 -51.853466
-114.874560 -87.678162
-139.627268 -34.636775
-148.647242 14.532065
-146.704223 49.557139
-71.480089 62.556601
-61.247339 52.407967
15.294831 14.879873
16.549218 -61.590351
-143.780181 -100.659962
-206.380349 -106.628927
-300.898393 -27.169354
-341.561658 74.485450
-233.062938 128.626688
-168.593328 136.616469
-73.191711 88.446548
-38.394962 -20.142408
-200.963172 -141.480480
-390.193966 -211.434374
-664.180083 -87.645980
-914.283443 155.602601
-1074.468206 638.684944
-929.310160 1801.043095
-448.790470 1063.540999
139.338466 1385.676054
609.979017 1146.980170
942.829179 797.936984
819.178248 318.354166
