10035.696598 11369.326519
-4940.917318 3054.200317
-423.754814 -66.681101
-39.771386 30.999328
-115.617746 405.627539
109.814645 -92.855092
-44.358609 -75.278035
-101.323995 165.016157
-68.007842 -17.013100
-7.205435 16.757982
-0.067711 13.314667
-19.515474 -30.052342
-19.383810 2.393464
5.434367 41.892234
-17.121124 -10.036885
-7.032813 -4.730012
-1.923028 24.128452
-11.394749 -5.609002
-17.281276 3.202241
5.515903 3.553174
-14.515921 -4.280949
1.909986 -0.847617
3.337380 2.865583
-10.794712 4.432200
-3.735867 6.140349
4.653377 -3.268208
-9.150825 1.661415
-7.906533 0.731919
2.391411 3.784997
-5.044642 -0.539120
-1.211122 -0.781994
0.589484 -5.981328
-4.011690 7.190893
-0.961182 1.981217
-0.171347 -1.568230
-3.623811 2.647853
-0.247848 -0.315304
-3.219309 -2.981905
-1.505907 3.409777
-2.866758 0.950990
1.200294 -2.755343
-0.700996 1.071499
-0.927199 0.541322
-3.817383 -0.112051
0.939529 3.029020
-1.381780 -1.055265
-2.494186 -2.503225
-0.071998 1.916579
-0.888744 -0.788382
-2.594096 0.406659
1.387842 -0.179960
-1.102762 0.342483
-1.031421 -0.361833
-0.049305 0.779246
-1.879374 0.330624
-1.430849 0.622081
0.983444 -1.437566
-1.110506 -0.266932
-2.441110 0.748556
1.087146 -0.095296
-0.799335 -0.718787
-0.369111 0.619930
-0.703913 -1.047474
-0.628344 1.194174
-0.819900 0.471180
-0.469820 -1.455396
-0.556111 0.295232
-0.044461 0.412500
-0.443125 -1.010688
-0.223864 0.787455
-0.927126 1.103189
0.071594 -1.652212
-0.063425 0.766346
-0.780460 0.206122
-1.453428 -0.354166
0.054784 0.427628
0.204948 -0.146956
-1.563058 -0.945468
-0.231099 0.323401
0.245196 0.052401
-0.426297 0.067858
0.000523 -0.248894
0.509877 0.169390
-1.336737 0.112692
-0.495844 -0.094357
-0.103086 -0.283772
-0.354758 0.147023
0.611643 -0.265618
0.146180 -0.280201
-1.549283 1.107157
0.277703 -0.171695
-0.390737 0.104269
-0.273246 0.298945
-0.293296 -0.009589
-0.120388 -0.152894
-1.091564 0.623135
-0.152077 -0.666938
-0.347524 0.050712
0.241892 0.104595
-0.033314 -0.229809
-0.644962 -0.323756
-0.024774 0.963448
-0.514019 -0.614265
-0.397126 -0.119099
-0.471609 -0.514097
-0.403554 -0.029883
-0.212222 -0.343319
0.455034 -0.066569
-0.899055 0.168113
-0.154419 0.402324
0.389016 -0.242153
-0.147477 0.056115
-0.462854 -0.393775
0.651401 -0.250106
-1.423006 0.158568
0.196213 -0.266175
0.016717 -0.173227
0.057144 0.232844
0.133141 -0.152781
-0.074776 -0.010234
-0.835833 0.402349
0.298434 0.023089
-0.417080 -0.574836
-0.397980 -0.094584
-0.213583 0.473464
-0.243280 -0.472114
-0.250050 0.130700
0.264304 0.475857
-0.144980 -0.552243
0.014439 0.111858
-0.366860 0.471409
-0.471269 -0.551875
0.504095 0.670521
-0.144931 -0.481503
-0.142528 -0.501074
0.039515 0.113298
-0.091398 0.101235
0.074143 -0.359409
0.165926 0.017640
-0.241432 -0.189523
-0.469055 -0.024614
-0.140043 -0.269393
-0.132674 0.010468
-0.137347 0.217144
0.544567 -0.455984
-0.340437 -0.195631
-0.213715 -0.124156
-0.015803 0.215924
-0.150841 -0.179722
-0.380466 0.275493
0.031416 0.069802
-0.234056 -0.135669
-0.270300 0.121966
0.117856 -0.086922
-0.179999 -0.212304
0.010433 0.400373
0.098624 -0.218730
-0.150338 -0.268989
-0.180676 -0.011782
-0.499631 -0.176506
0.013668 0.000356
0.277478 0.054489
-0.275717 -0.310915
0.424405 0.005737
0.057425 0.175862
-0.212838 -0.655980
0.247363 0.175869
0.012465 0.152433
-0.184238 -0.338729
0.334586 0.159599
-0.372540 -0.483034
-0.276396 -0.061218
-0.082992 0.219855
0.121081 -0.136591
0.064178 -0.030688
-0.195590 -0.133930
0.156140 0.074602
-0.054775 0.072392
0.202728 -0.003669
-0.039202 -0.329753
-0.264761 -0.130288
-0.077862 -0.260102
0.112265 0.215755
0.404397 0.241724
0.153275 -0.207363
-0.258266 -0.099357
-0.108829 0.106971
-0.196677 -0.040129
-0.128455 0.311831
0.032578 0.198070
0.038449 -0.162272
-0.082370 -0.530459
-0.138804 -0.021201
-0.187329 -0.065583
0.254289 0.064887
-0.022354 0.138206
-0.442836 -0.163369
-0.300169 -0.212540
-0.055895 -0.094826
-0.294887 -0.060892
-0.134522 0.090192
0.423963 -0.099823
0.070848 0.016101
-0.145916 -0.078943
0.128339 0.130811
-0.301000 0.138837
0.192709 -0.416649
-0.180822 0.066116
-0.201508 -0.331199
0.048437 0.078008
0.016751 -0.077450
0.252674 0.074304
-0.106355 -0.239354
0.236266 -0.083885
-0.083979 -0.053187
0.217301 0.168068
-0.260514 -0.481057
0.266084 -0.073089
-0.113245 -0.144818
-0.293779 -0.075779
-0.131777 -0.269822
0.372553 0.045896
-0.278047 -0.330986
0.363000 -0.393099
-0.271756 0.270491
-0.402064 -0.332847
-0.510744 0.265769
-0.161102 -0.136253
0.287210 0.062551
-0.039001 -0.232103
0.248846 0.084834
-0.326288 0.184674
0.265312 -0.059140
-0.057939 -0.188195
-0.045314 -0.002181
-0.025083 -0.015958
0.110613 0.340064
-0.485107 -0.168829
0.296478 -0.223569
-0.159014 -0.148116
-0.202443 -0.111243
0.166235 -0.040686
0.102892 -0.062564
-0.045056 -0.213430
-0.150107 -0.234222
-0.063736 0.011658
-0.326565 0.076895
-0.168433 0.099265
0.102339 0.113926
0.292950 -0.086986
0.258864 -0.316786
0.105485 0.246261
-0.009835 0.501895
0.186641 -0.131343
-0.343839 0.018997
-0.269814 0.033058
0.245973 0.227853
-0.010787 0.042511
0.058337 0.025923
-0.163534 0.492140
0.056276 0.101966
-0.024668 -0.107009
-0.014977 -0.200331
0.113840 0.274448
0.364286 0.094597
-0.035505 -0.484315
-0.177558 0.304822
-0.106043 0.125095
0.298653 -0.075825
0.015677 -0.362642
-0.002441 0.005045
0.166513 0.150386
-0.022983 0.278789
0.210342 -0.662054
-0.217842 0.511409
-0.156065 -0.066922
0.040592 -0.187119
-0.084530 0.373865
0.190477 -0.348017
-0.045096 -0.387626
-0.065550 0.098496
-0.187659 0.002266
0.275714 0.123143
-0.220472 -0.221012
-0.116452 -0.549961
0.052862 -0.052299
0.013330 -0.331720
0.078643 0.341110
0.053153 -0.174497
0.042939 -0.041860
-0.181875 -0.183811
0.031194 -0.062130
0.741329 -0.278794
-0.281698 -0.249579
-0.048635 0.111409
0.061575 -0.218048
-0.098158 -0.044789
-0.217475 0.185134
0.314077 -0.031549
0.006236 -0.199590
-0.161269 -0.123218
-0.200207 0.201737
-0.032139 0.036036
0.308875 -0.022199
-0.286242 -0.010386
-0.069772 0.309764
0.318886 -0.075789
0.333034 0.032094
-0.215250 0.025997
-0.067035 -0.128850
-0.254941 0.119612
0.200549 0.085899
0.263315 -0.306033
-0.245407 -0.209280
-0.001740 0.294834
0.028816 0.178008
0.002849 0.164726
0.206544 -0.014108
0.197547 -0.356754
0.026475 -0.217186
0.090705 -0.097151
0.008687 -0.180268
0.036801 -0.407039
-0.331458 0.241764
0.130544 -0.099867
0.016734 0.007054
-0.023967 -0.261282
-0.075987 -0.021411
-0.143061 0.345288
-0.225016 -0.110760
0.272985 0.208121
-0.157498 -0.060350
0.229086 0.135885
-0.095594 -0.127652
0.308384 0.066124
-0.453071 -0.152433
0.220838 -0.148764
-0.222334 0.259233
0.177715 0.152413
0.232995 0.199878
-0.107405 -0.074164
-0.156208 -0.447660
-0.159543 -0.077509
0.049636 0.057165
-0.118662 0.096999
0.096041 0.316026
-0.179410 0.207022
-0.059658 0.061364
-0.053067 -0.191428
0.119308 -0.009824
-0.210699 -0.083291
0.078405 -0.128874
0.274374 -0.031689
-0.035047 0.062144
0.109627 -0.114498
0.203896 -0.074169
0.024046 -0.082138
-0.024581 -0.118029
0.185225 -0.378361
-0.021841 0.075072
-0.018669 -0.008672
0.186758 0.109685
-0.263156 -0.276695
-0.130808 0.167194
0.082690 0.118421
-0.130917 0.078175
-0.562553 0.012278
0.119673 0.151296
0.105393 0.319150
0.114292 -0.167177
0.176558 -0.203209
-0.082195 -0.021363
-0.114312 -0.161090
-0.238997 -0.020451
0.120195 -0.115892
0.169687 0.211270
0.308748 -0.010971
-0.382253 0.253141
0.249140 -0.292290
0.077811 -0.100983
0.163152 0.117772
-0.072549 -0.353972
-0.003735 0.318142
-0.135811 0.379854
0.077327 -0.007472
-0.070942 -0.390523
-0.047831 -0.078971
0.140637 -0.079442
0.197662 0.047622
-0.037863 0.141380
0.144368 -0.235886
0.051526 0.205597
0.042623 -0.074001
-0.273637 -0.088353
-0.184432 0.101438
0.512080 0.076769
-0.369062 0.099779
0.368666 -0.067902
0.159221 0.404961
-0.196358 -0.052011
-0.298965 -0.095975
-0.049863 0.063894
-0.126751 -0.209058
0.006375 0.010101
0.249293 -0.253759
-0.215483 0.075241
0.037309 -0.215532
0.366285 -0.052918
-0.141648 -0.172934
-0.010160 0.138843
-0.111603 0.065816
0.203702 -0.000132
0.309064 0.051756
-0.106187 -0.046114
0.499916 0.201512
-0.149663 0.069642
0.071828 0.001251
-0.037749 0.111001
0.048494 -0.224167
-0.128503 -0.107585
-0.114637 0.094026
-0.332062 0.173837
0.178078 -0.061391
0.136960 -0.276535
-0.125151 -0.074159
0.000787 0.342071
0.031646 -0.105081
0.295243 0.205756
0.261272 -0.253824
-0.298531 -0.028887
-0.106176 -0.054023
0.174148 -0.066526
-0.195721 0.241051
-0.064647 -0.063180
0.214715 0.236037
-0.167275 0.275675
0.182702 0.425787
0.012905 -0.153051
-0.146364 -0.484370
-0.058430 0.069879
0.410766 -0.200717
-0.084599 -0.019364
0.039264 0.331578
0.512224 0.181223
-0.006088 0.350784
-0.131598 -0.261688
0.313664 -0.282933
-0.195514 -0.573273
0.082283 0.110381
-0.123457 -0.053268
0.085065 -0.375315
-0.121674 0.331032
-0.624709 -0.317480
-0.214640 0.247708
-0.338185 -0.336239
-0.181958 -0.017534
-0.330970 -0.353029
-0.313397 -0.125293
0.086827 0.202666
0.103679 0.230138
0.249577 0.471420
-0.073047 -0.002664
0.103489 0.112881
0.600657 -0.015704
-0.188625 0.191043
0.376783 -0.193413
0.395012 -0.210420
0.117256 -0.022019
0.050527 -0.563944
0.359669 0.021084
-0.174734 -0.021988
-0.040119 -0.203237
-0.170685 -0.428170
0.004545 0.046397
-0.041937 -0.013288
0.198278 0.139641
0.163978 0.078719
0.015819 0.114268
0.108241 -0.467042
0.359110 0.293522
0.609870 0.243937
-0.347592 -0.018135
-0.396015 0.103966
0.101415 -0.050034
-0.255584 -0.197485
-0.199489 -0.193559
-0.350413 -0.110659
-0.344006 0.088614
-0.688888 -0.085694
-0.239841 0.072588
0.291890 -0.032498
-0.140026 -0.006315
-0.034487 0.297516
-0.135020 -0.078457
-0.045481 -0.380965
0.051911 -0.280885
-0.074027 0.148950
0.274823 0.265715
-0.009423 0.094554
-0.010341 0.537056
0.142105 0.164274
-0.275407 0.280378
0.095698 -0.081829
-0.226598 0.264847
0.137436 0.647096
-0.077970 0.189814
0.251159 0.450721
0.013688 -0.221914
-0.222664 0.088207
0.106821 -0.308826
0.199004 0.011812
0.181846 -0.028282
-0.072249 0.298724
-0.368432 0.248701
0.053914 0.099093
0.080251 -0.285094
-0.083836 0.352657
0.154696 -0.119200
0.185152 -0.072831
0.009545 0.219668
0.195771 0.252117
-0.044873 -0.278346
0.171622 -0.045499
-0.183970 0.073429
-0.044016 -0.184832
-0.024331 -0.160068
0.028047 -0.178623
-0.167753 -0.254523
0.079668 0.333671
0.102812 -0.174779
0.144563 0.013465
0.419006 0.128634
-0.063940 -0.185155
-0.274140 -0.407056
0.176127 -0.147634
-0.008586 -0.096833
-0.110621 -0.504134
-0.037668 -0.019722
-0.054141 0.035878
0.150422 0.028878
0.172232 -0.655994
0.090339 -0.065596
0.047680 -0.107069
0.092505 0.157923
0.422283 -0.168893
-0.088857 -0.102604
0.093798 0.064935
0.186319 -0.347283
0.258981 -0.005408
-0.038878 0.506595
-0.007905 -0.609098
-0.015289 0.472064
0.131818 0.230488
0.048802 -0.082406
0.009990 -0.098360
0.114076 0.392609
-0.017816 0.306813
-0.253440 -0.600011
0.063623 -0.189866
0.232274 -0.105780
-0.015708 -0.431014
-0.009929 0.424024
-0.026053 0.519313
-0.263860 0.382100
-0.088046 0.478559
0.210839 -0.248252
0.058377 -0.016415
0.340716 -0.014514
-0.262302 -0.442273
-0.293519 0.075223
-0.466475 -0.127618
-0.582171 0.299439
-0.042326 0.149350
-0.492841 0.031705
-0.208406 0.113511
0.001859 -0.218920
-0.042339 -0.194260
-0.011638 -0.019221
0.220648 -0.578508
-0.020091 -0.067517
0.300623 -0.103296
-0.180958 -0.084088
0.304952 0.018701
0.133034 -0.091815
-0.079436 -0.070177
-0.033562 -0.003571
0.528315 0.001592
-0.237893 -0.055587
0.072813 0.049421
-0.625401 -0.216048
0.175512 0.154293
0.085159 -0.111532
-0.415651 0.108447
0.026561 0.246466
-0.251964 -0.020497
-0.747241 -0.100048
-0.051653 0.242855
-0.211151 -0.389276
-0.214107 -0.202959
-0.160769 0.420875
0.144203 -0.399860
-0.178900 0.019881
0.286107 -0.106813
-0.270883 -0.134206
-0.228268 -0.017467
-0.226575 -0.004908
0.134973 -0.188732
-0.021138 0.001534
0.205130 -0.217687
0.242229 -0.393861
0.219278 0.361485
0.158830 -0.526188
-0.008377 -0.093181
-0.130194 0.123933
-0.311689 0.429808
0.119031 -0.243216
0.054526 -0.117327
-0.138848 -0.135572
0.106460 -0.111780
0.125785 0.107135
0.462215 -0.179885
-0.482478 -0.069841
-0.150823 -0.103264
0.107808 0.349377
0.053758 0.154863
-0.034610 -0.172952
0.021667 -0.114714
0.002514 0.168978
0.096559 0.293963
0.166386 0.002069
0.360926 0.237581
-0.136479 0.116697
-0.449835 0.017628
0.082229 0.450295
0.131739 0.348922
-0.178540 -0.025527
-0.404694 0.140126
-0.178399 0.091697
-0.113322 0.243249
-0.090650 -0.223679
-0.300246 -0.276385
-0.084290 0.348328
-0.210830 0.104362
-0.121931 -0.239698
-0.292039 0.074156
-0.101167 0.354869
-0.569439 0.002145
0.224632 0.111773
-0.031032 -0.166098
-0.264599 -0.290503
0.030743 0.113854
0.000124 -0.122097
-0.158436 0.521335
-0.323266 -0.192918
-0.118287 0.179613
-0.342097 0.030413
-0.166849 0.353474
0.253207 -0.388913
-0.012643 -0.347806
-0.099849 -0.297513
-0.262445 -0.207950
0.142856 0.094352
0.084494 0.087966
-0.037129 -0.117793
-0.335038 -0.291672
0.285776 0.251948
-0.053293 -0.408147
-0.038412 -0.127527
-0.008144 -0.102800
0.104329 -0.405627
-0.060701 0.204759
0.207224 0.324044
0.171005 0.040661
-0.354427 0.109101
-0.127203 0.352087
-0.025755 0.002916
-0.226996 0.034740
0.305858 0.197753
-0.447060 0.536112
0.130332 0.142122
-0.228357 -0.076447
0.021004 0.257504
-0.025387 0.045088
-0.124888 -0.085747
-0.288672 0.032603
0.121838 0.177452
-0.455266 -0.226546
0.279256 0.043342
0.012857 -0.474710
-0.026897 0.012390
0.347965 -0.172907
0.323942 -0.421386
-0.070385 -0.089394
0.427804 -0.012252
-0.457599 -0.199490
0.022107 0.417480
-0.022928 0.171255
-0.263230 0.622939
0.318769 0.329542
0.154516 0.168138
0.225799 0.153124
0.588804 -0.405941
-0.021752 0.236372
-0.291842 0.327869
-0.485028 0.112358
-0.315885 0.304758
-0.290812 0.057773
-0.121050 -0.265569
0.042872 0.327193
0.636244 0.175247
-0.012957 0.239371
-0.422006 -0.162172
0.091166 0.299834
0.198395 0.209651
-0.465812 -0.194658
-0.010417 0.388925
-0.012173 -0.115164
-0.491361 0.339231
-0.225735 0.302982
0.223089 -0.467441
-0.300665 0.388464
-0.100010 0.083744
-0.054133 -0.211257
-0.191003 0.176736
-0.229112 -0.069004
-0.229559 -0.211312
0.330805 -0.057180
-0.180399 0.109066
-0.092155 -0.303093
0.003100 0.071581
0.027516 0.011905
-0.290356 -0.190662
0.257245 0.343443
0.368728 0.248563
0.422690 -0.081002
-0.300848 -0.134561
0.141575 0.003125
0.000300 -0.206908
0.076934 0.149971
-0.079779 -0.314099
0.087604 -0.122940
0.108859 0.259049
0.244879 -0.031641
0.127491 0.180664
0.249878 -0.033662
0.245725 -0.042554
-0.028924 0.168591
0.054175 0.037534
0.307355 -0.297733
-0.146870 -0.174352
0.090354 0.118061
0.239578 -0.193909
0.367113 -0.188792
-0.050889 0.231990
-0.432392 0.103181
-0.038410 0.056939
0.280393 -0.110911
0.129463 -0.235063
0.430165 0.148120
0.276409 -0.191039
0.007308 0.071187
0.346518 -0.048974
-0.431585 -0.312504
0.083509 0.139840
-0.164918 -0.321283
0.174963 0.299581
-0.307448 -0.010752
-0.226575 0.134635
-0.046359 -0.279277
-0.593723 0.009409
-0.572254 -0.466405
0.043756 0.028812
0.063284 0.104854
0.333348 -0.306210
-0.338260 0.029882
-0.084984 -0.242715
-0.295029 -0.749128
-0.096447 0.235112
0.042543 0.090459
-0.116964 0.034815
-0.312422 0.138530
0.044507 0.333651
0.146577 0.295478
0.078850 0.062793
0.152148 0.535019
0.079576 0.726983
-0.712876 -0.189008
0.221823 0.027181
-0.040157 0.028050
-0.058007 0.075022
-0.129416 -0.142268
-0.233985 0.108874
-0.245799 -0.172191
-0.194653 -0.138425
-0.042978 0.149203
-0.064804 0.469976
-0.079446 0.122226
0.077189 0.207810
0.146407 -0.072271
-0.027192 -0.006600
0.173320 0.108749
0.174305 -0.081925
0.415068 0.129204
0.071057 -0.578892
0.054169 -0.265686
0.053938 -0.218825
-0.398454 0.203248
-0.069320 -0.615391
-0.248105 -0.440713
-0.128366 -0.294980
-0.236614 -0.322133
-0.246652 0.285253
0.424835 -0.017348
0.091029 0.277188
-0.014470 -0.133248
-0.280896 0.324403
-0.407582 0.226971
0.196040 0.267954
-0.041545 0.575465
0.392954 -0.541510
0.298270 0.188876
0.100094 0.273981
0.224321 0.460255
-0.003852 -0.279909
-0.091566 -0.046311
-0.124452 -0.006245
-0.246639 -0.358424
0.082734 0.051282
0.430893 0.256239
0.509620 -0.124540
-0.050806 0.050418
-0.073377 -0.189000
-0.093953 -0.112168
-0.379745 -0.135978
-0.054603 0.475691
0.063097 -0.095861
0.091431 -0.180436
-0.015381 0.330001
-0.189182 -0.187566
-0.116321 0.202162
0.463745 -0.030462
-0.158641 -0.080797
-0.327819 -0.378536
0.134327 -0.123246
-0.100918 0.241350
0.069207 0.087463
0.275337 -0.053779
-0.163874 -0.008541
-0.265189 -0.104525
0.342506 0.515183
-0.053664 0.340679
0.356447 -0.224976
-0.302746 -0.048569
-0.217904 -0.057935
-0.005464 0.097765
0.039326 -0.169270
0.110078 -0.238841
-0.445842 0.270400
-0.051787 -0.244500
0.004589 -0.037200
-0.077133 0.090267
0.157133 -0.069622
0.091743 -0.385102
-0.096216 0.084515
0.092122 -0.356109
0.157902 0.147725
0.287300 0.490194
0.039195 -0.205447
0.107548 0.136302
-0.488097 -0.058331
0.420171 0.011949
-0.317014 -0.131992
0.034776 -0.116994
0.066399 0.196638
-0.165567 0.017478
-0.026777 0.174032
-0.030165 -0.114308
0.052881 0.198659
-0.075229 -0.129637
-0.269062 -0.386948
0.163523 0.059254
0.293979 0.050732
0.074894 0.005730
0.020753 0.049664
-0.183438 0.060442
-0.134444 -0.187857
-0.272080 0.117218
0.224618 0.187519
0.181072 -0.193492
0.434791 0.172795
-0.456811 -0.467452
-0.427630 -0.027287
0.041883 -0.148855
0.331511 0.351599
-0.145496 -0.183439
0.124354 -0.292549
0.025727 0.280989
0.002598 -0.012752
0.462723 -0.496798
-0.195241 -0.067154
-0.101307 -0.044789
0.045239 0.100535
-0.373175 0.057633
-0.116244 0.243701
0.298886 -0.050336
-0.262390 0.276102
-0.268415 -0.147146
-0.008109 0.151377
-0.097161 -0.043024
0.156163 0.184337
-0.012416 0.037501
0.237625 -0.110066
0.011705 -0.056190
-0.181031 -0.080438
0.078442 -0.147176
0.102429 -0.037139
0.095635 -0.147604
0.119470 -0.063640
0.288840 -0.161785
0.094615 0.038525
0.140437 0.010361
-0.382446 -0.061657
-0.135389 0.025721
-0.154518 -0.043351
0.103224 -0.030186
0.132164 0.098190
0.184693 0.157851
0.012676 0.177723
-0.156143 -0.165947
0.302059 -0.201113
-0.555675 -0.123985
0.075744 0.243665
-0.026304 0.306914
0.420919 -0.062491
-0.095561 -0.179613
0.089600 -0.402887
-0.421462 0.176672
0.081814 0.021043
0.007659 0.089575
-0.321216 0.118757
-0.042152 -0.296316
0.197773 0.318602
-0.518344 -0.193225
0.106363 0.250043
-0.154755 0.056735
0.002969 0.251919
0.104077 0.035133
0.282225 0.053588
0.111902 -0.266590
0.212971 0.037244
0.031450 0.179927
0.246897 -0.194142
-0.408403 -0.175826
-0.047750 0.056871
0.011488 0.068951
0.135860 0.001884
0.289039 -0.011290
0.119711 -0.066044
-0.336101 0.125051
-0.000660 0.111448
0.276147 -0.113591
0.016073 -0.039793
-0.025871 -0.174568
-0.160633 -0.223675
-0.360259 -0.002130
0.118833 0.320413
-0.055024 0.209392
0.186173 -0.493825
-0.262960 0.076026
-0.258903 0.219623
0.033118 0.072310
0.256450 -0.187190
-0.721063 0.423668
0.218364 0.003451
0.040755 0.032784
0.079419 -0.313778
0.268337 -0.059465
-0.129768 0.122752
-0.141948 -0.256839
-0.131515 0.423861
0.050410 -0.296117
0.144772 -0.406054
0.014287 0.209253
0.232440 -0.042168
0.121410 0.295041
0.027447 -0.072029
0.146436 -0.168364
0.154100 0.027336
-0.156649 -0.076158
0.345624 0.208067
0.450262 0.224512
-0.152244 -0.589850
0.107528 0.514302
-0.294389 -0.060029
0.421753 0.295392
-0.008246 0.050174
-0.135688 -0.133249
0.421205 -0.304214
0.018031 0.136558
-0.237384 -0.040292
0.369402 0.452690
0.329127 -0.165354
-0.115721 -0.280752
-0.121308 0.065929
0.292299 -0.107431
0.506057 0.069558
0.023167 -0.273190
-0.157243 0.112589
-0.060910 0.162418
0.186890 -0.307629
-0.169107 -0.123712
-0.197271 0.087940
0.466666 0.265286
-0.144020 0.075536
-0.343719 0.091863
-0.193455 0.097154
0.039369 -0.115408
0.039132 -0.478329
0.040413 -0.320006
-0.437096 0.141664
0.000898 -0.112012
-0.180893 0.079248
-0.138598 0.136571
0.028239 -0.013797
0.074235 -0.016132
-0.165212 -0.009081
0.100812 -0.180035
0.123574 -0.046793
-0.146019 0.050942
0.492039 0.074633
-0.131765 0.215672
-0.144455 -0.156708
-0.072855 -0.107616
0.177848 0.235287
-0.108134 0.028081
0.182172 -0.069225
-0.295022 0.000439
0.061900 -0.247498
-0.144794 -0.356990
0.035979 -0.241109
0.060400 0.473202
-0.464568 -0.073789
0.013406 0.434119
-0.245246 0.254168
0.318377 -0.250894
-0.064557 0.100742
0.003825 -0.227480
-0.051637 0.464272
0.065887 0.050302
0.051852 0.104659
0.315438 -0.027554
-0.085718 0.329065
0.093704 -0.113890
-0.051293 0.082815
0.374764 -0.060220
-0.177636 0.034522
-0.092306 -0.311363
0.341373 0.154193
-0.264128 -0.194706
0.313145 0.150014
0.152074 0.027217
0.133365 0.028548
-0.017294 0.198311
0.095230 0.037979
-0.078819 -0.092039
0.083860 -0.371108
-0.023135 0.032059
-0.159567 -0.235334
0.202856 0.028004
0.069498 0.157899
0.174980 0.309796
0.153657 0.199659
-0.365217 -0.202435
-0.084380 0.009802
0.237636 0.593134
0.254394 -0.281647
0.533516 -0.016867
-0.160015 0.118451
-0.247170 0.047883
0.251652 0.278528
0.020835 0.206644
-0.117520 0.206833
0.206974 0.215605
-0.344484 -0.034823
-0.111698 -0.144957
0.135117 0.077296
0.027075 -0.026288
0.015711 0.177308
0.029135 0.252614
0.216606 -0.103430
-0.142652 -0.008579
0.118467 0.066951
-0.078540 -0.200605
-0.063704 0.083790
-0.080806 -0.100270
-0.103685 0.319785
0.243847 0.042496
0.025062 0.300010
-0.018186 -0.075990
0.074396 0.161632
-0.274872 0.121036
0.252237 -0.063320
0.158181 0.306108
-0.096848 -0.235458
0.105888 -0.219388
0.141431 -0.181312
-0.269081 -0.122277
0.094458 0.156140
0.230893 0.293713
0.367901 -0.029564
-0.272237 -0.150991
0.170293 0.153731
0.079020 0.110748
-0.064752 -0.300054
0.429483 0.207997
-0.062245 -0.106337
-0.209788 0.004698
0.166892 0.303804
-0.338034 0.033783
-0.050457 0.295250
-0.123624 0.205012
0.187645 0.068145
0.111611 -0.048311
-0.415902 -0.216250
0.135296 0.241134
0.289511 0.252262
0.025211 -0.091977
-0.269828 0.195149
0.079421 0.571695
-0.083413 -0.150433
0.394533 0.252812
-0.084551 0.027804
0.058836 -0.280384
0.338129 0.118484
-0.083247 0.227897
0.250266 -0.225433
0.198188 0.342619
-0.125627 0.195948
0.036106 -0.514173
-0.280094 0.410409
0.224437 -0.166373
0.002575 0.071634
-0.222070 -0.114624
0.059246 0.265093
0.056523 0.096483
0.183098 0.155226
-0.103082 0.480709
-0.090606 0.764168
0.109247 -0.552111
-0.392076 0.036617
-0.251824 0.063411
0.138326 -0.094845
0.057692 0.577497
-0.176177 0.231406
0.116271 -0.132537
0.298998 0.396215
0.112004 -0.029644
-0.065526 -0.457713
-0.723592 0.605957
0.099664 0.109225
-0.203130 -0.392687
0.091522 0.017721
0.270017 0.319763
-0.034932 -0.064322
0.162871 0.684301
0.234436 0.545840
-0.120996 0.176149
0.050588 -0.231814
-0.210678 0.205552
-0.173656 -0.166980
0.464345 0.715660
0.778587 -0.010341
-0.653392 0.426108
-0.131235 -0.003059
0.359579 0.604944
-0.349712 0.315989
0.272567 0.261424
-0.353242 0.680326
-0.613617 0.709103
-0.518046 -0.547185
0.313119 0.019712
-0.702331 0.612850
1.086389 0.572979
-0.620517 -0.087579
-0.463479 0.603617
-0.434499 0.409567
0.046577 -0.029202
-0.151683 0.351909
0.070578 -0.545735
-0.764635 0.280560
0.488070 0.554474
-0.454334 0.319462
0.286409 0.255053
0.024542 1.386541
-0.594758 -0.479673
-0.501693 0.240420
0.862723 1.292330
-1.215820 0.576904
-0.573171 -0.615204
0.567285 0.737225
-1.484878 -0.091565
0.584926 1.057100
0.867428 -0.382288
-1.607599 1.169859
-1.022872 0.418990
0.928136 0.520899
-0.831935 0.117901
-0.464529 0.559113
-0.008528 0.077726
-0.376870 0.972924
-0.549241 0.165340
0.839895 -0.587515
-1.237720 3.308044
1.015863 0.707882
-1.489963 -1.838439
-0.920949 1.425676
-1.384805 2.060435
0.475935 -0.694666
0.611154 1.670599
-1.367857 -1.189975
-1.783603 0.366874
1.491600 2.504050
0.356227 3.046581
-2.040829 -1.938049
-0.020408 3.410211
-1.624190 -1.199656
-2.777288 0.736657
1.935510 2.189379
0.366417 1.629882
-4.303288 -0.491151
3.518617 1.522026
-3.031475 2.116140
-0.754362 4.658041
-1.136353 -0.898075
-2.026021 2.225469
-7.484662 1.270673
6.972021 -1.053159
-3.772428 0.885734
-3.038337 6.015543
1.034484 -0.500516
0.690334 1.105915
-7.209894 9.097573
0.048458 -2.860670
-7.311650 14.366375
3.584259 0.467456
-14.744706 -12.853582
-3.484367 3.234656
-0.134665 28.136800
9.554732 -10.464952
-4.584814 2.316210
-14.646243 8.192309
-30.543876 12.192295
12.250365 25.201133
16.021916 22.735192
-63.774618 -50.503334
-15.518781 37.645307
20.853409 5.540506
-38.897723 55.563738
27.574722 0.279061
-11.186459 83.344879
-297.955246 108.737432
66.179127 55.396057
143.631929 -13.800680
-1589.840202 386.593358
595.505187 491.351458
