13452.841009 14985.212365
-2947.613555 -4264.647053
-441.304812 -270.097057
-187.819514 -7.638667
-129.629187 -2.170824
940.483133 166.813903
-1641.586567 435.245824
-571.035762 473.825115
-135.958224 242.287603
13.326153 52.909620
34.384655 155.152775
-61.423875 -174.653190
-106.317876 -98.154469
-81.123524 -36.911661
27.505891 -40.759239
-46.470100 63.141242
0.433284 2.799094
-2.626116 -45.787552
-65.586903 -10.269745
18.313162 -115.258203
-38.952743 54.228104
1.047915 49.491884
-11.651029 -5.678603
-55.525195 -22.136318
-21.679017 -12.885276
-47.302382 8.011518
-17.237793 22.947951
2.901292 20.340294
-10.623570 -42.744647
9.113424 -13.153794
2.808280 -7.937693
-15.837917 -11.595566
-4.164010 27.158216
-18.640308 -19.908293
0.268438 -6.740818
12.976999 -14.667103
-3.880959 -19.814533
-13.696330 5.389256
-10.323143 -4.209893
-6.719370 5.103079
0.025271 -6.192453
9.856986 -6.599700
-24.407594 0.536965
-10.236421 2.193239
6.217472 -4.518253
-1.699178 -3.284663
13.520408 -1.730649
-4.323635 -3.131407
-7.198664 0.425679
-2.329361 -2.790216
-6.490494 -4.136179
7.281740 -1.001240
2.019156 -6.826120
4.773366 -2.622733
-5.310433 -5.332917
-1.461459 -11.841993
-2.950796 6.513549
2.184754 9.429115
-0.654256 -5.288145
-4.456854 0.257995
-0.876269 -2.060281
-0.637211 0.619178
1.223426 3.815915
3.260929 -1.524942
-1.378308 1.760880
-0.907985 -4.156063
-5.645316 -1.648089
1.992747 -2.022725
2.279129 3.256239
-1.474696 -2.566397
3.044992 -1.599972
8.525969 -3.215783
-2.323443 -2.793714
-4.465400 1.494277
-1.603375 3.339071
-2.009013 2.556715
-0.505478 2.619435
-2.419768 -1.547387
0.361654 1.576047
-0.928605 0.216385
-1.291934 4.822837
-0.191867 -1.793573
1.152876 -2.074222
-0.953228 -1.045028
-2.434393 1.770916
1.368140 -3.871145
0.919828 1.345321
1.183537 2.887284
3.529788 0.125775
1.241513 -1.786896
-0.891297 -0.370171
-4.675347 1.445181
-3.572180 1.571884
-4.030318 -0.233790
0.533856 2.782559
-1.604787 0.226323
-1.644227 0.689840
-0.765954 -0.514158
1.961210 2.195342
-1.727207 -2.097729
0.135485 -2.246795
0.656471 0.951871
0.868346 -0.547673
-1.410896 -0.274501
-0.356341 -0.486151
1.218428 2.014852
0.843980 1.112423
-2.864549 0.671698
-0.964817 -1.579466
-4.356308 -2.122975
-2.353470 0.548654
-3.309933 0.537107
0.493113 -0.108070
-0.701329 1.341910
-1.716060 -0.285970
1.470325 -0.264345
1.569191 -0.874418
0.279016 -0.484158
-0.694596 0.095255
0.198297 -1.413158
-0.122111 -1.502129
-0.610388 1.882409
0.008203 0.214272
-2.416345 1.545961
-0.241395 -0.637184
-1.364631 -0.457951
-1.965405 -2.144309
-0.193489 -1.070187
-1.776554 0.308462
-0.403517 -0.557158
-0.552388 -1.600638
-0.182722 -0.086368
0.826865 1.637901
1.128480 0.743468
-0.006576 -1.456813
0.514375 -0.819269
-0.552830 -2.576018
-0.629920 1.716584
-0.339189 0.230401
-0.224421 0.358530
-1.223159 0.119261
-0.744417 -1.446513
0.165262 -0.409618
-0.411889 -0.244863
-0.334044 -1.243526
-0.604756 -0.835829
0.846068 -0.856411
0.984044 -0.690952
-1.039523 0.068677
0.068257 1.163165
-1.486528 -0.099379
1.403771 0.955779
0.921438 -0.621491
0.026445 -0.750360
-0.368963 0.844761
-1.486517 -0.085412
-0.371524 0.201516
0.327748 -0.161643
0.000239 -0.509393
0.021105 -0.345209
0.016155 -0.489834
0.100901 -1.095089
-0.179274 0.023690
1.225517 -0.458268
-0.109549 0.488221
-0.245353 -0.325958
-0.612391 -0.581516
-1.146400 0.781352
0.711496 0.694009
0.577515 0.522460
0.264057 -0.392405
-0.135524 -0.334380
-0.511586 -0.271565
-0.400189 0.573351
0.528073 -0.016401
0.075818 -0.297162
-0.132156 0.193686
-0.543629 -0.954468
0.413554 0.059099
0.203928 0.080712
-0.615332 -0.159061
-0.175009 0.829377
0.126518 -0.414365
-0.440476 -0.065870
-0.556910 0.253351
-0.478097 0.311522
-0.016152 0.242322
0.211794 0.637364
0.304795 -0.355530
-0.251223 -0.397321
-0.310530 -0.046706
-1.251262 0.611380
-0.887144 0.044608
0.380088 -0.197327
-0.272871 0.223573
0.245816 -0.214328
-0.513345 -0.287476
-1.048132 0.657839
-0.350556 0.618931
0.320432 0.675875
0.113808 -0.637987
-0.092178 -0.513916
-0.728290 -0.158403
-1.092923 0.111555
0.176147 -0.143437
0.241784 0.036090
0.176543 -0.039658
-0.890473 -0.933304
-0.915865 0.375630
-0.305941 0.279360
-0.383457 0.130053
0.063972 0.100830
0.413978 -0.462357
0.171559 -0.500329
-1.179493 0.138458
-0.667991 0.184195
0.038107 0.253467
0.312297 0.015853
0.070872 -0.325004
-0.211268 -0.743013
-0.024118 -0.013270
-0.539393 0.314078
0.283151 0.049322
0.322794 -0.218008
-0.281619 0.176943
-0.750105 -0.057290
-1.101451 0.198629
-0.036695 -0.085409
0.315151 -0.137424
0.095414 -0.213578
-0.095748 -0.546769
-0.184801 -0.310528
-0.183443 -0.065408
-0.208613 0.384645
0.098819 -0.157132
0.036196 0.120566
0.156970 0.437873
-0.297669 -0.833293
0.271919 0.194071
0.006479 0.207576
-0.117004 0.770876
-0.227852 -0.695205
-0.382742 -0.360639
-0.199723 -0.318485
-0.149398 -0.152178
-0.636770 0.058265
0.061457 -0.359788
0.530380 0.009833
-0.071959 -0.059603
0.309810 -0.363509
0.004238 -0.092432
-0.893990 0.046513
0.069603 0.573111
-0.053080 0.199734
0.743626 0.196710
-0.178381 -0.282803
-0.404600 -0.092383
-0.220704 -0.000385
0.019171 -0.338311
-0.223581 -0.148623
0.003432 -0.646493
-0.565351 -0.342766
-0.051025 0.196373
-0.477321 0.150901
0.579722 0.147433
0.044094 0.796765
0.530405 0.130831
-0.390788 0.326539
0.004594 -0.202357
-0.160820 -0.133562
0.067382 0.315283
0.105999 0.169566
-0.329599 -0.195592
-0.084661 0.025868
-0.184517 -0.103422
-0.011763 0.035880
0.411536 -0.265038
-0.222177 -0.094302
-0.332584 -0.555147
0.445037 0.390069
0.361604 -0.105880
-0.053910 0.573872
0.082122 -0.061282
-0.497328 0.165221
-0.103737 0.138087
0.204279 -0.294417
-0.334802 -0.044153
-0.219882 0.222627
-0.022826 -0.294080
-0.003718 0.191049
-0.111894 0.352069
0.301316 -0.188872
-0.167400 0.297122
0.246854 -0.128079
0.403164 -0.219235
-0.034397 -0.109913
0.180955 -0.232428
-0.163290 -0.171377
-0.058906 0.023047
-0.228996 0.006185
-0.399628 -0.003355
0.041987 -0.036014
-0.367034 0.253501
-0.205383 -0.148062
-0.008329 -0.105935
-0.326920 0.223599
-0.290503 0.013130
0.239370 -0.319539
-0.078005 0.040013
0.142371 0.121000
0.086731 -0.046250
-0.208813 -0.075639
0.115219 -0.113391
-0.289240 -0.243236
-0.231801 0.156829
-0.363960 -0.342600
-0.027954 0.087408
-0.288779 -0.105972
-0.359179 0.067912
-0.242336 0.191072
-0.139498 0.114177
0.355925 0.100314
0.065135 -0.262100
0.242288 -0.279947
-0.164360 -0.113386
-0.187134 0.225573
-0.022740 0.142949
0.146584 0.254444
0.444304 -0.267709
0.102099 0.055515
0.024406 -0.190070
-0.345173 0.867090
-0.048524 -0.275715
-0.008553 0.323401
0.153781 0.009482
-0.003290 -0.432707
0.176262 0.114223
0.097811 -0.115358
-0.146304 -0.419743
0.546787 0.202087
-0.264515 0.178689
-0.041032 -0.287645
-0.070626 -0.127865
0.017900 0.147044
-0.485461 -0.250370
0.083434 0.328088
-0.009462 0.257071
-0.161994 0.278470
-0.310484 0.000547
-0.544514 -0.060039
-0.204996 0.117517
-0.185916 -0.061930
-0.276014 -0.024856
0.148430 0.112525
0.127297 -0.086593
0.261142 0.458281
-0.395023 -0.016041
0.287658 0.029545
-0.022333 -0.088379
-0.145866 -0.164947
-0.016213 0.101793
-0.104901 -0.393323
0.285470 0.534227
-0.599413 -0.298520
-0.259910 0.042556
0.206553 0.030745
-0.257981 -0.237971
-0.105865 -0.026315
-0.224096 0.280525
0.344916 0.644174
-0.322345 0.106777
0.572509 -0.280007
0.046550 -0.252135
-0.536678 0.077103
-0.013814 0.086257
-0.178209 -0.088198
0.103369 -0.132175
-0.390923 -0.078927
-0.016383 -0.043446
-0.208282 -0.354890
0.037862 0.159591
-0.085631 0.180241
0.022648 0.399427
-0.103313 -0.080990
-0.362474 0.198565
-0.166180 -0.204458
-0.269016 -0.008154
-0.039389 0.154708
0.071225 -0.010117
-0.255695 0.086573
-0.329820 0.004030
0.452592 -0.148623
-0.221070 -0.112202
0.028380 -0.539325
0.457220 0.009875
-0.168843 0.279572
0.344207 0.082741
-0.036528 -0.017043
0.045991 -0.196056
0.138309 -0.360103
-0.539852 -0.119387
-0.349422 0.327870
-0.277990 -0.252197
-0.303286 -0.147504
-0.573253 0.223443
-0.235458 -0.314499
-0.007071 0.136339
0.473928 -0.218832
-0.021403 -0.051584
0.062578 -0.109443
-0.033064 -0.151376
0.000170 -0.053207
0.403972 0.212742
0.030365 0.014585
-0.004714 0.052896
0.008560 0.465697
-0.114967 -0.389011
-0.215245 0.076525
0.217115 0.146423
0.178324 -0.440121
-0.123353 -0.218374
-0.129817 0.258422
-0.182345 -0.215010
-0.183675 -0.410516
-0.006805 -0.144806
0.095877 -0.189109
0.319970 0.051393
-0.005349 0.055385
0.012631 -0.153901
0.184106 -0.490854
-0.297495 0.399979
0.088544 0.471805
0.368796 -0.315902
0.287413 0.077923
-0.036971 -0.277298
-0.012334 -0.368862
-0.034478 -0.068139
-0.494745 -0.278333
-0.258681 -0.037016
-0.430654 -0.191907
0.078743 0.467053
-0.149649 -0.278237
0.169020 0.093659
0.011208 0.073837
-0.254244 0.100909
0.388639 -0.131086
-0.102266 -0.335159
0.213359 0.140907
0.124238 -0.218831
-0.480559 -0.043767
-0.045320 0.248029
-0.088941 -0.133958
-0.076220 -0.300447
0.217882 0.340608
0.174224 0.107349
0.176068 -0.207342
-0.161803 0.101938
-0.065066 -0.038220
0.359246 -0.076811
-0.279414 0.043028
0.101585 0.059801
-0.076448 -0.182723
0.202652 -0.252609
0.087717 -0.065168
0.079592 0.022372
0.223940 -0.351860
-0.478315 0.241090
-0.060838 0.156172
-0.001850 0.129906
-0.104062 0.247920
-0.159974 0.026949
-0.664048 0.200963
0.150091 -0.284672
-0.295818 0.406477
-0.216715 0.418522
-0.321439 -0.265009
0.073270 -0.288705
0.001945 -0.018250
0.087985 -0.022210
0.598733 -0.151701
-0.067915 0.007436
0.222109 -0.229676
-0.051812 -0.009365
0.118360 -0.159011
-0.375092 -0.037583
-0.441180 0.002532
-0.083245 0.006643
-0.370432 0.137995
0.053300 -0.250747
-0.006676 0.140715
-0.281348 -0.348543
0.149960 -0.327002
-0.131179 0.042704
-0.047126 -0.104167
0.129719 -0.084437
-0.063050 0.150095
0.012496 0.074495
-0.139431 -0.248314
-0.240202 -0.180572
0.285166 0.044472
0.186705 0.284115
-0.027498 -0.087810
-0.325319 -0.165343
0.023570 0.063059
0.273890 -0.137844
-0.270542 -0.017039
0.000819 -0.349928
-0.054817 -0.129192
-0.215598 -0.184522
-0.115453 0.241836
-0.136201 0.457124
-0.302648 -0.180610
0.065864 0.347053
-0.015561 0.119252
-0.090811 -0.108544
-0.182134 -0.119171
-0.018355 -0.239455
-0.219782 -0.016159
-0.090193 -0.112192
0.064802 0.049968
-0.266700 -0.082276
0.144028 0.072061
0.161615 -0.071589
0.157859 -0.003515
-0.051215 -0.210452
0.189592 -0.070964
0.369930 0.150195
-0.092442 0.004275
-0.341412 -0.104866
-0.259177 -0.346795
0.128073 0.206186
0.020508 0.133786
-0.231645 -0.323220
-0.143235 0.279162
-0.163732 -0.013340
0.275855 -0.239599
-0.070725 -0.237663
0.166899 -0.400931
-0.347293 0.060945
-0.263715 0.233691
0.154794 0.030323
-0.093553 -0.005048
0.238752 -0.257143
0.031622 -0.006267
-0.020324 -0.007200
-0.058284 0.205914
0.022881 -0.110461
0.131074 0.136364
0.067351 0.249797
0.258488 -0.398558
0.032907 0.027051
0.137948 -0.030465
-0.264953 -0.272594
-0.208621 -0.308669
0.304807 -0.009494
-0.099726 -0.099872
0.364018 -0.504967
-0.121561 -0.024684
0.168983 -0.306923
0.000866 -0.611294
-0.045290 0.086275
-0.143512 0.475833
-0.312996 -0.042461
-0.181181 0.509720
-0.177957 0.341240
-0.085430 0.168675
0.190788 0.405961
0.227109 -0.076118
0.031426 -0.368426
-0.116574 0.042650
0.014731 0.148208
-0.008682 -0.207141
-0.218785 -0.115464
0.075632 -0.210874
-0.082807 -0.217236
0.151062 0.252564
-0.436002 0.025694
0.045994 -0.077737
0.245630 0.048334
-0.175115 -0.402447
0.332406 -0.208498
0.094033 0.118680
-0.636976 0.286394
0.027507 -0.084256
0.375235 -0.102308
-0.180651 0.046641
-0.307603 0.013457
0.261576 -0.109089
-0.002073 0.193154
-0.162142 -0.114001
0.000754 0.031867
-0.337563 0.194793
-0.369733 -0.155053
-0.060077 -0.171497
0.330923 0.091936
0.223040 -0.258317
-0.079174 -0.022178
0.049167 -0.036235
0.351467 0.131586
0.012454 -0.021163
0.227786 0.046784
0.236700 0.010074
0.062905 0.070095
0.035473 -0.244250
-0.317708 -0.238368
-0.063521 -0.158089
-0.159676 0.324354
-0.347984 -0.035115
0.044441 0.175899
0.049935 0.054596
0.101399 -0.028991
-0.357779 -0.047058
-0.216300 0.012475
-0.349586 0.043427
-0.473766 -0.061868
0.205725 -0.077093
-0.176944 -0.278429
-0.087421 -0.247413
0.193529 -0.028891
-0.065629 0.160234
0.023183 0.121794
0.131672 -0.201340
0.107726 -0.423862
0.332036 0.451975
0.135877 -0.031306
0.075197 -0.196965
0.099647 -0.026786
-0.322934 0.344590
-0.301688 0.354569
-0.220584 -0.142904
-0.107807 0.074939
0.256043 -0.242509
0.256055 0.072143
-0.306744 -0.030612
-0.293065 -0.010844
-0.110871 -0.576177
-0.020454 0.039849
-0.081306 0.153502
-0.079970 0.118730
0.115351 0.351992
-0.255829 0.005992
-0.195087 -0.020920
-0.138550 -0.405124
0.429447 -0.340833
0.218334 0.354370
-0.192584 0.192698
0.280667 -0.013212
0.008163 -0.073505
0.073730 0.327316
0.136644 0.050096
0.026588 0.135783
-0.130639 0.126274
-0.404602 0.122431
0.107680 0.076638
0.029169 -0.354577
-0.241646 -0.591764
0.154252 0.133268
-0.042012 -0.333853
0.147487 0.407821
-0.174700 -0.266893
0.336798 0.081429
0.155605 0.244515
-0.156974 -0.647471
-0.039151 -0.294342
-0.307229 0.316358
0.243278 -0.517698
-0.247935 0.371101
-0.216016 -0.236786
0.040308 0.480068
0.047779 0.203138
-0.085594 0.023546
0.165670 0.177644
0.657838 -0.456467
-0.120367 0.343559
-0.006949 0.433719
-0.103558 0.278175
0.020196 -0.031963
-0.391184 -0.070390
0.105002 0.109055
0.312903 -0.197333
0.275146 -0.001024
-0.003968 0.113914
-0.305497 0.373456
0.143720 0.191985
0.107846 -0.574173
0.315129 -0.057194
0.011436 0.024293
-0.324084 -0.089062
-0.330070 0.207116
0.472874 -0.229744
0.163188 0.165070
-0.108128 -0.124937
-0.035740 0.082657
0.403245 0.038737
0.118073 -0.240558
-0.042292 0.086673
-0.030764 0.085309
-0.440448 0.048602
-0.497637 -0.133400
-0.035732 0.068056
-0.143808 0.325355
-0.323584 0.143756
-0.031670 -0.105173
0.171506 -0.238764
-0.036146 -0.078631
0.211205 0.056255
0.057787 0.102340
-0.223088 0.146598
0.036029 0.258475
0.216474 -0.299529
0.303780 -0.245838
-0.306331 -0.066874
-0.106434 -0.204045
-0.062436 0.042176
-0.203536 -0.127869
0.005835 0.232685
-0.153257 -0.145482
0.139239 0.027685
0.060510 0.518193
-0.040971 0.314956
0.043465 0.162131
0.051714 -0.102802
-0.276785 0.403112
-0.314892 0.222698
0.197205 -0.419421
0.071477 0.022568
0.299689 0.130451
-0.142375 -0.232680
-0.039717 0.062479
0.054778 -0.161699
-0.214704 0.087620
-0.199177 0.217114
-0.018085 0.118609
0.117218 -0.520233
-0.018352 -0.355214
0.070803 0.042174
-0.164680 -0.578170
-0.338431 -0.123913
-0.131335 -0.314171
0.384862 0.187089
0.437080 0.211375
-0.168949 -0.254603
0.246628 0.320592
-0.226083 -0.206545
-0.274382 -0.266290
-0.151540 -0.017251
0.148076 0.048093
0.109085 0.388066
-0.430807 -0.132518
0.186212 -0.136734
0.304095 0.378231
-0.165763 0.000812
-0.521099 -0.081885
-0.158277 -0.083278
0.194287 0.130432
-0.539392 -0.408151
-0.498548 -0.051999
-0.082463 0.325350
0.225525 -0.263837
-0.276514 0.145776
0.139565 0.083980
0.262179 -0.171061
0.078725 0.004160
-0.055020 0.181746
-0.161043 -0.286374
0.002766 -0.082422
-0.199034 -0.116370
0.005648 -0.342112
0.226636 -0.528969
0.404857 0.512658
0.181869 0.039105
0.201715 -0.106665
-0.145648 0.055806
0.223598 -0.238718
-0.086438 -0.274149
-0.041130 -0.092456
-0.212439 -0.233176
0.110809 -0.051791
-0.164793 -0.043855
-0.226756 -0.095424
0.077961 0.474104
-0.003518 0.240811
0.400169 -0.298016
0.011864 -0.017568
-0.484313 0.141528
-0.045139 0.220347
0.133788 0.340655
-0.455462 0.041428
0.144840 0.133347
-0.047311 -0.413825
0.216931 0.029838
0.217060 -0.415614
0.420207 -0.313285
0.251470 -0.020918
-0.140275 0.207045
-0.012804 0.534179
0.431329 0.062612
0.290603 -0.113789
0.245827 -0.267210
-0.165543 0.452864
-0.010401 -0.187683
0.341705 -0.643507
0.168052 0.288750
-0.416543 0.238434
-0.303973 -0.102650
0.321028 0.155889
-0.179817 -0.122841
-0.102074 0.085263
0.080288 -0.097185
-0.235230 -0.254928
-0.045660 0.060977
-0.057519 -0.264701
-0.167770 -0.097981
-0.302908 -0.254491
0.000268 0.054933
0.206958 0.332844
0.097284 -0.018741
-0.246200 -0.221276
-0.017938 -0.013970
-0.142654 -0.578485
0.325546 -0.200467
-0.040400 0.096720
0.201621 0.064047
0.197049 0.400025
0.243468 0.053692
0.155608 0.044490
-0.246348 0.400414
-0.073324 0.034499
0.010888 -0.266585
0.152693 0.033395
0.340903 0.500550
0.240550 -0.190021
-0.012588 -0.209300
0.114244 -0.066867
0.235265 0.315909
0.128046 0.299209
0.033307 -0.028724
-0.573477 -0.235358
-0.133503 -0.105362
-0.257844 0.179954
0.169630 -0.168426
0.143648 -0.267923
-0.184774 0.122794
-0.285595 0.019257
0.160688 -0.349289
0.226724 -0.093878
-0.017759 0.261096
0.068716 -0.454126
0.088064 0.129253
-0.080286 -0.235050
0.122868 0.163788
-0.243566 -0.428250
-0.286273 -0.100623
0.237350 0.295270
0.438215 0.154808
0.012581 0.004491
-0.012059 0.308991
-0.044221 0.031347
-0.473016 -0.209565
-0.003312 0.091582
-0.073225 -0.397942
-0.172992 0.124526
-0.000566 0.214990
0.045687 0.101277
0.268638 -0.117061
-0.054149 0.128179
-0.033360 0.072259
0.099058 -0.678688
-0.194778 -0.059830
-0.133933 -0.230257
0.127436 0.153222
-0.147528 0.043325
-0.024776 -0.006993
-0.037435 -0.262382
0.336663 -0.064783
-0.040159 -0.421361
-0.126819 0.000686
-0.627108 -0.259225
-0.127746 0.078289
0.029961 -0.308251
0.048635 0.200177
-0.027248 -0.038739
0.021960 -0.316806
0.142699 -0.055255
0.307478 -0.354420
-0.065776 -0.390469
-0.264677 0.342875
0.172842 0.017878
-0.241893 -0.050530
-0.116188 0.322647
-0.228120 0.112663
0.419726 -0.264272
0.129222 0.064852
0.204971 0.281609
-0.223204 0.245700
-0.452012 -0.075997
-0.176680 -0.015016
-0.139831 -0.149175
0.013918 -0.359585
0.295937 -0.030481
0.107110 0.160473
0.039449 0.133449
0.228755 0.103669
-0.325036 -0.141387
0.233094 0.275991
-0.266778 -0.098397
-0.105499 0.050740
-0.249561 -0.351586
-0.215856 -0.166182
0.042175 -0.316531
0.356851 -0.157419
0.108380 -0.071193
-0.214305 -0.433206
-0.101383 0.179768
0.512543 -0.278285
0.074427 0.078222
-0.114213 -0.028243
-0.131727 -0.309843
0.421746 -0.272753
0.250825 0.319382
-0.215919 -0.066561
-0.099701 -0.056830
-0.089515 -0.136010
0.267222 -0.183374
-0.242869 0.495902
0.108610 0.060408
0.065774 -0.114834
-0.057998 0.011741
0.018327 0.097838
0.214363 -0.162603
0.290467 0.183107
-0.009483 -0.006143
-0.185541 0.242728
-0.064421 0.210247
0.369733 0.208144
0.059202 -0.111366
-0.427203 0.225963
-0.031788 -0.072910
-0.241473 0.040680
-0.123248 -0.249616
0.209425 -0.115411
0.012281 0.058041
0.312294 0.075057
0.115856 0.022395
-0.403352 -0.354015
0.260370 -0.148370
-0.015203 0.009411
0.034060 -0.592289
0.318206 -0.035065
-0.016301 0.342211
0.353843 0.457059
-0.422838 0.331866
0.065444 -0.392879
0.191930 -0.322584
-0.013867 0.179098
0.329248 -0.108263
0.113740 -0.071221
-0.420829 -0.003811
0.398120 0.074055
0.331256 -0.262232
0.178334 0.140991
0.298350 0.583692
-0.109499 -0.087894
-0.055324 -0.021643
-0.179198 0.029961
0.059930 0.004054
0.096629 0.330462
0.091145 0.087281
-0.223983 0.242311
-0.390908 0.315910
-0.158013 0.030645
0.062921 -0.004970
-0.289736 0.005706
-0.199153 0.202263
0.101537 -0.265623
-0.024030 -0.040963
0.260821 0.195754
-0.042274 0.257442
-0.197678 0.213941
0.144917 -0.054952
-0.426413 0.167150
0.248542 0.323211
-0.061236 -0.226259
-0.107797 0.287897
0.291950 0.085063
-0.211022 -0.328745
-0.197372 -0.217248
0.334258 0.171141
-0.219030 -0.429858
-0.006388 0.236180
0.082929 -0.225585
0.292113 -0.177048
0.034972 -0.266586
-0.168999 0.265843
0.321334 0.030923
-0.115238 0.006433
0.273601 -0.058830
-0.541169 -0.272311
0.421337 0.285425
-0.159545 -0.471438
0.144488 -0.530741
0.027416 0.318559
-0.074795 0.118200
0.000586 0.064806
0.454822 -0.563049
-0.308605 0.233558
-0.112233 0.359425
-0.014163 0.251344
-0.199725 -0.167059
-0.107794 -0.299833
-0.090707 0.005439
-0.549881 0.079730
0.082845 0.170102
0.229074 -0.364717
-0.690040 0.429379
0.280898 0.062597
-0.040504 0.369396
-0.236970 -0.159246
-0.524257 -0.012234
-0.194593 0.345419
0.315140 -0.046966
-0.518407 0.292518
0.284325 0.263332
-0.060354 -0.203491
-0.171261 0.605790
-0.321639 0.316244
-0.144404 -0.294023
-0.331645 0.106709
0.378732 0.044517
0.035489 0.195780
-0.199874 0.484209
-0.351469 0.018534
-0.128043 0.084911
0.053275 0.174854
0.324527 -0.087305
-0.345977 0.334533
-0.258695 -0.237248
0.178611 -0.459765
0.171567 -0.001188
-0.095783 0.024723
0.421211 0.163138
-0.068556 0.101201
-0.104059 -0.169299
0.068439 -0.041450
-0.082932 0.320565
0.068448 -0.339755
-0.053547 -0.332930
0.276105 0.239639
-0.102910 -0.051795
0.108551 0.057215
-0.100358 0.124526
0.098007 0.042623
-0.131318 0.189765
-0.413603 -0.246245
0.212606 -0.035361
0.009596 -0.025389
-0.003816 -0.007754
-0.168128 0.352341
-0.293998 0.573552
-0.132383 0.168397
-0.384192 -0.306310
-0.168497 0.370020
0.191449 -0.176852
-0.137205 0.270326
-0.252671 0.003496
-0.071425 0.190582
-0.216605 0.424353
-0.397302 -0.110134
-0.368092 0.485715
0.005400 0.034564
0.135924 0.313384
-0.139055 0.161682
0.036340 -0.119736
0.040239 0.337652
0.218425 0.005326
-0.237773 0.390972
-0.074458 -0.086301
-0.136713 -0.033734
-0.204285 -0.068080
-0.195126 0.199894
0.056359 -0.182352
-0.492836 0.221174
-0.052076 0.017101
-0.013579 0.202101
0.082473 0.133884
-0.589866 -0.085156
-0.028369 -0.179378
0.012557 -0.011721
0.146633 0.213245
0.080286 -0.316231
0.224918 0.386411
-0.085084 0.146320
0.178487 0.271433
-0.340418 -0.402230
0.496148 0.563476
-0.005886 -0.293901
0.455565 0.100670
0.134662 0.203104
0.055299 -0.092952
0.011355 -0.257376
0.009306 -0.004365
0.164474 -0.281042
0.032497 0.158277
0.309233 -0.283004
-0.191605 0.052170
0.002753 0.190063
-0.018776 -0.483670
0.262870 -0.311044
0.540249 -0.015693
0.365412 -0.381433
-0.138207 0.117991
-0.109146 -0.293429
0.278045 -0.457160
0.334060 -0.028396
-0.003205 0.131154
-0.023961 0.145973
0.327708 0.503126
-0.030388 -0.342628
0.224917 0.303936
0.072943 0.254253
0.079835 0.079387
0.079073 0.200149
0.150123 -0.443935
0.199377 -0.145370
0.138540 0.137794
0.295650 0.218417
0.177666 0.112451
-0.089322 -0.120618
-0.257754 -0.117216
0.137859 -0.314345
0.063712 -0.074743
0.174776 -0.439265
-0.190002 0.241637
-0.206765 0.087713
-0.318171 0.306676
0.236589 -0.179204
-0.410063 0.166137
0.213795 0.115513
-0.021763 0.068559
-0.168441 0.255809
-0.003246 -0.123440
-0.385606 0.006478
0.107059 0.079545
-0.232814 -0.138692
-0.241305 0.031351
0.106888 -0.263180
-0.210978 -0.076031
-0.569696 0.221409
-0.255548 -0.220242
-0.072814 -0.007465
0.121541 0.186714
0.240531 0.215811
0.068983 0.116997
-0.204031 0.182292
-0.163254 -0.442983
-0.350319 0.491428
-0.034902 -0.008913
0.020274 0.160224
0.171131 -0.173975
0.397553 -0.199575
-0.100585 0.164464
-0.370890 0.080150
0.096004 -0.319382
-0.039306 0.013682
-0.142441 -0.018244
-0.112879 0.028898
0.310520 0.203702
-0.408175 0.021166
0.161636 -0.127009
-0.097529 0.102996
-0.026406 -0.108693
0.186013 -0.083504
0.256588 0.229547
-0.119914 0.073952
-0.134711 0.109225
-0.524409 -0.523915
0.395135 -0.094039
0.052330 0.009636
-0.459778 0.429618
0.273013 -0.264165
0.112361 0.068836
-0.014253 0.019791
0.173334 -0.092666
-0.044539 -0.083976
0.019070 0.331526
-0.010442 -0.168483
-0.057439 0.333307
-0.058547 0.088923
0.378346 -0.129533
0.002724 -0.096172
0.605033 -0.311241
-0.099573 -0.162675
-0.011478 0.313455
0.568722 -0.012168
-0.065196 0.103834
0.124738 0.005939
-0.076829 -0.415811
0.108241 -0.031183
0.506483 -0.176579
0.020197 0.208457
-0.109512 0.390097
-0.099041 0.249391
-0.072794 -0.312302
0.335951 0.027561
-0.003446 -0.333501
0.225766 0.146141
-0.271104 -0.079366
0.126592 -0.011434
-0.284905 0.011411
0.135435 -0.049956
0.143639 -0.024493
-0.204490 0.124804
0.041109 -0.182363
-0.059786 -0.190836
-0.188794 -0.070858
-0.359608 -0.011748
0.232856 -0.029220
-0.247818 0.084605
-0.182104 0.163395
-0.104666 0.472087
-0.459063 0.277061
0.001646 0.177626
0.105004 -0.029093
-0.170702 -0.026655
-0.103209 -0.325803
-0.461536 0.111227
0.151244 -0.361394
0.238301 -0.222226
-0.514103 -0.134901
0.125288 0.088325
-0.209566 -0.237793
-0.130781 -0.364142
0.109034 -0.207584
-0.072389 -0.062801
-0.057561 -0.046777
0.151335 0.124312
-0.454063 0.174901
-0.514687 0.118348
-0.323922 -0.348208
-0.219544 0.379082
0.424270 -0.103467
-0.281887 0.431983
-0.085773 0.259173
-0.406594 0.671610
0.084962 -0.435980
-0.106219 0.163519
0.166752 0.030346
-0.260933 0.181835
0.440632 -0.214896
-0.147753 0.016198
-0.024897 -0.001861
-0.014814 -0.148206
0.153141 0.394832
-0.028714 0.182569
-0.166348 0.113931
-0.012054 0.041468
0.475584 0.224066
-0.191843 -0.033886
0.250864 0.519212
-0.017742 -0.081025
-0.219689 0.040297
0.097887 0.129533
0.185038 0.261382
-0.393991 0.232003
0.150555 -0.017712
-0.121398 -0.068304
0.293247 0.223088
0.178391 0.307151
-0.195525 0.290575
0.247487 0.323267
-0.159772 -0.107784
-0.072476 0.133242
-0.060630 0.324730
0.346147 0.062014
0.062452 0.024553
-0.329019 0.392959
0.262037 0.243779
0.007215 -0.042541
0.257297 0.170672
0.138667 -0.259765
0.219760 0.346467
-0.161947 -0.289504
-0.295401 -0.010313
0.177752 0.364030
-0.111899 -0.589979
0.092891 0.145735
-0.549713 0.049880
-0.058585 0.006520
0.006755 0.031153
-0.181590 0.201283
-0.190537 -0.219639
-0.026859 -0.329642
-0.107766 -0.106578
-0.160523 -0.190270
0.244669 0.073857
-0.158242 -0.298451
-0.316900 -0.139589
0.053098 -0.012903
-0.091638 -0.218343
-0.186497 -0.035098
-0.393895 -0.273839
0.139672 -0.194116
0.667597 0.285145
-0.259143 0.372806
-0.181090 0.092771
-0.094530 0.064092
0.153706 0.075714
0.189926 -0.090076
0.251648 -0.027563
-0.324911 -0.027452
0.622274 0.009924
-0.125274 -0.380893
0.057582 0.138578
0.306942 0.142347
-0.351560 0.250419
0.249898 0.309632
0.490606 -0.137412
-0.393986 0.266185
-0.037102 -0.009528
0.460305 0.323577
0.424509 -0.379671
0.066321 0.096469
-0.016374 0.363747
-0.024075 -0.191807
-0.022859 -0.313882
0.604601 -0.247209
0.121751 -0.321310
0.251870 -0.061548
0.105358 -0.122677
0.021224 -0.229868
0.160500 0.277659
0.055203 0.220054
0.083425 0.326562
-0.800821 -0.174553
0.136581 -0.434113
-0.141656 -0.295947
0.685486 0.047465
-0.379566 -0.351255
0.055260 -0.047840
-0.018485 -0.164361
0.054413 -0.214814
-0.033462 -0.249554
-0.225294 -0.197119
-0.141664 0.113158
0.583390 0.051837
-0.121402 -0.527568
-0.209862 -0.349368
0.134160 0.023770
0.174533 0.571176
-0.183261 -0.527545
-0.263211 0.021764
0.336011 -0.418005
-0.258772 -0.123439
0.070459 0.285958
0.208835 -0.025563
0.047476 -0.086537
0.082187 0.302071
0.047368 -0.069723
0.043657 -0.166965
0.055061 0.088807
-0.199065 0.142053
0.364334 0.007919
0.405718 -0.193573
0.112522 0.087422
0.031458 0.369827
0.105438 0.006955
0.270335 0.134405
-0.167684 -0.039354
0.270661 -0.000421
0.055884 0.103385
-0.140627 0.112982
0.465073 0.189569
-0.262014 -0.373220
0.291184 -0.176054
-0.161589 0.042511
-0.395518 0.007677
0.300107 0.426539
0.121232 -0.124113
-0.282870 -0.094298
-0.523152 0.373739
0.294300 -0.516453
0.104961 -0.154763
0.062692 0.038941
-0.121070 0.067176
-0.325065 0.275782
-0.164908 -0.282641
0.325778 -0.247515
-0.069556 0.036130
0.396772 -0.245203
0.368354 0.008403
-0.330676 -0.284883
-0.238156 -0.463101
0.112685 -0.135449
0.207408 -0.250314
0.049375 0.006066
0.032034 0.472521
-0.107365 0.045773
0.057598 0.337525
0.157921 -0.339124
0.144786 -0.415342
0.152791 0.206934
0.167173 0.204594
0.201910 -0.029890
0.090879 0.138875
0.396832 -0.068662
0.096963 0.235374
-0.257406 -0.254650
0.104576 0.068621
-0.011357 -0.028067
0.199641 0.167314
0.065988 -0.134910
-0.150083 0.245654
0.025160 0.381347
0.262148 0.304971
-0.213649 0.070920
-0.118603 -0.256821
0.179919 -0.115162
0.081585 -0.275489
0.255400 -0.060941
0.135506 -0.239365
-0.093526 0.024493
0.478162 0.004039
0.123509 0.154195
-0.523022 -0.188474
0.231610 -0.170707
0.043921 -0.221963
0.249504 -0.138084
-0.206416 0.168110
0.066447 -0.131505
0.162531 -0.108080
0.393855 0.031059
0.042676 0.311147
-0.130180 0.037207
0.019561 0.230016
-0.016619 -0.260483
0.022057 0.169287
0.498838 -0.162367
0.031732 0.063543
0.154754 0.365409
-0.060300 0.051731
0.106111 0.287444
0.378935 0.284941
0.057201 -0.275199
0.253102 0.177504
-0.472126 0.474880
-0.042271 0.301597
-0.308102 0.235306
0.098077 0.077645
0.171618 -0.293198
0.263830 -0.224223
-0.177660 -0.081675
0.355806 0.187150
0.071277 -0.073651
-0.408678 0.205947
-0.202510 -0.077797
-0.133160 -0.015338
0.424765 0.218060
0.103720 0.224037
0.025511 -0.049396
0.136737 0.000256
0.438637 -0.429668
-0.038231 -0.124824
-0.581206 -0.188734
-0.300025 0.187001
-0.033135 -0.317317
0.018488 0.091992
0.591305 -0.518330
-0.001377 0.086774
0.101664 0.224612
-0.063080 -0.144932
-0.475548 0.060303
-0.178076 0.212655
-0.051744 0.387822
-0.024681 -0.032939
-0.046697 -0.232716
0.162367 0.089245
0.006710 0.359503
0.069699 -0.246043
0.184190 -0.004080
-0.153694 -0.357727
-0.410597 -0.062878
0.077995 0.341728
0.179817 0.130936
-0.072352 0.186174
0.083140 -0.043980
-0.247775 -0.111122
-0.064324 -0.373875
0.159027 0.401084
-0.084461 -0.419688
-0.297609 -0.288940
-0.215103 0.080028
-0.204850 0.312871
-0.176252 -0.162258
-0.082480 -0.465672
0.319207 -0.358151
-0.040266 -0.098157
0.275848 0.063989
0.296707 -0.007714
0.328996 0.134491
-0.040435 -0.186819
0.166573 -0.154392
-0.080576 0.191733
-0.176403 0.100534
-0.458253 0.335134
-0.089314 -0.102224
-0.259830 -0.562054
-0.324998 -0.089662
0.127692 0.539475
-0.134670 -0.280125
-0.081732 -0.061458
-0.105206 0.315627
0.216882 0.306129
0.061996 0.249000
-0.370806 -0.191451
0.271192 -0.037263
-0.102329 -0.018895
0.259343 -0.065602
-0.121637 -0.039012
-0.003749 -0.666305
0.004017 -0.147767
0.062642 -0.029227
0.138358 0.219305
0.094179 0.345261
-0.016494 -0.138886
0.300003 -0.464506
0.035580 -0.417968
0.010225 -0.252416
0.394064 0.221513
0.132980 -0.044443
0.204912 0.171463
0.567550 0.356255
0.077062 0.407717
-0.166079 -0.354377
-0.140099 -0.658866
0.065308 0.619500
0.156042 0.064695
-0.164762 -0.298803
0.201648 -0.274819
-0.200948 0.360780
-0.627901 0.265259
-0.195629 0.262652
-0.080163 0.584318
0.593135 -0.374759
-0.042429 -0.457463
-0.527320 -0.115794
-0.346856 -0.044426
0.355460 0.393234
-0.105883 0.254801
-0.042928 -0.261640
0.256110 0.281466
0.248590 0.100516
-0.007799 0.162156
0.319813 0.259241
-0.190530 0.288752
-0.249146 0.152698
-0.133258 0.313653
0.224047 0.100167
0.346252 0.069425
0.011582 0.010340
0.231331 -0.267293
0.158661 -0.040430
0.061971 0.054989
0.106406 0.103417
-0.341580 -0.057252
-0.760262 0.184753
0.058698 -0.045959
-0.155850 -0.248264
0.134677 0.070838
-0.238345 0.390614
-0.100239 -0.304438
-0.022465 -0.319314
-0.131414 -0.035396
0.050973 0.262873
0.026751 0.009247
0.213961 0.336744
-0.335370 -0.005671
-0.286266 0.082209
0.105036 0.435178
0.268695 -0.057183
-0.138148 -0.084299
0.322991 0.006510
0.436952 -0.324329
0.315067 -0.004418
-0.068297 0.439433
-0.210549 -0.155413
0.210575 -0.070023
-0.077825 0.130777
-0.368137 0.462341
-0.308329 -0.158671
0.243981 0.205143
0.146441 0.252731
-0.271440 0.013689
0.338969 0.233556
-0.142829 -0.069483
-0.367316 -0.188306
-0.126357 0.089559
-0.080444 0.035266
0.167724 -0.036019
-0.199412 0.003161
-0.120410 -0.352374
0.286199 -0.869846
-0.147689 -0.461756
-0.156879 0.148174
0.194860 0.155015
-0.283441 0.002667
-0.296108 0.038763
0.010671 0.264885
0.121976 0.077436
-0.252818 -0.089315
-0.100178 -0.211777
0.066253 -0.179653
-0.072912 0.372235
0.063585 -0.162482
-0.032877 0.064036
0.428408 0.076242
-0.102328 0.078343
-0.556753 0.125110
0.175821 0.100996
0.067117 0.499503
-0.024979 0.349887
-0.334632 0.079737
0.065249 -0.479015
0.013802 0.016873
-0.006247 -0.161450
0.206211 -0.238906
-0.138531 -0.130693
0.014395 0.006804
-0.102340 0.135883
-0.209380 -0.173182
0.101523 -0.095349
-0.060703 -0.006047
-0.244227 -0.169456
0.018296 0.034981
0.044001 0.235834
0.039497 0.182686
0.124240 -0.310422
0.090160 0.158692
0.321539 0.524103
0.380869 0.086830
0.558459 -0.433467
-0.112904 -0.368807
-0.336169 -0.140847
-0.084030 -0.044069
-0.415428 0.104313
-0.002317 0.158849
0.249828 -0.154466
-0.165063 -0.215481
-0.283846 0.010825
-0.278610 0.010521
0.517124 -0.016024
-0.206317 0.153298
0.107891 0.544000
-0.148834 -0.157238
-0.409649 -0.268223
0.094662 -0.075033
0.148837 -0.026562
0.392691 0.090716
-0.070931 -0.152684
0.087799 -0.022830
-0.086234 -0.255730
-0.195358 0.201284
-0.459187 0.196326
0.035337 0.071822
0.424489 0.268340
0.009655 0.251764
-0.859814 0.175826
-0.283226 0.259572
-0.207029 0.408157
0.318373 -0.000858
0.545371 0.232655
0.293998 -0.320408
0.629159 -0.085758
-0.301953 -0.302784
0.007991 -0.143729
0.046498 -0.437758
-0.081340 0.068843
0.142834 -0.025962
-0.642309 0.040704
0.122446 -0.513172
0.199851 0.028399
-0.472409 0.151713
0.127927 0.269079
0.225472 -0.258041
-0.420012 -0.152975
0.184149 -0.117337
0.321731 0.457458
0.346674 0.305772
-0.098067 0.184130
-0.193557 0.470382
0.194263 0.058534
-0.191433 -0.529401
-0.045411 -0.172312
0.103113 0.008953
-0.014807 0.035849
-0.275471 0.037644
-0.123682 -0.213756
0.122530 0.064300
-0.227885 0.399265
0.033354 0.105413
0.316953 0.202042
0.099756 0.074300
0.012923 -0.059585
-0.090625 -0.241726
0.375446 -0.261500
0.311091 -0.258928
0.003975 0.393890
0.361085 0.541349
-0.008085 0.356381
0.357101 -0.435490
0.078879 -0.224008
-0.415932 -0.155843
-0.300810 0.076624
-0.323081 0.142492
-0.166161 0.153549
-0.276892 0.580387
-0.538032 -0.585651
0.167222 0.090756
0.231639 0.061045
0.115028 0.030012
0.268366 0.168182
0.361474 -0.438127
0.276735 0.131501
0.169025 0.028866
0.337280 -0.177434
-0.008171 -0.037440
0.043298 -0.170184
0.204645 -0.137582
-0.343052 0.209517
-0.127723 0.234437
-0.186253 0.227210
0.307799 -0.250902
-0.041769 0.266351
0.092886 -0.093296
0.320944 0.211926
-0.141130 0.015736
0.101256 0.089771
-0.160813 0.006293
-0.143916 0.145624
-0.031379 -0.034583
-0.314045 -0.061343
-0.096802 -0.573984
-0.166892 -0.427556
-0.158983 0.026932
-0.326761 0.461237
0.286033 -0.177609
0.215916 0.166330
-0.228012 -0.275852
0.100476 0.035196
0.003115 0.598776
0.098596 0.450010
-0.028485 0.005736
0.629363 0.048860
0.274223 0.052757
-0.409802 -0.286593
0.234417 -0.280987
0.288984 0.209317
-0.268648 -0.326712
-0.138286 -0.164041
-0.574623 -0.414221
-0.072325 0.209785
-0.097772 -0.026643
0.381558 -0.227280
0.178446 0.223308
-0.079546 -0.208354
-0.164747 0.365541
0.017003 0.131866
0.052175 -0.136000
0.145475 0.158419
-0.092347 -0.097347
0.224708 0.148126
-0.116179 0.262843
0.303773 0.497709
-0.020889 0.238279
0.091220 -0.063045
0.307788 -0.015705
-0.248063 -0.268785
0.330252 0.475831
-0.145055 -0.611528
-0.270316 -0.512724
-0.214119 -0.037361
-0.064145 -0.001551
-0.024399 -0.118572
0.080980 0.170977
-0.018860 0.231291
-0.146359 -0.684472
0.026073 -0.041131
-0.030980 0.643246
-0.065429 -0.136574
-0.020280 -0.137950
0.098251 0.132488
-0.020069 -0.062120
-0.103571 -0.286368
0.078438 0.118157
-0.001984 -0.113411
-0.028464 0.146847
-0.247676 0.146177
0.158927 0.098806
0.229798 -0.082921
-0.167281 -0.054334
-0.150322 -0.051457
-0.234368 0.176844
0.165564 -0.002175
-0.262034 0.119638
0.101190 0.056694
0.494942 -0.058738
0.289595 0.061384
0.383862 0.256914
0.092482 0.046613
-0.150645 -0.518218
-0.123024 -0.215904
-0.157309 0.311237
-0.257031 0.034777
-0.022702 0.127323
-0.025015 0.180043
-0.391152 -0.093225
-0.326374 -0.098081
-0.089603 0.394459
0.179300 -0.112662
-0.077557 -0.048924
0.279370 0.021994
0.146659 0.073343
-0.106269 -0.021955
0.330864 -0.118396
-0.080117 0.503228
0.300936 0.506465
0.056488 0.183107
0.029558 -0.279696
0.291432 0.064795
-0.085873 0.197489
-0.362941 -0.146726
-0.014152 0.211594
0.125846 -0.165617
0.019008 -0.211391
-0.355546 -0.079811
-0.312706 0.057761
-0.030635 -0.043967
-0.066425 0.179601
0.088765 0.363198
0.027749 0.040672
-0.072751 -0.224685
-0.284506 0.006208
-0.013931 0.332610
0.173239 -0.092536
0.090533 0.008818
-0.016738 -0.157724
-0.218054 -0.436086
-0.413834 0.353456
-0.078005 -0.398343
0.346400 0.193033
0.268275 -0.076305
0.303763 -0.143846
0.053031 0.138329
-0.206300 -0.402913
-0.064016 0.054198
-0.554382 0.152772
-0.147602 0.050553
-0.149416 -0.056419
-0.100510 -0.125818
-0.175883 -0.196948
-0.174186 -0.064737
0.318596 0.413783
-0.199348 -0.313452
0.163578 -0.180904
0.344222 0.205293
0.089211 0.219845
-0.319995 -0.043622
0.434796 0.237014
-0.124511 0.473893
0.227548 -0.113629
-0.071864 -0.178526
-0.199893 0.096470
0.133827 -0.122098
-0.236537 0.111824
-0.180023 0.104735
0.175344 -0.390758
-0.146778 -0.305449
-0.109242 -0.122734
-0.018406 0.319712
0.339303 -0.474590
-0.793697 -0.023904
-0.279012 -0.111077
-0.198194 0.058245
-0.079305 0.322165
-0.145861 0.066367
0.162383 0.438540
0.062033 -0.493496
0.053536 -0.155805
0.648401 0.488164
-0.191090 -0.626823
-0.137564 -0.106014
-0.016076 0.262617
-0.267991 0.006933
0.142829 -0.488275
-0.052994 0.165798
0.031312 -0.062184
-0.180618 -0.085971
0.327565 -0.089971
0.133357 0.507076
-0.018203 -0.281829
0.143808 0.045814
-0.143645 -0.336896
0.253097 -0.227719
0.061565 0.014913
-0.295366 0.463957
0.150086 -0.048017
0.075557 -0.106114
-0.138751 0.165594
0.042832 -0.085267
-0.360968 -0.255838
-0.137296 0.088334
-0.063175 -0.055003
0.190029 -0.130865
-0.171209 -0.147491
-0.052186 0.223934
-0.243469 -0.307042
-0.149944 -0.197101
0.320088 0.011278
0.063676 0.040348
-0.355755 0.291697
0.299148 0.169818
0.081572 0.360584
-0.168072 -0.239032
0.124972 0.001522
-0.118266 0.178331
-0.265523 0.456110
-0.288653 0.374476
-0.632306 -0.219480
-0.002320 -0.083480
0.144175 0.019887
0.078189 0.133933
-0.483073 -0.189929
0.428491 0.001289
0.017600 0.107030
0.447298 -0.096144
0.303269 -0.223949
0.276008 0.134934
0.038978 0.090013
-0.335972 -0.101837
-0.102288 0.454408
-0.403673 -0.038436
-0.252224 0.187963
-0.279657 0.020898
-0.215444 -0.124474
-0.318024 0.398468
-0.476654 0.148662
0.233803 -0.290569
-0.143509 0.047993
0.003722 -0.220152
0.165438 -0.259213
0.309192 0.102932
-0.130050 -0.130678
-0.249910 0.476196
-0.183961 0.072364
-0.150436 0.052479
0.330387 0.357461
-0.251651 0.369182
-0.013798 0.017970
-0.324391 -0.001094
-0.239988 0.056903
-0.392758 -0.116066
0.201437 -0.237613
-0.080228 0.019968
-0.211370 -0.073903
0.221306 -0.124443
-0.160634 -0.041263
-0.084282 0.093245
-0.365801 -0.148676
-0.038638 -0.197071
-0.049414 0.358684
0.046699 0.168681
0.031645 0.055655
-0.349993 0.115428
-0.121251 -0.050983
0.056089 -0.204888
-0.455701 -0.440116
-0.285845 0.295738
-0.236161 -0.339948
0.118975 0.090567
-0.503407 -0.105144
-0.448008 -0.078817
-0.004325 0.013926
0.216272 0.235405
0.473262 0.051022
0.197322 -0.490318
-0.019197 0.379431
0.223287 -0.274425
-0.168137 0.028303
0.174524 -0.214462
-0.363262 0.162583
0.090396 0.109072
-0.000140 0.125035
-0.163331 -0.017133
-0.066629 -0.369446
-0.034930 -0.192914
-0.701009 -0.164628
0.163611 -0.060249
0.023862 -0.057588
0.241719 -0.232902
0.232313 0.440325
0.122841 -0.568092
-0.072281 0.218599
-0.337741 -0.265661
-0.224705 -0.098937
0.011342 0.066808
-0.149765 -0.005763
-0.474923 -0.512996
0.015339 0.435551
-0.529468 -0.021731
-0.151224 0.323973
0.067117 -0.389078
-0.039941 0.077398
-0.230073 -0.769661
0.183211 0.069666
0.068748 0.108648
0.074077 0.129676
0.259225 0.518763
-0.063131 0.123240
-0.181535 -0.013644
0.368017 -0.094372
0.276387 -0.133617
0.220390 -0.316722
-0.235228 -0.296938
-0.028221 -0.148799
-0.326063 -0.089979
0.555312 0.120140
-0.154679 0.383397
0.530268 -0.742572
0.010713 -0.139603
-0.217310 0.095672
0.113632 -0.060468
-0.030570 -0.089802
0.103731 0.339769
0.165886 0.407854
-0.186846 0.000967
0.196438 -0.017904
0.081527 0.384694
0.002408 -0.148997
-0.325908 -0.149887
0.351643 -0.328545
0.014781 -0.016377
-0.106438 -0.709171
-0.197145 0.299215
-0.123195 0.189256
-0.002311 0.517622
0.019442 -0.151441
0.088056 -0.315028
-0.089600 -0.217424
-0.552469 0.283913
-0.585090 0.102939
-0.104661 0.418582
0.543584 0.087613
-0.005160 0.289971
-0.531427 -0.136737
0.183551 -0.092623
-0.380147 0.299758
0.047819 -0.014002
0.596409 0.152655
-0.155267 -0.235260
-0.672619 0.155770
-0.344527 0.056397
0.152618 -0.184974
0.043105 0.134381
-0.018044 0.016745
0.192172 -0.275477
-0.669620 -0.522137
-0.047574 0.188407
-0.292588 0.748647
-0.316081 0.055642
-0.046383 0.190052
-0.189354 0.237526
0.135470 0.142448
-0.256052 -0.112529
0.271142 0.350289
-0.104857 0.454016
-0.033716 -0.335503
-0.238627 -0.123468
0.015170 0.011018
-0.119186 -0.545101
-0.233740 -0.012975
-0.003882 -0.035744
0.516914 0.025650
-0.176016 -0.184805
-0.285701 -0.112588
-0.141347 0.098260
-0.134010 0.431449
-0.038086 0.488795
-0.126467 -0.405048
0.477025 -0.377060
-0.279188 -0.211849
-0.439367 -0.187819
-0.085100 0.172212
-0.383781 -0.285068
-0.087599 -0.020853
0.018497 0.298680
-0.096906 -0.491551
-0.008226 -0.119585
0.078344 0.208571
0.113802 0.109783
0.638995 -0.040030
0.037769 -0.131935
-0.594738 -0.328871
-0.260658 0.457371
-0.441585 0.148104
-0.241920 0.447495
0.604521 -0.092661
-0.195606 -0.650621
-0.169453 0.037097
-0.017596 -0.322104
-0.671685 -0.113566
-0.397091 -0.207780
0.517176 0.189937
0.152736 -0.044629
0.199321 -0.014513
0.268582 0.383383
0.075085 0.042211
0.377685 0.030935
-0.069132 -0.468964
-0.471347 0.317872
-0.751120 -0.102665
-0.349417 0.420959
0.256756 0.557158
0.144970 -0.319160
0.022259 0.125540
-0.023472 0.018970
-0.207062 -0.786609
0.057247 0.039806
0.254870 -0.608061
-0.062220 -0.533572
-0.583269 0.184164
0.544770 0.155664
0.298756 0.176485
0.756985 0.422368
0.104841 0.456319
-0.800536 0.016851
-0.054146 -0.253345
-0.426267 -0.065102
-0.389656 0.416621
-0.128802 0.234543
-0.573487 0.446647
0.365483 0.118198
0.435421 -0.153917
0.758367 -0.967263
0.006186 0.332692
0.785573 -0.634697
-0.675652 -0.094627
-0.396995 -0.838991
0.488207 0.801437
-0.135481 1.279990
-0.359568 0.523330
-0.363935 0.557345
-0.587239 0.753229
-0.529117 -0.669695
-0.498425 0.312525
0.204147 -0.654812
-0.133371 -0.143882
-1.192949 -0.870729
0.430130 0.791908
0.602817 -0.590172
0.657341 0.166917
-0.603015 -0.030594
0.245792 -0.806611
0.524014 -0.669436
-0.982006 0.277176
-1.122707 -0.100861
-0.111569 0.813725
-1.390124 0.432380
-0.256478 1.138450
-0.702999 -0.935793
0.144605 -0.333501
-1.169079 -0.481395
0.096283 -0.184161
-0.739049 -1.144456
-0.046145 -0.926304
0.164601 1.049794
0.101777 0.301144
-0.048645 -1.002416
0.396414 0.403719
-0.227970 0.422004
0.515038 -1.009851
-0.379275 -0.396950
0.315811 -0.334980
-1.670327 -0.381902
-1.266245 -0.496550
-0.877804 0.944943
0.250980 0.402203
-0.592486 -0.263934
-0.685304 -0.759379
0.022471 -1.187818
0.891872 -0.682659
-1.562123 -0.193641
0.159839 0.857532
1.533791 0.963183
0.232353 -0.038739
-0.585076 -0.143258
0.841916 -1.496544
-0.471374 0.346648
0.165576 -0.465760
0.081951 -0.507716
0.280479 -1.640373
-1.491611 -1.082855
-1.650736 0.326760
-1.071488 0.472465
-0.044421 -1.180682
0.115497 0.793910
-0.101909 0.325464
1.276136 -1.774160
-0.133794 -0.063669
0.137579 1.931166
-0.424068 0.204107
0.767719 0.806594
0.818162 -0.786517
0.560145 -0.374198
0.080111 -1.284571
-0.140405 0.034766
-0.209847 -0.122654
0.657882 -0.013997
-1.728697 -1.284737
-0.868395 -0.172428
-0.119509 1.466921
-1.988785 -0.514662
-1.215911 0.005798
1.807583 0.618001
0.248645 0.277213
1.284802 1.317468
-0.341987 -0.846813
-1.167055 0.935124
-0.524130 0.319529
1.388783 0.551900
1.106524 0.676970
1.311117 -2.366879
-0.892150 -0.400137
-2.418271 0.212667
1.864197 0.195739
-1.859508 1.326628
-1.177818 1.667803
-1.665402 -0.859656
-2.689708 -0.441700
1.329032 -0.034598
-0.828567 -0.704810
0.221629 2.143273
-0.563366 0.858151
-1.634736 -2.094445
0.632612 0.503421
-2.002893 1.256333
0.225473 0.974570
0.498425 3.863001
1.267554 -3.571720
-0.141214 -0.753508
-0.313760 -0.006223
-2.758708 0.838795
-4.298839 3.747050
-1.736389 -0.977736
-5.189362 -2.256909
-0.566522 -0.574949
1.848057 0.261781
-4.570790 0.641296
-0.092864 -3.314195
0.503309 1.526882
-0.818427 -2.712427
0.781874 2.042133
-4.376586 -0.805705
-2.652889 3.930189
1.015208 1.253468
1.122482 0.063483
5.572485 1.165375
-0.659832 -3.683117
-10.089532 -0.052112
-8.016032 0.160985
-2.028089 -8.440674
-2.257437 2.064118
-7.994592 -3.212814
1.748624 -1.993317
-2.791756 -3.648599
4.170503 -1.222723
-0.502437 -1.374497
4.077679 0.300305
-1.993541 -1.423419
-6.586120 2.046225
-1.538888 -1.079317
-2.391699 -2.299382
0.679625 9.558169
8.362860 9.076700
-8.936902 -11.430189
0.715675 -13.939316
-11.661369 -0.470280
-4.344041 -10.559994
-11.891211 -10.091912
-0.440241 -7.201668
-3.640224 -0.980309
6.323731 -3.978177
3.826915 -0.625690
12.737891 8.804631
4.430580 1.015119
-10.272976 -4.264905
-6.652176 1.673112
14.619586 -6.534201
-16.336332 13.526571
-14.736896 -3.576991
8.006175 14.559713
15.766277 -9.875862
-17.167211 -11.075370
-0.083468 -28.520951
0.486649 -18.791390
-2.467108 -29.187585
-16.919454 -10.613495
7.336645 -15.328167
8.709205 7.927060
3.608718 38.314855
18.781832 53.826589
10.285087 -22.946915
15.870485 10.156983
-42.899469 15.829579
-9.527837 13.453761
9.994756 -56.324965
-32.270153 63.740516
-18.560245 9.375278
16.444303 -18.393628
1.091175 -66.281223
37.355894 -2.778400
-7.817500 -77.561803
-3.374185 -84.970347
16.514702 -53.791509
100.958064 -19.973778
-158.810137 76.925987
-109.352451 154.763842
-62.073897 445.869055
157.228151 520.517978
-336.539634 -457.840248
152.164808 121.144305
-91.857010 -22.957439
-434.089866 -99.189247
-1519.420891 226.260418
483.648647 -320.251163
43.347020 1.964629
51.009631 -13.934163
