10548.480398 10792.327948
-144.113174 0.826124
46.371815 -5.044330
-69.179725 18.779734
-74.257768 -26.813024
-871.008443 236.500139
127.745213 -103.542264
120.711695 -42.020581
41.605811 -15.615614
45.755168 15.133815
52.857610 -34.425431
31.651211 -49.088634
-12.623246 -11.246892
-33.939422 13.077543
31.709569 -49.667129
4.047544 -0.364765
-20.734465 -29.593314
-43.505890 37.785531
38.030550 -60.556968
29.800170 -19.080365
46.311477 -23.678850
47.783387 -23.631459
39.912879 -10.866919
36.616449 -34.448984
37.825895 -1.367022
23.648133 -20.173809
8.397191 -5.457051
20.901388 -3.609014
27.786086 -31.926977
28.864015 -3.292718
47.141552 -34.115332
40.472439 -20.812768
47.819592 -24.882339
32.740574 -35.419968
37.272221 -32.608256
31.986202 -39.501446
23.851644 -20.756855
28.146263 -17.401950
19.014749 -32.772717
33.724392 -30.618672
16.340646 -51.475132
30.095756 -33.695100
3.416183 -33.057759
26.264237 -38.163210
22.014706 -27.838174
13.456141 -33.197685
21.192917 -34.028022
21.541590 -29.127787
28.590954 -22.065230
21.318521 -30.256645
19.544458 -29.218738
18.107527 -32.171477
35.056817 -34.974263
23.616380 -37.167521
21.118221 -27.418120
18.693735 -38.870346
13.831549 -39.017956
12.135927 -31.815898
19.668234 -38.850891
17.898624 -42.969249
20.259144 -37.412640
14.917268 -44.137601
7.939908 -35.084034
19.386185 -38.641834
13.786416 -45.540461
13.575068 -40.599921
14.499205 -35.336309
11.463763 -35.796440
14.382345 -37.762447
9.692230 -35.514522
3.833762 -39.142318
6.817459 -39.731278
-2.374220 -35.068089
4.651853 -32.368724
2.001170 -33.899978
10.149517 -47.186489
10.263380 -37.662090
5.708168 -41.090743
8.619377 -32.403168
6.299244 -31.338732
6.557186 -26.787390
7.023562 -35.294848
9.646856 -39.604022
2.590952 -33.619747
9.046257 -29.240554
-3.960819 -33.157009
-0.476372 -41.512448
-4.938759 -36.844320
1.620102 -34.812903
-7.795962 -34.818441
0.787786 -36.387791
-12.399833 -32.288456
-7.630296 -29.700204
-2.045663 -31.674069
-9.511735 -36.357581
-4.486724 -35.325027
-4.567416 -35.979922
-11.581978 -25.468247
-2.474808 -33.130287
-10.051899 -32.221438
-7.906705 -29.414062
-6.466968 -30.071110
-8.308308 -30.503499
-8.050521 -31.681396
-10.782354 -26.968497
-8.207225 -27.288296
-6.350022 -27.550673
-12.269832 -31.055195
-6.322832 -29.247133
-15.166996 -24.101519
-11.210408 -23.887869
-6.654643 -26.535391
-6.645640 -28.314008
-10.658561 -26.855211
-11.746296 -24.660521
-9.355033 -22.532396
-15.611119 -26.662925
-11.041461 -24.970635
-13.083838 -24.827933
-14.147771 -18.678222
-12.235025 -24.308971
-15.973388 -21.077178
-12.022370 -15.090019
-12.826874 -20.574498
-11.945116 -22.877420
-10.343327 -19.245372
-13.846417 -22.113816
-12.844274 -20.919882
-11.234327 -14.936823
-13.131754 -16.527078
-13.001057 -18.176100
-11.215741 -18.899924
-12.696927 -19.776384
-9.869672 -16.957789
-14.023460 -14.708275
-11.416370 -15.619231
-11.651696 -14.679048
-13.200057 -12.256963
-8.773166 -17.029684
-11.845302 -14.376788
-12.007590 -17.876349
-11.574848 -14.812359
-9.416415 -15.290702
-11.197526 -13.885216
-10.118630 -12.348332
-12.830109 -10.443365
-10.483496 -12.249138
-11.760324 -11.147651
-9.568141 -12.939088
-11.458134 -9.115375
-10.792802 -11.687219
-9.434285 -9.153641
-10.703585 -9.766277
-8.973159 -9.087577
-10.069740 -11.248899
-10.035944 -11.283789
-10.021629 -9.357324
-8.465006 -10.987165
-7.551957 -11.563726
-10.101784 -11.626046
-9.439463 -11.023951
-7.729289 -7.691612
-7.148256 -11.079404
-10.776819 -9.650865
-7.024265 -10.022018
-7.624696 -8.444129
-6.869624 -9.016925
-7.307658 -9.402347
-6.689411 -7.733898
-8.765018 -8.472850
-8.493712 -8.099333
-8.447607 -9.407419
-7.643770 -8.020990
-6.471984 -8.289100
-6.646841 -10.238410
-6.424246 -7.964156
-4.873146 -9.752136
-6.925286 -7.984863
-7.304312 -9.517501
-5.914762 -8.711514
-6.193829 -8.765104
-4.771947 -8.614393
-4.183868 -8.831006
-5.584176 -8.591957
-3.125762 -9.169718
-4.077256 -8.606597
-3.620097 -10.195073
-3.985249 -10.519308
-5.319253 -9.033354
-3.297268 -9.862359
-5.937807 -8.717904
-4.221901 -8.273215
-5.303820 -8.415336
-5.050991 -9.295436
-4.092020 -9.615859
-4.676199 -9.124977
-2.967367 -9.322705
-2.802024 -9.233745
-3.099596 -8.771773
-3.918264 -9.762822
-3.627045 -9.830771
-4.237101 -8.935838
-4.327574 -9.100677
-2.692507 -10.237315
-2.304124 -10.956666
-3.450561 -10.276849
-3.303034 -10.094503
-4.481536 -10.391345
-4.270546 -9.921358
-3.209959 -10.960089
-4.205298 -10.650497
-2.944003 -10.186997
-4.349714 -10.402200
-2.716163 -10.667137
-4.061383 -10.472780
-4.007259 -11.087299
-4.061674 -11.055474
-3.923407 -10.700325
-3.972194 -11.317181
-3.989271 -11.408468
-3.993860 -11.148760
-3.035078 -11.089189
-3.809403 -10.473155
-4.416252 -10.287884
-3.683198 -10.715726
-4.312892 -11.212378
-4.234033 -10.292207
-3.579919 -11.985281
-4.538182 -10.511024
-3.639093 -11.069970
-4.518580 -11.053291
-4.774693 -11.000278
-5.005361 -10.829398
-5.148266 -9.980291
-4.884082 -10.483816
-5.341296 -10.807104
-5.132269 -11.209380
-5.673877 -10.597740
-5.589180 -10.594950
-5.219267 -11.678022
-5.588336 -11.130426
-5.181736 -10.914805
-6.304319 -10.540785
-4.986105 -10.431369
-5.329640 -10.398097
-5.592602 -10.847183
-5.952070 -9.685685
-5.495531 -10.379909
-6.656606 -10.863282
-5.897719 -11.277692
-6.297663 -10.322356
-6.142360 -10.891381
-6.509817 -10.353885
-6.029332 -9.979661
-6.160534 -9.470247
-6.286924 -10.169024
-6.963951 -10.278011
-6.061426 -9.619635
-6.006381 -10.191750
-6.414205 -9.728431
-6.320527 -10.152721
-6.836835 -9.377979
-6.439089 -9.247368
-7.287337 -9.444644
-6.578197 -8.776078
-6.294379 -9.055651
-6.109277 -9.220898
-6.683752 -9.901034
-6.386535 -8.631539
-6.255564 -9.050619
-7.062052 -8.811728
-7.098069 -8.464108
-7.090961 -9.579513
-6.906210 -8.090882
-6.889122 -9.132568
-6.658943 -8.901489
-6.074691 -8.267864
-6.303349 -8.432766
-7.235375 -8.117328
-6.785637 -8.598150
-6.737617 -8.153306
-7.272300 -7.874916
-6.666484 -8.339865
-6.677802 -7.918802
-6.355367 -7.611514
-6.082720 -8.403780
-6.573690 -8.517975
-6.399930 -8.590354
-6.596467 -7.438636
-6.132564 -8.238333
-6.706440 -8.385301
-6.317270 -7.719276
-6.533102 -7.917581
-6.264382 -8.006599
-6.127289 -7.883512
-6.297890 -7.598076
-6.159657 -8.357025
-5.893417 -8.342908
-6.788411 -8.045214
-6.584259 -7.809170
-6.513793 -7.432150
-5.772263 -8.243511
-6.385289 -7.781215
-6.396272 -7.889046
-5.687330 -7.894824
-6.323094 -7.883521
-5.387628 -7.675794
-5.643558 -7.923958
-5.719228 -7.936679
-5.224962 -7.765923
-5.994801 -7.610700
-5.162999 -8.227029
-5.199659 -8.561612
-5.278572 -7.877462
-5.870671 -7.487440
-5.734416 -7.690658
-5.268390 -8.176824
-6.198163 -8.535269
-6.185681 -8.362351
-5.746568 -8.675952
-6.259895 -8.598508
-5.744120 -8.483779
-5.663645 -8.493995
-5.811582 -8.513745
-6.072919 -8.349941
-6.133715 -8.588805
-5.691876 -8.259070
-5.794960 -8.796691
-5.858715 -8.791783
-5.470113 -8.642663
-5.432768 -8.909475
-5.781445 -9.079347
-5.727983 -9.147351
-5.609104 -8.762555
-5.928310 -9.006128
-5.971112 -9.345747
-6.230772 -9.320107
-5.897355 -9.404717
-6.205802 -9.528103
-6.562015 -9.639398
-6.387829 -10.005879
-6.817398 -9.184133
-6.832020 -10.108014
-6.638536 -9.199565
-6.930836 -9.063279
-6.977280 -9.756884
-7.082547 -8.979914
-7.503095 -9.847852
-7.642272 -9.601125
-7.454610 -9.754495
-7.922828 -9.932430
-7.609237 -9.840334
-7.624702 -9.558937
-7.619317 -9.596363
-7.947278 -9.744675
-7.809309 -9.863628
-8.199121 -9.366310
-8.525678 -9.992470
-8.305577 -9.777797
-7.879613 -9.905354
-8.244776 -9.661193
-8.767281 -9.704790
-8.812612 -9.821375
-9.005158 -10.112573
-9.343236 -9.834372
-8.710758 -8.930753
-8.808325 -9.703229
-8.680322 -9.676947
-9.799883 -9.500346
-10.075048 -9.431669
-9.800365 -9.348995
-9.915141 -8.952246
-10.040689 -9.690161
-9.880451 -9.426869
-9.853983 -8.914351
-10.774808 -8.911725
-10.713094 -9.332851
-10.033180 -9.373589
-10.490022 -8.504926
-10.798231 -8.360001
-11.385281 -8.323652
-11.273892 -8.491351
-11.331259 -7.986901
-11.604909 -8.538948
-11.507682 -8.328858
-11.504513 -8.418746
-11.453763 -8.092396
-10.986738 -8.120556
-12.054349 -7.851583
-11.317268 -7.596681
-12.058557 -7.659020
-11.965492 -7.970691
-11.993297 -7.576553
-12.751262 -7.284380
-12.559444 -7.049071
-12.710689 -6.980990
-12.221842 -6.681149
-12.510242 -7.171203
-13.150644 -6.688315
-12.845478 -6.181333
-12.876796 -5.977799
-12.388566 -5.581143
-13.029086 -5.642412
-12.886165 -5.421950
-12.905326 -4.732709
-13.258615 -5.296138
-13.357902 -5.396018
-13.081517 -5.316877
-12.700367 -4.901683
-13.248662 -4.732273
-12.755002 -4.666046
-13.063968 -4.776482
-12.806592 -4.175427
-13.788230 -4.162711
-13.570046 -4.069756
-13.441378 -4.451211
-13.114422 -3.283572
-13.114889 -3.490761
-13.127918 -3.372496
-13.812334 -3.058661
-12.994568 -3.078578
-13.580548 -2.927977
-13.235694 -2.524239
-13.387532 -2.262301
-12.824711 -2.644911
-12.993187 -2.446836
-12.802112 -1.882808
-12.795389 -2.127671
-12.808670 -1.673635
-12.846849 -1.926898
-13.275311 -1.671816
-12.921170 -0.905367
-12.292968 -0.719251
-12.793226 -2.177152
-12.644944 -1.129865
-12.454908 -1.193387
-12.658476 -0.425497
-12.391712 -0.818942
-12.424870 -0.335074
-11.920484 -0.968947
-12.215897 -0.777947
-12.003433 -0.113103
-12.313965 0.336318
-11.788594 -0.098849
-11.891123 0.149588
-11.877485 0.465721
-11.805912 0.411125
-11.106722 0.502033
-11.667329 0.310250
-11.783023 0.329759
-11.307361 0.682170
-11.545097 1.036848
-11.341790 1.050707
-11.232007 0.911521
-10.744218 0.747479
-10.891916 0.998377
-10.872944 0.635085
-10.776709 1.198650
-11.205442 0.941700
-10.623872 1.141834
-10.478971 1.242742
-10.237397 2.164505
-10.563265 1.561872
-10.368828 1.077083
-10.015124 2.046646
-9.878276 1.208222
-10.388843 1.617759
-9.683053 1.429539
-9.844675 1.654552
-9.496317 1.928762
-9.596952 1.682471
-9.930338 1.802279
-9.490226 1.396473
-9.152656 2.120599
-8.959547 1.997654
-9.297591 1.262026
-9.273761 1.931102
-8.945530 1.743212
-8.580645 1.570556
-9.100925 1.714780
-8.343468 1.721827
-8.982920 2.219104
-8.953163 2.190906
-8.716615 2.511083
-8.696847 1.910731
-8.197368 2.310466
-8.167763 1.551788
-8.044269 1.463703
-7.926334 1.643209
-8.423913 1.870768
-8.041326 1.702667
-8.074496 1.652164
-7.916585 1.534866
-8.146659 1.357013
-7.162237 1.817600
-7.744961 1.478791
-8.196004 1.512215
-7.199882 1.693283
-7.399075 2.209712
-7.718800 2.501356
-7.920267 2.370448
-7.672437 1.488823
-7.023215 2.267071
-7.447347 1.757583
-7.672326 1.891720
-7.125458 1.512330
-7.528578 1.861781
-7.225824 1.538478
-7.347744 1.675751
-7.598103 1.884756
-7.267721 1.467775
-7.351169 1.790168
-6.876188 1.364287
-7.415264 2.036841
-7.015943 1.625226
-7.268403 1.408221
-6.769134 2.213971
-7.492155 2.184573
-7.464390 1.460755
-7.606669 1.969508
-7.213301 1.663542
-7.365984 2.026771
-7.363016 1.155634
-7.090609 2.069760
-6.890384 2.035081
-6.750305 2.296438
-7.016569 2.006300
-7.283752 1.678008
-7.001193 1.764450
-6.656363 2.248890
-7.123544 1.772943
-6.929253 1.735782
-6.848603 1.831830
-6.444017 2.199820
-6.578881 1.837105
-6.830440 1.479546
-6.894853 2.014645
-7.051394 1.716081
-6.698988 1.802778
-7.217276 1.851455
-6.806108 2.724292
-7.104731 2.189010
-6.607883 2.160052
-6.834793 2.253591
-6.653156 2.284533
-6.017766 1.780440
-6.491850 1.851496
-6.696714 2.102853
-6.738611 2.233321
-6.083829 2.253039
-6.369328 1.905471
-6.295615 2.567820
-6.502390 2.157304
-6.220562 2.475105
-7.346478 1.953163
-6.216337 2.262756
-6.410416 2.591650
-5.702616 2.349833
-6.090566 2.311717
-6.652122 2.363809
-6.553605 2.736566
-6.239384 2.477739
-6.100789 2.855319
-6.262166 2.457465
-6.141048 2.523117
-6.056840 2.119279
-6.029019 2.463166
-6.100942 2.973474
-5.464064 2.541129
-5.798753 2.597945
-5.283070 3.045201
-6.150250 2.304546
-5.305985 2.842366
-5.820347 2.583768
-5.956855 2.743643
-5.571373 2.516586
-5.434092 2.478009
-5.310119 2.799378
-5.413893 3.043354
-5.030067 2.520035
-5.605690 1.918768
-5.172326 2.831119
-5.326329 2.447120
-5.385761 2.995996
-5.099718 2.714023
-5.225636 2.637792
-5.140625 2.295831
-4.764213 3.013844
-5.529577 2.210314
-5.228133 2.627169
-5.088073 2.686765
-4.724566 2.433409
-4.720592 2.667765
-4.960511 2.452376
-5.259741 2.528546
-4.554341 2.923324
-4.435915 2.787376
-5.365964 2.462368
-4.787748 2.563932
-4.587444 2.534314
-4.631250 2.340337
-4.494930 2.250551
-4.777892 2.403134
-4.585711 3.094512
-4.473475 2.411783
-4.506505 2.484842
-4.066372 2.064790
-4.106507 2.457959
-4.218105 2.388612
-4.559329 2.010027
-4.358259 2.254555
-4.617024 2.268498
-3.868416 2.422400
-4.589168 2.541939
-3.926683 1.894075
-4.053133 2.507647
-4.133250 1.949158
-4.397839 2.084177
-4.128350 2.090512
-4.006178 2.262475
-4.284170 1.534572
-3.947889 2.007309
-4.528531 2.274686
-4.171417 2.158079
-3.883863 2.032582
-4.171863 1.908489
-4.662554 2.053792
-3.980368 1.842558
-3.926714 2.113941
-4.464750 1.384574
-4.206048 1.669301
-4.610197 1.639384
-4.291893 1.815474
-4.658290 1.896843
-4.316849 1.952512
-4.302061 1.825401
-4.080442 1.930880
-4.234860 1.704095
-4.801756 1.680266
-4.224778 1.565420
-4.546939 1.879318
-4.342595 1.556423
-4.114117 1.134095
-4.484816 1.863966
-4.705214 1.459680
-4.983047 2.117025
-4.803864 1.725318
-4.826990 1.242617
-4.835175 1.670643
-4.916900 1.492426
-5.103923 2.016568
-5.234110 1.436621
-4.891392 1.382850
-4.781521 1.749246
-4.957038 1.184163
-4.933564 1.948034
-4.550465 1.798097
-4.704593 1.874512
-4.926014 2.091162
-5.349590 1.311241
-5.136983 1.927395
-4.925042 1.597465
-5.396071 1.873286
-4.869639 1.934172
-4.818169 1.467811
-5.023311 1.479061
-4.951508 2.125766
-4.770010 1.651583
-4.939581 2.263373
-4.989185 1.974008
-4.932886 2.043124
-4.882841 1.957770
-5.219811 2.495554
-5.235759 2.095090
-5.355106 2.027297
-5.393880 2.286332
-5.099757 1.918673
-5.620058 2.406466
-5.149253 2.292635
-4.858221 2.276833
-5.249495 2.300780
-5.320932 2.310041
-5.342285 2.212995
-4.911707 2.654013
-5.565990 2.261746
-5.290962 3.041636
-5.512853 2.263710
-5.089732 2.756705
-4.963849 2.847664
-5.123226 2.644874
-5.199760 2.973782
-5.808575 2.700661
-5.001774 3.044805
-5.750097 3.061727
-5.229797 3.615344
-5.163594 3.372234
-5.021332 3.090240
-5.020240 3.435925
-5.407062 3.250946
-5.290415 3.538831
-5.192800 3.588532
-5.385076 2.997824
-5.271006 3.483616
-4.952578 3.701960
-5.493084 3.647364
-4.593496 4.273990
-4.710807 3.722469
-4.897063 3.935209
-4.517195 3.828625
-4.948491 3.818129
-4.650585 4.080754
-4.635419 4.285554
-4.548221 4.059290
-4.563172 4.014079
-4.731850 3.866534
-4.388049 4.182347
-4.830436 3.767329
-4.079425 4.197715
-4.160169 4.599552
-4.381415 4.289194
-4.727877 4.719425
-4.522589 4.499914
-4.628249 4.543852
-4.426147 4.567323
-3.718138 4.703702
-4.183535 4.419690
-3.954854 4.336793
-3.850826 4.576085
-3.252707 4.853940
-3.315486 4.313551
-3.483693 4.911994
-3.905242 4.549659
-3.612013 4.589069
-3.661352 4.843913
-3.208127 4.311941
-3.316126 4.822152
-3.001160 4.702117
-2.841550 4.935611
-2.712414 5.371442
-2.568736 4.547680
-3.205128 4.561853
-2.679572 4.439618
-2.938174 4.562226
-3.343702 4.852802
-2.604376 4.529227
-2.592957 4.501302
-2.692780 4.663782
-2.130875 4.869217
-2.628443 4.916409
-2.261915 4.369760
-2.396953 4.622770
-2.128377 4.583939
-1.981833 4.742194
-2.207602 4.383323
-1.920977 4.181853
-1.859049 4.551798
-1.775475 4.372539
-1.947479 4.484972
-1.598079 3.952582
-1.343694 4.330673
-1.797954 4.493435
-1.777441 4.536037
-1.498207 3.989833
-1.602112 4.501298
-1.277150 4.183503
-1.404501 4.343094
-1.619986 4.186159
-1.531453 3.617564
-1.131513 3.881358
-0.465543 4.210511
-1.232839 4.284520
-0.904865 4.063707
-1.307514 3.816218
-1.281126 4.486420
-0.732623 3.977324
-0.946177 3.904989
-0.491436 4.219420
-0.930940 3.524458
-0.634849 3.486839
-0.734901 3.303164
-0.281036 3.520015
-0.800523 3.324197
-0.816968 3.053784
-0.678601 3.772092
-0.300546 3.113734
-0.347712 3.222955
-0.346157 3.808509
-0.488294 2.941857
-0.508201 3.280706
-0.462688 3.192080
-0.675741 3.227187
-0.531687 3.634846
-0.392337 3.128134
-0.418659 3.163083
-0.183487 2.806858
-0.049545 2.656778
-0.441768 2.905579
-0.603874 2.840332
-0.401830 2.498208
-0.400639 2.741808
-0.449158 2.549569
0.225523 2.646738
-0.158058 2.541035
-0.359957 2.412293
-0.000893 2.737590
-0.144165 2.630046
-0.516155 2.574233
-0.686446 2.354110
-0.086048 2.547812
-0.507845 2.575170
-0.417736 2.080169
0.121533 2.302349
0.116228 2.091052
-0.379032 2.185120
0.001046 2.041916
-0.784016 1.732065
-0.515533 2.332017
-0.434948 2.352181
0.106017 1.627809
-0.086460 1.575917
-0.475541 2.084321
-0.231065 2.535962
-0.231158 1.661768
-0.034779 1.937987
-0.463810 1.954847
-0.019032 2.132563
-0.602454 1.559904
0.102807 1.475938
0.208341 1.859790
-0.622420 2.027793
-0.105005 1.497607
-0.493442 1.499520
-0.639940 1.790710
-0.644823 1.333486
-0.431214 1.434161
-0.307306 1.310736
-0.136663 1.563528
0.047517 1.351362
-0.482367 1.390267
-0.077016 0.905621
-0.119321 1.496381
-0.819961 1.165992
-0.416848 1.525467
0.021833 1.276505
-0.094020 1.494544
-0.296120 1.177147
0.217158 1.461016
-0.109760 0.669976
-0.146834 0.842808
-0.348558 1.224282
-0.749893 0.799193
0.061452 1.284214
-0.355933 0.773392
-0.257953 0.873997
0.198859 1.153307
-0.307989 0.749267
-0.154650 0.767466
-0.110499 0.866451
-0.389789 0.643892
-0.365283 0.593950
-0.216257 1.330369
-0.014156 0.457245
-0.467590 0.198698
-0.188891 0.551067
-0.151566 0.610059
-0.199940 0.236457
-0.460440 0.290866
-0.398510 0.440849
-0.658469 0.051875
-0.301713 0.192759
-0.406492 -0.056047
-0.347197 0.433738
-0.708982 0.106287
-0.846045 0.107283
-0.523806 -0.032812
-0.738013 0.518063
-0.129425 0.029876
-0.384688 -0.030212
-0.331545 -0.029129
-0.692134 -0.188084
-0.688719 -0.107707
-0.212466 -0.223435
-0.623284 -0.437746
-0.646976 -0.492909
-0.999346 0.005172
-0.974535 -0.332768
-0.593544 -0.687088
-0.654805 -0.302674
-0.548304 -0.053560
-0.513697 -0.298498
-0.817652 -0.991755
-0.831310 -0.371378
-0.520387 -0.405131
-1.156161 -0.587402
-1.162176 -0.611199
-0.449874 -0.570627
-0.856053 -0.413921
-0.852356 -1.067864
-1.350590 -1.148986
-0.776566 -0.669611
-0.971064 -1.263649
-1.317800 -1.176738
-1.092049 -1.474302
-2.014895 -0.927091
-1.409525 -0.933876
-1.913789 -1.128795
-1.324832 -0.803855
-1.304123 -0.981981
-1.600388 -1.314618
-1.471340 -1.005337
-2.116516 -1.109877
-1.464014 -1.065377
-1.970294 -1.340367
-2.067957 -1.224941
-1.993568 -0.904863
-2.165069 -1.157528
-1.948102 -1.202524
-2.066876 -1.076779
-2.237635 -1.876460
-2.138795 -1.550377
-2.533233 -1.152629
-2.619975 -1.547210
-2.238959 -1.364187
-2.640682 -1.207606
-2.602181 -1.579418
-2.409516 -0.961028
-2.426551 -1.009622
-2.724520 -1.503548
-3.291699 -1.431136
-3.083665 -1.064085
-2.871283 -0.951547
-3.228595 -1.189874
-2.798159 -1.306005
-3.105544 -1.901370
-2.827074 -1.074634
-3.039814 -1.532755
-3.409163 -1.080179
-3.410342 -0.983002
-3.396861 -1.191877
-2.918893 -1.270941
-3.575205 -0.789344
-3.025104 -1.209676
-3.262074 -1.392934
-3.700119 -0.862233
-3.637988 -0.739249
-3.939146 -1.046021
-4.195720 -1.125144
-4.280822 -0.842844
-3.913434 -1.135970
-3.940258 -0.331242
-3.771615 -0.938721
-3.757993 -1.016605
-4.242000 -0.581040
-4.216085 -0.614060
-4.223940 -0.520879
-4.617480 -0.955363
-4.613130 -0.506030
-4.021493 -0.376106
-4.210996 -0.346005
-4.153788 -0.422507
-4.013638 -0.022711
-4.200948 0.028743
-4.947571 -0.261882
-4.596832 -0.305860
-4.624728 0.003978
-4.663077 0.244842
-4.594413 -0.150510
-4.679755 0.299136
-4.581557 0.303874
-4.654949 -0.064700
-4.833416 0.363070
-4.909873 -0.001125
-4.973447 0.520030
-4.908916 0.375466
-4.906753 0.035939
-4.864004 0.866014
-4.697925 0.470451
-4.688266 0.582314
-4.811878 0.653535
-4.869810 0.519969
-5.866082 0.814936
-5.109899 0.704323
-4.851350 0.896075
-4.623791 1.586286
-5.001008 1.176846
-5.135205 1.240595
-4.963696 0.933985
-4.748374 1.009704
-5.001605 0.981432
-4.571565 1.253897
-5.023175 1.276187
-4.988715 1.425879
-4.805379 1.052885
-3.982489 1.323745
-4.891072 1.860052
-4.739817 1.506192
-5.136107 1.343210
-5.261748 1.709982
-4.598811 1.511783
-4.860589 1.497139
-4.755503 1.753342
-4.556529 1.670129
-5.105725 1.533920
-4.294276 2.135434
-4.665694 1.804761
-4.667501 1.867689
-4.419985 2.072563
-4.313448 1.917677
-4.561754 1.971891
-4.365636 2.153339
-4.215511 2.273223
-4.184457 2.144367
-4.642211 1.964713
-4.054677 1.930539
-4.157001 1.903556
-3.801792 1.817992
-4.375498 2.155951
-4.327789 1.622098
-4.308584 2.170456
-4.364885 2.012996
-4.243463 2.131789
-4.463327 2.037477
-3.973404 2.553158
-3.867221 2.261334
-3.755526 2.196207
-4.041702 2.024806
-4.008472 2.002571
-4.089498 2.540991
-3.949810 2.382459
-4.169690 2.160885
-3.992476 2.376144
-3.886764 2.229509
-3.932121 2.235105
-3.609520 2.604350
-3.308324 2.483239
-4.019204 2.558942
-4.143099 2.792757
-3.757276 2.369407
-3.893555 2.501503
-3.423183 2.572659
-4.052000 1.924150
-3.570714 2.215447
-3.864529 2.195012
-4.114418 2.122922
-3.461351 2.306732
-3.940759 2.393130
-3.502288 2.117727
-3.984685 2.264810
-4.069170 2.508018
-3.664118 2.356055
-3.436246 2.048124
-3.623155 2.000436
-3.662662 2.540372
-3.503826 2.197997
-3.380468 2.187322
-4.108341 2.308314
-3.647958 2.648286
-3.496881 2.050214
-3.685493 1.867083
-3.565205 1.994343
-3.670505 2.108231
-3.282344 2.035959
-3.841087 2.167746
-3.662605 2.174143
-3.793397 2.275846
-3.846849 2.335768
-3.506556 1.971357
-4.031962 2.037679
-3.988259 2.065726
-3.949208 2.092656
-3.292113 2.011933
-3.941098 2.458205
-4.143481 2.301840
-3.072639 1.630371
-3.997654 2.284743
-3.685942 2.069434
-3.974352 2.532553
-3.601921 2.058281
-4.198389 2.094395
-3.755464 1.765254
-3.869843 2.307540
-3.562198 1.962184
-3.602394 2.280354
-3.441965 1.914862
-3.772550 1.721791
-4.323291 2.222606
-3.573772 2.341897
-4.117250 2.465170
-3.489969 2.287177
-4.128346 1.928794
-4.135270 1.991674
-3.937648 1.780591
-4.574727 2.274023
-3.669406 2.018665
-4.272513 2.164096
-4.165505 2.411501
-3.931736 2.197053
-4.348086 2.703722
-4.555650 2.611835
-4.035135 2.277587
-3.865463 2.552366
-4.256101 2.572232
-4.466514 2.370214
-4.540571 2.699259
-3.772837 2.366641
-3.959134 2.387300
-4.027272 1.973817
-3.981211 2.211713
-3.710717 3.053886
-3.822503 2.023271
-4.029565 2.513034
-4.152467 2.831721
-3.971585 2.379886
-4.281816 2.510645
-3.888549 3.098303
-4.083885 2.522867
-4.058462 2.617743
-3.998405 2.567209
-4.135959 2.459441
-4.379269 2.727506
-3.803401 2.980103
-3.828633 2.537833
-4.116462 2.647379
-3.543503 2.686242
-4.182340 2.767695
-3.946462 2.719306
-3.828394 2.810504
-4.221952 2.190220
-4.047450 2.860496
-3.778465 2.399285
-4.242182 2.664366
-3.940598 2.698140
-3.969950 2.697305
-4.023690 2.654744
-3.827199 2.826663
-3.897835 2.761889
-3.650574 2.816893
-4.111629 3.227928
-4.034302 2.669344
-4.162781 2.902704
-4.065560 2.776063
-3.885093 2.738572
-4.477990 2.578449
-4.066904 3.301438
-4.187256 2.994662
-4.064775 2.482198
-4.226664 3.019689
-4.217719 2.626020
-3.887360 3.125903
-4.195676 2.898083
-3.884271 2.632648
-4.205286 2.863319
-4.286821 2.824718
-4.371246 2.633868
-4.183645 2.502456
-4.097209 2.872500
-4.388358 2.984943
-3.614208 2.863155
-4.431707 2.942955
-4.204221 2.878108
-4.456575 2.356916
-4.084853 3.243906
-4.268742 2.578284
-4.432898 3.100970
-4.399163 2.891634
-4.700231 2.616043
-4.190978 2.854436
-4.467858 2.924051
-4.814667 2.836272
-3.975162 2.722066
-4.762888 2.959165
-4.541863 3.235853
-4.115552 2.340588
-4.791834 3.056907
-4.642701 2.796818
-4.836927 2.392507
-4.362244 3.017016
-4.627706 2.384109
-4.496280 3.083510
-4.897319 2.553996
-4.799887 2.851443
-4.778184 2.389369
-4.686359 2.941130
-4.920330 2.919569
-5.202624 2.529535
-5.511628 2.571823
-4.569063 3.216053
-5.338034 2.911024
-5.658681 3.012475
-5.651303 2.364405
-5.547321 2.959228
-5.452141 3.040770
-5.087665 2.975711
-5.795995 2.864411
-5.195363 2.655063
-5.286309 3.110857
-5.676740 3.333382
-5.604481 3.192456
-5.841866 3.350990
-5.555545 3.162414
-5.955550 3.398904
-5.831839 3.079173
-6.251899 3.283580
-6.138734 3.507015
-6.249754 3.614903
-6.204369 3.675291
-6.031401 3.349454
-5.966137 3.829681
-6.191715 3.816879
-6.479891 3.599658
-6.082670 3.759250
-6.369696 3.660804
-6.170480 4.070566
-6.463364 4.407534
-6.352274 3.808316
-6.677488 4.601690
-6.724353 4.305215
-6.774317 4.749616
-6.475942 4.703277
-6.580046 4.380911
-6.605216 4.240706
-7.140168 4.448984
-6.647604 4.753559
-7.222403 4.691438
-7.248691 5.289309
-6.997485 4.868355
-7.087381 5.114258
-6.906381 5.175925
-6.921062 5.398809
-7.074250 5.461823
-7.092478 5.694562
-7.154588 5.733651
-7.266884 6.025714
-7.277036 6.399400
-7.170089 5.852116
-7.775253 6.449821
-7.613912 6.217355
-7.100206 6.135370
-6.948055 6.392413
-7.124201 6.424280
-7.357509 6.542851
-7.599344 7.006903
-6.947871 7.248774
-7.606770 6.781828
-7.048167 7.081452
-7.017435 7.047552
-6.851833 7.505869
-6.885163 7.577671
-6.841030 7.816531
-7.044371 7.561265
-6.959583 7.933856
-6.908306 7.873514
-6.951034 7.841561
-6.867906 8.032698
-6.538988 8.275511
-6.336648 8.317179
-6.962000 8.519339
-6.935170 8.976726
-6.900516 8.725818
-6.646542 8.586518
-6.346673 8.753088
-6.881944 8.933564
-6.301784 8.835585
-6.569748 9.292934
-6.232110 8.969262
-5.818111 9.730959
-5.882160 9.898336
-6.175778 9.491092
-5.844769 9.427844
-6.172366 9.964564
-5.272940 9.507917
-6.094157 9.963133
-5.786366 9.995668
-6.062251 10.039496
-5.021508 10.665146
-4.963545 10.496867
-5.296237 10.264909
-4.680894 10.378420
-5.028847 10.463403
-4.984695 10.232588
-4.918907 10.142834
-5.170670 10.801874
-4.395941 10.673432
-4.529307 10.789078
-3.928635 11.237257
-4.578543 11.017754
-4.268908 10.861138
-3.947870 11.122788
-4.636191 10.746186
-3.838677 10.915415
-3.552576 11.110997
-3.471287 11.444540
-3.326587 11.240772
-3.458864 11.033530
-3.169040 11.318852
-2.979193 11.479564
-2.762394 11.440652
-2.922559 11.304800
-2.517808 11.134182
-2.344625 11.411509
-2.238839 11.125245
-2.417815 11.311969
-2.244768 11.080863
-2.145842 11.971758
-2.135707 11.274155
-2.527824 11.569888
-2.161965 11.623622
-1.809913 11.135841
-1.567884 11.386657
-1.705456 11.616571
-1.368964 11.371155
-1.566406 11.186056
-1.514474 11.237402
-1.422315 11.387822
-1.280001 10.932745
-1.257316 11.312429
-0.881407 10.978174
-0.749735 10.620406
-0.722053 10.892658
-1.011882 11.224417
-0.775996 10.890315
-0.457311 10.977576
-0.299149 11.008891
-0.504942 11.229685
0.103805 11.225141
-0.532002 11.186939
-0.240993 10.580362
-0.437241 10.778683
-0.389743 10.748240
-0.081053 11.288543
-0.037616 10.387209
-0.048855 10.104365
0.071980 10.759929
0.253661 10.750286
-0.155082 10.721676
-0.097729 10.702667
0.447845 10.563587
0.604595 10.486045
0.189350 11.106622
0.321665 10.309326
0.480621 10.337980
0.529606 10.337563
0.195343 10.658097
0.400215 10.561134
0.462960 10.241133
0.393227 10.794896
0.649385 10.001141
0.422649 10.298229
0.610919 10.032937
0.265417 10.151080
0.704723 10.177568
0.771016 10.163827
0.942077 10.171094
0.881172 10.410344
0.975712 10.352844
1.109098 10.334616
0.605173 10.429908
0.610749 10.597731
0.670053 9.831491
0.767382 10.023066
0.774391 9.795206
1.152031 9.490433
1.176205 10.325675
1.131313 10.371109
0.475678 10.176164
1.034345 9.950106
1.037837 10.413155
0.883895 10.421612
0.978132 9.787326
0.810107 9.934070
1.049326 10.472324
0.704529 10.479348
1.173554 10.022224
1.245792 10.376627
1.028943 9.424732
1.443566 10.366563
1.490849 10.261354
1.471755 10.103851
1.131604 9.802500
1.468085 10.409427
1.336716 10.298964
0.985624 10.016729
1.167816 9.966006
1.368790 10.204834
1.485154 9.978789
1.462823 10.220459
1.896913 10.605586
1.457314 10.753042
1.662742 10.344886
1.893120 10.464108
1.673072 10.898856
2.152494 9.821633
2.124213 10.578328
1.473095 10.357907
1.565671 10.181767
1.962346 10.400555
1.472686 10.266324
2.352397 10.587578
2.060519 9.964402
2.245892 10.626498
2.247029 10.955578
2.477383 10.432018
2.296032 10.659894
2.139554 10.604997
2.628018 10.831118
2.540983 10.621401
2.846187 10.780316
2.907934 10.469495
2.220371 10.386449
3.198219 10.751686
3.604180 10.160738
3.529796 10.813220
3.128775 10.599661
2.905788 10.501615
3.377291 10.839459
2.891524 10.981095
3.256305 10.213508
3.676532 10.521211
4.051545 10.456503
4.091691 10.248286
3.217363 10.735340
3.889683 9.870380
3.785428 10.013271
3.233586 10.225289
3.711649 10.247665
4.298317 10.051308
4.002439 10.249893
3.814856 10.532616
4.132845 9.841184
4.513847 9.662007
4.565084 10.032475
4.415830 10.091194
4.402185 9.617237
4.554988 10.146503
4.707593 9.226320
4.811358 9.958780
4.914525 9.490687
4.575195 8.942778
5.121149 9.375058
4.743646 9.337862
4.621150 9.577269
5.010124 9.350894
4.525556 9.381829
5.246950 9.094964
4.777695 9.269772
4.823565 9.407772
4.827171 8.847721
5.283403 9.265745
5.427870 9.137624
5.852463 8.785299
4.830658 8.594309
5.212231 9.464856
5.022094 8.529556
5.231198 8.786629
4.939990 8.031430
5.148197 8.704592
5.902251 8.883014
5.461617 7.962851
4.663352 8.225250
4.462319 8.350344
5.350150 8.464419
5.536530 8.077589
5.206133 7.528148
5.211203 7.865670
4.931380 7.297420
4.953355 7.826310
5.312590 7.494062
5.287526 7.602890
5.175617 6.858143
4.499084 7.345669
5.062922 7.555333
5.237380 7.463766
4.873696 7.164835
4.261550 6.979736
4.972712 6.695665
4.776665 7.716922
4.116623 6.869585
4.650277 7.471768
4.996236 7.624199
4.651142 6.438360
4.303754 7.316083
4.443866 6.346680
4.124955 7.248047
4.396490 7.005558
4.406768 6.057789
4.302013 6.801742
3.968203 6.953823
4.315266 7.331326
3.140416 7.196319
3.278289 6.807579
3.501474 7.629668
3.486642 7.161538
3.447809 6.988470
3.825647 7.120080
3.252451 7.341848
2.682968 7.460215
2.854457 7.218205
2.340643 7.411531
2.960176 7.712926
2.913959 6.485577
3.125177 6.770622
2.767747 7.039368
2.459765 7.818193
3.206359 7.184010
2.309199 8.314960
2.590451 7.545702
1.881205 7.573376
2.479490 8.590902
2.539977 7.755099
2.768327 7.964715
2.608578 8.715828
2.253025 8.165963
1.873485 9.312313
2.011829 8.816455
1.647074 9.080556
2.107897 8.574747
1.957346 8.995544
2.017842 8.797787
1.856677 9.386509
1.478851 9.581832
2.040107 9.856982
1.911626 9.750494
1.282128 9.091938
1.596499 9.950012
1.993567 10.775751
1.928714 11.199366
1.939436 10.428009
1.970739 11.367962
1.940376 10.586297
1.774638 10.535517
1.701551 10.310981
1.592872 11.837557
1.701687 11.702293
2.646991 11.293378
1.867081 11.822867
2.125259 11.756641
2.033752 12.239563
2.253938 12.008700
2.183061 12.278294
2.334175 12.730252
2.027036 13.144978
3.524096 12.790390
2.360205 12.690117
2.872138 14.018568
3.464265 13.161444
2.809116 12.505115
3.832331 12.958869
3.454597 12.940346
3.674445 14.625495
4.220562 15.094509
3.976542 14.835707
4.254852 13.722771
4.133261 14.580524
4.311290 14.940249
4.517708 14.255714
5.791241 13.740484
5.647188 14.843333
5.300982 14.678723
6.638120 14.957487
5.850571 14.879906
5.615130 15.347040
6.001289 15.122491
6.063914 15.491412
7.707467 15.715235
6.418211 15.121229
6.648272 15.151115
7.293915 16.527637
8.081395 16.169484
8.231808 17.180283
7.150741 15.276798
7.656236 17.281659
9.917617 16.023040
9.349920 15.694524
10.244225 15.912003
9.349309 15.978911
9.676756 15.920829
9.956192 16.364884
11.342056 15.504943
10.496249 15.342120
11.611925 15.751476
11.565627 15.678509
12.400931 16.651609
12.057074 16.008616
11.467585 15.860689
10.975620 15.545995
12.612080 15.935879
12.313772 15.501532
12.985225 14.831912
13.797277 16.011386
13.871219 14.739717
12.965371 15.343419
14.476151 14.577310
13.765421 14.661594
14.822534 14.656742
14.607008 14.790183
15.210904 15.247794
14.058481 14.485852
15.539662 15.829486
15.699526 14.202363
15.863058 13.640766
15.193010 13.652684
17.965727 10.966939
16.039246 14.558811
17.109325 11.008239
18.378143 13.658103
17.135288 13.081177
17.488463 11.512997
16.471830 10.482406
16.051706 11.119633
16.524655 10.741359
16.884092 10.278829
18.600701 10.808923
17.987163 12.694393
16.710888 11.517782
19.315223 11.596215
17.773882 9.277681
17.681128 9.627682
19.022355 11.674516
19.575090 9.050801
19.090793 9.169680
18.648308 8.156240
17.172707 9.800739
17.844932 8.615012
20.229371 9.818273
19.542929 9.864279
19.946653 7.576425
18.299222 7.750030
18.735656 7.047462
17.927266 7.100932
18.905928 9.804356
17.636010 7.988351
18.105019 7.149139
13.985588 7.852766
17.706187 6.626210
19.319429 1.594178
20.149808 7.610866
16.447945 4.390293
20.153581 6.847646
16.793781 6.882803
16.638772 6.296409
20.097732 3.222935
18.200126 3.796121
18.541459 5.702356
14.303114 2.322243
18.202052 5.282516
21.343542 6.945134
15.398798 5.550179
20.316917 4.397548
17.830606 3.986508
17.904583 2.425639
17.972626 1.161800
18.825920 4.729580
14.556728 3.898780
16.579331 0.994498
16.187206 2.927262
16.020951 3.131406
16.097018 0.705788
14.237840 3.932583
14.241643 3.765639
14.587281 4.785494
17.617904 8.041109
17.661781 1.587997
13.982751 4.817213
13.425863 4.458219
19.142959 8.413431
17.531693 -2.590505
16.760501 3.418220
15.329256 2.677536
13.826717 1.092419
17.996049 5.083476
14.684807 1.001749
14.216552 2.090613
16.764659 1.023668
11.986087 -1.124101
11.244600 5.748164
14.668263 8.194120
9.838983 5.654257
14.480569 5.476925
15.585864 0.345951
12.120085 -5.984736
19.297629 4.741438
12.087696 5.391542
18.380730 4.797506
15.578276 -0.124012
14.354186 2.919095
17.674658 7.894806
17.698405 12.278308
15.979996 8.870208
10.993735 10.986208
16.933577 9.631045
11.351724 9.223351
16.004617 7.987530
11.835598 7.144146
13.906194 7.703870
14.182902 13.916398
8.820569 6.737000
19.407930 3.617075
15.289761 4.327520
19.117768 5.677446
8.620963 -1.251502
13.394096 2.084034
14.959722 10.860582
21.901418 5.624796
10.303608 13.685117
18.815603 9.472710
16.603340 15.090954
10.453688 9.687142
9.727706 13.729574
14.824133 3.362146
25.656668 10.965429
24.965499 7.396691
11.014807 6.428362
19.024244 14.163308
18.848688 5.536605
23.261823 4.447614
23.854352 7.422303
26.425597 10.972505
23.584100 15.852497
18.723485 12.371943
17.222344 8.834297
25.635572 5.762299
19.888967 6.221072
16.798195 14.006192
24.252800 9.685512
21.107692 4.401995
17.711457 5.420693
19.102931 9.459785
27.803907 13.505401
25.739640 -3.873493
24.983780 10.947330
3.077603 5.587180
22.499906 9.858890
31.774841 7.086375
33.221019 9.272539
34.685018 5.323961
19.496961 14.180987
20.133513 -3.078890
30.928110 22.548989
45.538448 27.715097
45.071757 -3.055646
21.450793 10.628538
35.146992 1.275327
14.602977 5.411133
21.830980 -7.242496
24.027890 2.107167
22.558780 -8.909781
14.036386 -7.016128
47.361578 1.855016
31.451837 18.890933
33.835072 -6.618710
31.344556 36.216137
-21.589756 -54.992324
5.744567 9.159024
-14.799258 -20.160836
-11.436803 -1.544744
45.823972 4.649240
27.575102 -16.369896
40.865576 26.978827
51.325708 12.443498
13.799150 7.783880
4.608890 -9.185767
129.208768 34.290588
121.124277 90.404299
-644.020810 -214.463016
-42.225296 60.735648
-126.870610 -83.507737
4.068503 55.595607
219.746125 -21.844060
212.359513 101.087090
-7496.354016 -268.282722
