11361.729171 11396.852236
-5242.352392 -1946.018759
-74.962059 86.931170
-1.876665 -3.561599
16.802342 -2.442330
-31.553644 150.244029
-1683.617989 -1060.228697
-81.307132 62.343683
-3.146242 -9.979520
7.908746 0.377133
-30.924564 70.767465
2.487616 2.513486
-61.918510 29.585825
0.751142 7.337090
-4.109196 -1.029999
16.224911 -22.885756
-70.705177 -104.415220
-21.401448 5.326347
-0.764775 5.938329
-13.992051 -7.204137
-10.884825 10.141001
27.748183 67.834633
-8.650388 0.215588
-2.329264 7.237504
4.808388 3.964205
2.491951 -1.578217
-2.481088 -13.842630
6.453428 1.203532
1.401869 -2.556439
0.654149 0.675484
-16.735148 5.847591
-0.650595 24.257295
-3.373925 -1.426766
-1.119230 1.353681
4.161949 8.144896
-7.634336 0.884642
5.293209 -22.257374
-0.997859 -0.570248
0.595984 -0.528547
1.092506 3.602030
-12.954107 -0.977752
-0.926299 1.805614
-7.795747 -8.008656
-3.804086 1.796466
0.241686 4.673698
-0.888663 -0.341449
7.724842 -10.182333
-3.076664 -4.638330
-2.865831 0.554412
0.092998 -0.125805
-1.170184 -0.545759
-5.033514 4.326032
-1.621772 -4.442801
-3.769902 0.112725
-0.543925 1.294053
3.665623 2.995218
0.988122 -0.474230
0.300430 2.334243
0.027972 -0.069131
-0.076732 0.264108
-0.009819 0.105799
-6.509162 1.995612
0.047519 0.530449
0.441907 0.266916
-2.464553 2.497413
0.606462 1.069878
1.609321 -0.092036
-0.733827 2.544054
2.596160 1.724544
-1.994153 1.468793
-0.881657 -3.157565
-3.198112 -0.407636
1.340771 -2.545400
0.008464 0.111642
-2.932529 1.162325
0.047080 -0.518569
1.804070 0.653738
0.585254 -0.855957
0.163260 0.134352
-0.381388 0.144901
0.067035 -0.834792
-1.562214 -0.968846
1.792188 -1.412811
-0.914675 -2.365927
-1.159422 -0.083387
-0.563958 1.646453
1.051505 1.020237
-0.859998 0.383740
-0.053022 -0.883454
0.319136 0.139584
-0.279723 0.309358
-0.371693 -0.609927
0.494740 -0.076092
-0.030451 -0.496741
-1.090500 -0.567115
-1.487172 1.590086
0.353653 0.918319
-1.131771 0.023776
-0.513172 2.036591
-0.309360 -0.147595
0.136354 -0.166083
-0.117408 -0.790122
0.698731 0.153924
-0.320133 0.473970
-0.233085 -0.353397
-0.888122 0.417525
-0.065466 -0.168700
-0.244413 -0.150413
-0.912610 1.201217
-0.066513 0.007106
0.408105 -0.131532
0.308487 -1.312038
1.012748 0.679366
0.436248 -0.425065
-0.141874 -0.620843
-1.001060 0.022256
0.080899 -0.349683
-0.015354 -0.094317
0.924973 -0.401405
-0.155497 -0.863580
-0.805152 -0.259575
-0.046887 0.170569
-0.122469 -0.074054
1.614025 -0.489684
0.043640 0.138106
0.029131 0.076449
-0.678264 0.574104
0.137769 0.177795
-0.568325 0.086207
-0.075052 0.056709
-0.536611 -0.482334
-0.089989 0.120188
-0.032780 0.107749
-0.956608 -0.200801
0.087117 -0.047199
-0.690890 -0.726146
0.338489 -0.180397
0.051746 0.136499
-0.728734 -0.217786
-0.628176 0.646224
-0.202972 -0.476860
0.494721 -0.021303
-0.142766 0.428526
-0.181033 -0.174124
-0.081683 0.124641
-0.314472 -0.865684
-0.049883 -0.052180
0.063877 -0.024044
0.116444 0.180732
0.803589 -0.435129
0.042807 -0.056740
0.211034 0.106791
-0.125227 0.093965
0.254301 0.294233
0.353274 -0.037876
-0.072708 0.223410
-0.301482 -0.205658
0.434168 -0.336555
0.010516 0.144700
0.106149 -0.047683
0.119781 -0.217800
-0.239016 -0.137186
0.166650 -0.149142
0.019670 -0.131934
-0.610041 -0.065105
0.194826 -0.414888
-0.227350 -0.344973
-0.434429 0.191958
-0.042064 0.035800
-0.506706 -0.247597
0.019109 0.038962
-0.080136 -0.067860
-0.926734 0.073881
0.078237 -0.159561
-0.444928 -0.250379
0.213233 -0.201865
0.044599 0.018155
0.234190 0.057664
-0.001708 -0.084115
-0.107875 -0.162845
-0.297340 0.172907
-0.065047 -0.444101
0.407879 0.084660
-0.020423 0.085983
0.105297 0.229762
-0.426700 0.057021
-0.025362 0.420475
0.042349 0.061639
-0.241700 0.166536
0.115771 0.211562
0.355850 0.030311
-0.199810 0.455092
0.146718 0.082463
-0.322156 0.217196
-0.092325 -0.385269
0.488160 0.067081
0.676934 -1.034133
0.067821 0.136511
-0.466809 0.115716
0.038123 -0.171351
-0.036337 0.016011
-0.391708 0.369437
0.091941 0.123875
-0.413439 0.068927
0.039344 -0.258157
-0.189045 -0.166013
0.163478 -0.080012
-0.126135 -0.391363
-0.024559 -0.028863
0.158331 -0.259399
-0.108910 -0.079423
-0.135933 0.029882
0.027245 0.065180
0.082585 0.052287
0.159406 -0.239572
0.053389 0.042814
0.344535 -0.042757
-0.065491 0.254346
-0.376446 -0.241759
0.407950 -0.311137
-0.015354 0.021359
0.410696 -0.014417
-0.102916 0.321114
0.164704 0.174065
-0.492511 0.238586
-0.007930 -0.209096
0.126549 0.048577
0.370190 -0.601654
0.299886 0.374088
0.138745 -0.021064
-0.025612 0.102858
-0.597973 -0.293236
-0.103955 0.128381
0.111305 0.282868
-0.218458 -0.000148
-0.142157 0.551540
0.409287 0.321833
-0.427384 0.261151
0.014221 -0.005406
0.444782 0.073725
-0.026360 0.019085
0.055534 0.041223
0.296975 -0.101475
-0.015439 -0.122586
-0.003844 -0.015093
0.352858 -0.404695
-0.497833 -0.841324
-0.156500 0.014175
0.019553 -0.040522
-0.209502 -0.113756
0.267560 -0.226207
0.186063 0.536435
-0.080088 0.007012
-0.194763 0.440640
-0.224227 -0.222426
-0.425662 0.223448
0.024225 0.303710
0.396059 0.090914
-0.364571 0.544962
-0.750935 -1.053443
-0.303343 0.072129
-0.012379 0.200514
-0.118940 -0.050225
0.000476 -0.009577
0.005765 -0.002484
-0.246238 0.018592
0.018737 -0.078507
-0.026277 -0.027118
-0.233886 0.151118
-0.007608 -0.013875
-0.756894 -0.122913
0.081593 -0.137284
-0.604179 -0.704813
0.071128 -0.029578
0.003854 -0.110776
-0.097391 -0.033805
-0.501809 0.571478
0.161828 0.292844
-0.631147 0.092627
0.174621 -0.816000
0.277262 0.175419
0.096432 -0.071522
0.093159 0.313062
-0.195448 -0.012987
0.004343 -0.009243
-0.233954 -0.229141
-0.222844 0.105471
-0.018069 -0.204164
-0.446252 -0.124627
-0.719007 0.996950
-0.003913 -0.003189
-0.385164 0.090042
0.053582 -0.422560
-0.083225 -0.040411
0.217587 -0.201546
0.017844 0.036716
-0.328625 0.012161
0.017892 -0.063017
0.240730 0.191338
0.358868 -0.206742
-0.010524 -0.035485
-0.323930 -0.063034
-0.348264 0.597577
0.053148 0.073350
-0.336518 0.108165
0.000928 0.148551
-0.430808 -0.168714
0.058462 -0.072598
0.051191 0.086320
-0.080309 0.015984
0.117210 -0.514491
0.242799 0.155041
-0.221403 0.167875
0.007960 0.056416
-0.229842 -0.027676
-0.003959 0.026338
-0.254438 -0.249776
0.528023 -0.242778
0.010237 0.030094
0.236213 0.080483
0.148767 -0.210466
0.088697 0.122839
0.041839 0.000486
-0.006505 -0.020647
-0.434710 -0.248724
-0.170831 0.161294
-0.076291 -0.174553
-0.376327 -0.008738
0.061739 -0.138092
-0.035957 -0.016767
-0.043123 0.011669
0.033567 0.145702
-0.157503 -0.020944
0.051267 -0.103573
-0.488765 -0.652134
0.576922 -0.167377
0.014079 -0.484328
0.230323 0.086703
-0.352687 0.385405
-0.253860 -0.495967
0.028425 -0.015341
0.026153 -0.048780
0.338501 0.255180
0.078170 -0.069263
0.068665 0.220827
-0.028856 0.010223
-0.158005 0.283662
-0.147936 -0.179267
0.459823 -0.175833
-0.025163 -0.295892
0.183343 0.045438
0.025582 -0.009251
0.147008 0.271850
0.211521 -0.054742
0.126944 -0.658270
-0.363083 -0.192819
-0.195281 0.142234
0.044750 0.082636
-0.761147 0.000151
-0.098165 0.207600
0.117050 0.084222
0.020472 0.006740
0.066062 0.629383
-0.046668 -0.026878
-0.101529 0.183228
-0.157307 -0.187170
-0.656948 0.170956
0.027028 -0.139986
0.086119 0.057672
0.006577 -0.029588
0.023711 0.012417
0.026165 0.014690
0.126928 -0.494633
-0.285242 -0.232831
-0.354564 0.250369
0.014064 0.139760
0.143629 0.002371
0.091246 -0.134809
-0.112697 -0.101391
-0.036590 -0.004242
0.024751 0.528955
0.100920 0.054216
-0.111666 0.106377
-0.256383 -0.484419
-0.200392 0.050724
-0.166266 0.762009
-0.186904 -0.134654
-0.707377 0.580128
-0.002146 0.051059
-0.041660 -0.019594
-0.147217 0.395242
0.322443 0.327474
0.603092 -0.319597
0.018784 0.006991
-0.095167 -0.005729
-0.166399 0.208818
-0.396920 -0.599368
0.238225 -0.043311
-0.021153 0.029186
0.390661 0.171577
0.307096 -0.266269
-0.023952 -0.009808
-0.728695 0.016844
-0.006972 0.082157
-0.178866 -0.116510
-0.409625 0.231125
-0.049912 -0.343247
-0.011294 0.016685
0.076142 -0.172048
0.343490 0.378293
0.291125 -0.085532
-0.017977 -0.030790
0.199778 0.056768
0.649498 -0.712293
-0.172981 -0.282041
-0.166931 0.005018
0.012751 0.026955
-0.392583 -0.230759
0.076235 -0.079986
0.062268 0.145919
-0.096061 0.011759
0.110668 -0.290442
0.341498 0.310990
0.018971 0.011100
0.001323 0.236712
-0.321100 -0.108803
-0.046882 0.095039
0.066794 0.133009
0.074362 -0.035903
0.007546 0.083757
-0.544982 -0.263590
0.125687 -0.137710
0.113288 0.235820
-0.152168 0.021442
0.036668 -0.161063
0.288273 0.213444
-0.243946 0.162904
-0.011447 0.036163
-0.052989 -0.027507
0.154274 -0.224834
0.149460 0.213306
0.182830 -0.079285
0.008643 0.259187
0.407573 0.185383
-0.141451 0.128443
-0.254022 -0.535926
-0.219671 0.042626
-0.037299 0.081576
-0.082920 -0.076417
-0.059859 0.063313
0.088593 0.390287
0.343871 0.014616
-0.129512 0.309021
0.410152 0.447211
-0.558989 0.227645
0.023070 0.116547
0.980350 0.317073
-0.004852 -0.020100
0.366552 0.551176
0.347370 -0.056828
-0.005794 -0.068104
-0.463156 -0.273126
-0.118947 0.123184
0.027550 0.118464
-0.119643 -0.015301
-0.046484 0.169560
-0.122542 -0.085322
-0.065226 0.018834
-0.017685 -0.217637
-0.253174 -0.037632
0.023472 -0.065091
0.092364 0.096365
-0.093540 0.044024
0.005381 -0.349208
0.568071 0.232763
-0.400806 0.435735
-0.125731 -0.229289
0.032511 -0.017038
0.042044 -0.102772
-0.434354 -0.292383
0.289475 -0.213067
-0.123814 -0.559857
0.074875 0.022047
-0.276425 0.515280
-0.047610 -0.070889
-0.320213 0.145718
-0.017365 -0.129693
0.187041 0.048733
0.116970 -0.125636
-0.143078 -0.214895
0.000854 -0.012703
-0.014486 0.154828
-0.339485 -0.183710
-0.350557 0.272745
0.010806 -0.004833
0.014589 0.011991
-0.087209 0.188239
-0.188344 -0.185155
0.600935 -0.301372
-0.006792 0.034632
-0.213601 -0.061113
-0.344882 0.540495
-0.006440 0.009265
-0.239957 0.056790
0.004686 0.071013
0.491852 0.240348
0.115777 -0.128588
0.308190 0.658582
0.298462 -0.010691
-0.049456 0.133585
-0.055925 -0.053688
-0.061893 0.051040
0.051503 0.275556
-0.617977 -0.094897
0.163832 -0.285921
0.024492 0.041016
0.251129 -0.105571
0.011535 0.282624
-0.362204 -0.121155
0.047237 -0.068678
0.009756 0.001094
-0.105464 0.024912
-0.008977 0.006025
0.008969 -0.003267
-0.355911 0.288049
0.247246 0.798188
0.621832 0.021926
0.197288 -0.446597
0.678017 0.650299
-0.416551 0.198027
0.015489 0.088404
-0.345431 -0.082898
-0.048969 0.059721
-0.434485 -0.636117
0.262715 -0.061572
-0.007615 0.019381
-0.396169 -0.202057
-0.015494 0.021802
-0.123575 -0.278947
-0.178920 0.003125
-0.212506 0.677734
-0.290557 -0.222469
0.032360 -0.025001
-0.035817 -0.204541
0.387361 0.067292
0.205490 -0.369348
0.105055 0.119282
-0.053064 0.022777
-0.000808 -0.209570
-0.275393 -0.109727
0.018933 -0.016713
0.104266 0.200904
-0.019118 -0.000204
0.010861 -0.036635
-0.202514 -0.128164
0.050295 -0.040393
0.068823 0.226992
0.029438 0.004063
0.008073 -0.022236
-0.108460 -0.109871
0.371150 -0.170481
-0.022878 -0.272596
0.002808 -0.000434
0.212027 -0.287787
-0.156935 -0.236283
-0.353825 0.081294
0.027533 -0.210190
0.405640 0.213237
0.735523 -0.661453
-0.190679 -0.482139
-0.355247 0.007471
0.091389 -0.262461
0.268500 0.221964
-0.455339 0.263518
0.031912 0.181398
-0.249511 -0.045860
-0.325602 0.540355
0.097301 0.119750
-0.152100 0.051680
-0.009508 0.220965
0.681739 0.279819
-0.182852 0.200040
-0.030361 -0.055720
0.263692 -0.031961
0.055827 -0.216067
0.158362 0.110834
-0.081168 0.054465
-0.114187 -0.436820
0.214965 0.023083
-0.032923 0.061385
-0.041674 -0.047850
0.346344 -0.147203
-0.011539 -0.146631
-0.593741 -0.187601
0.286286 -0.366024
-0.115953 -0.177830
0.003666 -0.004854
0.002502 0.011129
-0.162751 -0.085441
-0.064349 0.049311
0.139396 0.365022
-0.610603 0.003265
0.096354 -0.271524
0.131753 0.107410
-0.092922 0.056851
-0.051252 -0.311143
0.172102 0.030971
-0.193297 0.315694
0.096419 0.135891
0.043362 -0.019247
0.022293 -0.272966
0.204457 0.096771
0.117797 -0.130137
-0.161291 -0.353262
0.339967 -0.023912
-0.084144 0.283487
-0.277220 -0.206893
0.143965 -0.088927
0.061131 0.281282
0.190487 0.015390
-0.146087 0.301249
-0.146696 -0.149117
0.217206 -0.096498
0.014020 0.206462
0.475393 0.167656
-0.083816 0.091468
0.277994 0.452690
-0.543738 0.107307
0.058711 -0.378464
0.127519 0.065309
-0.033175 0.037795
0.091439 0.293374
0.181588 -0.003776
-0.261661 0.675437
-0.093098 -0.072730
-0.177646 0.082206
0.018183 0.074518
0.141481 0.042756
0.143001 -0.230932
-0.093012 -0.143949
0.046412 -0.003290
0.001331 -0.128423
-0.509524 -0.249730
0.089791 -0.074759
0.089235 0.223009
-0.365435 0.014166
0.112854 -0.343713
-0.356477 -0.256046
0.195656 -0.137255
-0.101722 -0.514656
0.103326 0.024954
-0.019179 0.013865
-0.068720 -0.094240
-0.162312 0.072857
-0.012009 -0.192524
0.259445 0.082754
0.112221 -0.115958
-0.063422 -0.090918
0.485686 -0.087725
0.027552 -0.081886
0.117879 0.085778
0.475226 -0.383711
0.078320 0.211364
-0.097663 0.006278
-0.007762 -0.010264
0.019913 0.003432
0.053318 -0.013492
-0.045743 -0.344546
-0.174717 -0.057559
-0.053487 0.096242
-0.110858 -0.140454
-0.045267 -0.000466
0.022522 -0.100643
-0.068177 -0.020957
-0.297209 0.262314
-0.095227 -0.257404
-0.131356 0.017315
0.042907 -0.170694
-0.323135 -0.270726
0.013676 0.005659
0.096399 0.562449
0.380029 0.050992
0.202602 -0.329454
0.084825 0.120573
-0.006989 -0.010383
0.004739 0.470169
0.149915 0.071427
-0.137223 0.135989
0.119875 0.199408
0.242403 -0.020110
-0.075441 0.278092
0.115799 0.060801
-0.319952 0.252377
-0.009803 0.010528
-0.096935 -0.019515
-0.003652 0.037769
0.169988 0.187096
0.150836 -0.083040
-0.019780 -0.425240
0.007936 0.015214
0.102264 -0.159684
-0.319876 -0.510855
-0.149338 0.046894
0.015764 -0.215286
-0.135571 -0.085761
0.312457 -0.262378
-0.108825 -0.243474
0.136638 -0.014939
0.093965 -0.230273
-0.285120 -0.220478
-0.117298 0.053196
0.064858 0.309760
0.181242 0.047203
-0.094399 0.132122
0.256382 0.302669
-0.349724 0.127403
-0.014425 0.051671
-0.135521 -0.069872
-0.371655 0.416788
0.172350 0.371011
-0.183142 0.007766
-0.095523 0.431047
0.286588 0.211506
-0.006750 -0.010210
0.046234 0.127090
-0.537692 -0.040052
-0.022658 0.018823
0.205370 0.197271
0.128614 -0.042349
0.009568 0.415604
-0.321352 -0.113213
0.163802 -0.191964
0.056804 0.113943
-0.047849 -0.002403
0.098318 -0.554256
-0.278620 -0.142277
0.190300 -0.177527
-0.113528 -0.345303
-0.059975 0.011361
0.127912 -0.371796
-0.390966 -0.355822
0.024098 0.000020
-0.062264 -0.350663
0.341584 0.061820
-0.072426 0.134816
0.144674 0.209939
0.057688 -0.029145
0.008851 0.037910
0.083142 0.049198
-0.200462 0.189212
0.009941 -0.004808
-0.332791 0.039681
-0.180608 0.612736
0.084004 0.047228
0.145277 -0.084358
-0.037841 -0.112087
0.112180 0.002866
-0.019415 0.060743
-0.240894 -0.248601
-0.391776 0.146968
0.013128 0.097244
0.210655 0.082335
-0.206353 0.237661
0.039080 0.046315
0.030977 0.004669
-0.075348 0.362191
-0.120636 -0.082765
-0.149069 0.133628
-0.108723 -0.290910
-0.093499 -0.012387
-0.096901 0.264901
0.301128 0.287847
-0.258653 0.122531
-0.044929 -0.451159
-0.569016 -0.127146
0.170937 -0.271075
0.049868 0.053756
-0.195147 0.063036
0.002324 -0.129080
-0.091834 -0.053177
0.235433 -0.217629
-0.005462 0.008843
0.558780 -0.043337
0.036379 -0.091483
-0.300186 -0.217163
0.284206 -0.190549
0.038848 0.142580
-0.010754 0.006513
-0.026789 0.032607
-0.183056 -0.222425
0.301682 -0.105406
-0.008437 -0.180992
0.149206 0.046626
-0.288023 0.349049
0.041770 0.089731
-0.248246 0.031212
0.106845 -0.487151
-0.013296 -0.000104
0.007125 -0.014148
0.005996 -0.003360
-0.168529 -0.002284
0.098006 -0.242949
-0.067386 -0.073377
-0.298266 0.151653
-0.028739 -0.233720
-0.227365 -0.066577
0.079715 -0.102607
-0.101506 -0.137881
-0.150815 0.031841
0.000008 0.050723
-0.008176 0.002020
-0.076954 0.064301
-0.006504 -0.029294
0.206344 -0.002845
-0.260448 0.778261
0.528061 0.414091
0.286752 -0.167506
-0.051010 -0.243814
-0.037361 -0.010923
0.084906 -0.138334
-0.238969 -0.281648
0.021651 -0.011985
-0.002540 0.347925
-0.088157 -0.030427
-0.219841 0.240044
0.068122 0.121238
0.086884 -0.007783
0.078795 -0.358948
-0.391802 -0.261134
0.032943 -0.020300
0.142344 0.507958
-0.366743 -0.031029
0.055130 -0.112908
0.074892 0.078982
-0.412124 0.185191
0.009836 0.101918
0.200554 0.060706
-0.131605 0.173699
-0.022352 -0.038101
-0.159703 0.037929
-0.029016 0.201826
-0.035112 -0.020594
-0.006203 0.007567
-0.026003 -0.063047
0.202611 -0.004322
0.052884 -0.145795
-0.162873 -0.134713
-0.020561 0.010711
-0.014478 -0.092301
-0.243096 -0.046471
0.077175 -0.127744
-0.096234 -0.122523
-0.151261 0.049223
-0.010519 0.243592
0.201465 0.084689
0.262535 -0.280013
-0.028374 -0.057530
0.327199 -0.034583
-0.112219 0.439241
0.249229 0.171417
0.069221 -0.047561
0.020333 0.081316
0.273259 0.026447
0.073239 -0.146951
-0.116455 -0.120775
-0.016597 0.005614
-0.006588 -0.165266
-0.137241 -0.041751
-0.106160 0.133375
0.094558 0.149547
0.301695 -0.058446
0.030342 -0.204346
0.278585 0.154395
-0.105279 0.092170
-0.051474 -0.135132
-0.090304 -0.003385
-0.073435 0.200328
-0.104444 -0.087745
0.066014 -0.039072
0.027695 0.174038
0.250979 0.058133
0.001096 -0.007864
0.153574 0.198518
-0.368808 0.113475
0.004055 -0.116800
-0.109872 -0.053448
0.366566 -0.367100
0.067351 0.153230
-0.236045 0.015417
0.082852 -0.280420
-0.254952 -0.179761
0.062965 -0.047298
0.070651 0.279367
-0.412829 -0.046591
-0.100018 0.182015
-0.244214 -0.276904
0.428707 -0.166125
0.003094 0.327443
0.156022 0.047907
-0.060465 0.082408
-0.081894 -0.129015
-0.289660 0.045285
0.035742 -0.163353
0.089190 0.059832
-0.310512 0.242780
0.000327 -0.017989
0.092757 0.009128
-0.008064 0.003268
0.209125 0.183593
-0.200733 0.109722
-0.031728 -0.214614
-0.186875 -0.052325
-0.041893 0.074021
0.176359 0.258218
-0.212246 0.050557
0.034037 -0.299496
0.277387 0.140283
-0.071224 0.059016
0.087657 0.181038
-0.242183 0.021749
-0.062961 0.180533
0.203363 0.145635
0.000729 0.008620
-0.109108 -0.479187
0.079567 0.003872
-0.036464 0.082777
0.078705 0.103388
0.188587 -0.079007
0.008194 -0.002584
-0.330372 -0.113223
-0.109092 0.114249
-0.004102 -0.024827
0.498264 -0.066957
-0.048949 0.193230
0.086043 0.043739
-0.184991 0.153129
0.005090 0.046431
0.518928 0.020144
0.038278 -0.065264
-0.185852 -0.166514
0.050961 -0.034652
0.038143 0.309883
0.043255 0.021219
0.033870 -0.063770
-0.045654 -0.083822
0.056196 -0.004114
0.023453 -0.289961
0.144059 0.062226
0.325861 -0.288216
0.062325 0.176742
-0.457451 0.006441
-0.034403 0.135110
-0.257529 -0.193636
-0.261255 0.144955
0.031660 0.115111
0.233458 0.050539
0.020913 -0.056122
0.251947 0.289979
0.105892 -0.025853
-0.012836 0.116004
-0.414125 -0.175323
-0.150248 0.182381
-0.062338 -0.096606
0.357208 -0.056115
-0.000245 0.047399
-0.122371 -0.068242
0.066556 -0.061772
0.022028 0.038815
0.131301 0.021169
-0.067994 0.120914
-0.009120 -0.024472
-0.025819 0.023498
0.026048 0.530815
0.277252 0.070268
-0.111819 0.167849
0.147426 0.248170
-0.184370 0.029718
-0.015618 0.193242
0.168109 0.102681
0.289370 -0.269865
-0.039468 -0.133269
-0.137446 0.012666
-0.091819 0.223769
0.309150 0.245442
-0.011381 0.019218
-0.062429 -0.315516
-0.204219 -0.051607
0.092095 -0.128858
0.132862 0.187431
-0.079352 0.013676
0.011349 -0.003611
-0.140987 -0.047659
-0.243803 0.241954
-0.126254 -0.280933
0.274469 -0.017184
-0.057931 0.179927
-0.113580 -0.092632
-0.165892 0.129012
-0.133254 -0.472219
0.179367 0.007330
0.003287 0.018619
0.026709 0.044587
-0.029050 0.000178
0.007562 -0.079174
-0.407782 -0.118789
-0.038275 0.030722
0.081207 0.111105
-0.003945 0.012119
0.050997 -0.383846
-0.237012 -0.147283
0.166417 -0.125441
0.031700 0.121415
-0.396175 -0.015725
0.118039 -0.276117
-0.259565 -0.214256
-0.285461 0.140763
0.034422 0.169350
0.067630 0.026190
0.176444 -0.293068
0.092271 0.105374
-0.270536 0.090876
-0.045447 0.498340
-0.007553 -0.015235
0.091632 -0.077317
-0.121627 -0.236313
0.003452 -0.010971
-0.015901 0.095177
0.165089 0.133812
0.064518 -0.055280
-0.090985 -0.437458
0.199061 0.035939
0.142535 -0.294670
-0.073399 -0.097021
0.044919 -0.006710
-0.002160 0.367674
0.117093 0.029733
-0.082508 0.116207
0.066401 0.134387
0.117929 -0.030585
0.066176 -0.300137
0.039505 0.035283
0.171910 -0.150415
0.110409 0.301886
0.042400 0.011295
0.011423 -0.053236
0.016829 0.002404
-0.064122 0.043249
-0.039867 -0.265561
-0.083428 -0.030345
0.322459 -0.457235
-0.054298 -0.060276
-0.188519 0.041048
-0.006122 0.164701
-0.026409 -0.002576
-0.116390 0.099578
-0.203568 -0.489027
0.280922 -0.006812
-0.129846 0.390553
0.145547 0.100743
-0.022661 0.024470
-0.071269 -0.300620
-0.177709 -0.035579
-0.143853 0.277032
0.069114 0.093357
0.336048 -0.132976
0.008668 -0.298216
0.227845 0.093651
-0.213251 0.234574
-0.069682 -0.143174
0.074318 -0.003093
0.003975 -0.056424
-0.178037 -0.121580
0.165218 -0.116528
0.092209 0.327657
0.049962 -0.004460
-0.110292 0.268769
0.042970 0.051722
-0.090574 0.035338
0.016541 0.105301
-0.142726 -0.031645
0.170668 -0.250264
0.020488 0.018291
-0.265795 0.071538
-0.023763 0.146640
-0.073061 -0.044530
0.132784 -0.113433
0.181896 0.461803
0.166617 -0.011516
0.030286 -0.071472
-0.407477 -0.320968
0.204582 -0.128490
-0.012552 -0.100133
0.119078 0.026639
-0.047572 0.070389
0.141566 0.164535
-0.242739 0.088784
-0.001146 -0.159384
0.223866 0.084148
0.048341 -0.045992
-0.059050 -0.103167
0.199085 -0.029517
0.106662 -0.431986
0.224367 0.154707
-0.075736 0.049596
0.007293 0.010247
-0.241652 -0.015882
0.184695 -0.403643
0.006160 0.000679
0.022772 -0.006052
-0.008751 -0.076340
-0.169864 -0.054269
0.053417 -0.065312
0.113758 0.183391
-0.117946 0.022495
-0.011165 0.101136
-0.209227 -0.109777
-0.110102 0.092703
-0.198959 -0.529682
0.302305 -0.000018
-0.132530 0.359422
0.007523 0.003276
-0.033351 0.021357
-0.034855 -0.205828
-0.024393 -0.006918
0.211003 -0.338080
-0.200900 -0.254930
-0.000011 -0.001693
0.015655 -0.289551
-0.104401 -0.043185
-0.099892 0.103341
0.044429 0.088146
0.579427 -0.057196
0.067611 -0.262414
0.058208 0.039850
-0.372725 0.258221
0.005587 0.023946
-0.232299 -0.025174
-0.072530 0.146238
0.085057 0.090827
-0.139066 0.058491
0.009087 0.216777
0.242447 0.078152
0.087302 -0.109923
0.120033 0.198122
-0.070756 0.013055
-0.011394 0.073655
0.020060 0.012514
0.133954 -0.113249
0.030024 0.081271
-0.247584 -0.002420
-0.070637 0.177977
-0.305624 -0.273317
-0.092660 0.051248
0.040029 0.310402
-0.068747 -0.017449
-0.290583 0.450262
-0.135327 -0.178716
0.132821 -0.041013
-0.023555 0.357773
-0.104950 -0.045070
0.313172 -0.318203
0.040279 0.080689
-0.511877 0.042147
0.037749 -0.142853
-0.101694 -0.078790
0.035334 -0.019244
-0.075475 -0.313810
0.362253 0.043797
0.026221 -0.041825
0.132941 0.154295
0.414894 -0.167224
-0.005728 -0.516450
-0.279537 -0.093385
-0.298279 0.353217
-0.044731 -0.086340
0.331121 -0.051524
0.019484 -0.127572
0.357997 0.210508
-0.188922 0.156628
0.011159 0.050101
-0.298509 -0.016662
-0.211116 0.521352
-0.177725 -0.158092
-0.142967 0.065739
0.052598 0.423950
0.503313 0.131788
0.177249 -0.269072
0.015752 0.012013
-0.031092 0.014511
0.026876 -0.342881
-0.007538 -0.010636
0.425692 -0.398777
0.063816 0.163910
-0.604308 0.025317
-0.005554 0.040352
-0.221669 -0.162730
0.535964 -0.342137
0.058946 0.252983
0.090418 0.021251
0.038188 -0.083315
-0.044725 -0.063797
0.072682 -0.018629
-0.007732 0.031721
-0.037090 -0.022181
-0.016230 0.030538
-0.091349 -0.150870
0.187643 -0.035328
-0.003304 0.054001
0.216196 0.147274
-0.532680 0.393412
-0.082623 -0.302700
-0.089682 0.002909
-0.012611 0.007264
0.128778 0.113549
-0.229306 0.118259
-0.017135 -0.094803
-0.548037 -0.160230
-0.111988 0.170950
0.208261 0.326686
-0.063193 0.005687
0.002089 0.060564
0.030644 0.026341
-0.079193 0.059475
0.041375 0.076706
-0.463201 0.023171
-0.015736 0.016119
-0.242499 -0.209452
-0.525504 0.321936
0.019103 0.162442
0.167485 0.019796
-0.085051 0.164192
-0.185874 -0.212468
-0.103257 0.024167
0.021117 -0.378733
-0.233700 -0.083127
0.004184 -0.020187
0.000201 -0.022697
-0.121152 0.025408
0.066484 -0.323898
0.233802 0.143673
0.351303 -0.240083
-0.068504 -0.206966
0.070759 -0.004926
-0.044683 0.120425
0.197982 0.218445
-0.050454 0.010224
0.054935 0.692007
0.192274 0.069660
0.082096 -0.127255
-0.029220 -0.067033
0.064017 -0.002074
-0.043050 0.217634
-0.182962 -0.112842
0.214281 -0.171215
-0.127777 -0.305496
0.040842 -0.011917
-0.003661 0.044267
-0.219442 -0.171393
0.001943 -0.014635
-0.019880 -0.204792
-0.445886 -0.078689
0.029832 -0.070579
0.154480 0.179926
-0.349556 0.122044
-0.009676 -0.045998
-0.403378 -0.187278
-0.323934 0.356362
-0.144070 -0.268633
-0.236946 0.010806
-0.034866 0.179602
0.206546 0.160552
-0.240917 0.150436
0.044827 0.128151
0.054952 0.018423
0.017295 -0.061958
-0.205779 -0.238847
0.063548 -0.013091
0.006028 0.467062
0.448871 0.133748
-0.064557 0.101173
-0.005990 0.014094
0.222608 -0.055088
0.051144 -0.228445
0.003512 0.016385
-0.261879 0.201187
-0.064685 -0.222060
0.392998 0.019586
0.142942 -0.398797
0.109151 0.080786
0.213744 -0.098899
-0.108028 -0.725486
-0.038413 -0.021550
0.058050 -0.065878
-0.121496 -0.143846
0.084651 -0.037257
-0.002810 0.201374
-0.103822 -0.034097
0.080976 -0.098294
-0.024558 -0.083503
-0.041867 0.015472
-0.069222 0.194440
-0.008491 -0.021632
-0.386275 0.266508
0.088591 0.447731
0.067908 -0.003271
-0.019719 0.063152
-0.143626 -0.143193
-0.311758 0.108288
0.017990 0.370360
-0.215145 -0.063178
-0.146979 0.157356
0.044827 0.054012
-0.297046 0.061559
0.054156 -0.343667
-0.020422 -0.026386
0.219189 -0.158178
-0.093397 -0.249482
0.256248 -0.001114
0.009585 0.007576
0.221162 0.223210
0.785424 -0.404778
0.020058 0.077741
-0.064444 -0.004395
0.076505 -0.131235
0.044170 0.043006
0.716458 -0.175844
-0.011269 -0.001460
0.164925 0.068061
0.101661 -0.081219
0.074359 0.201763
-0.113952 -0.005468
0.043453 -0.100922
0.067460 0.066416
-0.473228 0.279955
0.059376 0.240002
-0.232534 -0.025856
-0.073159 0.108232
-0.064903 -0.093040
0.228862 -0.071674
-0.014183 0.468341
-0.082781 -0.042617
-0.088211 0.116518
-0.080227 -0.126538
-0.091499 0.002716
-0.036830 0.216613
0.004908 0.015035
0.098668 -0.086737
0.059334 0.164394
-0.109487 0.002602
0.236506 -0.552014
0.165112 0.148727
-0.381662 0.189691
-0.009140 0.003384
-0.358555 -0.109623
-0.097940 0.150744
-0.125895 -0.172445
-0.149079 0.026045
0.020423 -0.092641
0.028405 0.024650
-0.310181 0.269726
0.062808 0.133478
-0.225489 0.014366
-0.094667 0.250937
-0.187935 -0.164205
0.104823 -0.051998
0.001034 0.052195
-0.316793 -0.065896
0.198616 -0.319042
0.133433 0.177520
-0.316524 0.098238
0.008187 -0.021498
-0.168524 -0.060700
-0.046778 0.040224
-0.037157 -0.088334
0.454304 -0.046515
0.023757 -0.127238
0.489985 0.322356
-0.147799 0.114136
-0.175394 -0.617879
0.288710 0.019335
-0.012586 0.041063
0.146502 0.159691
0.292075 -0.135412
0.009939 0.066980
0.005747 0.007794
0.010141 -0.022637
0.126974 0.190276
0.079429 -0.011329
-0.103621 0.665813
-0.026554 -0.020416
0.209645 -0.174806
0.186877 0.513616
0.190743 -0.005160
0.024870 -0.054264
0.453594 0.394574
-0.332545 0.179702
-0.019625 -0.156236
-0.268150 -0.051417
0.065497 -0.111850
0.058940 0.070505
-0.088649 0.031199
0.022471 -0.469196
0.240098 0.100945
-0.149134 0.159543
-0.277415 -0.568493
0.156955 -0.017627
0.031941 -0.108824
-0.573336 -0.403698
-0.068260 0.043612
-0.032548 -0.140805
0.169682 0.021321
-0.270902 0.531418
-0.143853 -0.157939
0.066309 -0.025609
0.000215 0.047099
0.312492 0.101870
-0.181987 0.229417
0.262813 0.439768
0.597570 -0.112853
-0.024520 0.146873
0.228658 0.133307
0.013132 -0.011356
0.154467 0.444136
-0.156246 -0.003235
0.178404 -0.450744
-0.023374 -0.020706
0.381467 -0.200555
-0.052622 -0.414164
-0.073378 -0.016287
0.171967 -0.262201
-0.131095 -0.180741
-0.557077 0.159398
-0.026679 0.320713
0.416837 0.191671
0.204180 -0.200070
-0.045090 -0.095041
-0.130336 0.007163
-0.074488 0.261597
0.236839 0.179508
-0.176539 0.111347
0.035552 0.147515
-0.042279 -0.002974
0.015488 -0.035185
0.103194 0.112103
-0.140488 0.057702
0.001249 0.372681
-0.372984 -0.136971
-0.072740 0.092531
-0.002063 0.004339
-0.136204 0.018045
-0.011450 0.080444
-0.332144 -0.198150
-0.018527 0.008722
-0.059800 -0.201889
0.466352 0.025883
-0.287680 0.666678
0.008804 0.001101
-0.220841 0.115301
-0.066819 -0.586400
0.398861 0.096542
0.418770 -0.592850
-0.350224 -0.492170
0.035210 -0.015512
-0.056962 0.616229
-0.560289 -0.268869
-0.049437 0.037545
0.190142 0.429787
-0.854199 0.046761
-0.091790 0.264027
-0.426702 -0.343493
0.153498 -0.085528
0.023185 0.156415
-0.128803 -0.028679
-0.024049 0.058574
0.147590 0.187849
0.383741 -0.146433
0.015026 -0.599059
-0.027797 -0.001490
0.184745 -0.223013
-0.071575 -0.151844
-0.209197 0.038155
0.117041 -0.572070
0.267128 0.161243
-0.052958 0.051468
0.200595 0.713963
-0.255851 -0.027378
-0.179818 0.422486
-0.183892 -0.167559
0.245977 -0.125839
-0.008830 -0.238776
-0.000160 0.010885
-0.255871 0.332459
0.109793 0.146255
-0.104639 0.035675
-0.016211 0.039665
0.560446 0.280212
-0.174975 0.173099
-0.141297 -0.324323
0.542454 -0.024058
0.251424 -0.691732
0.077553 0.079197
-0.220037 0.114159
0.059396 0.270932
-0.006507 0.011335
-0.104258 0.150003
0.076297 0.074950
0.434654 -0.131004
-0.002327 -0.303765
0.358984 0.133579
0.005222 0.013674
-0.015245 -0.000782
-0.413134 0.033968
0.047498 -0.136636
-0.119191 -0.064502
0.197614 -0.157549
-0.016704 -0.115215
0.399486 0.050974
-0.028465 0.026731
-0.335886 -0.368471
-0.072810 0.047466
0.008211 0.399037
-0.795367 -0.260134
0.109428 -0.118618
-0.148450 -0.208420
-0.265846 0.040276
0.026716 -0.076648
0.170296 0.111430
0.167258 -0.163836
-0.100391 -0.315126
-0.002316 0.015394
0.280584 -0.798437
-0.331737 -0.306715
-0.328122 0.198719
-0.031031 -0.100967
-0.067975 -0.030521
-0.110527 0.205157
-0.276250 -0.334991
-0.225322 0.052104
0.016810 -0.009338
-0.487724 -0.196350
-0.024628 0.001851
0.284605 0.556880
0.147143 0.003264
-0.013776 -0.012810
0.009594 -0.013701
0.096772 -0.045217
-0.166988 -0.612450
0.695195 0.063846
0.108918 -0.176245
0.320620 0.373542
0.106545 -0.062151
0.020285 0.092375
-0.334336 -0.093452
0.197641 -0.273154
-0.022227 -0.071274
-0.228446 0.059809
-0.076843 0.337205
0.113222 0.045817
0.218176 -0.156003
0.086349 0.305623
-0.320663 -0.025560
0.113820 -0.237152
0.254277 0.254033
0.193023 -0.120612
-0.011140 -0.233037
0.013546 0.021603
0.110133 -0.198246
-0.027830 -0.068851
0.269959 -0.057000
-0.049667 0.383961
-0.189952 -0.108801
-0.261762 0.283304
0.015977 0.079790
0.495434 -0.051445
0.134540 -0.389470
0.066775 0.072885
0.153977 -0.120660
-0.092573 -0.507065
0.191780 0.045351
-0.091038 0.130232
-0.074661 -0.112742
-0.012952 0.024500
-0.020938 -0.282238
-0.113827 -0.060454
-0.451751 0.563059
-0.170501 -0.264905
-0.027832 -0.014043
-0.014710 0.166909
0.361504 0.244312
0.013469 -0.033639
0.167935 0.468830
0.162755 0.026048
-0.085624 0.154250
0.206029 0.170403
-0.501661 0.266465
-0.117820 -0.984130
-0.525255 -0.155362
-0.129961 0.217435
-0.218117 -0.283560
-0.612073 0.137631
-0.046200 0.606021
0.013393 0.026644
-0.254800 0.214901
-0.126568 -0.346240
-0.065684 0.020636
0.118071 -0.423644
0.053716 0.019845
-0.174747 0.127238
0.160549 0.916404
0.092715 -0.002475
-0.022938 0.075378
-0.166887 -0.172374
0.587973 -0.227201
0.011886 0.377812
0.070790 0.045847
0.143312 -0.187512
-0.257788 -0.519195
-0.347790 0.064264
-0.044734 0.122336
-0.242578 -0.177615
0.274837 -0.183472
0.116372 0.458434
-0.200601 -0.030982
-0.051233 0.152217
-0.375089 -0.349978
0.955658 -0.459304
-0.000136 -0.211005
-0.341716 -0.080917
-0.366446 0.471804
0.076262 0.087159
-0.259379 0.075831
-0.032608 0.129715
0.531902 0.262590
0.050863 -0.024916
-0.097118 -0.204941
-0.332478 -0.008599
0.091445 -0.216444
0.231798 0.211122
0.342709 -0.215165
-0.050941 -0.386373
-0.183461 -0.019908
0.235762 -0.419162
-0.131397 -0.187640
-0.330927 0.123633
0.022081 -0.952322
-0.194758 -0.095756
-0.195066 0.229984
0.233796 0.494211
-0.025485 -0.010599
-0.014796 0.113939
0.163131 0.127361
0.123963 -0.103457
0.104459 0.343032
0.230463 0.034668
0.060044 -0.152496
-0.138529 -0.162109
-0.202803 0.101060
-0.005886 0.112169
-0.391396 -0.134138
0.033338 -0.024319
-0.031329 -0.028753
0.236658 -0.060006
-0.045167 0.365212
0.091403 0.063291
-0.143930 0.109006
0.115614 0.284992
-0.448091 0.008455
0.153175 -0.436189
-0.070920 -0.074570
0.004261 0.008639
0.039013 0.332314
-0.150943 -0.041664
-0.340137 0.552284
-0.155198 -0.189844
-0.637069 0.183907
0.025822 -0.283287
-0.352719 -0.147304
0.019711 -0.031598
-0.182574 -0.402860
0.041099 0.003911
-0.069649 0.226235
-0.114491 -0.090994
-0.358984 0.249550
0.071080 0.323044
-0.550634 -0.072224
-0.012297 0.037291
0.022428 0.033203
0.371439 -0.156756
0.004603 -0.025879
0.512472 0.178381
-0.359843 0.436350
0.179488 0.294194
-0.599385 0.112849
-0.075465 0.399497
-0.153474 -0.094830
-0.332248 0.275173
-0.047392 -0.128911
-0.268135 -0.010492
-0.073767 0.190637
-0.391653 -0.353075
-0.227012 0.114690
0.022091 0.164384
0.511538 0.123780
-0.042654 0.061108
-0.224099 -0.312142
-0.143423 0.040706
-0.031684 0.363719
0.610934 0.287645
-0.126319 0.123773
0.034692 0.077331
0.104544 -0.006191
-0.012912 0.040304
-0.768179 -0.581779
-0.396773 0.254964
-0.005870 -0.019317
-0.030995 -0.006426
0.080710 -0.143690
0.483964 0.558781
-0.648263 0.242264
0.004654 0.237602
0.242939 0.092129
0.076680 -0.096006
-0.267103 -0.485041
0.383252 -0.055551
0.154576 -0.785413
-0.015953 -0.015802
-0.553910 0.436353
0.234611 0.766057
-0.893251 -0.051768
0.073775 -0.155420
-0.053441 -0.041889
-0.274004 0.125740
-0.041041 -0.492848
0.292097 0.084823
0.103551 -0.160881
-0.421869 -0.628328
0.344684 -0.077977
-0.080250 0.653046
-0.403493 -0.212348
-0.266927 0.262294
0.119701 0.312241
-0.579350 0.013067
0.085472 -0.228006
0.273619 0.231014
0.494992 -0.312972
-0.187926 -1.043219
-0.523125 -0.075713
0.139491 -0.267257
-0.602735 -0.744726
0.129356 -0.031743
-0.013503 0.010956
-0.602523 -0.250306
0.176096 -0.176416
-0.135366 -0.224895
0.174430 -0.037934
-0.169000 0.810242
0.178643 0.135289
0.056250 -0.061147
-0.047176 -0.221956
-0.678513 -0.034363
-0.149356 0.284991
0.171572 0.147363
0.280244 -0.109049
0.025256 0.582480
0.184563 0.034308
0.110169 -0.117585
0.004349 0.041438
-0.291507 0.046248
0.172559 -1.146032
-0.563464 -0.276237
0.121850 -0.135909
0.127578 0.269629
-0.237179 0.025142
-0.391353 1.045283
0.181605 0.122659
0.167618 -0.070454
-0.063834 -0.244427
0.468501 0.066592
0.156778 -0.213197
-0.035534 -0.006519
-0.016310 -0.020120
0.055340 -0.750312
-0.078557 -0.005864
-0.633309 0.640185
0.352715 0.648373
-0.178371 0.045536
-0.201570 0.689924
-0.222520 -0.185732
0.909607 -0.605784
-0.059546 -0.118214
0.914295 0.062305
-0.000741 0.066058
0.194105 0.245241
-1.000853 0.398505
0.042652 0.261065
-0.984110 -0.278584
-0.618871 0.747414
-0.090448 -0.203949
0.703534 -0.110606
0.093265 -0.794321
-0.027446 -0.051761
-0.174051 0.189821
0.037628 0.198690
-0.943624 -0.039529
-0.203055 0.628961
-0.010914 0.035068
-0.516000 0.241454
-0.009828 -0.311719
1.265858 0.310093
-0.266945 0.352204
0.525968 0.638324
0.285380 -0.047994
-0.025381 -0.168807
-0.992349 -0.483352
0.082584 -0.031405
0.156919 0.421242
-0.177029 -0.022902
0.167129 -0.458959
0.741294 0.584126
-0.009675 -0.040262
0.173587 0.560830
0.455726 0.095852
-0.086008 0.079204
-0.072459 -0.139707
0.227243 -0.047473
-0.037892 0.119840
-0.331420 -0.156828
0.377640 -0.396892
0.580257 1.070882
0.207826 -0.080141
0.036568 0.038919
-0.193561 -0.064416
-0.471496 0.325253
-0.548255 -1.766645
-0.334250 0.034142
0.058942 -0.263796
-0.359995 -0.391001
-0.148631 0.127305
0.119864 1.397868
0.219139 0.005444
-0.441358 0.738724
-0.087384 -0.041253
-0.363037 0.050349
0.195733 -1.671171
-0.046377 0.031099
-0.058310 -0.010734
-0.287819 -0.771723
0.039189 0.046767
-0.597910 1.799227
0.009879 -0.055003
-0.405909 0.316716
0.261765 1.472679
1.113616 0.112188
0.984794 -1.690796
-0.120391 -0.060294
0.085349 -0.087347
0.053316 0.361467
0.227001 0.139409
-1.228305 1.354225
-0.159348 -0.395944
-1.342391 0.259941
-0.162718 0.522427
0.360686 0.161611
2.601089 -1.935474
0.444724 1.617203
0.069114 -0.051507
0.139971 -0.182864
-0.961751 -0.846419
-2.105235 0.954666
0.052378 -0.045995
-1.756290 -0.410068
-0.636729 0.800005
-0.851508 -1.349209
2.574521 -0.580180
-0.173880 1.027147
1.127429 0.503578
1.287508 -1.114472
-0.510595 -1.079106
-3.220240 0.059988
0.648757 -1.777686
-1.587731 -1.191242
-1.107404 0.595738
0.384655 1.716799
2.131825 0.426451
-0.758114 1.187156
0.362067 0.341880
0.559090 -0.129273
-0.089277 1.330481
-1.505957 -0.661400
0.738330 -0.729009
-0.954115 -1.680143
-2.842907 0.303588
-0.058730 0.536073
3.717518 2.524898
-2.722387 1.917671
0.437084 1.300271
-0.815506 0.000952
0.303997 -0.811036
-0.721517 -0.818980
1.315221 -0.525713
-0.141157 -1.061321
-2.252701 -0.727424
0.509040 -0.573030
1.382994 2.254393
-2.856040 0.570099
-0.128029 1.433362
0.015558 0.084421
0.838815 -0.832063
-1.511252 -4.097097
2.660675 0.032199
0.809397 -2.476206
-0.234630 -0.285775
-0.744482 0.503009
0.284459 2.162155
-4.230814 -0.897598
-0.633247 1.168999
0.382943 0.598900
-0.171570 -0.018006
0.204086 -3.036363
3.034793 1.357773
1.101802 -1.273431
-1.242827 -2.665547
-1.759740 0.256304
-1.621376 6.046897
-3.165963 -2.280996
-4.205798 3.021834
-0.384874 -1.198714
-0.405167 -0.113490
-0.230182 0.631033
5.447951 5.857535
-0.646436 0.196757
-0.131610 -4.315554
-1.533466 -0.411798
-4.747576 5.953221
-3.108953 -5.190863
-5.553966 1.178876
0.135932 -1.309756
1.420219 0.718582
2.074344 -1.653075
3.060793 8.729836
2.409201 -0.049411
1.223691 -2.987966
-1.054772 -0.828208
-2.286296 1.147077
-1.923407 -14.317098
-3.250258 -0.639064
-1.479930 2.159235
0.621265 0.703685
6.686252 -1.899854
-0.730221 9.643174
5.225066 2.270847
0.745495 -0.647801
-1.444468 -2.915942
-7.430105 0.528325
4.288731 -14.961543
-6.867949 -4.910513
-2.269092 1.413333
0.405716 1.396764
-3.414439 -0.353032
-16.843420 32.126361
-1.351098 -1.610408
5.028445 -1.920515
-0.168594 -3.875934
-18.647640 -6.506546
2.356325 -2.749383
-9.558093 -16.232474
-0.346085 -0.018097
-0.762832 4.550632
-5.293935 -3.071017
-61.241538 49.123779
1.151975 3.212572
8.638465 0.370568
1.677774 -4.293928
-7.603098 -7.115429
49.060215 -24.866280
-1.074618 -8.619060
-9.583325 -2.429397
-1.087197 1.742390
9.034851 12.803517
-86.217897 23.227599
-4.549624 50.479914
5.051834 2.507622
1.762038 -1.812090
2.415997 5.318564
365.549513 -20.976887
10.638650 -34.913311
5.410147 4.043122
-7.842126 5.030590
4.012764 19.537740
-1426.217179 -214.116349
14.191581 -25.544593
7.357831 8.664578
8.617491 -3.282671
