16146.411303 15688.297056
1719.904525 -1257.140609
167.189654 140.813932
-918.108215 -814.635928
-1728.078787 -1365.211423
270.226121 529.202965
438.670793 1151.994370
-836.630229 29.341642
152.810856 705.307321
46.493590 -74.788826
-139.803025 53.108713
47.400580 -27.516777
-184.213417 2.950104
-183.228211 156.002952
-150.728342 11.590421
65.182722 -50.461482
81.056996 205.167915
41.328552 41.375266
58.616799 -27.890773
-19.027523 -5.242416
22.681360 33.350894
-2.322421 -39.864945
-44.946785 60.291121
-12.863221 35.114081
-121.667368 -6.501656
37.758072 39.405668
41.017742 32.384606
-16.130717 -3.288732
10.401438 1.985816
6.389818 -11.417479
-4.083772 2.304649
8.671608 -1.996485
-8.512998 8.176302
-20.083204 49.888573
-23.820009 31.757162
42.607807 -12.436130
-8.128726 10.804270
0.512208 17.577057
1.305795 -18.306827
-9.317092 2.950639
1.124775 -11.715898
-15.460034 -8.374309
1.616122 20.894964
12.813706 24.186613
-17.201786 1.186444
14.113932 6.365913
13.443655 9.323065
-0.155161 3.631240
-7.886102 -2.835498
-2.798842 5.388526
-10.021520 -4.700912
-8.954253 5.593559
11.676484 -1.179581
-5.174983 16.348043
1.613193 7.097645
13.859680 -11.686507
-0.260661 1.409360
3.245044 8.948753
-0.573219 -2.943577
-5.307024 5.836373
-3.663042 2.852977
-10.154782 3.220337
7.374808 4.271856
3.208644 12.297041
-2.091475 -5.435705
-0.958830 -4.187271
7.313191 3.707448
1.703431 -3.179813
-1.722820 2.796473
0.545881 2.299503
-3.685673 3.697344
-3.004207 7.606437
10.859998 -1.992892
-2.366243 7.037102
-2.938454 2.453093
0.566688 -4.363903
1.883937 0.632070
-1.028725 -1.574476
-0.561365 1.237676
-1.011065 1.221684
1.131949 6.295038
0.509095 -1.424024
3.684201 -0.409168
3.401533 8.309962
-0.333309 -0.304039
-2.704820 -1.261111
1.877320 2.270362
-1.562787 -1.623096
-1.183842 2.914496
1.300277 -1.288509
-1.631952 4.099848
-0.005427 -0.434579
5.164438 -1.603067
2.339722 2.194382
-2.222046 2.401068
1.540578 0.681975
1.385940 0.114793
-1.232341 0.614848
-0.835478 3.104362
0.033455 0.384337
0.654226 4.499300
-0.996872 -3.326603
-0.093015 -1.199866
3.609711 3.212626
-0.521545 -0.068539
0.985094 -1.021398
-0.452164 -0.116028
0.716094 1.328897
0.346583 1.972852
1.233567 0.538393
0.022959 3.177242
-2.125747 -0.063307
1.574132 -0.461539
3.025154 1.041161
-1.918618 0.229482
1.065306 0.083507
-0.677162 -0.996562
0.851500 1.151005
0.476500 0.185876
0.952168 1.184218
0.857936 2.883288
-1.243461 0.711179
1.532895 -0.492498
1.491745 1.381936
-0.844688 0.765205
0.744730 -0.279018
-1.632549 -0.892404
0.958129 0.851012
0.059875 -0.329417
0.969497 0.673094
1.491433 1.383737
-1.171566 0.910839
2.422471 -0.472883
1.896984 0.785704
0.060437 -0.124315
-0.747942 0.503844
-1.058269 1.090235
0.761548 0.779112
-0.654025 -0.435104
0.577887 0.918887
1.060736 0.982465
-0.121720 0.795158
2.074820 -1.979021
-0.032143 -0.769607
0.481250 0.817655
-0.025059 0.679699
0.240827 0.509883
-0.525477 1.267255
-0.227261 0.343019
1.097077 1.326558
0.846286 0.898620
-0.267666 -0.039598
0.545153 -1.818747
-0.278376 -0.237255
1.591916 -0.348874
-0.972565 0.289639
0.705266 0.936048
0.181748 0.325348
-0.262475 0.741826
1.737160 0.880011
0.960004 0.686753
-0.492551 -0.335475
0.221116 -0.674863
-0.840666 -0.857052
0.227441 0.293894
-0.294903 0.775547
0.220062 0.053397
-0.249983 0.755270
1.176315 0.867259
1.701987 -0.997756
0.560567 1.215957
0.364528 -0.551348
-1.312203 -0.318074
-0.100385 0.282115
0.157318 0.104478
-0.888579 0.117725
-0.019428 1.128466
0.618539 -0.241008
0.636421 -0.388734
1.470123 -0.968776
0.672319 -0.314710
-0.047012 -0.071505
-0.410296 0.319499
0.326961 -0.657132
-0.639114 0.455571
0.635827 1.234564
0.577000 0.379167
-0.485838 0.680662
0.265567 -0.860250
0.350625 -1.008895
-0.622483 0.300154
0.715502 -0.761513
-1.125192 0.018044
0.303664 0.148861
0.771544 0.354770
0.868084 0.394863
0.447245 0.143485
0.810516 0.854506
-0.550067 -1.310457
0.564426 -0.163440
-0.293281 -0.254529
-0.332607 -0.075268
0.012492 1.079860
0.361106 -1.033739
-0.337892 -0.488182
1.097805 0.935155
0.593136 -0.599357
0.834631 0.198440
-0.203104 -0.640631
0.466079 -0.362924
-0.004289 0.771082
0.322439 0.129609
0.346947 -0.149171
-0.715487 0.826786
0.572439 0.271971
0.756959 -0.298602
-0.048511 -0.013643
0.707005 0.216324
-0.237160 -1.005356
0.135040 0.420337
0.814321 -0.297923
-0.585418 0.417581
0.352198 0.550125
0.411552 -0.020462
0.189174 -0.259964
0.655647 0.026296
0.361687 -0.055852
-0.374016 0.169626
-0.254683 -0.340940
0.446970 -0.176667
-0.584501 -0.346378
0.756399 0.314435
0.819528 0.211650
-0.722527 0.408604
0.977222 0.091549
0.004585 -0.351456
0.383789 0.068375
0.114116 0.289572
-0.506726 -0.413358
0.541958 -0.026982
-0.129309 0.204925
-0.154431 -0.395655
0.214102 0.470600
0.118462 0.396165
0.616037 -0.593048
-0.253879 -0.025221
0.462400 0.174678
-0.288150 0.024578
-0.150762 0.806526
-0.145779 -0.891381
-0.780231 0.473032
-0.008853 0.064396
0.749561 -0.219120
-0.383059 0.310596
-0.067404 -0.533292
0.156987 -0.429291
0.249509 -0.087079
-0.004760 0.052564
-0.030582 -0.328748
0.033730 -0.109078
0.001157 0.132993
-0.042579 -0.397111
0.092050 0.128796
0.486239 0.351716
-0.517495 -0.347466
0.688320 -0.532141
0.494772 -0.273932
-0.068416 -0.594212
0.134126 -0.032004
0.366968 -0.232342
-0.229809 0.421931
0.415752 -0.201955
0.713715 0.064959
0.233033 0.001694
-0.199967 0.132498
0.177181 -0.058155
0.540556 -0.274446
-0.185446 0.209829
0.017007 -0.116254
-0.218464 0.237716
-0.105124 0.175946
0.398243 -0.311748
0.459073 0.050786
0.332387 0.329668
-0.309178 -0.041196
0.311313 -0.204633
-0.184689 -0.306482
-0.122040 0.259602
-0.697416 0.024645
0.139565 0.305818
-0.257072 -0.124665
-0.326335 -0.402901
0.479310 -0.053293
0.706922 0.062183
-0.357405 -0.039303
0.149732 -0.529927
-0.034779 0.006209
-0.208077 0.527388
-0.090280 -0.135059
-0.011668 0.428069
0.334576 0.066783
-0.176179 -0.170498
0.520099 -0.711982
0.271950 0.001163
-0.218444 -0.039114
-0.007058 -0.644771
-0.110627 -0.171833
-0.083074 0.358409
0.620902 -0.175543
0.297586 0.487978
0.129642 -0.376831
0.049170 -0.274001
0.196923 -0.537514
-0.184364 -0.092844
-0.418361 -0.037422
-0.262139 -0.574219
0.414773 0.352134
-0.193769 -0.016354
0.376044 0.004506
0.270225 0.136158
-0.262886 -0.047415
0.156671 -0.036291
0.281534 -0.374847
-0.138309 -0.140734
-0.361398 0.199146
-0.534873 -0.335682
0.189909 -0.102103
-0.343267 0.171082
0.006315 0.035285
0.244373 0.027409
0.187428 0.280840
-0.006613 -0.559767
-0.266470 -0.378521
0.351091 0.027857
-0.365157 0.343085
-0.538396 0.087208
0.486911 -0.002833
0.006092 -0.147324
0.238046 -0.100187
0.306585 -0.369321
-0.129156 -0.167893
-0.194829 -0.156536
-0.121749 -0.228257
0.233129 -0.193231
-0.561133 0.306681
0.214020 0.014647
0.242485 -0.070543
-0.345876 0.212688
0.265416 -0.274402
0.154848 0.037985
0.044542 0.410368
-0.092878 -0.529866
-0.652151 -0.241683
0.235390 0.213554
0.088137 -0.006532
-0.035747 -0.087929
0.093587 -0.148726
-0.177440 0.005420
0.042456 -0.342137
0.336098 -0.146988
0.020896 -0.200282
-0.596267 -0.057569
-0.265913 0.028073
0.420552 -0.308995
-0.088005 0.165933
0.017066 0.156511
-0.064796 -0.265276
0.115918 -0.023211
0.194826 -0.274704
-0.107126 -0.029781
0.056949 0.410732
0.060317 -0.251888
-0.569667 -0.167383
0.273632 0.021099
0.096484 0.388313
-0.396710 0.203093
-0.140785 -0.227465
0.076151 0.076458
-0.022439 -0.414304
0.276387 0.211710
0.041326 -0.124484
-0.577064 -0.144418
0.230171 0.185702
0.179875 -0.278358
-0.131472 0.089820
-0.091998 0.174329
-0.274327 -0.297359
0.036001 0.053773
-0.030490 -0.333966
-0.042713 -0.356385
-0.172683 0.536836
-0.386523 -0.071066
0.168153 -0.389000
0.037945 0.089764
0.306762 0.286719
0.018778 0.241900
-0.262651 0.008765
0.313121 -0.102537
0.106143 0.005209
0.106078 -0.214151
-0.236401 0.101212
-0.409610 -0.043580
-0.244796 -0.180341
0.015697 0.014756
0.062009 0.071690
0.019311 0.218622
-0.075741 -0.004082
-0.163026 -0.150756
0.064907 0.191413
0.044025 -0.196148
0.081066 0.214158
0.133146 0.251343
-0.175890 -0.139742
-0.165448 0.152654
0.136420 -0.028305
-0.014054 -0.101625
0.205275 0.156832
0.021085 -0.293986
-0.184453 -0.137931
0.224664 -0.080788
0.180113 0.230399
0.012407 -0.028874
-0.024770 0.220761
0.203720 -0.070431
0.253632 -0.134886
0.035303 -0.159595
0.227345 -0.349045
0.070199 -0.019824
-0.466064 -0.039261
-0.202873 -0.395390
-0.081556 0.350163
0.043660 -0.194072
0.020632 0.193873
0.029775 0.286504
-0.229034 -0.457022
0.281501 0.085240
0.008822 0.003799
0.238605 0.102445
-0.291053 -0.138178
-0.422043 -0.602992
0.592695 0.120396
-0.166028 0.321864
-0.240854 0.145072
0.206165 0.120206
-0.251434 -0.495443
0.530039 0.060057
-0.230923 0.086004
-0.420868 -0.382133
0.074288 0.149810
-0.315809 -0.115210
0.123289 -0.071797
0.139435 0.295618
-0.141055 0.047339
0.262211 -0.092471
-0.298886 -0.233788
0.112137 -0.245818
0.078757 0.078085
-0.287600 0.044068
-0.139857 -0.046089
-0.234559 0.205345
-0.008310 0.138007
0.033155 0.219414
-0.222782 -0.121226
-0.029041 -0.351655
-0.073392 0.174581
-0.241058 0.051445
-0.167752 0.042214
0.025158 0.276545
-0.361950 0.113178
0.266974 -0.118029
0.291172 0.010430
-0.146871 -0.000109
0.048833 -0.010522
-0.028716 0.098853
-0.230270 -0.345819
-0.155253 0.004524
-0.226995 -0.278379
0.167176 -0.025931
-0.170880 0.305341
0.140327 -0.147779
-0.178782 -0.097337
-0.220711 0.370937
0.300350 -0.142079
-0.045342 0.037780
-0.236485 -0.158278
0.328146 -0.227010
-0.103900 0.551356
-0.290719 -0.026583
0.183758 0.202601
-0.048724 0.194861
-0.159637 -0.368440
0.101505 0.025008
0.117328 -0.062461
0.236744 0.034982
-0.264405 0.033425
0.012173 -0.189074
0.216113 0.165068
-0.227098 -0.229780
0.347860 -0.172951
0.186637 0.090167
-0.247707 -0.348611
-0.024218 -0.137394
0.016054 -0.148593
-0.263448 -0.487768
-0.156537 0.084955
-0.147913 -0.175630
0.189750 -0.007072
-0.021093 0.247411
-0.191122 0.065861
-0.098912 0.025778
-0.217746 0.008331
0.141797 -0.185695
0.081935 -0.027025
0.018289 0.033874
-0.144475 0.010949
-0.258614 0.103160
0.125812 -0.113573
0.230871 0.207344
0.020224 0.129614
-0.043056 -0.355451
0.042948 -0.017860
-0.080582 -0.295618
-0.133598 0.295274
-0.180722 0.099469
-0.398689 0.066798
0.008540 -0.036966
-0.028793 -0.033682
0.210599 0.127995
0.218879 -0.447304
-0.198974 -0.073706
0.237427 0.031888
-0.139386 -0.301624
-0.018181 -0.052002
-0.125760 0.274654
-0.388218 0.507613
0.018723 -0.089381
0.363589 0.007141
-0.002340 0.115391
-0.170398 0.032371
0.334947 0.121947
0.261202 0.058772
-0.467416 0.005305
0.216910 -0.071962
-0.029259 -0.175809
-0.021944 0.291601
-0.190158 -0.126234
0.135376 -0.282892
0.259836 0.261351
-0.075352 -0.117693
0.387188 0.145111
-0.088300 -0.082350
-0.262314 -0.248111
-0.018011 0.045123
-0.092252 0.116316
0.075663 -0.002287
-0.106628 -0.202622
0.098493 -0.408053
-0.016157 -0.302118
-0.289405 0.040652
-0.083734 0.179963
-0.484128 -0.097214
-0.319654 0.045220
0.422780 0.121440
-0.406894 0.081928
0.093103 0.309167
0.046909 0.103211
-0.215375 -0.053355
0.258473 -0.110556
-0.026550 -0.089717
0.214648 0.074766
-0.275985 0.211752
-0.234387 -0.009926
0.074076 0.192716
-0.053563 0.381572
0.352672 -0.024740
-0.280431 -0.043731
0.016520 -0.135021
-0.027241 -0.162646
-0.591802 -0.082091
-0.208220 -0.020437
-0.019269 0.251498
-0.173418 0.216007
-0.100176 -0.203626
0.283888 0.342721
0.037083 0.037264
0.166222 -0.049270
0.042806 -0.354350
-0.044686 -0.031164
-0.212484 0.250387
-0.195784 -0.000935
0.156337 0.439899
-0.195767 0.252932
-0.195843 -0.175455
0.264388 -0.029593
-0.199315 -0.215310
-0.091985 -0.005095
-0.108051 -0.324515
-0.050217 -0.149384
-0.393523 0.179447
-0.015728 0.098132
0.026558 0.432291
0.229773 0.354146
0.142022 -0.106906
-0.129012 0.020601
-0.196685 -0.066474
-0.150721 0.140212
-0.249974 -0.173598
-0.125546 0.302941
0.002215 0.028857
-0.070722 -0.250951
-0.134701 0.127130
-0.106593 -0.030982
0.044249 0.008845
0.219576 0.167381
0.396652 -0.174485
0.008058 0.014141
-0.134505 0.210839
-0.164254 0.075272
-0.078727 -0.159703
0.248015 0.133829
0.328719 0.417296
-0.017274 -0.190947
0.277694 -0.341397
0.277334 0.053364
-0.258881 -0.251525
-0.039945 -0.001778
-0.234828 0.131733
0.073276 0.170346
-0.231884 -0.114084
-0.094468 -0.270354
0.210759 0.039364
-0.097276 -0.073821
-0.257212 -0.215008
0.234624 0.227123
0.011653 -0.211676
0.021582 -0.104850
-0.219298 0.271917
-0.064960 0.157715
-0.034324 0.101632
-0.022635 0.199797
0.162925 -0.476666
-0.131710 0.120501
-0.105570 -0.139948
0.193161 0.040055
0.321144 0.306797
0.034606 -0.073012
0.270782 0.170388
0.037565 -0.102599
-0.083171 -0.077410
-0.236835 0.130994
0.008310 -0.318764
0.288845 0.239239
-0.087907 -0.353803
-0.306020 -0.373596
0.016540 -0.109895
-0.597243 0.335860
-0.060431 0.244956
0.094176 0.161402
0.244037 -0.071490
0.163004 0.057626
0.033986 -0.143294
0.114019 0.058396
0.077266 0.193676
-0.269278 0.185883
-0.164083 -0.056571
0.006486 0.010420
0.058643 0.006824
0.051941 -0.102768
-0.212766 -0.167267
-0.051329 -0.015000
0.355863 0.119256
-0.230742 0.103984
-0.013935 -0.010564
0.225574 0.303922
-0.116726 0.091440
0.067451 -0.192319
-0.027813 0.289500
-0.012925 0.347915
0.066278 0.026725
-0.161370 0.197045
0.250124 -0.210214
0.020537 -0.044960
0.010077 -0.037165
0.286100 -0.099062
-0.281029 -0.108105
-0.027389 -0.179453
0.078533 0.146027
-0.039924 0.524790
0.376003 -0.276378
0.021933 0.067753
0.313822 0.021854
0.079197 -0.330490
-0.107303 0.175853
0.180079 -0.300192
-0.048122 0.120023
0.105935 0.255643
-0.176370 -0.370137
-0.091722 0.323955
0.062803 -0.192386
0.174108 0.168902
-0.240288 -0.176532
0.113780 -0.232413
-0.332232 -0.014126
-0.339048 -0.109665
0.376241 0.017238
-0.166358 0.040694
0.055314 -0.198330
0.289210 0.022194
-0.278925 0.115730
-0.156363 0.167728
0.008428 -0.135891
0.119452 -0.076936
0.014977 -0.040457
-0.347071 0.291831
0.090256 -0.107153
-0.193745 0.454816
-0.181507 0.792369
-0.047588 -0.212048
-0.085580 0.076632
0.299168 -0.208924
-0.013850 -0.301881
0.116410 -0.025019
0.084387 -0.132769
-0.148192 0.255281
-0.008669 0.325215
-0.285813 -0.416638
0.075644 0.214183
-0.062309 -0.079169
-0.244118 -0.141554
-0.312884 0.228007
-0.565961 0.140408
0.448743 0.079179
-0.108492 0.108470
-0.207585 0.150979
0.345436 -0.087440
0.166400 0.021761
0.228392 0.062243
0.198085 0.050685
-0.070511 -0.088138
-0.061513 -0.263409
0.059379 0.029583
-0.047141 -0.215534
0.184703 0.188928
0.039203 0.132230
0.097830 -0.130065
-0.144204 -0.015581
-0.125671 -0.270517
0.197763 0.104495
-0.040025 0.144135
-0.114323 -0.287560
-0.024951 0.302713
0.023771 -0.376124
-0.355723 -0.109408
0.319037 -0.085299
0.101861 0.098872
0.068040 0.218424
0.232206 -0.464692
-0.061847 -0.185291
-0.218088 0.185367
0.079798 -0.465260
-0.030711 -0.191559
-0.313734 0.366819
0.307074 0.308421
0.060695 -0.278598
-0.129062 0.401200
0.296239 -0.103590
-0.146616 0.042035
-0.092462 0.239505
-0.038124 -0.185583
0.011664 0.049539
0.157953 0.108376
-0.043554 0.165972
-0.094585 -0.148605
0.038342 0.070619
-0.054936 0.090621
0.427654 -0.153792
-0.126004 -0.390340
0.185250 0.436292
0.130218 -0.266795
0.209303 -0.146375
0.189731 0.155494
-0.183992 0.071631
0.401116 0.010215
-0.064163 -0.179018
-0.528748 -0.279373
0.062525 0.195410
0.240512 -0.064215
0.014593 0.251371
0.299875 -0.254393
-0.210656 0.032255
0.190391 -0.123764
-0.212778 0.181977
0.357349 0.308078
-0.057540 -0.047027
-0.354117 0.310818
0.030781 -0.496556
-0.021664 0.060602
-0.163840 -0.021694
0.093173 0.050106
-0.033645 0.146221
0.107491 -0.151163
-0.222688 -0.305329
0.388700 0.201987
0.100525 -0.144488
-0.353955 0.124523
0.256375 -0.007792
-0.069392 -0.377520
-0.004457 -0.035299
0.380292 -0.306838
0.154974 -0.210706
0.239602 0.098749
-0.112177 0.208565
-0.270545 -0.204599
0.184243 0.169910
-0.028262 -0.056065
0.083170 -0.100801
0.003551 0.217820
0.299805 -0.173131
0.045069 0.014986
-0.116447 0.066418
0.026387 0.018490
-0.083870 0.032771
-0.098436 -0.087923
-0.090328 -0.019565
-0.013169 -0.017032
-0.082527 -0.186600
0.205560 0.259269
0.068125 -0.061067
-0.315000 0.348912
-0.470061 0.019662
-0.005347 -0.129788
0.158161 0.007770
-0.202360 -0.348348
0.162277 -0.226576
0.167878 -0.296689
0.154324 -0.020511
-0.319361 -0.107965
-0.161834 0.371525
0.050370 -0.073608
-0.556842 -0.099553
-0.110950 -0.152632
-0.015811 -0.011275
-0.309689 0.200355
0.023437 -0.214080
0.443208 -0.003732
-0.050360 -0.008130
0.084053 -0.021417
0.107943 -0.057812
0.421311 -0.082304
-0.044607 -0.246321
-0.167223 0.045448
0.133550 -0.148552
0.021731 -0.198202
0.013571 -0.093992
0.004189 0.266051
0.149483 0.047661
0.186549 -0.091466
-0.081687 0.121002
0.175827 -0.044274
-0.137157 -0.196056
0.156698 -0.011330
0.278130 0.167120
-0.083473 -0.267551
-0.356497 -0.169811
-0.417280 0.208744
0.157042 -0.184123
-0.085954 -0.207850
-0.016612 0.042712
-0.001993 0.304439
-0.448189 -0.048954
0.063013 0.300918
0.125031 -0.129804
0.143041 -0.068908
0.108272 0.038399
-0.234659 0.066463
-0.201512 -0.129188
0.368370 -0.342849
-0.004170 -0.093041
-0.031308 -0.109976
0.223566 0.362905
0.063591 0.022593
-0.145865 -0.045515
-0.113889 -0.194175
0.100130 -0.267827
-0.101055 0.480217
-0.116785 -0.219148
0.455830 -0.401921
-0.168959 0.152035
-0.445540 -0.148174
0.165851 -0.100087
-0.099168 -0.238777
-0.306201 0.074530
0.012621 -0.132177
-0.264961 -0.075603
0.030441 0.141606
0.110378 -0.357029
0.119852 -0.328250
-0.173277 -0.361935
-0.245327 0.186382
0.011494 -0.041140
0.140399 0.116213
-0.084168 -0.329555
-0.243983 -0.357340
0.193128 0.096261
0.501000 0.027568
-0.094484 -0.100041
-0.078921 -0.212943
0.071354 -0.390826
0.052873 -0.117477
0.054213 -0.127338
-0.306342 -0.301372
-0.211565 0.165885
-0.234664 0.099206
0.043834 0.284254
-0.257558 -0.113908
-0.227385 0.048327
-0.217003 -0.236432
-0.195315 -0.120434
-0.005627 0.092077
0.124107 -0.170726
0.242828 -0.288185
-0.399984 0.227715
-0.226991 0.368252
-0.222180 -0.463925
-0.176637 -0.162012
-0.085351 -0.483402
0.028086 -0.169424
-0.413969 0.183630
0.300164 -0.066508
0.209889 -0.006050
-0.264933 0.373122
0.166619 0.000237
-0.308799 0.207277
-0.131505 -0.023208
0.061723 -0.148179
-0.133532 0.081882
-0.158566 -0.052186
0.132314 -0.016630
-0.039073 0.127351
-0.020349 0.377620
-0.247788 -0.059458
-0.323526 -0.121908
0.324764 -0.178276
-0.170019 -0.132458
-0.624417 -0.257968
0.169186 0.045765
-0.669831 0.398569
-0.222057 0.067011
-0.071591 0.288570
-0.283100 0.143421
-0.463982 0.452073
-0.324940 0.371174
0.328956 0.006026
0.229274 0.201942
-0.094225 -0.238219
0.220916 -0.177727
0.097993 0.194386
-0.050169 0.287571
-0.165294 -0.169705
-0.304882 0.303474
0.059883 0.417185
0.039210 0.127625
-0.000639 -0.376416
-0.087043 0.163891
0.330388 -0.045108
-0.092985 -0.105047
0.000386 0.626278
-0.120273 0.109594
0.007944 -0.050975
0.142057 0.230432
-0.195784 -0.324747
-0.082723 -0.135785
-0.128849 0.063679
-0.140254 0.075935
0.187225 -0.367283
-0.070886 -0.200237
0.035380 0.074660
0.018709 -0.174205
-0.162825 -0.092087
-0.009957 -0.041822
0.170565 0.405710
-0.162801 -0.197721
0.323239 0.133826
0.093182 0.168801
-0.240925 -0.046323
0.326001 0.179688
0.053784 0.233504
0.250221 0.005674
-0.029370 -0.046627
-0.002614 -0.566720
0.344917 -0.042069
-0.022320 0.261293
0.087504 -0.242830
0.266476 0.135362
-0.118007 0.010229
-0.207090 0.176446
0.042695 0.127414
-0.275695 -0.042450
0.321553 -0.134942
0.150909 -0.114047
-0.017481 0.098429
0.034118 -0.245109
-0.119835 0.247265
0.260584 0.070132
-0.329500 0.077280
-0.208814 -0.010673
-0.421228 0.047680
-0.187018 0.158925
0.411382 -0.088873
0.020182 -0.233918
-0.183396 0.128527
0.403694 -0.018857
-0.311308 -0.540797
0.083794 0.226465
0.099067 -0.201996
-0.203957 0.166138
-0.023222 0.475021
0.433008 0.057794
-0.057059 -0.255710
-0.366450 -0.151906
0.395576 -0.296227
-0.377277 -0.557358
0.043770 0.502131
-0.126704 -0.202432
0.023929 -0.105909
0.027477 0.357260
-0.424282 -0.273383
-0.237544 0.130117
-0.027410 -0.348216
-0.265248 -0.140844
0.094522 0.099720
0.529292 0.041749
0.029566 -0.117383
0.319871 -0.007962
-0.369896 -0.010027
-0.476122 -0.156789
-0.340304 0.440089
-0.382703 -0.032836
0.180405 0.220240
-0.098400 0.195559
-0.242214 -0.242942
0.137005 0.428966
-0.120567 0.073411
0.309265 -0.130875
0.201885 0.021613
-0.561993 0.140835
-0.136042 0.001309
0.189628 -0.383900
-0.063162 -0.437737
-0.035038 -0.080366
0.451611 -0.240676
-0.283128 0.392051
0.261990 0.668411
-0.379378 0.165525
-0.232672 -0.120193
0.139629 0.064889
-0.034683 -0.147703
0.259866 -0.117444
0.074583 -0.134876
-0.228484 -0.355856
-0.017229 -0.404930
-0.301112 0.012053
0.156247 0.117243
-0.081299 -0.137931
-0.274043 0.224919
0.063937 -0.206792
-0.019099 0.273739
0.032331 0.023946
0.037980 -0.278559
0.108728 0.567588
-0.208440 -0.098285
-0.284107 0.298142
-0.064367 0.017629
0.226863 -0.367349
0.320638 -0.122372
-0.091198 0.180333
-0.216624 0.095938
-0.509430 0.210525
0.357063 0.109285
0.026656 -0.314121
-0.147591 -0.087134
0.622871 -0.264667
0.148367 -0.456139
-0.184084 -0.269014
0.073494 -0.192280
-0.481515 -0.167329
0.012989 -0.096981
0.357413 -0.173361
0.000322 0.023078
-0.532611 -0.002976
0.006852 -0.167303
-0.633646 0.147891
0.000569 0.140958
-0.013999 0.465111
0.145771 -0.457419
0.470298 0.290196
0.073342 0.014287
0.368789 -0.030413
0.035145 -0.006377
0.152468 -0.172751
0.144602 0.185888
-0.115458 -0.184678
0.070431 0.270666
-0.208849 -0.150437
-0.082273 0.670001
-0.366712 -0.026950
-0.502628 0.418402
-0.201627 0.112182
0.157489 -0.224330
0.287092 0.728583
-0.504279 0.000416
-0.310295 0.076826
-0.130772 0.312407
-0.141094 -0.279488
-0.157250 -0.237339
-0.345511 -0.098867
-0.433980 -0.088374
0.004091 0.164114
-0.202587 -0.131225
0.101553 -0.226440
0.418832 -0.070971
-0.037491 0.086566
-0.566705 0.216450
-0.156874 -0.100740
-0.232222 -0.274074
0.482086 0.378181
0.480236 0.359180
0.299736 0.253124
-0.132356 -0.117589
-0.343602 -0.023403
0.395337 -0.081660
0.085903 0.085611
0.266339 -0.188571
-0.009242 0.093444
0.352100 -0.015594
0.016590 -0.202398
-0.073680 -0.123174
-0.045208 0.265937
-0.484565 -0.241811
0.193847 -0.257668
-0.114153 0.331929
-0.226207 -0.192302
0.229940 0.285859
0.172277 0.223075
0.276683 -0.500666
-0.429676 0.293083
-0.143663 0.395317
0.204446 -0.387486
-0.220141 -0.429213
0.228185 -0.152485
0.106902 0.035757
0.022576 -0.175396
-0.036424 -0.302253
0.032475 0.221756
0.516602 0.258792
-0.037504 -0.354197
0.108105 0.366331
-0.490247 0.007058
0.289816 0.270098
-0.464046 -0.096957
-0.150175 0.043586
-0.223675 0.307971
-0.456553 0.535719
0.267732 0.033909
-0.179673 -0.292622
-0.155895 0.225257
0.020020 -0.489349
-0.309484 -0.435253
-0.284275 -0.071942
0.186024 0.027339
-0.480238 0.331917
-0.184735 -0.309557
-0.189991 -0.030393
0.129172 -0.175811
0.399294 -0.124158
0.048255 0.134769
-0.188768 0.125311
0.419486 0.122813
-0.380797 -0.133641
-0.245442 -0.175977
-0.293342 -0.094633
-0.099098 0.094313
-0.248106 0.139226
-0.386735 0.028882
-0.000518 -0.079296
-0.089088 0.136477
-0.130246 0.330559
-0.070438 0.163249
0.050406 0.081742
-0.441338 0.586987
0.331415 0.000650
-0.028490 0.060493
-0.079335 -0.142690
0.347182 0.459827
-0.234395 0.068493
-0.280286 -0.150552
-0.007233 0.104851
0.709130 0.250694
0.345617 -0.223491
-0.403330 -0.402542
0.180808 -0.256148
0.316595 -0.351518
-0.160045 -0.057265
-0.028780 0.093846
-0.334742 -0.347201
-0.107391 -0.762809
0.116152 0.046494
0.164448 0.095203
0.164491 0.087348
0.055541 -0.011325
-0.325741 -0.144055
0.299250 0.368470
-0.131598 -0.243950
-0.112467 0.175013
0.274817 -0.335150
-0.199276 -0.062653
-0.155196 -0.139335
-0.329556 0.097324
0.040808 -0.037923
-0.383484 0.059448
-0.017106 0.038366
0.340411 -0.562027
-0.312550 -0.004815
-0.020062 0.263677
0.183889 -0.169820
0.116987 0.397520
0.071794 0.034131
0.515766 -0.006854
0.157748 0.501386
-0.283468 0.168227
0.052632 -0.105745
-0.200749 0.240860
0.041279 0.540628
-0.362917 -0.108490
-0.140494 -0.315012
-0.158586 -0.590795
0.116369 0.468459
-0.177089 -0.317934
0.104307 0.314741
0.487124 0.109856
0.239638 0.317398
-0.248395 -0.209523
-0.444150 0.083261
0.211538 0.086066
0.110507 0.154602
-0.454178 0.403321
-0.054976 0.375755
0.236989 -0.006154
-0.467013 0.008603
0.227143 0.193619
-0.388862 -0.064757
0.288982 0.325590
0.087580 0.045178
-0.067064 -0.370891
0.351376 0.079668
0.030484 -0.342806
-0.094686 0.188016
-0.322638 -0.244910
-0.109736 0.207008
-0.201550 0.501170
-0.422686 0.023458
0.386233 -0.110035
-0.259306 -0.369372
0.254130 -0.286969
0.594940 0.073635
0.018550 0.035556
0.188576 0.114313
-0.653889 0.065512
-0.057130 0.089656
-0.221628 -0.272327
0.157314 0.418517
0.125779 -0.470401
0.078908 0.189830
-0.352403 0.083944
0.103634 0.379360
-0.075987 0.151627
0.198940 -0.276783
-0.073585 -0.007643
0.049756 0.692939
-0.412108 0.174542
-0.384045 0.531930
-0.074120 0.156621
-0.089441 0.080690
-0.251760 -0.564220
-0.207015 -0.150936
0.194929 0.091029
0.152112 0.477346
0.275369 0.351533
0.195254 -0.051386
-0.243757 0.011909
-0.510402 -0.236879
-0.183347 -0.415728
0.177249 0.029671
0.142491 -0.372843
0.141022 0.639320
0.117547 -0.229443
0.151254 -0.414906
0.337408 -0.420843
-0.124613 0.160975
0.461365 0.176286
-0.325900 0.139484
-0.585949 -0.303036
-0.327842 0.039161
0.525106 0.008562
0.239376 0.368949
-0.400237 -0.269175
0.071598 -0.181376
-0.179934 -0.195953
0.102673 -0.079543
0.424869 -0.005085
0.253485 -0.307452
-0.008583 0.244851
-0.237726 -0.639561
-0.525311 -0.484677
0.070474 -0.066545
0.399780 0.113542
0.205430 -0.163845
0.141483 0.055836
-0.676709 0.066553
0.131329 0.347543
-0.281570 -0.062383
0.471141 -0.043540
0.439543 0.116961
-0.643988 0.062588
0.204216 0.242942
-0.542785 0.119463
-0.404515 0.152614
0.004975 -0.177405
-0.185310 -0.362514
-0.171429 -0.433887
-0.214431 -0.353761
0.408068 0.698451
0.449403 0.034816
-0.052491 0.244626
-0.008858 0.172420
-0.365089 -0.036474
-0.024595 0.116998
-0.044429 -1.017363
-0.207428 -0.147741
-0.189879 -0.415245
-0.071093 0.244972
-0.068774 -0.077776
-0.395669 0.216035
0.375877 0.093960
-0.017401 0.405491
-0.338798 0.095147
0.104501 0.206855
0.165063 0.129167
0.700307 0.016709
-0.082555 -0.078638
-0.280367 0.354001
-0.009576 0.341230
-0.304540 -0.004933
-0.183416 0.374694
-0.566147 0.198082
0.157516 -0.148712
-0.562987 -0.079914
0.143705 -0.005113
-0.024814 0.098567
0.325038 -0.211101
0.151255 -0.260988
0.196996 -0.370026
-0.100365 -0.372342
0.037617 -0.000934
-0.007392 -0.754221
-0.166152 -0.184631
0.260365 0.030944
-0.105744 0.320797
0.058215 0.127619
-0.107687 -0.545095
0.485940 0.300467
0.370565 0.061097
0.162007 0.094427
-0.295822 -0.293458
0.066193 0.073298
-0.077692 0.360942
-0.469417 0.299494
-0.086533 -0.036261
-0.034300 0.177974
0.621984 0.035208
-0.054402 0.475992
-0.070751 -0.025114
-0.164974 0.511827
0.329239 0.862674
-0.358362 0.178004
-0.248477 0.227245
0.474859 -0.218723
-0.424802 -0.293599
-0.343000 0.039300
-0.441439 0.443299
0.606091 -0.212706
0.238512 0.561433
-0.062876 0.691769
0.076457 0.564414
-0.308093 -0.256549
-0.201012 -0.266964
0.146762 -0.247443
-0.086280 0.211541
0.385269 0.020657
-0.116543 0.584549
-0.257129 -0.367072
-0.220226 -0.185210
0.033541 -0.341063
-0.105966 0.213237
0.348414 0.443438
-0.851470 -0.314606
0.186350 -0.067406
0.029349 -0.156747
-0.014609 0.405904
-0.064845 -0.145307
-0.353966 0.247369
-0.141171 0.232447
-0.054767 -0.120000
-0.203051 -0.319078
0.214434 -0.485840
-0.178531 -0.247067
-0.117054 -0.104270
-0.142670 0.531388
0.588511 0.267210
-0.155444 0.007950
-0.023848 0.089725
-0.245044 0.154422
0.048389 0.257014
-0.130371 -0.066301
-0.309040 0.498082
-0.117323 -0.443953
-0.316235 -0.286650
-0.424933 -0.240439
0.382459 -0.222802
0.457113 0.227942
0.007779 -0.121089
0.567470 0.132221
-0.440899 0.105391
0.525315 -0.011509
0.130978 0.516060
0.003163 0.079597
-0.559472 -0.296241
-0.253404 -0.414092
0.084939 -0.031627
-0.233964 0.096827
-0.419156 -0.131761
0.331077 -0.174432
0.280394 -0.479985
0.281378 0.529204
0.093706 -0.206658
-0.132166 0.540762
-0.248813 0.190996
0.184751 0.246260
-0.228441 -0.215063
0.097917 -0.370997
-0.479097 -0.268855
0.202629 0.141645
0.119967 -0.231268
-0.025764 -0.659160
0.038901 0.214300
0.036743 -0.192419
-0.182824 0.095702
0.016741 -0.066427
-0.311129 -0.175909
0.773326 0.371476
-0.082886 0.149615
0.362959 0.094087
-0.267485 -0.066238
-0.448174 -0.182296
0.335383 0.328870
0.381048 0.045980
0.468990 0.129781
0.025484 0.673569
-0.012010 0.120558
-0.484525 0.401296
-0.581363 -0.224190
0.387832 -0.263787
0.038462 -0.285743
0.678105 0.471202
-0.318750 -0.043666
-0.203829 0.130967
0.290407 -0.150740
0.031999 0.015894
0.302056 0.034358
-0.152164 0.203679
-0.299386 0.512808
-0.048286 -0.473203
-0.409383 0.063145
0.425703 -0.099059
-0.145857 0.452627
0.579282 0.298015
-0.474578 -0.115260
0.587696 -0.070105
0.077288 0.385865
0.404466 -0.327565
-0.385239 0.198316
0.341514 -0.094097
0.595970 0.113818
0.101031 0.173059
0.008330 -0.054482
-0.196081 0.021018
-0.249137 -0.208579
0.184342 0.274666
0.433137 -0.374426
-0.330500 0.259634
-0.059412 0.003352
0.356427 0.369862
-0.503768 -0.950795
-0.501788 -0.200697
0.356289 0.073534
0.214922 -0.075813
0.217355 -0.021376
0.637762 0.393743
0.346433 0.425550
-0.199376 -0.162003
-0.567761 0.013544
0.027591 -0.141218
0.051172 -0.116694
0.137978 0.059474
0.176290 -0.220337
-0.052154 0.515474
-0.178961 0.193921
-0.081186 0.140279
-0.699416 0.003747
0.293572 -0.089334
0.137648 0.167884
-0.090734 -0.514767
-0.359057 0.101187
0.130791 0.363302
-0.020325 -0.155947
-0.375216 0.408240
0.115791 0.237604
0.133641 0.209320
0.075340 -0.229786
0.337564 0.041458
-0.403057 0.107173
-0.503039 -0.169956
-0.153304 -0.389721
0.128463 0.220863
0.224794 -0.083546
0.224166 0.240589
0.109067 -0.358123
-0.064311 0.169252
0.110060 0.071378
-0.235185 -0.096983
0.142125 -0.247440
0.163092 -0.088490
0.095726 0.287866
-0.107277 -0.130189
-0.583939 0.008802
0.401589 0.206531
-0.249136 -0.536033
-0.262224 0.111682
-0.163038 -0.424796
0.445029 0.653510
0.149976 -0.573334
-0.076014 -0.246739
-0.052227 -0.043718
0.028628 0.101806
0.109723 0.248102
-0.205134 0.105576
0.453216 0.165054
-0.016506 0.043434
-0.448293 0.271706
-0.098177 0.304818
0.027413 0.238748
0.619743 0.171162
-0.518501 0.129548
-0.389600 -0.228343
-0.404812 -0.304286
0.229402 -0.510933
0.282189 0.788042
0.106213 0.614825
0.124609 -0.103108
-0.452754 -0.365005
0.168683 -0.565654
0.327563 0.056655
-0.097500 -0.235864
-0.376596 -0.070492
-0.549470 -0.340442
-0.180733 0.072271
-0.361687 -0.085157
0.520898 0.109284
-0.106069 -0.133924
0.299381 -0.502731
-0.148261 -0.372484
0.391224 -0.696288
0.320751 0.291153
-0.387484 -0.076157
0.506798 -0.437632
-0.364949 0.416768
0.316418 0.023385
0.146101 -0.097623
0.060226 -0.620965
0.170117 -0.166407
-0.192785 0.116652
0.005783 -0.382832
-0.240115 -0.177834
-0.432671 0.158085
-0.160191 0.447916
-0.276559 -0.080732
-0.028984 0.097687
0.551213 -0.438582
0.117851 0.458548
0.150111 -0.219800
0.254771 0.389050
-0.098727 0.237868
-0.096818 0.673433
-0.082073 0.338510
-0.034559 -0.178800
0.052730 -0.298374
-0.524382 -0.162134
0.499178 -0.150231
0.936155 0.473208
0.102835 -0.120411
0.747905 0.582365
-0.066480 0.006823
0.716042 -0.033657
0.008017 0.364362
-0.332711 -0.352507
-0.128829 -0.280180
-0.136958 -0.312195
0.349625 -0.111318
0.156720 0.281956
-0.100288 -0.485275
0.407593 0.301292
0.448434 0.085595
-0.163815 -0.005993
0.363917 -0.295946
-0.082788 0.690555
-0.194887 -0.091527
-0.166903 0.661785
-0.434354 0.252112
0.329626 0.179517
-0.194060 0.402818
0.042281 -0.692262
-0.001610 0.259908
-0.789985 -0.395634
0.291018 -0.321771
-0.090421 -0.300698
0.143488 -0.259974
-0.369106 0.878820
-0.250940 0.530410
-0.391196 -0.064524
-0.090423 -0.234414
0.244554 -0.087262
-0.056192 -0.036547
-0.605810 -0.170181
-0.512679 0.298962
0.226448 -0.173782
0.275664 0.105274
-0.012496 -0.734834
-0.297933 0.045318
0.494409 -0.011053
0.173463 0.231833
0.253896 0.047351
-0.131289 0.041460
0.677586 -0.170731
-0.221121 -0.104180
-0.081406 0.343242
-0.352253 0.148773
0.186213 -0.198676
0.219264 -0.108061
-0.395383 -0.153457
0.405235 0.295554
-0.141051 -0.247124
-0.094832 0.475399
0.040613 -0.494811
-0.206500 -0.222505
0.266040 -0.247955
-0.260481 0.419462
0.203239 -0.142116
-0.195635 -0.246990
-0.160164 0.073157
-0.256450 0.420545
-0.116337 0.233634
0.098179 -0.344157
0.371373 -0.300965
0.211173 0.263457
-0.297088 0.027121
-0.454371 -0.029083
-0.320364 -0.165645
-0.405849 0.338629
0.285945 0.129841
0.180744 -0.093709
-0.345829 0.252862
0.324550 -0.272733
0.128885 -0.444541
-0.317831 -0.187209
0.106525 0.063918
0.178246 0.021058
0.228293 -0.078491
-0.343167 0.418601
0.263879 0.057132
-0.293164 -0.051937
-0.284921 -0.420978
-0.198549 -0.346607
-0.099787 -0.490369
0.779966 -0.397434
0.548889 -0.439764
-0.387910 0.241465
-0.251081 0.452096
-0.150777 0.021548
0.485336 -0.249630
-0.436874 0.376932
0.709435 -0.208433
0.235442 -0.347059
-0.252929 0.055286
-0.195847 0.179957
0.005037 -0.026160
-0.450189 0.043055
-0.466175 -0.061183
0.434167 -0.425415
-0.112922 -0.449662
0.348276 -0.180139
-0.110810 0.272726
-0.254199 -0.388223
-0.450637 0.046141
0.331445 -0.190535
0.071148 0.185073
-0.228058 0.081308
-0.145057 0.214406
-0.180227 -0.327032
0.011357 0.306512
-0.165885 0.513949
0.049030 -0.444669
-0.135317 0.335622
0.305203 -0.718126
0.132598 0.654033
0.432267 -0.015313
-0.398583 0.117797
0.159679 0.112231
-0.653713 -0.257123
0.671968 -0.042220
-0.200970 -0.080595
-0.125688 0.285631
-0.546350 0.038148
-0.126308 -0.842585
0.281963 0.271682
0.703652 -0.206372
0.174160 0.402014
-0.197224 0.373716
-0.457757 0.011398
-0.458011 -0.044427
-0.119072 -0.157466
0.666607 -0.255729
0.028317 -0.378585
0.254496 0.274820
0.102278 -0.128287
0.043173 0.134109
0.276672 -0.019613
0.610512 0.201177
0.267244 0.497970
0.371379 -0.124599
-0.336198 0.318999
0.098920 0.087062
-0.371597 -0.001625
0.058400 0.398887
-0.415791 -0.478066
0.152172 -0.381045
-0.308272 -0.069048
0.517342 -0.102672
-0.305259 0.113074
0.276714 0.121939
-0.134356 0.346931
0.275718 0.270844
-0.163174 -0.166388
-0.619713 -0.157572
0.464921 0.343588
0.002317 0.306450
0.133496 -0.341207
-0.239889 -0.196330
0.013145 -0.534729
0.252494 0.384673
-0.455765 -0.099455
-0.052628 -0.272383
0.106437 0.233556
-0.046587 0.037035
0.237433 0.242366
-0.377558 -0.125082
-0.283761 0.166373
0.213960 0.252891
0.426663 0.080060
-0.336053 -0.351278
-0.079746 0.562011
-0.252556 -0.003179
-0.188649 0.223489
0.050406 -0.089828
-0.146597 -0.280559
-0.113544 -0.253825
-0.264387 0.165192
0.265054 0.334180
0.372313 0.065607
-0.009205 -0.192966
0.106254 -0.223858
-0.074878 -0.098418
0.265763 0.003690
-0.367292 0.490506
0.122773 0.301043
-0.411790 -0.112571
-0.141362 0.180682
-0.358096 -0.191395
-0.157126 -0.236460
0.479946 -0.435897
-0.283387 0.308754
0.082695 0.100791
-0.031918 -0.396782
0.120594 -0.224937
0.040626 -0.146820
-0.252769 0.482011
-0.380464 0.080722
-0.318095 -0.069521
-0.363667 -0.239542
-0.146524 -0.415739
0.259646 -0.467872
-0.292003 -0.026477
0.045210 0.661259
-0.513466 0.132042
-0.326750 0.042441
0.094689 -0.026755
0.512656 -0.155328
-0.052071 -0.303787
-0.198797 -0.321003
-0.114671 0.040611
0.326256 -0.301655
-0.783198 0.603702
0.257270 0.082833
0.146382 -0.187697
0.119554 -0.220697
-0.540841 -0.197726
-0.016661 -0.122427
0.784196 -0.402971
0.580259 0.249786
0.300312 -0.114483
0.154802 0.245544
0.253880 -0.443002
0.473677 -0.088918
-0.398837 0.056745
-0.303312 0.063415
0.439957 -0.293529
0.038089 -0.151063
0.724358 0.263947
-0.161819 0.134054
0.507540 -0.077429
0.270638 -0.357140
0.177740 0.255567
0.270404 -0.189442
-0.180191 0.257286
-0.243783 -0.026738
-0.441066 0.427789
-0.443278 0.109239
-0.216122 0.256944
-0.282072 -0.045275
-0.124683 -0.028099
-0.222125 0.197951
0.162873 -0.099320
-0.173211 -0.030728
-0.162213 -0.287850
0.411095 0.392343
-0.136116 -0.582389
-0.435006 -0.459298
-0.364273 0.079001
0.276826 -0.122556
0.607465 0.265035
0.154110 0.130194
-0.212313 0.243271
0.433355 0.204712
0.319993 0.257651
0.189665 0.019831
0.005514 -0.047763
-0.055022 -0.276923
0.178504 -0.662932
-0.215081 -0.110517
0.528808 0.022347
-0.403714 0.124641
0.246377 0.317583
-0.522535 -0.062569
-0.235544 0.489399
-0.048574 -0.202082
0.239383 -0.351496
0.125240 -0.148523
-0.238867 -0.292268
0.436156 0.252292
0.033581 0.264228
-0.080397 0.058930
0.295286 0.101114
-0.772197 -0.551274
-0.399757 0.081018
0.021069 -0.585936
0.256755 0.147252
0.458075 -0.119664
0.290063 -0.216322
0.010587 -0.039846
0.027341 -0.077377
0.075373 0.159196
0.585045 -0.408799
0.421773 -0.205638
-0.099318 0.119492
-0.245437 0.159723
-0.849206 0.116175
0.097158 0.126046
-0.306241 -0.106321
0.093354 -0.534486
-0.057353 0.058175
-0.105260 0.060429
-0.582583 0.174916
0.089529 -0.403414
0.565400 0.006132
0.288323 0.074977
-0.270205 0.316310
-0.018063 0.013686
-0.407754 -0.318272
-0.220682 -0.374575
0.075426 -0.088085
-0.240814 0.347704
-0.397570 -0.053833
-0.293299 0.091951
0.347451 -0.105234
0.311155 -0.303740
0.185467 0.193841
-0.637671 0.218371
-0.298035 0.540187
-0.348317 0.345238
-0.735332 0.009121
-0.206386 -0.111046
-0.038666 -0.357509
-0.113909 -0.364800
-0.200575 0.056758
0.046402 0.207155
0.324986 0.213780
0.061541 0.407459
-0.123788 -0.420412
-0.402091 -0.566798
-0.089290 0.310167
0.121614 0.032922
0.164229 0.109174
-0.071423 -0.297986
-0.327826 -0.226138
0.162008 0.073913
0.292899 -0.196077
0.115972 -0.551007
0.468643 0.555267
-0.022201 -0.266034
0.176740 0.452688
-0.759088 -0.267733
-0.180014 0.163448
-0.056400 -0.430183
-0.196961 0.161250
0.284926 -0.253677
-0.162062 0.534233
0.069267 0.127388
0.013183 -0.121973
0.174987 -0.229456
-0.222434 -0.056475
-0.378298 -0.374918
0.064021 0.180936
-0.210538 -0.345926
-0.143076 0.530966
-0.118720 -0.231904
-0.217401 0.284622
0.021282 -0.025871
-0.494976 -0.137185
-0.092080 0.204898
0.059228 -0.003240
0.002474 0.023944
-0.365205 -0.244310
0.759822 -0.361087
0.151661 -0.374554
0.132183 -0.048506
-0.566103 0.387451
0.282621 0.197243
0.173666 -0.016819
-0.248207 0.380684
0.062578 -0.197435
0.072865 -0.333237
0.048106 -0.132398
-0.268719 0.248116
-0.242732 0.038754
-0.161558 -0.439108
0.402455 -0.014949
-0.196799 -0.173447
-0.281979 -0.080528
0.075829 -0.159965
0.494230 0.173929
0.097513 -0.059616
0.257455 0.130306
0.381431 0.402070
-0.241949 -0.342870
0.164881 0.286513
0.181786 0.142477
-0.258030 0.286506
0.301065 0.150039
-0.077551 -0.117309
0.179872 -0.353460
-0.435113 -0.373538
-0.024413 0.007857
0.267386 -0.134942
-0.276496 -0.001930
0.441655 0.012097
0.020542 -0.030976
0.102451 0.190221
-0.096208 0.240760
-0.065110 0.027118
0.172011 -0.639364
0.182002 -0.108079
0.218739 0.264550
-0.097604 0.183091
-0.362532 -0.254778
-0.211659 0.016547
0.244395 -0.294886
-0.464066 -0.084712
-0.716747 0.367632
-0.619661 0.105438
0.425913 -0.128866
-0.274371 0.284405
-0.328675 0.200518
-0.198630 0.251476
-0.194229 -0.391320
-0.269448 0.272330
0.216093 0.367931
0.089521 -0.030833
-0.306990 0.201849
0.115770 0.341235
-0.093302 0.141529
-0.008138 -0.123720
0.232622 0.220134
0.057068 -0.053052
0.088163 0.370817
0.150385 -0.496453
0.253151 -0.248934
0.042602 -0.164462
-0.276911 0.012669
0.079594 0.191186
-0.106975 -0.036283
-0.215850 -0.103001
-0.163540 0.157521
0.355598 -0.101043
0.300225 -0.094892
0.068482 0.289920
-0.076090 0.407648
-0.059259 0.118453
0.146513 -0.324220
-0.530348 -0.173211
-0.233787 0.170195
-0.091132 -0.042126
-0.494780 -0.309975
0.017328 0.451911
-0.349025 -0.116755
0.188222 -0.075154
-0.068310 -0.650615
-0.039231 -0.143793
0.066901 -0.041768
0.265089 -0.078986
0.116821 -0.285527
-0.138677 -0.391776
0.097035 0.408901
0.180042 -0.386454
0.275431 -0.038087
-0.269953 -0.051625
-0.148023 0.123237
0.022048 -0.197943
-0.056592 -0.188843
0.015888 0.614199
0.094321 0.027804
-0.215147 -0.336569
-0.443778 0.148918
-0.123028 -0.068323
-0.182389 -0.026047
-0.075278 0.055978
0.077155 -0.043719
0.232230 -0.344953
0.445936 0.080034
-0.250291 0.268287
0.056781 -0.498212
-0.103777 0.072068
-0.415518 -0.213176
-0.221368 -0.032934
-0.338382 0.207356
-0.308562 -0.142409
0.317609 -0.116614
0.124800 -0.165178
-0.178854 0.396083
-0.194648 0.355719
-0.468063 0.260001
0.078270 -0.404217
0.299189 0.263765
0.488168 0.468737
0.179427 0.211656
-0.636998 0.324021
-0.315678 -0.106012
0.323014 0.339015
-0.085544 0.209494
0.128800 -0.097096
-0.128774 0.207001
-0.321243 -0.208984
0.032928 -0.163902
-0.437620 0.398659
-0.067031 -0.057571
0.053688 0.279787
-0.559874 0.376372
-0.252604 -0.527550
-0.317985 -0.415550
0.393867 0.217733
-0.067349 -0.380788
0.200054 0.108771
0.046354 -0.324322
0.073893 -0.337232
0.367705 0.166765
0.017227 -0.439544
0.434174 -0.144924
-0.331351 -0.300671
0.349148 -0.178061
-0.363316 0.432744
-0.183985 -0.061261
-0.206083 0.039094
-0.097151 0.176222
0.360440 0.653329
0.510251 0.006913
0.335218 -0.081170
0.206092 -0.063108
0.311295 -0.122706
-0.616041 -0.008802
0.329648 -0.138873
0.240877 0.139702
-0.084006 -0.193157
0.353987 0.075026
-0.126993 -0.352757
-0.491520 -0.155545
0.099561 0.128809
-0.396101 -0.306179
-0.290258 0.249252
0.148619 0.332025
0.171025 0.053972
-0.267303 0.603065
-0.507894 -0.190977
-0.215302 -0.383640
-0.082169 0.022750
0.231216 -0.043988
0.110627 0.083923
-0.341919 0.311553
0.091801 -0.422110
-0.328149 -0.025761
0.299592 0.349474
-0.127312 -0.029047
0.451294 0.284978
0.088636 -0.155688
-0.056051 0.224121
0.224786 0.144244
0.063301 -0.237510
-0.106981 -0.295927
-0.369330 0.027878
-0.365527 -0.054202
-0.111407 0.022219
-0.255433 -0.006631
0.129564 -0.022967
0.109107 -0.174053
-0.026714 0.781278
0.079199 0.011852
-0.274672 -0.119199
-0.277865 0.002171
0.263171 -0.419876
-0.287594 -0.151321
0.275172 0.026856
0.546980 0.458893
-0.472910 0.190344
-0.308643 -0.104533
-0.190673 0.147024
-0.435866 0.256693
0.128355 0.041328
-0.406659 0.034452
-0.175609 0.217886
0.127082 -0.161018
0.359857 0.095101
0.559844 0.072013
0.262717 -0.372914
-0.102192 -0.027175
-0.321006 -0.239267
-0.177870 -0.063099
-0.326696 0.466918
0.481458 -0.226653
-0.124731 0.022259
0.099093 -0.110178
0.539412 0.194007
-0.193437 0.172604
0.003135 0.079457
-0.340041 -0.251698
-0.056277 0.336711
0.081001 -0.326413
-0.242874 -0.583299
0.167789 0.048258
-0.172348 -0.446925
-0.226352 0.224077
-0.100784 0.241603
0.501288 0.180771
-0.399910 -0.136763
-0.044920 0.241251
0.176290 -0.329711
-0.348640 -0.183807
0.037772 0.281956
-0.239241 0.040279
-0.387121 -0.055143
-0.038469 0.191083
0.309134 -0.139840
0.083075 0.018801
0.096428 0.115434
-0.276445 0.013751
-0.164956 -0.034549
-0.195037 -0.273831
0.029452 0.054763
-0.041977 -0.119884
-0.469670 -0.293214
0.324686 -0.180918
-0.090732 0.112942
0.337120 -0.002260
0.359338 0.070856
-0.643497 -0.013722
0.058339 -0.136097
-0.004692 0.387039
-0.197298 -0.302249
0.035116 -0.252675
-0.108164 -0.124062
-0.134248 0.104179
-0.002304 0.189312
-0.345099 -0.107794
0.270124 0.139722
-0.218292 0.338289
-0.091724 0.028063
0.078612 -0.146550
-0.071772 0.447065
0.198543 0.251580
0.246455 0.092009
0.098579 -0.099162
-0.199171 0.083687
-0.041995 0.137949
-0.115327 -0.118667
-0.014051 0.235501
-0.289909 0.286799
-0.083414 -0.082896
0.041418 -0.016266
-0.193793 0.114129
-0.130613 -0.043173
-0.325766 -0.018516
-0.107265 0.667409
0.067354 -0.291694
-0.406699 -0.166891
-0.127368 0.215635
-0.032912 -0.261771
-0.103686 0.107303
0.181717 0.368616
0.256997 0.203629
-0.006225 -0.053080
0.159398 0.369344
-0.296052 0.198300
-0.342073 -0.386922
0.088207 0.058258
-0.526484 0.313055
-0.157528 0.129292
0.081381 0.447194
0.423107 0.114528
0.231300 0.463071
-0.123037 0.109385
0.278826 0.008124
0.156964 0.410011
-0.135195 -0.141291
0.461216 -0.147989
0.304470 -0.068841
-0.482037 -0.293402
0.341740 -0.236449
0.139373 -0.010420
0.167422 0.025744
-0.037175 0.286676
-0.382636 -0.231758
0.198400 0.013617
-0.116190 0.104032
0.153150 -0.393511
0.287560 0.148925
0.057195 0.057815
0.256225 -0.104300
0.170213 0.315895
-0.102352 -0.304599
-0.040581 0.184562
0.193680 0.226460
0.277526 0.019592
-0.007636 -0.241657
0.288050 -0.210310
0.381659 0.034046
0.102856 0.393372
0.325269 0.324028
-0.487305 -0.297854
-0.303672 -0.047517
-0.190684 0.025836
0.127695 0.126535
-0.088440 -0.358014
0.197151 0.033424
0.235509 -0.108691
0.136654 0.041562
0.115722 0.133354
0.147439 -0.011901
0.256144 -0.377306
-0.038357 -0.141450
0.028511 -0.133087
-0.072746 -0.396863
0.203478 0.056613
0.058743 -0.200086
-0.081241 -0.038253
-0.292848 0.224692
0.438905 -0.373449
-0.012178 -0.055233
-0.167278 0.183063
0.034697 0.117453
0.161031 0.412850
0.111657 -0.034959
-0.008041 -0.186203
-0.434515 -0.130796
-0.026896 -0.087262
0.204551 0.182525
-0.399397 -0.076525
0.357945 0.054972
-0.246632 -0.001484
-0.368363 -0.326575
0.573684 0.153581
-0.134891 0.124047
-0.284955 -0.449877
-0.223164 -0.082493
-0.032456 0.051858
-0.069768 -0.075276
-0.098029 -0.248339
0.104618 -0.224785
-0.171151 0.212925
-0.286935 0.146967
0.197626 -0.004904
0.077238 -0.139278
-0.313634 -0.298274
-0.000022 -0.119600
0.311104 0.169844
-0.270594 0.018721
-0.012132 0.073815
-0.608264 0.074551
0.062455 0.177158
0.182484 0.265017
-0.048483 -0.122979
0.084185 0.155728
-0.299196 -0.269117
0.000603 -0.252235
0.163643 0.089245
0.427558 -0.321902
0.062934 -0.160202
-0.358021 0.173909
-0.052256 -0.005098
0.022485 -0.361346
-0.206671 -0.088124
0.067380 0.057796
-0.030333 -0.105031
-0.348373 -0.035877
0.051423 0.060645
0.124008 0.003105
0.141977 -0.275019
0.120113 -0.072842
0.192077 0.022986
0.060372 -0.055809
-0.152060 0.066746
-0.115173 0.042077
-0.008987 0.189088
-0.176559 0.357938
-0.530582 0.068574
0.044451 -0.022439
0.164900 0.136622
-0.212407 0.174058
0.004447 -0.078983
0.511859 0.041337
-0.206784 -0.311307
0.153541 0.519223
0.162126 0.078244
-0.107340 0.066841
-0.243732 -0.145261
-0.371236 -0.547349
0.150180 0.014793
-0.478982 0.109189
0.120990 -0.237936
0.005922 0.195414
0.136999 0.058680
-0.180608 0.154881
-0.206900 0.192902
-0.002426 -0.372610
-0.216020 -0.169541
-0.170099 -0.136901
0.333202 -0.147651
-0.123902 -0.017125
-0.038854 -0.269242
0.005584 0.264291
-0.194993 -0.225759
0.115166 -0.150164
-0.073589 -0.055476
-0.077333 -0.208557
-0.052425 0.063954
-0.047664 -0.133099
0.424808 -0.080371
0.094715 0.038738
-0.169508 0.337501
-0.084750 -0.076480
-0.136400 -0.258713
0.074698 -0.235867
0.109095 -0.145538
-0.308775 0.106821
0.420114 0.313947
-0.330655 -0.188062
-0.245362 0.377710
-0.162864 -0.081379
0.114899 0.127075
-0.109282 0.204555
-0.304634 -0.088920
0.009353 0.031350
-0.075346 -0.020277
-0.209446 -0.448871
0.142843 0.137837
-0.165765 -0.135232
-0.429003 0.288075
0.438899 0.191943
-0.178372 -0.272383
0.264388 -0.121069
-0.338705 -0.132534
0.070963 -0.130556
-0.140400 0.126028
-0.215345 0.120234
0.477021 -0.183368
-0.063572 0.052258
-0.148279 -0.208281
0.169048 0.160874
-0.166013 0.091961
-0.004280 -0.130878
-0.284106 -0.374743
-0.020204 0.284455
0.038360 -0.249709
-0.333381 0.001382
0.033726 0.489116
0.022827 -0.027847
0.000638 0.102287
0.048374 0.250551
-0.065740 0.125234
-0.362444 0.010473
-0.075432 -0.264902
-0.249533 0.084192
0.211903 0.093205
-0.252069 -0.146342
0.158615 0.302343
-0.080157 -0.148332
0.040485 0.080390
0.498530 0.457191
0.066411 -0.365231
0.049860 -0.198473
-0.050196 0.269062
0.134802 -0.032027
-0.131205 -0.312865
-0.268576 0.390971
0.082821 0.344830
-0.381121 0.067902
0.252064 -0.432177
0.174025 -0.074266
-0.333163 0.099265
0.262726 -0.020951
-0.312003 0.373419
-0.267951 -0.038244
0.108615 0.063451
0.089106 0.037327
-0.030433 -0.152423
-0.281331 0.205165
-0.229143 -0.029461
0.037299 -0.372381
-0.174836 0.090047
0.096823 -0.205879
0.040221 -0.028341
-0.241075 0.372088
0.032906 -0.129705
-0.124149 0.435964
-0.467788 0.027016
0.306716 0.255597
-0.413542 0.253844
-0.559937 -0.036504
0.371340 0.402794
-0.059350 0.266063
0.221340 -0.092010
-0.178795 -0.122617
-0.152999 -0.048453
0.473373 -0.327824
-0.045912 0.119527
-0.024456 0.303703
-0.116824 -0.114627
-0.312132 -0.047340
-0.030706 -0.177983
-0.283709 0.033351
-0.306093 0.034588
0.067268 -0.150241
-0.080279 0.574609
0.149941 0.183473
-0.213066 -0.106603
0.265107 0.097741
-0.191647 -0.262654
-0.062125 -0.170618
0.129030 -0.148855
0.359588 0.076784
0.407406 0.377901
-0.358689 -0.244923
-0.002229 -0.071343
0.198637 0.218143
-0.326202 -0.224777
0.183311 0.303261
-0.060484 -0.049314
0.087178 -0.252687
0.089684 0.001838
-0.080322 -0.191934
-0.233296 0.070963
-0.177304 0.231538
0.347999 -0.466625
-0.175132 0.008238
-0.182679 0.128225
-0.018120 -0.251838
-0.034681 0.337425
-0.013979 -0.758143
0.000776 -0.031384
-0.374102 0.079731
0.088542 -0.164171
0.056212 0.631518
-0.269944 -0.066894
0.271968 -0.031360
0.100989 0.286923
-0.058002 -0.136580
-0.089501 0.345864
-0.525883 -0.407070
-0.130126 -0.052685
-0.070285 0.371933
-0.026418 -0.297857
-0.229805 0.402767
-0.186631 0.215734
0.081893 -0.495425
0.348495 0.295596
-0.098037 -0.038871
0.002578 0.162768
0.087727 0.141269
-0.091310 0.074459
0.044865 0.128113
0.169778 0.000237
-0.197695 0.003830
-0.150227 0.213054
-0.064879 -0.172335
0.276044 -0.171066
0.170468 0.098387
-0.253931 0.385067
-0.085222 -0.269855
-0.052088 0.015835
-0.039225 -0.172368
-0.070175 0.236659
-0.227565 0.311067
0.361970 0.321184
0.410216 0.225368
-0.018306 -0.076166
0.333245 -0.390110
-0.148452 0.105879
-0.533665 -0.138202
0.092373 -0.111068
-0.078586 0.001438
0.498671 0.025263
-0.060189 -0.018635
-0.315044 -0.135522
-0.030324 -0.067526
-0.342520 0.237226
-0.024803 -0.012166
0.134240 0.268955
-0.220945 -0.023711
0.012822 -0.187447
0.204478 0.294325
0.091408 -0.002901
0.213643 0.262671
-0.095830 0.420798
-0.018683 -0.288805
-0.010423 -0.125879
-0.376213 0.151094
0.248327 0.196495
-0.064490 0.234985
-0.090766 -0.106973
0.261471 -0.316030
-0.044467 0.014057
0.234324 0.038260
-0.094818 0.444813
-0.131157 -0.380675
0.028176 -0.195085
-0.323777 0.280664
-0.082553 -0.100604
-0.026727 -0.242770
-0.453559 0.382458
-0.063380 -0.091027
0.163494 -0.022622
0.281515 -0.241924
0.049592 0.394376
-0.364656 0.106843
-0.287236 -0.027409
0.151008 0.444326
-0.064272 0.197242
0.151879 0.367938
0.015951 0.194429
0.072308 -0.252679
-0.204363 0.072493
-0.149830 0.203595
-0.220466 0.270563
-0.103069 0.134423
-0.076902 -0.150249
0.230451 -0.050234
0.015448 -0.092592
-0.233336 0.342514
-0.037494 0.092178
0.125880 0.039187
0.176443 0.017344
0.233804 0.022180
-0.111018 0.126747
-0.098971 0.127281
0.072053 0.174753
-0.096640 -0.267059
0.109848 -0.037114
0.030394 0.262446
-0.436420 0.105511
0.006030 -0.177299
0.038572 -0.003470
-0.006477 -0.152205
0.056894 0.045139
-0.030468 0.071744
0.049183 -0.074431
-0.016045 0.283334
0.190558 0.045546
0.279010 0.188364
-0.432542 0.486394
-0.044778 -0.281220
0.176092 0.234557
-0.232967 -0.145451
0.384274 0.056540
-0.317870 -0.061317
-0.175005 -0.280920
0.078355 0.102805
0.057606 -0.120597
0.350749 -0.043945
-0.108837 0.065442
-0.242812 0.113935
-0.049318 0.142045
-0.071328 -0.274176
0.462865 0.286137
-0.104302 0.255825
-0.006728 0.037025
0.292934 -0.085324
-0.198660 -0.023279
0.215367 -0.020314
0.186991 0.182716
0.129617 0.148194
0.138874 0.326358
0.199304 -0.271174
0.376452 -0.370463
-0.216428 0.044931
-0.160223 -0.204761
0.104313 0.022340
-0.200954 -0.279629
0.286202 -0.194019
-0.295896 0.184633
-0.352431 0.064633
0.260440 0.223879
-0.125847 -0.315008
0.138022 -0.071734
0.268571 0.182844
0.041795 0.012838
-0.230548 -0.286200
-0.224116 -0.135079
0.138855 0.220193
-0.110219 0.451522
-0.441207 0.095002
0.123833 -0.206606
-0.038177 0.162325
0.099355 -0.277596
0.218652 -0.061953
0.054092 0.274151
0.160181 0.171257
0.043499 0.024170
0.368971 0.062563
0.072070 0.098029
-0.068514 0.300529
-0.014754 -0.172175
-0.116760 -0.052685
0.161275 -0.126932
-0.103541 0.184299
0.070837 0.020393
-0.117759 0.319788
0.194677 0.005573
0.088248 -0.004197
-0.097560 0.057587
0.346104 -0.071032
-0.067673 -0.046917
-0.373017 -0.015883
0.239450 -0.208792
0.148796 0.200344
-0.041500 0.113854
-0.057270 0.089556
-0.376934 -0.071894
0.286358 0.088876
0.432985 0.101137
0.015001 0.033657
0.428150 0.257671
-0.277176 0.072133
0.155268 -0.297790
0.103445 0.216962
-0.117325 0.157539
0.188444 -0.286826
-0.047564 0.125062
0.212128 -0.371804
0.451672 -0.018703
-0.214183 0.322163
-0.203121 -0.424348
-0.135522 0.039372
-0.129446 -0.245013
0.064059 0.107923
-0.103089 0.535292
-0.291740 -0.069403
-0.223347 0.293718
-0.133788 -0.097659
0.476991 -0.429962
-0.086695 0.363565
-0.411247 0.074733
0.343226 -0.108104
-0.180760 0.240748
-0.184712 -0.172777
0.290798 0.291665
-0.184665 0.146269
0.040347 -0.102727
0.272504 0.288108
0.043296 -0.084536
0.478881 0.109102
-0.386966 0.380478
-0.167592 -0.355899
-0.157240 -0.006563
0.188009 -0.018700
0.506752 0.171874
-0.190202 0.106622
-0.140178 -0.059604
0.149555 0.089210
-0.095121 0.034104
-0.089602 -0.393193
-0.124053 0.369984
-0.320634 0.250417
-0.104293 0.050664
0.582068 0.199561
-0.116866 0.105427
0.001137 -0.133995
0.112262 0.013493
0.090643 -0.258555
0.148272 -0.017139
0.095942 0.061856
-0.016010 0.050036
0.236435 0.248656
-0.433072 -0.185254
0.430646 -0.264922
0.101222 0.070132
0.085454 -0.117947
0.203573 0.045088
-0.389518 0.129520
0.229960 -0.512275
0.264554 0.241073
-0.334398 0.071020
0.627654 -0.075009
-0.334809 0.241247
0.084252 -0.247854
0.230550 -0.137354
-0.225382 0.114649
0.401869 0.010544
-0.083958 0.346369
-0.624214 -0.630139
0.573480 -0.225426
0.064682 0.006741
0.031438 0.130024
-0.044709 0.197491
-0.261289 -0.232280
0.740671 -0.185239
0.086006 0.578908
-0.126952 -0.209108
-0.170001 0.074420
-0.380093 -0.039950
0.509070 -0.104127
0.481764 0.113429
-0.349994 -0.153132
-0.030611 -0.204829
-0.070137 -0.359583
0.353782 -0.421272
0.005126 0.060125
-0.130275 0.084756
0.000829 0.170319
-0.204895 0.150607
-0.005501 0.161639
0.247084 0.043352
-0.093844 0.229381
-0.164163 0.040700
-0.114107 -0.193276
0.100489 -0.101583
0.197659 -0.099112
0.081896 0.140226
-0.389645 0.107892
-0.053389 0.055223
0.225591 0.172283
0.152600 0.061000
0.269652 0.203719
-0.053486 0.206637
0.009679 0.040407
0.184279 -0.026366
-0.327865 -0.056641
0.270292 0.003663
-0.012368 0.142254
0.200743 -0.178021
0.410038 -0.422936
-0.550471 0.088342
0.332090 -0.036273
0.358534 0.132871
-0.200342 -0.188481
0.147196 0.190683
-0.221942 0.248076
0.129693 -0.047689
0.364988 0.075185
-0.165805 0.375034
0.342885 -0.271274
0.104064 0.006146
0.272739 -0.182324
0.078938 -0.117905
0.036077 0.191192
0.045885 -0.291136
0.198637 0.034558
-0.274188 0.272609
0.292973 -0.097123
-0.066245 0.269596
-0.103949 -0.305982
-0.057266 -0.190056
0.040119 0.132070
0.108127 -0.352498
0.314970 0.264614
-0.316992 -0.180461
0.152166 0.017074
0.530199 0.044973
0.115098 -0.190928
-0.069991 0.040207
-0.012095 0.101004
0.271976 -0.164577
0.278141 -0.163571
-0.145474 -0.202108
0.228949 0.204966
-0.412382 -0.057564
0.414638 -0.187875
0.442224 -0.049458
0.242789 0.119064
0.072282 0.089018
-0.064699 -0.019873
0.250993 -0.453592
0.157821 0.159234
-0.068765 0.032482
-0.189341 0.260088
-0.294220 -0.231790
0.069848 -0.250523
0.151667 -0.017422
0.133956 -0.099180
0.097501 -0.031013
-0.359988 0.061653
0.326511 -0.635480
0.221877 0.230744
0.229484 -0.037564
-0.066982 0.178178
0.051651 -0.091246
0.147710 -0.225216
0.249744 0.241680
0.077988 -0.118751
0.180715 0.059224
-0.290993 -0.419477
0.093123 -0.527029
-0.175323 0.105335
0.180087 -0.383333
0.069676 0.403494
0.270088 0.294790
-0.155175 -0.456471
0.222312 0.339391
0.220463 -0.220504
-0.126928 0.222706
-0.460785 -0.019954
0.146659 -0.160611
0.126180 0.008887
0.124547 -0.361878
0.231579 -0.211549
-0.103674 -0.161272
0.103557 -0.399539
0.499624 0.199785
-0.077451 -0.521536
0.376239 0.318156
-0.113636 -0.204785
-0.259014 -0.230587
0.195815 0.048620
-0.152229 -0.331881
-0.105361 0.050098
-0.064346 0.013356
0.724122 -0.700572
0.178321 -0.029102
0.266269 -0.709950
0.271890 -0.052733
-0.298315 -0.028417
-0.378429 -0.038633
0.239660 0.111598
-0.121454 -0.164718
0.326145 0.140012
-0.519563 0.231894
-0.188545 -0.316341
0.388109 -0.324688
-0.292970 -0.713411
-0.086387 0.193417
-0.071225 0.111958
-0.042623 -0.471451
0.397735 0.297303
-0.224256 -0.111138
0.275232 0.314521
-0.000343 0.361980
-0.279611 -0.242151
-0.259276 -0.502880
0.151695 0.180240
0.062341 -0.508095
-0.071869 -0.043535
-0.159372 -0.108626
0.044803 -0.536995
-0.116606 0.136028
0.661373 -0.100690
-0.159058 -0.278091
-0.080262 -0.208461
-0.134622 -0.413906
-0.005037 -0.288531
0.057881 -0.212441
-0.141394 -0.367327
-0.095264 0.101685
-0.326307 -0.236406
0.443820 -0.583820
0.298242 0.081332
0.154897 -0.202439
0.429012 -0.446027
-0.142963 -0.826725
0.204877 0.197737
0.614841 -0.147763
-0.457123 0.539154
0.250390 -0.214015
-0.122855 0.194766
0.018824 -0.451708
0.450654 -0.020520
-0.330086 0.050913
-0.244472 -0.400559
-0.074259 0.194337
0.399490 -0.370933
-0.013667 -0.202242
-0.346404 0.450527
-0.003449 0.095674
0.023788 0.392661
0.500885 -0.179824
-0.412135 -0.612174
0.057402 0.652483
-0.862933 -0.364490
-0.141320 -0.624803
-0.635576 -0.080031
-0.096337 -0.123306
0.268742 -0.173117
0.154633 0.340927
-0.199392 -0.574383
0.357095 -0.553543
-0.020546 -0.041110
0.114641 -0.413665
-0.802414 -0.090506
-0.378830 -0.555116
0.453765 -0.335320
-0.534792 0.502959
0.235929 -0.992090
0.086121 0.191433
-0.416303 -0.645710
0.574694 -0.922320
0.093905 -0.135439
-0.103671 -0.259317
0.061537 0.159563
-0.592678 0.073083
-0.066857 -0.556466
-0.098600 0.590168
0.194206 -0.632851
0.237015 0.110452
-0.193151 -0.488634
-0.459161 -0.947647
0.405570 -0.097184
-0.281378 -0.222832
-0.232200 -0.866039
-0.418981 -0.015836
0.460530 -0.076560
0.258112 0.776598
0.356877 -0.814688
-0.382080 0.054003
-0.623982 0.017200
-0.513892 -0.497405
0.551440 -0.546687
-0.511130 -0.413938
-0.546566 0.471644
-0.243039 -0.843836
0.687764 -0.324750
0.009047 -0.265036
0.629650 -0.455730
0.382469 0.450512
-0.124997 -0.191985
-0.274673 -0.342847
0.357977 0.210666
-0.615795 -0.157335
0.038743 0.696831
-1.348326 -0.815228
0.464901 0.425282
-0.430196 -0.276860
0.225608 -1.382381
0.623950 0.270345
-0.595608 -0.309660
-0.011066 -0.809842
0.034137 0.304082
-0.361098 -0.137625
-0.043053 1.277306
-1.052373 0.048957
0.762509 -0.259288
-0.833936 -0.004574
-0.572732 -0.560817
0.918812 -0.337311
-1.369242 -0.060128
-0.041151 -0.991429
-0.318529 -0.770218
-0.328851 0.050079
0.973477 0.358002
-0.386772 -0.669373
0.087402 0.113917
-0.200099 0.075749
-0.762413 -0.382990
0.519553 -0.176817
-1.659634 0.304999
-0.689281 -1.105739
-0.900848 -0.149766
0.750277 0.139331
-0.656547 -0.425009
-0.481243 0.009853
0.712507 -0.580286
-1.209152 -0.114358
0.268804 -0.484392
0.255841 -0.115596
-1.639356 0.098283
-0.511842 0.039619
-1.315097 -0.769160
0.458504 0.261265
-0.298641 -0.028363
-0.424472 -0.957937
-0.229453 -0.904436
-0.660559 0.612853
1.175102 -1.907096
-0.169328 0.017181
-0.849947 0.280982
-1.070817 0.037470
-1.223569 0.487612
1.136500 -0.430386
-1.474325 -0.568486
-1.348552 0.896568
0.993052 -0.825758
-0.946857 -0.696835
-0.671350 -2.211583
-0.260707 0.015447
-0.681959 0.658400
-0.735686 0.728671
-0.115005 -1.017442
-0.272860 -0.418794
-0.152434 1.851983
1.233298 -0.594855
-1.349386 -1.111982
-1.637541 0.128592
-0.674750 -2.304463
-1.691367 0.412968
0.640936 0.386827
-2.228431 -0.212441
-0.670349 -0.406452
1.426565 -0.201315
0.369244 -0.180970
-0.149116 -0.622558
0.088014 0.591653
-1.643398 -1.053047
-1.357918 -0.516171
-0.615151 0.513526
-0.849033 0.184489
-2.561773 2.103267
0.628560 -1.425061
-1.053725 -1.682345
0.679005 1.670740
0.993659 -2.615209
-1.035248 0.112063
-1.968529 -0.415574
-1.427390 -0.227120
-0.723354 1.088814
1.174823 1.551060
-1.573769 0.691584
-2.318811 -0.278485
0.910632 0.261817
0.952083 -1.570580
-2.019123 -4.090611
-1.096857 2.175659
-2.175387 -1.655251
-1.470469 1.503474
2.173896 -0.843160
-1.010739 0.642749
-0.157648 4.730939
0.522007 -0.740047
-0.163540 -2.110347
-2.779330 0.007013
-0.895823 -2.004815
-2.078923 1.708188
-3.959902 -0.944321
-1.662267 0.158241
-0.202888 -1.283966
1.082369 1.764026
3.113043 1.009059
-4.040147 -1.815038
2.364692 1.217136
-1.557280 -2.585479
-2.844897 -0.964119
-1.234687 4.674055
-4.159589 0.675206
-2.235708 1.396110
-0.134131 -1.898825
-0.483081 -1.483093
1.414786 2.853052
-1.585306 -2.348872
1.014004 -2.733290
-6.477687 -2.122020
1.266870 2.790350
-0.141936 2.445333
-3.626919 4.610969
-0.397582 0.600240
-5.045929 -0.235002
2.092789 2.210629
2.275551 0.011778
-6.615504 -5.271385
-2.611793 1.317002
-6.254758 -3.268505
2.911616 0.959877
0.947049 1.191269
-3.738585 3.973309
-0.065553 2.454369
-2.368860 3.954178
5.851929 -4.266321
-6.224868 2.199120
-5.536408 2.382160
-3.344548 1.456349
-11.064363 -2.390357
1.426699 -1.422260
-0.527953 2.312567
-2.502889 6.213358
4.662670 -2.442027
-7.785345 1.417306
7.930760 -2.683159
-1.403180 3.265234
-2.048179 0.475905
-11.926141 6.014769
-10.511848 7.847031
1.534662 -6.495892
-3.808446 4.332695
-7.839792 5.089365
-1.291945 2.560989
-3.941088 1.048419
7.562696 -14.888440
-12.560346 -0.080762
6.251572 12.287378
-5.036824 10.975697
-7.356814 4.121939
-7.077708 -8.767333
-4.824396 25.616601
1.653556 5.729873
-5.405885 7.383322
-13.401055 -7.648045
-8.884854 -12.760831
-11.601639 1.712476
18.058508 -3.410950
-20.588516 7.948920
-22.676035 14.097679
3.081510 -7.359186
6.352416 42.408695
9.254648 0.509628
-12.598926 35.240984
-19.440412 -0.680623
-27.840027 9.573502
-3.998655 -7.149491
-4.910356 -21.509675
-28.615116 53.917904
-35.806096 -4.462077
-6.206909 -35.617888
17.065996 73.940903
46.012721 -27.180862
-1.848861 80.143651
18.249827 -10.722549
-112.359693 12.762052
-78.375045 31.188531
-14.062451 12.037130
-39.713981 180.992895
-320.348070 87.902374
53.515795 134.433663
166.884744 38.638622
9.486918 -242.100860
82.516465 275.110698
77.094726 74.943924
-185.070959 325.348766
631.656579 -597.789111
-688.430463 -741.284564
-929.523794 4103.074338
-2604.212559 1316.513295
1227.075276 1405.314208
-7011.497523 -2652.889350
