12553.988792 13954.864587
-4065.767294 -2573.723054
-451.620633 661.818285
-3197.149488 -2263.370066
-320.375581 227.610161
122.225794 462.056694
-33.739012 27.453070
308.114931 -127.594098
35.531369 -90.373383
-71.313263 37.878101
37.241298 -17.267261
-286.146247 74.000601
-41.491196 5.552256
34.064996 -45.029066
-32.537140 -22.299857
-13.031853 -1.562360
1.147796 7.482748
1.689071 9.989848
23.050166 -4.043291
-17.232004 40.735960
-10.472354 -13.619950
-8.514901 -11.397534
-33.113266 -22.235395
-18.313285 -4.459189
-5.788912 2.167865
-12.681510 7.747111
16.660725 -0.080121
12.841034 11.730408
-5.682823 2.225985
6.573674 -2.882488
-25.998503 -4.640387
-7.313532 -2.740104
-3.620721 -7.827222
-12.027987 7.777834
3.094162 -8.581492
2.961362 -2.522431
-2.264688 8.033611
6.432810 -0.279472
-9.933626 11.587369
-0.072361 -2.900765
-2.818759 -7.883536
-2.651471 3.640681
-5.681285 -9.396966
-6.353693 -5.571879
-2.517548 5.217931
5.142979 0.611156
1.689384 9.203120
-2.337457 -0.470738
-0.735392 -3.091008
-0.031755 0.543075
-5.318128 -1.287760
-5.437604 -3.841121
-3.240520 1.707044
4.230649 -4.534335
1.631293 0.496367
-5.092461 3.553545
-0.452766 -0.298406
0.292550 1.999917
0.532615 3.303876
-3.345655 -1.904643
-1.939265 1.405199
-0.180370 -7.931055
-1.107052 -2.882626
-2.709602 5.388369
-0.142826 -0.477653
1.084369 0.834278
1.812461 1.320445
-3.640822 0.953540
-0.112256 1.939456
-3.725046 -4.298498
-0.823163 -2.552345
1.101715 3.417838
-0.059896 -1.480799
-0.120201 -2.228769
-1.013470 -0.617901
-1.062433 3.054158
0.275620 1.682738
-3.075763 0.938889
-0.418281 -1.382510
2.073662 1.536011
0.070548 -1.614604
-1.695732 -2.996803
-1.585698 -0.469309
0.979446 0.602904
0.166239 0.688088
-1.685844 2.121033
-2.303849 0.136496
1.643323 1.081524
-0.296061 -1.295686
-2.331083 -1.300114
-0.243333 -0.429487
0.666325 -1.358647
0.289680 -0.843673
-0.737124 1.043625
-2.482790 1.734231
1.597084 -0.068724
-1.451649 -0.363573
-1.316213 0.864647
0.780050 -0.124840
-0.149686 -1.245043
0.344007 -1.251459
0.147820 -0.459566
-1.319137 1.419725
0.519933 -1.385828
-1.463828 0.855157
-0.938193 1.498411
1.016507 0.171756
-0.639313 -0.572712
-1.024867 -1.149574
-0.368285 -0.547322
0.032258 0.465840
0.534513 -1.019615
-0.097165 0.345260
-0.407744 0.925570
0.951865 -0.289804
-1.642178 -0.425599
-2.003340 0.987618
0.160486 -0.411909
0.224628 0.252440
0.817637 -0.650945
0.769566 -0.713079
-0.359485 0.703323
0.243436 -0.832258
-1.730585 0.070636
-0.767181 1.924178
-0.481477 -0.548765
0.082515 -0.075973
0.270396 -0.737927
-0.028060 -1.021522
0.146003 1.105730
0.102009 -1.617843
-0.412517 0.475529
0.234978 0.638036
-0.134082 -0.170922
-0.480008 0.190594
-0.949238 -0.278252
-0.610010 -0.152250
0.064005 0.334943
-0.454712 -0.440447
0.507693 -0.283758
0.591406 -0.036878
-0.015204 -0.061878
-0.587196 0.014626
-0.958327 0.530628
-0.554623 -0.651980
-0.222010 0.336731
-0.462533 -0.131601
0.049141 -0.262575
0.644742 0.206554
0.276400 0.037465
-0.582397 0.104030
0.281053 0.410332
-1.039957 -0.351868
0.314373 0.127994
-0.498763 0.009415
-1.055950 -0.302871
0.190443 0.509569
0.003725 -0.364207
0.372290 0.408593
0.167133 0.266191
-0.275617 -0.481652
0.419534 0.026852
-0.287922 0.009954
-0.940015 -0.001590
-0.655392 0.312581
-0.008584 -0.400127
0.601239 0.220958
0.572218 -0.083459
-0.318492 0.276533
-0.384143 -0.886882
0.260604 0.408610
-0.848101 0.153376
-0.054969 0.226310
-0.017967 -0.295573
-0.466736 -0.943854
0.113880 -0.060076
-0.555789 0.173769
-0.521643 -0.100674
0.416661 0.400722
-0.239835 0.373584
0.386102 0.167236
-0.229757 -0.606868
-0.774458 -0.218198
-0.425361 0.244938
0.119086 0.083710
-0.241824 -0.020228
0.367521 -0.430658
-0.365776 0.420265
0.064460 -0.096334
-0.069329 -0.002254
-0.496372 0.383105
-0.206426 -0.053144
-0.260413 0.087977
-0.328979 -0.727312
-0.400408 -0.521627
-0.327494 0.383762
-0.152938 0.070869
-0.001262 0.241367
-0.097555 0.354459
0.094250 -0.118176
-0.252347 -0.077010
-0.336585 -0.179106
-0.562280 -0.295549
0.074778 0.634113
0.036790 -0.178905
0.040828 -0.463702
-0.047207 0.309785
0.091380 0.015718
-0.267078 -0.186049
-0.206587 0.571301
-0.125156 0.295840
0.053793 0.370644
0.074015 -0.595715
-0.219718 -1.063035
-0.075153 0.226923
0.023421 -0.262234
-0.442379 0.221645
0.205472 0.717421
-0.023284 0.247328
0.167927 -0.134198
0.126369 0.101991
-0.506241 -0.381675
0.136009 0.232807
0.183918 -0.082099
-0.404584 -0.015842
0.064469 0.440774
0.085752 -0.071513
-0.094467 -0.085060
-0.336212 0.505051
-0.352177 0.258460
0.202961 0.197582
0.111728 -0.116969
-0.248156 -0.131113
-0.068981 0.168142
0.216810 -0.229428
-0.410506 -0.085834
0.084323 0.833136
0.099829 -0.024636
0.031811 -0.210064
0.077089 -0.210931
-0.362796 -0.582202
-0.210475 0.014742
0.064593 -0.314647
-0.307266 0.049367
0.597798 0.192610
0.071676 0.006979
-0.042382 -0.176834
-0.154139 0.107274
-0.391679 -0.172568
-0.015264 -0.233759
0.250116 0.072813
-0.639339 0.177063
0.382705 -0.023192
0.313306 0.056844
-0.187908 0.284364
0.061221 -0.080480
-0.106640 0.381126
0.294016 -0.021368
-0.103465 -0.332009
-0.351219 0.277360
0.061168 -0.117307
0.007047 -0.132519
-0.299994 0.013020
0.481731 -0.062889
-0.115101 -0.181551
0.068898 0.155038
-0.169715 -0.269850
-0.298556 0.158198
-0.205362 -0.160590
-0.502177 -0.479142
-0.023100 0.398630
0.380434 0.019288
-0.255403 -0.014859
0.364541 0.157320
-0.158855 -0.198811
-0.408765 -0.052013
-0.004413 0.126242
-0.218694 0.045439
-0.015771 0.050395
0.423995 -0.377577
0.196696 -0.053400
0.042704 -0.198731
-0.289628 -0.558450
-0.523864 0.080300
-0.252564 0.101328
-0.063846 0.113947
-0.033068 0.340297
-0.065292 -0.237273
0.146582 -0.034153
0.003504 -0.263414
-0.083570 -0.318119
-0.002010 0.036264
-0.021263 0.145850
-0.114059 -0.202866
-0.178694 0.308703
-0.380610 0.195297
-0.302106 -0.079259
0.127826 -0.028597
0.003679 -0.204471
-0.059485 -0.140539
-0.253780 -0.128458
-0.028763 -0.073956
-0.136210 0.279094
-0.068233 0.335762
-0.166450 0.105912
-0.240055 0.019126
-0.325689 -0.102293
0.028245 -0.024582
0.055122 -0.260665
-0.202057 0.090266
-0.139804 -0.062795
0.183737 0.178073
-0.020718 -0.013968
0.010462 -0.090938
-0.020930 0.074726
-0.097080 0.316212
-0.314441 0.032709
0.232625 -0.163271
0.063972 0.038010
-0.043949 0.452099
0.192866 0.088556
-0.412472 0.051580
-0.318543 -0.095190
-0.068077 -0.303057
-0.070695 0.096236
-0.225858 -0.171042
-0.490361 0.573704
0.150102 0.562178
-0.208189 -0.185210
0.280422 -0.061282
0.033180 -0.015007
0.132981 -0.064085
-0.013250 0.268926
-0.519233 -0.025113
-0.015209 -0.159941
0.105935 -0.123556
-0.413126 -0.121088
0.017618 0.216139
-0.055356 -0.068857
0.020341 -0.238610
-0.061106 0.320367
0.062696 0.203432
-0.275178 0.058638
-0.120739 -0.223846
-0.258428 -0.230378
0.098118 -0.038069
0.191561 0.065942
0.142703 0.283392
0.229252 0.442903
-0.213189 -0.125935
-0.212835 -0.190657
0.188458 -0.038292
-0.413675 -0.028647
-0.117067 0.122559
-0.051207 0.102552
-0.383147 0.042392
0.214110 0.013689
0.171917 -0.176713
-0.182010 0.007313
-0.234560 -0.037123
-0.035631 0.024114
0.167323 0.116524
0.236344 -0.152213
-0.277758 0.288928
0.108969 0.119218
0.011034 0.069377
-0.058877 0.020489
0.354804 -0.243408
0.280537 0.144681
0.067998 0.083278
-0.082081 0.200431
-0.207025 -0.102089
-0.011655 -0.114275
0.230452 -0.150431
-0.368742 0.135635
-0.086379 -0.066785
-0.082332 0.018717
-0.176782 0.213871
-0.034553 0.245185
0.080603 -0.321511
-0.412917 -0.032103
0.068141 -0.054551
-0.227098 0.139600
-0.309668 -0.537253
0.207272 0.011868
0.314987 0.260622
-0.272274 -0.156396
0.237370 -0.072677
0.099135 0.399914
-0.094004 0.256359
0.232545 0.091195
0.200536 0.207554
0.119520 0.026413
0.253931 0.143685
-0.372072 0.292513
-0.281983 0.405359
-0.054409 0.368769
-0.155351 -0.151002
0.223414 0.118131
-0.127961 0.250840
-0.381753 0.006512
-0.137100 0.159328
-0.267276 0.315379
0.131337 -0.072048
0.060546 -0.370000
0.116517 -0.240837
0.230832 -0.294136
-0.031280 0.014445
0.029374 0.175530
0.490213 0.026089
0.239279 -0.037666
-0.221564 -0.117298
0.165269 -0.300457
-0.043341 -0.295759
0.075566 0.143231
0.000031 0.435408
-0.214298 0.550729
-0.349996 0.258621
0.261598 -0.176529
0.451612 0.092624
0.138950 0.149905
-0.383344 -0.260202
-0.182650 0.071517
0.052065 0.289647
0.256989 -0.178657
0.163472 -0.014718
-0.179635 0.256012
-0.094965 0.210801
0.220726 0.244445
-0.382594 0.051671
0.123182 -0.040518
-0.008177 0.168111
-0.076769 0.100171
-0.099558 -0.551712
-0.246656 0.250253
0.006785 -0.068000
-0.287042 -0.211786
-0.156253 -0.092316
0.100033 -0.113054
0.130254 -0.254254
-0.127051 -0.484474
-0.061071 -0.373034
-0.096365 0.116418
0.209317 0.046838
0.402623 -0.258445
-0.223834 0.135628
-0.049655 0.062528
0.059162 -0.087054
-0.295034 0.380914
0.054959 0.051567
0.337311 -0.427455
-0.136979 -0.028122
-0.059601 0.060437
0.227009 -0.094891
0.057327 -0.035284
0.104991 0.093254
0.025717 0.224344
-0.127741 0.039800
0.659629 -0.268628
0.028618 -0.268367
0.296675 0.069542
0.223213 0.009340
0.109982 0.342070
-0.200806 0.282790
0.168235 -0.113702
0.176418 0.160632
0.004651 -0.299662
-0.065644 -0.227034
-0.106360 -0.097012
-0.290704 -0.001037
0.146140 -0.035254
-0.055348 0.210024
0.141999 0.099394
0.052598 0.467264
0.151822 -0.362131
-0.364307 -0.081845
-0.121067 0.517605
-0.184373 0.192965
-0.231864 0.024068
-0.050790 0.033408
-0.290831 -0.202228
-0.135437 -0.242670
-0.186512 -0.315851
0.380558 -0.263048
0.206006 -0.585497
-0.091288 -0.262426
0.021851 -0.330734
-0.081957 0.053061
-0.283895 0.145076
0.205370 0.123077
0.069868 0.084540
0.069917 0.029534
0.158020 -0.104576
-0.003338 -0.187706
-0.076634 0.082520
-0.158964 -0.078813
0.040448 -0.533945
-0.205760 -0.084102
-0.452243 -0.344541
-0.074032 -0.234095
0.301152 0.071069
0.650554 0.238390
0.046041 0.115568
0.184767 0.488042
-0.193705 -0.087165
0.080412 -0.111279
-0.226803 -0.159893
-0.044787 -0.037233
-0.054967 0.466589
0.053130 0.376821
-0.242828 -0.258076
0.198306 0.106161
-0.262461 0.163838
-0.280730 0.154736
0.042185 -0.092466
0.043455 -0.090535
-0.136127 0.240325
-0.241209 -0.029271
0.078524 0.399070
0.312336 0.329865
-0.244047 0.233634
-0.163905 -0.126810
0.356551 -0.216125
-0.116234 -0.088035
-0.116435 0.038873
-0.357382 -0.150802
0.255276 0.232038
0.310622 0.095181
-0.184486 0.305504
0.192423 0.031883
-0.028514 0.100075
-0.503045 0.241711
0.311520 0.042143
-0.542445 -0.066245
-0.535505 0.462877
0.069481 -0.192975
0.225101 -0.242420
0.010337 -0.330358
-0.453751 -0.105357
0.064880 -0.023750
0.316787 -0.257494
0.054286 0.126721
0.060237 0.174858
-0.399171 -0.130893
-0.409837 0.119908
-0.210452 -0.191331
0.257133 -0.046019
-0.028857 -0.126801
0.224682 0.100519
0.223164 -0.183094
0.053081 -0.046030
-0.403110 -0.227622
0.274766 -0.064511
-0.086637 0.077166
0.072387 -0.182431
0.018405 -0.229443
0.193273 0.098492
0.233784 0.074373
0.158627 0.024979
-0.331674 -0.098144
0.104850 0.109090
-0.241812 -0.433013
0.161347 -0.257840
0.059440 -0.219753
-0.217658 -0.526814
0.188155 -0.128033
0.492780 0.109108
0.006113 0.155453
-0.103217 -0.003998
-0.302430 -0.216364
0.069675 -0.357553
0.150423 -0.280603
-0.007324 -0.296062
-0.024192 -0.591147
0.166988 -0.077390
0.071859 0.109620
-0.080439 -0.097364
0.047846 0.581927
0.184577 -0.021212
-0.182030 -0.078408
-0.071905 0.013068
-0.024912 0.048275
0.077410 -0.210614
-0.170923 0.189364
-0.498440 -0.232673
-0.338710 0.033183
-0.418689 0.186785
0.103101 0.148817
0.031048 0.307137
0.054710 -0.002972
0.218806 -0.343143
0.033841 0.223572
0.126780 0.415443
-0.085437 0.309999
0.002534 0.404994
-0.210877 0.434131
-0.076677 0.077207
-0.187132 0.126705
-0.165318 -0.287493
-0.142903 -0.021788
0.126472 0.230255
0.002817 0.135372
-0.077168 0.114071
-0.316158 0.146585
0.213962 0.157362
-0.002562 -0.066354
-0.062943 -0.036519
-0.321280 0.066952
0.184528 -0.082820
-0.092100 -0.242687
0.261872 0.092500
0.236165 -0.169497
0.199119 0.295141
0.206992 0.360315
-0.091349 -0.135674
-0.089237 -0.107304
-0.076174 -0.229938
-0.135321 0.129691
0.008107 0.025863
-0.507700 0.072866
-0.318967 0.146748
0.157809 -0.447785
-0.105132 0.272507
-0.263297 -0.214868
0.126645 0.238359
-0.126727 -0.040327
0.149403 -0.011246
-0.391742 0.325116
-0.101081 -0.257027
-0.287229 -0.243754
-0.043249 -0.301630
-0.707525 -0.308495
0.073082 0.316671
-0.220086 -0.213926
0.293304 -0.175164
0.096909 0.063822
0.047630 -0.180292
-0.089606 0.046889
0.298752 0.206507
-0.191817 -0.133230
-0.106498 -0.351813
-0.404707 -0.039225
-0.307073 -0.070393
0.003905 -0.052907
0.027554 0.331944
0.070408 -0.169299
-0.053733 0.155489
0.176615 0.125510
0.117179 0.145964
-0.139240 0.648286
-0.318434 0.085272
-0.040897 -0.195314
0.212694 0.052316
-0.061634 -0.279506
-0.304052 -0.030564
-0.191948 -0.097966
-0.013872 0.173372
0.047891 -0.286325
-0.096346 -0.359512
-0.133569 0.202969
0.148875 0.459614
-0.254947 -0.306780
-0.110316 0.144423
-0.142472 0.008935
0.084314 -0.505199
0.030808 -0.373107
0.094055 0.198418
0.307999 0.148356
-0.132283 -0.244942
-0.092263 -0.243771
0.122533 0.040566
-0.252289 0.144145
0.204383 -0.165478
-0.229264 -0.303922
-0.011825 -0.441017
0.158280 -0.306090
0.230458 -0.180503
0.247076 -0.248439
0.316255 0.468094
-0.118919 -0.104534
-0.380288 0.241201
0.272111 -0.209104
0.007224 0.095673
-0.152052 -0.039351
0.083128 -0.090107
-0.079719 -0.265885
0.128779 -0.052395
-0.092898 -0.004410
-0.153248 -0.124583
-0.483265 -0.141563
-0.070249 0.142077
0.007786 -0.151608
-0.246507 0.111515
-0.178011 -0.063539
-0.313536 -0.215573
0.000325 -0.040669
0.708818 0.004197
0.055305 0.097220
-0.015141 -0.372285
-0.121277 -0.115552
-0.076684 0.226745
-0.125411 0.061608
-0.065446 0.138165
0.118446 -0.408585
-0.165440 0.023621
0.447371 0.123375
0.279962 -0.188449
0.348501 0.074184
0.238255 -0.640640
-0.178014 -0.423484
-0.063606 0.237377
-0.141300 -0.145703
-0.039885 -0.470478
-0.087745 -0.181352
-0.273536 -0.028792
0.453361 0.101687
-0.135030 -0.212809
0.169864 0.073472
-0.164114 -0.330006
0.341937 0.081834
-0.049889 -0.113075
-0.410082 -0.150847
-0.018915 -0.048735
0.362802 -0.173131
-0.372444 0.110317
0.190444 -0.203259
0.359858 -0.307863
-0.084096 -0.098670
-0.182085 -0.173291
0.107539 0.350577
0.006422 -0.386143
-0.042422 -0.034225
-0.482490 -0.095180
-0.148975 -0.317041
0.025988 0.063505
0.319095 0.064869
0.407848 -0.052820
-0.055537 0.201173
-0.204152 0.201938
-0.057291 0.306735
-0.036739 0.147593
-0.126570 -0.113381
0.158429 -0.182415
-0.198347 -0.139355
0.496322 0.242626
0.327693 0.516291
-0.323553 -0.438563
-0.078958 0.186941
-0.113555 -0.244978
0.132019 0.399218
0.052087 -0.088261
-0.564772 0.251410
-0.283697 -0.339701
0.146616 -0.142953
0.165436 0.090988
0.215809 -0.279476
-0.010673 0.119628
0.004747 0.279735
0.188935 -0.316725
-0.351815 -0.007070
0.207171 -0.431706
-0.208601 0.205268
0.256184 0.107976
-0.274817 -0.257064
-0.132678 0.545377
0.060030 0.172679
0.265821 0.165988
-0.238761 -0.042847
0.188121 0.283462
0.052636 0.420515
-0.514691 -0.146419
-0.042883 0.225942
0.296614 -0.085225
-0.510692 0.442102
-0.121048 0.129708
0.157578 0.031734
0.294396 0.511128
-0.280245 0.159878
0.220630 -0.065433
0.491148 -0.051297
-0.196997 0.050119
0.441054 -0.226971
0.157261 -0.043796
0.248999 0.139593
-0.313857 -0.257450
0.287423 0.103654
0.060831 0.029370
-0.066677 -0.382656
0.394588 0.354479
0.179105 -0.054677
-0.203154 0.194942
0.306190 -0.058616
0.203697 0.172000
-0.276128 -0.247630
-0.414297 0.026038
0.308383 -0.328102
-0.475786 0.254576
0.030391 -0.173783
-0.021148 -0.165716
-0.261946 -0.135939
-0.195680 -0.162454
-0.058439 0.064290
0.242665 -0.089481
0.149430 0.215952
0.007677 -0.056724
-0.408170 -0.149174
-0.153923 0.087741
0.267098 0.403746
0.231775 -0.153994
-0.201355 0.052566
-0.405742 0.216528
0.309319 0.296198
0.019246 0.290941
0.169216 0.213721
0.121339 -0.061958
0.048367 -0.038428
0.186121 -0.164567
0.045201 -0.008423
-0.001125 -0.394944
-0.158587 -0.275812
0.012674 -0.001035
0.454576 -0.199917
0.332924 0.231194
-0.544288 0.067747
0.032536 0.259472
0.075260 0.086393
0.019339 -0.154126
-0.107647 0.085701
-0.236552 -0.109497
0.079838 0.004472
0.234525 -0.095833
-0.284371 -0.061057
0.045603 -0.140389
0.086267 -0.068830
0.020361 0.190335
-0.180465 -0.065473
-0.001474 0.280562
0.186534 -0.288840
0.257741 0.075866
-0.473317 0.043714
-0.143175 0.207406
0.840159 -0.065126
-0.440838 0.023764
-0.268612 0.026126
0.068958 0.230332
0.127230 -0.048828
-0.014019 -0.125536
0.079845 0.107483
-0.223533 0.035425
-0.327405 -0.134536
-0.059731 -0.007703
0.296970 -0.237486
-0.281319 0.333135
0.095495 0.010208
-0.013095 -0.157902
0.418957 0.048605
-0.009149 0.156243
0.055078 -0.674682
-0.149946 -0.189182
-0.301933 0.589486
0.132417 0.251769
-0.420945 -0.067777
-0.153105 0.060553
-0.195373 0.278684
0.022801 -0.063024
0.056984 0.301715
-0.088703 0.268896
0.145563 -0.166560
0.112913 0.077399
-0.135260 -0.080051
0.413836 0.236419
0.108364 -0.439581
-0.008877 0.253485
-0.246545 0.117146
0.361086 -0.306374
0.080281 -0.164705
0.278366 0.395941
-0.255814 -0.013001
0.667062 -0.051979
0.151884 -0.098068
0.292543 -0.013147
-0.107352 0.132408
0.157262 -0.417167
0.163612 -0.290096
-0.108722 0.309952
-0.116799 -0.332320
-0.338442 0.250629
0.032971 -0.358893
0.015278 0.061947
0.264999 -0.131321
-0.163868 0.241090
0.258487 0.160490
-0.090250 -0.087154
0.200175 0.317795
-0.306268 -0.089914
0.324381 -0.048015
0.247802 0.147701
-0.014398 0.115687
-0.092300 0.170487
-0.085142 0.333562
0.239400 0.206879
-0.286235 -0.299775
0.285930 0.102496
0.248797 0.211646
-0.380072 0.110779
0.015625 -0.442101
0.436578 -0.104141
-0.057179 -0.058844
-0.185785 -0.045614
-0.013833 -0.141619
0.163650 -0.782497
-0.604499 0.070473
-0.216924 -0.019448
-0.142939 -0.183019
0.160643 -0.512004
0.551310 0.063321
0.226823 0.565219
-0.445324 0.158196
0.330400 0.238855
0.240518 -0.083128
0.198703 0.448377
-0.022051 -0.148805
-0.344504 0.333907
0.210018 0.082820
-0.125412 0.127269
0.295585 -0.372054
-0.253705 0.083212
0.117666 0.177582
-0.177522 0.067235
0.116634 -0.163590
-0.176102 -0.090929
-0.145648 0.093604
0.175270 0.183928
-0.126918 -0.260492
0.399584 -0.292250
-0.285112 0.463437
0.354349 -0.159132
-0.638804 -0.143534
0.130797 -0.293514
-0.415416 0.238268
0.264597 0.278509
-0.183597 0.009377
0.046500 -0.096053
-0.329265 -0.048003
0.325633 0.224201
0.080635 0.248635
-0.050103 0.093579
0.305621 -0.025858
-0.211510 -0.167576
0.298345 -0.052935
-0.046934 -0.094353
0.117498 -0.240417
-0.120850 0.205241
0.297869 -0.003826
-0.061144 -0.288372
-0.535471 -0.254864
-0.208968 -0.209001
-0.077938 -0.107910
-0.320175 -0.160867
0.026044 -0.170906
0.155175 -0.245371
0.238684 -0.242232
0.148765 -0.034304
-0.117776 -0.086867
0.358577 0.110987
-0.355081 -0.190596
-0.072066 -0.085949
0.103317 0.243041
0.030697 0.370827
-0.084475 -0.112390
0.357576 0.012755
-0.035742 0.018100
0.122186 0.045163
0.259407 0.085129
0.240296 -0.276222
0.133778 -0.212022
-0.113385 -0.199402
0.173427 -0.018570
0.053477 -0.055681
0.254752 0.161985
-0.132837 -0.228728
0.072656 -0.339426
-0.280875 -0.201787
-0.135757 0.551714
-0.154859 0.101808
0.118588 0.136950
-0.239141 0.457375
-0.286983 -0.113402
0.077301 0.367677
0.404061 -0.185506
0.412109 0.392312
-0.384808 -0.127218
0.194794 -0.015150
-0.034117 0.336221
-0.079759 -0.509577
-0.400540 -0.396380
-0.027234 -0.216877
-0.248543 -0.093087
-0.278060 -0.194535
-0.192568 -0.076551
0.320806 0.206328
-0.105888 0.176215
0.111153 -0.261776
-0.040783 0.406643
-0.181938 -0.077357
0.338884 0.457371
0.399803 0.274494
0.232455 0.077624
-0.164368 0.232647
-0.016767 0.341469
0.109716 -0.299397
-0.172087 0.020043
-0.089153 -0.246911
0.073860 0.052022
-0.391362 -0.465825
0.060104 0.248368
-0.018523 0.173432
0.052029 -0.037280
-0.350419 0.205704
0.210335 -0.089898
-0.208521 0.037995
-0.126502 0.119370
0.054822 0.203450
0.022134 0.054244
0.113785 -0.127773
0.081263 -0.073136
0.035361 0.093092
-0.030073 -0.236971
0.003059 -0.414817
0.230276 0.168233
0.016175 -0.461231
-0.011146 -0.065317
-0.010735 -0.066355
0.217136 0.311376
-0.089510 -0.003372
0.087917 -0.395628
-0.005247 -0.079858
0.066849 0.287420
0.085970 0.001080
0.285838 -0.101906
-0.018089 -0.023829
0.125463 0.099922
-0.311611 -0.008984
0.185385 -0.112374
-0.462258 0.219975
0.008538 -0.044258
-0.346544 0.006010
0.020146 -0.037682
-0.209267 0.486314
0.154781 -0.097164
-0.092414 0.177108
-0.181741 -0.136252
0.062539 0.222015
-0.075144 -0.312980
0.040043 0.282353
-0.002115 0.031846
0.471822 -0.175122
-0.083235 -0.029870
-0.181965 0.028940
0.004027 -0.075306
-0.468554 -0.195805
-0.406627 -0.141821
0.142781 0.038432
-0.114678 -0.514076
-0.171660 0.135707
0.011762 0.082380
0.328136 0.057980
0.267359 0.356208
0.078348 -0.115704
0.108526 0.315768
-0.039120 0.206391
0.361255 -0.092338
0.545839 0.101943
-0.012362 0.080995
-0.025373 0.311442
0.005146 -0.276026
-0.203887 -0.383551
-0.126395 0.164891
-0.408774 -0.309033
0.325874 -0.513133
-0.277803 0.178689
-0.631632 0.019993
0.058273 0.349426
0.118467 -0.155806
0.294639 0.357030
-0.196826 -0.262255
0.293787 -0.048349
0.034297 0.223782
0.495167 -0.283122
0.143124 -0.321382
0.147422 -0.133510
-0.018254 -0.149080
-0.041375 -0.039812
0.175674 -0.068206
0.183223 -0.326303
0.155554 0.104221
-0.237661 -0.424744
-0.060844 0.312361
-0.134135 0.078380
-0.152792 0.068264
-0.244887 -0.062709
0.282073 0.068981
0.063902 0.217740
0.036867 0.363253
0.193775 -0.252924
0.263858 -0.248054
-0.008165 0.143587
0.033529 0.045615
0.277254 0.197168
0.191476 -0.163826
0.079180 0.290352
0.020855 0.054806
0.167588 0.287592
-0.285029 0.154323
-0.123373 0.105137
0.224200 -0.105973
-0.224168 -0.181599
-0.316500 -0.380240
0.067608 0.223706
-0.087017 -0.308207
-0.151447 -0.160894
-0.245669 0.089320
0.029966 -0.180854
-0.297262 0.220797
-0.071823 -0.130182
-0.286214 0.376677
-0.124386 -0.157756
0.124360 0.375727
0.219415 -0.337033
-0.306321 0.217246
0.210968 0.189341
-0.240641 0.235969
0.200282 -0.237202
-0.015869 -0.339911
0.102678 0.009406
0.095698 0.188205
-0.126282 0.078273
-0.157872 -0.684396
-0.129218 0.437504
0.031997 -0.204101
-0.092701 0.278042
-0.078373 -0.289991
-0.024230 0.103069
0.171504 -0.005531
-0.110760 0.010640
-0.223896 -0.296960
-0.317402 -0.294690
-0.038453 0.346220
0.147366 -0.161332
-0.039627 0.173435
-0.135586 -0.509503
-0.436756 -0.069173
0.194562 -0.345661
0.450671 0.335862
0.570489 0.273906
-0.332635 0.166604
0.619570 -0.281814
-0.009894 0.158639
0.203309 0.370927
0.221788 0.270966
-0.181563 -0.298875
0.060835 -0.081919
-0.014007 -0.038626
0.056950 -0.256596
-0.567475 -0.246906
-0.101897 -0.218354
-0.071642 0.147176
-0.431016 0.454076
-0.231547 -0.070143
0.235393 -0.365797
-0.250918 -0.125022
-0.329080 0.078017
0.327730 -0.066551
0.010812 -0.189922
-0.251531 0.518368
-0.155074 -0.418222
0.284152 -0.007391
0.218669 -0.041350
-0.224672 -0.048477
0.189455 0.272094
-0.023585 -0.094597
0.403819 0.000173
-0.170324 0.021789
0.105967 0.228856
0.174860 -0.243244
-0.089330 0.213130
0.247644 -0.054467
-0.264164 0.115642
0.153525 -0.987994
-0.028150 -0.052981
0.200369 -0.115315
-0.376282 0.255070
-0.488567 -0.225140
0.034241 0.295287
0.229654 0.433670
0.079320 -0.012999
-0.142192 -0.389800
-0.074533 0.095250
0.327321 0.266375
-0.319109 0.032427
-0.443029 0.247828
-0.129101 0.210035
0.251494 0.082625
-0.060694 -0.178086
0.093201 0.320692
-0.635323 0.551472
0.142322 -0.248335
-0.100040 0.474811
0.091167 0.104365
0.129316 -0.239691
0.014774 0.266436
0.468434 0.026053
0.062218 -0.060038
0.026233 -0.422197
-0.053332 -0.215236
0.021588 0.082121
-0.121233 -0.028567
0.117555 0.229146
0.170456 0.372111
-0.260590 -0.098106
-0.142041 -0.096417
0.407322 0.623140
-0.089203 -0.431299
-0.171703 -0.111929
0.022663 0.008629
-0.143401 -0.125416
-0.290031 0.132799
0.342003 0.031532
0.084674 -0.242533
-0.134323 0.349836
-0.192741 -0.150404
0.425352 -0.021619
-0.047677 -0.212717
-0.093011 0.111207
-0.106946 -0.180368
0.004884 0.390576
0.219098 -0.030988
0.111200 -0.019517
0.397701 -0.005483
-0.311262 -0.143214
-0.001978 0.087433
0.061718 0.002634
-0.220583 0.131477
-0.008720 0.216837
-0.141962 -0.286182
-0.087562 -0.292675
0.083490 -0.034927
0.303533 0.189074
-0.055994 0.007290
-0.033544 -0.393181
0.367868 0.161667
0.018630 0.041218
0.266516 -0.162533
-0.469559 -0.161207
-0.270829 0.316773
-0.110366 0.071727
-0.274534 0.064131
-0.046752 -0.375251
-0.143882 0.065418
-0.312161 0.518818
0.302751 0.137802
-0.006283 -0.053712
-0.053818 -0.004694
0.094567 0.396100
0.285237 -0.059417
0.368561 -0.426691
-0.086339 -0.126392
0.121466 0.526880
-0.171084 0.159965
-0.099297 0.062516
0.274416 0.088608
0.654972 -0.169469
-0.350618 0.040065
0.007812 -0.087470
-0.215669 0.357351
0.143654 -0.171314
-0.161626 -0.396953
0.099101 0.085439
-0.497755 -0.482896
-0.052893 0.050239
0.401412 -0.342236
-0.238536 0.103817
-0.127849 0.119520
0.202087 -0.551837
0.024592 0.047780
-0.309795 0.337291
0.327638 0.025459
0.151340 -0.134386
-0.391149 -0.110392
-0.059027 -0.006796
-0.229983 -0.090499
-0.202908 0.294558
-0.259256 -0.380941
0.106970 0.873088
0.092825 0.263578
-0.769014 -0.120906
0.148235 0.214089
0.342886 0.234138
-0.289559 0.361943
0.090964 -0.242383
0.337589 -0.260643
0.037671 0.365517
-0.374110 -0.069224
0.190782 -0.193281
-0.208504 0.032645
0.272687 0.132870
0.838129 0.293986
-0.022454 -0.238861
0.150356 0.012848
-0.116121 0.279559
0.274246 -0.024624
0.189760 -0.458944
0.238231 0.206344
0.150663 -0.174312
0.236871 0.210685
-0.378746 -0.093716
-0.082817 0.541986
-0.192755 -0.069475
0.611464 0.084051
0.184220 -0.135996
-0.083142 0.262037
-0.477303 0.032202
-0.121616 -0.228905
0.068385 -0.103980
0.561445 -0.317931
0.042356 -0.022243
-0.255150 0.338393
0.353894 -0.213117
-0.221020 0.168419
0.153113 0.095369
-0.205416 0.022423
-0.044492 0.097158
0.470745 -0.086358
0.251444 -0.238664
0.064117 0.038129
0.075754 0.083510
0.394774 0.486364
0.351501 -0.166229
0.226218 0.262036
-0.050806 -0.074888
-0.098629 -0.152672
0.239766 0.095774
0.269843 -0.059207
0.486881 -0.139281
-0.384998 -0.267882
0.047608 -0.010664
0.186315 0.534065
-0.219953 0.010574
0.091671 0.143712
0.620379 -0.373870
-0.076689 -0.009886
-0.268925 0.057470
-0.071847 -0.039280
0.259273 0.015060
0.144194 0.168208
0.077553 0.115423
0.035136 -0.026137
0.282842 -0.019321
-0.235220 -0.284270
0.161321 0.334163
0.129981 0.422472
0.246824 -0.604857
-0.113883 -0.584048
-0.163621 -0.089412
-0.523112 0.197279
-0.187407 0.308171
0.097680 0.419983
0.164504 0.051530
-0.147110 0.068014
-0.111373 0.182346
-0.125126 0.053409
-0.004228 0.048863
0.401663 -0.189857
-0.086308 0.165484
-0.291987 0.130307
0.050269 0.110668
0.082437 0.225684
-0.081548 0.219430
-0.035255 0.503853
-0.089824 0.083551
0.158167 -0.010201
0.188768 -0.038263
-0.066816 -0.454972
-0.099757 0.067652
-0.104249 0.053279
-0.140397 -0.055926
0.185843 -0.016162
0.077074 0.009689
-0.013503 -0.093685
-0.379104 -0.213498
-0.078426 0.040061
0.296718 -0.089740
-0.069849 -0.103856
0.021816 0.362564
0.595250 -0.519653
-0.194298 0.460707
0.634746 -0.135782
-0.360155 0.137669
-0.336651 0.500231
-0.263912 0.084718
-0.470550 -0.009962
0.202533 -0.187319
0.240251 -0.342327
-0.084429 0.425263
0.051147 0.285344
-0.147744 0.101923
-0.273574 -0.203999
-0.076266 0.385028
-0.324566 0.103937
0.017976 -0.074909
-0.124091 0.383027
-0.137551 0.398712
0.021072 -0.371172
-0.085664 -0.153740
-0.085023 0.266571
0.204589 0.013591
-0.003842 0.070865
-0.441144 0.124938
-0.336606 0.035750
-0.457136 -0.030167
0.007644 0.024558
-0.000314 0.112966
-0.207083 -0.142210
-0.019318 -0.334756
0.124864 0.047446
0.103160 0.349106
0.153607 0.214326
0.072346 0.401346
0.295963 0.103300
-0.046328 0.066212
0.128786 -0.411411
-0.304158 -0.169180
-0.086967 0.042182
0.061723 0.229862
0.118655 -0.378404
-0.072316 0.077084
0.098091 0.193733
-0.080242 0.365022
0.195502 0.594833
-0.010726 0.204856
0.016203 -0.243593
-0.415296 -0.159799
-0.188531 -0.147283
-0.331130 -0.119440
0.058639 0.096559
-0.029430 -0.077757
-0.135999 0.139994
0.046381 -0.028975
-0.066323 0.101070
-0.379585 -0.262257
0.279213 0.077210
-0.318265 0.127229
0.179687 -0.298899
-0.376731 0.081376
0.074009 -0.288566
-0.217312 -0.334493
0.094331 -0.300493
0.020002 -0.125867
-0.137054 -0.026704
-0.301004 0.041946
-0.207871 -0.248476
0.140375 0.296717
0.166888 0.001950
-0.015360 0.587236
0.087715 -0.081673
-0.573745 -0.282527
-0.336545 0.039488
-0.216246 0.142154
0.106358 0.014245
-0.100993 -0.112671
0.099682 0.244452
0.107820 0.078603
-0.256074 -0.003959
-0.203356 -0.055090
-0.184067 -0.144851
-0.193363 0.209454
0.010668 -0.267298
-0.231712 -0.409266
0.115537 0.190492
0.452306 -0.197877
0.141756 0.345767
0.353250 -0.258144
0.105147 0.243887
0.008974 0.331670
0.031829 0.056911
-0.104042 0.110099
0.343345 0.046015
0.197457 -0.202265
0.403736 0.005855
-0.114351 -0.394553
-0.061849 -0.449663
0.278921 -0.371382
-0.276937 0.075266
0.039510 0.206849
0.461617 0.113747
0.404897 -0.350093
0.493234 -0.133832
0.408070 -0.123916
-0.075427 -0.022280
-0.116689 0.127251
0.068448 0.088728
-0.248566 -0.284550
0.125344 -0.002251
-0.175065 -0.171938
-0.162983 -0.131866
0.269084 0.228071
0.523854 -0.045245
-0.126688 0.122400
-0.017518 0.030098
-0.362386 -0.174426
-0.442941 0.116987
-0.085836 -0.045810
-0.023064 -0.464982
-0.216976 0.271818
0.406727 0.203594
-0.338036 -0.080962
0.201846 -0.055977
-0.206936 0.100902
-0.307992 0.072561
0.193139 0.013252
-0.033695 -0.362490
-0.230137 0.272308
0.289304 0.310285
-0.304036 0.236663
-0.220072 0.136326
-0.404786 -0.065496
0.201973 0.092841
-0.027008 0.161794
-0.253917 -0.114813
-0.095945 0.021592
0.227696 -0.250110
-0.111103 0.018552
0.324637 0.208100
-0.213771 0.295874
-0.706683 -0.097200
-0.244081 0.421649
-0.072549 0.129820
-0.209714 -0.197779
-0.410721 -0.619793
-0.060324 0.216530
-0.079982 -0.081142
-0.184620 0.104965
0.389052 -0.114587
-0.129157 -0.285031
-0.289077 -0.083074
0.031673 -0.116911
0.028810 0.021359
0.197154 0.416097
-0.342213 0.004704
0.090929 0.001227
0.110709 -0.357638
-0.728854 -0.189933
-0.291836 0.232115
0.110916 0.017477
0.214849 0.406299
0.247810 -0.072758
0.053526 -0.102588
0.118981 0.054272
-0.200482 -0.131211
-0.450132 -0.339724
0.183076 -0.086043
0.246204 0.221378
0.059358 0.418261
0.140081 -0.320275
-0.111186 -0.358027
0.001920 -0.346146
-0.112531 -0.154111
0.240300 -0.097685
0.418663 -0.099898
0.214160 0.158609
-0.167921 0.001491
0.301673 0.223552
0.327043 0.244887
0.296155 0.304223
-0.139739 -0.050629
0.013335 -0.293721
-0.130411 -0.202536
0.148369 -0.369560
-0.486586 -0.066381
-0.150361 0.125437
0.067576 0.443266
0.013956 -0.041964
0.417469 0.142836
0.198416 -0.181357
-0.023803 -0.329565
0.414658 -0.259749
0.064265 0.186654
-0.394120 0.236649
0.014844 0.550709
0.030850 -0.068118
-0.751613 0.072309
-0.486645 0.113627
-0.424850 -0.320377
-0.320712 0.010870
0.349721 0.023434
-0.021129 -0.239084
-0.023105 -0.412477
-0.209181 -0.166479
-0.132169 0.261532
-0.130924 -0.019454
0.217787 -0.101555
0.189563 -0.184033
0.202230 0.008277
-0.008894 -0.359214
-0.264743 0.117684
-0.390655 -0.339203
-0.231724 -0.376460
0.114064 0.240615
0.224284 -0.320233
-0.192108 -0.158405
0.066370 0.195301
0.080305 -0.354873
-0.156134 0.118004
-0.055728 -0.084680
0.209524 0.079272
-0.150668 0.372951
0.078369 -0.010634
-0.334557 -0.167100
0.270593 0.696740
0.185618 -0.078695
-0.207997 -0.339772
-0.311048 0.161865
-0.000276 0.085750
-0.046737 0.199554
0.121421 -0.008925
0.110740 -0.058690
0.167088 0.008374
-0.025452 0.060377
0.320206 0.165517
0.030086 0.138231
-0.178270 -0.067696
0.023979 0.139720
-0.375768 0.281214
-0.220148 -0.001794
0.075301 -0.116033
-0.067247 0.359124
-0.419487 -0.087015
-0.198871 0.097741
-0.324900 -0.127739
-0.438120 0.119168
-0.040984 -0.462198
-0.472850 -0.085568
0.005541 -0.043143
0.141985 0.005776
-0.090735 0.270224
-0.096581 -0.098341
-0.214183 -0.186307
-0.159199 0.057138
0.227929 -0.213354
0.040427 0.076530
-0.188534 0.112047
-0.436893 -0.185978
-0.506456 -0.041429
0.196520 0.052211
0.366635 0.110980
-0.031407 0.185550
0.007920 -0.121251
0.109103 -0.025582
0.125855 -0.095339
0.151335 -0.565450
-0.015805 0.098050
-0.364017 0.021434
0.087614 0.007292
0.244740 0.100982
-0.131307 0.388168
-0.043345 0.346616
-0.026437 0.158460
-0.725653 -0.156193
-0.393718 0.271062
0.002392 0.220162
-0.315587 -0.159309
-0.138409 0.194720
-0.086585 0.221041
0.031940 0.004503
-0.030749 -0.218084
-0.357086 -0.004572
-0.114418 -0.091260
-0.097265 -0.339373
-0.013448 -0.000628
-0.113323 -0.083244
0.372333 -0.120516
0.744797 0.259754
-0.323536 0.039827
-0.116232 0.041585
0.203918 0.092718
0.106567 0.322041
0.033066 0.243672
0.238999 -0.004320
0.004556 0.034037
0.319232 0.326078
-0.303958 -0.104500
-0.288818 0.039709
0.067169 0.050581
-0.082681 0.061206
0.070945 -0.227709
-0.129798 0.343047
-0.094768 0.046841
0.254245 -0.254410
-0.314720 -0.297981
0.205310 0.046903
0.332058 -0.429956
-0.341678 0.052438
-0.221281 -0.047663
-0.227502 0.336569
-0.099079 0.184682
0.140495 -0.154682
0.001677 0.024665
0.093741 0.391088
0.109692 -0.472453
-0.346666 0.037700
0.024711 0.365098
0.630137 0.271636
-0.186611 0.528936
-0.354183 -0.260389
-0.315879 -0.015020
0.269214 0.252888
0.082380 -0.163210
-0.111142 -0.008464
0.085207 0.245148
-0.034256 -0.067473
-0.207969 0.050413
-0.060803 -0.289386
-0.158636 0.080098
0.147562 0.219496
-0.014512 -0.146875
-0.054159 0.038069
0.051500 0.206579
0.273389 -0.126106
-0.019249 0.318116
-0.393507 0.232042
-0.029462 0.080114
0.193155 -0.176743
-0.070922 -0.115209
0.061672 0.513074
0.080719 0.092775
-0.223048 -0.229353
-0.126922 -0.269008
0.057239 0.068411
-0.027219 0.112034
0.095058 0.040352
-0.319141 0.202650
-0.162549 -0.091150
-0.235622 0.008739
-0.303114 0.253107
0.211931 0.112498
0.302664 0.218831
-0.255782 -0.290719
0.323018 0.091168
0.151070 -0.057846
-0.148425 0.142427
0.046417 0.007212
-0.459196 -0.006650
-0.101091 -0.362388
0.066754 -0.556794
-0.128183 0.231747
0.469069 0.200634
0.003708 0.311929
-0.038392 0.184797
0.369429 -0.254399
0.000457 -0.021166
-0.110863 -0.043407
0.258507 -0.037091
-0.465155 0.376423
-0.170728 0.218988
0.132500 0.013924
0.161594 0.081873
0.007350 -0.099476
0.227867 -0.349926
-0.215617 0.378061
0.159228 -0.069955
0.021475 -0.057230
0.247980 0.173352
-0.264346 -0.288614
-0.310592 0.108379
0.292034 0.037585
0.192734 -0.159522
0.032496 0.224431
0.361350 -0.178169
-0.332441 -0.148764
0.064169 -0.114519
-0.042347 -0.301270
-0.235205 0.240052
0.262752 -0.029562
0.014435 -0.098747
0.057747 0.180406
0.078132 -0.065977
0.068053 0.233412
-0.143512 -0.234097
0.147861 -0.270257
0.109126 0.301250
-0.223919 -0.166297
-0.149446 -0.458866
-0.068303 -0.092724
0.002534 -0.073759
0.049675 0.165466
-0.348089 0.041048
-0.223935 0.069999
0.195522 0.252881
-0.017661 -0.049438
-0.348821 -0.071507
-0.005399 0.129199
0.256891 -0.222257
0.143292 -0.371540
-0.214830 0.262778
-0.109231 0.142860
0.239618 -0.306486
0.029601 -0.207366
-0.658016 0.093457
-0.032781 -0.015624
0.136199 -0.128645
-0.526991 -0.043102
0.223061 0.041234
-0.167051 -0.291886
-0.006341 -0.293446
-0.374155 -0.322222
0.020765 0.635179
0.045822 0.206827
-0.391389 -0.031718
0.036381 -0.153823
0.257222 0.080109
0.063116 -0.082144
0.025436 -0.406599
-0.178551 -0.106326
0.116067 0.505875
0.398292 0.278690
-0.475487 -0.276387
-0.121231 0.037881
0.122583 0.002501
-0.035802 -0.043269
0.131018 -0.278382
-0.332190 0.273347
-0.181732 -0.031920
0.046440 -0.099549
-0.432265 -0.071696
-0.427302 0.489501
0.258276 0.139730
-0.301576 -0.246066
-0.427876 0.025428
0.083759 0.132853
-0.517136 -0.273498
-0.035680 -0.203485
-0.122332 -0.034055
0.093732 0.780801
0.197444 0.055027
-0.174503 -0.128798
0.011203 0.131792
0.151033 -0.284821
-0.423101 -0.189090
-0.230986 -0.431701
-0.036209 0.018259
0.115815 0.477373
0.293291 0.137804
0.043566 -0.009957
-0.039392 0.018432
0.285318 -0.024021
-0.314766 0.278523
-0.187635 -0.017483
-0.078513 0.081182
0.249338 -0.270390
0.182756 0.239989
-0.163841 0.084549
-0.555886 -0.218993
0.178845 -0.210623
-0.067419 0.650365
-0.294845 0.456838
0.196987 -0.231736
-0.170883 0.006687
0.166856 0.082470
-0.151113 -0.105553
-0.125020 0.116421
0.175975 -0.225762
0.485255 0.445718
-0.397032 0.225778
-0.510158 0.084155
-0.389548 0.266048
0.306211 0.144188
0.064620 0.054103
0.338220 -0.144657
0.033352 -0.597866
0.331453 -0.130152
-0.310040 -0.042026
-1.083794 0.335299
-0.106546 0.251194
0.241541 -0.026559
0.393185 -0.188215
-0.109862 -0.129458
-0.621480 -0.392138
0.239718 -0.300630
0.006401 0.246400
0.061250 -0.023777
-0.033458 0.543680
-0.128288 -0.196822
-0.035435 -0.247194
-0.315725 0.301238
-0.164608 0.232211
-0.254646 -0.646583
0.398875 -0.193430
0.335686 -0.142890
0.225246 0.102620
-0.009911 0.122803
-1.027825 -0.589221
0.077700 0.290996
0.023846 0.201497
-1.084452 -0.598305
-0.031771 0.034524
-0.387916 -0.280543
1.060883 -0.110213
-0.126403 0.227588
-0.458569 -0.167465
0.031673 0.517858
0.208021 -0.377204
-0.862728 -0.144043
-0.511909 0.092436
-0.308900 0.113051
-0.015884 -0.175669
0.249934 0.063278
-0.096130 0.223010
0.212138 -0.069149
0.718146 -0.241653
-1.045837 -0.050089
-0.124585 0.140447
0.004894 0.312264
-0.974934 -0.849000
-0.024335 0.331563
0.039458 0.113653
0.788295 0.071641
0.205550 -0.707438
-0.530853 0.377696
0.391623 0.647579
0.286382 -0.050277
-1.389971 -0.317373
0.156561 -0.487009
-0.426331 0.237789
0.482306 -0.474942
-0.773248 -0.522699
-0.641242 0.821044
1.056088 -0.025795
0.398197 -0.041405
-0.386742 0.374386
-0.205446 -0.848477
-0.158486 -0.258969
-0.224953 -0.616780
-1.329525 0.248184
-0.238048 0.762651
0.041004 -0.620966
1.253755 -0.510146
-0.719643 1.474743
-0.518517 0.059964
0.054597 -0.324654
-0.746417 -0.782727
-0.315218 0.248363
-0.597699 0.163938
-0.233984 -0.912653
-0.062620 -1.434747
0.205368 1.979184
0.084084 0.648495
-0.428623 -0.204290
-0.493233 -0.024344
0.975709 -0.169473
-0.556200 0.927278
-0.974103 -1.039866
-1.285986 -1.560359
0.935168 0.897851
-0.453515 0.043078
-0.607797 0.319245
-0.178182 0.386299
0.367870 -0.072888
1.069789 1.157475
-1.408381 -0.039153
-2.369405 -0.942779
1.239407 -1.167190
-0.505528 -0.363861
-0.127717 -0.587358
-0.871912 0.742067
-0.411829 -0.124775
1.030737 1.106045
-0.619215 2.368248
-1.436394 0.454439
0.318174 -2.233978
-0.005087 -0.671151
-0.895594 -1.625364
-0.643092 0.910333
-1.732565 -0.780851
0.462133 0.526330
1.435934 2.057012
-1.253605 0.232900
-1.302034 -0.399385
-0.140858 -0.968731
-2.119819 -0.898525
0.893381 1.084620
-2.153742 -1.459083
0.366084 -0.888610
2.204820 -0.982779
-2.216985 -0.021794
-1.666981 2.158028
-0.226499 1.240826
-2.238241 1.199989
2.211090 -0.261989
-2.134498 -0.112968
-0.323203 -2.496279
1.114778 -2.967171
-1.634547 -0.300001
-1.082537 2.717689
2.201112 1.299259
-3.184521 0.755373
-1.945755 -1.156454
-0.569085 2.510038
-3.108808 -1.498177
1.129994 -0.582897
-0.352782 -2.251831
0.979570 0.875335
4.402641 -3.558646
-6.019323 -0.602637
-5.756408 2.186948
2.070556 2.959080
-4.514072 2.696568
2.276741 0.786776
-3.060854 -1.508325
1.882936 -1.810833
3.876450 -9.786109
-5.572527 1.317517
-3.942569 5.276358
3.855455 -1.526013
-4.053004 2.870007
-1.558014 -0.656427
-6.632160 6.158987
-2.349175 -1.991321
-1.513801 -11.408928
1.965935 3.959052
1.745238 6.683035
6.291487 -10.047296
-4.868090 -4.117540
-7.786348 0.457744
-1.273249 12.108073
-13.726409 2.260951
-12.513688 -5.895225
6.314060 -0.006685
10.889177 11.747366
4.613966 -22.174774
-11.946325 -7.526125
-2.917597 2.467867
12.108897 3.048695
-19.876403 16.677288
-23.101406 -3.256584
-10.912171 -6.517831
24.885649 13.377468
-19.455670 -32.252923
-28.673661 14.633457
12.856772 3.083176
39.027923 -26.135676
5.897086 31.583501
-39.266216 -9.052249
-36.933926 -10.682125
23.882543 -18.691668
-103.730265 -9.728939
-36.832241 88.994754
14.472295 5.423723
51.855547 -158.726768
89.712889 29.182923
-27.936816 69.422478
-66.368798 -11.186712
16.483388 -71.312062
-248.557971 80.195273
-221.419730 42.276097
-92.212859 112.147463
64.040316 -1024.287623
115.118219 -12.292128
224.141736 1518.299899
-136.167302 39.871207
129.907547 -868.599091
