12750.781384 12740.635579
-4546.038075 -4247.410772
230.097758 152.602646
165.328310 35.236320
60.553969 10.959665
-791.528715 -575.827402
271.352499 132.792783
181.864009 6.238425
-7.950144 15.413635
-728.710415 -358.617185
414.421975 148.747636
275.939680 0.579978
281.827478 -12.387349
456.000459 44.174584
135.543282 -47.701297
163.278200 -8.145812
115.878988 -17.573172
1.498687 -45.965361
265.395957 -21.049325
163.250036 -69.785361
129.897609 -35.453292
67.352858 -57.707996
218.458495 -69.968254
158.732857 -88.147775
148.535808 -83.818381
149.654820 -91.399727
140.070803 -88.668718
123.837440 -91.669276
120.430308 -91.923574
105.972930 -94.774811
107.034798 -91.009370
85.568845 -83.215936
70.645753 -63.464539
45.408389 -83.856848
128.465677 -133.087076
54.694177 -112.151686
61.905714 -100.542309
63.697354 -106.266988
45.511314 -88.623436
44.588660 -80.551970
35.802636 -81.016134
29.475575 -88.254627
44.130504 -99.052787
13.906221 -71.712709
25.819191 -67.249035
6.013431 -78.585795
23.105003 -97.409063
-1.832549 -64.846042
6.109341 -62.060731
-1.675782 -70.792986
1.301925 -68.938871
-9.078211 -49.934211
-1.601455 -51.419915
-3.906521 -45.877171
-3.065532 -36.278438
-1.993203 -31.193746
-2.364994 -28.254103
-14.373314 -31.855358
-8.806396 -39.179014
-13.426449 -12.904225
-0.158611 -19.739837
-3.424703 -15.159238
-0.836777 -5.376709
1.308291 -9.784748
0.258512 -2.427235
8.443441 -4.435817
9.466526 3.303318
8.560151 1.471120
10.866185 3.056212
7.832646 5.915014
14.081323 0.195021
16.022147 11.451955
17.124607 7.203534
11.308600 7.486446
20.647611 4.390116
25.646417 12.368553
26.695862 5.187037
25.437099 7.718602
32.467999 4.972594
37.568023 7.459948
32.535898 5.188070
27.526014 5.917431
38.777073 -0.691962
46.778040 5.585863
39.752681 -8.692864
41.093702 2.013362
45.639609 -6.226898
44.692292 -4.881956
42.330585 -10.895768
46.490178 -11.764312
46.697762 -11.716079
42.105828 -14.567602
43.365708 -15.316232
43.425502 -16.671541
42.742922 -20.266838
44.251183 -19.911047
38.590941 -20.359475
35.543977 -19.825313
40.875013 -32.088287
40.972539 -29.682626
30.920861 -34.002081
35.637624 -28.964948
34.347628 -35.588594
28.413192 -34.311684
27.185333 -33.894502
26.769621 -36.168132
25.802830 -33.956089
17.154405 -36.534604
21.160949 -35.735626
18.136462 -34.928098
17.371424 -28.196634
13.358428 -31.443459
14.755203 -28.650470
8.084044 -29.411818
9.359268 -29.417669
7.156685 -28.306069
3.482289 -28.048718
5.668603 -24.145065
4.581801 -23.140696
4.603697 -20.946649
-0.872228 -18.557153
-3.319847 -19.653921
-4.697040 -20.600912
-3.835555 -12.859220
-5.083166 -13.336286
-0.724631 -11.989825
-1.125047 -7.458069
0.946801 -6.811703
-0.585682 -3.659211
-8.372164 -2.751803
-6.927453 -4.132611
-2.818690 3.187201
-3.645683 4.374625
2.446395 1.533263
-2.771698 6.650933
3.330430 8.090585
3.999392 7.625840
2.072805 11.226943
5.578881 11.538287
6.030040 13.571817
10.806432 13.891380
13.661681 13.368139
13.774053 16.831263
14.673510 13.904920
17.795405 12.822207
18.610883 18.649688
23.478425 14.306167
19.710621 15.060806
26.462051 17.590334
26.214186 16.431527
25.334383 17.451691
31.800128 13.275941
30.605475 9.562630
34.734702 9.785831
36.179311 9.515204
32.580606 9.238659
40.572113 8.544557
39.411750 8.573814
39.169675 6.089779
43.143597 3.441065
41.618597 3.103954
42.983788 -0.410493
42.218900 1.914594
42.927737 -1.637044
43.606824 -5.405562
44.023861 -7.600029
44.029509 -9.496204
42.521538 -7.532134
46.669825 -8.566850
44.891100 -10.378773
43.458171 -13.729767
44.434221 -16.494586
42.776376 -16.802486
40.788637 -20.044216
40.100094 -20.128861
39.058729 -23.335655
36.805224 -21.266497
37.654476 -23.809067
37.074925 -26.941876
34.021069 -26.581989
34.455049 -26.926232
33.560538 -27.049830
31.553118 -28.632984
28.006592 -30.510927
26.361289 -28.689597
27.687935 -30.434774
26.579814 -29.919676
22.202138 -28.816343
20.719444 -33.128767
19.587099 -29.558182
18.660526 -30.056114
18.870378 -28.497710
18.395843 -30.921201
15.567753 -28.709506
13.423371 -28.021096
12.750412 -28.645728
12.007909 -27.580946
11.095530 -25.231838
10.266027 -25.287157
9.447757 -25.792100
9.160786 -23.091526
8.391346 -23.015319
7.028092 -21.943045
6.000455 -21.130340
6.156609 -20.838547
7.536115 -18.548089
6.935388 -19.062691
6.404164 -18.081226
5.860588 -16.517895
6.324034 -15.903731
6.407005 -15.434561
5.664049 -13.868251
5.855056 -13.034834
7.355038 -10.577993
6.859858 -11.212800
7.274807 -11.147345
8.233572 -9.125342
7.836862 -8.417552
8.823619 -7.536076
8.476275 -7.542198
10.170707 -6.308514
11.385087 -7.075859
10.857999 -8.162621
13.040227 -6.456641
12.463593 -5.653956
12.878957 -5.889144
13.886869 -6.335906
14.313612 -7.499236
15.482541 -6.856846
15.934220 -6.137749
16.271926 -6.701992
16.326413 -8.637442
18.341781 -7.653676
17.504598 -7.333173
19.667890 -7.041092
17.309881 -9.366101
17.684633 -10.965596
19.259016 -10.808779
19.142798 -10.210814
19.561857 -10.791604
18.445232 -11.883034
21.158433 -12.089726
20.086603 -12.259310
20.462735 -12.970577
19.866239 -14.324214
21.079257 -14.313747
19.859954 -14.681607
21.178311 -15.356359
21.311534 -15.880843
19.087939 -15.630178
20.018065 -16.412300
19.150868 -16.665012
17.189640 -17.814382
16.786779 -17.548219
18.028736 -18.052593
17.991603 -18.738176
17.117813 -19.282647
16.136544 -19.025820
15.803172 -19.058775
16.031038 -18.917248
14.610704 -18.774723
14.734314 -19.068679
14.710208 -19.374880
14.920817 -19.525083
13.619051 -19.854278
14.084794 -20.941373
11.576433 -19.522711
12.602545 -19.592165
11.571191 -18.925678
11.681281 -18.419219
11.454009 -18.580445
11.242748 -18.345067
10.659003 -17.658959
10.339451 -17.408559
10.260928 -17.697744
10.119089 -18.168223
10.455877 -17.866389
10.297244 -16.188994
10.151576 -15.998375
10.437832 -17.129876
9.817344 -16.813425
9.679110 -17.407197
8.930645 -16.659689
8.740510 -15.749762
9.666408 -16.633368
10.102647 -15.156750
9.680737 -15.248384
10.696587 -17.465437
10.143667 -15.235142
10.732913 -16.509361
9.925190 -15.179743
9.910662 -15.234509
10.486284 -16.789227
10.197402 -15.820497
9.478084 -16.480517
9.899528 -17.236401
11.627930 -15.431299
11.605862 -16.832225
10.315252 -16.894703
10.502144 -16.117299
11.253875 -17.852074
10.403296 -16.795827
9.431727 -17.908464
9.602573 -17.316803
10.226382 -17.785919
11.301551 -18.328028
10.361509 -18.978387
10.052116 -19.104749
9.842525 -19.711600
9.396810 -19.083378
8.669080 -18.712651
8.857727 -19.328044
7.897914 -19.422796
8.691332 -20.108087
8.695190 -19.122668
6.538021 -21.475188
7.283612 -21.304849
6.882585 -21.541792
5.713489 -20.207227
6.220315 -20.365642
5.463845 -20.050051
4.075535 -20.737625
4.934530 -19.585881
4.567258 -20.311426
4.038350 -21.680854
3.837929 -21.405694
1.501848 -19.640707
1.330129 -20.822017
3.421844 -19.966946
1.479937 -20.611748
1.134623 -19.171393
1.594488 -18.368035
-1.183463 -18.218651
0.873658 -16.608458
-0.812543 -18.565508
0.085624 -17.550359
-1.338342 -16.832347
-1.324356 -16.838884
-0.937461 -16.505577
-1.997070 -16.186252
-1.786295 -15.235277
-1.835011 -15.043707
-1.883214 -15.152784
-1.876920 -15.318321
-1.480812 -13.537880
-2.121796 -12.931651
-1.117912 -11.711333
-2.529937 -12.621921
-1.969068 -12.121429
-1.401956 -10.994651
-1.209538 -10.125310
-0.301190 -10.795013
-0.177003 -9.944601
-0.133130 -9.904401
0.352852 -10.205904
-0.055249 -9.194564
0.019057 -8.498162
0.823881 -8.394450
-0.413898 -8.457971
1.047117 -8.616720
1.160546 -8.560361
2.288446 -8.145372
2.958379 -7.994869
2.555536 -7.709101
2.909352 -7.964364
3.276451 -8.194297
3.279022 -8.006691
3.796622 -8.026572
4.744687 -8.591829
4.864332 -8.628825
5.603281 -9.063267
4.556450 -8.185288
5.390657 -8.799573
5.881777 -8.732420
6.132716 -9.346591
6.274674 -9.572466
5.719093 -10.237100
7.154340 -10.683963
6.595789 -10.698647
6.070472 -10.865455
6.389514 -10.975089
6.288030 -10.801727
6.996482 -11.814314
6.979182 -11.404346
6.051480 -12.046122
5.723990 -12.981033
6.691842 -12.419958
6.856587 -13.311798
5.581735 -13.628176
5.862974 -14.402718
5.816666 -14.449775
6.008350 -14.501440
4.769254 -14.091300
5.054699 -15.485985
4.685505 -14.872818
5.327861 -15.240958
4.526065 -15.202112
3.797184 -15.315548
3.318812 -15.725453
4.176838 -15.468660
2.631852 -15.674246
2.501181 -16.281337
2.848025 -15.852896
2.144381 -15.558983
1.483774 -15.264371
1.880289 -15.881511
1.049921 -15.582014
1.815654 -15.864599
1.261643 -14.637337
0.506354 -15.463004
1.252973 -15.393800
0.785075 -14.882580
-0.622840 -15.196601
-0.183063 -14.170957
-0.654277 -14.858505
-0.620814 -13.630295
-0.854145 -14.570320
-1.244282 -14.415031
-1.136019 -13.929004
-0.654140 -13.452918
-1.362251 -13.555599
-1.786030 -13.067687
-1.908993 -13.076659
-1.485436 -13.443791
-1.660550 -12.909582
-2.284762 -12.651311
-2.158935 -12.343377
-2.276365 -12.321126
-2.700069 -12.458245
-2.732032 -10.991860
-3.466551 -11.918265
-2.322047 -11.571563
-1.574595 -10.500834
-2.959780 -10.986787
-3.438319 -11.607302
-3.139312 -11.163593
-1.517065 -9.791836
-2.400147 -10.957872
-3.080220 -10.576251
-2.499139 -9.738717
-2.503053 -9.885165
-2.642780 -10.115556
-2.189746 -9.321117
-2.659160 -9.618218
-3.400136 -10.719346
-2.242168 -9.637785
-2.955464 -9.420786
-2.774846 -9.365413
-2.995907 -9.466792
-2.498442 -8.792508
-2.113399 -8.607132
-2.183399 -8.055244
-2.483828 -8.733218
-2.110098 -8.354415
-3.276426 -7.717226
-2.762980 -7.521396
-2.621559 -7.940053
-2.243800 -7.894672
-2.285102 -7.420366
-2.106049 -6.636809
-2.469586 -7.069534
-2.818286 -7.717544
-2.737509 -7.020656
-2.852449 -6.705023
-2.573730 -6.370317
-2.379267 -6.499577
-1.563572 -6.941418
-2.028181 -6.215697
-1.114410 -5.896425
-2.377635 -6.107622
-1.428121 -5.582399
-1.061105 -5.417893
-1.624703 -5.406777
-1.127790 -5.183794
-0.299071 -5.536462
-0.257219 -5.219552
-0.605989 -4.134866
0.046151 -4.381704
-0.066482 -4.650652
0.340699 -4.773586
0.923205 -5.169135
0.212361 -4.790488
1.813331 -5.786524
1.606972 -4.962762
1.407913 -4.872824
0.765076 -4.696658
1.381249 -4.303124
2.442153 -4.525653
2.080811 -4.759594
2.567295 -5.835550
2.053580 -6.426789
2.582663 -5.929218
3.409808 -5.764908
2.336676 -6.046157
3.122883 -6.361095
4.276135 -6.019014
3.687687 -6.303863
4.046106 -7.630177
3.412735 -7.007905
3.116875 -7.488729
3.898031 -8.557646
3.824837 -7.918064
4.277118 -8.465246
4.226982 -9.203249
3.426027 -9.269016
4.070358 -9.672503
4.214812 -9.811037
3.821699 -10.328698
3.027944 -10.725317
2.830434 -10.498499
3.287475 -10.951907
3.492605 -11.900397
2.039600 -11.811781
2.412557 -11.214098
2.117687 -10.980963
1.470975 -12.132439
1.150375 -12.528875
1.177663 -12.464838
0.539055 -12.593228
0.479269 -12.029477
-0.350074 -12.656621
-0.276382 -12.731652
-0.644803 -12.516953
-1.355518 -12.746693
-2.114646 -13.052720
-2.067186 -12.316981
-2.623875 -12.397431
-2.732665 -12.161573
-3.095023 -12.197989
-3.245732 -12.106413
-3.711068 -11.575843
-4.479814 -11.590268
-4.775831 -11.631726
-5.225579 -10.762924
-5.378445 -10.449679
-5.935204 -9.639000
-6.359480 -10.209340
-5.974832 -9.032352
-6.387929 -9.227553
-6.869101 -8.640230
-6.795000 -8.226103
-7.430693 -8.092721
-6.329639 -7.205420
-6.363194 -7.013080
-7.736523 -6.719984
-7.485486 -5.912235
-6.930909 -5.396429
-6.778328 -5.205587
-6.745298 -3.949972
-7.583107 -3.915483
-6.562903 -3.669862
-6.374577 -3.177093
-6.383237 -2.171567
-6.201499 -2.371796
-5.351925 -2.200440
-4.967942 -1.341549
-5.000892 -1.203589
-5.078539 -1.178059
-4.086136 -0.869912
-3.414103 -0.405722
-2.872768 0.009757
-3.060380 -0.322203
-2.918201 0.235751
-2.013667 0.446606
-0.817800 0.484010
-1.890648 0.466953
-1.250332 0.332882
-0.356388 0.240173
0.542315 0.698282
0.444601 0.731752
0.927812 -0.126548
1.217708 0.476184
1.923943 0.143833
3.008101 -0.110253
2.534877 -0.495279
2.933873 -0.003470
3.517327 -0.826577
3.725937 -0.957977
4.016601 -1.176949
4.018352 -1.631787
4.153320 -2.329269
4.462573 -2.729001
4.640404 -2.968991
4.849352 -3.270577
4.449189 -3.560275
4.857223 -4.318506
5.052175 -4.986059
4.964098 -5.120909
5.037727 -5.366598
5.004123 -5.908298
5.084305 -6.251900
4.938813 -5.757730
4.646209 -6.815138
4.333794 -7.127954
4.146676 -6.855217
4.740634 -7.507907
3.884630 -7.377431
3.932121 -8.155041
3.353228 -8.999961
3.229460 -8.699264
2.873247 -8.601107
2.713201 -9.275200
2.401113 -9.614966
2.220152 -9.603600
1.459399 -9.433879
1.735042 -9.169349
1.149351 -8.986538
0.987383 -9.292369
0.273137 -9.248899
0.351224 -9.116448
-0.239946 -9.238021
-0.116122 -9.299788
-0.609483 -9.592130
-1.330350 -9.361576
-1.369501 -8.844070
-0.766321 -8.350771
-1.529095 -8.258940
-1.832425 -8.833263
-1.944602 -8.466184
-1.958374 -7.626104
-2.371272 -8.106284
-3.187318 -7.206394
-3.045168 -7.454804
-2.347676 -6.671888
-2.527198 -6.440747
-2.624639 -6.613395
-3.174391 -6.394651
-3.415361 -5.644342
-3.089727 -5.900062
-2.941837 -5.346331
-3.035111 -5.675751
-2.532168 -4.859635
-2.683585 -4.741321
-2.872708 -5.122927
-2.328500 -4.949937
-2.123152 -4.666705
-2.398357 -4.718121
-2.383843 -4.237205
-2.175219 -4.038626
-2.121247 -4.158217
-1.901535 -3.655117
-2.122460 -3.893010
-1.616484 -3.238964
-1.143095 -3.339209
-1.189452 -3.642487
-1.049081 -3.102451
-0.773495 -3.507026
-0.568257 -3.885354
-0.383416 -3.616335
-0.512850 -2.912436
-0.279277 -3.044134
-0.260649 -4.236158
-0.276592 -4.089418
-0.581091 -3.536624
-0.033049 -3.760959
-0.276193 -3.797752
-0.012984 -3.728285
0.020365 -4.125038
0.237327 -3.507567
0.028419 -3.828124
0.073208 -4.675871
0.642685 -4.016010
0.149267 -4.101021
0.306265 -4.303148
-0.028538 -4.112302
-0.202037 -4.310258
0.241161 -4.133052
-0.520922 -4.622861
0.734383 -4.064517
0.072799 -4.628267
0.193736 -4.429539
0.473160 -4.046668
-0.544365 -4.391949
-0.010094 -4.160553
-0.311595 -4.382455
-0.276281 -4.665225
-0.284834 -4.898009
-0.681119 -4.381859
-0.365758 -4.334955
-0.217892 -3.939151
-0.559059 -4.043282
-0.240223 -3.828263
0.086004 -4.131232
-0.094889 -3.999527
-0.292838 -3.729675
-0.519330 -3.799197
-0.373995 -4.036563
-0.117156 -3.005262
-0.086497 -3.222172
0.115624 -3.519005
0.226788 -3.299269
0.317177 -2.844752
0.571663 -3.074749
0.718495 -2.500082
0.085271 -2.817675
0.723561 -2.608853
1.252747 -2.411093
0.716035 -2.515048
0.604820 -3.004259
1.498051 -2.713128
1.966274 -2.888137
1.217935 -3.102475
2.433349 -3.385368
1.866375 -2.995400
2.074050 -3.029825
2.375391 -3.077594
2.471911 -3.093306
2.639837 -3.570496
2.958110 -3.476088
2.959160 -3.858388
3.171349 -4.037873
3.193258 -3.875037
3.208663 -4.482552
3.598406 -4.611330
3.313877 -4.554155
3.986267 -5.065486
4.071172 -5.186877
3.733761 -5.220820
3.948919 -6.136969
4.136824 -6.082122
3.653651 -6.044310
4.326746 -6.796455
3.646516 -6.861621
3.673339 -7.487404
4.030329 -7.540112
3.298404 -7.583823
2.766309 -8.043218
3.320314 -8.022846
2.767320 -8.494336
2.212543 -8.555334
1.842121 -8.610701
1.557389 -9.201585
1.621685 -8.847064
1.339360 -9.363579
0.622013 -9.549062
0.591048 -9.482937
0.325454 -9.202656
-0.010731 -9.631659
-0.039431 -9.403401
-0.449638 -9.783495
-1.099273 -9.657063
-1.532047 -9.644048
-1.553014 -9.799243
-1.786701 -9.367860
-2.469182 -9.444591
-2.629243 -8.862751
-2.688587 -8.774226
-3.441067 -8.701267
-3.498273 -7.876516
-4.135209 -8.156930
-4.285664 -8.031155
-4.020131 -7.308481
-4.339830 -7.533834
-4.566416 -7.183148
-4.633136 -6.820652
-4.566707 -5.718430
-5.514729 -5.663233
-4.871780 -5.522965
-5.273992 -5.540246
-4.947024 -4.612284
-5.193387 -4.187486
-4.873353 -4.207994
-4.862584 -3.357444
-4.556863 -3.166309
-4.725570 -2.658893
-4.548939 -2.607889
-4.230533 -2.325781
-4.104970 -1.641309
-3.956940 -1.258329
-3.698236 -1.049485
-3.525551 -1.035550
-3.404944 -0.903627
-2.521371 -0.175079
-2.737801 -0.154129
-1.861566 -0.214135
-1.990792 -0.532370
-1.665044 -0.104231
-1.045863 0.474758
-0.228273 0.830905
-0.258477 0.243544
0.904058 0.343040
0.625868 0.294916
1.265407 0.295338
1.266587 0.054613
1.909645 -0.422619
2.063650 -0.019485
2.312169 -0.194101
2.608075 -0.340778
2.823381 -0.916161
3.447315 -0.821338
3.709614 -1.443132
3.790504 -1.363673
3.717333 -1.516460
4.542758 -1.796209
4.049285 -2.437002
4.644743 -2.423916
5.205749 -2.727098
5.562638 -3.753855
5.146944 -3.961906
5.239186 -3.941000
4.736703 -4.385603
5.337233 -4.850531
5.208995 -5.157090
4.716330 -4.945941
4.948924 -5.569966
4.862647 -6.490455
5.000590 -6.864965
4.545275 -6.430437
4.192498 -7.102729
4.247644 -7.418747
3.982642 -7.444047
3.950084 -7.919493
3.470517 -8.260766
3.295004 -8.716532
3.256015 -8.588288
2.677747 -8.723223
2.485754 -9.142163
2.070470 -8.757810
1.672508 -9.247650
1.104423 -8.981110
1.377525 -9.265893
0.778174 -9.463054
0.439924 -9.519063
0.633461 -9.412980
-0.327573 -9.113915
-0.538662 -9.028479
-1.071841 -8.797859
-0.626249 -8.491088
-0.953303 -8.716774
-1.749542 -8.587630
-1.415266 -9.056963
-1.706234 -8.229502
-2.591849 -8.195198
-2.495586 -7.996659
-2.597118 -7.812825
-2.534500 -7.380057
-2.780597 -7.184778
-3.373770 -7.181059
-2.907942 -7.338470
-2.939445 -6.592861
-3.318212 -6.195046
-2.999699 -5.832678
-2.920304 -5.642452
-2.763639 -5.749583
-2.960649 -5.286710
-3.689661 -5.443343
-3.388337 -4.818480
-3.053494 -4.777693
-3.304474 -4.448016
-2.654199 -4.724010
-2.416814 -3.964729
-2.488462 -3.990559
-2.424898 -3.994079
-2.340972 -4.149965
-1.794468 -3.555612
-1.658449 -3.761669
-1.902722 -3.650736
-2.058237 -3.638037
-1.629434 -2.947446
-1.304844 -3.348841
-1.192952 -3.341890
-0.901372 -2.868646
-0.921147 -3.224177
-1.063751 -2.995677
-1.044042 -3.156174
-0.150050 -2.975102
-0.366021 -3.176242
-0.108877 -3.498541
-0.230204 -2.827058
-0.087835 -2.617861
0.151264 -3.307914
0.253215 -3.572084
-0.206650 -4.082153
0.701893 -3.683336
0.354439 -3.751622
0.391758 -3.628305
0.722997 -3.182000
0.314404 -3.648119
0.888017 -4.165338
0.559179 -4.014267
0.669404 -4.133963
0.880737 -4.102268
0.441029 -4.289329
0.787188 -4.337474
1.201281 -4.519879
0.599331 -4.771352
1.290674 -4.477192
1.056969 -3.890705
0.385441 -4.920624
0.680063 -4.988456
0.605234 -4.542647
0.341372 -4.611121
0.364954 -4.633034
0.398405 -4.880277
0.811754 -5.461118
0.446539 -4.697494
0.533537 -4.669359
1.024018 -5.113677
0.291847 -4.799679
0.508767 -4.957819
0.711441 -4.842275
0.008436 -4.869262
0.489033 -5.238566
0.742368 -4.698934
0.844970 -4.712612
0.685535 -5.016009
0.533982 -4.820754
1.366356 -4.801020
0.778836 -4.802720
0.814646 -4.683065
0.550705 -5.141032
0.898670 -4.810922
0.660361 -4.973984
0.600904 -5.000942
1.142942 -5.273122
0.825822 -5.244574
1.683900 -5.406393
1.171932 -5.012597
1.446537 -5.579070
1.448671 -5.586736
1.314334 -5.500904
1.467558 -6.142042
0.969927 -5.660815
1.389078 -6.110327
1.030303 -5.949900
1.029325 -5.693879
1.736552 -6.211119
1.523007 -6.106802
1.405217 -6.541167
1.118241 -6.180934
1.008313 -6.535500
1.351632 -6.531559
1.453904 -6.909510
1.260405 -7.281726
1.234537 -7.724302
0.879328 -6.959142
0.829949 -7.701329
0.477017 -7.079695
0.215197 -7.606466
0.402899 -8.035486
0.553069 -7.847256
0.290260 -7.673352
0.259573 -7.653913
0.174173 -7.818308
-0.480094 -7.976828
-0.270809 -8.117523
-0.673251 -8.063384
-0.924883 -8.083909
-0.975519 -8.061210
-1.309723 -7.991364
-1.988134 -8.103466
-1.838598 -8.277626
-2.433637 -8.096245
-2.077484 -7.800247
-2.265273 -7.233144
-2.200295 -7.540175
-2.587046 -7.145898
-2.849607 -7.629534
-2.878050 -7.137564
-2.847876 -7.140531
-3.054312 -6.691005
-3.039467 -6.612279
-2.965901 -6.283723
-3.534257 -6.203083
-3.285861 -6.564823
-3.269891 -5.708796
-3.248250 -5.999380
-3.556517 -5.607471
-3.511625 -5.442383
-3.307494 -5.022248
-3.562940 -5.423978
-3.438430 -4.801755
-3.423155 -4.676953
-3.121934 -4.641801
-2.965102 -3.814557
-2.856441 -3.696827
-3.145828 -3.629248
-2.871122 -3.771275
-2.751186 -3.571658
-2.295333 -3.543555
-2.220591 -3.342724
-2.186838 -3.425320
-1.654308 -3.118474
-1.556923 -2.791697
-1.450267 -3.076659
-1.350008 -2.853397
-1.309711 -2.667809
-0.880627 -2.345003
-0.554102 -2.616022
-0.052648 -2.697086
-0.117810 -3.061245
0.319512 -2.813267
0.295934 -3.575670
0.463725 -3.555143
0.457749 -3.125334
0.660739 -3.596163
1.229968 -3.774918
1.345002 -3.421657
1.143081 -3.836001
1.453553 -4.044575
1.502242 -4.853457
1.954583 -4.839738
1.711574 -4.745750
1.775148 -4.775085
1.602518 -5.192048
1.765260 -5.296402
2.122551 -5.985951
1.937298 -6.328719
1.992561 -6.329535
1.948249 -6.161807
2.103945 -6.329763
1.877274 -6.969414
2.036636 -7.168374
1.404332 -7.230379
1.439523 -7.484204
1.451658 -7.902280
0.985280 -8.122165
1.102252 -8.261660
0.413263 -8.118872
0.741024 -8.554978
1.015342 -8.529641
0.121576 -8.575910
0.170898 -8.936328
-0.487730 -8.774839
-0.987361 -8.971726
-0.689287 -9.366232
-1.102006 -8.756460
-0.908696 -8.883662
-1.419815 -9.138495
-1.772580 -8.846456
-1.815460 -8.840739
-2.010252 -8.701122
-2.632432 -8.837530
-2.364927 -8.461247
-2.666505 -8.604411
-2.965028 -8.537523
-3.268099 -8.348115
-3.539498 -7.762551
-3.341194 -8.136790
-3.564342 -7.724148
-3.401494 -7.865955
-4.057201 -7.088211
-3.629148 -7.501069
-3.691713 -7.418119
-3.723247 -7.037481
-4.205609 -6.897195
-3.793871 -6.432051
-3.652578 -6.110488
-3.646388 -6.014792
-3.861872 -6.070013
-3.979860 -5.656338
-3.827759 -5.946389
-3.723504 -5.498348
-4.029998 -5.383025
-3.658350 -5.641090
-3.633981 -4.755048
-3.127334 -4.932405
-3.000488 -4.988148
-3.240126 -4.867519
-3.254001 -5.303163
-2.841493 -4.399827
-3.159435 -4.829347
-2.852694 -4.703600
-2.300296 -4.653266
-2.265067 -4.308453
-2.140532 -4.125405
-1.827294 -4.754329
-1.719152 -4.917628
-1.893932 -4.555194
-1.915578 -4.515305
-1.666782 -4.812674
-1.441377 -4.507078
-1.323626 -4.977381
-1.263880 -5.773867
-1.100354 -5.222393
-1.291303 -5.514935
-0.830982 -5.316693
-1.402073 -5.321605
-1.511933 -5.642444
-1.269354 -5.606308
-1.166689 -6.249411
-1.190403 -6.000373
-1.072426 -6.428854
-1.000236 -6.406147
-0.803030 -6.386289
-1.260389 -6.214977
-1.667826 -6.492555
-1.602752 -6.574519
-1.458962 -6.855310
-1.860477 -6.864467
-2.043960 -7.107234
-1.941854 -7.190936
-2.238992 -7.254729
-1.784711 -7.090922
-2.233297 -7.547218
-2.305414 -7.131164
-3.025881 -7.198969
-2.583953 -7.248953
-3.118192 -7.409576
-2.800094 -7.584826
-2.925737 -7.256952
-2.831969 -7.329188
-3.051820 -6.783641
-3.404561 -7.140229
-3.278936 -6.450095
-3.683302 -6.461356
-3.857786 -6.578665
-3.432701 -7.070968
-3.928528 -6.445735
-3.933111 -6.913494
-3.886907 -6.413065
-3.646203 -5.656835
-3.782220 -5.965903
-3.647816 -5.976077
-4.140800 -5.478882
-3.855529 -6.159383
-3.935745 -5.890020
-4.161503 -5.594732
-3.623576 -5.801028
-4.281618 -4.958611
-3.836943 -4.949981
-3.254084 -5.685038
-3.463459 -5.154866
-3.027090 -5.289790
-3.643115 -5.173712
-3.368124 -4.868307
-3.222003 -5.179760
-3.643678 -5.124915
-2.835655 -4.783574
-2.575035 -5.291623
-2.810540 -5.232786
-2.725637 -5.385300
-2.246282 -5.685427
-3.050606 -5.118157
-2.487727 -5.162188
-2.265675 -5.212973
-2.549632 -5.059855
-2.189378 -5.989524
-2.511656 -5.948398
-1.581750 -6.296761
-1.790929 -6.063067
-2.327987 -5.955422
-1.334546 -6.505451
-1.549694 -6.508311
-1.948864 -6.525236
-1.914441 -7.149852
-2.256246 -6.493968
-2.122249 -7.081331
-2.333208 -6.941585
-2.344409 -6.961353
-2.534434 -7.451525
-2.387128 -7.665819
-2.565449 -7.324623
-2.513687 -8.106464
-3.072524 -8.035760
-2.764424 -7.953647
-3.385301 -8.095294
-3.324066 -7.954321
-3.118231 -8.183827
-3.519694 -8.316749
-4.102881 -8.268178
-3.839492 -8.537582
-4.204325 -8.378827
-4.897314 -8.333262
-4.929251 -8.548074
-4.994610 -8.182725
-4.933996 -7.736746
-5.193972 -8.547219
-6.182354 -7.748533
-6.213644 -8.271496
-5.877363 -7.408579
-6.525840 -7.516568
-7.087189 -7.323999
-6.407192 -6.778467
-6.624560 -7.416709
-6.883895 -6.877737
-7.144139 -6.560860
-7.481006 -6.646429
-7.226631 -6.473347
-7.110323 -6.365344
-7.357921 -5.368989
-7.495896 -6.251483
-7.149343 -5.858613
-7.252796 -5.109871
-7.298319 -4.678029
-7.359491 -4.538475
-7.408160 -4.778419
-7.172199 -3.759604
-7.446252 -3.554574
-7.185530 -4.050776
-6.451238 -3.633939
-6.594856 -3.464383
-6.713721 -3.042014
-6.704645 -3.358679
-6.274268 -3.353580
-6.409057 -2.752833
-6.626064 -2.451933
-6.184104 -2.594304
-5.518317 -2.543487
-5.714347 -2.966392
-4.994483 -2.490495
-4.805199 -2.233058
-4.867059 -2.317411
-4.474172 -2.376881
-4.406718 -2.118447
-5.052326 -2.507570
-4.506106 -2.205222
-3.659477 -2.725107
-3.703752 -3.202910
-3.423920 -2.676412
-3.490206 -2.709152
-3.766880 -3.111306
-3.018773 -2.671983
-3.188728 -2.726509
-2.780458 -3.245186
-2.693645 -3.584222
-2.652979 -4.020814
-2.634614 -4.337366
-2.878580 -4.336793
-2.970019 -4.346958
-2.705327 -4.421045
-2.965158 -4.583315
-2.775757 -4.840374
-3.164990 -5.181870
-2.697836 -4.985030
-2.754041 -5.669619
-3.505661 -5.936839
-3.107237 -5.585949
-3.337573 -6.253352
-3.587353 -5.982250
-4.055170 -6.397694
-3.803726 -6.740495
-3.672659 -6.578994
-4.118041 -6.551851
-4.766719 -7.255949
-4.377134 -6.536036
-5.011139 -6.861471
-4.872246 -7.059063
-5.289657 -6.602302
-5.227211 -7.170683
-5.279524 -6.926999
-5.903733 -7.133477
-6.229284 -6.873069
-6.069681 -6.225782
-5.998358 -6.623177
-6.781019 -6.419903
-6.447057 -6.038975
-7.346547 -6.171332
-7.254242 -5.812181
-7.045760 -5.606221
-7.544418 -5.663228
-7.310109 -5.277714
-8.078967 -5.589722
-7.828991 -5.505693
-7.304043 -4.886972
-8.154603 -4.647751
-7.640729 -4.243279
-7.919312 -3.906406
-8.342483 -4.500878
-7.991606 -3.924275
-7.728458 -3.852917
-8.002303 -3.279888
-7.185146 -2.872669
-7.898931 -2.765656
-8.001228 -2.641094
-7.620370 -2.832122
-7.611258 -2.553663
-6.665930 -1.675359
-7.391843 -1.937988
-7.365987 -2.180364
-6.797237 -2.011259
-7.161017 -1.645225
-6.827032 -1.924097
-6.480534 -1.597371
-6.984012 -2.120014
-5.912712 -1.823403
-6.259527 -0.969970
-6.600126 -1.488817
-5.739675 -1.688707
-6.106889 -1.941897
-5.837453 -1.413560
-5.183732 -1.394139
-5.811622 -2.076361
-5.388017 -2.169971
-4.916345 -1.731440
-5.192801 -2.016518
-5.064791 -1.860301
-5.361158 -2.461735
-5.313243 -2.209088
-4.747746 -2.190296
-4.929644 -2.077205
-4.832502 -2.807244
-4.747372 -2.194425
-4.802241 -2.615679
-4.915788 -3.370664
-5.085329 -2.917290
-5.345524 -2.692410
-5.304494 -2.900133
-5.352336 -3.022082
-5.036808 -3.145226
-5.087884 -3.719945
-5.009817 -3.374491
-5.083391 -2.854950
-5.375077 -2.803709
-5.253343 -2.944523
-5.982706 -3.145257
-6.318453 -3.585248
-5.607977 -3.328738
-5.799303 -3.320381
-6.293944 -3.216329
-6.162213 -3.281504
-6.383908 -3.239553
-6.585808 -3.063684
-6.968609 -2.473371
-7.097109 -2.807125
-6.459197 -2.172833
-7.059506 -2.619169
-6.744735 -2.757768
-6.615950 -2.423771
-6.870285 -1.903260
-6.377271 -1.983308
-6.892236 -1.646964
-7.134490 -1.553256
-6.966247 -1.082273
-7.376652 -0.842234
-6.923814 -0.712037
-6.618754 -0.824793
-6.779194 -0.712411
-6.453933 -0.353768
-6.976345 0.414956
-5.961037 -0.227294
-6.299366 0.071893
-6.080817 0.556741
-6.321138 0.240486
-5.565908 0.402963
-5.431317 0.715601
-5.785904 -0.450706
-4.835347 0.642000
-5.016781 1.170720
-4.516800 0.430617
-4.550779 0.380896
-4.441845 0.491669
-3.920071 0.136532
-3.919350 0.475497
-4.115560 0.321932
-3.173429 -0.040288
-3.380418 0.240674
-2.702784 0.313512
-2.867398 -0.239510
-2.934522 -0.167806
-2.481762 -0.204645
-2.281477 -0.229824
-2.564456 -0.115385
-1.600484 -0.640175
-1.844385 -1.249944
-1.525078 -1.055397
-1.452528 -1.110113
-2.246335 -2.092032
-1.734081 -1.873372
-1.461386 -2.372003
-1.936885 -2.257526
-2.372556 -2.644758
-2.043392 -2.769783
-2.354963 -2.995090
-1.801748 -3.256250
-3.003039 -3.327406
-2.645709 -3.595727
-2.233779 -4.150011
-2.839022 -3.636330
-2.707944 -4.579829
-3.264828 -4.079249
-3.092234 -4.045460
-3.738168 -4.536628
-4.196676 -5.015621
-4.224119 -4.460787
-4.492446 -4.750179
-4.538882 -4.744893
-4.706467 -5.108638
-5.215880 -5.158005
-5.359574 -4.963177
-5.543369 -5.533927
-6.445614 -5.088864
-5.661439 -4.356543
-6.312445 -4.671807
-7.071803 -4.140544
-6.449929 -3.324863
-7.053828 -4.531513
-7.907640 -3.959952
-7.467739 -4.128005
-7.929291 -3.429667
-8.112610 -2.929562
-7.703108 -2.784804
-8.115791 -2.491259
-8.111827 -2.349133
-7.351813 -2.051436
-8.147832 -1.733708
-8.125734 -1.487703
-8.160439 -1.362380
-8.251480 -0.741270
-8.515385 -0.398808
-7.890525 0.021698
-7.963881 0.183494
-7.574215 -0.341826
-7.728148 0.181818
-7.891228 1.361264
-7.497875 1.275754
-7.167139 1.636109
-7.653501 0.914781
-7.160565 1.114121
-6.506431 1.601423
-6.277176 1.966369
-6.158057 2.108802
-6.258164 2.558341
-5.552583 2.536289
-5.324971 2.186463
-4.626253 2.537268
-4.629701 2.552136
-4.107300 2.629897
-3.747447 2.307801
-3.388646 2.131495
-3.286891 2.839968
-3.361392 2.155933
-3.235380 2.454876
-3.080494 2.264769
-2.348026 1.896275
-2.246140 1.794793
-1.919147 1.780329
-1.565696 1.179359
-1.482825 1.437728
-1.464515 1.594542
-1.391178 1.046093
-0.932108 0.864886
-1.116268 0.595632
-0.911889 0.117032
-0.541386 -0.088481
-0.711070 -0.768007
-0.224779 -0.989608
-0.667034 -1.263933
-0.305124 -0.353654
-0.899347 -1.279411
-0.450882 -1.689027
-0.124452 -1.925002
-0.902322 -2.117649
-0.340483 -2.479507
-1.138736 -2.440950
-0.901844 -3.171812
-1.271444 -3.104659
-1.475887 -2.871083
-0.965256 -2.974852
-1.326584 -3.367138
-0.882461 -3.722694
-1.713921 -4.046969
-2.336018 -3.799936
-2.221132 -4.120671
-2.884443 -4.317583
-2.868924 -4.930507
-2.966628 -4.049393
-3.061700 -4.192989
-3.867472 -4.486085
-3.674683 -4.351243
-3.843733 -4.122378
-3.885587 -4.364799
-4.338931 -4.033211
-4.689322 -3.859334
-4.402292 -4.246311
-4.229522 -3.723506
-4.372173 -4.037404
-4.818876 -3.721391
-5.374662 -3.612836
-4.970194 -3.496098
-5.125192 -3.111483
-5.360410 -2.850763
-5.125655 -2.811357
-5.217235 -2.575588
-5.299144 -2.601264
-5.101381 -2.409245
-5.120126 -2.608878
-5.322399 -2.471758
-5.441239 -2.080516
-5.453246 -2.315429
-5.303205 -1.953164
-4.945095 -1.640718
-4.952033 -2.244351
-5.406945 -1.490702
-5.484720 -1.437195
-4.843049 -1.129871
-4.583339 -0.843998
-4.913652 -1.308793
-5.062923 -1.280457
-4.774237 -1.270728
-4.194151 -1.121061
-3.749253 -0.937236
-4.476679 -1.290507
-4.857542 -1.005726
-4.246488 -1.632501
-3.804695 -1.336336
-3.625111 -1.459334
-3.767198 -1.009781
-4.107652 -2.208818
-3.682418 -1.124318
-4.175910 -1.604574
-3.526007 -1.811368
-2.982019 -1.678227
-3.152987 -1.567502
-3.406873 -1.417242
-3.628566 -1.362757
-3.982666 -1.756497
-3.495628 -2.209721
-3.033085 -2.138178
-3.917933 -2.295840
-4.014166 -2.345394
-4.255757 -2.437626
-4.017482 -2.960593
-4.273035 -2.300761
-3.964144 -2.672063
-4.257892 -2.475848
-4.311777 -2.441964
-4.247611 -2.796204
-3.807823 -2.775599
-4.381631 -2.717385
-4.612734 -2.402803
-4.991330 -2.217893
-5.329390 -2.467606
-5.048923 -2.255477
-5.084990 -2.586299
-4.629365 -2.388907
-4.617021 -1.920940
-4.945472 -1.947196
-4.959946 -2.512366
-5.524525 -1.889523
-5.143093 -1.813949
-5.040268 -1.564440
-5.607996 -1.885140
-5.863065 -1.226425
-5.582741 -0.975821
-6.201682 -1.180354
-5.041300 -0.793743
-5.967103 -0.644403
-5.897054 -0.728129
-5.258708 -0.520946
-4.924829 -0.166386
-4.982800 -1.169133
-4.829374 -0.688086
-5.308157 -0.623551
-4.642967 -0.360515
-4.418299 -0.025548
-4.208183 0.384547
-4.082099 0.196931
-4.451411 0.592975
-4.417447 0.726655
-3.345870 0.405998
-3.753968 0.488088
-3.355181 0.515796
-3.455670 0.479835
-3.302595 -0.249551
-2.734740 -0.103175
-2.669813 -0.169089
-2.369921 -0.079199
-2.861521 0.402881
-2.060606 -0.169887
-2.345284 -0.590830
-1.855801 -0.526606
-1.693759 -0.700879
-1.372916 -1.204580
-1.916286 -0.885475
-1.792582 -1.506861
-1.671425 -1.646527
-1.370616 -1.964431
-1.000219 -1.986688
-1.212461 -2.198243
-1.364206 -2.436327
-1.124941 -2.897808
-1.441194 -2.672873
-1.245758 -3.085491
-1.624909 -2.854702
-1.254408 -3.864586
-1.125637 -4.014036
-1.913630 -3.648958
-1.796055 -4.396270
-1.864751 -4.464831
-1.727981 -4.828961
-2.631280 -4.535189
-2.155156 -5.341856
-3.121372 -5.495096
-3.251514 -5.545342
-3.207974 -5.488398
-3.124785 -5.870668
-3.686839 -6.334401
-3.828982 -5.569527
-4.521788 -5.901696
-4.120569 -5.818708
-4.857378 -6.801224
-4.881216 -6.377591
-6.103933 -5.935179
-5.746047 -5.665350
-6.003997 -6.361365
-6.294636 -5.587057
-7.153880 -5.487208
-7.309264 -5.399327
-7.649056 -5.417066
-7.755701 -5.607827
-7.863501 -4.684638
-8.521170 -4.715508
-8.451977 -3.998819
-8.622304 -4.295702
-8.337080 -4.344884
-8.856269 -3.581520
-9.337834 -3.691656
-9.116608 -3.277360
-8.859501 -2.964799
-8.898652 -2.973107
-9.423239 -2.466042
-9.068742 -2.269211
-9.632251 -2.108731
-9.179868 -2.083777
-9.199416 -1.591228
-8.915320 -0.839740
-9.246421 -0.698172
-8.759840 -0.559459
-8.769341 -0.348650
-8.637909 0.206703
-8.481836 0.028483
-9.212137 0.341074
-8.659095 1.077319
-8.178587 0.741668
-7.345155 1.358812
-7.371061 1.369757
-6.587365 2.170928
-7.575353 1.540931
-6.908242 1.800175
-5.949961 1.798795
-6.087605 1.745461
-6.087750 2.074429
-6.156646 2.035212
-5.811377 1.717161
-5.336728 1.997630
-4.835333 1.632593
-4.381755 1.987376
-4.699701 1.765426
-4.162736 1.659454
-4.074912 1.748675
-3.729758 1.809061
-3.624595 1.305331
-2.827182 0.983785
-3.628813 0.957582
-2.883140 0.420530
-2.936924 1.063541
-2.414547 0.100016
-2.872964 -0.022482
-2.392644 -0.105049
-2.804653 0.334279
-2.643498 -0.320983
-2.911880 -0.041003
-2.323847 -0.718037
-1.753236 -1.137737
-2.437998 -1.320879
-2.230147 -1.372766
-2.698833 -1.319837
-2.438663 -1.896054
-2.702720 -1.986432
-3.132433 -2.781687
-2.873739 -2.049656
-2.182178 -2.155393
-3.432426 -2.248131
-2.840934 -2.863889
-3.359767 -3.267675
-3.362244 -3.002872
-3.278537 -2.717689
-3.822671 -3.208609
-3.579468 -3.876955
-3.859774 -3.025177
-4.087443 -3.582671
-4.454470 -3.580249
-4.783648 -3.571267
-4.802487 -3.657021
-4.675210 -3.410708
-4.796158 -3.348137
-4.794712 -3.190649
-5.264097 -3.645857
-5.385042 -3.379940
-5.708721 -3.280552
-5.327955 -3.310216
-6.150417 -3.421666
-5.432536 -3.106667
-6.016755 -2.961750
-5.794961 -3.249893
-5.603027 -3.184329
-6.187836 -3.000009
-6.134083 -3.039238
-6.508800 -2.712607
-6.026629 -2.819746
-6.837925 -2.768202
-6.961042 -3.112022
-6.607218 -2.985432
-6.681245 -2.615562
-6.647980 -2.638034
-6.381547 -2.738982
-7.210640 -1.688896
-7.037084 -2.611788
-6.852534 -1.848731
-6.987678 -2.208979
-6.762123 -1.959473
-6.733499 -2.348773
-6.849713 -2.162429
-6.521742 -2.157899
-6.821398 -1.983709
-7.114579 -1.894100
-7.376722 -1.746916
-7.089861 -2.180337
-6.826885 -1.329994
-7.066714 -1.002363
-7.612501 -1.672455
-7.151934 -0.922662
-7.138804 -1.481705
-7.642095 -1.279052
-7.081994 -0.704521
-7.295616 -1.322319
-7.491278 -1.264504
-7.621354 -1.029427
-6.982334 -1.376923
-7.084723 -1.108023
-7.444291 -1.028314
-7.651312 -1.064013
-7.147922 -0.721601
-6.779048 -0.327463
-7.019570 -0.564973
-7.506733 0.004851
-7.967174 -0.773488
-7.223922 -0.707884
-7.684536 -0.355616
-7.659357 0.191812
-7.533632 0.482436
-7.551602 0.198693
-6.982832 0.736216
-7.069838 0.633967
-7.344151 0.898345
-7.357435 0.536994
-6.924229 0.723867
-7.202547 0.961021
-6.834770 1.501258
-6.575908 0.780739
-6.805981 1.487278
-6.857753 1.952414
-6.590296 1.782258
-6.166316 1.434932
-6.591362 2.472879
-6.057883 1.811440
-6.497586 2.070063
-5.969646 1.810743
-5.398457 2.195266
-5.202152 1.912842
-5.094874 2.409331
-5.230948 2.043826
-4.901598 2.147926
-4.685304 2.233407
-4.521512 2.452658
-4.510907 2.538076
-3.710381 1.885016
-3.699368 2.270019
-3.389577 2.085551
-3.278526 2.248886
-3.083825 1.705598
-2.282085 1.615777
-3.016451 1.605243
-2.395251 1.437468
-2.373032 1.211633
-2.004605 0.715682
-2.072150 0.481837
-1.736619 -0.047709
-1.218014 0.313996
-1.521619 -0.449429
-1.656943 0.411200
-1.376326 -0.606015
-1.451751 -1.333531
-1.192056 -1.505247
-1.558792 -1.037497
-1.583014 -2.334393
-1.611260 -2.173198
-1.197623 -2.117268
-1.457577 -2.339040
-2.343224 -3.868234
-1.759907 -4.100029
-1.943721 -4.084101
-2.458623 -3.995391
-2.788909 -4.516184
-2.754159 -4.817060
-2.775109 -5.125846
-2.829154 -4.913428
-3.341656 -5.134469
-3.705522 -5.044477
-4.116668 -5.059657
-4.342939 -5.346888
-5.032789 -5.212387
-5.309348 -5.590334
-5.584351 -5.828060
-5.982261 -5.242310
-5.400012 -6.004471
-5.543111 -5.875039
-6.766892 -5.839805
-7.646956 -5.740040
-7.135848 -5.989350
-7.956951 -5.689857
-8.461451 -5.983877
-8.866763 -5.381577
-9.258186 -4.778466
-9.041091 -5.371798
-9.508188 -4.456589
-9.195735 -4.805206
-9.668512 -3.689429
-9.711953 -4.542559
-10.360184 -3.563581
-9.904573 -3.326571
-10.782171 -3.306958
-10.719822 -2.817415
-11.180583 -2.798406
-10.742303 -1.434970
-11.304730 -2.445533
-11.134254 -0.764245
-11.162759 -1.115817
-10.699281 -0.241498
-11.405666 -0.685129
-10.427553 0.220183
-10.543802 0.415707
-10.024452 0.220836
-9.899513 0.659999
-10.093817 1.119807
-9.456486 1.609108
-9.514863 2.374942
-9.419806 1.746081
-8.920612 1.581270
-8.791806 2.468848
-8.869267 2.789660
-7.962610 2.979410
-8.082633 2.437618
-7.266441 3.043424
-6.956282 3.262721
-7.411224 2.774941
-6.477666 2.684057
-6.242285 2.928313
-6.562754 2.327813
-5.931521 2.823591
-5.666246 2.593574
-4.933772 3.339502
-4.732663 2.363979
-4.568566 2.550276
-4.297317 2.089770
-3.796505 2.491115
-3.976394 1.512887
-3.572071 1.598323
-3.149902 1.701071
-3.308493 0.456810
-3.066121 0.352671
-3.515978 -0.383090
-2.797752 -0.036391
-2.757735 -0.556147
-3.248009 -1.098465
-3.388907 -1.051092
-3.769234 -1.384409
-2.963328 -2.355590
-3.162282 -2.227066
-3.782197 -2.301454
-3.293424 -2.678711
-4.022091 -3.114697
-4.203263 -3.669919
-3.002694 -3.395528
-4.206045 -3.651124
-4.967566 -3.680738
-4.516638 -4.451815
-4.544197 -4.249950
-5.605619 -3.989598
-5.610682 -4.164434
-5.991913 -5.030622
-5.820142 -4.713710
-6.510673 -4.504732
-6.338209 -5.225064
-7.448830 -4.729524
-8.184499 -4.743349
-7.748113 -4.523758
-8.257292 -4.874079
-9.063169 -4.826406
-8.725988 -4.861800
-8.953448 -4.602014
-9.363182 -3.791283
-9.300321 -3.693073
-9.891890 -4.022031
-9.219658 -3.962863
-10.506772 -2.671156
-9.782538 -4.050415
-9.841063 -3.765982
-10.466324 -3.207967
-10.989305 -2.859698
-10.146968 -3.177638
-10.039072 -2.420984
-10.394422 -1.511131
-10.943134 -1.308854
-10.850613 -1.323732
-10.188248 -1.331074
-10.807827 -0.864434
-10.536348 -1.032103
-11.044192 -0.045882
-10.329865 -0.414006
-9.899223 -0.461376
-10.058872 -0.305316
-10.560894 -0.623238
-9.887858 -0.069377
-9.898103 0.116811
-9.432165 0.016687
-9.329987 -0.147347
-9.291459 0.356721
-9.017336 -0.609620
-9.020362 -0.578504
-9.207752 -0.298100
-8.946845 -0.034009
-9.018312 -0.544686
-8.979126 -0.276291
-9.111438 -0.479804
-9.164931 -1.351298
-8.350813 -1.613070
-8.146133 -1.097728
-8.690568 -1.242030
-8.812463 -1.434928
-9.252010 -0.867663
-8.732664 -0.951561
-8.442853 -1.474748
-8.601197 -1.617351
-8.935288 -2.158280
-9.295140 -1.951235
-9.328810 -1.587835
-9.227992 -2.476665
-10.114584 -2.344759
-10.501600 -1.973001
-10.457560 -1.897338
-10.637093 -3.061679
-10.736386 -3.025368
-11.237257 -2.613271
-11.534791 -2.249728
-11.460046 -1.739255
-11.538025 -2.148543
-11.349538 -2.664642
-12.347471 -1.539561
-12.397283 -1.335219
-12.980241 -1.893925
-13.067749 -1.528167
-13.816225 -2.330024
-13.282597 -0.516836
-14.400426 -0.944266
-13.818893 -0.415973
-14.521937 -0.209120
-14.485035 0.315998
-14.337931 1.236070
-14.371465 1.433773
-14.492609 0.441481
-14.670102 1.241291
-15.031678 2.448863
-14.442181 2.554635
-15.016189 3.016324
-14.816583 3.197129
-14.801887 3.415141
-13.816484 4.732030
-14.745938 4.388019
-14.051756 4.730826
-14.199452 5.797732
-13.290266 5.020597
-13.923733 6.307549
-13.620686 5.696965
-11.406888 5.996966
-12.186139 5.629935
-12.423905 7.441941
-12.402410 7.036841
-10.967329 7.084590
-10.565579 7.763504
-11.008855 8.299034
-10.840882 6.927205
-9.383265 7.251314
-8.102063 8.592439
-8.446687 7.277189
-8.341787 6.636720
-8.187739 8.175714
-6.977398 7.077441
-6.958241 6.578038
-6.486232 6.374000
-6.464471 7.342397
-5.568205 6.508206
-5.410894 5.748112
-4.684459 5.541070
-5.601813 5.906421
-4.005134 5.199062
-3.756512 4.871480
-3.782001 3.870629
-3.849226 3.432870
-3.297615 3.167052
-4.277273 2.193081
-3.776592 1.952321
-3.942518 1.914952
-3.856583 0.433890
-3.729527 0.795127
-3.945357 0.453516
-3.582664 -0.150309
-4.616502 -1.541364
-5.167609 -1.339532
-4.476421 -1.737847
-6.372090 -1.850075
-5.575209 -3.793037
-6.200892 -3.009604
-7.404003 -3.418234
-8.129888 -3.649540
-8.089903 -3.379935
-8.650094 -3.757276
-10.134358 -3.596652
-9.630379 -4.532348
-10.860445 -4.163687
-11.317193 -3.603544
-11.753087 -4.013658
-12.254622 -4.904904
-13.866379 -4.545063
-13.828616 -4.389005
-13.805559 -3.724050
-15.073251 -3.371767
-15.932736 -3.860869
-15.834659 -3.666340
-16.598436 -2.372158
-16.576008 -2.430259
-17.746928 -0.981890
-18.431067 -1.079685
-18.143190 -0.215255
-18.968991 0.529246
-19.991973 1.020987
-19.766011 1.299878
-19.772861 3.327528
-19.478686 2.849878
-20.133252 4.130647
-19.650142 3.621241
-19.821600 4.982647
-19.898626 6.028355
-20.045197 6.432721
-20.408781 8.037828
-19.812465 8.690245
-18.887802 9.202005
-19.145148 10.079765
-18.914600 9.161534
-17.905139 11.576030
-17.160778 10.518265
-16.816461 12.111633
-16.589220 13.524739
-16.371216 12.014363
-15.424997 13.834595
-14.552059 13.734737
-14.141148 14.518151
-13.722307 13.922377
-12.867566 14.610282
-12.980472 14.480833
-12.597063 15.627313
-11.252699 14.754436
-10.641942 14.134704
-9.897232 14.278072
-9.221123 14.865385
-9.157920 14.931028
-8.937529 14.830965
-7.130800 14.763906
-7.342558 14.065867
-5.793919 13.764800
-4.772783 13.256219
-5.861251 12.767479
-4.718876 12.625148
-3.563805 12.109353
-3.245396 11.611572
-3.056636 11.395368
-1.844250 10.505368
-2.189748 9.358317
-1.809162 8.449621
-2.183370 8.842461
-2.192681 7.125396
-2.015251 7.463349
-1.869750 6.683127
-1.088654 5.578425
-0.874782 5.836546
-3.155470 4.277991
-0.303053 5.027211
-2.936640 3.995883
-3.734439 3.634375
-3.184626 2.635208
-3.147724 2.983759
-4.286927 2.588710
-3.865832 1.550021
-4.692077 1.086960
-5.137244 0.506478
-5.895896 -0.018040
-6.064464 0.230834
-6.271898 0.741090
-7.317635 0.055104
-8.336131 0.564181
-8.579308 0.704776
-9.423415 -0.002241
-9.010201 0.604002
-10.512951 0.899567
-10.098935 0.890213
-10.569760 0.941974
-10.316760 0.817383
-10.673165 0.890603
-13.537766 2.017728
-12.993504 2.344319
-13.921991 2.747826
-12.048687 3.503584
-12.998768 4.349743
-13.608889 4.209478
-14.141310 3.817787
-14.675582 4.999593
-15.031617 5.466981
-14.238677 5.519751
-13.308576 6.886303
-13.267620 6.935269
-14.268568 6.859910
-14.611768 7.711445
-15.004091 7.398337
-14.628430 8.169383
-13.293695 9.821139
-12.773692 9.406718
-12.511500 10.593995
-11.710384 10.765845
-12.807163 10.504756
-12.636493 10.366857
-12.648629 10.597485
-12.911944 10.558837
-11.465878 12.071758
-10.697595 11.286883
-10.376821 11.448685
-9.252877 11.581016
-9.440819 12.031207
-10.056800 11.573955
-8.733893 12.423069
-8.669649 12.766496
-7.993814 10.518628
-8.114254 11.470303
-7.149777 11.640145
-7.359016 10.857726
-7.815009 11.224692
-6.242662 10.873716
-7.181408 10.310590
-6.353908 10.234737
-5.842940 9.455329
-5.962207 10.619910
-5.848769 9.784507
-5.105674 8.568841
-6.041387 9.382344
-5.183011 8.036291
-5.794474 8.591329
-5.795515 8.351120
-5.252863 8.100279
-6.750278 7.040049
-6.842360 7.037193
-5.878300 6.651999
-5.981001 6.240799
-7.515745 5.179809
-7.096802 4.982818
-6.956449 6.748812
-7.394609 5.418668
-7.315608 6.673338
-8.379487 5.734434
-8.984592 6.404822
-8.911324 5.445437
-7.843199 5.726187
-8.685113 5.189460
-9.482404 6.449569
-10.288276 6.390598
-10.651161 5.961787
-11.541635 7.361446
-12.194356 7.006222
-11.098826 6.516995
-11.869527 6.452438
-12.206425 7.440009
-12.512106 7.969997
-12.651540 9.652355
-11.536125 8.810517
-10.391990 9.150781
-10.946992 9.993440
-12.572696 10.360197
-11.472366 10.143160
-11.298402 10.050681
-10.103775 10.188333
-11.490366 12.295941
-10.975274 12.655868
-10.470801 12.645768
-9.172017 13.643636
-9.847885 12.897298
-8.557971 13.584435
-8.727997 13.811814
-8.705639 13.994333
-8.236902 14.603546
-9.800104 14.997994
-6.568654 15.211421
-7.634352 13.546190
-6.597398 14.319619
-4.843291 14.729094
-5.985027 13.491268
-2.556882 16.393454
-4.315692 15.285603
-3.243662 13.098145
-2.055247 13.956861
-3.463291 13.806829
-2.756353 13.775572
-2.081230 14.142039
-0.979236 12.379032
-1.478175 10.820888
0.423267 10.669934
-0.132147 8.875076
0.244396 9.432185
2.234350 10.747334
-1.733991 8.462078
0.082066 8.532871
0.912916 9.930496
0.658844 7.490656
0.469494 7.002392
1.824847 6.208856
0.799075 4.818342
-0.449741 3.135011
-0.943457 3.275434
-1.169932 3.093855
-0.183455 3.370835
-0.739517 2.241131
-2.588885 2.336571
-2.455906 2.766457
-2.242609 0.433412
-4.724856 0.406965
-3.833036 -0.101785
-4.971003 0.187763
-6.653488 -1.152025
-4.589283 -2.109712
-6.572819 -1.436621
-8.798231 -0.060307
-7.707503 -1.909089
-10.439681 0.095220
-8.850190 -0.504778
-8.529785 -0.249369
-10.297317 0.264451
-10.460349 -2.003013
-14.276105 0.749166
-13.656767 0.981660
-13.355917 1.202693
-14.065557 2.592022
-11.657665 -0.805585
-15.105850 2.223330
-16.991802 4.055862
-17.435178 4.523881
-18.737618 5.365352
-16.626466 4.019645
-15.627603 4.732771
-15.953336 7.416696
-16.560395 8.326826
-17.662315 8.494211
-18.419472 9.458235
-19.098115 11.419276
-18.470751 9.994930
-18.009310 12.229796
-17.300577 12.541164
-15.525240 12.658795
-15.121346 13.589108
-15.563382 11.874670
-15.116542 13.642262
-14.654442 15.567128
-14.988992 16.143084
-13.441885 15.602881
-13.900535 18.083011
-12.479543 16.851728
-10.713312 18.029694
-11.293676 17.455521
-10.456586 16.879096
-8.785249 18.151208
-9.966357 16.402773
-7.826065 19.786378
-6.570389 19.943696
-5.625555 17.382286
-6.046660 16.468343
-7.900512 16.883281
-6.325361 14.735001
-2.624264 15.899914
-3.484227 15.845285
-2.209084 17.653403
-2.986236 15.488266
-1.611562 14.182609
0.301384 13.840425
-2.427540 13.043194
-1.311956 12.686505
1.520091 12.131373
0.530142 11.097254
3.413692 11.768129
1.344305 10.718289
-0.026066 10.525257
0.266015 7.799306
1.890649 9.017552
-2.561657 5.413935
1.283699 6.699029
-0.873203 5.680768
0.636306 4.258087
0.900388 4.252801
-0.193508 3.272304
-0.789311 3.753228
-3.712587 2.364024
-0.192780 2.791360
-2.765850 -0.415589
-3.707470 0.516892
-2.592234 0.149066
-6.895344 1.564643
-7.574451 3.280868
-8.611380 -0.251495
-6.070455 0.649371
-10.147931 -0.344745
-8.731535 -0.121232
-9.224240 2.051869
-10.529697 -0.276123
-8.870829 -1.233184
-13.204619 -0.549591
-10.488806 0.001673
-12.184498 0.389191
-14.320000 0.840392
-14.497067 0.314868
-14.534812 0.986250
-14.516557 1.124348
-16.819971 1.575216
-15.173026 2.511588
-15.835429 2.581686
-15.353973 2.175598
-17.949211 1.234105
-17.908151 1.841711
-17.248227 4.658619
-16.641481 5.136143
-18.709820 7.927355
-16.532776 6.374636
-19.450553 6.286506
-17.417725 7.310292
-19.593643 8.244721
-17.618596 4.849640
-18.626336 8.798355
-19.819153 7.741823
-17.149346 4.103526
-20.955487 9.511399
-16.978732 8.854039
-17.456488 8.725646
-16.565335 10.760988
-18.255869 11.959908
-18.212347 9.248528
-15.600360 10.296505
-14.421606 10.802723
-16.120825 9.544909
-17.175398 9.121042
-18.789705 10.157415
-16.778092 9.180559
-16.568149 10.909249
-16.119449 9.654455
-16.413541 9.629469
-15.918707 11.789004
-17.168767 6.682666
-20.282217 10.943993
-20.089402 11.810788
-21.898034 9.471785
-19.911171 9.097716
-17.414090 8.739915
-20.510235 9.441788
-20.230720 9.721928
-20.453468 8.984758
-22.261286 9.952545
-19.088333 10.174514
-21.535984 9.893724
-23.260647 7.357390
-21.670144 8.645003
-25.130706 12.850085
-23.913524 11.064112
-24.388151 11.131628
-25.185035 10.362941
-21.357437 8.021860
-24.579496 13.826935
-31.525052 11.419716
-26.348306 21.139522
-28.780240 18.151365
-31.572133 14.635822
-25.639650 13.860075
-27.892807 11.193483
-27.702803 15.369081
-26.209088 18.129671
-31.971653 17.946603
-28.710284 25.240892
-30.046342 18.904148
-31.947020 26.083382
-26.778481 22.091772
-29.667171 21.171133
-29.885637 28.422135
-24.468091 20.469933
-28.353372 26.893144
-31.970082 27.573216
-25.825733 26.093095
-22.155336 35.467653
-22.105552 34.981616
-21.619709 32.891753
-24.283946 34.254918
-24.408886 27.917846
-22.182949 31.986499
-23.172931 33.894654
-18.498886 31.170192
-15.890474 34.819047
-15.545342 36.308716
-14.257772 33.162204
-10.417709 34.916162
-15.109406 32.305876
-12.877057 34.187229
-8.400191 31.977639
-15.730896 29.343306
-2.802872 40.183937
-7.685489 23.058330
-3.022016 28.161097
-17.854473 34.046947
-20.324680 26.988835
-11.720088 26.854520
-8.422294 26.468909
-2.507230 19.972159
-3.688396 21.951708
-4.431252 22.500939
-4.667097 15.918530
-3.792443 16.784776
-8.103242 15.499974
-7.772500 13.040648
-7.952229 12.038004
-11.273919 11.391822
-7.425817 8.090603
-13.420333 4.864880
-13.392398 5.922735
-13.000127 6.889612
-21.821547 3.826659
-15.755700 4.124433
-21.411772 -3.456214
-23.767427 -5.932169
-17.859126 -4.342951
-37.359815 -4.189917
-29.209215 1.701657
-36.729637 6.955319
-43.459988 -1.456829
-37.981831 -5.149644
-47.262462 -8.113560
-50.278172 -16.070697
-52.359563 -1.219806
-48.531949 0.386680
-68.373994 -1.772986
-62.019205 -2.306891
-66.986909 8.604048
-67.987428 9.896097
-72.459283 12.774386
-78.761684 14.337847
-78.939768 13.554181
-88.164666 25.104393
-78.526947 28.505905
-84.615269 32.849892
-95.675246 35.514861
-92.595190 30.232231
-107.621472 42.361020
-97.038473 43.327101
-95.631188 54.018235
-103.740374 72.366492
-75.995277 64.802126
-96.633518 79.932958
-116.277190 72.049459
-115.882310 81.808565
-102.835100 83.697234
-114.760319 96.808064
-110.243745 101.497079
-107.344662 104.712436
-115.366661 122.684989
-97.147053 118.440739
-89.293236 132.386638
-89.669244 133.366970
-94.210954 148.988797
-85.871275 150.226690
-77.911818 151.192650
-66.860718 166.764954
-58.796708 150.086129
-79.998821 189.886706
-74.531971 183.485077
-74.427515 178.097650
-77.627744 244.560570
-22.186650 150.610022
4.214155 177.422975
-8.509256 191.220331
-5.397007 194.492624
-8.527578 213.758416
-5.503336 217.256508
8.202456 213.987178
16.840408 217.352118
23.908061 221.969679
35.136887 212.299952
36.012780 217.638914
60.334918 259.091976
65.471162 127.128032
85.893048 180.308819
72.032064 202.293922
115.999502 272.585395
81.092174 29.939578
118.164974 134.915192
123.205656 167.259342
99.063074 148.342941
202.744463 413.721867
135.476595 245.568978
148.493841 228.742564
287.620377 332.117667
-467.116408 -1058.577559
125.358658 -83.717155
112.127600 98.284834
242.361118 156.060066
-934.861010 -1334.809585
102.227767 -32.275300
111.224805 8.369514
