10854.480060 8864.961204
-4741.466966 -2818.152993
-181.294490 155.724581
133.089469 -47.714247
-700.675199 -503.256428
219.997469 -57.690086
118.379071 -121.045165
7.571936 -53.981151
122.385817 -12.649688
89.483533 44.165053
23.847125 -58.847719
88.339941 -15.675249
92.925177 -12.962871
82.317292 -37.187643
68.608101 -16.789065
96.007309 -21.604759
73.052510 -52.384222
89.177978 -25.710731
96.380940 -46.580800
96.861356 -27.643285
78.744900 -27.857877
84.845493 -37.420479
84.260957 -40.753852
72.721760 -38.097529
81.265334 -49.029294
87.396428 -44.279799
64.323472 -44.688271
79.421794 -52.673611
77.175979 -56.249942
71.046945 -49.455633
77.050218 -59.824235
75.663538 -51.544872
64.659981 -53.521487
67.375749 -57.737052
65.708122 -60.152422
60.920984 -61.288444
61.131495 -61.033826
62.658313 -63.268800
53.509496 -66.457722
56.392827 -62.540487
53.924705 -69.711190
53.795743 -67.622012
51.834074 -65.745320
47.894338 -67.342379
46.798036 -68.716405
43.611514 -66.742709
39.553835 -71.396161
41.490939 -71.190598
37.298609 -68.188457
36.173302 -72.056291
33.027346 -73.425952
31.662246 -68.580928
30.472940 -73.577652
29.731835 -72.190463
25.915554 -69.548564
23.940097 -70.052757
22.240048 -71.200221
19.202360 -69.988380
17.033877 -70.354680
17.131835 -70.179357
13.783927 -69.499478
14.038451 -68.589840
10.142387 -69.782194
9.120047 -67.675518
9.345100 -67.655603
6.073319 -66.316195
4.242904 -65.561954
3.865161 -63.316714
0.289591 -63.833688
-0.419174 -64.113373
-1.528716 -61.597688
-2.854131 -60.958240
-4.554132 -61.458168
-4.926660 -58.206600
-7.624355 -59.368865
-7.866408 -57.729964
-7.978173 -56.017537
-10.035450 -54.948615
-11.724954 -53.884817
-11.940620 -51.539666
-13.658887 -51.667594
-14.396278 -51.096022
-15.104352 -49.149043
-14.854473 -47.458093
-16.873071 -47.404810
-17.260118 -44.899258
-17.384124 -44.823145
-18.067474 -42.657328
-18.205263 -42.032786
-17.829162 -40.474852
-19.814175 -38.239398
-20.570039 -37.633584
-20.121110 -37.148814
-21.108659 -35.390995
-21.403658 -35.013698
-19.632097 -33.041656
-21.200425 -32.211222
-21.849232 -30.520834
-20.905007 -30.069448
-21.460810 -28.380912
-21.236454 -27.364768
-20.509962 -26.203291
-20.933005 -25.110446
-21.397931 -23.847359
-20.807573 -23.080349
-20.715658 -22.406139
-20.510591 -21.521463
-20.184125 -19.669688
-19.751066 -20.186356
-19.425793 -18.526580
-19.236151 -17.435469
-18.817713 -17.010480
-17.974667 -15.307622
-18.169277 -15.149119
-17.942631 -14.335764
-16.937076 -13.322269
-16.596060 -13.078357
-15.717516 -12.950694
-15.869181 -11.715101
-15.056530 -10.806059
-14.453041 -11.050183
-14.452074 -10.216086
-13.980866 -9.437907
-12.506856 -9.839142
-12.400977 -8.607306
-12.110294 -8.143051
-11.999112 -7.687432
-10.814309 -7.377593
-10.651340 -7.498219
-9.775016 -6.798885
-9.561629 -7.569932
-8.077790 -6.581271
-8.223507 -6.368824
-7.908377 -6.302701
-6.898350 -5.793087
-6.340496 -5.602097
-6.687555 -6.366435
-5.796887 -5.696173
-4.900466 -5.449266
-5.097125 -6.198914
-4.421250 -6.250464
-3.752296 -5.345409
-2.913114 -5.887284
-3.066011 -5.805011
-2.582698 -5.452183
-2.048252 -6.482721
-1.801334 -5.805342
-1.131405 -6.493057
-0.946503 -5.941302
-0.480258 -6.190691
-0.275917 -6.163890
-0.092309 -6.615359
-0.009910 -7.017151
0.713209 -6.954600
0.612319 -7.444057
0.872240 -7.130068
1.588383 -7.905536
2.245277 -7.742093
1.084104 -7.787866
2.001595 -8.101780
2.592296 -8.437709
1.706819 -8.735699
2.105379 -9.160348
2.313962 -9.485650
2.761234 -9.925994
2.627688 -9.921922
3.020208 -9.974539
3.018691 -10.122102
2.875382 -10.336514
2.918143 -10.330469
2.511455 -10.539587
3.109223 -11.078984
2.856450 -11.596074
2.963279 -11.893094
2.632154 -11.783748
3.283885 -12.249707
3.303824 -12.496524
2.825039 -11.862685
2.768839 -12.574141
2.822879 -12.529320
2.756470 -12.793393
2.045788 -12.877262
2.455604 -13.220305
2.227207 -13.258342
1.918907 -13.833761
1.879555 -13.851376
1.329471 -13.790662
2.058056 -14.354714
1.596185 -14.151130
1.302377 -14.197818
0.816681 -14.285862
1.169647 -14.774722
0.748465 -14.582066
0.607729 -14.679892
0.620054 -15.367034
0.240791 -15.062722
0.469972 -14.945314
-0.387384 -14.985627
-0.238414 -15.513710
-0.307830 -15.229443
-0.430452 -14.988647
-0.759507 -15.449737
-1.090452 -15.455399
-0.691274 -15.653382
-1.452166 -15.586392
-1.334759 -15.180318
-1.820615 -15.691435
-1.835740 -15.708710
-1.735841 -15.237574
-2.529814 -15.354118
-2.242945 -15.489676
-2.864913 -15.433959
-2.759046 -15.571852
-3.402575 -15.813325
-3.409738 -15.183995
-3.389473 -15.469859
-3.323370 -15.701871
-3.512730 -15.160609
-4.115295 -15.517002
-3.882529 -15.101413
-4.274816 -15.397101
-4.465280 -15.149053
-4.992702 -14.935278
-4.987852 -14.992629
-4.369231 -14.440038
-5.168589 -14.751342
-5.696858 -14.175147
-5.383209 -14.575731
-5.630802 -14.662827
-5.868346 -14.619169
-5.969548 -14.171531
-6.218264 -14.105449
-6.111933 -14.552150
-6.547144 -13.685794
-6.431736 -13.624804
-6.686595 -13.571660
-7.016571 -14.105856
-6.991038 -13.633108
-7.530855 -12.828255
-7.319173 -13.009451
-7.338105 -13.318248
-7.944868 -12.863028
-7.910010 -12.518334
-7.572788 -11.969116
-8.179871 -12.704301
-8.070976 -12.623786
-7.827754 -11.693220
-8.032575 -12.002394
-8.139273 -11.693663
-8.610997 -11.803492
-8.110313 -11.361172
-8.580426 -11.212593
-8.469169 -11.237748
-9.154529 -10.584734
-8.640847 -10.429054
-8.895446 -10.152274
-8.986078 -9.954971
-9.074420 -9.604700
-8.908198 -9.916699
-8.828585 -9.684853
-9.207620 -9.459767
-9.054109 -8.975864
-9.623596 -9.339501
-9.118648 -8.937673
-9.294440 -8.469634
-9.464894 -8.223696
-9.430426 -8.288405
-9.149809 -7.700954
-9.365611 -7.944481
-8.700949 -7.558299
-9.264734 -6.965404
-9.525172 -7.255974
-8.957572 -6.637518
-9.092281 -6.711365
-8.933428 -6.406416
-9.228104 -6.017430
-9.065729 -6.277454
-8.990581 -6.093453
-8.830849 -5.606720
-9.181765 -4.938260
-8.470529 -5.218450
-9.174637 -5.271956
-8.401751 -4.684823
-8.047728 -4.398130
-8.119264 -4.830030
-8.229431 -4.456435
-8.010860 -4.498977
-7.659306 -4.043325
-7.684040 -4.015053
-7.824018 -3.628590
-7.708933 -3.447109
-6.837662 -3.852984
-7.283430 -3.810612
-6.606211 -3.240410
-6.837531 -3.290451
-6.266967 -3.228741
-6.887457 -3.502474
-6.357109 -2.484529
-5.912018 -2.670250
-5.865233 -3.002880
-6.127999 -2.574934
-5.463106 -2.613331
-4.894961 -2.535636
-4.836598 -2.517932
-5.223797 -2.489525
-4.715122 -2.589066
-4.654973 -2.237032
-4.007154 -2.901444
-4.017470 -2.495571
-4.350816 -2.613238
-3.788868 -2.453573
-3.352129 -3.152598
-3.761633 -2.750066
-3.557287 -2.325684
-3.082690 -2.479998
-3.329715 -3.055918
-3.051760 -3.207389
-2.497731 -2.863261
-2.216953 -2.937215
-2.471384 -3.131635
-2.223053 -3.143524
-2.471660 -3.295305
-1.393391 -3.612899
-1.666047 -3.540850
-1.524422 -3.181845
-1.452249 -3.688527
-1.325333 -4.040954
-1.227174 -4.157883
-0.829123 -4.459918
-1.014393 -4.127414
-0.968982 -4.499820
-1.207924 -4.475345
-1.162176 -4.690303
-0.928710 -5.136939
-0.669447 -5.203771
-1.032257 -5.148449
-0.973370 -5.848363
-0.534861 -5.647274
-0.790583 -6.069812
-0.638071 -6.315744
-1.043827 -6.143854
-1.093040 -5.857846
-0.606343 -6.576273
-1.137761 -6.644857
-0.968587 -7.316752
-0.973617 -6.990841
-1.317110 -6.849754
-1.319307 -7.121519
-1.597664 -7.657932
-1.446353 -7.633592
-1.631381 -7.756443
-1.775148 -7.646493
-1.866775 -8.223026
-1.919649 -8.172359
-2.078824 -8.465569
-2.551607 -8.629017
-2.292619 -8.931376
-2.212331 -8.548228
-3.065577 -8.870591
-2.756769 -8.987128
-3.127959 -8.905078
-3.286603 -8.575794
-3.141510 -8.911285
-3.657047 -8.944378
-3.803852 -9.219063
-3.772999 -9.239606
-3.921425 -9.391648
-4.143737 -9.689928
-4.742916 -9.202257
-4.453828 -9.120692
-4.487764 -9.307572
-5.167642 -9.581477
-5.391262 -9.356408
-5.530709 -9.257614
-5.685141 -9.527854
-6.107709 -9.114887
-6.444182 -9.107835
-5.980194 -8.193663
-5.912167 -9.033032
-6.793754 -8.847071
-6.691795 -8.072701
-6.469469 -8.538404
-7.422639 -8.634059
-7.576902 -8.738870
-7.652184 -8.128300
-7.522945 -7.952289
-7.881205 -7.990630
-8.394607 -7.880465
-8.198217 -7.792132
-8.455239 -7.356087
-8.555720 -7.237050
-8.620172 -7.088634
-8.937294 -6.640838
-8.778869 -6.609320
-9.100273 -6.380835
-8.899866 -6.421165
-9.103460 -5.944096
-8.936756 -6.061953
-9.365170 -5.770366
-9.465444 -5.437907
-9.476120 -5.043658
-9.181876 -5.409548
-9.602709 -4.991655
-9.454768 -4.603227
-9.470336 -4.491034
-9.448604 -3.932604
-9.568087 -4.558781
-9.276568 -4.063603
-9.467609 -3.445313
-8.842116 -3.461584
-9.109229 -3.237913
-9.124257 -3.138706
-9.177924 -3.205508
-9.105489 -2.754481
-8.997524 -2.251078
-9.009311 -2.436362
-9.209963 -2.198959
-8.923835 -1.521559
-8.727652 -1.679638
-8.765879 -1.855625
-8.574515 -1.300723
-8.202402 -1.361547
-7.933351 -1.091580
-8.166162 -1.078110
-7.805784 -0.602319
-7.516671 -0.658013
-7.698385 -0.779597
-7.553391 -0.130901
-7.552494 -0.627834
-7.033394 -0.628494
-7.031346 0.316498
-6.360978 0.106891
-6.357878 -0.282728
-6.345199 0.161770
-5.994928 0.337623
-5.880635 0.144885
-5.660641 0.634631
-5.048231 0.224397
-5.766006 0.641474
-5.190852 0.698989
-4.781223 0.519134
-5.003077 0.384091
-4.778701 0.115936
-4.602287 0.291118
-4.623633 -0.024566
-4.455138 -0.058898
-4.091564 0.134764
-4.002055 0.186140
-3.918028 0.317552
-3.643310 -0.270708
-3.639337 -0.123286
-3.228701 0.101344
-3.485329 0.130097
-2.956819 -0.789941
-3.486226 -0.833473
-3.723752 -0.384186
-2.527337 -0.417735
-2.493893 -0.517859
-2.661153 -1.076736
-2.425619 -0.878622
-2.123466 -0.907083
-2.339191 -1.172306
-2.015510 -1.610038
-1.965316 -1.499759
-2.036056 -1.279570
-2.524000 -1.812467
-1.485919 -1.587097
-2.121796 -1.310649
-2.009641 -2.152837
-1.519399 -2.166364
-2.153256 -1.652709
-1.851821 -2.501009
-1.146259 -2.319485
-2.202322 -2.691982
-2.018096 -3.102515
-1.741310 -2.786293
-2.220279 -2.849686
-1.752676 -3.109246
-1.584809 -3.626976
-2.586262 -3.210234
-1.253074 -3.864556
-1.897921 -4.404856
-2.260746 -3.489167
-1.948728 -4.188896
-2.166188 -4.258568
-2.563033 -3.354094
-2.417585 -4.213372
-2.232505 -4.597683
-2.528217 -4.244377
-2.751298 -4.414066
-2.492846 -4.520192
-2.716806 -4.662124
-3.298016 -4.861114
-2.684693 -5.028955
-2.929445 -4.966538
-3.283448 -5.220483
-3.022194 -5.070642
-3.482655 -5.335025
-3.823754 -5.053821
-3.206331 -4.984786
-3.394210 -5.207524
-4.043700 -5.701473
-3.889574 -5.578219
-3.820080 -5.500084
-4.600031 -5.484762
-4.677393 -5.923392
-4.361383 -5.742804
-4.625496 -5.217693
-4.844244 -5.597254
-4.671535 -5.421444
-5.468473 -5.253355
-5.289077 -5.170050
-4.884650 -5.123562
-5.397765 -5.096322
-6.089646 -4.902273
-5.571100 -4.970988
-5.757678 -4.842410
-5.866219 -4.855333
-5.904247 -4.982738
-6.338706 -4.936318
-6.337996 -4.416253
-6.102671 -4.514888
-6.101635 -4.536317
-6.531183 -4.380645
-6.426653 -4.472127
-7.123200 -4.214988
-6.786727 -4.284471
-6.779030 -4.057475
-6.933403 -4.524244
-7.090545 -4.432260
-6.951904 -3.339587
-6.949527 -3.571604
-7.150922 -3.759175
-7.075428 -3.443704
-7.184183 -3.238686
-7.040394 -3.635512
-7.230658 -3.538996
-7.400075 -3.087726
-7.574625 -3.328063
-7.131744 -2.603170
-7.860594 -2.720064
-7.483428 -2.963024
-7.466020 -2.178707
-7.229064 -1.998524
-7.306982 -1.982536
-7.409782 -2.405751
-7.670328 -2.084909
-7.695099 -1.943221
-7.543499 -2.003040
-7.552716 -1.764181
-7.654767 -1.567479
-7.673204 -0.958137
-7.466366 -1.635452
-7.312975 -1.480381
-7.483957 -1.085656
-7.473168 -1.126824
-7.155333 -1.191174
-7.304669 -0.664482
-7.219529 -0.751456
-7.098997 -0.499995
-7.030886 -0.650844
-7.225397 -0.558069
-6.767422 -0.516273
-7.540010 -0.308280
-7.504865 -0.442199
-6.931317 -0.095040
-7.010631 -0.236428
-6.857155 0.154931
-6.362932 0.221481
-6.220728 0.230851
-6.900957 -0.032151
-6.305964 0.547100
-6.081854 0.706437
-6.301891 0.602182
-5.735622 0.448061
-6.239958 0.354532
-6.122115 0.694795
-6.305952 0.594516
-5.951202 1.064002
-5.923201 0.861020
-5.684798 0.863430
-5.357507 0.892587
-5.368816 1.052692
-4.945703 0.928490
-5.152664 0.721015
-5.600079 0.592193
-5.115883 1.032866
-5.147451 1.088192
-4.954816 1.122821
-5.215093 0.918121
-4.899462 1.138603
-4.677004 0.641491
-4.919759 0.843909
-4.761396 1.129891
-4.459270 1.004613
-4.234703 0.891353
-4.268831 0.974880
-3.982005 1.083853
-3.712395 0.725650
-4.091666 0.673355
-3.955267 0.917152
-3.376627 0.851696
-3.585780 0.580697
-3.539795 0.871889
-3.930631 0.731513
-3.357257 0.756242
-3.141167 0.694690
-3.551679 0.419692
-3.508299 0.442130
-2.794387 0.429503
-3.130974 0.717289
-3.012714 -0.135462
-3.167682 0.433879
-3.104327 0.420898
-3.260192 0.497478
-2.572579 0.169944
-2.588086 0.005517
-3.304781 0.260715
-2.875156 0.297890
-2.381064 -0.041048
-2.709236 -0.272117
-2.544722 -0.659498
-2.412423 -0.519060
-2.575675 -0.454152
-2.710337 -0.355469
-2.610363 -0.819001
-2.167965 -0.763409
-2.520937 -0.740162
-2.086237 -0.711330
-2.287043 -1.073424
-2.436183 -1.091642
-2.617748 -1.706174
-2.470872 -1.334538
-2.820194 -2.031376
-3.059932 -1.663122
-2.170248 -1.141467
-2.557202 -1.630091
-2.561829 -1.674186
-2.327196 -1.614909
-3.064119 -2.093854
-3.057944 -2.043501
-2.790310 -1.493099
-2.364592 -1.514504
-2.681237 -2.426267
-3.178587 -2.164506
-3.132123 -2.260127
-2.716590 -2.508263
-2.763298 -2.607202
-2.956915 -2.943014
-3.343734 -2.583206
-3.259014 -2.572728
-3.014333 -2.774852
-3.653951 -2.738476
-3.070294 -2.154401
-3.221802 -3.254453
-3.894346 -2.686240
-4.141145 -2.801708
-3.968944 -2.566105
-3.380904 -2.916017
-3.865318 -3.206699
-4.161913 -2.903499
-4.175255 -2.611571
-4.366262 -3.408867
-3.974994 -3.358421
-4.142599 -3.283948
-4.653472 -3.101498
-4.420137 -3.215320
-4.835429 -3.376032
-4.391140 -3.149456
-5.042893 -3.014581
-4.725850 -3.117830
-5.146465 -3.120207
-5.625209 -3.118411
-5.149111 -2.667360
-5.267482 -3.436977
-6.145134 -3.178190
-5.656830 -2.609381
-5.974871 -3.375278
-6.188720 -3.254153
-6.366328 -3.113654
-6.522791 -3.126976
-6.149185 -2.863875
-5.967494 -2.451802
-6.209124 -3.265556
-6.479194 -3.199732
-6.984219 -2.466062
-6.529531 -2.502782
-6.563397 -2.416034
-6.817266 -2.762305
-7.068988 -2.167753
-7.096293 -1.621744
-7.218154 -2.473699
-6.908286 -1.503858
-7.403269 -1.558751
-7.256328 -1.697468
-7.405499 -1.064312
-7.289052 -1.041720
-7.058266 -1.409964
-7.779879 -1.487946
-7.581252 -1.294022
-7.357247 -1.209489
-7.804773 -1.071645
-7.514227 -0.980449
-7.586986 -0.328696
-7.796653 -0.300203
-7.446716 -0.614916
-8.040657 -0.170480
-7.718405 -0.179867
-7.375599 0.434880
-8.019898 0.478007
-7.135380 0.359312
-7.383355 0.721060
-7.412536 0.311744
-7.100326 0.658972
-7.645706 0.853939
-7.120909 1.014134
-6.990231 1.355829
-7.658699 0.862724
-7.327070 1.050651
-7.003814 1.389714
-7.258606 1.056950
-7.322833 1.510058
-7.217381 2.175442
-7.122045 1.871065
-6.618604 2.050752
-7.052785 1.609745
-6.272592 2.006719
-6.231082 2.224967
-6.580862 2.085569
-5.833085 2.307688
-6.072298 2.140981
-6.161151 2.142710
-6.139188 2.867993
-5.450803 2.688778
-5.477964 2.227008
-6.545065 2.765152
-5.917938 2.753225
-5.534156 2.913639
-5.494420 3.138993
-5.077468 2.523214
-5.461974 2.571421
-5.387407 2.870623
-5.205527 2.744921
-5.015206 2.604330
-5.029402 2.546517
-4.872316 2.716667
-4.930700 2.808732
-4.145696 2.319938
-4.533853 2.585652
-4.381807 2.616807
-3.579371 2.472703
-4.186774 3.007296
-4.080798 2.586962
-3.560019 2.446720
-3.850237 2.363083
-3.575650 2.828367
-3.767363 2.667548
-3.704608 2.617558
-3.569283 2.243472
-3.147562 2.316529
-3.470415 2.019978
-3.499200 2.567219
-2.493714 2.124222
-2.607201 1.482163
-3.075635 1.714647
-2.754998 2.036962
-2.691841 1.697626
-2.515223 1.928479
-2.339192 1.387791
-2.958552 1.450931
-2.020946 1.347956
-3.117885 0.977368
-2.608030 1.381503
-2.575405 1.219829
-2.478895 1.123026
-2.694990 0.571180
-2.858398 0.907818
-2.511478 1.471210
-2.058716 0.324523
-2.389573 0.237310
-2.341883 0.113870
-2.688865 0.347813
-2.258954 0.472229
-2.719081 0.394002
-2.348349 0.035007
-2.307671 -0.528791
-2.679030 -0.477080
-2.808537 -0.339311
-2.618677 -0.419568
-3.550155 -0.341925
-3.373152 -0.365382
-2.838043 -0.698376
-3.073871 -0.730147
-3.233944 -0.440633
-2.943592 -0.766281
-3.084355 -0.771020
-3.396375 -0.939846
-3.330499 -0.765344
-3.855786 -1.286903
-3.717957 -0.585545
-3.475135 -0.752054
-3.745970 -1.100042
-3.600021 -1.270000
-4.154775 -1.105836
-3.854409 -1.242576
-3.635615 -1.234293
-3.697122 -1.538928
-3.877121 -1.280198
-4.459157 -1.425750
-4.280216 -1.204665
-4.271161 -1.251259
-4.372922 -1.370323
-4.695333 -1.555779
-4.563766 -1.186296
-4.834338 -0.818765
-4.701840 -1.738248
-5.064992 -1.709902
-4.959503 -1.104585
-5.079762 -1.102437
-4.905594 -1.445510
-5.120876 -1.255774
-5.708526 -0.903330
-5.234189 -0.766862
-5.408655 -0.930328
-5.774587 -0.738268
-5.798707 -0.936860
-5.527125 -0.977165
-5.782691 -1.208770
-6.117156 -0.923134
-6.022851 -1.014352
-5.945119 -0.894287
-6.035736 -0.773604
-5.933316 -0.945236
-6.125542 -0.883483
-6.546560 -0.820947
-6.448319 -0.783308
-6.555806 -0.535850
-6.682377 -0.035439
-6.669948 -0.149989
-6.323760 -0.557896
-6.620487 -0.065919
-6.526911 -0.175917
-6.263767 -0.304182
-6.579832 -0.189813
-7.392083 -0.350560
-6.857344 0.109066
-6.779823 0.344506
-6.344088 0.402250
-6.980457 0.034969
-6.946985 0.778773
-7.173764 0.587357
-6.792199 0.529317
-6.884803 0.856851
-6.987525 0.780234
-6.674518 0.947913
-6.917194 0.549257
-7.455636 0.644820
-7.201718 0.996835
-7.189869 0.961594
-7.499435 0.914232
-7.236645 1.111580
-6.840872 1.499106
-7.233866 1.093600
-7.295572 1.585950
-6.913509 1.394043
-7.155557 1.587296
-7.293203 1.940098
-7.381129 2.188295
-7.145645 1.755788
-7.209625 1.818609
-7.298256 1.947447
-7.320013 1.806892
-6.691097 1.600478
-7.436389 2.349912
-7.349285 2.078991
-6.958718 2.730540
-6.836225 2.623463
-6.941423 2.626527
-6.960961 2.671734
-6.579909 2.643124
-6.941658 2.719404
-6.912813 2.879792
-6.845076 2.921783
-7.090708 2.500260
-6.780659 3.078736
-6.855773 3.542577
-6.379685 3.446643
-6.849968 3.421945
-6.866617 3.818066
-6.163957 3.367732
-6.582187 3.537241
-6.732705 3.302628
-6.389965 3.745654
-6.196501 4.025272
-6.340134 3.787514
-6.312641 3.488971
-6.416583 3.833912
-6.514708 4.541626
-5.405681 3.765024
-5.781169 4.006248
-6.110255 4.019699
-5.668218 4.141435
-5.430193 4.368514
-5.696125 4.415843
-5.607706 4.143806
-5.071183 4.339137
-5.308114 4.073673
-5.170820 4.483489
-4.835440 4.412660
-4.916859 4.197338
-4.710627 4.311280
-4.716181 4.272603
-4.680378 4.715600
-4.662959 4.516818
-4.533272 4.160561
-4.882445 4.220666
-4.560389 4.553061
-4.556774 4.578100
-4.920253 4.122576
-4.631294 4.397222
-3.741930 4.870287
-4.046783 4.383187
-4.035670 4.136471
-3.791977 4.448655
-4.009261 4.552035
-3.867819 4.327591
-3.577037 4.481457
-3.522234 4.277933
-4.295325 4.179066
-3.235458 4.417902
-2.946631 3.866211
-4.025402 3.567199
-2.920260 4.233221
-2.407820 3.723315
-3.092850 3.960021
-2.407237 3.505575
-2.838468 3.840527
-3.239254 3.417301
-2.533625 3.024733
-2.806666 3.804734
-3.129223 3.429478
-2.496025 2.920834
-2.703709 3.625167
-2.834941 3.035496
-2.328507 2.080421
-2.611392 2.939857
-2.589382 2.530728
-2.737482 2.280765
-2.394656 2.813033
-2.417070 2.451878
-2.655435 1.765430
-2.158111 1.997822
-2.571785 2.378014
-2.426996 1.756530
-2.037461 1.429759
-2.733687 1.466974
-2.753730 1.026636
-2.202611 1.817310
-2.857677 1.284178
-2.711792 1.230255
-3.017181 1.450031
-3.417740 1.343032
-2.895121 0.690106
-3.016390 1.224833
-2.938419 0.219609
-3.585351 0.353031
-3.713334 0.178884
-3.651488 0.366786
-3.586333 0.276059
-3.701011 0.354107
-3.989643 -0.086715
-4.244439 -0.023239
-4.139875 0.418698
-3.930904 -0.022808
-5.037885 -0.671307
-4.989364 -0.108931
-4.667324 -0.285158
-5.325678 -0.443480
-5.317844 -0.417515
-5.500081 0.138904
-5.357989 -0.403009
-5.326321 -0.339845
-5.733072 -0.338173
-5.936717 0.130599
-5.706018 0.142141
-5.828974 -0.168271
-6.603139 0.058608
-6.697138 0.452100
-6.588962 0.244808
-6.344473 0.443140
-7.198216 0.119641
-7.217293 0.217051
-6.912790 0.485680
-7.532445 0.381428
-7.686359 1.039418
-7.824461 0.792852
-8.098412 0.597795
-8.190470 1.207880
-7.970251 1.010727
-8.228321 1.088404
-8.774417 1.534469
-8.204271 1.842416
-8.574048 1.409919
-9.022291 1.644127
-8.956115 1.815817
-8.682884 2.089746
-8.927294 1.970642
-9.471772 2.462042
-9.664517 2.602661
-9.098487 3.110114
-9.454531 3.039507
-9.422916 3.442772
-9.467990 3.686564
-9.655995 3.738768
-9.637350 4.001945
-9.591213 4.142880
-9.481105 4.494362
-9.817783 4.557310
-9.672421 4.423321
-9.687002 5.234846
-9.355604 5.117199
-9.481595 4.937655
-9.614751 5.685820
-9.500671 5.819646
-9.302285 6.042418
-8.877454 6.189943
-9.287584 6.432435
-8.834097 6.549247
-8.926399 7.010754
-8.589182 6.738008
-8.684515 6.918337
-8.731746 7.266667
-8.313847 7.255518
-8.333912 7.286346
-8.115730 7.832084
-7.689963 7.896897
-8.243361 7.508233
-7.708113 7.990431
-7.539364 8.560818
-7.209210 8.581197
-7.487764 8.722364
-6.905864 8.792275
-6.714638 9.136951
-5.977160 8.581259
-6.094974 8.682377
-5.985621 9.211928
-5.611173 8.945586
-6.139970 9.122228
-5.546358 9.299440
-5.466215 9.382201
-5.346461 9.320159
-4.672831 9.156189
-5.175587 9.263155
-4.600127 9.176713
-4.436256 9.214910
-4.186586 9.443956
-3.883678 9.281382
-3.416516 9.390344
-3.536085 9.424419
-3.309849 9.122623
-3.235153 8.730800
-2.709776 8.630377
-2.799612 8.812544
-2.517144 8.808877
-2.521197 8.624114
-2.501739 8.227080
-2.273636 8.432717
-2.230615 8.319627
-1.765626 7.913379
-1.499491 7.949378
-2.001499 7.852956
-1.732665 7.390396
-1.310719 7.289059
-0.887476 6.976595
-1.060950 6.972342
-1.487812 6.798097
-1.076659 6.851386
-0.762655 6.615527
-0.707310 6.296574
-0.780064 6.196102
-0.901114 6.013110
-1.140475 5.923185
-1.095154 5.546885
-1.044655 5.160699
-0.594596 5.382030
-0.756303 4.943530
-1.004939 5.209948
-1.328588 5.015961
-0.864052 4.262527
-1.130743 3.960513
-1.311473 4.243653
-1.165800 3.951401
-1.142978 4.128536
-1.826693 3.747024
-1.455689 3.512587
-1.427268 3.835500
-1.437050 3.547328
-2.040314 3.369639
-2.114901 3.416996
-2.146280 2.950118
-2.307707 2.656335
-2.547749 3.222712
-2.497966 2.457226
-2.960667 2.742700
-3.123446 2.370089
-3.016976 2.413002
-2.830907 2.295731
-4.047314 2.379632
-3.903500 1.973506
-4.076437 2.285891
-4.304530 1.644007
-4.338453 2.160690
-4.715647 2.487507
-4.859709 2.321061
-5.209178 1.893811
-5.098084 2.263474
-5.778286 2.309321
-5.445214 2.661017
-5.861327 2.358745
-5.995491 2.362182
-6.189192 2.391450
-5.968459 3.037493
-6.502615 2.676367
-6.889594 2.602150
-7.366017 2.925265
-6.990171 2.815044
-7.387971 2.917734
-7.739006 3.493720
-7.597578 3.786781
-7.883671 3.407415
-7.991701 3.898594
-8.132518 3.816170
-8.370313 4.584099
-8.525309 3.611428
-9.155009 4.509040
-8.705365 4.727101
-8.470697 5.009956
-8.927436 5.162593
-9.059654 5.272665
-9.132629 5.568398
-8.595423 5.596239
-9.170512 5.606645
-9.608649 6.109257
-9.307207 6.113127
-9.080287 5.928975
-9.447496 6.937199
-9.337340 6.986302
-9.369591 7.356003
-9.413359 6.872462
-9.217838 7.663289
-9.488830 7.876107
-9.141093 8.368921
-9.496321 8.422055
-9.181417 8.358533
-9.030790 8.771833
-9.210647 9.128507
-9.151827 9.083525
-9.244369 9.257699
-9.395364 9.385172
-8.844253 9.463839
-8.974233 10.376606
-9.152893 9.897916
-8.332350 10.526794
-8.497198 10.835005
-8.291417 10.959912
-8.089821 10.678785
-8.085829 11.112965
-8.173939 10.989214
-7.402901 11.471995
-7.909387 11.851226
-7.928393 11.356088
-7.546442 12.433406
-7.204584 11.895801
-7.023329 12.382602
-7.604425 12.545820
-6.996463 12.625171
-6.406023 12.679499
-6.494413 12.667108
-6.686832 12.649199
-6.444584 12.950962
-5.945156 12.640040
-5.561135 12.723064
-5.870065 12.853871
-5.731181 12.981936
-5.426332 13.075679
-5.168538 13.201142
-4.908096 13.546706
-5.511104 13.312551
-4.746735 12.983573
-4.689550 13.236715
-4.518660 13.216913
-4.555967 13.591225
-4.192095 13.372252
-4.206060 13.275657
-3.923858 13.317289
-3.588376 13.741222
-3.472735 13.132784
-2.980856 13.000050
-3.330982 13.259539
-2.896356 13.661684
-3.253447 13.350915
-3.068626 13.077191
-2.825942 13.414510
-3.112490 13.413868
-2.275125 13.239778
-2.450546 12.894334
-2.422544 13.067449
-2.313210 12.996396
-2.270518 12.960768
-2.082605 12.994448
-2.132553 12.659008
-1.686418 13.256888
-1.820249 12.278308
-1.862884 12.793451
-1.401034 12.343342
-1.110776 12.820662
-1.584211 12.778117
-1.837253 12.294341
-1.083033 12.589269
-0.917488 12.562854
-1.266507 12.553762
-1.110596 12.162508
-1.335382 12.212743
-0.782540 12.252744
-0.927649 11.504741
-1.278401 12.130332
-0.510413 11.533242
-0.538621 12.455079
-0.706560 11.714678
-1.045982 11.773069
-0.653829 11.571768
-0.607304 11.572808
-0.921211 11.695508
-0.411837 10.971449
-0.886476 11.066954
-0.300720 11.293245
-0.644493 10.932799
-0.383485 10.802423
-0.167005 11.107506
-0.375978 11.266709
-0.271396 10.619059
-0.506528 11.004250
-0.428143 10.709114
-0.167630 10.817843
-0.392975 10.429222
-0.720408 10.592763
-0.194741 10.130447
-0.363798 10.754256
-0.678271 10.425964
-0.452338 10.269958
-0.437955 10.708888
-0.787266 9.914836
-1.103673 9.788850
-0.815585 9.589597
-0.565307 9.597324
-0.653791 9.644561
-0.981946 9.305572
-1.024244 9.857261
-1.257528 9.403908
-1.505156 9.806460
-1.660016 8.978203
-1.574200 9.296341
-1.870625 8.843977
-1.820806 9.134558
-1.921426 8.666866
-1.892183 8.199372
-1.361442 8.855773
-2.629096 9.027940
-2.372348 8.455351
-2.851469 8.959114
-2.973082 8.591114
-3.136262 8.003757
-3.045585 8.126339
-3.203509 8.433531
-3.934275 8.336746
-3.726586 8.341630
-4.448122 8.325550
-4.231229 8.243404
-5.033834 8.320569
-4.697314 8.273067
-5.508865 7.760764
-5.905043 8.852726
-5.987180 8.037387
-6.269357 8.546436
-7.066784 8.087552
-6.849860 8.945089
-7.545421 8.631535
-7.853691 8.614707
-7.985825 8.212245
-8.676953 9.142440
-8.742146 9.356357
-8.311153 9.742978
-9.668446 10.039558
-11.078101 10.098499
-9.826392 9.621680
-10.701104 10.084298
-11.754320 10.209339
-11.201009 10.883958
-11.629359 11.429117
-12.447438 11.350476
-13.277087 11.842328
-12.947980 12.274644
-13.567633 12.789459
-14.023854 13.678036
-14.462712 13.690665
-14.688201 14.609253
-15.265181 14.900765
-15.185224 14.817945
-15.807886 15.977187
-15.891251 16.833498
-16.955394 16.671476
-16.277352 17.401574
-17.643666 18.372028
-16.719134 19.172832
-17.169514 19.858469
-18.569838 21.371443
-18.475427 20.775893
-18.451490 22.340185
-19.017816 22.707755
-17.889379 23.570148
-18.608080 24.796865
-18.819275 26.160486
-19.392807 26.120807
-19.061195 27.435716
-19.469819 27.868732
-18.560740 29.945915
-18.668282 29.961378
-19.213134 31.916550
-19.165113 32.687364
-19.445594 33.206837
-18.857463 33.798624
-17.723588 36.170419
-18.521026 36.083879
-16.721285 38.023550
-17.405847 39.703770
-17.446639 39.831045
-16.195534 40.098489
-16.010081 44.023886
-15.747021 42.771984
-15.262097 44.422019
-14.941982 46.352761
-14.125061 46.124442
-13.350380 46.700513
-11.720214 49.132444
-11.713477 49.543486
-10.878799 51.447414
-9.952531 51.682479
-8.484194 53.714544
-8.443847 53.717153
-6.965928 55.983235
-4.784506 56.377141
-6.222892 57.519498
-4.527900 57.387775
-0.688172 58.985621
-1.833212 59.455732
0.753398 60.123009
2.760217 61.677547
2.236346 63.884557
3.818499 61.493145
7.490522 65.361944
6.842254 64.454216
8.630806 65.636074
11.815806 66.681947
10.250997 65.934909
11.830126 65.800861
17.352378 66.829791
17.154270 65.613542
19.650999 69.119260
20.868857 67.919268
23.526581 68.996991
23.754293 67.831187
25.679998 69.645744
30.177325 67.868971
29.538286 71.641555
29.288276 68.686488
34.534991 66.237176
33.168709 68.752554
38.355686 66.955970
43.005867 63.077225
42.937690 72.087808
41.105017 65.710951
49.219647 65.792973
46.460222 65.388257
46.905919 66.048318
55.979418 62.586818
51.374958 66.306025
49.040895 62.860472
59.417602 58.089343
54.191515 55.135776
64.735076 59.388728
65.504897 53.550476
66.122984 59.635486
66.232481 55.464890
66.003422 58.759405
68.491403 41.604267
74.465132 56.512059
68.757836 55.008124
70.628341 37.471224
69.069824 49.538108
71.503284 44.409616
69.983887 5.474959
103.557750 50.712026
77.035749 36.662511
85.722593 26.299140
91.060737 40.990785
63.283332 52.793646
86.792040 -15.399680
100.724378 45.197376
50.580578 54.272299
82.995395 -9.283313
2.942651 -8.691679
90.555538 -8.858649
60.836270 -219.668199
116.277320 20.031013
230.289567 -138.753659
91.558713 168.817974
-1786.702350 -1024.501277
-508.345309 307.486171
