11846.129696 11835.109723
-8366.026536 3637.294197
-23.179871 -171.175088
35.977013 -11.226994
140.338679 -72.434776
40.381393 -196.234592
-1291.513823 106.568481
81.636970 -181.076234
28.473674 -54.573328
107.996595 -36.594076
59.934472 -51.968068
-30.156075 6.813097
85.803296 -70.300711
10.625503 -89.955173
27.116286 -58.992256
36.873929 -39.764061
21.238101 -40.938016
68.841881 -40.258407
24.564251 -59.771709
48.124883 -24.246904
46.505578 -44.101382
40.173439 -21.739865
36.243699 -36.071140
43.864705 -39.194097
39.937635 -41.684374
35.714646 -39.526289
57.136164 1.293393
22.483540 -38.844949
45.867996 -59.608926
34.172193 -40.260577
46.560036 -45.292773
54.759521 -35.856850
24.353451 -39.969633
37.029778 -29.875592
25.686440 -41.013005
31.438447 -36.451024
31.342438 -16.921220
11.627540 -53.095500
34.144793 -46.646248
33.596718 -37.400750
30.523213 -37.083308
32.360625 -55.405711
24.682739 -46.681189
19.243338 -38.812891
20.872377 -45.071417
17.936061 -47.139276
22.813082 -45.044408
26.263525 -43.761836
26.360369 -43.797153
24.092687 -33.800307
26.682449 -38.223954
31.619033 -43.633814
28.287698 -48.786911
20.024248 -45.398382
14.592526 -52.372478
18.819896 -43.444671
20.344612 -40.190587
21.444214 -35.043134
20.637335 -31.323448
14.642059 -22.077633
9.352524 -43.780199
13.556927 -33.846481
10.911581 -43.061724
8.247746 -43.900672
2.766938 -37.152704
10.888077 -39.371620
16.671748 -39.705847
8.772854 -39.078896
9.276147 -39.734920
3.215490 -33.979674
20.601928 -40.292134
2.991259 -42.106918
10.442565 -39.522506
7.729867 -37.865113
11.906829 -47.968832
-1.965201 -47.312146
16.414883 -32.858629
-1.394076 -36.118187
10.634496 -48.716931
6.294880 -41.806595
9.389127 -25.550352
-3.956082 -34.439590
-3.159199 -32.981948
8.674180 -33.946434
7.111203 -33.178901
0.600579 -38.866648
-8.397481 -32.872860
0.600459 -33.738554
1.637496 -25.150069
-3.759394 -29.616431
-6.986105 -33.566806
-16.061382 -37.389010
-2.220603 -36.928521
-4.438136 -31.623759
1.751813 -31.148270
-3.020333 -31.309547
5.611627 -27.010426
-4.837880 -35.065582
1.274393 -31.269348
-3.143077 -22.874363
-0.195443 -24.121984
-2.541898 -32.756142
-0.852503 -26.895073
-0.941796 -25.701356
-2.062015 -39.832035
-4.139785 -25.028468
-7.778401 -28.197953
-1.997180 -29.557147
-11.947051 -26.516910
-2.381529 -29.706717
-10.190693 -24.498561
-5.051281 -25.650115
-8.628308 -19.191138
-4.924109 -18.469407
-11.409496 -20.691150
-13.116250 -23.021307
-8.924204 -23.670426
-5.264053 -16.427043
-10.301929 -17.168216
-2.636356 -27.199587
-11.150401 -21.998906
-7.218976 -13.049671
-2.277337 -19.129492
-5.067355 -17.439242
-0.998126 -18.785685
-7.743005 -26.931948
-9.375529 -13.659326
-4.707853 -10.090636
-1.175293 -15.992236
-9.564616 -15.608137
-7.368828 -17.600739
-5.017910 -24.629973
-8.943691 -15.061315
-11.386585 -13.780130
-4.954801 -19.399600
-6.273761 -11.611657
-3.678074 -17.743817
-7.430434 -12.352992
-5.578135 -16.620848
-7.051889 -15.940493
-6.503466 -14.578183
-4.966830 -6.798651
-8.788269 -11.650961
-6.473192 -8.134771
-6.511606 -12.632134
-5.713853 -14.426593
-7.174780 -11.220606
-7.155053 -13.229801
-2.939050 -10.571634
-5.172401 -10.849926
-6.171566 -11.516206
-6.093656 -9.230430
-9.330628 -9.914397
-4.232943 -6.431619
-6.187544 -6.094872
-6.123795 -8.687858
-2.528800 -6.838891
-3.879589 -7.600461
-3.593071 -6.149806
-3.428904 -4.957844
-2.258369 -5.215957
-1.697964 -6.637384
-0.673527 -6.408229
-3.687660 -7.244505
0.858558 -5.407806
-1.804201 -4.307297
-1.685040 -3.667927
-2.681174 -6.268031
-3.532950 -4.285944
-0.326895 -4.679771
0.416540 -6.327993
1.939225 -4.447039
1.827699 -3.552661
3.065494 -5.379897
1.280787 -5.659762
0.453322 -2.347560
1.941451 -2.509299
-0.001785 -5.222326
5.100675 -3.466229
1.500503 -1.898608
5.726387 -4.762425
3.327698 -6.030330
1.881633 -3.698716
3.739130 -3.602296
4.329390 -2.204429
4.224723 -2.361687
3.704808 -4.159862
5.304362 -3.179577
6.372026 -4.841209
3.814835 -6.044584
4.242855 -1.744780
6.145623 -3.976612
6.656646 -3.833518
6.145823 -3.129310
5.776662 -3.771774
8.209800 -5.706474
7.066079 -3.991319
5.517406 -4.578327
7.627278 -5.042685
5.847271 -4.801272
7.309879 -6.154834
6.567345 -4.545318
6.943408 -5.607396
9.575955 -5.253048
9.536698 -5.853622
9.138824 -5.839226
8.744414 -4.709652
10.327374 -6.600609
9.127154 -5.476731
12.013758 -4.400964
9.503574 -6.585132
10.351281 -6.760790
10.006520 -5.928099
10.283330 -7.276068
10.059415 -8.460614
11.367464 -7.333611
10.845842 -8.034641
9.614895 -8.147293
9.853352 -8.353086
11.879741 -6.931577
12.711982 -9.708422
10.959294 -9.152408
11.074842 -7.705797
10.843873 -9.732116
12.693730 -9.806549
11.654953 -7.751011
11.396027 -9.717191
11.517902 -9.904979
11.736117 -8.986641
11.693182 -11.161056
11.892304 -9.936481
12.022058 -10.948915
12.092270 -10.726501
13.243174 -11.925171
13.834285 -11.519023
12.499883 -12.175064
12.805315 -13.252916
11.092144 -11.907900
13.798885 -11.881410
12.681563 -12.957509
12.578626 -13.953839
13.396065 -13.006749
13.335395 -14.845091
11.345414 -14.016960
13.292235 -14.337811
12.251292 -14.109457
11.536602 -15.208214
12.214046 -14.979194
11.888087 -15.099680
12.194802 -14.605892
11.620175 -17.093884
11.673356 -16.373904
11.338776 -15.436154
12.706570 -17.005141
12.158118 -18.425165
12.165522 -16.951927
12.570663 -17.962896
11.592631 -19.077483
11.260294 -17.380299
11.337570 -18.783885
10.717676 -18.783415
10.484839 -19.427227
10.381103 -18.175394
10.969132 -19.075456
10.823648 -18.815337
10.159906 -19.887603
9.698305 -20.146817
9.929389 -20.179862
10.216435 -20.397543
8.424891 -19.803417
9.515217 -20.132631
9.101093 -21.158309
8.959994 -21.162572
8.412133 -21.343136
8.737314 -21.300942
8.260491 -21.198137
9.360354 -22.718310
7.493702 -22.451012
6.465508 -21.385619
6.582735 -22.609404
7.627069 -22.425090
6.966709 -22.581514
6.501645 -22.396490
6.903556 -23.417420
6.123395 -23.518350
5.303604 -23.837229
5.413220 -22.993963
5.273035 -23.540657
5.363062 -22.797311
4.563362 -23.290627
4.151169 -23.574621
4.479325 -23.298412
3.783345 -23.570790
3.842248 -24.172762
2.479482 -24.196717
3.152664 -23.224931
3.361330 -23.638373
2.319621 -24.889512
1.865501 -23.967537
0.963660 -24.369289
1.889789 -24.580959
1.480171 -24.973228
0.988139 -24.030372
0.834284 -23.393717
1.043427 -24.047890
0.408875 -23.479546
0.457932 -24.451499
0.173921 -23.712081
-0.608211 -24.448483
-0.799275 -23.769277
-1.952986 -23.895043
-0.779927 -23.679667
-2.467804 -23.739558
-1.811543 -23.453873
-2.318046 -24.054731
-2.820598 -24.068992
-2.945835 -23.242080
-2.993500 -23.296104
-2.780250 -23.533002
-3.423823 -23.850199
-3.602977 -22.881774
-3.866717 -22.965605
-3.904243 -23.359417
-4.326329 -23.117540
-4.475855 -23.388542
-5.325646 -23.048393
-5.548128 -22.765234
-5.919234 -23.032391
-6.413478 -22.238948
-6.026018 -21.887550
-6.347381 -22.626915
-6.287234 -23.121863
-6.567247 -21.595141
-7.416730 -21.722044
-6.832892 -21.135057
-7.961049 -21.468353
-7.560553 -21.610114
-7.801063 -20.924003
-7.625951 -21.053134
-8.794455 -21.254380
-7.565594 -20.537310
-8.485431 -20.127646
-8.693918 -20.106534
-9.280581 -19.762334
-8.863743 -20.471979
-8.796915 -20.520223
-10.034154 -19.901515
-10.148452 -19.420105
-9.406119 -18.721207
-9.499008 -18.956573
-9.863331 -18.785673
-10.288918 -18.936718
-10.326639 -18.817432
-10.295815 -18.309414
-11.063094 -18.028540
-11.215442 -17.015751
-10.777524 -16.660906
-10.383417 -16.955135
-11.319459 -17.225723
-11.439163 -17.131541
-11.188725 -16.635242
-11.417241 -16.960509
-12.047572 -16.512078
-11.621676 -15.411683
-11.251585 -15.861049
-12.327219 -15.766059
-12.204248 -15.332586
-12.384704 -14.843576
-12.630989 -14.642437
-12.391043 -15.127970
-12.003161 -14.297615
-12.425668 -14.753388
-12.345825 -14.179617
-12.120138 -13.906898
-12.099719 -13.153675
-12.313210 -13.309564
-12.393358 -12.799547
-12.753563 -12.888087
-12.230211 -12.385966
-12.404081 -12.582834
-12.795683 -12.417494
-12.512243 -11.497361
-12.248018 -11.858484
-12.615374 -11.827114
-11.604162 -11.242625
-12.215578 -11.547393
-12.200523 -11.193581
-12.352764 -10.667989
-12.722532 -10.665365
-12.052235 -10.258482
-11.465424 -10.768678
-12.195192 -9.849442
-12.661783 -10.127415
-12.007070 -9.814708
-12.820640 -9.772566
-12.004349 -9.002090
-11.648655 -9.257461
-12.180905 -8.835596
-11.910954 -9.116947
-11.580512 -8.727711
-11.946246 -8.204445
-12.429953 -7.948393
-10.829424 -8.004482
-11.455118 -8.100307
-11.624015 -8.054227
-11.528847 -7.736057
-11.210933 -7.537552
-11.957259 -7.820585
-11.102096 -7.228757
-11.121610 -6.662428
-11.595750 -6.938188
-10.727601 -7.239038
-10.467527 -7.018329
-10.781318 -6.410937
-11.184780 -6.802232
-10.726087 -6.378170
-10.422355 -6.135165
-10.378701 -5.982011
-10.200226 -6.014142
-10.473414 -6.231740
-9.813175 -5.386225
-10.160869 -5.758370
-9.642163 -5.700126
-10.267337 -5.423370
-9.708180 -5.331922
-9.094896 -5.217685
-9.370324 -5.409211
-9.272251 -5.232027
-9.179118 -5.003017
-9.356493 -5.160817
-9.134160 -5.075796
-8.840879 -4.311792
-8.676641 -4.623419
-8.470295 -4.705429
-8.309923 -4.706481
-8.775525 -4.460144
-8.253636 -4.949598
-8.072189 -4.677548
-8.184228 -4.158369
-8.063623 -3.744738
-8.210115 -4.579154
-7.335892 -4.480752
-7.394325 -4.696686
-7.555532 -4.136351
-7.244551 -4.053607
-7.287871 -4.478481
-7.586222 -4.427951
-7.363172 -4.282825
-6.840770 -4.296467
-7.035148 -4.365200
-6.781512 -4.157656
-6.597994 -3.899726
-6.878994 -3.563497
-6.585432 -4.130206
-6.057239 -4.207167
-6.078672 -4.161595
-5.888194 -4.472192
-6.279962 -4.363529
-6.581011 -4.089926
-5.927512 -4.375034
-5.831366 -4.190379
-6.284775 -4.441862
-6.280264 -4.472992
-5.813193 -4.356037
-5.666447 -4.386015
-6.075611 -4.067467
-5.290104 -4.208144
-4.825547 -4.146203
-4.910954 -3.832905
-4.781891 -4.513026
-5.118260 -4.586134
-4.749100 -4.604357
-5.283005 -4.549929
-4.355878 -4.243054
-5.107858 -4.845097
-4.591567 -5.082565
-5.315619 -4.979858
-4.500505 -5.306119
-4.723823 -5.296559
-4.915048 -4.690611
-4.554171 -5.211692
-4.818092 -5.110343
-4.507086 -5.139609
-4.981837 -5.344135
-4.296510 -5.199533
-4.730911 -5.495934
-3.963693 -5.063509
-4.654590 -5.478448
-4.157654 -5.666581
-4.798197 -5.048948
-4.432976 -5.559927
-4.246303 -5.550075
-4.050400 -5.744142
-4.695153 -5.650863
-4.558254 -5.302212
-4.032148 -5.901581
-4.520269 -5.696590
-4.728873 -5.904785
-4.115661 -6.087726
-4.185012 -5.804964
-4.646043 -6.135606
-4.671912 -6.234054
-4.207143 -6.189301
-4.103579 -6.084195
-4.300344 -6.034450
-4.482143 -6.443303
-4.406678 -6.999259
-4.373865 -5.567587
-4.819311 -6.438985
-4.543552 -6.148803
-4.705856 -6.217105
-4.617023 -6.264851
-4.606978 -6.479868
-4.649265 -6.862907
-5.113824 -6.547081
-4.501128 -6.339558
-4.720158 -6.613358
-5.017539 -6.268308
-4.715675 -6.492417
-4.867320 -6.931988
-4.945222 -6.460002
-4.941550 -7.403606
-4.840768 -6.716463
-5.717394 -7.184499
-4.402051 -6.582281
-5.116338 -6.778826
-5.236194 -6.635667
-5.130140 -6.887642
-5.157935 -6.828574
-5.453813 -6.305717
-5.264581 -6.688097
-5.483011 -6.729639
-5.611928 -6.681993
-6.016880 -6.702895
-5.621559 -6.757319
-5.645052 -6.435307
-5.537521 -6.888084
-5.788586 -6.840873
-6.406683 -7.110419
-5.976938 -6.951948
-6.071055 -6.779543
-5.769879 -7.283982
-6.263131 -6.686669
-5.944888 -7.039686
-6.438279 -6.762518
-6.311101 -6.570683
-6.355911 -6.693145
-6.320299 -6.638553
-6.520457 -6.781452
-6.787285 -6.287246
-6.552275 -6.778309
-6.213449 -6.380661
-6.712048 -6.332700
-6.837389 -6.387503
-6.649473 -6.230334
-6.971629 -6.496151
-6.818538 -6.513028
-6.682876 -6.392017
-6.656251 -6.044210
-6.958326 -6.189899
-7.146032 -5.624016
-7.283315 -6.583248
-7.150827 -6.344609
-6.700254 -5.840498
-7.334653 -5.841611
-7.235491 -6.191328
-7.093568 -6.140139
-7.403702 -5.463918
-7.500380 -5.643882
-7.573571 -5.818641
-7.609936 -5.625976
-7.753113 -5.900554
-7.540114 -5.541453
-7.535942 -5.221704
-7.881530 -4.933144
-7.311076 -5.354776
-7.720210 -5.443030
-7.778195 -4.783548
-7.945655 -5.172231
-7.616345 -5.151574
-7.709504 -4.969653
-7.658869 -4.724938
-8.153940 -4.769396
-7.861780 -4.688427
-7.671243 -4.867911
-7.586353 -4.534341
-8.021826 -4.949624
-8.081429 -4.573105
-7.875381 -4.018739
-7.585471 -4.336887
-7.554183 -4.073298
-8.063430 -3.781465
-7.776871 -3.986132
-7.654684 -3.742474
-7.353160 -3.827278
-8.129905 -3.665058
-8.139878 -3.415340
-7.888313 -3.298671
-7.584125 -3.588386
-7.716341 -2.850570
-7.928467 -3.176227
-7.663244 -3.010913
-7.977405 -2.817928
-7.354370 -3.203486
-7.987640 -3.214232
-7.498269 -2.986103
-7.987774 -2.875427
-7.703672 -2.816706
-7.486866 -2.871340
-7.268430 -2.636119
-7.472967 -1.939695
-7.414095 -2.426818
-7.668306 -2.137184
-7.533029 -2.352014
-7.550631 -2.281865
-7.535261 -2.298143
-7.401257 -2.268533
-6.916468 -1.534302
-7.039038 -1.782460
-6.970793 -1.896530
-7.081686 -1.296276
-6.665657 -1.968704
-6.488310 -2.120751
-6.858924 -1.630872
-6.372428 -1.769844
-6.558427 -1.294489
-6.433024 -1.283356
-6.575713 -1.267674
-6.451057 -1.348393
-6.656021 -1.295047
-6.233823 -1.137330
-6.072943 -1.055492
-6.091701 -1.036828
-6.188703 -1.591235
-6.031253 -0.968936
-5.745810 -1.026822
-6.104733 -1.219738
-5.964396 -1.314773
-5.896876 -0.938679
-5.890883 -0.961655
-5.854854 -1.102482
-5.595427 -0.394596
-5.345965 -0.805783
-5.164015 -0.499908
-5.345065 -0.378964
-5.221256 -0.626826
-5.231726 -0.929149
-5.168550 -0.784998
-5.215099 -0.748973
-4.686107 -0.663175
-4.514570 -0.548158
-4.683898 -0.309642
-4.725222 -0.959031
-4.149900 -0.768588
-4.323993 -0.452965
-4.460480 -0.935287
-3.833611 -0.626060
-4.105395 -0.305964
-3.804865 -0.909882
-4.235140 0.024820
-4.148969 -0.800002
-3.798472 -1.072813
-3.652503 -0.385082
-3.343527 -0.607041
-3.067163 -0.681739
-3.399267 -0.771437
-3.321951 -0.647992
-3.629098 -0.749097
-3.471362 -0.920409
-2.592144 -0.625179
-3.293828 -0.743391
-2.582921 -0.767682
-2.901439 -0.832121
-2.739031 -1.297229
-2.542779 -0.843398
-2.520890 -1.147967
-2.356614 -1.220895
-2.433576 -1.301693
-2.484390 -1.269924
-2.338873 -1.448118
-2.532256 -1.427478
-2.134205 -1.462901
-1.715864 -2.029646
-1.898748 -1.332830
-2.089870 -2.043289
-2.116200 -2.196733
-1.037472 -1.962033
-1.753318 -2.127561
-1.550050 -2.437593
-1.598394 -2.322361
-1.480142 -2.066371
-1.823635 -2.381066
-1.420523 -2.166858
-1.645766 -2.128415
-1.750666 -2.432583
-1.384977 -2.157854
-1.277525 -2.286544
-1.242025 -2.604803
-1.354227 -2.941584
-0.804477 -2.720668
-0.939259 -2.906994
-1.157238 -3.124564
-1.337146 -3.261509
-1.269318 -2.976555
-0.935180 -3.218300
-1.390507 -3.275216
-0.847370 -3.790885
-0.934124 -3.524342
-1.052434 -3.641009
-1.192690 -3.450386
-0.952914 -4.108497
-1.124696 -4.320159
-1.169935 -3.831137
-0.883511 -4.087436
-0.569833 -4.020664
-1.102228 -4.186129
-1.294884 -4.584614
-0.906153 -4.641327
-0.761926 -5.112943
-0.771854 -5.079902
-1.308981 -4.878436
-0.869339 -4.832200
-1.168457 -5.024098
-1.147715 -4.554885
-1.171643 -5.264162
-0.910667 -4.931055
-1.414899 -5.578061
-1.144591 -5.204953
-1.521149 -5.698943
-1.645196 -5.498991
-1.263418 -6.123362
-1.699561 -5.945128
-1.063361 -6.006061
-1.440122 -6.242136
-1.435186 -6.230759
-1.784957 -6.346225
-1.595814 -6.251528
-1.482818 -6.399875
-1.590964 -6.822262
-1.358290 -6.541341
-1.536108 -6.680642
-2.098781 -6.326772
-1.948803 -7.334809
-2.057922 -7.055729
-2.096276 -7.295064
-1.612264 -6.877380
-2.460667 -7.048306
-2.617766 -7.107071
-1.863714 -7.304735
-2.415681 -7.094848
-2.438576 -7.179158
-2.615783 -7.388012
-2.666186 -7.417467
-3.188622 -7.106047
-2.843275 -7.934702
-3.035023 -8.024854
-3.026233 -8.060505
-3.208292 -7.739880
-3.589031 -8.100288
-3.762369 -8.026405
-3.078647 -8.071969
-3.202754 -8.429077
-4.048120 -7.782881
-3.572055 -8.033456
-3.814163 -7.903005
-3.998993 -8.528845
-3.994096 -8.112858
-4.019307 -8.751921
-4.417311 -8.382881
-4.361713 -8.797390
-4.258901 -7.991881
-4.902472 -8.563922
-4.742096 -8.691056
-4.708957 -8.435291
-5.338701 -8.470806
-5.205497 -8.416784
-5.545585 -8.472806
-5.425973 -8.428617
-5.459404 -8.899113
-5.488499 -8.967746
-5.965641 -8.420516
-5.544823 -8.089194
-5.974924 -9.001741
-6.532953 -8.992293
-6.306232 -8.474167
-6.418202 -8.700698
-6.237367 -8.317188
-6.644161 -8.974781
-6.901162 -8.347441
-6.671386 -8.380742
-6.943044 -8.466115
-6.715037 -7.698850
-7.132606 -8.815556
-7.383390 -8.562483
-7.375573 -8.216578
-7.668070 -8.694020
-7.290039 -7.934910
-7.652290 -8.770177
-7.908967 -8.335895
-8.032372 -7.808800
-8.355803 -8.068992
-7.634952 -8.258404
-8.767491 -7.980086
-8.247816 -7.680427
-8.424100 -7.784706
-8.499459 -8.326592
-8.581484 -7.729745
-8.687981 -7.724611
-8.553913 -7.712072
-8.782325 -7.284601
-9.069158 -7.594022
-9.238563 -7.380632
-9.062389 -7.492829
-9.357089 -7.256714
-9.506398 -7.493402
-9.080419 -7.394474
-10.024123 -7.275688
-9.649021 -7.013337
-9.674184 -7.085548
-10.056097 -6.875104
-9.954407 -6.795819
-9.718921 -6.264534
-10.325103 -6.380724
-10.372115 -6.609097
-10.083941 -6.138680
-10.586376 -6.095267
-10.378407 -6.338200
-10.431136 -6.326741
-10.723801 -6.223461
-10.819874 -6.417109
-10.998953 -5.666791
-10.840509 -5.946682
-11.034774 -5.762303
-11.105772 -5.751535
-10.826386 -5.559544
-11.053524 -5.269930
-11.097045 -5.326967
-11.312281 -5.129098
-10.741124 -5.084078
-11.246048 -4.991457
-11.030456 -4.957175
-11.158047 -4.564836
-11.479914 -4.571892
-11.104954 -4.666241
-10.891600 -4.208203
-11.484067 -3.974548
-11.231280 -4.175519
-11.581847 -4.038752
-11.152081 -3.698407
-11.466882 -3.785949
-11.344235 -3.402538
-11.338129 -3.535664
-11.723238 -2.989374
-11.547561 -2.968335
-11.478085 -3.198417
-11.350274 -2.602601
-11.201885 -2.708420
-11.450006 -2.492944
-11.418079 -2.776886
-11.834947 -2.490413
-11.437111 -2.137372
-11.738817 -2.315941
-11.359177 -1.867543
-11.616157 -2.310487
-11.399865 -2.298208
-11.676648 -1.741751
-11.327391 -1.813552
-11.309243 -1.581938
-11.632332 -1.829278
-11.492150 -1.569508
-11.439018 -1.330890
-11.205321 -1.204965
-11.027184 -1.242674
-11.370470 -0.913148
-11.085123 -0.823725
-11.132198 -0.878094
-11.034058 -0.873212
-11.061305 -0.969662
-10.783232 -0.644057
-11.331482 -0.345304
-10.813888 -0.711021
-10.763438 -0.390043
-10.961468 -0.462921
-11.118010 -0.799658
-10.887271 -0.261600
-11.236230 -0.648341
-10.143665 -0.115773
-10.399399 -0.332473
-10.851726 0.455194
-10.499958 0.255319
-10.443985 0.588469
-10.746627 -0.001167
-10.105455 0.384663
-10.067116 0.745815
-10.622045 0.484482
-10.164561 0.767611
-10.314587 0.588793
-10.365985 0.663942
-10.133879 1.035357
-9.643834 0.504886
-9.503784 1.147247
-9.421096 1.001058
-9.880558 1.337108
-9.362106 1.296630
-9.778652 1.072694
-9.497583 1.082521
-9.515409 1.173847
-9.186115 0.886277
-9.190685 1.377471
-9.031503 1.111862
-9.557810 0.959856
-9.283742 1.508401
-8.944870 1.185818
-9.134291 1.363099
-8.756028 1.361952
-8.892337 1.367051
-8.742777 1.700239
-9.139869 1.204218
-8.901440 1.589711
-8.322440 1.694234
-8.871508 1.386793
-8.621659 1.501684
-7.843279 1.073025
-8.655352 1.741774
-8.313573 1.302971
-7.997211 1.341662
-7.632079 1.313436
-8.234678 1.555524
-8.073993 1.477849
-7.769922 1.650971
-8.147544 1.764977
-7.781591 1.586786
-7.716071 1.626943
-7.495548 1.269556
-7.894187 1.327783
-7.417475 1.356693
-7.402006 1.415618
-7.875755 1.758045
-7.574300 1.132607
-7.417386 0.943436
-7.584039 1.245557
-7.497143 1.389572
-7.065277 1.191232
-7.536650 1.032295
-7.096519 1.142931
-7.354680 1.214660
-7.340363 1.248512
-7.197912 1.243119
-7.290562 1.436448
-6.942347 0.616205
-7.422271 1.342042
-7.590754 1.192497
-7.193170 1.188571
-6.688570 1.042444
-7.243575 0.194153
-7.011550 0.767844
-6.952454 1.356119
-7.487660 1.002310
-7.380453 0.727782
-6.869433 0.388537
-6.833594 0.692153
-6.551889 0.647224
-7.230734 0.569380
-6.713192 0.952799
-6.975638 0.564795
-6.549694 0.366967
-7.149067 0.484374
-6.743450 0.343113
-6.947748 0.750075
-6.604454 0.382124
-6.727388 0.482469
-6.865653 0.300870
-7.021079 0.046871
-6.886380 0.276388
-7.028419 0.175492
-7.356535 0.358129
-7.030123 -0.012100
-7.250177 0.385334
-7.160766 0.300414
-7.121804 0.517879
-7.073968 0.214351
-7.272384 0.074464
-6.860390 0.652664
-7.027046 -0.021281
-6.990084 -0.013266
-7.125821 -0.106582
-7.516753 -0.109368
-7.039453 -0.040589
-7.209677 0.345987
-7.330033 0.210646
-7.288946 0.450172
-7.293352 0.166808
-7.399741 -0.218443
-7.558377 0.211293
-7.619500 0.066375
-7.444411 0.016937
-7.657488 0.161849
-7.481844 -0.143401
-7.727273 0.288764
-7.906141 -0.134660
-7.860555 0.311193
-7.859514 0.155144
-7.738999 0.195591
-8.030617 0.092362
-7.697892 -0.134738
-8.115166 0.014597
-7.876655 0.544159
-8.268204 0.547808
-8.195425 0.005148
-8.536678 0.048528
-8.052639 0.327270
-8.159933 -0.050843
-8.121504 0.284898
-8.516240 0.568369
-8.295639 0.385901
-8.267240 0.166305
-8.373485 0.333864
-8.868951 0.595447
-8.789275 0.071171
-8.960438 0.767947
-8.556637 0.495367
-8.773293 0.607143
-8.572091 0.722880
-8.934408 0.987437
-9.175582 0.943971
-8.950064 1.069407
-8.912722 0.989366
-9.125823 1.137593
-9.008000 1.146554
-9.074537 1.334728
-9.154581 0.979555
-9.390507 0.973005
-9.381423 1.442487
-9.096430 1.447420
-9.360778 1.638354
-9.369951 1.669865
-9.538256 1.288242
-9.559100 1.665217
-9.685386 1.773957
-9.731916 1.614251
-9.388152 2.156852
-9.824234 1.768174
-9.577301 1.590374
-9.473575 1.791405
-9.491625 1.692515
-9.487115 1.830320
-9.446555 2.059478
-9.484981 2.399674
-9.555671 2.412509
-9.385503 2.613238
-9.652501 2.053874
-9.933638 2.566519
-9.684471 2.632187
-9.568041 2.712810
-9.786506 2.819388
-9.990018 2.994779
-9.692254 2.887545
-9.281330 3.377605
-9.648623 3.276628
-9.572201 3.591364
-9.661567 3.301084
-8.974685 3.302778
-9.591588 3.816888
-9.237554 3.726154
-9.524728 3.651871
-9.717242 4.495394
-9.383427 4.246731
-9.585034 3.912816
-9.494092 4.259011
-9.849524 4.027495
-9.542125 4.213943
-9.093589 4.281209
-9.109939 4.241737
-8.981236 4.694643
-8.484167 4.602238
-9.252505 4.874420
-8.739925 4.656389
-8.852137 4.919775
-8.594278 5.075291
-8.547038 4.552123
-8.754156 5.390659
-8.915048 5.376235
-8.659657 5.379046
-8.578343 5.810938
-8.661295 5.498821
-8.816000 5.978719
-8.584758 5.717882
-8.503080 5.854999
-8.104768 5.896792
-8.071418 5.819107
-7.956933 5.990277
-7.940913 5.901761
-7.839447 5.886057
-7.958722 6.227792
-7.895102 6.224396
-7.779436 6.227645
-7.666476 6.112934
-7.734298 6.258476
-7.461822 6.600861
-7.401341 6.815190
-7.256518 6.730880
-7.117224 6.643933
-7.140104 7.198286
-7.015043 7.460578
-6.647664 6.780313
-6.745280 6.935425
-6.558173 6.755890
-6.316981 7.026371
-6.591852 6.993937
-6.699805 6.844820
-6.224183 7.529950
-5.845506 7.062395
-6.004381 7.290220
-5.866864 7.339879
-5.991786 6.963082
-5.587415 7.256329
-5.314171 7.975136
-5.527598 7.475626
-5.448083 7.679171
-5.265413 7.361349
-4.968358 7.377904
-5.040574 7.604812
-4.851436 7.231151
-4.937265 7.256641
-4.708817 7.096573
-4.791434 7.498801
-4.412821 7.482403
-4.540259 7.262278
-4.544082 7.051923
-4.024458 7.580317
-4.172881 6.963993
-3.728803 7.416722
-3.608100 7.227773
-3.731275 7.277085
-3.740358 7.065196
-3.479278 7.863584
-3.543991 7.386949
-2.745975 7.080028
-3.547518 7.203783
-3.161881 7.069895
-3.027518 6.689418
-2.562152 7.382713
-2.671465 7.230170
-2.608135 6.591163
-2.338523 7.023693
-2.855378 7.070712
-2.641281 6.918699
-2.288926 6.526131
-2.703418 6.742677
-1.765332 6.859258
-1.958700 6.646913
-1.528367 6.237445
-1.887303 6.500473
-2.247578 6.629549
-1.312928 6.142519
-1.882334 6.242399
-1.356034 6.105764
-1.486970 6.117023
-1.507037 5.835869
-1.190311 5.722312
-1.689372 5.718457
-0.972692 5.636052
-1.175420 5.662944
-1.036774 5.403225
-1.266998 5.459426
-0.742275 5.395471
-1.011943 5.123187
-0.928508 4.762304
-0.619920 5.222817
-0.642410 5.421646
-0.793497 4.917669
-0.499882 4.464066
-0.642144 4.341527
-0.424161 4.492125
-0.175182 4.272763
-0.505907 4.234667
-0.229115 4.626386
-0.211199 3.774410
0.112881 4.020314
-0.425797 3.992925
-0.288222 3.563904
-0.363304 3.500467
-0.155529 3.698052
-0.105838 3.372261
-0.013310 3.259781
0.100555 3.672059
-0.160270 3.170930
0.239788 3.204401
-0.011005 2.645905
-0.276163 2.650793
-0.189298 2.417858
-0.248589 2.496598
-0.397317 2.588816
-0.000434 2.266646
-0.445589 2.266828
-0.225925 2.618172
-0.065959 2.029144
0.317343 2.453070
-0.551010 2.134083
-0.325108 1.925579
-0.243854 1.688972
-0.388357 1.700262
-0.449952 1.683736
-0.090778 1.729403
-0.287241 1.698869
-0.483680 1.243731
-0.235976 0.839132
-0.182883 0.880924
-0.415917 1.027437
-0.815792 1.391389
-0.558474 0.841356
-1.059922 0.878917
-0.787673 0.441196
-1.119999 0.742809
-1.086860 0.699487
-1.557904 0.041541
-0.802051 -0.078471
-0.851672 0.212198
-1.141366 -0.152449
-0.808825 0.459863
-1.257725 0.039095
-0.925540 0.353462
-1.755293 -0.097824
-1.188396 0.154282
-1.657473 -0.167348
-1.769646 -0.101181
-1.860241 0.059439
-1.570541 -0.261139
-2.060860 -0.285742
-1.729242 -0.482565
-2.260698 -0.574359
-2.505114 -0.677639
-2.123468 -0.581268
-2.269285 -0.462925
-2.125886 -0.747838
-2.543017 -0.420342
-2.921196 -0.530647
-3.041790 -0.752417
-3.035738 -0.584158
-2.906025 -0.727801
-3.157856 -1.173045
-3.126308 -0.985138
-3.295356 -0.687145
-3.718735 -1.147385
-3.726664 -1.390676
-3.692610 -0.679055
-3.543758 -0.878225
-3.517589 -1.094851
-4.336099 -0.768628
-3.547172 -0.650631
-4.126030 -0.878918
-4.217630 -1.314755
-4.311177 -1.050417
-4.187882 -0.605408
-4.342896 -0.899045
-4.812557 -1.106153
-4.976725 -0.487919
-5.162867 -1.669424
-5.177001 -0.942059
-5.037698 -0.996971
-5.360447 -0.918610
-5.089197 -0.686527
-5.140781 -0.526244
-5.364108 -0.765063
-5.415521 -0.367150
-5.466522 -0.541683
-5.249860 -0.267666
-5.992942 -0.489934
-5.775486 -0.443564
-5.631299 -0.646893
-6.047177 -0.175220
-5.993685 -0.618734
-6.195942 -0.216784
-6.187227 -0.230271
-6.383315 -0.044139
-6.315142 0.063550
-6.430338 -0.087921
-6.737440 0.285747
-6.285668 -0.099787
-6.153995 -0.018781
-6.681780 0.472092
-6.566693 0.162001
-6.759741 0.505060
-6.566519 0.428997
-7.161261 0.431627
-6.978850 0.631610
-6.834494 0.717427
-6.821751 0.601668
-7.180837 1.221817
-6.891539 0.683075
-7.550118 0.868891
-7.527202 1.099102
-7.392293 0.917607
-7.434810 0.865780
-7.412678 0.976393
-7.576392 1.671284
-7.427874 1.321670
-7.788934 1.779494
-7.480351 1.856927
-7.459552 1.693917
-7.601129 1.593269
-7.131070 1.903449
-7.659497 2.079835
-7.838004 1.988690
-7.751203 2.085923
-7.878533 2.059434
-7.815728 1.730051
-7.865589 2.907332
-7.172440 2.978060
-7.552614 2.587148
-7.756220 2.956124
-7.792246 2.936191
-7.806750 2.906824
-7.415035 2.704446
-7.635827 3.634409
-7.630420 2.680222
-7.703196 3.355512
-7.222342 4.010493
-7.828621 3.056080
-7.520303 3.519032
-7.786035 3.652075
-7.653336 3.724396
-7.598009 3.970794
-7.693880 4.146841
-7.422794 3.931394
-7.836170 4.091080
-7.636633 4.437422
-7.493646 4.120268
-7.035559 4.455217
-7.310173 4.186722
-6.938125 4.243073
-7.597350 4.681234
-6.972933 4.274941
-7.597178 4.205732
-7.211522 4.303706
-7.396044 4.793851
-6.928710 4.873753
-6.972180 4.499774
-7.309297 4.931585
-6.910846 5.029976
-6.625580 5.294265
-7.055669 5.149885
-6.646838 5.136396
-6.556238 5.415679
-6.504666 5.378904
-6.412190 5.614115
-6.749111 5.410875
-6.205512 5.398573
-6.463971 5.656481
-6.436038 5.246829
-6.029830 5.920595
-6.015563 5.423902
-6.177428 5.175501
-5.389001 5.812763
-5.470382 5.828465
-6.171947 5.448314
-5.780992 5.740741
-5.550955 5.951758
-5.297893 5.971783
-5.684975 6.430613
-5.615949 5.910206
-5.605273 6.526532
-5.149364 5.899356
-5.408672 6.315270
-4.987103 6.216301
-5.025594 5.924286
-5.495036 5.995917
-5.227432 6.296400
-4.957876 6.330448
-5.234253 5.784871
-4.888599 5.968014
-5.216760 6.501897
-4.873159 5.740584
-4.871029 6.093277
-4.629079 6.325631
-4.587729 6.143657
-4.436597 6.036409
-4.765031 6.156954
-4.709043 5.872932
-4.312669 6.274292
-4.483636 5.847442
-4.122241 5.929870
-4.499989 5.764860
-4.665429 6.104114
-3.871729 5.784888
-4.081069 6.079055
-3.914120 5.621315
-4.371026 5.617180
-3.194641 6.098100
-4.243250 6.078765
-3.902945 5.727696
-3.538184 5.903247
-3.853585 5.915808
-3.441460 5.476156
-3.944876 5.975847
-3.776860 5.734338
-3.756127 5.462674
-3.961908 6.023199
-3.514710 5.816853
-3.528407 5.238275
-3.233896 5.427335
-3.808150 5.587385
-3.706376 5.774218
-3.098110 5.606351
-3.657190 5.075340
-3.221990 5.683128
-3.059132 5.264896
-3.198887 5.404504
-3.414358 5.492972
-3.498674 4.722331
-2.835979 5.720120
-3.189420 5.353070
-3.235347 5.146722
-3.116866 5.331887
-3.216816 4.766283
-3.157614 4.987114
-3.181558 5.081732
-2.968691 4.804204
-3.039546 4.901021
-3.201866 4.486525
-3.825508 4.648240
-2.877769 4.763897
-3.572645 4.304514
-3.206489 4.614032
-3.110901 4.523301
-3.463054 4.812239
-3.001877 4.305006
-3.310448 3.821956
-2.802864 4.580232
-3.579255 4.627738
-3.702971 4.291529
-3.488095 4.433241
-3.002639 3.779714
-3.270255 4.141279
-3.476678 4.338313
-3.322445 4.502194
-3.109151 4.089274
-3.764239 4.503646
-3.399578 3.942702
-3.321337 4.344531
-3.481688 3.633523
-3.785347 4.271322
-4.189536 4.196042
-3.763587 3.788460
-3.642024 3.578385
-3.459027 3.428457
-3.748845 3.844144
-4.246034 3.838687
-4.318485 3.199709
-3.509588 3.833471
-3.928113 4.171472
-4.154671 3.667810
-4.201150 4.145700
-4.151691 3.869451
-4.412256 4.055763
-4.355830 3.815088
-3.935736 3.606210
-3.882430 3.721117
-4.161761 3.714876
-4.283401 3.457587
-4.593765 4.036247
-4.800736 3.730770
-4.326071 4.222787
-5.225460 3.698772
-4.919606 4.410246
-5.000236 3.922391
-4.910181 4.584156
-5.141938 3.363742
-4.596255 3.851011
-4.770939 3.918093
-4.957886 4.233997
-5.373647 4.223133
-5.188652 4.021764
-5.773093 4.117263
-5.308615 4.415825
-4.943078 4.539939
-5.683291 4.398123
-5.638647 4.283808
-5.647917 4.515055
-5.967093 4.314596
-5.843883 4.152832
-5.056795 4.799971
-5.924245 4.614321
-5.269961 4.659830
-5.826049 4.998299
-5.666478 4.695331
-5.822563 4.475760
-5.855987 4.615237
-6.072058 5.559692
-5.912315 4.768031
-5.823033 5.138786
-6.084739 5.000633
-6.530718 5.373150
-6.239165 4.866175
-5.830693 5.625554
-6.132500 5.321125
-6.205903 5.556141
-6.469886 5.415528
-6.342785 5.372127
-6.468705 5.684596
-6.668993 5.832451
-6.417207 5.909433
-6.206676 5.875373
-6.751997 6.297896
-6.564548 5.608380
-6.242191 6.290409
-6.294496 6.410102
-6.036271 6.475283
-5.995108 6.380865
-6.161059 6.466300
-6.717493 7.064998
-6.089955 6.626630
-6.662949 6.841623
-7.120739 6.841663
-6.587383 7.189875
-6.476904 7.690333
-6.506024 6.929487
-6.360784 7.696060
-6.866957 7.620918
-6.557372 7.683801
-6.361376 7.727649
-6.973288 8.116471
-6.440249 7.591355
-6.573279 8.126389
-6.601903 8.261558
-6.556903 8.332955
-6.116399 8.751499
-6.064107 8.478842
-6.131903 8.751220
-6.094947 8.424132
-6.114967 8.536149
-6.161667 8.477907
-5.554689 8.755602
-6.091040 9.271267
-6.561603 9.210340
-5.632329 9.286117
-6.008898 9.348774
-5.794589 9.110063
-5.588693 9.964217
-5.346173 10.094271
-5.512085 9.876045
-5.609651 9.927224
-5.664502 10.007712
-5.380575 10.173268
-5.313070 9.927597
-4.902476 10.700601
-4.882066 10.029441
-4.554292 10.460212
-5.130619 10.698915
-4.801305 10.414178
-4.184652 10.302282
-4.808417 10.616303
-4.361007 10.624996
-4.625735 11.103242
-4.257743 10.811988
-4.457545 10.989664
-3.962802 11.562503
-3.923720 11.376030
-3.508376 11.217470
-3.842915 11.072737
-3.860032 11.234570
-3.785091 11.869830
-3.722918 11.506210
-2.978331 11.543433
-3.067725 11.559664
-2.914988 11.564150
-3.389829 12.095951
-2.943603 11.684028
-2.497459 11.897545
-3.210344 11.590505
-2.254550 11.879848
-2.288509 11.911870
-2.137881 12.091183
-2.131261 11.778422
-1.731169 11.999198
-1.714668 11.938020
-2.147633 12.267509
-1.370256 12.216230
-1.321629 12.269405
-1.045312 12.242415
-1.137319 11.973806
-0.914362 12.206288
-1.241634 12.382364
-0.574974 11.760042
-0.433997 12.353745
-0.356879 11.938743
-0.065717 12.190630
-0.532242 12.512266
-0.046097 12.045561
0.018604 12.188482
0.263837 12.433314
0.417099 12.938844
0.754458 12.156045
0.719247 12.409938
0.701087 11.635344
0.454330 11.753388
0.672372 11.439696
0.982421 12.220548
0.726529 11.690215
1.542333 12.387814
1.489355 12.141668
1.785765 11.584785
1.656483 11.898807
2.068204 11.546538
2.331424 11.950546
2.853498 11.365818
2.400281 11.725472
2.968897 11.145797
2.568997 11.848508
2.821527 11.702509
3.365569 11.561703
3.210823 11.174238
3.192954 11.145160
3.414054 10.909403
3.988229 10.670813
3.993120 10.771557
3.097831 10.741610
4.223883 10.873934
3.617734 10.820405
3.978938 10.281477
3.927400 10.185321
4.172767 10.417657
4.266323 10.596993
4.153052 10.061180
4.774661 10.270073
4.104026 9.972812
4.440591 9.774135
4.791365 9.693711
4.646650 9.697715
4.700013 9.547260
4.907116 9.211547
5.090254 9.490174
5.009859 9.274382
5.181522 9.430929
5.423091 8.909895
5.464587 9.025198
5.548837 8.267217
5.497866 8.674789
5.991475 8.026921
5.587464 8.030036
5.669163 8.302208
5.995906 7.666477
6.140006 7.590207
6.118405 7.746735
5.622076 7.543836
6.414708 7.275184
5.786518 7.256293
6.023764 7.489563
5.223632 6.534805
6.343694 6.746238
5.970278 6.979577
5.838156 7.479730
6.592930 6.476645
5.777763 6.262602
6.335063 6.090961
6.167969 6.314924
6.219808 5.761752
6.031788 6.111284
6.323053 6.134115
5.956259 4.992640
5.872681 5.367920
5.792480 5.148172
6.026701 4.452266
6.088074 4.773906
5.889269 4.952462
6.209948 4.290746
6.368709 4.643443
6.696350 4.543135
6.191121 4.184701
5.707408 4.004249
6.024439 3.706219
5.651443 3.753717
6.201923 3.855116
5.729247 3.741370
5.418881 3.484382
5.454264 3.742309
5.185519 3.101738
5.831516 2.681625
5.508208 2.913984
5.521991 2.901301
5.631086 2.439459
5.391880 2.118230
4.974717 2.684959
5.101877 2.674055
5.077255 2.218746
5.001155 2.053933
5.227184 2.013144
5.201536 2.339070
5.153181 1.938425
4.815233 1.963288
5.106887 1.561870
4.835986 1.695175
4.150318 1.189451
4.157786 1.393172
3.743193 1.301652
4.291885 1.112974
4.323175 1.139907
3.559146 0.890962
3.836105 0.416051
3.909617 0.836841
3.811338 0.813581
3.465382 0.117184
3.428491 0.430917
3.334686 0.566934
3.411393 0.570044
3.243884 0.526381
3.025144 0.269399
3.090928 0.128865
2.670331 -0.127022
2.848288 -0.207377
2.420744 0.167241
1.921002 0.340480
1.826413 0.131518
1.839410 -0.098180
1.515197 -0.054514
1.717777 0.060738
1.070861 -0.175001
1.502423 -0.078771
1.390788 -0.014187
1.278961 -0.201216
1.771983 -0.345966
1.085979 0.222120
1.519324 -0.560698
0.931760 0.002336
0.153108 -0.352180
0.414367 0.109549
0.539109 -0.561294
0.308266 0.314116
0.077668 -0.260460
0.129048 -0.579384
0.378120 -0.007531
-0.237718 -0.051085
-0.674761 -0.458856
-0.279240 0.246994
-0.672724 -0.148976
-0.237110 -0.064009
-0.850104 -0.290528
-1.363008 -0.831790
-1.367643 0.191004
-1.418683 -0.103436
-1.398845 -0.175075
-0.948389 -0.369315
-1.361477 -0.309199
-1.394266 0.304020
-1.668231 -0.001532
-2.186307 0.161267
-2.179626 0.586093
-1.982733 0.803866
-2.320900 0.854277
-2.578803 0.422370
-2.348453 0.178118
-2.039704 0.507216
-2.142520 0.867663
-2.593081 0.945168
-3.278616 0.848824
-3.250753 0.639040
-2.907746 1.238522
-2.894382 1.146714
-3.816529 0.797369
-2.835844 1.207487
-3.936429 1.217398
-3.496872 1.544186
-3.358590 1.310210
-3.506061 1.272026
-2.755359 1.476124
-3.903925 1.805663
-4.005633 2.021501
-3.722352 2.259921
-4.102572 2.152302
-3.681023 2.355893
-4.152372 2.117932
-3.798588 2.051148
-4.181145 2.310592
-3.848545 2.512471
-4.062419 2.584043
-4.436451 3.442406
-4.545372 2.980935
-4.297291 2.986413
-4.313190 3.727328
-4.489145 3.350592
-4.939983 3.261002
-3.884803 3.243575
-4.149967 3.630453
-4.215282 3.550543
-5.102732 3.613944
-4.612746 4.260798
-4.064363 4.495949
-4.689790 4.531886
-4.044119 3.644270
-4.104046 4.632247
-4.657471 4.448151
-4.388244 4.665611
-4.404017 4.316166
-4.746839 4.379592
-4.365281 4.908848
-4.821388 4.372895
-3.855412 4.963559
-4.338830 5.012441
-4.208562 4.849915
-4.061461 5.121199
-4.118400 5.588337
-4.595956 5.457216
-3.733247 5.352697
-4.107950 5.792078
-4.366773 5.597647
-4.349266 5.527966
-3.736849 5.886593
-4.029799 5.866608
-4.067204 5.664301
-3.997913 6.090029
-3.992429 5.460459
-4.193142 6.288887
-4.124914 6.900677
-3.910827 6.550999
-3.868077 6.120289
-3.618464 6.554459
-4.102896 6.828103
-3.457415 6.722785
-3.285406 7.019105
-3.609804 6.834195
-3.274661 6.968005
-3.110821 6.641808
-3.296061 7.685978
-3.163298 7.141153
-2.508304 7.448501
-2.374654 7.119986
-3.259148 6.980659
-3.268900 7.108050
-2.253306 7.491235
-2.654894 6.900881
-2.730177 7.246017
-2.888503 7.359046
-2.341985 7.376724
-2.758585 7.844493
-2.552089 7.560872
-2.162961 7.461095
-2.578054 7.750404
-2.087982 7.215730
-1.938859 7.728378
-1.364907 7.414483
-2.151554 6.946088
-1.693586 7.623293
-1.950715 7.630218
-1.505312 7.988735
-1.676347 7.506983
-1.377363 6.796743
-1.088375 7.701036
-1.273651 6.795737
-1.271687 7.189437
-1.041889 7.776825
-0.490556 7.762654
-1.241626 6.836471
-1.545735 7.297131
-0.977920 6.938084
-0.676023 7.243256
-0.808818 7.353722
-0.976209 7.364031
0.055200 7.319689
-0.561096 6.756962
-0.239126 6.745671
-0.500333 6.702656
-0.668045 7.136839
-1.098780 6.969935
-0.625648 7.619750
-0.639111 7.491487
-0.157258 6.405891
-0.282172 6.597124
-0.298785 6.667962
-0.292963 6.267155
0.117262 7.467637
-0.805378 6.951582
0.537945 6.882645
-0.056238 6.231441
-0.621519 6.552959
-0.355089 4.898522
-0.322827 5.276979
-0.663960 5.911034
-0.139984 6.243268
0.191055 5.708237
-0.497904 5.935325
-0.235735 5.832951
-0.148562 5.573128
0.141697 6.388099
-0.044986 5.277168
-0.265310 4.933127
-0.036455 5.884481
0.191055 5.123945
-0.848096 4.978116
-0.624898 4.942740
0.731903 4.751901
-0.689535 4.674282
-0.600033 4.661903
-0.611600 4.329458
-1.083232 4.611325
-0.841879 5.324267
-1.218470 6.526626
-1.118402 4.889296
-0.717438 4.028415
-0.507207 4.793170
-0.691777 4.126811
-0.719861 3.346347
-1.259467 3.460759
-1.296285 4.191750
-0.696152 4.264505
-1.501726 3.991027
-1.648315 3.928780
-1.931252 4.248611
-0.199376 3.905497
-2.557579 4.859839
-2.518963 3.575588
-2.124462 3.720225
-2.380811 3.950118
-1.898222 4.123931
-2.524360 3.264104
-1.571704 3.810878
-3.431661 3.918283
-1.953550 3.083949
-3.487832 2.228218
-3.262854 3.647171
-3.483681 3.427381
-3.659687 2.886377
-3.724654 3.121805
-3.450469 2.760051
-3.400000 3.472613
-3.702295 2.247422
-3.924569 3.089185
-4.794051 2.127943
-4.254076 3.656257
-6.023605 3.492600
-5.244171 4.105884
-5.426852 2.595861
-5.327149 3.435290
-5.633640 2.561000
-6.140130 4.095173
-6.897245 4.449819
-6.207657 4.100368
-6.317939 3.611711
-7.173969 3.784196
-7.717154 2.809729
-7.358910 4.245567
-7.463141 3.987517
-7.319121 4.466568
-7.615169 4.306683
-7.725962 3.449283
-8.515199 5.103143
-8.725668 4.631832
-7.403446 5.198489
-8.929423 4.527083
-8.367870 5.934850
-8.765578 4.548447
-9.192570 5.607636
-9.987514 4.885182
-9.588778 5.894806
-9.147258 4.809249
-10.178706 5.888440
-10.664989 7.036565
-9.441358 6.341972
-10.976917 6.017513
-11.042065 7.049418
-11.190569 7.689876
-11.147251 7.414878
-11.634587 7.447322
-11.393399 6.430774
-11.684323 8.026300
-12.201252 7.778184
-12.188372 8.354423
-12.621474 8.657285
-12.302931 8.316726
-12.562485 9.285696
-12.782774 7.329664
-13.655170 8.402531
-12.161551 9.840537
-13.129821 10.217761
-12.784642 10.770268
-12.745849 11.548486
-13.051483 10.779816
-13.308641 11.513592
-14.539959 11.420806
-15.204421 10.608060
-13.739209 14.010926
-14.476469 12.274153
-13.878954 13.019516
-12.562555 13.736859
-13.891853 13.857713
-14.752412 11.856299
-14.049215 13.981143
-15.122215 14.236915
-14.511303 14.680249
-13.924683 15.376457
-15.151955 16.554294
-15.742331 15.188148
-14.502753 17.011415
-14.524369 17.462082
-14.606592 16.180490
-15.914939 17.282902
-14.266039 18.251548
-13.574281 18.839323
-15.733801 16.414004
-15.625494 19.790788
-15.960137 18.341398
-15.008027 20.647291
-15.361097 20.865034
-16.858878 21.295456
-15.603940 21.003036
-13.892810 21.861509
-14.577794 22.971543
-14.827173 25.296387
-13.090100 23.079935
-14.596105 23.321067
-14.251409 23.677232
-12.055891 24.518670
-13.599494 25.239656
-15.534771 24.339982
-12.431633 26.085980
-15.221760 24.894784
-13.516296 26.267060
-14.608998 27.955511
-12.224166 27.170998
-11.043483 28.653550
-10.594152 25.861718
-12.199451 27.650718
-11.700176 30.780471
-10.656659 25.125075
-11.315741 31.844663
-10.734821 30.313569
-8.309771 33.591339
-10.785467 30.751129
-11.940693 34.331413
-11.664165 32.689067
-10.019031 33.806509
-9.611206 31.915627
-12.308670 32.767682
-8.424621 35.866508
-9.116283 32.129929
-7.843676 36.150399
-6.055138 34.358500
-3.210899 37.015839
-5.264678 36.031540
-8.245533 35.035225
-5.838763 41.102190
-4.181561 36.096576
-5.485324 38.329638
-5.949997 37.759691
-3.001817 40.676697
-0.924135 36.876334
-7.372990 39.913624
-3.887038 37.643340
-0.201088 39.015153
-1.157194 38.000962
-2.146085 37.901874
-4.106520 43.111877
0.625865 39.472017
0.602014 42.323252
-2.118939 43.789373
-2.074059 39.535920
-0.843327 39.564591
-1.022954 46.229762
0.946826 42.390314
3.902484 45.736787
4.619453 41.931808
3.760430 44.840708
5.530024 43.493581
2.199577 45.880643
2.380279 45.088103
7.130232 43.576170
6.604131 40.887493
6.878237 46.472490
1.353005 43.036571
15.874083 48.500156
11.868849 44.148179
4.793572 49.039969
10.073970 48.703605
14.283240 41.642016
9.944389 48.434583
17.525117 51.041862
11.454503 50.871164
6.477864 50.360990
21.463959 53.181216
13.398636 50.034272
16.092983 48.040337
17.229710 41.030275
12.453693 41.907808
15.924866 51.540371
25.953116 49.765771
22.963516 46.995165
24.327029 46.817280
25.889545 41.464185
15.219078 38.524890
25.719314 48.352182
34.691727 49.335282
20.662444 43.177640
30.058908 37.693420
25.426837 50.501129
25.552327 46.110935
19.612757 45.162351
27.708790 41.032024
29.196063 48.244997
23.216684 43.622791
31.016704 52.491582
32.522342 45.804149
21.906647 49.265986
41.097607 44.071378
39.216904 53.575791
30.724511 41.687935
37.693570 48.770227
37.001375 43.989215
34.561040 39.786294
31.818769 43.520778
41.048262 41.807884
37.713261 33.741898
34.836610 30.237134
35.155638 46.250572
45.589806 35.129758
45.920789 31.654648
37.891410 38.769667
44.363918 37.614183
38.515271 46.916260
41.404586 35.242953
45.929482 45.749720
48.978949 36.454253
48.636266 31.318601
56.744722 33.038460
35.172645 45.574834
40.235040 36.890125
42.477893 30.496426
46.870312 30.470906
37.515187 29.102387
43.147260 29.872457
48.727888 20.990627
55.654947 29.746360
54.159868 31.600509
47.753053 39.427009
56.100405 20.514479
52.378856 33.755468
42.339760 17.479187
57.096633 28.441955
45.639773 24.921603
58.736094 25.338840
51.453622 20.593338
62.451725 31.094910
61.128187 19.978408
48.816960 19.069885
68.571922 19.884172
59.590242 15.574058
44.455209 8.692567
54.833793 23.602542
55.842112 26.178013
45.017298 19.219145
58.626942 21.402517
47.224083 21.506396
55.311455 6.654634
53.183352 19.458539
65.154191 14.122452
53.634430 11.083324
55.452127 6.025621
57.590919 16.701811
69.124679 -7.340307
54.578276 2.502746
59.261029 11.418565
51.164082 8.703995
57.716567 11.504647
57.332947 10.500875
77.590967 13.862153
51.833423 -1.059245
58.600322 -6.609055
60.019182 -0.545850
64.970254 -2.109919
53.996505 -10.146452
65.375543 16.392712
60.171184 1.434933
63.501773 10.022001
49.383266 5.620744
55.034652 -5.516287
47.219189 0.391107
56.558886 7.667990
46.366942 -17.151473
52.801858 -2.978209
50.452130 -8.824344
45.500656 0.909233
46.201634 0.807361
48.867400 3.290787
25.303388 -15.737354
54.401828 -109.457277
22.245428 -36.190933
50.517422 -17.682502
40.494884 -34.940570
55.141415 -29.499068
28.413148 39.295735
37.534443 -8.872652
50.535758 36.740504
55.155534 4.045666
24.115431 -44.718478
205.625125 -315.217078
42.152226 -70.399842
77.312192 -94.262888
81.668833 -83.490368
116.876545 50.194428
-1150.611881 1086.928247
87.376213 61.408921
3.325591 10.945034
-3.481680 -68.958640
