12542.951451 12743.662697
-7538.691469 2651.901526
124.183385 -24.732488
-39.713003 62.619932
50.600012 87.898969
-126.494396 12.779933
-1566.051887 -590.486939
130.329440 104.946090
25.385920 48.629883
107.192824 59.266983
97.392671 15.496373
-12.441856 -73.083801
-18.664635 -24.553965
40.541997 -17.537114
14.453733 -28.442484
45.782865 -35.568891
24.398372 -72.930628
37.862496 61.881779
44.647375 -0.117238
43.312217 -2.082145
23.572975 27.992987
-21.369186 46.734104
42.042010 -28.494974
38.768365 -26.076813
26.092738 -25.671588
0.362419 -10.928515
-3.814514 -6.139941
18.717736 -13.703406
24.337974 -10.084917
37.432396 -19.751538
-13.543039 -9.745130
-10.759902 -34.392118
38.058395 -2.056303
15.550285 -16.846687
20.033712 -2.471470
12.919442 -15.336884
22.217435 -49.105645
17.926051 -15.412500
19.428641 -25.053049
31.506811 -3.840445
31.796688 -28.331239
21.812336 -37.921427
1.908808 -3.680102
43.449472 -17.345794
28.625281 -19.304096
23.576517 -29.455607
19.471911 -33.908111
29.036683 -11.510643
20.791575 -7.306795
14.220848 -30.594510
16.236601 -8.404553
22.074856 -22.890381
31.264937 -15.410942
28.314080 -19.352727
22.864900 -22.431378
12.986949 -16.888541
28.789802 -34.033336
18.636407 -15.908568
14.443703 -26.524758
25.088761 -10.026518
19.172806 -33.448618
28.325761 -38.568004
10.494623 -18.899611
17.757912 -8.196147
29.648701 -17.790987
34.540775 -35.229097
24.477858 -28.679463
15.736534 -20.771439
33.857812 -24.398054
16.391741 -26.326774
30.780343 -16.185692
32.614238 -27.486751
15.656571 -19.811450
18.395665 -29.648715
14.033784 -24.454564
28.549141 -19.210080
20.305553 -18.947928
25.991197 -24.986883
28.245245 -12.816927
14.036670 -24.084357
7.860747 -16.091102
15.701878 -18.583133
16.908269 -29.821476
26.707920 -26.080702
13.197048 -39.347377
17.783993 -17.483899
13.908580 -23.263086
20.152970 -32.724489
14.957730 -27.290310
5.473871 -27.288682
13.090386 -23.481550
19.429974 -36.209060
12.964430 -33.192346
8.776884 -28.209708
11.506199 -30.577212
27.700042 -34.424332
14.617098 -17.378368
11.784415 -18.066507
20.105497 -24.024023
17.753956 -22.470773
16.312495 -28.304525
17.988640 -24.805192
16.156342 -27.359879
15.553129 -31.583407
13.902737 -34.223241
18.123848 -36.525650
10.253154 -26.860670
18.842538 -33.878388
15.987497 -30.915481
13.430245 -30.855169
15.866660 -20.410096
12.705287 -23.232584
4.937092 -31.146106
18.984644 -24.152783
8.071778 -29.111279
8.017021 -30.381816
11.738577 -28.591729
11.387385 -27.938017
10.130454 -33.027657
14.684638 -30.648838
22.079566 -30.512584
7.105876 -29.180106
13.520529 -28.614249
10.823788 -27.081491
8.151291 -23.925900
10.870693 -21.584957
1.365952 -22.844381
11.384482 -30.820529
2.528202 -35.120968
13.290429 -19.555964
9.635978 -30.464308
1.879840 -26.579442
5.340652 -30.073813
12.583139 -25.047665
2.262646 -24.696905
7.391855 -28.265216
12.727438 -27.151207
6.038330 -22.909850
10.059301 -27.022162
4.724480 -28.149319
6.406798 -33.712786
8.909232 -27.388505
7.243804 -35.192788
5.888051 -28.930129
5.303088 -30.310679
2.782952 -25.647816
7.914740 -28.387614
11.027712 -26.094214
3.019710 -32.790900
5.536577 -25.807051
6.050132 -29.823360
8.417655 -31.231512
6.394594 -27.473242
5.569155 -31.756655
1.360137 -30.021338
1.914566 -29.825108
2.276882 -28.808986
1.010475 -32.111990
4.359106 -27.805032
0.588615 -32.961059
-0.638593 -30.644692
4.020875 -28.770848
4.469486 -27.818040
1.701804 -33.675445
-1.034076 -31.877265
3.804916 -30.122546
0.830401 -24.916425
2.061028 -28.847092
-0.111789 -31.913888
1.920868 -28.519474
-0.805768 -27.423632
-3.201857 -27.875806
0.394131 -29.122608
0.225649 -26.674128
1.070102 -30.114409
0.477904 -27.964109
-1.950718 -27.965638
1.028414 -27.980601
-3.725331 -28.510034
-3.120406 -31.827691
-0.538361 -29.727971
-1.019579 -31.367307
-2.266873 -26.969748
-1.459844 -29.274105
-5.593828 -28.018098
-2.510298 -30.468333
-6.966401 -29.614369
-2.339883 -30.788041
-3.720313 -29.573323
-5.872690 -27.495554
-4.888680 -29.085864
-4.642211 -27.516409
-5.214892 -29.438311
-3.341002 -29.504495
-4.828079 -28.483678
-5.187727 -28.404931
-5.016142 -26.963822
-3.734135 -31.059671
-6.599156 -28.001518
-6.299543 -28.740688
-6.644880 -28.503052
-8.184798 -28.766386
-4.299134 -26.597520
-6.834820 -28.818159
-5.434675 -28.167753
-7.500393 -25.920097
-7.604274 -27.066459
-7.633082 -26.197730
-7.332332 -27.932085
-6.576765 -25.380113
-9.541538 -28.722636
-8.546511 -26.999462
-8.035299 -27.887349
-8.132332 -26.172533
-10.063497 -27.175485
-8.518550 -28.312445
-9.258625 -25.495708
-10.398198 -25.515741
-7.095578 -24.616122
-9.813196 -24.416277
-10.650087 -25.030132
-9.241912 -25.162528
-9.418732 -24.653409
-11.485879 -25.630644
-9.227221 -24.279528
-10.815324 -25.052629
-12.081793 -26.419590
-10.652316 -25.636297
-10.063340 -24.945943
-9.810955 -25.949994
-10.816184 -24.413392
-11.963189 -25.551514
-13.050656 -23.234354
-11.555333 -24.798491
-13.998694 -23.390465
-11.712885 -24.426795
-11.531024 -24.080744
-11.707538 -23.364614
-12.405369 -24.149297
-13.988189 -22.511131
-12.983905 -22.764388
-13.281620 -23.230790
-14.224206 -23.834078
-14.030507 -23.055129
-14.934129 -22.100489
-13.063809 -23.046972
-14.319354 -23.196004
-12.389828 -21.048212
-14.809507 -22.515931
-15.124250 -21.929054
-14.261196 -20.846390
-16.360850 -22.281550
-15.257160 -22.746773
-14.814856 -21.994609
-15.161246 -21.498144
-15.459606 -21.639249
-15.462334 -21.689624
-13.780871 -19.598939
-14.352649 -19.650776
-15.225590 -20.842111
-15.820122 -20.857982
-14.393144 -21.067828
-15.428758 -19.999930
-15.546026 -19.367406
-16.240556 -19.724675
-15.855642 -19.404181
-15.811926 -18.887846
-16.837112 -19.731282
-15.983933 -19.309750
-16.365755 -18.661823
-15.998731 -19.786255
-16.621978 -18.561188
-16.793100 -17.843930
-17.709592 -18.670491
-17.834810 -19.415479
-16.601588 -18.402652
-18.531234 -18.213531
-16.885568 -17.718496
-17.571161 -18.485552
-18.317703 -18.298543
-17.805223 -16.885176
-17.611482 -17.083156
-18.844910 -17.170179
-18.378637 -16.671390
-18.595417 -17.271831
-18.390493 -17.540011
-16.919969 -16.752224
-17.832028 -16.366867
-18.345120 -16.190930
-18.555004 -16.818154
-18.164709 -16.197575
-18.870129 -14.874451
-19.235544 -15.723484
-18.464330 -15.484802
-18.754241 -14.708799
-19.854783 -13.246491
-18.552909 -14.195097
-19.692380 -14.483275
-19.262592 -14.400939
-18.969327 -14.241010
-19.419369 -13.964013
-19.076093 -13.826277
-19.891387 -13.762753
-19.399861 -13.696142
-18.982649 -13.266197
-19.202855 -12.284755
-20.129585 -12.441443
-19.034213 -12.272442
-19.083902 -13.811786
-19.820073 -13.197272
-19.275833 -12.459621
-19.266802 -11.721848
-19.759306 -11.776552
-19.744868 -11.261309
-19.219289 -11.305331
-19.753487 -11.046716
-19.161269 -11.114338
-19.957025 -10.839912
-19.148016 -11.008130
-19.475516 -10.307378
-20.682258 -11.026238
-19.780102 -10.340360
-19.285507 -10.340302
-20.264824 -10.074447
-19.102218 -9.254578
-19.963916 -9.305399
-19.711219 -8.364663
-20.049636 -9.899565
-20.445630 -9.574009
-20.421310 -9.242149
-20.130232 -8.182096
-19.571672 -8.506186
-20.067104 -7.540001
-20.526447 -8.381438
-19.741065 -8.608252
-19.843467 -8.457070
-19.870369 -7.415928
-19.919316 -7.959371
-19.163636 -7.104967
-19.953145 -8.034704
-20.305348 -7.091205
-19.526431 -6.606262
-19.552968 -6.807286
-19.291768 -7.030702
-19.892396 -6.263409
-19.621397 -6.962240
-20.018136 -6.203340
-20.546306 -5.407050
-20.035383 -5.798710
-18.846353 -5.530915
-19.080908 -5.350780
-18.873425 -5.337228
-19.546191 -4.882146
-19.483212 -4.959088
-20.147051 -5.363405
-19.340096 -4.576321
-19.562610 -4.830495
-19.199769 -4.123002
-19.859505 -3.958651
-19.822617 -4.096135
-19.395876 -3.802182
-19.652474 -3.694063
-19.301093 -4.199165
-18.821631 -2.948619
-19.104990 -3.621454
-18.981044 -3.612287
-18.878300 -3.575527
-18.337129 -2.992323
-19.147060 -2.722859
-18.660377 -2.649555
-19.577173 -1.845142
-19.007245 -1.845926
-18.276516 -2.404898
-19.048128 -2.856005
-18.141476 -1.794601
-18.650258 -1.830479
-18.343132 -1.200269
-17.991435 -1.281346
-18.865355 -1.160066
-18.394220 -2.317060
-18.138905 -1.374628
-17.846506 -0.918903
-17.810962 -1.235752
-17.705152 -0.300519
-18.616376 0.142906
-17.720422 -0.119062
-17.793926 -0.352549
-17.706649 -0.607215
-18.151579 -0.406380
-17.446433 -0.099324
-17.331474 -0.477825
-17.855772 0.400708
-18.160255 0.611017
-17.727437 0.091589
-16.794406 0.663890
-17.904671 1.111672
-16.820097 0.004975
-16.995364 0.898175
-16.754730 0.799244
-16.963159 1.634495
-16.727976 1.264396
-17.246148 1.953174
-16.534899 1.819178
-17.094501 1.525997
-16.581096 1.642573
-16.663720 2.148638
-16.996376 1.699278
-15.894568 1.437360
-16.036552 2.487526
-16.438979 2.262641
-16.240910 2.033536
-16.064184 2.533036
-16.298784 2.677240
-15.734106 2.483115
-16.043748 2.967476
-15.944377 3.297229
-15.363170 2.815760
-15.205911 2.917923
-16.224695 2.633863
-14.914106 3.452227
-14.881394 3.721710
-15.483374 2.880911
-14.490791 4.003629
-14.710417 3.335099
-15.058104 3.950173
-14.615529 3.507089
-14.383488 3.625957
-14.320428 3.658603
-14.697350 3.810399
-14.858640 4.294353
-14.382368 3.604383
-14.788116 4.260132
-13.567957 4.298575
-13.453663 4.304836
-14.099347 4.635541
-14.926178 3.733880
-13.626803 4.124855
-14.177046 4.643671
-13.762549 4.791421
-13.737001 4.900339
-13.567006 5.210432
-12.949164 4.707101
-12.934305 4.512242
-13.796557 5.016050
-13.026663 4.796236
-12.826364 4.817105
-13.177346 5.073838
-12.933072 4.771986
-12.522126 4.920887
-12.434612 5.600322
-12.867000 5.319161
-11.954171 5.203228
-11.772698 5.778962
-12.048550 5.217801
-11.884428 5.674090
-12.063548 5.298991
-12.061839 5.459659
-11.506504 5.688397
-11.506376 5.817528
-11.496150 5.210695
-11.369509 5.698511
-11.890173 5.459736
-11.514357 5.850740
-11.025598 6.016291
-10.545436 6.435750
-10.976779 5.692600
-11.102860 6.341323
-11.359871 6.117068
-10.596567 6.427627
-11.209801 5.977124
-10.609818 6.520427
-10.447053 6.312585
-10.190852 5.810986
-10.709605 5.600158
-10.924808 6.249715
-10.431639 6.122065
-10.047190 6.731301
-9.988395 6.282714
-9.815698 6.507945
-9.353647 6.832062
-9.821486 6.423107
-9.158594 5.870458
-9.892331 6.565247
-9.097544 6.135948
-8.938775 6.842783
-9.118923 6.566159
-9.479310 6.217456
-9.390701 6.569927
-8.723515 6.454857
-8.419391 7.048503
-8.294538 6.396900
-9.099663 6.982013
-8.834070 6.667032
-8.496784 7.066653
-8.393936 6.451071
-7.889008 6.125946
-7.913083 7.547231
-8.112052 6.690197
-8.125224 6.287719
-7.818571 6.663624
-8.587197 6.593340
-7.655511 6.438809
-8.051575 6.631099
-7.357007 6.805171
-7.818138 6.481631
-7.236714 6.969514
-7.386870 6.726310
-6.829283 6.180648
-7.400052 6.833752
-6.651846 5.927000
-7.280494 6.295224
-7.135558 6.888474
-6.675988 6.608629
-6.713128 7.099944
-6.981736 6.375023
-6.794176 7.038250
-6.579702 6.743295
-6.578744 6.578667
-6.329897 5.881630
-5.701228 6.598037
-6.477950 6.136877
-6.306338 6.290860
-6.618712 6.323439
-6.205794 6.803905
-5.736659 6.193126
-6.594044 6.535881
-5.981746 5.991006
-5.812260 6.192241
-6.320415 6.127496
-5.786438 5.867572
-5.891182 6.509435
-6.222304 6.415401
-5.718663 6.378198
-5.196333 6.591657
-5.627959 6.513028
-5.211215 6.727881
-5.493243 6.356839
-5.656236 6.293285
-4.801682 6.404852
-4.549678 6.317469
-4.854287 6.258204
-4.756123 5.881940
-4.661766 6.371937
-4.345526 5.883886
-4.698164 5.874878
-5.088130 6.016599
-4.368190 6.257700
-3.950533 6.046723
-3.844809 6.023466
-4.257136 6.208325
-3.690196 6.256434
-4.297396 5.633448
-4.271622 5.667909
-3.806158 6.251772
-4.168773 5.556069
-4.086716 5.532044
-4.204193 6.273242
-3.965894 5.870886
-3.731458 5.588889
-3.778418 5.717001
-3.291523 5.738834
-3.732301 5.926918
-3.909565 5.917667
-3.739935 5.513786
-3.436335 5.491285
-3.829050 5.789064
-3.303169 5.234085
-3.667748 5.157933
-3.710856 5.581050
-3.327004 5.296649
-3.525938 5.279307
-3.143380 4.866460
-2.657293 5.054930
-3.385316 5.314293
-2.954485 6.055156
-3.856126 5.284551
-3.442661 5.366073
-3.319039 5.276414
-2.604959 5.128316
-3.127039 4.960034
-3.035037 5.069512
-2.879034 4.656822
-3.093567 4.907596
-3.704758 4.985897
-2.559254 4.366786
-3.117293 4.707266
-2.681984 5.118477
-2.615065 5.054496
-2.162089 4.623970
-2.404816 3.997192
-3.268126 4.682926
-2.258443 5.063317
-2.766774 4.460520
-2.655801 4.806929
-2.104652 4.531811
-2.413809 4.351833
-2.259211 4.489216
-2.817933 4.368435
-2.111909 4.687948
-2.294660 4.647368
-2.662480 4.712124
-2.445947 4.582554
-1.784032 4.537147
-1.647187 4.279929
-2.283128 4.685931
-2.475412 4.419735
-2.254183 4.570253
-2.652946 4.333396
-2.494930 4.136259
-1.997952 3.817881
-2.214540 4.588194
-2.111304 3.888122
-1.649266 4.334664
-2.212155 4.292801
-1.829785 4.164481
-1.601094 3.891377
-1.960367 4.207164
-2.208553 4.379827
-2.085781 3.749279
-2.091004 3.816957
-1.798765 3.806834
-1.908977 3.658960
-1.744845 4.142998
-2.098964 4.343896
-2.341416 3.589225
-2.032142 3.315185
-2.063894 3.652256
-1.663497 3.259423
-1.934979 3.280963
-1.294301 3.825104
-2.122668 3.439137
-1.652196 3.183917
-1.855568 3.246968
-1.591409 3.444770
-1.827812 3.138451
-1.560509 3.290165
-1.957757 2.904967
-1.675044 3.219855
-1.950088 3.477844
-1.357863 2.889629
-1.411638 3.544335
-1.554223 3.096030
-1.452142 2.859557
-2.055501 3.034727
-1.846542 3.281163
-1.619313 3.245994
-1.606839 3.411754
-1.561323 3.278448
-1.606520 3.315139
-1.558819 3.284264
-1.656350 2.888482
-1.782474 2.968185
-1.503149 2.759348
-1.501545 2.996704
-1.925860 2.972751
-1.213047 2.912352
-1.058179 2.896800
-1.114232 3.111391
-1.262541 2.341594
-1.403130 2.757603
-1.090775 2.932777
-1.432456 2.601251
-1.526259 3.016866
-1.036003 2.660156
-0.894057 2.911432
-1.311557 2.687857
-1.165394 2.801308
-1.435314 3.036025
-1.730979 2.495719
-1.625860 2.317981
-1.091560 2.504594
-1.517860 2.675187
-1.399356 2.500870
-1.150333 3.056461
-1.177567 2.794898
-1.459902 2.205905
-1.162749 2.441297
-1.699714 2.381300
-1.786518 2.236834
-1.178416 2.411818
-1.345874 2.342255
-1.457847 2.542560
-1.556475 2.684837
-1.824013 2.329938
-1.324756 2.139022
-1.593354 2.551306
-1.283557 2.962917
-1.208620 1.982668
-1.415580 2.204868
-1.463630 2.074262
-0.932464 2.429230
-1.607231 2.220245
-1.655636 1.904902
-1.495529 2.559025
-1.557433 2.215932
-0.781997 1.958415
-1.050141 2.604462
-1.114680 2.055321
-1.239633 2.066198
-1.561181 2.408318
-1.132336 2.904489
-1.115902 2.246297
-1.201345 2.700392
-1.572552 2.435458
-1.005281 1.790367
-1.312671 2.394196
-1.682037 2.299779
-1.876717 2.021920
-1.372939 2.286637
-1.168636 2.028966
-1.441500 2.536771
-1.328809 2.177880
-1.355913 2.491057
-1.321912 2.176903
-1.700934 1.868151
-0.989075 2.368973
-1.333513 2.226181
-1.383443 2.202554
-1.498163 2.243655
-1.603270 2.165329
-1.761815 1.818728
-1.360610 1.809492
-1.611608 2.070736
-1.450400 1.573126
-1.518039 2.399607
-1.690279 1.690143
-1.617757 1.860725
-1.348134 1.869707
-1.839961 1.951488
-1.286359 1.755410
-1.749810 2.096229
-1.676113 2.195735
-1.198145 1.949420
-1.128805 1.897180
-1.322035 1.703108
-1.059765 1.799462
-1.620591 2.067855
-1.422037 1.854073
-1.232313 1.835941
-1.672885 2.159713
-1.463655 2.006954
-1.238993 1.863470
-1.444232 1.716425
-0.881681 2.437723
-1.374296 1.431355
-1.644581 1.881389
-1.554574 1.559893
-1.613437 1.854703
-1.375908 1.721275
-1.323762 1.871939
-1.364626 1.857940
-1.438230 1.786050
-1.870111 1.682511
-1.337713 2.107225
-2.367769 1.917528
-1.058954 1.220816
-1.413907 2.148604
-1.431769 1.748888
-1.415704 1.696612
-1.431465 1.806119
-1.405575 1.727578
-1.271343 2.209235
-1.583422 1.912992
-1.661145 2.364319
-1.517411 1.754730
-1.571423 1.752144
-0.796808 1.881382
-1.292772 1.322677
-1.019890 2.124849
-1.685830 1.876574
-0.878146 2.025432
-1.311825 1.735276
-1.288862 1.548692
-0.931377 2.221286
-1.443370 1.312436
-1.039634 2.181490
-0.958564 1.641570
-1.337921 1.936743
-1.628028 1.721153
-0.895392 1.879501
-1.067350 1.922681
-1.035238 1.837972
-1.349234 2.080963
-1.332455 1.899710
-1.583167 1.501078
-1.571378 2.079815
-1.114620 1.784461
-1.800572 1.587262
-1.001754 1.554482
-1.579015 1.848151
-1.099160 1.372331
-1.260347 1.433565
-1.027740 1.839800
-1.248771 1.484799
-0.990947 1.740144
-0.786293 1.907101
-0.810623 1.787035
-1.050330 1.473812
-0.837227 1.307028
-1.360476 1.553341
-1.463884 2.142142
-1.316815 1.996971
-1.212278 1.688900
-0.940956 1.928155
-1.137276 1.988780
-1.419066 1.325687
-0.962276 1.584506
-1.278600 1.773172
-1.491499 1.784497
-1.106534 1.495488
-1.187433 1.700167
-0.831065 1.315420
-1.067195 1.836367
-1.258744 1.395501
-1.204264 1.086556
-1.485584 1.718478
-1.159780 1.870443
-0.722091 2.027222
-0.997805 1.675706
-0.971589 1.619390
-0.364460 1.949271
-1.975106 1.681519
-0.962800 1.544490
-1.014969 1.488844
-1.219725 1.412351
-0.769290 1.464258
-1.567103 1.476646
-0.969923 1.572469
-0.909309 1.795725
-0.668980 1.614875
-0.699421 1.706923
-0.577639 1.646056
-0.679368 1.547927
-0.886766 1.519399
-0.877749 1.682934
-0.809424 1.181110
-0.828072 1.264214
-1.016856 1.297832
-0.742687 1.568640
-0.861813 1.790297
-1.017535 1.612902
-1.075350 1.500056
-1.084031 1.469748
-0.817062 1.243219
-1.206700 1.768548
-0.455642 1.416063
-1.123415 1.425112
-0.890189 1.478106
-0.663689 1.374653
-0.919124 1.537999
-0.813233 1.318584
-0.510255 1.163764
-0.458382 1.264068
-0.443004 1.672760
-0.417981 1.795538
-0.856283 1.230274
-0.620522 1.686368
-0.686649 1.599375
-0.543819 1.329904
-0.506817 1.170140
-0.878808 1.077888
-0.841491 1.250095
-0.774360 0.964469
-0.724227 1.449995
-0.476272 1.592284
-0.324834 0.982790
-0.714193 1.451090
-0.636632 0.923198
-1.009771 1.599699
-0.515238 1.084904
-0.569410 1.706359
-0.652094 1.329227
-0.514677 1.184376
-0.338323 1.192456
-0.514184 1.347343
-0.522563 1.096487
-0.687345 1.029255
-0.887022 1.505346
-0.527757 0.881961
-0.789973 0.965627
-0.411934 0.689311
-0.748237 1.185455
-0.642318 0.912022
-0.858531 0.812318
-0.363327 0.737885
-0.117604 1.121987
-0.520344 0.997813
-0.401140 0.856155
-0.211932 0.987384
-0.678555 0.900829
-0.907741 0.931783
-0.825016 1.292368
-0.819538 0.846347
-0.718426 1.368531
-0.635329 0.767237
-0.530062 0.921370
-0.565756 1.102095
-0.755016 1.134912
-0.805479 0.572999
-0.801124 0.676329
-0.384258 0.794005
-0.769435 0.743686
-0.325057 1.111715
-0.505978 1.023969
-0.270377 0.508872
-0.469435 0.838506
-0.306691 0.895263
-0.898303 0.240713
-0.685261 0.822646
-0.568109 0.768256
-0.283767 0.807314
-0.120344 0.560672
0.133063 0.957496
-0.169442 1.062086
-0.311963 0.946206
-0.857361 0.488971
-0.335522 0.885031
-1.393649 0.424988
-0.310728 0.552597
-0.986073 0.524691
-0.765899 0.186092
-0.676825 0.430315
-0.568062 0.891571
-1.047184 0.928616
-0.736164 0.178170
-0.636382 0.734991
-0.595862 0.506612
-0.680194 0.634074
-0.992228 0.864596
-0.590164 0.460736
-0.593626 0.575701
-0.688672 0.726372
-0.541276 0.906052
-0.940775 0.617058
-0.591607 0.646595
-0.370947 0.652846
-1.059030 0.377485
-0.926682 0.364076
-0.614234 0.826236
-1.093724 0.191309
-0.725444 0.931077
-0.642299 0.249625
-0.748599 0.453501
-0.883090 0.460093
-0.781295 0.558818
-0.810033 0.363255
-1.142229 0.276123
-0.634172 0.070496
-0.779578 0.659869
-1.256173 0.399856
-0.800750 0.208991
-0.976160 0.338154
-0.633497 -0.159210
-0.849338 0.571086
-0.841711 0.355302
-1.291376 0.548558
-1.035784 0.341361
-0.834828 0.392790
-1.088491 0.412069
-1.092581 0.359797
-1.236953 -0.176823
-0.865442 -0.240116
-0.922495 0.052227
-0.940419 0.424640
-0.686252 0.134910
-1.179094 0.392152
-1.521504 0.295095
-0.958447 0.086896
-1.101891 0.180535
-1.247946 0.231472
-1.190468 0.743459
-1.316959 0.294167
-0.823272 0.043888
-1.815193 0.418473
-0.994491 0.399402
-0.715134 0.491856
-1.286932 0.001045
-1.326177 0.210890
-1.366059 0.518739
-1.165579 0.367878
-1.614218 0.018627
-1.003105 0.259745
-0.971691 0.034230
-1.406515 0.427320
-1.444960 0.612112
-1.242765 0.189202
-1.760623 0.499716
-1.445160 0.410321
-1.585204 -0.072141
-1.559614 0.329030
-1.535108 0.442516
-1.468237 -0.027525
-1.425573 -0.002476
-1.544418 0.332435
-1.390985 0.372040
-1.854381 0.376685
-1.450148 -0.018852
-1.250358 0.036006
-1.459051 -0.324321
-1.744059 0.140711
-1.798123 0.218831
-1.705119 0.169740
-1.671137 -0.007925
-1.631919 0.147200
-1.668818 -0.025873
-1.746957 -0.073368
-1.629440 -0.380550
-2.041567 0.190539
-1.823579 0.550193
-1.661907 0.253224
-1.984790 -0.289006
-1.772023 0.474159
-2.049346 0.163527
-1.905877 -0.067788
-1.971345 0.023742
-1.747280 0.033757
-1.609026 0.229792
-2.245141 0.131385
-1.688436 -0.039024
-1.975009 0.151650
-2.062935 -0.100961
-1.590596 0.185288
-2.087582 -0.151345
-1.790188 0.371431
-1.751691 0.405969
-2.103520 0.202597
-1.694898 -0.087422
-2.231770 0.469260
-1.893791 -0.506313
-2.016916 -0.073387
-2.203256 -0.156561
-2.115513 -0.071847
-2.333709 0.268437
-1.731722 0.406094
-2.456779 0.135412
-2.044078 0.003517
-2.362122 0.089624
-2.161891 -0.130269
-2.354716 0.066913
-2.091467 0.019353
-2.232193 0.208128
-2.382273 0.299853
-1.878373 0.252710
-2.551064 0.460184
-2.404859 -0.059379
-2.261173 0.134384
-2.065497 0.081677
-3.297791 0.700382
-2.614571 0.305760
-2.311550 0.288972
-2.370897 0.510385
-2.203030 0.327068
-2.613748 0.513761
-2.645793 0.262708
-2.220673 0.570380
-2.205416 0.154158
-2.495464 0.235263
-2.314496 0.366565
-2.788313 0.522666
-2.338123 0.472359
-2.585001 0.904120
-2.539263 0.496691
-2.316872 0.650426
-2.269419 0.782305
-2.731574 0.527591
-2.275823 0.763481
-2.756059 0.782776
-2.214719 0.461141
-2.398184 0.637666
-2.777540 0.518676
-2.324233 0.834678
-2.344782 0.501998
-2.770840 0.430964
-2.457136 1.000887
-2.563451 0.766659
-2.200453 0.652156
-2.554820 1.017583
-2.833442 0.850893
-2.928547 0.539619
-2.804727 0.884121
-2.793488 0.663862
-2.859680 0.721588
-2.749933 0.769761
-2.983371 0.891587
-2.820618 1.244006
-3.064630 1.030715
-2.675557 0.791111
-2.441161 1.256077
-2.397820 1.190531
-2.943906 1.194215
-2.804779 1.187468
-2.660706 1.123304
-3.032832 1.178591
-3.088252 1.163295
-2.879731 1.050953
-3.289115 0.767748
-2.478268 1.097132
-3.081130 1.513884
-3.542998 1.271236
-3.145015 1.432888
-3.181930 0.951555
-3.081727 1.374506
-2.919452 0.907764
-3.325930 1.680358
-2.709277 1.542042
-3.131779 1.365171
-2.517914 1.492308
-2.986813 1.783549
-2.776972 1.563959
-2.686745 1.648177
-2.429551 1.093031
-3.143650 1.537331
-2.814190 1.577003
-2.739654 1.564514
-2.824862 1.877202
-2.595169 1.827150
-2.731590 1.412326
-2.994170 1.766041
-2.711759 1.757852
-2.672786 2.182728
-2.705032 1.892821
-2.513619 1.593798
-2.969408 1.766439
-2.445228 1.926225
-2.691067 1.770766
-2.637524 2.082416
-2.939777 1.928581
-2.856579 1.489895
-2.596683 1.828965
-2.916500 1.935473
-2.741473 2.182647
-2.862195 2.417493
-2.931982 1.955760
-2.681372 2.263964
-2.823829 2.262224
-2.543877 1.557559
-2.642564 2.092173
-2.404849 2.214870
-2.429900 1.784920
-2.942869 2.044096
-2.590942 2.252706
-2.566744 2.045658
-2.122352 2.397782
-2.734811 2.187437
-2.513622 2.421200
-2.383948 2.088321
-2.787472 2.549950
-2.807704 2.683044
-2.761907 2.221428
-2.566340 2.045668
-2.948734 2.538911
-2.604470 2.186055
-1.895563 2.677992
-2.742240 2.291954
-2.393374 2.475357
-2.504457 2.354989
-2.695606 2.491860
-2.533406 2.332728
-2.536682 2.577815
-2.779606 2.498295
-2.571987 2.468360
-2.615713 2.542293
-2.042158 2.743241
-2.358210 2.419832
-2.151722 2.708183
-2.465840 2.759194
-2.567073 2.961082
-2.471703 3.242163
-2.640369 2.576360
-2.440547 3.400443
-1.994615 3.019880
-2.456854 2.941044
-2.463166 3.335571
-2.188769 3.268627
-2.543037 2.732793
-2.337272 3.342637
-2.417298 3.075815
-1.568538 3.522030
-1.970682 3.099216
-2.395187 3.403807
-1.661347 3.150520
-2.220826 3.081313
-2.128391 3.105849
-2.277149 2.924377
-2.220851 3.637470
-1.846849 2.995273
-2.266922 3.277248
-1.669258 3.429963
-1.851394 3.465761
-1.776449 3.642862
-2.060509 3.363095
-1.802414 3.467953
-1.563610 3.574739
-1.839081 3.445933
-1.515568 3.830213
-1.318055 3.295460
-1.676659 3.336949
-1.835042 3.595979
-1.796045 3.929156
-1.514736 3.126736
-1.677451 3.263590
-1.677866 4.054317
-1.277915 3.700485
-2.000019 3.923300
-1.556711 3.748252
-1.588030 3.609642
-1.283788 3.964952
-1.491301 3.559871
-1.323493 3.510953
-0.966386 3.726202
-1.398312 3.488817
-1.052759 3.807376
-1.418366 3.778038
-0.985377 4.069706
-1.113132 3.284488
-1.154669 4.006822
-1.426874 3.614101
-1.494513 4.114735
-1.242508 3.587838
-1.410912 3.695459
-0.778411 3.206212
-1.072525 3.847169
-0.690200 3.877458
-1.313534 3.794807
-0.612389 3.718054
-0.872132 3.008217
-0.560172 3.847748
-0.803201 3.724769
-0.596522 3.712109
-0.379157 4.031297
-1.059995 4.293317
-0.221691 3.748598
-0.637889 3.919544
-0.772188 3.611022
-0.222423 3.629784
-0.818508 3.838134
-0.367705 3.831818
-0.433967 3.596921
-0.692029 3.587909
-1.060480 3.922579
-0.068968 3.607014
-0.597059 3.975711
0.150804 3.855932
-0.360705 3.829129
-0.380003 4.305912
-0.120111 3.642950
0.292857 4.002215
-0.136672 3.860882
-0.032817 3.932105
-0.455361 3.752818
-0.658898 3.960536
0.203526 3.644839
-0.127503 3.831608
0.009452 3.860692
0.160305 3.318016
0.106988 3.859594
0.022617 3.642250
0.327793 3.716464
0.030129 3.636668
0.239020 3.700617
0.379941 3.673694
0.576382 3.694188
0.598963 3.735270
0.710917 3.438964
0.711017 4.001505
0.460235 3.488854
0.216022 3.614452
0.331746 3.794718
0.424384 3.731501
0.539860 3.568154
0.707173 3.873530
0.418444 3.602803
0.956397 3.587857
0.527717 3.903720
0.692046 3.870125
0.570209 3.592364
0.634963 3.516296
0.831867 3.807157
0.898215 3.579015
0.873223 3.328446
1.299134 3.516143
0.913570 3.171216
0.664920 3.425739
0.667782 3.205497
1.004273 3.240752
0.804486 3.601969
1.203664 3.642082
0.735695 3.615587
1.538168 3.640071
1.401269 3.583945
1.046958 3.310476
1.263066 3.222370
1.221973 3.095841
1.409068 3.784967
1.798148 3.501621
1.734422 3.246814
0.988725 3.189571
1.985588 3.511480
1.526067 3.421390
1.367401 3.233275
1.177264 2.774083
1.946899 3.143201
1.530150 2.976861
1.718875 2.970403
1.948596 2.982600
1.873071 2.799013
1.830078 2.762248
1.652094 2.608891
1.640064 2.790183
1.759328 2.428312
2.056104 2.800426
2.049108 2.790848
1.555086 2.623180
1.936416 2.756267
2.065920 2.714877
1.960037 3.038756
2.460024 2.473088
1.986969 2.339583
1.812506 3.011800
1.910040 2.773302
2.202518 2.737631
2.038851 2.837945
2.574370 2.774405
1.902799 2.437754
2.328640 2.198730
2.072088 2.291873
2.028814 2.666134
2.262321 2.528723
2.724467 2.605158
2.167512 2.430758
2.279273 2.571211
2.292061 2.266732
2.740789 2.229939
2.222354 2.083952
2.362329 2.557290
2.126519 1.911736
2.982167 2.123817
2.213347 1.877573
2.523471 1.765774
2.895829 2.409704
2.469130 2.275571
2.540631 2.041804
2.201941 2.154104
2.482223 1.965999
3.164043 1.364445
2.931539 1.700570
3.160369 1.589343
2.455932 1.475813
2.699998 1.625986
2.741948 1.597740
2.429125 1.731183
2.822560 1.695757
2.662692 1.542929
2.886991 1.606068
3.259411 1.362460
2.572308 1.378324
2.831700 0.885807
2.540267 1.490656
2.577059 1.081025
2.889942 1.404769
3.260652 1.644589
3.290588 1.204413
2.681973 1.542420
3.315038 0.885948
2.635951 0.593148
3.171497 0.668760
2.998307 0.853971
2.884721 1.025764
2.543585 0.775021
2.713506 0.910128
2.608526 0.852150
2.711023 0.892676
3.213003 1.015941
3.091721 0.752360
2.840757 0.802377
3.048530 0.343413
2.279759 0.485961
2.516002 0.782453
2.651360 0.555823
2.613545 0.107179
3.595496 0.356898
2.974154 0.132705
3.113523 0.042529
2.891493 0.600228
2.432034 0.186883
2.947387 0.207351
2.944866 0.220225
2.467052 0.014141
2.651088 0.538852
2.641957 0.045299
3.249709 0.092445
2.749854 0.126511
2.624738 0.286647
2.871991 -0.563747
2.722468 -0.115928
2.626604 -0.253940
2.324324 -0.192450
2.542288 0.014249
2.869464 -0.150286
2.257898 -0.500817
2.433994 -0.294207
2.666584 -0.754995
2.581811 -0.508011
2.350880 -0.664144
3.015199 -0.640381
2.878571 -0.933555
2.348805 -0.694015
2.659516 -0.208437
2.578329 -1.216608
2.286029 -0.979096
2.713903 -0.909173
2.266759 -1.183882
2.588541 -0.917719
2.390050 -0.509217
2.911168 -0.706392
2.924149 -1.167844
2.665031 -1.043155
2.834091 -0.749415
2.471597 -0.615783
2.375988 -1.300531
2.295239 -1.349773
2.096707 -1.264784
2.087825 -1.421541
2.523191 -1.182936
2.105627 -1.137764
2.384759 -1.603930
2.193726 -1.619952
2.584023 -1.571904
2.247162 -2.258967
2.095700 -1.741481
2.554601 -1.628325
2.205658 -1.610553
2.790388 -1.720715
1.845706 -1.634855
2.490451 -1.935550
2.096862 -1.480040
2.129330 -2.572978
2.172020 -1.518883
1.868665 -1.847751
2.015515 -2.428000
2.404016 -2.212130
1.951193 -2.070011
1.714143 -2.158128
2.324306 -1.860823
2.262366 -2.512656
1.888316 -2.323745
2.375912 -2.074208
1.568634 -1.954389
1.943491 -2.341346
1.522941 -1.998114
1.734512 -2.750888
1.514497 -2.460555
1.407132 -2.175206
2.104422 -2.385591
2.331682 -2.494749
1.887033 -2.315550
1.505233 -2.744054
1.227569 -3.120211
1.633273 -2.591219
1.414797 -2.346185
1.631204 -2.338464
1.587257 -2.626969
1.949896 -2.716407
1.151579 -2.748372
1.268130 -2.481446
1.445327 -2.736224
1.531841 -3.260803
1.178088 -2.486544
1.627579 -2.765842
1.212552 -2.870674
1.272176 -2.442091
1.177721 -3.171403
0.916798 -3.097228
0.503794 -3.576958
0.720104 -2.768079
0.867015 -3.167162
0.782224 -3.094444
0.720890 -3.094243
0.707132 -3.052520
0.683297 -3.373397
0.845002 -3.029713
0.443777 -3.494442
0.222346 -3.426963
0.145841 -3.091087
0.847480 -2.925451
0.815218 -3.570724
0.535665 -3.364213
0.713373 -3.432460
-0.304925 -3.281914
0.143581 -3.139786
-0.186712 -3.532995
0.353956 -3.282677
-0.264417 -3.375543
0.205305 -3.617203
0.515737 -3.021778
-0.395638 -3.148204
-0.387024 -3.425372
-0.218005 -3.371487
-0.553781 -3.228764
0.040501 -3.495782
-0.222186 -3.413577
-0.626222 -3.712869
-0.134180 -4.016647
-0.774259 -3.633157
-0.491426 -3.584896
-0.388120 -2.935601
-0.788044 -3.365751
-0.451798 -3.277696
-0.838619 -3.760201
-0.855634 -3.555335
-0.835989 -3.908085
-0.229856 -3.781812
-1.291558 -3.355225
-1.075999 -3.554443
-1.097492 -3.438222
-0.829688 -3.664379
-0.948454 -3.220390
-0.812174 -3.821685
-1.002630 -3.852187
-1.035682 -3.564940
-1.325501 -3.860610
-0.697506 -3.824155
-1.677356 -3.315196
-1.732232 -3.661655
-0.921223 -3.565084
-1.378093 -3.872166
-1.439031 -3.492826
-1.950995 -3.386334
-1.503297 -2.670458
-1.549688 -3.127817
-1.618264 -3.935274
-1.683667 -3.566722
-2.277111 -3.327573
-2.316092 -3.871970
-1.636128 -3.970201
-1.661376 -3.331913
-1.705160 -3.567660
-1.367320 -3.283079
-2.515409 -3.707696
-1.929428 -3.469836
-2.336124 -3.849281
-2.225780 -3.204102
-2.643983 -3.738652
-1.802251 -3.668767
-2.441268 -3.493407
-2.781717 -3.674011
-2.699806 -3.694672
-2.703975 -3.646431
-2.920106 -3.319761
-3.039017 -3.571057
-2.765908 -3.290070
-2.944186 -3.040199
-3.153325 -3.255689
-2.795604 -3.246074
-2.743474 -3.161953
-3.072378 -3.512442
-2.701888 -2.999121
-3.092921 -3.267506
-2.973764 -3.294314
-3.279252 -3.837397
-3.166319 -3.457210
-3.178070 -3.372941
-3.269234 -3.000546
-2.684260 -3.099599
-3.071527 -2.968065
-3.196987 -3.243324
-3.084059 -3.725282
-3.402206 -3.512746
-3.441201 -3.324215
-3.548282 -3.071933
-3.654415 -2.725012
-3.302800 -3.310738
-3.842826 -3.272178
-3.428703 -3.009561
-3.383538 -3.062019
-3.760105 -2.959717
-3.828755 -3.042378
-3.848713 -3.005988
-3.586358 -2.732095
-4.005314 -2.820067
-4.171535 -2.719071
-3.957482 -3.007051
-4.044332 -3.138179
-3.729805 -2.615313
-4.366461 -2.782516
-4.666730 -2.656658
-4.104297 -2.501690
-3.824962 -2.596112
-4.710860 -2.340383
-4.235003 -2.397212
-4.775713 -1.869415
-4.613197 -2.527537
-4.546103 -2.138304
-4.362903 -2.232465
-4.403124 -2.250369
-4.909293 -2.252744
-4.342751 -2.700237
-4.612898 -2.509180
-4.781205 -2.187537
-4.783187 -2.688368
-4.597316 -2.009438
-4.544504 -2.488688
-5.168132 -2.617232
-4.762681 -2.805093
-4.872830 -2.178431
-5.041472 -1.724511
-5.121553 -1.801807
-5.253785 -1.856252
-5.114733 -1.579890
-5.360374 -1.628841
-5.074418 -1.665526
-5.192480 -2.207278
-5.073891 -1.639930
-5.827867 -2.138215
-5.572829 -1.398482
-5.154350 -1.496828
-5.775487 -1.451446
-5.060406 -1.239150
-5.251384 -1.466570
-5.567699 -1.333715
-5.467920 -1.368394
-5.371025 -0.976663
-6.038213 -1.606420
-5.159124 -0.772979
-5.535943 -1.164877
-5.208495 -1.434980
-5.477749 -0.710985
-6.055375 -0.983729
-5.214776 -1.100591
-5.996282 -1.181697
-5.528939 -0.572967
-5.446884 -0.754662
-5.626807 -0.601275
-5.732299 -0.447510
-6.095062 -0.688968
-5.876409 -0.667340
-5.696963 -0.465340
-5.752966 -0.457703
-5.865246 -0.565159
-5.921816 -0.364960
-5.882942 -0.410576
-6.243677 0.235153
-6.024760 -0.430280
-5.794570 -0.428392
-6.092959 0.056023
-5.929749 -0.236389
-5.595004 -0.060845
-6.386063 0.003410
-7.048026 0.042522
-5.551620 0.302029
-6.303695 0.515437
-6.068886 -0.175181
-5.996109 -0.329799
-6.595102 0.196538
-6.031794 -0.030071
-5.790122 0.000418
-6.121945 0.242656
-6.251656 0.396293
-6.634191 0.684347
-6.323762 0.512716
-6.261921 0.735801
-6.235142 1.342274
-5.981334 0.350326
-6.110372 0.812401
-5.813227 1.229340
-6.520653 0.477667
-6.840559 0.506242
-6.639446 0.912139
-7.200844 0.782898
-6.881989 1.182977
-5.909893 1.420039
-6.270644 1.445984
-6.345304 1.131464
-6.303396 1.133212
-6.300615 1.278544
-6.212969 1.332134
-6.196823 1.253372
-7.055965 1.361815
-6.619576 1.659425
-6.355095 1.826150
-6.361328 1.838190
-6.017040 1.495126
-6.259927 1.588416
-6.623399 1.902069
-6.718179 2.122290
-6.469473 2.352480
-6.661496 1.819142
-6.659037 1.744106
-6.732386 2.300483
-6.156965 1.987847
-6.605490 2.002811
-6.315731 2.811363
-6.387603 1.920108
-6.463014 1.987546
-6.468790 2.579264
-6.731958 2.469464
-6.516605 2.087523
-6.279602 3.081015
-6.098210 2.909061
-6.128882 2.591414
-6.001006 3.076260
-6.154663 2.894910
-6.203339 3.139879
-6.587945 2.820286
-6.920813 2.916811
-6.437744 2.536458
-6.492295 2.950147
-6.181583 3.484534
-5.845725 3.522962
-6.691945 3.258639
-6.163827 2.565418
-6.594481 3.214754
-6.446125 3.177557
-5.864755 2.850813
-5.987671 3.189481
-6.945698 3.443083
-5.841027 3.231821
-6.057857 3.564064
-6.056391 3.554714
-5.655851 3.128359
-5.568336 3.082459
-6.206544 3.535319
-5.870364 3.665008
-5.790552 4.149577
-6.275557 3.704283
-5.846858 3.588810
-5.534121 4.142566
-5.709275 3.457818
-5.658730 3.618480
-5.386057 4.279166
-5.937748 3.916174
-5.529918 4.115138
-5.556926 4.419127
-5.732442 4.092722
-5.981574 4.296158
-5.729155 4.077788
-5.632369 4.509732
-5.561029 4.432312
-5.022196 4.304927
-5.251792 4.039008
-5.479657 4.240308
-5.946408 4.731975
-5.320185 5.031227
-5.467127 5.151820
-6.505327 4.776984
-5.191678 4.745048
-5.450156 4.942017
-5.721415 4.970753
-5.629647 5.258445
-5.958930 4.770029
-5.387124 4.413834
-5.500806 5.662018
-5.185654 4.868974
-4.401000 5.217082
-5.055198 4.931864
-5.083815 5.243677
-4.545222 4.852677
-4.687409 4.925828
-4.940612 5.473202
-5.638786 5.570515
-4.671364 5.577879
-5.012895 5.561044
-4.832214 5.632510
-5.088637 5.793927
-4.849984 5.342160
-4.721749 5.525022
-4.686663 4.896820
-4.377739 5.407922
-5.091269 5.389907
-4.745784 4.980035
-4.695388 5.659039
-4.618210 6.067603
-4.204595 5.820615
-4.401352 5.679352
-4.465173 5.918517
-4.690462 5.491966
-3.869901 5.780365
-4.567963 5.614087
-4.115093 5.545136
-4.136026 6.283684
-4.675270 6.649837
-4.331031 5.524838
-4.170172 6.287937
-4.191265 5.621580
-3.901112 6.095897
-4.469811 5.749241
-3.702302 5.685155
-3.546539 6.802227
-4.034507 5.753396
-3.924008 6.345950
-4.026004 6.018903
-3.886845 6.193500
-3.612334 5.823481
-3.081347 6.288722
-3.813695 6.309571
-3.199461 6.068134
-3.471186 6.103054
-3.524359 6.282102
-3.552054 6.524523
-4.104319 6.291165
-3.234094 6.733113
-3.485999 5.916022
-3.331064 6.220689
-3.902057 6.057536
-3.239914 6.830895
-3.772140 6.545109
-3.308276 6.486449
-3.021829 6.705608
-3.019095 6.369625
-2.605791 6.333751
-2.823063 6.434797
-2.600494 6.508072
-2.981546 6.476671
-2.905887 6.977795
-2.882656 6.879975
-2.577777 6.620982
-2.803923 6.715533
-3.178332 6.622008
-2.074320 6.824551
-2.622811 6.396271
-2.930996 6.809665
-2.136969 6.255854
-2.622198 6.434600
-2.489178 6.656114
-2.373889 6.821977
-2.261899 6.530293
-2.280700 6.585153
-2.085148 6.734120
-1.733683 6.440324
-2.064978 6.203398
-1.783987 6.899218
-2.682882 6.684944
-2.370301 6.198918
-2.113669 6.801059
-1.968212 6.387452
-1.810942 7.118360
-1.707496 7.064576
-1.539273 7.167748
-1.974895 6.919713
-1.939872 6.933163
-1.642689 6.930113
-2.336592 7.000005
-1.603502 6.301534
-1.742282 6.895456
-1.616772 6.901267
-1.755524 6.548399
-1.408611 6.852163
-0.831047 7.127482
-1.387632 6.985186
-1.609446 6.741868
-1.706753 7.307184
-1.530042 6.504602
-0.816767 6.379098
-0.874137 7.028209
-1.370941 6.778641
-1.223397 6.446679
-1.016126 6.631518
-0.863222 6.606131
-1.502102 7.436017
-0.409655 6.465545
-1.234789 6.896575
-0.627973 6.781274
-0.756546 6.858326
-0.969909 6.369787
-0.626196 6.700444
-0.531538 6.995188
-0.896372 6.542236
-1.216286 6.820077
-0.608846 6.660299
-0.947532 6.791276
-0.658623 6.305736
-0.445708 7.268501
-0.675920 6.350774
-0.537668 6.396647
-0.509821 6.456042
-0.585167 6.525020
-0.727160 6.073423
-0.672039 6.687542
-0.540489 6.335084
-0.535729 6.784698
-0.752978 6.883907
0.288360 6.660607
-0.043959 6.144291
-0.048042 6.004820
-0.364081 6.456057
-0.070715 6.574097
-0.431161 6.356510
-0.472370 6.061441
-0.229860 6.539158
-0.319518 6.263952
0.127985 6.530771
-0.395473 5.841989
-0.204694 5.937810
-0.011728 5.357129
0.255149 5.705102
0.158686 5.976492
0.278257 6.167074
0.128796 6.063196
-0.744447 6.267200
0.216376 5.923755
0.116116 6.230406
0.412843 5.813719
0.714477 5.823190
0.339471 6.343839
0.040275 6.186233
0.767577 5.878043
0.158304 5.872232
0.063296 6.137806
0.876108 5.759964
0.549909 6.293863
0.203304 6.123834
0.352260 6.152839
0.237842 5.514715
0.263572 5.254642
0.287827 6.050129
0.035591 6.039556
0.370521 6.150694
1.232631 6.038280
0.622549 5.584438
0.696940 5.499959
0.761568 5.510117
0.400374 5.896141
0.828185 5.817065
0.861969 5.484934
0.827388 5.168617
-0.126805 5.776366
0.907852 6.160931
0.790254 4.994096
0.720750 5.566227
0.383687 5.318051
1.092017 5.306480
0.680345 5.304428
0.955342 4.933467
0.446478 5.111571
0.976539 4.940754
1.003177 4.430961
1.183434 4.235682
0.656222 4.597504
1.037769 4.321121
1.283145 4.854295
0.341767 5.028623
0.532808 5.076405
1.248737 4.879556
0.798368 4.821081
0.827624 4.351662
1.356048 5.109666
1.044943 5.543539
1.178325 4.602066
0.609418 5.067524
0.553733 4.471525
1.174696 4.628778
0.643897 5.345195
0.432243 4.942504
0.853861 5.375040
1.086166 4.643761
0.344410 4.971497
1.223173 5.130104
0.825511 4.426667
1.034210 4.254576
0.730605 4.809078
0.845266 4.681616
0.534104 4.654063
0.856462 4.550008
0.206833 4.685479
1.247913 4.317248
0.788286 4.518000
0.700303 4.328917
1.220789 4.075309
0.561479 4.925575
0.255369 4.567553
1.198655 4.250393
1.065525 4.618627
0.734445 4.160863
0.758023 4.010605
0.258624 4.755066
0.723935 4.814608
0.524241 4.535131
0.292405 4.556083
0.957188 3.674390
1.220556 4.375981
0.563570 4.774579
0.213922 4.069798
0.497721 4.283024
0.577660 4.111736
0.030646 4.527580
0.232118 4.398358
0.220850 4.092972
0.813868 4.113155
0.990476 4.266662
1.018323 4.015807
0.781779 3.840867
0.374649 5.208846
0.395114 3.476445
0.824611 3.918878
0.032103 4.215142
0.306034 3.387593
0.502888 4.184329
0.215235 4.121040
0.875297 4.367907
0.359012 4.333900
0.434617 3.476764
0.054354 3.898451
0.651999 4.727508
0.362800 3.311750
0.752159 4.287150
0.074182 3.862026
-0.130800 3.505514
0.128825 3.897541
0.219633 4.799407
0.578438 3.132869
0.260171 4.341945
-0.316768 4.377167
-0.288695 4.150012
0.088993 4.342031
0.134419 4.322887
0.410546 4.385035
0.084552 4.327933
-0.475623 3.481089
-0.024841 4.107065
-0.659871 4.378941
-0.502855 3.571157
-0.245177 4.179282
-0.159709 4.016865
-0.397084 4.096084
-0.175823 3.484293
0.034527 4.291347
-0.748010 3.673599
0.263982 4.404451
-0.654701 3.972288
-0.043074 3.282329
-0.291551 4.359429
-0.328028 3.607653
0.128407 4.192496
-0.214680 3.982924
-0.406580 3.975631
-0.188160 4.081953
0.389805 4.961584
-1.031788 3.703530
0.143633 4.576586
-0.360317 4.303152
-0.381929 4.242214
-0.428414 4.745232
-0.444527 5.291528
0.008888 3.862632
-0.755500 4.467016
-0.324103 3.873186
-0.811976 4.019079
-0.688433 4.657661
-1.208254 4.739477
-1.047073 5.002186
-1.069111 4.924117
-0.887948 3.829274
-0.118673 4.204848
-0.859244 4.822949
-0.654516 3.711361
-0.484197 4.644449
-0.837114 4.513252
-0.852847 3.970928
-0.340239 4.405557
-1.295800 4.551419
-0.953881 4.720848
-0.859914 4.647660
-1.976089 5.137771
-1.119110 4.858744
-0.817360 4.334309
-0.778235 5.118771
-0.559146 4.653798
-0.518947 4.980185
-1.896754 4.568098
-1.023434 5.011719
-1.916011 5.673707
-1.247406 4.581578
-1.404863 5.019364
-0.822327 5.306046
-1.468079 5.085150
-1.474792 4.887976
-1.662659 6.047556
-1.236264 5.488989
-1.265473 5.826498
-1.240861 5.332817
-1.528752 5.327015
-0.822521 5.186606
-1.949406 4.862317
-1.004245 5.663837
-1.562386 4.937868
-2.028462 5.783830
-1.464424 5.605592
-1.602000 6.409722
-0.866585 5.333159
-1.428428 6.386542
-0.687065 5.291492
-1.066197 5.169697
-1.827067 5.667459
-1.615186 6.153331
-0.986951 5.623145
-1.748452 5.841298
-1.615273 6.268664
-1.539027 6.265144
-1.433120 6.446006
-2.336468 5.877792
-1.183425 6.353460
-2.128615 6.298117
-1.174938 6.389219
-1.312246 6.025338
-0.539574 6.377222
-1.396507 6.025931
-1.458582 6.411686
-1.900105 7.221376
-2.066739 6.132975
-1.627679 6.528964
-2.297137 6.932745
-1.920544 6.945653
-1.614634 7.276212
-2.220829 7.799894
-2.283071 6.900845
-1.446835 7.032941
-1.269984 7.151631
-1.255938 6.596019
-0.821671 7.352376
-1.938440 6.836662
-2.587161 7.806643
-1.431793 7.669835
-2.996081 7.712871
-2.028706 7.563627
-1.952194 8.204877
-1.356639 7.791090
-1.340399 7.726075
-1.518487 8.578735
0.312954 8.146699
-0.836932 7.535947
-3.256439 7.965464
-1.990908 8.408742
-1.619215 9.168662
-0.914207 8.698095
-1.511575 8.692394
-2.064208 9.592772
-1.405945 8.072947
-1.351787 7.337090
-1.336557 8.773927
-1.816313 8.446055
-1.761496 7.456763
-1.318607 9.368136
-1.941593 9.340319
-1.330128 9.073047
-1.658797 8.799724
-2.346558 8.068477
-1.184467 9.109027
-1.519187 9.223233
-1.105767 9.846038
-1.550025 10.237290
-0.099490 9.591789
-1.125817 9.794797
-1.114198 9.276372
-0.698415 9.317922
-1.273326 9.567671
-0.934061 9.727387
-2.466538 9.554299
-0.935637 10.889515
-1.031705 10.178312
0.217245 9.465767
-1.242841 9.787291
-1.597357 10.289442
0.047711 9.689428
-0.811280 10.436817
-1.452398 10.414128
-1.151950 11.157701
-0.242650 11.376304
-1.031121 9.881381
-1.497442 10.510502
-0.322470 11.286785
0.054303 10.716527
-0.301196 11.348846
0.483349 10.148498
-0.656846 10.623472
-0.252105 11.971730
-0.576418 10.930433
-1.672248 11.541895
-0.546863 11.355091
-0.715507 10.899431
-0.062773 11.046542
0.989897 12.230251
0.481710 11.706996
-0.888367 11.259760
-0.083959 11.932941
-0.578193 11.732059
-0.436048 11.767311
-0.367911 11.813295
1.529816 12.085355
0.908198 13.598390
0.262159 11.353600
0.348172 12.693945
0.664043 12.372949
0.871821 11.828459
0.650009 12.202657
0.718675 12.106495
0.143014 13.016985
0.882513 12.537609
2.081642 12.760238
1.825616 12.559609
1.954677 14.569613
0.906040 12.039523
1.648777 13.487883
1.016729 14.055065
1.968466 12.778688
2.245023 13.045707
2.279890 14.056014
1.017311 14.053026
0.960960 13.370340
0.379167 14.039398
0.485415 12.803438
3.290535 12.920345
2.869650 12.967118
1.804156 14.045727
2.175859 14.926266
2.438218 13.335181
1.387596 12.554822
1.380506 14.182140
2.706664 13.763637
2.747521 11.363888
4.815720 14.857172
3.059042 13.745432
3.670981 13.907317
4.036780 13.410457
3.230505 14.862008
3.615074 14.064831
3.610542 13.397756
4.484859 15.220695
3.467614 15.284565
4.186310 13.822566
4.402489 14.194658
2.775533 12.201483
5.058370 13.827126
5.120825 14.572653
4.655278 13.960416
5.435067 15.895303
5.858626 15.224860
5.578845 15.658818
4.429548 15.470248
4.838024 15.073226
3.641777 14.878181
4.475797 14.392039
5.264038 17.655790
4.917673 13.163980
4.039886 14.543929
5.852028 16.051204
4.277257 15.814921
5.866744 16.269721
7.063124 16.246057
7.592569 16.878171
7.475592 14.283547
4.928085 15.081592
8.261176 16.392606
4.996459 13.881289
4.894243 13.326689
5.528341 13.091856
7.514993 14.723400
9.463175 14.960314
6.580204 16.496947
7.954609 14.025542
7.214937 16.282897
8.071687 14.369787
5.737107 15.610597
7.532401 17.252301
10.034017 15.402462
7.381275 15.290293
7.691870 16.089903
8.179134 16.875543
9.429814 16.594458
9.712813 15.103033
10.821483 13.264762
9.803253 16.930741
7.215479 15.968801
9.438848 14.048314
11.357742 12.828785
10.655749 16.179525
11.883786 13.790831
11.063648 13.828016
7.600061 14.449840
12.385740 15.148589
7.984400 12.784306
13.687876 11.228313
10.043514 14.553551
12.439031 17.018807
7.786494 14.224764
12.707404 16.037651
9.875093 11.899368
14.050218 12.954766
14.289709 15.157551
11.121768 17.581001
14.986079 13.945418
14.151334 15.573839
15.286038 12.230280
14.692941 15.373088
14.029784 17.802100
12.079601 17.319286
13.538094 16.916152
9.161559 14.924192
13.938546 17.562102
8.808610 13.241215
11.921339 12.870228
16.630667 17.735333
18.714919 17.343129
10.804979 16.645277
10.584473 10.200278
13.685294 14.503122
11.905937 14.344482
14.574016 12.986656
12.130599 12.081825
17.524501 12.881759
11.132927 19.422899
18.147622 16.443939
11.639434 17.407699
15.490801 18.581075
17.051864 12.925807
15.079977 9.749893
16.829682 20.187407
13.950180 14.821823
19.268954 16.267185
19.613136 13.741726
15.182287 12.421297
13.213011 14.488356
19.311714 15.867741
15.902156 7.193310
18.599952 13.663301
16.253117 13.061613
19.561561 14.132891
21.584975 17.808685
17.695483 16.500131
19.557788 9.439999
15.952130 19.396520
23.865601 9.310688
16.342747 9.878720
18.970474 4.663712
36.722993 14.461855
9.826375 10.071584
15.213068 8.568950
21.482387 2.635234
16.316971 11.287749
27.568625 8.001448
22.644083 15.050573
21.641907 8.635576
16.485070 11.599740
21.500850 13.853986
11.095246 10.417755
12.908659 5.529769
18.369298 8.324549
18.902271 10.538614
24.257116 9.205532
25.302353 8.434590
27.487292 12.491312
23.837482 3.587558
18.600466 14.423974
24.128360 4.084731
19.157207 5.208763
18.177927 16.293645
14.029996 8.859668
27.280196 12.047238
10.354952 14.251443
16.346846 10.721150
19.232962 9.499348
16.757527 7.702867
19.081181 7.256950
22.715119 12.963035
31.331229 14.746929
26.812549 15.289170
29.748972 4.844449
19.875777 14.493709
20.521979 12.934840
26.016850 6.586099
11.198943 1.120798
21.799023 4.275439
13.915324 10.072212
25.374283 -3.284295
16.242118 -0.868536
24.032729 15.311804
21.612477 5.706845
16.617982 -8.574958
24.959834 3.899790
26.754164 0.521923
19.700076 2.824560
12.664484 -3.240305
29.916410 9.636829
25.917103 8.320479
22.604628 -3.245488
31.644986 5.274148
27.575243 13.038845
27.510371 -0.333482
20.009607 9.455023
22.372235 4.353667
21.690563 -7.675295
26.065602 2.719074
14.743575 2.481219
28.242868 10.170206
21.490122 0.884309
32.808829 16.392347
18.049441 10.370151
33.234718 13.225222
19.999334 14.209395
35.056884 1.455504
34.263137 0.067610
18.792206 0.757176
28.011613 14.156936
30.795082 -0.099384
34.450461 3.466239
20.056973 10.791557
27.047026 9.481776
24.308889 10.454563
27.282008 -1.486100
25.308997 24.607862
30.674725 14.691302
42.585818 3.128867
30.689030 -7.087564
14.491179 -0.984825
20.425501 -3.669742
28.625784 2.862397
28.317102 -3.001449
11.788565 -0.976718
23.123296 6.594940
33.403451 4.402264
24.382139 -6.932417
16.198234 -9.715737
28.449879 1.442299
24.545351 -7.293550
43.669372 7.743333
14.390761 -18.453093
9.483102 1.442423
15.619968 2.106928
29.404234 -7.152151
28.678265 7.350159
32.825030 1.086914
33.343624 0.621763
24.843599 0.669261
28.744985 -58.074794
-7.596160 64.726055
12.832690 33.595805
16.086870 -17.175660
9.959311 0.213058
5.093121 17.977715
-5.278544 23.965561
10.658119 19.264488
31.966852 -13.475687
50.219513 -9.010183
86.959774 -26.967226
-152.461818 -32.530660
7.463802 -28.728405
43.230363 -33.505532
22.711760 -55.813433
-6.817511 -44.826343
-7.674701 13.281561
32.110193 1.467189
36.214210 -0.730300
31.962468 -6.008662
16.286718 105.594824
26.929908 -361.840191
55.095979 -111.081225
52.598009 -123.988615
-12.733445 -75.466980
79.560881 -178.141546
-1059.814690 1675.550599
-169.451979 90.189836
-106.573526 23.242434
-65.077293 80.061400
