18439.134783 15878.944109
-11574.084097 -1502.047229
1057.677016 4759.833653
3187.750023 -1103.001641
519.847108 -85.445698
-1337.426504 195.877688
41.952509 -239.246620
-450.032894 -58.978582
372.410113 272.857281
742.248623 -538.147363
227.283528 189.408487
201.993004 -711.706246
142.470439 -420.733723
464.267951 -670.356321
209.485524 -91.982581
-271.473816 -515.552753
327.696071 -476.418998
15.124501 19.296449
257.018452 -135.776881
-71.404241 -168.706477
272.918316 -272.984872
167.355642 -222.004281
142.436204 -92.287706
138.923487 -191.203742
102.065179 -179.749531
120.321341 -122.609415
-26.692471 -122.125301
61.444780 -130.231712
28.027713 -96.016318
-75.605768 -198.757997
39.916808 -252.098887
-54.602367 -166.320571
-69.067026 -202.671466
-58.266140 -203.558078
-99.332061 -193.083396
-108.532401 -176.675451
-95.611359 -181.591533
-147.362999 -134.035429
-139.256681 -150.187874
-188.398265 -166.261831
-142.441102 -100.110374
-168.449842 -39.860578
-181.981177 -2.067592
-135.946419 13.030783
-142.920226 59.691381
-111.782216 101.215233
-138.570014 75.689927
-100.480418 103.791187
-87.026593 95.563717
-92.147162 96.204623
-41.281816 88.927988
-8.477234 94.246650
16.096734 144.109957
25.302554 91.982047
53.990359 92.621884
68.163524 68.774485
59.435310 63.022439
71.712238 48.183037
71.757769 28.823446
78.698252 0.749849
123.961368 10.131755
81.128878 7.594266
92.787996 -8.267541
68.381509 -10.492651
61.907446 -32.060276
56.698110 -18.448699
40.182062 -32.327413
27.293265 -21.939963
36.947992 -44.203172
42.266468 -25.868022
52.997945 -21.066056
43.215660 -28.386949
52.243192 -18.090503
41.847094 -23.158858
43.937716 -11.572440
49.332684 -19.741371
52.521164 -20.782212
53.662469 -11.522567
59.296329 -45.281109
71.907461 -31.763065
78.579766 -44.765479
60.867637 -37.728070
56.458855 -55.683222
56.050318 -63.001994
49.630714 -55.337633
35.601600 -78.994827
40.493947 -83.002944
35.242416 -75.102908
12.039501 -87.411598
16.797673 -82.796905
2.924727 -71.968903
-13.335175 -59.323678
-19.254972 -58.505597
-20.472668 -56.015746
-21.241859 -39.242477
-20.443825 -33.638410
-28.078620 -20.469172
-20.634584 -19.339996
-18.231402 -6.831044
-20.708272 -5.341601
-6.271346 3.200755
-5.748008 13.369413
7.439834 12.026668
16.007781 7.753218
27.355943 15.813155
30.048235 9.246471
33.760550 5.319815
45.061570 -0.228983
49.366653 -6.704604
51.705904 -5.253729
57.599425 -17.055235
57.523950 -16.352745
55.231425 -27.649658
51.002512 -38.009795
49.975293 -42.170260
41.370241 -51.802067
40.639601 -52.905915
38.598524 -61.560966
32.366123 -59.429579
28.498773 -60.131367
19.340947 -63.539325
15.666717 -64.568018
15.370249 -66.516887
7.062243 -64.529016
3.017314 -68.582537
1.434599 -63.184462
-6.631296 -61.847539
-4.458271 -57.158635
-12.724722 -55.387672
-13.645742 -56.442378
-15.990557 -55.747239
-21.218685 -50.779569
-23.600906 -50.972328
-27.086701 -47.140572
-28.782315 -39.419227
-32.531674 -39.158326
-34.498809 -34.451267
-32.734594 -33.217366
-36.797924 -28.383668
-36.477907 -24.251195
-38.271254 -20.506030
-39.514495 -14.704782
-35.871693 -8.950072
-40.367916 -2.628323
-32.660906 2.053507
-34.908255 3.530736
-24.292928 7.542930
-26.850463 10.175814
-20.877141 12.026128
-17.249748 18.681293
-11.983009 16.167962
-7.308136 21.317797
-2.935986 20.204055
4.752325 19.606318
11.225526 21.136933
11.579224 17.160187
17.565749 12.516214
20.575877 12.794429
18.967850 6.958823
23.580262 2.190682
27.156004 -0.834285
26.889647 -0.751271
26.813572 -8.588639
25.826332 -10.517689
24.550373 -15.881755
23.674559 -19.607071
18.142425 -21.383133
16.083486 -25.133742
11.825705 -26.249629
12.741953 -24.250651
9.092398 -26.735270
8.559470 -23.275177
2.096867 -26.181304
-0.109957 -23.452089
-3.708790 -23.688213
-6.965978 -22.638021
-9.625059 -18.953906
-8.305147 -16.053642
-10.599193 -12.607675
-10.928901 -10.714265
-8.797956 -8.807439
-8.427903 -7.339007
-9.732373 -3.782524
-10.169653 -2.786730
-8.090005 -0.766138
-6.013709 2.311363
-4.921448 5.257068
-1.847224 4.882329
0.928581 6.619994
2.696931 7.735621
5.434874 7.116275
5.047170 9.303816
8.275409 8.451973
7.764631 10.040437
12.759250 7.429278
17.432153 8.449531
17.864415 6.676488
19.812097 2.778270
21.165374 0.371168
23.599514 -0.357600
22.923495 -2.241048
21.392692 -3.430154
21.883686 -6.329992
22.235596 -7.454503
24.570275 -9.121868
22.177921 -8.502170
21.403893 -13.573852
20.739813 -12.880974
19.057712 -14.772631
20.108346 -13.068870
17.601050 -15.010084
16.732149 -14.553161
16.819055 -15.641744
18.207682 -16.578380
16.231189 -17.304565
17.417903 -18.419590
16.176501 -18.854460
16.824423 -20.158288
15.530202 -19.756163
16.883654 -19.409522
14.987037 -21.512823
15.939096 -21.184697
13.908133 -23.152515
15.392304 -26.284038
12.736620 -25.636614
11.010514 -29.268389
7.876955 -28.314654
6.648245 -28.138060
4.440979 -28.187731
2.845819 -29.951522
0.764166 -27.782281
-1.865957 -27.875460
-3.517427 -28.185361
-5.114876 -25.134327
-6.944121 -23.131813
-9.730496 -20.719520
-10.103575 -17.393630
-10.047681 -16.999771
-8.437094 -14.193773
-8.629446 -12.441669
-7.483696 -9.918864
-6.218315 -9.059438
-3.962416 -7.112302
-3.151821 -7.043718
-2.334067 -4.494230
-0.434970 -6.844135
2.646964 -6.671096
4.525330 -8.411625
6.068686 -8.757027
5.763541 -10.733008
5.720751 -13.300979
5.605110 -12.204204
3.954664 -14.485761
3.764592 -15.012733
3.071074 -16.833873
1.210680 -17.982039
0.998560 -19.118778
-2.723947 -18.920989
-4.694056 -18.889682
-6.484216 -17.801196
-7.804442 -14.421720
-9.073031 -14.432487
-9.140399 -10.756657
-10.851361 -8.631831
-11.146240 -8.842903
-9.392627 -6.453769
-9.535711 -2.596960
-8.291091 -1.600789
-6.486116 -1.013344
-4.526946 0.668538
-2.650381 3.679915
-0.821087 1.883253
2.484933 1.455800
3.231980 0.434345
4.840875 -1.826279
5.687421 -3.136249
6.295353 -4.616273
5.851682 -6.655213
7.251671 -8.160403
6.262528 -8.548801
5.103145 -9.898519
3.910484 -11.619612
2.732830 -13.289464
0.006508 -13.560232
-2.982837 -13.999302
-4.594125 -11.960410
-5.675484 -9.927217
-8.203627 -7.436174
-8.280584 -6.376361
-8.935720 -4.123673
-8.032980 -1.177676
-7.771476 -0.332300
-6.772618 1.488076
-5.171996 4.002682
-2.972591 6.159059
-1.295773 7.775663
0.756374 6.429782
4.032305 7.679966
6.148620 7.049054
7.777748 6.778932
8.694437 4.140399
10.450796 4.025852
11.249711 2.168541
13.038850 0.572903
13.579165 -1.793025
14.674333 -2.805642
14.450867 -5.333034
14.083253 -6.991059
13.006671 -8.142606
11.803318 -9.467157
10.030527 -9.668147
9.086566 -10.999049
7.496155 -11.429078
7.974179 -10.436321
5.473071 -10.033835
5.643590 -10.321673
3.454807 -9.608299
4.592244 -7.740867
3.915266 -7.303126
3.461125 -6.643944
4.113645 -5.727683
7.037048 -4.986553
6.100760 -4.619767
7.560940 -5.239899
8.218486 -6.067413
9.817037 -7.084068
8.298229 -5.936812
9.891795 -7.649979
10.309696 -7.924909
10.783605 -9.187527
10.135368 -8.637028
9.585819 -11.765801
9.372498 -11.358457
8.355452 -13.274395
7.470625 -13.543225
6.032349 -13.543952
5.098379 -13.140936
4.641288 -13.905045
4.332368 -12.562201
3.366149 -13.210871
3.840263 -12.502587
3.541655 -11.934539
2.107450 -11.807450
3.575552 -12.773100
3.345507 -10.537191
2.387449 -9.512498
3.094543 -10.693055
4.056201 -10.644762
5.053468 -10.262023
4.691122 -10.928108
5.497273 -11.880323
4.472898 -13.376402
5.081749 -12.002378
4.544245 -14.376166
5.217116 -14.214057
3.591401 -16.033362
3.870530 -15.333554
1.146857 -16.880036
0.758495 -17.135321
-0.910600 -18.349578
-2.820979 -16.993463
-3.719127 -16.518384
-5.435265 -15.901349
-6.439403 -14.380331
-5.667271 -12.770153
-7.825969 -12.580651
-7.924713 -11.325355
-9.368369 -9.861644
-8.920746 -8.989136
-9.274137 -7.203678
-7.478064 -5.458618
-8.113651 -5.261095
-6.213247 -4.221485
-6.193082 -2.851391
-3.065026 -2.245448
-4.639825 -2.581186
-2.465881 -1.529217
-2.691183 -2.255120
-0.122334 -2.095679
0.982946 -1.172478
1.325256 -2.888224
2.331821 -2.446526
2.014123 -4.081751
2.779308 -4.666160
2.909502 -6.507091
2.075976 -6.791204
3.023261 -8.475132
2.621783 -7.453897
2.258318 -7.848488
2.279809 -8.734944
1.577223 -10.138728
0.875034 -9.359697
0.555736 -10.738000
-1.093060 -10.005453
-1.517732 -11.818869
-1.942227 -9.836123
-3.954499 -11.104269
-4.486224 -9.991228
-4.857514 -9.538780
-6.255940 -9.210245
-7.246864 -9.317353
-7.322297 -7.371476
-8.806703 -7.398774
-8.441841 -5.625293
-9.385771 -4.115328
-8.946573 -3.235020
-9.815404 -2.359849
-7.289055 0.752744
-8.281027 0.634787
-6.620983 2.180092
-7.080845 3.838704
-5.474812 4.266376
-5.496974 5.699741
-3.446848 5.964237
-2.511058 6.704109
0.158124 7.478952
1.280333 7.232692
3.244439 7.176129
3.872435 6.817797
5.905799 6.345985
7.041123 5.546038
8.165161 5.000284
8.748334 4.221307
10.552216 2.613119
10.439250 2.002081
11.774639 0.214075
12.183466 -0.419936
11.388910 -2.159583
11.887875 -3.308161
12.563464 -5.385507
11.353853 -4.517038
11.053650 -7.112841
9.901194 -7.323048
10.078939 -8.683645
9.905736 -8.546333
9.572086 -10.614254
7.610225 -10.177446
7.509122 -11.116636
7.400799 -11.060884
5.909613 -12.349563
5.931574 -11.403356
5.717981 -12.638572
4.394145 -13.195388
3.553847 -13.663056
1.760059 -13.379783
0.551672 -13.998187
0.348738 -12.604099
-1.607206 -13.333721
-1.879120 -12.675794
-3.349341 -12.089246
-3.135453 -10.019599
-5.005040 -11.053405
-5.244682 -9.114509
-6.066033 -8.469947
-5.843107 -6.695506
-7.178118 -4.898159
-5.759232 -3.293400
-5.037801 -1.971721
-3.427071 -1.373022
-4.187565 -0.032772
-1.260621 1.581131
-2.093211 2.094630
0.820827 1.912588
1.664621 2.043361
4.695354 2.758342
5.180756 1.749787
8.102797 0.926390
8.407846 -0.283177
10.221280 -2.100197
10.497797 -2.907659
11.482356 -5.195594
11.512297 -6.945191
11.591498 -8.677158
11.169563 -10.639183
10.450276 -11.984919
9.391932 -13.840816
7.764767 -15.731613
6.050245 -15.421826
4.032128 -18.234380
2.176340 -16.907876
-0.073034 -17.831781
-1.209533 -16.654378
-2.863917 -17.182042
-5.187605 -14.781746
-5.605560 -14.932367
-5.773293 -13.110578
-7.409774 -12.881500
-7.247832 -9.582490
-6.778126 -8.782192
-7.849739 -7.479700
-6.136832 -6.818067
-5.032107 -5.571891
-4.818501 -6.148065
-4.866431 -5.929380
-4.007259 -6.321037
-3.424880 -6.103067
-4.028568 -5.593274
-3.933716 -5.918238
-4.270142 -7.040078
-4.029139 -6.558058
-4.223949 -7.103239
-4.981320 -6.873347
-6.087159 -7.800122
-6.601452 -7.275587
-7.205731 -6.435814
-7.672350 -5.479715
-8.320343 -4.607396
-9.062136 -2.888860
-10.114822 -2.291302
-8.593779 -1.471424
-9.116400 -0.053164
-8.661864 0.732021
-8.562618 3.111488
-7.346677 4.621370
-7.005171 5.293392
-4.088501 6.937451
-3.479134 7.759589
-1.053096 6.739972
0.591694 6.946818
3.008676 6.537781
3.718753 5.645724
5.360376 5.036600
6.174068 3.731534
8.050597 2.034621
8.853350 1.651191
8.261219 -0.869208
8.604114 -1.715420
8.035693 -3.846881
7.071620 -4.732566
6.873963 -6.991303
5.145849 -6.219947
4.161773 -7.487275
3.103491 -7.326125
2.209511 -8.242443
1.399755 -7.659287
0.674138 -7.322715
-0.912679 -7.165780
-0.741501 -7.268816
-1.396671 -5.303097
-1.876588 -5.465529
-1.600386 -4.012499
-2.169752 -3.198742
-1.133953 -2.765160
-1.557411 -2.836712
-0.346821 -1.800720
-1.222025 -2.319515
-0.581835 -2.082121
-0.298230 -1.962096
0.222485 -1.056524
-0.373529 -2.530289
0.938461 -1.336170
0.601489 -2.163641
0.378792 -2.189064
0.108527 -2.909201
0.557704 -1.716371
-0.555034 -1.888707
-0.165212 -1.118502
-0.169714 -0.648449
-0.282011 0.289417
-0.264050 -0.129787
0.192869 1.167380
0.130646 0.651979
1.511368 1.295002
1.234354 2.416759
3.808252 2.089788
4.028918 2.838678
5.406184 3.257810
6.353595 2.871601
8.054772 2.774101
8.461361 1.513721
10.060216 1.070169
10.878135 -0.211595
11.955497 -1.292056
12.806424 -1.949849
13.091286 -3.469407
13.109525 -6.390745
13.176961 -7.719713
12.837960 -8.608773
13.064080 -10.806385
11.831496 -11.710672
10.324939 -13.960172
10.018202 -14.642761
8.515430 -16.054735
6.968741 -16.083857
5.149371 -17.912796
3.932780 -17.353834
2.716987 -18.028571
0.593041 -17.687317
-1.276108 -18.014380
-2.338583 -17.042377
-3.378029 -16.993672
-5.200228 -16.097772
-6.543572 -15.654562
-6.127537 -13.979884
-8.733439 -13.460269
-8.967406 -12.216450
-9.876353 -10.988560
-9.760070 -10.037292
-11.504539 -8.263813
-10.570517 -6.772262
-11.207878 -5.883216
-10.109905 -3.866969
-10.550060 -3.411301
-9.737510 -1.765750
-9.673133 -0.872622
-8.438365 0.773045
-8.495508 1.405720
-6.764709 2.523309
-5.367754 2.662728
-4.394319 4.356712
-3.097142 3.922433
-2.137203 3.861985
-0.913373 4.295894
0.637535 4.041820
1.840621 3.611234
2.724980 3.273986
3.818441 3.072662
5.904461 2.069149
4.999038 0.853481
6.350555 -1.177642
6.717642 -1.697547
6.784569 -3.102558
6.546534 -4.218429
6.831656 -4.996744
5.948659 -6.540368
6.368605 -7.762550
4.473126 -8.343435
4.696266 -9.245149
3.107819 -10.519001
2.709767 -10.548643
0.510229 -10.949117
0.243155 -11.587132
-1.154791 -11.205915
-1.739857 -11.211318
-3.136420 -10.858307
-3.897071 -10.859274
-5.042118 -9.981230
-6.619593 -9.836207
-7.404956 -8.992494
-7.755001 -7.719557
-8.551312 -6.427427
-9.657454 -5.445371
-9.005048 -4.900881
-10.281979 -3.537987
-9.836928 -1.847572
-9.889543 -1.393162
-10.078207 0.499849
-9.973898 1.526993
-8.949925 2.973755
-8.642276 3.916797
-7.658047 6.022698
-6.394883 6.689933
-4.887387 7.766227
-4.782532 8.608292
-3.396660 9.193578
-1.418427 9.452215
0.438643 10.379457
1.810146 10.491707
4.334173 9.816644
5.518887 9.821150
7.270636 8.911630
9.472272 7.805024
10.202857 6.468737
11.290320 5.132118
12.389969 4.088226
13.144160 1.925359
13.880353 0.153917
13.645810 -1.000352
13.498589 -3.822530
13.559630 -4.968193
12.710231 -6.602904
11.508615 -7.808940
10.684353 -9.359263
8.938094 -9.996259
8.806993 -10.766198
6.683320 -10.796007
6.148039 -11.603124
4.584755 -11.705521
3.594335 -11.746549
2.642457 -10.726450
1.627100 -11.053710
0.543753 -10.532342
0.588039 -9.907802
0.186449 -8.696368
-0.213232 -8.660550
0.188132 -8.332400
0.466595 -7.905462
-0.173209 -7.643765
-0.292410 -7.475290
-0.220666 -7.276004
-0.205951 -7.841102
-0.136118 -7.008325
-0.712808 -7.680138
-1.033027 -7.411936
-1.056299 -8.108376
-1.179413 -8.001107
-2.160590 -7.831936
-2.607778 -7.485236
-3.503339 -7.552990
-3.039963 -6.181089
-4.987614 -5.857723
-4.023149 -5.369617
-4.600875 -4.325720
-3.844783 -3.092331
-4.619919 -2.345092
-3.996302 -1.178550
-3.236652 -0.060525
-2.721392 1.047461
-1.561425 1.373973
0.125070 1.891056
0.448967 2.059449
2.872796 2.156826
3.843379 1.643898
5.714308 0.781456
7.023431 0.326557
7.760514 -1.016560
8.200191 -2.828677
9.463436 -4.076591
9.311685 -5.540640
9.743182 -7.820641
9.227770 -9.505263
8.427451 -11.612346
7.263148 -12.566570
6.041438 -14.547306
4.303890 -14.941385
2.479171 -16.587585
1.090533 -16.166535
-1.270869 -16.702070
-3.114735 -16.954598
-4.617169 -16.059040
-6.520104 -14.882126
-8.203442 -14.907128
-9.870811 -12.639846
-10.110624 -11.627530
-11.269004 -9.919814
-11.807305 -8.573464
-12.223186 -6.648236
-11.905737 -6.473659
-11.787823 -4.441445
-11.513566 -3.597631
-10.477265 -2.203606
-10.953213 -1.392912
-10.020204 0.132264
-9.354222 0.346557
-8.448459 0.621085
-7.948014 1.376262
-7.046450 1.953017
-7.522869 1.479931
-6.145360 2.549873
-6.207692 2.695386
-5.905446 3.569121
-5.849137 3.589973
-5.268107 4.399437
-4.798497 4.269629
-3.878833 5.543285
-3.770027 5.318698
-2.271312 5.957391
-1.673333 6.770526
-0.710001 7.165242
-0.045855 7.262010
1.767981 8.107329
3.104187 7.700272
4.284643 6.924785
5.766080 6.616702
7.348800 5.840737
7.856157 4.846082
9.398050 3.656992
10.130541 2.329909
11.167498 0.761732
10.643327 -0.772922
11.278207 -2.369641
10.803008 -4.235382
10.647722 -6.337789
10.118622 -7.101983
9.360600 -8.566413
7.713622 -9.693379
6.835973 -10.996440
4.441400 -11.261151
3.780551 -12.755066
2.072647 -12.646713
0.974943 -12.281600
-1.054198 -11.709131
-2.270627 -11.780148
-3.956633 -10.185571
-4.954999 -9.913952
-5.672858 -8.843798
-5.967280 -7.203545
-6.414211 -6.494261
-6.630289 -5.581624
-6.701885 -3.518723
-7.273996 -2.938134
-6.590427 -1.333604
-6.393484 -0.351211
-5.171349 0.927872
-3.979802 0.937860
-3.236034 2.374554
-3.038594 2.561083
-1.456567 2.823204
-0.814920 2.178682
0.590523 3.178064
1.298367 3.316183
1.890257 3.304891
2.927196 2.559252
4.033919 2.337621
4.621863 1.636639
5.684246 1.221074
6.072939 0.714670
6.955576 0.076003
6.679521 -0.801219
7.852442 -1.625442
8.186576 -2.191967
8.834664 -3.156562
8.297916 -4.204484
9.021884 -5.293586
8.930308 -6.829291
8.934074 -7.677058
7.585493 -7.951176
7.727132 -9.809304
7.178541 -10.650158
6.570119 -11.382242
5.285181 -12.520483
5.250580 -13.305686
3.568528 -13.245408
2.714670 -14.253017
1.359892 -14.500612
-0.028607 -14.698541
-1.457334 -14.315899
-2.541407 -14.554970
-3.944028 -13.847261
-4.981471 -13.707730
-5.980207 -12.862194
-7.510640 -12.503258
-8.337269 -11.431758
-8.769765 -11.224465
-9.675648 -9.324818
-10.462803 -8.194236
-10.529067 -7.112636
-10.708712 -6.636317
-10.485997 -4.858746
-10.662441 -3.613742
-10.713061 -2.607448
-10.448916 -1.475759
-9.703554 -0.364040
-9.163453 0.497663
-8.671822 1.635137
-7.668043 2.161692
-6.867972 2.991537
-6.334064 3.109644
-4.980720 3.461598
-4.510704 4.007003
-3.273904 4.281706
-2.733297 4.560310
-1.252837 4.325205
-0.155989 4.006003
1.005852 3.555275
1.291229 3.528186
2.734391 2.811525
3.282270 1.930328
3.808657 1.333502
3.809483 0.844266
4.250505 -0.443100
4.492865 -1.509656
4.840622 -2.333187
4.088416 -3.045307
4.543973 -4.439264
3.516178 -5.037624
2.738745 -6.176927
1.532253 -6.321503
1.182006 -6.911681
0.816470 -6.897093
0.084795 -6.752811
-1.621634 -7.493308
-2.175106 -7.473374
-3.109477 -6.898347
-3.497854 -6.558826
-4.333958 -5.706835
-4.818855 -5.564019
-5.270771 -4.452193
-5.599988 -3.572547
-5.455461 -2.838519
-5.161590 -2.049943
-4.889409 -1.482684
-5.143720 -0.746961
-4.987946 -0.386010
-4.213731 -0.367132
-3.817056 0.902122
-3.199943 0.692570
-2.869527 1.087967
-2.406372 1.298307
-1.906232 1.414195
-1.684088 0.908661
-1.815369 1.171576
-1.534377 1.706657
-1.190919 1.633132
-1.138476 1.818257
-0.612495 1.981638
-0.362653 1.865333
-0.278735 2.630275
0.149774 2.632020
0.925852 3.090002
1.157817 2.793527
2.508825 3.677452
2.530647 3.774193
3.358291 3.816272
4.299249 3.384132
5.155413 3.319848
6.288736 2.728141
7.208068 1.743300
8.174793 0.874657
8.825222 0.257034
9.028395 -0.690524
9.707840 -2.096336
10.099843 -3.081551
9.778386 -4.158909
9.335117 -5.967860
9.367131 -7.349241
8.814363 -8.546785
7.526390 -9.793405
6.626613 -11.147179
5.786179 -11.408765
4.067714 -11.843057
2.942051 -12.646917
1.823957 -12.605847
0.484825 -12.552490
-0.913508 -11.897150
-2.263509 -11.848156
-3.100609 -10.908438
-4.060038 -10.502345
-4.681715 -9.079633
-5.352307 -8.407514
-5.553495 -7.434159
-4.884648 -6.793292
-5.222996 -5.442777
-4.659170 -5.564999
-4.894900 -4.343178
-4.119500 -3.807650
-3.894256 -3.445333
-3.606566 -3.250334
-3.484323 -3.399464
-3.042011 -3.753536
-2.926501 -3.582885
-2.311286 -3.751366
-2.447788 -3.863590
-2.492373 -4.104482
-2.566623 -3.103584
-3.009008 -3.787261
-3.222647 -3.578250
-3.641839 -3.643455
-3.701059 -2.961772
-4.076021 -2.941444
-3.874821 -2.656954
-3.838437 -2.127012
-3.901672 -1.225616
-3.284826 -0.391758
-2.934171 0.410714
-2.701773 0.619014
-1.724566 0.483796
-0.865075 0.444678
-0.262448 0.356791
0.696680 0.166772
1.653728 0.296389
2.034225 -0.243970
2.948483 -1.202057
3.631052 -1.705030
3.851337 -2.913904
3.938494 -3.991954
3.858302 -5.228229
3.594467 -6.065574
3.232425 -7.585049
2.005346 -8.152360
1.365489 -9.114968
0.006803 -9.158928
-1.412803 -9.973635
-2.398735 -9.683285
-3.488019 -10.201762
-4.977538 -9.725845
-6.403573 -9.329069
-7.403275 -8.555727
-8.403712 -7.398234
-9.448369 -6.467391
-9.736556 -5.121407
-10.193435 -4.028963
-10.189734 -2.610984
-9.954973 -0.809236
-9.612784 0.243107
-9.244511 1.074970
-8.834054 2.408126
-7.519711 3.824061
-6.734028 4.342400
-5.476430 5.031283
-4.435477 5.072094
-3.622108 5.756311
-2.613572 5.670935
-1.634272 5.677439
-0.574191 5.473111
-0.111623 5.364909
0.806442 4.723213
1.910034 4.636586
2.702545 3.959635
2.966075 3.612154
3.163680 3.055778
3.758509 2.426739
3.806788 1.741335
4.134608 1.328770
4.333264 0.891046
4.757877 0.113321
4.899555 -0.606501
5.158685 -0.666049
4.809868 -1.390376
4.875491 -1.840115
4.651711 -2.151591
5.122599 -3.062813
4.518358 -3.937179
4.711932 -4.123661
4.515438 -4.746918
4.249709 -5.061891
3.761528 -5.976593
3.336268 -6.572226
2.562355 -6.719703
1.967153 -7.065993
1.475860 -7.017498
0.759843 -7.267919
0.121769 -6.794789
-0.739490 -7.466529
-1.370344 -7.412709
-1.613646 -7.118309
-2.345601 -6.450104
-2.681401 -6.283400
-3.086835 -5.542119
-3.279866 -4.972195
-4.120784 -4.460518
-3.643882 -3.844998
-3.703548 -3.208968
-3.893766 -2.434210
-3.921457 -2.069193
-3.304292 -1.325103
-3.265598 -0.721122
-2.540216 -0.390075
-2.185195 0.463558
-1.842675 -0.019460
-1.035312 0.213065
-0.312307 0.361742
-0.057688 0.138601
0.502927 -0.085537
1.348641 0.288491
1.633152 -0.001419
1.995028 -0.379735
2.809290 -1.133663
3.376313 -1.131907
3.874017 -1.956293
3.616217 -2.611082
3.899055 -3.276685
4.103685 -3.835387
3.905344 -4.055764
4.012502 -5.181698
3.781760 -5.863596
3.667586 -6.006120
3.260143 -7.132897
2.690548 -7.711895
2.302636 -8.612292
1.562416 -8.493519
0.779475 -8.533052
0.279285 -8.982414
-0.231006 -9.159599
-1.251750 -9.194601
-2.101555 -9.239220
-2.872113 -9.395287
-3.364685 -9.277137
-4.154570 -8.855446
-4.984891 -8.501960
-5.621718 -7.706856
-6.211246 -7.138403
-6.390724 -6.178293
-6.702477 -5.557561
-6.706597 -4.936829
-6.847633 -4.199500
-6.996441 -3.515250
-6.777249 -3.137889
-6.825355 -2.397762
-6.476594 -1.805937
-5.943540 -1.215370
-5.998320 -1.135168
-5.542626 -0.747109
-5.296086 -0.404641
-4.597801 -0.249249
-4.747865 -0.127552
-4.095088 0.000212
-3.841006 0.274001
-3.547240 0.150586
-3.171742 0.360222
-3.006773 0.371793
-2.835935 0.454455
-2.492677 0.145546
-2.391110 -0.104879
-2.322423 0.096893
-2.410204 0.609230
-2.211488 0.701604
-1.729642 0.800971
-1.313622 0.625598
-0.958330 0.648416
-0.575327 0.432079
0.003963 0.303467
-0.154550 -0.463775
0.204080 -0.069883
0.259311 -0.144632
0.399275 -0.469651
0.655172 -0.906638
0.966103 -1.164300
1.052002 -1.905182
0.985417 -2.304822
0.646864 -3.063311
0.285798 -2.948656
-0.401917 -3.145463
-0.729556 -3.144297
-1.213976 -3.639787
-1.160368 -3.311129
-1.632443 -3.414959
-2.486946 -3.372493
-2.738656 -2.977206
-2.833948 -2.646420
-3.479468 -1.742647
-3.439227 -1.113200
-3.165314 -0.728799
-3.034766 -0.467759
-2.559612 0.098364
-2.239621 0.353238
-1.738151 0.846717
-1.369436 1.069272
-0.770406 0.824398
-0.474150 1.126755
0.189917 1.444900
0.829881 0.880626
1.023083 0.880288
1.804232 -0.000742
2.213767 -0.151415
1.957788 -0.948419
2.021016 -1.828986
2.373097 -2.251374
1.595502 -2.102133
1.663853 -2.560486
1.404996 -3.445500
1.440596 -3.760043
0.634295 -3.680519
0.122511 -3.411302
-0.373530 -3.558071
-0.618990 -3.230959
-1.162141 -2.990677
-1.090854 -2.564184
-0.945894 -2.273839
-0.975886 -1.564272
-0.644508 -1.391475
-0.243535 -0.960767
-0.411680 -1.094008
0.543784 -1.001777
0.562200 -0.791820
1.118879 -1.113833
1.884514 -0.984916
2.524304 -1.654559
2.824982 -2.347357
3.379945 -2.722050
3.143836 -3.667293
3.127602 -4.914066
2.898031 -5.186577
2.669813 -5.793474
2.194545 -6.777496
1.560862 -7.141591
0.820577 -7.379941
0.284314 -8.266157
-0.916570 -8.461589
-1.580856 -8.360919
-2.144403 -7.755310
-3.126786 -7.655148
-4.264038 -7.066065
-4.594229 -6.237503
-5.254389 -5.778301
-5.172427 -5.223309
-5.459869 -4.011698
-5.539307 -3.411090
-5.502939 -2.665752
-5.374106 -2.120096
-4.772487 -1.631362
-4.234792 -1.364925
-3.892692 -0.790193
-3.366171 -0.293630
-2.896712 -0.487213
-2.272834 -0.624559
-1.716363 -0.784793
-1.558114 -1.067648
-1.580773 -1.590841
-1.225037 -1.760579
-0.835725 -2.131073
-0.987707 -2.788433
-1.041819 -2.849249
-1.084560 -2.905464
-1.408357 -3.336189
-1.616467 -3.595788
-1.929740 -3.473091
-2.451923 -3.429926
-2.731340 -3.341954
-2.660431 -3.321515
-2.690212 -2.943902
-3.256274 -3.102136
-3.220895 -2.983831
-3.124127 -2.525943
-3.258355 -2.122697
-3.121705 -1.710223
-3.095536 -1.702032
-2.792636 -1.842367
-2.858395 -1.544197
-2.541003 -1.652189
-2.223325 -1.401418
-2.393352 -1.481046
-2.482656 -1.614420
-2.226557 -1.419337
-2.453673 -1.867371
-2.632242 -1.521023
-2.404159 -1.702356
-2.475318 -1.759709
-2.626733 -2.258455
-3.002439 -1.871131
-3.317828 -1.630100
-3.352434 -1.263273
-3.711073 -1.024660
-3.732411 -0.766094
-3.484409 -0.497423
-3.402688 0.232984
-3.298118 0.479712
-2.872672 0.896920
-2.663962 0.807321
-2.279968 0.859574
-2.309943 1.249855
-1.467542 1.648118
-1.613464 1.638664
-0.896157 1.880732
-0.215570 1.589403
0.263666 1.409360
-0.027612 1.271284
0.806874 1.246319
0.886201 0.633556
1.298873 0.261773
1.172814 0.131623
1.625856 -0.198284
1.226349 -1.194505
1.763038 -1.009431
1.157117 -1.403926
1.180630 -1.754898
0.757731 -2.160846
0.944684 -2.005515
0.481934 -2.295709
0.443187 -1.925800
0.040793 -2.398697
0.150474 -1.982427
-0.043586 -2.109830
-0.225732 -2.322619
-0.475222 -2.562841
-0.359320 -2.287932
-0.976806 -1.786471
-0.945090 -1.690160
-1.010647 -1.206689
-0.454505 -1.372855
-0.963925 -1.095881
-0.392101 -1.272006
-0.184258 -1.388772
0.029018 -0.504552
-0.197792 -0.503375
0.386568 -0.658357
0.440014 -0.674208
0.780719 -0.640714
0.805360 -0.719016
1.008718 -0.921493
1.345289 -1.202894
1.573047 -1.297214
1.734834 -1.443598
1.747557 -2.299103
2.360927 -2.384822
2.265080 -2.797217
1.903428 -3.097974
2.251003 -3.988112
2.275227 -4.082120
1.956289 -4.705755
1.762860 -5.012987
1.475792 -5.453928
0.806785 -5.364958
0.372963 -5.733170
0.252603 -5.614360
-0.260122 -6.568081
-0.926431 -6.473971
-1.117721 -6.421637
-1.711111 -5.960135
-2.435205 -6.298060
-2.873966 -5.904808
-3.332111 -5.471136
-3.696778 -4.911447
-3.800244 -4.694808
-3.928978 -3.988249
-4.564574 -3.872134
-4.099814 -3.380096
-4.396836 -3.083522
-4.155551 -2.813077
-4.055213 -2.101585
-3.571574 -1.974833
-3.346965 -1.584873
-2.947838 -1.605692
-3.578553 -1.730681
-2.796998 -1.537815
-2.736998 -1.429545
-2.323584 -1.178768
-2.567858 -1.307834
-1.928146 -1.761711
-2.147440 -1.428732
-2.155106 -1.212633
-2.224330 -1.101245
-1.775354 -1.755049
-2.193491 -1.696915
-2.006762 -1.459843
-2.433364 -1.192956
-2.061230 -0.935291
-1.641835 -1.111908
-1.117946 -0.894849
-1.403531 -0.992182
-1.011702 -1.094508
-1.123487 -1.135997
-0.826774 -0.974561
-0.506450 -1.695577
-0.557341 -1.981978
-0.328388 -1.908073
-0.533239 -2.440255
-0.432027 -2.470050
-0.475779 -2.933226
-0.314378 -3.200541
-0.785204 -3.751353
-1.203788 -3.933076
-1.767561 -4.367730
-2.122994 -3.995233
-2.415318 -4.202406
-3.231641 -4.381248
-3.695537 -4.171769
-4.466543 -3.821957
-4.743687 -3.425385
-5.071612 -2.822651
-5.460254 -2.033591
-5.804876 -1.511723
-6.027691 -0.582440
-5.784015 0.282180
-5.526513 1.253301
-5.007758 1.466447
-4.872333 2.073883
-4.218024 2.189619
-3.654742 2.988386
-3.039121 3.021416
-2.060931 3.567395
-1.089216 3.497172
-0.975865 3.443692
-0.019026 2.455976
0.381055 2.547826
1.080197 1.712965
1.632094 1.521216
1.469417 0.559474
2.051947 0.353269
2.124705 -0.246904
1.800313 -0.340806
1.879613 -1.137136
1.057880 -1.260262
1.311431 -1.723378
0.643890 -1.830088
0.430097 -1.698301
0.186667 -1.801248
0.309070 -1.602184
-0.049226 -1.358809
0.168691 -1.458060
0.034933 -1.096837
0.307234 -1.082994
0.414916 -0.521934
0.688148 -0.815580
0.838234 -0.431089
1.108317 -0.367367
1.677908 -0.596045
1.956411 -1.151111
2.241604 -1.423980
2.596111 -2.225879
2.454046 -2.318714
2.576927 -3.093648
2.383378 -3.469143
1.836891 -3.731900
1.467893 -4.341424
1.404864 -4.886483
0.607623 -5.143484
0.361383 -5.654989
-0.281153 -5.501493
-1.150332 -6.037690
-1.391269 -5.211554
-2.108467 -5.448169
-2.357484 -4.557404
-3.267204 -4.071578
-3.115760 -3.837854
-3.431930 -3.241500
-3.089898 -2.614761
-3.714997 -2.516278
-2.523663 -1.936938
-2.605879 -1.343092
-2.490636 -0.846535
-1.773778 -0.812703
-1.515133 -0.738028
-1.049456 -0.370309
-0.689527 -0.493761
-0.231408 -0.772620
0.505347 -1.191444
0.247592 -1.477056
0.639160 -1.561860
0.601418 -2.395037
1.116100 -2.723936
0.798991 -2.880592
0.321564 -3.834092
0.586356 -3.848964
0.126657 -4.399332
-0.696449 -3.985837
-0.949247 -4.396331
-1.133619 -4.224696
-1.517138 -4.326649
-1.735425 -3.741589
-1.736361 -4.174232
-1.598597 -3.624150
-1.948276 -3.163483
-1.850629 -3.297399
-2.093502 -3.472238
-1.717078 -3.079712
-1.695642 -2.757845
-1.585514 -3.066018
-1.239319 -3.198309
-1.264068 -3.053604
-1.428667 -3.719628
-1.079013 -3.544549
-1.494329 -4.583809
-1.515099 -4.441938
-2.029756 -4.829771
-2.015775 -5.274020
-2.506473 -5.058666
-2.777199 -5.474757
-3.786282 -5.826473
-4.527831 -5.342362
-5.142707 -5.770271
-5.289596 -4.868944
-6.047757 -4.912305
-6.338956 -3.690956
-7.209547 -3.539449
-7.437554 -2.796918
-7.539053 -1.925032
-7.584944 -1.152752
-7.650213 -0.249915
-7.518620 0.529100
-7.481247 0.965475
-6.928796 2.213600
-6.142486 3.051767
-5.744758 3.123508
-4.901645 4.203686
-4.231709 4.166791
-3.601340 4.346179
-2.859119 4.485937
-1.951732 5.058686
-1.054560 4.522088
-0.294619 4.686386
0.625480 3.887859
1.277881 3.747223
2.321048 3.165538
2.421640 2.727026
2.969612 1.730396
2.812169 1.290757
3.326603 0.234766
3.348900 0.013667
3.200318 -0.453308
3.612155 -1.071771
3.244200 -2.273455
2.959944 -2.362309
2.967163 -3.551599
2.151404 -3.774503
1.810844 -4.261263
1.192492 -4.597105
0.546140 -5.048911
0.368073 -5.394407
-0.692879 -5.471331
-0.964280 -5.459760
-1.659052 -5.563978
-2.434562 -5.029229
-3.239219 -5.107103
-3.324547 -4.196427
-4.094271 -3.864537
-4.418525 -2.871219
-5.126418 -3.225185
-4.463845 -2.226831
-4.988138 -1.610777
-4.665482 -0.891689
-4.917413 -0.599923
-4.467750 0.648019
-4.582159 1.036088
-4.381243 1.678092
-3.792592 1.915173
-2.861140 2.423927
-2.537689 2.357045
-1.474470 3.021835
-1.258914 2.846804
-0.526695 2.935102
0.136790 2.839764
0.668728 2.060571
1.628260 2.221551
2.247591 1.993385
2.164203 1.558665
2.591765 1.047154
2.573847 1.038576
3.161243 0.360465
3.402403 0.114325
3.529777 -0.494417
3.917588 -0.891456
4.169950 -1.828016
4.068304 -1.984964
4.137968 -2.670956
3.753891 -3.106460
4.028413 -3.699681
3.417788 -4.443248
3.761679 -5.154205
3.097299 -5.511985
3.019452 -5.987268
2.948021 -6.323495
2.057026 -7.262488
1.968958 -7.396533
0.609158 -8.129983
0.331856 -8.467357
-0.200725 -8.421509
-0.966980 -8.242241
-2.030789 -8.785713
-2.341305 -8.491883
-3.371394 -8.537631
-4.181857 -7.972594
-4.951927 -8.166671
-5.916359 -7.353500
-6.609305 -7.007142
-6.837778 -5.762491
-7.663935 -5.148629
-7.952928 -4.243691
-7.966171 -3.352219
-8.141484 -2.415032
-7.838959 -1.780171
-7.752045 -0.512236
-7.494519 -0.083193
-6.606072 0.622549
-5.975345 1.414106
-5.045307 1.521327
-4.904559 2.217390
-3.963027 2.152642
-3.182174 1.977554
-2.435202 1.798642
-1.878478 1.785532
-1.403742 1.729181
-1.362884 1.275119
-0.447876 1.147007
-0.889823 0.704295
-0.309535 -0.069380
-0.529064 -0.186788
-0.460763 -0.832871
-0.931163 -1.094133
-0.435832 -1.375698
-1.075941 -1.410070
-1.011919 -1.596960
-1.143815 -1.267141
-1.288257 -1.125437
-1.300367 -1.404798
-1.117860 -1.490560
-1.413858 -1.617761
-1.287571 -1.847970
-1.401361 -1.578354
-1.218746 -1.787628
-1.311657 -1.627643
-1.166030 -1.902053
-1.353383 -2.224338
-0.977912 -2.633345
-0.951040 -2.746551
-1.348791 -3.237217
-1.622747 -3.368725
-2.543936 -3.782105
-2.628176 -3.752902
-3.262300 -3.963217
-3.436259 -3.843375
-4.401363 -3.673660
-5.014387 -3.213765
-5.790823 -3.182785
-6.049122 -2.720522
-6.946802 -1.964382
-7.172069 -1.052981
-7.348805 -0.524722
-7.210268 0.705468
-7.358032 1.538558
-6.940959 2.840305
-6.651060 3.126129
-5.984259 4.295435
-5.300092 4.805755
-4.095764 6.118915
-3.511427 6.488384
-1.725271 6.733459
-0.826711 6.942996
0.398321 6.706248
1.157610 5.928694
2.131417 5.676464
2.903558 5.224641
3.662997 4.495556
4.227408 3.660790
5.342923 2.792907
5.182371 1.843843
5.630847 1.143122
5.654747 0.127726
5.843475 -1.446764
5.301691 -1.578918
4.701393 -2.782508
4.360093 -3.105416
4.033095 -3.363365
3.443925 -3.467730
3.312774 -4.352728
2.656721 -4.109859
2.407587 -4.378527
2.000406 -4.393096
1.496729 -4.481000
1.260688 -4.585615
1.094624 -4.715417
0.925023 -4.368053
1.019064 -5.107489
1.074379 -4.816747
0.436211 -5.177562
0.710739 -5.010565
0.370766 -5.550120
0.189481 -5.599619
-0.638464 -5.989290
-0.664166 -6.209989
-1.635568 -6.716853
-1.960812 -6.746191
-2.835533 -6.526366
-3.319943 -6.154310
-4.198698 -6.525740
-4.680187 -6.004893
-5.302742 -5.407120
-5.791498 -4.747281
-6.136287 -4.116569
-6.263440 -3.181800
-6.912702 -2.735459
-6.916498 -1.790480
-6.713467 -1.042999
-6.264847 -0.080178
-6.152881 1.058656
-5.430697 1.538030
-4.907472 2.321067
-3.976834 2.562631
-3.032960 3.048116
-1.849457 3.032441
-1.297762 3.409620
-0.094104 2.993336
0.682914 2.569913
1.605090 2.093298
1.982513 1.292495
2.984495 0.838574
3.075725 0.094011
4.005106 -1.145113
3.763939 -1.846004
3.962967 -2.812984
3.318293 -3.814748
2.982538 -4.860374
2.434261 -5.202914
2.112164 -6.294140
1.310700 -6.473798
0.712869 -7.356049
0.076476 -7.360480
-1.101447 -7.836492
-1.892055 -7.772265
-2.428781 -7.977952
-3.580980 -7.449394
-4.501342 -7.496444
-4.894019 -7.106039
-5.775506 -6.672793
-6.593832 -6.150324
-7.009155 -5.693422
-7.550287 -4.688153
-7.863391 -4.843012
-7.718017 -3.560591
-8.563200 -3.135281
-8.548497 -2.125510
-8.755874 -1.559503
-8.122727 -0.988732
-8.694870 -0.086556
-8.603070 0.389607
-8.540413 0.937505
-8.071534 1.866141
-7.883887 2.761005
-7.320096 3.299552
-6.759176 4.341202
-5.920472 4.427136
-5.411408 4.851530
-4.466090 5.090273
-4.232916 5.342971
-3.270314 5.474888
-2.712528 5.550806
-1.601552 5.599585
-0.619202 5.302566
-0.376830 5.495774
0.733487 5.035302
1.278606 4.612388
1.910684 4.088557
2.291517 3.704472
2.565837 3.274766
2.956327 2.547308
3.187753 2.400935
3.766449 1.383073
4.146931 0.651204
4.120440 0.120765
3.930195 -0.490184
3.923897 -1.416133
3.495887 -1.635216
3.640761 -2.299829
3.182923 -2.974187
2.956162 -3.491672
2.622226 -3.604205
2.361655 -4.250473
1.979144 -4.497778
1.144749 -4.800018
0.734675 -5.064495
-0.150135 -5.339235
-0.583089 -4.996617
-1.230470 -5.456890
-2.036657 -5.091324
-1.989682 -5.209050
-2.914332 -4.445545
-3.432724 -4.904004
-3.843201 -4.118190
-4.386748 -3.838035
-4.636751 -3.092703
-4.961295 -2.492366
-5.121641 -1.488486
-5.132912 -1.306873
-4.720350 -0.460387
-4.770523 0.183021
-3.833146 1.115492
-3.701362 1.507935
-3.002097 2.104794
-2.891729 2.272408
-1.959355 2.680762
-1.252496 2.501545
0.001827 2.781698
0.350794 2.286195
1.049413 2.162508
1.648170 1.859723
2.258345 1.666738
2.762395 0.782419
3.229383 -0.089283
3.286184 -0.262390
3.847244 -1.372746
3.655396 -2.098997
4.021615 -2.487995
3.276186 -3.157692
3.143381 -3.996659
2.562449 -4.478230
2.577895 -5.018198
1.985828 -5.407251
1.646978 -5.836010
0.985541 -5.832626
0.765444 -6.172031
0.110322 -6.198933
-0.462491 -6.230511
-1.126340 -6.343976
-1.201138 -6.235469
-1.243475 -5.769292
-1.961665 -6.298203
-1.470419 -6.162191
-2.061336 -6.175531
-2.521832 -6.173218
-2.969870 -6.461892
-3.221291 -6.705815
-3.591484 -6.378236
-4.283150 -6.183922
-4.357366 -6.522107
-5.082805 -6.145525
-5.398878 -6.172231
-6.041607 -5.852617
-7.001189 -5.573989
-7.473105 -4.864895
-7.858665 -4.829376
-8.443044 -3.761335
-8.901003 -2.881303
-9.097231 -2.361575
-8.936639 -1.238468
-9.130693 -0.201522
-9.139365 0.170406
-8.905300 1.018160
-8.482286 1.973257
-7.713411 3.188703
-7.449155 3.910762
-6.462581 4.772800
-5.310824 4.844189
-4.256873 5.010148
-3.404054 4.883141
-2.567627 5.190816
-2.071853 5.037753
-0.672744 4.514689
-0.343288 4.081525
0.421993 3.944923
0.870887 3.103987
1.635687 2.104704
1.660823 1.027751
1.708017 0.481774
1.603937 -0.417288
1.181308 -0.696422
1.017016 -1.214492
0.809372 -1.700901
0.196248 -1.784025
0.043778 -1.987803
-0.562415 -2.151298
-0.391653 -2.382564
-0.915332 -2.057314
-1.498346 -2.311036
-1.796884 -1.787627
-1.751781 -1.835178
-1.742132 -1.421385
-1.563894 -1.604502
-2.120972 -1.458191
-2.249118 -1.676086
-2.173679 -1.520239
-1.912422 -1.771934
-2.064143 -2.049925
-1.861851 -2.064609
-2.126394 -2.075059
-2.228160 -2.038756
-2.547583 -2.244615
-2.693942 -2.367949
-3.184938 -2.531925
-3.908968 -2.162809
-3.932873 -1.810122
-4.610110 -1.587740
-5.087124 -1.135950
-5.504170 -0.877245
-5.523493 0.093856
-5.765720 0.810073
-5.352124 1.383678
-5.268187 1.979485
-4.847777 3.047156
-4.730175 3.649273
-3.888408 4.422247
-3.119538 4.989878
-2.193071 5.437526
-0.873784 5.348803
-0.131069 5.313288
1.002176 5.344808
2.209511 5.159209
3.115023 4.856786
3.866512 4.327203
4.707308 3.272694
5.573338 2.115454
6.088593 1.608265
6.446177 0.298051
6.627107 -0.930265
6.297686 -2.364788
6.046601 -3.620756
5.859604 -4.453991
4.825310 -5.343454
4.637197 -5.936259
3.644402 -6.980001
2.746960 -7.519329
1.994002 -7.948220
0.756533 -7.789588
-0.229657 -7.931022
-0.932119 -8.409103
-1.853577 -7.567735
-2.284814 -7.527810
-3.136961 -7.189852
-3.542755 -6.879449
-4.171417 -6.353857
-4.590131 -5.761540
-4.819513 -5.491606
-4.952236 -4.972899
-5.190920 -4.290698
-5.542727 -3.969632
-5.859924 -3.399801
-5.691208 -3.127388
-5.814753 -2.911729
-5.544755 -2.524479
-5.788032 -2.154276
-5.581563 -1.824122
-5.234658 -1.233840
-5.622347 -1.260811
-5.388276 -0.706627
-5.322288 -0.552109
-4.938793 0.031434
-4.903069 0.113191
-4.537285 0.557812
-4.784041 0.507703
-4.589409 1.320547
-4.138629 1.263148
-3.356750 1.579396
-3.013582 1.938152
-2.666086 2.042233
-2.087699 1.602721
-1.522299 2.111430
-1.219563 1.475157
-0.390158 1.302478
-0.730270 0.961578
-0.273901 0.317794
0.405261 0.429835
0.903377 -0.151892
0.780896 -0.880752
0.746024 -1.559982
0.479626 -1.778180
0.534275 -2.654646
-0.138926 -3.278970
-0.299694 -3.765675
-0.789899 -3.915563
-0.946950 -4.031721
-1.684198 -4.369749
-1.905149 -5.012654
-2.943532 -5.123473
-3.577167 -5.073355
-4.313940 -4.943723
-4.969849 -4.761696
-5.394908 -4.575772
-5.903007 -4.215402
-6.659487 -3.747981
-6.940459 -3.180003
-7.212291 -2.157752
-7.794527 -1.847098
-7.964360 -1.301424
-8.056583 -0.807597
-8.093179 0.344048
-8.008658 1.235263
-7.812984 1.837781
-7.351653 2.704823
-7.144194 3.381585
-6.730750 4.073626
-6.528859 4.833855
-5.410911 4.800443
-4.713012 5.573362
-4.079073 6.101471
-3.477327 6.001366
-2.234992 6.375227
-1.447465 6.508313
-0.483103 6.147390
-0.028453 5.686533
0.675107 5.128947
1.761134 5.049216
2.383997 4.436197
2.885555 3.536624
3.119273 2.657506
3.623374 2.109062
3.536435 1.441693
3.848035 0.809871
3.764261 -0.057757
3.576033 -0.956209
3.270820 -1.638900
2.642777 -1.670261
2.587005 -2.306345
1.962781 -2.725642
1.257689 -2.991122
0.731898 -3.235396
0.463463 -3.104192
0.115069 -2.918723
-0.404662 -3.041442
-0.620682 -3.289225
-0.808464 -2.643727
-0.722746 -2.517681
-1.372634 -2.616924
-1.124503 -2.363652
-1.458772 -2.356865
-1.697636 -2.187328
-1.320618 -2.064495
-1.040519 -1.745533
-1.610446 -1.771283
-1.551681 -1.764795
-1.187477 -1.876596
-1.405228 -2.312807
-1.389969 -2.061794
-1.342362 -2.474101
-1.756884 -2.386473
-2.359043 -2.502565
-2.159222 -2.136434
-2.055181 -2.041186
-2.915062 -2.183570
-2.330806 -1.907756
-2.591659 -1.393902
-2.700271 -1.294905
-2.722117 -0.922675
-2.594826 -0.783987
-2.570310 -0.580637
-2.604916 0.004562
-2.113515 0.041116
-1.653592 0.317712
-1.191229 0.493906
-0.726645 0.366587
-0.596963 0.324435
-0.460629 -0.209926
-0.065414 -0.464784
0.328641 -0.751404
0.473782 -0.767557
0.807917 -1.463635
0.722153 -1.746293
0.953100 -2.065899
0.598534 -2.952471
0.358618 -3.299871
-0.269966 -3.843101
-0.651976 -4.013266
-1.177219 -4.387719
-1.713590 -4.381234
-2.132993 -4.226364
-2.767353 -4.373940
-2.886858 -4.160077
-3.367283 -3.953173
-3.990538 -3.792827
-4.160354 -3.703233
-4.444677 -3.145339
-4.520829 -2.366745
-4.180805 -2.282144
-4.348240 -2.159936
-3.917847 -2.006496
-3.976551 -1.487344
-3.762252 -1.799410
-3.779591 -1.455822
-3.373300 -1.614211
-3.617682 -1.536231
-3.531077 -1.852919
-3.527977 -1.551614
-3.739282 -1.877859
-3.729816 -2.035135
-4.074270 -1.554523
-4.066433 -2.037396
-4.722197 -2.197796
-5.016603 -1.578625
-5.597406 -1.527955
-5.541322 -1.094163
-6.037658 -0.787539
-5.757109 0.034231
-6.277668 0.253742
-6.136001 0.905129
-6.179797 1.467041
-5.799362 2.143988
-5.631428 2.520926
-4.800809 3.147885
-4.282994 3.583159
-3.277241 3.729428
-3.158914 4.198749
-2.132588 4.058377
-1.482842 4.195851
-0.918287 3.756155
-0.429039 3.785805
0.342055 3.031097
0.706435 2.575694
0.984916 1.993029
1.444981 1.289588
1.249223 0.830665
1.398891 -0.020670
1.154584 -0.804147
0.752690 -1.348381
0.313398 -1.575540
-0.152549 -1.625137
-0.894041 -2.009753
-1.132578 -2.078988
-1.184494 -2.543548
-1.826116 -2.198798
-2.312503 -1.911166
-2.487243 -1.639071
-3.269696 -1.130669
-3.561758 -0.826903
-3.484284 -0.437627
-3.467063 -0.081575
-3.147058 0.471011
-2.967051 0.744426
-2.565019 1.184316
-1.956619 1.003219
-1.815108 1.026087
-1.894911 0.904176
-1.295961 1.050510
-1.054585 1.101959
-0.790499 0.687494
-0.708652 0.787911
-0.418378 0.538490
-0.498528 0.351072
-0.263238 0.235429
-0.670554 -0.113203
-0.558301 -0.142727
-0.472335 -0.247305
-0.387339 -0.451028
-0.476103 -0.313246
-0.913165 -0.374127
-0.802148 -0.412963
-0.678769 -0.034717
-0.962391 0.255240
-0.564464 0.126882
-0.498232 0.432061
-0.385107 0.327119
-0.337205 0.157877
0.183878 -0.010482
0.418936 0.111243
0.208683 0.213643
0.571810 -0.236254
1.319953 -0.537770
1.184594 -0.589556
1.453303 -0.731091
1.529072 -1.772272
1.773986 -2.372500
1.722724 -2.985881
1.233181 -3.642815
0.898240 -4.052265
0.711078 -3.936944
0.079479 -4.330458
-0.225901 -4.542527
-0.713498 -4.921715
-1.293969 -4.965024
-1.822431 -5.212525
-2.569101 -5.071903
-2.564884 -4.779328
-3.107741 -4.766941
-3.587050 -4.341995
-4.287597 -3.988494
-4.314534 -3.577699
-4.341596 -3.482025
-4.655474 -2.525502
-5.161646 -2.473269
-5.046496 -2.031504
-5.108359 -1.622217
-4.694493 -1.206692
-4.700881 -1.338082
-4.390927 -0.599438
-4.348761 -0.516861
-4.273350 -0.581660
-4.126211 -0.176528
-3.796524 -0.133041
-3.279259 -0.092299
-3.176889 -0.038152
-2.907279 0.020276
-2.197400 -0.258343
-2.590206 -0.643700
-2.259098 -0.673204
-2.172512 -1.064924
-2.366353 -0.858969
-2.571147 -1.096171
-2.420475 -0.859779
-2.577418 -1.179538
-2.987580 -1.762909
-2.567069 -1.738442
-3.006246 -2.206277
-3.010107 -1.910608
-3.614357 -1.989633
-3.494788 -2.087816
-4.139599 -1.865691
-4.158962 -1.761016
-4.112204 -1.528639
-4.445560 -1.058254
-4.702501 -0.909775
-4.902754 -0.751135
-4.743862 -0.304190
-5.146807 0.484063
-5.359961 0.422112
-5.079970 1.091477
-4.744892 1.198944
-4.719831 1.158228
-4.391907 1.863878
-4.118331 1.965336
-3.472889 1.950901
-3.342363 2.272008
-3.205751 2.309307
-2.746659 2.110428
-2.146568 2.357343
-1.597467 2.072548
-1.205578 2.052586
-1.262928 1.468118
-1.046543 1.585169
-1.071790 0.869462
-1.138686 0.552665
-1.187841 0.579371
-1.404136 0.104311
-1.275611 0.388892
-1.524202 0.259852
-1.178385 -0.002860
-1.761098 0.072554
-1.814491 -0.154957
-1.968030 -0.497690
-2.100875 0.100329
-1.904328 0.172488
-2.366247 0.394245
-1.950538 0.320835
-2.337181 0.631644
-1.808660 0.473802
-1.935859 0.917434
-2.357926 0.825708
-1.386304 0.522879
-1.677421 0.786449
-1.545270 0.644982
-1.585677 0.805010
-1.327146 0.774833
-1.354550 0.168349
-1.107733 0.273659
-1.015774 0.021752
-0.554353 -0.241465
-1.118398 -0.073350
-1.048995 -0.223240
-1.734154 -0.398935
-1.498790 -0.060545
-1.619862 -0.233659
-1.706136 -0.158181
-1.925332 -0.321443
-1.840876 0.185111
-1.980700 0.272753
-1.521380 0.435395
-1.277816 0.705680
-0.837597 1.303411
-1.157639 1.144355
-0.783094 0.719250
0.205604 1.196980
-0.048565 0.831066
0.300286 0.271259
0.989440 0.284127
1.408448 0.442663
1.182000 -0.004237
1.569755 -0.619855
1.728818 -1.355597
1.576119 -1.769404
1.601127 -2.674943
1.731052 -3.073325
0.746491 -3.691691
0.356272 -3.909784
0.172875 -4.841035
-1.030878 -4.691772
-1.365068 -4.981552
-1.539272 -5.294234
-2.858902 -5.121299
-2.918959 -5.027362
-3.859057 -4.644839
-4.079659 -3.821983
-4.690377 -3.300034
-4.838050 -2.641735
-4.822115 -2.290201
-4.791477 -2.121111
-4.331406 -1.573829
-4.532936 -0.786445
-4.411342 -0.504879
-4.109637 -0.497259
-4.011340 -0.141901
-2.924955 -0.060733
-3.426388 0.082583
-2.550782 -0.513319
-2.267536 0.095869
-1.869997 -0.807818
-2.153360 -1.122219
-1.830941 -1.388651
-2.531426 -1.502914
-2.382771 -1.519408
-2.554210 -2.031593
-2.785691 -1.966652
-3.230730 -2.339906
-3.490933 -2.147003
-4.391314 -2.087928
-4.325574 -1.803285
-4.708146 -1.883389
-4.656014 -1.297085
-4.917269 -0.883204
-5.330659 0.158081
-5.100491 0.220484
-4.820846 0.720023
-4.732222 0.830318
-4.012117 0.906123
-3.862259 1.824878
-3.620268 1.374239
-3.176800 1.715037
-2.649285 1.938016
-2.432602 1.417082
-2.092614 1.477638
-1.931028 0.904392
-1.578255 0.197640
-1.932301 0.423123
-1.454706 -0.412534
-1.546148 -0.288318
-2.073278 -0.624694
-2.221566 -0.711010
-2.430029 -1.094292
-2.504175 -1.057008
-3.034008 -1.041555
-3.639790 -1.040115
-4.073769 -0.967947
-3.838222 -0.515795
-4.543266 -0.265104
-4.359904 0.137812
-4.470936 0.380039
-4.260497 1.031901
-4.503901 1.296009
-3.516828 1.441731
-3.862593 1.102871
-3.649031 2.133851
-3.291966 1.568686
-2.938304 2.034591
-2.582527 1.884982
-2.569071 2.018141
-2.345164 1.611885
-1.896935 1.540336
-2.287151 1.838693
-1.628043 1.495518
-2.174727 1.761739
-1.954812 1.168575
-1.937001 1.222824
-2.536517 1.538077
-2.557126 1.187406
-2.356051 0.957829
-2.733180 1.497467
-2.690859 1.313379
-2.715140 1.826163
-2.626597 2.406118
-2.554510 2.498810
-2.048120 2.984024
-1.688515 2.864164
-1.005439 3.306138
-0.745680 3.514871
0.234419 3.438955
0.402108 3.424514
0.901229 3.205432
1.687078 3.192095
2.115257 2.292216
2.863168 2.241870
3.603888 1.523973
3.859217 0.555352
3.695159 -0.289781
3.926933 -0.549004
3.480587 -1.992122
3.429365 -2.454302
2.674785 -2.961335
2.680745 -4.012133
2.326585 -4.085550
1.714485 -4.790419
1.449433 -5.188835
0.284316 -5.236925
-0.425789 -5.563939
-1.157273 -5.732550
-2.212967 -5.640422
-2.952259 -5.501030
-3.479988 -5.245543
-4.087528 -4.970980
-4.235055 -4.355343
-4.703022 -4.096841
-5.603124 -3.161612
-5.268100 -2.546947
-5.918152 -1.759240
-6.053656 -1.507551
-5.897540 -0.433699
-5.736215 -0.116795
-5.683917 0.790747
-5.482938 0.724526
-4.632432 1.656723
-4.350923 1.417473
-4.211487 2.460538
-3.471184 2.219110
-2.824480 3.033003
-2.259237 2.590661
-1.502038 2.695472
-1.075600 1.988259
-0.905907 2.274373
-0.160965 1.813778
-0.017167 1.680482
0.923745 1.166122
1.284398 0.549822
1.711045 0.266715
1.430505 -0.270784
1.792318 -1.032968
1.556602 -1.530469
1.455554 -2.622767
1.460221 -2.983652
0.549857 -3.607542
0.492014 -4.098912
0.435412 -4.387987
-0.162310 -4.489820
-0.710405 -5.253938
-1.688068 -5.272543
-2.782337 -5.485376
-2.920895 -4.835266
-3.575408 -5.023814
-4.086874 -4.951930
-4.773929 -5.298755
-4.999707 -4.211106
-5.288947 -4.268475
-5.852345 -3.662480
-5.854589 -3.541552
-6.327366 -3.601335
-7.560594 -2.830370
-7.804147 -2.082050
-7.420558 -1.992268
-7.471421 -0.978446
-7.732706 -0.845085
-7.497128 -0.346271
-8.140602 -0.174543
-7.592823 0.618649
-7.840874 1.124043
-7.836701 1.407813
-7.660993 1.960655
-7.511817 2.605657
-7.518130 3.088831
-6.799293 3.856351
-6.090500 4.259826
-6.087717 4.425842
-5.413130 5.105256
-4.805026 5.043803
-4.529963 6.054382
-3.869924 6.208310
-3.091901 6.815463
-2.043187 6.141402
-1.312811 6.696927
-0.101578 6.147662
0.132622 6.618695
1.324454 5.854080
1.944911 5.167680
2.670528 4.614012
2.893527 3.968242
3.886248 2.890482
3.856260 1.943170
3.906837 0.736272
3.751171 -0.338993
3.531822 -1.019981
3.097034 -2.172604
2.660191 -3.021339
2.008984 -3.036780
1.236534 -4.121342
1.027142 -4.302780
-0.879403 -4.734411
-1.191589 -4.698889
-1.936409 -4.720806
-2.875709 -3.598857
-4.013320 -3.604634
-4.146326 -3.084748
-5.180662 -2.820715
-4.953220 -1.691018
-5.478685 -1.260315
-5.115936 -0.584329
-5.105502 0.205730
-4.677801 1.150054
-4.897221 1.417793
-4.225975 2.253526
-3.746739 2.079695
-3.153921 2.792115
-2.808928 2.933607
-2.463057 2.644843
-1.568015 2.571679
-1.427806 2.469906
-1.709989 2.474848
-0.705067 1.957488
-0.487985 2.494489
-0.077675 2.029716
-0.197253 1.510724
0.150934 0.874454
-0.013854 0.636759
0.034114 0.759369
-0.457266 1.031768
-0.081011 0.833411
0.039237 0.928092
0.381472 1.295141
0.373827 1.280293
0.840552 1.159167
1.215205 0.994095
1.446537 0.799469
2.046620 0.260708
1.963226 -0.212019
2.810201 -0.194487
2.486375 -1.566627
3.227261 -1.679456
3.224810 -2.233375
3.068419 -3.080184
2.267454 -4.217910
2.417678 -4.786515
2.025899 -5.744996
1.451797 -6.412146
0.506123 -6.775120
0.549927 -6.758759
-0.799051 -8.087423
-1.730623 -7.848030
-2.744040 -8.417368
-4.131447 -8.427892
-5.517101 -8.213078
-5.779859 -7.415180
-6.817371 -7.014026
-7.369707 -6.222637
-8.177658 -5.192383
-8.051415 -4.312628
-8.675785 -3.517558
-8.869366 -2.498583
-8.792072 -2.127062
-8.764169 -1.673581
-8.903877 -0.547975
-8.204937 0.073085
-7.733250 0.898104
-7.034144 0.980989
-7.053228 1.069493
-6.305355 1.682772
-6.388263 1.664529
-5.523890 1.762509
-5.457966 1.581907
-5.235227 1.576847
-5.171071 1.591521
-4.686812 1.909039
-4.794599 2.185096
-4.512399 2.078442
-4.746204 1.960536
-4.573113 1.981018
-4.782469 2.234350
-4.099108 2.799868
-4.438184 2.739554
-3.856116 2.851010
-3.638737 3.185879
-2.803407 3.115057
-2.454680 3.409677
-2.071072 3.285127
-1.704249 3.077781
-1.029755 2.978108
-0.288559 2.913749
0.427424 2.122733
0.684991 1.779439
1.107822 1.044940
1.439934 0.305685
1.408416 -0.672318
1.352011 -0.783532
1.158742 -2.280194
0.381382 -2.756244
0.002786 -3.534637
-0.709250 -4.173515
-1.727971 -4.928905
-3.004915 -5.122264
-3.390328 -5.361479
-5.083123 -5.145104
-6.204044 -4.839442
-6.695658 -4.698683
-7.452309 -4.468018
-8.334243 -2.813642
-8.740421 -1.642634
-9.292874 -0.822244
-10.246195 0.201640
-9.971609 1.731273
-9.864322 2.583447
-9.783864 3.457324
-9.453880 5.071162
-8.338146 6.306416
-7.782120 6.857462
-6.990834 7.847284
-5.721594 8.472798
-4.435955 8.600169
-3.730020 8.990430
-2.840258 8.885521
-1.432519 9.032054
-0.358715 8.514030
0.567977 8.588159
1.913412 8.216644
2.545614 7.347963
3.328187 6.587825
3.981835 6.217602
4.369906 5.443339
4.628438 4.200249
5.047452 3.938575
5.297577 2.499063
5.552378 1.447634
5.623916 1.429278
5.863861 0.002488
5.999609 -0.951576
5.211468 -1.283199
5.332450 -2.508354
5.047101 -3.920696
4.631735 -3.801587
3.895965 -4.737211
3.859473 -4.788716
2.578553 -5.636856
2.516261 -6.186140
1.379739 -6.957401
0.255727 -6.576773
-0.210150 -6.778821
-1.018098 -6.688488
-1.702220 -7.048089
-2.530745 -6.659483
-3.444870 -6.430027
-4.235681 -6.412980
-4.358044 -6.331060
-5.330700 -5.621409
-5.816985 -5.895454
-6.231091 -5.054883
-7.089937 -4.450723
-7.056969 -4.032531
-7.405710 -2.960073
-7.673956 -2.392497
-7.440133 -1.804179
-7.644393 -1.316018
-7.689033 -0.571702
-7.155274 0.158894
-7.640749 0.612883
-7.018040 1.302043
-6.817544 1.885240
-6.055090 1.950387
-5.612198 2.411154
-5.194511 2.832969
-5.088618 2.984579
-4.646559 2.953889
-3.798339 3.607228
-3.000486 4.007242
-2.665026 3.880056
-2.088359 3.347408
-0.955940 3.398227
0.080342 3.319324
-0.117083 2.271832
0.492809 2.156293
0.493266 1.661441
1.373578 0.597485
1.222821 0.016101
1.716190 -0.629305
1.483834 -1.625406
1.492573 -2.597983
1.217363 -3.506286
1.150252 -4.296146
-0.061094 -4.736357
-0.753239 -5.570163
-1.695352 -6.340909
-2.488108 -6.981799
-3.835655 -7.003162
-5.094925 -6.921724
-6.089896 -6.722622
-6.949152 -6.672292
-8.275452 -6.016835
-8.912965 -5.570358
-9.695242 -4.811927
-10.709103 -4.231883
-11.517455 -2.798824
-11.357926 -1.854920
-11.834777 -0.778363
-11.769572 0.403925
-11.918904 2.168828
-11.272621 2.473712
-10.747561 3.967603
-9.928902 4.926575
-9.452410 5.801913
-8.843077 6.025578
-8.700984 6.956907
-7.359187 6.763386
-6.551157 7.302980
-6.067229 6.920431
-4.776262 7.235985
-4.353367 7.039118
-3.728483 6.790705
-3.499845 7.104082
-3.343704 7.185452
-3.310488 6.465533
-2.109117 6.464105
-2.433222 6.679549
-1.843781 6.527871
-1.723479 6.386368
-0.621461 7.184785
-0.285727 6.228755
-0.044956 6.381858
0.523902 6.390879
1.372449 6.141019
1.857039 6.221233
2.409344 5.366493
3.055678 4.760590
3.859290 4.566909
4.317024 3.852213
5.483813 2.744935
5.317328 2.039373
5.673878 1.071557
5.414695 -0.103876
5.187215 -1.581889
5.120747 -1.898602
4.637953 -3.621070
3.701788 -4.652911
2.825571 -5.303233
2.292215 -5.937119
0.861006 -6.624071
-0.350791 -6.381074
-1.569479 -6.663570
-2.995252 -6.712414
-4.106776 -6.343452
-4.785244 -5.418398
-5.442188 -5.406629
-6.532452 -4.156748
-7.287380 -2.975285
-7.925507 -2.130384
-7.744713 -1.147857
-8.123164 0.249884
-7.761836 0.757875
-7.484476 2.145094
-6.821479 3.443772
-5.811973 3.971403
-5.176645 4.335241
-4.395945 4.378291
-3.577377 4.744647
-2.466575 5.001476
-2.120534 4.555375
-0.785680 4.363889
-0.535403 3.613623
0.345326 3.368984
0.370598 2.680783
0.749502 2.748398
0.943746 2.234960
1.061920 1.646664
0.891265 1.344627
1.274239 1.210635
1.309591 0.966033
1.076626 0.918576
1.471168 0.220995
1.288840 -0.465598
1.309584 -0.494481
1.096646 -0.760395
1.293323 -1.046481
1.549367 -1.875629
1.927780 -1.692147
1.680679 -1.943739
1.687153 -2.480341
2.425792 -3.662762
1.913612 -4.270876
1.573657 -5.429000
1.106925 -5.959543
1.283946 -6.672885
0.032402 -7.138673
-0.491110 -7.868812
-1.861995 -8.861093
-2.864128 -8.796147
-4.048597 -9.515301
-5.657535 -10.073710
-7.239056 -9.783212
-8.526087 -9.039056
-9.617056 -8.536159
-11.382466 -7.411053
-11.870753 -6.318048
-12.859904 -5.774033
-14.034800 -3.907173
-14.318002 -2.992893
-14.785804 -1.173104
-15.218821 0.052643
-14.735913 2.411322
-14.324402 3.939426
-13.952377 5.568883
-12.942027 6.560681
-11.806920 7.617556
-10.634938 7.750675
-9.291358 9.072892
-7.997078 9.315542
-6.894025 9.557412
-5.782917 9.346744
-4.328991 9.476800
-3.265734 9.397403
-2.300090 9.170853
-1.441280 8.286591
-0.341197 7.468886
0.110227 6.713545
0.387318 5.980212
0.944212 5.407095
1.299066 5.269865
1.405654 4.610928
1.642922 3.875634
1.493735 3.517134
1.794194 2.291160
1.436657 1.861671
1.375667 1.281730
0.927667 0.914617
1.284063 0.325778
1.105052 0.395908
0.631457 -0.433757
0.465711 -0.547474
-0.018392 -0.409574
-0.247090 -1.065750
-1.023694 -1.880620
-1.662586 -1.987977
-1.825244 -2.442885
-2.286913 -2.373110
-2.856959 -2.463966
-3.276930 -2.085152
-4.042959 -2.780150
-4.410485 -1.832863
-5.273460 -1.992616
-6.427612 -1.510481
-6.583327 -1.064804
-7.569912 -0.023273
-7.255251 0.112570
-7.522967 1.624329
-7.518510 1.662437
-7.548421 3.021972
-7.511943 3.862638
-7.003310 4.702787
-7.101562 5.510574
-6.472015 6.756869
-5.908980 7.200681
-5.090917 7.882469
-3.682012 8.514381
-2.620767 8.688258
-1.489732 8.424146
-1.013861 8.539945
0.637151 7.892316
1.831181 8.539789
2.259657 7.797837
3.736121 7.309774
4.231944 6.685646
5.136724 5.989338
6.266912 4.946666
6.512891 3.905947
6.780635 2.095909
7.131596 0.801417
7.104655 0.072341
8.106587 -1.283860
7.270714 -2.391062
6.834606 -3.687137
5.741119 -4.686784
5.783121 -5.949296
4.431309 -6.380781
3.750619 -7.837344
2.602784 -8.478675
1.199819 -8.970940
0.085849 -9.140059
-0.812858 -9.008943
-1.901046 -9.025668
-3.543264 -8.942085
-4.451450 -8.727785
-5.513559 -8.734047
-6.841522 -8.405066
-7.406698 -7.541307
-8.322908 -5.935548
-9.200950 -5.963034
-9.601376 -4.477275
-9.537742 -3.301365
-10.226643 -2.628575
-10.446579 -1.418666
-10.545207 -0.534551
-9.863017 0.043199
-9.252659 1.096680
-8.652395 2.017279
-7.805958 2.581071
-7.689782 3.321623
-6.972591 3.448827
-6.631619 3.424894
-5.509740 2.907411
-5.390892 2.737976
-4.238644 2.710979
-4.471783 2.417630
-3.747672 2.638926
-3.390156 2.256781
-3.122324 2.243062
-3.334583 1.390083
-3.234710 1.063571
-3.925829 1.023744
-4.468538 0.917648
-3.143830 0.635251
-3.612003 0.664065
-3.937617 0.909967
-3.742444 1.244227
-3.946536 1.313768
-3.812511 1.370825
-4.238118 1.507328
-3.967744 1.448487
-3.937961 1.663916
-3.238675 1.849946
-3.147068 1.682150
-2.652750 2.080022
-2.346389 1.422142
-2.169951 1.059070
-1.741415 0.388023
-1.962969 -0.035135
-1.863116 -0.635530
-2.500218 -1.275211
-2.451284 -1.614688
-3.168338 -2.346472
-3.683949 -2.913633
-4.527831 -3.228340
-5.446259 -3.284859
-6.578962 -3.143541
-7.877423 -2.693433
-8.509000 -2.370523
-9.362261 -1.657793
-10.214571 -0.092163
-10.899233 0.405435
-10.374160 1.254547
-11.439593 2.349358
-11.061121 3.489983
-10.610533 4.784791
-10.626371 6.312322
-9.665225 7.375254
-8.627226 8.055864
-7.437985 8.664080
-6.664113 9.371809
-4.934324 9.796448
-4.344443 9.581580
-3.026300 9.754904
-2.053010 9.388928
-1.232202 9.055185
-0.204554 8.164188
0.804212 8.221442
1.197581 7.004526
1.410486 6.300193
1.971740 5.550420
1.739179 4.243491
1.201557 3.742671
1.301755 3.895552
1.527903 3.480149
0.335548 2.822805
0.878558 2.795299
1.096055 2.840976
0.527642 2.325165
0.482686 2.349616
0.775247 2.302118
0.620163 1.877126
0.843989 2.328934
1.642168 2.684498
1.126146 2.226127
1.538779 2.329063
1.556088 1.431154
2.658660 0.231407
2.603067 -0.207496
2.249105 -0.017610
2.203190 -1.168193
1.950526 -1.601571
0.982010 -2.233619
1.508206 -3.172192
1.141985 -3.712213
0.309410 -4.282368
-0.297543 -5.322222
-1.169874 -4.952994
-2.253574 -5.014229
-3.657688 -4.899388
-4.402528 -4.423868
-4.698342 -4.112209
-6.019362 -4.109793
-6.253544 -2.712223
-7.252459 -2.311880
-7.853526 -1.665751
-7.574121 -0.197939
-7.552113 0.679729
-7.511706 1.238739
-6.671232 2.518716
-6.506998 3.699787
-6.178694 2.908145
-4.857740 3.833959
-3.436206 4.126111
-2.878860 3.549375
-2.232663 4.091722
-1.670481 4.201271
-0.322148 2.749500
-0.763066 2.997194
0.197597 1.879589
0.171615 0.647782
0.422834 0.166130
-0.286731 0.061656
0.062398 -0.932732
-0.999191 -1.525181
-1.194078 -1.182112
-0.771859 -1.795769
-1.603303 -2.142908
-2.289810 -2.730637
-2.168236 -2.805798
-3.689712 -2.626369
-3.838325 -2.917351
-3.590248 -2.106128
-4.678000 -2.560803
-4.662201 -2.090858
-4.480347 -2.062573
-4.273055 -1.844200
-4.876347 -2.080582
-4.501952 -1.527420
-5.915263 -2.562537
-5.901201 -2.174231
-5.833830 -1.550846
-6.629398 -2.047291
-7.001872 -2.583994
-6.478801 -1.523348
-7.650093 -2.209734
-8.443141 -2.067135
-8.630668 -1.242803
-9.550805 -1.958554
-10.054741 -1.028012
-10.811992 0.584613
-11.254887 0.386246
-11.530376 0.655023
-11.681040 2.177818
-11.358231 3.063770
-12.325609 3.436787
-11.927087 5.720146
-11.529378 6.419492
-10.762808 7.121511
-11.294774 8.670372
-8.754702 9.381371
-8.538555 10.362834
-7.106410 10.202922
-5.593662 10.566532
-4.589864 10.710771
-3.636142 10.949204
-2.499065 11.006485
-1.307199 10.283774
0.444403 9.664180
0.639326 9.277430
1.139923 7.689601
1.823193 6.849301
2.227188 6.608331
2.243969 4.854959
2.592240 4.192533
2.345631 3.470857
2.776412 3.043581
1.435329 2.100707
1.412310 0.943700
1.799657 0.307840
-0.015038 -0.048128
-0.323245 -0.158149
-1.656464 -1.104515
-1.996360 -0.847705
-2.919511 -0.196234
-3.190382 0.112979
-4.042873 -0.504350
-4.558727 0.719500
-4.612862 0.609823
-5.295779 0.821017
-5.279095 1.747978
-5.435676 2.226567
-5.503707 2.994351
-5.339930 4.108106
-5.177574 4.842324
-4.349230 4.596762
-4.054103 5.386601
-3.592470 6.254886
-3.142432 6.030964
-2.492788 6.314109
-1.935781 6.401468
-1.341898 6.676080
-1.002726 5.739972
0.049460 5.676724
1.153489 5.516285
1.173869 4.397683
1.531547 3.815550
1.576864 3.809074
2.362252 3.062621
1.887326 2.138832
2.019647 1.933688
2.151305 0.795726
1.395230 0.868806
1.257538 -0.096677
0.829254 -0.167209
0.559620 -1.040049
-0.744903 -0.766272
-0.587826 -1.476378
-1.298551 -1.110408
-1.069873 -1.292432
-1.926269 -1.179833
-2.239787 -1.073734
-2.975060 -0.296735
-2.310024 -0.631612
-2.470600 -0.097480
-2.698286 -0.188507
-1.958583 1.036895
-2.323536 0.728463
-1.798113 0.533841
-1.431386 1.022552
-1.527720 0.016197
-1.600064 0.056127
-1.150519 -0.010969
-0.941260 -0.600563
-0.676863 -0.499351
-1.529149 -0.977081
-0.166529 -1.679716
-1.080760 -2.463527
-1.470262 -2.380503
-2.551581 -3.604844
-2.383852 -3.207523
-4.923933 -4.426456
-4.111104 -3.360906
-4.743623 -3.448264
-5.809650 -2.786692
-6.307730 -2.296504
-6.512234 -1.978427
-7.214411 -1.215000
-7.398894 -0.855705
-7.744112 -0.753905
-7.864450 -0.057675
-8.199120 1.243775
-7.603843 0.494640
-6.537385 1.373443
-6.236194 1.685692
-5.657417 1.615989
-6.220815 2.157733
-5.568678 2.048056
-5.215963 1.822309
-5.410259 1.804518
-4.730283 1.608821
-4.911048 0.906286
-4.689698 0.901727
-4.939079 1.133724
-4.730596 -0.194155
-6.436949 -0.120609
-6.881235 -0.868711
-7.625043 0.041080
-8.494704 -0.671459
-9.347715 0.690811
-9.302237 1.498459
-10.073720 1.419501
-10.004249 2.322078
-10.299176 4.396919
-10.027173 5.334239
-9.811073 6.037790
-10.330127 6.870802
-8.313293 8.100681
-7.825089 8.282946
-6.869671 9.447641
-5.506576 8.697190
-3.982828 9.465688
-4.546784 8.944686
-2.450807 8.869445
-1.901268 8.008113
-1.122112 8.257003
-0.489952 6.456458
0.458753 6.157930
0.105829 4.410598
0.330080 3.508869
-0.280368 3.136670
-0.121662 2.780188
-1.870982 1.553391
-1.764131 1.596676
-2.966792 1.763743
-3.535148 1.030881
-5.137964 1.281935
-4.469944 2.063453
-5.787620 2.157006
-5.594008 2.606065
-7.046521 4.450918
-5.376738 4.830791
-6.029696 5.818408
-5.505598 6.072887
-4.925248 6.215923
-3.910491 8.019426
-3.868182 7.543075
-1.589601 7.898065
-1.864474 8.035301
-0.858778 7.905959
0.853034 6.510997
0.613111 6.776129
0.932407 5.446417
2.679721 4.759836
1.860134 3.305377
2.181126 2.197301
2.775468 2.198392
1.603287 1.234942
0.122033 0.942796
0.811747 0.274252
-0.794503 0.283515
-1.175903 -1.042611
-1.946105 -0.061228
-1.536974 0.310675
-3.174200 -0.208900
-3.114193 1.081142
-3.523745 1.064723
-3.807414 2.238275
-3.950993 2.564444
-3.291423 3.096535
-2.165550 3.434008
-2.907426 4.111032
-1.445414 3.863729
-1.552263 3.911705
-0.789744 4.176815
-0.395480 3.390264
0.459926 3.843306
1.223126 1.982824
1.523212 2.371340
1.238769 0.868815
1.452510 0.645970
0.762347 -0.512136
0.559583 -1.107269
0.544833 -1.165662
-0.620663 -1.315917
-0.583225 -1.897797
-0.912046 -1.776997
-2.258292 -2.273399
-1.854149 -2.486730
-3.362911 -2.277718
-3.142896 -2.506633
-3.738220 -1.721187
-2.851059 -1.366651
-4.246296 -0.909040
-3.354649 -0.636287
-4.101179 0.347925
-3.376572 -0.765481
-3.548249 -0.583377
-2.967691 -0.247494
-3.394953 -0.834533
-2.951021 -0.468587
-3.740405 -1.034562
-3.492539 -2.203484
-3.779944 -2.253647
-4.364956 -3.071638
-4.207458 -3.989599
-5.405360 -4.586919
-6.906293 -4.551093
-7.530014 -4.935394
-8.418766 -4.208945
-9.632808 -3.933605
-9.854044 -2.725301
-10.597683 -3.352111
-12.356354 -1.456547
-11.663505 -1.298505
-13.020716 -0.125419
-13.727072 0.180724
-14.323109 2.707175
-13.851427 3.277620
-13.879586 4.789943
-13.537732 5.574368
-12.762222 6.288522
-11.808524 7.643091
-10.498166 9.145360
-9.819600 9.448542
-8.736793 10.100226
-7.992443 10.489547
-6.555493 10.590526
-4.241142 9.926194
-3.285639 11.602687
-2.427756 9.235357
-1.591148 8.428247
-0.384113 7.552404
-0.538455 6.982680
0.142312 5.221911
0.187693 4.744539
0.653943 4.090660
0.608304 1.627022
-0.720651 2.038860
0.125285 0.784193
-1.552353 -0.805699
-1.853156 -1.846494
-2.919328 -1.225554
-1.932153 -1.739255
-5.252509 -1.929707
-5.063080 -2.017598
-7.000858 -2.374725
-6.825636 -2.490111
-8.964881 -1.936171
-9.457784 -1.698073
-10.276669 -1.874656
-11.335566 -1.066792
-11.775334 -0.019959
-12.380391 1.776371
-13.985420 3.054334
-14.345298 2.728334
-14.515290 4.846437
-14.326571 7.195747
-14.292681 7.663856
-13.525448 9.520155
-13.565155 10.967630
-11.762498 12.426843
-11.515263 14.512957
-9.924496 15.013040
-7.723794 15.693346
-8.188501 15.981210
-6.616179 16.704296
-4.167420 16.263990
-3.053960 16.715324
-1.258629 16.496129
0.913874 16.715344
2.366503 14.474818
2.812651 15.251670
3.731064 13.797530
5.210925 12.632350
5.191882 11.313070
5.763642 11.334523
7.080969 9.500086
7.248180 9.238074
7.986829 7.283023
8.173620 6.732967
8.519155 5.764008
7.574985 4.100579
8.168364 2.363317
7.132067 2.178432
7.911013 0.383599
8.686082 0.486052
7.309883 -2.392437
7.825459 -3.088349
6.685070 -3.739299
5.544438 -5.346407
4.285616 -7.278282
4.320724 -7.061339
2.264250 -8.013409
2.317168 -8.889429
-1.098745 -9.250009
-1.212777 -10.009441
-4.560931 -11.039158
-5.756557 -10.390048
-8.050694 -11.466900
-8.729529 -9.338547
-13.075420 -9.203449
-12.543487 -8.007781
-14.371315 -5.824855
-16.359366 -3.700771
-16.729949 -2.292159
-17.001051 -0.064695
-17.797350 2.425686
-17.253394 4.183106
-16.638953 7.842700
-16.215446 8.990001
-15.033803 11.876099
-10.902540 12.445431
-10.065542 13.513125
-6.841590 13.896768
-5.279237 15.523547
-2.356088 14.168110
-0.647666 13.881684
1.800058 11.805150
3.573649 11.813635
5.520482 8.813114
6.344914 7.130581
8.152098 3.953292
8.633454 2.478462
7.072305 -0.244597
6.394295 -2.113301
5.671454 -4.995773
3.906615 -6.814079
1.914552 -8.388421
-0.030716 -9.314623
-2.669159 -10.730424
-3.374784 -10.190440
-6.878865 -9.864062
-8.142800 -9.537786
-11.610272 -8.561101
-12.147054 -6.938493
-13.659210 -6.914761
-13.525858 -3.720398
-15.637238 -3.030866
-14.823174 -1.311946
-15.145979 -0.722012
-14.020924 1.474812
-14.395726 1.357478
-13.109264 3.563842
-13.617535 3.255790
-12.160205 3.917302
-11.720237 3.075307
-11.681188 2.341052
-11.362677 3.236089
-12.289226 1.698947
-12.140086 1.947851
-12.572646 1.386647
-15.617484 2.489739
-14.464876 1.456186
-16.936896 4.208395
-17.299834 3.669504
-18.443732 5.074162
-18.657475 6.788012
-20.103892 7.713550
-19.495514 9.888565
-19.970767 12.652406
-19.238111 15.039932
-18.631278 17.754450
-16.986639 19.679829
-15.777345 20.553920
-14.145663 21.618844
-10.686535 23.525744
-9.299303 22.801884
-5.975247 23.779022
-3.049733 24.459512
-0.980151 24.371284
2.133105 22.523574
4.234172 22.389265
5.333690 19.092109
8.046160 18.296302
7.964593 14.454955
8.043337 13.420854
8.648040 9.700971
9.311060 9.059482
9.371278 5.804036
8.591973 6.226673
6.432949 3.204504
6.691072 1.521487
4.012512 1.457024
2.600752 0.027791
1.132498 -1.047118
0.835220 0.425374
-1.737633 -0.761387
-0.317513 -1.172714
-2.250649 0.448530
-2.848307 0.471793
-3.868535 0.955683
-4.351104 0.954020
-4.903294 -0.056306
-3.159286 2.175025
-5.917322 1.392403
-4.414122 1.454123
-4.620672 1.430115
-5.405564 1.306806
-5.436071 0.567207
-5.733472 1.421217
-8.367683 0.857853
-8.589017 0.858248
-9.413167 3.137214
-9.621470 2.377149
-12.155700 5.065318
-11.689878 5.359674
-12.823362 6.081771
-12.204274 7.599658
-11.955973 12.063736
-10.943262 12.889200
-12.220816 14.011798
-8.544619 15.841458
-7.279644 19.236530
-5.510711 18.123631
-3.053984 19.363498
-0.104261 19.673189
2.011295 19.097259
5.920317 19.678340
7.340038 20.265874
9.516581 16.798739
12.390641 16.317128
15.037345 12.669525
15.962178 10.489964
18.350804 6.534818
19.023400 3.714238
19.028485 -1.972115
18.383493 -3.249548
18.099874 -7.183798
17.620522 -9.413434
13.653940 -14.261139
13.435404 -15.561049
9.103984 -18.804928
6.343488 -19.414724
2.183297 -23.961521
-0.039785 -23.530686
-5.432328 -23.776218
-7.371259 -23.113156
-10.151163 -22.761711
-13.553815 -21.665027
-17.479464 -20.726002
-19.632751 -20.307658
-21.942497 -16.769091
-25.747642 -15.747745
-27.267674 -13.526160
-28.368594 -10.363545
-31.183144 -8.210068
-29.742201 -6.214346
-31.862163 -2.752094
-31.524473 -1.797284
-33.120168 0.228840
-33.144609 5.408817
-34.755839 6.227188
-31.715426 9.201943
-33.135137 12.019023
-31.739030 14.151262
-30.539266 17.520336
-29.304326 18.644343
-27.135415 21.683375
-25.342340 22.999026
-22.657173 25.849591
-20.582643 25.416313
-17.768859 28.816840
-15.717810 28.481615
-12.844646 29.140035
-10.879038 28.170137
-7.784299 28.058369
-4.736107 26.842140
-1.947624 26.271685
-0.318377 25.465508
1.228728 24.372615
2.897822 22.632999
4.615013 21.389657
7.081161 17.034218
8.516638 15.432924
7.753814 12.813432
7.233426 8.564325
8.374967 7.262050
7.604030 7.540731
5.842143 4.551251
4.961660 1.723213
2.715635 -0.387090
3.968698 -0.579296
-0.811554 -3.975240
-1.841203 -4.801022
-4.919253 -5.761441
-4.747951 -6.489332
-10.602779 -7.062901
-9.617586 -6.401225
-14.699965 -6.243298
-16.846850 -5.144665
-19.053554 -4.846979
-21.776244 -2.993005
-24.224385 -2.243634
-27.618000 2.457251
-29.103945 5.204847
-30.264820 7.030786
-29.168311 13.243926
-32.050640 15.505833
-32.208471 20.755139
-29.187197 21.725368
-31.131006 27.429380
-27.105075 30.967144
-27.854980 35.245046
-21.728095 39.145403
-19.844243 42.405139
-13.056137 45.118620
-10.798393 46.780512
-2.853329 47.828647
1.251182 49.554705
7.095764 48.284289
12.633705 46.648843
18.892974 43.709064
22.221497 42.076355
26.294597 37.049188
31.778161 33.915646
32.172234 24.610405
37.770938 22.841919
36.993760 17.377371
35.966635 11.547721
37.509443 4.199349
34.915712 1.036928
32.433574 -5.552428
29.416441 -9.967702
27.660361 -14.073495
24.481104 -18.112384
18.644461 -20.511663
14.182402 -20.121390
9.770073 -23.796357
5.838255 -19.359551
0.923133 -21.868880
-1.511032 -19.286528
-4.054351 -19.425811
-5.532127 -15.908418
-8.247364 -16.723618
-8.480531 -16.073486
-11.179805 -14.914626
-11.037352 -13.917163
-14.325318 -13.898144
-10.099307 -13.476411
-13.600757 -11.308521
-13.595751 -12.981133
-18.795786 -12.613924
-18.100918 -14.425126
-21.286413 -12.442576
-22.755594 -13.259450
-26.462356 -14.472920
-23.752110 -12.038530
-29.786058 -9.008369
-33.491441 -8.505745
-33.762999 -4.914836
-40.854791 -5.296523
-42.044578 -1.849699
-43.690064 6.259959
-47.626327 11.073942
-41.733154 12.821476
-40.571997 22.634788
-35.917247 28.054369
-34.943162 33.659099
-29.314604 37.211068
-27.784977 39.104038
-16.970337 42.000768
-14.753644 43.943673
-6.945948 42.390016
0.776517 42.940487
5.237193 38.378715
13.580218 33.990119
15.642283 28.755960
23.096449 23.281412
21.555806 17.667349
24.291752 11.143776
24.113743 1.063719
23.259870 -4.010798
18.232929 -11.781371
17.437872 -20.790542
14.150289 -24.756679
4.601414 -30.263094
-2.616045 -28.890008
-9.988025 -34.205068
-17.410653 -30.649881
-29.427258 -29.051365
-35.956171 -29.681169
-37.709694 -25.883507
-43.795546 -22.218503
-47.117382 -18.445955
-50.144375 -15.097570
-55.519121 -6.567755
-57.777202 -3.293169
-60.379252 8.009476
-63.045143 7.818783
-63.362460 11.885041
-57.113386 19.225146
-59.925824 25.663294
-56.259758 27.912100
-57.851926 30.277337
-54.232069 35.313101
-55.273789 38.466378
-57.516300 42.670793
-51.204717 42.220595
-50.077519 46.480377
-53.214081 48.474642
-51.688003 50.014670
-54.986669 60.179139
-52.484193 61.513607
-50.975429 70.465068
-43.257063 72.506429
-38.330285 81.888254
-33.441509 88.462851
-25.211109 95.687022
-19.616924 97.331741
-10.337224 101.651976
-5.387217 101.018298
8.814590 99.186026
12.237399 101.348707
32.771574 92.095128
41.212324 97.561442
49.981525 86.334239
64.310616 80.375203
72.079225 72.437498
73.907133 61.969927
77.357766 43.717677
86.423774 32.804811
83.889492 15.935010
90.166842 7.772737
76.566070 -10.342468
79.939076 -22.173301
72.192791 -33.741301
54.795584 -35.396552
42.167005 -51.060230
30.724344 -54.400852
21.396951 -53.298830
2.964127 -60.933062
-3.476164 -63.228628
-10.534482 -67.612271
-23.227958 -53.461374
-33.104607 -55.378502
-44.644434 -53.029864
-50.821926 -39.452928
-64.980471 -30.736781
-69.081875 -15.164514
-79.592866 -9.038927
-67.434421 2.367128
-77.421048 13.017434
-71.246263 19.641352
-68.226864 32.605628
-69.007456 36.667631
-65.466835 43.120739
-58.289995 47.940125
-53.504112 62.865775
-49.744588 53.896801
-37.750479 74.986363
-45.410239 55.840764
-24.107024 67.960625
-17.331027 73.070268
-17.988210 83.725014
-10.560408 80.321164
10.320821 82.729775
20.786999 86.078135
32.929345 80.072237
21.713179 86.992954
24.253961 48.447611
41.625396 54.493523
47.551815 53.441008
43.237482 43.980992
42.775545 33.454677
69.485874 20.560818
64.745119 37.711384
75.654582 -0.453580
72.147999 -3.757302
74.408007 -22.874941
38.909628 -37.326902
54.982242 -69.686810
49.117271 -71.992497
44.352475 -60.951885
4.690854 -87.764794
0.887911 -113.991703
-1.507342 -112.095010
-68.065346 -100.591759
-88.242864 -115.100873
-111.296040 -124.262018
-137.128573 -82.712893
-163.282441 -141.230240
-117.237393 -104.348734
-153.760646 -89.381764
-217.397126 -99.837855
-187.476692 -92.996907
-269.701915 -40.057666
-263.509255 -34.619530
-347.696050 50.940282
-375.633001 47.711701
-354.331088 94.062532
-345.972934 66.891021
-267.718014 152.606037
-365.450988 170.326999
-348.975691 227.535549
-392.632565 239.940302
-270.713132 316.167768
-410.481133 402.745175
-360.739531 326.682301
-321.323750 347.540604
-165.210761 369.681784
-176.180202 449.070515
-211.290460 485.655515
-136.897968 585.110906
-185.485579 634.278323
-18.261884 776.519977
-4.016227 550.015470
150.493734 654.682867
279.101829 460.191105
143.005987 564.131398
139.056212 404.340530
191.267911 -197.531859
109.302148 917.834442
-525.902281 -176.328269
228.424665 233.435849
1042.283230 264.292875
681.704614 125.646075
1623.597920 749.373969
128.455625 1482.594160
-208.757510 410.591922
-213.012777 34.625831
-3426.322541 -473.638059
