3865.045209 4205.014643
-2997.833162 185.401905
-18.302833 46.627529
222.149399 -49.374634
21.976119 40.738162
-47.067569 -23.012477
-23.186825 -68.782086
-18.141916 21.025406
14.492029 -13.704535
-5.832800 -21.119043
-12.126376 -18.803147
2.721752 -4.034178
-0.626255 -20.698165
-11.360326 0.338064
-5.509014 -5.048418
4.392162 -13.188407
-0.072283 0.650448
-9.227242 7.328926
-0.474372 -4.819218
-13.653697 -2.511607
-6.653916 -11.804866
-3.435305 -0.914554
-2.421550 -9.360922
-0.158775 0.413518
-0.893583 0.180974
0.774171 2.276585
-3.515374 -0.396875
-2.356706 0.172132
1.010252 1.830743
-0.697672 -0.708924
-1.150138 2.009842
-2.425209 3.507440
1.136236 0.759681
-3.926328 0.363210
-1.040369 0.353886
-0.567225 1.796081
0.187064 -1.609016
0.024444 0.626640
0.835759 3.239163
0.359595 0.091307
-0.840051 0.416608
-0.931832 -0.135050
1.496993 1.591001
-0.990923 0.227868
0.262156 0.047454
-0.092876 0.690091
0.674723 0.738222
-0.979470 0.039582
-0.627356 0.438837
0.907661 -0.274993
0.134060 0.201407
0.158345 -0.599934
0.353848 0.943345
0.540902 -0.446196
0.085717 1.086823
-0.710500 0.652432
-0.012083 0.111811
-0.268419 -0.814360
-0.777130 -0.124297
0.209211 0.143422
-0.532675 0.398730
-0.370312 -0.462354
-0.397254 -0.062871
0.817088 -0.809202
-0.174364 -0.012456
0.134320 0.110816
-0.200976 0.484540
-0.147164 -0.149623
-0.299968 0.066717
0.290706 0.458792
-0.038146 0.227520
-0.644081 0.033796
-0.632829 -0.021432
0.872307 0.432695
-0.207657 -0.220548
0.404999 0.175562
-0.007098 0.313732
0.233524 -0.176492
-0.469092 -0.340151
0.209426 0.140992
0.605595 -0.094876
0.283853 0.168777
-0.114447 0.247415
0.366350 0.274237
0.127998 -0.399197
0.353748 -0.010838
0.051168 0.096810
0.454777 0.103057
-0.233107 -0.532340
-0.326641 -0.010599
0.426473 -0.079865
0.577695 -0.009375
-0.313128 0.675993
-0.230830 -0.206611
0.130170 -0.680443
-0.078613 0.193268
0.149206 0.031584
0.043982 -0.158827
0.381413 -0.162838
-0.030808 0.170776
-0.578054 -0.056430
-0.101967 -0.119889
-0.121915 -0.298953
-0.129179 -0.053193
0.167604 0.113553
-0.076125 0.264077
-0.234045 -0.209586
0.040057 -0.111247
-0.851787 -0.030820
-0.260918 -0.695416
0.089369 -0.195651
0.177035 0.120944
-0.475582 0.101069
-0.407795 -0.293624
0.100071 0.363315
-0.080195 -0.228682
0.029098 -0.199600
-0.000187 -0.118542
0.111477 -0.035423
-0.394180 -0.053881
-0.140383 -0.049385
0.095613 0.382691
0.102768 -0.059541
0.324096 -0.236668
-0.022031 -0.255154
0.182182 -0.155140
-0.034962 0.080840
-0.231444 0.043796
0.059926 -0.064512
0.271487 -0.059664
-0.230829 -0.100527
0.289192 -0.644904
0.125014 0.158868
-0.550964 -0.254552
-0.193102 -0.261179
-0.201461 -0.483194
0.388402 -0.198136
0.126658 0.183148
0.232067 -0.264017
-0.130778 -0.057156
-0.114202 0.172546
0.044873 0.027570
-0.082343 0.253615
-0.045348 -0.266432
-0.073004 0.195742
-0.117989 0.556283
0.357120 0.188077
0.163352 0.223299
-0.124917 0.326521
-0.529320 -0.038329
-0.148893 -0.013190
0.167869 -0.090548
0.206611 0.138325
0.047543 0.180405
0.184717 0.490222
0.346114 0.221818
-0.366716 -0.300181
-0.135263 0.223999
0.101217 -0.157803
-0.294556 -0.285684
-0.469689 0.616433
0.024493 -0.273953
-0.183771 -0.204607
-0.327056 -0.287940
0.058617 -0.142315
0.232664 0.122498
-0.179588 -0.114280
-0.348728 -0.208006
-0.221340 -0.435358
0.069732 -0.300948
0.181069 -0.152000
-0.055210 0.172178
-0.058883 0.593877
0.184617 -0.029843
-0.141748 -0.074459
0.323179 0.233205
-0.094795 -0.245611
-0.286013 -0.016071
-0.085043 0.019804
-0.045994 -0.120926
-0.147504 0.204224
-0.007498 -0.077238
0.017250 0.100219
0.263680 -0.297614
0.089202 -0.070205
-0.092156 0.120649
0.099228 0.173400
-0.187392 -0.082816
0.046959 -0.286147
-0.009953 -0.060246
-0.152063 0.250932
-0.304354 -0.090550
0.202127 -0.088388
0.057653 0.062663
-0.200080 -0.054566
-0.057232 -0.040973
-0.106172 -0.150771
-0.033918 -0.278520
0.209213 -0.042057
0.074728 -0.070650
-0.145380 0.085133
0.039257 -0.200105
0.232170 -0.146196
0.037990 0.118760
-0.086207 0.135273
-0.363633 0.099869
-0.110070 0.096163
0.120526 -0.374453
-0.090257 -0.319064
0.105216 0.008736
0.102556 -0.040958
-0.010473 0.166893
-0.304596 -0.198845
-0.116818 -0.306584
0.166611 0.044549
0.083641 0.148807
-0.050290 0.207525
0.143874 0.266346
-0.078683 -0.142495
0.142755 0.021873
-0.034349 -0.068100
0.063489 0.206541
-0.144458 0.046581
0.131909 0.242408
-0.345476 0.346489
-0.232944 0.126000
-0.041305 0.065562
-0.094122 -0.012830
-0.147862 0.000692
-0.033133 0.062160
-0.216928 -0.115461
0.048087 0.041684
-0.066637 -0.244771
-0.304878 -0.123322
-0.241997 -0.180940
-0.080868 -0.081878
0.038735 -0.054275
0.131626 0.088629
0.087758 -0.049953
0.492095 -0.020115
0.067569 0.178100
0.053093 -0.095676
-0.153559 0.096436
-0.548523 0.174720
-0.003549 0.064875
-0.182836 -0.006578
-0.003438 0.251510
0.251609 0.125323
-0.083130 -0.099003
-0.344315 -0.221897
0.061502 -0.003261
-0.151734 -0.061728
-0.059284 -0.109022
-0.103087 0.203969
-0.114762 0.022904
0.078460 -0.139300
-0.191950 -0.001839
-0.258799 -0.090820
0.162276 0.122777
0.073979 -0.135904
0.033055 -0.014746
-0.081080 0.277798
-0.052402 -0.056424
0.363419 0.005558
-0.134795 0.367424
-0.382001 -0.102271
0.207012 -0.050359
0.259325 0.138660
0.140687 0.216258
-0.035746 0.432260
-0.198859 0.100674
0.023605 0.096057
-0.276829 -0.115500
0.117246 -0.337061
0.009942 -0.082235
0.000262 -0.199575
0.162464 0.046825
0.291042 0.170398
0.022686 -0.188066
-0.047214 -0.056583
-0.149587 0.112528
-0.032626 -0.041159
-0.127877 0.011025
0.146821 -0.094589
-0.141257 -0.252196
0.050118 0.171689
-0.078883 0.180063
-0.172554 -0.244802
-0.254760 0.031205
0.122019 0.103043
-0.239317 0.015950
0.343428 -0.317791
-0.103570 0.136241
-0.019596 0.112676
0.237229 0.253926
-0.027807 -0.047267
0.207141 0.643477
0.068017 -0.186790
-0.263597 -0.258763
0.002885 0.129292
0.108142 -0.082543
0.152979 0.003982
0.045944 0.164760
0.104056 0.071270
0.150806 0.384906
0.087341 -0.064541
-0.242473 -0.179296
0.262884 -0.201799
-0.143096 -0.040565
0.143943 0.000462
-0.007379 0.185670
-0.259113 -0.135226
-0.243922 0.368943
0.164766 0.089449
-0.098813 -0.216189
-0.052579 -0.221942
0.176379 -0.094696
0.217248 -0.014094
-0.176044 0.133267
0.036639 0.139744
-0.012869 0.152075
-0.010839 -0.001977
-0.455344 0.018118
0.028655 0.343815
0.220179 -0.002624
0.013410 0.143780
-0.111422 -0.156856
-0.011963 -0.091090
-0.153457 -0.091377
-0.082137 0.107793
-0.666543 -0.269433
0.308126 0.247410
-0.014063 -0.028014
0.208174 0.006938
-0.136739 -0.265607
0.145003 -0.253889
-0.166453 0.032188
-0.121843 0.025153
0.002748 0.182080
0.378902 -0.024132
-0.148975 0.054164
-0.122201 -0.159757
-0.132873 -0.307879
0.190339 0.211847
0.244257 0.245748
-0.302208 -0.109598
0.206052 0.011728
0.216160 -0.293040
0.005510 0.007823
0.244173 0.239447
0.142300 -0.135878
-0.475913 0.020596
0.308153 0.307653
0.270216 -0.021460
0.164482 -0.128301
-0.174841 0.258599
0.075081 0.048129
-0.268063 0.175106
0.110787 -0.045180
-0.106592 0.178187
-0.276639 -0.085239
-0.156995 -0.113842
0.023198 -0.319317
0.010851 0.339724
-0.071996 -0.137278
0.142351 -0.429868
-0.061439 0.022528
0.335038 0.199444
0.047383 -0.080729
-0.023716 -0.278544
-0.009490 0.122583
-0.013256 0.075036
0.221640 0.246805
0.125558 -0.056523
0.076837 0.034353
0.124740 -0.285148
-0.146376 0.165808
-0.073725 0.221071
0.192377 -0.050470
-0.119175 0.030352
0.166102 0.191366
0.003243 -0.373665
0.116427 0.248307
-0.139770 -0.004732
-0.045801 0.125412
0.072763 0.122294
0.429932 0.330590
-0.327514 0.206134
0.106645 -0.282375
-0.325631 -0.153554
-0.003366 -0.178054
-0.264441 0.249376
0.040299 0.224459
0.262599 0.062810
0.018173 -0.159863
-0.030288 -0.125723
-0.126282 -0.199509
0.049665 0.062964
0.017769 -0.206129
-0.327052 -0.313551
0.069887 0.127153
0.216718 -0.171489
-0.167272 -0.097661
-0.028550 0.151040
0.215676 0.023002
0.012595 -0.162916
-0.101920 0.053499
-0.017626 -0.049087
-0.102204 -0.196167
-0.024910 -0.378475
-0.034461 0.273189
-0.075371 0.354095
0.059597 0.024627
-0.198960 -0.049413
-0.018874 -0.017392
0.033179 -0.308557
0.143273 -0.003511
0.331612 -0.237662
0.035848 -0.148858
-0.351445 0.353036
-0.016027 -0.247072
0.155516 -0.103906
0.234983 0.061543
0.160814 0.044555
-0.252511 0.041745
0.239031 -0.514720
0.011777 0.076786
-0.087035 0.113882
0.085154 -0.019492
-0.436178 -0.095009
0.302859 0.126550
-0.189213 -0.264103
0.018168 -0.217481
-0.093978 0.292185
-0.029217 0.127361
-0.251205 0.092607
0.333863 -0.348554
-0.024766 0.157218
-0.208752 0.195536
-0.059780 0.047880
0.133613 0.127753
-0.291992 0.016033
-0.020695 -0.211577
0.167042 -0.007779
0.309603 0.108813
-0.273187 -0.068209
0.139422 0.215653
-0.218487 0.073243
0.202450 -0.214978
-0.086724 0.224524
0.063587 -0.206887
-0.164765 -0.196871
-0.225254 -0.242502
0.267539 -0.167417
0.139632 0.240939
-0.133233 -0.146515
-0.167998 0.156856
-0.539749 -0.218172
0.381659 -0.300354
0.183911 0.027105
-0.117712 -0.041395
0.089317 -0.115361
0.117316 0.386811
-0.137304 0.158785
-0.152305 -0.006454
-0.052725 0.026185
0.068231 0.281414
-0.074149 0.143668
-0.579493 0.049869
-0.224769 -0.077754
0.064448 0.130317
0.199092 -0.208916
0.114784 0.250373
-0.111565 -0.006241
0.040479 -0.341928
0.018480 -0.174121
-0.518856 0.088636
0.149718 -0.196119
0.166856 0.094191
0.095506 0.181481
0.278477 0.180812
0.072852 -0.160185
0.171590 -0.057785
-0.024616 -0.128975
-0.262098 0.070446
0.001071 0.149990
-0.084232 -0.016549
-0.260560 0.074629
0.086511 -0.012862
0.103465 0.080215
0.054897 -0.029766
-0.093887 0.261280
-0.222949 -0.092149
-0.191454 -0.135649
-0.324178 0.045429
-0.096939 -0.375702
-0.029148 -0.403983
-0.273728 -0.065549
-0.061084 -0.102649
-0.070763 -0.122470
0.288710 -0.205763
0.035489 0.017404
0.260876 -0.226172
0.042226 0.023603
0.057531 -0.149120
0.026351 0.123033
-0.035482 0.212402
-0.041513 0.149957
-0.341361 -0.041393
-0.052832 0.340102
0.102307 -0.079205
0.012033 -0.117933
0.029955 0.300333
-0.206941 -0.115614
-0.037955 -0.070410
0.175312 -0.094070
0.074377 -0.164641
-0.104975 0.134718
0.206875 0.005028
0.236572 0.255221
-0.057324 0.177014
0.035499 -0.139954
-0.165846 0.089398
0.016785 0.258749
-0.199114 0.127101
-0.233793 -0.261921
0.162522 -0.109718
-0.017005 -0.201472
-0.241981 -0.067652
-0.019389 -0.055051
0.246256 -0.044682
-0.022283 0.128741
-0.225379 0.127464
-0.111123 0.363656
-0.489522 -0.268406
0.392934 -0.405474
0.172855 0.313902
-0.383169 0.145990
-0.079563 0.138081
-0.025951 -0.668086
-0.175093 0.228007
-0.202125 0.081529
-0.081054 -0.080345
-0.561138 0.413176
0.318223 -0.358180
0.348404 -0.081867
0.086688 0.242801
-0.300951 0.056283
-0.150536 -0.262983
0.179738 0.027464
-0.452777 0.652480
-0.307173 0.215646
0.040022 -0.021832
-0.032401 0.106785
0.041827 0.194369
-0.100621 0.517126
0.089744 0.157893
-0.314443 -0.173693
-0.173158 0.391468
0.008622 0.147930
-0.317177 0.070824
-0.339137 -0.104352
0.120829 -0.037026
0.244664 0.320223
-0.139815 -0.000569
-0.188927 -0.118484
0.376296 -0.450406
0.126198 -0.761062
0.158747 0.080534
0.091697 0.252155
-0.154862 0.100002
0.006883 -0.025212
-0.034941 -0.382381
-0.192290 -0.266373
-0.094148 -0.381430
0.484941 -0.191943
-0.008506 -0.124206
-0.419263 -0.227463
0.005617 0.415341
-0.066932 -0.044215
-0.018046 -0.238184
0.121377 0.090609
0.000708 0.110003
0.212538 0.281186
0.005896 0.125875
0.097226 0.264717
-0.232009 0.702875
-0.306238 0.051056
0.013384 0.571028
0.096846 0.174726
0.484858 0.191781
-0.388981 0.075734
-0.154209 -0.251327
0.490534 -0.234670
0.296590 0.635515
-0.010072 0.481761
0.564886 0.233348
-0.240659 -0.075687
-0.026364 -0.248511
0.310937 -0.292763
0.225677 -0.064099
-0.102615 0.221372
0.182963 0.246083
0.499706 0.204962
-0.381976 0.209282
-0.209473 -0.613133
0.134403 0.069510
0.229870 -0.402506
-0.260252 0.129541
-0.103264 -0.045063
0.240793 0.625619
-0.714350 -0.314870
-0.056522 0.133698
-0.492428 -0.053373
-0.151205 -0.538554
0.360838 -0.255602
-0.071800 -0.284818
-0.100066 -0.134563
-0.292017 -0.056473
-0.156158 0.320265
-0.490017 0.325950
0.026670 -0.679305
-0.255768 -0.334212
0.180597 0.199042
-0.104315 0.097836
-0.180463 -0.043150
-0.394372 0.197626
-0.254476 0.002639
-0.150326 -0.549921
-0.037772 -0.186759
-0.094310 0.062525
0.700389 0.355057
-0.558021 0.166616
-0.313608 0.596918
0.592175 -0.095058
0.157888 -0.267239
-0.086472 0.492151
-0.110698 0.446775
0.252180 -0.804022
-0.052831 0.320852
-0.013388 -0.124686
0.294752 0.290193
-0.083791 -0.394788
0.060158 0.345381
0.603869 0.062412
0.171661 -0.080262
0.028250 -0.372313
-0.388269 0.141049
0.655939 -0.135933
-0.819735 0.242072
-0.683184 -0.243645
-0.126029 0.033719
0.242060 -1.126406
-0.791716 0.082510
-0.135224 -0.288092
0.292139 0.021158
-0.225440 0.381935
-0.331819 -0.305698
0.474765 0.353271
-1.136249 -0.307048
-0.177881 0.516983
-1.035009 0.364323
0.318547 0.516183
-1.919083 0.899952
-0.942153 -0.698179
-0.012500 -0.203817
-0.806834 -0.302236
-0.312907 -0.552919
0.663315 0.820175
0.521776 0.003200
-0.378050 1.693462
-0.988255 -0.278695
0.613051 0.852989
-0.912125 -0.317115
0.759321 0.791229
0.608436 1.249349
0.246692 0.177508
-0.451987 1.645488
-0.655199 0.765323
1.244794 -0.717128
-0.721209 0.669818
0.912636 -0.707155
1.892410 0.108424
2.325204 -2.398354
0.809044 1.836706
0.735573 1.896166
0.640948 -0.580649
-0.823691 -1.592461
0.861226 -0.608202
2.264549 -0.916291
0.436420 -3.312133
1.256260 -0.127471
0.622388 0.697325
2.264692 -2.457510
-1.681666 -3.280002
1.356607 -3.249506
4.048471 -0.452075
-1.329318 1.605826
-1.684848 1.552116
-2.741827 6.908223
-4.737028 -5.199792
-5.059740 5.007518
-8.866559 -1.364486
3.218242 -5.800196
-4.594492 -8.936691
-1.465813 5.269940
-5.800408 5.182958
-9.912923 5.790732
-21.301003 1.692245
14.254194 0.341665
3.371408 3.191101
-38.567317 21.515510
-28.547250 2.873684
9.004212 10.163953
-18.033240 -13.795435
-32.236769 46.137899
-70.103546 0.763849
-31.610784 -118.715139
522.156986 48.888447
