3824.091259 4383.213702
-3002.794141 182.144161
18.273103 35.142316
277.846802 -41.086440
19.427477 39.546652
-59.074608 -7.257916
-13.203722 -69.950068
-9.924952 3.848175
22.918183 -17.771925
0.085969 -12.257914
-2.732702 -8.502979
-4.974068 -7.808490
-6.778207 -19.627448
-4.858987 -6.409186
2.478314 -9.510336
6.869992 -10.669242
-4.958550 6.710363
-6.169241 0.263926
-3.107372 0.730153
-16.583585 -10.275225
-1.897505 0.066811
-7.866629 -5.384304
-3.319876 -4.968787
-4.574457 -1.737610
-0.591097 -0.255816
-1.034337 -0.708212
-3.938056 1.095008
-1.698268 0.239809
-2.386324 1.496218
-1.231405 -0.949556
-3.841639 4.389844
0.468731 -1.456374
-3.168205 1.116284
-2.446404 1.322209
-1.028554 3.646855
-2.074667 -1.386563
-1.049538 -0.603178
0.087903 1.212575
0.810674 0.477501
0.423634 1.121389
-1.163693 0.804053
1.763380 1.634044
-1.597466 0.340600
0.433260 0.617491
-0.637916 0.793657
0.761518 0.286585
-0.289247 0.535446
0.548948 1.019404
-0.255221 -0.400263
-0.149153 -0.388926
-0.176834 -1.228575
0.299817 0.528582
0.440484 -1.740220
0.606000 0.398009
0.568338 -0.399920
0.877684 0.400601
-0.361893 -0.215292
-0.260487 0.809116
0.719235 0.381373
-0.348417 -0.327696
-0.163424 0.135941
-0.120489 0.548924
0.145072 -0.768105
-0.963604 0.464772
0.534320 0.017514
-0.688755 -0.126642
0.094710 -0.252264
0.445810 0.331084
0.616146 -0.022201
-0.441991 0.249856
0.269389 -0.242260
0.370458 -0.099341
0.003259 -0.055436
-0.519391 -0.548166
0.440972 0.642733
0.029283 -0.210597
-0.170411 0.396038
0.635406 -0.251987
0.622397 0.060030
-0.256494 0.288326
-0.583816 -0.072672
-0.058897 -0.124008
0.127692 0.077745
0.366562 -0.307872
-0.398103 0.403606
0.329736 0.000122
-0.346966 -0.233967
-0.334215 -0.008382
0.252154 0.027056
0.085254 -0.611634
-0.516687 0.215867
0.347828 -0.475617
0.607263 -0.245126
-0.206119 -0.001137
-0.505275 0.409514
-0.085386 -0.306507
-0.174480 -0.257176
0.035643 0.228625
0.105952 -0.058234
-0.031833 0.117057
-0.255528 -0.192923
0.156786 -0.630044
-0.433129 0.231679
-0.219062 0.212215
-0.124934 -0.337660
-0.094320 -0.422454
0.109779 -0.249871
0.481342 0.014739
-0.417703 0.265570
0.063657 -0.477256
-0.088010 -0.061816
0.104348 -0.164441
-0.532503 0.081536
0.111714 -0.423337
0.042267 0.175545
-0.084660 0.171975
-0.106406 0.132888
-0.367753 -0.080430
-0.158032 0.251015
-0.044347 -0.056201
0.085847 -0.022141
-0.368051 -0.005426
-0.132973 -0.149228
0.008416 0.118877
-0.226522 -0.071489
0.037878 0.007917
0.096356 0.236214
0.541680 -0.493345
0.162928 -0.344259
0.012984 -0.113366
-0.326890 0.041383
0.309353 0.170736
-0.081873 -0.008179
0.185966 -0.004563
-0.060301 0.148034
0.189155 -0.155612
-0.245303 0.265349
-0.500670 -0.432866
-0.102284 -0.093823
-0.330814 0.195912
0.001247 -0.200652
0.222348 0.125453
0.281559 0.074795
-0.028125 0.349485
-0.058213 0.130184
0.568308 0.100629
0.175848 0.019777
-0.092549 -0.103574
-0.033352 0.070182
0.223900 0.689648
0.602509 0.553245
0.133995 0.333231
0.105801 -0.006363
-0.083835 -0.179905
-0.186308 -0.016946
-0.210676 -0.056700
0.105147 0.147182
0.078159 -0.216046
0.329631 -0.161513
-0.009403 0.182671
0.062063 0.350001
-0.057324 -0.054565
-0.189205 -0.101646
0.138832 0.393778
-0.060185 -0.150296
0.322021 -0.145083
-0.290271 0.367072
-0.125244 0.121667
0.147602 -0.107755
0.065526 0.108427
-0.022264 0.203988
0.017040 0.042347
0.056975 -0.167802
0.144075 0.002594
0.042219 -0.146087
-0.066974 -0.181537
0.277244 -0.156659
0.378382 0.221047
-0.103908 0.312780
-0.103563 0.087896
0.180281 -0.186439
-0.214967 0.332984
-0.134701 0.271429
-0.169765 0.066494
0.003623 -0.079364
0.064069 0.171390
-0.344901 -0.125254
-0.629150 0.100999
0.082669 -0.032051
0.276313 -0.039487
-0.335288 0.161891
0.066015 -0.219815
-0.010427 0.021177
-0.097514 0.004986
-0.021527 -0.337424
0.212250 -0.096099
-0.396651 0.196928
0.203236 -0.177139
0.354405 -0.009026
-0.015137 -0.078859
-0.294948 -0.311484
-0.058049 0.073789
-0.150084 0.181073
-0.220257 0.096752
0.266162 -0.352020
0.238539 -0.307866
-0.155337 -0.282047
-0.034513 0.192688
0.030554 -0.029617
-0.288750 -0.267067
-0.323001 0.019021
0.072293 0.231776
0.088626 -0.249641
0.115181 -0.376249
-0.131252 -0.356430
-0.216684 -0.156105
0.066754 0.053343
0.061978 -0.239178
0.104870 -0.162279
0.072071 -0.239649
-0.198104 -0.175268
0.066331 0.347282
0.204452 0.392638
0.095837 -0.376869
-0.026094 -0.151400
0.178102 -0.098551
-0.286728 0.368623
0.123012 -0.190068
-0.006819 0.126655
0.098799 0.148028
0.114569 0.099647
-0.171590 0.039485
-0.064220 0.085138
0.250390 0.006493
-0.137866 -0.013712
-0.029029 -0.039582
-0.022934 -0.147637
0.211441 0.173422
0.063659 0.087321
-0.181875 0.002763
-0.172028 -0.059769
-0.039808 0.000104
-0.400966 -0.050840
0.368387 -0.001867
0.148809 0.079110
0.335806 -0.222915
0.111334 -0.142855
-0.177299 -0.019293
-0.121607 0.273065
-0.102121 0.182655
-0.159432 -0.050066
0.192538 0.180024
-0.048668 -0.050819
-0.191275 -0.088099
-0.003391 -0.004277
-0.121414 -0.392294
-0.248678 -0.105836
-0.098676 0.206527
-0.001234 -0.596139
-0.151537 0.022635
-0.219877 0.232294
0.195906 -0.310182
-0.013292 -0.019109
0.020273 0.128536
-0.124859 -0.332052
-0.188750 -0.086472
0.341356 -0.360212
-0.077491 0.071873
0.027326 -0.000825
0.277891 -0.065315
-0.282138 0.060173
-0.080449 0.018962
0.437224 -0.191651
-0.083489 -0.383563
0.563590 -0.336961
0.199238 0.151782
-0.043964 0.050274
-0.050530 0.061682
-0.016247 0.030812
0.062975 0.197692
-0.275677 -0.010547
0.005225 -0.202998
0.285467 -0.169204
-0.057074 -0.108563
0.008772 0.027401
-0.174827 0.112289
0.058087 0.197082
0.291624 0.046774
-0.011177 0.217490
-0.300924 0.024787
-0.027284 -0.276735
-0.204961 0.016753
0.095599 0.266161
0.099263 -0.076165
-0.034763 0.122362
-0.331659 -0.061033
-0.209376 -0.456934
-0.058599 -0.029543
-0.207859 -0.401416
-0.157582 -0.054566
0.000139 -0.295266
0.107006 -0.380264
-0.082677 0.007925
0.354118 -0.027568
-0.260465 0.031697
-0.201730 0.114015
0.163377 0.076862
-0.212082 -0.109981
-0.135667 -0.089334
0.252444 -0.008880
-0.064757 0.219578
0.055041 0.172216
-0.063074 0.237528
-0.142072 0.392366
0.003746 -0.126746
-0.041675 -0.159729
0.099378 -0.136274
0.145399 0.273431
-0.081145 -0.025698
-0.033306 0.152834
-0.139139 0.047660
-0.208914 0.006991
-0.205050 -0.007252
-0.094567 0.047914
-0.073771 -0.168608
-0.193192 -0.252933
0.031391 -0.062322
0.038253 -0.021036
-0.279433 -0.014237
-0.196510 0.152496
-0.060356 0.055006
-0.057732 0.187734
-0.160274 0.091093
0.102267 -0.010212
-0.056165 0.040015
-0.020693 0.251180
-0.196168 0.461485
0.085872 0.064559
-0.108223 0.070239
-0.129019 -0.021441
-0.024705 0.310550
-0.178328 0.376885
-0.033262 0.267901
0.377332 -0.064461
0.075611 -0.267944
-0.042575 0.172852
0.014794 0.135402
0.149196 0.129985
-0.020242 0.025967
0.318617 0.362046
0.301702 -0.062357
0.085542 -0.157215
0.065783 0.092723
0.117570 0.319724
-0.027318 -0.217303
0.189600 -0.114601
0.082590 0.210443
-0.191710 -0.098557
0.047005 -0.067403
0.185371 -0.062449
-0.062241 -0.047188
-0.208656 -0.298628
-0.192517 -0.333725
-0.150308 -0.042091
0.118413 0.112002
0.176010 -0.196543
-0.080058 -0.231520
-0.109390 0.032562
-0.067505 -0.087283
-0.061527 0.016801
-0.131774 0.145239
-0.108582 0.104950
-0.276674 -0.091295
0.043120 -0.051799
-0.046254 0.005791
-0.069470 -0.050336
-0.113242 0.039649
-0.188075 -0.169701
-0.043191 -0.176856
-0.011437 0.300253
0.020797 -0.199792
-0.077643 -0.103661
0.246570 0.085084
-0.141128 0.006898
-0.161631 -0.647030
-0.063768 0.128046
0.203281 0.281985
-0.132172 0.162765
0.049613 -0.165336
-0.004672 -0.013320
-0.064217 0.002391
-0.120304 -0.247520
-0.139608 0.023268
-0.144414 -0.092439
0.083040 0.120834
-0.056028 -0.072315
0.174389 0.151642
-0.318967 -0.124391
-0.098398 -0.046697
0.070518 0.148091
0.011392 0.097102
-0.301891 -0.106422
0.011924 -0.326120
0.076784 -0.054865
-0.098546 0.291066
0.062959 0.230716
0.135641 0.069277
0.044361 0.062018
-0.110041 0.033516
0.146684 -0.025061
-0.012301 0.114136
-0.045808 0.130647
0.051444 -0.253140
0.027591 0.017047
0.051745 0.106841
-0.040592 0.068745
-0.025080 -0.346627
0.108921 -0.007819
-0.068081 -0.239490
-0.034104 -0.315735
0.195587 -0.534415
-0.054726 -0.225270
0.215763 0.030828
0.070760 -0.007605
-0.207592 -0.070239
0.041798 -0.052543
-0.089906 -0.229324
0.098838 -0.211418
0.267895 0.339001
-0.428588 0.191876
0.015136 0.126017
-0.008563 0.011672
-0.081892 0.187115
-0.356543 0.332068
-0.167819 -0.279362
-0.198176 0.537142
-0.039483 0.073196
0.030788 -0.165152
-0.222057 0.151016
-0.066171 -0.085236
-0.320268 -0.260631
0.119001 0.054366
-0.170393 0.126566
-0.067748 -0.234433
-0.022738 -0.042186
0.019438 -0.272557
0.109501 -0.106919
-0.027220 -0.002470
-0.187963 0.074898
0.000813 -0.018293
0.209100 0.066111
0.190993 0.318363
0.059916 -0.056391
-0.463437 0.094438
-0.194776 -0.191870
0.079017 0.000716
-0.097850 0.157923
0.434105 0.154760
-0.089716 -0.138331
0.393912 0.134500
-0.023852 0.435385
-0.341971 -0.308549
0.380574 -0.190557
0.087958 0.110555
-0.052193 0.085663
0.173834 0.331963
0.016105 -0.059983
0.027916 0.558943
0.006863 0.270509
-0.085679 0.066999
-0.274727 0.234173
-0.303783 0.074932
-0.037117 0.014364
-0.266566 0.101055
-0.462058 -0.024084
0.155547 0.146921
0.003680 0.072389
-0.239724 -0.052539
0.059723 0.442872
0.106272 0.098574
0.020824 -0.206213
-0.019896 0.046142
0.047727 -0.244103
-0.213491 0.207230
-0.213617 0.224533
0.247003 -0.018163
0.159127 0.180585
0.057269 0.206322
0.198343 -0.036144
-0.284739 -0.034871
0.069237 -0.105593
-0.183448 -0.026653
-0.048920 0.045460
0.252679 0.011580
0.120986 -0.078866
-0.112326 0.296276
0.406536 -0.068780
-0.255110 0.020445
-0.072195 0.115473
-0.047530 -0.042849
0.266025 -0.261551
0.067703 0.100812
-0.102349 -0.117647
0.062138 -0.434453
0.369813 0.014041
-0.242930 0.020122
0.235213 0.457626
0.209705 -0.369254
0.124257 0.126948
-0.002572 0.062997
0.205299 0.289929
-0.189704 -0.222700
0.084846 -0.071785
-0.028745 0.130024
-0.036262 0.339474
-0.096570 0.009404
0.075416 0.049645
0.224919 -0.054913
-0.055823 -0.062706
0.059392 0.400288
0.240424 0.292649
0.337938 -0.065914
-0.310497 -0.238481
-0.210257 -0.109033
-0.200286 0.655992
0.082094 0.411944
0.197791 -0.152172
0.062436 0.068875
-0.275940 0.021476
-0.420578 -0.125342
-0.075849 -0.301262
-0.012200 0.221728
-0.080295 -0.438871
0.091120 -0.011234
0.193302 0.079430
0.151613 -0.188687
0.260105 -0.070929
-0.011312 0.363422
-0.329929 0.099190
-0.125642 0.051842
0.274045 0.446874
-0.405241 -0.279281
-0.231837 -0.137993
-0.497319 -0.013157
0.033649 -0.242667
-0.217401 0.225734
-0.421525 -0.101682
-0.445233 -0.004242
0.044607 -0.570228
0.084971 0.142327
-0.404213 -0.038464
-0.083688 -0.369295
-0.160883 -0.274102
0.333452 0.096248
0.284769 0.213876
-0.237328 -0.119159
0.076125 0.261177
0.024391 0.112538
-0.105547 0.132877
-0.107717 0.009551
0.428582 -0.162912
0.093945 0.172395
-0.004084 -0.025307
-0.053007 0.025727
-0.302058 0.204277
0.017419 -0.031839
0.007028 -0.237086
-0.321699 -0.029633
0.269205 0.040123
0.075019 -0.079637
-0.312850 -0.095597
0.049673 -0.195733
0.132960 0.124918
0.061448 -0.022972
0.049804 -0.231702
0.340285 -0.199781
0.075411 0.377339
-0.151909 0.312990
-0.139290 0.005104
0.279662 0.173228
0.097496 -0.051832
0.178706 -0.261821
-0.196236 -0.561759
0.218946 -0.328046
0.085707 -0.226438
-0.067711 0.019369
0.288327 0.359121
0.078498 0.065139
0.286175 -0.516843
0.087472 -0.380531
-0.140816 -0.064354
0.149118 0.416333
0.099242 -0.092286
0.141525 0.175201
-0.294322 0.415129
-0.211646 -0.098120
-0.110857 0.786784
-0.053989 0.418981
0.445359 -0.344195
0.041062 -0.322420
0.025341 0.007337
-0.205338 0.407410
0.463426 0.188452
0.496205 0.276811
0.219762 0.533244
0.050465 -0.124333
0.432762 -0.137826
-0.149899 -0.133446
0.164762 -0.261766
0.276515 0.098381
0.347430 -0.138406
0.160456 0.158935
-0.026386 -0.029317
-0.108231 0.004075
0.085855 -0.133354
0.068752 -0.437045
-0.120208 -0.374205
0.137259 -0.225176
0.328980 0.319319
-0.371209 -0.181765
0.183894 0.372995
-0.681955 -0.571817
0.096655 -0.013201
-0.304227 -0.750997
0.527991 0.214593
-0.213405 -0.087226
0.484052 -0.662512
-0.088221 -0.033131
-0.485757 0.756867
-0.421122 -0.324554
-0.313227 -0.269476
-0.097704 -0.078195
-0.011977 0.194711
-0.098269 -0.252026
-0.570046 0.390920
-0.011547 -0.403057
-0.594954 -0.018784
-0.497840 0.177624
-0.133252 0.296847
-0.503537 -0.636051
-0.318846 0.367257
0.852344 0.363716
-0.214584 0.073167
-0.544349 0.406275
-0.567916 0.012311
0.158071 0.170358
-0.536140 -0.029261
0.205449 -0.096366
0.435323 0.059488
-0.537153 -0.025298
-0.198648 -0.135296
0.013849 0.318595
0.492793 -0.186645
-0.224208 0.320654
0.435044 -0.463014
0.184825 0.418520
0.335389 -0.245350
-0.473476 -0.165648
-0.241137 0.485010
0.077611 -0.141908
-0.904395 -0.292132
-0.320980 0.182891
0.995072 -0.513176
-0.571455 -0.763770
-0.092327 0.199726
-0.239902 -0.790598
0.332818 -0.538380
-0.605127 0.642326
-0.356978 -0.071917
-0.639851 0.022328
-0.631951 -0.043976
0.183195 0.708580
-1.094021 0.882096
-0.774580 -0.326746
-1.683758 1.100205
-0.128961 -0.980208
-0.679352 0.523615
-0.747675 0.211496
0.466424 1.052929
0.162785 0.871276
-0.119009 0.866026
-0.169608 2.375131
-0.372463 0.638353
-0.103625 1.896133
-0.024033 0.353107
1.942957 1.644531
-0.652739 0.442987
1.027806 1.284413
-0.252575 1.673816
0.379465 1.536946
0.102547 0.733123
0.152589 -0.179095
2.524480 -1.194278
1.057186 1.037157
2.062468 0.772057
2.051592 1.961347
1.543970 -1.717247
-0.844463 1.979097
1.194818 -1.061738
0.710676 -1.196847
0.802886 -1.780630
0.243062 -0.127532
3.178744 -0.891878
0.006962 -4.638438
1.223867 0.475458
0.465456 -3.702789
3.231172 -0.978571
-3.512990 -2.372442
4.958203 -1.607336
-1.625427 -3.581087
-3.019253 2.525806
-3.150752 2.450154
-7.892508 0.110309
-4.502343 -8.398276
-8.858470 1.093672
-1.255701 -10.965809
1.269966 -5.597304
-1.746402 -3.100451
-4.457295 10.664970
-6.177388 -3.557455
-16.393238 4.344367
-1.091486 -9.314287
3.773150 2.673762
-12.386839 11.668437
-26.122804 2.808546
0.188764 19.826053
-26.147455 -15.122552
-20.831824 35.861322
-73.606125 -1.608086
-14.341373 -111.739478
575.541275 0.298608
