2868.783919 1092.808822
-1604.031298 -207.183403
-55.499180 103.238493
-52.017215 -134.330753
-73.939605 66.284775
-28.075454 -51.625896
-68.052354 -9.026741
-29.847611 -40.642292
-23.208590 2.796609
5.758604 3.944707
-5.990822 -32.152773
6.349943 28.608018
0.195750 0.642305
4.574176 1.269174
0.161254 2.929279
2.594970 1.563008
-6.341063 0.750754
5.605095 8.085712
5.630111 2.949965
-3.550731 3.103727
-1.053425 4.617760
4.835154 1.699897
-3.605216 5.412982
1.479344 -9.018386
0.113017 4.490983
0.107498 -4.327883
1.817408 4.972862
-0.602672 -4.071509
2.475524 1.768204
-3.090096 0.266538
2.855172 -4.856356
1.470004 0.690132
0.212428 -3.457069
1.046072 0.457266
0.355906 -1.077065
1.040953 1.013209
-2.792419 0.326608
-0.608773 -0.559220
-0.426766 0.259757
-1.620501 -0.601597
0.669668 -1.036897
0.302716 0.473382
-0.050981 0.346269
-0.002142 -0.465269
-2.313787 0.609170
-0.559798 -0.639418
-0.565355 0.589558
0.779001 -1.878842
0.549757 0.534944
-0.487841 0.685013
0.415611 0.879083
-0.173951 -0.050601
-0.630962 -0.455630
-0.625548 0.798715
0.529064 -1.496582
1.274140 1.107746
-0.323787 -0.722074
0.537040 1.031528
-0.277320 0.440453
0.157925 0.162851
-0.594580 0.742797
0.805416 -0.762800
-0.224848 0.350128
0.428384 -0.185513
0.574069 0.231486
-0.667681 -0.142939
0.262270 -0.179949
-0.629919 -0.328965
0.669089 -0.571879
-0.270617 -0.600074
0.493420 -0.039521
0.543420 0.256990
-0.422307 -0.449958
-0.223372 0.192803
0.247400 -0.144958
-0.585246 0.340269
0.297397 -0.656470
0.080950 0.138962
-0.084599 -0.548215
0.314142 0.715904
-0.513204 -0.577955
-0.284405 0.131221
-0.958974 0.038403
0.051393 0.064378
-0.340085 0.226602
0.202552 -0.515442
0.508024 0.700342
-0.217126 -0.716090
0.455392 0.431449
-0.012994 -0.522629
0.019522 -0.023143
0.260837 0.434841
0.007656 -0.444319
0.412067 0.356281
0.021213 -0.031192
-0.044397 0.514576
0.117008 -0.167944
-0.149079 -0.443736
-0.236461 -0.075075
0.406881 -0.186792
0.282940 -0.362798
-0.404719 0.704572
-0.067693 -0.451906
-0.220108 0.238160
-0.083564 -0.300644
0.486499 0.380849
-0.485082 0.134680
0.188532 -0.405662
-0.025491 0.014568
-0.273015 -0.450769
0.021917 0.311201
-0.537841 -0.430294
0.243396 0.142864
-0.046893 -0.585960
0.425626 -0.130238
0.028505 -0.053377
0.005105 0.212663
0.294895 -0.845926
-0.078146 -0.031521
-0.123530 0.276953
0.412908 -0.099093
-0.486852 0.006859
0.387686 -0.130700
-0.348697 0.252659
0.132894 -0.296770
-0.100789 0.187244
-0.197934 -0.066499
-0.295124 -0.082564
-0.439149 0.134085
0.064820 0.202351
-0.190276 -0.070601
-0.118147 -0.378243
0.194401 -0.075206
-0.291203 0.068305
-0.247988 -0.052644
0.101172 0.165683
0.095789 -0.049043
0.399036 0.044466
-0.263272 -0.022104
-0.088502 0.057013
0.108371 0.278149
-0.072000 -0.547362
-0.286742 0.280651
-0.315664 -0.500617
0.059346 -0.011339
0.004457 -0.054892
0.025100 -0.037211
-0.073975 0.006205
0.258145 -0.086157
-0.393348 0.149203
0.020176 -0.231877
0.503040 0.003660
-0.748367 0.026735
0.296304 0.271777
-0.002851 -0.018232
-0.251631 -0.158781
0.030462 0.170272
-0.404704 0.179223
0.225968 0.501258
0.264118 -0.001485
-0.363528 0.029981
0.176527 0.061302
-0.380817 -0.225036
0.212972 0.127856
-0.162544 -0.030592
0.059209 0.075479
0.037900 -0.045305
-0.085033 -0.231768
-0.394055 0.415946
0.367785 0.061402
-0.038119 0.036362
0.246335 0.172929
0.249643 -0.118233
0.130388 -0.156650
-0.096740 0.096109
-0.013978 0.063301
0.137595 0.037991
0.050532 -0.148674
-0.115848 -0.522648
-0.128489 -0.280424
0.171686 0.191036
-0.473011 0.100203
0.496294 -0.085152
-0.213655 -0.020841
0.424463 -0.356278
0.166848 0.338929
0.402716 0.058035
-0.012974 0.638754
-0.375356 -0.126507
0.066260 -0.004228
-0.326816 -0.141086
0.260900 -0.185294
0.266482 -0.102544
0.031835 -0.698782
-0.542904 -0.371830
-0.213474 0.083232
0.087017 0.135858
0.048323 -0.106316
0.027658 0.067666
-0.390099 0.070750
-0.234256 0.075011
-0.262149 0.007571
-0.240936 -0.236558
-0.284738 -0.104913
0.003101 -0.022095
0.233665 0.014501
0.140022 0.089066
0.119071 0.069199
0.019978 0.128798
-0.027398 0.125175
0.119829 -0.071651
0.310086 0.581638
0.125457 0.254426
-0.113606 -0.289731
0.114779 -0.019468
0.019986 -0.598921
0.106809 -0.078864
-0.487776 0.023305
0.100194 0.211435
-0.019043 -0.067729
-0.444557 -0.278800
0.008978 -0.058511
0.083937 0.002558
-0.288668 0.239439
-0.057077 -0.112351
0.226857 0.421233
0.314801 -0.108641
-0.028110 -0.284425
-0.218122 0.009077
0.484725 -0.053095
-0.278263 0.171448
-0.212861 -0.271924
-0.220108 -0.137397
0.207687 0.022872
-0.099949 0.074829
0.194625 -0.232360
-0.110148 0.158963
-0.150726 -0.036023
0.182171 0.171335
0.103071 -0.039987
-0.017158 0.145912
-0.508328 0.012393
0.091440 -0.164742
-0.118537 0.048771
0.152250 -0.209325
-0.110548 -0.083252
-0.000272 -0.243542
-0.169678 -0.113441
-0.134213 -0.436197
-0.275549 0.228180
0.167941 0.004875
0.218392 -0.010002
-0.176039 0.113041
0.204202 -0.014745
-0.291766 0.154164
0.056153 0.196657
-0.095452 -0.112349
0.088815 0.296179
-0.115539 0.106281
-0.208702 -0.051550
-0.090397 0.069150
-0.022178 0.080038
-0.270584 0.293263
-0.245471 -0.206295
-0.077075 0.178896
-0.259835 -0.216111
0.324416 0.045424
-0.273098 -0.142091
0.086078 0.708319
0.072062 -0.022864
0.367582 -0.321631
-0.008476 -0.193481
-0.105550 -0.300347
0.210901 0.542106
0.368955 -0.051594
-0.127967 0.109539
0.008166 -0.121815
0.294208 0.008535
-0.205153 -0.182755
0.168086 -0.040351
-0.331202 -0.260582
0.206114 0.094348
-0.364236 0.258327
0.137607 -0.134763
0.102689 0.384710
-0.234966 -0.022288
-0.013978 0.103396
0.086256 -0.087876
0.038686 0.012622
-0.297850 0.121845
0.139529 -0.158609
-0.109859 0.020476
0.011079 0.054768
-0.045574 -0.039244
-0.076664 -0.118175
-0.117834 0.112282
0.133097 0.050208
-0.057832 -0.000209
-0.074636 0.148278
0.169642 0.007872
0.005259 -0.062085
0.212563 -0.234943
0.042547 -0.097716
0.008427 -0.195013
-0.028699 -0.228041
0.207509 0.228208
-0.037527 -0.313446
0.113943 0.190756
-0.254995 0.277605
0.277468 -0.024593
-0.112352 -0.345447
-0.166645 -0.297965
-0.166943 0.344958
-0.127812 0.429869
0.341737 0.190143
-0.217076 -0.194680
-0.034931 0.082440
0.111133 -0.228328
-0.014045 -0.076785
0.018677 0.145231
-0.254707 -0.008031
-0.064507 -0.167611
0.190763 -0.007861
-0.186272 -0.073500
0.099852 -0.085524
-0.257548 -0.101746
0.161434 -0.204869
-0.328212 -0.048598
0.154180 -0.171180
-0.143945 0.060699
-0.256679 0.002640
0.029526 0.082990
0.177769 0.177569
0.201832 -0.110947
-0.011054 -0.457112
0.064496 0.061677
-0.282240 -0.146247
-0.155960 0.078955
-0.298838 0.138505
0.021666 0.213804
0.027047 0.289826
0.131821 0.023821
-0.407372 0.296140
-0.207191 -0.122478
-0.113366 0.127568
-0.094248 -0.014512
-0.107495 0.011103
-0.415336 0.084936
0.183374 0.181506
0.008478 -0.149618
0.519096 -0.147413
0.332569 0.028160
-0.313418 -0.029956
0.327100 0.069853
-0.092016 -0.195836
-0.240027 0.080271
-0.229535 0.494117
0.054316 0.337079
0.445103 -0.005963
-0.048073 0.429277
0.066105 -0.323405
0.332114 -0.073022
-0.207440 -0.295407
-0.149458 0.214283
0.131001 0.127746
-0.093477 -0.465893
-0.119258 -0.248084
0.050296 -0.489764
-0.075077 -0.182004
0.060016 -0.025500
-0.402546 0.222697
-0.301474 0.078054
0.172802 -0.336146
-0.172434 0.298503
0.012828 0.223416
-0.088338 0.005044
-0.286047 0.334628
0.152111 -0.090585
0.084021 0.096900
0.148851 -0.337551
0.206224 0.275104
-0.030790 0.212504
0.176849 0.347346
-0.184786 0.306952
-0.260655 0.123289
-0.401976 0.221690
0.223010 0.121625
0.220984 -0.425742
0.034553 -0.577107
-0.683144 -0.112228
-0.058207 -0.147286
-0.114305 0.139739
0.105071 -0.213076
0.278414 0.108855
0.188325 0.372541
-0.201702 0.387561
-0.137835 0.037450
-0.048210 0.096038
-0.003940 -0.096583
-0.114746 0.152544
0.189360 0.090242
0.438770 0.333235
-0.184558 -0.230518
0.755976 -0.491326
-0.199632 0.213089
0.084706 -0.120074
-0.054008 0.543159
0.077751 -0.334225
0.044182 0.242558
-0.482164 -0.606936
0.315420 0.472780
-0.316014 -0.227076
-0.017265 0.332944
0.163259 0.338394
0.080260 -0.363516
-0.149584 0.170267
0.076986 -0.597719
0.045243 0.316287
0.052867 -0.317003
0.221560 -0.114667
-0.329802 0.050376
0.363902 -0.027029
-0.808026 -0.102228
0.000676 0.330616
0.164734 0.049570
0.095702 -0.102608
0.313209 -0.149965
-0.114766 -0.170690
-0.449752 0.215344
0.435951 -0.026137
-0.571301 -0.267777
-0.222947 -0.145601
0.521034 -0.124075
-0.051384 0.003872
0.101465 0.150273
-0.006101 -0.170622
-0.160133 0.215060
-0.251474 -0.283639
-0.016134 -0.208250
0.265232 0.063500
0.051915 -0.258452
-0.152774 0.659902
0.128617 0.059592
0.077734 0.383222
-0.617606 0.020722
-0.542482 -0.063409
-0.385378 -0.068133
0.012464 0.179512
0.080446 0.016925
-0.457978 0.192764
0.314071 -0.109036
-0.290301 0.011343
-0.138469 0.169320
0.284613 -0.183577
0.078765 -0.166042
0.013600 -0.234728
-0.001105 0.160425
0.082315 0.072803
-0.209091 0.500813
0.155839 0.125367
0.079224 -0.158603
-0.080435 0.264354
0.027855 -0.219203
0.098323 0.006285
-0.016643 -0.347926
-0.433299 0.189335
0.115223 0.682290
-0.365082 0.138558
-0.169981 -0.093959
-0.002420 0.039658
0.640279 -0.179198
0.121564 0.224532
0.036717 0.031099
0.001896 -0.128334
-0.230192 0.501806
-0.271299 0.311146
-0.002961 0.506552
-0.426451 0.086661
0.735034 -0.112480
-0.224887 -0.251099
0.721157 0.228515
-0.349915 0.064455
-1.039656 -0.241857
0.558956 -0.154263
-0.363847 -0.190275
0.132184 -0.205121
0.345219 -0.088194
0.241081 0.343142
0.225695 -0.170654
-0.200991 -0.167918
-0.142001 0.366247
0.140116 0.186288
-0.800966 -0.217796
0.260053 -0.033103
0.227231 0.111447
-0.316774 0.075255
0.467335 0.391348
0.005704 0.045303
0.033610 0.566546
0.097091 0.508067
0.148274 -0.616695
0.143511 0.437852
-0.459334 -0.151593
0.650469 0.046665
-0.235984 0.289778
-0.134639 -0.287572
0.220630 0.386888
-0.786124 -0.082084
0.131758 -0.053850
0.202331 -0.884067
-0.167591 0.274415
0.486961 0.239058
-0.225966 -0.190357
0.475208 -0.008869
-0.397071 0.251672
-0.280060 -0.589209
0.574800 0.016193
-0.465134 -0.574813
0.215472 0.470814
0.503822 0.013154
-0.291442 0.525184
-0.024266 0.936992
-0.791784 0.421862
-0.052246 -0.257580
-0.618288 0.572211
0.300897 -1.564916
0.287233 0.611141
-0.488548 -0.739864
0.889663 1.004993
0.041330 -0.176227
-0.231745 -0.447567
-1.347292 0.600121
1.316760 -0.647109
-0.343738 0.035416
1.390680 -0.482737
-0.472290 0.707476
1.165599 0.502341
1.217049 2.099631
-2.556212 -1.999341
0.268958 0.604043
-0.901546 -0.962639
0.251728 -0.135698
1.336799 0.593637
0.906566 0.769446
-0.288675 1.980476
-0.869491 0.264032
-0.286873 -2.606461
-1.679994 1.535849
-1.039196 -4.729108
3.268772 1.054770
-3.412972 -0.628697
1.689460 0.244671
-3.549579 1.957711
1.525057 -2.921509
-1.346426 2.707670
-2.641993 -5.610515
6.021766 2.588646
-2.044651 1.626985
2.541740 -2.637617
-1.361970 7.688335
-4.224167 -0.386804
0.691596 7.852780
-1.524495 -6.405167
4.849092 -0.550947
-6.410524 6.307350
9.814918 0.035903
-1.280352 -0.611451
-2.370464 6.633307
-4.934211 -6.667990
-2.728147 -1.878362
5.563815 11.943675
12.744634 -32.142267
3.371613 9.289497
17.904929 -17.927050
42.245356 17.125047
-0.185724 -57.219440
42.889595 24.932462
-41.737064 -8.447600
-27.229500 -6.985402
-120.803540 12.311073
-845.148380 136.595090
