2795.408095 993.438903
-1504.893345 -145.597563
-73.145021 80.009354
-64.373803 -130.658110
-13.677641 74.954968
-23.232158 -35.557907
-25.297081 16.415268
-26.122287 -48.670727
-44.839559 -18.932777
0.328913 -0.703068
-24.354631 -31.164917
11.429148 -19.025679
-5.229526 2.276355
-5.435214 -9.301377
-5.915370 11.122035
2.064284 8.017597
8.384234 -0.775292
-11.060427 3.100362
-0.152488 -4.844872
3.199933 4.275957
2.540333 -1.602313
-0.895901 1.106100
5.499341 -3.443459
-5.637592 2.625230
-1.393050 2.800384
-3.680612 1.290085
-3.736094 -1.311441
-0.924756 0.351582
-4.922049 1.360732
2.799486 -1.253213
0.777492 2.942025
0.273126 -0.559041
0.653318 2.517091
-1.175012 -0.678178
0.839082 0.759777
-1.540472 -0.943766
-0.571920 -2.686498
-0.779413 -0.435510
-1.273797 -0.648864
2.996974 0.179468
-0.819422 -1.002793
-0.110962 1.123765
-0.174912 2.037666
-1.615627 -0.128252
0.629503 1.692043
-1.486117 -0.973355
1.883175 -0.787050
-0.897473 1.330734
1.917195 -0.664713
1.164477 0.793626
-0.927876 -0.567375
-0.007750 1.255667
-0.818318 0.356931
-0.196948 -0.758965
-0.019729 -0.605969
-0.845190 -1.453491
0.643846 0.550679
0.250527 -0.139117
1.193762 0.268440
0.445104 0.363008
-0.167309 -0.213610
0.385479 0.529998
-0.076583 -0.109722
-0.198412 -0.049291
-0.298910 -0.226954
-0.489394 -0.359778
0.274341 -0.458274
0.572427 0.287960
-0.047940 -0.437497
0.062287 0.182820
-0.371220 0.275045
-0.098926 -0.182256
-0.242618 0.350475
0.063007 -0.243888
0.416119 0.381201
-0.134623 0.039935
0.793100 -0.098606
-0.332951 -0.030876
0.279727 -0.367236
0.171805 0.548772
-0.560368 0.097819
0.056948 0.364730
-0.391050 -0.207644
0.206659 -0.196733
-0.148515 0.291902
0.472890 -0.489378
0.348272 0.038606
-0.396079 -0.582247
0.097846 0.445228
-0.502710 0.047225
0.380471 -0.652529
-0.051565 0.001195
-0.869550 -0.199629
0.266847 0.016616
-0.496592 -0.202844
0.416037 0.163366
-0.482589 -0.202250
-0.248175 -0.453319
-0.038747 -0.057192
-0.238138 0.095430
0.136946 -0.134186
-0.319635 -0.935917
-0.273004 0.594027
-0.056463 -0.065924
0.003858 -0.073191
-0.038349 0.271199
-0.498437 -0.322131
-0.197214 0.492226
-0.109000 -0.741855
-0.098210 0.470871
0.181835 -0.698278
-0.146150 0.194003
0.079444 -0.195885
-0.219109 -0.179264
-0.163095 0.169021
0.260455 -0.408768
-0.139629 0.186090
-0.466844 0.089775
0.037056 0.208787
0.205658 0.433847
-0.101034 -0.514029
0.064393 0.447271
0.165693 0.341884
0.031107 -0.069713
-0.196440 -0.360832
0.056063 0.193302
-0.070587 -0.062980
0.320812 -0.534206
0.229361 -0.040642
-0.241359 0.097847
0.113382 -0.073387
-0.146195 -0.060708
0.377698 0.525987
0.146880 0.144384
-0.255446 -0.225573
-0.116483 0.102797
-0.150243 0.059605
-0.010913 -0.104857
-0.163039 0.017297
0.096703 -0.280593
-0.599358 0.129585
-0.529524 0.220346
0.118942 0.371865
0.119129 -0.252047
0.148234 -0.164794
0.090167 0.001670
-0.339692 0.192062
0.178453 0.277467
0.237782 0.106745
-0.255835 0.425614
0.299349 -0.163061
0.296273 -0.054822
0.068141 -0.367626
-0.052073 0.005101
-0.281155 -0.219835
-0.018691 -0.217958
-0.282667 0.047941
-0.344089 -0.182943
0.415362 -0.042601
-0.006226 0.234334
0.153023 -0.094111
0.195792 0.518143
0.150541 0.280447
0.164235 0.075372
0.154496 0.204762
-0.077118 0.077389
-0.237655 0.198693
-0.127120 -0.022203
0.063504 0.105302
-0.203716 -0.302227
-0.153837 -0.155163
-0.043032 -0.198713
0.049633 -0.078555
-0.269109 -0.091243
-0.037486 -0.181412
0.076467 0.282510
-0.412527 -0.199407
0.014881 -0.144587
-0.264854 -0.326429
-0.025684 -0.044682
0.126517 -0.049719
0.142712 -0.130219
0.349272 -0.089299
-0.068256 0.027948
0.094714 -0.139803
-0.064338 -0.029957
0.150472 0.258534
-0.395961 -0.055298
-0.359258 0.044259
-0.464894 0.193479
0.064585 0.092897
0.238375 -0.211499
-0.093166 -0.146650
0.016378 -0.306903
0.018428 -0.232366
-0.285719 -0.151020
-0.224744 -0.028252
0.194739 -0.364268
0.097438 0.458411
-0.111219 -0.182947
0.258936 0.089060
-0.287522 0.008583
0.385025 0.393266
-0.091980 -0.015615
0.351648 -0.296307
-0.097735 0.005598
-0.057736 -0.064612
0.026502 0.084290
-0.007530 0.093328
-0.028416 0.390148
-0.175933 0.068161
0.092485 0.073624
-0.214804 0.323046
-0.024202 0.138892
-0.162750 0.127966
-0.177481 0.108919
0.091956 0.309094
-0.199998 -0.593000
0.083249 -0.377145
-0.154001 0.013577
-0.199296 0.066977
0.103442 0.132844
-0.093465 -0.076402
-0.055569 0.005311
-0.113741 0.112218
0.207898 -0.512157
0.094349 -0.044444
-0.250938 0.144869
-0.032133 0.365647
-0.216561 0.149524
-0.244311 -0.038611
-0.180095 0.038190
-0.026430 -0.192735
-0.095706 0.001721
0.177684 0.233242
0.175983 0.559327
-0.091112 0.185287
0.160327 0.018756
0.175409 -0.012342
0.111205 -0.336388
-0.089545 0.117196
-0.162833 0.170126
0.258078 0.232737
-0.259711 0.151151
0.111230 0.238985
-0.229210 0.179287
0.288056 0.329693
-0.140138 0.218868
-0.066589 -0.067962
0.023997 -0.099467
-0.259534 0.180716
0.233184 -0.070831
0.214962 0.072977
-0.093459 -0.461882
-0.125283 -0.230544
-0.014524 -0.394644
0.136599 -0.006580
-0.182194 -0.277058
-0.000329 0.001107
-0.204877 0.164365
-0.101285 -0.056591
-0.268399 0.343802
0.474975 -0.173970
0.397943 -0.022414
-0.093349 -0.034114
0.071465 0.042342
0.172651 0.433196
0.166925 -0.076236
-0.160289 0.043674
-0.150276 -0.298061
-0.066670 0.314862
0.160730 0.292828
0.334144 -0.053202
0.050062 0.178295
0.066426 -0.181011
0.013096 0.154381
0.028912 -0.383816
0.174452 0.034740
-0.333552 0.016978
0.439846 0.042398
0.161427 0.056856
-0.093961 -0.425594
0.312539 -0.309111
-0.382197 -0.063837
-0.007255 -0.140942
-0.451080 -0.042263
-0.024374 0.194595
0.140720 0.093534
0.101932 0.047439
0.300839 -0.215600
0.167288 0.519149
0.117702 0.150824
-0.006173 0.240744
0.377705 -0.127955
-0.262161 -0.129132
-0.163752 0.018228
0.278174 -0.122344
0.306379 0.046050
0.078382 -0.011270
-0.028715 0.376117
0.116716 -0.336878
-0.215621 0.079107
-0.124206 -0.107204
-0.129843 -0.156578
0.147427 -0.268732
-0.242176 0.006162
-0.054911 0.054857
-0.005510 0.032285
0.144125 -0.285117
-0.018715 0.007523
0.104557 -0.075060
-0.543648 0.091207
-0.086025 -0.086479
-0.044171 0.079957
-0.265253 0.037361
-0.242815 -0.147879
0.120763 0.186937
0.061280 -0.105119
-0.205707 -0.243949
-0.002504 -0.149122
0.086940 -0.208333
-0.034298 0.303988
0.008176 0.298108
-0.073654 -0.119089
0.148483 -0.081672
0.048120 -0.261800
0.226042 -0.367927
0.165978 -0.058710
0.279227 0.281039
-0.088686 0.358676
-0.072929 0.114179
0.084341 0.258340
-0.348986 -0.475510
-0.238118 0.077461
0.178869 0.112050
0.150149 -0.105372
-0.238460 0.088135
0.114164 0.073374
0.198336 -0.263671
-0.261308 -0.376996
-0.227243 -0.428161
-0.074951 -0.242196
-0.191895 0.124882
-0.176979 -0.083391
-0.112589 0.120417
-0.052492 0.019114
0.145064 0.044917
-0.057421 0.198111
-0.028900 0.003797
0.029208 0.396068
0.144933 -0.118869
-0.011438 -0.087781
-0.004681 -0.424686
-0.129186 -0.443357
-0.032968 -0.013338
-0.081846 0.121220
0.126472 -0.107980
0.016175 -0.015922
-0.201802 0.211604
-0.181980 0.402815
-0.035178 -0.144002
0.037766 0.057366
0.334740 -0.149062
-0.357096 0.060269
0.673837 -0.308552
-0.035555 0.057891
-0.086682 -0.118393
-0.063793 0.100509
0.379905 0.435146
0.292949 0.280060
0.133829 -0.151666
-0.186835 0.026205
-0.566134 0.202772
0.137197 0.033881
-0.325452 0.017783
-0.192771 0.115690
-0.244130 0.215479
-0.524164 0.106936
0.084298 0.299559
0.198832 -0.109947
0.010357 -0.414268
-0.034010 -0.139940
0.115579 0.090700
-0.038864 -0.194407
0.173249 -0.112024
-0.104672 -0.226682
-0.289497 -0.193829
-0.207307 0.111992
-0.040101 -0.121268
-0.233829 -0.120262
-0.138647 0.168373
0.165662 0.105337
0.077097 0.126137
-0.005911 0.281997
0.168833 -0.014930
-0.251703 0.231332
-0.346056 0.423475
0.071708 -0.102498
-0.379408 0.020401
-0.450465 -0.337931
0.276272 -0.318808
-0.031931 -0.177794
0.175275 -0.022196
0.238658 -0.075649
0.189419 -0.192566
-0.135553 0.307799
-0.312514 -0.151729
-0.029811 -0.115751
0.096348 0.688397
0.105980 -0.301591
-0.198750 0.263704
0.251571 0.022811
0.296200 0.000890
-0.522719 -0.209490
-0.247396 -0.354997
-0.155069 0.679111
0.091636 0.214114
0.339949 0.129048
-0.045203 0.073195
-0.049352 -0.246803
0.124931 0.152254
0.116215 0.038781
0.335521 -0.188829
0.320792 0.075471
-0.417648 -0.229737
0.028897 0.354759
-0.334987 -0.242044
-0.146257 -0.310791
0.077059 0.067026
-0.356816 -0.360145
-0.242624 -0.454680
-0.169869 -0.015115
0.031250 0.028630
0.325196 -0.014073
0.167593 -0.034701
-0.059605 0.407686
0.095689 0.184885
0.075511 -0.130772
0.087088 0.405987
-0.161012 -0.122811
0.481985 0.375088
0.186502 -0.311137
-0.609451 0.340350
0.125256 -0.289430
0.534475 0.481164
-0.455339 -0.148819
-0.213256 0.196326
-0.089583 0.502939
-0.124380 -0.454340
0.125477 0.449230
-0.288329 -0.313690
0.671769 -0.187980
-0.225239 0.767972
-0.027299 -0.433512
0.284233 0.441953
-0.467580 -0.013869
0.124705 0.232422
-0.462366 -0.475390
-0.277346 0.203843
0.051488 -0.108918
-0.183309 -0.694078
0.117235 -0.052847
0.017505 0.150132
0.376088 0.315144
-0.192195 -0.369196
-0.022648 0.548939
-0.066108 0.078455
-0.618901 -0.424508
-0.308319 -0.095929
0.209924 -0.049076
-0.207138 -0.571544
-0.020006 0.025379
-0.359399 -0.021030
0.279942 0.017706
-0.527484 0.157680
-0.602545 0.184469
-0.146210 0.299816
-0.301231 -0.128383
-0.297439 -0.020835
-0.356445 -0.572828
-0.035571 -0.401802
0.131094 0.485280
0.265133 0.461871
-0.222145 0.334591
-0.476855 0.691205
-0.214154 0.008328
0.314014 -0.093320
-0.249195 -0.560809
0.609421 -0.684027
0.135837 -0.868209
-0.194117 0.319179
0.477060 0.439901
0.302142 -0.295198
-0.113302 1.344063
-0.334260 0.003041
-0.753269 1.038230
-0.468887 -0.254173
1.037751 -0.343644
-0.345065 0.275714
0.429850 -0.505830
0.389568 1.609613
0.010884 -0.478683
0.683261 0.850230
-1.691958 -1.382700
-0.325574 -1.013001
-0.983347 1.067146
-0.058062 -0.953314
0.843709 0.143495
-0.450201 0.301575
0.052459 0.623607
0.585395 3.150264
-0.755366 -0.250550
1.385365 1.103861
-1.611127 0.655794
1.111231 -0.572769
-0.039523 -0.019692
1.256572 -1.456737
0.420480 0.276248
-1.023112 -2.581035
1.055928 2.914158
-0.496918 0.282337
0.096145 0.770516
-2.582816 0.206450
0.117885 -0.586380
-0.828799 2.291589
-0.712937 -3.412989
3.768796 2.116189
-0.663342 0.510760
1.606218 -0.641427
1.542150 2.904807
-0.279047 -1.387195
1.373973 0.596256
-4.259301 -0.269097
0.805907 -3.501008
1.718235 2.654990
-5.000211 -6.040120
3.054068 -0.036470
0.033998 4.718499
-0.402258 -0.819032
1.038432 7.948643
3.691421 -3.584814
-4.065864 0.241348
-5.128220 3.415249
-1.888017 -0.038679
16.687432 -11.951569
-6.945575 -2.131275
1.386341 -13.935483
12.960701 -16.908794
-14.866156 6.332076
34.403721 -7.768120
-10.290498 4.918471
-3.573603 -40.009738
-4.537928 61.848251
-62.071656 -22.536948
-36.652430 10.027487
-88.200327 3.092546
-779.085278 137.484719
