5921.403308 2894.446359
-1461.982470 -90.908184
-189.854163 178.367955
-228.564397 -107.929461
-3.346102 -27.274639
-4.210353 22.780971
99.820766 45.915570
60.445465 -22.093467
39.566103 12.008861
4.522170 6.867759
23.534804 4.331455
-10.828092 -25.045665
-10.099716 8.725333
1.879041 4.615208
16.656078 1.164784
-3.634850 -10.469167
-2.168586 16.779670
18.391929 3.266407
-7.913296 -15.525901
-13.962036 1.501070
0.307015 -0.163949
0.694291 -4.841601
-3.938178 -5.907666
-2.528384 6.882697
5.430304 2.169020
1.722802 -4.668076
-7.509469 -4.242451
-1.232437 2.598856
6.040112 -1.698656
-4.136322 -8.138457
-1.757911 3.332224
1.508073 4.795499
6.873683 -2.299600
-3.257382 -1.660964
-2.822673 4.632378
7.119156 1.670037
-3.075383 -8.258440
-3.863052 3.416527
4.408343 6.655489
3.185961 -3.692572
-2.521438 2.289602
-0.629496 2.053053
2.740863 1.068989
0.228747 -2.487867
-2.061738 -1.788744
-1.761214 3.828304
4.863659 1.362917
0.531408 -4.639338
-3.061855 3.487741
3.842939 1.560437
2.373268 -2.025320
-1.185140 -0.784170
0.049112 1.824489
1.662058 0.322872
0.615427 -2.242989
-1.744973 -0.211028
1.746834 2.236814
3.341980 0.371291
-1.690365 -2.586349
-1.593123 3.000346
2.105557 0.673997
0.921307 -1.865416
-2.331955 -0.813211
1.227387 3.260666
1.821396 -0.491534
0.322432 -0.801516
-1.964103 0.634527
1.442414 1.847100
2.038148 -1.942401
-1.938004 -1.251586
-0.462807 2.295681
2.528839 0.215472
1.121134 -2.334321
-1.070823 0.053864
1.065237 2.367441
1.517969 -0.327053
-0.960094 -1.806763
-0.935478 0.905509
2.079115 0.007994
1.125940 -2.811732
-1.032731 0.484143
0.783139 1.156753
2.104703 -0.261815
-0.588954 -1.026294
-0.895355 0.925244
1.000111 1.242430
0.388417 -1.000307
-0.431990 -0.860227
-0.570277 1.190651
1.961263 0.306118
0.114723 -1.016569
-1.584020 -0.204795
0.400318 1.519498
1.224694 -0.384958
0.090673 -1.420913
-0.759435 1.077719
1.812221 0.995779
0.490992 -1.202050
-0.619899 0.276901
0.431951 1.247162
1.048769 -0.471358
-0.386143 -1.387046
-1.238558 0.443592
0.557430 1.318773
1.116356 -0.804830
-0.853453 -0.887076
-0.506300 0.752953
0.802389 0.530468
-0.335078 -1.358117
-0.777786 -0.130366
0.961186 0.740070
1.117967 -0.144346
-0.520936 -0.995982
-1.173901 0.921273
1.386390 0.925450
0.751383 -0.588410
-0.711871 -0.055279
-0.116510 1.228621
1.257875 -0.122786
0.068187 -1.052750
-0.835238 0.089652
0.426304 0.961199
1.024174 -0.289202
-0.597669 -0.633724
-0.177097 0.475474
0.826273 0.189532
0.300693 -0.761250
-0.829565 -0.485012
0.087636 1.011245
1.347246 -0.087159
0.242904 -0.482835
-0.179728 0.261329
0.509579 0.756436
0.408291 -0.784306
-0.688262 -0.159573
0.081601 0.433385
0.831868 0.306260
-0.123514 -0.926100
-0.785393 -0.285884
0.058501 0.378271
0.988639 -0.093693
-0.116949 -0.623135
-0.406706 0.413185
0.548514 0.199473
0.507868 -0.412479
-0.344811 -0.413886
-0.229580 0.637223
0.830420 -0.333294
-0.231518 -0.709999
-0.195326 -0.112183
0.573752 0.694952
1.080125 -0.579678
-0.167091 -0.365055
-0.071398 0.409020
1.103155 0.415027
0.682101 -0.520379
-0.746529 -0.268121
0.379171 0.614276
0.999875 -0.328860
0.107626 -0.672460
-0.532897 0.162814
0.613911 0.327685
0.275495 -0.471069
-0.475898 -0.516095
0.031914 0.504073
0.704901 -0.022106
0.535724 -0.724042
-0.494438 -0.174587
0.336345 0.510650
0.762836 -0.492821
0.002468 -0.366843
-0.548640 0.268302
0.467503 0.391977
0.277428 -0.724378
-0.580743 -0.250293
-0.041792 0.842127
0.709228 0.145684
0.271324 -0.475703
-0.720840 -0.010401
0.473860 0.675126
0.448491 -0.244919
-0.243197 -0.656156
-0.183525 0.399215
0.751896 0.238499
0.320142 -0.506234
-0.808548 0.184758
0.224794 0.290552
1.021271 -0.220432
-0.147341 -0.714943
-0.422606 0.390375
0.714336 0.306159
0.231781 -0.745913
-0.406585 -0.395943
-0.160014 0.684210
0.843499 0.009086
0.097763 -0.761830
-0.508592 0.163336
0.342098 0.194877
0.730596 -0.669992
-0.628277 -0.356197
-0.300432 0.742925
0.843484 0.431992
0.123786 -0.638596
-0.619873 -0.012450
-0.017461 0.773781
0.828355 -0.382240
-0.218283 -0.721331
-0.897228 0.416629
0.331701 0.585918
0.887299 -0.516709
-0.498395 -0.615794
-0.094913 0.704291
0.815997 -0.032474
-0.187927 -1.058615
-0.266099 0.116206
0.103871 0.722811
1.020621 -0.612372
-0.330762 -0.769212
-0.576584 0.439429
0.998544 0.134149
0.428623 -0.962476
-0.775139 -0.336293
0.216177 0.878954
0.707028 -0.563998
-0.250751 -0.687031
-0.364103 0.165553
0.695106 0.546369
0.476756 -0.546923
-0.488315 -0.628455
-0.173582 0.718510
0.676671 0.330457
0.180225 -0.982479
-0.681956 -0.066911
0.593332 0.379634
1.087708 -0.538471
-0.311240 -0.482888
-0.023259 0.267832
0.776657 0.567391
0.317531 -0.472657
-0.600108 -0.277291
0.048885 0.701866
0.858445 -0.277207
-0.186100 -0.620962
-0.641696 0.652157
0.764496 0.496134
0.679354 -0.861841
-0.154731 -0.368662
-0.202859 0.617938
1.076943 -0.266142
0.181207 -0.900784
-0.567521 0.137484
0.309937 0.319011
1.174081 -0.245099
-0.165587 -1.041201
-0.618992 0.547885
1.144181 0.302757
0.336841 -0.766661
-0.594903 -0.248940
0.301422 0.455052
0.609251 -0.213157
-0.294604 -1.126311
-0.820417 0.150317
0.635084 0.690014
0.497445 -0.745523
-0.717116 -0.463777
-0.005248 0.807207
0.554095 -0.391491
0.571270 -0.828319
-0.686052 0.109210
0.364981 0.745790
0.585727 -0.895676
-0.425352 -0.608271
-0.732568 0.312994
0.243364 -0.078089
0.472985 -1.107736
-0.247398 -0.193825
0.307334 0.746514
1.058046 -0.122788
-0.348216 -1.069027
-0.566035 0.182269
0.594795 0.438110
0.478737 -0.259243
-0.422666 -0.983009
-0.523911 0.272715
0.642138 0.152142
0.484082 -0.946264
-0.332342 0.047330
0.473157 0.592849
0.900327 -0.285512
-0.319168 -1.069845
0.110378 0.342679
0.788934 0.732981
0.136544 -0.743237
-0.898831 -0.385143
-0.123107 0.946502
1.027643 -0.402679
-0.078754 -0.447123
-0.869198 0.487184
0.632789 0.295292
0.653886 -0.730856
-0.290780 -0.443709
-0.209580 0.338302
0.456997 0.358421
-0.118659 -1.004390
-0.484219 -0.036007
0.073632 0.329128
0.082260 -0.457014
-0.623015 -0.738500
-0.281145 0.051592
0.707416 0.145226
0.596350 -0.631163
-0.533005 -0.517823
0.048091 0.232372
0.783661 -0.654470
-0.128307 -0.671314
-0.624073 -0.108461
0.458236 0.379082
0.520680 -0.513148
-0.677308 -0.407371
-0.107592 0.483897
0.678342 -0.578693
0.112276 -0.951808
-0.584341 -0.002847
0.666513 0.664463
0.330242 -0.433721
-0.372215 -1.136290
-0.335356 0.349161
0.436777 0.138963
-0.113533 -0.624808
-0.384248 -0.373824
-0.257001 0.543178
0.887560 -0.273906
-0.490259 -0.839046
-0.768067 0.223062
0.397667 0.240112
0.557543 -0.633358
-0.613261 -0.400811
-0.187551 0.097923
0.660086 -0.016949
0.307537 -0.633130
-0.945919 0.220821
0.683204 0.533952
0.626708 -0.437933
-0.303287 -0.609123
-0.330786 1.005477
0.826933 0.371874
0.078330 -0.193615
-0.369379 0.018251
0.041855 0.253280
0.871460 -0.177289
0.073585 -0.846265
-0.281665 0.005362
0.333376 0.269158
0.193550 -0.830779
-0.264948 -0.210869
-0.192835 0.540115
0.582491 0.014242
0.319345 -0.522352
-0.666535 0.009320
0.280575 0.549717
0.001549 -0.625479
0.016857 -0.439631
-0.200680 0.223713
0.800248 0.095277
-0.020702 -0.614493
-0.367564 -0.403827
0.245028 0.396095
0.378997 -0.361650
-0.283708 -0.917460
-0.634298 0.076464
0.627384 0.258201
0.468250 -0.496745
-0.620562 -0.270000
0.191008 0.262707
0.510671 -0.153398
-0.167726 -0.511868
-0.693429 -0.251621
-0.020790 0.385020
0.336706 -0.294031
-0.201248 0.087704
-0.235221 0.309257
0.708650 0.144046
0.403982 -0.392443
-0.635343 -0.454824
0.090263 0.609591
0.816169 -0.431798
0.055269 -0.764766
-0.230860 0.113593
0.277739 0.264424
0.127009 -1.093843
-0.296029 -0.172310
-0.162278 -0.121497
0.346596 -0.403319
-0.113039 -0.360955
-0.680792 -0.024903
0.202584 0.255218
0.459684 0.123883
-0.206201 -0.789389
-0.040464 0.218676
0.303120 0.162184
0.453882 -0.395545
-0.462097 -0.348700
0.164413 0.494825
0.418031 -0.537003
-0.159782 -0.569441
-0.527149 0.173774
-0.030960 -0.164494
0.243618 -0.424740
-0.144021 -0.488299
-0.297520 0.169973
0.387134 -0.196023
0.135594 -0.212108
-0.328182 -0.485372
0.377094 0.118219
0.467525 -0.323854
-0.214419 -0.413898
-0.219935 0.350206
0.194702 0.246660
0.486631 -0.455376
-0.222697 -0.658890
-0.405439 0.175168
0.121456 -0.192924
0.201929 -0.401817
-0.745152 0.236277
0.606800 0.613942
0.164722 -0.201059
-0.168322 -0.611904
-0.082452 0.194640
0.247343 -0.068592
0.426202 -0.249096
-0.220972 -0.108673
0.090262 0.098137
0.374228 -0.306186
-0.157933 -0.725546
-0.389303 -0.008483
0.047274 0.247881
0.352740 -0.525331
-0.261798 -0.242365
-0.212981 -0.188598
0.508243 0.063926
-0.231365 -0.409717
0.021308 -0.116324
-0.024226 0.214701
0.714359 -0.390281
0.186512 -0.517593
-0.380587 -0.169963
0.170404 -0.097291
0.169105 -0.500895
-0.166501 -0.175612
-0.169683 0.068981
0.362584 0.096405
-0.419412 -0.597591
-0.445367 -0.017133
0.086870 0.392649
0.228389 -0.420523
-0.010811 -0.740228
-0.560114 0.119765
0.436553 0.044955
0.092261 -0.453400
-0.058145 0.145124
-0.318259 0.371574
0.688656 -0.388568
-0.413924 -0.670282
-0.214463 0.054036
-0.025784 0.170731
0.224650 -0.066299
-0.633991 -0.094205
-0.219000 0.207032
0.389057 0.432068
0.147212 -0.600784
-0.008475 -0.315856
0.305725 0.440602
0.458247 -0.640085
-0.237812 -0.620624
-0.479543 0.468489
0.556031 -0.242203
0.339130 -0.657089
-0.418792 -0.304276
-0.150557 -0.350568
-0.089432 -0.196867
0.035936 -0.405203
-0.721578 -0.084190
0.109628 0.692611
-0.065253 -0.537919
-0.243773 -0.458795
-0.345872 0.473405
0.589389 0.036064
0.218658 -0.701171
-0.435400 -0.224419
0.069423 0.527351
0.329519 -0.251157
-0.438130 -0.709413
-0.124245 0.015991
0.287675 0.203033
0.139404 -0.649830
-0.462045 -0.283719
-0.047561 0.201057
0.305623 -0.047490
-0.011829 -0.392451
-0.665709 -0.491926
0.538030 0.630292
0.358085 -0.634852
-0.616052 -0.448352
-0.787845 0.390677
0.685539 0.130958
0.183300 -0.519085
-0.499906 -0.204750
-0.020890 0.559627
0.605749 -0.347289
-0.059673 -0.564241
-0.785449 0.074158
0.346790 -0.046628
0.482592 -0.813285
-0.699405 -0.828380
-0.205014 0.126950
0.474982 -0.243197
0.180319 -1.009659
-0.650943 -0.278348
0.129515 0.677403
0.408794 -0.498593
-0.382556 -0.249103
-0.307428 0.211810
0.585125 0.175600
-0.007924 -0.687600
-0.305396 -0.276646
-0.394523 0.437173
0.569101 -0.492170
-0.301060 -1.238959
-0.485039 0.287337
0.168240 0.476780
0.355734 -0.471541
-0.455295 -0.536849
-0.289053 0.329749
0.312919 -0.246644
-0.026884 -0.813817
-0.912482 -0.056779
0.163858 0.789390
0.584749 -0.054619
-0.732924 -0.690470
-0.753145 -0.096143
0.675285 0.133372
-0.187138 -0.583516
-0.833044 -0.255360
-0.315191 0.824331
0.608215 -0.427080
-0.500696 -0.555578
-0.620353 0.422493
0.410082 0.631650
0.523722 -0.598584
-0.483870 -0.597671
-0.474623 1.013870
0.557288 0.140328
-0.208118 -0.868151
-0.932828 0.092606
-0.119488 0.766132
0.499248 -0.317629
-0.585488 -0.898679
-0.505729 0.617708
0.888018 0.588639
0.238666 -0.727911
-1.156004 -0.314307
-0.082242 0.559084
0.962772 0.011513
-0.430769 -1.087545
-1.198127 0.150474
0.023386 0.455328
0.215637 -1.065757
-0.617636 -0.365959
-0.346303 0.669704
0.383633 -0.301478
0.276723 -0.873884
-0.799624 -0.319368
0.554983 0.469678
0.419339 -0.335808
-0.822296 -0.889230
-0.446388 -0.121959
0.664625 0.421595
0.132952 -0.876926
-0.995614 -0.271538
-0.559387 0.491040
1.120346 -0.049504
0.142319 -1.220063
-0.605908 0.017572
0.613492 1.078035
0.513905 -0.469588
-1.016150 -0.534888
-0.217980 0.656022
0.357374 0.064158
-0.230063 -0.499372
-1.263928 0.127412
0.069227 0.868914
1.013609 -0.905250
-0.763045 -0.555381
-0.694259 0.548520
0.490886 -0.112533
0.139946 -0.777772
-0.889871 0.113248
-0.441613 0.734252
0.665561 -0.449181
-0.592988 -0.716197
-1.054332 0.294943
0.609933 0.349439
0.251983 -0.590008
-0.286292 -0.548630
-0.270574 0.493809
1.171522 0.141171
-0.623819 -1.190889
-0.832798 0.131278
0.089281 0.498570
0.507826 -0.334523
-0.379476 -0.815158
-0.632506 0.635026
0.400717 0.314573
0.043555 -1.030217
-0.884428 -0.216801
-0.088508 0.706874
0.660339 -0.758997
-0.356240 -0.645095
-0.835665 0.382038
0.220200 0.263687
0.439224 -0.795118
-0.806481 -0.370723
-0.108442 0.873769
0.860318 -0.253648
0.048249 -0.836201
-0.791732 -0.104341
0.327016 0.860314
0.651270 -0.556884
-0.959981 -1.089853
-0.467361 0.575565
0.448394 0.206520
0.124914 -1.198142
-0.933934 -0.315336
0.075242 0.485234
0.766060 -0.394393
-0.417696 -0.763620
-0.673515 0.089705
0.623939 0.646627
0.234852 -0.524105
-0.911124 -0.429912
-0.374984 0.563961
0.677218 -0.353827
-0.324054 -0.930707
-0.912626 0.079289
0.165827 0.534359
0.099708 -0.384772
-0.426567 -0.562868
-0.892425 0.417748
0.204124 -0.000000
0.073982 -0.894309
-1.365549 -0.153513
-0.090158 0.530998
0.642508 -0.053647
-0.703459 -0.701060
-0.900164 0.392802
0.033191 0.244217
0.187019 -0.716689
-0.471349 -0.460093
-0.598224 0.498937
0.438080 -0.020679
-0.099604 -0.646699
-0.823659 0.213177
0.220526 0.468222
0.307914 -0.462287
-0.798123 -0.847201
-0.661887 0.591358
0.409939 -0.129488
-0.036980 -1.138100
-0.737620 -0.218594
-0.317411 0.472089
0.640446 -0.337207
-0.527733 -1.156558
-1.140683 0.060335
0.402536 0.127660
0.114692 -0.831104
-0.878763 -0.406322
-0.294349 0.605137
0.161228 -0.160170
-0.345066 -1.112650
-0.809414 -0.077192
-0.403558 0.662541
0.265999 -0.447284
-0.692073 -0.679752
-0.828746 0.190935
0.438238 0.726928
0.071395 -0.730054
-1.058434 -0.590405
-0.694585 0.644012
0.224052 -0.057031
-0.207023 -0.498327
-0.877557 0.068323
0.363080 0.626562
0.529867 -0.681392
-0.762591 -0.729172
-0.851599 0.567293
0.311935 -0.196568
-0.076755 -0.970882
-0.838765 -0.260476
-0.189615 0.513679
0.464516 -0.481507
-0.473008 -0.655253
-0.684295 -0.097855
0.522864 0.517028
0.339518 -0.872372
-0.580717 -0.545399
-0.443724 0.510494
0.427888 -0.044760
-0.290689 -0.874138
-0.692507 0.019885
-0.235568 0.701546
-0.005794 -0.116862
-0.611882 -0.829254
-0.962859 0.634449
0.290100 0.152492
-0.202158 -0.673327
-1.137139 -0.358182
-0.166058 0.712196
0.542548 -0.292311
-0.377292 -0.796769
-0.855138 0.203309
0.036463 0.412479
0.403563 -0.506159
-0.676444 -0.697411
-1.030185 0.729683
0.154583 0.647523
0.140009 -1.019054
-0.934832 -0.544161
0.165210 0.521989
0.499628 -0.332007
-0.884554 -0.992672
-0.940153 0.570615
0.351546 0.561290
0.209167 -0.670654
-1.482707 -0.498690
-0.901049 0.627771
0.029223 0.073621
-0.177805 -1.172297
-1.367887 -0.250864
0.235894 0.521175
0.014804 -0.834793
-0.775084 -0.946425
-0.849400 0.026467
0.193632 0.472966
0.182826 -1.026339
-1.131104 -0.908535
-0.785442 0.484437
0.549999 -0.386832
-0.539328 -0.994370
-1.224324 0.533159
0.021108 0.879117
-0.107182 -0.630439
-0.936841 -0.641047
-0.736430 0.559767
0.268667 0.289509
-0.583808 -1.234725
-1.849838 -0.525935
0.282130 1.250217
0.858900 -0.621246
-1.524450 -1.065715
-1.209846 0.117426
-0.241595 0.421953
0.501601 -0.648603
-1.212472 -0.676016
-0.747692 0.780685
0.578613 -0.136893
-1.054296 -1.551816
-2.780317 0.288437
0.207872 0.987336
0.425345 -1.068683
-1.325716 -1.198967
-1.764824 0.752058
0.886837 0.482745
-0.173559 -1.213708
-1.433008 -1.214686
-0.585789 1.535122
1.537020 -0.534467
-0.546325 -2.199584
-1.936753 1.060593
1.679429 1.073164
0.536556 -1.186947
-2.404106 -0.784169
-0.611075 1.957074
0.852814 -0.087386
-0.453742 -1.701775
-2.088352 0.443263
-0.657917 1.161729
1.323510 -1.788763
-2.534705 -2.212920
-2.045938 1.176182
1.298283 1.582999
0.307566 -1.545152
-3.207106 -0.548969
-0.787601 1.604097
0.759179 -0.477225
-0.667253 -1.660138
-3.125816 0.067373
0.566437 2.094595
1.351093 -2.555271
-2.164567 -1.404102
-1.443897 3.235667
3.124192 0.412336
-1.243734 -1.850723
-2.388764 0.082379
-0.050707 1.744071
1.908336 -1.055320
-0.958807 -2.466717
-2.708998 1.508998
2.450126 3.323538
0.445749 -3.355241
-4.074438 -2.223087
-1.783500 3.463205
4.232292 -2.332891
-3.764698 -4.871667
-3.562561 1.028896
0.055210 2.161026
2.074008 -3.111369
-3.897820 -2.627560
-3.757945 1.810277
1.642023 -0.426090
0.333701 -5.259285
-6.031120 -2.539988
1.692459 4.251663
3.727929 -3.297267
-4.570180 -3.822830
-3.108314 6.560116
2.282471 -0.194259
-0.851305 -3.012040
-6.963757 -0.594069
0.445528 3.068523
2.457886 2.149130
-3.111881 -3.642565
-6.746467 6.278618
-1.109260 4.688902
3.439010 -2.653829
-8.749201 -3.649385
-5.898953 4.748089
3.678939 5.465069
-3.377884 -8.453444
-9.242951 1.881529
1.730723 7.731023
6.464653 -5.840483
-8.229871 -8.679166
-10.384925 7.752504
10.948952 1.775869
-3.642527 -11.941147
-0.089711 -2.656358
0.525924 -0.409417
14.790061 1.298400
-4.113407 -18.756687
-12.350031 5.972649
-3.668917 11.176298
11.668975 -5.782954
-21.163437 -15.493520
0.847093 20.572975
19.956986 -7.620927
-1.647058 -9.526197
-77.966205 -9.072630
-92.522406 76.216595
-63.862140 -16.515577
-200.083443 51.607548
-72.103470 -6.523811
-121.021069 115.998579
274.569257 -139.094644
-3824.637275 448.436318
