5831.837291 2658.960034
-1605.368710 -149.032458
-162.920446 -194.971188
-255.154009 -71.542699
70.752750 46.269048
11.874191 18.557908
82.644608 42.054998
-17.415682 39.343021
1.193238 -6.470296
-1.149265 -5.082217
8.428723 33.418496
-15.667069 2.349788
-6.290390 -4.926309
8.349105 22.656758
-12.945416 20.012151
-6.617195 -10.802659
10.527029 -2.277033
-2.719004 4.302185
-9.538834 2.844105
5.940670 -9.134821
-1.606825 9.197655
-10.431798 6.020492
5.442246 -3.251465
14.364624 -1.885093
-4.069780 7.777563
-3.511157 -1.880100
4.568188 1.295473
3.960156 6.326028
-8.366408 -2.351589
4.003210 -0.790557
5.165643 5.398206
-2.543667 3.442166
-5.527407 -3.716204
6.627478 1.829093
-3.074613 5.831638
-2.320033 -4.954882
0.753348 -2.152837
0.952967 5.156240
-4.580989 2.891477
3.884032 -6.899124
3.472720 1.373258
-1.154001 4.807906
-1.418455 -2.296616
3.722240 -3.466236
-0.464303 5.123453
-2.725489 0.539880
2.432823 -3.422431
2.927258 2.990946
-4.336975 2.265026
0.248645 -0.823151
4.370846 -1.356776
-1.638606 3.326373
-4.614916 -2.345427
3.924581 -0.581741
1.169277 3.168644
-1.827701 -0.048603
-0.064835 -2.708037
4.361292 1.379573
-1.882565 1.335739
-1.613723 -3.439734
2.386920 0.132862
0.336709 3.801599
-3.250301 -1.602027
1.578598 -2.230400
1.620003 3.640613
-1.832346 1.603536
0.259093 -3.508556
3.017314 -1.132221
-1.951753 3.553184
-0.731055 -0.713320
1.898731 -1.378550
1.002217 1.885104
-2.551997 0.135227
2.339445 -1.531287
1.826350 1.007237
-2.517877 1.600599
-1.460497 -1.295039
2.893155 -0.521751
-0.977676 0.897176
-2.099489 -1.321718
1.677317 -0.990659
2.090676 2.201363
-2.935421 -0.311777
-0.416713 -2.349491
1.805738 1.256984
0.161738 2.007475
-1.522995 -2.438570
2.058820 -0.224671
0.285499 2.033233
-0.044223 0.137072
0.638097 -2.665511
1.227782 1.209889
-1.534900 1.445504
0.375186 -1.932228
1.053821 -0.435080
-0.801033 2.067207
-1.004437 -0.470553
2.233996 -0.835669
0.013058 0.926013
-2.302497 0.810064
0.524227 -1.828940
1.938218 0.651504
-1.025189 0.379126
-1.121295 -0.480949
1.990319 -0.146644
0.327100 1.876516
-1.956642 -1.328330
0.552130 -1.100179
1.435231 1.430596
-0.738546 0.153184
-0.536729 -1.970329
1.466878 1.003044
-0.242555 1.309129
-0.484447 -1.525612
0.608263 -1.333107
0.517033 2.375365
-0.881556 -0.418561
0.405950 -1.643556
1.115777 0.616021
-1.035377 1.373045
-0.041216 -1.550069
1.369917 -0.304190
-0.016077 1.280670
-1.208255 -0.029443
1.624363 -1.002470
0.304673 1.062972
-1.217513 0.785179
0.227419 -1.124781
1.624029 0.351241
-0.850580 0.671609
-1.417371 -1.055629
1.783033 -0.203430
0.669775 1.049474
-1.447713 -0.484559
0.465934 -0.982833
1.243365 1.230126
-0.443665 0.552009
-0.822222 -1.639927
1.244724 0.583397
0.089793 1.423757
-1.006666 -1.139813
0.636302 -1.307749
0.467300 1.528454
-1.194517 0.343390
0.619048 -1.267106
1.082837 -0.034288
-0.862587 1.570406
-0.249456 -1.015830
1.629467 -0.448595
-0.163706 0.768762
-0.909919 0.084948
1.153169 -1.254125
1.148936 0.811537
-1.561405 0.350842
-0.085435 -0.701222
1.734259 0.141303
-0.406553 0.976908
-1.128251 -0.774943
1.009113 -0.143372
0.610924 1.096485
-1.037400 -0.215311
0.403150 -1.153430
1.079023 0.882562
-0.663085 0.459294
-0.691207 -1.084466
1.069398 -0.092973
-0.223314 1.593576
-0.374147 -0.614864
0.495818 -1.209644
0.483938 0.955976
-0.827341 0.726555
0.722724 -1.183228
1.025183 -0.203449
-0.674610 1.096920
-0.684166 -0.307516
1.142245 -0.870302
0.127506 0.684682
-1.169937 0.043442
0.579925 -0.876169
1.382283 0.623234
-1.078260 -0.066400
-0.384119 -0.475324
1.447945 0.070118
-0.016067 0.944815
-1.157594 -0.824039
0.675072 -0.167349
0.956284 0.976163
-0.908884 0.102700
-0.041311 -1.356202
0.657006 0.746106
-0.105952 0.744427
-0.272046 -0.996596
0.820328 -0.790144
0.156372 1.658807
-0.400267 -0.348738
0.506884 -0.892612
0.353346 0.393292
-1.124330 0.593304
-0.053430 -0.906534
0.967596 -0.323542
-0.338789 0.670684
-0.879734 -0.290043
1.495143 -0.503333
0.274606 0.421164
-1.169372 0.271904
0.024585 -0.403851
1.437808 0.313942
-0.743195 0.556913
-0.535621 -0.802658
0.668421 -0.191856
0.739972 0.759991
-0.836618 -0.764501
0.367387 -0.920390
0.306373 0.937655
-0.342735 -0.030045
-0.475947 -1.091977
0.892746 0.236459
-0.220904 1.167949
-0.200410 -0.547238
0.479429 -1.051608
-0.009645 1.065784
-1.057744 -0.003509
0.837761 -0.994385
0.652936 0.115603
-0.517054 0.770773
-0.223691 -0.961139
1.068830 -0.390745
-0.244232 0.851532
-0.617936 -0.047505
0.993875 -0.577822
0.612410 0.575163
-1.433785 -0.010566
-0.110508 -0.583791
0.951631 0.523172
-0.116794 0.513506
-1.047933 -1.244249
0.276197 -0.241728
0.228641 0.584050
-0.589682 -0.314093
0.177116 -1.040376
0.697765 0.991593
-0.366132 -0.144385
0.338793 -0.828508
0.418870 -0.231026
-0.363484 0.890566
-0.238724 -0.708016
0.326690 -1.115424
0.478451 0.841654
-0.921342 0.564133
0.695817 -0.810976
0.719449 -0.082283
-0.616399 0.560052
-0.663444 -0.125965
1.567694 -0.655454
-0.554267 0.856710
-1.070238 -0.033207
0.744454 -1.063489
0.806383 0.434632
-0.971757 -0.212931
-0.199234 -0.666761
0.920212 0.266425
-0.187502 0.651699
-0.944422 -1.060794
0.281660 0.027749
0.626646 0.591682
-0.550296 -0.433064
-0.160365 -1.074040
0.787043 0.726222
-0.241067 0.523554
-0.138801 -0.588768
0.502071 -0.461421
0.049672 0.873606
-0.648397 -0.497954
0.056971 -0.786773
0.362102 -0.186132
-0.214065 0.434664
0.451787 -1.076006
0.908884 -0.033951
-0.689177 0.429070
-0.656256 0.032205
1.007759 -0.329182
0.292880 0.756376
-1.122122 -0.185064
0.192725 -0.574293
0.631988 0.145310
-0.488996 0.067596
-0.242986 -0.412793
0.545152 0.266381
0.143250 0.553732
-0.322509 -0.925661
0.368413 -0.897506
0.217037 0.947430
-0.454846 -0.138314
0.106192 -0.985851
0.779617 0.133528
-0.508007 0.604871
-0.036335 -0.676611
0.154741 -0.844642
0.141861 1.351522
-1.037695 -0.251781
1.045756 -0.991267
0.452532 0.313034
-0.450389 0.778088
0.147936 -0.471017
0.874202 -0.288941
-0.596324 0.272445
-0.826529 -0.314580
0.718696 -0.358329
0.627638 0.023519
-0.881064 0.291426
0.021306 -0.865593
0.837010 0.205639
0.155891 0.315362
-1.051567 -0.869038
0.873755 0.393958
0.326155 0.251696
-0.725989 -0.527599
0.414537 -0.547194
0.518914 0.476027
-0.404064 0.257369
0.171293 -0.795171
0.589848 -0.110028
-0.414640 0.882524
0.306552 -0.523369
0.247242 -0.231873
0.009522 0.346658
-1.021072 0.160798
1.051929 -0.908793
0.436263 0.290000
-0.561023 0.285901
-0.535333 -0.678741
0.888134 -0.073083
0.069856 0.733515
-0.385559 -0.328534
-0.057252 -0.415743
0.787663 0.336481
-0.562607 -0.242955
0.100331 -0.891850
0.692239 0.043191
-0.244624 0.496314
-0.790047 -0.716833
0.939657 0.084869
0.469750 0.464339
-0.287486 -0.807675
0.011051 -0.451488
0.506209 0.887111
-0.468670 0.459331
0.274468 -0.798410
0.389452 -0.220122
-0.307840 0.883841
-0.277521 -0.621198
1.014410 -0.492145
0.002202 0.464978
-0.485617 -0.072018
0.218968 -0.522874
0.799868 -0.240356
-0.735797 0.461518
-0.465141 -0.115134
0.975086 -0.453151
0.210204 0.698181
-1.033158 -0.641346
0.371026 -0.273704
0.569547 0.403872
-0.732693 -0.044634
-0.018914 -0.584020
0.663975 -0.047409
0.405984 0.300923
-0.513736 -0.482241
0.547500 -0.531484
0.145299 0.892124
-0.336546 -0.182200
-0.018264 -0.939386
0.829268 0.207493
-0.579636 0.811247
0.055783 -0.917650
0.457217 -0.592789
-0.133468 0.695310
-0.375473 -0.219703
1.061289 -0.649817
-0.353819 0.220730
-0.644229 0.662407
0.029004 -0.526570
0.946924 -0.292195
-0.491601 0.512770
-0.170783 -0.286451
0.703849 -0.555276
0.143549 0.507934
-0.892716 -0.494787
0.357154 -0.400977
0.677666 0.138831
-0.379069 0.637029
-0.509773 -1.095312
0.534491 0.019745
0.207256 0.409905
-0.487979 -0.595086
0.257578 -0.434512
0.304174 0.746478
-0.386614 -0.083855
0.106967 -1.043654
0.233243 -0.070892
-0.191798 0.599209
0.091268 -0.504524
0.453705 -0.364102
-0.514960 0.550829
-0.401762 -0.069069
0.790200 -0.952778
0.425308 0.146298
-0.789288 0.532279
-0.128651 -0.226533
1.061274 -0.372669
-0.570130 0.219648
-0.801128 -0.664565
0.703909 -0.555610
0.393996 0.545115
-0.766189 -0.073781
0.278242 -0.743154
0.645038 0.407406
-0.439461 -0.039500
-0.105061 -0.750235
0.291679 0.224150
-0.160707 0.607793
-0.254922 -0.419430
-0.022482 -0.921472
0.481713 0.603834
-0.789149 0.384445
0.238152 -1.037076
0.504796 0.012681
-0.761613 0.614648
-0.141427 -0.855989
0.853714 -0.583651
-0.418985 0.400360
-0.762872 0.167879
0.464754 -0.692976
0.660632 -0.288638
-0.571827 0.052839
0.019522 -0.448446
0.658587 -0.311560
-0.099497 0.650408
-0.896257 -0.286744
0.529024 -0.324371
0.318473 0.330433
-0.848915 -0.059586
-0.073465 -0.864472
0.792053 0.393947
-0.548032 0.430820
-0.537656 -0.927306
0.524097 -0.418293
0.169897 0.727848
-0.624628 -0.474784
0.264764 -1.106244
0.340777 0.579194
-0.375621 0.511722
-0.124579 -0.901616
0.599617 -0.317616
-0.422004 0.384729
-0.473068 0.205219
0.807025 -0.901966
0.017309 0.536847
-0.981429 -0.010386
0.241165 -0.524632
0.632198 -0.322541
-0.987321 0.233323
-0.585494 -0.291245
0.780853 -0.394908
0.106341 0.522221
-1.010800 -0.325981
0.790318 -0.671256
0.307273 0.388063
-0.536114 0.030396
-0.368988 -0.953891
0.693087 0.115106
-0.164948 0.339493
-0.083518 -0.546493
0.081906 -0.795763
0.320786 0.931369
-0.614304 -0.021670
0.284615 -0.747662
0.189409 0.033565
-0.553499 0.938436
-0.376600 -0.909451
0.733459 -0.501459
-0.676338 0.644936
-0.639593 -0.116023
0.755436 -0.884837
0.378338 0.537228
-0.751612 -0.253796
-0.119436 0.007787
0.749038 -0.271122
-0.294073 0.559488
-0.657247 -0.722298
0.647663 -0.359872
0.335326 0.705517
-1.071491 -0.559852
0.065486 -0.712533
0.303014 0.746772
-0.403013 -0.243254
-0.247135 -0.839740
0.628527 -0.096873
-0.388864 0.926946
-0.374343 -0.797771
0.319429 -0.451677
0.334156 1.011444
-0.529179 -0.053858
0.156104 -1.302632
0.238247 0.310811
-0.408451 0.533196
-0.028469 -0.358627
0.907636 -0.631110
-0.267297 0.532377
-1.040495 0.002026
0.463142 -0.605577
1.182770 0.218244
-1.299230 0.143612
-0.582843 -0.086644
0.905971 0.335959
-0.033736 0.188655
-1.154289 -0.790817
0.486849 -0.116521
-0.063120 0.571384
-0.296518 -0.299684
-0.016815 -1.259979
0.835236 0.702379
-0.861432 0.280038
-0.323048 -0.876094
0.611274 -0.309088
-0.097593 1.253016
-0.164376 -0.454516
0.341484 -1.165116
0.071041 0.615803
-0.490635 0.641133
0.198445 -1.236085
0.442756 0.485316
-0.145405 0.597082
-1.070279 -0.109260
0.916303 -0.581238
0.116932 0.287650
-0.941431 0.370784
0.000458 -1.002554
0.691864 0.158510
-0.888475 0.269019
-0.220277 -0.734013
1.028342 0.112577
0.130622 0.463603
-1.244618 -0.375184
0.233450 -0.582482
-0.014002 0.801936
0.001277 -0.303345
-0.306735 -0.247124
1.037596 0.037462
-0.417492 0.956343
-0.170198 -0.961152
0.293896 -0.453089
-0.138436 0.986311
-0.603418 -0.244302
0.464090 -0.864430
0.017308 0.183763
-1.193412 0.522765
0.076921 -0.660693
1.217400 -0.268385
-0.864544 0.813253
-1.013593 -0.489060
0.892780 -0.634538
0.368700 0.385596
-0.836047 0.074084
0.047358 -0.391100
0.934552 0.349218
-0.555793 0.602163
-0.497837 -0.747673
0.711071 0.069581
0.084744 0.314325
-1.577520 -0.601856
-0.011345 -1.204534
1.076265 1.191467
-0.122828 0.064811
-0.304027 -1.205640
0.599200 -0.079427
-0.512069 1.251643
-0.642259 -0.634342
0.212204 -0.315473
0.220670 1.041777
-0.757300 -0.070978
0.272004 -1.238747
0.460880 0.517795
-0.727891 0.528499
-0.278850 -0.419746
1.016853 -0.304601
-0.855647 0.539678
-0.981635 -0.444653
0.497881 -0.367538
0.505205 -0.082888
-1.068922 -0.009285
0.250008 -0.596050
0.212018 -0.185721
-0.204249 0.719708
-1.048619 -0.890230
0.803189 -0.131654
0.166513 0.828861
-0.486710 -0.327200
-0.395241 -1.033512
0.960934 0.688529
-0.652777 0.297867
0.109167 -1.098685
0.555410 -0.250813
-0.815812 1.597586
-0.668491 -0.934195
0.708548 -0.458045
-0.133575 0.647460
-1.172613 0.544579
0.138429 -1.296484
0.837270 0.028838
-0.927932 0.318629
-0.749552 -0.220136
1.182046 -0.342592
-0.269010 0.526496
-1.135093 -0.634436
0.382360 -0.451099
0.552062 0.224955
-1.269223 0.251808
-0.690582 -0.842034
1.064042 0.320884
-0.132257 0.124729
-1.078342 -0.874322
0.422395 -0.667856
0.210629 1.145362
-0.565158 -0.478872
-0.120670 -1.047116
0.599158 0.437771
-0.600386 1.204109
-0.176968 -1.045268
0.343176 -0.425546
-0.286501 1.134465
-1.101202 -0.434891
0.965219 -1.213167
0.088231 0.475805
-1.330969 0.322648
-0.268884 -0.886170
1.146350 -0.504717
-1.052675 0.580617
-0.876302 -0.419073
0.951691 -0.561482
0.173901 0.829185
-1.521725 -0.028429
0.206566 -0.714950
0.752704 0.612966
-0.747413 0.136756
-0.975426 -1.334707
0.872001 0.174934
0.041104 0.844073
-0.967030 -1.133224
0.392630 -0.947097
0.485066 1.490584
-0.901804 -0.192417
-0.424579 -1.136232
0.442916 -0.012821
-1.004573 1.072000
-0.428130 -1.441272
0.710378 -0.592120
-0.353682 0.932817
-1.019459 0.267004
0.748365 -1.547683
0.243445 0.686960
-1.150042 0.313501
-0.132970 -0.597853
1.201527 -0.465336
-1.096230 1.023779
-1.121975 -1.022028
0.805147 -0.257263
0.806557 0.481765
-1.730589 -0.273874
0.012794 -1.013597
1.134111 0.433719
-0.438233 0.488777
-1.345843 -1.174917
1.052688 -0.069621
-0.404933 1.419291
-0.945626 -0.942693
-0.191756 -1.159281
0.726782 1.116078
-1.271142 0.444473
0.163245 -1.638264
0.191837 0.209799
-0.610370 1.564049
-0.481812 -1.230703
0.978560 -1.245275
-0.734065 0.957373
-1.332812 0.278454
0.742846 -1.556708
0.808373 0.288602
-1.757743 0.635164
-0.206516 -0.583471
1.480287 -0.523381
-0.453697 0.737227
-1.591841 -0.729377
0.874437 -0.378415
0.902126 0.534993
-1.808200 -0.154209
-0.434678 -1.494802
1.118848 0.991934
-0.463484 0.597083
-1.414077 -1.123823
0.763123 -0.627202
0.080679 2.050665
-0.687925 -0.898983
-0.188973 -1.462814
0.685173 0.979289
-0.831672 1.013794
-0.163219 -2.081832
0.573890 0.026573
-0.632468 1.502547
-1.391840 -0.481556
1.378754 -1.405253
-0.387847 1.037626
-1.718967 0.527249
0.232587 -1.619098
1.219717 -0.010656
-1.843773 0.665918
-0.791122 -0.956743
1.748804 -0.346719
0.219119 0.540050
-3.037458 -0.503840
1.364076 -0.728505
1.012215 1.365995
-1.239443 0.004661
-1.707081 -1.955901
1.824480 0.911823
-0.400065 1.108693
-1.165511 -1.729509
0.381398 -1.100704
0.818372 2.455514
-1.597880 -0.887140
0.211787 -1.721542
0.790055 0.576403
-1.407436 1.998019
-0.443939 -2.131087
1.549942 -0.475508
-1.432592 1.565363
-1.848139 -0.238932
1.351255 -1.803669
0.733895 0.914909
-2.811649 0.350939
0.044451 -0.727446
2.073209 -0.162618
-1.665840 1.546170
-2.463375 -1.747511
1.832138 -0.065520
0.502388 0.577289
-2.850751 -0.507029
0.409784 -2.018175
1.598404 2.345348
-1.531293 0.293852
-1.704608 -2.394380
1.830894 0.024212
-0.471383 2.081772
-1.501244 -2.265922
0.436647 -2.288914
0.664227 2.324185
-2.888679 1.188627
0.631751 -3.567956
0.396191 0.465916
-1.154481 2.153054
-1.540044 -1.392300
2.444898 -1.173399
-1.521968 2.064981
-1.603322 0.320047
1.328079 -1.828071
1.419419 0.991190
-4.078810 0.925831
-0.518700 -1.848870
2.464482 -0.773888
-1.563267 1.488676
-3.537214 -1.820996
1.877647 0.104593
0.524954 2.086134
-3.780247 -0.977359
-1.863893 -4.230682
2.734461 2.285356
-1.715185 0.645015
-1.883855 -2.160087
0.619301 -2.036667
-0.089786 4.062542
-1.620236 -2.872184
0.397662 -2.347611
0.836354 2.732123
-1.868140 2.956836
0.658482 -4.050691
0.264659 0.680663
-2.686023 2.284371
-2.697913 -0.813809
3.159474 -4.103029
-2.235046 3.580440
-5.842246 -0.584710
0.205963 -2.262558
2.635354 -1.155306
-5.369414 1.582422
-0.912772 -2.358145
3.284296 -0.215938
0.214371 1.672857
-6.915535 -2.789919
3.266533 -2.302307
2.019963 4.710259
-2.800764 -0.643709
-4.895245 -2.611885
5.149303 1.000746
-4.325416 5.325606
-1.965390 -5.505756
-1.427815 -0.631807
-1.387414 4.642984
-7.490160 0.492679
2.593575 -9.054868
-2.481238 5.100355
-4.375640 2.881187
0.154539 -5.346787
4.575951 -3.598885
-6.975834 4.806559
-5.335033 -2.987994
3.965242 -6.299600
1.679169 6.853491
-11.389479 -0.401745
1.942951 -3.009491
7.130564 1.990754
-7.159524 5.359591
-10.466481 -3.863705
5.640868 0.514313
-8.178521 7.359701
-15.033100 -2.021381
-1.170601 -4.531810
6.789352 12.165703
-7.498970 1.783444
-11.141970 -21.266433
1.019184 -3.020416
-11.593553 11.527232
-4.875382 -17.598016
-3.583204 3.718322
19.188822 20.834824
-22.338389 9.820101
18.078667 -26.919855
-6.226829 20.933047
-13.475464 27.582716
-34.472012 24.021428
17.835878 22.283951
-194.383741 147.133526
-128.365973 79.346796
-111.097414 -23.893935
343.697490 13.389020
-3700.982276 373.455264
