6104.653327 2644.236549
-3856.189843 115.095768
382.499038 -159.320555
-206.050472 55.028101
-87.398459 -4.618579
-197.767636 -112.480816
-14.253816 8.304726
-129.134804 4.270314
-31.719122 -71.328490
11.357062 -4.004723
6.190378 19.319855
-35.203567 -3.266108
17.348774 -11.398306
-7.341813 18.585738
-0.812666 -6.476540
-13.286629 -3.211312
16.374079 -16.853173
-6.250481 22.566147
-7.599348 -5.778029
10.666499 4.198303
2.804304 14.186012
-10.531331 1.910171
9.376125 -2.309857
-4.273966 4.585080
0.798636 -1.878784
-3.524792 3.299598
4.499977 -4.937249
2.009369 7.746982
-7.214029 -1.889448
1.436444 -0.815706
0.423624 3.184389
0.239622 0.064381
0.541775 -3.965210
1.274496 -1.517207
4.837451 0.002238
-1.501562 2.141513
-2.460587 -4.505461
2.659343 4.845982
-1.133018 1.281888
2.012806 -1.539067
2.900910 -2.145922
1.426687 1.865412
-3.570818 1.499347
-0.732316 -2.076427
2.453633 1.177730
-3.490268 3.468267
-3.333973 -3.814237
4.655641 0.171721
-2.642111 3.337032
-4.413662 -0.942490
1.413559 -2.892764
3.051837 2.302072
-5.236208 1.152705
0.407996 -3.681813
2.843600 1.918294
-2.079723 2.811475
-2.595354 -2.576604
5.676897 -0.486350
-1.657190 4.456928
-4.145510 -3.260962
0.250430 -2.080727
2.223372 3.317114
-3.911975 2.008251
0.639637 -5.442992
2.644874 1.875611
-3.584428 2.074262
-2.057375 -1.787498
3.714831 -1.279260
-0.142292 4.297541
-1.613737 -1.041573
1.748566 -1.092455
2.394224 1.471892
-2.380932 0.946019
-0.026654 -4.187448
3.037732 2.350139
-1.431929 1.566263
-0.819550 -2.231950
2.722670 -1.896613
-0.748654 2.271257
-1.339528 -0.631917
0.666435 -0.504995
1.125148 0.725485
-1.424536 0.907640
-0.891117 -2.157567
2.079276 1.405164
-0.244321 0.578458
-1.221863 -1.826580
1.362613 -1.011597
0.593609 1.482125
-0.898881 0.459538
-0.688136 -0.441488
0.519355 -0.119842
0.057694 0.443362
-1.228466 -0.909701
0.400665 0.662437
0.086139 0.688590
0.339549 -0.308990
-0.495510 -0.856082
1.084771 -0.750981
-0.362338 0.451362
-0.989054 -0.164465
-0.627066 -1.772384
0.671043 1.366717
-1.139957 -0.122607
0.797635 -0.617177
0.799499 -0.677437
0.136883 1.788772
-1.486067 -0.879285
1.305584 -0.552148
-0.013861 1.354789
-1.789676 0.717593
-0.078313 -1.465710
1.985649 0.527991
-1.211287 1.147486
-0.596879 -2.151010
1.323601 0.291759
0.288106 1.562029
-1.812245 -0.308034
1.769135 -1.264583
0.802818 1.330471
-1.459926 -0.415496
-0.164469 -1.665194
2.437581 1.411870
-1.508922 0.993578
-0.796301 -2.216372
1.221299 0.192451
-0.547460 1.333869
-1.400964 -0.829321
1.924381 -1.116442
0.405873 2.357552
-0.564589 -0.663567
0.112512 -1.006167
1.714087 -0.059225
-1.453071 0.677244
-0.798983 -2.037064
1.573961 -0.421968
-0.560937 1.152195
-1.223966 -0.109254
0.945264 -1.701333
1.594629 0.856839
-0.800086 -0.588878
-0.330037 -1.478003
1.428084 0.555029
-0.629202 1.590977
0.133512 -1.689265
1.563035 -0.119096
-0.073941 1.062563
-0.964059 0.027941
-0.203159 -1.274914
0.251883 0.153021
-1.038724 0.246597
-0.110849 -0.796256
0.239729 0.200842
0.362302 -0.010998
-0.248349 -0.987205
0.615654 -0.533373
-0.263573 0.739442
-0.520083 0.096860
-0.467331 -0.100880
0.540790 -0.075825
-1.006818 0.201143
-0.495923 -0.600030
-0.145092 -0.701110
0.694036 0.650741
-0.922818 0.063761
-0.460747 -0.052019
0.439075 -0.246054
0.139431 0.479364
-1.021030 0.052145
0.505989 -0.383327
0.476032 0.377438
0.040944 -0.060111
-1.034896 -1.614602
1.179789 -0.320175
-0.170047 0.681812
-0.431167 -0.654374
0.401381 -0.110082
0.498318 1.078575
-1.237856 0.063539
0.185420 -1.558688
0.456436 0.961440
-0.415107 0.906599
-0.189071 -0.827960
1.534980 -0.001625
0.101104 1.539649
-1.183985 -0.475541
0.793336 -0.601536
0.552624 1.283506
-1.741464 0.205522
0.521286 -1.401466
0.840349 0.770557
-0.654526 0.867263
-0.944292 -1.345162
1.316435 -0.497625
-0.790887 0.729729
-1.322950 -0.929437
0.903643 -0.139023
0.169038 1.035881
-1.368065 -0.196851
0.620899 -1.281935
0.934278 1.048081
-0.595798 0.358765
-0.495799 -1.168497
0.808690 -0.078277
-0.337785 0.838897
-0.794821 -0.952585
0.639275 -0.561496
0.573139 0.875475
0.119465 0.922413
0.228079 -1.352626
0.831525 0.525317
-1.236294 0.782940
0.303795 0.084910
0.256879 0.518287
-0.116753 0.769172
-0.372147 -0.206410
0.287861 -0.295890
0.297875 0.337293
-0.750173 0.277712
-0.268571 -0.447960
0.444344 0.113828
-0.207011 0.513170
-0.069652 -0.041491
-0.408120 -0.234738
0.700186 0.356397
-0.208378 -0.113873
0.415057 -0.485047
0.391337 -0.220940
0.384617 0.525934
-0.494472 -0.415718
0.327726 -0.747178
0.273791 0.269303
-0.538835 0.680563
-0.241786 -0.388452
0.699856 -0.038408
0.286945 0.929314
-0.797905 -0.281650
0.438563 -0.390478
0.413427 0.101411
-0.394800 0.349054
-0.172895 -0.676461
0.765708 -0.000810
-0.331300 0.573280
-0.587713 -0.980454
0.480044 -0.770055
0.453415 0.590449
-1.030836 -0.123377
0.221961 -0.714140
0.599269 0.340272
-0.696511 0.511559
-0.145999 -1.302635
0.759740 0.333401
-0.346832 0.933057
-0.719941 -0.440381
1.199353 -0.477857
-0.109728 1.249065
-1.173335 -0.274885
0.423688 -0.895070
0.684197 0.745200
-0.255651 0.781013
-0.395908 -1.087820
1.056114 0.259123
-0.743254 1.231087
-0.957230 -0.285986
0.745552 -0.829573
0.307368 1.106130
-1.052537 0.156770
0.242233 -1.153139
0.566779 0.555109
-0.648941 0.828474
-0.701596 -1.070695
1.209286 -0.053339
-0.490641 0.734964
-0.759191 -0.197464
0.479946 -0.403824
0.361947 0.776801
-0.977626 0.107077
-0.121883 -1.039856
0.653453 0.311118
-0.015015 0.042337
-0.156815 -0.495984
0.497599 0.192694
-0.416778 0.417325
-0.219109 -0.117936
-0.003047 -0.216330
0.365475 0.056821
0.042172 0.222582
-0.126734 -0.025913
-0.012814 -0.367375
0.294274 0.100484
-0.484574 -0.046609
0.002276 -0.373424
-0.076765 0.087200
0.221845 0.526459
-0.262880 -0.207260
0.309009 -0.875413
0.281778 0.514259
-0.193068 0.392661
-0.202570 -0.265356
0.494166 -0.170122
-0.466814 0.798133
-0.299083 -0.539915
0.653345 -0.046967
0.222313 0.695833
-0.870392 0.066454
0.074191 -0.824877
0.432866 0.832921
-0.741360 0.005866
0.020239 -0.607508
0.715179 0.036383
-0.268632 0.827918
-0.728464 -0.472609
0.775720 -0.380297
0.181359 0.684023
-0.917367 -0.091120
0.095249 -1.072363
0.857161 0.753653
-0.989283 0.301450
-0.199856 -0.930308
0.969317 0.192942
-0.698583 0.960029
-0.677973 -0.604587
0.717314 -0.561044
0.056168 0.688955
-0.886679 -0.235707
0.303355 -0.926620
0.739289 0.673874
-1.155798 0.299756
-0.145588 -0.806662
0.638674 0.174150
-0.505572 0.722713
-0.393457 -0.475128
0.778626 -0.307410
0.011826 0.592672
-0.621911 -0.443333
0.058632 -0.855409
0.543961 0.622999
-0.762558 0.276186
0.286274 -0.437346
0.576141 -0.049079
-0.052976 0.647888
-0.289385 -0.173811
0.224464 -0.331191
0.046173 0.339692
-0.495745 0.076508
-0.123599 -0.221698
0.447991 -0.231668
-0.021030 0.362869
-0.266864 -0.158195
0.039629 -0.132159
0.141560 0.109601
-0.328643 0.280688
-0.089671 -0.212855
0.282156 0.023775
0.126804 0.334103
-0.159924 0.169017
0.054305 -0.240828
0.289575 0.041802
-0.458098 -0.247455
-0.151405 -0.430007
0.268939 -0.165171
-0.159043 0.397151
-0.294226 -0.386051
0.406100 -0.464135
0.529955 0.155160
-0.853109 0.245420
-0.421382 -0.814653
0.784129 0.477857
-0.423428 0.442164
-0.383655 -0.563206
0.532849 -0.482818
-0.073688 0.856208
-0.822546 -0.312770
0.692519 -0.500703
0.321928 0.564839
-0.730597 0.389973
-0.268308 -0.889317
0.646790 0.151348
-0.658149 0.506872
-0.659943 -0.408337
0.697879 -0.304440
0.036250 0.807193
-0.850583 -0.130842
0.313825 -0.839595
0.482429 0.598354
-0.738846 0.520313
-0.175311 -0.971470
0.821285 0.167096
-0.781007 0.634302
-0.429959 -0.714108
0.532506 -0.322649
0.221491 0.734759
-0.805910 -0.053982
0.568884 -0.692869
0.464902 0.544353
-0.471269 0.288716
-0.170412 -0.623824
0.764254 0.122320
-0.348339 0.454562
-0.362102 -0.598137
0.423089 0.129713
0.381731 0.606875
-0.393337 0.069816
0.003988 -0.588135
0.315938 0.327627
-0.126172 0.192916
-0.248112 -0.174009
0.438754 0.059741
-0.070870 0.487203
0.005489 -0.221379
0.104064 -0.225901
0.349770 -0.010772
-0.394496 0.353279
-0.079495 -0.242975
0.146325 -0.060433
-0.104367 -0.164082
-0.294617 0.015792
0.032897 -0.223617
0.203268 0.439201
-0.328511 0.286476
-0.106426 -0.256509
0.298260 -0.488454
0.128172 0.216793
-0.301284 0.097636
-0.032709 -0.037120
0.367471 0.259576
-0.294307 0.364615
-0.390559 -0.739166
0.660158 -0.134395
0.052794 0.722756
-0.650990 -0.333933
0.385808 -0.887539
0.257084 0.535565
-0.766744 0.039504
0.036379 -0.747710
0.854413 0.068182
-0.319593 0.550551
-0.474294 -0.356775
0.807174 -0.059524
0.007559 0.502517
-0.552029 -0.439348
0.186079 -0.891446
0.879417 0.705680
-0.869874 0.207291
0.112912 -0.472256
0.727847 0.312260
-0.510425 0.690629
-0.420715 -0.837482
0.933560 -0.155592
-0.057704 1.186335
-0.545590 -0.259444
0.220475 -0.438218
0.454407 0.359356
-0.886607 0.091179
-0.026271 -0.520696
0.501733 0.205361
-0.078077 0.836340
-0.416255 -0.199686
0.317248 -0.418157
-0.157667 0.556396
-0.594545 -0.247955
0.231348 -0.470878
0.448593 0.142493
-0.424565 0.202839
-0.113933 -0.293818
0.468853 0.142698
-0.154845 0.316148
-0.323495 -0.456287
0.348625 -0.127607
-0.042887 0.454757
-0.218420 0.123240
-0.014444 -0.191028
0.314260 0.047382
-0.025796 0.362272
-0.136477 -0.207409
0.242490 0.061506
0.127388 0.042639
-0.083600 -0.080563
0.230893 -0.238564
0.098774 0.263057
-0.057871 -0.005275
0.018806 -0.066950
-0.058940 -0.261411
0.231134 0.238256
-0.283003 0.016984
-0.067597 -0.342368
0.409095 -0.091881
-0.222042 0.389732
-0.520355 -0.346426
0.491936 -0.063216
0.156405 0.512079
-0.267159 -0.009089
0.173028 -0.584588
0.464562 0.260324
-0.407658 0.252376
-0.336557 -0.488647
0.646181 -0.057331
0.029473 0.875509
-0.771661 -0.316825
0.478481 -0.498140
0.048675 0.400539
-0.615085 0.272902
0.000325 -0.571671
0.741430 0.302291
-0.491795 0.723735
-0.538411 -0.772437
0.484209 -0.373526
-0.082705 0.543576
-0.689496 -0.153726
0.446413 -0.423236
0.308216 0.654756
-0.823249 0.067521
-0.073942 -0.608868
0.421816 0.047408
-0.362726 0.397304
-0.165447 -0.772070
0.624266 0.014020
0.075152 0.787701
-0.628095 -0.295714
0.505585 -0.547617
0.106633 0.721970
-0.728454 0.025316
0.145048 -0.524235
0.738401 0.333893
-0.486492 0.727941
-0.499373 -0.646249
0.585219 0.008337
0.078572 0.624465
-0.323558 0.384280
-0.043844 -0.382782
0.161951 0.324962
-0.518594 -0.130187
-0.103239 -0.223879
0.264106 -0.155061
-0.298900 0.471362
-0.422945 -0.222541
0.187995 -0.153592
0.180280 0.248740
-0.414919 0.083254
-0.135044 -0.126383
-0.122944 0.055999
-0.088223 0.317294
-0.014816 0.057457
0.016869 -0.082059
0.282139 0.269071
-0.236565 0.033068
-0.057928 -0.277384
0.178632 -0.402834
0.357658 0.439936
-0.297294 -0.007462
0.287278 -0.253747
0.213340 0.263658
-0.225477 0.232201
-0.165065 -0.129665
0.470298 -0.000773
-0.389302 0.378592
-0.417160 -0.251989
0.373079 -0.133729
0.452828 0.495754
-0.713486 -0.288477
0.296420 -0.542887
0.196944 0.373614
-0.605401 0.211478
0.049032 -0.667857
0.796740 0.037309
-0.405563 1.136688
-0.458919 -0.451759
0.458459 -0.335637
0.169434 0.446551
-0.726035 -0.185941
0.440874 -0.691691
0.436082 0.037570
-0.615880 0.822642
-0.511974 -0.237950
0.649271 -0.263196
-0.195510 0.878182
-0.801045 -0.502846
0.422998 -0.530865
0.581957 0.859162
-0.998908 -0.029375
-0.025232 -0.876158
0.235501 0.421793
-0.613629 0.491751
-0.478218 -0.458245
0.621983 -0.147575
-0.120778 0.931201
-0.617020 -0.491573
0.250080 -0.563712
0.549963 0.424134
-0.648890 0.367644
-0.120062 -0.606845
0.499756 0.602319
-0.276247 0.244846
-0.139853 -0.258843
0.420393 -0.325676
0.061333 0.634269
-0.597207 0.145104
0.227035 -0.162049
0.293768 -0.223313
-0.224188 0.094215
-0.317691 -0.147786
0.592887 -0.145615
0.048563 0.305827
-0.250431 -0.161468
0.188281 -0.321444
0.367875 0.021786
-0.278504 0.191485
0.130992 -0.275837
0.340046 -0.150851
-0.175536 0.018662
-0.308287 0.230932
0.072118 -0.192712
0.293522 0.186627
0.011997 0.178515
-0.361326 -0.421764
0.419833 -0.010877
0.002589 0.075219
-0.420698 -0.431732
0.136033 -0.221277
0.129710 0.447366
-0.303117 0.443342
0.106994 -0.455573
0.143769 0.290153
0.043548 0.531807
-0.762530 -0.444686
0.277124 -0.426024
0.040660 0.203390
-0.969293 0.113680
0.028509 -0.549814
0.763647 0.053509
-0.442568 1.201779
-0.795743 -0.571596
0.555463 -0.124642
-0.291624 0.449908
-1.070433 -0.397003
0.759064 -0.627673
0.346263 0.849376
-1.043407 -0.400552
0.191355 -0.399126
0.096973 0.719833
-0.791895 0.610882
0.365007 -1.003110
1.375808 0.098014
-0.451379 0.261952
-0.964156 -0.241652
0.819703 -0.564413
0.421597 1.247281
-0.985787 0.077742
0.451610 -1.560762
1.221575 0.249805
-0.612822 0.157807
-0.390571 -0.332702
1.202062 0.150928
0.018844 0.810182
-0.901364 -0.454249
0.382854 -1.348430
0.406845 1.062570
-0.484683 0.318161
0.291095 0.042208
0.640114 0.663202
-0.196197 0.707945
0.080104 -0.640277
0.395630 0.038105
-0.249266 -0.010389
0.018172 -0.125830
-0.114180 0.098891
0.341795 0.062714
-0.624070 0.296100
-0.259730 -0.653649
-0.177270 0.269393
0.341920 0.307727
-0.439822 -0.137099
-0.038137 -0.162268
0.244280 -0.083273
0.340878 0.269283
-0.433505 -0.116608
0.240808 -0.132591
-0.635361 0.168812
-0.287021 -0.388158
0.157155 -0.677866
1.250624 0.247814
-0.835002 1.089742
-0.017158 -0.581244
0.492571 -0.683748
-0.535361 0.331009
-1.554457 0.029451
0.839683 -0.360749
0.913212 -0.298914
-0.042401 0.001671
-0.154757 -0.985025
1.420050 -0.345719
-0.444452 1.014621
-1.191803 -1.217574
1.262836 -0.011582
0.263301 1.136576
-0.405209 -0.155639
0.692365 -0.537303
0.759266 1.523302
-0.735144 0.307746
-0.161933 -2.108806
1.239914 0.119291
-0.690132 1.463488
-1.167796 -0.316788
0.660986 -0.424768
0.187782 0.905651
-0.761517 -0.147244
0.063780 -1.278473
0.668314 0.741443
-1.035863 1.119884
-1.589975 -0.806084
0.835345 -0.164287
-0.288795 0.885378
-1.302065 -0.530228
1.266944 -0.768867
0.555165 0.726168
-1.338825 -0.023698
0.520171 -0.861013
1.043791 1.002692
-0.747287 0.085782
-0.193920 -1.169446
0.757423 -0.066465
0.256521 0.305535
-1.439781 -0.316289
0.515337 -0.126889
0.450725 0.414143
-0.407091 0.649491
-0.401934 -0.392196
0.517710 0.182762
-0.114796 1.495934
-0.501545 -0.313379
0.052125 0.326743
-0.407920 0.335066
-0.266080 -0.581161
0.262149 0.164252
0.266856 0.154651
0.291793 0.680361
-0.097527 -0.468317
-0.255039 -0.166004
-0.609461 0.272969
-0.837684 0.106574
-0.678599 -0.639058
1.228530 0.416817
0.323130 0.593495
-0.295827 -1.177609
0.869022 -0.988861
0.763877 0.874708
-0.994654 1.241514
-0.033246 -0.053057
1.032027 0.114530
-0.761662 0.968269
-0.879235 -0.471383
1.441649 0.357075
0.534678 1.754476
-2.186524 -0.473423
-0.319925 -1.470436
1.294396 0.936956
-0.839329 1.811917
-0.005429 -0.951938
2.185650 -0.098193
-0.896137 1.264992
-0.701653 -1.275259
1.130092 -1.058775
0.266889 2.678233
-2.346718 -0.420392
1.281924 -0.504505
1.189196 0.701011
-1.665294 0.997013
-0.155642 -1.536801
1.998572 1.159033
-0.207107 1.172708
-1.135327 -1.653726
1.591297 -0.118585
0.351264 1.664667
-1.537888 -0.886297
0.702499 -2.075301
0.866985 2.002189
-1.113602 0.985970
-0.405888 -1.832883
1.405892 0.406577
-0.476438 1.176664
-0.973332 -1.131745
1.091260 -1.302040
1.226170 1.490979
-1.395499 0.838958
0.396602 -1.438980
0.915177 0.555996
-0.435038 1.165885
-0.488548 -0.384170
0.855029 -0.594251
-0.278122 0.754345
-1.263602 -0.226395
0.068248 -0.325995
1.224277 -0.032122
-0.052277 0.264984
-0.270726 -0.355918
0.746921 -0.466276
-0.851696 0.033267
-0.864479 -0.455817
-0.630241 -0.094686
0.888124 1.212273
-0.355064 0.877941
-0.551478 -0.534129
0.818807 -0.352921
0.840119 0.339985
-1.432483 1.010502
-0.416480 -0.835686
1.335758 0.642286
-1.220047 1.058151
-1.624820 -1.940842
1.822102 0.240556
0.343595 1.806876
-0.844059 -1.677060
0.344474 -0.118148
1.460006 1.561504
-1.691821 1.622528
-0.178112 -2.614112
1.873936 -0.072969
-0.908908 2.129654
-1.719796 -2.128534
2.807484 -0.510215
-0.398349 2.207724
-2.594487 -1.738009
0.600998 -2.256414
1.628078 3.310656
-3.243203 1.505006
-0.095629 -3.027724
3.803587 -0.033397
-1.567521 3.994046
-2.305390 -2.131397
4.093628 -1.343718
0.842316 1.869913
-2.718276 -1.468368
2.622938 -2.674834
2.747802 2.548311
-2.725382 0.703027
-0.374042 -1.977483
2.197123 1.793614
-0.964742 2.499185
-2.464991 -2.922312
2.527788 -2.622058
-0.142993 3.112676
-4.096459 0.379112
-0.063889 -1.949869
2.229623 1.417061
-2.947510 2.254173
-0.554655 -5.565726
2.157648 0.007220
0.395073 1.967021
-1.410268 -0.959103
0.465093 -2.179635
-0.516722 3.077238
-4.309884 -0.813534
-0.047697 -4.257948
-0.154678 0.791467
-2.148632 0.213693
0.685268 -0.731553
-0.041709 -0.670081
0.338732 0.557082
-5.041770 -0.212044
-3.754842 -3.778524
3.735083 0.839659
-0.455568 -0.733775
0.867265 -3.487806
1.101079 1.730883
-0.372835 0.803356
-0.866202 2.192207
-1.093566 1.859306
3.610540 -2.662823
3.079286 4.297851
-5.884856 -5.014348
6.576162 -6.209531
-0.456522 13.828815
-10.111795 2.770456
10.534537 2.733353
-4.048969 6.997509
0.495400 -5.086461
-4.228555 2.369825
5.202802 -16.485503
8.542105 15.251484
-15.580620 2.871447
14.192484 -24.673759
10.691700 27.170719
-34.228403 -13.168943
13.566327 -0.122460
-5.121078 3.365483
50.463963 -5.163187
0.264532 -38.866388
91.960735 -15.506899
-13.688285 10.170979
-60.655399 -14.585696
-188.576017 -12.945267
-251.131718 166.811560
-1494.741449 82.350251
