7443.486758 6073.619418
210.437676 669.686511
145.480408 -311.022669
358.201779 -482.598972
-248.114835 -294.648249
-138.360875 -403.878911
-95.346558 -506.783070
-95.714490 -549.541605
-190.324647 107.145062
145.781405 -598.800068
-376.613880 49.529464
-424.022313 -106.963098
10.231457 -409.406249
-29.763203 -259.166741
-135.604567 -310.785357
-231.276076 -184.994805
-94.647995 -148.609522
-18.397402 -44.928364
35.344837 -13.368035
-42.667218 -43.603304
-31.172148 -66.925253
8.546063 -118.873147
-82.677670 -141.095851
-126.413662 -64.032624
-65.922402 -97.494464
-101.536008 -64.083795
-67.715434 -9.857464
-48.834686 1.273042
-9.955660 -45.374971
-46.315024 -20.385379
-30.942387 -73.352046
-56.873156 -79.554997
-66.165186 -27.225865
-66.250705 -14.233260
-58.842643 11.290505
-50.898813 3.546434
-32.030940 -7.492291
-24.632285 18.579527
-18.287705 -53.183200
-31.158544 -82.822839
-85.325421 -61.263747
-79.110627 -28.916602
-65.567959 -11.237628
-55.961800 11.322906
-36.796532 13.075363
-23.551650 -6.099731
-1.354741 7.931524
-9.741279 -22.812545
-26.859054 -22.574160
-31.894540 -36.713856
-34.282657 2.223681
-38.736026 9.689871
-23.947559 3.872022
-24.242827 3.433942
-13.012257 9.559924
-15.065059 -0.613796
-5.378394 -9.933900
-24.269726 -15.028633
-29.508829 -4.430892
-45.137188 5.014066
-17.258643 16.935120
-9.250356 26.271093
-5.941750 7.068348
12.587033 -5.814436
7.137745 -16.534381
-1.314542 -12.936806
-18.437872 -19.208884
-22.172580 -4.939617
-16.234134 7.363411
-4.263223 8.396898
-3.744983 4.665953
8.674896 -3.725785
3.461710 -10.427755
5.001363 -24.549370
-10.584177 -25.616775
-18.446055 -15.060903
-26.878648 -10.093856
-20.203544 7.509171
-6.510778 13.949829
10.654864 9.935539
15.635321 0.679945
18.292391 -13.680676
16.059136 -23.421640
6.685381 -27.870554
-12.189380 -28.836157
-23.350376 -14.270886
-21.764660 -3.931234
-11.197487 -3.156535
-8.579629 1.218867
2.683364 -8.968776
2.231198 -16.854249
-3.698941 -17.815858
-6.364976 -19.774480
-7.014569 -11.281734
-7.770580 -10.959158
-12.176225 -10.101327
1.864952 -10.357787
4.679193 -15.495504
2.927426 -17.547277
-1.775296 -24.314108
-6.812809 -35.380204
-21.003197 -24.222027
-26.658909 -12.081467
-20.984821 -7.276622
-16.973101 -5.432281
-7.001414 -0.615666
-3.054443 -8.447780
-1.286181 -12.146781
-1.686038 -20.953113
-10.864722 -21.592550
-21.415185 -18.396889
-20.523627 -11.871219
-19.605298 -0.151073
-12.067692 -2.405089
-7.471882 -4.217227
-1.525436 -9.783921
-5.341283 -15.835170
-13.018637 -19.652627
-19.816655 -18.190573
-26.804853 -13.773139
-23.698009 -1.865632
-21.770488 0.273325
-15.941162 4.974875
-9.638592 2.793918
-2.485246 -2.583269
-3.255615 -8.743625
-8.467716 -13.488351
-13.153076 -13.040275
-19.447818 -7.987520
-19.758602 -1.407522
-14.448980 2.348442
-9.133384 1.932916
-9.457926 -2.941300
-6.757876 -4.089457
-9.436064 -5.519414
-16.963183 -7.206964
-20.099647 -1.181481
-21.460303 2.578501
-15.257098 11.091430
-5.799540 9.244888
-2.930651 5.357597
3.466983 3.528353
3.518327 -4.789220
-4.370701 -11.970826
-9.886545 -8.875894
-13.699837 -4.848806
-15.022928 0.068720
-13.722882 5.733207
-8.031118 6.830186
-2.107045 9.535867
1.530875 3.180428
1.372692 -3.012454
-2.289031 -7.044754
-7.251810 -6.164957
-12.445892 -1.589445
-8.701508 4.816335
-3.361621 5.656749
4.220433 6.232340
7.119599 -0.149420
6.489907 -4.163076
3.368952 -9.250634
-2.735491 -11.722454
-9.013931 -9.999299
-12.277905 -4.482178
-11.012978 2.216302
-4.898195 5.651897
-0.105675 5.869417
4.747437 2.723897
7.999759 -2.698911
5.335929 -7.068851
0.477190 -11.416837
-4.508830 -10.401694
-4.376256 -5.046671
-6.040651 -4.118684
-3.510852 -3.114593
1.454713 -4.621716
3.667643 -6.871962
1.022938 -12.568481
-2.183048 -12.787005
-8.251752 -11.068169
-10.084176 -8.479273
-8.744300 -3.000454
-5.187818 2.389655
-0.709631 -0.207517
5.049557 -5.198989
1.785078 -8.506128
1.239010 -11.799682
-4.027382 -15.235378
-9.548951 -16.396442
-11.834337 -10.084897
-10.730660 -5.350803
-8.762371 -2.394109
-2.851019 -2.157676
0.876713 -3.301787
-0.854502 -9.484647
-4.466684 -13.094536
-8.974008 -12.112072
-12.102939 -8.914811
-16.612836 -6.989470
-11.549135 -1.920763
-8.278256 1.904271
-4.580171 -0.923718
-1.021387 -3.877945
-0.737678 -9.002301
-5.216827 -12.332431
-9.527979 -12.850109
-13.458833 -9.448999
-13.725983 -6.159288
-14.078687 -1.730139
-11.514493 0.147351
-6.985447 0.252717
-7.709773 -2.065632
-7.713886 -4.647561
-8.884000 -5.405946
-11.103344 -2.675084
-12.800823 -1.763092
-10.354304 1.519808
-6.767920 2.816851
-4.089642 1.131087
-2.980061 0.065457
-2.568113 -4.307019
-4.690857 -8.359405
-11.542251 -8.733373
-15.171081 -3.600477
-16.094289 -0.077269
-13.023025 6.017224
-8.381601 8.602484
-4.155326 7.348508
-0.336626 3.815019
1.316557 0.049603
-2.366073 -4.007088
-5.522364 -5.283446
-9.540730 -3.673285
-10.525315 1.141798
-7.809305 3.359659
-5.933225 4.969110
-2.774201 3.483487
-0.126556 1.334225
-1.902348 -1.417884
-2.390430 -3.170982
-5.943294 -3.539038
-7.587852 -0.564585
-7.770231 3.802403
-4.907436 6.204866
-1.236750 7.352869
1.835237 2.884764
2.863068 0.000538
2.548058 -2.233592
-0.668297 -5.244201
-4.663184 -5.059498
-5.420903 -1.862369
-5.515478 1.641638
-1.796796 1.993087
-0.068981 1.271613
1.397289 -0.441529
1.239166 -3.104195
-0.301212 -5.537921
-2.711853 -5.301612
-5.409005 -3.147632
-5.933072 -0.374914
-3.208369 1.655898
0.791872 3.757212
2.827614 0.866306
4.409761 -4.232069
2.795590 -7.422240
-0.394416 -9.504848
-3.876491 -9.879064
-8.099879 -6.247481
-8.156736 -3.802120
-5.691782 -0.808624
-3.930379 2.216060
0.044609 -1.217410
0.982572 -3.306023
0.516007 -6.338315
-2.233398 -8.287062
-5.254855 -6.439889
-6.202722 -5.014698
-6.520475 -2.944288
-4.647880 -1.309617
-1.693931 -2.199047
-0.734721 -3.693305
-0.553362 -6.552864
-3.537811 -9.492844
-6.736804 -9.425775
-9.559928 -7.460521
-11.320935 -5.056232
-9.880143 -1.329317
-7.339584 1.063343
-4.395707 -0.222116
-3.253153 -0.741977
-1.751332 -3.738447
-3.919774 -5.882617
-6.666096 -6.370252
-7.767536 -4.100094
-8.879215 -2.369965
-8.582198 -0.915803
-7.355129 -0.831280
-4.994708 -1.342782
-4.304447 -3.513277
-5.886903 -5.056295
-8.655852 -5.732028
-11.523015 -2.433795
-11.398978 -0.336634
-10.570622 3.276259
-7.066923 4.830937
-4.015183 3.920728
-1.186885 2.112978
-1.244404 0.069241
-2.592860 -3.426438
-5.492477 -4.696266
-9.782068 -3.978186
-10.896114 -0.782476
-10.576373 2.183842
-8.714724 5.289845
-5.216166 4.614673
-3.428253 3.350022
-2.874129 1.091980
-4.381873 0.241060
-4.858742 0.193695
-6.276057 0.933934
-6.768966 2.940614
-5.585881 3.985196
-3.422582 4.908652
-1.424365 4.938949
-0.202020 1.980330
-0.383135 -0.229814
-2.568748 -0.694046
-4.903086 -0.594075
-5.619913 0.988433
-5.977322 3.411600
-4.208297 4.281611
-1.909766 4.671841
-0.029351 4.416074
0.270748 2.053914
0.501216 0.203809
-1.127228 -0.245126
-2.502737 0.679658
-4.618859 1.355256
-1.737162 3.569118
-0.210498 4.228664
1.600261 2.672094
2.750039 0.741122
3.442332 -2.136313
0.054049 -4.635558
-2.285250 -4.137567
-4.415184 -1.749929
-5.268893 0.677029
-3.921420 2.461817
-1.350448 3.946558
2.029737 3.652341
3.291851 1.352488
3.637881 -0.828307
2.983358 -3.524404
0.213429 -5.126276
-1.736591 -4.212836
-2.112307 -2.647591
-1.925410 -1.208536
-0.155646 -1.343801
0.313074 -1.866315
-0.063707 -2.621157
0.052942 -3.424847
-1.772154 -4.686414
-3.509099 -3.875198
-3.643270 -2.281336
-4.257523 -0.172360
-1.680931 0.216383
0.325491 -0.898659
1.417315 -2.850941
1.929376 -4.294421
-1.061683 -6.362774
-2.895548 -6.888412
-4.218988 -5.872486
-5.503514 -3.652171
-4.610093 -2.585777
-4.187224 -1.465665
-2.582566 -1.522621
-1.918067 -2.026682
-2.440438 -3.892834
-3.821642 -4.430133
-4.924817 -4.984176
-6.073571 -3.540905
-5.934370 -1.388761
-3.830012 0.064579
-2.870379 0.940476
-1.133768 -1.607161
-0.739729 -2.634043
-1.862629 -4.062075
-4.297334 -5.657739
-6.872562 -5.579135
-7.577861 -2.684266
-8.165974 -1.066935
-7.630859 0.553993
-5.320873 1.578492
-3.457952 1.327231
-2.935825 0.019731
-2.988097 -1.262712
-4.082256 -1.998186
-4.525645 -1.907597
-5.984750 -1.135988
-5.436650 0.160778
-4.021604 1.424863
-3.174114 0.708633
-2.888783 -0.266863
-3.285230 -1.399435
-4.326289 -1.517326
-5.634012 -1.160923
-6.822689 0.368398
-5.888040 2.764295
-4.064169 2.782164
-3.726009 3.609141
-2.131296 3.241036
-1.278465 1.683724
-1.004132 0.137531
-2.349849 -1.118517
-3.628882 -1.097565
-4.486772 -0.257291
-4.036704 1.549087
-3.196440 2.542173
-0.985441 2.636731
-0.710656 0.884043
-0.999324 0.560468
-1.091814 -1.440144
-3.472617 -1.090373
-3.983777 -0.040517
-4.282335 1.534491
-3.081041 1.958164
-2.302323 3.453531
-0.324464 2.524023
1.771070 1.251932
2.292820 -0.276993
1.291084 -2.069717
-0.839771 -2.499626
-1.405558 -2.753538
-2.865305 -2.238062
-3.072813 0.398338
-2.042249 -0.286781
-1.266467 1.199487
-1.314575 -0.479087
-1.262449 -0.524499
-1.071789 -1.494681
-1.644141 -1.004491
-1.063651 -0.722266
-0.767596 -0.543761
0.281037 -0.154147
0.634940 -0.879636
0.707208 -2.136643
0.272925 -3.771793
-0.809097 -4.970601
-2.221619 -4.659171
-3.974362 -3.492022
-3.998433 -2.391110
-3.197777 -1.196679
-2.433381 -0.765556
-1.431329 -0.580993
-0.701650 -1.232910
-0.328016 -2.853216
-1.173276 -3.773524
-2.003731 -3.639670
-3.527670 -3.351542
-3.686406 -2.775620
-3.223734 -1.685004
-2.894698 -1.491258
-2.467032 -2.056546
-2.548936 -2.255899
-2.306266 -3.592962
-3.691537 -3.836093
-4.026124 -3.352622
-5.636197 -2.220942
-5.424878 -1.496063
-4.964240 0.031652
-3.972092 -0.616289
-3.640462 -0.059468
-2.968217 -0.889933
-3.167725 -1.839262
-3.732713 -2.362115
-5.231823 -2.118943
-4.924847 -2.169837
-5.226260 -1.629394
-4.748049 -1.101110
-3.965563 -1.140403
-4.568448 -0.694431
-4.829531 -1.505856
-5.670664 -1.547314
-6.019646 -0.680810
-5.743486 0.261548
-6.168075 1.424520
-5.013560 2.198182
-3.692398 2.014242
-2.970550 1.850437
-2.648266 -0.167209
-2.837566 -0.486511
-3.582771 -0.496678
-4.378840 -0.888336
-5.246703 -0.157042
-5.319344 0.817871
-5.562320 1.405656
-3.834292 1.480704
-3.722869 1.906894
-3.881581 1.801994
-2.957243 1.672604
-3.646409 1.244034
-3.571806 1.654567
-3.737145 2.959858
-2.815555 2.748347
-2.350366 2.353259
-1.717746 2.290606
-1.122378 0.544809
-1.140482 0.200236
-2.049988 -0.409756
-3.141247 -0.073554
-3.361583 0.796134
-3.920982 1.525530
-3.583882 2.034407
-2.404068 2.161701
-1.691944 2.054718
-0.934594 2.205538
-1.217447 2.157127
-0.383478 1.541072
-1.133254 0.957408
-0.701650 0.712721
-1.304473 0.739571
-0.313725 0.403413
-0.685011 -0.310246
-0.692365 -0.030085
-1.106818 -0.948161
-2.433056 -1.176644
-1.982426 -0.520239
-2.733229 0.317283
-1.908343 1.122743
-1.682682 0.975764
-0.892378 0.976930
-0.009462 0.176166
-0.348355 0.169389
-0.033199 -1.206020
-0.557014 -1.347162
-1.664575 -1.425334
-2.072471 -1.391383
-1.891797 -1.165053
-1.773400 -1.141515
-1.405422 -1.217355
-1.002579 -0.554553
-1.799163 -1.176103
-1.706613 -1.757917
-2.523240 -1.938701
-3.211552 -1.515168
-3.284326 -1.199548
-2.386075 -0.313088
-2.266116 -0.192406
-1.811200 -0.635559
-1.770455 -0.784820
-0.889215 -1.451882
-1.859668 -2.305505
-2.790356 -1.403799
-3.071119 -1.341787
-2.988308 -1.630740
-2.748061 -0.860014
-4.048641 -1.274420
-3.409486 -1.232115
-4.041939 -1.081318
-4.341093 -0.441151
-4.383507 0.098371
-4.085041 0.452995
-3.881575 0.719554
-3.181206 1.150289
-1.806718 0.457471
-2.297261 -0.144581
-2.146681 -0.665804
-2.504533 -1.482268
-3.769108 -1.349683
-4.883509 -1.059974
-5.136576 -0.616644
-5.192821 0.558795
-5.391677 1.790468
-4.685302 1.876336
-3.479806 2.156133
-3.151319 1.529076
-2.906613 1.218907
-2.936091 1.498892
-3.118381 1.100652
-3.277970 1.243686
-3.388430 1.680570
-2.930043 1.207455
-1.901797 1.200929
-2.040816 1.262491
-3.234042 0.682603
-2.921190 0.798409
-3.354325 1.036801
-3.952513 1.705865
-3.248909 1.999807
-3.047411 2.574897
-2.293043 3.190696
-1.385250 2.286557
-1.568918 2.021375
-1.377955 1.606189
-1.388111 1.567847
-1.541141 1.023790
-1.047362 1.813458
-1.404683 2.165721
-0.614283 2.217483
0.457264 1.152417
-0.260763 1.419558
-1.030392 0.125563
-1.436747 -0.004572
-2.032058 0.937018
-2.534080 1.654955
-1.851081 1.899315
-0.913153 2.693679
0.168735 2.881725
1.153639 2.125147
1.651959 0.805221
1.598147 0.134887
1.233637 -0.797375
0.063934 -0.797625
-1.036249 0.028199
-1.027599 0.020445
-0.901376 0.308428
-0.625462 0.686409
-0.342298 0.396837
-0.566125 -0.415480
0.005477 -0.618471
-0.850127 -1.206399
-1.266084 -0.237575
-0.896906 -0.161470
-0.384141 0.033001
0.501202 0.345227
0.773935 -0.999749
0.505503 -1.751463
-0.316196 -2.574653
-1.141124 -2.445903
-1.622740 -2.552403
-1.821163 -1.616013
-2.032553 -1.685254
-1.775183 -0.582061
-1.353805 -0.399645
-1.358113 -1.386495
-1.126200 -1.943718
-1.788130 -1.857280
-3.414396 -2.063146
-3.121584 -1.401401
-2.629208 -0.888634
-1.942566 -0.295709
-1.628073 -0.640449
-0.744240 -0.807521
-1.115064 -1.913139
-1.591065 -3.042975
-2.039491 -3.938222
-3.658081 -3.024736
-4.723206 -2.643517
-5.666296 -0.769804
-4.444428 0.295802
-3.702961 0.926967
-3.117400 1.149897
-2.757781 0.864485
-1.874015 -0.658080
-1.946602 -0.806441
-2.989292 -1.326739
-3.433100 -0.817902
-3.819281 -0.442985
-3.700121 0.160362
-3.755205 -0.270370
-4.082705 0.373486
-3.335373 -0.403810
-3.537573 -0.590063
-4.176690 -0.081391
-5.128849 0.633306
-5.107391 1.830292
-3.720964 2.370581
-2.357320 2.719600
-2.316481 2.346718
-1.680434 1.260474
-1.325047 0.222853
-1.935822 0.155545
-3.944530 -0.233200
-3.929381 0.988993
-4.249915 2.155236
-3.736472 3.020640
-2.566211 2.527939
-1.998864 2.619531
-1.059692 1.489341
-1.767233 0.842168
-2.208322 0.635949
-3.062248 1.323255
-3.698812 1.741390
-3.183941 2.561565
-2.420814 3.383304
-1.005110 3.180884
-0.164807 2.339130
0.530052 1.646372
0.408437 0.294978
-0.441630 -0.208276
-1.953927 -0.049725
-2.657324 0.789039
-2.250967 1.651272
-1.805186 1.998893
-1.453890 2.268031
-0.886636 2.235333
-0.811219 1.365706
-0.548326 0.710426
-0.908035 1.327864
-1.130497 0.975008
-1.036621 1.733783
-0.423972 1.617303
0.565071 1.351305
0.841084 0.716625
1.128523 -0.161405
0.154238 -1.460316
-0.989277 -2.029236
-1.903469 -1.446995
-2.004503 0.061911
-2.335753 1.349959
-1.358023 2.106583
0.180417 1.446123
0.792106 0.863588
1.108671 -0.140364
1.241237 -1.533110
-0.140283 -1.777028
-1.716997 -1.556856
-1.819652 -0.882268
-1.832991 -0.254626
-1.178976 0.268463
-0.477767 -0.236930
0.199742 -1.336069
-0.600976 -1.678750
-1.091150 -2.675800
-2.252126 -2.261197
-3.205279 -1.075715
-3.443419 -0.462333
-2.835133 0.334373
-2.179914 1.137500
-0.823444 0.479296
-0.167866 -0.795139
-0.646414 -1.896794
-1.632847 -2.279470
-2.489903 -2.452205
-3.370719 -2.060982
-4.062383 -1.598858
-2.924226 -0.113367
-3.112866 0.502535
-2.519287 -0.251186
-2.559034 -1.116107
-2.639001 -1.680438
-3.651744 -0.911028
-4.477755 -0.301416
-4.243449 0.342960
-3.831609 1.450325
-2.748512 1.905819
-0.908653 1.288493
-0.864979 0.628188
-1.626814 -1.399147
-2.432181 -1.436330
-3.614129 -1.490477
-4.862492 -0.556186
-5.474444 0.535534
-4.573771 1.550909
-3.436158 2.601145
-2.254367 2.377384
-1.659421 1.898401
-1.446485 0.755558
-2.167511 -0.004076
-3.211716 0.026837
-3.998012 0.697495
-3.579315 2.034854
-3.074213 2.813140
-1.979866 2.772081
-1.014402 2.020559
-0.472501 1.130219
-1.400543 0.518661
-2.663910 -0.324402
-3.410077 -0.031185
-4.024840 1.082168
-3.980719 2.592016
-2.939989 3.688049
-1.735463 3.634800
-0.386760 3.349966
-0.011678 1.774764
-0.316680 0.943313
-0.780321 0.689348
-2.006507 0.787995
-1.880976 1.946313
-1.133439 2.465051
-0.932622 2.700104
0.665265 1.674040
0.631838 1.078609
-0.234581 0.113133
-1.188717 -0.391791
-2.624285 -0.167698
-2.843200 1.575657
-2.176444 3.012797
-1.716694 3.756394
0.137510 4.035514
1.656457 2.494946
2.697346 1.058747
1.466703 -0.833620
0.231937 -1.784910
-1.285016 -1.669571
-2.144598 -0.561061
-2.144393 0.671202
-1.657333 1.700298
-0.640935 1.764634
0.752076 0.743135
0.747163 -0.212770
0.237487 -0.846838
-0.679147 -0.939706
-1.650144 -0.963187
-1.985513 0.032287
-1.567714 0.529931
-0.662526 1.183605
0.618401 1.091342
0.715838 -0.666788
0.233868 -2.040057
-0.613748 -2.877959
-1.536582 -3.049152
-3.140032 -1.818149
-3.306904 -0.864741
-2.647401 0.436275
-1.171017 0.900566
-0.347178 0.857520
-0.230867 -0.081169
-0.768620 -1.511983
-1.386959 -2.097504
-2.976013 -1.689164
-3.006587 -0.580503
-3.122169 0.169513
-2.419777 0.749581
-0.879999 0.695337
-0.429916 -0.381606
-0.731505 -1.525228
-1.775339 -2.664733
-3.466365 -2.633801
-4.801627 -1.831831
-4.790498 -0.526069
-4.524244 0.721686
-3.693178 2.316777
-2.083355 2.303136
-1.202954 0.997890
-0.843290 -0.109526
-1.197377 -0.896604
-2.801732 -1.571058
-3.557082 -0.808952
-4.320465 0.380685
-4.036719 1.271592
-3.174806 1.555650
-2.110040 1.932138
-1.365369 0.693942
-1.680804 -0.435196
-2.709686 -0.177865
-4.092290 -0.009649
-4.628563 0.731139
-4.591641 1.943098
-3.408441 3.467829
-1.963749 4.045938
-0.902521 2.487020
-0.121553 1.517973
-0.783231 0.218915
-2.093492 -0.254758
-3.504520 -0.342321
-4.037742 1.013576
-3.746081 2.198810
-2.370158 2.932671
-2.034334 3.001754
-0.984451 2.016293
-1.471105 1.534177
-1.825299 0.627906
-2.363559 0.831768
-2.887878 1.554692
-2.746773 2.691519
-2.087367 3.266864
-0.593855 4.067756
0.642013 2.469409
1.101460 1.653470
0.715222 0.019010
-0.496247 -0.662475
-2.435247 -0.888958
-3.764435 0.414787
-3.623656 1.509045
-2.255768 3.323320
-1.217424 3.772426
0.112498 3.411948
0.822737 1.865864
0.819829 0.775789
-0.175890 -0.771785
-1.264451 -0.587498
-1.964374 0.062573
-1.699462 1.025650
-1.541255 1.697953
-0.178383 1.557025
0.686156 1.336052
0.540992 0.157559
-0.124997 -1.163643
-1.175861 -1.456068
-2.600396 -1.037030
-2.807322 0.583381
-2.059191 1.613609
-0.994066 1.945918
-0.241144 1.638488
0.233642 0.700504
0.835892 -0.619993
-0.641934 -1.750410
-1.802092 -1.172068
-2.389335 -0.658988
-2.454021 -0.016548
-2.176117 0.897290
-0.753107 1.072068
-0.207793 0.675893
0.055307 -0.426805
-0.778156 -1.948587
-2.400892 -2.097721
-3.441235 -1.946809
-4.612129 -0.488293
-4.171902 1.171000
-3.144246 2.408618
-1.274813 2.425456
-0.424552 1.071895
0.144700 -0.111627
-0.190263 -1.498604
-1.889909 -2.230226
-3.373503 -1.477014
-4.654244 -0.975687
-4.486839 1.042195
-4.016177 1.775419
-3.092811 2.189501
-1.604222 1.423305
-1.602687 0.465326
-2.237097 0.237268
-2.870118 0.164081
-3.782218 0.595418
-3.547974 1.464680
-3.365094 2.440287
-2.044235 2.936749
-1.119602 2.002081
-0.943101 1.082978
-1.412825 0.180051
-2.324435 -0.538123
-3.634167 -0.343685
-4.689121 0.805000
-4.668804 2.688839
-3.619607 3.973134
-2.346775 3.754653
-0.653161 3.578716
-0.803745 2.186196
-0.570319 1.121165
-1.824634 0.886254
-2.715257 1.182393
-3.688230 2.269573
-3.073777 3.461120
-1.748438 3.905610
-0.706665 4.108640
0.351458 2.580178
0.207608 1.247388
-0.669227 0.781981
-1.810720 0.114374
-2.686611 0.964227
-3.559972 2.754113
-2.837888 4.168426
-1.353604 4.875267
0.430065 4.707252
1.354819 3.230682
1.771636 1.709351
0.696081 0.869444
-0.257905 0.554532
-1.261810 0.807194
-1.711954 1.815940
-1.572586 2.603837
-0.451933 2.815166
0.840598 2.524294
0.757563 1.598018
0.671824 0.368891
-0.234320 0.045166
-0.817220 0.651706
-1.596404 1.745468
-1.147346 2.541084
-0.376239 3.315589
1.171191 2.771845
2.072941 1.793902
1.971537 0.009528
1.098135 -0.644307
-0.459334 -1.053386
-1.248090 -0.681729
-1.980570 0.474182
-1.772114 1.617983
-0.248502 1.744122
0.258372 1.968238
1.410462 0.664285
0.803798 -0.826314
0.275214 -1.082849
-0.804624 -1.239560
-1.885419 -0.532709
-2.053989 0.542413
-1.422214 1.405549
-0.119219 1.613974
0.927873 1.071146
1.093992 -0.242316
0.999964 -1.767499
-0.605321 -2.325155
-1.803737 -1.979053
-3.326223 -1.609556
-3.372098 -0.182217
-3.021318 1.180146
-1.981535 1.868338
-0.326850 1.556249
0.023942 0.522436
-0.148026 -0.550509
-0.591755 -0.927142
-1.913368 -1.065935
-2.434015 0.220594
-2.480652 0.448242
-1.832871 0.877577
-1.208123 0.769858
-1.035231 0.066223
-1.442307 -0.810279
-2.527223 -0.984035
-3.407106 -1.107687
-4.155949 0.211683
-4.121387 1.780993
-3.536478 2.658080
-2.176528 3.234843
-0.656347 2.769984
0.008318 1.240280
-0.326415 -0.213061
-1.774494 -0.712237
-2.886456 -0.842312
-4.120490 0.126561
-4.059192 1.229255
-3.363809 2.498982
-2.181583 2.799782
-1.065743 2.470229
-0.638637 1.708183
-0.935970 0.583558
-2.068552 -0.027885
-3.223537 0.842860
-3.262923 1.263832
-3.171237 2.989660
-1.904685 4.112215
-0.984278 3.778225
0.271270 3.018541
0.561270 1.583906
-0.138464 0.457092
-1.293455 0.029352
-2.076298 0.332790
-2.434095 1.330430
-2.623438 2.686867
-1.776512 3.246020
-0.590687 3.034040
-0.143436 2.402136
-0.047606 2.044890
-0.592269 1.178450
-0.891661 1.128430
-1.302516 1.802952
-1.017863 2.572886
-0.172829 3.053324
1.099991 3.213460
1.519938 2.157992
1.786356 0.597803
1.019553 -0.393415
-0.323644 -0.687207
-1.456546 -0.355560
-2.487210 0.510413
-2.020922 1.933379
-0.872149 3.143491
0.061217 3.370289
1.766538 2.357420
1.933621 1.425663
1.542986 -0.116963
0.303945 -0.724733
-0.129522 -0.567410
-1.026839 0.165350
-0.762411 0.886985
-0.152721 1.415209
0.748604 1.305024
0.808924 0.193558
0.593506 -0.751938
0.138014 -1.287952
-1.294135 -1.158813
-1.867409 -0.778758
-2.335890 0.330363
-1.677071 1.055125
-0.494579 1.525476
0.295674 0.881146
0.905698 0.274768
0.470694 -1.015279
-0.123849 -1.645370
-0.866973 -1.357208
-2.076266 -1.438536
-2.209198 -0.185240
-1.897503 -0.244624
-1.506667 0.389900
-0.820734 -0.036470
-0.887996 -0.648702
-1.616704 -1.327857
-2.369360 -1.006435
-2.741925 -0.503126
-3.292705 0.428794
-2.811568 1.051037
-1.563143 1.485352
-0.962031 0.769624
-0.441255 0.401771
-0.989496 -0.793778
-1.621845 -1.570608
-2.733053 -1.588692
-3.606145 -0.973069
-4.285389 0.042693
-3.943147 0.900485
-3.287148 1.788371
-2.329370 1.959186
-1.556772 1.243821
-1.631868 0.715558
-2.392084 -0.120826
-2.744191 0.408427
-3.495261 0.726211
-3.498918 2.182174
-3.015390 2.115401
-2.083373 2.630780
-1.267891 2.020044
-1.421839 0.924021
-1.538316 0.547782
-2.546119 0.157868
-3.225501 0.561233
-3.800199 1.548044
-4.033799 2.552397
-3.196995 3.214370
-2.574664 3.541676
-1.412617 2.993770
-1.314456 2.524831
-1.166218 1.647634
-1.730259 1.769670
-1.984896 2.200119
-2.255006 2.166368
-1.739023 2.958085
-1.481352 3.179258
-0.891297 2.418685
-0.351451 2.094087
-1.019125 1.223744
-1.617320 1.016355
-2.244863 1.323572
-2.740399 2.181319
-2.508922 3.243558
-1.584498 3.986678
-0.524807 4.234993
0.640966 3.608066
1.318320 2.450784
0.624811 1.415194
0.583128 0.622471
-0.829256 0.584118
-1.062251 1.077029
-1.615031 1.921551
-0.914319 2.436363
-0.678739 2.669982
-0.133424 2.570116
0.437127 1.598173
0.098198 1.536847
0.067078 1.238581
-0.641922 1.356968
-0.887405 1.636231
-0.583673 2.209358
0.252130 2.127444
0.633543 2.273091
1.371628 0.985109
1.136398 0.332740
0.225642 -0.291239
-0.752548 -0.554811
-1.163095 -0.241817
-1.239697 0.695166
-1.272051 1.138908
-0.567078 1.639339
-0.196595 1.271151
0.284531 1.012245
-0.007169 0.601639
-0.415848 0.018983
-1.177868 0.104031
-1.109398 0.364477
-0.960592 0.785181
-0.657208 0.785752
-0.177071 0.949675
0.061504 -0.053164
-0.534014 -0.217943
-1.006585 -1.051014
-1.690705 -1.030887
-2.404081 -0.285604
-2.767585 0.463356
-2.290530 1.192394
-1.816807 1.683095
-0.983987 1.868787
-0.412553 1.232094
-0.397943 0.660198
-1.114774 -0.075255
-1.378922 0.069370
-2.121843 0.056750
-2.450149 0.418792
-2.460564 0.824236
-1.910473 0.957886
-1.855921 0.970082
-1.463749 1.234625
-1.826625 0.458809
-2.302397 0.756401
-2.756753 0.541337
-2.953701 1.285054
-2.709904 2.608445
-2.253075 2.459531
-1.446771 2.328354
-1.151863 2.061819
-1.372420 1.836884
-1.120203 1.143880
-1.894407 1.148862
-2.039907 1.306037
-2.114488 1.402040
-2.316245 2.102467
-2.031913 2.164819
-1.431723 2.105294
-1.368881 2.354053
-1.659867 1.800963
-2.234905 2.229759
-2.193888 2.428412
-2.094007 3.027980
-1.968120 3.423532
-0.598662 3.679800
-0.333380 3.278336
0.365145 2.963067
0.338882 1.901922
0.031763 1.287962
-0.704451 0.918560
-1.443912 1.068436
-1.922368 1.483819
-2.194967 2.360308
-1.638903 3.058350
-1.032257 3.172791
-0.174459 3.310212
0.020029 3.123701
0.180229 2.407686
0.133774 2.440290
0.201931 2.402958
0.011368 1.988435
0.356607 1.955624
0.092362 1.959742
0.322244 1.535178
0.123366 1.240055
0.309293 1.101967
-0.362946 1.155983
-0.646242 1.271358
-0.895980 1.635195
-0.045939 1.474719
-0.053338 2.225058
0.433290 1.869498
0.651507 1.390538
0.683078 1.459438
0.374849 0.868520
0.127722 0.894395
-0.086984 0.482879
-0.538146 1.121751
-0.236399 1.299295
0.319805 1.098285
0.171454 0.560900
0.633393 0.114609
0.306561 -0.137694
-0.620989 -0.454317
-0.996549 -0.307020
-1.685695 0.260639
-1.536238 0.583990
-1.243162 1.183153
-0.608907 1.220090
0.206439 1.567882
-0.102198 0.636790
-0.019357 0.174695
0.152445 -0.183187
-0.872493 -0.856204
-0.912431 -0.486917
-1.487877 -0.427860
-1.823591 -0.215362
-1.561788 -0.322161
-2.320958 0.060084
-2.043697 0.161837
-2.436890 0.441516
-2.217914 1.198235
-2.359909 1.276064
-1.719059 1.304620
-1.243326 1.466205
-0.898659 1.081324
-0.938652 0.906621
-1.113353 0.366289
-1.506657 -0.024118
-1.946816 -0.598208
-2.735416 -0.137729
-2.989629 1.136840
-3.113291 1.619281
-2.882582 1.830298
-2.297697 2.114862
-2.241812 1.604674
-1.725677 1.496503
-2.187815 1.384862
-2.313342 1.821114
-2.474585 1.871715
-2.299141 2.233550
-1.830128 2.531100
-1.296294 2.598053
-1.074990 2.299510
-1.033225 1.834733
-1.837834 1.194658
-1.741601 1.227595
-2.106493 1.587104
-2.529104 1.979580
-2.286250 2.764057
-1.996287 3.283277
-1.806840 3.421502
-1.388831 3.348955
-1.138770 3.499464
-0.947316 3.099371
-0.981256 2.889534
-0.535938 3.287990
-0.530634 3.292041
-0.264318 3.077641
-0.047792 2.625111
0.195426 2.431449
-0.306810 1.936497
-0.774300 1.736190
-0.713891 1.996795
-1.589717 2.615224
-1.586157 3.232255
-0.846627 3.033589
-0.116963 3.973971
0.879093 3.773154
1.267785 3.251554
1.349770 2.428234
1.002547 1.473086
0.366164 1.290398
-0.059306 1.073031
-0.072206 1.598708
-0.159477 2.457526
0.075445 2.308794
0.732332 2.250822
0.698814 1.593391
0.455680 1.027716
-0.170694 1.318144
0.018313 1.474015
-0.913902 1.892381
-0.277990 1.946167
0.322192 2.330843
0.908889 1.998280
0.919909 1.736889
1.305845 1.329420
1.146039 0.303747
0.601360 0.158640
-0.035258 0.238204
-0.542631 0.251770
-0.702302 0.240391
-0.179650 0.551300
-0.233280 0.657873
-0.228933 0.451543
-0.687208 0.198735
-0.661800 0.258906
-1.481434 0.622437
-1.385324 1.102409
-0.533610 1.515752
-0.307928 1.777245
0.402290 1.760587
0.688796 0.552340
-0.018710 -0.080458
-0.360017 -1.476684
-1.407306 -1.350056
-2.339835 -0.947623
-2.843809 -0.204218
-3.225104 1.016845
-2.664719 1.911905
-1.434848 2.093715
-1.125557 1.954623
-0.314656 1.415827
-0.914184 0.971141
-1.319844 0.668180
-1.581448 0.532899
-1.814950 0.817712
-1.708651 1.719048
-1.455559 1.542769
-1.654939 1.520475
-1.668377 1.364610
-1.543939 0.828981
-2.275788 1.289710
-2.721132 1.642997
-3.241199 1.768582
-3.143761 2.574773
-2.493588 3.106464
-1.233046 3.152595
-1.280838 3.070825
-0.594910 2.462485
-0.648258 1.999327
-1.387495 1.299030
-1.964770 2.267701
-2.216421 2.690765
-1.883838 3.007807
-1.543801 3.066695
-0.566426 3.120189
-0.488957 2.876537
-0.674688 2.193687
-1.834064 1.818603
-2.118217 2.038707
-2.569497 2.938371
-2.237755 3.847131
-1.539752 4.655941
-0.352052 4.420082
0.947932 4.349124
1.543141 3.726750
1.626217 2.822425
0.702152 1.992013
-0.001092 1.511699
-0.696577 2.168728
-0.952967 2.722698
-0.742729 3.377053
-0.218377 4.130767
0.072421 3.224013
0.989514 2.949688
0.732104 2.549294
0.421918 2.377412
0.150269 2.665224
0.220177 2.861191
0.526749 3.320757
1.504387 3.230993
2.184649 2.918133
2.639086 1.986210
2.376401 0.754225
1.309776 0.074909
0.548950 0.072681
-0.120965 0.408470
-0.152378 1.522503
-0.266418 2.156823
0.361705 2.954660
1.450177 2.302677
1.876713 1.648214
2.035607 1.171501
1.004455 0.131658
0.618203 0.388529
0.298684 0.663772
0.347677 1.064214
0.497271 1.535499
1.206861 1.178392
2.200056 0.541224
1.844730 -0.542577
0.976644 -1.226717
-0.445338 -1.581044
-1.589962 -0.889064
-1.894391 0.282858
-2.041701 1.406324
-0.487017 2.076135
0.519549 2.418584
1.084995 1.337741
1.612205 0.060625
1.055237 -1.375006
-0.058673 -1.572268
-1.362929 -1.430832
-2.026916 -0.757522
-2.117559 -0.201575
-1.387862 0.522495
-0.686793 0.468922
-0.916078 0.812975
-0.797116 -0.308900
-1.597589 -0.815234
-2.200479 -0.476643
-2.590841 0.491134
-2.797507 1.496701
-2.064523 1.904463
-0.876007 2.425938
-0.043612 1.499409
0.078673 0.252836
-0.542982 -0.051460
-1.802452 -0.932982
-2.779748 -0.114100
-3.756116 0.842795
-3.779231 1.631958
-2.983641 2.441837
-2.037699 2.976312
-1.217757 1.912737
-0.992220 0.950508
-1.830819 0.755003
-2.930596 0.588528
-3.486034 1.368061
-3.545512 2.595523
-2.847095 3.877342
-1.488571 3.933630
-0.413571 3.790381
0.391799 2.491330
0.042770 1.302796
-1.101251 0.215731
-2.650082 0.408621
-3.398720 1.030530
-3.786246 3.138149
-3.443872 4.901259
-2.001190 5.179334
-0.644592 5.034077
0.241794 3.954775
0.485546 2.921161
0.145618 2.502331
-0.734877 2.282252
-1.217168 2.989091
-1.374125 3.213341
-0.728558 3.837269
0.558570 4.027212
1.017516 2.730478
0.728828 1.595891
0.446831 1.111612
-0.409045 1.227057
-1.780722 2.272314
-1.936274 3.748286
-1.362267 4.475823
-0.127815 4.840766
1.748556 4.901496
2.428637 3.419955
2.318957 1.988031
1.885162 0.618343
0.457249 0.631845
-0.948514 1.056649
-1.333887 1.941875
-0.866305 3.009304
0.229983 3.322147
1.414718 2.993331
1.952265 1.694941
1.566201 0.379508
0.490232 0.623750
-0.709720 0.586085
-1.751644 1.135075
-1.243487 2.571910
-0.508041 4.017299
1.145976 3.944623
2.720236 2.694934
2.835838 1.101282
2.009216 -0.747045
0.775363 -1.211412
-0.495523 -0.864052
-2.043884 0.091608
-2.149265 1.486200
-1.173224 2.173518
-0.125047 2.823169
0.657963 2.092189
0.561035 0.708541
0.270801 0.004618
-0.838148 0.018593
-1.551052 0.256982
-2.070870 1.130962
-0.868524 1.977212
-0.105155 2.185956
0.603176 1.814742
0.649824 0.273925
0.255851 -1.037519
-1.123705 -1.517352
-2.514875 -1.026261
-4.001278 0.531310
-3.924152 1.897129
-2.747723 3.088476
-1.321046 3.485608
-0.663864 2.870173
-0.290628 1.829096
-0.302026 0.609630
-1.323975 -0.025396
-2.766763 0.378804
-3.643706 2.103982
-3.340660 3.199965
-2.479966 3.215977
-0.444961 3.398524
0.160025 2.685192
-0.150600 1.145439
-1.295513 -0.176605
-2.755392 0.026099
-4.203734 1.315695
-4.778409 2.893741
-4.060815 4.924951
-2.529131 5.425243
-0.505182 5.407652
0.803592 4.438729
0.762776 2.864975
-0.015880 1.596442
-1.445379 1.491646
-2.576982 2.043242
-3.360481 2.826793
-2.518539 4.197569
-1.231149 4.916550
-0.545416 4.361215
-0.179324 3.512747
-0.425991 2.805282
-1.418493 3.251960
-2.464945 3.472298
-2.545132 4.761558
-2.086710 5.939455
0.196315 6.364714
1.803924 5.717781
2.403672 4.540684
2.938745 2.429575
2.024236 1.075412
0.078542 0.677006
-2.023823 1.566217
-2.415304 3.531227
-1.252941 5.282927
-0.294946 6.271225
1.190356 6.065490
2.730579 4.949153
3.074061 3.164919
1.980660 1.696976
0.785429 1.237882
-0.034962 2.450965
-1.180492 3.352362
0.327604 4.929269
2.137395 4.611427
2.874098 4.365827
4.051928 2.696461
3.771461 1.047342
2.284984 0.294863
0.450361 -0.040480
-1.186295 1.263992
-0.859516 2.287873
-0.430241 3.951547
0.940694 4.133567
2.345153 3.164397
3.091075 2.614702
2.493445 1.113882
1.455607 -0.112780
0.050378 0.516207
-0.312203 1.477706
0.232866 1.965899
0.979992 3.050847
2.059829 2.056523
2.752081 1.184023
1.894273 -0.722421
0.420448 -1.490775
-1.179030 -1.213972
-2.688156 0.539143
-3.004110 2.208746
-1.474252 3.886736
0.020955 4.507922
2.337056 3.238855
3.534823 1.961220
3.130489 -0.588152
1.185524 -2.164325
-1.029607 -2.317452
-2.730150 -0.889532
-3.157787 1.202171
-2.670632 2.897717
-0.963018 3.157180
0.018509 2.961641
0.538769 1.497144
0.124863 0.721959
-0.856886 -0.171566
-2.525167 0.616360
-3.362227 1.682273
-2.765239 3.806635
-1.804081 4.854408
0.194008 3.940244
1.099342 3.234528
1.667520 1.047544
0.305619 0.046591
-1.367736 0.156067
-3.343368 0.763151
-3.756979 2.355035
-3.514878 4.377442
-2.256705 5.020542
0.015614 5.016097
0.681899 4.243013
0.791027 2.712662
-0.598264 1.614494
-1.613037 2.028189
-2.618726 2.945108
-1.924126 4.808733
-0.848324 5.892981
0.919886 5.945305
2.393707 4.415653
2.555028 2.552625
1.584135 1.234050
-0.439997 0.118957
-2.273581 1.491149
-3.869150 3.106028
-3.177008 5.451845
-1.213881 7.203799
1.298867 7.108836
2.746629 6.228911
3.510876 4.587109
3.444773 2.803091
1.553631 0.895573
0.113546 1.514397
-1.038528 2.668724
-0.575563 4.204609
0.808268 5.360549
2.446708 5.055540
3.326372 3.877584
3.129226 2.430359
2.153610 1.081128
0.624770 0.890443
-0.515844 2.292463
-0.602735 3.650182
0.624330 5.132596
2.486010 5.185837
4.056429 4.645955
4.768392 2.800077
4.536815 0.729054
3.000487 -0.478535
1.185121 -0.365213
0.309080 0.823881
-0.301030 2.784527
0.658391 3.485164
2.301147 3.320212
3.654295 2.074966
3.419115 0.814498
1.942763 -1.298300
1.009036 -1.148458
-0.969482 0.139223
-1.066993 1.464568
-0.724569 3.346860
0.884454 4.151941
3.357601 3.355322
4.529015 1.567579
4.278227 -1.327702
2.678539 -2.748713
0.397116 -2.928253
-2.018788 -2.460463
-3.420393 -0.010989
-2.798645 2.123871
-1.168585 3.070971
0.718075 3.271507
2.022983 2.023089
2.158889 0.297583
0.774996 -0.809126
-0.666181 -1.274621
-1.881243 -0.311721
-1.987106 1.193083
-1.586458 2.224932
-0.449732 2.541913
0.260456 1.677109
0.670195 0.081119
-0.131529 -1.697265
-2.019747 -1.520030
-4.294533 -1.181358
-5.237159 1.279408
-4.559257 3.893619
-3.169993 4.988763
-0.913245 5.447905
0.435002 3.682481
0.681040 1.938616
-0.349376 0.453058
-2.104608 -0.324054
-3.680627 0.475185
-3.878206 2.772856
-3.444551 4.523382
-2.565024 5.301757
-0.317606 4.937236
0.352539 3.404685
0.416540 2.010556
-1.902455 0.668639
-3.016405 1.503563
-4.687098 2.798502
-4.495170 5.576324
-3.965355 7.011496
-1.157882 7.568613
1.658118 7.062135
2.419432 4.814935
1.640245 2.985991
0.608771 2.000237
-1.148047 1.828406
-2.469458 2.937226
-3.247239 5.462044
-1.813726 6.109869
-0.400424 7.062975
1.519306 6.455240
1.913513 4.739925
0.786329 3.374684
-0.461603 3.234647
-1.625642 4.510168
-1.635972 5.607093
0.189579 7.507849
1.811866 7.505385
3.562188 6.855222
4.599825 4.818833
4.355632 2.997611
3.688917 1.773820
1.466785 0.532791
-0.309760 1.926841
-1.319459 4.095345
-0.608942 5.891621
1.526352 7.198895
3.506390 6.721529
4.909931 4.606076
4.737908 2.763518
3.382951 1.306514
1.379316 1.801758
0.726158 3.016019
1.532733 3.993236
2.654818 5.409775
3.808951 4.216274
5.205903 2.775507
5.643345 0.981600
4.046372 -0.508397
1.783224 -1.917038
-0.746899 0.146905
-1.617416 1.945888
-1.307641 4.247388
0.816797 5.494816
2.938707 5.986033
5.653825 4.324804
5.638957 1.560361
4.746449 -0.542700
2.483259 -1.768275
0.428861 -1.258393
-0.769254 -0.285823
-0.446754 1.051744
0.401782 2.583374
1.274723 2.208079
1.649204 0.507050
1.572391 -0.510032
0.707281 -1.463840
-0.986690 -0.964017
-2.740737 1.039314
-2.090436 2.180412
-0.749209 3.541202
0.742706 3.473901
2.132915 2.304815
2.853771 0.790447
1.761692 -0.958736
-0.777640 -1.814518
-2.595886 -0.708394
-3.659299 0.296178
-3.895878 1.934699
-2.334985 4.486876
-0.836460 4.634257
0.916845 3.302378
0.062994 1.963952
-0.578681 0.209880
-2.555506 0.345170
-3.796140 1.689175
-4.138053 3.381519
-3.693758 5.791068
-1.000120 6.675634
1.550029 6.229975
2.195254 3.759420
1.371350 1.909626
-0.141480 0.925302
-2.048238 0.019692
-4.478873 1.635795
-5.079077 4.093889
-4.432387 6.107779
-2.099426 7.803844
-0.329490 8.029727
0.981264 6.074550
1.368334 5.260571
0.123124 3.735984
-1.004680 4.718744
-1.075876 4.735206
-1.389629 7.174939
0.244328 6.932983
1.717908 7.125011
2.404657 5.457667
1.633269 4.465244
0.860277 2.910462
-0.925793 3.516017
-1.830887 4.535435
-2.029897 7.093692
-0.122037 8.991063
1.919176 9.977523
3.838649 8.338395
6.001899 7.038935
5.481789 4.612979
3.843950 2.641301
2.780763 2.528546
0.779947 3.386488
0.743213 4.413652
0.847508 6.543976
3.530593 6.981327
4.424694 6.754809
6.201704 4.323993
4.889300 2.467144
3.591407 1.503828
0.591222 2.178617
1.011694 3.929732
1.830097 6.334942
2.116192 6.209752
4.158569 6.307239
7.249487 6.067763
6.853024 3.105569
6.583610 0.389589
5.584916 0.107089
2.419364 -0.406992
1.033162 0.675569
1.048388 2.057218
0.974370 3.005583
3.169641 3.529247
3.605927 1.813589
4.122424 1.879478
3.291380 0.583154
2.876987 0.223587
1.993756 1.155534
2.442117 2.085349
2.861764 2.280692
4.518944 2.728775
4.420095 0.983707
4.403613 -0.999694
3.190083 -2.234848
1.149480 -2.880444
-1.557689 -3.081659
-2.883735 -0.349131
-3.057598 2.055147
-0.277882 3.955056
0.864077 3.306563
1.619595 2.615571
2.097594 1.035317
1.670541 -0.436463
-0.866155 -1.236984
-2.127343 0.370788
-2.493590 1.110969
-3.161689 1.804169
-2.041250 4.102170
-0.463964 3.348234
1.559648 0.843047
0.591769 0.205929
-0.248621 -0.403837
-2.534709 -0.180155
-4.331891 0.596900
-6.221668 3.040620
-5.272109 4.712628
-3.091586 7.259194
-1.875439 6.328266
-0.276331 5.292983
0.579179 4.447836
-0.646858 2.130158
-1.531010 1.906050
-2.185853 4.124025
-2.080979 3.888700
-2.222575 4.913335
-2.338048 5.453252
-2.409636 4.680640
-2.742190 4.684913
-2.867162 4.675993
-5.145819 4.799045
-4.703620 7.223544
-4.613048 9.587740
-2.474370 10.905104
0.839700 10.774742
2.383053 10.124877
4.596502 8.220869
4.923688 5.378059
1.190204 3.869677
-0.201867 3.173056
-2.551776 5.283507
-3.659349 7.106794
-3.572463 9.878085
-0.236761 10.669678
0.875448 10.837700
3.406196 10.110099
3.334221 8.974292
3.915284 7.479312
3.560602 7.273034
2.486740 7.109684
2.637722 8.048907
3.282604 8.189702
3.672684 8.570089
5.043297 8.482414
5.140291 5.973415
5.182859 4.741193
3.054546 5.015523
2.426550 5.323724
1.502401 6.077222
3.147059 8.365279
3.378215 8.356953
4.326623 7.711884
6.208622 6.940174
5.457672 6.888545
5.699715 6.396788
5.080884 6.106567
4.650179 5.559070
5.673909 6.965234
6.831975 5.596165
7.690263 5.554252
8.816267 3.624921
7.843777 0.635159
6.196514 0.822608
3.079786 1.019783
0.325813 1.874503
1.155145 3.586446
0.623820 6.577948
2.677526 7.683193
5.032127 6.773387
6.630855 5.247450
8.075687 3.357959
6.346247 0.791110
5.400180 -1.220075
3.209415 0.141748
2.188997 0.728727
0.695584 0.859119
1.504841 1.273851
0.331032 2.883888
1.454900 2.619593
0.899864 1.175789
0.355341 3.746485
0.403428 2.623539
-1.390544 4.054475
0.301533 5.171677
1.421442 5.392393
2.939633 5.487460
5.100453 2.875178
1.979128 1.600519
0.939172 1.683529
1.342605 0.876288
-0.573775 1.678009
-1.440914 2.840342
-2.792361 4.737842
-2.430957 4.851343
0.249384 7.154952
-0.484626 5.477442
0.651296 5.225115
1.191993 4.578158
-4.588599 5.990779
-2.677221 8.073467
-1.767067 7.747299
-1.722195 11.407812
2.640563 10.132835
4.210773 7.181329
2.880801 7.191707
1.256650 4.969294
-1.692365 5.820471
-0.215657 6.456593
-3.164705 4.742484
-3.531879 10.385207
-1.988143 12.946921
0.056279 13.002505
2.289449 14.453492
4.957109 12.217390
3.388777 10.062295
5.105314 12.466750
3.308045 12.631672
6.149714 11.736078
6.176089 10.411956
3.754543 10.619879
5.237898 10.186198
6.926315 8.558966
5.094428 7.914629
5.136080 9.051599
1.167494 8.839849
2.220243 12.700755
5.247305 15.148188
7.468130 14.477739
9.961859 14.036381
9.902346 11.792919
11.004974 11.173856
8.836957 9.011638
7.823530 7.723236
10.175010 11.213407
9.265846 7.789754
6.540708 10.069372
11.192808 9.324805
14.131810 8.661795
12.153277 5.875696
10.925788 4.750996
10.352200 3.220932
8.086184 6.722717
6.494065 8.037639
5.439929 11.909029
12.079085 12.169152
16.098219 9.138139
12.697018 7.493968
18.585875 7.104178
14.929960 3.771979
13.584050 -1.909407
13.343903 -2.012373
7.924008 -1.946386
8.225469 1.873556
7.967949 -0.953763
11.018235 3.388593
8.728903 1.418252
5.842804 -0.148230
5.109537 0.789419
6.858028 5.307491
6.175610 2.156704
7.641182 3.461958
10.974773 3.372242
11.688001 2.361170
10.831762 0.277834
13.036436 -4.285942
10.433855 -4.040350
5.402442 -6.847236
-1.851640 -2.917690
1.497084 -4.741512
-0.571641 3.471672
-0.380709 3.351805
4.533331 3.641545
4.674982 1.543367
4.084826 -1.212747
3.407735 0.184518
2.292105 0.170417
-2.910128 1.192630
-0.953504 6.824647
3.295002 7.583481
4.391311 6.620277
2.327730 2.521844
6.652323 1.490637
0.363416 -3.884284
-3.343042 -4.770757
-13.082461 -1.142988
-12.614229 4.306675
-8.997043 10.917428
-3.817707 9.779991
-5.950275 16.399885
2.341639 15.943767
4.570174 13.529120
3.733607 12.171493
0.571197 9.041808
-1.899027 4.253431
-5.532908 11.595478
0.338072 16.488764
-0.982823 16.171083
1.999783 5.936034
6.675576 12.164650
-4.102218 13.461719
-7.234230 6.399939
-4.084988 14.654757
-4.027145 17.385793
-10.517989 36.510430
3.871790 27.567661
10.832459 32.373291
14.632705 26.663802
13.358217 20.596094
17.578939 12.139437
11.627219 6.154098
2.059784 10.763864
5.081842 17.956596
1.606678 23.142287
3.958755 31.776681
5.559231 31.607031
12.643004 26.093012
14.945244 27.500334
17.413887 17.143520
4.736624 12.058997
16.180341 18.884552
15.050210 32.690960
12.785657 15.095305
30.020931 37.338487
29.732767 33.123621
37.583531 17.435169
28.428208 6.405101
26.779864 11.062417
14.162397 11.147019
6.276834 10.316388
7.851764 22.590893
16.125391 29.500181
18.782557 27.985079
18.355678 30.425261
21.740673 19.789124
42.605486 16.467840
47.065055 6.189360
32.883148 17.591497
38.024609 15.327390
42.740169 14.042562
46.084658 9.289204
29.988247 20.715870
26.797594 -10.066329
20.044016 -17.970243
25.675518 -28.322112
-6.520369 0.648812
-27.307525 -12.207529
35.796295 35.314072
12.276557 20.622387
35.098660 32.185973
46.817385 13.070719
29.137526 8.683083
52.858810 -38.980435
-4.006306 -62.193208
23.119468 -12.860423
-4.533287 -21.309002
-1.742551 36.126733
22.140487 31.298698
37.498780 23.770652
43.814044 -18.961184
33.833852 14.177196
20.330088 16.715129
25.656036 32.722101
-39.949582 -24.678938
-25.671503 -5.218766
-65.880311 34.823021
-36.674570 77.668063
-28.087039 -13.071581
86.595034 -51.527088
55.284368 26.980722
15.719931 -172.687932
23.717998 -217.545020
-161.665261 -34.986719
-28.306774 116.354311
-138.160278 192.251780
-181.662383 57.926746
-7.588333 -348.668804
-154.421694 210.987744
105.656716 -67.140500
-211.843071 46.960445
-269.277156 95.767843
-420.716345 419.983182
-162.297738 30.752828
80.137887 564.277985
534.573332 730.633548
340.497779 488.664414
1092.638971 714.086932
-3323.320456 -1156.860530
