10015.341892 6597.153458
-2747.364805 -366.921973
270.908489 -1224.155135
365.756289 150.519391
-70.529795 43.395964
-156.050058 -40.438217
326.288488 -414.236602
-185.877287 -190.271237
-63.236746 9.418293
-70.959602 -47.045741
52.481924 -56.163545
16.864200 27.414574
19.977173 11.361593
-8.549945 -56.010984
-33.654406 5.827813
-5.445435 11.689345
-39.700208 14.056292
-16.221224 -30.659529
-1.670360 11.372437
3.355141 -39.996206
-24.999762 -9.531080
-9.670874 -20.947814
4.611797 7.163043
1.870319 -5.256631
-5.063932 -1.156828
13.605787 5.535320
-2.421528 -25.586348
-21.461138 7.855229
-12.277805 -1.966362
-3.394675 10.350332
-12.147083 -4.474240
-0.559343 3.534248
-4.126636 -7.353673
-2.681441 -1.120436
-6.058175 -2.994886
-1.920554 -0.654590
2.696630 0.955348
-8.968987 2.873850
9.136081 1.088185
-5.330126 -14.150357
-6.745892 2.164420
-9.768693 4.766359
-0.282912 1.867576
-3.305274 2.248478
0.987795 3.328166
-3.638318 0.525863
-2.107393 0.022752
-1.042420 -0.564371
-1.415854 3.562246
-1.131758 -3.195479
-4.303750 0.785694
6.045997 -1.647909
-4.119201 -4.678781
-4.973416 0.135545
-2.822438 2.381623
0.626880 3.228738
-2.590651 2.972526
1.456263 2.393100
-1.061802 0.328291
-0.312773 0.687420
-2.443217 0.078400
-0.942598 0.652833
-0.223516 -1.895110
-0.871013 1.378695
1.553442 0.058147
-1.503663 -2.332187
-0.685832 -0.396890
-2.758143 2.552153
2.424111 1.410901
-1.160263 2.546330
-0.020479 1.621096
-0.455104 0.101036
-1.109401 -0.269217
-1.514584 0.315568
-1.469447 -0.116190
0.336596 -0.504505
-0.859539 0.822429
0.348043 -0.901460
0.138983 0.414917
-0.683293 -1.781753
-0.267124 2.093813
1.688773 -0.038568
-0.088823 0.359196
-0.044277 1.177196
1.272837 -0.167254
-1.484048 0.277418
-1.104253 -0.606283
0.120762 0.386901
-0.278233 0.001870
0.635196 0.556779
-0.827626 -0.433228
0.369201 0.160050
-0.399667 0.024128
-0.622502 0.379005
0.312986 -0.940730
-0.036048 -0.032490
-0.168196 1.101613
0.824537 -0.447694
-0.033620 -0.103200
-0.622216 1.006073
-0.092257 0.240797
0.127402 0.468440
0.315008 -0.156361
-0.447107 -0.986606
-0.252220 0.127713
0.729108 -0.856588
-0.053885 -0.674625
0.235518 -0.502937
-0.337307 0.590958
-0.095750 0.402950
0.324316 -0.099576
-0.206301 -0.107865
0.335964 0.253306
-0.151562 0.765498
0.343444 0.371825
0.147592 -0.314533
-0.687142 -0.233445
-0.242858 0.379008
-0.515215 -0.144665
0.039222 -1.226933
0.223182 -0.627684
-0.179083 -0.671669
-0.104786 0.492342
-0.333193 0.115242
0.034162 0.149767
-0.440877 0.330553
-0.091009 -0.439606
-0.045696 0.483026
-0.044436 0.083711
0.706994 -0.651927
-0.430625 -0.155973
0.068074 0.666903
-0.267782 -0.526113
-0.662636 0.009134
-0.890577 -0.184720
-0.015048 -0.398809
-0.281958 0.323966
0.222151 -0.269462
0.004374 0.099360
0.450168 -0.200865
0.503149 0.136762
-0.086169 0.163275
0.417184 0.074230
-0.262271 0.475346
0.144925 0.077876
-0.707905 -0.037897
-0.335649 -0.288747
0.212298 -0.400873
-0.352301 -0.254341
-0.564906 0.844458
-0.015986 0.535938
-0.377072 0.133275
0.007314 -0.264776
0.143852 -0.309860
-0.451500 0.001599
0.729679 0.226203
-0.026990 0.157081
0.271202 0.124309
-0.647732 0.102182
0.090322 0.223299
0.261912 0.382607
0.628138 0.145744
-0.451584 0.072025
-0.387116 0.160497
0.320472 -0.060270
0.255459 -0.244786
-0.444463 0.300174
-0.234714 -0.069006
0.082408 0.605780
0.164923 0.337880
-0.256690 0.009908
0.192874 0.300142
0.313065 -0.022836
0.075679 -0.128387
-0.039542 -0.106971
-0.146429 0.105658
0.100109 0.304058
-0.195214 -0.295034
0.214300 -0.324566
0.033829 0.026087
-0.252745 -0.016621
0.107195 -0.149424
-0.255231 0.166064
0.067560 -0.290381
0.353588 -0.425540
-0.116230 0.054524
0.172300 0.324909
0.575756 -0.137805
-0.261031 -0.017573
-0.288770 0.328189
-0.155178 -0.071447
0.115081 -0.077805
-0.052875 0.290646
-0.097000 -0.060986
0.230369 -0.015075
0.251288 0.050114
0.170410 -0.184832
-0.120802 0.249966
-0.090124 -0.231700
-0.166925 -0.327322
-0.007703 -0.178715
-0.061791 0.003900
-0.010437 0.206561
0.211868 0.220600
-0.303260 -0.424546
0.245764 -0.006204
-0.014248 -0.147412
0.371929 0.131710
-0.141977 0.181031
-0.220480 0.136428
-0.090415 -0.049518
-0.074875 -0.085558
-0.209447 0.033850
-0.247419 0.017484
-0.098566 0.130017
-0.083268 -0.625301
-0.272870 -0.194586
0.321427 0.522797
0.053773 0.080886
0.077695 0.029402
-0.251517 -0.126246
0.302164 0.162523
-0.051102 0.120673
0.011674 0.018682
-0.324810 -0.083440
-0.119648 -0.116018
-0.018179 0.378981
-0.477066 0.020518
-0.091743 -0.107816
-0.024409 -0.062857
-0.132750 -0.113255
0.437798 -0.020357
-0.012479 -0.005468
0.449900 -0.140268
-0.232154 -0.193654
0.440935 0.113057
-0.085721 -0.125917
0.156380 -0.355496
-0.048974 0.105117
-0.302767 -0.110188
0.019736 0.021974
0.294390 -0.542474
0.130225 0.341774
0.097611 -0.099517
0.080865 0.392743
-0.110595 -0.138464
0.117831 -0.246007
-0.060427 0.080820
-0.168257 0.079323
-0.125187 0.005084
-0.146014 -0.228727
0.190042 0.094597
-0.024047 0.063547
0.003532 -0.094536
0.432045 0.199234
0.017480 -0.358855
0.248585 0.244588
0.008439 -0.056911
-0.109892 -0.368656
0.158832 0.052180
-0.198368 -0.089490
-0.227908 -0.053495
0.016191 -0.054760
-0.211513 0.054641
-0.071758 -0.025114
0.510597 -0.131061
0.086635 0.076263
0.043765 0.007199
0.450923 0.132561
0.213467 0.026384
-0.476442 0.069657
-0.200094 -0.214537
0.023122 -0.025175
-0.468609 -0.157403
0.055539 -0.158245
0.012848 -0.205462
-0.154107 0.055687
-0.017667 -0.047471
0.047364 -0.064840
-0.003358 0.144476
0.162185 -0.318962
-0.127414 0.057817
0.194431 0.268257
0.244266 -0.124095
-0.056137 0.020258
-0.173684 -0.013305
0.173356 -0.074043
0.058599 -0.160581
-0.048331 0.113506
0.160362 0.418971
0.028553 -0.063985
-0.078755 -0.106536
0.405355 -0.062449
0.258972 0.086209
0.164732 0.062108
0.030152 -0.154618
0.095845 -0.161322
0.188415 0.081145
0.067607 -0.086249
0.130472 -0.016197
0.043105 0.099979
0.071446 0.095726
0.016339 -0.039753
0.000774 0.016415
0.128915 0.066510
0.157447 0.258946
-0.023845 -0.054554
-0.141548 0.112827
0.072569 -0.182997
-0.174128 -0.095926
0.354357 -0.030069
0.004823 -0.134934
0.018265 -0.107338
0.136763 0.036765
-0.109537 0.130501
0.320155 0.383475
0.163348 -0.090515
-0.031222 -0.101229
0.120591 -0.086301
-0.033178 -0.046264
0.054024 -0.082650
-0.053826 -0.053203
-0.069649 0.036578
0.016731 0.258090
-0.114479 -0.121716
0.184902 0.018837
0.230569 0.019931
-0.018582 -0.014317
-0.222228 0.033078
0.200009 -0.238810
-0.102974 -0.384387
0.304898 0.096439
0.075226 -0.196184
-0.129654 0.152727
-0.219703 -0.206507
-0.035869 -0.005421
0.074570 -0.156508
0.019797 -0.007897
-0.158429 -0.109319
-0.154592 -0.121967
-0.060586 0.049838
0.344823 0.035496
0.229900 0.141297
0.218499 0.184336
-0.053165 0.289997
-0.177080 0.068731
-0.170809 0.120049
-0.006833 -0.079248
0.269519 0.188545
-0.183997 0.176317
-0.007852 -0.059333
0.077728 -0.148699
0.035363 -0.008505
-0.075100 0.058849
-0.010864 0.051361
0.248674 0.136260
-0.270864 0.225950
0.133664 0.213480
0.033206 -0.169631
0.003708 -0.106728
0.081313 0.331983
-0.021198 0.077818
-0.165174 -0.117905
-0.056758 -0.083135
0.161063 -0.037155
0.036213 0.133851
-0.183130 -0.049184
-0.089158 0.483667
0.132042 -0.155921
0.019302 -0.176458
0.108184 0.074818
-0.296902 0.071180
0.030871 0.053371
-0.053662 0.182215
-0.171891 -0.087707
0.107244 -0.069567
0.069726 -0.001050
0.091312 0.058335
-0.007632 0.035881
0.037500 -0.029342
-0.100037 0.055375
-0.135738 0.118062
0.184674 -0.110194
0.184444 0.040957
-0.078678 -0.096419
0.052316 -0.055424
0.040632 0.121516
0.198030 -0.193568
0.112288 -0.074267
-0.131163 -0.042636
0.178919 -0.092809
0.186379 0.048686
-0.221788 -0.170713
-0.082397 0.039540
0.035409 -0.257526
0.161454 0.061475
-0.019822 -0.187130
0.015209 0.010417
0.074431 -0.008631
-0.035754 0.127667
-0.028956 0.001332
0.182814 0.080255
-0.251856 0.079324
-0.202444 0.125156
-0.167157 0.064801
0.136251 -0.104508
-0.212528 0.060237
-0.062976 -0.100874
0.046020 -0.111646
0.259335 0.032254
-0.091841 -0.007626
-0.187678 -0.121534
0.077877 -0.127689
-0.167304 -0.136934
-0.007021 0.074010
-0.086627 -0.061995
-0.110687 -0.078099
0.045040 0.149160
0.012403 0.046727
-0.188859 -0.065732
0.113757 -0.340826
0.117879 -0.056718
-0.004088 0.267372
-0.003984 -0.220159
-0.177084 -0.114317
-0.100994 -0.108201
-0.031588 -0.273703
-0.301838 -0.061196
0.019272 0.048166
0.002050 -0.188921
-0.233083 -0.100756
-0.013214 0.000221
0.057618 -0.196063
-0.203884 0.053287
-0.271292 -0.226025
0.020666 -0.037085
-0.052700 0.073413
0.111107 0.119237
-0.080650 -0.310630
0.076812 -0.064368
-0.042838 0.087175
0.249529 -0.203352
-0.122140 0.035177
-0.070775 0.277199
0.183220 -0.281749
-0.157447 -0.008483
0.047382 0.024579
-0.324504 0.079696
0.053403 0.175798
-0.217980 -0.198307
0.003445 -0.202133
0.226867 -0.137789
0.000012 -0.125629
-0.221806 0.251907
-0.025148 -0.068750
-0.111607 -0.071847
-0.072182 0.069757
0.082363 -0.057209
-0.322130 -0.041007
-0.055354 0.108440
-0.301930 0.053861
-0.144645 0.020799
-0.211872 0.181133
0.124050 -0.073189
-0.152046 -0.000157
-0.139806 -0.292465
-0.101644 -0.102949
-0.006960 0.165337
-0.126112 -0.207624
0.047868 0.161527
0.114445 0.252655
0.003111 0.048314
-0.226559 -0.130575
-0.178231 0.347174
-0.162983 0.011935
-0.153051 -0.115783
0.304855 -0.195059
0.053501 0.031316
-0.073976 0.042633
-0.055065 0.091527
0.071830 0.034222
0.051322 -0.130573
0.111810 0.140148
0.075781 -0.073706
-0.069612 -0.188924
-0.110223 0.099400
-0.063209 0.184470
0.063980 -0.288227
-0.008306 0.066255
0.141271 0.112898
0.006354 0.151918
-0.104146 -0.455999
-0.215263 -0.094098
-0.045886 0.007530
0.124781 0.033429
0.112836 0.091776
0.234910 0.219241
0.018301 0.287167
-0.002990 -0.143994
0.049740 0.318098
-0.014199 -0.008570
0.222083 0.015707
0.039966 -0.017885
0.071310 0.081832
-0.066551 -0.022031
-0.176186 -0.012403
-0.130698 0.133239
-0.101131 -0.081948
-0.021033 -0.074115
0.027189 0.000765
-0.034666 -0.030282
-0.159358 -0.072938
0.211137 0.022483
0.139564 -0.181295
0.033630 -0.002995
0.029269 -0.087062
0.109299 -0.138430
-0.143880 -0.043234
-0.123239 0.121079
-0.098764 -0.102089
-0.323815 0.275303
-0.187770 -0.132490
0.075618 -0.019432
-0.012304 -0.247160
-0.066151 -0.176096
-0.117327 -0.114782
0.111778 -0.191994
-0.053247 0.121897
0.054577 0.077277
-0.287233 0.014402
0.042255 -0.034865
-0.027467 0.212014
-0.110832 0.209624
-0.148939 -0.040067
0.157910 -0.170581
-0.069605 -0.015170
-0.021838 0.099445
0.108705 0.017758
-0.088019 -0.180544
0.015718 -0.037148
-0.007924 -0.069739
-0.043208 0.029483
0.292616 -0.136932
-0.148017 0.156741
-0.074148 0.198476
-0.116999 -0.081356
0.216762 0.040639
-0.054862 -0.005995
-0.074926 0.169646
0.055249 -0.106615
0.023383 0.061819
-0.283415 0.147922
-0.165991 -0.344047
-0.007386 0.196283
0.096150 0.055955
-0.311137 0.144894
0.131291 -0.081835
-0.020702 0.200491
-0.099973 0.283930
-0.113112 -0.010442
0.070381 -0.193666
0.036712 0.234010
0.028236 -0.095031
0.005546 0.103670
-0.170904 0.017672
0.075478 -0.169089
-0.123000 0.003059
-0.191733 0.036949
-0.112928 -0.125071
0.020175 0.051520
0.043266 -0.183682
-0.001232 0.140148
0.093992 -0.085214
0.071082 -0.130947
0.239813 -0.030017
0.089625 -0.089919
-0.062614 -0.021365
0.133240 -0.107788
-0.102486 -0.125859
-0.013839 0.037003
-0.041791 -0.196997
-0.016689 0.040253
-0.069183 0.133779
-0.156090 -0.056762
-0.127007 -0.065391
-0.131655 -0.073903
-0.097813 -0.122387
-0.016652 -0.186713
0.096486 -0.217260
0.114486 0.059596
0.024745 0.003430
0.045303 0.081439
0.087229 0.129321
0.082485 0.025285
-0.064726 0.029250
0.100412 -0.008369
0.015273 0.068112
-0.082536 -0.042276
0.019408 0.026144
-0.152653 -0.047771
0.216642 0.062783
-0.161962 0.012207
-0.178899 -0.122132
-0.011997 0.010686
0.254409 -0.254919
0.107168 0.122081
-0.093519 0.052328
-0.131222 -0.034140
0.079283 0.119404
-0.109227 0.024270
-0.392219 -0.060188
0.067646 -0.174672
0.083587 0.068027
0.005189 0.020972
-0.033884 -0.163103
-0.089089 -0.063539
-0.085140 0.071900
0.109444 0.116589
-0.213944 0.002942
-0.351223 -0.150161
0.253213 -0.375541
0.155038 0.007536
-0.128858 -0.002742
0.144511 -0.025372
0.198013 0.196049
0.057349 0.285433
-0.075697 0.003060
-0.041247 -0.257000
0.282777 -0.136517
-0.072182 0.248025
-0.021263 -0.047944
-0.065751 -0.224375
0.225270 -0.132199
-0.053476 0.127707
0.018884 -0.318281
0.422713 -0.126981
0.154372 0.369105
0.006846 -0.205557
0.106213 -0.205329
0.082029 0.226851
0.048416 -0.119511
0.073775 -0.390029
-0.172097 0.382615
-0.184995 0.033788
0.025879 -0.274045
0.288050 -0.001143
-0.105762 0.034958
-0.176359 -0.266032
0.085676 -0.184048
0.148542 0.290359
-0.120911 0.040333
0.217518 -0.012333
0.273301 0.036633
-0.092211 0.116647
-0.084816 -0.031692
0.179155 -0.073717
0.117465 -0.001861
-0.082853 0.146045
-0.093917 0.163324
-0.180432 -0.187576
0.089938 -0.341012
-0.027503 0.000000
0.071251 0.312414
-0.204378 -0.086295
-0.033622 -0.242017
-0.173056 -0.141520
0.132637 -0.071514
0.200073 -0.083127
0.030827 -0.120560
-0.207194 -0.017331
0.225830 -0.089756
0.223921 -0.022708
-0.164186 -0.167629
0.041828 -0.226887
-0.116530 0.088258
-0.142013 0.116555
-0.158298 -0.225653
0.261950 -0.142683
-0.076508 0.234541
-0.160774 -0.205826
-0.019887 -0.320724
0.094422 0.272185
-0.056933 0.232363
-0.090015 -0.239152
0.150064 0.227787
-0.196891 0.242777
-0.013098 -0.390565
0.218431 0.019932
0.035766 0.089433
-0.029044 -0.171819
0.031014 -0.013423
-0.028698 0.099226
-0.035062 -0.024117
0.143053 -0.033346
0.128254 0.173741
-0.157624 0.118017
-0.147388 0.114925
-0.023462 -0.148381
-0.118873 -0.126809
-0.032471 -0.140258
0.006298 -0.112117
0.029982 0.083906
0.134417 0.228645
-0.436056 -0.006338
0.007866 -0.069715
-0.022551 0.159667
-0.230887 0.012745
0.010895 -0.067367
-0.012278 0.161027
-0.244110 0.212400
-0.178797 -0.059318
-0.019310 -0.014767
-0.234372 0.291805
-0.214781 -0.006385
-0.096538 -0.189922
-0.065635 -0.133386
0.016435 0.121717
-0.022532 0.024499
-0.001315 0.170244
0.110393 0.053529
-0.052382 0.248497
-0.305560 -0.073126
-0.132540 -0.129565
0.038741 -0.021421
-0.091053 0.187522
-0.088232 0.258700
0.044023 -0.190167
0.141714 -0.009774
0.001295 0.158809
-0.146404 0.143409
0.095274 -0.260608
-0.033830 -0.030966
0.038735 0.099421
0.135140 0.072989
0.027780 -0.230611
-0.060891 0.280611
-0.042843 0.171049
-0.271432 0.208424
-0.074305 0.281267
0.098784 -0.045082
-0.079343 0.123437
-0.144771 -0.034481
-0.097065 0.346927
-0.016497 -0.171408
-0.038698 0.248743
-0.128686 0.155233
0.166946 -0.085339
0.075115 -0.257557
0.187931 0.131080
0.061538 0.237743
-0.129159 0.004474
0.350646 0.164531
0.135240 0.274217
0.054839 0.083853
-0.308723 0.043147
0.012957 0.000849
-0.170649 0.199585
-0.049000 0.057550
-0.294474 -0.081640
0.319963 -0.221525
-0.025789 -0.075525
-0.332661 -0.173114
0.236578 -0.048700
-0.185898 0.192471
0.090864 0.039414
-0.050335 -0.116181
0.352814 -0.099508
-0.211189 -0.016646
-0.007329 0.127485
-0.113992 -0.231099
-0.114728 0.143615
-0.297558 -0.043723
0.056317 -0.042758
-0.242662 -0.386531
-0.094312 -0.128112
0.024241 -0.007048
-0.028151 0.153071
-0.005533 0.106454
0.228678 -0.085560
0.108352 -0.049364
0.101424 0.139849
-0.045061 -0.102416
0.065025 0.170295
-0.055570 0.031096
-0.379119 0.212059
0.246841 -0.313310
-0.184247 -0.315180
-0.289222 0.203521
0.093779 -0.015367
-0.169101 0.146128
0.104128 -0.056909
0.067869 0.129386
0.225325 -0.189476
-0.215474 -0.013581
-0.056357 0.006392
-0.131605 -0.002834
-0.081536 -0.000660
-0.119108 0.140974
-0.046472 0.162991
-0.379022 -0.042632
0.041852 0.148853
-0.203249 0.055034
-0.256480 0.041708
-0.226725 0.146750
0.231518 0.061576
0.018317 0.025134
0.056643 0.069607
-0.199135 0.130803
0.032199 -0.080972
0.110502 0.246651
-0.032665 0.050130
-0.004599 -0.068550
-0.319348 -0.061385
0.139647 0.168795
-0.222246 0.272150
0.009141 0.090749
-0.122607 0.090923
0.014203 0.193196
0.057062 -0.039494
-0.111067 -0.277017
0.046708 -0.011166
0.107275 0.135849
-0.065064 -0.099135
-0.017946 -0.130441
0.188924 0.013539
-0.067852 -0.081339
0.126829 -0.135865
0.147120 0.097811
0.202743 0.073758
-0.083943 0.172134
-0.131397 0.276442
-0.026196 0.134185
0.001195 -0.187014
-0.024762 -0.152226
0.000511 0.025475
0.037127 0.210339
0.138574 0.021144
-0.016798 0.056014
-0.083014 0.234334
0.112481 0.179446
0.147379 0.118065
0.132933 0.243649
-0.173454 0.044118
0.230432 -0.123212
-0.066773 -0.163000
-0.036261 -0.152504
0.202581 0.141887
-0.038399 0.096955
0.014387 0.137714
-0.145858 -0.146364
0.005376 0.150134
0.175321 0.097345
0.126466 -0.191322
0.010404 0.169471
-0.091789 0.002810
-0.022721 0.002593
-0.039661 0.099793
-0.137210 0.054841
-0.224690 -0.121851
0.237645 0.003071
-0.169455 -0.011623
-0.031809 -0.080780
-0.000177 0.132380
0.078675 -0.019811
-0.058651 0.139336
-0.081634 -0.017730
0.119654 0.108773
-0.163341 0.058149
-0.144702 -0.003094
-0.077801 -0.257291
-0.001997 -0.124234
0.234962 0.166979
-0.034243 0.058215
0.053835 0.192335
0.109313 -0.006961
-0.083272 -0.092329
0.133942 0.039909
0.170040 -0.098878
0.058584 0.355257
-0.151763 -0.261750
0.045220 -0.197525
0.150506 0.202134
0.060588 -0.062444
-0.045336 -0.153062
0.069184 0.149450
0.235761 0.012696
-0.084068 -0.179983
0.070123 0.076212
0.001650 0.088652
-0.084223 0.103642
0.042751 0.071781
-0.065327 -0.280722
-0.150059 0.216360
0.130273 0.163528
-0.203698 -0.128070
-0.170052 -0.118468
0.139231 0.262042
-0.213196 0.162670
-0.159522 0.045879
0.009977 -0.075013
0.103197 -0.085557
0.077966 0.030800
0.044472 0.138667
-0.005691 -0.117790
0.021608 -0.135256
-0.116636 0.018237
0.036440 -0.169860
0.021795 -0.029066
0.028643 0.061476
-0.225289 0.099810
-0.055227 -0.025826
0.055912 0.107187
-0.315262 -0.077388
0.050633 -0.053055
0.088063 -0.087133
-0.012725 -0.020963
-0.205282 0.017336
0.001021 -0.177761
-0.078193 -0.000146
0.034677 -0.090944
-0.281704 -0.104137
0.053412 -0.081806
0.101180 -0.156831
-0.187062 0.004798
0.018324 -0.077535
-0.194581 -0.260516
-0.159678 0.130602
0.225731 -0.023263
-0.188693 0.151825
0.042421 -0.088539
-0.170227 0.109728
0.179673 0.090944
0.276978 0.159759
-0.132481 -0.166798
0.139565 0.179179
0.066043 0.114831
-0.122895 -0.172375
0.021422 -0.033014
-0.143724 -0.070137
-0.059900 0.053572
0.172934 0.035101
-0.167168 -0.102165
-0.064316 0.112622
0.096226 0.028898
-0.119157 -0.001953
0.251756 -0.070620
0.026975 -0.018424
0.005491 -0.025492
-0.221558 -0.035935
-0.156058 -0.266636
0.062701 0.005447
-0.410657 -0.138248
0.023975 -0.091276
0.053186 0.336705
0.005785 0.229062
-0.115620 -0.207171
-0.148783 -0.046175
0.062330 -0.139976
0.051018 0.059879
-0.052622 -0.075960
-0.200004 -0.005021
0.044891 -0.223767
0.040781 -0.262606
-0.078313 0.120706
0.230281 0.194914
0.011284 -0.099230
-0.242289 -0.058542
-0.058363 -0.038019
0.018683 0.066542
0.029362 0.054357
-0.119511 -0.208958
-0.002093 0.089908
0.027014 -0.110947
-0.004195 -0.217404
0.203625 -0.172041
0.076000 -0.092081
-0.125925 0.146103
0.005963 -0.032320
-0.198229 -0.099680
0.111910 -0.275453
0.129755 -0.065012
0.133025 0.229769
0.069197 -0.124037
-0.270251 -0.125150
-0.132494 -0.012348
0.084110 0.142322
0.072317 0.003309
0.224761 0.039960
-0.222605 0.130536
-0.043378 0.126622
0.069089 0.152843
0.295741 -0.154767
-0.142325 0.435404
-0.130445 0.138385
-0.354967 0.205031
0.116731 -0.071950
0.285435 -0.125643
0.034831 0.006393
0.029189 0.081050
0.062014 -0.165679
0.173316 -0.057952
-0.108277 -0.020794
0.108085 0.148228
0.059469 -0.106899
-0.059328 0.100413
0.005405 -0.051275
-0.162191 0.044933
0.187130 -0.139479
0.024759 -0.045271
0.107252 -0.096576
0.070091 0.209107
-0.005818 0.117038
0.385374 0.056368
0.104371 0.048305
-0.033935 0.011057
-0.002135 -0.108848
-0.111352 -0.300149
0.093427 -0.165861
0.085246 -0.071093
-0.338222 -0.128549
-0.081059 0.394575
0.152034 0.014766
0.013561 0.075509
0.136467 -0.016241
0.235030 -0.121874
0.132666 0.082905
0.327125 -0.074131
-0.097401 0.040781
0.433892 -0.258877
0.128291 -0.213584
0.009110 0.219842
0.043379 0.091693
-0.323315 0.142363
0.118188 -0.103107
-0.190002 0.067955
0.121687 0.074967
0.530354 0.192623
-0.225947 -0.335404
0.009050 0.039610
0.324561 -0.143895
0.309004 -0.225908
-0.109371 0.014976
-0.146409 -0.036825
-0.306697 0.286329
0.007726 0.102212
-0.213109 0.260239
-0.363909 -0.046332
0.233102 0.199368
0.054637 0.310873
0.003673 -0.031025
0.045171 -0.211918
-0.125812 0.088166
-0.428029 0.070176
-0.038514 0.095312
0.644729 -0.089319
-0.515795 -0.082608
-0.139138 0.198908
0.326126 0.351292
-0.031261 -0.136974
-0.091418 0.014213
0.063308 -0.173130
0.125673 0.165943
0.081141 -0.050859
0.398485 -0.251859
-0.313870 0.507061
-0.146413 0.068746
0.030830 0.274385
-0.111448 0.248219
0.134093 -0.114022
-0.349942 0.157804
0.143218 0.004867
0.282057 -0.137604
0.252448 -0.132149
0.024912 0.033218
0.081239 -0.200586
0.211751 0.039603
-0.003870 0.144813
-0.166382 0.283505
-0.545040 -0.144409
0.018119 0.338734
-0.081905 -0.224439
0.185375 0.387541
0.053499 0.073125
-0.240577 -0.100640
0.542974 -0.094536
0.333805 0.084372
0.215340 0.047784
0.423223 -0.022041
-0.232308 0.116552
0.229897 0.498057
-0.362359 -0.129582
0.072509 0.312609
-0.389818 0.218156
0.092191 0.065278
-0.120325 0.156108
-0.029293 -0.315309
0.123415 -0.339883
0.288031 -0.037785
-0.050812 0.069814
-0.083784 -0.135078
-0.004967 -0.074922
-0.251045 -0.126456
-0.405381 0.310016
-0.235561 0.055226
-0.165979 -0.173038
0.318371 -0.340218
-0.227359 0.064203
0.322218 0.821592
0.233467 -0.346204
0.016610 -0.192293
-0.172680 0.111840
0.052130 -0.033445
-0.294353 0.132912
-0.429476 -0.357113
-0.544211 -0.093699
-0.022151 0.061069
0.074888 0.166108
0.167405 -0.097064
-0.157404 0.418108
0.244549 -0.060493
0.218623 -0.165734
0.448679 -0.011639
-0.054173 -0.065419
-0.331452 0.513295
-0.198054 0.191327
-0.133310 -0.368009
-0.025625 0.237449
-0.139314 -0.180112
0.001795 0.204722
0.185205 0.151865
0.103341 -0.335423
-0.135854 0.099135
-0.061635 0.013320
-0.206843 -0.080775
0.048046 0.154534
0.358866 -0.172143
-0.083106 -0.340523
0.156022 0.126898
0.242107 0.457870
-0.055835 0.238810
-0.264335 -0.362014
0.029837 0.411449
-0.131044 0.395961
-0.075742 -0.397443
0.044311 0.278057
-0.181132 0.449729
-0.253427 -0.043773
0.011003 -0.073165
0.107248 -0.235368
0.035836 0.464528
0.488235 0.289538
0.277081 -0.562405
-0.010410 0.119116
0.271434 -0.281875
-0.281250 -0.506091
-0.277063 0.094778
-0.420206 -0.616409
-0.201900 0.536234
0.087923 -0.015482
-0.597727 -0.042822
-0.157985 0.151818
0.911567 0.037253
0.205319 -0.206896
0.726480 -0.174717
-0.472339 -0.103787
0.357578 -0.053132
0.003554 -0.140349
0.516819 -0.648630
-0.533913 0.164460
-0.350565 0.082760
-0.166342 0.449123
-0.595565 0.011725
0.134975 -0.406597
-0.597265 -0.294581
0.072492 0.381804
0.659061 0.774218
-0.047850 0.030043
-0.311287 -0.044167
-0.168244 -0.265992
0.080940 -0.582559
0.157310 -0.457348
-0.261207 -0.539875
0.098635 0.371530
0.249261 0.179804
0.165048 0.503611
0.288126 0.317991
-0.216595 0.164174
-0.060540 0.907291
0.020832 -0.161002
-0.646765 -0.081222
-0.030371 -0.026368
-0.157093 -0.914935
-0.303407 -0.135045
1.270547 0.454120
-0.963897 -0.323635
0.030468 0.027832
-0.209039 0.796463
-0.219898 0.247515
0.126280 0.115117
-0.834603 -0.463084
0.259375 0.294366
0.246152 0.136033
0.127733 0.182498
0.172754 0.897877
-0.355343 -0.456704
-0.292495 0.143157
-0.176984 -0.365304
-0.428699 0.372261
0.366864 0.352541
-0.095518 -0.612676
0.206068 0.259551
0.202864 -0.263067
-0.431699 -0.035688
-0.184593 -0.033503
0.236476 -1.019840
-0.428599 0.369378
0.371089 0.932598
0.747954 0.487235
-0.124090 0.193355
-0.059946 0.919233
-0.503150 -0.032163
0.878479 -0.133638
-0.325003 -0.380687
-0.403289 -0.912092
-0.219941 -0.303014
0.555272 -0.055358
-0.406048 0.158336
-0.456583 -0.158726
-0.300840 1.569237
-0.430269 0.774080
0.444736 0.023107
-0.367531 -0.093755
-0.482667 -0.861322
0.744124 0.202783
0.370398 -0.977919
0.171856 -0.478619
-0.878773 -0.382974
-0.997356 0.192449
0.180547 1.098741
-0.426844 -0.604066
-0.868566 1.236565
0.778379 1.211692
-0.136287 0.881677
0.196215 0.690580
1.294465 -1.543032
-1.167823 -0.192917
0.861646 -0.511450
0.862931 -1.253864
-0.450174 -0.180119
-0.911817 -0.167034
-2.216552 0.748799
0.184749 2.173970
-1.883274 -0.406994
-1.395310 -0.030033
0.659665 0.673908
-1.232549 0.056525
1.622771 0.455441
0.144561 -2.221366
-0.162656 -0.632983
1.557466 -0.458589
0.588048 -0.700696
-0.276850 0.610613
-0.314956 -0.775398
-2.222626 2.394668
-0.494427 0.357995
0.778769 -0.614148
-2.000381 0.300927
-0.176584 -0.767615
-0.853153 -0.056099
1.406972 -1.152281
-0.940644 0.320074
-0.050882 0.900762
0.644782 0.050584
-1.463768 0.569627
0.902157 0.808802
-0.882464 -0.608219
-0.069311 -1.565167
0.398406 -0.239109
-1.305852 -0.478895
1.197312 -0.806353
0.392675 -1.308728
-0.672330 -0.651678
-3.408674 1.736476
-1.779198 1.603862
2.010633 2.365415
-4.181968 -2.302225
-1.094446 -0.473277
-1.062980 -0.360209
7.178639 -0.127817
4.944677 -1.509972
-0.088493 -9.841699
-0.735482 4.925035
3.135855 -2.583373
-1.046391 2.336874
-8.706944 -3.054903
-7.724670 -0.123647
-8.483739 13.119772
3.887882 -2.769942
-7.694317 -1.283528
5.592515 -5.551362
13.885445 2.488423
10.490854 -0.347727
40.149921 -19.099789
-18.260158 -22.743192
6.086102 18.594328
-10.679401 1.048285
-13.136587 -5.217166
-13.309786 6.637271
-45.654735 -18.562651
-11.802966 24.144320
9.246753 -19.865466
28.936807 -21.527994
0.969790 3.349945
82.219349 -53.814886
87.233385 72.590371
252.081789 -203.573544
-210.756387 -302.205459
-139.467072 133.493310
-48.303677 -110.003275
-439.919882 54.555096
-93.394706 -1082.528872
951.854392 -43.032775
