9932.535030 6827.647653
-3622.727352 -408.316975
176.373598 -1334.058821
278.218928 48.415196
30.273178 -38.760985
-441.647289 -86.376330
323.160568 -385.048345
-257.835437 -337.525632
-216.041673 42.068210
-125.369021 39.872932
92.365502 -64.148750
4.339193 32.154530
14.778632 29.395581
0.458062 -55.303465
-30.635522 -5.428316
12.945527 6.970565
-67.965420 36.455033
10.448584 -28.292623
-38.473998 -5.010925
3.712919 7.592566
-23.062728 -13.945009
-34.008556 -11.281627
-13.308443 29.195547
13.129879 31.575228
7.101101 -9.583321
-4.796084 7.716894
8.739621 -10.640611
-15.782863 11.677607
-4.979990 1.001077
-9.972645 11.709490
5.459782 6.077707
-6.676752 -4.264616
0.130470 11.241738
2.687033 0.824645
0.070851 1.410595
-6.386467 2.203541
8.241787 18.591097
12.460974 -3.462677
2.224841 -3.175232
3.678907 -1.096071
-6.169929 3.406995
-2.491725 4.953187
-2.843770 0.866589
5.503824 4.697993
2.136584 1.593987
-0.567610 -1.852236
-0.538419 0.537455
7.057228 1.497459
0.765136 -1.595486
-1.418338 2.093071
6.779240 -0.443948
3.637317 -2.470543
-0.648238 -1.250330
-3.825792 -2.309081
-0.507257 -1.154151
2.757951 2.991217
1.100224 0.807407
0.822209 -0.668441
3.490065 -2.835766
0.377697 -1.184395
0.930188 1.901381
0.431400 -2.498916
-1.866069 -2.096033
0.907803 1.191962
-0.259504 0.429820
-3.235364 -1.781566
-1.243660 -1.889674
-0.902761 -0.012172
-0.214348 1.325694
1.675525 -0.715846
1.483627 -1.596734
1.720494 -0.707619
-0.493096 -0.112910
-2.354532 0.360859
0.378530 -0.241911
-0.098610 -1.971322
-1.884560 2.370393
-0.679874 0.953626
-0.578379 -0.709700
-0.046533 -0.331833
0.109523 0.403392
-0.067463 0.699591
0.315593 -1.541315
0.911890 -0.410213
0.875445 -0.108367
-0.053843 0.184183
-0.825012 -1.051103
0.054410 1.415952
1.457209 0.251867
-1.713784 0.671425
-0.334914 0.880374
0.880341 -0.230233
1.532887 0.378779
-1.329816 -0.161240
-0.132487 -0.742828
0.513414 -0.729095
0.698351 -0.665448
0.009851 -0.787871
-0.195486 0.136929
0.672976 -1.724976
-0.352251 0.690370
0.611621 0.332274
-0.691378 -0.628484
0.824414 -0.288917
-0.611709 0.612061
1.283457 0.173879
0.447370 -1.284173
-0.379970 -0.394184
-0.781795 -1.293331
-0.291169 0.957542
-0.661728 -0.488132
-1.100437 0.211000
0.160658 -0.809813
0.070295 0.218156
0.044307 0.719192
-0.209384 -0.038869
0.990137 -0.107123
-0.666796 0.192688
-0.732559 0.100497
-0.520764 -0.937084
-0.003919 -0.177484
-0.603541 -0.492303
-1.263619 1.328512
-0.298110 0.613444
-0.737013 -0.350065
-0.416830 0.302783
0.068535 -0.025597
0.112987 -0.703814
-0.134684 0.056108
0.555728 0.443099
-0.224824 0.019712
0.110121 0.098244
0.179642 -0.561253
-0.177313 0.958456
-0.043511 -0.319964
-1.160680 0.692020
-0.401905 0.815438
0.408383 0.147900
0.423039 -0.134349
-0.522049 -0.049671
0.805844 -0.245034
-0.017437 0.063254
0.081541 -0.339150
0.263983 -0.465768
-0.048537 0.237006
0.182564 -0.287571
0.228871 0.220927
0.184927 0.183351
-0.060512 0.193559
-0.091557 0.586953
0.659747 0.480987
0.813521 -0.775313
0.173282 0.319999
0.165990 -0.075474
0.402627 0.120086
0.181543 0.718778
-0.179286 -0.451054
-0.453182 0.329334
-0.141734 -0.088066
0.128367 0.251218
-0.200813 0.525761
-0.061197 -0.640067
0.092514 -0.138444
0.261539 -0.186092
0.082550 -0.181865
0.156277 -0.355248
-0.444790 -0.210180
-0.583038 -0.082072
0.509258 0.393668
-0.134634 0.265259
0.221564 0.007109
0.133909 0.468923
-0.259019 0.511192
0.071485 -0.499189
-0.295612 -0.824193
0.441824 0.037945
0.088906 -0.136045
-0.426938 -0.180156
0.072977 0.123804
-0.001861 -0.237365
0.285880 -0.247526
-0.012492 -0.152495
-0.140538 0.467441
0.744478 0.016693
-0.044778 -0.059533
-0.152337 0.397118
0.296059 -0.292061
0.274988 -0.287694
0.379231 0.314387
-0.299395 -0.131435
-0.169379 -0.131547
-0.119600 -0.386821
-0.144835 0.080036
-0.275208 0.140797
0.703494 -0.435968
0.169984 0.122751
0.730662 -0.011920
0.014306 -0.598136
-0.467391 -0.133695
0.457450 -0.500839
-0.303141 -0.466734
0.147891 -0.088345
-0.349382 0.034828
-0.222564 0.237256
0.162170 0.150965
-0.060701 -0.077563
0.257800 0.428528
0.013417 -0.603812
0.473424 0.084070
-0.414066 -0.002426
-0.285904 0.243580
-0.295592 -0.367822
0.001701 -0.099530
-0.259212 -0.135212
-0.174849 -0.329364
-0.324302 -0.029091
0.231923 0.163854
0.272153 0.219051
0.285042 0.495610
0.249348 -0.245239
-0.088545 0.140313
0.024444 0.238483
0.086948 -0.012317
-0.026843 -0.246271
-0.074161 -0.287939
-0.100292 -0.279174
-0.347044 0.252510
-0.316334 0.370078
-0.090377 0.206232
0.235115 -0.108066
-0.226972 -0.473773
-0.288165 -0.284174
-0.197516 -0.430233
0.033180 -0.761625
0.318285 -0.087359
-0.266633 -0.579868
0.041698 -0.059763
0.141005 0.250388
0.059066 0.416759
-0.043315 0.672176
0.218854 0.033311
0.138001 -0.134524
0.375986 -0.059388
-0.060439 0.044148
-0.086197 -0.240344
0.265988 -0.174099
-0.392542 -0.433468
-0.345359 -0.010064
-0.324720 0.274031
0.176242 -0.118260
-0.150078 -0.045416
0.128878 0.365559
0.155398 -0.005383
0.377663 0.012635
0.243355 -0.089349
0.013310 -0.323314
-0.475748 -0.060227
-0.146275 -0.525626
0.004272 -0.219740
-0.379250 0.082422
-0.177691 0.059014
-0.325887 0.182626
0.081097 0.165991
-0.139612 0.135339
0.225841 0.092894
0.136038 -0.121387
-0.081901 0.065145
0.087356 -0.247369
-0.321590 0.086569
0.238197 0.227305
-0.535869 0.190981
0.350600 0.047427
-0.029534 0.318664
-0.037193 -0.020249
0.463659 -0.037966
0.362331 -0.357287
0.110845 -0.245055
-0.030318 -0.386350
-0.027249 -0.400883
-0.035674 -0.625240
-0.349367 0.010618
-0.136322 0.184087
-0.064796 0.227723
-0.322024 -0.045592
-0.024429 0.169185
-0.126662 -0.044522
-0.502255 0.247255
0.067520 -0.201428
0.113698 0.019048
-0.125307 0.052551
-0.095192 -0.110110
0.173738 0.007841
-0.251894 0.136960
0.020826 0.108243
-0.189356 0.195432
0.204885 -0.310014
-0.198776 0.149368
-0.211063 0.133277
0.128910 0.367852
0.297742 -0.150341
0.133433 -0.450389
-0.105032 -0.175818
0.149226 0.060867
-0.173980 -0.269953
-0.057566 -0.077371
0.161662 -0.039787
-0.429176 -0.004090
0.012292 0.258384
0.161025 -0.039417
-0.216139 -0.085116
0.079170 -0.023746
0.067301 -0.619871
0.421403 -0.113026
-0.055782 -0.335057
0.235020 -0.009072
-0.110096 0.110935
-0.092242 0.198656
-0.104201 -0.036106
-0.111296 0.074252
0.002045 0.318278
-0.072648 0.039330
0.017990 0.241968
-0.056501 0.270807
-0.189435 0.035411
-0.058559 -0.022123
-0.119994 -0.358533
-0.245508 -0.252583
-0.659262 0.032695
-0.128361 0.236532
-0.529673 0.090040
0.064051 0.181135
-0.198682 0.208358
0.236101 0.057586
0.282384 0.204413
0.388895 0.133212
0.158556 0.065120
0.015143 -0.096479
-0.187875 0.059508
-0.361266 -0.059925
-0.259336 -0.023528
-0.089185 0.261576
0.149128 0.004138
0.183534 -0.101427
0.028838 0.165461
0.126760 0.026715
0.042891 -0.316995
0.216228 -0.430832
0.001758 -0.357926
-0.225066 -0.270003
0.200036 -0.030971
-0.072106 -0.121625
0.006169 0.348411
0.031975 0.068269
-0.150376 0.212147
0.260171 0.539140
0.153986 -0.031465
-0.049517 -0.031289
0.182512 -0.149164
0.407470 -0.002710
0.264618 -0.162847
-0.088957 -0.352266
-0.064545 0.140908
-0.139240 0.201041
-0.246599 0.360534
-0.155096 0.141331
-0.248410 0.091726
-0.108176 -0.041121
-0.150814 -0.069322
0.402406 0.118893
0.309203 -0.257041
0.231742 -0.096986
-0.114603 0.251930
0.177542 -0.080680
-0.225472 -0.094773
-0.206666 0.003248
-0.284621 0.195633
-0.128928 0.180499
0.018268 -0.008584
-0.095660 -0.068565
0.420004 0.016099
0.169821 -0.240179
-0.186640 -0.158597
0.291215 -0.442648
-0.101461 -0.316341
0.088119 -0.314783
-0.192291 -0.161467
0.269061 0.039213
-0.072877 0.293591
-0.028453 0.348122
0.074554 0.207337
0.024274 0.042802
0.148289 -0.077768
-0.152152 -0.187947
-0.237277 -0.329252
-0.207316 -0.120194
-0.142824 0.189639
-0.087499 0.255018
-0.256023 0.019881
0.109350 -0.000426
-0.283799 0.025247
0.292495 -0.028339
0.304219 -0.280940
0.232662 0.089396
0.027222 -0.272144
-0.181237 -0.248449
-0.150307 0.096976
-0.105707 -0.135699
-0.273765 -0.102383
0.070836 -0.002767
0.056210 0.191454
0.081071 0.167222
0.128957 0.052888
0.154387 0.047024
0.157388 0.165870
-0.025732 0.044751
0.076595 -0.145502
-0.000792 -0.326338
-0.137308 0.171297
-0.157231 0.053663
-0.492404 0.016025
0.213975 0.125621
-0.371895 -0.121166
-0.211394 0.169745
0.093800 -0.024228
-0.083883 -0.028734
0.397728 0.293365
0.104477 -0.299806
-0.219128 0.170432
0.039614 -0.228580
-0.235840 0.253592
0.109038 -0.008709
-0.149855 -0.165899
-0.178033 -0.083102
0.158867 0.050153
0.019076 -0.038694
0.173582 0.085837
0.171812 -0.124982
0.431019 -0.012061
0.084776 -0.062971
0.104244 -0.046051
-0.262475 0.237722
0.324687 0.086972
-0.127370 0.275097
0.159300 0.197672
-0.114571 0.193344
0.115683 0.216528
0.200006 0.114507
-0.030193 0.069359
-0.131763 0.073186
-0.318027 -0.486079
-0.020277 -0.299241
-0.422261 -0.429855
-0.134747 -0.207153
-0.045438 -0.426001
0.272856 -0.001720
-0.079139 -0.044929
0.136032 0.123819
0.189166 -0.204182
0.108896 -0.035532
0.160115 -0.020344
0.066291 0.037350
-0.066490 -0.302954
-0.159579 -0.162086
0.082496 -0.012551
-0.313717 0.111929
-0.233620 -0.301197
0.071795 0.111824
0.311381 0.252645
0.122455 0.111320
0.102633 -0.129081
0.209358 0.017792
0.088479 0.206186
-0.072173 -0.111346
-0.102289 0.007235
0.170436 0.061799
-0.215488 0.004800
-0.122999 -0.197814
-0.394549 -0.158403
-0.014138 0.223667
0.223608 0.093700
0.114198 0.008373
-0.304967 0.111066
-0.138981 0.038823
0.024148 -0.126630
-0.188459 -0.047756
0.042999 -0.023323
-0.226563 -0.154031
0.176728 -0.050697
-0.426288 -0.144140
-0.145789 0.339130
0.151359 0.151788
0.132059 -0.017660
-0.140632 0.431499
0.366381 0.000257
0.068920 -0.307700
0.053736 -0.404121
-0.133159 -0.224314
-0.112026 -0.155746
-0.202471 -0.026911
0.078001 -0.101868
0.103076 0.242474
0.053512 0.007870
0.173895 0.033063
0.157335 0.103344
0.440555 0.070721
0.080332 -0.334077
0.060973 0.023994
0.064789 -0.153813
0.052285 -0.037623
-0.396852 -0.365366
-0.156957 -0.143088
-0.106083 -0.098920
-0.006717 -0.124156
-0.046471 -0.461601
-0.166254 -0.266536
-0.435869 -0.057132
-0.153131 0.344254
-0.155998 0.020851
-0.093826 0.000576
-0.058275 0.090776
-0.213249 0.128061
0.017029 0.094858
0.071815 0.187660
-0.136119 0.192496
0.010905 0.053471
-0.119968 -0.248900
0.128364 -0.130304
0.169757 0.053949
0.013375 -0.133146
-0.040850 -0.009508
-0.062434 0.074538
-0.225556 0.025599
-0.274072 -0.190328
-0.379895 0.104146
-0.009324 0.300269
0.020326 0.130455
-0.090899 0.032355
-0.140740 0.093970
0.139036 0.230663
-0.104535 0.046370
0.143138 0.082091
-0.064318 0.167980
0.015065 -0.129341
-0.097696 -0.044191
-0.183148 -0.082733
0.191884 0.064859
-0.164649 0.008435
0.121769 0.233678
0.044729 0.284595
0.199569 0.093153
-0.275919 -0.365124
0.031802 0.186531
0.019128 -0.095325
0.170604 -0.085822
0.130209 -0.314497
-0.273260 -0.125771
0.027467 -0.154646
-0.124904 0.187102
-0.264171 0.109568
0.040846 0.272488
0.147287 0.322714
0.149688 -0.087224
0.014798 -0.002663
-0.041772 -0.193236
0.115119 0.314387
0.260713 0.012000
0.061544 -0.389436
-0.097520 -0.310911
-0.149901 0.165075
-0.101408 -0.008059
-0.039775 0.077676
0.077359 0.077112
-0.037157 -0.142913
0.058824 0.510838
0.266879 0.096206
0.175817 -0.118938
0.007796 0.124938
-0.212786 0.039606
-0.150533 0.147744
0.319362 -0.038512
-0.040990 -0.201586
-0.264471 -0.033630
0.063201 0.168042
0.393693 -0.148388
0.191359 0.183932
-0.203547 -0.129874
-0.001669 0.100205
-0.158420 -0.149514
-0.077970 0.030830
-0.298582 -0.504772
-0.066483 -0.172030
-0.088754 0.095072
-0.000242 -0.047129
0.013918 0.037796
0.462760 0.099526
-0.059696 0.006816
0.013047 -0.151678
0.259136 0.018234
0.104786 -0.249492
-0.063930 0.023413
0.298836 -0.218560
-0.138621 0.023325
-0.328267 0.317237
-0.189173 0.217296
-0.222550 -0.048205
-0.204766 0.292646
-0.286629 0.052326
-0.169837 -0.059999
0.113655 -0.104557
0.090893 -0.288862
-0.018038 -0.109315
0.008028 -0.219295
0.067053 0.062617
0.026658 0.195285
-0.031792 -0.149055
0.053158 -0.315201
-0.124850 0.050280
-0.085559 0.387118
0.099943 -0.138901
-0.038638 0.259740
0.092824 0.305225
0.112912 -0.094348
0.166834 -0.105110
-0.060249 0.040045
0.014019 -0.112318
-0.310450 -0.196314
0.136321 -0.016262
-0.120494 -0.210831
-0.130533 0.053255
-0.221300 -0.021296
-0.023297 0.121839
-0.004058 0.325667
0.059956 0.082942
0.195446 -0.007427
0.221517 0.004163
0.004163 0.055742
-0.059948 0.102195
-0.053858 0.037036
0.188506 -0.001053
-0.173712 0.015941
0.027815 0.181767
0.082893 -0.165149
-0.152053 0.095839
-0.091081 0.170628
-0.007738 -0.091583
-0.138097 0.216135
0.236140 -0.123111
0.011330 0.059536
-0.082678 -0.033464
-0.111769 -0.105286
0.014540 -0.012197
0.199031 -0.148789
0.129900 -0.130836
-0.096331 0.114831
0.074836 0.073193
-0.046947 -0.133242
-0.017076 0.254430
-0.077441 -0.383965
0.114836 -0.056746
0.285771 0.222703
0.323858 -0.010529
0.045361 -0.196552
-0.180943 -0.046132
0.117516 0.096237
-0.230884 -0.221574
0.049738 0.101886
-0.221930 -0.078167
-0.269524 0.129229
-0.105357 0.029817
-0.338792 -0.153715
-0.039626 0.118798
0.223757 -0.542058
0.072364 -0.162310
-0.002285 -0.108210
0.100833 -0.103639
-0.306086 -0.187368
0.170233 0.165178
0.030098 0.081885
0.124201 0.097109
-0.010921 0.118367
0.215285 0.093875
-0.154367 0.113541
0.175851 -0.018111
-0.036579 -0.088135
0.225899 0.013289
-0.128711 0.265199
0.033243 -0.054930
0.075757 0.166659
0.016442 -0.060885
0.011507 0.041963
-0.147960 0.160687
-0.133026 0.100028
-0.312788 -0.283034
-0.183517 -0.127685
-0.256508 -0.032268
-0.179644 0.075969
0.220551 0.151879
-0.010625 -0.097431
0.024136 0.023832
-0.169143 0.202190
0.175560 -0.260315
0.088244 0.160019
0.179011 0.044014
-0.027741 -0.198208
-0.065376 -0.122617
0.186747 -0.200505
-0.256337 -0.007644
-0.054196 -0.221309
-0.336844 0.095686
0.245176 0.049851
-0.010152 0.112561
-0.051364 -0.264185
-0.116166 0.195561
0.103669 0.178845
0.037877 -0.089627
-0.127790 0.199682
0.266251 -0.079568
-0.406078 -0.146933
0.167662 0.077913
-0.161136 0.106484
0.395638 0.314355
0.218992 -0.065908
0.038624 -0.101845
0.128896 0.160439
0.086662 -0.375846
0.051415 -0.000568
0.405268 -0.262558
0.173547 -0.042137
-0.349797 0.128728
0.204898 0.085615
-0.444142 -0.125890
0.077123 0.034447
-0.383366 -0.236255
-0.140220 0.143289
0.013748 -0.137374
0.064155 -0.129797
-0.013382 0.136793
0.124835 -0.237968
0.044429 -0.229423
0.057531 0.128867
-0.082267 -0.082400
-0.183509 -0.139481
-0.117211 -0.008637
-0.142274 0.029351
-0.369667 0.050838
-0.161115 -0.066892
-0.079054 0.018604
-0.147767 0.018899
0.078065 -0.002391
0.031323 -0.154166
0.211060 0.224569
0.052921 -0.274985
-0.000000 0.154713
0.050349 0.123159
-0.061339 -0.057128
0.030106 0.131918
-0.002914 -0.139702
-0.279856 -0.026454
0.011420 -0.139415
-0.069415 -0.079425
-0.163055 -0.040885
0.127708 -0.008155
-0.236442 -0.065179
0.098026 0.416297
-0.114767 0.023815
-0.073554 0.232100
-0.098072 0.065706
-0.106887 0.156573
-0.145721 -0.014836
-0.041717 -0.080283
-0.130761 -0.097883
0.037100 -0.364879
-0.127210 0.139954
-0.026168 -0.133082
-0.028523 0.013732
0.103772 -0.229874
-0.143662 0.328145
-0.020047 -0.004226
0.268915 0.343570
0.105676 0.139237
-0.213835 0.260227
-0.223444 -0.025835
0.002758 -0.144891
0.307585 -0.018319
0.193102 -0.274285
0.055031 -0.382032
-0.117633 -0.151352
0.049037 0.235730
-0.151427 0.046422
-0.226425 0.026673
0.168793 0.125232
-0.172422 -0.125295
-0.059739 0.078927
-0.302651 -0.067108
-0.008055 -0.037594
0.157620 0.132198
-0.192793 -0.229844
-0.187213 0.459765
0.152841 -0.194056
-0.202375 0.509090
0.101550 0.311528
-0.153665 0.187307
-0.128241 0.321862
0.331832 0.006910
-0.202816 0.217563
0.083186 -0.157671
-0.112317 -0.102819
0.045670 -0.076797
0.251171 0.057933
0.102423 -0.254693
-0.151409 0.413659
0.174609 -0.047063
-0.369553 0.410650
-0.083148 0.292362
0.007645 -0.155100
-0.270194 0.225807
0.347042 0.105545
-0.076014 -0.051616
0.179743 -0.194993
-0.162943 -0.325323
0.356847 -0.277600
0.001719 0.248178
0.331378 -0.189167
0.090475 -0.029544
0.515468 -0.094888
0.082956 -0.287469
-0.068723 0.079657
0.333995 -0.145983
0.082433 0.004301
-0.226530 0.008845
0.084894 0.140505
0.140858 -0.312319
0.012080 0.168361
0.163958 0.253013
-0.010768 -0.144680
-0.229906 0.113672
0.045313 -0.152794
-0.285886 -0.012575
0.004276 -0.309348
-0.263076 -0.009600
-0.244810 0.171136
0.105806 0.038538
-0.260467 -0.247233
0.023327 0.239329
0.196949 -0.277132
0.243204 -0.328816
-0.080053 -0.028146
-0.160415 0.271418
0.021371 -0.075234
0.038042 -0.144638
-0.031301 0.161189
-0.059605 -0.405758
0.012898 0.144129
-0.046592 0.210746
-0.048079 0.239088
-0.152788 0.034580
-0.083318 -0.103332
-0.149898 0.092715
0.054728 -0.003247
-0.244220 -0.185380
-0.062074 0.061961
-0.073114 0.148589
-0.207395 -0.195212
0.107332 0.085990
0.040810 -0.123476
-0.282825 0.127155
-0.017394 -0.035452
-0.206743 0.081987
0.267679 0.164775
-0.132588 -0.150727
0.085319 -0.019125
0.256394 -0.111217
0.046780 0.126265
0.030653 -0.193357
-0.149850 -0.155218
0.105494 0.132188
-0.039732 0.033265
-0.301327 0.241167
0.035140 0.178386
-0.145812 0.123436
-0.208461 0.418846
-0.061758 0.140008
0.291991 -0.167301
0.092918 0.069499
0.152128 -0.428116
-0.342121 -0.139366
0.487598 0.002766
-0.025080 -0.350869
0.023145 0.102208
0.218879 0.332511
-0.031287 0.028106
0.080106 0.087225
0.026796 0.126762
-0.025459 0.173337
-0.075495 0.298501
0.221128 0.170580
0.000421 0.123350
-0.181027 -0.315067
-0.461506 0.067258
-0.009341 -0.268464
-0.100057 -0.022584
-0.064670 -0.229102
-0.178926 -0.296867
-0.073096 0.030086
0.286520 0.110021
-0.097623 0.281219
0.224773 0.168278
0.108858 -0.008217
0.123652 0.029381
-0.049509 0.007075
0.464596 -0.301635
-0.087859 -0.115398
0.169205 0.115497
0.115085 0.069596
0.060681 0.092213
-0.328119 0.381567
0.071610 0.195621
-0.199477 0.003949
-0.366049 0.096929
-0.016570 -0.098922
0.073052 -0.187893
0.348705 0.016357
-0.074671 -0.365370
-0.122621 -0.219912
0.165254 0.126756
0.226190 0.041093
0.042845 -0.160969
0.187681 -0.077700
0.029107 -0.240593
0.024722 0.499630
0.225665 -0.390881
-0.087947 -0.253461
-0.135926 0.193230
-0.241937 -0.061288
-0.169478 -0.300911
-0.166962 -0.203703
-0.305820 -0.077069
-0.123557 -0.039269
0.100808 0.169110
0.311531 -0.113271
0.342764 -0.159674
-0.109705 -0.161900
0.073474 0.093710
0.145381 0.238983
0.004697 -0.078367
-0.035379 -0.185213
-0.396415 -0.008701
-0.126707 0.069264
-0.343469 0.074135
-0.378774 0.152985
0.019108 0.268285
0.124671 0.036862
-0.266701 -0.084939
0.040660 -0.220925
-0.114189 0.340935
0.073901 -0.099491
0.068957 -0.265566
0.200415 -0.012094
0.091960 0.168463
0.043826 0.183414
-0.053545 0.149661
-0.079692 0.200794
-0.082090 0.315111
-0.229316 -0.112527
0.073317 -0.101241
-0.044313 -0.128112
-0.116553 -0.057419
-0.104382 -0.143244
0.128308 -0.037186
0.170803 -0.170276
0.053808 0.018815
-0.199534 -0.187398
-0.037507 0.240989
-0.087763 0.174590
-0.141514 -0.051931
-0.100171 0.033043
0.099542 -0.016761
0.108875 0.144769
0.052805 -0.003786
-0.086645 0.041441
0.126144 -0.028322
0.243765 -0.048651
0.135826 -0.402978
0.221518 -0.167384
0.099619 -0.096321
-0.090076 0.034789
-0.090060 0.007874
-0.284863 -0.197949
-0.161789 -0.184505
-0.609226 0.007946
-0.434350 0.090641
-0.004544 0.316546
0.109925 -0.083402
-0.227352 0.031707
0.062394 0.020930
-0.116909 0.022609
0.209330 0.052044
0.050838 0.034184
-0.095502 0.038611
0.177669 0.395121
0.277242 0.015750
-0.100933 0.094197
0.047437 -0.104683
-0.090255 -0.030037
-0.019425 -0.226710
0.030146 0.004806
-0.353155 -0.189507
0.027158 0.129460
-0.144315 0.076535
0.072455 0.342609
-0.048983 0.138062
0.193602 0.148283
-0.124400 -0.205941
0.035625 0.129637
0.197476 -0.004570
-0.210462 -0.276169
-0.353910 0.238564
0.085618 0.067996
-0.185157 0.216775
-0.020596 -0.003757
-0.203718 0.091803
-0.025228 0.157276
-0.200395 0.019143
-0.413046 -0.188084
-0.032236 0.139442
0.280351 0.059290
0.040638 -0.029523
-0.119786 0.085046
-0.025994 0.126057
0.007070 0.067252
0.150621 -0.137475
-0.033498 0.095821
0.013597 0.064100
0.066224 0.000287
0.101262 0.020211
0.070872 0.154820
0.129473 -0.142478
0.276040 -0.168655
0.047802 -0.119459
-0.076161 0.216596
0.137722 -0.246209
0.138173 -0.198430
-0.028386 0.052923
-0.140192 0.087952
0.245798 0.162797
0.070792 0.121173
0.005346 0.139245
0.163680 0.181589
0.087667 -0.046575
-0.132996 0.086130
0.049787 -0.222357
0.093668 0.240533
-0.108102 0.069992
-0.246263 0.264200
-0.072069 -0.072987
-0.180097 0.212031
-0.261905 0.014793
-0.105801 0.138074
0.152985 -0.010889
0.212623 -0.031981
-0.091288 -0.082994
-0.145279 -0.032531
-0.077547 -0.425600
0.116917 -0.167996
-0.286930 -0.242994
-0.167839 -0.153724
0.041563 -0.115156
0.482799 -0.134383
-0.016724 0.068568
-0.007069 -0.050082
0.036614 0.154892
0.274706 0.217823
0.001882 0.361167
-0.085293 -0.008839
0.097034 0.139582
-0.119408 -0.219156
-0.235304 0.282006
-0.241612 -0.140406
-0.020013 0.234377
0.264141 -0.022266
-0.187372 -0.006639
-0.032567 0.038569
-0.180112 -0.031489
-0.377004 0.270850
0.225901 -0.018720
-0.112863 -0.032166
0.068854 -0.191568
-0.190916 -0.217318
0.001438 0.218837
0.037166 0.183794
0.114956 0.168494
-0.064677 -0.108610
0.200594 0.103356
0.234838 0.006166
0.116143 0.013706
0.066802 -0.157342
0.159464 -0.142742
-0.008519 0.172474
-0.004024 0.085304
-0.037449 -0.245600
-0.158440 -0.055510
-0.020007 0.295669
0.019522 0.206930
0.315776 0.268203
0.278441 0.115631
-0.137559 0.045609
0.015076 0.042827
-0.213165 -0.191446
0.182217 -0.535198
-0.151054 -0.263995
0.004098 -0.040806
-0.297570 0.041118
0.124304 0.184665
0.232198 0.098855
-0.264981 -0.003230
0.047598 0.128251
-0.007908 -0.183908
-0.052473 0.069042
0.174070 -0.171547
-0.347839 -0.048837
0.078213 0.261675
-0.140248 -0.110089
0.027720 0.235459
-0.029878 -0.222102
0.145130 0.057523
0.444749 0.057602
0.119305 0.039768
-0.006253 0.100135
0.077357 0.128928
-0.318107 0.074728
-0.069153 0.238645
-0.128727 0.016059
-0.102322 -0.077780
-0.306256 -0.218895
-0.010878 -0.167780
0.058429 0.159512
0.270899 -0.252813
-0.253201 -0.020102
-0.144226 0.122101
-0.130116 -0.093570
-0.027883 -0.078733
-0.049904 -0.354672
-0.126487 -0.127715
0.019871 -0.079089
0.053204 0.205908
0.137959 0.014542
0.160555 0.026562
-0.060655 0.186576
-0.067903 0.110394
0.086532 0.150620
0.185369 -0.335264
-0.146088 -0.130280
0.120563 -0.013603
0.126614 -0.170700
-0.087208 0.000505
0.062213 -0.098191
-0.272125 0.170507
-0.042874 0.361836
0.015628 0.314538
-0.082588 0.125154
-0.001100 0.139666
0.205261 0.096505
0.272315 0.193245
0.280959 0.023825
0.252895 -0.070331
-0.255427 0.098541
-0.275169 0.199369
-0.178820 -0.190623
-0.050986 0.079406
-0.126357 0.094241
0.144729 -0.182921
0.222977 -0.052754
0.252717 -0.115595
-0.322727 -0.090938
0.060875 -0.036715
-0.031690 -0.184035
-0.055125 -0.271108
-0.378590 -0.096425
-0.221223 0.097314
-0.038623 0.328108
0.123153 0.100907
-0.435301 -0.105961
-0.044846 -0.112064
-0.120902 -0.132963
-0.011781 0.230889
0.118618 -0.124234
-0.028588 -0.350342
-0.106900 0.246457
0.175044 -0.334441
-0.048602 -0.327497
0.231485 -0.168129
0.010995 0.012927
0.173072 0.234147
0.216336 0.503495
-0.038228 0.076104
-0.184652 0.106780
0.254989 0.192105
-0.048337 -0.173346
-0.077824 0.087753
0.277698 -0.177629
-0.094656 -0.144612
-0.184458 0.310697
0.088709 -0.424761
-0.083846 0.204607
-0.095855 0.170821
0.166521 0.316122
0.036362 -0.302240
-0.073099 -0.072110
-0.197378 0.016356
0.201007 0.205630
-0.091488 -0.062908
0.005228 -0.267265
-0.047963 -0.137595
-0.156844 -0.450259
-0.192492 0.019569
-0.369555 -0.024661
0.106133 -0.071888
-0.099751 0.226698
-0.515360 -0.296150
-0.020100 0.344801
-0.029889 -0.018764
0.046718 0.019317
-0.203102 -0.278239
0.113892 -0.095680
-0.702332 -0.048021
0.008499 0.575118
-0.125722 0.250164
-0.422984 0.368582
-0.132069 0.431169
0.276997 0.365237
0.698737 0.141306
-0.069181 0.110444
0.082291 -0.385569
0.446254 0.039995
-0.056242 -0.219448
0.095577 -0.296037
-0.334096 -0.176344
-0.073727 0.151739
-0.118046 0.179647
-0.039811 0.181626
0.018879 -0.171241
-0.201819 -0.045468
0.104461 0.126230
-0.083954 -0.120157
-0.154152 -0.278327
0.067033 -0.186683
-0.173907 0.208407
0.079437 0.600865
-0.537173 -0.166305
0.012592 0.228295
-0.067081 0.413123
0.106193 -0.013240
0.131485 0.253526
0.159808 -0.385373
-0.153257 0.021406
-0.120543 0.236869
0.305560 -0.590195
-0.454119 -0.018361
0.025318 0.124596
0.010033 -0.021646
-0.039019 0.259957
0.234313 0.194481
-0.004523 0.042677
0.190890 0.416896
-0.095033 0.219799
0.064543 -0.322640
0.031197 -0.106000
0.174682 -0.778345
-0.137120 0.297934
-0.168804 0.207325
0.229588 -0.003381
0.085585 0.432397
-0.180151 0.084718
-0.562431 0.548341
-0.004881 0.450737
0.296595 0.410129
0.097846 -0.231653
-0.306372 0.012024
-0.280111 -0.045561
0.265740 0.456003
0.058562 0.167581
-0.137102 0.013977
-0.124551 0.087043
-0.127020 -0.307553
-0.055770 -0.105629
-0.088879 0.176780
0.290036 -0.448881
-0.005293 -0.087202
0.523236 0.013023
-0.071611 -0.131060
-0.305848 0.160874
0.210705 0.127182
-0.059335 -0.107266
0.330858 0.327614
-0.401705 -0.706507
-0.578818 -0.082049
0.475122 0.445459
0.001832 0.574948
0.259218 0.127818
-0.062712 -0.027501
0.044912 0.077530
-0.385761 0.165331
0.024600 -0.527447
-0.265166 0.043476
0.024713 -0.073948
-0.011826 0.405370
-0.252478 -0.141010
0.274867 0.152619
0.241812 -0.143983
0.335315 0.228624
0.580719 0.646745
0.323157 0.129011
0.042038 0.068826
-0.169873 0.181187
-0.174660 0.440881
-0.100606 -0.192675
0.297450 -0.159674
0.117695 -0.164965
-0.141691 0.214589
-0.163610 -0.185468
-0.106883 -0.002082
0.417773 0.041221
-0.285882 -0.583054
-0.164166 0.675290
0.846707 0.329076
0.010476 -0.125595
0.336727 -0.664813
-0.557341 -0.098512
0.058845 -0.002936
0.570699 0.045611
-0.187370 0.272628
-0.098214 0.922421
-0.267522 -0.220949
0.043205 -0.065925
0.300263 0.433292
-0.002684 -0.569359
-0.243683 0.418017
-0.051576 -0.169136
-0.734633 -0.077314
0.299554 -0.426986
-0.323920 -0.236741
-0.565566 -0.134051
0.507988 0.360709
-0.017117 0.353676
-0.100518 -0.300515
0.038914 0.208965
-0.063578 -0.085443
0.031372 0.756230
0.048361 -0.249522
-0.466468 -0.238361
0.504799 -0.504482
0.296270 0.031421
-0.158769 -0.425766
0.376657 0.128649
-0.102166 -0.339446
-0.036888 0.079093
0.294489 0.672046
-0.138273 -0.527998
0.622147 0.219747
0.062233 0.210058
-0.101158 0.612331
0.433848 -0.323141
-0.190288 -0.293402
0.021317 0.023962
0.309521 0.286682
-0.332959 -0.140767
0.582890 -0.019995
0.664255 0.435611
-0.970121 0.245905
-0.260495 0.315606
0.874178 0.182371
-0.105958 -0.230438
-0.130572 0.202632
-0.550460 0.216017
0.468727 -0.557160
-0.009174 -0.566445
-0.711618 -0.714508
-0.244409 0.679197
0.772447 0.253058
0.062471 -0.029127
-0.174377 0.590778
0.075650 -1.022157
-0.328616 0.186929
0.539001 0.099904
0.319268 0.044676
-0.784403 -0.327832
-1.263945 0.529961
-0.763707 -0.380297
0.674499 -0.148510
-0.134122 -0.357454
-0.779417 -0.727048
0.787750 0.801337
0.566346 0.190131
0.024823 0.189316
-0.390841 -0.888906
-0.471764 -1.026207
-0.381776 0.981856
0.128179 -0.296974
-0.205732 -0.412962
-0.042546 0.007056
-0.342813 -0.374225
0.105907 1.015809
0.334627 0.363622
-0.424692 -0.619599
0.244622 0.939464
1.073087 1.140104
-0.248912 -0.362956
0.775986 -0.891971
-0.783508 -0.174304
-1.048506 0.264383
-0.151302 1.252802
-0.915232 -1.503197
0.038150 0.626629
0.584644 0.977554
-0.323715 0.327705
0.342077 0.585832
1.033974 -1.081714
-0.960857 0.389822
-0.081757 0.059686
-0.173058 -0.339296
-0.110873 -1.121879
-0.324748 -0.795523
-2.159105 0.359103
-0.256488 1.906111
2.342165 0.358069
-0.079510 -0.129891
0.805166 1.805785
-0.306674 0.174033
0.735073 0.333114
0.709850 0.240400
-1.238671 -0.209525
-2.577795 0.556674
-0.572871 -0.844028
-0.495200 -0.551494
0.186482 1.046755
1.236795 -0.882097
-1.918249 2.041905
3.170533 2.163004
1.918347 0.210362
-0.525995 -0.322074
-0.139564 -0.905557
-0.377233 0.733444
1.061353 -0.176536
-1.535230 -0.967371
-1.924364 -0.721231
-0.819180 2.417965
1.746581 -1.233664
0.838432 2.057170
0.951970 0.256287
1.512289 -1.702101
1.121797 3.167373
4.067715 0.566503
-0.078574 -1.427909
-2.275886 -4.234451
-0.262684 0.138443
-1.607342 0.856117
0.810909 0.309276
-2.763640 -3.693420
-1.015627 0.710698
2.917674 5.276414
1.037537 -1.972057
3.535381 0.480426
1.614305 -2.737002
-0.564009 -0.355987
-4.804578 1.809744
2.942805 -7.746184
-6.341633 -1.792906
-2.548848 2.846284
-3.562209 2.060797
-1.940816 2.699428
7.614702 -4.102892
-3.757146 2.912479
8.862453 2.648610
2.956181 1.868832
3.888012 -5.783190
4.526229 2.792661
-10.082207 -7.428927
-9.322428 2.476491
1.593112 1.759754
-4.183220 -5.969964
-16.438353 12.380067
0.380523 -0.432828
12.314775 15.594140
27.630202 2.283075
11.752204 -15.945230
-19.707561 7.521843
29.393279 6.598791
-5.316790 -7.376290
-20.733634 -8.248908
-6.786655 -8.293039
-29.644292 -13.350203
19.993822 37.974556
32.416315 -13.604822
0.450181 -26.387704
51.220765 62.586916
91.352974 -13.940739
137.136764 122.938527
177.529444 -284.653146
-308.029537 -222.148690
-82.281592 151.458477
-43.794158 -223.504570
-611.934749 80.569803
-98.503862 -1604.294603
1349.686967 32.228299
