3628.652036 3716.876141
701.440751 986.368004
-321.934330 548.031387
-690.982885 -732.283770
196.753009 -1186.008676
265.563434 -143.188694
267.242837 -53.384668
-87.655314 -150.744007
-140.603303 -227.091255
-19.987123 -52.120457
-199.127363 -66.292112
5.320515 -197.727108
-54.609652 34.119549
-101.061307 13.531020
143.078261 -64.560748
118.453025 -170.234770
2.604932 -122.424341
-17.031949 -92.172492
11.929222 -120.540947
-57.534211 -48.477941
51.639233 -7.633188
-6.443287 -96.245258
-15.261508 -13.916494
42.840968 -35.856074
13.848078 -29.836141
5.600150 -77.026099
-7.239576 -23.980835
-1.698752 -98.695457
-28.516776 -29.027266
30.658684 -45.367845
31.527725 -46.607832
-11.117342 -61.720492
18.204975 -20.775555
17.221889 -69.264745
-9.071381 -43.154906
-3.735844 -41.333512
15.753028 7.020555
-19.827780 -51.388635
25.271333 -13.293256
-26.632294 -54.546636
-1.173272 -20.177879
6.780906 -39.906756
8.817912 -57.611936
-6.076240 -19.185878
-19.899697 -26.743076
-34.694063 -32.928201
-6.371865 -13.359217
-20.495404 -40.187750
-28.263165 -28.808922
-41.003582 -13.995769
-25.664606 -8.227325
-22.469252 -9.768902
-3.693064 -8.451595
-1.255013 -18.976228
-9.619564 -7.164714
-6.136961 -4.789799
-9.420365 3.151125
-0.233106 -8.524444
-14.140371 1.107648
5.442192 -10.516785
2.164743 -16.839933
-9.556224 -9.546032
-0.359302 -4.470479
-12.452863 -9.374806
11.447333 -6.946579
-1.163624 -14.863254
-14.183125 -11.220137
-17.101929 -11.768418
-16.457850 -1.022352
-6.911586 -14.461239
-13.986212 -0.289170
-1.713425 -2.008489
-14.280814 -21.895585
-20.881271 6.236219
-4.251732 8.526636
-3.728447 -8.528395
-0.507839 3.496209
-10.166631 -1.291139
0.272353 2.266671
3.257080 9.404598
-0.670157 -4.715647
19.005663 -7.598225
-17.626495 -11.385062
-8.126627 2.337581
3.821764 4.446337
-12.873047 -1.177735
3.035897 -2.206297
-7.957648 -8.212284
-2.489372 5.275274
9.123301 -7.053885
-0.835616 -0.657643
2.084274 -5.057467
4.174219 8.091352
1.780697 -2.436977
-6.969098 3.512951
-4.670593 6.549533
0.506335 11.288897
0.692097 9.001725
9.021863 6.469218
8.574632 -9.961252
3.889655 -3.359320
6.526596 -9.678304
3.262698 -4.852779
-6.507458 -1.378974
13.363701 8.377042
3.354984 -1.478393
-0.527049 -2.289829
7.838284 5.620354
-0.299264 -1.736203
12.567466 6.576153
9.298063 -0.716537
1.133815 -7.051645
6.116510 6.124681
7.890489 2.480811
14.579643 -2.772550
7.195872 -3.753607
11.891401 -0.220451
8.742967 -10.312965
5.867370 -0.403877
7.352780 -4.923014
9.687583 0.050596
8.738953 -4.738113
6.978571 -3.286040
8.670296 -6.223482
0.814052 -8.599368
0.754617 2.262686
12.006113 -4.192762
1.023786 -3.257833
11.309654 -2.781592
4.041850 -6.923628
6.119384 3.653937
19.389895 -0.772398
8.208319 -7.221187
13.066274 -2.314184
14.907797 -5.422119
11.261563 -18.604830
7.617425 -5.603483
4.748288 -12.060801
12.065389 -8.481345
2.312131 -11.136332
7.211671 -14.368032
2.653279 -3.190672
8.343339 -11.353826
8.332400 -7.098172
4.503238 -10.903089
2.816301 -10.118217
2.168334 -3.723326
6.377830 -10.464705
7.320174 -7.022387
7.857412 -5.725695
11.455163 -16.093398
1.156193 -8.142445
8.538147 -14.515193
3.795475 -14.238500
0.943198 -9.676771
2.516235 -15.755149
0.705211 -8.980675
-5.031162 -13.902196
4.340381 -5.184865
-0.486860 -10.669983
2.905430 -13.797675
-2.620218 -7.222111
1.528724 -11.482254
0.575929 -9.677340
-2.220931 -9.793061
1.667788 -9.136917
-2.194280 -9.106840
-0.207817 -10.191136
-1.244403 -6.971337
-0.143330 -9.666717
2.948765 -3.966799
0.177118 -12.366260
0.757546 -3.535792
2.451739 -10.888826
0.498075 -12.009326
-5.206038 -8.935103
-0.662135 -7.141196
-4.081601 -9.426979
-4.602608 -6.917286
-5.112517 -7.495000
-1.202873 -4.161996
-4.071914 -8.543257
-0.424706 -1.890390
-0.358079 -8.709677
-0.831313 -5.971761
-2.125257 -4.738780
-0.233843 -7.314259
-0.058492 -5.020368
-0.955762 -5.297825
1.099908 -7.462455
-1.281838 -3.863218
1.703494 -9.539787
-1.146633 -8.589319
-7.056414 -7.459049
-0.154892 -4.605918
-3.493556 -10.041454
-4.535482 -5.449444
-0.629576 -8.238867
-3.940636 -5.209972
-2.399791 -8.041452
-3.856785 -3.057787
-2.138507 -6.602535
-1.914586 -4.993444
-4.197513 -3.223037
0.262818 -4.789552
-3.826223 -4.932370
-1.948980 -4.578949
-2.591388 -6.958993
-3.998637 -4.708023
-3.041342 -8.369963
-5.484671 -2.979974
-4.583656 -5.831673
-4.105432 -2.999069
-4.634165 -5.081634
-6.471034 -4.004750
-1.836517 0.325848
-1.081229 -4.847129
-4.599389 -4.421227
-1.844248 -2.922691
-3.269158 -6.477675
-3.835637 -2.251559
-4.761461 -5.515491
-4.855160 -0.629000
-1.972540 -1.953253
-3.947598 -1.863739
-1.093467 -1.506846
-3.535952 -3.543071
-3.969437 -0.156256
-1.569683 -1.925437
-1.996488 -4.872427
-5.207017 -1.738862
-1.590768 -1.773441
-3.983506 -3.009725
-3.966609 -2.344865
-2.211705 -1.064194
-6.047260 -4.326762
-2.766758 1.998070
-4.441925 -2.843674
-5.165342 1.755020
-3.167566 3.880316
-2.032244 0.821353
1.324803 1.890844
-1.378120 -0.727793
-0.662004 -1.089683
-0.677548 1.974509
-3.262764 -3.377640
0.507581 3.735213
-2.714923 -1.200520
1.849949 1.847564
-0.835152 -0.490209
-1.062237 -1.330249
2.263934 1.687101
-1.452833 -2.969423
0.444882 -1.429459
-0.974285 -0.106497
-0.632213 -2.960781
-1.109847 0.959195
-2.329444 -0.346079
1.723783 1.053424
-1.216017 -0.616154
-0.195719 0.929023
1.488279 -0.374525
-1.483660 0.116912
1.669704 0.543182
-0.086309 1.600557
2.198364 -1.527371
1.417149 1.481403
2.691300 -2.077898
1.965008 -0.013590
1.737052 -3.129907
2.057328 -2.681176
-2.027497 -3.294100
0.893240 -0.166803
0.077845 -2.778517
-0.495327 -0.497283
0.121708 0.881573
2.232372 -0.119733
2.424214 -1.368861
0.839141 0.268372
4.006298 -1.082407
2.950088 -3.796630
0.232299 -3.392784
1.750141 -3.002180
-0.374051 -3.507894
-0.180917 -2.014014
0.562261 -1.267545
0.211845 -1.978805
1.140821 -2.487724
-1.084997 -0.804623
1.985092 -3.180772
0.581346 0.843981
1.955699 -4.364083
0.889592 -1.829291
0.778031 -2.480004
2.867555 -5.032543
-2.284221 -2.067252
0.595678 -1.493560
1.640312 -0.223922
1.562528 -2.801368
1.014557 -2.331830
1.546728 -1.002185
2.109455 -4.024093
1.175343 -1.350965
3.380952 -3.055106
1.159288 -4.423626
2.303854 -4.328424
0.694351 -3.711644
1.250963 -5.438749
-0.088768 -2.836316
0.236496 -4.611622
-0.508908 -5.452303
-3.992726 -4.207455
-1.214655 -2.051736
-2.250303 -2.137079
0.477966 1.140995
2.868859 -4.110203
-1.275545 -4.028862
-0.481015 -1.959152
1.951941 -3.210302
-1.982862 -3.713249
-0.088411 -3.118517
0.842471 -2.448045
-0.656699 -4.964222
-1.199653 -2.161959
-0.215617 -2.109907
1.102813 -3.231235
0.104594 -1.830485
-1.082600 -6.971490
-2.357274 -1.671543
-1.910740 -4.472379
-1.968227 -0.638813
-0.600894 -1.696922
-1.438711 -1.382223
-0.175963 -0.803179
-0.511781 -3.355461
-2.050755 -0.820944
3.182206 -0.751389
-2.006209 -5.403764
-0.291623 -0.318559
0.523868 -4.227077
-2.657537 -3.694822
-1.444263 -0.945239
-0.212181 -1.332855
0.179562 -3.230291
-1.430725 -2.304550
-1.430038 -3.181982
-1.842853 -1.486310
-3.280852 -0.754664
-0.091274 -0.625229
-0.338512 -1.045896
-0.427820 -0.683615
0.664485 -2.172372
-0.893857 -0.699826
0.212212 -2.368814
1.355239 -0.086806
0.028063 -4.267665
-0.637657 -0.094161
0.235043 -1.767025
0.432890 -3.213631
-1.115965 -0.840334
2.259322 -3.020375
0.098884 -3.112609
-0.656641 -2.130970
0.301487 -2.340441
-1.385303 -2.844414
-0.511573 -2.035509
-0.407862 -2.259517
-0.139582 -3.909051
-2.001436 -0.563482
0.408296 -2.625891
-0.645366 -2.183335
-0.002420 -2.518156
-0.830012 -2.189393
-1.258545 -1.330307
0.158989 -1.387895
0.669957 -1.413699
0.554954 -2.900773
0.568814 -3.227001
0.217263 -1.603602
0.001566 -6.401522
-2.922842 -1.601369
-0.137032 -3.040441
-1.441212 -3.454445
-1.691648 -1.284426
-0.579419 -3.719810
-2.090634 -1.211572
-1.522510 -1.273245
1.425542 -2.735766
-1.685799 -2.556838
-0.966975 -3.689485
-0.684090 -1.447467
-2.658705 -4.150437
-1.219750 -0.650789
-1.595313 -1.842493
-1.176527 -3.123812
-1.140239 0.104236
-0.897600 -3.566130
-1.046730 -1.102209
-2.092236 -0.170684
2.198345 -2.380436
-1.270809 -2.830039
-1.908837 -3.528501
-1.870725 -0.688036
-2.603951 -1.833155
-0.538291 0.484839
-0.484896 -1.637262
-1.907556 -1.625028
-1.112978 -0.014504
0.048459 -1.160562
-0.020199 -1.424106
-0.700594 -0.202227
1.608326 -2.802589
-1.051757 -2.898816
-1.141650 -1.973519
-0.436085 -1.139057
-0.480725 -1.590141
0.512113 -1.557741
-0.537107 -3.203057
-0.806600 -2.122540
-1.694277 -1.719335
-1.549217 -0.856152
0.128764 -1.848232
-1.996179 -0.457316
1.547686 -1.785776
-1.036736 -0.879933
-0.522896 -2.460388
1.083718 -1.355356
-1.772916 -3.592175
-0.449946 -1.530414
-1.513471 -3.351121
-3.899144 -2.039128
-1.195100 0.700704
-0.034965 0.263032
1.255002 -2.229590
-0.157636 -1.148746
0.922323 -3.910322
-0.478376 -2.374938
-0.444658 -2.712274
-0.314702 -2.778190
-0.711645 -2.318569
-2.652790 -3.421499
-1.163235 -2.235907
-2.534012 -1.175886
-0.733309 -2.367333
-1.450449 -0.814046
-0.841637 -3.936301
-2.270824 -1.261998
-2.750380 -2.472456
-2.609361 -0.163216
-1.332184 0.131043
-0.061387 -0.803959
-0.925196 -2.118426
-1.843758 -0.893445
-0.455324 -0.697654
-0.586304 -1.966120
-2.398539 -1.263409
0.075726 -2.810200
-2.404390 -3.245760
-4.366940 -1.384230
-1.065916 0.525795
-3.346552 -0.877715
0.608949 -0.483173
-2.517492 -0.802967
-0.579791 -1.800801
-2.402183 -0.557039
-1.680680 -1.703450
-0.665806 0.745516
-0.535694 -1.825909
-0.584092 -0.873232
-2.182381 -2.241146
-1.819595 -0.458270
-1.218206 -0.690808
-1.204263 -1.724638
-1.652740 -0.544152
-1.735599 -1.055581
-1.683737 -1.152369
-2.805484 -0.060999
-0.467130 -0.103821
-1.277977 -0.883863
-1.983270 -0.805083
-1.878483 -0.065314
-1.358969 0.007477
-1.483440 0.271029
-0.799154 0.560089
-1.265234 1.096939
0.955907 -0.661507
-1.758666 -0.076804
0.116571 -0.599988
-0.673085 1.752705
0.192274 -1.073840
0.611654 -0.153307
-2.146951 -0.509370
0.569854 -0.416980
-0.799500 0.357004
0.489332 -1.090980
0.964877 -0.365347
-1.023205 -1.864124
-0.652341 -1.748147
-2.609559 0.984474
-0.077572 -1.476038
-1.554116 1.215319
-0.693025 0.743266
0.693584 -0.333852
-1.691270 0.840700
-0.185257 1.145984
1.358594 0.342296
0.416615 0.621461
2.329301 -1.560732
-0.745303 -0.345479
0.435814 -1.080602
1.036600 -0.026029
-0.694735 -1.966697
0.433653 0.702314
0.084979 -0.794863
0.437592 -0.445967
-0.067799 0.114609
0.928219 -0.079769
1.692476 0.382872
1.225469 -1.692179
1.392013 -0.878859
0.238236 -1.457733
0.635244 -0.644387
-0.564087 1.157750
3.560306 -1.523943
-0.208829 -1.286774
1.548976 -0.698970
1.615174 -0.569284
0.941300 -1.671953
1.989434 -0.910888
1.994636 -3.137730
-0.610592 -2.136319
2.082931 -1.888068
-1.111233 -2.267873
1.220282 -1.085433
1.700242 -0.966295
1.239619 -3.032979
0.623418 -2.100472
-0.028638 -2.050003
0.224008 -0.693672
2.126062 -1.555220
0.516202 -1.678888
2.984920 -2.000721
0.391087 -2.661302
2.385463 -2.829067
1.253368 -3.239764
0.589450 -4.169162
0.957750 -2.756905
-0.040777 -4.724043
-0.972740 -3.247904
-0.317384 -2.410810
-0.115097 -2.272281
0.556893 -2.376883
0.213995 -2.832571
0.383254 -4.284933
-0.903696 -3.521651
-0.179967 -2.620257
-0.703790 -3.435678
-0.867111 -3.430642
-1.767338 -2.444316
0.183684 -2.636417
-1.874128 -1.986229
-0.120314 -2.552710
-0.280775 -2.118837
-0.677890 -3.855453
-1.194563 -2.030873
-1.257866 -3.296922
-1.646798 -2.292154
-0.392783 -1.729030
-0.069685 -2.474460
-0.514337 -3.746001
-1.909924 -2.556527
-0.532797 -3.655461
-2.002481 -3.346006
-2.085581 -2.576957
-0.811944 -2.957156
-3.050895 -3.277578
-2.248898 -1.981008
-1.131208 -1.997477
-2.124559 -0.990590
0.380269 -2.053324
-1.348852 -3.382092
-1.349655 -2.919773
-1.891271 -2.666108
-1.886753 -2.357028
-1.857882 -2.342222
-2.073673 -2.640117
-1.836863 -1.901352
-2.309401 -2.617936
-1.594837 -1.087096
-1.594295 -2.919082
-2.194750 -1.276091
-1.112689 -1.392005
-0.952876 -3.123289
-2.732152 -2.191772
-2.762256 -1.131528
-0.655614 -1.493032
-2.563675 -1.946316
-1.247935 -1.797936
-2.165867 -1.105171
-2.126598 -2.286600
-1.632087 0.004000
-0.901874 -1.800963
-1.967631 -1.603053
-1.221196 -2.679170
-1.988282 -2.568472
-2.429168 -2.879966
-2.842120 -1.487008
-1.735095 -2.363764
-3.009457 -1.000378
-2.202693 -1.288142
-1.857582 -2.200252
-4.044912 -1.285102
-1.634917 0.042269
-1.010582 -2.136476
-3.659106 -2.372388
-2.106178 0.000129
-2.710115 -2.295915
-3.182666 -0.699862
-3.633763 0.123526
-1.387601 -0.822798
-3.538016 0.170996
-0.868967 -1.139279
-3.584026 0.161062
-2.246186 -0.593990
-1.960448 0.592441
-2.041942 -1.380159
-1.463074 -0.523303
-3.032029 -0.818142
-2.113487 -1.339189
-2.480956 -0.791645
-4.158545 -0.244448
-1.646304 -0.123217
-4.818983 -0.337606
-2.330247 1.204475
-1.622838 0.655546
-3.464615 -0.453368
-1.537721 2.538070
-1.016512 0.719865
-2.173972 -0.554818
-1.447865 1.853057
-1.968624 -0.418864
-0.746533 0.734187
-2.446055 0.342119
-0.970879 -0.227884
-2.066794 1.069465
-1.090923 -0.293180
-1.642356 0.751572
-2.668879 0.380323
-1.554843 1.663869
-1.176212 1.198373
-1.865312 1.122552
0.148596 2.629322
-0.083362 -0.527574
-0.899209 1.017631
-0.605267 1.338357
-0.459867 0.081353
-1.050727 0.403522
-0.484994 1.243014
0.150523 1.155808
-0.248037 0.270415
-0.311088 0.675943
1.413784 0.043508
-0.117824 -0.770780
0.513020 -0.292422
-0.684125 -1.504917
-0.781233 -0.422819
-1.200625 0.644663
-1.003792 -0.518221
-0.897301 2.523213
0.384467 0.150119
0.394196 0.721117
-0.260202 0.448590
1.252070 0.414775
0.730437 0.931297
0.200359 -0.807461
0.714391 1.403983
0.748106 -0.734560
1.457759 -0.432649
0.085916 0.460223
2.204268 -1.632602
-0.272424 -0.658195
0.701350 -1.544777
-0.038534 -1.399903
-0.888433 -1.178617
-0.984010 -0.095906
0.384783 -0.927153
-0.633877 0.185812
1.150092 -0.305905
0.552158 -0.617487
0.566376 -1.628549
0.926448 -1.262707
0.221479 -1.827992
-0.734471 -1.643224
-0.101864 0.502258
0.486219 -1.604595
0.361695 -1.314276
-0.514719 0.263245
1.576416 -1.785444
0.180796 -0.879217
1.682067 -2.225066
0.104406 -2.091011
0.447456 -2.221350
-0.311267 -2.347760
-0.770490 -1.813966
-1.240095 -1.828090
-0.228015 -1.142028
-0.299937 -1.041163
0.130874 -1.839836
-0.527146 -0.271776
0.612091 -1.418666
-0.091283 -1.220312
0.919782 -1.551959
-0.123702 -2.785819
0.231972 -2.298133
-0.439977 -2.552589
0.343185 -2.456551
-1.417330 -2.873732
-0.921346 -1.783444
-0.600464 -2.172840
-0.366048 -3.138448
-1.855694 -1.458756
-1.117911 -2.266442
-1.784162 -1.165049
-1.443958 -1.061600
-1.172063 -2.250833
-2.475777 -0.939320
-0.512475 -1.075743
0.033981 -1.196039
-1.301852 -1.809323
-0.048617 -1.184312
-1.546702 -2.317241
-0.483638 -1.865433
-1.488358 -1.460944
-1.174794 -2.105410
-1.317401 -1.600952
-1.688060 -1.840715
-1.272929 -2.256218
-1.711163 -1.351473
-2.224336 -1.906046
-0.771103 -1.460319
-3.031186 -1.965491
-1.599315 -2.100955
-3.189672 0.030807
-1.287478 -1.631069
-0.772733 -0.211036
-1.642100 -2.130263
-1.140399 -1.649955
-2.749381 -0.735556
-1.117476 -1.862986
-2.315080 -0.465645
-2.315214 -0.582262
-0.025069 -0.332772
-2.884988 -1.438457
-1.296812 -0.290754
-1.369652 -0.144568
-0.912231 -0.991214
-1.083688 -0.652675
-1.506519 -1.316302
-1.884963 -0.922507
-1.456427 -1.016523
-1.995232 -0.304936
-0.149857 -0.237300
-1.356890 -0.563385
-0.941268 -1.605026
-1.667416 -0.676316
-1.570409 -1.150230
-1.424705 -0.065741
-1.372842 -0.610774
-1.341205 0.238845
-0.285878 -0.708971
-1.497169 -1.566846
-1.143848 0.324897
-0.978565 -1.485573
-1.014283 -1.114231
-2.523866 -1.042815
-0.869973 -1.155305
-3.033511 -0.627834
-1.707263 -1.085696
-2.578799 1.150317
-0.100205 -1.408483
-1.728606 -0.823799
-1.598410 -1.032401
-1.988977 -0.954907
-2.146600 0.598742
-1.251807 -0.695582
-1.446977 -0.122838
-1.452721 -0.520776
-0.538085 -0.878865
-1.713124 -0.243119
-1.200137 -0.934090
-1.435060 -0.787305
-0.725172 -0.700838
-2.231286 -1.518678
-1.294268 -0.158145
-2.488291 -1.643322
-1.819716 0.589567
-0.833875 0.063865
-0.795900 -1.929874
-2.966976 -1.242770
-1.985838 -0.740192
-2.641342 -0.757154
-2.363644 0.109033
-2.247598 0.116958
-1.670591 0.462206
-2.108287 1.094733
-0.647353 -0.004234
-1.823234 0.918382
-0.705372 0.531579
-0.035253 -0.934115
-2.091130 -0.451924
-1.528478 -0.594490
-1.722222 0.435775
-1.879918 -0.283132
-1.141808 0.734551
-1.513897 0.272315
-0.289942 -0.598222
-1.946686 0.162751
-0.291502 1.243561
-0.377708 -1.049898
-1.313216 -0.788118
-1.712359 -0.231352
-0.695958 -0.561327
-2.560657 -0.505080
-1.256350 1.099683
-0.750602 0.089255
-0.823767 0.108465
0.076598 -0.233586
-1.192948 -0.279711
-0.784934 0.983040
1.142436 -0.583080
-1.208668 -1.647259
-0.944220 -0.593096
-1.358008 -1.319290
-1.491896 -0.273820
-1.125618 -0.137268
-0.990580 0.069832
-0.835300 -0.530181
-0.969986 -0.199575
-2.029378 0.160786
0.127600 -0.710196
-2.374055 0.634737
-0.244451 -0.039694
0.333524 0.078315
-1.087857 -1.005038
-0.192998 0.453154
-0.196230 -0.014911
0.063891 -1.175827
0.338118 -0.505591
-1.344930 -2.870403
-1.183757 -0.513609
-1.958208 -0.960250
-1.171743 -1.507363
-2.329983 0.012801
-0.311836 -0.959040
-1.777231 -1.313578
-2.112648 -0.334992
-1.523008 0.157939
-1.336383 -0.462328
-1.890739 0.247912
-0.559114 0.381431
-1.924149 0.126890
-0.894780 0.314532
-1.185706 0.420163
0.448686 -0.147189
-0.652676 -1.044428
-1.110790 -0.607432
-1.148733 -0.946044
-2.089073 -0.806451
-1.594322 0.583313
-1.308949 -1.191904
-2.500327 0.036476
-0.170205 0.280445
-2.302407 -1.756927
-1.939174 1.439651
-0.728809 -0.389874
-0.680723 -0.647176
-2.211415 0.764999
-0.557690 -0.145779
-1.509920 0.612556
-1.258196 0.015425
-0.392076 0.706750
-1.059915 -0.052433
-1.158025 -1.159424
-1.617529 0.747984
-1.838215 -0.289482
-0.637883 1.340125
-1.076667 0.263951
0.049959 -0.900508
-2.067897 -0.223292
-0.743498 0.800751
-0.601548 -0.982689
-2.395917 0.382262
-0.352729 -0.492774
-1.430542 -0.257999
-2.425425 0.462780
-0.039929 1.036461
-1.680239 1.012863
0.383041 1.197286
0.038907 0.337949
-0.108154 -0.841907
-1.156527 0.325306
-1.020196 0.848500
0.755009 0.084047
-0.489056 -0.369872
0.718709 -1.138867
-1.628775 -0.911761
-1.366170 -0.192687
-0.747976 0.805516
-1.598620 -1.056965
-1.110007 0.780741
-1.705546 0.161455
-0.498429 0.715821
-2.360869 0.964798
0.352879 2.215652
0.918846 0.334919
0.490786 -0.205069
0.956797 -0.708706
-0.897587 -0.553299
-0.567394 0.724405
0.181647 -0.029619
-0.854687 -0.182051
0.347574 -0.320937
-0.780791 -0.117519
-0.056022 0.279255
0.316236 0.533273
0.304065 0.492430
1.110715 -1.431562
-0.354288 -0.233409
0.107369 -1.711816
-0.335378 -0.776285
-2.214845 -0.391779
0.773749 0.429138
-0.128697 -0.934216
-0.349439 -1.263647
-0.376834 1.110742
0.710356 -0.665644
0.098811 -0.719431
1.296348 -0.369631
-0.039254 -2.055804
-0.090176 -0.995177
-0.309738 -1.644861
-0.824449 -1.353437
-0.445932 -0.062268
0.142699 -1.444103
0.119978 -1.413103
-0.302361 -0.502239
-0.098660 -1.289013
-0.288959 -1.225603
-0.888441 -0.974349
0.901406 -1.372701
-1.570719 -2.594149
-0.302825 -0.916939
-0.668943 -0.838088
0.725832 -1.590265
-0.457762 -2.201912
-0.861581 -1.552808
-0.238048 -2.231374
-1.260720 -2.498711
-1.582249 -1.422405
-0.165204 -1.252754
-2.002822 -1.290640
-0.156971 -1.422772
-2.101294 -1.942407
-0.839302 -1.047142
0.141247 -1.960725
-1.946324 -2.549200
-1.573404 -2.090953
-2.228141 -1.776309
-2.505730 -2.268034
-2.625252 0.191616
-1.765735 -1.303544
-0.957943 -0.758413
-2.395688 -1.631161
-0.869477 0.190089
-1.826899 -1.612801
-0.872012 -1.279385
-1.785524 -0.255135
-0.841775 -2.226258
-1.698309 -1.710595
-2.334912 -0.930452
-1.100112 -0.973836
-1.444450 -0.549817
-1.420600 -2.593970
-2.629810 -1.437801
-3.347178 -1.331456
-2.267549 -0.772676
-3.458199 0.140148
-2.038105 -0.289303
-1.052307 0.047093
-2.020881 -1.307472
-2.997020 -1.388689
-2.014678 1.332175
-1.687618 -1.884060
-2.356964 0.863137
-2.589586 -1.181623
-1.654191 -0.146930
-2.639760 0.769801
-1.354257 -0.558593
-0.934773 0.734652
-1.311453 -1.140717
-1.091165 -1.025459
-2.331754 -0.125579
-2.212780 -1.451106
-2.308188 0.902705
-1.975185 -0.928416
-1.414622 0.209000
-2.486309 -0.794955
-1.969485 0.197776
-2.617635 0.426907
-0.901292 0.525010
-1.705448 -0.581199
-2.196402 -1.403431
-2.134798 0.597861
-1.692525 -0.903202
-2.670896 -0.315807
-2.023189 0.617783
-1.631779 -1.012590
-1.960538 -0.059750
-2.645210 -0.587188
-2.414215 0.058910
-2.327769 0.528015
-1.603212 0.156257
-2.344311 -0.089285
-3.326675 -0.049323
-2.936006 0.337988
-3.041799 1.063412
-2.479122 0.434962
-2.000560 0.957915
-3.256237 0.447427
-1.257273 1.829892
-2.889742 1.017767
-0.331328 1.848779
-1.532278 0.750277
-1.322848 1.006213
-0.433775 -0.314642
-2.647364 -0.976136
-2.878732 1.171884
-0.950557 0.339917
-2.929352 -0.224402
-1.881972 0.537855
-2.965043 0.347535
-2.631703 1.402720
-1.694159 1.755749
-1.648361 1.987767
-1.322052 0.913722
-1.606582 2.128615
-1.334891 0.387154
-1.390670 2.110740
-1.639510 1.926128
-0.288895 1.762428
-1.328887 1.726436
-0.135140 1.281315
-1.158340 1.413533
-0.455615 1.671225
-1.002955 1.097566
0.306293 1.588259
-0.334832 -0.309420
-0.790241 1.122069
-0.881332 0.964115
-1.040943 0.900142
-0.416103 2.213898
-0.144007 1.429383
-0.030360 0.932855
-0.289029 2.098609
-0.066483 -0.012101
-0.536198 1.932909
-0.162492 0.329028
0.879971 1.666065
-0.729300 0.102382
0.257066 1.769293
0.058495 0.744618
1.020769 0.953131
0.111727 0.255046
1.074684 0.222509
0.322610 -0.669326
-1.161500 -0.505346
-0.108403 0.557615
-0.448351 0.035995
0.138119 1.450029
0.756655 0.695658
0.434410 -0.204332
0.668232 1.866775
1.220441 -0.981390
0.955882 0.648475
0.808948 -0.983598
0.607489 -0.526306
0.468328 -0.136028
0.276275 0.332425
1.126657 -0.269424
0.657589 -0.331496
0.422695 -0.343232
1.789332 -0.667341
-0.796923 -2.471284
0.128854 -0.716129
-0.178988 -0.992168
0.002724 -1.418355
-0.425782 -0.156323
-0.065192 -0.843721
0.554065 0.000807
-0.526531 -0.500658
0.392051 -1.747675
-1.262236 -0.517336
-0.067740 -0.632319
0.302471 -0.316372
-0.586338 -1.233146
-0.052627 -0.246347
0.565856 -0.454847
0.911141 -1.104804
-0.315714 -1.259115
1.552889 -1.134000
-0.638979 -3.191341
-0.517805 -1.053838
-0.196055 -2.151474
-1.381155 -2.301378
-1.593777 -0.983919
-0.217481 -0.494026
-0.355767 -2.218972
-0.681185 -1.445990
-1.437564 -1.033559
0.191492 -1.806088
-1.833086 -1.794738
-0.904533 -1.890635
-1.427929 -2.146325
-1.554505 -0.523388
0.855843 -3.279333
-3.085358 -1.657943
-0.718799 -1.228501
-0.669635 -1.204671
-2.615247 -2.784547
-0.562389 -0.813594
-2.659192 -2.602969
-1.336301 -2.137332
-2.699213 -0.771115
-1.676854 -1.462639
-1.663574 -1.970290
-2.459841 -1.015033
-1.141684 -1.060676
-1.562003 -1.326364
-2.267456 -1.960429
-1.840677 -0.039094
-1.120223 -1.752167
-2.359348 -1.926675
-2.264846 -1.320317
-2.703928 -1.377534
-3.318512 -0.694124
-1.498881 -0.581611
-3.840189 -2.061123
-2.471275 1.859658
-1.186068 -1.744082
-3.554635 -0.016305
-2.292122 -0.376726
-1.727138 -0.559625
-2.709407 -1.367423
-2.408186 -0.309846
-2.401944 -1.270056
-3.249032 -1.346852
-3.777200 0.661908
-2.717807 0.083288
-2.988366 0.138613
-2.999128 1.031521
-2.040916 0.303108
-2.300686 2.090130
-1.855841 -0.188521
-1.974420 1.366761
-1.768132 -0.655033
-1.260146 0.140101
-1.258756 -0.291524
-2.664664 -1.777558
-2.711895 1.308049
-1.492806 -0.937517
-3.100985 -0.465755
-2.709104 1.066831
-1.567548 -1.073434
-2.933214 0.304537
-2.774989 -0.497481
-2.648812 0.722904
-1.775562 0.395666
-3.087347 0.576537
-2.000524 1.225835
-1.547066 0.422458
-2.102282 0.546433
-0.894951 1.137729
-2.001659 -0.880187
-2.039086 0.904672
-2.531533 -0.915480
-2.717901 0.329999
-2.701480 0.952732
-1.722745 0.867486
-2.446287 0.855283
-1.136255 1.490902
-0.697439 -0.266527
-2.315812 -0.491904
-2.444016 0.069415
-1.243702 -0.975287
-3.788419 -0.261789
-3.382753 0.728617
-2.005632 2.066645
-2.135396 0.955044
-1.935401 1.567333
-1.455279 1.918247
-1.486765 -0.804293
-1.328687 1.753599
-1.007014 -1.526521
-2.278204 0.574953
-1.877122 0.294350
-2.054787 0.360917
-3.353247 0.291272
-1.896420 1.009931
-2.492671 1.366996
-1.681410 1.167390
-2.686498 0.759302
-2.575047 1.401047
-3.246616 0.895179
-2.779023 3.121450
-0.966082 1.606556
-1.181365 1.940266
-1.330923 1.178295
-0.223725 1.385280
-1.189642 1.264747
-1.937191 1.614482
-0.813794 1.245020
-1.291435 1.914983
-0.336880 0.960543
-1.176899 2.087875
-1.010443 -0.084364
-0.890297 3.064559
0.412998 -0.053048
0.110029 -0.010156
-3.190075 -0.465926
-0.903812 0.171711
-2.459048 0.857336
-2.421121 1.312706
0.003770 2.556232
-2.167073 1.275171
0.730945 2.123765
-0.897666 1.698009
-0.524148 1.055687
0.696863 3.067383
0.115334 -0.603579
0.268600 0.576604
-0.536688 -0.600927
-0.934453 -0.063137
-0.992853 0.521188
-1.069375 0.841147
0.709720 -0.426591
-1.703505 0.579295
-1.169208 0.308817
-0.498762 1.193152
-1.188884 0.206280
-0.296653 0.528797
-0.541308 1.132422
0.389017 -0.486279
-1.498377 -0.378548
-1.363752 0.363011
0.138919 -0.181456
-1.289202 0.175765
0.931768 -0.015024
-1.330920 -1.047231
-0.413272 -0.126173
-1.017727 0.160215
-1.124037 -1.131447
-1.309572 0.579867
-1.250737 -1.305299
-1.631017 0.382933
-2.197227 0.123712
-1.519378 1.041824
-1.217781 -0.420770
-1.834098 1.176984
-0.607180 -0.014565
-1.678543 0.483032
-1.560316 0.318861
-0.800541 1.945567
-1.208201 -0.317030
-0.965750 0.247842
-1.918273 0.607830
-0.612393 -0.110672
-1.304725 0.722053
-1.936385 -1.128808
-0.652071 0.050130
-1.828879 -0.382530
-1.571405 -1.206159
-2.325402 0.809547
-1.222164 -0.553134
-1.020529 0.426823
-1.831950 -0.948025
-2.565650 0.279172
-2.171380 1.149310
-1.246588 -0.017932
-2.623363 0.999897
-0.662953 1.975858
-1.677815 -0.899684
-1.885066 1.636824
-1.722535 0.383896
-1.213614 1.244819
-1.606117 0.795625
-2.244701 0.744203
-0.074299 0.724642
-1.917161 0.445627
-0.788408 0.901407
0.173011 1.728440
-0.661777 -2.083716
-1.149260 -0.026290
-3.208250 -1.513509
-2.504294 1.300686
-2.444492 0.790272
-2.318239 1.234970
-1.449993 1.963218
-0.186648 1.798137
-0.520188 -0.060735
-1.747878 0.818003
-0.276769 1.291463
-0.290237 -0.419196
-1.297358 -0.605517
-2.117950 0.435363
-1.938224 -0.013799
-2.688742 1.460147
-1.089197 1.330722
-1.237483 0.770788
-1.260085 0.309285
-1.786646 1.493303
-0.910400 0.624221
-1.213087 1.483026
-1.271756 -0.043311
-0.867877 2.676067
-0.256340 0.044670
-0.980037 1.113821
-1.001026 0.047421
-0.927220 0.933665
-0.609662 1.533688
-0.197673 -0.758615
-2.417771 -0.196548
-1.932049 3.313148
1.103606 0.451712
-2.484969 1.091285
1.405015 0.266873
-0.026533 -0.102501
-1.387012 -0.920795
0.205933 -0.206659
-1.716700 -0.806467
-1.223702 -0.555261
-1.137606 -0.002779
-2.150515 -0.003572
-0.719558 0.029471
-1.762494 1.436246
-0.817698 0.065277
-0.489097 1.357499
-1.218831 -1.315290
-1.293789 0.274622
-2.681282 0.372679
-0.468698 1.034453
0.128866 -0.213572
-1.845308 -1.023421
-0.740378 1.349692
-1.184017 -1.462483
-0.579278 -0.738288
-1.552461 0.479787
0.883811 -1.558642
-1.677850 -1.435051
-1.823793 -2.087728
-2.061148 -0.361613
-2.547057 -1.618603
-0.791147 0.795832
-1.735336 -2.205735
-2.435760 -0.841002
-3.040877 -0.572116
-2.490619 -0.769222
-2.761154 1.233530
-1.063669 -0.120775
-2.185456 -0.949951
-2.502938 -0.211224
-2.505944 -0.457586
-2.309327 0.367508
-1.883323 -0.682447
-2.294566 0.756526
-0.321524 -1.669001
-4.372941 -2.105485
-2.989985 0.743686
-3.852958 -0.754871
-3.703403 -0.047326
-3.875183 1.652248
-2.165271 -1.366573
-4.536122 2.599872
-3.793508 0.453718
-2.367261 2.649795
-3.019808 0.476672
-0.738916 0.870331
-2.507510 -0.482093
-3.965252 -0.303772
-2.810153 1.505526
-1.781052 0.332947
-1.888339 0.225358
-2.863611 0.787828
-2.238983 -1.028224
-4.391907 1.009113
-3.060908 -0.243519
-3.722151 2.048291
-3.316693 0.555962
-3.902503 2.699566
-2.937071 0.623822
-4.284985 2.286023
-2.762435 2.489237
-1.577036 1.378478
-2.535901 0.770128
-3.145665 2.488458
-2.047616 0.828188
-3.936577 2.665032
-1.776767 2.815440
-0.601506 1.623452
-2.748101 0.985461
-0.792799 2.561703
-1.290969 0.690385
-3.211510 1.108547
-1.697692 1.261539
-3.244563 1.470234
-1.513669 0.790176
-4.015983 1.837850
-1.605446 1.116009
-3.169852 2.546209
-1.881874 1.372527
-2.022981 0.539972
-5.038262 0.484438
-2.997740 4.110311
-2.163769 1.482051
-4.517171 3.506718
-0.987334 3.264112
-2.119487 2.767680
-2.031111 2.644190
-0.598554 2.602981
-1.285132 0.623770
-1.185948 0.931550
-1.762839 1.585180
-2.343134 0.596256
-3.402409 0.716696
-5.107781 3.326092
-1.328198 4.348139
-2.802231 2.261408
-2.050361 3.257556
-2.840222 2.730468
-2.946325 3.490224
-1.656162 5.367425
0.245805 1.827922
-2.487942 3.100766
0.077130 3.186241
-0.999973 0.968589
-3.111795 1.783138
-0.999128 4.443455
-1.654019 0.728091
-2.944632 2.021825
-3.202495 3.037075
-1.989918 2.127273
-2.804954 3.856498
-1.344056 5.859715
1.200773 2.939729
-1.802459 2.420627
-0.922495 3.065617
-2.250064 3.985346
0.281297 3.577526
-1.076769 4.928738
-1.305805 3.851923
0.395157 5.119773
-0.951572 3.580817
1.195706 4.271261
-0.126750 3.703667
2.416048 5.188637
1.760152 1.490705
-1.616521 0.927441
1.265161 3.423469
-0.362539 0.693752
0.338158 1.279229
-0.310993 3.733636
2.199332 -0.126034
-0.512688 2.723684
0.194389 2.490440
2.061117 2.943939
-0.020810 1.967452
-0.311735 1.822039
1.902196 2.036303
-0.508467 2.694708
1.761457 0.868990
0.239315 4.051656
2.670184 0.900734
2.199393 1.912103
0.810562 0.496956
1.934353 0.577227
0.828259 2.713752
1.448188 -1.287307
0.498759 1.751920
0.057026 1.118999
2.135699 -0.069396
-1.542930 1.206956
2.152750 1.469860
2.822311 1.417203
2.064159 -2.386101
0.516026 0.297822
1.100521 -1.092676
-0.624361 -0.282265
0.722135 1.198145
0.421833 -0.481564
1.346955 0.329539
0.483507 0.689020
1.666527 -1.558601
1.336314 1.303898
2.133386 -2.492627
0.503124 -0.983868
0.271179 -3.090780
-1.973857 -1.612681
-1.623076 -1.051564
-0.842274 -0.629462
-0.017230 1.391968
1.936451 -2.382932
-0.467722 -0.678265
-1.138114 -0.774284
2.624445 -1.454102
-2.104750 -1.739447
0.447439 -2.112039
-1.593628 0.095177
0.154925 -2.647217
-1.796168 -0.372388
-1.491938 -1.112626
-0.115824 -0.554338
-1.027516 -0.880214
0.139881 -3.306809
-2.035271 -2.996947
-2.836010 -1.142455
-0.788160 -2.457453
-2.383512 -2.810808
-1.149451 -1.524690
-1.797090 -4.162199
-4.121730 -2.459463
-3.321448 -2.085113
-3.163818 -2.831090
-5.298349 -0.232454
-1.424011 -0.777768
-3.931260 -1.049874
-2.484438 -2.349776
-4.931156 0.114051
-2.885553 -0.484710
-2.917425 -1.162859
-4.713809 -2.434561
-4.998118 0.153510
-5.327128 -0.960213
-4.590933 0.606510
-3.249956 -0.153782
-4.680608 -0.876927
-3.080428 0.579967
-2.476730 -0.879383
-3.709228 -2.789063
-6.108009 -1.993091
-5.094294 -0.481452
-5.947412 -1.064940
-4.745639 0.602214
-6.995479 1.136501
-5.061627 -0.460060
-8.034794 2.574618
-4.781818 1.466383
-6.075634 2.491108
-6.107320 3.629095
-3.529400 3.784368
-4.298496 1.373416
-4.756033 3.360472
-3.093241 -0.097891
-4.395935 1.890422
-3.317964 0.262088
-4.285372 -0.111170
-6.623408 0.269099
-8.269557 2.381174
-4.846398 3.020056
-7.910270 3.487579
-6.783291 6.073264
-3.850104 6.395622
-3.987124 4.079432
-4.163052 6.225074
-1.000619 4.529000
-4.327203 2.672161
-0.061508 3.594052
-5.104899 2.294660
-2.102610 2.718189
-4.443937 3.587962
-2.854430 2.147229
-3.322926 3.924151
-5.133531 2.219206
-1.680027 4.922284
-3.898910 1.429587
-4.252129 3.902842
-1.969723 5.364853
-4.454439 0.709790
-3.241127 6.345834
-5.059561 3.806631
-2.079980 4.152750
-6.056045 5.872631
-1.043055 6.601624
-2.816207 4.388584
-3.225001 6.689590
-0.888897 5.774078
-1.484636 3.529614
-3.090005 4.763456
0.901150 3.362532
-4.258389 4.625796
-0.110507 2.453648
-2.762172 3.682673
-1.614348 0.546131
-1.904827 3.859531
-1.201356 1.223975
-3.414182 0.333526
-8.392102 4.947919
-3.485524 6.133208
-3.565086 6.734640
-3.905005 5.685301
-0.968464 9.067656
-2.338322 4.466876
-0.093057 6.576623
-1.689683 5.999128
1.899160 1.135064
-4.520267 5.441066
0.579067 2.104369
-4.139955 5.250840
-3.863386 5.146994
-1.041278 7.181902
-1.507204 7.956228
2.283855 4.998713
-0.008468 4.629882
-2.586501 3.040703
0.020164 5.634685
-2.446183 5.725298
0.933881 3.070180
-6.803651 9.211762
2.376808 9.858447
1.665619 3.722764
-3.850212 7.585992
6.290216 9.718386
1.046629 1.412719
1.431673 5.433691
3.692279 3.364853
-1.122561 2.474631
3.124908 3.865210
2.272764 4.475666
1.962321 -0.450409
1.120036 3.191405
-0.751387 0.133302
-1.652050 3.342910
-0.705244 3.559845
-0.580619 6.186352
-0.412805 5.784242
2.645168 9.760262
5.615745 5.035050
1.390461 1.224027
4.040672 7.345924
3.331604 1.182410
4.786563 -1.613124
-4.136216 1.129856
3.730477 1.526429
1.661436 2.183900
1.485347 -1.283010
1.111721 3.695102
3.977375 -1.404297
0.612310 0.034114
4.430584 0.591777
-1.898953 -2.140265
0.443005 1.360641
-0.808797 1.595826
-2.135089 -3.241929
-2.070788 4.250696
-0.359161 -1.678334
-0.414994 -1.875442
-2.328166 5.269663
2.378589 -4.946466
-3.642636 -0.467043
-5.107654 -0.033453
5.030308 3.541845
-3.428384 -2.200207
-1.539830 1.022463
-2.586401 4.702609
2.530938 -2.604960
-4.236662 0.656315
2.351418 2.911810
-1.162037 -5.261584
-7.060823 -0.041590
-2.380744 4.386375
-4.666010 -2.795485
-3.478306 7.671786
1.988318 -0.919354
-4.367167 -3.073942
-3.602368 1.755869
-6.940896 -2.242015
-2.524179 5.223608
-3.255929 1.322184
2.012909 0.695468
-9.322026 -2.808377
-3.670664 1.268753
-5.860154 4.653813
-2.109451 0.344861
-3.493251 2.199245
-1.798936 1.816325
-2.695579 -7.640606
-10.803329 -0.652336
-9.136477 5.679579
0.841650 2.790792
-6.901437 4.045612
-5.214324 3.825963
-5.627647 1.388531
-9.532453 8.348494
-0.564664 3.672789
-4.331445 1.077984
-5.202083 7.445358
3.242870 0.416917
-10.701460 -1.051959
-4.799233 8.662517
-4.251306 0.833874
-3.164000 6.012549
-7.710845 4.584773
-3.766175 -1.062767
-12.604104 6.068372
-5.021876 0.623651
-3.917518 9.718378
-7.709078 -3.131273
-3.340401 8.673224
-1.161566 3.477179
-3.898102 0.526589
-5.813527 5.609664
-7.645499 -0.864154
-7.493601 1.649306
-15.611473 5.526283
-11.157750 7.149294
-12.565556 15.255873
-7.441553 13.143678
-0.510342 17.182224
-3.265862 12.950323
3.104744 3.514359
-2.618889 12.021463
1.659654 0.615019
3.733754 0.989786
-14.879370 -0.113286
-0.238464 -1.451637
-20.502354 10.051160
2.877833 8.051921
-8.904764 11.884253
-2.553192 13.903450
5.509267 8.204084
-12.048823 7.500922
-4.394218 10.732650
-3.131273 15.192559
-7.211766 0.504596
-4.034112 7.500584
-8.912140 8.715015
2.058826 4.084633
-10.996351 12.632810
18.546965 8.782087
2.846307 -8.206362
-0.784810 0.327092
-8.843047 -8.897608
-13.530296 7.415597
-10.952281 4.934399
1.305418 13.383042
-18.530159 4.729150
6.253381 2.948645
-25.207350 3.622837
-11.527949 8.620274
-5.567633 33.784767
-5.750358 7.116286
11.850299 17.279523
-17.375980 0.274715
2.747564 0.554270
-3.149638 18.930890
-9.850246 -10.549892
14.223580 13.372316
-18.137332 -5.841370
-2.635690 -1.907627
-11.902764 12.150595
-10.064811 -7.967480
-14.304595 9.250311
-9.136801 9.572418
-23.215399 -1.079845
-15.283897 4.203558
-8.314516 2.636557
-19.614165 17.198236
2.946843 5.435609
-9.340497 7.698896
-26.062064 6.507447
1.765791 25.197384
-8.884379 12.196054
-33.738890 8.751274
-16.828094 24.720980
9.633858 -10.232190
-43.330591 3.010277
-3.293848 -0.629091
-24.011746 30.895862
10.322045 -1.186816
-23.524500 13.444740
-19.982868 17.250053
-22.680825 -1.141560
-37.290414 18.656759
-29.702480 23.764016
-42.696245 44.832480
-20.578353 -2.172750
-29.356872 26.372658
-33.489438 24.459635
3.300332 25.292288
-18.348373 39.521766
-33.389648 46.888527
-3.436155 18.529339
-43.583823 15.175306
-51.837745 -13.280426
-32.991724 82.095471
-1.532129 14.301635
-21.369766 18.609963
-13.315220 -12.593996
-48.118478 65.544616
-46.864606 11.937217
-25.794380 44.925164
-7.056050 128.999628
-29.794531 88.473707
-4.034143 76.690370
-85.271162 91.754284
6.866592 133.609359
-11.259478 68.825766
16.769944 131.316000
-146.225901 12.943503
-103.787553 68.580537
-40.464084 230.295775
-102.310886 11.716204
-27.096098 -88.631594
38.630743 143.175898
157.513880 -22.353137
-362.642537 -36.162334
97.896682 265.153766
-304.777704 -410.923885
321.968475 1184.538844
