6856.187515 6967.865519
-3278.492379 2093.561284
611.899320 210.254207
-210.792899 -1235.204842
-301.076844 -997.898450
80.741194 -626.851739
-482.664307 -304.542772
-213.816552 -154.987544
-19.264316 46.676458
-35.899754 -17.602868
121.971689 -72.820442
53.650589 -148.707402
-16.734880 -236.654818
-60.252417 -209.405541
-143.955679 -157.308862
-115.525707 -110.560378
-33.748690 -52.611455
-33.512634 17.650612
-2.286463 -45.276393
16.459546 -108.907243
7.524815 -100.073065
-29.156390 -108.666517
-79.844218 -121.369140
-85.170633 -75.869128
-66.238807 -40.487166
-31.509162 -21.199149
6.692886 -10.837014
27.680782 -27.238992
-1.022949 -73.373812
-1.885678 -87.650600
-33.874890 -67.292401
-51.566751 -66.832785
-58.171997 -31.537919
-34.614438 -27.243085
9.671799 -3.646571
12.052880 -18.460669
28.221553 -33.766063
1.292425 -55.890783
-3.594667 -79.457917
-32.294318 -47.885528
-46.655042 -43.172202
-42.006911 -8.309385
-35.089509 -12.227257
10.137629 -12.807558
13.261898 -13.023290
20.038381 -30.850054
-4.041822 -36.527686
-18.670738 -54.139550
-19.427981 -35.609942
-34.198706 -22.130842
-23.114268 -12.072647
-5.601409 -9.468229
6.092769 -15.425469
8.261969 -31.080670
7.799067 -41.325369
-6.811702 -42.948486
-20.648678 -31.975642
-35.481353 -22.992067
-27.822605 -13.603753
-18.744574 -4.773019
-1.951963 -9.420452
6.958862 -10.375885
2.765673 -22.470947
-1.992604 -32.350784
-9.282633 -29.020113
-19.446197 -18.992931
-20.900790 -7.209709
-16.006871 -1.884482
-3.704121 -4.338701
7.111717 -8.998606
8.423414 -21.978147
5.607610 -29.315929
-4.409648 -30.479564
-12.566416 -25.420410
-18.834818 -13.365206
-14.504641 -7.321571
-5.749124 -1.980900
2.363902 -4.647972
5.993154 -16.251788
6.679707 -27.788843
-1.245602 -31.414031
-9.645246 -31.308085
-17.802744 -19.746597
-19.604061 -12.330672
-14.524357 -1.407412
-7.396323 -2.257649
3.328813 -6.011849
-0.260832 -14.578533
-0.969496 -23.390671
-7.019611 -22.453075
-12.553291 -17.348274
-14.741845 -8.659294
-10.589434 -1.620758
-1.244988 3.044029
6.203937 0.882467
7.537640 -8.746609
7.171673 -21.330698
0.847176 -26.129590
-6.821338 -25.575269
-11.803749 -17.364473
-14.257648 -10.716169
-6.629933 -3.239132
0.185841 -2.652057
6.285589 -5.929995
6.080446 -13.781559
1.214175 -22.145719
-6.697097 -26.067119
-11.135999 -22.287552
-15.123768 -13.344625
-12.249503 -6.277098
-5.061887 -0.944826
2.342827 -1.861195
4.830907 -6.161295
3.793862 -14.423154
-0.239322 -18.537051
-7.569276 -17.802015
-11.809454 -14.633517
-10.709318 -8.990732
-5.055901 -3.030220
1.838248 -2.537595
7.672719 -5.122776
6.778075 -12.570051
2.904763 -18.381246
-5.503863 -21.390899
-9.741353 -18.730830
-14.278023 -11.837845
-11.014076 -7.013846
-4.472801 -2.541159
2.389604 -4.329854
5.409097 -8.418204
4.483520 -14.394749
-0.590150 -17.378913
-8.926892 -18.125740
-12.651831 -13.950879
-13.105226 -8.608831
-7.550662 -2.909363
-1.782949 -2.503848
4.221470 -5.145327
5.604974 -9.542879
3.537378 -15.261459
-1.751591 -16.162432
-8.321761 -14.563271
-11.306167 -10.418266
-9.212390 -5.634141
-5.001480 -3.538511
2.030620 -5.002831
5.440857 -8.187629
4.342673 -13.381660
-0.106403 -16.033476
-5.641732 -16.422728
-9.493398 -12.878769
-10.774139 -7.807391
-7.562587 -5.042546
-3.235202 -4.375713
1.152900 -7.087498
2.730907 -12.303844
0.589818 -14.457401
-5.339349 -16.109489
-9.237903 -12.572828
-12.223193 -7.157445
-9.729496 -2.619678
-4.982095 -1.218400
-0.391131 -2.971624
2.719376 -7.185438
2.918592 -10.670388
-0.110842 -14.299726
-4.502661 -13.834609
-7.445026 -9.485604
-7.507541 -4.869214
-5.114448 -2.352890
-0.308944 -3.451417
2.863213 -6.365027
3.239230 -11.995549
0.334238 -16.058254
-3.305318 -16.657742
-7.372428 -12.920467
-9.526140 -8.945621
-8.496483 -3.411264
-4.554776 -1.862720
0.018208 -3.366355
1.531309 -8.350932
1.293837 -13.209513
-3.001001 -15.692922
-6.516666 -14.808913
-9.323496 -11.027749
-9.939068 -5.402196
-7.467880 -1.347941
-3.376070 -1.203733
0.073433 -3.626011
0.849052 -7.972837
-1.349165 -11.584812
-4.701534 -12.621452
-7.221901 -10.034855
-8.028819 -5.998542
-5.360113 -1.189803
-2.017451 -0.379559
2.389429 -1.062195
3.736208 -5.677883
2.761998 -11.032675
-0.928148 -14.141245
-5.484045 -14.169780
-7.946263 -10.910788
-7.595208 -6.369752
-5.337310 -2.969029
-1.073394 -1.576320
2.269339 -4.490807
2.127167 -7.925127
-0.309190 -12.153602
-4.706616 -13.920607
-7.704498 -12.198349
-9.397205 -8.573977
-8.313877 -4.414985
-3.660413 -1.819216
0.113660 -2.488615
1.122520 -5.523522
0.879440 -9.337394
-2.579485 -11.400814
-7.211974 -12.120654
-9.064135 -9.031892
-9.668800 -5.307832
-6.534858 -2.056151
-2.347007 -0.997920
1.443411 -2.888511
2.674122 -6.120157
0.605115 -9.145412
-3.263559 -10.761905
-7.041189 -9.671947
-7.883291 -7.298669
-6.454860 -3.926966
-2.524026 -2.725680
0.916077 -3.135560
2.752984 -6.369865
1.672911 -9.437199
-0.909490 -11.488750
-5.103933 -11.216157
-8.399238 -9.208672
-8.317462 -5.807770
-5.645613 -3.714205
-2.378274 -3.441608
0.513522 -6.093003
1.078337 -8.775520
-0.994515 -11.559583
-4.403426 -12.080099
-8.443301 -10.325888
-11.248762 -7.402808
-9.725170 -3.670850
-7.362006 -1.734739
-3.531296 -3.036810
-1.211863 -4.574546
-0.615769 -7.050216
-2.039990 -8.093188
-5.430742 -7.792476
-7.329808 -5.675833
-7.647969 -3.287821
-5.474399 -1.332996
-1.991824 -1.845073
0.000973 -4.330838
0.948735 -6.926615
-0.129741 -9.623266
-2.837735 -10.564433
-5.353219 -8.407719
-6.826314 -5.590257
-6.085507 -3.000138
-3.820899 -2.253420
-1.343365 -4.106157
0.028426 -7.277876
-0.773703 -10.540608
-3.047275 -11.529447
-5.958828 -10.548672
-8.035995 -8.196556
-8.467926 -4.564322
-7.306855 -2.406667
-4.909760 -1.873926
-2.629786 -3.903688
-1.931819 -6.449168
-3.636050 -8.619242
-5.588673 -9.810014
-8.106958 -7.390646
-8.768000 -4.190054
-6.884472 -1.340064
-4.572899 0.558335
-2.016849 -0.411058
-0.192185 -3.443572
-0.557463 -6.319809
-2.531630 -8.168889
-4.425135 -8.096524
-5.796727 -6.023872
-5.900130 -3.447561
-3.744256 -1.609117
-1.039137 -1.892975
0.165885 -3.721237
0.049973 -7.048226
-2.209032 -9.399105
-4.705972 -9.965511
-7.272562 -8.055592
-7.389343 -5.265797
-6.014592 -2.658512
-3.937717 -1.239490
-2.065748 -2.025263
-0.249728 -4.769255
-1.980472 -7.558347
-4.702749 -9.409150
-7.938613 -8.477256
-9.324340 -6.858989
-8.538178 -3.158277
-6.285578 -1.187663
-2.698430 -0.227265
-0.958052 -1.537399
-0.001725 -4.539438
-2.131731 -7.011825
-4.754124 -7.547699
-7.331786 -6.084266
-7.310963 -3.953310
-5.953762 -1.834340
-2.859479 -0.512148
-0.218894 -1.601081
1.226418 -3.399463
0.283517 -6.417502
-2.279037 -8.343434
-5.062615 -8.278404
-6.973066 -6.621544
-7.326636 -3.739727
-5.276501 -2.091102
-2.376757 -1.681249
0.052623 -3.260740
-0.188507 -5.923441
-1.900741 -8.132218
-4.808554 -8.216278
-7.549808 -7.533272
-8.912945 -4.680441
-7.612772 -2.104886
-4.677484 -1.053644
-1.928726 -2.197103
-0.317573 -4.024705
-0.795344 -5.859211
-3.051459 -7.418334
-6.073973 -6.703739
-8.102627 -4.745431
-8.134294 -2.269824
-6.105292 -0.345946
-2.870862 -0.543131
-0.398646 -1.786691
0.423565 -5.030202
-0.561432 -7.047247
-3.261412 -7.558019
-5.665923 -6.139393
-6.601551 -4.323117
-7.211795 -2.112143
-4.591786 -1.283330
-2.040631 -2.452072
-0.986439 -4.549479
-1.143142 -7.013755
-2.890445 -7.683923
-5.365867 -6.833630
-7.150741 -4.709194
-7.388781 -2.569771
-5.892249 -0.959973
-3.210537 -0.914987
-1.886986 -3.007871
-1.345778 -5.512180
-2.614505 -7.210041
-4.589823 -7.689864
-6.609936 -5.950326
-7.364221 -3.604388
-6.352121 -1.198329
-4.335632 -0.217239
-1.887250 -1.392398
-1.266972 -3.506384
-1.885308 -5.812015
-3.515203 -7.499733
-6.220283 -6.866031
-7.362262 -4.867116
-7.204490 -2.097721
-5.232713 -0.350885
-2.719233 -0.208556
-1.482778 -2.015029
-1.869487 -4.371358
-2.558803 -6.810016
-4.564479 -7.122452
-6.169289 -5.894158
-6.838519 -3.629334
-5.856203 -1.481143
-4.226283 -0.136485
-2.359011 -0.552387
-1.194502 -2.516344
-1.892885 -5.375512
-3.670629 -7.059316
-5.221041 -6.639842
-6.611110 -4.750059
-6.196910 -2.729370
-4.336410 -0.724119
-2.207284 -0.781838
-1.313676 -2.628748
-1.616759 -4.564528
-3.251872 -6.464729
-6.207466 -7.331838
-7.980261 -6.041462
-8.236468 -3.568671
-6.525625 -0.690334
-4.186513 0.544164
-1.545895 -0.347695
-1.142454 -2.443825
-2.020199 -4.615280
-4.048885 -5.899548
-6.201898 -6.062198
-7.383231 -4.360837
-7.078763 -1.737901
-5.089177 -0.347381
-2.424064 -0.214019
-0.592442 -1.210238
-0.283445 -3.546802
-2.219149 -5.567383
-4.740817 -6.215658
-6.136344 -5.421809
-7.090045 -3.983494
-6.060344 -1.808929
-4.015722 -0.982438
-1.256577 -1.504101
-0.647453 -3.376959
-1.509631 -5.022728
-3.481074 -6.714784
-6.333181 -5.929666
-8.163583 -4.221717
-8.200901 -2.295943
-6.229498 -0.603928
-3.743276 -0.772026
-1.339402 -1.922041
-1.195983 -3.445899
-2.110717 -5.662413
-4.922850 -5.625960
-7.053653 -4.498669
-7.999032 -2.789944
-6.781244 -0.891240
-4.747618 -0.202153
-2.290065 -0.710047
-0.130050 -3.089421
-1.012300 -4.947596
-2.755112 -6.145385
-4.915846 -5.608574
-6.847632 -4.322388
-7.450235 -1.832486
-5.838312 -0.855497
-3.973337 -1.197802
-2.256207 -2.288077
-1.483835 -4.248193
-2.636282 -5.798297
-4.588941 -6.048888
-6.677148 -4.641658
-7.462346 -3.116863
-6.668573 -1.121059
-4.795746 -0.486490
-3.163876 -1.273561
-1.873263 -2.906135
-2.816558 -4.903568
-3.449190 -5.938341
-5.351004 -5.113735
-6.574907 -3.721540
-6.480085 -1.629970
-5.174592 -0.132290
-3.859693 -0.570341
-2.597408 -1.710813
-2.093524 -4.189266
-3.523365 -5.986424
-4.568149 -6.252187
-6.367925 -4.915361
-7.307002 -3.253028
-6.372966 -1.367311
-5.084888 -0.601671
-3.417635 -1.261205
-3.251546 -2.906451
-3.345535 -5.285693
-5.493409 -5.990558
-6.497919 -5.547809
-8.118338 -3.335778
-7.152149 -1.359720
-5.658045 0.718264
-3.639633 0.402086
-2.718088 -0.894613
-2.513566 -3.263832
-3.454195 -5.175347
-5.163846 -5.486498
-6.649678 -3.891037
-6.791026 -2.489234
-5.752209 -0.773605
-4.118631 -0.259364
-2.442191 -0.854793
-2.328562 -2.692522
-3.268189 -4.849187
-5.029932 -5.956743
-6.853915 -5.443664
-7.606481 -3.916745
-7.205027 -1.850725
-5.252568 -0.580690
-3.912681 -0.825455
-2.856488 -1.999888
-3.356275 -3.577464
-5.035670 -4.765774
-7.412030 -4.839876
-8.730680 -3.938943
-8.847423 -1.607567
-7.248666 0.487520
-4.819706 1.297409
-2.753060 0.340851
-1.927384 -1.157434
-2.828177 -3.065404
-5.102807 -4.221041
-6.265957 -4.339158
-7.870829 -2.480427
-7.329195 -0.490946
-5.570173 0.410562
-3.106239 0.284327
-1.341643 -1.138475
-1.803348 -3.020926
-3.305452 -4.741389
-5.503305 -5.338421
-7.545856 -3.850661
-8.344066 -2.625698
-7.233488 -1.045247
-5.464469 0.119931
-3.383646 -0.901194
-2.844777 -2.627528
-3.573381 -4.069310
-5.105433 -4.945471
-7.424046 -4.387694
-8.642974 -2.612329
-8.534668 -0.483382
-6.999602 0.697817
-4.636007 0.633068
-2.888142 -0.890971
-2.776818 -3.156587
-3.838281 -3.889157
-5.840182 -3.862523
-7.980389 -2.663002
-8.693485 -0.873056
-7.739536 1.062581
-5.761666 1.439751
-3.258728 0.392393
-1.641740 -1.274281
-2.277249 -3.764357
-3.649334 -4.264261
-6.138560 -4.045710
-7.345155 -2.693022
-7.586408 -0.864467
-6.456600 0.151092
-4.353861 0.168879
-3.148394 -1.165599
-2.799747 -2.923308
-3.956336 -4.207130
-5.757017 -4.765915
-7.094786 -3.300371
-7.828790 -1.578290
-7.380430 0.186412
-5.751516 0.886803
-4.378074 -0.150290
-3.718793 -1.901169
-4.280368 -3.584357
-5.616348 -4.300104
-7.061528 -3.492427
-8.462913 -2.021248
-7.998473 0.138962
-6.785647 2.061596
-5.495169 1.639008
-3.965512 0.480252
-3.513254 -1.441798
-4.466919 -3.247734
-6.203075 -3.569157
-7.228724 -2.181154
-7.573670 -0.635411
-6.445707 1.242765
-5.158955 1.843194
-3.171668 1.095454
-2.803981 -1.044615
-3.428317 -2.742761
-5.023058 -4.009492
-6.945802 -4.094289
-7.802124 -2.498112
-7.456156 -0.758181
-6.429937 0.632938
-4.527309 0.775600
-3.743430 -0.208933
-4.230224 -2.115665
-5.299377 -3.409918
-6.990223 -3.995355
-8.540516 -2.547376
-8.486330 -1.070163
-7.584208 0.608688
-5.958430 1.857913
-4.744599 1.317159
-3.919102 -0.249692
-4.895591 -1.705679
-6.450502 -2.581519
-8.380873 -1.918436
-8.652994 -0.323567
-8.541525 1.247580
-6.175348 2.802476
-3.996088 2.856937
-2.622172 1.456025
-2.955537 -0.554917
-4.248299 -2.424986
-6.040787 -2.727871
-7.822898 -1.782305
-7.991042 -0.136012
-6.560293 1.090874
-4.904005 1.695481
-2.981853 1.142982
-2.589285 -0.582395
-3.295816 -2.915654
-5.211389 -2.969794
-8.314961 -2.709410
-9.066906 -1.060382
-8.941277 0.410708
-7.121806 1.744850
-5.260744 1.797291
-3.813803 0.727013
-3.487041 -0.663991
-4.841691 -1.622611
-6.787074 -1.742582
-8.714442 -0.828275
-8.757339 1.102622
-8.117422 2.561854
-6.116703 2.963474
-3.925191 2.716889
-2.955285 0.655546
-3.349238 -0.865584
-4.897064 -1.722525
-6.513121 -1.220102
-7.727839 0.694866
-7.288038 2.163437
-5.707101 2.946788
-4.500753 2.571517
-2.383915 0.736490
-2.336186 -1.691710
-3.295644 -2.909226
-5.667614 -2.521646
-7.685659 -1.418013
-8.512424 0.726126
-7.816829 2.080260
-6.047017 2.766947
-4.666470 1.807139
-3.892095 -0.261327
-3.819379 -1.539602
-5.108666 -2.102091
-7.065701 -1.996374
-7.687824 -0.160176
-8.195203 1.991669
-7.131998 2.984977
-5.432585 3.070100
-4.065525 2.108709
-3.843584 0.071169
-4.701941 -1.451595
-5.830387 -1.423869
-7.486471 -0.205524
-7.471828 1.884608
-6.753799 3.362094
-5.235563 3.326553
-3.943777 2.345255
-3.149195 0.665218
-3.469286 -1.109749
-5.138422 -1.948429
-6.571825 -1.394161
-7.152888 0.366103
-6.712383 1.601005
-5.688457 3.019622
-4.454755 3.110711
-3.334400 1.582629
-3.451751 -0.784902
-4.850601 -2.207875
-6.373034 -2.359046
-7.716745 -1.007564
-7.950700 1.287151
-7.119061 2.885344
-5.147458 3.263737
-4.114564 2.909757
-3.581173 1.419065
-4.349466 -0.406284
-5.762664 -1.175270
-7.482730 -0.978014
-8.179879 0.348921
-7.306271 2.396455
-6.258768 3.414264
-4.056861 3.572483
-3.257761 2.089289
-3.571702 0.487591
-4.843192 -0.358972
-6.521737 -0.824558
-7.680651 0.427252
-7.405850 1.984489
-6.053248 2.934519
-4.724637 3.615735
-3.492762 2.764488
-2.499309 0.891614
-3.356892 -0.420911
-5.735340 -1.405283
-7.693023 -0.512195
-8.872271 0.968424
-7.926104 3.055759
-6.338607 3.791211
-3.776859 3.562923
-2.345498 2.364687
-2.598870 0.749085
-4.436329 -0.618162
-6.520504 -0.778155
-7.996931 0.402778
-8.121700 2.172409
-7.160392 2.973743
-4.867405 3.449686
-3.402497 3.197906
-2.715334 1.113020
-3.860828 -0.425443
-5.531422 -0.747477
-7.253357 -0.109334
-8.895825 1.766328
-7.843687 3.185838
-6.388211 4.484887
-4.360234 4.042768
-2.880364 2.686203
-2.601432 0.607547
-4.126480 -0.244603
-6.076906 -0.159042
-7.675707 1.136669
-8.334457 2.857935
-7.082416 4.704587
-4.746988 4.475659
-2.611132 3.454355
-2.077031 1.708580
-2.513016 -0.111471
-4.449009 -0.842132
-6.384083 -0.160888
-8.063419 2.066709
-7.271866 3.498951
-5.976445 4.628155
-4.016497 4.207101
-2.510577 2.213778
-2.303970 -0.011712
-3.883885 -1.449550
-5.688303 -0.836052
-7.767181 0.312927
-8.090660 2.495358
-7.456827 4.491634
-5.537393 5.132326
-4.026620 4.137897
-3.013845 2.145906
-3.546927 0.403260
-4.927586 -0.001447
-6.110515 0.461200
-7.540031 1.694012
-6.850929 4.184388
-5.631994 5.940536
-3.843998 4.927041
-2.564274 3.958957
-2.586156 1.480297
-3.431613 -0.466789
-5.326126 -0.639021
-6.192562 0.626824
-6.983866 2.593792
-5.520508 4.025917
-4.786638 4.964316
-3.357379 3.822599
-2.559304 1.871842
-3.503253 0.245387
-5.348929 -0.451095
-6.840159 -0.104861
-7.695047 1.549998
-6.752743 3.735586
-5.643960 5.319051
-4.043685 4.871078
-3.077569 3.748953
-3.209208 1.820113
-4.405302 0.735376
-6.341306 0.024677
-7.354550 1.261639
-7.574349 3.244671
-6.333270 4.801865
-4.069858 5.609407
-2.643104 4.766460
-2.749532 3.389258
-3.264645 1.492418
-4.781295 -0.090687
-6.306570 0.092547
-7.166876 1.323548
-6.556802 2.882058
-5.146577 4.625283
-3.470585 4.093658
-2.665734 3.136460
-3.137987 1.407454
-5.131119 0.145420
-6.601115 0.423646
-7.987691 1.802549
-7.759225 3.771138
-6.574259 4.926666
-4.369427 5.481450
-2.742135 5.040200
-1.985607 2.665316
-3.075795 0.851700
-5.109011 0.539369
-7.215530 1.510759
-8.679131 2.682345
-7.174517 4.541643
-5.601341 5.347682
-3.352814 5.150864
-1.503181 3.611245
-1.490990 2.049227
-3.664712 0.820248
-5.595489 0.277283
-7.588181 1.802978
-8.276849 3.571235
-7.056040 4.641198
-4.989221 5.212719
-3.284615 4.482804
-2.332578 2.685814
-3.126191 1.475418
-5.298081 0.604268
-7.027692 1.894148
-8.021763 3.302898
-8.124069 5.499898
-6.708514 6.160449
-4.054024 5.528812
-2.189838 4.976606
-2.500528 2.792685
-3.631550 1.647469
-5.435208 1.785889
-6.715940 3.371079
-6.724521 5.070051
-5.981271 6.127818
-3.996257 6.241523
-2.156103 5.147621
-1.578253 2.387090
-2.171978 0.844953
-4.508063 0.271083
-6.457463 0.898253
-7.425199 2.956723
-7.377328 5.250174
-6.478911 6.041672
-4.387465 6.061875
-2.850672 4.354612
-2.606898 2.528033
-3.840864 0.505818
-5.796220 0.857427
-7.318989 2.431555
-7.423440 4.779412
-7.149843 6.557030
-5.330714 7.228553
-3.769703 5.888472
-2.374378 4.384186
-3.129617 2.734509
-4.467326 1.578268
-6.064212 2.358656
-6.359857 4.141618
-6.499520 6.404920
-4.150387 7.879795
-2.689727 7.041526
-1.438763 5.176577
-1.786113 3.019520
-3.003583 1.112734
-4.837892 1.045039
-6.697890 2.250491
-6.234707 3.741296
-5.495151 6.366620
-3.711514 6.443656
-2.202326 5.842637
-2.485255 3.671844
-3.542012 1.826111
-5.230080 1.544110
-6.710748 1.849238
-7.801976 3.787667
-6.787785 5.315298
-5.403445 6.813530
-3.010485 6.948008
-2.274277 5.475567
-2.832037 3.740524
-4.268823 2.149970
-6.069376 2.218882
-7.931556 3.055605
-6.690988 4.909604
-5.883374 7.105900
-3.534813 7.971943
-1.674813 7.226406
-2.050034 5.352266
-2.404484 3.567995
-4.109699 2.507822
-6.039502 3.336341
-7.065897 4.763187
-6.047948 6.173430
-4.201606 7.078173
-2.081337 6.423064
-1.353600 4.772089
-1.446212 3.774773
-3.542246 1.673860
-5.849751 1.851284
-7.311174 3.440571
-7.172469 5.364683
-5.191078 6.994769
-3.328199 7.326380
-1.447114 5.758008
-1.198285 3.358971
-2.847440 2.319920
-5.009850 2.213710
-7.193814 3.298384
-8.578370 4.481460
-7.539527 7.996470
-5.765753 8.720246
-2.326210 7.664984
-1.365468 6.018275
-1.574074 4.281617
-3.407127 2.992342
-5.923680 3.462678
-7.017767 4.986204
-7.249673 7.446173
-5.646623 9.021475
-3.179692 8.554318
-0.664020 7.265044
0.165728 4.966946
-0.605526 2.927781
-3.031413 2.495976
-5.555405 3.322040
-6.392465 5.112103
-5.837553 7.182133
-4.222088 8.121083
-2.070589 7.239650
-0.607745 4.940834
-1.257296 2.957269
-2.772744 1.511189
-5.106494 2.281542
-7.490385 4.221617
-8.109717 6.611601
-6.311091 9.027199
-4.056073 9.893139
-1.565032 7.923949
-0.560730 5.449679
-2.268935 3.234176
-4.106449 2.282866
-6.153940 3.884594
-7.247138 6.248554
-6.725423 9.230074
-4.203961 10.794479
-2.049542 10.147461
-0.302492 8.232799
0.567640 5.320430
-0.839182 3.232478
-3.485081 3.343943
-4.583904 4.664425
-5.045366 7.243357
-4.161107 8.624295
-1.897990 8.962979
-0.129262 7.751056
-0.011425 5.661827
-1.751838 3.182773
-2.891110 1.476562
-4.847577 2.397795
-5.846897 4.270359
-5.503932 7.442324
-3.610227 8.683611
-1.454251 9.105511
-0.494553 7.058365
-1.437410 4.905645
-3.374774 2.746271
-4.927654 3.259806
-6.642914 4.012750
-6.777604 6.914452
-4.925755 9.945250
-1.504582 10.494141
0.009983 9.589422
0.771747 7.479033
-0.719329 4.876879
-2.702363 3.653026
-4.295445 4.292749
-5.301308 6.234757
-4.950751 8.284631
-2.178063 9.730489
-0.648585 9.401895
1.181490 7.749553
1.078118 5.500456
-1.094652 3.257334
-3.385427 2.747259
-5.782726 3.895954
-5.454610 6.277282
-4.158971 7.751933
-1.683560 8.571721
0.162559 7.107235
0.887877 5.345721
-1.012266 3.565878
-3.590073 3.640693
-5.232705 4.671682
-6.418956 6.293219
-5.467155 8.057571
-2.691736 10.287949
-0.036193 9.316561
1.270925 6.803725
0.558968 5.278154
-1.395340 3.839333
-4.381389 3.717921
-6.299259 5.698399
-6.876000 7.793051
-4.487989 10.059155
-1.339929 10.036668
0.954998 8.069947
1.339189 5.684836
0.881794 3.817499
-2.446654 3.830895
-5.550268 4.994653
-6.491638 7.141361
-5.611097 9.332806
-2.890254 9.863521
-0.264971 9.256489
1.853227 7.097553
1.705392 4.378817
-0.796429 2.885887
-2.628662 3.205612
-5.389931 6.283313
-6.050423 8.342985
-4.217244 10.279006
-1.385541 10.568372
0.506761 8.845858
1.827951 5.931020
0.809784 4.111718
-1.602385 3.358228
-3.838632 4.585042
-5.213475 7.263081
-4.348324 9.608149
-2.390495 10.900111
0.057164 9.732993
1.108633 6.854079
0.703982 4.041890
-0.655799 2.567548
-3.629279 3.461606
-6.028005 6.377167
-5.890053 9.645779
-4.293162 11.798928
-0.770220 12.190141
1.665171 9.899266
1.416971 6.534517
0.565464 3.630358
-1.030549 3.152840
-3.561569 3.616365
-5.104187 6.941087
-4.678272 10.517143
-2.679705 12.458743
0.535526 11.399632
2.308708 9.146387
1.848793 5.429572
-0.260679 3.264700
-2.978514 2.959801
-3.900714 5.030187
-4.658395 7.636029
-2.810197 10.423648
-0.428666 11.526167
1.574702 9.268497
1.570416 6.709943
-0.165252 3.838596
-2.884490 3.315578
-5.012669 3.814910
-5.413221 6.942901
-4.726147 10.168135
-2.013156 11.280879
0.277613 11.471080
2.116591 9.418290
1.496121 6.001708
-0.780786 4.928895
-3.340782 5.130870
-5.107402 6.312464
-4.709784 9.535628
-1.944846 12.282332
0.829199 12.549170
4.183752 10.131072
4.361495 7.516344
1.707714 4.535123
-1.234163 3.206762
-3.979894 3.693985
-5.243879 6.369846
-4.792295 8.594086
-1.447184 11.239800
1.807045 10.763824
3.005081 8.780875
2.198882 5.581980
0.553197 3.674397
-3.678524 4.290769
-4.940208 5.853569
-5.461391 8.525140
-3.803729 10.403121
-0.476707 10.991033
2.185508 9.389399
2.890055 7.229284
0.997758 5.760137
-2.065843 5.258374
-5.008680 6.886275
-5.607310 9.003134
-4.185504 12.110509
-0.488621 12.355634
3.576269 11.305679
4.875417 8.479226
4.093635 5.140783
1.384368 3.138176
-1.618576 4.406491
-5.814023 6.259172
-5.999411 9.136328
-3.128880 11.256268
0.226984 11.006176
3.334029 9.380664
3.553160 6.141963
1.752344 2.757373
-2.077517 3.310611
-4.353073 5.469911
-5.968724 10.116526
-5.314102 12.602610
-1.894187 13.108521
1.899461 11.495947
3.774790 8.747939
3.389618 5.107349
0.580498 3.978286
-2.846539 4.678555
-5.147690 8.220439
-5.538680 12.417649
-2.379611 14.405356
1.471452 13.661855
4.174933 10.419609
4.230415 5.925831
2.517702 3.330306
-1.050373 2.331470
-4.187003 5.555205
-5.548858 9.426011
-4.470585 13.756587
-0.834701 14.827890
2.811927 12.868434
3.715121 8.437819
3.261218 4.570029
-0.966333 2.414500
-4.414201 3.642985
-6.572992 8.272320
-6.911233 13.032116
-2.880372 16.818623
1.178292 16.948507
4.800047 14.118964
4.813405 8.602271
3.498522 3.969443
-0.388061 3.082956
-3.981550 5.864759
-5.470541 9.849285
-3.071726 14.548063
0.279222 16.979379
4.883498 15.476982
6.403328 10.728651
5.205570 5.177385
1.370118 2.257287
-3.655261 1.937196
-6.407853 5.712605
-6.204375 10.794420
-3.266695 15.081974
1.048126 16.144724
4.422997 13.778144
4.905343 9.501806
1.843945 4.968797
-3.260658 3.672896
-7.016726 6.895519
-8.411440 10.943759
-4.521578 15.689782
-0.351603 19.210724
5.439240 18.120612
7.508136 15.102632
6.462041 9.128753
2.850208 5.505867
-3.236529 5.420754
-5.824070 7.934862
-5.511788 13.884256
-1.540232 16.730504
4.553554 17.956793
9.352827 15.461297
9.946115 10.179200
6.498975 5.468315
0.051498 2.600456
-4.870086 4.283178
-7.885020 7.982128
-5.670819 12.922582
-2.451553 15.387462
3.257987 14.919780
6.422512 12.129117
5.236480 8.938573
0.121039 6.639448
-4.637470 6.365410
-8.047997 11.321030
-7.305430 15.030820
-2.303484 19.182482
1.788210 18.656636
6.838074 14.635680
8.606133 10.685575
4.765706 7.749930
-1.979133 7.327390
-6.111135 9.986400
-7.129717 16.577116
-5.101188 20.479171
1.152324 21.423167
7.947403 18.349598
11.820736 12.551775
10.464525 7.200742
5.265535 3.091698
-2.709434 5.990072
-7.538761 9.910090
-6.614825 16.718706
-3.232808 21.687552
2.745174 21.086945
8.305852 15.817925
11.254310 9.018261
7.504688 3.660857
0.178531 2.552862
-6.451704 6.736800
-9.928111 13.794905
-8.829336 20.958191
-3.022817 23.140996
3.012606 21.807846
7.345682 16.484516
5.974114 11.140752
2.284832 5.910377
-2.530646 9.150010
-6.214488 15.168071
-6.751134 22.418962
-3.127887 26.638597
4.128353 27.386031
8.183725 20.451663
10.742959 13.623436
6.201252 7.085735
-0.535127 7.313631
-7.063674 11.742651
-5.516499 21.057635
-3.892634 29.599717
5.658406 30.493309
12.717856 29.414635
15.987372 17.885977
14.576197 11.008938
6.128454 1.705795
2.109177 3.188029
-6.219263 11.344439
-6.932503 20.080129
-2.471493 27.560611
5.470031 28.270171
12.450228 22.875779
13.557215 15.556356
5.684308 6.568068
-2.062437 3.786357
-9.348503 8.669619
-9.327623 17.878077
-6.411187 29.161280
1.339567 34.137708
8.165672 34.512907
12.980141 24.951908
11.279950 17.851902
1.605724 11.941073
-6.130053 13.903020
-10.708169 21.785209
-7.351335 34.950482
-0.811859 39.602273
16.580736 41.268121
21.662819 36.688508
24.654351 22.862738
15.290507 15.173030
7.262567 8.922397
-5.520362 14.962708
-5.748629 18.505302
3.535796 34.785954
11.062464 36.674303
22.059743 34.387225
25.184849 19.625863
23.560533 8.980488
4.709626 6.265839
-9.438363 7.863257
-20.350423 21.517522
-19.753892 31.409453
-1.716159 45.817728
11.654039 52.449001
24.277221 43.331074
29.071084 32.302717
22.039876 18.339082
9.918281 16.449336
-7.597407 26.860278
-16.763092 37.809327
-9.784383 50.258618
13.205498 56.793900
28.596071 59.267355
32.910668 41.929295
38.187546 25.035296
28.751046 21.679164
3.650052 30.649040
-7.195807 27.760931
2.511302 47.530639
6.083864 56.964193
38.852676 55.355994
40.458127 45.347561
49.824739 12.858301
43.359729 5.559560
21.878383 -8.926043
6.668837 29.927848
-31.173137 44.818320
0.016577 40.908616
20.477774 64.989782
36.744186 48.963776
49.924305 45.794647
27.209097 11.884432
22.959299 1.900279
-17.685052 20.688454
-24.413981 48.751488
-31.483122 102.144806
-12.160292 107.374713
26.328302 128.594912
67.807967 86.249503
63.522095 54.076580
45.284301 27.315325
21.188180 41.399017
-18.490095 36.065363
-17.675035 141.792142
-33.344625 183.489574
32.054297 163.073015
109.222105 192.175861
184.605595 177.580284
60.789229 29.051209
127.319329 25.134570
-42.421719 144.018400
-97.016433 72.212982
-70.982808 189.164976
271.987960 424.402411
39.258192 792.714630
524.042049 -154.888798
-42.732642 137.645119
393.457996 409.378223
