4082.531460 2059.660917
-1074.757829 779.312553
212.801010 -236.190224
-82.255419 57.426464
26.957240 49.050215
24.310238 -54.230175
17.551902 -66.129705
31.923196 12.529168
33.985399 26.393210
15.413740 12.277383
-13.664445 -13.880336
8.459637 -3.997360
-1.525308 -19.287638
-11.170348 1.772044
1.988717 6.401397
15.390223 7.272279
20.034148 5.108047
7.648033 2.727726
12.060447 -0.099141
1.617223 -13.565733
4.655055 -3.975215
2.011640 -6.280184
0.736386 -0.616596
-0.465532 -0.814224
3.214782 6.227304
6.087713 5.217284
4.257700 2.913302
6.012186 2.722037
9.001038 -4.579181
5.218987 -4.444682
3.106953 -6.976687
-0.792903 -2.368339
1.697247 -2.092865
-1.345199 3.964879
2.441273 3.752363
1.655827 3.518509
4.060829 0.947782
6.802219 -0.304825
5.277608 -1.372465
5.151785 -4.761106
1.751742 -2.968633
1.437705 -3.042611
0.051001 -0.900397
-0.196634 1.786452
0.860172 0.939949
3.832885 3.043857
3.427897 0.660120
4.553849 -0.351767
4.711610 -1.422210
3.391638 -2.172528
3.599795 -3.116918
-1.093680 -1.268531
-0.060102 -1.737761
0.032497 0.996987
0.662134 1.294891
2.550462 2.080543
2.389683 1.555014
3.790807 -0.825766
3.365284 -0.931187
3.011892 -1.659566
0.435866 -3.301033
0.462986 -1.189438
-0.899863 -0.408531
1.223570 1.359311
-0.310286 1.521751
2.535409 1.104260
3.339594 0.986139
3.808162 -0.367235
2.706756 -1.264486
2.413698 -2.400278
0.779852 -2.700349
0.550871 -2.048226
-0.670847 0.792375
0.542914 0.098433
0.135313 1.347184
1.947043 0.309924
2.503163 0.895325
2.625082 -0.935724
2.373486 -1.483452
2.082917 -2.652569
1.226757 -2.084764
-0.361125 -1.186620
0.106931 -0.543505
-0.894296 -0.010456
0.567031 1.432553
0.670611 1.031929
3.051974 0.439848
2.139502 -1.108663
2.752715 -1.209781
1.531827 -1.564775
0.276486 -1.849987
-0.286328 -1.478008
0.009775 -0.727148
0.437981 0.160706
0.050947 0.742867
1.597224 1.245903
1.502439 -0.230142
3.392472 -0.121573
1.754524 -1.247264
1.877875 -1.656704
-0.324717 -2.658228
-0.098936 -0.749708
-0.811014 -0.437618
0.497548 0.525642
0.123094 0.424407
1.818968 0.877803
1.363304 0.223984
2.014520 -0.692140
1.438388 -0.917512
1.511040 -2.093472
0.494508 -1.324956
-0.466254 -1.048849
-0.265515 -0.351842
-0.200357 0.156949
0.343517 0.929460
0.972737 0.779092
1.939453 0.003793
1.392435 -0.959664
2.107832 -0.704949
0.483049 -1.354493
0.751456 -1.700560
-0.471196 -0.856602
-0.052231 -0.808857
0.264924 0.223430
0.570936 0.442204
1.164300 0.518971
1.881808 0.034546
1.821411 0.213642
1.311025 -1.621800
1.084829 -1.360387
0.336857 -1.402489
-0.307852 -0.656493
-0.660399 -0.143196
0.107588 0.110751
0.617864 0.836968
1.424498 0.585377
1.166539 0.134692
1.852669 -0.775196
0.889998 -0.835820
1.110855 -1.747661
-0.112062 -0.894710
-0.067127 -1.133234
-0.584097 -0.023283
0.183535 0.228506
0.834700 1.073362
1.302194 -0.040844
1.335756 0.011477
1.708886 -0.367704
1.725495 -0.741040
0.404095 -1.320154
0.527216 -1.093850
-0.818224 -0.883771
-0.254452 -0.045820
-0.824504 0.184387
0.881049 0.481312
0.725023 0.549637
1.693148 -0.593408
1.410554 -0.488169
1.164003 -1.454787
0.814516 -1.069511
0.318620 -1.338263
-0.488093 -0.463145
-0.648333 -0.483004
0.103183 0.834802
0.172159 -0.009833
0.961052 0.428475
1.404679 0.169879
1.391228 -1.128535
0.550779 -1.361026
1.143464 -1.012052
-0.330670 -1.122004
-0.419036 -0.990401
-0.588649 -0.103865
-0.158642 0.010402
0.077688 0.482524
1.181514 0.303435
1.044797 -0.269323
0.849791 -0.712116
1.210257 -0.928575
0.296856 -1.173845
-0.130562 -1.095761
-0.078320 -0.727316
-0.194891 0.191487
-0.320193 0.226423
0.589353 0.414852
0.471514 0.208290
1.411155 -0.122784
1.083576 -0.283676
1.118569 -0.736452
-0.014102 -1.676004
0.066139 -0.975110
-0.145175 -0.716136
-0.273651 -0.254804
-0.053548 0.408879
0.349603 0.412062
1.579259 0.189515
1.057701 -0.380603
1.139845 -0.533106
0.559478 -1.420134
0.261332 -0.755687
-0.285804 -1.205475
-0.394484 -0.641180
-0.683843 0.293938
0.049706 0.137786
0.058192 0.134311
1.000755 0.349448
0.915135 0.293791
0.945590 -1.247857
0.863261 -1.174605
0.216819 -1.386154
-0.631131 -1.170271
-0.705971 -0.607952
-0.528837 -0.202531
-0.460855 0.174846
0.428699 0.482085
0.690602 0.077236
1.148674 -0.589663
0.862245 -1.004258
1.029141 -1.105481
-0.011585 -0.870668
-0.038343 -1.240416
-0.322978 -0.812228
0.145388 -0.324699
-0.097336 0.047924
0.362250 0.150561
0.775281 -0.082794
0.908877 -0.489057
0.818604 -0.600579
0.463651 -1.103383
0.219762 -1.561199
-0.182121 -0.973390
-0.532953 -0.342612
-0.716837 -0.469556
0.171405 0.178353
0.089175 0.295557
0.931482 0.359797
0.592142 0.117755
0.924832 -0.859875
0.673037 -0.849046
0.563208 -1.133399
-0.349206 -0.809603
-0.293397 -0.558163
-0.595619 -0.196476
0.090917 0.114835
0.503433 0.503983
0.577634 -0.082926
1.150985 -0.319200
0.577439 -0.832865
0.406015 -0.643365
-0.458712 -1.206747
0.097481 -0.697656
-0.545105 -0.555281
0.040542 -0.095343
-0.073059 0.675365
0.841470 0.119739
0.750883 -0.187025
1.401806 -0.577687
0.544013 -0.884144
0.744175 -1.315944
-0.425029 -0.731731
-0.054919 -0.999937
-0.405791 -0.441662
-0.460386 -0.116992
-0.048840 0.306682
0.125191 -0.080247
0.725586 0.044495
0.977712 -0.679041
1.029282 -0.426678
0.081011 -1.170039
0.363276 -1.003222
-0.235230 -0.792524
-0.560941 -0.300269
-0.662555 -0.213986
0.131545 0.102554
0.333144 0.017934
0.901557 -0.162830
0.887893 -0.013508
0.494443 -0.780708
0.026808 -0.806765
-0.408069 -1.202518
-0.236142 -0.647260
-0.815096 -0.758907
-0.199618 -0.179606
0.006255 0.028706
0.365424 0.341919
0.086702 -0.297149
1.003042 -0.296706
0.401984 -1.125450
0.511592 -0.744655
-0.026744 -1.030940
-0.044330 -0.976381
-0.221601 -0.304666
-0.322650 -0.261731
0.170038 0.152317
0.474914 -0.029563
0.552962 -0.037241
0.979964 -0.701565
0.730252 -1.018646
0.147477 -1.323314
-0.000564 -0.732314
-0.398739 -0.828710
-0.236215 -0.131137
-0.436175 0.105802
0.289857 -0.046285
0.243320 -0.039548
0.878232 -0.394506
0.173332 -0.534731
0.571329 -0.983588
-0.154121 -1.028632
-0.501138 -0.918322
-0.459736 -0.594447
-0.230498 -0.454897
-0.217009 0.049819
0.109987 0.030906
0.667129 0.264637
-0.070225 -0.603657
0.710403 -0.506913
0.545101 -1.342489
0.484659 -1.179568
-0.604111 -1.179430
-0.532633 -0.414759
-0.540220 0.045852
-0.037970 -0.031011
0.190992 0.845749
0.581467 0.201699
0.133905 -0.214524
0.720054 -0.445984
0.439367 -0.517546
-0.208096 -0.854882
-0.358534 -0.732758
-0.843199 -0.629919
-0.120525 0.121659
-0.068378 -0.841398
-0.265015 0.581076
0.306861 0.351553
0.431534 -0.403417
0.428457 -0.571373
0.709029 -1.152897
0.020418 -1.206180
-0.156508 -0.751800
-0.394781 -0.789525
-0.479988 -0.547268
-0.568554 -0.048454
-0.115664 0.256541
-0.018668 0.026432
0.483480 -0.461248
0.800520 -0.129714
0.159351 -0.832415
0.118351 -0.916686
-0.169101 -0.892218
-0.388344 -0.270718
-1.003813 -0.705344
0.186788 -0.100441
-0.253457 0.420852
0.372939 0.543866
0.284456 -0.589250
0.905057 -1.000096
0.464744 -0.966596
0.434778 -0.979244
-0.394587 -1.030484
0.199597 -1.034060
-0.647544 0.010009
-1.021692 -0.041826
-0.120970 0.125268
0.583311 -0.487610
0.195568 -0.206585
0.506499 -0.871356
0.586852 -0.579214
-0.100073 -0.928590
-0.681841 -0.883935
-0.982877 -0.883934
-0.738710 -0.373536
-0.225639 0.359677
0.250041 -0.028077
-0.003005 -0.169448
0.498962 -0.205140
0.688210 -0.958724
0.372323 -1.024241
-0.066976 -0.827728
-0.445036 -1.501668
-0.607791 -0.292353
-0.250651 -0.634968
-0.611431 -0.009433
0.221323 0.089436
0.513901 -0.320460
0.196593 -0.493248
1.016271 -0.578267
0.180755 -1.033008
-0.572732 -0.883018
-1.246896 -1.425924
-0.780955 -0.380969
-0.757030 -0.449313
-0.331067 -0.011807
-0.190843 0.368400
0.433602 -0.416470
0.349562 -0.547948
0.669166 -1.202481
0.171333 -1.011376
-0.293762 -1.485334
-0.641309 -0.582488
-0.729275 -0.242628
-0.276876 -0.029815
-0.150666 -0.268753
0.098670 0.188702
0.248831 -0.305509
0.865020 -0.544300
0.117287 -0.654758
0.517905 -0.659007
-0.158999 -0.925299
-0.660084 -0.704930
-0.959817 -0.076190
-0.526729 -0.285157
-0.529778 0.397494
0.114186 0.123810
0.544664 0.171893
0.635855 -0.650374
0.553648 -0.456751
-0.104930 -0.910149
-0.336434 -1.042394
-0.676627 -1.211018
-0.778862 -0.362575
-0.619285 -0.258672
-0.121839 -0.027326
-0.214010 0.260087
0.579726 -0.318044
-0.071755 -0.385985
0.664625 -1.055778
-0.075255 -0.979127
-0.113444 -1.468144
-0.646612 -1.031029
-0.551998 -0.702240
-0.927177 0.084587
-0.463688 -0.181654
-0.018813 0.468421
0.433578 -0.030169
0.417775 -0.039720
0.200211 -1.137434
0.272141 -0.875538
-0.471681 -1.111673
-0.659223 -0.800857
-1.014403 -0.361599
-0.738520 -0.132638
-0.458452 -0.020891
0.395145 0.027268
0.241679 0.212883
0.287070 -0.841506
0.116877 -0.823816
-0.014011 -1.256158
-0.666945 -0.902237
-0.658907 -1.049068
-0.711087 -0.316187
-0.722173 -0.212852
0.022375 0.675733
-0.347143 0.044448
0.562784 -0.127870
0.103206 -0.588580
0.291561 -0.852513
0.022093 -1.209893
0.067727 -0.966307
-0.784767 -1.245856
-0.638117 -0.664950
-1.132925 -0.115725
-0.118165 -0.453036
-0.085628 0.361532
0.478794 -0.252516
0.255028 -0.599667
0.311249 -1.123576
-0.112908 -0.928373
-0.502910 -1.029752
-0.584221 -0.831131
-1.139165 -0.496944
-0.474086 -0.133055
-0.616577 -0.160683
0.186450 0.185262
0.275262 -0.340219
0.787609 -0.385740
0.002132 -0.877988
-0.160605 -1.264337
-0.987514 -1.121893
-0.824441 -1.298918
-0.926006 -0.298436
-1.014961 0.110456
-0.526658 0.283408
-0.133146 0.134402
0.144427 0.221925
0.132832 -0.604848
0.302241 -0.437755
-0.167097 -0.897661
-0.432831 -0.795458
-1.062544 -0.733293
-0.825670 -0.417648
-0.839463 -0.271739
-0.354789 0.411318
-0.448397 0.003203
0.378507 -0.364206
0.184603 -0.457467
0.292681 -1.157472
-0.555067 -1.106941
-0.603128 -1.404849
-1.141591 -0.560127
-1.083386 -0.261804
-0.886926 0.083756
-0.491749 0.341277
-0.107251 0.396471
0.484500 -0.737936
0.233797 -0.265438
-0.467209 -1.042570
-0.061510 -1.234559
-0.979315 -1.021611
-0.832933 -0.482873
-1.513641 -0.477843
-0.824848 -0.041996
-0.318245 0.613946
-0.191393 -0.340538
-0.320800 0.057265
0.481517 -0.415858
-0.110358 -1.043727
-0.245674 -1.551125
-0.963199 -0.856601
-1.115694 -1.063120
-1.033178 -0.558356
-1.214034 -0.169071
-0.166272 -0.119766
0.022872 0.254164
0.568845 -0.204836
0.190772 -1.002849
0.097354 -1.127654
-0.657267 -1.283086
-0.556103 -1.400838
-1.176071 -0.531914
-1.458939 -0.692460
-0.938136 0.179229
-0.445007 -0.076350
-0.468776 0.333606
0.385866 -0.340177
0.125229 -0.659514
-0.255000 -1.134530
-0.197184 -1.334583
-0.910536 -1.469221
-1.498166 -0.399271
-1.507737 -0.193161
-0.609719 0.285988
-1.340278 0.696731
0.401837 0.114059
0.183909 -0.393812
0.244445 -0.735229
-0.345655 -1.126980
-0.500120 -1.457990
-1.206949 -0.434389
-1.109733 -1.186742
-1.453765 0.113380
-1.274153 0.246592
-0.658565 0.786604
-0.326204 -0.484937
0.246265 -0.040467
0.064661 -1.520392
0.285643 -1.292457
-1.367092 -1.623285
-0.796954 -1.159393
-1.420369 -0.486176
-1.000643 -0.264016
-1.447518 0.403939
-0.073423 0.398232
-0.044380 0.415907
0.253226 -0.639180
0.212544 -0.689102
-0.376728 -1.948265
-0.722926 -1.040614
-1.406341 -1.888500
-1.345013 -0.704235
-1.565972 -0.577635
-0.924912 0.355372
-1.039142 0.014682
0.333496 0.737252
0.255510 -0.260590
1.015986 -1.057968
-0.432446 -1.432648
-0.666715 -1.781194
-1.714520 -1.419862
-1.490616 -0.852615
-1.625042 0.447287
-1.420594 0.349190
-0.817882 0.990523
0.187545 -0.171703
0.409903 0.503587
-0.090945 -1.498267
-0.232189 -1.142258
-1.047193 -1.751460
-1.465231 -0.925935
-2.482096 -1.336510
-1.549318 0.387959
-1.783696 0.332523
0.305481 0.387469
-0.578319 0.312239
0.685913 -0.817301
-0.085606 -0.870482
-0.061254 -1.716371
-1.813541 -1.152894
-1.743370 -1.589772
-2.303732 -0.245566
-1.384911 -0.660860
-1.739674 1.318204
-0.819585 0.118431
-0.034614 0.896415
0.079634 -0.543963
0.471974 -0.885194
-0.859675 -1.977500
-1.133119 -2.056714
-2.701535 -1.111669
-1.470191 -0.446133
-2.977354 0.653449
-0.799880 0.635440
-1.330289 1.391682
0.756455 0.232935
-0.931226 -0.057653
1.166059 -1.466424
-0.625939 -1.748551
-1.112953 -1.962681
-2.993460 -1.121928
-2.710680 -0.711140
-2.708843 0.583838
-1.405705 1.076012
-0.262735 1.528319
-0.333123 -0.079193
0.439793 -0.630401
-0.107062 -1.055435
-0.068148 -2.437551
-2.140984 -1.477072
-2.770131 -1.253958
-3.254758 -0.225544
-2.986264 0.246727
-2.400673 1.939024
-0.605417 0.696767
0.190616 1.266527
0.254700 -1.087886
0.030968 -0.621090
-1.181965 -3.158156
-1.447380 -1.688124
-3.068528 -1.416968
-2.572496 0.026477
-3.824095 0.907641
-1.433217 1.073249
-1.471303 1.414987
0.570336 -0.239203
-0.432144 0.453604
1.839596 -2.228317
-1.905694 -2.860345
-1.229166 -3.292258
-4.558644 -0.512870
-2.996596 -1.720826
-4.158284 1.603510
-1.918728 0.583758
-0.343347 2.211508
-0.541290 -0.271881
0.975940 -0.176411
-0.266088 -2.944052
-1.183210 -2.346332
-4.480128 -3.736906
-2.636064 0.358695
-5.980462 -1.117654
-2.549129 2.771049
-4.896865 2.479074
0.651226 1.676028
-0.443514 1.326065
1.593664 -1.947690
0.127038 -1.798146
-1.557364 -4.996630
-5.452204 -1.781167
-4.684994 -2.851223
-7.005610 2.019693
-4.497075 -1.407720
-3.065234 5.410751
-1.414816 0.873128
0.870614 2.675179
0.449559 -3.355653
1.831086 -4.509403
-1.661078 -4.362353
-4.484635 -3.789508
-9.743152 -0.697620
-7.150988 -1.102381
-8.010246 4.465940
-1.495756 1.324623
-3.368187 4.414369
2.873188 -1.867996
0.242897 0.391612
0.477129 -2.968167
-5.605739 -3.395820
-7.459631 -7.441599
-8.615934 -2.967152
-11.209920 4.102336
-4.895204 6.899105
-14.881614 4.136991
4.149833 3.873203
-1.842198 4.968765
11.687166 -2.099745
-11.759575 -4.225053
-2.670226 -9.217674
-18.616736 -6.466658
-21.721795 -1.493332
-30.456605 8.720203
-22.563821 -12.565176
-8.795606 30.350190
8.510414 44.300779
36.776177 72.421221
-37.175165 -72.310066
-58.956325 -26.729155
-84.891571 -111.681487
-18.746370 -34.814477
-443.740584 -179.668541
-332.360915 66.547970
-2254.855654 647.903101
