3499.980637 4106.860607
-1359.337915 -94.120110
-60.221697 6.392712
-213.370706 -40.252374
62.709698 14.463095
-129.992679 -33.342084
19.602243 3.760331
-18.602788 -4.614405
-45.598741 -22.346166
23.521842 14.014978
-33.187909 -21.597769
-1.596230 2.656544
-0.971622 -5.289987
-13.597199 -5.898879
-0.253795 -4.045690
-1.993816 -0.384670
-8.547089 -7.617759
3.607639 0.094412
-6.628696 -3.212792
0.689941 -3.709716
-2.007398 -0.694655
-1.530646 -2.782135
-0.019620 -1.287459
-1.466597 -2.673777
-0.234781 0.833638
-0.098291 -3.769932
-0.904415 0.523256
0.172122 -0.365388
0.102075 -3.089768
-0.860539 2.378881
0.670039 -2.562122
-0.087202 0.186181
-0.862112 0.405222
1.363893 -0.952968
-1.296389 0.010249
0.633439 0.891298
-0.104252 -1.354101
-0.276705 1.509020
-0.090187 -0.737028
0.234377 0.624791
-0.814445 0.245234
0.549015 0.032576
-0.948694 0.729009
0.472577 -0.202369
-1.023781 0.754913
0.322678 0.119007
-0.651810 0.252895
-0.497789 0.456382
0.083886 0.311208
-0.850727 -0.049959
-0.347269 0.785603
0.012839 -0.194569
-1.199273 0.290374
0.266254 0.498568
-0.797920 -0.293804
-0.507731 0.427176
-0.132490 0.190601
-0.740184 -0.297850
-0.279538 0.540349
-0.355661 -0.305584
-0.627112 0.161099
0.018852 -0.004686
-0.931597 -0.051395
0.354164 -0.015171
-0.979806 -0.101425
0.122171 0.054005
-0.311487 -0.246544
-0.527286 0.050538
0.134365 -0.104449
-0.357272 -0.206504
-0.348435 0.052612
0.251917 -0.157896
-0.506927 -0.180370
0.011550 0.104191
0.104126 -0.259797
-0.421242 -0.033665
0.229794 0.070352
-0.083476 -0.321859
-0.193047 0.242976
0.242304 -0.246399
-0.156630 0.068497
0.008430 0.007410
0.141038 -0.053480
-0.092463 0.035558
0.043582 0.115534
0.148361 -0.167003
-0.164318 0.345825
0.233956 -0.217354
-0.125477 0.243299
0.133347 0.098568
-0.062527 -0.092335
0.105406 0.372394
-0.072201 -0.131363
0.049127 0.219721
0.029258 0.167889
-0.117687 -0.058214
0.118838 0.342301
-0.105193 -0.076164
-0.078273 0.234851
0.148510 0.094895
-0.316116 0.044961
0.194211 0.233979
-0.188143 -0.036803
-0.079383 0.201075
0.044442 0.055784
-0.190638 0.048599
-0.020683 0.142571
-0.055114 0.020788
-0.130493 0.052923
-0.049591 0.102929
-0.065769 -0.009188
-0.095442 0.039473
-0.101292 0.086397
0.023889 -0.078051
-0.199355 0.097762
0.036122 -0.033293
-0.076736 -0.009155
-0.113594 0.013136
0.030229 -0.002822
-0.073609 -0.078461
-0.077879 0.093248
0.052483 -0.173549
-0.091142 0.146015
0.004406 -0.204286
-0.011491 0.126419
0.029867 -0.117351
-0.106866 -0.047996
0.160955 0.108860
-0.112781 -0.228031
0.026975 0.145535
0.141566 -0.063023
-0.170890 -0.140222
0.184979 0.212352
-0.006014 -0.233426
-0.074200 0.096800
0.223517 0.035150
-0.164316 -0.138121
0.186344 0.134232
-0.071179 -0.055815
0.111278 -0.010021
-0.029606 0.054365
0.050536 -0.003509
0.081908 -0.003857
-0.108751 0.033290
0.192760 0.057893
-0.110006 -0.080606
0.051238 0.142120
0.070165 -0.048224
-0.070859 0.011672
0.031520 0.084980
0.079097 -0.011503
-0.152103 -0.040265
0.162168 0.184133
-0.122187 -0.184382
0.042604 0.173571
-0.019410 -0.044043
-0.016735 -0.009190
-0.003895 0.048412
-0.064509 0.014687
0.096042 -0.061582
-0.202076 0.089067
0.182929 -0.048788
-0.176809 -0.031712
0.029337 0.091420
0.040567 -0.136426
-0.159822 0.101898
0.128400 -0.090750
-0.124668 0.027256
0.008094 -0.046470
0.023386 0.009260
-0.094448 -0.057679
0.039250 0.011435
0.001992 -0.040185
-0.128166 -0.047321
0.170717 0.043579
-0.187098 -0.129704
0.066553 0.071710
0.065407 -0.069848
-0.204260 -0.065615
0.211890 0.075450
-0.131228 -0.120127
-0.027235 -0.011114
0.125055 0.071121
-0.131778 -0.172913
0.026408 0.078247
0.081999 0.018339
-0.128732 -0.198984
0.053899 0.206715
0.069708 -0.154391
-0.178878 -0.043173
0.175627 0.140757
-0.098073 -0.171572
-0.027940 0.020824
0.083117 0.113540
-0.091750 -0.215306
0.026136 0.134900
-0.011053 -0.001106
0.007095 -0.162431
-0.088005 0.186436
0.123562 -0.130224
-0.182887 -0.014784
0.156367 0.092543
-0.179315 -0.124937
0.140764 0.062310
-0.161686 -0.026256
0.084037 -0.010302
-0.045976 -0.019092
-0.075255 0.013223
0.085469 -0.016506
-0.118357 -0.037429
0.031145 0.047468
-0.033215 -0.064287
-0.001512 0.018264
-0.090361 -0.010051
0.098945 -0.014047
-0.142943 -0.016169
0.041708 0.003957
0.003728 -0.005356
-0.105179 -0.037733
0.064657 0.024215
-0.062903 0.005418
-0.015887 -0.099247
-0.035884 0.151711
0.058324 -0.165054
-0.180268 0.079159
0.190069 0.023821
-0.228164 -0.114396
0.136176 0.111684
-0.110822 -0.041754
0.005843 -0.070948
-0.003424 0.154237
-0.073449 -0.184756
0.043196 0.160742
-0.082524 -0.109298
0.002817 0.059817
-0.011794 -0.017191
-0.057656 -0.007884
-0.017133 0.026769
0.024518 -0.021054
-0.137146 0.002767
0.097954 0.034293
-0.106524 -0.057043
-0.032754 0.061192
0.044310 -0.033576
-0.109396 -0.000808
-0.002630 0.025387
0.026182 -0.025317
-0.133401 0.005846
0.064998 0.011036
-0.051497 -0.021256
-0.086095 0.014185
0.084695 -0.019849
-0.128425 0.030133
0.017599 -0.067308
0.021760 0.091237
-0.144112 -0.112985
0.140903 0.094782
-0.171753 -0.071789
0.079083 0.027684
-0.033903 -0.004895
-0.075863 -0.014634
0.090268 0.005795
-0.110987 0.009764
0.032075 -0.038064
0.024006 0.061659
-0.111539 -0.067969
0.122973 0.059745
-0.118645 -0.020790
0.047247 -0.007573
0.010095 0.051783
-0.074829 -0.052028
0.081498 0.073893
-0.065659 -0.046375
-0.002214 0.060914
0.061052 -0.012897
-0.123419 0.014863
0.128910 0.050060
-0.118932 -0.023711
0.059839 0.033936
-0.030015 0.078668
-0.012879 -0.120340
-0.003494 0.219897
-0.009120 -0.159107
-0.022124 0.119576
-0.005376 0.050977
-0.020127 -0.104073
-0.011428 0.183829
-0.027860 -0.092478
-0.009783 0.047411
-0.013554 0.079707
-0.058262 -0.071926
0.043442 0.082097
-0.095153 0.025944
0.025518 -0.069047
-0.032081 0.143800
-0.048402 -0.113206
0.006232 0.088213
-0.034799 -0.002415
-0.034505 -0.041356
-0.007741 0.083542
-0.015634 -0.080482
-0.053400 0.074763
0.022625 -0.072696
-0.036147 0.080044
-0.040218 -0.104366
0.049244 0.099040
-0.086947 -0.093190
0.051788 0.043434
-0.045838 -0.030949
0.024641 0.009696
-0.044013 -0.049747
0.065629 0.052345
-0.080811 -0.061244
0.086301 -0.010779
-0.054979 0.072154
0.043614 -0.148389
-0.000616 0.144851
0.010739 -0.112715
0.020314 0.043981
0.012457 -0.014104
0.012039 0.028186
0.030749 -0.074595
0.002933 0.123319
0.020385 -0.111534
0.045773 0.077081
-0.044195 0.011431
0.098341 -0.040232
-0.048137 0.078284
0.025805 -0.025942
0.076849 0.028595
-0.111240 0.025427
0.154466 0.013034
-0.108632 0.023128
0.064610 0.016861
0.005669 0.038334
-0.035273 -0.004934
0.032448 0.049555
-0.002599 0.000774
-0.054342 0.040546
0.076415 -0.020389
-0.106356 0.097785
0.060895 -0.105833
-0.046088 0.155892
-0.034306 -0.111611
0.029891 0.084582
-0.075358 -0.012993
0.017461 -0.011525
-0.042939 0.022540
-0.004963 -0.008822
-0.066163 -0.011785
0.059012 -0.001626
-0.137231 -0.006607
0.089360 -0.021664
-0.092176 -0.030405
-0.013311 0.036532
0.022766 -0.120135
-0.061209 0.082839
-0.025924 -0.098753
0.085409 -0.021156
-0.184854 0.013950
0.183191 -0.075523
-0.138709 -0.050984
0.015601 0.080992
0.098897 -0.222789
-0.166539 0.168294
0.165584 -0.173285
-0.084497 0.005751
0.012083 0.030843
0.068817 -0.149234
-0.056516 0.103717
0.057409 -0.134152
0.008259 0.052204
0.003069 -0.063829
0.032522 0.000681
0.010083 -0.019058
0.014038 -0.008285
0.038203 -0.027479
-0.041757 0.026575
0.124978 -0.030696
-0.144762 -0.015103
0.180087 0.078048
-0.123008 -0.116594
0.072762 0.112530
-0.015576 -0.022470
0.019696 -0.051529
-0.063189 0.109975
0.083117 -0.030423
-0.073416 -0.067603
-0.036999 0.194612
0.091932 -0.161040
-0.147421 0.047626
0.015824 0.177487
0.061690 -0.302429
-0.202200 0.328235
0.083451 -0.181890
0.004799 0.013612
-0.255073 0.115919
0.221698 -0.123940
-0.198980 0.047211
-0.107197 0.022408
0.181759 -0.056868
-0.303015 -0.013147
0.064654 0.057967
0.030188 -0.137330
-0.263774 0.092837
0.158915 -0.103831
-0.151534 0.015025
-0.069003 -0.052636
0.033178 -0.019628
-0.107165 -0.034535
-0.032641 -0.058672
-0.016786 0.012758
-0.056795 -0.118341
-0.041382 0.074118
-0.006903 -0.190149
-0.059915 0.139212
0.006975 -0.203758
-0.069147 0.056857
0.035111 -0.016768
-0.064495 -0.147236
-0.009885 0.098909
0.025169 -0.083375
-0.067812 -0.078466
0.012192 0.078007
0.023811 -0.046844
-0.075946 -0.146719
0.033354 0.267148
0.019878 -0.318108
-0.106489 0.212228
0.110667 -0.066665
-0.109661 -0.015589
0.055826 0.012608
-0.083886 0.081795
0.076305 -0.075070
-0.116749 0.025932
0.012276 0.165871
0.054457 -0.208652
-0.214498 0.203513
0.168211 0.046336
-0.149528 -0.178950
-0.066569 0.301097
0.075433 -0.108500
-0.167714 -0.039072
-0.006116 0.260705
-0.033034 -0.178535
-0.095054 0.093826
-0.056607 0.142012
-0.065658 -0.146504
-0.005572 0.150637
-0.236439 0.012514
0.148164 -0.013221
-0.229121 0.022923
-0.089271 0.107638
0.104332 -0.120168
-0.300152 0.125885
0.034262 -0.014960
0.008320 -0.028712
-0.299144 0.055261
0.158335 0.004799
-0.198464 -0.043609
-0.052535 0.070150
-0.050819 -0.058050
-0.031621 0.060450
-0.142824 -0.089349
-0.000092 0.134804
-0.010177 -0.158169
-0.198770 0.131678
0.118544 -0.059673
-0.124178 -0.018305
-0.089309 0.089879
0.087468 -0.117395
-0.145209 0.145473
0.009226 -0.107669
-0.028678 0.070474
0.002063 0.067312
-0.131787 -0.138713
0.132721 0.230366
-0.147614 -0.116987
0.002019 0.030700
0.063933 0.177040
-0.152753 -0.146525
0.077610 0.149793
-0.026861 0.068101
-0.120233 -0.051846
0.164083 0.125817
-0.257713 0.065473
0.203953 -0.000458
-0.176015 0.063401
-0.012187 0.163252
0.094658 -0.095899
-0.207473 0.148543
0.069202 0.133563
0.042916 -0.116029
-0.269116 0.195324
0.237935 0.119487
-0.201054 -0.182877
-0.022200 0.349620
0.020830 -0.099799
-0.024965 0.049949
-0.167396 0.108935
0.132079 0.153720
-0.063732 -0.265826
-0.229489 0.481365
0.316887 -0.254001
-0.306292 0.090864
0.004088 0.225675
0.202420 -0.133144
-0.323454 0.072924
0.165890 0.166858
-0.027239 -0.011303
-0.029869 -0.131122
-0.153992 0.470072
0.359589 -0.374191
-0.451610 0.210852
0.298101 0.273465
-0.058120 -0.370476
-0.075220 0.389708
-0.033412 0.048216
0.258281 -0.213316
-0.388043 0.401936
0.246267 -0.087334
0.018111 -0.051241
-0.207794 0.373746
0.031924 -0.287849
0.288243 0.399603
-0.609162 -0.268212
0.428386 0.413539
-0.057908 -0.278069
-0.472126 0.267328
0.350819 -0.017321
0.058031 -0.024125
-0.953636 0.081949
1.205497 -0.031338
-1.183674 0.052166
0.322963 -0.196834
0.063906 0.152658
-0.404503 -0.123994
-0.216643 -0.367927
0.454416 0.320079
-0.836636 -0.355956
0.273572 -0.713665
-0.049885 1.032452
-0.351591 -1.681693
-0.132458 0.391081
0.430531 0.141945
-0.833372 -1.600670
0.525042 0.327943
-0.107485 0.290107
-0.219094 -2.785344
0.140534 1.988458
0.595285 -1.719847
-1.101129 -1.730029
1.962727 1.895690
-1.686197 -2.826986
1.910126 -0.581477
-0.435879 1.157305
-0.058960 -3.170543
2.294410 0.424606
-1.865848 -0.211053
2.092750 -1.752185
1.582140 -1.043598
-2.774642 1.672755
4.770706 -3.522927
-0.622515 0.618291
-2.583880 1.382761
6.732231 -3.329692
-2.420744 0.644020
-6.579060 4.305588
18.295636 -7.547073
-23.471176 7.309484
11.820892 1.387523
5.487075 -6.433696
-34.677097 11.994021
22.364175 3.560483
-14.522241 -15.702038
-91.125835 48.564403
67.174974 -44.277904
-256.807473 63.610140
-1009.786522 21.891792
