4187.292439 2191.769489
-908.123444 -725.103321
-31.700968 29.230487
-125.649681 250.798488
5.076992 15.602479
-13.251216 7.137427
-68.755945 55.392654
2.021289 3.799585
-3.055270 6.135436
-13.825370 7.113450
8.256250 -13.567667
-9.875604 1.264468
-5.368130 9.297016
8.473347 1.746199
-1.750629 1.755308
-2.858812 1.508067
-2.779904 1.375109
-2.874672 1.966133
-1.689578 -0.376030
-3.965861 -1.224742
-0.379883 0.120218
-1.125028 -0.666180
-2.187613 -0.974110
1.329076 0.605878
-2.762642 0.057498
-2.251235 1.448233
1.858450 2.891944
-1.580902 -0.958882
-1.793996 -0.850030
-0.954809 1.680159
-1.888170 -0.082147
0.566694 0.382177
0.848809 0.438330
-0.339034 -1.799431
-0.268419 -0.386705
-0.625285 0.594708
-0.119588 -0.412534
-0.226975 -0.257656
-0.804562 -0.228572
-0.474547 -0.383949
-0.528156 -0.660137
-0.736745 -0.502503
-0.699837 0.122084
-0.034471 -0.161319
0.195530 0.036521
-0.200452 -0.024698
0.058815 -0.796639
-0.869285 0.039885
-0.971297 0.596563
0.586122 -0.085166
-0.315805 -0.283055
-0.711474 -0.457081
0.084354 -0.342461
-0.742981 0.177742
-0.046135 0.209463
0.638259 0.022325
-0.350170 -0.110905
-0.092582 -0.124241
-0.174633 -0.048105
-0.645377 -0.070488
-0.373029 -0.141149
-0.503004 -0.032980
-0.132765 -0.010547
0.031279 -0.506709
-0.278428 -0.416669
0.163386 0.020215
0.190090 -0.340351
0.332512 -0.136704
0.663135 -0.162463
-0.045171 -0.904718
-0.290702 -0.144809
-0.060136 0.238629
-0.114655 -0.333998
0.113489 0.095047
0.041858 -0.162480
-0.082387 -0.525389
0.076220 -0.015458
-0.027571 -0.334530
0.036457 -0.417629
0.054945 -0.158445
-0.163525 -0.370406
-0.019203 -0.140078
-0.028198 -0.112365
-0.247795 -0.051695
0.079874 0.336946
0.330940 0.043803
0.067084 -0.048989
0.073002 0.053307
0.049880 -0.090330
-0.223562 0.204668
0.105040 0.192562
0.237984 -0.102388
-0.185644 -0.079059
-0.015112 -0.124235
0.078443 -0.058771
-0.097538 -0.109496
0.141047 -0.261496
0.031818 -0.139909
-0.115440 -0.218183
0.057634 -0.198161
-0.068616 -0.014437
-0.035438 -0.137004
0.057327 -0.074623
-0.009615 0.043749
0.115936 -0.130884
-0.025668 -0.106747
-0.140701 0.148749
0.088561 0.236797
0.110092 0.192819
0.132017 0.256810
0.160166 0.183348
0.025267 0.071509
0.036697 0.247434
0.080396 0.099021
0.017253 -0.158125
-0.132304 -0.004555
-0.183647 -0.058530
-0.045706 -0.064463
-0.033266 0.084867
0.049507 -0.078067
0.226221 -0.060258
0.173253 -0.056033
0.191579 -0.236195
0.215342 -0.151836
0.051870 -0.180475
0.024112 -0.172676
0.088540 -0.020188
0.036675 -0.166959
-0.063724 -0.143301
-0.014269 0.021309
0.084214 -0.073497
0.060708 -0.103540
0.129802 -0.129037
0.076553 -0.209436
-0.091564 -0.121110
0.055611 0.020358
0.091868 0.038033
0.012733 -0.005521
0.115546 0.079901
0.050763 0.111372
0.066010 0.014546
0.145818 0.042217
0.027156 -0.012483
0.096049 -0.134999
0.092435 -0.123317
-0.034629 -0.188480
0.035186 -0.230344
-0.066059 -0.142863
-0.103599 -0.061560
0.060130 -0.031935
-0.057334 -0.042086
-0.138014 0.084484
-0.033601 0.204318
-0.036731 0.216934
0.019318 0.284666
0.099791 0.173016
0.006775 0.073682
-0.078762 0.159964
-0.035607 0.077068
-0.063167 0.058526
-0.151902 0.089221
-0.115185 0.016316
-0.100651 0.106804
-0.111791 0.065275
-0.028684 -0.008676
0.009500 0.079471
0.050779 -0.081138
0.100212 -0.163746
0.067647 -0.149854
0.008745 -0.329887
-0.071990 -0.228695
-0.036642 -0.112015
0.017328 -0.247334
-0.066229 -0.177008
-0.054587 -0.102995
-0.052988 -0.109165
-0.060821 0.016724
0.063859 0.041563
0.043697 -0.026900
0.016715 -0.023346
0.044354 -0.017104
-0.033108 -0.070979
-0.017376 -0.132316
-0.095251 -0.134747
-0.194514 -0.149975
-0.124394 -0.162653
-0.249416 -0.107309
-0.283083 -0.034539
-0.149216 0.074748
-0.193266 0.181297
-0.058782 0.217305
0.054712 0.202027
-0.083025 0.177027
-0.036397 0.209235
0.004834 0.198622
-0.068525 0.106872
-0.062932 0.061502
-0.105074 0.023852
-0.139953 -0.000337
-0.118046 0.006569
-0.083040 -0.014043
-0.073495 -0.021621
-0.108888 -0.015319
-0.056597 0.036625
-0.038777 0.074368
-0.070483 0.048014
-0.001570 0.128776
0.025170 0.149363
0.065140 0.033725
0.094168 0.030504
0.008498 -0.022288
-0.006056 -0.095516
-0.046547 -0.011871
-0.092234 -0.022354
-0.062727 -0.061870
-0.149031 0.032569
-0.127707 0.085340
-0.011388 0.074666
-0.046031 0.069516
-0.023891 0.055717
-0.016499 0.030901
-0.085344 0.061198
-0.064350 0.118607
-0.063179 0.109571
-0.068293 0.157408
-0.028824 0.214017
0.049070 0.161486
0.136025 0.119919
0.102775 0.025407
0.106244 -0.057175
0.120221 -0.056788
-0.000664 -0.135382
-0.028047 -0.105748
-0.063197 -0.008962
-0.153672 -0.006009
-0.071266 0.103051
-0.031107 0.102253
-0.079135 -0.014703
-0.053319 0.032582
-0.052762 -0.010426
-0.065116 -0.106508
-0.080245 -0.091474
-0.130182 -0.106909
-0.155715 -0.070433
-0.142404 0.004185
-0.092415 0.027823
-0.065667 0.001435
-0.068594 -0.058138
-0.064952 -0.059982
-0.074081 -0.133410
-0.077283 -0.222778
-0.113666 -0.177738
-0.108721 -0.200596
-0.029444 -0.199908
-0.044191 -0.128695
-0.017115 -0.137587
0.057963 -0.069456
0.022923 0.001000
0.097501 -0.019351
0.136855 -0.045738
-0.027912 -0.096573
-0.061208 -0.055860
-0.060280 -0.016351
-0.142912 -0.040773
-0.104668 -0.002864
-0.100432 -0.032017
-0.151756 -0.025591
-0.078363 0.028531
-0.011629 -0.030380
0.009957 -0.037358
0.068493 -0.090890
0.095161 -0.160707
0.083116 -0.141284
0.055406 -0.213996
0.021928 -0.112310
0.062227 0.016633
0.110741 -0.066580
0.106581 0.040304
0.120018 0.037498
0.076789 -0.059599
0.055636 0.116921
0.138932 0.028942
0.091949 -0.100399
0.016762 0.026880
0.024940 -0.022572
-0.014841 0.063014
0.061606 0.219194
0.151470 0.145792
0.157697 0.181938
0.232953 0.138071
0.165702 0.011791
0.098231 0.023573
0.103433 -0.054686
-0.041045 -0.045141
0.025519 0.010148
0.072413 -0.078722
-0.092695 -0.003220
0.056494 0.092434
0.117213 0.081331
0.068050 0.123232
0.250305 0.029540
0.092657 -0.088122
-0.081317 -0.055132
-0.000020 -0.040012
-0.117890 -0.016338
-0.079517 -0.003319
0.007782 -0.035102
-0.070044 -0.007931
0.023355 -0.024864
0.002370 -0.043082
-0.050885 0.031063
0.018117 0.007200
-0.078832 -0.007898
-0.091364 0.067893
-0.099594 0.016877
-0.200510 0.067159
-0.073676 0.221532
0.041751 0.109300
0.072182 0.021213
0.110200 0.028187
0.053235 -0.098681
0.057888 -0.056359
0.077848 0.001098
0.077534 -0.135318
0.076867 -0.128917
-0.033944 -0.111037
-0.052602 -0.141601
-0.054535 -0.054307
-0.161683 -0.025099
-0.142717 0.027550
-0.138375 0.115533
-0.208608 0.100745
-0.209083 0.153025
-0.201159 0.204807
-0.169791 0.173014
-0.096363 0.147888
-0.007584 0.027118
-0.050790 -0.119233
-0.170252 -0.117802
-0.109850 -0.046069
-0.130699 -0.027653
-0.201248 0.003800
-0.137142 0.097502
-0.259828 0.128919
-0.294277 0.191158
-0.173562 0.286868
-0.238437 0.214860
-0.157389 0.175275
-0.062995 0.185843
-0.084276 0.068498
0.040469 0.003853
0.000650 0.006268
-0.009814 0.008531
0.130864 -0.006398
0.024414 -0.045753
0.001388 -0.020938
0.019234 -0.039566
-0.096471 0.025177
0.048113 0.143104
0.164254 0.006019
0.112773 -0.003188
0.183829 0.062222
0.206726 -0.063962
0.161238 0.007363
0.100762 0.003394
0.006612 -0.062768
-0.074766 0.106472
-0.176706 0.071382
-0.174377 0.085888
-0.186578 0.181629
-0.274347 0.081794
-0.138384 0.203772
-0.047798 0.157152
-0.130481 -0.040970
-0.078135 0.089392
-0.100035 0.016306
-0.170816 -0.034316
-0.088671 0.076679
-0.125737 -0.055787
-0.191100 -0.016180
-0.115266 0.063578
-0.097571 0.035362
-0.084552 0.092862
-0.062106 0.078983
-0.068488 0.224173
0.037741 0.216227
0.051443 0.029364
-0.057473 0.126570
-0.055875 -0.049488
-0.126579 -0.123503
-0.144158 0.063389
-0.020440 -0.230477
-0.118215 -0.196696
-0.149904 0.025403
-0.007905 -0.113242
-0.011486 0.099182
0.024401 0.110450
0.033816 -0.037476
-0.015373 0.124775
-0.042784 -0.076508
-0.172332 -0.105468
-0.119699 0.039420
-0.079092 -0.106074
-0.019135 0.078849
0.373706 0.017391
0.290591 -0.245375
0.172202 -0.011689
0.483562 -0.029476
0.257632 -0.109288
0.231574 -0.033077
0.324175 -0.237737
-0.215460 -0.198378
-0.148151 -0.041669
-0.024580 -0.023110
-0.240098 0.056382
0.083088 -0.053084
-0.028627 -0.042282
-0.152786 0.003935
0.041349 -0.183590
-0.348517 0.010810
-0.209137 0.147475
0.033045 -0.086696
-0.234183 -0.011832
0.036749 -0.114449
-0.073982 -0.336733
-0.243998 0.048813
0.289318 0.118792
0.276685 -0.216341
0.156101 -0.076114
0.146741 -0.076221
-0.088353 -0.096732
0.060738 0.269273
0.114890 0.099344
0.139087 -0.134713
0.179044 -0.034366
-0.124930 -0.265118
-0.009471 -0.138761
-0.027127 0.107157
-0.240428 0.006594
0.175022 0.297389
0.153443 0.117148
-0.204715 -0.306041
-0.170143 0.064495
-0.246621 0.006489
-0.159359 -0.166733
0.172400 0.006143
0.166738 -0.463614
-0.201531 -0.452232
-0.176389 0.264119
0.263956 0.387554
0.269701 0.348180
0.410817 0.342080
0.396007 0.068973
-0.189147 -0.118987
-0.042142 -0.082687
-0.123548 -0.058292
-0.267394 -0.210231
0.422166 -0.233570
0.164242 -0.207467
0.263541 -0.398702
0.588318 -0.234104
-0.153333 0.361291
0.815159 0.468452
1.148192 -0.063939
-0.126157 -0.249073
0.364276 -0.253859
-0.214454 -0.294965
-0.651527 0.465633
0.995760 0.359282
0.402130 -0.509313
-0.093442 0.100225
0.560412 0.103313
-0.189563 0.052266
0.092161 0.913902
0.277692 0.118900
-0.119007 0.258099
0.303314 0.431594
-0.394530 -0.915811
-0.346119 0.477124
0.144035 0.573520
-0.139189 -0.109116
1.370299 1.733508
1.093215 -0.431002
-0.739610 -0.640792
0.112608 2.469169
0.097435 0.229127
0.046027 0.516883
1.150329 1.108576
-0.312596 -2.120066
-0.725437 0.262896
0.619546 1.153891
0.416068 -0.316980
1.171237 1.569003
1.090070 0.693764
-0.072526 1.418392
1.045789 1.562077
-0.713968 -0.183397
-2.320735 2.787268
1.194392 0.720419
0.102051 -0.554627
-0.779286 1.298426
2.383886 -3.361678
-2.363823 1.224611
-1.194264 5.436282
6.230600 0.479667
-1.149858 3.390498
-4.252040 1.242682
-0.857653 2.510640
-6.446298 8.431269
-2.328074 -1.113415
1.773200 2.097009
-3.604055 1.741238
-0.892804 -5.909352
4.934263 13.106397
7.525664 1.262347
-11.007556 -2.965108
-15.771008 43.075202
8.473541 27.077880
-39.438725 7.213578
-49.785887 22.407638
-64.369633 -0.823832
-351.266586 -18.406924
405.729967 -314.108240
