3639.874791 4187.292439
-1153.990138 -137.002836
41.376796 -12.138101
-261.698649 -101.002680
13.500414 9.324806
14.922887 -1.960874
-67.507483 -56.907519
4.065882 1.411049
4.567341 -5.110542
-10.751070 -11.231943
-4.652579 -15.185545
9.946655 0.436431
-10.631677 -1.489553
6.407200 -5.813314
1.877372 -1.619038
-2.658798 -1.837897
-0.233144 3.092642
2.832704 -2.026131
-0.605982 -1.621375
-2.792705 3.070642
0.363231 -0.163790
-0.180047 -1.295016
-1.652038 1.733584
-1.427194 -0.310880
-1.962272 -1.945504
0.855683 2.536384
-2.650663 -2.188873
-0.581229 -1.755244
-1.108859 1.646634
0.214663 -1.920550
-1.500923 -1.148549
0.412240 -0.545215
-0.955010 0.023772
0.588775 -1.733851
-0.375080 0.284437
0.182227 -0.843476
0.057947 -0.425591
-0.223943 0.260296
0.764730 -0.338752
-0.328977 -0.514186
-0.519504 0.666967
0.875525 -0.169580
-0.709425 -0.037314
-0.141413 0.084939
-0.151961 0.128349
-0.195602 -0.050309
-0.749610 0.276003
0.449506 -0.745112
-0.990473 0.564154
-0.366352 -0.465381
0.398746 -0.144411
-0.738870 -0.411328
-0.327902 0.129904
0.122946 -0.753988
-0.012350 0.214128
-0.401505 -0.496655
0.209538 -0.301683
-0.120956 -0.096835
0.093460 0.155164
0.199916 -0.617667
-0.398819 -0.004121
0.375889 0.335870
0.024813 -0.130851
-0.191066 -0.470346
0.010739 0.501019
-0.022176 0.163131
-0.013356 -0.389608
-0.358324 -0.029261
0.217590 0.647145
-0.576337 -0.698849
0.217357 0.241316
-0.245543 -0.016392
-0.309173 -0.170624
-0.082886 -0.122653
0.167736 -0.004056
-0.443874 -0.292911
-0.077760 0.001313
0.301565 -0.147409
-0.312443 -0.279503
-0.068520 0.153065
0.256643 -0.313170
-0.129648 -0.056408
0.029209 0.112106
-0.088928 -0.236995
0.338106 0.074811
-0.333710 -0.008837
0.079849 0.022899
0.075328 -0.049966
-0.030818 0.098477
-0.302300 -0.021993
0.213005 -0.052369
-0.197544 0.167619
-0.087834 -0.181657
-0.125045 -0.005147
-0.049918 0.084354
-0.015514 -0.145817
-0.251612 -0.158005
0.037710 0.138437
0.009611 -0.246654
-0.199803 -0.051657
0.065161 -0.025897
0.024830 -0.139318
-0.081243 -0.047484
-0.020104 -0.040029
0.152384 -0.085739
-0.098464 0.048567
-0.004154 -0.204709
0.030421 0.250979
0.148669 -0.164915
-0.281672 -0.063567
0.132777 0.204059
0.055279 -0.051925
-0.224861 -0.109579
0.075855 0.102541
-0.146389 0.062221
0.067948 -0.113615
-0.186395 -0.049081
-0.026899 0.074303
-0.064672 -0.064239
0.037524 -0.084482
-0.192199 -0.133666
0.000081 0.182089
0.129041 -0.275388
-0.260217 -0.041392
0.165142 0.089385
-0.034749 -0.170853
-0.081709 -0.039631
0.161360 0.056420
-0.118230 -0.103042
0.023610 -0.010012
0.071453 0.085956
-0.000157 -0.120025
-0.174913 0.053895
0.214406 0.061271
-0.145237 -0.044247
-0.043798 -0.039860
-0.022117 0.096938
0.005884 -0.012569
-0.087728 -0.109722
-0.094244 0.078095
0.055672 -0.038336
-0.134859 -0.069701
0.021257 0.021009
-0.048591 -0.158395
-0.104184 0.113565
0.153912 -0.114170
-0.176677 -0.151927
0.065630 0.143061
-0.001986 -0.120492
-0.001748 -0.068062
0.060998 0.036573
-0.150706 -0.058932
0.178716 0.104572
-0.004727 -0.219970
-0.196188 0.207167
0.193381 -0.049967
-0.027240 -0.068796
-0.165355 0.066704
0.069730 0.048425
0.036841 -0.077834
-0.175239 -0.018052
0.007280 0.116107
0.040303 -0.141115
-0.129448 -0.001180
-0.008158 0.028836
-0.051109 -0.061594
0.080581 -0.051660
-0.174093 -0.080912
0.039997 0.159475
0.119918 -0.307443
-0.208636 0.118133
0.104056 0.055339
0.077813 -0.235413
-0.148793 0.116528
0.113720 0.025604
-0.035711 -0.115972
0.039210 0.049411
-0.070727 0.028341
0.045160 -0.024364
-0.028496 -0.003517
-0.007035 0.047015
-0.035853 -0.069633
-0.099867 0.088522
0.161891 -0.031950
-0.212949 -0.122398
-0.046106 0.199509
0.181205 -0.202209
-0.283463 0.031266
0.158445 0.052419
-0.132861 -0.229277
0.014216 0.224666
0.085979 -0.190829
-0.164544 -0.105627
0.052801 0.205708
0.106769 -0.167554
-0.104333 -0.072332
-0.024089 0.084632
0.103775 0.028983
-0.008066 -0.139721
-0.092575 0.073538
0.071040 0.045233
0.009926 -0.075963
-0.092454 0.059528
0.064954 -0.018046
-0.081693 -0.018985
-0.013997 0.084127
0.028033 -0.125698
-0.131796 0.074649
0.066788 -0.030331
-0.090205 -0.040759
0.023777 -0.001912
-0.083652 -0.046500
0.046364 0.012568
-0.028304 -0.090585
-0.083695 0.027525
0.145903 -0.044534
-0.144547 -0.051941
0.065175 0.038169
0.033057 -0.076542
-0.057396 0.019516
0.025081 0.024454
0.065657 -0.081962
-0.127577 0.043961
0.095980 0.082373
0.006849 -0.171447
-0.151814 0.153580
0.165246 -0.034340
-0.175381 -0.046096
0.074366 0.075352
-0.057812 -0.105898
-0.071509 0.112091
0.058718 -0.121987
-0.102338 0.038681
0.055491 -0.031543
-0.141858 -0.059391
0.115068 0.049576
-0.047309 -0.095839
-0.072650 -0.034648
0.046649 0.041574
0.042656 -0.032756
-0.046716 -0.115766
-0.054048 0.109021
0.162856 -0.043067
-0.150482 -0.081013
0.070285 0.123921
0.022582 -0.093834
-0.065604 0.003210
-0.010801 0.089267
0.081683 -0.033830
-0.089906 -0.123300
-0.124876 0.200022
0.205295 -0.048628
-0.149748 -0.172148
-0.122234 0.160900
0.135514 -0.012296
-0.058945 -0.125493
-0.089074 0.015799
-0.004282 0.022542
0.081624 -0.056732
-0.138630 -0.040037
0.097802 -0.023241
-0.080643 -0.019066
0.044732 0.043589
0.033861 -0.144705
-0.087794 0.057060
0.079243 0.069513
0.003524 -0.153858
-0.041570 0.072297
0.001633 0.032489
0.038654 0.000781
-0.017021 -0.112528
-0.127836 0.136163
0.160800 0.031823
-0.131775 -0.177480
-0.035557 0.108766
0.010980 0.063468
0.005341 -0.129105
-0.105453 -0.043170
0.028148 0.122548
-0.016777 -0.095745
-0.063574 -0.112802
0.057780 0.129619
-0.057847 -0.123241
-0.020954 -0.023758
0.033417 0.003839
0.055998 0.032484
-0.116141 -0.195838
0.010641 0.209964
0.209431 -0.118780
-0.266536 -0.047847
0.123923 0.110631
0.033464 -0.095316
-0.069017 0.094476
-0.010699 -0.060066
0.010301 -0.025458
-0.020626 0.104954
-0.081385 -0.044488
0.086975 -0.064583
-0.142557 0.005582
0.018963 0.139490
-0.017312 -0.251446
-0.008769 0.127570
-0.063417 -0.075034
-0.038422 0.011166
0.091010 -0.076696
-0.077686 -0.017284
-0.035493 0.005738
0.048023 -0.051604
0.025292 -0.022891
-0.039404 0.017577
-0.000444 -0.059615
0.018223 0.006927
0.035936 0.070607
-0.022007 -0.111681
-0.097108 0.027817
0.176780 0.116033
-0.183070 -0.144879
0.063347 0.098370
-0.034544 -0.066835
-0.054803 0.099675
0.021327 -0.110078
-0.080645 0.004861
-0.013194 0.076730
0.018802 -0.154819
-0.137206 0.060851
0.112874 -0.027217
-0.113609 -0.099553
0.020372 0.074218
0.019257 -0.162482
-0.103090 0.102467
0.173628 -0.048463
-0.127355 -0.193515
-0.064404 0.250967
0.256333 -0.129245
-0.206947 -0.126237
0.036175 0.172766
0.013598 -0.024657
0.096827 -0.086143
-0.199270 0.056164
0.102640 0.060450
-0.028106 -0.130602
-0.109601 0.168828
0.140844 -0.092075
-0.240429 -0.162247
0.027174 0.349860
0.156919 -0.296300
-0.312896 -0.071503
0.099624 0.213466
0.033903 -0.193278
-0.106857 -0.019390
0.015878 -0.037423
-0.002177 -0.005914
-0.012987 -0.000654
0.021054 -0.129317
-0.007482 0.051316
0.014086 -0.015553
-0.037118 -0.023615
0.076462 -0.063985
-0.037252 0.146307
0.008977 -0.164119
-0.095232 0.060488
0.134666 0.139749
-0.079893 -0.201107
-0.134290 0.089544
0.092257 0.040659
-0.062964 0.004367
-0.015268 -0.129202
-0.189653 0.018759
0.129333 0.145111
-0.007057 -0.260290
-0.284835 0.028733
0.239824 0.056192
-0.096346 -0.133037
-0.126107 -0.052923
0.114864 0.030037
0.038632 -0.093704
-0.170918 -0.033802
0.112020 0.034548
0.105503 -0.088268
-0.191763 0.002809
0.120623 0.052713
0.001319 -0.103773
-0.064932 0.107500
0.100118 -0.008481
-0.198497 -0.124672
0.098257 0.196275
-0.019098 -0.056071
-0.115163 -0.077850
-0.070431 -0.024709
0.029916 0.174300
-0.052842 -0.148349
-0.125252 -0.194549
0.002191 0.229476
-0.028998 -0.149250
-0.068641 -0.090414
0.052255 -0.085079
-0.106730 0.037462
0.002943 -0.050392
0.056035 -0.112540
0.065546 -0.058203
-0.197055 0.044621
0.125670 -0.009426
0.076636 -0.107862
0.047796 0.065566
-0.367116 -0.072002
0.340612 0.169221
0.088579 -0.148135
-0.484436 0.004758
0.220218 0.172691
0.084309 -0.218203
-0.313139 0.252095
0.041871 -0.289868
-0.097803 0.118826
0.027587 0.019422
-0.197326 -0.147948
-0.024409 -0.095528
0.037763 0.034368
-0.111606 -0.104419
-0.169959 -0.080801
0.325791 -0.124264
-0.255320 -0.017286
-0.081849 -0.043689
0.217841 -0.086758
0.093887 -0.075062
-0.338803 0.063836
0.186573 -0.164646
0.199475 0.240887
-0.234138 -0.261797
-0.082561 0.152789
0.164751 -0.014140
-0.081196 0.102813
-0.222863 -0.162878
0.080743 0.128645
-0.165772 -0.100063
-0.097956 0.153761
-0.069418 -0.284738
-0.126851 0.057036
-0.067956 -0.087181
-0.239792 -0.018670
0.191507 -0.287051
-0.181074 0.066937
-0.201949 -0.307873
0.143538 0.111825
0.105580 -0.222973
-0.173259 -0.152238
-0.098417 -0.141681
0.371160 0.324006
-0.280549 -0.407947
0.314036 -0.047472
-0.444863 0.148214
0.355242 0.260328
-0.074917 -0.529318
-0.138833 0.377232
-0.219602 -0.041344
-0.015554 0.091494
0.068463 -0.118215
-0.333713 -0.065823
-0.482119 -0.018462
0.209425 0.161737
0.007847 -0.477866
-0.631686 -0.043528
-0.375728 -0.113450
0.930691 -0.133214
-1.100036 -0.335193
0.218309 -0.174051
0.089208 -0.434952
0.133016 0.339561
-0.637542 -0.484605
0.924035 -0.516509
-0.477778 0.439132
-0.128533 -0.047492
0.409191 -0.396609
0.192481 -0.040214
-0.761679 0.513377
0.241635 -0.181281
0.110417 -0.261889
-0.190529 0.491906
-0.996984 -0.019659
0.281788 -0.517726
-0.353121 0.474318
-0.148368 0.096264
-1.722872 -1.383647
1.075664 0.473107
-0.794975 0.570660
-0.886765 -2.307189
-0.071607 0.238464
0.518297 0.025596
-1.501011 -0.546958
0.934618 -1.928441
0.232169 0.735847
-1.106529 -0.700638
0.517226 -0.077889
1.503422 -1.254308
-1.290925 0.055433
-0.626123 1.274781
1.388038 -1.267718
0.662353 -0.323533
-3.059136 1.948426
0.407489 -1.333990
0.327646 0.458992
-1.036423 1.104094
-3.966915 -1.116859
0.515259 -2.611865
-1.821399 5.259462
-2.211123 -5.844775
-2.215283 -2.812503
-4.277225 1.153019
2.597302 -0.541206
-4.496444 -9.613691
-2.405038 -0.935636
0.647845 -2.668704
-0.262479 -3.994023
-1.886475 -5.670869
6.515357 -12.396561
-3.350170 6.856056
-11.399820 0.047662
40.856563 -20.855191
-28.197946 3.144568
-34.298707 20.761683
53.173002 12.384207
6.997070 -63.993510
-322.991154 139.297323
-510.380988 52.839753
