289.250000 226.500000
-208.987066 90.312221
6.666352 5.241194
1.528475 -3.046994
-11.409226 0.204406
-5.369315 -12.515543
-3.817430 4.621091
-5.206131 -1.971408
0.938214 -2.985623
-0.963573 1.050795
-2.712591 -3.393941
0.398733 0.305058
-1.346688 1.066186
-0.047906 -1.548807
1.456192 0.099323
-1.249651 -0.016939
0.606706 -0.130053
0.465538 0.496543
0.284518 -0.319036
-0.059252 -0.399360
-0.406759 0.387974
-0.156362 -0.125943
0.703766 0.164683
-0.172979 0.440062
-0.102671 -0.671848
0.131347 0.610461
-0.666603 -0.119245
0.004422 0.154380
0.020668 0.111140
-0.167953 -0.380164
0.351103 -0.163183
0.052646 0.180152
0.010750 0.055066
0.439927 -0.179368
-0.375149 0.242183
-0.192841 0.093002
-0.083333 0.166667
-0.116500 -0.019439
0.168722 -0.438035
-0.332944 0.244501
-0.205012 -0.303518
0.206564 0.025817
-0.147544 0.292424
0.029650 -0.261973
0.178838 0.084468
-0.011054 -0.011343
-0.030693 -0.162498
0.209297 0.287430
-0.269338 -0.072169
0.001553 -0.113984
-0.155413 0.139280
-0.141762 -0.012175
-0.059046 -0.231358
0.056666 -0.327036
-0.284518 0.083333
-0.074649 -0.089581
0.000398 0.205132
-0.111759 -0.132551
0.107144 0.068906
-0.205577 -0.005645
0.096688 -0.232852
0.206699 -0.022362
0.020590 0.117051
0.305628 -0.089554
0.221807 0.204160
-0.007956 0.011092
0.297374 0.015654
-0.104452 0.108878
-0.012876 -0.332080
-0.125364 -0.062999
-0.037756 0.069790
-0.037848 -0.105899
-0.083333 -0.166667
-0.028581 -0.207917
-0.250990 0.015560
-0.163424 -0.079859
-0.139522 -0.171200
-0.128288 0.172589
-0.180967 0.104976
-0.220347 -0.015984
-0.106462 0.166954
-0.528052 -0.128206
-0.008737 0.015773
-0.440242 0.007231
-0.180021 -0.299840
0.102431 0.240194
-0.103807 -0.079168
0.163639 0.048256
-0.174270 -0.074956
-0.057353 0.101301
0.048816 0.152369
-0.093622 0.030057
0.137056 -0.083503
0.256015 0.187672
0.101475 0.135009
0.133189 0.038909
0.019338 0.072169
0.015786 0.389977
-0.198033 0.058012
0.153869 0.101542
-0.285893 0.243459
0.108985 -0.157363
-0.019373 0.270449
-0.331659 -0.042583
-0.130600 0.014947
0.023983 0.332732
-0.007969 0.111293
-0.036261 0.014964
0.250000 0.166667
0.034587 0.188656
0.041620 0.243196
-0.210740 0.060984
-0.203512 0.142400
0.244631 0.110930
-0.374785 -0.343065
0.279818 -0.431970
-0.076199 -0.272400
0.169345 -0.244579
0.200665 -0.104374
-0.319037 -0.137636
0.186004 0.338515
-0.046038 -0.280637
0.184814 0.428338
-0.260260 -0.531108
0.306032 0.093554
0.247727 0.301604
-0.048816 0.083333
0.391032 0.567173
0.720712 -0.438526
0.482620 0.035783
-0.082825 -0.807355
-0.173861 -0.654750
1.263355 0.133173
-0.457310 -1.318892
0.425013 -0.633711
-1.797253 -0.833035
0.321270 0.644018
-0.408249 -0.069244
-1.108378 -1.798346
-1.734830 4.790702
-12.253072 0.465541
10.524273 25.278007
-21.445786 22.588733
-20.090775 -4.746827
