1958.212993 4737.572139
297.441192 -862.457517
-102.163447 -179.245705
-44.248061 125.678588
-83.085575 -110.223941
16.076900 -57.480492
38.731078 32.459982
-29.676299 -8.661494
-2.367936 -2.700646
6.349698 -5.539495
-6.937604 -4.958230
7.582185 -0.749577
5.809596 -2.115686
-2.625424 3.040677
1.587521 -2.244273
-1.044681 -1.622479
2.947099 0.882405
3.454492 -0.374433
-0.570286 1.525642
2.912134 0.806821
1.022035 -0.676774
0.828911 1.651091
2.525428 -0.884540
1.697599 0.038989
2.158866 2.645356
1.309494 -0.966161
1.308909 0.415684
1.526293 0.274521
0.329824 0.338893
1.440168 1.531767
1.471271 -0.380725
0.603864 1.023323
1.965776 0.898505
0.556582 -0.314133
1.521543 1.134690
1.659910 0.453189
0.053081 0.224014
2.307548 0.955419
0.580951 0.204463
0.817102 0.121207
1.504633 0.063591
-0.464227 0.486576
2.000047 0.651190
0.886423 0.355830
0.052145 0.881095
2.033786 0.018314
0.239704 0.630784
1.007218 0.724889
1.379249 -0.145793
0.038132 1.258633
1.353562 0.014378
0.473653 0.275991
0.609376 0.589203
0.893835 -0.868758
0.012946 1.224514
1.125860 0.355185
0.421364 -0.086192
0.531300 1.162921
0.888574 -0.301236
0.200264 0.400892
1.124546 0.589628
0.299537 -0.478383
0.826955 1.062253
0.630502 -0.031985
0.156744 0.012122
1.245590 0.570768
-0.202084 -0.562779
0.303824 0.788264
0.709094 0.120756
0.007999 -0.121951
0.871831 0.462804
0.554958 -0.292435
0.398622 0.342445
1.149990 0.176039
-0.051991 0.008370
0.847188 0.369344
0.586206 -0.053934
0.034110 0.143639
1.304894 -0.139379
0.019904 -0.048155
0.354906 0.340799
1.087132 0.295381
-0.277370 0.542889
0.659867 -0.095970
0.684909 -0.034059
0.177986 0.620596
0.842931 -0.378138
0.280276 0.393668
0.413422 0.310295
0.623694 -0.328895
0.129675 0.518870
1.042493 -0.303858
0.164759 0.132444
0.180158 0.800983
0.398106 -0.397154
0.424079 0.729950
0.470020 0.184351
0.129743 -0.037633
0.438246 0.692838
0.411957 -0.586292
0.315886 0.715741
0.440122 0.314493
-0.310169 -0.254822
0.702192 0.435206
0.262128 -0.232056
-0.105046 0.300273
0.298291 0.112679
-0.194273 0.022520
0.482802 0.322486
0.207459 -0.232556
0.033937 0.186543
0.822727 0.148795
-0.504464 0.065938
0.450775 -0.322434
0.547297 0.130341
-0.258766 0.071966
0.587168 -0.149102
0.276947 -0.074644
-0.079970 0.187534
0.359543 -0.376993
-0.057459 0.505233
0.239986 -0.307557
0.708288 -0.188523
-0.129800 0.494281
0.633416 -0.505263
0.366137 0.110671
0.250308 0.379083
0.454608 -0.326234
-0.121232 0.650404
0.343549 -0.346445
0.189519 -0.203410
0.449551 0.514995
-0.121356 -0.359117
0.208506 0.558943
0.381784 0.204896
-0.238301 -0.137066
0.394857 0.427610
-0.070629 -0.153547
-0.149038 0.005613
0.310560 -0.098897
-0.349372 -0.296476
0.425877 -0.374584
0.648443 0.005096
-0.113356 0.114828
0.253120 -0.024731
-0.077574 -0.357084
0.190270 0.119635
0.701164 0.032956
-0.100879 -0.130762
0.605344 0.306757
0.259356 -0.180048
-0.044892 0.371341
0.623173 -0.224210
-0.207040 0.384991
0.066091 0.102905
0.339739 -0.303276
-0.228805 0.499325
0.412648 -0.367752
-0.296108 0.235677
0.061829 0.231458
0.180176 -0.099047
-0.301351 0.159735
0.373795 -0.310133
-0.016558 0.046346
0.063523 0.050375
0.112348 -0.356531
0.098605 0.056576
0.091652 0.230003
-0.083931 -0.453776
0.049224 0.291673
0.236503 -0.476275
-0.278276 0.091455
0.399829 0.122149
-0.285761 -0.188822
0.396926 0.013081
0.101248 -0.189225
0.113620 -0.004169
0.357691 0.215526
-0.373806 -0.176008
0.079612 0.068636
-0.076613 -0.252500
-0.065201 -0.201330
0.339192 -0.181266
0.039587 0.025245
-0.267744 -0.178883
0.281460 -0.114659
0.041818 -0.109549
0.231355 0.002334
0.274773 -0.330784
-0.012931 0.126217
0.687625 -0.118453
-0.448461 0.314664
-0.011157 -0.319595
0.380861 -0.273345
0.034094 0.331388
0.115539 -0.048493
-0.083203 -0.105271
0.038861 0.136514
-0.015241 0.041539
-0.220099 0.126654
-0.027158 -0.027557
-0.176515 -0.695840
0.307325 0.035139
0.423966 -0.262416
-0.215868 0.076390
0.271321 0.119520
-0.295648 -0.419559
0.346570 0.212100
0.041867 -0.148259
-0.110914 -0.065708
0.279055 0.203169
-0.389238 -0.044187
-0.032097 0.110428
0.224665 -0.229587
-0.234519 -0.017683
0.037741 0.039144
-0.082700 -0.367257
-0.225528 -0.086913
0.269948 -0.320051
-0.198070 -0.171002
0.271818 0.035204
0.023957 -0.262735
-0.080019 0.070190
0.234911 -0.084652
-0.378813 0.021088
0.072008 0.007768
0.139448 -0.315044
-0.103213 0.013491
0.123594 -0.182332
0.159562 -0.110773
-0.321476 0.196147
0.086188 -0.364785
-0.385842 -0.009476
0.093184 -0.071695
-0.322569 -0.679293
0.384344 -0.041270
0.142015 -0.319634
0.082426 0.056595
0.241405 0.366831
-0.195986 -0.278154
0.096866 0.342754
-0.552558 -0.336656
0.199280 -0.540237
0.289796 0.204500
-0.354283 -0.029163
-0.258066 -0.157435
0.030125 -0.118966
-0.375861 -0.474742
0.332222 -0.112472
-0.218820 -0.395402
0.208447 -0.141978
0.157608 -0.009333
0.142126 -0.177911
0.105979 0.108873
-0.089530 -0.118408
-0.136462 -0.133717
0.046709 -0.155543
0.035196 -0.276148
-0.294448 0.279283
0.200999 -0.642603
-0.142260 0.247457
0.140098 -0.305647
-0.074938 -0.114968
-0.056282 0.044139
0.240148 -0.216134
-0.036456 0.261710
-0.063417 -0.106399
0.059447 -0.199972
-0.297762 0.522142
-0.351912 -0.509363
-0.386740 -0.180345
-0.053364 -0.314286
0.109461 -0.474187
-0.072649 0.236743
0.100897 -0.425810
-0.292655 0.022652
0.181627 -0.151247
-0.217237 -0.020745
-0.044506 0.007303
-0.243473 -0.251428
-0.137824 -0.550162
0.171207 0.077917
-0.084104 -0.224432
-0.680266 -0.112924
0.259692 -0.601173
-0.225914 -0.332746
0.418260 -0.143355
0.051533 -0.269730
-0.005327 0.100415
0.101521 -0.131849
-0.100683 -0.005959
0.032578 0.134994
-0.080716 -0.221005
-0.375850 -0.011200
-0.144960 -0.274800
-0.038377 -0.487893
-0.137957 0.120792
-0.102598 -0.444642
-0.092954 -0.094817
0.119634 -0.116332
-0.198546 -0.150046
-0.174968 -0.149360
-0.096083 -0.218285
-0.024467 -0.423114
0.076074 0.341627
-0.274224 -0.748542
0.057943 -0.096643
0.165621 -0.274317
-0.071245 -0.230796
0.140034 0.203083
-0.352807 -0.217923
-0.115474 -0.028083
0.047664 -0.125237
-0.397898 -0.172078
-0.029220 -0.197593
-0.117943 -0.314634
-0.094699 -0.144359
0.209830 -0.048855
-0.275086 -0.168839
-0.212054 -0.134879
-0.094146 -0.445386
-0.117477 -0.155651
0.015533 -0.297093
-0.040577 -0.020701
-0.469147 -0.077016
0.275460 -0.510563
-0.241109 -0.052528
0.190300 -0.057885
-0.351079 -0.273618
-0.029190 0.065676
-0.053805 -0.425656
0.037678 -0.020808
-0.167048 -0.098856
-0.161396 -0.186505
-0.361666 -0.041155
-0.063033 -0.304349
-0.560016 -0.206786
-0.041988 -0.213742
-0.166560 -0.682948
0.167195 0.073491
-0.215351 -0.358733
0.004643 -0.252400
-0.146313 0.111276
-0.087978 -0.518604
-0.108479 0.032564
-0.124657 -0.401101
-0.221309 -0.409211
0.125862 0.116045
-0.425400 -0.563456
0.010258 -0.086730
-0.017119 -0.189949
-0.147136 -0.254924
0.040946 0.087309
-0.416391 -0.272269
-0.287340 -0.318199
0.039739 -0.307591
-0.224266 -0.297627
0.056335 -0.387233
0.125768 -0.242239
-0.300757 -0.192585
0.128302 -0.119063
-0.265916 -0.230181
-0.297148 -0.184561
0.195767 -0.273001
-0.196796 -0.056502
-0.184765 0.061812
-0.266901 -0.623730
-0.183336 -0.041348
0.136419 -0.445044
-0.251741 -0.065180
0.077061 -0.235457
-0.081537 -0.355428
-0.185295 0.046047
-0.169056 -0.179271
-0.171053 -0.410732
-0.176393 0.334379
-0.477648 -0.538402
-0.099157 -0.162003
-0.093150 -0.297069
-0.136170 -0.446428
0.007111 0.150752
-0.300465 -0.249114
-0.416976 -0.155148
-0.065126 -0.286290
-0.471387 -0.619879
0.072921 -0.187059
-0.327582 -0.338833
-0.182281 -0.517763
0.143907 -0.177045
-0.270634 -0.193619
-0.030562 -0.332929
0.218811 -0.020126
-0.593259 -0.237336
0.137500 -0.085573
-0.535396 -0.315145
-0.256621 -0.248782
0.060556 -0.662847
-0.101886 -0.244453
0.118834 -0.195835
-0.187711 0.048171
-0.603681 -0.149338
0.035851 -0.535051
-0.417665 0.007580
-0.068004 -0.368672
-0.220848 -0.382652
-0.094137 -0.303460
-0.046917 -0.252461
-0.109732 -0.248077
-0.217838 0.060517
-0.144417 -0.396556
-0.529131 -0.135753
-0.129379 -0.489627
-0.421524 -0.382853
-0.104822 -0.252138
-0.237884 -0.670779
0.029012 -0.142386
-0.004051 -0.180317
-0.224893 -0.392772
-0.060653 -0.166433
-0.059312 -0.329291
-0.347039 -0.162131
0.054796 -0.222188
-0.387829 -0.297658
-0.174447 -0.401343
0.045229 -0.430341
-0.175829 -0.137600
0.006544 0.059213
-0.435357 -0.283471
-0.421687 0.019576
-0.070125 -0.510016
-0.449171 -0.160878
-0.054450 -0.624455
0.096237 -0.112216
-0.592071 -0.051999
-0.073039 -0.479124
-0.237308 -0.382174
-0.099708 -0.151489
-0.123061 -0.406926
-0.515118 0.030891
-0.110698 -0.364003
-0.425328 -0.364319
-0.364653 -0.004137
-0.150054 -0.719764
-0.316088 -0.152704
-0.022752 -0.508684
-0.226414 -0.440028
-0.169198 0.051383
-0.220675 -0.696448
-0.088002 -0.062725
-0.186481 -0.188905
-0.492476 -0.529148
-0.183175 -0.016790
-0.429438 -0.628607
-0.056853 -0.356731
-0.220550 -0.089816
-0.202361 -0.477583
-0.172479 -0.151766
-0.105028 -0.344112
-0.580798 -0.303855
-0.061932 -0.334629
-0.430334 -0.484399
-0.123374 -0.369528
-0.119957 -0.437133
-0.329583 -0.442672
-0.092538 -0.390725
0.177476 -0.245656
-0.597253 -0.020325
0.132188 -0.461634
-0.414573 0.026858
-0.167302 -0.290242
-0.316932 -0.458239
-0.301050 -0.153906
-0.364430 -0.525230
0.114237 -0.387983
-0.470115 0.188296
-0.350625 -0.687753
-0.425726 -0.346764
-0.141146 -0.357225
-0.255975 -0.573159
-0.031268 0.104221
-0.550004 -0.466920
-0.147632 -0.361615
-0.104669 -0.132898
-0.408688 -0.712282
-0.065706 0.001554
-0.419264 -0.493726
-0.319793 -0.435633
0.133796 -0.264337
-0.380308 -0.268631
-0.315264 -0.185788
-0.241158 -0.292256
-0.629699 -0.189880
-0.120992 -0.455117
-0.446263 -0.140042
-0.624647 -0.504971
0.140810 -0.550985
-0.380129 -0.494043
-0.114974 -0.126480
-0.254770 -0.494910
-0.669103 -0.094451
0.094802 -0.796543
-0.399835 -0.057164
-0.484825 -0.452436
-0.047660 -0.661677
-0.439603 -0.005947
-0.101759 -0.532033
-0.317724 -0.413051
-0.193099 -0.035435
0.046559 -0.660056
-0.330674 0.205211
-0.458674 -0.219573
-0.674537 -0.504268
-0.424438 -0.090792
-0.595656 -0.942885
-0.044646 -0.411854
-0.402488 -0.265753
-0.468184 -0.675028
-0.278306 -0.415773
0.070177 -0.431367
-0.457214 -0.425796
-0.043780 0.106646
-0.629279 -0.922600
0.175341 -0.248983
-0.284155 -0.280413
-0.559631 -0.305425
-0.214988 -0.230186
-0.669800 -0.553691
-0.241690 -0.695855
0.024045 -0.332485
-0.567372 -0.516772
0.047549 -0.279159
-0.189820 -0.404580
-0.161979 -0.192019
-0.158194 0.109864
-0.615459 -0.423712
-0.320472 -0.195451
-0.422045 -0.653171
-0.516799 -0.084085
-0.389967 -0.690474
-0.085802 -0.291322
-0.683141 -0.136744
-0.260507 -0.699297
-0.491292 -0.326800
-0.305280 -0.271701
-0.169847 -0.628448
-0.538380 0.166124
-0.251001 -0.746681
-0.405581 -0.016423
-0.550040 -0.330705
-0.668338 -0.913092
-0.394585 -0.183469
-0.436814 -0.932993
-0.108266 -0.482796
-0.234535 -0.173183
-0.378547 -0.621222
-0.649964 -0.232340
0.099008 -0.739002
-0.507528 -0.094569
-0.168222 -0.285882
-0.551562 -0.568205
-0.117454 -0.221980
-0.168543 -0.295359
-0.946729 -0.310225
-0.340051 -0.441279
-0.643294 -0.502685
-0.646861 -0.567152
-0.123023 -0.845131
-0.182916 -0.464667
-0.361116 -0.257713
-0.038904 -0.335824
-0.917583 -0.111642
-0.052758 -0.592952
-0.714423 -0.436475
-0.265531 -0.405271
-0.024442 -0.750871
-0.670664 -0.088340
-0.308170 -0.507795
-0.459550 -0.419870
-0.671088 -0.063951
-0.446436 -0.982580
-0.349010 -0.350432
-0.480694 -0.323509
-0.366918 -0.840159
-0.377403 0.041684
-0.430735 -0.822470
-0.305281 -0.619612
0.041457 0.007912
-0.543573 -0.716780
-0.409889 -0.158083
-0.444521 -0.419908
-0.716813 -0.513973
-0.166689 -0.238421
-0.613230 -0.580019
-0.402426 -0.289254
-0.471413 -0.238256
-0.921111 -0.584636
-0.295942 -0.565038
-0.252407 -0.391079
-0.951008 -0.631237
0.159624 -0.502304
-0.618760 -0.698002
-0.189398 -0.475307
-0.071107 -0.213090
-1.140556 -0.051794
-0.258390 -0.565385
-0.749661 -0.649407
-0.288288 -0.314244
-0.340886 -0.405020
-1.014984 -0.224507
-0.259429 -0.668815
-0.409735 -0.321434
-0.996249 -0.275696
-0.312226 -0.844349
-0.551148 -0.642255
-0.503349 -0.294341
-0.639937 -1.029735
-0.642802 -0.025855
-0.327956 -1.006968
-0.556154 -0.442729
-0.332774 -0.260130
-0.638410 -1.006585
-0.277145 -0.030235
-0.503888 -0.551007
-0.582253 -0.616042
-0.261880 -0.053070
-0.960737 -0.803512
-0.360461 -0.522182
-0.467027 -0.754309
-0.774784 -0.592509
-0.243164 -0.473086
-0.476815 -0.255485
-1.023619 -0.743025
0.070674 -0.420517
-1.037503 -0.720185
-0.155735 -0.334996
-0.523430 -0.478234
-0.911095 -0.605529
0.106645 -0.603098
-0.892391 -0.446511
-0.368203 -0.585166
-0.158419 -0.824775
-0.929568 -0.064908
-0.407997 -0.517800
-0.564722 -0.519289
-0.756652 -0.137607
-0.418978 -0.841628
-0.683545 -0.334790
-0.468930 -0.244728
-0.602114 -0.568468
-0.872535 0.004156
-0.801915 -0.763371
-0.771653 -0.827868
-0.640576 -0.186425
-0.567044 -1.456941
-0.775279 0.072463
-0.848451 -0.464449
-1.049745 -1.272002
-0.155384 -0.119991
-0.825050 -1.034001
-0.877734 -0.503040
-0.123909 -0.702862
-1.053283 -0.902215
0.113552 -0.404148
-0.518828 -0.569931
-0.924492 -0.449262
0.029648 -0.337487
-1.370995 -0.712925
-0.626702 -0.507514
-0.679116 -0.563038
-0.942325 -0.574221
-0.315179 -0.330563
-1.047829 -0.733513
-0.823164 -0.456226
-0.350378 -0.671267
-1.212494 -0.428314
-0.638948 -0.410813
-0.871620 -1.195844
-1.058572 -0.374852
-0.124285 -1.141713
-1.184710 -0.617137
-0.679781 -0.627405
-0.756791 -0.937473
-0.952054 -0.172478
-0.470229 -0.944648
-1.086722 -0.873520
-0.448258 -0.315333
-0.700171 -1.285017
-0.903340 0.095714
-0.689234 -1.229014
-0.636872 -0.940106
-0.561654 -0.045124
-0.969715 -1.337909
-0.560110 -0.568337
-0.797797 -0.474548
-1.400222 -1.112196
0.030096 -0.235957
-0.997170 -0.635021
-1.002948 -0.645873
-0.457648 -0.423118
-1.314124 -1.003779
-0.415642 -0.410476
-0.778037 -0.443056
-1.540901 -0.969640
-0.163051 -0.626174
-1.170503 -0.732313
-1.071672 -0.526011
-0.804844 -0.893768
-1.829373 -0.523767
-0.511027 -0.666198
-0.820634 -0.892063
-1.800594 -0.272693
-0.191348 -1.460572
-1.582308 -0.415086
-0.950661 -0.634852
-0.738456 -1.545530
-1.372074 -0.070901
-0.631586 -1.259383
-1.502395 -0.964732
-0.905251 -0.355860
-1.188677 -1.887327
-1.637307 0.221097
-0.915645 -1.027049
-1.398410 -1.601500
-0.855662 0.139121
-1.283129 -2.109033
-1.064462 -0.385376
-0.964165 -0.497030
-1.811840 -2.067172
-0.627267 0.009426
-1.493827 -1.847318
-1.578082 -1.291508
-0.002088 -0.566334
-2.492321 -1.898559
-0.779540 -0.357280
-0.777784 -0.787472
-2.343160 -1.211199
-0.013929 -0.762849
-2.078061 -1.355266
-1.420926 -0.956102
-0.215299 -1.090345
-2.884410 -0.987980
-0.377895 -1.276344
-1.395623 -1.424153
-2.491505 -0.652724
0.064164 -1.946287
-2.911297 -0.813492
-1.622050 -0.916844
-0.853093 -1.629490
-2.625948 -0.243342
-0.488924 -2.208515
-1.896601 -1.094907
-1.956728 -0.203180
-1.201926 -2.699457
-2.661473 -0.036865
-1.476654 -1.818558
-2.180460 -2.562945
-2.093814 0.204112
-1.612498 -3.377816
-2.697698 -0.791770
-2.347631 -0.608614
-2.801681 -3.258871
-1.393656 0.187135
-2.129386 -2.978610
-2.883470 -1.958882
-1.112917 0.059343
-4.327010 -3.958509
-1.977895 -0.738488
-2.187808 -2.166679
-5.030793 -4.066308
0.363674 -0.350784
-5.054619 -3.170495
-4.196057 -2.517521
-1.011769 -1.602476
-7.682367 -2.630539
-0.429472 -2.006222
-3.881193 -4.330835
-6.323124 -2.040731
0.462593 -3.037819
-9.794960 -3.406155
-4.323239 -3.480596
-1.577931 -7.367357
-11.203039 -1.033287
0.352231 -7.755913
-7.565938 -3.709620
-12.450920 0.498811
-4.604222 -14.484107
-17.856666 -1.351851
1.247098 -13.007549
-5.732194 -11.102001
-21.899282 8.791831
-6.188130 -25.876304
-38.341061 -6.828148
-25.625668 -19.204003
-6.127351 -97.241605
22.967642 62.560604
-110.280599 27.876993
-256.041007 -255.418254
-107.221574 155.371792
-1253.747416 -3181.562915
