7960.830189 5023.088571
-1019.466169 -156.681865
-168.977377 -486.922444
133.188655 -31.135419
76.118434 161.494730
-16.149215 10.481239
-16.133235 -75.708471
29.434698 12.247095
24.290070 62.908319
28.340023 2.925343
-29.911910 -16.844709
8.395632 -2.335042
13.651783 10.142324
8.806710 -11.584625
-9.234174 -17.358441
18.305080 -7.412408
20.909072 13.422131
9.536977 4.172633
-11.568281 5.640855
3.421503 0.961532
2.398996 2.424761
4.247478 -6.373180
-6.373766 -3.014296
10.725143 -6.926237
11.810536 1.006834
8.803126 0.218500
-2.209470 7.181572
4.614110 -0.486822
2.263871 3.653966
-0.555449 -2.682377
-4.140207 0.417487
5.350208 -7.257204
6.202203 -2.580815
7.250033 -2.032814
2.323286 6.037107
4.955157 0.136910
1.380501 3.053261
-0.046680 -0.438207
-2.532831 3.491177
1.894289 -6.237225
3.288561 -2.797526
5.288468 -3.441628
4.277244 4.237737
3.993070 -1.333245
1.686780 2.130665
1.036731 0.493219
-0.445313 4.269852
-0.894820 -3.895633
0.218411 -2.278294
2.884924 -3.475385
4.518578 2.056108
3.941046 -2.648490
3.403889 2.278598
1.575130 1.323449
0.894401 3.774044
-1.349295 -2.544428
-0.068383 -0.968042
1.082529 -3.411210
3.234651 -0.156416
2.401919 -2.927582
3.304611 1.047073
2.495328 0.700620
2.167101 3.846766
-1.129326 -0.269015
0.193848 0.769209
-0.272298 -2.926362
3.247579 -0.522364
0.965369 -2.728824
3.239859 0.051407
2.437014 -1.103237
3.909622 2.251152
-0.538903 0.594539
-0.214098 1.651395
-1.479100 -1.347768
1.499277 -1.175228
0.003932 -2.147362
2.766893 -0.608064
2.430309 -1.273778
4.198504 1.424745
0.269922 0.863803
1.508466 1.896937
-0.959183 -0.351382
0.952755 -0.421204
-1.199982 -1.674384
1.782117 -1.062807
1.167477 -1.669876
3.539849 -0.615291
0.798454 0.910737
2.132837 1.454653
-0.469555 0.585254
0.570805 0.237625
-1.225016 -0.887469
1.203857 -0.499305
0.237414 -2.157004
3.219371 -1.634260
1.592793 0.122695
2.573377 1.126892
-0.085806 1.061474
0.563691 0.278772
-1.497284 0.247172
1.037578 -0.380947
-0.618687 -1.069837
1.934222 -1.984262
1.303798 -0.358699
3.136530 0.279233
0.930500 0.630768
1.498981 0.369378
-0.784724 0.918590
0.289323 -0.493166
-1.448873 -0.929151
0.676479 -1.975746
0.724931 -0.829610
3.144323 -0.696966
0.829181 0.593196
1.797299 0.223017
0.324105 1.623778
0.509596 -0.132497
-0.921464 0.385291
-0.080786 -1.547348
0.270942 -1.376459
1.842875 -1.471574
0.732467 -0.101354
1.670636 -0.479135
0.719164 1.106836
0.972205 0.807784
-0.453603 0.874317
-0.077732 -1.088267
-0.198461 -0.613239
1.131847 -2.072025
0.725730 -0.128867
1.782698 -0.974628
0.928515 0.585109
1.066556 0.403119
-0.221156 1.009193
-0.360168 -0.259092
-0.531077 0.318689
0.112221 -1.745680
0.820887 -0.212160
1.665744 -1.251126
1.157421 0.029835
1.287630 -0.136661
0.597148 1.471890
0.177129 0.145050
-0.647995 0.344892
-0.568125 -1.283265
0.525771 -0.138006
0.603879 -1.323224
1.007812 -0.339001
1.132795 -0.746120
1.645125 1.307626
0.396068 0.069153
-0.239943 0.744058
-0.245288 -0.430710
-0.055771 -0.015387
-0.254387 -1.732183
0.880945 -1.159781
0.827380 -1.127283
1.974151 0.168535
0.759860 -0.056420
0.539497 1.041657
-0.354798 -0.257387
0.194556 0.365699
-0.490579 -1.051207
0.434929 -0.272411
0.427783 -1.569002
1.871923 -0.283263
0.950285 -0.185213
0.976528 1.000928
-0.420230 -0.140918
0.694688 0.171965
-0.708877 -0.358027
0.315742 -0.194487
0.095247 -1.186814
1.562585 -0.858390
0.815941 -0.358819
1.439956 0.737801
0.257088 0.322098
0.595816 0.773319
-0.320971 -0.194439
0.265972 -0.077092
-0.454253 -1.253480
1.396565 -0.995924
0.412736 -0.929965
2.166454 -0.201623
0.272486 0.035821
1.202248 0.737728
-0.422621 0.306849
0.197441 0.122996
-0.386010 -0.028181
0.578233 -0.763773
0.163647 -1.092776
1.656938 -0.537260
0.481981 -0.251812
1.339268 0.246444
0.106307 0.155403
0.900665 0.335806
-0.789410 -0.057319
0.181786 -0.595546
-0.369659 -0.698232
1.360719 -0.806095
0.552825 -0.071352
1.078215 -0.754680
0.548332 0.491547
0.550448 0.273790
-0.431498 0.431376
-0.086370 -0.631102
-0.566339 -0.757261
0.585477 -0.736478
-0.041788 -0.366825
1.012514 -0.714993
0.431754 -0.003650
1.021862 0.474691
0.043805 0.553586
-0.051851 -0.437677
-0.471029 0.293723
-0.294707 -0.681398
-0.256868 -0.568541
0.383119 -1.135298
0.368587 -0.139682
0.625436 -0.146357
0.501261 0.186099
0.581196 0.116653
-0.226805 0.423734
-0.358899 -0.524210
-0.106004 -0.363427
0.378002 -1.117542
0.165316 -0.204562
1.137888 -0.596742
0.763704 0.259088
0.560063 -0.117385
-0.325658 0.367489
-0.025643 -0.364759
0.030915 -0.173771
-0.074482 -0.842319
0.124060 -0.455023
1.100240 -0.777626
0.642720 0.554718
0.875432 -0.338608
0.266070 0.640761
0.233983 -0.150989
0.032618 0.457174
-0.342351 -0.488236
-0.108341 -0.494615
0.194392 -1.452394
0.847781 0.087465
0.901314 -0.773117
0.991523 0.700130
0.009823 -0.011114
0.396776 0.699001
-0.147863 -0.411008
0.007157 -0.052866
-0.029034 -1.182462
0.715015 -0.252616
0.645487 -0.864151
1.031561 0.088667
0.594972 -0.378260
0.287539 0.648797
-0.105981 -0.203441
-0.338597 0.255609
-0.408789 -0.635732
0.616577 -0.553433
0.070632 -1.167229
0.749081 -0.398148
0.343942 -0.236976
0.779078 0.250990
-0.114312 0.380214
-0.307468 0.355736
-0.555525 -0.168719
0.175969 -0.642244
0.244041 -1.257391
0.929666 -0.335258
0.366093 -0.362265
1.158237 0.136747
-0.092811 0.113998
-0.057630 -0.007066
-0.780151 0.172671
0.311128 -0.277352
-0.328504 -0.683926
0.603448 -1.018696
0.202502 -0.209790
1.479966 -0.472365
0.852837 -0.006414
0.484226 0.385861
-0.234313 0.387566
0.040430 0.328384
-0.707632 -0.379034
0.366134 -0.716235
-0.064827 -0.524650
1.108118 -0.446689
0.224617 -0.507070
1.264246 -0.024885
-0.021156 0.523773
0.301081 0.349743
-0.699251 -0.093920
0.267396 -1.083491
-0.186626 -0.491690
0.886522 -0.056808
0.353543 -0.486388
0.923033 0.034530
0.117533 -0.046064
0.816891 0.199710
-0.246794 0.379676
-0.169077 -0.386117
-0.821487 -0.219579
0.103489 -1.082783
0.077989 -0.713505
0.509395 -0.595152
0.430399 -0.170680
0.577365 0.006076
0.090355 0.538848
0.043588 -0.386526
-0.303948 0.154904
-0.304116 -0.611928
-0.298661 -0.634109
0.414604 -0.885641
0.442078 -0.342736
0.603496 -0.355481
0.301836 0.308369
0.427238 -0.047537
-0.196058 0.272695
-0.103234 -0.464409
-0.229587 0.080763
0.395093 -0.881489
0.179182 -0.451333
0.819798 -0.648826
0.581102 0.199291
0.886443 0.118849
0.217109 0.871538
0.021519 -0.195116
-0.454564 0.087761
0.197645 -0.925142
0.133754 -0.763690
0.518708 -0.373465
0.289384 0.239730
0.357862 -0.476577
-0.070786 0.349208
-0.263462 -0.391724
-0.049701 0.278232
-0.579681 -0.385691
-0.108182 -0.373082
0.107675 -1.004386
0.617766 -0.182871
0.180578 -0.150040
0.200402 0.317683
0.086114 -0.092878
0.180087 -0.032348
-0.570481 -0.486033
-0.210297 -0.345534
0.090757 -1.112045
0.520490 -0.538795
-0.232677 -0.334161
0.777251 0.368530
0.225448 -0.600169
0.235802 0.628459
0.041311 0.292110
-0.240785 0.036930
0.002441 -0.288246
0.249250 -0.596965
0.109237 -0.933164
0.754293 -0.011913
0.557158 -0.286662
0.811214 0.038846
-0.134100 0.199221
0.516635 0.284794
-0.221227 -0.682371
-0.064389 -0.305615
-0.016456 -0.754181
0.165952 -0.430236
-0.040188 -0.457325
1.084097 -0.054401
-0.117674 -0.075527
0.479069 0.254102
-0.626610 0.088507
0.050926 -0.550030
-0.713602 -0.538118
0.731472 -0.752020
0.318916 -0.712088
0.914229 -0.299966
0.140051 0.000861
0.636686 0.343787
0.093413 0.067064
-0.021938 0.063897
-0.393110 -0.388700
0.104461 -0.679373
-0.286026 -0.744324
0.854859 -0.612543
0.121965 0.357219
0.473506 0.346066
0.095110 0.386683
0.364148 0.100215
-0.237613 0.070523
0.193808 -0.105703
0.010720 -0.734601
0.127118 -0.565421
0.108577 -0.533662
0.959411 -0.478529
0.070672 0.143119
0.326301 -0.120478
-0.079135 0.071252
-0.149773 -0.277866
-0.327713 0.140134
0.241254 -1.049267
-0.498462 -0.664745
0.592108 -0.529506
-0.256339 -0.025251
0.348874 -0.451271
-0.001768 0.351820
0.141581 0.094267
-0.258955 -0.007782
0.139649 -0.782568
0.163419 -0.481664
0.162104 -0.554059
0.255104 0.009010
0.636062 -0.110475
0.084554 0.312852
-0.142083 -0.037126
-0.384657 0.618329
-0.160917 -0.471219
-0.347381 -0.917878
0.034327 -0.811621
0.125927 -0.362536
0.311301 -0.798965
0.328269 0.069193
0.197870 0.024472
0.142159 0.464231
-0.590538 -0.276153
-0.038541 -0.287075
0.117930 -1.077104
-0.107294 -0.026316
0.362011 -1.074570
0.445740 0.087898
0.444253 -0.181317
0.250031 0.136634
0.034439 -0.090604
-0.392632 0.435463
-0.041918 -0.196667
-0.452367 -0.390116
-0.226087 -0.648513
0.021310 -0.317399
0.554141 -0.496365
0.872091 0.486014
0.386600 0.228360
-0.019426 0.565362
-0.113112 -0.189531
-0.188320 -0.215276
-0.152218 -0.693036
0.407230 -0.384289
-0.135090 -0.976653
0.601365 0.109559
0.512188 -0.471471
0.542196 0.230049
-0.432335 -0.278966
-0.262172 0.039604
-0.377755 -0.922040
0.158869 -0.684384
-0.013627 -0.897649
1.046083 -0.161165
0.262626 -0.257270
0.442208 0.199125
-0.256360 -0.387083
-0.092911 0.038488
-0.561899 0.222267
0.128363 -0.286246
-0.007738 -0.676368
0.290877 -0.239188
-0.050550 -0.114101
0.713995 -0.179737
0.065631 0.389500
0.171304 -0.506673
-0.599711 -0.126881
-0.676002 -0.294134
-0.357272 -0.302238
0.423467 -0.597760
0.319744 -0.806776
1.007260 0.003830
0.071858 -0.146215
0.475029 0.156711
-0.781718 0.091471
0.351332 0.124008
-0.188631 -0.210618
-0.366869 -0.817323
-0.387070 -0.451638
0.440246 -0.516971
0.303646 -0.193413
0.615163 -0.138784
0.186767 0.258288
0.373712 -0.358085
-0.911011 0.235643
-0.265676 -0.279672
0.175781 -0.215332
0.537591 -0.646053
0.153813 -0.503678
0.852580 -0.481173
-0.227767 0.030673
0.062515 0.072512
-0.179980 0.051682
0.343293 -0.358965
-0.561628 -0.076642
0.014872 -0.648282
0.224567 -0.522984
0.446894 -0.744414
0.008060 -0.144080
0.522218 0.122683
0.054741 0.119342
0.393169 -0.026889
-0.435793 0.055869
-0.217472 -0.557006
-0.628331 -0.466762
0.019539 -1.076102
0.379579 0.072113
0.351927 -0.199920
-0.304484 0.097615
0.327451 0.053137
-0.493437 0.318138
-0.437615 -0.523147
-0.206043 0.030847
0.008824 -1.129492
0.316999 -0.147575
0.413110 -0.811770
0.235910 0.064979
0.478268 -0.090644
-0.092473 -0.130611
-0.295462 -0.019498
0.074275 -0.259973
0.177699 -0.827078
-0.168866 -0.506151
0.228308 -0.633890
0.060768 -0.311354
0.311357 -0.232286
0.151841 0.340015
-0.328473 -0.009434
0.303046 0.419520
-0.583531 -0.835425
-0.704327 -0.009270
-0.361645 -0.672637
0.335579 0.114805
0.226739 -0.208526
0.349662 -0.118277
0.045026 -0.586764
0.141546 0.419348
-0.551971 -0.049466
-0.195696 -0.106015
-0.257753 -0.636955
0.343515 -0.883814
0.386397 -0.503802
0.738718 0.116214
-0.056888 -0.415870
0.077306 0.127505
-0.550131 -0.091608
-0.395279 0.335910
-0.293655 -0.635992
0.367203 -0.062636
-0.445747 -0.718171
0.190308 -0.216516
-0.136395 -0.765726
0.169922 0.185393
0.032066 -0.293404
-0.032873 0.153370
-0.598679 -0.185574
0.052161 -0.650348
0.154557 -0.374284
0.480791 -0.586885
0.228432 -0.712581
0.881002 -0.471257
0.020497 0.773192
0.434992 0.157131
0.028192 -0.269217
-0.172121 -0.543069
-0.697781 -0.907954
-0.023032 -0.440839
-0.184980 -0.451233
0.495088 -0.245309
-0.054892 -0.098047
0.234482 0.537640
-0.522951 0.018510
0.386501 -0.453934
-0.378951 -0.355503
-0.332783 -0.652270
-0.318527 -0.290378
0.945181 -0.288568
0.420535 -0.008718
0.794876 -0.700644
-0.028795 0.542831
0.204036 -0.258999
-0.382783 0.119535
0.213148 -0.104772
-0.740009 -0.306234
0.096502 -0.795369
0.131838 -0.521279
0.538050 -0.182113
-0.110598 -0.211708
0.284036 0.138958
-0.784819 0.137086
-0.752650 -0.040009
-0.568076 -0.241017
0.115292 -0.863528
0.217776 -0.681726
0.481475 -0.703198
-0.108796 0.137493
0.376519 -0.379172
0.211826 0.113445
-0.073197 0.069227
-0.547621 0.416191
0.097226 -0.757942
-0.162509 -0.000759
-0.021058 -1.132085
-0.131176 -0.582154
0.189742 -0.400215
0.127763 0.120085
-0.127642 0.168301
-0.013231 -0.024779
-0.505199 -0.829355
-0.907530 -0.451372
-0.222000 -0.683535
-0.010376 -0.363378
0.359313 -0.705224
0.473038 0.165940
0.234416 -0.365770
0.007660 0.752170
-0.228371 -0.583221
-0.814899 0.463198
-0.069705 -0.688066
0.126777 -0.367921
0.264777 -0.610002
0.595040 0.051800
0.164381 -0.472928
0.253332 0.263458
-0.061088 -0.127044
-0.412721 0.166607
-0.571285 -0.544101
-0.169819 -0.544081
-0.360564 -0.445085
0.105383 -0.503791
-0.062068 -0.597248
-0.195558 0.257740
0.393770 -0.418970
-0.052177 0.461866
-0.722196 -0.594533
-0.179723 -0.186176
-0.398985 -0.650413
0.099821 -0.171849
-0.245145 -0.655335
0.841159 -0.332173
0.652592 -0.365991
-0.053941 0.509297
-0.480954 -0.106377
-0.241629 0.078861
-0.608247 -0.576788
-0.186486 -0.253388
-0.047684 -0.706660
0.758942 -0.369802
0.125056 -0.567870
0.581154 0.060806
-0.368660 -0.074831
-0.418118 0.207195
-0.224848 0.005281
0.523844 -0.494650
-0.600329 -0.771519
0.111114 -0.722391
-0.254628 -0.149502
0.497897 -0.549235
-0.086546 0.150887
0.309635 0.333617
-0.392012 -0.359534
-0.521550 -0.291806
-0.676997 -0.601012
0.501649 -0.243818
-0.182597 -0.748115
0.596357 -0.582476
0.017209 -0.002477
0.087432 -0.025636
-0.642741 0.262700
-0.115099 -0.080351
-0.122064 -0.005760
0.049463 -0.797573
-0.609366 -0.733019
0.357617 -0.657708
-0.478386 -0.005333
0.615194 -0.484450
-0.212386 0.513306
-0.047517 -0.450142
-0.984473 0.128781
-0.306956 -0.389222
-0.156764 -0.758377
0.349837 -1.129494
0.180731 -0.311633
0.259550 -0.336950
-0.095810 0.224542
0.332692 0.199705
-0.332534 0.211397
-0.254003 -0.087564
-0.416320 0.059427
-0.011829 -0.282430
-0.472265 -0.531266
0.092529 -0.522732
0.225758 0.186968
0.543602 -0.324553
-0.113274 0.061305
0.115228 -0.203185
-0.282391 0.058829
-0.419357 -0.698559
-0.340417 -0.455540
0.283244 -0.935757
-0.356837 -0.132238
0.375515 -0.844941
0.140754 -0.048134
0.453739 -0.450249
-0.420441 0.123715
-0.536809 -0.541226
-0.775468 0.247666
-0.196236 -1.083924
-0.479472 -0.647694
0.543791 -0.677238
0.157836 0.261350
0.112922 -0.198185
0.165286 0.269092
-0.529896 -0.329091
-0.265996 -0.176911
-0.468619 -0.363846
-0.116422 -0.382979
-0.089462 -0.702397
0.413613 0.365092
-0.157908 -0.531976
-0.130815 0.491714
-0.302989 -0.366271
-0.535578 0.062103
-0.963722 -0.533064
-0.473001 0.005802
-0.071163 -1.166470
0.468803 -0.295841
-0.192084 -0.460124
0.607538 0.045609
-0.001305 -0.329600
-0.067454 0.202863
-0.882025 -0.523075
-0.430487 -0.152986
-0.655784 -0.718184
-0.188984 -0.241540
0.152495 -0.882017
0.552112 -0.110035
0.047863 -0.014759
0.170123 0.147868
-0.730374 0.056524
-0.779978 0.284020
-0.735784 -0.348816
-0.378702 -0.477355
-0.528796 -0.575107
0.690764 -0.357262
-0.254257 -0.778408
1.008555 0.260175
0.012046 0.100341
-0.071173 0.058178
-0.808851 -0.487974
-0.184033 -0.287821
-0.580042 -0.880933
0.154807 -0.635183
0.018948 -0.575554
0.563940 -0.072441
-0.453296 -0.271546
0.480800 -0.284478
-0.858293 -0.211426
-0.348791 -0.447342
-0.687948 -0.448418
0.170161 -0.581918
-0.181436 -0.329507
0.642078 -0.145085
0.155193 -0.124419
0.364127 0.034017
-0.340705 0.194207
-0.278885 -0.000403
-0.605360 -0.252683
-0.398668 -0.688535
-0.499059 -0.296183
0.000876 -1.059030
-0.459049 -0.045293
0.630845 -0.256218
0.086948 0.180453
-0.088375 0.178460
-0.558268 0.149427
-0.368730 -0.342365
-0.919032 -0.553460
0.346256 -0.557262
0.007307 -0.471891
0.551678 -0.605369
0.063972 0.388349
0.672238 -0.835712
-0.525141 0.412488
-0.272764 -0.256055
-0.937586 -0.410298
-0.208541 -0.839233
-0.256445 -0.432743
0.290841 -0.991717
-0.209365 -0.105667
0.593633 -0.076663
-0.049370 0.378895
-0.806831 -0.056757
-0.872083 0.405001
-0.627493 -1.194123
-0.536820 -0.279299
0.002166 -0.790820
-0.023819 0.232695
0.219289 -0.616275
0.044517 0.297449
-0.231732 -0.118856
-0.663564 0.396534
-1.011043 -0.526712
-0.876779 -0.280395
-0.454328 -1.200518
-0.163947 -0.307576
-0.040965 -1.145997
0.111436 0.425923
0.165297 0.218325
-0.483319 0.221874
-0.451227 -0.521213
-0.520216 0.210367
-0.259475 -0.990943
-0.389953 -0.178759
0.043475 -1.130685
0.323868 -0.415532
0.431792 -0.764384
0.418693 -0.056671
-0.171879 -0.157537
-0.455663 0.651519
-0.815375 -0.489754
-0.526510 -0.243443
-0.626989 -0.939824
0.073308 -0.101491
-0.085869 -0.789005
0.382545 0.149304
-0.243617 -0.285583
0.221336 0.438600
-0.942047 -0.172960
-0.532503 0.051787
-1.196333 -1.089328
0.060464 -0.319515
-0.568828 -0.493154
0.295569 -0.141913
-0.292959 -0.045205
0.137405 0.250731
-0.636453 -0.138264
-0.270252 0.598423
-1.155539 -0.698398
-0.473705 -0.415819
-0.677990 -1.262694
0.637031 -0.459859
-0.116076 -0.362878
0.287027 -0.016396
-0.308172 0.098079
-0.021347 0.449956
-0.781481 -0.671249
-0.553327 -0.357979
-0.392703 -0.869521
0.225894 -0.481112
-0.186255 -0.340049
0.351212 -0.345539
-0.468496 -0.209939
0.204167 0.217690
-0.878591 -0.007100
-0.212824 -0.174944
-1.029346 -0.506592
0.105432 -0.939777
-0.127067 -0.490636
0.320899 -0.919738
-0.370434 -0.175704
0.596601 0.040007
-0.596043 0.418067
-0.241365 -0.394050
-1.150154 0.253551
-0.328484 -0.628485
-0.467359 -0.552822
0.352913 -1.042475
-0.337507 -0.041475
0.344378 -0.186810
-0.829976 0.631488
-0.214705 -0.476400
-1.046951 0.081450
-0.469217 -0.378992
-0.811291 -0.244596
0.130801 -0.958363
-0.320286 -0.422545
0.403284 -0.854030
-0.272632 0.299563
0.252664 -0.404932
-1.249317 0.650914
-0.639169 -0.113410
-1.207056 0.305063
-0.534031 -0.741048
-0.496332 -0.571566
0.341613 -1.166502
0.025228 -0.161366
0.605308 -0.136073
-0.135842 0.420415
-0.031060 -0.354014
-0.762494 0.303016
-0.822338 -0.545297
-0.717805 -0.546978
-0.021905 -0.998131
-0.194256 -0.194828
-0.151189 -0.685303
0.382196 0.438828
-0.084349 -0.249817
-0.686762 0.464397
-0.724267 -0.410347
-0.848504 -0.269276
-0.297039 -1.256558
-0.567777 -0.448671
0.173378 -1.424703
0.543564 0.291282
-0.032078 -0.126295
-0.450674 0.843927
-0.764388 -0.194332
-1.150666 0.238902
-1.004894 -1.231039
-0.382212 -0.358012
-0.026744 -1.389194
0.072965 0.119026
-0.075263 -0.749295
0.426172 0.703034
-0.336286 -0.021556
-0.672375 0.956206
-1.586884 -0.823428
-0.661897 -0.276465
-1.341095 -1.226956
0.017443 -0.267150
-0.543405 -1.036394
0.604530 0.235729
-0.361320 -0.132239
-0.255863 0.776217
-1.437763 -0.244288
-0.842191 0.127054
-1.596180 -1.285038
-0.450849 -0.623261
-0.896998 -1.248218
0.839061 0.019960
-0.487170 -0.318231
0.123242 1.002991
-1.126156 -0.039908
-0.503723 0.132243
-1.636177 -0.444818
-0.638172 -0.886358
-0.753075 -0.930542
0.531042 -0.659681
-0.377563 -0.597825
0.631772 0.300590
-0.993261 0.348375
-0.122825 0.793391
-1.501799 -0.199086
-0.537800 -0.369030
-1.114966 -0.944610
-0.026175 -0.796909
-0.256413 -0.837423
1.029767 -0.481099
-0.295628 0.207467
0.229279 0.268378
-1.398023 0.123571
-0.753853 0.110464
-1.275359 -0.624684
-0.264431 -0.905882
-0.622864 -0.809595
0.741957 -0.793017
-0.268279 -0.042877
0.501282 0.299944
-0.890817 0.462295
-0.355501 -0.100649
-1.342178 0.111278
-0.545765 -0.844221
-1.001910 -0.690522
0.396477 -1.298092
-0.237185 -0.354223
1.005268 -0.267060
-0.732822 0.407169
-0.550523 -0.020858
-1.537804 0.634694
-0.651271 -0.595517
-1.546386 -0.300826
-0.336096 -1.662038
-0.432637 -0.387037
0.652807 -1.057185
0.038389 0.370691
0.208787 0.080926
-1.295174 1.042734
-0.853264 -0.262928
-1.454086 -0.020460
-0.924866 -1.009014
-1.129477 -0.302827
-0.280805 -1.534965
-0.041086 0.099632
0.651256 -0.445628
-0.595580 1.333423
-0.418707 -0.410764
-1.385851 1.328889
-1.268154 -0.944665
-1.332670 -0.308453
-0.557258 -1.706912
-0.504931 -0.058245
0.016554 -1.146499
0.043973 0.346645
-0.642428 -0.036959
-1.083945 1.593657
-1.442746 -1.055528
-1.611138 -0.141983
-0.987081 -1.923444
-0.309185 -0.068515
0.260599 -1.592725
0.036349 -0.038387
-0.394246 -0.275573
-0.544537 1.626075
-1.469033 -0.608307
-1.657631 0.921455
-1.959372 -1.361528
-0.763213 -0.448559
-0.744192 -2.090642
0.234041 -0.324707
0.017842 -0.707351
0.325637 1.475071
-0.987869 -0.395776
-1.271637 0.938711
-2.186015 -0.644224
-1.194535 0.170240
-1.770112 -1.627788
-0.062416 -0.211044
-0.493079 -1.613086
1.266946 0.946491
-0.795466 -0.265449
-0.607646 1.105286
-2.233354 -0.014344
-1.054144 0.333090
-2.274169 -1.786795
-0.515485 -0.644705
-1.288197 -1.454774
1.237988 -0.246091
-0.927956 -0.204085
0.067049 1.222687
-1.422222 0.544481
-0.830729 0.749067
-2.485632 -0.842147
-1.040993 -0.582782
-1.987499 -1.837289
0.650661 -0.899928
-0.774712 -0.606461
0.957187 0.826615
-1.463375 0.149970
-0.245784 1.032294
-2.966781 0.475902
-1.092908 -0.688610
-2.603815 -1.466592
-0.004957 -1.934011
-0.669146 -0.975935
1.311443 0.005789
-1.693967 0.084136
0.329902 0.900153
-2.372545 1.172454
-0.993050 0.475298
-3.429414 -0.688314
-1.122292 -1.707353
-1.658125 -1.383460
1.390590 -1.466079
-1.133297 -0.002979
0.983659 0.011429
-1.749229 2.432474
-0.770516 0.505996
-4.071703 0.269872
-1.714324 -1.620350
-2.022772 -1.000343
0.374257 -2.158769
-1.044268 -0.730227
0.949639 -1.087722
-0.211815 1.856332
0.092727 0.729291
-4.092525 1.422975
-1.793531 -0.946164
-3.180464 0.001867
-0.523160 -2.812707
-2.228288 -0.600987
0.405331 -1.831667
0.554231 1.307915
0.598999 0.204832
-2.415363 2.932694
-2.486736 -0.091534
-3.564428 0.522397
-1.891644 -3.278357
-2.330616 -0.992104
0.335645 -2.870215
0.401324 -0.052821
1.377118 -1.006742
-2.191603 3.912947
-1.929529 0.510340
-3.708023 2.347724
-3.159765 -2.382730
-4.473132 0.951982
-1.732538 -3.946038
0.367285 -1.737590
0.960720 -3.191249
0.102541 4.363412
-1.403085 0.684911
-2.006839 1.921206
-3.874065 -1.436672
-5.022636 3.060320
-3.905747 -3.772325
-2.341920 -3.137232
-0.355403 -4.810242
1.422759 3.674557
0.184117 0.654216
-2.574168 3.456174
-5.888076 -0.894898
-2.906300 4.791660
-4.908743 -3.744703
-4.648373 -2.993873
-3.686676 -7.205303
3.839905 1.504681
1.300899 -1.812378
-1.073432 3.217616
-5.920107 1.689727
-0.669762 8.024569
-8.713018 -0.523589
-10.584209 -0.638250
-9.796378 -8.606645
5.337359 -1.411815
0.032551 -5.834674
-1.972295 1.610396
-3.821869 0.958232
6.411098 8.718803
-10.012843 0.298969
-14.330852 4.746524
-16.321421 -7.066932
8.447315 -5.166935
-4.593770 -8.856811
-9.177787 10.205787
-15.150520 -0.991769
18.719180 -6.602039
-12.799675 11.857859
-32.397199 24.924329
-40.484956 -6.390882
20.962863 -46.260554
10.620596 -26.509670
-10.019861 61.496350
15.334794 -21.242675
60.836780 -74.798106
71.157389 46.551549
-119.808887 295.454581
-779.425994 -1.292250
31.307016 -620.725256
-6231.516834 -268.341270
