7789.891462 5404.162611
-694.966603 -81.813956
142.270899 -589.729096
77.523314 15.939963
-203.539149 262.963038
-121.658112 39.190113
49.605679 -57.806084
22.255239 -12.327377
-37.319225 -17.342285
-28.855028 11.930144
39.661104 3.025120
25.094321 27.386102
-3.918777 -0.618450
-24.374313 -11.585669
15.544097 1.222254
8.022079 13.008532
8.126330 -0.837876
-0.418428 -11.280381
9.080085 3.913184
-1.613552 8.442682
2.563217 5.203088
5.487641 -12.007954
5.333573 3.187088
2.129402 0.376537
-1.726057 1.928558
10.083480 -6.018678
3.316324 0.958526
2.091032 -0.083753
-3.482968 0.183094
8.315317 -1.343640
0.359040 1.242373
1.627236 0.378588
-3.266873 -4.378231
5.634900 1.253445
3.041565 -1.103942
1.848009 1.688826
0.549053 -3.737141
1.814983 3.347371
1.694654 0.926506
-0.806994 1.359072
4.256281 -4.302481
0.788542 1.127605
3.823775 1.634526
-1.097664 0.569835
4.913782 -0.963807
-0.249647 -0.700068
1.537793 0.764454
-0.928489 -2.700400
4.593201 0.790386
1.748187 -1.051120
1.136727 1.780300
0.295549 -2.050739
1.127349 1.297316
2.353986 -0.987344
-0.814061 0.729829
2.551116 -2.295109
0.269205 0.219284
2.736671 0.652851
-0.662606 0.246493
3.223927 0.334083
-0.327193 -0.534571
1.756056 1.176942
0.052903 -1.751587
2.889329 0.311224
1.473162 -1.446130
0.864139 1.797068
0.525216 -1.534228
0.998506 0.693337
1.121356 -1.598740
-0.618665 0.502805
2.848656 -1.326440
0.668761 0.942844
2.299215 0.649520
-1.207059 -0.259761
1.103673 -0.232741
0.054979 -0.712723
2.057074 0.896372
0.168828 -1.695591
2.046511 0.595387
0.790557 -0.958868
0.843786 1.995645
0.889446 -1.327862
0.646923 0.004604
1.205416 -1.779495
-0.239963 0.166349
1.562434 -1.154958
0.408655 0.383858
2.156043 -0.024964
-1.236400 -0.220530
1.257686 0.256154
0.572382 -0.820587
1.170759 0.982321
0.496426 -1.282553
1.043070 0.502375
0.642130 -0.797785
0.382604 1.309521
0.648831 -1.319999
0.266052 0.153092
2.024640 -1.022413
-0.028719 0.490134
1.821451 -0.724407
0.386112 -0.172765
1.236132 0.134733
-1.017458 -0.133648
1.014794 -0.364177
0.116984 -1.418859
1.465430 0.489832
0.417470 -0.825635
0.660157 1.021679
0.722374 -0.202403
0.344644 1.160760
0.327366 -1.233920
-0.051694 -0.198043
1.704815 -1.141888
0.135521 0.358942
1.620051 -0.611084
0.229883 0.188340
0.878975 0.154669
-0.570256 -0.393229
0.880059 -0.176414
0.406799 -1.003776
1.041038 0.614371
0.630038 -0.622715
0.622117 0.351307
0.733802 -0.546717
0.011212 1.201632
0.261459 -1.017393
0.430536 0.086500
1.551525 -0.675793
0.224046 -0.025890
1.084477 -0.059891
-0.081465 -0.455285
0.856591 0.129880
-0.079329 -0.509051
0.933001 -0.266378
0.346843 -0.963803
0.908598 0.889641
-0.140422 -0.409239
0.352522 0.708017
0.531995 -0.945867
-0.006328 0.017235
0.440177 -0.979620
0.385172 -0.176296
1.047176 -0.430125
0.102933 0.166092
0.298177 -0.264063
-0.347774 -0.544092
0.792977 0.333323
-0.225732 -0.480330
0.745449 -0.036790
0.486068 -0.453505
0.870115 0.313336
0.646072 -0.538069
0.274704 0.685020
0.437090 -0.994164
0.211240 0.596374
0.543290 -0.300514
0.331565 -0.291503
1.247053 -0.354985
-0.136201 0.235884
0.412724 0.206438
-0.572040 -0.065056
0.780804 0.056929
-0.227965 -0.610987
1.166969 0.241439
0.252823 -0.466754
0.927573 0.533484
0.303520 -0.275340
0.003869 0.556176
0.173604 -1.188062
0.149536 -0.354405
0.487038 -0.966587
-0.089696 -0.397130
1.090543 0.056545
-0.207965 0.158949
0.553449 -0.115730
-0.414922 -0.425867
0.815795 0.154979
0.376995 -0.848720
0.638890 0.603860
0.166546 -0.521920
0.737569 0.407041
0.216425 -0.471228
-0.026047 0.261881
0.316694 -0.905777
-0.268637 0.349234
0.944239 -0.510288
-0.432377 0.242936
1.005083 0.171670
-0.169005 -0.199121
0.096047 0.209075
-0.369645 -0.886902
0.815627 -0.062233
-0.126993 -0.639534
0.872793 0.499884
0.115372 -0.680268
0.174704 0.357238
-0.176317 -0.481187
-0.127082 0.546002
0.637151 -0.454137
0.102742 -0.048211
1.184195 -0.524435
-0.183326 -0.152440
0.463290 -0.388681
-0.048088 0.456666
0.409544 0.060392
-0.746746 -0.536052
0.472123 0.219844
0.061403 -0.563984
0.358118 0.348287
0.145570 -0.280795
0.012175 0.763914
0.136012 -0.241054
0.014696 -0.030396
0.445195 -0.769894
0.285145 -0.370542
0.836075 -0.371950
-0.494496 0.364269
0.481414 0.180933
-0.070426 -0.003152
0.404731 -0.357111
0.093059 -0.715340
0.557738 -0.108804
0.401596 -0.304839
0.544485 0.052164
0.207151 -0.085926
0.137219 -0.289897
0.019185 -0.697068
0.186022 0.331768
0.443753 -0.595696
0.265220 -0.232324
0.515028 -0.089034
-0.344842 -0.190528
0.767852 -0.031174
0.046485 -0.341903
0.659859 -0.461439
0.014750 -0.635970
0.337901 0.210465
0.129203 -0.124712
0.221352 0.401992
0.355596 -0.357303
-0.263257 -0.105390
-0.141379 -1.047555
-0.349876 0.210291
0.417064 -0.508730
0.307869 0.033913
0.964280 0.180001
-0.259131 -0.021068
0.536979 -0.007032
-0.086642 -0.826199
0.432220 -0.296500
-0.289288 -0.538564
0.686698 0.389352
0.233892 -0.447288
0.202862 1.008809
0.879471 -0.628712
0.147649 -0.352755
0.463223 -0.744482
0.153017 -0.310140
0.432423 -0.460365
-0.075666 0.035283
0.596678 -0.016124
0.003535 0.116355
0.518455 -0.110251
0.165710 -0.597667
0.331682 0.178434
0.184606 -0.493478
0.539557 -0.356004
-0.192761 -0.454018
0.359685 0.621913
0.097608 -0.180222
0.257591 -0.233031
0.604077 -0.619350
0.088822 -0.058411
0.275818 -0.109392
0.478863 0.079200
0.486259 -0.218138
-0.469510 -0.346716
0.247867 -0.362482
-0.568464 -0.283941
0.702649 0.318138
0.231050 -0.270689
0.179866 0.580387
0.067994 -0.548684
0.146350 0.715415
0.297014 -0.345452
0.260784 -0.513073
0.479682 -0.409725
0.114336 -0.046183
0.603525 -0.453088
-0.270707 0.253923
0.331757 -0.031799
-0.514776 -0.352024
0.525071 -0.153239
-0.118302 -0.954875
0.514771 0.061311
-0.022040 -0.137360
0.199260 0.040151
0.332581 -0.762457
-0.324991 0.096840
0.515888 -0.263629
0.168436 0.116675
0.699794 -0.171508
-0.213796 0.266248
0.105699 -0.145532
-0.617706 -0.031914
0.173851 -0.136609
-0.241606 -0.623948
0.183767 -0.457251
-0.292341 -0.708077
0.503728 0.100715
0.255881 -0.251202
0.266497 0.377214
0.212521 -0.383584
-0.227449 0.326698
0.224737 -0.180664
0.052498 0.027707
0.045451 -0.442046
-0.518837 0.422096
0.103774 -0.216022
-0.525207 -0.186883
0.469770 -0.137735
-0.013368 -0.378091
0.140980 -0.007120
0.194443 -0.370759
0.739263 0.062552
0.129918 -0.431234
-0.051661 0.129443
-0.328606 -0.329247
-0.080037 -0.152250
0.370683 -0.301280
0.081552 -0.284911
0.496997 -0.261881
-0.381072 -0.048937
0.321795 0.389932
-0.012310 -0.319282
0.331576 -0.253321
-0.069788 -0.344124
0.097786 0.246549
-0.101448 -0.239634
0.616087 0.278069
0.437654 -0.603777
0.203981 0.078074
-0.154568 -0.305101
0.285084 0.115840
0.217764 -0.890405
0.054201 -0.060696
0.584420 -0.192932
-0.069035 0.193280
0.141005 0.260096
-0.007808 -0.338558
0.365165 -0.321207
-0.249276 -0.432481
0.645176 0.151034
-0.022963 -0.163434
0.529625 -0.003318
0.462205 -0.261146
-0.119134 0.116997
0.226149 -0.087600
0.050189 0.549968
0.512835 -0.250692
0.120809 -0.433261
0.097122 -0.006262
-0.226409 -0.184933
0.255490 -0.256294
-0.073568 -0.294119
0.248613 -0.285461
0.205062 -0.233871
-0.231455 0.214639
-0.206490 -0.230139
0.109257 0.512736
-0.005462 -0.541815
0.189488 -0.066232
0.246632 -0.484948
0.085837 -0.132242
0.253384 -0.226367
-0.068910 -0.067669
0.454543 -0.378773
-0.769122 -0.102192
0.672789 -0.050849
-0.346822 -0.584521
0.614140 -0.311807
-0.268535 -0.593384
0.213923 0.126337
0.198092 -0.302951
0.106213 -0.087556
0.093197 -0.620903
-0.228666 0.283612
0.242182 -0.206906
-0.241887 -0.057993
0.066868 -0.278538
-0.500024 0.033447
0.428126 -0.185774
-0.045117 -0.603014
0.130316 -0.470894
-0.117464 -0.466906
0.526626 -0.140496
-0.057955 -0.683422
0.234351 -0.108181
0.152423 -0.182154
-0.014107 -0.237016
0.317145 -0.463932
-0.018624 -0.477182
0.262572 -0.334647
0.094282 0.113499
0.911578 -0.380753
-0.257323 0.223827
0.225959 0.147852
-0.115047 0.271674
0.311142 -0.034661
-0.179996 -0.605063
0.415046 0.024643
-0.119040 -0.703748
0.075529 0.353579
-0.057554 -0.317369
-0.182023 0.305041
0.291392 -0.569222
-0.149350 0.201706
0.494113 -0.203386
0.243691 -0.183322
-0.084489 -0.191450
-0.303054 0.391284
-0.090734 -0.356540
-0.468261 -0.297952
0.240206 -0.048384
-0.295167 -0.288755
0.530096 0.081346
-0.106018 -0.139964
-0.053424 0.362200
0.198438 -0.017824
0.120636 -0.151886
0.024457 -0.596688
0.483830 -0.104850
0.158254 -0.498340
0.076168 -0.230559
0.650785 -0.318148
-0.252322 -0.100374
0.337858 0.121069
0.306232 -0.525777
0.162429 0.126209
-0.360653 -0.339396
0.453508 0.173030
0.378975 -0.687630
-0.104595 0.398657
0.198399 -0.266336
-0.046749 -0.383117
-0.066366 -0.569151
0.086652 -0.523371
0.433113 0.006720
0.021091 -0.461328
0.415724 -0.590221
-0.012603 -0.146822
0.358208 -0.503894
-0.373180 -0.461867
0.438348 -0.320972
-0.015552 -0.278489
-0.083526 0.351185
0.110303 -0.269063
-0.171201 0.349032
0.126663 -0.379760
-0.280208 -0.001286
0.432460 -0.113969
-0.337194 0.398383
0.113816 -0.369778
-0.535027 0.193952
-0.065864 -0.224208
-0.232135 -0.482214
0.136125 0.108753
-0.203943 -0.056343
0.394041 -0.246309
-0.138702 -0.210170
0.111974 0.294808
0.146557 -0.268803
0.198123 -0.080358
-0.157416 -0.422467
-0.426737 -0.043243
0.213940 -0.363013
0.346009 0.044551
0.119978 0.126713
-0.190267 0.243402
0.567120 -0.246973
-0.400382 -0.550640
0.293843 0.022794
0.116555 -0.132421
0.446466 -0.044342
-0.047301 -0.618013
-0.052119 0.119409
-0.045476 -0.144977
0.042763 0.080976
0.039302 -0.438877
0.189551 -0.108754
0.379629 -0.245287
0.038053 -0.037345
-0.008145 0.058254
-0.800768 -0.281835
0.136418 -0.645648
-0.184234 -0.060483
0.355977 0.459269
0.045413 -0.519447
0.726833 0.247708
-0.324798 -0.305261
0.182606 0.450563
-0.244798 -0.510932
-0.444924 -0.094233
0.019962 -0.296061
-0.117379 -0.112906
0.108364 -0.240824
-0.144721 -0.010605
0.424229 -0.144961
-0.817131 -0.873095
0.045048 -0.135309
-0.134472 -0.687690
0.310143 -0.314292
0.384777 -0.186170
0.023103 0.170728
-0.014833 -0.363608
-0.158618 -0.088016
0.252852 -0.664481
0.130046 0.019355
0.637156 -0.618617
-0.151009 0.249706
0.588878 -0.195252
-0.155702 0.448316
-0.012975 -0.364874
-0.297437 -0.455931
0.212375 -0.294896
-0.360434 -0.073298
0.368369 0.040378
0.115397 -0.454510
-0.062673 -0.116356
-0.476036 -0.074328
0.125010 -0.276160
0.392585 -0.103171
-0.109392 -0.180284
0.009695 -0.438374
0.075298 0.024624
0.436030 0.065797
-0.628377 -0.106257
0.189346 -0.409002
-0.163557 -0.890086
0.677210 -0.202739
-0.479895 0.012211
0.185651 -0.168356
0.112034 -0.826394
0.335750 0.227830
-0.006740 -0.129203
-0.156935 -0.079473
0.130351 -0.595337
-0.066056 -0.022813
0.309018 -0.260557
-0.402045 0.141359
0.296821 -0.376633
-0.020097 -0.097650
-0.054954 -0.407305
0.151083 -0.197780
0.184522 -0.246340
0.066900 -0.212790
0.250987 0.009769
0.150816 -0.330279
0.067914 0.324713
-0.172109 -0.643241
-0.426459 0.107424
-0.036240 -0.419589
-0.360500 -0.221014
0.693780 -0.305067
0.319608 0.083464
-0.260598 -0.019034
-0.277449 -0.564527
0.325154 0.038226
-0.263286 -0.137934
0.198853 -0.601902
-0.238836 -0.616244
0.098990 0.167807
-0.278592 -0.046776
0.130588 0.210966
-0.090031 -0.614145
-0.366077 -0.072866
0.159289 -0.762911
0.192197 0.039415
0.329780 0.052532
-0.653717 -0.664593
0.408054 -0.343884
-0.233440 0.084435
-0.033350 0.038716
-0.353588 -0.529335
0.264193 -0.270088
0.098551 -0.081556
-0.234740 0.294054
-0.175541 -0.295139
0.030411 0.182532
-0.229622 -0.289227
0.079797 -0.104046
0.260776 -0.483307
-0.475285 0.091532
0.381376 -0.709940
-0.003212 0.054779
0.295206 0.056658
-0.715677 -0.395292
0.057782 -0.201895
0.108344 -0.335792
-0.124005 0.370198
0.008507 -0.566157
0.078119 0.202428
-0.084551 -0.305167
-0.126055 -0.197083
0.032299 -0.694102
0.005871 0.115626
0.237823 -0.726153
0.107666 0.092833
0.445350 -0.027582
-0.402343 -0.164710
0.153368 0.027612
-0.644310 -0.468249
0.392400 -0.006438
-0.218792 -0.471212
0.555736 -0.020545
-0.107223 -0.116967
-0.118916 -0.046479
-0.291780 -0.599054
0.340573 -0.219756
0.294661 0.000598
-0.337675 0.185086
0.140763 -0.129918
0.160567 -0.385891
0.263377 0.068180
-0.648322 0.209415
0.096306 -0.458272
-0.096112 -0.622192
0.468895 0.180443
-0.282886 -0.190364
-0.080824 0.054194
-0.297074 -0.634522
0.073550 0.341623
0.034242 -0.493022
-0.111409 -0.167225
0.453865 -0.630122
-0.459818 0.638715
0.136888 -0.497986
-0.050674 -0.187670
-0.146222 -0.372125
-0.377315 -0.358251
0.255430 -0.421831
-0.012268 -0.174875
0.320064 -0.058563
-0.188342 -0.292230
0.072278 -0.056173
0.165739 -0.438977
0.275233 -0.026806
0.013380 -0.216605
-0.281244 -0.015880
0.510695 0.046509
-0.540032 -0.035124
0.399102 0.116552
-0.465648 -0.116216
0.454646 -0.167871
-0.530453 -0.374598
-0.072081 0.112070
-0.390816 -0.139012
-0.090049 -0.207357
-0.260027 -0.046474
0.059675 -0.187487
-0.162067 -0.679139
-0.453725 -0.179492
0.182599 -0.519073
-0.030229 -0.259034
-0.246137 -0.352482
-0.176198 0.036069
0.361021 -0.342587
-0.082659 0.164753
0.058303 -0.225463
-0.408833 -0.666105
0.353949 -0.332250
-0.489584 -0.223238
-0.041169 0.160636
-0.150161 -0.446288
-0.138174 0.024547
0.130165 -0.804620
0.262694 0.222546
0.150243 -0.459627
-0.406369 -0.161950
0.038422 -0.264537
0.021002 -0.080820
0.310398 -0.473394
-0.620421 0.007946
0.079543 -0.159536
-0.092399 -0.510635
0.305119 -0.326167
-0.128946 -0.254428
0.227838 0.347193
-0.107006 -0.843376
-0.055667 -0.110068
-0.530775 -0.624523
-0.191108 -0.004624
0.489806 -0.659965
-0.266202 0.229823
0.002209 -0.384652
-0.211331 0.025753
-0.220256 -0.350290
-0.697730 -0.345110
0.027522 -0.411220
-0.237079 -0.716034
-0.067167 -0.098242
-0.352594 -0.486928
-0.118718 0.104353
-0.359794 -0.522008
-0.363303 -0.261574
0.040827 -0.417355
-0.171169 -0.175455
0.192300 -0.330997
0.071053 0.045513
0.279137 -0.184674
-0.399763 -0.150202
0.683043 -0.143171
-0.762085 0.279844
0.249195 -0.116750
-0.476409 -0.272115
0.479962 0.291732
0.077255 -0.329416
-0.491192 0.246005
-0.106546 -0.133184
-0.350720 0.115591
0.254608 -0.795051
-0.343632 0.128194
0.491089 -0.116745
0.151225 -0.385009
0.314580 -0.136506
-0.429946 0.098778
0.254951 -0.454465
-0.143228 -0.388343
0.428650 -0.159217
-0.091037 -0.525579
0.445924 0.121154
-0.412041 -0.378887
-0.188024 0.247385
-0.372589 -0.625305
-0.120065 0.236190
0.072479 -0.735466
-0.327935 -0.117315
-0.032395 -0.265366
-0.130905 0.156405
0.160952 -0.747261
-0.581791 0.082075
0.049927 -0.411054
-0.365584 -0.574091
0.073056 -0.259091
-0.641776 -0.828422
0.048796 0.117353
-0.107285 -0.351646
-0.298718 0.129614
0.065710 -0.147525
0.001757 -0.138785
-0.166830 -0.654201
-0.159187 -0.240545
-0.024231 -0.420117
-0.341176 -0.304966
-0.217353 -0.167169
-0.260858 -0.291086
0.317757 -0.319749
-0.458263 -0.572629
0.556091 0.247575
-0.084556 -0.483547
0.493468 0.117366
-0.250368 -0.174698
-0.314288 0.170995
0.205488 -0.511675
-0.139668 0.136838
0.211380 -0.490779
-0.443099 0.290416
0.361912 0.102085
-0.491953 0.040389
-0.244955 -0.277923
-0.907668 -0.123580
0.180361 0.098694
-0.116732 -0.389489
-0.051451 -0.078935
-0.578350 -0.307358
-0.027054 0.280549
-0.240447 -0.590906
-0.316231 -0.256113
0.008901 -0.405015
-0.006899 0.005720
0.371694 0.078681
-0.257668 -0.036164
-0.194142 -0.212443
-0.672762 0.126626
-0.000991 -0.472737
-0.367016 -0.309683
0.328707 -0.310918
-0.143519 0.030681
-0.056396 -0.188885
-0.329361 -0.251595
-0.558428 0.376421
-0.318030 -0.730344
-0.407072 0.205264
0.099062 -0.839068
-0.044323 -0.004041
0.248108 -0.314843
-0.384676 0.163971
0.371491 -0.253206
-1.005277 -0.262203
0.118052 -0.291264
-0.431346 -0.579861
0.430526 -0.224216
-0.544159 -0.759744
-0.281430 0.208921
-0.177157 -0.609089
0.168192 -0.093315
-0.028384 -0.474010
-0.002001 -0.113496
0.095244 -0.627691
-0.463846 0.168819
0.676042 -0.351374
-0.463116 0.161207
0.054299 -0.519610
-0.637589 -0.162761
-0.069642 -0.530224
-0.250409 -0.312173
0.799800 0.015770
-0.065090 -0.429227
-0.050744 0.020566
-0.441598 -0.333240
-0.103161 -0.032767
-0.317208 -0.775236
-0.337927 0.189557
0.010537 -0.744559
-0.277390 -0.064484
0.356842 -0.168097
-0.511126 -0.048918
0.071081 -0.056058
-0.737111 -0.490613
0.299042 -0.096786
-0.377498 -0.628076
0.113109 0.102510
-0.188322 -0.292336
-0.203076 0.186321
-0.545658 -0.753229
-0.257514 0.147865
0.180966 -1.026506
-0.369103 0.271847
0.086436 -0.457991
-0.468759 0.067804
-0.157557 -0.321773
-0.418913 0.248306
-0.068116 -0.207572
-0.871392 -0.325531
-0.107532 -0.277305
-0.570844 -0.698387
-0.033181 -0.165129
-0.509438 -0.497574
-0.151999 -0.013765
-0.407529 -0.949623
-0.318319 -0.034071
0.198780 -0.467918
-0.060322 0.333010
0.088456 -0.112257
-0.684741 0.095797
-0.353026 -0.261820
-0.955506 -0.012017
0.047224 -0.432274
-0.526640 -0.646467
-0.042457 -0.040461
-0.496979 -0.739217
-0.140893 0.158568
-0.582467 -0.445078
-0.008692 0.006697
-0.019463 -0.507986
-0.537088 0.125096
0.377034 -0.175683
-0.321556 0.120716
-0.007040 -0.176341
-0.597578 0.183136
-0.033917 -0.238004
-0.603231 -0.280330
0.289963 -0.631571
-0.601588 -0.167400
0.333771 -0.056857
-0.327302 -0.508485
-0.171381 -0.118048
-0.570389 -0.728180
-0.577041 0.370140
0.183654 -0.377296
-0.318164 -0.289848
-0.211071 -0.611285
-0.234436 0.252955
0.038453 -0.256467
-0.404345 0.161322
0.443309 -0.750416
-1.089511 -0.547069
0.045720 -0.351577
-0.452328 -0.288314
0.445733 -0.063236
-0.301322 -0.602116
-0.084046 0.347510
-0.942376 -0.441241
-0.228172 0.599886
0.392844 -0.785553
-0.506906 0.039580
0.085977 -0.802476
-0.254613 0.319022
0.030026 -0.583975
-0.712349 0.035671
0.091708 -0.160608
-0.696918 -0.166729
0.718220 0.140935
-0.217755 -0.625022
0.118556 0.302549
-0.146313 -0.527463
-0.571303 -0.067742
-0.468676 -0.612306
-0.109774 0.310851
0.091922 -0.568445
-0.244169 0.181118
0.445659 -0.012230
-0.271350 -0.230564
0.014128 -0.629903
-1.001025 -0.234154
-0.378582 -0.338663
-0.520242 -0.173312
0.147783 0.209630
-0.429618 -0.512022
0.184907 0.312411
-0.538635 -0.613357
-0.621576 0.393330
-0.584482 -0.788505
-0.421167 0.220943
-0.503251 -0.670760
-0.331668 0.009824
0.670766 -0.277235
-0.701914 0.072930
0.175813 -0.581041
-1.209293 -0.282772
0.088644 -0.019757
-0.368465 -0.161040
0.350627 0.213180
-0.738958 -0.351650
-0.052044 0.347859
-0.786376 -0.558332
-0.110283 0.468528
-0.166212 -1.344844
-0.099635 0.527978
-0.002484 -0.829910
-1.049373 0.423427
0.390400 -0.266960
-0.704686 -0.029255
-0.019072 -0.248189
-0.826218 0.103412
0.459333 -0.194414
-0.670909 -0.532127
0.349118 -0.225826
-0.850711 -1.029606
-0.414704 0.100765
-0.748073 -0.477908
-0.921886 0.399102
-0.096153 -0.816692
-0.551729 0.024229
-0.292297 -0.714214
-0.438840 0.388821
0.027146 -0.491381
-1.188147 -0.185992
-0.050983 -0.388774
-0.875332 -0.536701
0.318096 -0.754016
-0.832850 -0.705234
-0.085859 0.452277
-0.874331 -0.060111
-0.139605 0.456047
-0.241950 -0.251182
-0.538488 -0.481847
-0.381252 -1.113470
-0.700320 0.343792
0.268659 -0.647779
-0.958317 0.185620
-0.197785 -0.321966
-1.153141 -0.186543
-0.398626 -0.127891
-0.671189 -0.376340
0.146266 0.061692
-0.658953 -0.596402
-0.235458 0.259790
-0.693468 -0.510679
-0.324736 -0.248229
-0.352788 -0.955728
-0.840563 0.090662
-0.309209 -0.823687
-0.368431 0.450137
0.342792 -0.567636
-1.107300 0.173814
0.143507 -0.279033
-1.102257 -0.363404
-0.020218 0.061716
-0.631986 -0.202930
0.340044 0.056293
-0.991270 -0.330299
-0.318760 0.401389
-0.981971 -0.768914
-0.381141 0.313376
-0.234611 -1.063077
-0.789073 0.557809
-0.430196 -0.643252
-0.423537 0.243658
0.028549 -0.501082
-1.198846 0.373644
0.095746 -0.669573
-1.069212 0.052455
0.616152 -0.792762
-0.649570 -1.213472
-0.164454 -0.013621
-0.612452 -0.647600
-0.326962 0.706056
-0.841131 -0.959400
-0.755083 0.023780
-0.644089 -1.425772
-0.633262 0.760441
0.284837 -0.638298
-0.744345 0.767246
0.293437 -0.182434
-1.714927 0.162133
0.363625 -0.598053
-0.910689 -0.378456
0.284173 -0.476179
-1.104780 -0.534022
-0.050040 0.858048
-1.295627 -0.647354
-0.652943 0.682601
-1.045987 -1.364945
-0.889941 0.321082
-0.131337 -0.790279
-0.527898 0.668940
-0.037474 -1.031524
-1.049236 0.685063
-0.075582 -0.349611
-1.540735 0.270493
0.416284 -0.191006
-0.995593 -0.737197
0.193010 0.033801
-0.744244 -0.664971
-0.152188 0.584435
-0.811527 -0.911755
-0.411923 0.733441
-0.900486 -1.678060
-0.417819 0.741287
-0.196267 -1.083963
-0.929886 0.660567
0.083749 -0.856416
-1.406114 0.372928
-0.017846 -0.344762
-1.228496 -0.340677
0.179546 -0.868251
-1.215944 -0.790098
0.327930 0.833977
-1.463466 -0.087477
0.009523 0.927722
-1.283299 -1.001629
-1.095547 0.484879
-1.007377 -0.957237
-0.472616 0.467317
0.559886 -1.656078
-0.589803 0.460585
-0.122773 -0.668710
-1.881173 0.466072
0.032624 0.103588
-1.509434 -0.248102
-0.062861 -0.757565
-1.713948 -0.792696
0.245361 0.565820
-1.279589 -0.635801
-0.379347 0.898352
-1.093647 -1.169899
-0.969186 0.856076
-0.501843 -0.948141
-0.836433 0.642480
0.296196 -1.074498
-1.554119 1.237594
-0.275846 -0.444121
-1.965008 -0.202093
0.550050 -0.703488
-1.846307 -1.309343
0.165992 -0.212936
-1.134827 -0.087964
0.878281 0.655110
-2.337486 -0.327313
-1.499722 0.751596
-2.068855 -1.739409
-0.478828 1.474773
0.002373 -1.279214
-1.219057 0.216717
-0.324410 -0.866256
-1.928432 1.752849
-0.437400 -0.113153
-1.773097 -0.196294
0.537694 -1.248612
-2.476623 -0.923079
0.578225 0.820870
-1.024713 -0.920970
0.898380 1.016128
-2.398403 -1.289716
-2.268904 0.082247
-2.038921 -1.932314
-0.078722 1.218265
-0.586232 -2.457465
-2.234533 0.791665
0.066884 -0.475485
-2.086434 2.371121
-0.143742 0.431670
-3.483551 -1.364331
0.169688 -1.107707
-2.165942 -0.367094
0.439568 0.980632
-1.595774 -1.806721
0.774857 1.447547
-3.088405 -1.096194
-2.532055 1.913359
-1.053961 -3.205020
-0.028371 0.283694
-0.170304 -2.093311
-3.850085 2.086028
-0.444059 -0.847930
-3.046476 1.978897
-1.198826 -1.632895
-4.912377 -1.800410
0.721943 -0.194408
-1.855665 1.079611
1.343661 2.175113
-3.728063 -3.264875
-1.613736 1.011935
-2.896936 -0.317911
-2.674083 2.897005
-0.564741 -6.243932
-1.344160 0.255833
-1.941691 -1.873261
-5.812393 4.996122
2.184229 -1.902344
-3.326377 0.729131
-3.008809 -1.586362
-10.659372 -1.535474
2.399426 -1.121124
0.367626 1.813883
-0.392474 3.551455
-10.682299 -4.122830
-4.792864 5.415635
-2.291479 -0.129489
-3.342934 1.347755
2.932716 -12.966818
-0.604507 3.608150
1.196675 8.337837
-13.666713 12.719878
-0.922603 -15.983510
-11.197883 -5.863403
-4.781394 -0.435387
-19.185210 -4.178486
25.456402 -14.374452
8.458889 0.776208
-20.421218 11.772970
-39.390263 8.819487
-19.703024 4.936917
7.462370 -30.579972
-71.624995 -46.589983
-62.115661 -99.665752
85.456571 -4.846678
158.399471 343.153241
-782.869631 302.937620
-385.129832 -1191.825607
-5903.804505 1118.953069
