1997.329876 2347.045861
-1093.233734 -587.555379
-877.966344 443.774575
227.896324 -7.484699
34.826401 -201.786220
165.522312 13.705665
118.867792 -52.090633
73.876900 26.306732
59.733483 -57.652196
37.723121 -31.769772
71.636529 -70.405984
36.065170 -55.071234
77.140425 -40.438635
32.594160 -65.294203
31.343927 -34.231167
36.212646 -62.250080
20.138872 -53.720555
27.222368 -57.114144
17.353370 -50.810002
22.215899 -51.956414
1.827356 -51.240000
12.523876 -42.003293
5.480487 -57.485512
-5.014229 -40.918759
4.370557 -43.732722
-7.994680 -41.426278
-5.322250 -36.122425
-8.404510 -35.989357
-5.737502 -32.898313
-10.680051 -32.352808
-7.197473 -22.910980
-6.001953 -30.566507
-14.891533 -23.704169
-5.913873 -21.978420
-11.403731 -26.167246
-10.498488 -17.698231
-7.233860 -17.913033
-7.851918 -15.303752
-8.892597 -16.451669
-9.698180 -11.736225
-4.286192 -15.496457
-9.484627 -15.434025
-3.096112 -10.095951
-3.418691 -15.895427
-5.958923 -9.984499
-2.258953 -11.034313
-4.531512 -11.876891
-3.618938 -12.585591
-3.830962 -11.098327
0.323084 -12.066857
-3.225184 -13.821352
-0.966281 -8.984855
1.364634 -14.460341
-3.582536 -12.371947
0.222844 -12.060727
-1.490843 -14.420442
-2.326681 -13.587564
-2.563341 -13.528835
-1.226813 -14.732325
-3.608743 -16.825011
-4.402346 -12.914626
-1.907188 -15.942654
-7.549864 -14.927158
-5.636868 -12.506346
-6.364879 -15.837921
-8.637085 -14.118727
-7.711789 -12.977421
-7.928325 -13.109343
-8.436945 -13.365328
-11.096108 -10.489325
-9.131849 -10.443034
-12.146743 -10.921927
-11.388891 -7.347101
-9.795112 -8.661148
-12.633885 -7.513228
-11.321323 -4.679579
-11.087601 -4.649682
-10.431171 -3.994414
-11.371648 -2.808706
-8.341505 -1.481088
-9.412821 -2.635149
-9.084571 0.485194
-5.596431 -0.419184
-6.972460 -0.767817
-5.379963 1.186230
-3.729501 0.438305
-3.206299 0.839020
-3.101549 0.127614
-1.306099 0.738052
-1.066456 -1.738782
-1.823338 -0.756435
0.883225 -1.019242
-1.302526 -3.607762
-0.798551 -1.032483
1.205383 -2.965681
-0.072348 -3.782010
-0.157022 -3.891111
0.317863 -3.987931
0.294715 -6.543512
-1.951455 -6.141503
-0.642840 -5.119372
-2.002596 -7.811665
-3.612811 -6.052957
-1.831555 -6.012438
-3.984191 -6.594337
-3.797378 -5.236251
-4.302282 -5.394961
-4.155761 -5.450250
-6.491912 -4.840437
-4.834232 -2.874977
-4.855123 -4.853035
-6.668311 -2.707496
-4.009148 -1.044407
-5.485130 -3.308553
-5.098198 -0.935882
-4.282438 -0.627818
-3.577547 -0.234094
-4.209661 -0.581732
-2.629763 0.897610
-1.084881 -0.291100
-3.134244 0.419688
-0.351709 1.547574
-0.409950 -0.762983
-1.274677 1.033088
1.052114 0.377740
0.932043 -0.901484
1.075766 -1.127571
1.188889 -1.174290
2.752059 -1.904487
1.356825 -3.003792
2.067775 -1.802575
2.898799 -4.390773
0.384486 -4.113263
2.124135 -4.110424
1.911551 -5.612208
1.310395 -5.522082
0.835469 -6.120009
1.359871 -5.502929
-0.007039 -7.649702
-0.498638 -5.606464
0.407827 -6.996159
-2.293951 -6.979806
-1.470152 -6.121429
-2.031875 -7.376113
-3.188867 -6.849352
-3.508865 -5.989728
-3.268449 -5.522005
-3.613737 -6.252277
-4.586457 -4.749215
-2.870807 -5.256878
-4.953389 -5.897001
-4.242456 -3.627774
-3.714754 -4.655410
-5.161928 -3.666895
-3.752557 -3.430008
-3.998497 -3.691900
-4.110742 -3.302979
-4.664728 -2.765976
-3.048920 -2.221556
-3.725751 -3.405823
-4.062753 -0.936734
-2.449879 -1.983430
-3.558395 -2.532035
-3.218470 -1.680027
-2.458922 -2.201855
-2.834307 -2.365538
-2.888595 -2.785773
-2.139403 -1.609969
-1.934627 -3.154514
-2.861961 -2.477474
-1.523323 -2.487371
-2.453718 -3.197317
-2.321363 -2.319309
-1.879918 -3.748107
-1.915173 -3.429910
-2.366316 -3.539091
-1.964480 -3.781710
-2.001563 -4.342751
-3.649347 -3.544374
-2.105368 -3.288095
-3.288622 -4.963392
-3.647898 -3.313684
-3.105231 -3.962588
-4.162654 -4.308820
-4.178229 -4.048085
-4.369944 -3.204349
-4.648400 -3.906819
-6.066495 -3.482006
-4.717027 -2.105018
-4.972921 -3.480201
-6.286388 -2.387327
-4.926679 -1.403432
-6.012228 -2.468711
-5.989611 -1.043270
-5.563539 -1.072133
-5.446229 -0.582240
-6.149120 -0.464213
-5.298178 1.131438
-4.038746 0.146949
-5.721253 0.834958
-3.871775 1.414813
-3.619025 0.928033
-4.153725 1.546776
-3.201445 1.660111
-2.846943 1.570475
-2.706522 1.259710
-2.279826 1.861013
-0.810061 1.278498
-1.969895 0.894165
-1.203145 1.916523
-0.180783 0.408128
-0.852241 0.404711
-0.054647 0.316132
0.077842 -0.804381
-0.441420 -0.661742
-0.161164 -0.830529
0.202654 -1.116066
-0.967260 -2.486316
-0.980822 -0.958586
-0.303592 -2.307997
-1.706573 -1.952593
-1.030210 -1.840716
-1.491555 -3.087078
-2.237623 -2.265509
-2.554343 -2.302801
-1.930751 -2.026090
-3.333298 -3.004039
-3.439166 -1.874485
-2.191402 -1.777494
-3.772012 -2.144564
-3.541972 -0.666552
-3.134539 -1.522891
-3.579769 -0.771247
-3.203478 0.363870
-3.219103 0.212811
-3.065481 0.079277
-3.244987 0.684294
-2.065747 0.662022
-2.410693 0.224550
-2.321005 1.118563
-1.253487 0.429264
-1.467223 0.314954
-1.081379 1.099104
-0.777539 0.360391
-0.117677 -0.001639
-0.323543 0.262711
0.881374 0.732529
0.251612 -1.004466
-0.637146 -0.378942
0.961219 -0.986389
0.028308 -1.845999
0.385786 -1.105507
0.368840 -2.000925
0.256876 -2.615958
-0.081994 -3.084152
-0.325112 -2.607174
0.338164 -3.374980
-1.706023 -3.419953
-0.741505 -2.819777
-1.909881 -4.286341
-1.702958 -3.212909
-1.352379 -3.638440
-2.557930 -3.436354
-2.815359 -3.753484
-2.652175 -3.370497
-2.902773 -3.267060
-4.298653 -2.871892
-3.609241 -2.170973
-3.371640 -3.060035
-4.560083 -2.584035
-3.316969 -2.292290
-3.973773 -2.414935
-4.231323 -1.634010
-3.655312 -1.397917
-3.836555 -1.642112
-4.132752 -1.052538
-3.967200 -0.296502
-3.334073 -1.042883
-4.803505 -0.410155
-3.368454 0.140354
-3.599109 -0.489738
-3.273666 -0.072209
-2.852949 -0.199158
-2.719771 -0.056643
-2.668611 -0.184500
-3.155100 0.077852
-1.925496 -0.385266
-3.006814 -0.443625
-2.213396 0.473663
-1.945617 -1.136279
-2.761891 -0.743155
-2.341780 -0.315582
-2.171330 -0.895784
-2.182096 -1.510888
-2.530657 -0.627715
-1.829267 -1.616254
-3.220661 -1.711650
-2.688198 -0.654992
-2.297282 -1.785523
-3.475968 -1.395686
-2.737834 -0.895895
-3.065580 -1.413255
-3.248012 -1.145045
-3.760164 -1.367736
-3.272543 -0.868435
-3.866810 -1.775993
-4.611938 -0.347680
-3.300062 -0.960965
-4.637960 -1.107925
-4.348797 0.101800
-4.226001 -0.061846
-4.845614 -0.184044
-4.474401 0.444616
-4.401072 1.036128
-4.105460 0.517074
-5.006848 1.037340
-3.672173 1.478565
-4.427518 0.960079
-4.057892 2.442014
-3.056353 1.606730
-3.604893 2.278454
-3.047787 2.759541
-2.513776 2.513612
-2.332720 2.325000
-2.598900 2.729828
-1.405268 2.971299
-1.442405 1.847716
-1.519749 2.413357
-0.304260 2.161732
-1.284740 1.289245
-0.290263 1.857860
-0.289492 0.997686
-0.289183 0.956911
-0.389630 0.262947
-0.019184 0.933994
0.092797 -0.236670
-0.869134 -0.106394
-0.028910 -0.355965
-0.791128 -1.041047
-0.817683 -0.221322
-1.234766 -0.953118
-1.300873 -1.187773
-1.723726 -1.128128
-1.414280 -0.853398
-1.478373 -1.154316
-2.696179 -1.385161
-2.133684 -0.037062
-2.538079 -1.192191
-3.578716 -0.473211
-2.425658 0.234614
-3.419971 -0.395268
-2.934893 -0.021510
-3.171136 0.487919
-2.772687 0.619510
-2.827524 0.426624
-2.675336 1.863073
-2.131047 0.945190
-2.854386 1.353929
-1.695501 1.761411
-1.735866 1.295806
-1.708092 1.591158
-1.124513 1.449579
-0.738743 1.149613
-0.895637 0.814699
-0.573625 1.551473
-0.117220 0.710707
-0.702635 0.291135
0.052313 1.173281
0.105281 -0.681077
-0.075514 0.053154
0.147395 -0.179519
-0.117577 -0.964462
-0.064574 -1.165341
-0.572013 -0.848818
-0.137485 -1.581244
-0.780344 -2.031055
-1.206904 -1.260858
-0.891225 -2.422284
-1.840824 -2.425784
-1.545091 -1.734342
-2.258621 -2.458172
-2.526387 -2.494559
-2.915073 -1.908479
-2.572076 -1.652967
-3.077140 -2.594385
-3.988669 -0.959758
-3.200976 -1.652088
-4.271115 -1.591611
-4.010004 -0.610428
-4.131065 -1.040376
-3.867234 -0.436172
-4.335672 -0.604001
-3.959084 -0.072558
-3.946402 -0.251543
-4.413121 0.628572
-3.294635 0.823914
-3.981021 0.394610
-4.320801 1.357910
-2.875674 0.772711
-3.812119 0.824828
-3.228186 1.542643
-3.257621 1.420565
-2.755175 0.911463
-2.989798 1.462795
-2.238433 1.959508
-2.353251 0.278931
-3.116347 1.805145
-1.833059 0.980561
-2.687702 0.969791
-2.297299 1.249129
-2.062002 0.822291
-2.075175 0.778436
-2.447148 0.480859
-1.833247 0.481127
-1.936304 -0.260345
-2.972912 0.289478
-2.008690 0.468900
-2.717401 -0.247083
-2.757527 0.792029
-2.467604 0.181312
-2.927064 0.173331
-2.895381 -0.036132
-3.454978 0.610486
-3.030503 -0.148355
-4.247222 0.216855
-3.240692 1.190903
-3.602138 0.331299
-4.199605 0.728392
-3.607895 1.046131
-3.849665 1.067118
-3.908681 1.444033
-4.324971 1.504800
-3.399387 1.951943
-4.234844 1.504499
-3.978726 2.821894
-3.573614 2.029458
-4.524936 2.813560
-2.955922 3.268386
-3.312997 2.879144
-3.162601 3.495104
-2.364287 3.775978
-2.409384 3.734721
-2.187708 3.568650
-2.233702 3.868366
-1.361702 3.978279
-1.667034 3.631133
-0.600449 3.937467
-0.221329 2.931713
-0.558708 3.109526
-0.234111 2.795510
0.184218 2.576532
0.364295 1.968719
-0.274695 2.310312
0.949661 1.405000
-0.069019 0.832715
0.327110 1.696699
0.638255 0.440305
-0.623671 0.330261
0.034097 0.712126
-0.464787 -0.205599
-0.617515 -0.557649
-1.571130 -0.110183
-0.735704 -0.420635
-1.571203 -0.583293
-1.744881 0.100639
-1.573276 -0.164646
-2.384076 0.173529
-2.164037 0.760764
-2.771541 0.314859
-3.120811 0.454301
-3.315482 1.072698
-2.443724 0.962194
-2.683622 0.340620
-3.345272 1.743311
-2.448967 2.191929
-3.146073 1.278414
-2.535616 2.551894
-1.603261 2.446362
-2.561014 2.910225
-1.736615 2.263934
-1.567191 2.613368
-0.865861 1.906151
-1.652230 2.580079
0.214520 3.101936
-0.498005 1.564920
-1.121108 2.328817
0.508193 1.974985
0.036064 1.267185
0.290490 0.997204
-0.101876 0.510182
0.144026 0.175305
-0.062540 -0.495153
0.175309 0.211876
-0.047456 -0.521802
-1.312475 -0.293467
-0.025738 -0.830384
-1.116162 -1.355121
-1.895536 -0.832613
-1.506268 -0.941177
-2.201144 -1.839854
-2.879208 -1.657163
-2.906960 -0.690413
-2.842540 -1.671636
-4.044348 -1.135223
-3.446842 -0.654968
-3.777935 -1.223228
-4.622695 0.071730
-4.555093 -0.439454
-4.853696 0.106834
-4.819996 1.107354
-4.881014 1.822269
-4.624415 1.679827
-5.329543 1.323974
-4.625558 2.644264
-3.768214 1.468783
-5.108438 2.340995
-4.137492 2.613524
-4.530401 2.619927
-3.965410 3.467953
-3.374009 3.061941
-3.176459 3.463199
-3.741507 2.744038
-3.075512 4.308070
-2.246794 3.026813
-3.134615 3.300985
-2.324002 3.710271
-1.855303 3.067112
-2.101222 3.452496
-1.993015 3.077866
-1.540136 2.884671
-1.892879 2.004157
-2.625827 2.797703
-1.277150 2.529330
-2.477300 1.846212
-2.037142 2.906567
-1.714310 1.929653
-2.551555 2.098507
-2.119053 2.331459
-2.507443 1.778925
-2.348350 1.638740
-3.155937 1.838400
-2.296480 2.475865
-3.495895 1.001190
-3.738628 2.740090
-3.132016 2.197343
-4.455993 2.705579
-3.164717 2.950344
-3.797694 3.018730
-3.793806 2.986206
-4.043032 3.292879
-3.903606 3.783261
-3.754246 3.071790
-4.802086 4.397894
-3.105006 4.942274
-4.268304 5.001252
-3.778912 6.046444
-2.213585 4.950450
-2.883450 6.109069
-2.301556 5.641195
-1.540605 6.151501
-1.218290 5.587893
-2.111450 6.303314
-0.362296 6.652839
-0.687395 5.334134
-0.695887 7.160493
0.814258 5.922477
0.291517 5.273321
0.749212 5.555377
1.315144 5.374771
2.073700 4.184640
0.810975 3.990571
2.483408 5.243979
2.209833 2.619304
0.990565 3.116447
2.029038 2.560549
1.456759 1.634513
1.426983 1.517625
1.424746 0.696503
1.399520 1.173932
0.307092 0.534962
0.184912 1.384700
0.258258 -0.474067
-1.828426 0.833735
-0.182805 1.319646
-1.672468 -0.324289
-2.258448 1.162608
-1.610955 0.673360
-2.514942 1.063755
-3.061668 1.140584
-3.771617 2.432615
-2.541778 2.545828
-4.052389 2.302823
-3.069468 3.621523
-2.750240 2.151562
-4.087863 3.625513
-2.828792 4.567966
-2.723001 4.195921
-2.176516 5.268117
-2.219424 5.343755
-0.259523 5.619108
-1.151721 3.917228
-0.616677 5.764384
1.279410 3.980583
-0.853424 4.621797
0.648924 4.906501
0.542055 3.566737
0.252357 3.431244
0.376645 2.878469
1.192850 3.287523
0.857575 1.825841
0.508785 2.751397
1.916055 1.216565
-0.358286 0.463393
0.567004 1.599428
0.426126 -0.746376
-1.300213 -0.154898
-1.088364 -0.490950
-2.016638 -0.787383
-2.087085 -0.913040
-3.155594 -0.004987
-2.675867 0.751271
-3.939404 -1.110301
-4.877962 1.230147
-3.916538 0.084495
-6.921025 0.490903
-5.831252 1.201934
-6.458251 1.743806
-6.623563 2.710242
-7.199139 3.283223
-7.109855 4.182734
-6.639034 3.185163
-8.505307 5.767650
-5.432463 5.598188
-7.436815 5.233078
-6.627777 7.711982
-5.706077 7.225887
-6.431410 7.394765
-6.240569 7.851731
-5.491592 9.332829
-4.259948 8.640076
-5.568956 9.237881
-3.027706 10.089891
-3.080065 7.784214
-3.335305 10.531809
-1.296455 8.521534
-2.643298 8.631669
-2.318569 9.276939
-1.572833 9.215134
-0.426045 8.872594
-2.095190 8.442341
0.162341 10.084222
0.958621 6.701866
-1.902811 8.539983
1.231611 8.116812
-0.684611 6.152056
-1.293794 7.697458
-0.288955 7.156551
-0.570874 7.002580
-1.790315 6.136101
-2.199792 8.313135
-0.882506 5.636056
-4.841097 6.451888
-1.167871 7.832120
-2.752683 5.149150
-4.550285 7.384007
-3.386595 8.368436
-4.416547 8.539674
-4.479275 8.477096
-5.177591 10.211220
-2.788064 9.534813
-6.720238 9.983645
-3.822033 13.602543
-3.417844 10.138463
-6.476047 13.468090
-3.283370 14.923196
-4.442579 14.260494
-3.021056 16.349660
-3.438118 16.916222
-0.359872 17.747115
-1.371963 15.964147
0.245854 20.703704
4.292481 17.814052
0.980301 18.825592
5.525271 21.431474
5.023268 17.087708
6.478141 18.662514
7.857287 17.940863
10.890041 18.550666
11.033382 14.867666
9.692859 18.666393
15.198745 14.974421
9.634271 10.477748
13.541323 14.181357
14.528250 7.761493
12.043124 8.484609
12.868611 7.612041
12.216614 7.694134
12.782467 3.187444
8.079516 5.300090
12.903382 3.522128
6.130380 -2.494776
4.806376 4.054715
7.131938 -2.076077
0.157346 -1.236563
1.343309 1.765117
-0.737049 2.789491
-3.433601 3.167858
-8.843232 5.784266
-5.250589 9.323691
-8.977489 2.065510
-12.559546 12.004473
-5.369944 13.908967
-12.284476 15.337101
-9.921575 25.602317
-9.626354 23.983003
-10.468363 24.920909
-11.714950 26.953131
-0.474484 33.997135
2.405197 28.144979
-2.808248 39.025248
12.045485 46.908060
0.873670 37.643680
7.497986 44.072642
17.636273 43.107788
18.505890 36.362722
27.353173 36.001165
30.905102 50.911030
35.072386 31.862383
16.737535 41.445040
55.057744 34.244908
35.183284 39.613592
26.365079 34.029477
69.311075 16.595393
12.652258 135.427618
-150.691861 -335.997177
672.144655 146.296940
-317.716155 304.293511
