805.046557 1001.516856
-415.075148 -299.092677
-470.246094 65.370074
30.779518 41.888632
11.632613 -85.461883
6.175628 32.055020
22.957565 12.068796
-10.700633 17.921956
2.984737 -4.562719
-12.221128 -7.238674
10.372547 6.621517
5.845829 -13.004668
-11.170102 6.960676
5.680437 2.666925
-1.439559 -5.875850
-0.314217 0.196322
-0.009701 1.057751
1.138545 3.543368
0.497843 -3.590806
-4.560580 -0.586648
4.176810 1.550082
1.992756 -3.826936
-3.203577 1.453712
0.978372 3.102967
-0.004381 -1.938670
-0.973294 -1.798055
-0.828997 1.095257
1.544341 1.636380
1.476337 -1.802267
-3.151235 0.172897
0.837267 2.428410
2.299708 -2.595347
-0.967898 -0.163118
0.230164 1.746886
0.835210 -0.809750
-0.206484 -1.193047
-1.277757 -0.397104
0.953960 1.246566
1.471496 -0.914028
-2.199824 -0.162471
0.036872 2.185394
0.697057 -1.601472
-1.346608 -0.852244
-0.435287 1.287867
0.397862 0.108322
0.719661 -0.583833
-0.716292 -0.721095
0.522409 1.390712
1.392971 -1.348342
-1.722656 -0.421204
-0.249267 1.691253
1.014335 -0.974243
-0.442114 -1.152144
-0.205030 -0.062732
0.027725 0.417811
0.559126 -0.852833
-1.074355 -0.710855
-0.812597 1.518686
1.440126 -0.483797
-0.739639 -0.831046
0.216465 1.026996
1.445157 -0.360964
-0.296096 -0.742228
-0.393792 -0.010345
0.190140 0.962617
0.784956 -0.760047
-0.917423 -0.548433
-1.003444 1.573419
0.983006 -0.560420
-0.702670 -0.530748
-0.830108 0.598967
0.541506 0.087273
0.286240 -0.225209
-0.818588 -0.649268
-0.254295 0.694665
1.003366 -0.173587
-0.784430 -0.821714
-0.493782 1.038369
1.062665 -0.241878
-0.400693 -0.631649
-0.545528 0.387471
0.557737 0.372625
0.501606 -0.381977
-0.666265 -0.280228
-0.621611 0.994309
0.841831 0.175027
-0.478072 -1.387432
-0.081977 0.912098
0.858222 -0.056410
-0.319568 -0.654754
-0.630381 -0.102489
0.063978 0.558699
0.556464 0.036597
-0.187409 -0.792636
-0.571931 0.737207
0.901355 0.012751
-0.287617 -0.948498
-0.083838 0.545634
0.733225 0.380426
-0.051017 -0.462152
-0.096454 -0.334090
-0.312529 0.284940
0.712931 0.537563
0.241162 -0.840679
-0.910860 0.433157
0.769877 0.347043
-0.528814 -0.760726
-0.723620 -0.195732
0.232918 0.323016
0.460123 -0.552986
-0.269249 -0.242122
-0.559725 0.259714
0.395327 0.235317
-0.190863 -0.902773
-1.136627 0.661347
0.262667 0.569924
0.230285 -0.793665
-0.530713 -0.357736
0.044593 0.657359
0.585032 0.151584
0.241267 -0.520083
-0.804905 0.137400
0.288693 0.658017
0.099544 -1.050860
-0.635377 0.166115
0.612116 0.593592
-0.080598 -0.382500
-0.281759 -0.095060
0.000555 0.578419
0.603316 0.410646
-0.010790 -0.490676
-0.572608 -0.071878
0.760267 0.567220
0.372982 -0.862753
-0.616531 0.085468
0.088772 0.414968
0.169779 -0.156107
0.068856 -0.256863
-0.836340 0.151639
0.156398 0.343135
0.091865 -0.947109
-0.666998 -0.056194
0.307346 0.674345
0.399990 -0.526394
-0.397687 -0.245925
0.260490 0.259552
-0.064129 0.520696
0.217325 -0.284052
-0.969366 0.082962
0.301531 1.024848
0.458020 -0.563682
-0.667468 -0.227148
0.101271 0.348656
0.398706 -0.697587
-0.142020 -0.274166
-0.374013 0.491456
0.325720 -0.149398
0.411545 -0.113437
-0.429538 -0.255344
0.349874 0.620046
0.313391 -0.590811
-0.585661 -0.307602
0.100877 0.148830
0.135753 -0.326065
0.137102 -0.113683
-0.709965 -0.121061
0.095403 0.698085
0.528577 -0.231469
-0.580198 -0.286676
-0.077199 0.804399
0.500408 0.166135
-0.445330 -0.609022
-0.318473 0.156261
0.266367 0.214694
-0.229136 -0.169231
-0.270745 -0.100625
-0.337465 0.509706
0.667271 -0.040223
-0.533139 -0.778781
0.106776 0.725149
0.434454 -0.071777
-0.415117 -0.525526
-0.015432 0.204019
-0.091379 -0.193634
0.183086 0.243015
-0.252084 -0.066510
-0.293427 0.187304
0.764768 -0.098006
-0.715967 -0.193434
-0.362242 0.744361
0.539560 0.189127
-0.157503 -0.558444
-0.187536 -0.043396
0.414894 0.164968
0.180489 -0.090482
-0.154310 -0.314661
0.344719 0.676901
0.621714 -0.193178
-0.406604 -0.417301
-0.674141 0.589652
0.356655 0.061802
0.240246 -0.486954
-0.083240 -0.352779
-0.369326 0.210699
0.320823 0.159452
-0.306337 -0.821294
-0.229949 0.667191
0.720546 0.161134
-0.566339 -0.670793
-0.543284 0.454097
0.333911 0.219056
0.180522 -0.016265
-0.093604 -0.222506
-0.744033 0.447922
0.938322 0.525052
-0.057068 -0.689851
-0.393840 -0.184226
0.280216 0.307729
-0.171376 -0.410438
-0.427132 -0.359090
-0.278984 -0.116909
0.065170 0.086864
-0.074120 -0.178428
-0.405307 0.047655
0.373875 0.834746
0.126595 -0.847170
-0.542761 0.395526
0.510629 0.672124
0.044537 -0.673158
-0.135317 0.116082
-0.287396 0.275293
0.563973 0.296922
0.109672 -0.526935
-0.760280 0.601991
0.664959 0.163930
0.285945 -0.483238
-0.185974 0.098972
0.106272 0.299147
-0.246065 -0.024214
-0.200125 -0.065579
-0.511373 0.221527
0.080633 0.459560
0.409625 -0.722544
-0.710935 -0.444241
0.856991 0.229084
0.312277 -0.406451
-0.257501 0.056591
-0.374176 0.357005
0.313347 0.161402
-0.296110 -0.112412
-0.753973 -0.006215
0.131024 0.290393
0.249249 -0.399105
-0.546950 0.149027
0.172894 0.803432
0.269886 -0.340083
-0.102823 -0.246089
-0.142099 0.203138
0.446560 0.185326
0.039366 -0.496598
-0.304213 -0.070819
0.552759 0.436771
0.446161 -0.157979
-0.776555 -0.235307
0.169134 0.187767
0.325968 -0.479749
-0.158700 -0.097829
-0.327210 -0.029278
0.176123 0.392560
0.315026 -0.325146
-0.888157 -0.161926
-0.098942 0.704454
0.650627 -0.040883
-0.244450 -0.278904
-0.341005 0.396368
0.129160 -0.034227
0.244656 0.116441
-0.354106 -0.391970
-0.287884 0.335597
0.019048 -0.724287
-0.699710 -0.050955
-0.014289 0.953494
0.530064 -0.100372
-0.804714 -0.029668
-0.233141 0.531682
-0.070309 0.329522
0.509744 -0.048366
-0.738519 -0.902425
0.197423 1.168865
1.532403 -0.211575
-0.537110 -0.830099
-0.068816 0.616204
0.551374 -0.127878
-0.184070 -0.053821
-0.136911 0.015584
-0.108354 -0.008407
0.505536 -0.084596
-0.790746 -0.294215
0.023447 1.094114
1.028099 -0.048848
-0.693124 -0.742797
-0.334409 0.582518
0.679084 -0.137741
-0.179634 0.261357
-0.425870 -0.202513
-0.164061 0.580990
0.891371 -0.321996
-0.372107 -0.770518
-0.488939 0.653929
0.860527 0.003015
-0.427480 -0.893095
-0.207933 0.495563
0.253915 0.448928
-0.135987 -0.243953
0.003466 -0.478380
-0.803242 0.665338
0.830882 0.169275
-0.067443 -0.947781
-1.335447 1.005830
0.805421 0.453364
-0.607051 -0.608194
-0.538644 0.225940
0.152846 0.180313
0.347002 -0.213436
0.214801 -0.964577
-1.033643 0.858819
1.235661 0.166918
0.135447 -1.578209
-1.230076 0.787280
0.823659 0.157938
-0.046290 0.193389
-0.204098 0.190545
-0.338752 0.513685
1.134675 1.097869
0.262011 -1.191393
-1.679873 0.643772
1.279443 0.677051
0.050924 -1.591173
-1.255875 1.119812
0.660357 0.951522
0.447452 -0.204430
-0.147005 -0.391082
-1.161826 -0.131020
1.044645 0.909089
0.549298 -1.663364
-1.913003 1.086613
1.414677 1.555266
0.504989 -1.206679
-1.670376 0.116512
-0.494488 0.610129
0.290616 -0.381000
0.510464 -1.081155
-1.354316 0.453905
1.573052 1.524752
1.426003 -1.492999
-2.299369 -0.013449
0.866141 1.829044
0.914865 -1.445819
-0.975809 -0.374398
-0.345589 0.973771
0.867202 0.190307
1.532404 -1.197216
-2.407574 0.545070
0.614995 2.384008
1.825833 -2.159171
-3.130222 -0.847859
0.742204 2.396769
2.973169 -1.444483
-0.626247 -0.283965
-2.200511 0.874803
0.783380 1.165736
1.509865 -1.648232
-2.985376 -3.258473
2.521909 6.497710
2.403274 -0.738679
-5.364793 -1.602853
-0.236235 4.129125
1.260136 -4.074976
4.093432 -1.531205
-1.733825 0.720163
-1.020339 10.568008
0.010136 -11.466253
-3.129093 -2.816101
-1.794450 9.929180
13.527753 -17.540952
5.994397 50.686812
-117.202275 -85.732593
242.932538 -14.351594
-94.979728 116.301252
