24778.635152 28852.215161
1049.563275 -2885.984337
723.236752 2819.300753
-75.010963 3064.346784
-76.295525 286.194167
269.467646 -770.581551
-1013.748853 -24.996975
-56.640706 1285.777595
1000.354690 -343.122064
442.117195 452.296793
660.834064 -82.069418
304.632039 63.217231
149.624848 -236.486760
189.158993 -312.297954
142.913546 -287.491299
395.334122 -286.170450
115.063597 -118.735548
203.472688 -35.480360
106.489335 -172.008132
217.952500 -131.045754
193.314357 -192.092475
220.882411 -225.714873
83.043084 -154.904801
132.975787 -187.612516
110.873779 -186.692883
154.335792 -201.642276
39.098631 -197.384252
48.346448 -183.557483
86.237430 -163.348043
89.004664 -206.495137
65.821473 -123.871606
69.698341 -167.782354
-5.873686 -114.734736
85.069370 -101.748223
43.336279 -143.470440
70.167043 -130.104669
53.785477 -124.659087
50.063748 -152.310803
40.484533 -113.801578
57.640364 -109.012529
32.320055 -80.959552
51.200143 -103.902623
35.143887 -83.554407
55.024726 -87.108533
76.591872 -82.958942
60.851621 -106.879302
68.126598 -85.291601
62.329686 -109.708012
52.095464 -79.509514
76.058897 -91.183828
61.800208 -89.934979
52.023443 -97.097817
61.295885 -98.750589
46.133641 -91.237984
60.803568 -96.751024
51.484245 -91.715261
53.663609 -92.370020
47.357473 -96.355984
57.177188 -96.329878
53.587023 -101.684976
70.545443 -111.361869
46.958131 -109.351732
42.193794 -92.465534
31.999232 -103.085069
38.995962 -89.232900
43.728059 -96.133881
45.143471 -92.159671
35.232096 -87.450741
37.800571 -99.491115
44.554385 -94.458538
47.419276 -110.240744
29.139582 -84.603086
32.875555 -98.110791
28.059086 -101.377188
38.225494 -108.913370
44.275026 -101.423292
32.612198 -107.926530
21.750013 -94.268831
19.450668 -100.601151
22.337476 -102.126488
27.040830 -92.078296
28.362037 -95.929911
16.896612 -101.420786
19.219032 -110.875586
13.810249 -99.071411
21.192526 -96.782016
3.780700 -98.603927
2.643261 -94.881168
9.550207 -106.792892
10.716775 -98.740232
8.883693 -96.908829
4.400216 -95.321866
-7.946284 -97.694546
2.022367 -88.419472
2.844601 -97.244637
-3.027046 -87.879228
-0.777068 -89.864973
-8.344018 -95.879086
-10.114986 -89.108424
-9.416716 -86.834790
-12.597874 -77.179856
-13.590220 -78.018009
-10.726645 -78.430900
-9.210902 -80.499261
-9.617297 -73.039612
-11.774614 -71.945441
-7.390900 -69.490767
-9.350289 -77.041953
-9.931980 -66.217768
-3.405235 -67.641153
-9.435444 -67.281247
-5.930990 -73.782484
-5.663655 -70.538125
-7.183517 -66.060743
-0.748973 -61.246295
-7.484323 -66.501801
-2.905070 -69.323222
-3.205940 -71.656546
-0.021408 -73.511690
-4.145351 -74.791313
-4.130476 -71.089421
-7.965084 -73.260414
-5.144359 -79.312553
-11.609396 -78.341644
-11.719060 -78.102253
-14.044204 -76.167988
-14.549778 -74.266946
-13.833052 -76.259127
-19.935915 -73.109855
-22.123099 -72.007189
-21.479664 -75.208910
-23.031431 -75.253543
-27.701171 -74.188877
-30.424116 -72.517774
-31.072520 -65.381594
-30.752907 -64.398242
-30.723781 -64.509477
-34.130848 -60.996910
-33.742836 -59.371276
-35.478344 -53.990223
-32.392298 -55.143790
-34.449435 -48.395228
-28.255283 -49.054621
-29.315815 -46.827967
-32.099583 -48.929739
-28.303191 -43.260066
-27.722397 -47.457109
-26.667681 -42.457120
-26.705245 -40.673513
-25.421723 -43.076164
-22.511624 -40.590524
-16.927083 -39.646064
-21.154603 -41.943531
-19.464253 -43.117757
-20.231567 -43.389672
-14.810043 -45.152981
-18.326191 -44.185502
-16.024270 -43.763800
-17.184147 -46.907616
-19.338742 -48.118039
-18.074265 -46.733954
-18.039595 -48.173236
-21.069057 -47.341014
-21.684862 -45.900048
-21.711858 -51.504000
-23.992990 -50.628913
-22.668291 -49.491634
-25.532412 -48.495667
-29.841170 -48.253736
-27.201778 -50.164783
-30.429484 -47.771484
-28.128336 -43.664907
-33.074773 -42.882424
-34.583281 -46.074100
-35.667941 -41.263672
-32.186315 -38.653085
-34.272682 -35.036387
-35.152790 -36.130386
-35.833375 -32.738723
-35.369056 -32.517581
-33.390616 -30.046334
-34.253285 -28.412285
-32.833277 -25.468888
-33.744023 -23.676010
-28.792895 -21.325251
-29.355757 -22.555220
-25.980381 -20.051031
-26.483904 -16.776200
-22.332032 -20.165829
-21.060403 -17.230590
-17.648964 -16.867715
-17.314176 -17.679696
-13.940602 -20.420913
-14.049740 -22.330135
-12.216567 -23.266913
-12.954475 -21.837805
-13.763376 -22.544810
-11.206078 -25.352647
-10.872115 -28.908207
-10.964209 -28.498283
-9.841848 -29.776909
-12.155021 -30.532206
-12.015008 -31.840048
-13.301298 -33.459863
-13.992985 -33.484715
-16.094256 -33.594635
-18.023267 -35.831957
-20.360648 -33.755471
-20.489739 -33.486610
-21.302058 -33.642231
-23.974240 -32.572185
-25.121464 -30.319361
-26.088636 -30.192997
-25.074635 -28.148276
-27.225220 -27.916100
-25.513748 -24.926047
-27.438077 -24.431802
-25.243624 -20.170253
-26.422485 -20.834322
-24.804979 -19.639207
-25.643661 -15.855616
-23.866304 -16.935011
-23.605173 -15.720347
-20.867846 -13.204421
-19.494567 -11.220380
-17.223961 -11.814475
-15.782143 -10.812138
-13.271318 -12.343594
-12.704597 -12.327075
-12.049226 -12.968997
-10.209234 -13.531193
-8.124863 -14.833669
-7.952126 -13.518444
-5.399262 -15.336806
-4.723242 -18.171711
-4.818071 -20.656486
-3.334012 -19.656733
-3.145309 -21.159657
-2.462246 -21.923145
-2.590743 -26.262360
-3.118021 -27.162511
-5.633577 -27.598247
-5.012431 -30.363850
-8.119787 -30.223046
-8.189608 -31.126352
-8.655533 -30.691336
-10.469262 -31.534412
-12.121800 -32.326765
-13.697481 -32.760372
-14.463058 -31.393764
-17.627178 -30.756389
-18.095316 -31.033751
-19.634626 -29.641127
-21.491954 -28.871770
-19.679034 -26.610615
-22.307890 -26.532961
-22.378537 -23.627362
-23.095752 -22.568648
-22.646107 -19.118651
-22.298092 -18.954361
-19.057466 -17.250295
-18.770566 -15.458421
-17.826777 -14.319261
-16.894194 -13.386617
-15.505751 -14.306799
-14.514202 -12.353568
-11.510095 -13.472975
-8.985357 -11.734958
-8.228293 -12.625740
-7.425663 -12.140319
-6.484473 -15.276187
-2.668853 -13.314355
-2.253475 -14.938340
-0.029479 -16.394876
-0.279592 -18.687877
2.808843 -20.234170
0.743269 -22.479286
1.619240 -24.944969
0.913654 -25.710824
-0.129475 -29.497352
0.860671 -29.635051
-1.909410 -31.761506
-3.844677 -31.621930
-4.394567 -34.910289
-4.397610 -34.862609
-7.198919 -35.654903
-8.738835 -36.820901
-11.505218 -35.486494
-12.384546 -36.600537
-12.327425 -36.907600
-15.812175 -36.798978
-17.724498 -35.418141
-21.536871 -34.636271
-20.128304 -32.590235
-22.272935 -31.884402
-22.053037 -29.944298
-23.825939 -28.403629
-23.488843 -28.617705
-23.607006 -25.430406
-23.652426 -24.492134
-23.046352 -21.026569
-23.347733 -22.316818
-23.083592 -19.657584
-22.096679 -18.434199
-19.289881 -16.781154
-19.968378 -16.375994
-17.243528 -16.077352
-16.855305 -14.976650
-14.009495 -14.379703
-11.979003 -14.925607
-12.217331 -15.044743
-9.801255 -15.793769
-8.124662 -16.798826
-7.968151 -17.317497
-6.527642 -17.941995
-4.936919 -20.905967
-4.760508 -21.370598
-4.928412 -22.911965
-4.866573 -24.215773
-4.252845 -25.656061
-5.020749 -27.459498
-5.161343 -29.369336
-5.604289 -30.757192
-7.283754 -33.847526
-8.772698 -34.064544
-10.486450 -35.476920
-11.625501 -34.829940
-13.731395 -36.382374
-14.979903 -36.521301
-18.042603 -36.376338
-17.654130 -36.707387
-20.949661 -36.025643
-21.046189 -35.273009
-24.233835 -34.408450
-25.155931 -33.210622
-26.477970 -32.306565
-27.011058 -30.797737
-27.938031 -29.719135
-29.346723 -28.580892
-29.817657 -26.041565
-29.180964 -25.211506
-29.243630 -23.544547
-28.561624 -21.745183
-28.385695 -19.682250
-28.055147 -18.993492
-26.845815 -18.044576
-26.486902 -16.524861
-25.288372 -16.706303
-24.533195 -15.930551
-23.304560 -16.140636
-22.725956 -14.524729
-21.233642 -14.543309
-18.513433 -15.078626
-18.755337 -15.259523
-17.740481 -16.113051
-16.493810 -15.357893
-16.204011 -17.765422
-14.925762 -16.845400
-15.214555 -18.346424
-15.432504 -19.752385
-14.973319 -20.571215
-14.566814 -21.454782
-15.775592 -22.945643
-15.621431 -22.586548
-17.018914 -24.576005
-17.525270 -25.078545
-18.202758 -26.318254
-19.925307 -25.682832
-21.020331 -25.616382
-21.671144 -26.510368
-22.414170 -27.127306
-23.814358 -26.819825
-24.443574 -25.874388
-26.268290 -25.870385
-26.660005 -24.758119
-28.150165 -24.719417
-28.804711 -22.424207
-29.561773 -21.995584
-30.062223 -22.041779
-30.111927 -20.438605
-30.681128 -19.114475
-30.117289 -18.289379
-30.236825 -17.575357
-30.646360 -16.640700
-29.441344 -14.857075
-28.800490 -14.507531
-28.945673 -13.496923
-29.066075 -12.016753
-27.682325 -11.771810
-27.077730 -10.972702
-26.375876 -10.652147
-25.837311 -9.513515
-24.470170 -10.221091
-24.559386 -9.627541
-22.626529 -9.953007
-22.119394 -9.566997
-21.769043 -10.093915
-20.309676 -11.013842
-21.089320 -12.022224
-20.740946 -11.975708
-20.338540 -12.975823
-21.006776 -12.755314
-20.280704 -13.714724
-19.969511 -13.825815
-21.120396 -14.499060
-19.807963 -14.997162
-20.826624 -15.751049
-21.745690 -15.774142
-21.560502 -16.224640
-22.216585 -16.394044
-23.491818 -16.153710
-23.587763 -16.041349
-24.282437 -15.476603
-23.673628 -15.139466
-24.640346 -14.817601
-25.027168 -14.892414
-26.334537 -14.957881
-25.313116 -13.686320
-26.910279 -12.802819
-26.205956 -13.381639
-27.349541 -12.354071
-26.885084 -12.818306
-26.679308 -11.554684
-26.243198 -11.015568
-26.455363 -10.012078
-27.470805 -9.905601
-26.285686 -8.829323
-26.484579 -8.846746
-25.234407 -8.403984
-24.618635 -7.601237
-25.115783 -7.506420
-23.103459 -6.938037
-23.279924 -8.077694
-24.283798 -7.885980
-22.918074 -7.168144
-23.601353 -7.916989
-22.060332 -7.733730
-21.900916 -7.701631
-22.700073 -6.646809
-23.532756 -7.243555
-22.188929 -6.444920
-22.308264 -7.738223
-21.925960 -7.404110
-21.605275 -7.590651
-22.302204 -6.433418
-21.872259 -7.989253
-21.453152 -7.422173
-21.646199 -7.893935
-21.980246 -6.722986
-21.612957 -7.958290
-21.150395 -7.146933
-21.500157 -7.111360
-20.722722 -7.878048
-21.648188 -6.838805
-22.155053 -7.509024
-21.522860 -7.368450
-21.783882 -6.701560
-20.577321 -5.897622
-21.701684 -6.760320
-21.188940 -6.071096
-20.408396 -7.298509
-20.777002 -6.844469
-20.462502 -5.844257
-20.118536 -6.127764
-20.582015 -6.236548
-19.199451 -6.754559
-19.954623 -6.523445
-19.313551 -6.860879
-19.137116 -7.284705
-19.750022 -7.291042
-19.148334 -7.373837
-19.812997 -7.023346
-20.514043 -7.272866
-19.877224 -7.288817
-19.492530 -8.074271
-19.714033 -7.097077
-19.273162 -8.048758
-20.383413 -7.556222
-20.511101 -8.413922
-20.651625 -8.225226
-20.843761 -7.907141
-20.946908 -7.904063
-22.059905 -6.882016
-21.335183 -7.774410
-22.360415 -7.399836
-21.464515 -7.193040
-21.889655 -6.016490
-22.552468 -6.370704
-22.443095 -5.277626
-21.893121 -5.293965
-22.572530 -4.896188
-22.551996 -5.251817
-21.178360 -5.365316
-20.895814 -4.116500
-20.616184 -4.762574
-20.070753 -4.026095
-21.388825 -3.803310
-20.321113 -4.495824
-20.227198 -3.731284
-18.871354 -4.010770
-19.944400 -3.939142
-18.862170 -3.322228
-17.993359 -4.505684
-19.268372 -4.580020
-17.867362 -4.807125
-18.228286 -4.909464
-18.070038 -5.497537
-17.164541 -6.412421
-17.805869 -5.754316
-17.995104 -5.835541
-17.618003 -6.825890
-19.085964 -7.896835
-18.819098 -7.253364
-18.403319 -7.668293
-20.218564 -8.052112
-20.168834 -7.631825
-20.523953 -7.439480
-21.210426 -8.008250
-22.039198 -7.551344
-22.049122 -7.080690
-21.851366 -6.419108
-22.056862 -7.413793
-22.354283 -6.519719
-22.620336 -5.329185
-23.319404 -5.692054
-25.022858 -5.210632
-23.853198 -4.798011
-24.320571 -4.395269
-23.445496 -3.235711
-24.120214 -1.471781
-23.615353 -2.020693
-22.752293 -1.416959
-23.020382 -1.902306
-22.366654 0.053914
-22.219683 -0.697995
-20.668972 0.328805
-21.235297 -0.547693
-20.074195 0.309934
-19.837397 0.594035
-18.997339 0.523425
-18.834861 -0.147960
-17.999206 -1.362767
-18.380811 -1.150673
-18.040507 -1.499462
-17.699642 -0.849359
-17.925111 -2.236360
-17.530401 -1.736447
-17.782308 -3.069526
-16.860907 -3.817152
-16.771150 -3.639611
-18.701767 -4.105959
-17.588726 -5.443749
-18.852407 -4.261979
-18.832541 -6.037010
-18.155726 -6.069876
-19.437712 -6.641044
-20.717021 -5.872626
-20.734006 -6.449973
-22.131709 -6.357986
-21.894475 -6.020786
-22.594018 -5.750759
-23.322536 -5.716477
-23.148804 -5.262323
-24.179679 -4.645892
-24.421145 -3.566867
-24.925668 -1.863559
-24.612732 -2.659157
-25.004885 -1.852638
-25.203038 -0.434277
-25.553973 0.789979
-24.397218 1.257209
-24.640524 1.898718
-24.286018 1.642331
-23.738213 3.827506
-22.954496 4.049350
-22.073611 4.811836
-22.535276 3.845081
-21.100601 5.097343
-21.666163 4.762007
-19.426700 4.458035
-18.749850 4.344269
-19.227549 3.811950
-18.584159 5.003892
-18.076480 3.974094
-16.925388 2.900174
-16.481033 3.059698
-15.800910 2.885107
-16.463809 1.893688
-16.057035 0.977158
-16.321310 1.526102
-16.371537 0.628812
-17.022713 -1.223955
-16.368764 -0.729329
-17.887782 -1.163002
-17.021886 -0.389194
-18.697722 -1.635545
-18.683071 -1.698380
-18.553719 -1.376443
-19.470591 -1.483712
-21.033634 -1.275891
-21.151090 -0.719755
-21.551353 -1.306407
-22.384985 0.433847
-22.963446 0.258026
-22.634007 1.403883
-23.099518 2.169069
-22.846793 2.387216
-23.234026 2.996175
-22.564951 4.007978
-23.121588 4.492383
-22.790225 5.288179
-22.274308 5.662151
-21.816666 6.289604
-22.033947 6.774404
-20.700522 7.916441
-20.708030 7.863016
-19.797658 8.318735
-18.380399 8.069423
-18.293689 9.016441
-16.664369 8.181485
-16.492854 8.251549
-14.966385 8.423551
-15.013064 8.180487
-14.557313 7.837975
-13.220195 7.452277
-13.221625 6.020613
-13.205554 6.044530
-12.623266 5.015750
-13.375978 4.294481
-12.908433 4.246153
-14.122885 3.632278
-12.769823 2.464036
-12.961233 1.630341
-14.182250 1.445310
-14.232894 1.198112
-14.553244 1.093603
-15.164962 1.667661
-16.724782 1.245062
-16.718390 0.166746
-16.840295 0.917849
-17.803753 1.548041
-18.877735 1.970584
-18.373873 1.301664
-19.131269 2.967003
-19.893256 3.787026
-19.912968 4.171073
-19.599136 4.719688
-19.956171 5.395725
-19.666932 6.761119
-19.288296 6.125613
-19.527798 7.439621
-18.418160 8.209004
-19.184259 8.945461
-16.764126 9.736199
-17.367467 10.608880
-17.295222 10.761902
-15.788783 10.748587
-14.595802 10.623502
-14.063176 11.234839
-13.856739 11.029715
-11.842356 10.930221
-11.752263 9.932827
-10.831988 9.942911
-10.345528 9.429891
-8.544656 8.065423
-9.744353 8.898499
-8.472694 7.627404
-8.204142 7.474437
-8.682986 6.338102
-8.480549 5.450631
-8.426360 4.276137
-8.475871 4.320148
-8.574523 3.503621
-8.842298 2.305549
-9.354978 1.998977
-10.313298 1.247683
-10.413537 0.787591
-10.416891 0.222862
-11.744880 1.174772
-12.095088 1.159570
-13.243881 0.491680
-12.891109 -0.107583
-13.977092 1.299068
-16.042886 1.722163
-15.477624 2.307996
-15.331806 1.512200
-16.383222 2.735888
-16.264286 2.983842
-17.076449 4.054952
-16.441809 3.999427
-15.638967 6.139764
-16.160212 5.594470
-15.478371 6.626364
-15.345281 7.839035
-14.889672 7.537220
-15.036726 8.420598
-13.438580 8.415021
-12.749703 9.225608
-12.210936 8.494071
-11.731669 8.969495
-11.221977 8.750250
-11.326808 8.431949
-10.197074 8.712937
-8.811523 7.090925
-9.083807 7.039315
-8.463525 6.883482
-8.754113 5.775753
-8.148423 5.990061
-6.769645 5.269345
-6.984269 4.238201
-7.048922 3.588915
-7.140777 3.551927
-7.497284 2.205337
-8.370915 1.423726
-8.197352 1.782439
-9.160141 1.303562
-9.126422 0.482087
-9.489956 0.698022
-10.434776 0.399953
-10.837018 -0.001304
-11.352755 -0.251273
-13.007789 0.199849
-13.080133 0.747918
-13.067387 0.650686
-14.045916 0.681035
-14.243923 2.035884
-14.683523 0.499615
-15.566358 2.176119
-14.587220 2.638335
-14.766572 3.366579
-15.181737 3.800956
-14.804590 3.467513
-16.395500 5.970032
-14.936106 6.210295
-14.623809 6.357039
-15.065716 6.780404
-14.929062 6.849185
-13.321266 7.123524
-13.840750 7.439037
-13.574524 8.135762
-12.174820 7.806304
-12.165754 8.660523
-11.813435 7.356089
-10.379858 8.226978
-9.693940 7.336709
-9.631266 6.979569
-9.202692 6.746134
-8.692007 5.837901
-9.825915 6.168811
-8.635372 5.879801
-8.801470 5.514655
-8.235364 5.329911
-9.034609 5.093344
-8.522634 4.452762
-7.810527 3.609139
-9.451763 3.049996
-9.104936 2.934704
-9.415136 1.898036
-10.129491 2.268533
-11.142640 2.214780
-10.905734 2.136504
-11.668295 1.585840
-11.177591 2.576110
-11.809771 2.640709
-12.759585 1.880107
-13.039097 2.280697
-13.187004 2.970470
-13.019364 3.309094
-13.467927 3.518000
-14.136822 3.874668
-14.531668 4.117005
-14.157146 3.895564
-13.635681 4.929481
-15.115484 5.856519
-14.704513 5.664037
-14.721403 5.583503
-13.651410 6.414183
-14.029059 6.476893
-13.677996 7.555825
-13.572155 7.394034
-13.595250 7.853150
-12.142669 8.384129
-12.903915 7.729523
-12.171111 9.255180
-11.138944 9.116613
-12.137192 7.947566
-11.210709 8.713602
-10.178952 9.318554
-10.709192 8.748338
-10.293020 7.632482
-11.005116 8.143819
-10.209135 8.315427
-10.140100 7.387827
-9.669212 7.167531
-10.272140 6.611177
-9.558164 8.383323
-10.040682 6.698861
-9.005039 7.482570
-8.554192 7.139906
-9.742293 6.924669
-8.994706 7.788647
-10.455204 7.152858
-10.019669 7.183725
-9.865630 6.773747
-9.955146 6.127222
-10.461404 7.169109
-10.608650 6.832009
-10.916341 7.169524
-10.775980 7.251368
-10.794106 7.965515
-10.792006 7.167870
-10.205954 7.026471
-10.332858 7.305750
-11.504844 6.876256
-11.505177 7.274191
-10.400435 7.938372
-9.899588 6.981444
-11.044065 7.361732
-11.020381 8.330805
-10.925571 7.978540
-10.015895 8.608293
-11.438437 8.793297
-10.351961 8.608435
-10.849693 8.236479
-10.722307 8.813508
-9.916201 9.301323
-10.339007 9.451258
-9.633002 9.327841
-10.021915 8.550722
-10.770218 8.865857
-9.768383 9.678871
-9.102184 10.317339
-9.976420 9.970446
-8.196153 10.521237
-8.527125 10.866896
-9.569199 10.231184
-8.665137 10.763994
-8.168418 11.025248
-8.403874 11.083001
-8.408865 11.808068
-7.330322 10.082269
-8.007519 10.918652
-7.746000 10.817869
-6.987853 10.460229
-6.018552 10.807857
-6.624832 10.136862
-6.983135 10.057913
-6.317256 9.985293
-5.688924 10.322702
-6.016559 10.374469
-5.634251 9.643702
-5.185063 9.516357
-5.402710 9.831426
-4.667764 9.734535
-4.614686 8.706114
-4.841249 9.031551
-4.879644 7.601883
-4.718276 8.586986
-5.381902 8.256828
-4.771803 8.688430
-5.428836 8.235578
-4.132182 7.324237
-5.123305 7.702507
-5.099823 8.327244
-5.114283 7.244921
-5.470844 7.683927
-5.842781 8.035638
-6.402559 6.962586
-6.420305 7.506015
-6.304038 8.528330
-5.914484 8.101377
-7.091804 8.079948
-7.156159 9.132191
-6.673005 8.094162
-5.598407 9.267503
-6.490050 9.973054
-5.822017 10.508877
-7.218235 10.727227
-6.043857 10.680301
-5.458923 10.576144
-5.786512 11.331558
-4.788492 11.060634
-3.772311 10.527817
-3.966906 10.743306
-3.180051 11.025288
-2.603899 11.547332
-2.677457 10.326669
-2.054475 11.290246
-1.457681 10.844406
-1.313575 10.896400
-0.812510 9.736897
-0.741988 9.841779
-1.158882 9.321237
0.508792 8.882707
-1.045225 7.653775
0.973792 7.579937
0.836939 7.595692
1.137938 6.505364
-0.653924 6.802650
0.049891 5.256825
-0.481766 5.123515
-0.265888 4.403740
-1.076652 4.866764
-1.004945 3.618658
-2.703986 3.672675
-2.412278 4.190948
-3.689401 3.299955
-2.723240 4.644578
-2.978481 3.617767
-4.301445 3.524289
-4.843658 4.622284
-4.380927 3.539371
-5.137629 4.574622
-6.303704 4.433158
-6.053852 5.649696
-4.986999 5.804088
-6.108169 5.951082
-6.206478 6.558190
-5.812300 7.060694
-6.277680 7.010681
-5.488425 7.168613
-4.746706 7.525911
-4.919392 8.268442
-4.481700 8.467544
-5.062834 8.655639
-3.650043 9.230287
-3.272797 9.628178
-2.218065 9.127657
-1.690110 8.523291
-1.330670 8.724982
-0.556120 8.395841
0.368470 8.443347
0.129718 7.990505
0.570929 7.338049
0.500719 6.429397
1.116582 7.100327
1.047322 5.557410
1.072199 5.079685
0.717978 4.864081
1.619260 4.312871
0.958521 3.009456
1.086895 1.676604
0.012165 2.235362
0.750162 1.885175
-0.620744 0.702853
-1.027462 2.258258
-0.659097 0.779055
-1.895014 1.610140
-2.323889 1.032572
-1.991362 0.776980
-2.868949 1.124637
-4.320269 0.963150
-4.784505 1.379806
-5.203221 0.829288
-5.124249 2.213278
-6.139761 1.708738
-6.600908 1.105604
-6.298380 2.107180
-7.002198 3.558483
-7.018721 3.475659
-6.636961 4.327009
-6.807327 5.339119
-5.901773 5.567998
-4.508158 6.066432
-5.638099 6.712843
-4.686026 6.431001
-4.699729 7.580316
-4.140293 6.824203
-4.006409 8.013325
-2.426440 7.032603
-1.968132 6.616524
-2.911053 7.466280
-2.084009 6.886916
-1.742878 6.132541
-0.849232 6.019831
-0.810138 5.318849
-0.386183 5.475417
-0.236774 4.624680
-0.270102 4.686095
-0.026308 3.162107
-0.161947 2.291412
-1.094590 2.949775
-1.282161 2.005788
-0.904847 1.278327
-1.616603 1.189368
-0.885834 0.851181
-0.818718 0.742683
-1.922004 0.700809
-2.376025 0.058605
-3.756575 -0.339963
-5.128971 0.404731
-4.370261 0.103403
-5.811629 0.017580
-5.171909 0.153040
-6.644534 0.992235
-5.920415 1.292522
-7.672166 1.964976
-8.499383 2.429859
-7.883995 2.601031
-8.423139 4.115122
-7.814219 4.018187
-7.721487 4.361669
-7.637646 5.818250
-8.629326 5.199255
-6.615241 6.372970
-7.451216 6.047032
-6.578881 7.220023
-6.815532 7.417322
-6.110308 6.280739
-5.648338 7.547391
-5.080771 6.927970
-4.419149 7.545543
-3.690753 7.598181
-3.906202 6.260256
-2.740735 6.581112
-2.830535 7.631348
-1.488644 6.452276
-1.616069 6.056089
-1.611654 4.558058
-1.948060 4.850978
-2.408037 4.750272
-2.453844 5.049840
-2.397120 4.364998
-1.321691 3.689728
-1.588552 2.894423
-2.611178 2.788857
-2.126772 3.538558
-3.019905 2.651698
-2.547497 2.920820
-2.752729 2.648656
-3.428092 2.302801
-4.401458 2.892966
-5.439184 2.141233
-4.912529 2.809882
-4.987302 2.652547
-5.623517 3.796844
-5.935640 3.913136
-6.307033 3.334548
-6.579990 4.001562
-7.371637 3.978629
-6.368745 4.988918
-6.043717 6.066827
-6.377065 4.690281
-6.526116 5.178419
-6.164362 6.162405
-6.873343 5.560181
-6.918010 6.632035
-5.930350 8.322133
-4.435581 7.036616
-4.235945 7.769543
-4.351656 7.780743
-4.378779 7.626048
-3.617076 7.923488
-2.728402 7.854459
-2.890202 7.723837
-2.322173 7.369396
-1.537806 7.452235
-2.319571 7.573272
-1.505042 7.077171
-1.054009 6.925995
-1.146409 6.034364
-1.819549 6.066887
-1.105008 6.337741
-1.228107 5.487809
-0.691133 4.806054
-0.905165 5.749818
-0.547030 5.107987
-0.998554 4.685552
-0.779582 5.279744
-1.702677 4.541665
-1.919319 4.261461
-2.229419 4.179082
-2.282056 4.236309
-2.930698 4.065840
-3.154870 4.477298
-2.595550 5.189544
-3.866834 4.093425
-2.644259 3.478301
-4.201875 4.619232
-2.764257 4.923910
-3.000641 5.826534
-4.220866 5.745764
-3.236950 5.911255
-3.876348 5.688723
-2.557701 7.138269
-2.816304 6.407794
-3.388464 6.136195
-2.353534 5.962470
-3.034720 6.913944
-2.697956 6.630663
-2.049634 6.835259
-2.109677 6.868646
-0.817935 7.461525
-1.554976 7.171515
-0.935814 7.147921
-1.330513 7.037459
-1.490986 6.742204
-0.506503 7.250443
-0.281546 7.152609
-1.057808 6.375640
-0.045861 5.395203
-1.007180 5.912714
0.420942 5.335352
-0.160506 4.739693
-0.093914 5.367150
-0.236413 5.171628
-0.555251 3.758967
0.191275 4.685752
-0.654374 4.668588
0.250041 4.127774
-0.911471 4.417950
-0.578758 3.963701
-1.110301 4.031089
-0.467116 3.836234
-0.846506 3.791562
-0.086460 3.304444
-1.041594 4.631913
-1.316955 5.334530
-0.503656 4.867748
-1.270752 4.490619
-0.162432 4.429901
-0.494426 4.978039
-0.491731 4.408046
-0.587930 4.837731
-1.048363 4.439365
-0.882250 5.378755
-0.175420 4.653517
-0.088274 4.729392
-0.068937 4.668640
-0.590949 5.323036
-0.156874 4.511086
0.097690 4.769109
0.174095 4.897053
-0.042446 4.100413
-0.342520 4.382811
0.065289 4.036392
0.669112 3.938964
0.073311 4.391840
-0.524714 4.640392
0.588324 3.458150
0.499856 3.802430
-0.141005 4.255774
-0.221380 3.425238
0.396966 4.002288
0.101634 2.492068
-0.472743 3.793177
0.163806 2.964979
0.278170 3.856818
-0.163837 2.979983
0.222276 2.796309
0.279468 3.367814
-0.207881 3.362116
-0.544826 4.448502
-0.852383 3.511071
0.609615 3.165652
-0.343939 2.946393
0.279215 3.122986
-0.345384 3.380656
-0.720629 3.070419
-0.571783 3.304759
0.995068 3.890501
-1.345739 2.918662
0.675569 3.747169
-0.012823 2.433179
-0.262979 2.154214
0.377645 2.858769
0.140833 3.057923
0.404231 2.373406
-0.197708 2.962281
0.460147 2.516187
0.155888 2.563982
0.734431 1.781607
-0.349713 2.306201
0.192553 2.171967
-0.283813 2.255870
-0.379973 2.460317
0.184913 2.205201
-0.561858 1.927957
-0.460510 1.760706
-0.336242 1.744451
-1.101407 1.241177
-0.679672 1.774709
-0.721542 1.377693
-1.148273 2.216723
-1.191975 1.852380
-1.076553 1.861729
-1.360198 1.705347
-1.183599 1.473472
-1.364371 2.233751
-0.629025 2.114926
-1.445009 2.024617
-1.528001 2.640097
-1.574244 1.213424
-1.909741 1.822480
-1.643723 2.427207
-1.352630 2.298502
-1.162603 2.104593
-0.257371 2.304359
-0.319144 2.878498
-0.448313 2.510052
-0.396980 2.399422
-0.953189 1.548185
0.123004 2.804487
-0.297142 1.957646
-1.198923 2.100198
-0.447695 1.979709
-0.153567 2.175388
0.072709 1.781858
-0.894149 2.637980
-0.589844 1.286261
0.009258 1.336876
-0.307661 1.313214
-1.268301 0.701137
-0.899336 1.456591
-0.103809 0.579460
-1.449354 1.143528
-1.312821 0.504596
-0.999252 0.386561
-1.658218 0.861472
-2.049550 0.951590
-2.203324 0.061747
-1.746884 0.848695
-2.481056 1.275208
-1.677992 1.549273
-2.895917 1.405458
-2.713081 1.234365
-2.822068 1.551642
-2.552465 1.171144
-2.675677 1.226476
-2.287269 2.401926
-2.072434 2.727278
-2.832028 2.581302
-2.852243 2.675336
-2.195889 1.732900
-2.500443 2.935023
-1.976661 2.568165
-2.304990 3.152094
-0.682653 3.076821
-1.559763 2.164714
-1.348362 2.841370
-1.512462 3.060076
-0.720041 3.441847
-1.000888 3.056522
-0.905299 2.205481
-0.679818 2.222881
0.538526 2.847557
-0.702845 2.512122
-1.197821 2.816197
-1.160760 1.794829
-1.312339 1.832019
-0.538420 1.729180
-0.834609 1.404206
-0.603161 0.892412
-1.448958 1.371299
-1.205776 0.361232
-0.796474 1.694934
-1.542690 1.352920
-2.430439 1.661899
-2.647630 1.192234
-1.993246 1.081774
-1.964584 1.104322
-2.123606 1.138299
-2.216664 1.219586
-2.998478 1.783439
-3.372832 1.657771
-3.365111 1.792828
-2.872568 1.890293
-3.149446 2.730458
-1.968938 2.918766
-3.547862 2.450082
-2.829326 2.330727
-1.838574 2.858247
-2.305556 3.446289
-2.826329 3.339602
-1.922385 4.259573
-2.226706 4.249433
-1.845192 3.958424
-0.913038 4.332944
-0.700835 3.463284
-0.827513 4.033319
-0.915061 3.506947
0.374204 3.488165
-0.032546 3.452597
-0.603586 3.515774
0.639968 2.741662
0.484001 2.460611
-0.312439 2.946766
0.307250 2.853104
0.668284 1.847600
1.110471 0.995403
0.835570 1.641260
0.167377 1.255749
0.387055 0.867760
0.257296 1.212796
-0.947158 0.981026
-0.640963 0.951930
-0.612148 1.030670
-1.306242 0.896865
-1.405186 0.625433
-1.211391 1.158090
-2.117863 0.862349
-1.870740 0.754198
-1.920783 1.303045
-2.331175 1.038698
-2.156792 1.471227
-2.519233 0.907096
-2.678203 1.935426
-2.456310 2.022913
-2.225770 2.472174
-2.614612 2.175600
-2.916268 3.053663
-3.131803 2.570784
-1.511632 2.931654
-1.366818 3.279778
-1.270603 3.333584
-1.370030 3.729601
-1.342734 2.993116
-1.579867 3.658566
-0.434249 4.011815
-0.317319 3.607268
-0.181465 3.271454
-0.047890 3.268306
0.287963 3.174623
0.571396 3.117345
0.783424 3.076526
0.845607 2.427050
1.211803 2.284218
1.136536 2.109472
1.316916 1.379829
0.569182 1.712947
1.271231 1.257103
1.112972 1.002763
0.450266 0.817847
0.699631 -0.216091
-0.119178 -0.503536
-0.042422 0.257380
-0.435283 0.000994
-0.058216 0.059985
-0.588220 -0.080029
-1.021187 -0.270517
-0.843216 0.530143
-1.386191 -0.697390
-1.555133 0.064927
-1.652126 0.608162
-1.863080 0.386102
-1.982961 1.531083
-2.338875 0.793856
-2.001850 0.946677
-2.623946 1.334312
-2.225678 2.035844
-1.737178 1.452654
-2.100422 2.195998
-2.061684 2.445005
-1.784805 1.979153
-1.243215 2.819887
-1.568824 2.624917
-0.748210 2.507400
-0.309679 3.117068
0.345877 2.440267
0.702093 2.680914
0.169773 2.336537
0.450680 2.072171
0.466386 1.674061
1.097379 2.134153
1.263638 1.741742
1.601340 1.777890
1.197084 0.789706
2.257945 1.030203
1.122666 -0.255492
1.319307 0.442515
0.954655 -0.601932
1.394637 -0.381922
1.219884 -0.496797
0.432697 -0.647353
1.060127 -1.221024
-0.035084 -1.188470
-0.309538 -1.699081
-0.695149 -1.958610
-0.991980 -1.176075
-0.780293 -1.245099
-1.572626 -1.501013
-1.634004 -2.023471
-2.324011 -1.507252
-1.981812 -1.375293
-2.564556 -0.672197
-3.089667 -1.024611
-2.829140 -0.806169
-2.682778 -0.474256
-3.107106 -0.124696
-2.243917 0.180242
-2.959430 0.041295
-3.390168 0.698095
-3.229763 1.023836
-2.938843 1.061644
-2.629459 1.402216
-1.850999 1.460354
-2.411586 1.363741
-1.854239 1.417089
-1.671399 1.851696
-2.239975 2.389021
-1.139429 1.928975
-0.554524 2.039521
-1.193294 1.404410
-0.134388 1.617196
-0.688379 1.864669
-0.272693 1.257099
0.160076 1.115706
0.239013 0.423979
-0.067621 -0.110027
-0.041013 0.033129
-0.207295 -0.255591
-0.115963 -0.459338
0.053904 -0.138397
-0.145774 -1.158230
-0.145022 -1.682853
-0.595850 -1.872453
-1.063501 -1.436617
-1.488665 -1.585331
-1.201607 -1.997446
-1.755622 -1.700891
-2.816800 -1.160470
-2.597040 -1.695890
-2.730768 -1.672322
-2.565964 -1.400133
-3.108396 -1.334925
-2.455745 -1.060963
-3.425119 -1.433617
-3.421950 -0.720910
-4.008823 -0.679945
-3.883137 -0.247733
-3.910260 0.373643
-4.173189 0.057466
-3.993070 0.311596
-3.418405 0.427556
-3.624254 0.254362
-3.111745 1.055328
-3.383083 1.706118
-3.259914 1.205116
-2.849370 1.311294
-3.025505 1.324148
-2.667519 1.142478
-2.255093 1.501905
-1.943168 1.926371
-1.796587 1.486298
-1.611923 0.938051
-1.069300 1.631310
-1.029330 0.914118
-0.872646 0.785267
-1.127046 0.540737
-1.224837 1.066057
-0.729079 -0.191219
-0.852582 -0.526279
-0.936233 -0.146275
-1.397105 0.107672
-1.172771 -0.314235
-1.431636 -0.621024
-2.120806 -0.981281
-2.480039 -1.044520
-1.856556 -0.747336
-1.979339 -1.218815
-2.246140 -0.864262
-2.912272 -1.281407
-3.317345 -1.612475
-2.812107 -0.791587
-2.756800 -1.425847
-3.148353 -0.922410
-3.659354 0.104534
-3.587015 -0.128335
-4.335526 -0.331561
-4.104796 -0.210751
-3.882921 0.023777
-3.909304 0.487862
-4.081703 0.410643
-4.009222 0.751776
-3.542186 1.168052
-3.279044 0.620811
-3.491366 1.035846
-3.112778 1.456364
-2.941136 1.338061
-3.162087 2.299465
-2.945478 1.433673
-2.245304 1.725302
-2.745534 1.937494
-2.356214 1.673776
-2.150642 1.605067
-2.170635 2.196271
-2.140139 1.651359
-1.491650 1.668975
-1.962950 1.941039
-0.908586 1.837304
-2.080866 1.698220
-1.414342 1.033803
-1.862124 0.916743
-1.790072 1.057732
-1.436494 1.001498
-1.233049 0.253403
-1.015431 0.332263
-1.107625 0.181301
-1.743645 0.368909
-1.664714 -0.275444
-1.757112 0.607748
-2.000063 0.011882
-1.796583 -0.736221
-1.834589 -0.080093
-2.573282 -0.455108
-1.846530 -0.191835
-2.812090 -0.364005
-2.495072 -0.208217
-3.208867 -0.436565
-3.175000 0.162070
-3.048879 -0.257135
-2.905354 0.049405
-2.689963 0.688082
-2.642284 -0.146320
-2.788174 0.651215
-2.768166 -0.207651
-2.900361 0.834694
-3.293320 0.533962
-2.610690 0.054938
-3.130306 0.509512
-2.717796 0.846318
-2.456671 0.539952
-2.535753 0.523218
-3.077185 0.757809
-2.378109 0.571583
-2.297494 0.810381
-1.955368 1.052491
-2.672604 0.317044
-2.123159 0.801049
-2.158356 1.165388
-2.079708 0.729762
-2.445192 0.340902
-2.539597 0.896328
-1.719618 0.867060
-2.146608 0.635252
-2.374785 1.054520
-1.711910 0.937578
-1.558098 0.574822
-1.979078 0.886843
-1.848024 0.709578
-2.247900 0.409582
-1.381399 0.509196
-2.612636 0.235462
-1.851172 0.457381
-1.610493 0.219344
-1.517776 -0.151334
-1.368158 0.153077
-1.887560 0.033953
-1.697629 -0.218603
-1.565652 -0.669763
-2.184143 -0.337391
-1.648271 -0.241082
-1.662328 -0.620067
-2.089788 -0.772685
-2.366105 -0.885191
-2.544538 -0.739918
-1.936660 -0.259264
-2.287275 -0.272637
-2.736902 -0.998366
-2.333227 -1.063365
-2.179012 -0.799296
-2.100328 -0.916446
-3.012886 -0.880283
-2.987687 -1.143078
-2.541640 -1.097297
-2.611640 -0.379031
-3.618627 -0.815531
-3.088182 -0.491325
-3.003506 -0.180485
-3.249115 -0.403491
-3.192764 -0.218456
-2.997676 -0.320884
-3.486893 -0.298139
-2.891369 0.426767
-2.774139 0.247959
-3.409269 0.012166
-3.216652 0.402271
-2.672977 0.705683
-2.971254 0.652746
-3.046975 0.230596
-2.708498 0.169778
-2.359623 0.074670
-2.252790 0.510019
-2.855723 -0.271121
-2.514889 -0.370007
-2.009758 -0.215935
-1.836179 -0.327934
-2.898669 -0.443743
-2.329734 -0.938109
-1.564524 -0.091764
-1.929028 -0.980582
-2.307597 -0.977533
-2.002191 -1.053732
-1.788338 -1.326258
-2.221084 -1.842384
-1.956115 -1.844511
-2.975373 -1.882496
-2.447182 -2.031278
-2.631749 -2.001081
-3.209504 -2.045214
-3.097099 -2.583142
-3.534979 -2.336407
-3.478890 -1.763845
-3.928485 -2.536294
-4.369870 -2.517196
-4.340499 -2.053034
-4.698503 -2.805461
-5.359614 -1.767649
-4.726573 -2.136449
-4.911470 -1.854439
-4.724590 -2.026549
-5.583589 -0.954344
-5.286207 -1.423819
-5.320810 -0.752954
-5.678897 -1.215135
-5.579536 -0.710046
-5.229554 -0.432949
-5.673108 -0.291730
-5.641957 0.132205
-5.298330 0.541742
-5.304860 -0.015555
-4.651306 0.913955
-4.570531 0.266075
-4.508651 0.393184
-4.388399 0.693680
-4.179725 0.086631
-4.018138 0.579005
-3.353050 0.354024
-3.265281 0.185303
-3.739066 0.157915
-3.544919 -0.118742
-3.388068 -0.321999
-3.144824 -0.497024
-2.911968 -0.576013
-3.436442 -0.554120
-3.233079 -1.253536
-3.211714 -1.344352
-3.540295 -1.445354
-3.544158 -1.605474
-3.904615 -2.282166
-3.970132 -2.243540
-4.807417 -2.088341
-4.833061 -2.211325
-5.041613 -2.241614
-5.718610 -2.090667
-6.149896 -2.342258
-5.771131 -2.533105
-6.258899 -2.081517
-6.411991 -2.276254
-6.383950 -1.791391
-7.513562 -2.497093
-7.025100 -1.180141
-7.083945 -1.305549
-7.966655 -0.808558
-7.472424 -0.874528
-7.402106 -0.423140
-7.208116 0.240249
-7.920596 0.317138
-7.885494 0.310985
-7.246775 0.887681
-6.876847 1.535172
-7.243801 1.530735
-6.597642 1.707107
-6.664448 2.150594
-6.583524 1.959141
-6.316712 1.745184
-6.065766 2.024094
-5.680575 1.875293
-5.294776 2.735135
-5.346072 2.037949
-5.523279 1.378955
-4.405118 1.892702
-4.371918 0.807458
-4.343437 1.387032
-5.090231 1.102189
-4.860964 0.782797
-4.011122 0.661953
-4.764374 0.366609
-3.591538 0.486853
-4.323872 -0.344494
-4.725151 -0.464612
-4.927171 -0.423862
-4.792458 -0.982324
-5.715391 -0.673689
-5.301981 -0.827868
-5.939438 -1.030920
-5.875311 -1.251582
-6.675688 -0.748593
-6.908838 -0.796419
-7.016002 -1.229250
-7.343973 -0.888828
-7.181281 -0.235897
-7.827537 -0.707852
-8.195108 -0.377363
-8.044893 -0.176409
-8.021031 1.054245
-8.351907 1.024702
-8.255422 1.472611
-8.411338 1.589097
-8.404513 1.981594
-8.303388 2.902433
-8.093784 2.456602
-8.716280 2.593027
-7.478361 3.357038
-6.973887 3.899290
-6.982068 2.820243
-6.821964 4.102814
-6.517041 3.611154
-6.154624 3.621033
-5.963519 4.283550
-5.389433 3.483417
-5.494120 3.626957
-5.025153 3.321704
-5.372520 3.312142
-5.108243 3.009298
-4.540508 2.410510
-4.556389 2.736896
-4.261085 2.796853
-4.428189 2.120952
-4.153242 2.252663
-4.712963 1.445816
-4.669792 1.196970
-4.608611 0.922629
-4.798539 1.013322
-5.203022 0.708495
-5.166596 0.923214
-5.796816 0.826093
-5.510927 0.426888
-6.191154 0.285639
-5.768281 0.494418
-6.887316 0.806271
-7.265273 0.406844
-6.969282 0.653972
-6.907245 1.189160
-7.562226 1.436726
-7.543354 1.541207
-7.996483 2.175976
-8.616878 1.841098
-7.846650 2.332817
-8.288046 2.548075
-8.175217 2.949465
-8.031678 3.122142
-7.940106 3.412200
-7.820979 3.734868
-7.321051 4.293285
-7.225031 4.141927
-6.892625 4.345611
-6.994860 4.692560
-6.527498 4.364255
-6.442455 4.699993
-5.662437 4.525580
-5.697219 5.413254
-5.264050 5.370272
-5.217746 4.515083
-5.125727 4.861498
-4.458920 4.788781
-4.556186 3.994772
-4.712659 4.643179
-4.545095 3.609061
-3.906009 3.316851
-4.157325 3.733156
-3.970943 3.292963
-4.414914 3.487810
-3.792107 2.620121
-4.352715 2.337975
-3.939634 2.248793
-4.437683 2.328682
-4.212633 1.529415
-4.384774 2.146130
-4.790373 1.723020
-5.168151 1.953895
-5.428406 1.730598
-5.533159 1.839259
-5.613156 1.813006
-5.772383 1.956658
-6.153450 2.043407
-5.707327 1.745831
-6.750201 2.182512
-6.200232 2.289172
-6.290815 1.959938
-6.730246 2.298195
-6.507698 2.903875
-6.437708 2.893052
-6.741164 2.996314
-6.378171 3.287175
-6.187526 3.359750
-6.238012 3.766438
-6.615590 3.940544
-6.178888 3.611256
-5.700933 3.983854
-6.180475 4.510546
-5.646182 4.251859
-5.899311 3.791578
-5.535018 3.985109
-5.352115 3.635955
-5.006181 3.969462
-4.608267 4.417770
-5.377612 3.425366
-4.585471 3.861729
-4.201654 3.348652
-4.492821 3.628493
-4.608380 4.026664
-4.485024 3.225698
-4.315159 2.892161
-4.831623 2.730279
-4.509826 2.959050
-4.641355 2.826239
-5.174132 2.424628
-4.543529 2.601020
-4.955500 2.453246
-5.429978 1.990522
-5.164605 2.051407
-5.367963 1.669186
-5.500438 2.216342
-6.058734 2.038770
-5.541359 2.346772
-5.221317 1.862184
-5.693849 2.091063
-5.517701 2.214067
-6.055728 2.003225
-6.684113 2.500716
-6.029356 2.825544
-6.457220 2.606789
-6.000797 2.947345
-6.509833 2.807475
-6.102519 3.405237
-6.469115 3.153205
-6.329909 3.215793
-6.413184 3.825177
-6.387952 3.504515
-7.377764 3.461705
-6.212391 3.807242
-6.485945 4.151235
-6.504971 4.068610
-5.881845 3.463612
-6.138263 3.921343
-6.170987 3.992777
-6.027306 4.355840
-5.960699 3.435781
-5.851879 4.077643
-5.560214 4.240055
-5.453180 4.260954
-5.578936 4.130345
-5.810458 4.015778
-5.662477 3.991875
-5.442372 3.767503
-5.422314 3.948014
-5.411819 4.185125
-5.059172 3.394025
-5.670967 3.761453
-5.027837 3.826919
-5.043671 3.674587
-4.989886 3.498993
-5.443670 3.576708
-5.448552 3.271311
-5.714009 3.514714
-5.866797 2.835489
-5.293775 3.364500
-5.978986 3.392400
-6.101577 3.076806
-5.762942 3.296794
-6.322148 3.086925
-5.830969 3.076345
-5.814131 3.498419
-6.288471 3.040282
-6.133339 3.038353
-6.264757 3.590808
-6.439591 3.209706
-6.963404 3.831714
-6.762698 3.466288
-6.964353 2.930099
-6.999652 3.705177
-7.013438 3.476157
-7.125583 3.469461
-7.265361 3.923670
-7.230001 3.690226
-7.825307 3.838255
-6.822747 4.504251
-7.173287 4.009664
-7.854269 4.810750
-7.386229 4.666816
-7.177322 4.929778
-6.616106 4.942699
-7.294679 4.879719
-7.213371 5.004943
-6.878165 5.504156
-7.093809 5.180490
-7.029788 6.114483
-6.874973 5.605893
-6.708881 5.137820
-6.267915 5.766420
-6.451538 6.003113
-6.537369 6.137905
-5.904615 5.642592
-5.715229 5.565081
-5.714807 6.017476
-6.179592 5.465184
-5.640126 4.894041
-5.803979 5.398793
-6.072009 5.520656
-5.651725 5.437029
-5.621078 4.968327
-5.514848 4.934017
-4.839437 4.986367
-5.495769 5.216217
-6.191107 4.760568
-5.885830 4.428176
-5.805232 4.892621
-6.252636 4.411753
-6.662007 4.580479
-6.414958 4.378990
-6.122619 4.704660
-6.547364 4.555192
-7.129575 4.864944
-7.142047 4.381349
-7.136664 5.065347
-6.688222 5.435261
-7.665745 5.261939
-7.697878 5.463541
-7.220358 5.598974
-7.754787 6.035380
-7.933342 5.467288
-7.545236 6.311702
-7.961005 6.672034
-7.210437 6.608525
-7.419193 6.957867
-7.086982 6.786635
-7.090419 7.057858
-7.356981 7.444586
-7.055888 7.367926
-6.573825 7.801494
-6.681055 7.883854
-6.499743 7.810412
-6.186142 7.812073
-5.829331 7.863275
-6.156283 8.224813
-5.610925 8.067719
-5.334258 7.564036
-4.892869 7.361918
-4.404192 7.473531
-4.831303 7.806796
-5.020640 7.125918
-4.103113 6.968791
-4.840577 6.802270
-4.798401 6.643887
-5.138809 6.368455
-4.231788 6.507420
-4.576627 5.898967
-4.916271 6.562959
-4.441937 6.569796
-4.889581 5.622834
-5.355997 5.565023
-5.459589 6.093559
-5.422509 5.721046
-5.656852 6.355492
-6.040832 6.026937
-6.174809 6.274004
-6.495982 6.139582
-6.036745 6.087542
-7.087776 6.008612
-6.225745 6.721924
-6.833180 6.949025
-6.640844 6.612628
-7.402327 7.446231
-6.769019 7.730099
-6.187056 7.952694
-6.995156 8.130869
-6.647328 8.069711
-6.004118 8.405795
-6.565063 8.822523
-6.100125 8.600805
-5.561504 8.785900
-5.763846 8.887783
-4.749193 9.219212
-4.875446 9.462749
-4.791241 9.320730
-4.586202 9.352912
-4.532504 8.807626
-3.799499 8.489802
-3.449867 8.921378
-3.410895 9.194342
-3.551821 8.964322
-3.521006 7.942454
-3.330056 7.713561
-3.428631 8.227167
-3.688369 7.192957
-3.106804 7.127611
-3.026377 7.108831
-3.694753 7.212105
-3.224532 6.929184
-3.606409 6.852645
-3.438177 6.740733
-3.476859 6.524364
-4.033336 6.218553
-3.898895 6.083400
-4.288900 6.567299
-3.777856 5.861920
-4.473118 6.415116
-4.638787 6.446980
-5.018660 6.819802
-5.180940 6.269447
-5.383855 6.623390
-5.412146 7.290373
-5.418593 7.274382
-5.403193 6.827548
-5.892009 7.899104
-5.713680 7.967587
-5.588633 7.688725
-5.188177 8.094217
-5.424617 8.203116
-5.054999 8.667775
-5.052339 8.476437
-4.457664 8.675488
-4.640734 8.951835
-4.718001 9.071746
-4.474488 9.480576
-4.231728 8.948481
-3.876615 9.143196
-3.647111 8.999459
-3.753871 9.165604
-2.936792 8.347622
-3.562639 8.730019
-2.844306 8.176996
-2.294227 8.539860
-2.428438 8.174469
-3.201220 7.407483
-2.388264 7.609283
-2.604158 7.977843
-2.246782 7.598964
-2.723177 7.168043
-2.709738 6.864908
-2.476507 6.956433
-2.612656 7.020071
-3.220808 6.722724
-3.569556 7.086214
-3.096063 6.706268
-3.800406 6.644797
-3.413339 6.884089
-4.064733 6.809296
-4.394746 7.109948
-3.688024 6.678690
-4.509625 7.211732
-4.027021 7.381182
-4.602945 7.242430
-4.448801 7.541835
-5.384404 7.494788
-4.795256 7.707739
-4.837349 7.748360
-4.260375 7.989549
-4.201168 8.525290
-4.328230 8.645220
-4.613735 8.587263
-4.239284 8.521314
-3.841253 8.586445
-3.776186 8.851131
-3.767490 9.011282
-3.490303 8.562371
-2.867671 9.254615
-3.052505 8.635437
-3.056982 8.723939
-2.273008 8.811621
-2.420210 9.086078
-2.481705 8.605620
-3.010081 8.256224
-2.381981 8.288128
-2.145977 8.068394
-2.654442 8.164828
-2.561593 8.539599
-2.832368 7.682796
-2.540882 7.499658
-2.539818 7.221063
-2.810473 7.441617
-3.391998 7.414466
-3.355314 7.215320
-3.329973 6.915903
-3.278706 7.377523
-3.743338 7.274065
-3.487175 7.553039
-3.682536 7.587320
-3.648658 7.670429
-3.670452 8.327328
-4.042689 8.145169
-4.282259 7.731464
-4.146592 8.024187
-3.800140 7.856680
-3.475154 8.783960
-4.162119 9.039671
-4.529154 8.492561
-3.617877 8.982538
-3.808595 9.408091
-3.618837 9.471613
-4.016779 9.522336
-4.234440 9.115364
-2.861623 9.390230
-3.245971 9.451604
-3.584405 9.274023
-2.726060 9.761651
-2.978912 9.606543
-2.443559 9.541955
-2.626499 9.343147
-2.230014 8.639807
-1.928758 8.967522
-2.252360 9.413702
-2.347966 8.902055
-1.955092 8.851527
-2.194270 8.721166
-1.792275 8.532637
-1.778215 8.465100
-1.755411 7.865530
-2.224819 8.596915
-2.331015 8.053098
-2.300506 8.062171
-2.420417 8.210460
-2.472779 7.890921
-2.580945 7.733577
-2.790435 8.027973
-2.673673 7.727990
-3.107511 8.411890
-3.159112 7.964398
-3.388667 7.887419
-3.495012 8.297090
-3.648986 8.746268
-3.750074 8.497999
-3.523294 9.146654
-3.470803 9.125966
-3.269920 9.150009
-3.824136 9.898918
-3.729626 9.510258
-2.822545 9.349989
-2.968158 9.971814
-2.765112 9.509139
-3.116591 9.894203
-2.696646 10.143099
-2.789609 10.197720
-1.822721 10.242911
-1.929362 9.936249
-1.927403 10.194934
-1.499621 10.059916
-2.077735 9.922652
-1.936611 9.903613
-1.661131 9.882642
-1.686104 10.023291
-1.305079 10.005815
-1.774726 9.165543
-1.220635 9.362321
-1.151123 9.077532
-1.649801 9.722209
-1.454414 8.853842
-1.262016 8.823405
-1.351595 9.387761
-1.254340 8.871593
-2.002287 8.959679
-1.647418 9.061944
-1.875139 8.603702
-1.874251 8.865574
-1.203533 9.182164
-2.247695 8.864588
-2.495664 9.146107
-2.420376 8.891536
-1.863934 9.521476
-2.133568 9.286170
-2.036808 9.666054
-2.081391 9.831344
-2.036711 9.742105
-2.139711 10.058957
-2.281367 9.868710
-1.895270 10.600700
-1.962023 10.440373
-2.157858 10.164793
-1.658364 10.145658
-1.279021 11.006881
-1.027461 11.076867
-1.015392 10.527785
-1.158525 10.635721
-1.110086 10.478395
-0.462372 10.372095
-0.493166 10.213696
-0.611351 10.275484
-0.051405 10.663894
-0.202753 10.298823
-0.056195 10.023768
-0.319129 10.032607
-0.066161 10.322734
1.054099 9.859585
0.180273 9.896616
0.946157 9.817153
1.351873 9.511240
1.051876 9.910919
0.051722 9.082629
0.079691 8.777507
0.000760 8.844010
0.534751 9.473174
-0.111879 8.271624
0.440592 8.711932
0.235088 8.637082
0.032358 9.069024
-0.442730 8.311923
-0.172494 8.837783
-0.632580 8.597780
-0.289590 8.473692
-0.750995 8.020945
-0.535179 8.686887
-0.954859 8.854417
-0.928600 8.392934
-0.585186 9.131923
-0.208618 9.049161
-0.972780 9.382531
-0.911812 9.068580
-0.767831 9.363737
-0.971486 9.022367
-1.423721 9.363799
-0.572171 9.628793
-0.425819 9.739337
-0.649814 10.217387
-0.746071 9.687463
-0.372458 9.429303
-0.187657 9.130257
-0.149815 9.777633
-0.244890 9.814048
-0.480047 9.780536
0.019476 9.242130
-0.282915 9.723861
0.609700 9.522348
0.137338 9.823337
-0.098841 10.339471
-0.865171 9.920006
0.015672 9.521587
0.789643 9.060661
0.920994 9.457695
-0.097977 9.375494
0.643624 8.937094
0.524157 9.576026
0.826236 9.554192
0.800151 8.884106
0.586759 9.880869
0.339947 9.472758
0.462132 8.548138
0.825632 8.911767
0.734718 8.824748
0.713840 9.521221
0.385057 9.782425
0.552679 9.130325
0.729874 9.511870
0.269682 8.772495
0.956303 8.671623
0.929731 8.992674
0.960000 8.506384
0.161125 9.326723
0.933813 8.988850
0.578372 8.566376
0.855575 9.287119
0.265326 9.018244
0.219294 8.485013
0.189830 8.450590
0.575603 8.675441
-0.363882 9.127622
0.408591 8.814601
0.507241 9.044581
-0.322295 8.767584
0.055497 9.242906
-0.019535 8.694863
0.294151 8.903455
0.314805 9.293153
-0.198331 10.083735
0.122560 9.023484
0.445346 9.201241
-0.389159 9.894666
0.112614 8.895170
0.445712 9.414724
0.366558 9.647892
0.729493 9.663251
0.860289 9.955323
0.986615 9.943137
0.793474 9.720463
0.607078 10.200098
0.956453 9.472868
2.030404 10.248901
1.550557 9.511936
1.836497 10.281354
0.939534 9.764593
1.593305 9.443239
1.420115 8.873324
1.501493 9.987511
0.911786 9.399274
1.730965 8.958901
1.744541 8.952824
1.804409 8.808070
1.695769 9.110297
1.913977 8.128709
1.283654 7.750851
1.612896 8.462517
1.672560 8.614619
1.161747 7.690110
0.790928 8.535482
1.230999 7.691303
0.506159 7.865559
0.960745 8.627748
0.684597 8.088418
-0.111863 8.287516
0.019219 7.843118
-0.105538 8.287821
-0.197554 8.197763
-0.302223 8.890262
-0.613164 9.191619
-0.571389 9.265474
-0.154212 9.266609
-0.496114 9.672059
-0.496675 10.098894
-0.752677 10.265240
-0.808609 10.123043
-0.102325 10.410732
-0.092707 11.088807
-0.617425 11.872955
0.369711 11.499074
-0.126256 11.428166
0.394323 11.225339
1.085387 12.076558
1.123992 11.901593
1.237017 11.886005
1.528802 11.940754
2.088209 11.538962
2.533604 11.617969
2.162791 11.428039
3.302643 11.438598
3.083061 11.009917
3.356894 11.144512
3.636796 10.723501
3.806518 10.243152
4.284658 9.837976
3.645777 10.209011
3.517500 9.900394
3.309897 9.272756
3.343686 8.928431
3.142596 8.682442
3.355928 7.795861
3.121461 7.860944
3.091449 8.274728
2.403858 8.070288
1.265974 7.836141
1.778996 8.167765
1.412952 7.659582
1.201521 7.983153
1.047178 7.866974
0.640845 8.693579
-0.021134 8.485719
-0.476041 8.642937
-0.658538 9.129981
-0.091601 9.586800
-0.915328 9.854020
-0.214247 10.666009
-0.253471 10.990210
-0.131936 10.962882
-0.002053 11.379602
-0.284240 12.342218
0.865136 12.051936
1.137960 12.908433
1.156757 12.562621
1.380490 12.952647
2.150889 12.708577
2.498904 13.124630
2.943586 13.581620
3.245035 13.148122
3.494895 13.167888
4.200536 12.451064
4.286394 13.274043
4.964851 12.778820
4.937064 12.261330
5.571637 11.726075
5.971960 11.212869
5.282796 11.111515
6.012779 10.771371
5.663495 10.291397
6.175620 9.676510
5.902961 9.865216
5.827424 8.997024
5.648398 8.497337
5.647191 7.937683
5.003767 7.754322
4.948316 7.359248
4.458363 7.459906
4.245034 7.242048
3.948026 7.036356
3.155902 7.510268
3.551711 7.232369
2.914841 7.682512
2.811956 7.830959
1.885120 8.115527
1.486111 9.019738
1.622276 8.631762
0.995300 8.909763
1.199853 9.118687
0.868172 9.476491
1.631138 10.040608
1.063838 10.861052
1.272892 10.969843
2.212827 11.053388
1.581924 11.619746
1.994990 11.954923
2.766984 12.629468
2.812938 12.401141
3.345218 13.141862
3.787188 12.840720
3.843423 12.405871
5.332391 12.671608
5.106996 12.399123
6.243927 12.411507
6.367000 12.293531
6.892798 11.540429
7.281616 10.971686
7.163466 11.659196
7.364700 11.030552
8.686744 10.243135
7.500781 10.305527
7.590356 9.587156
7.880921 8.829721
8.483018 8.255966
7.307494 7.971878
7.620033 7.757250
6.945465 7.151514
7.131533 7.256586
6.953366 6.354441
6.451440 5.660819
5.955583 6.218984
5.308561 6.113538
4.797694 5.804749
3.854985 6.076857
4.530544 5.825790
3.854365 6.448884
3.181742 6.299524
2.432217 6.110398
2.036799 6.895501
2.199279 6.999831
1.437374 7.842539
2.243335 8.906555
1.890171 8.554595
2.095122 9.337791
1.535984 9.527462
2.429344 9.771929
2.302972 10.391729
3.073115 10.161899
2.618612 11.234335
3.185628 11.321263
3.965203 11.013729
4.460727 11.639582
4.809536 11.312576
5.844528 11.986927
6.665931 11.675507
6.257949 11.289159
6.562494 11.278517
7.740329 11.340132
7.574793 10.723839
7.866026 10.419551
8.087110 9.674323
8.395789 9.455698
8.166089 8.678681
8.205593 8.680587
8.227513 8.011669
8.461903 8.390674
8.338540 7.737993
8.533456 7.015236
7.988561 6.724979
7.458406 5.889182
6.730434 5.926862
7.014417 5.559263
6.247964 5.269485
5.745106 5.368067
5.638488 5.265902
4.980893 5.688313
4.552555 4.914328
4.540322 5.682031
3.877127 5.564169
3.998212 5.458305
3.264272 6.048584
3.347904 6.373291
3.001063 7.140042
3.270297 7.235227
2.693734 7.650963
2.799934 7.256588
3.067383 7.932978
3.195646 8.109480
3.155298 8.618303
3.750956 8.852053
3.390740 9.691258
2.879664 9.380408
4.257740 9.588250
4.251086 10.027729
4.527758 9.615437
5.292591 10.222085
5.754952 9.762431
5.387484 10.580475
6.041395 10.908311
5.886001 10.363323
6.282329 10.070163
5.940355 9.852195
6.502320 9.664915
7.391113 9.265595
6.468171 8.952243
6.997715 8.254242
7.236128 8.584544
7.466232 8.395910
7.278909 8.187820
7.332814 7.707726
7.204782 7.089316
7.113073 7.053751
7.295323 6.495529
6.819082 6.633657
6.721006 6.392910
6.627547 5.976346
6.769544 5.940943
6.257070 5.919665
5.752139 6.381863
5.533958 5.882411
4.997493 5.982891
4.829150 6.081261
4.568172 6.061025
3.935923 6.407528
3.945543 6.855538
4.106402 6.256342
3.414839 6.902459
3.277171 7.294723
3.327662 7.538289
3.355502 7.482059
3.092299 7.761662
3.294455 8.391126
4.137972 8.282154
4.271610 7.928451
4.007299 8.666619
3.920169 9.248519
4.357652 8.128339
4.528173 9.242458
5.050948 9.688928
4.513498 9.837563
5.370884 9.549818
4.994237 9.396380
5.087302 9.930400
5.185590 9.422237
5.671089 10.093465
5.555474 9.601272
6.170333 9.543755
5.554608 9.136882
6.709214 9.503031
6.027027 8.709296
7.525163 9.381095
6.704107 9.315424
7.715403 9.085093
7.119481 8.850831
7.031658 9.037489
7.679153 8.657780
6.943871 7.679230
7.203858 7.958305
7.263148 7.558655
7.115849 7.603294
6.957957 7.405365
6.660209 7.636933
6.674455 7.420576
6.629373 7.720390
6.792841 7.042766
6.580099 7.232204
5.940021 7.124454
6.038300 7.548301
6.128241 6.447929
5.415482 6.807602
5.441800 7.041369
5.632058 7.569793
5.410226 8.181760
5.571432 7.701672
4.874450 8.087494
5.097353 7.591760
5.285880 8.174100
3.482870 7.677452
5.235475 8.593351
5.062756 9.180447
5.458027 9.623639
4.245477 9.201902
5.297776 9.796905
5.676010 9.565097
5.626706 9.872324
5.787704 11.116416
5.806522 10.577927
5.719668 11.110086
6.760079 10.912038
6.154750 10.605691
7.078708 11.386196
6.833144 10.876860
7.660067 11.512219
7.826030 11.131153
8.607205 10.834611
9.153029 10.604109
9.273383 10.397594
9.573096 10.854618
10.038261 10.623576
9.752475 10.648121
9.719767 9.700774
10.615911 10.262259
10.425086 9.007791
10.706304 8.207901
10.313396 7.746293
10.242115 7.820289
10.058705 7.421969
9.920683 6.627276
9.945100 6.685908
9.949934 6.503755
9.977012 5.958328
9.510164 5.614905
9.007857 5.835085
8.310507 5.142496
8.258573 5.427669
7.319687 4.775659
7.430539 4.957654
7.519374 5.741857
6.827188 5.649560
6.320036 6.502924
6.091652 5.970807
5.824459 6.043939
6.229613 7.181337
5.816737 7.053238
5.381832 7.746708
5.508570 7.978671
5.382787 8.638402
5.694497 9.393957
7.095930 9.938545
6.467499 9.253516
5.996546 10.458151
6.420138 10.080121
7.255460 10.063839
7.406053 10.877129
8.142326 11.471671
8.964731 10.815331
8.907978 11.107194
9.917105 11.330303
10.407060 11.300769
11.147469 10.707686
11.494737 10.716090
11.638130 9.663343
12.780126 9.394154
12.226542 9.643082
12.519627 8.650116
12.983946 7.913418
13.823596 7.370378
13.990985 7.580164
13.427590 5.808000
12.978101 5.886997
13.640585 6.094423
13.389470 5.211633
12.170677 4.228058
12.238339 4.592728
11.249376 3.569185
11.124907 4.323292
10.337043 3.643777
10.275806 3.416676
9.940231 2.857366
9.419459 3.261874
8.923643 3.501524
7.972626 3.888247
7.218916 3.503252
7.513042 3.908635
6.493019 4.992131
6.528608 5.221937
6.258435 5.840177
6.806370 6.519515
7.183199 7.323120
6.712529 7.546241
6.599244 8.219031
6.943272 8.382635
7.761602 8.656707
8.106416 9.244763
8.069126 9.642728
9.613920 9.530489
10.459193 9.558150
10.130232 10.133296
10.827581 10.678880
11.523235 11.107666
12.166850 9.481087
13.395221 9.652901
14.305239 9.385854
15.214580 9.208924
14.808268 8.430998
15.125308 8.292640
16.378336 6.619865
16.103741 6.703299
15.656923 5.971643
15.376983 5.331878
16.097034 4.791755
15.015302 3.314169
15.847693 2.475796
14.676199 2.137773
14.957177 1.670724
14.086306 0.491544
13.316977 0.041115
13.540610 -0.150358
12.884518 0.084171
11.604937 -1.128573
11.193409 -0.680037
10.108417 -0.477180
8.790964 -0.289291
8.938270 -0.753686
8.229060 0.003524
6.975563 0.450436
7.440520 0.987174
6.961573 1.625486
6.031382 1.675955
6.140178 3.709834
5.721163 3.037941
5.982499 4.542147
6.322608 4.634338
6.174219 5.960492
7.424228 6.317138
7.743629 7.083148
7.621583 7.562960
8.372605 8.200032
9.019753 7.653533
10.271382 7.771149
9.869349 8.113478
11.537046 8.184199
11.526390 8.086510
11.913153 8.499120
13.034545 7.266441
13.789983 7.117810
14.545845 7.283729
14.445571 6.165275
15.288404 4.699283
15.759305 4.210740
15.397293 3.984766
15.640053 2.650716
15.201874 2.554165
15.846450 2.211113
15.480667 0.616376
15.515405 -0.436864
14.238416 -0.639914
14.081484 -0.671102
13.461590 -1.066722
12.839920 -1.680436
12.108165 -2.429320
11.604654 -2.745840
11.071647 -2.427266
9.639595 -3.228033
9.725266 -2.213033
8.146574 -2.560456
7.891865 -1.760094
8.148742 -1.427759
7.261525 -1.405264
6.666132 -0.015420
6.953684 -0.441454
6.129957 0.664655
6.153580 2.036865
6.609412 1.704272
6.123869 2.734944
6.298000 3.536201
6.682271 3.832439
6.489412 5.261825
7.490837 4.942840
7.916354 4.680717
8.853056 5.435354
9.057927 5.093285
9.966501 5.029226
10.625169 5.453549
10.996850 6.679701
12.052766 5.039435
11.978482 4.952761
12.635665 4.718223
13.324499 4.179529
13.156637 3.751380
14.270280 2.521390
13.957706 2.894192
14.285244 2.202225
14.505522 1.134469
14.164051 0.301359
13.722066 -0.124704
14.197140 -0.917270
13.220809 -0.630710
12.871209 -1.616391
12.692022 -2.551020
11.734113 -2.930477
11.005980 -2.587620
10.739624 -3.161216
10.774748 -3.541485
9.643589 -3.372007
9.025611 -3.129128
8.923811 -3.253985
8.568796 -2.925747
7.577974 -3.047170
6.864853 -2.454461
7.051872 -1.840450
7.085047 -1.152253
6.206156 -1.234850
6.688030 -0.542052
6.258278 -0.177041
5.746941 0.986189
5.509707 1.364991
6.147272 1.397444
6.545664 1.517847
6.446887 1.747033
7.052558 2.133959
7.346541 1.823137
7.927663 3.357502
8.317752 3.411635
8.722145 3.471313
9.293494 2.935684
9.712066 3.219446
9.165871 3.472339
8.928722 2.873313
10.556330 2.843975
10.769619 2.817537
10.945231 2.133531
10.944206 1.855845
11.508341 1.961027
11.471028 0.469602
11.652448 0.658430
11.539601 -0.155144
11.521516 0.349867
11.051481 -1.021054
10.362389 -0.921669
10.393308 -0.850906
10.355310 -1.212270
10.605663 -1.875935
9.452806 -1.674423
9.857803 -2.226222
8.885920 -2.764063
8.199373 -2.387702
8.258303 -2.547877
7.191633 -1.948303
7.293099 -2.269887
8.223876 -1.424158
7.268546 -1.709098
6.536602 -1.571091
7.019524 -1.196423
6.895413 -0.005970
6.516818 -0.873621
6.005353 0.185673
6.596898 -0.086756
6.345264 0.130328
6.614106 0.170032
7.403085 -0.017672
7.001703 1.127549
6.602856 0.623546
6.234942 0.113837
7.012544 0.990756
6.589391 1.608397
7.011030 0.565282
7.720071 0.623797
7.201356 1.007701
7.532801 0.671673
6.689643 1.363962
7.728722 1.418995
7.681397 1.803526
7.357200 1.062385
7.560725 0.640756
7.570742 0.727966
7.740611 1.569401
7.527606 0.797976
7.518218 0.769371
8.146481 1.008243
8.014979 0.772620
8.023789 0.387237
7.855864 1.187701
7.963373 0.239447
8.745014 0.624549
7.696228 0.499178
8.077537 1.240118
7.488480 0.292355
7.685131 0.577659
7.356803 0.412598
7.657514 0.280712
8.541741 1.049103
7.278196 0.450657
8.301563 0.795977
8.184663 1.219969
7.730505 0.860027
7.858505 0.462890
8.576571 0.648497
8.363134 0.368398
8.502477 0.947715
8.085605 0.411764
8.599219 0.658437
7.829431 0.661957
8.357386 0.879934
7.854129 0.130486
8.422733 0.123106
8.220992 0.082230
8.481948 0.647710
7.002554 0.139252
8.096544 -0.517633
7.081851 -0.449425
7.440828 0.291925
6.119313 0.274522
6.784258 -0.264218
7.248162 0.696822
6.919802 0.745585
6.847548 0.931663
6.291722 0.823943
6.348907 0.219980
6.009416 1.652472
6.503380 1.768630
6.390632 1.631004
6.167274 1.530440
6.848689 1.836300
6.349207 3.183694
7.003261 2.245019
7.753374 2.971938
7.828433 3.077413
8.224842 2.566531
7.970603 2.771650
8.475218 2.320993
8.575966 2.834030
9.496655 2.491202
9.683455 2.171105
9.010959 3.038707
9.571524 2.266389
10.131613 1.568811
9.860804 2.222041
11.034245 1.125074
10.142210 0.990487
10.372162 1.336648
11.197720 1.031847
9.955046 1.078827
10.162965 -0.114546
10.250849 -0.041811
9.683694 -1.411225
9.483050 -0.774032
10.029128 -0.574294
8.881534 -1.009777
9.730893 -1.123729
8.619844 -0.694612
9.230577 -1.888535
8.210246 -0.803421
8.146159 -1.949974
7.936979 -1.169592
7.246344 -1.289262
7.712427 -0.213955
7.074954 -0.714630
6.529630 -0.314520
6.797567 0.554426
6.628285 0.807347
7.034347 1.243909
6.745144 0.830727
7.421734 1.579270
6.768856 2.263901
7.523806 1.750437
8.616032 2.460273
7.606599 3.093487
8.792899 2.641951
9.230832 3.073558
8.751003 2.577941
10.069494 2.583133
10.823795 2.423821
10.717825 3.204355
10.145912 2.843728
11.335418 2.145646
11.528027 1.454125
11.501653 0.934237
12.748871 1.033519
12.235581 1.386629
12.301549 -0.000370
12.389924 0.121856
12.756572 -0.213719
12.724832 -1.818873
12.514256 -1.828673
12.538209 -2.106243
11.248779 -1.920587
10.389077 -3.096271
10.690691 -3.125995
10.322301 -3.532157
10.808019 -3.688173
10.414297 -3.307840
9.872271 -2.760745
8.761627 -2.989978
8.656168 -2.956878
8.473893 -3.221509
8.803206 -1.890146
8.006838 -2.138439
8.456818 -1.905495
7.764520 -0.889264
7.632297 -1.404452
7.929326 -0.881869
8.033846 -1.523755
7.756445 -0.720478
8.523750 -0.049751
9.312118 0.073761
9.008958 0.488151
8.894616 0.290878
10.283776 0.736767
10.498322 0.622764
11.399333 0.594297
11.330743 0.808214
11.701819 0.391754
11.595254 -0.022064
13.019667 -0.380739
12.072662 -1.327679
12.713421 -1.016171
13.543447 -2.437355
13.561408 -3.328714
13.428459 -2.565574
13.648605 -3.568422
13.380783 -4.481277
12.239267 -5.172740
12.031644 -5.664699
11.718232 -6.054446
12.064015 -5.962027
10.918693 -6.110643
10.694074 -7.389650
9.918964 -7.267588
9.182985 -7.386372
9.077757 -6.842938
8.145837 -7.672583
7.990636 -6.804918
6.709451 -6.443520
8.225559 -6.417136
6.977626 -6.057661
6.616789 -5.821769
5.963766 -5.356969
6.600177 -4.825077
6.513746 -5.293031
6.276374 -4.402951
6.661766 -3.556906
6.917242 -3.677265
6.632918 -3.375988
6.674496 -1.964286
7.331966 -2.958900
7.472621 -1.614171
8.007247 -1.922003
9.323922 -2.153898
8.887065 -2.791037
10.701493 -3.007028
10.146545 -3.141420
10.666904 -3.635923
10.857458 -4.022376
10.923445 -4.250008
12.736175 -5.532079
11.068317 -6.071724
11.375455 -7.416081
10.843249 -7.746910
10.515429 -8.996506
10.513826 -8.816860
10.141776 -9.102163
10.123602 -10.866056
8.540419 -10.631947
8.690059 -11.485530
7.210688 -10.386447
5.852226 -12.419216
5.871266 -10.788328
4.359848 -11.164340
3.363403 -11.272344
3.152890 -11.955209
1.702286 -10.521333
0.864325 -9.596364
1.522922 -9.587955
0.760673 -8.446993
0.144610 -8.328059
-0.601361 -6.803488
-1.288883 -6.535268
-1.075507 -4.678167
-0.362445 -5.576610
-0.932270 -2.465314
-0.172137 -2.639105
0.615080 -1.450380
0.929780 -1.019448
1.840097 -0.291745
2.626817 0.080716
3.854630 0.124556
3.932345 0.081522
5.294630 0.400890
6.378265 -0.536446
7.814320 -0.053564
8.189118 -0.176731
8.642164 -1.795487
9.096262 -2.380779
10.391755 -3.485678
10.310787 -3.290876
10.725155 -4.505508
10.757659 -6.389211
9.939061 -7.156443
10.826216 -7.821837
9.432225 -9.430774
9.049162 -10.329570
9.077282 -11.764091
7.448519 -12.937683
7.338160 -12.462818
5.433871 -13.044763
4.291032 -13.774579
2.108821 -14.481893
1.379593 -15.069629
0.112666 -14.161598
-0.600972 -14.656025
-2.585903 -13.639711
-4.672741 -12.636793
-5.889131 -11.636531
-5.827006 -10.860301
-6.588351 -8.736959
-7.570900 -8.481998
-7.654908 -6.235364
-8.192114 -4.537788
-7.911007 -4.304726
-8.790864 -2.165064
-7.781250 -0.934555
-7.609130 0.024686
-6.521968 0.665268
-5.205504 2.907758
-4.962801 3.271628
-3.721288 4.879361
-1.789018 3.469218
-0.868340 4.485534
1.022129 5.221023
2.257245 5.260343
2.683027 4.796129
4.548018 3.993972
6.183776 4.614629
6.412280 1.951278
7.699594 2.754707
9.131787 0.770735
9.380233 -0.528633
10.010012 -2.070877
9.889464 -3.412651
8.856507 -5.796968
8.785842 -6.587941
8.527870 -7.597646
8.202133 -9.306074
7.467399 -9.477292
5.263433 -11.980620
4.732419 -12.320570
1.309334 -13.346201
0.775252 -12.501687
-1.082435 -12.563637
-2.482784 -12.226943
-3.328643 -12.318366
-5.210381 -12.930217
-8.286955 -11.698104
-9.149860 -10.394887
-10.384118 -8.365652
-11.482499 -8.175024
-12.262604 -6.026231
-13.029970 -4.271433
-13.825631 -2.080134
-13.962360 -1.005385
-13.222792 0.961734
-13.353781 3.931427
-12.263130 5.401536
-11.965458 7.421681
-11.014617 7.867006
-10.006121 9.914054
-8.056102 10.540124
-5.975054 12.631603
-4.272042 13.701537
-2.560194 12.959205
-0.700449 14.470894
1.103958 14.070916
3.216067 13.110778
4.937734 11.432518
7.009886 11.312185
7.430324 10.328488
8.922145 9.561801
9.338065 9.242044
10.987562 5.415370
13.397028 4.991855
13.507013 3.234854
13.807687 1.749912
11.498277 -1.027726
11.957560 -3.144787
12.099854 -5.103809
11.383833 -7.364749
9.640815 -6.215559
8.993530 -8.353184
6.517155 -9.430191
5.016181 -11.511630
5.191302 -10.401579
2.144772 -11.791597
0.489733 -12.461685
-2.744976 -10.535076
-2.224426 -10.112467
-5.340887 -8.051151
-6.363407 -8.783082
-7.878875 -8.173965
-8.807465 -7.834632
-10.088630 -4.038120
-11.315371 -4.000561
-11.236838 -1.215705
-13.550228 0.105147
-10.679253 1.425378
-11.828282 5.196496
-9.008344 6.646315
-11.684063 7.576485
-10.416876 8.603053
-8.151738 12.151569
-6.918505 10.630471
-6.385571 13.773000
-3.523819 13.021034
-2.125155 15.411281
0.079928 14.483090
1.853364 15.120548
1.569695 13.873291
5.361836 15.065183
6.093885 14.725959
9.678457 12.316048
8.118811 11.934489
10.156172 10.025648
11.419165 9.281220
11.994656 7.529383
14.047054 6.626389
13.233870 3.418233
13.743575 3.267250
13.326131 0.796674
13.646428 -1.040698
12.486871 -2.327707
12.024346 -3.448193
10.491687 -5.067599
10.287764 -6.301353
9.873501 -6.757259
7.613369 -8.739726
7.905055 -7.750594
5.352558 -9.808105
4.217296 -9.977969
-0.350904 -9.537418
1.001851 -9.690265
-2.427859 -9.360273
-1.732240 -8.565847
-3.045786 -7.748718
-4.576139 -8.503660
-7.406611 -5.109956
-6.838612 -5.483110
-5.970819 -2.576770
-6.930587 -2.610564
-7.756814 -2.140363
-8.731115 -1.143226
-8.727151 1.900923
-8.627674 3.325708
-7.808620 2.986275
-8.824736 5.286129
-7.424668 4.301290
-7.178776 6.922789
-5.351598 9.792005
-4.934113 8.528561
-4.083302 9.139932
-2.726030 10.191239
-0.584241 10.202957
0.351078 10.089483
0.646036 11.564228
1.555459 9.765890
3.117656 8.214359
4.596722 9.443014
6.130858 10.088885
7.496580 7.978622
8.858423 7.611617
7.387106 5.728985
7.864758 6.019514
8.800884 4.560948
8.945487 4.548715
9.673650 2.721658
10.469770 1.704794
9.789238 0.877754
9.267238 -2.513562
6.777414 -2.257981
8.185642 -3.897237
6.542505 -4.748781
6.821953 -4.400066
5.209479 -5.464625
5.051509 -9.874785
2.942807 -9.583295
2.714583 -9.246923
0.648786 -8.945059
-3.097618 -10.559043
-1.240932 -9.260752
-4.483679 -10.199313
-4.220770 -8.222347
-8.350366 -11.103831
-8.794991 -7.464742
-10.437698 -8.135458
-10.749098 -6.981819
-14.157569 -5.602799
-15.393025 -5.601269
-15.739686 -3.520680
-15.941947 -1.219837
-16.588246 0.446090
-18.798607 0.769632
-19.181455 5.618267
-18.674456 5.529838
-18.675727 8.864288
-17.574108 9.548897
-16.667645 13.584573
-16.944321 14.480080
-15.884063 17.181025
-12.237857 18.231449
-11.555834 19.581735
-9.913546 21.509167
-6.595226 20.859712
-4.710367 21.126034
-4.499169 21.062882
0.868201 23.427451
1.375029 20.264301
3.849752 20.976254
5.261873 19.549311
9.503608 18.638570
10.830851 17.443194
11.482551 15.530508
12.614441 14.320332
13.926441 10.127029
15.763143 11.569765
14.820387 6.399769
14.620171 0.347660
11.902250 -0.307184
12.927540 -1.043950
10.097496 -4.846271
11.735906 -6.222201
8.205309 -8.898136
5.585481 -11.737359
2.802426 -14.782651
-0.652505 -14.250445
-3.098062 -12.468585
-6.498899 -15.909942
-10.696016 -15.067473
-12.882354 -14.702348
-16.669134 -12.079900
-21.062559 -13.091285
-21.010136 -11.392717
-27.967462 -9.995249
-28.691213 -3.485909
-33.120979 -1.778198
-34.874938 3.457707
-32.920159 5.628228
-36.667933 7.859222
-34.264022 14.844982
-37.178043 18.263940
-35.450990 23.204837
-35.722977 26.329119
-32.535651 30.425536
-34.132213 34.767062
-27.964993 40.541904
-22.317592 44.538779
-20.395338 46.386989
-14.850314 48.060891
-12.066570 46.232330
-6.863720 51.123195
-2.941186 51.593734
7.257968 52.424344
9.915923 45.946081
13.238125 46.234377
19.620936 44.076386
21.752049 39.489572
25.017580 38.828370
26.099587 32.619048
28.820806 27.714196
32.857635 21.346712
35.988203 21.584368
35.961846 9.262187
27.258132 6.886737
31.253004 -3.172585
29.286422 -4.541146
23.091707 -6.962001
17.760939 -6.520208
16.720762 -18.369099
6.371776 -21.308951
7.810914 -19.935065
-1.603507 -23.068330
-13.870932 -17.267042
-15.300705 -16.356208
-19.629455 -20.139183
-24.150210 -13.796162
-29.329541 -3.935383
-37.044679 -8.622828
-45.661595 -5.696163
-44.068034 1.858022
-45.461635 13.945293
-50.428854 28.266101
-51.321853 25.458832
-51.314401 30.869551
-43.497869 30.720011
-43.076606 49.658627
-41.605359 55.282916
-45.037471 57.711540
-36.181953 63.544636
-22.469382 69.775162
-21.525675 74.062538
-18.548260 79.222359
-13.072431 78.236442
1.489515 77.681899
7.155344 87.600900
17.441906 85.884262
16.058560 87.695226
29.954826 75.574229
41.879853 71.359823
49.279026 64.014810
47.877199 68.405078
48.865817 58.683677
57.381699 45.810616
64.089859 35.185744
71.771365 35.862016
62.466559 29.979138
58.525854 20.480625
61.653591 3.623334
63.891186 -1.879077
61.268634 2.706384
52.716253 -14.755558
33.291952 -27.465370
32.484416 -33.252370
24.667652 -37.687544
16.346979 -30.208210
0.763517 -30.453469
-2.332140 -33.003754
-18.619892 -37.970009
-16.267845 -24.731968
-28.711384 -33.716098
-49.687778 -14.825843
-63.373553 -12.418433
-50.728646 11.865837
-51.237742 3.877302
-70.373867 22.985209
-62.373125 30.379466
-78.832935 27.396896
-74.059307 57.484127
-60.927826 59.743888
-67.057028 82.849301
-53.622131 89.000289
-36.715680 104.272602
-30.378490 93.456399
-26.743063 121.766962
-7.441393 108.272201
-12.885523 118.375769
1.756996 121.013799
22.711368 128.554040
44.708353 123.855521
50.034754 109.946161
48.388024 112.578297
72.127032 85.577416
53.126486 80.803102
88.729257 91.315791
106.584309 63.455022
106.971557 69.206900
101.231486 51.964270
115.740150 32.769087
98.596795 -9.003718
91.084972 -0.435990
106.847907 -36.365442
80.733897 -9.473751
63.516525 -29.410447
63.155156 -35.854807
48.868740 -76.523729
45.390685 -88.408427
28.275144 -70.840762
25.020544 -93.016481
-48.245141 -56.372911
-2.107482 -62.677895
-81.950319 -81.219257
-47.378806 -93.626613
-94.611286 -42.607815
-89.868957 -50.417624
-136.322158 -49.786309
-192.291007 4.819065
-148.693658 1.696651
-182.057799 54.752664
-131.247868 108.244583
-129.198639 143.940413
-111.764448 78.868457
-247.236202 113.902709
-158.288967 102.523449
-206.407133 84.509499
-166.020608 250.073991
7.459486 194.311507
-178.807248 316.261136
-137.973537 226.186658
-117.730212 347.924040
22.546487 188.226917
37.812912 253.080663
-45.193707 369.454484
165.889565 457.090683
-14.637894 420.072451
195.131122 256.146728
55.181408 80.060758
98.442808 -411.586905
-480.691630 507.764865
805.170084 170.651948
-1001.823557 1044.576784
64.911052 495.089479
727.685345 448.436058
-32.314012 315.349462
1181.361450 1063.250128
-1799.329239 4587.963618
-9865.570814 -5781.166051
