6140.086151 4166.533122
-2872.770561 -1047.367500
-141.471560 -193.579947
-221.655704 -419.743318
19.911302 150.184146
-25.500305 2.243814
-43.749887 83.888741
40.613909 -28.210992
-42.658676 17.007274
-9.190591 -15.459381
-43.936740 -21.510541
13.058900 17.030844
-0.188589 20.565721
2.059941 26.511545
2.803239 -10.895302
-1.713619 3.981997
-7.068946 2.927423
-7.800923 -2.317405
7.833530 3.178968
3.729683 4.775060
-0.501725 5.883683
2.964180 4.085067
-1.024180 2.291585
4.085191 -4.041645
1.756095 -6.034164
-0.672052 2.597441
1.063181 -1.450447
5.263408 4.593254
1.942179 3.422193
-1.792616 -1.718663
2.281343 -3.563333
-0.134632 -1.806106
-0.394257 -1.920479
-0.622672 -0.298791
1.487098 1.258841
-1.046604 1.661420
1.075087 -1.294777
-0.044269 -2.466523
-1.974460 -2.822597
-0.945656 -1.729261
0.574521 1.209290
-0.953564 -1.776148
1.034384 1.372915
-1.825323 -0.460112
-1.525123 -0.304816
0.980314 -1.063552
-1.362366 -0.024274
0.809253 0.109737
-2.015471 0.730515
-0.779547 1.327847
-0.557968 -0.185985
0.493378 -0.128713
-1.318825 -0.676377
-1.279262 0.064490
0.309988 0.605202
-0.806214 2.065827
0.279023 0.202371
0.576817 0.790466
-0.310856 0.143565
-0.233323 -0.534807
0.962255 0.104537
0.472442 -0.166827
-0.198817 -0.000176
0.210944 0.237649
-0.172768 0.379563
-0.392057 0.169412
0.218567 -0.704838
0.050157 -0.217870
0.156727 -0.351420
0.148829 -0.157397
-0.275177 0.349822
-0.596642 0.785602
0.005332 -0.636113
0.206181 0.352081
0.602473 0.159670
-0.700670 -0.544036
0.304113 0.584397
-0.557865 0.006924
-0.119189 -0.156045
-0.382723 -0.681170
0.236249 -0.153304
0.123981 0.012335
-0.121691 1.070816
-0.031873 -1.084117
-0.404087 -0.160792
0.127437 -0.143806
-0.579344 0.420358
0.623547 0.188192
0.144114 -0.008612
0.638562 0.185823
-0.543520 0.009139
0.045815 0.187861
-0.053900 -0.202397
-0.104698 0.231028
-0.219271 -0.621557
-0.167346 0.272615
-0.135222 0.125722
-0.194307 -0.074812
0.189773 -0.416306
-0.212236 0.005269
0.319109 0.054604
0.122329 -0.010483
0.025783 0.102055
0.445691 -0.370656
-0.155444 -0.332683
-0.314334 -0.050482
0.176010 0.054130
0.018108 0.130290
0.271732 0.011611
0.134056 0.194283
-0.192966 -0.151174
-0.012389 -0.346768
-0.012939 -0.292206
-0.173765 -0.119374
-0.047490 -0.247393
-0.039335 -0.437585
-0.220249 0.061617
0.038382 -0.238405
-0.046447 -0.176183
-0.386724 0.192563
0.122175 -0.331264
-0.220611 0.012503
-0.508439 -0.142937
0.194336 0.129071
0.072672 0.117338
-0.004618 -0.185796
0.048366 0.120601
-0.334777 -0.155928
0.336625 0.024820
0.101533 0.186988
-0.016651 -0.231291
-0.101896 -0.183936
-0.120636 -0.417890
0.101612 0.022783
0.197057 0.266328
-0.232289 -0.336314
-0.255440 0.142068
-0.243398 -0.141284
0.035692 -0.196077
0.015024 -0.046986
-0.154981 0.145850
0.004860 -0.286714
0.061023 0.096401
-0.017367 -0.046068
-0.059427 -0.577496
0.508136 -0.233449
-0.076275 0.090545
-0.140956 -0.105401
-0.063236 -0.017330
-0.286967 0.205670
-0.307098 -0.200779
0.222833 -0.191550
0.336479 0.109099
-0.089595 0.118980
-0.033399 0.002738
-0.129053 -0.098203
-0.236090 -0.312877
-0.226640 -0.217594
-0.005090 -0.248433
0.117099 -0.245116
0.044411 0.090519
0.097715 -0.341733
-0.199216 0.055960
-0.008405 -0.108796
-0.171826 -0.402160
-0.028544 -0.009958
-0.065620 -0.063924
-0.000047 0.129885
-0.216460 -0.009859
-0.115075 0.072349
-0.394705 -0.162176
-0.244783 0.059988
0.278494 -0.145606
0.014514 0.218961
-0.127967 0.003460
-0.348842 -0.106118
-0.066360 0.136090
-0.004410 -0.084596
0.103311 -0.182830
-0.077919 0.113027
0.194524 -0.100456
0.136970 0.023886
-0.007523 0.175147
-0.280099 -0.132689
0.002230 0.003659
-0.049933 -0.153958
0.040884 -0.077718
0.150457 -0.192882
-0.183634 0.151852
-0.128012 0.127713
0.122940 0.041032
0.037562 -0.090816
-0.322276 0.032012
0.068232 0.064373
0.291855 0.135068
0.216782 0.160807
-0.110206 -0.282125
-0.079563 -0.099669
-0.034391 -0.118010
0.026108 -0.103897
0.127313 -0.022167
0.002845 -0.177298
-0.225326 0.046995
-0.299011 0.154311
0.199513 -0.344756
0.182821 -0.038636
0.185895 0.122905
-0.008302 -0.069204
0.173689 -0.077678
-0.033797 -0.081274
-0.356862 0.147523
0.033593 -0.226296
0.186785 0.275319
-0.164964 0.055677
-0.058183 -0.234727
0.045689 -0.103278
-0.312484 0.013832
0.106660 -0.024154
-0.098585 -0.004067
-0.130809 0.086244
0.001315 -0.066806
0.203468 0.123552
0.108008 0.061727
-0.093941 -0.184949
0.195509 -0.051358
0.223570 0.186200
-0.034998 0.138717
0.202343 -0.063675
0.142818 -0.069847
-0.070519 -0.009944
-0.106985 -0.047657
-0.013661 -0.008861
0.051546 -0.111660
0.054118 -0.012596
-0.051207 -0.179502
0.121401 -0.046604
-0.019806 0.129646
-0.082499 -0.152784
0.063968 -0.151469
0.017582 -0.000029
-0.053355 -0.058154
-0.005132 0.050455
0.034809 -0.171212
0.140163 0.118813
-0.046391 -0.013772
-0.087296 0.123072
0.070317 -0.057526
-0.047192 0.052852
0.277360 0.000321
0.016284 -0.054932
0.232993 -0.078827
-0.207365 -0.329144
-0.063536 0.043414
-0.105543 0.089769
0.134595 0.081835
0.242860 -0.145753
-0.172430 0.134106
-0.170994 -0.089671
-0.167815 0.002995
0.331805 0.095097
0.163797 -0.069708
-0.052781 -0.270121
-0.037281 -0.193955
-0.106282 0.182926
0.118649 0.001065
0.065825 0.001696
0.182057 -0.006823
-0.002256 -0.243728
-0.009163 -0.074433
-0.080713 -0.194596
-0.136324 0.266098
0.294417 0.072848
-0.071930 0.081432
0.018596 -0.100266
-0.153810 -0.178358
-0.173690 0.112746
-0.086525 -0.001547
0.342081 0.031778
0.144174 -0.388321
-0.159308 -0.026663
-0.174174 -0.117992
-0.245412 -0.210690
0.332154 0.007059
-0.020033 0.121986
-0.217683 0.099845
0.122774 -0.344955
-0.135620 0.140621
-0.252333 0.065384
-0.114164 0.013865
0.204990 0.325968
0.007549 0.163643
0.134715 0.009466
-0.198122 -0.356070
-0.089503 0.161976
-0.120655 0.080133
-0.124392 -0.006576
0.294814 -0.105075
-0.071688 0.208997
0.134792 -0.063786
-0.071931 -0.155823
0.175045 0.072731
-0.154146 -0.013197
-0.104084 0.086820
0.236000 -0.144610
0.071993 0.199040
-0.185845 -0.164927
-0.097008 -0.235420
0.057633 0.049785
-0.199646 0.256308
0.071274 0.029718
-0.036696 0.046062
0.122972 0.202242
-0.044887 -0.303766
-0.085906 -0.059134
-0.028494 0.049658
-0.214317 0.050505
0.184492 0.167629
0.057802 0.135074
-0.071526 -0.160189
-0.093686 0.044968
-0.043694 -0.001940
0.001973 -0.081539
0.046892 0.114191
-0.121062 -0.222114
-0.037116 0.066062
-0.063538 0.139586
0.131196 0.124611
0.134244 0.075703
0.010886 -0.029166
-0.008798 -0.088262
-0.162261 0.010614
0.150330 -0.013691
-0.065281 0.263886
-0.124873 0.125963
-0.046202 -0.271646
0.138586 -0.077232
-0.163178 0.046208
-0.313162 0.040330
0.053618 -0.028430
-0.172350 0.297377
0.068148 0.106078
0.053336 -0.188648
0.027205 -0.056606
0.262078 -0.017653
-0.045771 0.259560
-0.089347 -0.059724
0.079224 0.031638
0.093892 0.131078
-0.177524 0.036290
-0.088287 -0.102314
-0.027526 -0.101396
0.004165 0.270658
-0.105040 0.003794
-0.085615 0.088727
0.077867 0.084560
-0.041611 -0.055201
-0.187916 0.145133
0.039897 -0.073297
0.089577 -0.100024
0.010589 0.098790
-0.063272 0.197104
0.060324 0.198424
0.174498 0.034796
0.111859 0.094509
-0.019664 -0.255585
0.076903 -0.056174
0.020312 0.214424
-0.043250 0.141007
0.075436 0.016772
0.064179 -0.134730
-0.014128 -0.102342
0.123339 0.047480
0.056308 -0.143338
0.011981 0.007867
0.142395 -0.057715
-0.153078 0.123982
-0.144846 -0.234878
-0.171248 -0.038432
0.100542 -0.165025
0.002711 -0.144970
0.183252 0.271021
-0.353017 -0.136949
0.061376 0.003366
-0.132227 -0.057345
-0.182770 -0.042519
0.026027 -0.311528
-0.006060 0.104428
0.038687 0.051952
-0.158825 0.225582
-0.057647 -0.165971
-0.171352 0.028605
-0.079056 0.092155
-0.195263 0.237137
0.064007 0.073652
-0.035475 -0.003592
0.165698 0.204936
-0.340233 -0.040185
0.079491 -0.072698
0.103652 -0.076684
-0.106265 0.089102
-0.027462 -0.133691
-0.019266 0.026656
0.030028 0.007303
-0.070784 0.206239
0.031480 -0.049449
0.052749 -0.002953
0.046099 0.038101
0.024252 -0.051201
-0.041834 0.163569
0.113862 0.148240
0.082508 0.069798
-0.154047 -0.005897
-0.047117 -0.312341
-0.031996 0.088636
0.229178 0.020430
-0.005371 -0.112965
-0.080692 -0.187830
0.015005 -0.271294
0.038804 0.079486
-0.152292 -0.061931
-0.080961 -0.167172
-0.042802 -0.143360
-0.160192 0.140013
-0.130060 -0.083899
0.186211 -0.118432
0.009580 0.006686
-0.319458 0.003385
-0.076892 0.015028
-0.110049 -0.030465
-0.161120 -0.116201
-0.299433 0.055527
0.014050 -0.094646
-0.001400 0.154076
-0.011086 0.197157
-0.281286 -0.137849
-0.063106 0.062540
-0.033567 -0.060489
-0.198018 0.297949
0.051327 -0.232696
0.046044 0.162854
-0.032180 0.308991
-0.215692 -0.145455
0.056010 -0.215016
-0.217828 -0.036375
0.017145 0.207271
0.051779 0.065027
0.203983 0.130226
-0.052542 0.024837
-0.116336 0.097423
-0.092398 -0.068630
0.014670 -0.129705
0.203858 -0.126273
-0.059258 0.089788
-0.182129 0.109406
-0.120114 0.307281
-0.043322 -0.127462
-0.132053 -0.055919
-0.006971 -0.108493
-0.083784 -0.025615
0.100270 0.156950
-0.049970 -0.152890
0.042945 0.139543
-0.005525 -0.002830
0.001741 -0.034146
0.076934 0.023128
0.001172 -0.123870
0.109777 -0.011199
-0.018819 0.062233
-0.001368 0.078796
-0.101379 -0.064529
-0.133653 -0.082442
0.046953 -0.076503
-0.228107 -0.083198
-0.026718 0.032523
-0.139939 0.107667
-0.136065 0.155100
0.081565 -0.021472
-0.075315 -0.072831
0.022767 -0.200948
0.058395 -0.059079
0.110778 0.096312
0.013580 0.054274
-0.242447 -0.003408
0.023665 -0.099779
-0.047753 0.152294
-0.052126 0.046614
0.081027 -0.218651
0.011301 0.089383
-0.103796 -0.049862
-0.226018 0.126573
-0.061633 0.011695
0.224100 0.041242
0.063470 0.155075
-0.219625 -0.137846
0.027732 -0.259910
-0.054486 -0.037096
-0.163383 0.192142
-0.017849 0.140172
0.075658 -0.071523
0.021321 0.106447
0.041556 0.009931
-0.142843 0.044278
0.053459 -0.166046
-0.010687 -0.029363
-0.027930 0.161639
-0.067727 -0.081741
0.274336 0.175059
-0.017692 0.037811
0.060686 -0.022476
0.001666 -0.218502
0.044463 0.202742
0.194341 0.120416
-0.002620 -0.023170
-0.006088 -0.134307
-0.016499 -0.021856
0.117427 -0.185065
-0.127882 0.040253
0.165881 -0.196246
-0.004808 -0.068959
0.007621 0.018620
-0.122072 -0.170536
0.046415 -0.143242
0.041406 -0.308824
-0.013646 -0.096553
-0.186886 -0.149490
0.030938 0.162263
-0.143484 0.016467
-0.016681 0.110743
0.163026 0.103859
-0.182765 -0.098437
-0.079579 -0.133282
-0.094511 0.064692
-0.034338 -0.022895
0.010261 0.016284
0.073694 -0.098729
-0.091079 -0.092650
-0.162636 -0.072270
-0.281074 0.038199
0.018042 -0.097463
0.214562 -0.107906
0.019317 0.249315
-0.257575 -0.137350
-0.025147 0.076572
0.108261 0.101287
0.048959 0.037800
0.070701 0.095945
0.002732 -0.145124
0.074934 0.047400
-0.239528 0.128797
-0.026539 -0.166798
0.057957 0.031634
-0.014755 0.192127
0.110061 -0.233666
0.047824 -0.076546
0.050224 0.082569
-0.146423 -0.007405
-0.023627 0.032241
0.201006 -0.007862
-0.096656 -0.194644
-0.105536 -0.060467
0.080269 -0.002927
-0.020371 0.016799
0.220722 0.011335
0.026019 -0.096774
-0.085101 -0.096955
-0.100459 -0.166159
-0.196156 -0.141708
0.018724 -0.118398
-0.018433 0.179326
-0.065001 0.099110
-0.018609 -0.065172
0.132485 0.033083
-0.179040 -0.028005
-0.365845 0.092982
0.091818 -0.211688
0.043254 0.290734
-0.262757 0.133830
-0.177838 -0.174736
0.440284 0.149497
-0.350202 -0.090097
-0.128418 0.005723
0.066300 -0.125343
0.097393 0.466989
0.370071 0.134945
0.024593 -0.060870
0.096070 -0.394898
-0.268553 -0.088939
-0.025048 0.202179
0.045056 0.100651
0.390053 0.211154
-0.206371 -0.034254
-0.205261 -0.055379
0.033550 -0.225560
-0.366098 0.179772
-0.009935 0.185961
0.095363 -0.006344
0.167081 0.072765
0.086802 -0.156641
-0.085662 -0.086147
-0.001159 -0.007882
-0.125771 0.150566
0.349036 0.011057
-0.055174 -0.025902
-0.117784 0.000311
-0.155540 -0.093309
0.191159 0.388530
0.132412 -0.064990
-0.141132 0.080202
0.098179 -0.181965
-0.224157 0.188653
-0.031739 0.023622
-0.093276 0.148848
0.168334 0.251404
-0.057638 -0.091837
0.188803 0.043049
0.139052 -0.293942
0.012406 0.041943
-0.130234 0.142386
-0.064844 0.164678
0.118691 0.058517
-0.047751 -0.066688
-0.070709 -0.052394
0.024539 0.019835
0.103544 0.290156
0.019336 0.093201
0.153934 -0.060425
0.180500 0.138612
-0.075327 -0.046125
0.211988 0.000731
0.044447 0.067455
-0.027132 -0.030930
0.070463 -0.069118
0.113815 0.156251
-0.029317 0.107407
-0.097608 -0.122486
0.263303 -0.190764
0.034672 0.200172
-0.237579 -0.089059
0.020400 -0.161375
0.008007 0.018437
-0.202602 0.021193
0.156549 -0.165926
0.017361 -0.043852
0.013147 0.013356
-0.003599 -0.043773
-0.028934 0.229645
-0.055858 0.239065
0.047179 0.196414
0.077058 -0.039931
0.039590 -0.016388
-0.049212 0.026960
0.077197 0.167925
0.057788 0.037903
-0.098091 -0.086049
0.096778 0.146232
-0.252146 -0.015115
-0.042514 -0.089208
0.137117 -0.074733
0.014155 -0.155783
0.231331 0.013121
-0.111155 0.275297
-0.002300 -0.070361
0.017749 -0.102693
-0.079507 0.038799
-0.114704 0.204092
0.386213 0.186245
0.193796 0.063197
-0.213208 0.339031
-0.159452 -0.409946
0.054752 -0.161882
0.121061 0.023429
-0.121656 -0.013565
-0.082302 0.077678
-0.099218 0.205069
-0.008174 0.212372
-0.078594 -0.073683
0.026103 -0.295186
-0.026014 0.118819
0.195233 0.287512
0.210454 -0.066354
0.120953 -0.086922
-0.155638 0.083254
-0.165026 -0.010874
-0.060941 -0.138700
0.189870 -0.096276
-0.034463 -0.051723
-0.190429 0.030342
-0.104290 -0.077587
0.068918 0.247334
0.028271 -0.063844
-0.295051 -0.003010
-0.126920 0.102370
0.056974 -0.020452
-0.012653 0.260433
-0.187274 0.195491
-0.212138 -0.043914
-0.053425 -0.024915
0.046700 -0.128819
-0.133568 0.046055
-0.051211 0.341349
-0.020590 0.025636
0.075929 0.025671
0.055386 0.011368
-0.281950 -0.351342
0.066034 -0.014292
0.044510 0.341415
0.011735 0.062017
-0.118274 0.116898
-0.011353 0.214651
-0.170255 0.051131
-0.215356 0.400722
-0.003961 -0.274395
-0.163189 0.170696
-0.047654 0.152897
-0.403008 0.106459
-0.057838 0.111836
-0.184697 0.085640
0.191077 0.214637
0.123353 -0.070273
0.184252 0.296299
-0.025006 0.075448
-0.105640 0.152729
0.032627 -0.262843
0.186254 -0.101890
0.048706 0.161579
-0.124918 0.248174
0.031705 0.241537
-0.252202 0.415676
-0.118264 0.089073
-0.102054 -0.138295
0.118931 0.081632
0.127259 0.070760
0.202416 -0.218016
-0.260020 0.257662
-0.308917 0.180222
0.059611 -0.442526
0.041574 0.082838
0.142651 -0.016189
-0.325867 0.303660
-0.215722 -0.027138
-0.003404 -0.059243
-0.281128 0.354569
-0.186964 -0.255135
0.227296 0.657870
-0.260719 0.230483
0.408139 0.046873
0.262661 -0.002465
-0.709806 0.209019
0.233266 0.149914
-0.053175 0.044813
0.232884 0.093419
-0.037990 0.072569
0.375057 -0.097812
-0.196230 0.148098
-0.107244 0.369125
-0.218064 -0.324013
-0.272367 0.092485
-0.140366 -0.224125
-0.166725 0.298094
0.022003 0.040114
0.021118 0.225062
-0.020516 -0.159989
0.212050 0.169729
0.109549 -0.080605
-0.496280 0.089999
0.475197 0.282559
0.029339 0.148374
-0.033915 0.014459
-0.254109 0.005307
-0.050946 0.069591
-0.152957 0.416962
0.270456 0.763909
0.189626 -0.134174
0.141200 -0.141033
-0.567596 -0.302215
-0.540528 -0.208308
0.452923 -0.046187
-0.000199 0.389401
-0.099729 -0.555639
-0.006659 -0.302903
-0.077750 0.821554
-0.177575 0.145098
0.562967 0.109228
0.498480 -0.171003
-0.363786 -0.358079
0.010206 0.366503
-0.083364 0.712759
0.045533 -0.011379
-0.247472 -0.419956
0.439128 -0.513729
-0.060289 0.096892
-0.350821 1.008695
-0.090281 -0.746900
-0.266342 0.103768
-0.205369 -0.193237
-0.249157 -0.534530
0.454858 -0.073974
0.547761 0.598686
0.379494 -0.085235
-0.389481 -0.238356
0.195599 -0.448770
-0.967690 -0.713535
0.159210 0.311646
-0.106230 0.052549
-0.048292 0.071658
0.547496 -1.191134
-0.487168 -0.160281
-1.359737 0.184399
-0.786115 -0.352470
0.840704 0.456592
-1.292934 0.669558
-0.608349 -0.445783
0.379455 0.437104
-0.784687 1.270688
0.622129 -0.330889
0.403772 0.140299
-0.447060 -0.308606
-1.320233 -0.275128
0.953159 0.677695
0.328115 -0.061704
-0.777936 -0.031974
0.309993 -1.339423
-1.449788 0.704457
0.161799 -0.692661
1.345624 0.958414
0.446633 0.562343
0.209653 -0.968825
-0.395825 0.287593
-1.708637 -0.550889
1.853263 0.400423
-2.522765 0.629550
-0.425746 0.240635
1.061246 -0.957335
-0.850397 1.229957
-1.998379 -1.624393
-0.823987 0.785319
1.639903 0.782979
-2.161145 1.431503
2.951250 -3.880649
-2.215152 0.947150
-2.806543 1.840124
-1.322564 -1.786554
6.229547 5.071544
-0.419603 -3.376356
-0.669226 0.335007
1.290405 2.442281
-3.966748 6.894370
2.361972 -3.819487
0.617867 -0.627345
-1.695393 0.946051
-1.335711 -1.214702
11.955356 5.933151
4.382512 5.813209
-0.714649 -7.800887
-4.575727 -12.159435
-0.004619 -1.919135
-5.699041 4.634365
9.861913 -0.509412
33.925260 -8.460399
31.619485 6.608036
-30.758892 -25.628960
-61.683413 -73.040699
-11.240638 -21.361595
-1.482077 9.318767
25.854751 -40.268672
453.653671 -385.190970
-1276.839308 458.291777
