6576.605949 7793.166804
397.757442 -775.875827
-114.556872 -152.899638
-144.541777 -545.253390
-552.907833 -256.085294
87.454493 23.697561
-320.668029 271.523522
85.101413 6.905796
-63.422697 56.336904
-1.752907 -77.010575
6.949035 6.907556
57.007996 43.407490
-29.397073 60.946012
-62.230327 -47.245140
2.810761 4.461788
-13.011368 13.470591
-4.104027 5.500290
-11.670504 -50.666912
-13.276820 15.412046
7.003702 -8.216973
3.888974 0.621387
-2.601557 2.971668
7.430851 3.614381
0.395459 10.204653
2.223993 14.104196
-9.718359 -3.171783
-10.311623 -3.382420
-6.889749 3.066414
0.998302 -1.462776
-8.507732 -11.540639
5.494463 -4.144814
2.474225 -4.143811
-0.820117 6.043649
10.495864 -3.431833
0.680328 -0.809408
-4.793855 11.770362
1.624994 6.557372
-4.804654 -1.916539
-4.576478 -0.470918
-2.955506 -3.229037
-4.594264 -0.555407
-1.709908 -3.864333
5.562979 -7.653977
0.075844 -3.340714
4.282794 5.909524
2.741692 -2.434664
2.118035 3.519405
2.200081 5.040122
-5.411146 1.038686
-5.605233 2.661876
2.448470 0.038026
-5.034646 -4.840837
-1.699742 -1.630180
1.086599 -2.615182
1.614458 -4.545037
2.639111 -0.019755
5.616567 -0.392623
-1.399401 1.354879
3.180979 4.605489
0.865192 1.133224
-4.055203 2.443256
-2.179943 1.996656
-1.471384 -3.440930
-3.031987 0.411003
1.769490 -2.737926
-0.102040 -4.776026
1.937017 -0.595700
4.406086 -0.440061
2.902280 -1.691996
1.282602 4.282944
1.719186 1.481760
-1.971637 1.735926
-0.341849 3.564695
-1.248944 -0.239854
-4.011882 -2.164830
0.259710 0.012039
0.955476 -3.156804
-1.082636 -0.740674
3.590810 -2.081805
2.693983 -1.510310
0.815158 2.944877
2.927383 2.045186
0.169077 -0.027061
-1.503844 3.496689
-0.416371 0.727302
-3.501642 -0.328111
-1.869266 -0.621845
0.794632 -2.653888
-1.738924 -1.803406
0.761298 0.053190
3.163049 -3.074561
1.304618 0.654383
1.836367 2.080372
0.378392 0.613928
-0.760113 2.211026
0.873461 2.475799
-2.524774 -1.421474
-2.569319 0.606268
0.311546 -0.819970
-1.539322 -2.334211
-0.287251 -1.475295
2.935988 -1.893393
0.330812 -1.003830
2.669324 1.824518
2.248785 0.164199
-0.276719 1.519618
-0.370852 2.428694
-0.322646 -0.023223
-2.301186 0.663750
-0.132678 0.126245
-1.274822 -2.879982
-0.580393 -0.662454
1.745820 -1.121910
0.907781 -2.005233
0.739870 0.418404
3.050645 -0.098079
0.571343 0.458569
0.702958 3.335746
0.003462 0.994163
-1.472142 -0.009206
-0.625062 1.763749
-0.762027 -1.228427
-1.841843 -1.673675
1.569893 -1.254006
1.307516 -2.037187
0.509175 -0.163311
2.225399 0.224232
1.290519 -0.478969
-0.064541 2.726051
1.233802 1.520978
-0.369941 0.187260
-0.794243 1.406062
0.019140 -0.437733
-1.725577 -1.161710
-0.604367 -0.270605
1.345639 -2.085483
-0.239278 -0.795607
1.515539 0.580676
1.740972 -0.950158
1.027545 0.835211
1.294087 1.755386
-0.576894 0.076771
-1.460598 1.626382
0.057117 0.657441
-1.999129 -0.994239
-1.107248 -0.049479
0.906421 -1.162814
-0.169163 -2.122650
0.960366 0.112245
2.032328 -0.960056
0.538891 -0.259082
1.330197 1.361022
1.146477 0.178022
-1.269436 1.076300
-0.168878 1.412381
-0.910432 -0.840408
-1.422749 0.245996
0.424324 -0.724052
0.011899 -2.336504
0.177187 -0.642517
2.099749 -0.631613
0.752254 -1.260857
0.456882 0.741747
1.346583 0.106103
-0.182325 0.567224
0.233747 2.017159
-0.120211 0.087828
-1.658996 -0.721679
-0.124456 0.143587
-0.202195 -1.522848
-0.605356 -1.156481
1.698727 -0.866707
1.076980 -1.169134
0.222287 0.036566
2.174464 0.380137
0.917048 0.091325
-0.122339 1.941364
0.328437 0.801857
-1.388614 -0.478428
-0.756578 0.366877
-0.068914 -1.026796
-1.386739 -1.335554
0.406012 -0.274722
1.019852 -1.080068
0.356806 -0.462507
1.525058 0.499969
1.623739 -0.736185
0.154247 1.227815
0.467782 1.507488
-0.845104 0.107498
-1.132704 0.496569
-0.155718 -0.022486
-1.100002 -1.394850
-0.260565 -0.703014
1.308581 -0.870175
-0.111569 -0.788591
0.951219 -0.156289
1.957581 -0.493336
-0.014382 0.735002
0.680108 1.637365
0.543521 0.000091
-0.962807 0.654702
-0.468489 0.431840
-1.236247 -1.180145
-0.685801 -0.141495
0.984436 -0.521000
0.362251 -1.427605
0.451265 -0.083156
1.905447 -0.276325
0.371833 0.182980
0.581958 1.584010
0.774596 0.573843
-0.751838 0.222931
-0.568075 1.241693
-0.507017 -0.700092
-1.195230 -0.866682
0.248908 -0.375851
0.166740 -1.252668
-0.534701 -0.675608
1.801086 -0.019918
1.240459 -0.433016
0.355787 1.067768
1.066990 0.837211
-0.595099 0.220386
-0.909139 1.136918
0.082974 0.313671
-1.300368 -0.924191
-0.331459 -0.066635
-0.176842 -1.363256
-0.391514 -0.585849
0.486447 -0.464886
1.251046 -1.279664
0.377054 0.019041
1.248404 0.832521
0.562307 -0.277733
-0.255904 0.747030
-0.132422 0.686164
-0.732802 -0.415561
-1.470172 -0.079808
0.188928 -1.014545
-0.176712 -0.809561
0.524606 0.066653
1.371005 -0.432740
0.561730 -0.242002
0.805081 0.622731
1.347523 0.642763
0.141003 0.612471
0.261330 0.689761
0.150363 -0.135920
-0.956278 0.627345
-0.214555 0.543253
-0.416827 -1.102527
-0.731165 -0.727860
0.869893 -0.625625
0.215644 -0.684266
0.962021 0.450064
1.445464 0.270746
0.343092 0.274911
-0.031143 1.683860
0.176745 0.025787
-0.896052 0.032066
-0.457359 0.686708
-0.522796 -0.308434
-0.546735 -0.646495
0.226133 -0.079098
0.404010 -0.761756
0.025087 -0.137515
1.200301 0.176457
0.837325 0.177685
0.005558 0.918105
0.352056 0.928262
-0.272440 0.563902
-0.633777 0.863581
-0.260451 -0.452048
-0.724424 -0.593495
0.150348 -0.341587
0.593102 -0.886969
-0.220752 -1.010583
1.049928 -0.033818
0.925198 -0.479811
0.203340 0.363096
0.530142 1.202407
-0.376185 0.178832
-1.161124 0.694942
-0.437515 0.468915
-0.593457 -0.667715
-0.622727 0.298042
0.522178 -0.723258
-0.163491 -0.817170
0.748127 -0.354505
0.963734 -0.371494
0.087108 0.226608
0.559723 0.854721
0.511136 0.081038
-0.514817 0.433177
-0.357579 0.839275
-0.135620 -0.440017
-0.840757 -0.166731
0.162573 0.103449
-0.161133 -1.599087
0.398918 -0.591452
1.304813 -0.218206
0.410312 -0.327926
0.480733 0.796017
0.566260 -0.125619
-0.107750 0.069173
-0.168596 0.698433
0.107823 -0.010977
-0.817984 -0.070861
-0.900032 0.224214
-0.189090 -0.952346
-0.062634 -0.752476
0.708611 -0.379160
0.015739 -0.914735
0.368840 0.213185
1.057593 0.372518
0.634781 0.450268
-0.345716 1.022339
0.224710 0.340167
-0.815524 0.023762
-0.309430 0.175248
-0.114177 -0.918651
-0.742191 -1.109613
0.222962 0.184112
0.903145 -0.798079
0.031578 -0.293699
1.102229 0.263510
0.452263 -0.284748
-0.282640 0.662512
0.183262 0.694170
-0.673098 -0.025252
-1.091545 0.614165
0.231429 -0.536577
-0.849751 -0.783031
-0.144795 -0.297385
0.566053 -0.821421
0.389089 -0.990527
0.810135 0.418599
1.127309 -0.441132
-0.136836 0.476179
0.397335 1.083125
-0.026290 -0.273736
-0.545875 0.462122
-0.322000 -0.008601
-0.182777 -0.495702
-0.839362 0.178800
0.484521 -0.325905
0.332779 -0.500848
0.448760 0.124590
1.256969 -0.183286
0.051703 -0.172726
-0.170177 0.889175
0.776721 0.309969
-1.006925 0.194221
-0.500851 0.601896
-0.477233 -0.622969
-0.514758 -0.191402
0.441023 0.083860
0.231092 -0.664361
-0.183988 -0.487017
0.717866 -0.088328
0.339643 -0.726115
-0.039548 0.471335
0.302724 -0.057309
-0.249782 0.134369
-0.420435 0.701077
0.171249 0.275474
-0.793818 -0.593193
-0.379362 -0.114031
-0.279663 -1.045752
0.163249 -0.759478
0.712772 -0.111951
0.144422 -0.301909
-0.068019 0.052950
0.553388 0.881240
0.226294 0.342290
-1.095580 0.508671
0.120173 0.377581
-0.449416 0.017561
-1.084136 -0.112051
-0.177651 -0.691661
-0.096398 -0.833951
-0.053174 -0.137544
1.139833 -0.865207
0.312691 -0.441528
0.787744 0.340286
0.154149 -0.006154
-0.274433 -0.116983
-0.056217 0.272452
-0.250127 -0.354879
-0.716937 -0.182378
-0.352204 0.174587
-0.104781 -1.090768
-0.059243 -0.299193
0.492088 -0.491605
0.353820 -0.667660
0.417150 0.682127
0.493826 0.364587
0.350305 0.255158
-0.315650 1.172618
0.152215 0.359986
-0.815985 -0.017035
-0.031352 0.425554
-0.149878 -0.288922
-0.515769 -0.580132
0.340042 -0.454918
0.357547 -1.149619
-0.015968 0.032321
1.215913 0.305843
0.024012 -0.646829
-0.224183 0.994697
0.086651 0.207670
-0.557435 -0.019407
-0.509771 0.241748
-0.538480 -0.191196
-0.590433 -0.580156
-0.141703 0.045324
0.140674 -0.961878
0.341415 -0.705518
1.219298 -0.052792
0.113136 -0.731616
-0.067895 0.821626
0.334419 0.697486
-0.050050 0.382322
-1.040951 0.596388
-0.153939 -0.075331
-0.714567 -0.720159
-0.277229 -0.013700
0.371182 -0.670046
0.288846 -0.643661
0.833084 0.068359
0.876724 -0.291239
0.180042 0.192577
0.163375 0.518772
0.180666 0.111496
-0.742368 0.327547
-0.206461 0.540087
-0.116033 -0.651829
-0.647533 0.063406
0.118291 -0.433019
-0.144559 -0.905612
0.163951 -0.181743
0.560995 0.066131
0.437669 -0.922972
0.280787 0.411047
0.257245 0.299982
-0.093218 0.308173
-0.799553 0.950527
-0.407064 0.184445
-0.870722 0.115960
-0.135208 -0.132434
0.238937 -0.938530
-0.378728 -0.887216
0.531664 -0.125109
0.526985 -0.893536
0.426097 -0.169332
0.627667 0.392656
-0.279197 0.046956
-0.327252 0.596191
0.187776 0.104233
-0.694507 -0.252264
-0.746056 0.060125
0.235913 -0.270913
-0.516940 -0.687099
0.174645 -0.168410
0.622247 -0.893068
0.030700 0.043904
0.287393 0.368267
0.198959 -0.212410
0.176922 0.370714
-0.016452 0.381154
-0.422312 -0.001836
-0.580022 -0.024727
-0.101794 -0.451990
-0.490304 -0.404055
-0.265059 -0.165120
0.626712 -0.530993
0.325600 -0.600074
0.485889 0.224971
0.635012 -0.210013
0.025704 0.194079
0.285178 0.860019
0.279848 0.312907
-0.464383 0.249947
-0.439853 0.023504
-0.601107 -0.454022
0.122525 -0.030326
0.699918 -0.303120
0.003123 -0.646107
0.269949 -0.294191
0.852009 0.486509
-0.245512 -0.405772
-0.055239 0.918043
0.608397 0.351685
-0.273814 0.366394
-0.469101 0.595282
-0.125622 -0.742463
-0.541095 -0.082103
-0.284843 -0.199469
0.430098 -0.801347
0.171851 -0.540180
0.663424 0.352649
0.603529 -0.250836
-0.092823 0.533251
0.620102 0.624685
-0.829600 -0.116771
-0.595105 0.452408
-0.073671 -0.159431
-0.445874 -0.387767
-0.279361 0.160190
0.079911 -0.927418
-0.327629 -0.440117
-0.070769 0.192276
0.596004 -0.402633
0.049439 0.254609
0.610547 -0.015177
-0.269744 0.241650
-0.363130 0.163812
-0.286535 0.344219
-0.421286 -0.374112
-0.253394 -0.628193
-0.346516 -0.520172
-0.281193 -0.675781
0.019276 -0.024829
0.569606 -0.630475
0.480301 -0.395373
1.079102 0.519047
0.193263 -0.182840
-0.539515 0.362103
-0.186954 0.543106
-0.251314 -0.238165
-0.840038 -0.094780
0.100091 -0.323488
0.048959 -1.196314
-0.355573 -0.606635
0.396644 -0.168090
0.819276 -0.767622
0.628934 0.416155
0.854901 0.151976
0.201831 0.012872
0.061020 0.733021
0.127112 0.017424
-0.840080 -0.064424
0.133530 0.021147
-0.155028 -0.592137
-1.028563 -0.249311
0.188074 -0.255244
0.411653 -0.697551
0.445609 0.120857
1.076498 0.104717
0.251007 -0.098213
0.236989 0.295305
-0.151942 0.781277
-0.453605 -0.257261
-0.407136 0.433603
0.321592 -0.617702
-0.105141 -0.757137
-0.180591 0.035211
0.247595 -0.881521
0.483730 -0.869719
0.279509 -0.204246
0.323455 -0.121159
0.398519 0.406461
0.220648 0.687381
-0.422518 0.031431
-0.411514 0.589197
-0.108920 0.022712
-0.599238 -0.506522
-0.334270 0.093743
0.346085 -0.766618
0.198805 -0.227139
0.681271 0.235193
1.015932 -0.376260
-0.034305 -0.382124
1.093280 0.744191
-0.011227 -0.500881
-0.713029 0.131625
0.290902 0.157310
0.069622 -0.240268
-0.557945 -0.173412
0.567775 -0.349067
0.147363 -0.374275
0.174004 0.177691
0.162369 -0.221492
0.448675 -0.232536
0.168810 0.489262
0.555027 0.076872
-0.495695 -0.011055
-0.213150 0.624752
-0.339122 -0.366708
-0.432582 -0.348096
-0.188733 -0.367508
0.160887 -0.784190
0.220407 -0.133870
0.468162 -0.529205
0.538179 -0.469959
0.474548 0.299543
0.582139 0.628097
-0.199215 -0.064476
-0.414715 0.540751
-0.059178 0.325500
-0.939689 -0.197795
-0.662095 -0.023600
-0.063131 -0.453991
-0.733679 -0.267552
0.075012 0.211423
0.497992 -1.035636
-0.072106 -0.495605
0.350730 0.264663
0.257217 -0.045030
-0.442404 0.646986
0.015979 0.369264
-0.176904 -0.317312
-0.594490 0.569152
-0.437079 -0.289318
-0.550737 -0.717320
-0.125912 -0.724489
0.536621 -0.108172
0.086093 -0.304824
-0.059869 -0.105983
0.667813 0.207460
0.036104 0.193619
-0.168857 0.732532
0.250331 0.124676
-0.788400 0.372763
-0.091403 0.308595
-0.145700 -0.497625
-0.428295 -0.029852
0.703327 -0.426035
0.250596 -0.460499
0.378803 0.487728
0.767427 0.131705
0.346292 0.041583
-0.032192 0.556041
0.021005 0.291829
-0.504633 -0.035131
0.114458 0.003413
0.005524 -0.662207
-0.566994 -0.342627
0.231490 -0.446953
0.488409 -0.301138
0.078243 -0.602648
0.589322 -0.098244
0.419935 -0.326316
-0.082668 0.325486
0.752489 0.584911
0.050294 0.126339
-0.472821 0.479335
0.005659 -0.440913
-0.742339 -0.483007
-0.100494 0.004181
0.247665 -0.766665
-0.080573 -0.495524
0.268292 -0.240658
0.362797 -0.214734
0.147008 0.321649
0.352520 0.320306
-0.048515 0.065173
-0.419143 0.810574
0.126558 0.567707
-0.715294 -0.638215
-0.573088 -0.236831
-0.061324 -0.269986
0.073681 -0.536162
0.268475 0.069242
0.777960 -0.225066
0.107892 0.202166
0.509004 0.740886
0.417898 -0.014271
-0.209537 -0.021812
-0.088476 0.477475
-0.057729 -0.371711
-0.676632 -0.143867
0.119849 -0.377364
-0.304760 -0.682442
-0.005749 -0.567740
0.724867 -0.154853
0.344133 -0.625506
0.036379 0.074228
0.713422 0.204289
-0.028347 -0.062673
-0.152722 0.429931
-0.350816 -0.243671
-0.885562 0.012847
-0.409388 -0.033932
0.195999 -0.587392
-0.575001 -0.511486
0.158034 -0.577910
0.731152 -0.523211
0.200948 0.427910
0.387200 0.145623
0.073060 0.039688
-0.444449 0.669835
0.002646 0.439219
-0.451484 -0.012885
-0.024580 0.379082
-0.061172 -0.214422
-0.450067 -0.643111
0.328061 -0.099205
0.537745 -0.370629
-0.039241 -0.653339
0.826711 -0.209345
0.430787 -0.296525
-0.165506 0.728589
0.306931 0.466345
-0.300165 -0.145163
-0.233988 0.166761
-0.066031 0.075815
-0.696246 -0.648287
-0.344535 -0.547973
0.383207 -0.187908
0.199400 -0.699645
0.093713 -0.422348
0.829689 -0.296165
-0.009974 0.116838
0.117729 0.951776
-0.006756 -0.377158
-0.607003 0.266848
-0.204595 0.418765
-0.434940 -0.677322
-0.496205 -0.583464
0.331685 -0.411551
0.001745 -0.454606
-0.088260 -0.172669
1.009990 -0.027831
0.095536 0.187560
0.164847 0.773793
0.057762 0.330683
-0.381260 0.568878
-0.408807 0.538198
-0.152342 0.114660
-0.620029 -0.150985
-0.199967 0.306522
0.161446 -0.406181
-0.040234 -0.692166
0.655473 0.108639
0.622775 -0.468495
-0.245836 0.311845
0.867215 0.609186
0.146405 -0.307181
-0.084657 0.790186
-0.010189 0.254334
-0.530391 -0.247609
-0.376749 -0.217589
0.038308 -0.439658
-0.703153 -0.398947
0.472444 -0.552484
0.971584 -0.286111
0.278551 -0.117363
0.394471 0.118884
0.512400 -0.018663
0.302147 0.528692
0.244675 0.430247
-0.411920 -0.134103
-0.412890 -0.301033
-0.045527 -0.089786
-0.340621 -0.749532
0.177788 0.129597
0.397829 -0.337485
0.040630 -0.615219
0.571538 0.316815
0.695723 -0.155200
-0.518397 0.125061
-0.113798 0.638430
-0.443405 -0.577428
-0.462551 0.009105
-0.176908 -0.184004
-0.421545 -0.815975
-0.106113 -0.402347
0.565304 -0.252108
0.155297 -0.955948
0.070111 0.207818
0.963791 0.279641
0.579345 0.278700
0.124949 0.872860
-0.304685 0.054086
-1.003088 0.228793
-0.377588 0.176770
-0.640384 -0.702645
-0.794764 -0.543506
-0.052217 -0.615123
0.095839 -0.462324
0.259904 -0.279229
0.358886 -0.302355
0.154023 0.126215
0.023819 0.653567
0.020510 0.075596
-0.542202 0.130995
-0.435732 0.943280
-0.153727 -0.440091
-0.637361 -0.049501
-0.168822 0.203844
0.501392 -0.588591
-0.120079 -0.894780
0.194341 0.273322
0.395267 -0.979945
0.235782 0.286461
0.245963 0.463507
0.133082 -0.189630
-0.758758 0.268966
-0.321119 0.108671
-0.777186 -0.729778
-0.815526 -0.525976
0.130009 -0.114234
-0.119448 -0.646214
-0.072882 0.180605
0.487721 -0.507462
0.047970 -0.006789
0.837128 0.202401
0.341881 0.028080
-0.323732 0.256482
-0.337714 0.305905
-0.490519 -0.267960
-0.718775 0.272892
-0.165276 -0.163346
-0.110670 -0.674492
0.055041 -0.698258
0.521730 -0.179269
-0.204922 -0.538520
-0.337450 0.119716
0.546129 0.266559
0.156334 -0.060784
-0.280543 0.682427
-0.454400 -0.242566
-0.512961 -0.627050
-0.350123 0.183817
-0.089480 -0.710216
0.187208 -0.144035
0.381514 -0.369580
-0.060819 -0.765606
0.020214 0.215821
0.591949 0.058731
0.410128 -0.204488
-0.324877 0.638191
0.155158 0.067408
-0.989257 -0.405674
-0.805069 0.739835
0.314686 -0.429322
-0.478950 -0.941580
0.231770 -0.216930
0.568254 -1.157211
0.144541 -0.004811
0.356066 -0.093162
0.739612 0.013458
-0.156998 0.792434
0.112858 0.612912
-0.352816 -0.107683
-0.884539 0.032548
-0.183824 -0.009481
-0.608316 -0.667131
0.366941 -0.516675
0.183606 -0.187977
0.053195 -0.773539
0.307244 -0.041631
0.634683 0.027944
-0.179627 -0.101548
-0.219064 0.579031
0.290637 0.000301
-0.871323 0.532493
-0.482476 0.238351
-0.150741 -0.666160
-0.472712 -0.399388
-0.222167 -0.306427
0.072392 -0.512719
0.394682 -0.582464
0.985212 0.184933
-0.149013 -0.176654
0.087415 0.804912
0.376254 0.151481
-0.361036 0.309882
-0.398882 0.674155
-0.298391 -0.537235
-0.854988 -0.333353
-0.320707 0.076885
-0.273279 -0.635884
-0.379116 -0.445514
0.907292 0.192603
0.722285 -0.511999
0.103181 0.353181
0.283149 0.433602
-0.206503 0.138321
-0.352942 0.827977
-0.033293 -0.202974
-0.633599 -0.518555
-0.500739 0.369874
-0.221813 -0.878687
-0.415519 -0.873845
0.568463 0.133711
0.815508 -0.483026
-0.116139 -0.110775
0.615137 0.420287
0.322036 0.514968
-0.333061 0.589250
-0.254202 0.505688
-0.453058 -0.366739
-0.844061 0.106511
-0.035183 -0.726755
-0.251304 -0.808166
-0.264360 -0.495425
0.370453 -0.338326
-0.154743 -0.434346
0.231173 0.318066
0.569424 0.106781
-0.155634 -0.020853
-0.197376 0.660467
0.175897 -0.398170
-0.943667 0.233554
-0.352083 -0.152121
-0.041748 -0.709513
-0.616919 -0.118725
0.145707 -0.395591
0.101209 -0.778508
0.219272 0.124258
0.962428 0.587260
0.117963 -0.188739
0.088556 0.658164
-0.036975 0.197970
-0.751752 -0.379963
-0.690588 0.050915
-0.717233 -0.753679
-0.478529 -0.641599
0.303512 -0.153075
-0.032047 -0.886818
-0.058870 -0.141986
1.099260 0.403693
-0.376694 0.012156
-0.438958 0.551273
0.109300 0.540865
-0.002669 -0.010717
-0.576935 0.102816
-0.551190 -0.725175
-0.459154 -0.644281
-0.134433 0.481607
0.008515 -1.031883
-0.181017 -0.309686
0.853137 0.228949
0.158178 -0.552338
0.054728 0.331055
0.503008 0.258734
0.066106 0.230738
-0.605890 0.359555
-0.179878 0.124421
-0.394041 -1.094177
-0.674129 0.211825
-0.066968 -1.084081
0.201554 -0.641121
0.421534 -0.031557
0.470676 -0.190563
0.167258 -0.386550
0.589823 0.375304
0.162502 0.200192
-0.554235 0.635016
-0.511644 0.450707
-0.356449 -0.237702
-0.860032 0.168159
-0.596074 -0.372677
0.334335 -1.043170
-0.297180 0.046883
0.672301 0.297962
0.186361 -0.343393
-0.090126 1.026106
0.822858 0.302325
-0.200659 0.215418
-0.234091 0.476514
-0.344155 0.074090
-0.993869 -0.475275
-0.332607 -0.181166
-0.449216 -1.383237
-0.643652 -0.952622
0.715167 -0.123637
0.475773 -0.774243
0.144860 -0.222556
0.446807 0.570348
-0.148039 -0.036635
-0.677860 0.483253
0.268210 0.296641
-0.923927 -0.151867
-0.653571 0.369306
0.006620 -0.578116
-0.285126 -0.631547
0.093304 -0.180720
0.623990 -0.559660
0.118616 -0.497422
0.629523 0.683958
0.231040 -0.035296
-0.514645 0.403266
0.565103 0.794046
-0.496341 -0.059616
-1.096465 0.181977
-0.376640 -0.575825
-0.459529 -1.310176
-0.629959 0.133288
0.135815 -1.600006
0.277784 -0.925371
0.730087 0.312981
0.689317 0.282544
0.110245 0.152352
0.041315 0.777042
0.126364 0.320231
-1.031523 0.194464
-0.366656 -0.250886
-0.852113 -0.995676
-0.867911 -0.299850
0.068965 -0.329234
0.418858 -0.782671
0.233500 0.007112
1.005435 0.062476
0.214809 0.033469
0.563349 0.716219
-0.139807 0.672097
-1.040856 0.416225
-0.838790 0.408946
-0.017331 -0.411939
-1.495049 -0.264674
-0.101604 -0.331105
0.018457 -0.778880
0.087891 -0.425945
0.657780 0.011447
0.023243 -0.566926
0.019101 0.251027
0.699068 0.600946
-0.646502 0.189854
-0.120985 0.420239
-0.604748 -0.153920
-1.060288 -0.265811
-0.697237 -0.159157
0.227282 -0.878248
-0.090670 -0.602347
0.381446 0.042294
0.597891 -0.607545
0.108500 -0.266663
0.880216 0.645411
-0.096255 0.350570
-0.923976 0.341220
-0.278347 0.154931
-0.905482 -0.323745
-0.754558 0.205727
-0.407613 -0.487323
-0.544441 -0.953756
-0.206461 -0.082639
0.776210 -0.809630
-0.047736 -0.807297
0.500103 1.031199
0.619875 0.126993
-0.264828 0.060657
0.176056 1.054575
-0.139706 -0.168243
-1.144136 0.216917
-0.591035 -0.232402
-0.420704 -1.842177
-0.559056 -0.333921
0.364822 -0.781088
0.482525 -0.864520
0.496235 0.569432
0.618199 0.532550
-0.264371 -0.186878
-0.602037 0.687603
-0.023625 0.487004
-0.763516 0.252960
-0.836939 0.494975
-0.157857 -1.147249
-1.147669 -0.742157
0.132039 -0.517154
0.597726 -0.993567
-0.132872 0.249501
0.732636 0.267057
0.339418 0.078574
0.031579 1.378707
0.193853 0.717887
-0.812611 0.210605
-1.388101 0.362476
0.230719 -0.156395
-0.913052 -0.806472
-0.170493 -0.287862
0.509422 -0.550412
-0.429666 -0.509275
0.745529 0.164693
0.496018 -0.604451
-0.095110 0.003564
0.336091 1.141084
-0.609008 0.215166
-1.294333 0.351993
-0.307375 0.100216
-1.232230 -0.712456
-1.347161 0.069785
0.492507 -0.837675
-0.283335 -1.335638
-0.064880 0.564714
1.062982 -0.258283
0.408130 -0.206095
0.635093 1.410913
0.167365 0.176490
-1.137673 0.081285
-0.316856 0.909539
-0.599281 -0.337374
-1.321242 -0.162568
-0.301061 -0.633163
0.192471 -1.310879
0.032843 -0.026657
0.887790 -0.248014
0.282872 -1.028500
0.641781 0.824942
0.775218 0.492539
-0.411763 0.193392
-0.535462 1.177303
-0.351975 0.188117
-1.411765 -0.048672
-0.779413 -0.136847
0.195351 -1.239799
-1.007720 -0.592242
0.646723 0.140349
1.045784 -0.967982
0.164082 0.737328
0.726991 1.101590
-0.455135 -0.020288
-0.779755 1.187065
0.106830 0.723746
-1.550174 -0.036875
-1.270701 -0.026505
0.369460 -0.644072
-0.586191 -0.888676
0.187545 -0.415197
0.799237 -1.408911
0.138207 -0.482010
1.094027 0.750099
0.357244 -0.167010
-0.888462 0.513789
0.297301 1.034831
-1.258689 0.159670
-1.448810 0.134152
-0.274439 -0.255898
-0.757688 -0.760317
-0.319531 -0.290666
0.999891 -0.762143
0.140010 -0.985817
0.375032 0.580574
0.777417 -0.103847
-0.238616 0.391049
-0.415388 1.156648
-0.504394 0.297604
-1.851377 0.033228
-0.586174 -0.029306
-0.891586 -1.214470
-0.938117 -0.565830
0.580045 -0.537425
0.318633 -1.231706
0.076487 0.052450
1.059394 -0.138765
0.144683 -0.411631
0.161150 1.392134
-0.285490 0.467956
-1.543472 0.089862
-0.620289 0.719634
-0.604393 -0.791561
-1.679306 -0.795392
-0.131161 -0.664368
0.177362 -1.494579
0.126833 -0.496658
1.057596 -0.128232
1.277703 -1.012765
0.026302 1.088515
0.577224 0.806620
-0.735095 -0.160974
-1.280778 1.009901
-0.120690 -0.075975
-1.467768 -0.917636
-0.980019 -0.189503
0.559469 -1.453610
-0.691238 -0.389963
0.406442 -0.411699
1.735853 -1.139076
0.173086 -0.026565
0.863900 1.411088
0.381947 0.541493
-1.205324 0.894649
-0.280144 0.281260
-1.627492 -0.708329
-1.686691 0.074485
0.400923 -0.646009
-0.493268 -1.426084
-0.342185 -0.744659
1.448573 -1.368285
0.083072 -0.551432
0.530331 1.047196
0.477987 0.479366
-1.135343 0.808414
-0.328155 1.452905
-0.682330 -0.281433
-2.137520 -0.554540
-0.071624 -0.506998
-0.912584 -1.803046
-1.328550 -1.135800
1.131106 -0.929756
0.734205 -1.505013
0.697646 0.787815
1.327335 0.401873
-0.197845 0.466402
-0.564719 1.923968
-0.826814 0.323839
-1.977326 -0.724706
-0.668385 0.284784
-0.925507 -1.723017
-1.343230 -1.564764
0.161341 -0.691352
1.123871 -1.637749
0.025383 0.487517
1.320685 0.759862
0.432273 -0.434710
-0.009967 1.941803
0.103338 1.136690
-1.509566 -0.480032
-1.841375 0.796674
-1.065561 -0.636802
-1.613425 -0.895463
-0.304778 -0.604205
1.375244 -2.409896
-0.102931 -0.744761
1.177729 0.824345
1.749072 -0.724040
-0.373563 1.448227
-0.484337 2.254517
-1.377429 -0.141606
-2.267377 1.178510
-0.579595 0.498016
-1.773450 -1.506789
-2.065034 -0.980688
0.702173 -1.563959
-0.299869 -1.729294
0.569474 -0.354466
1.972230 -0.899378
-0.549498 0.536344
-0.074581 2.752523
0.272182 0.409621
-2.316261 0.621088
-1.102833 1.509394
-1.844926 -1.246689
-2.268429 -1.593429
0.553718 -1.199413
-0.510186 -2.136581
-1.035071 -0.316150
2.442857 -0.746786
1.051713 -0.834485
-0.044766 1.903316
0.716710 0.702241
-0.839410 0.576799
-1.027226 2.817288
-1.656680 -0.766639
-3.512123 -1.782273
-0.523909 -0.091362
0.007065 -1.999398
-1.234388 -2.541572
2.355812 -0.613034
1.429386 -1.628577
0.037431 2.082680
1.409539 1.719303
-0.380286 -0.325402
-1.658176 2.252064
-0.695187 1.400911
-2.813305 -0.947527
-2.040757 0.387880
-0.483169 -2.516537
-1.399497 -2.471073
0.457696 -0.238189
2.366166 -1.921254
0.015236 -0.768386
1.912953 1.895744
1.561677 -0.072144
-1.753959 3.198625
-0.681144 2.872728
-2.420303 -1.381914
-3.882887 0.727419
-0.557101 -0.831853
-2.314275 -3.596682
-0.449340 -0.932507
1.052861 -2.095936
0.117080 -1.795697
1.601506 0.753182
2.692844 0.624662
-2.716526 1.401969
-1.040424 4.059050
-0.419715 0.431473
-4.367948 0.925359
-2.746742 1.179929
-2.991283 -3.891002
-4.179375 -1.643468
3.326866 -2.454902
-0.120205 -2.644852
-1.162917 0.305088
2.092379 -0.565292
1.973586 0.878105
-1.396102 4.506632
-0.906997 1.326570
-6.035949 -0.072234
-3.022716 3.217993
-2.112500 -1.560021
-5.801390 -5.058575
-0.396159 -0.145083
0.325828 -4.087862
-2.142802 -0.614109
5.640929 -1.406235
0.313391 -0.557532
-1.296374 4.379593
-0.549937 5.471300
-2.828145 -1.235911
-5.067402 2.464259
-4.634882 1.339019
-7.838036 -2.183153
-5.323451 -2.013624
3.087304 -6.704190
-3.248185 -5.419792
-0.650761 4.284581
3.013027 -5.969925
-1.228124 3.267377
2.883120 2.239069
-3.655106 2.114318
-9.411492 9.001376
-6.336273 0.999003
-5.300218 -9.199767
-8.081640 -1.991605
-5.643538 1.839572
-4.121074 -9.626040
-1.585646 -9.550721
7.550233 0.751020
-8.889926 -3.870538
5.989459 9.232278
4.384332 -4.215212
-16.664886 7.343226
-7.281655 6.609382
-12.215830 -1.488381
-9.430652 0.093082
-9.018542 -1.795105
-16.963640 -21.617919
-0.787480 -10.328302
6.181508 9.210035
15.936346 -2.966229
-33.145777 -11.428775
7.545275 -7.725909
4.188779 18.493055
-3.059536 63.102660
-40.506320 -45.376228
-52.348787 -30.065307
3.748306 21.732723
-5.917511 30.159161
-62.682788 -12.906757
14.424672 -66.293279
-52.049741 54.935061
-42.748909 -84.701341
86.781674 79.712688
36.524911 100.070563
-277.190599 -114.217930
9.909428 176.695123
-727.229507 -36.933164
-170.849933 1007.347144
-614.698913 -512.955580
-3795.709671 -4240.460419
