6733.096855 7844.172452
173.726490 -504.832467
-32.530647 192.904325
100.109260 -438.657506
-385.389929 -259.112103
321.463113 39.290018
-307.086801 -48.093832
-58.268941 -41.658866
-130.429887 89.302086
67.401939 -48.957693
10.842865 -43.562834
-17.405587 44.292099
-84.065966 69.099650
-22.574289 -58.880146
-10.348049 8.004550
-15.505313 5.384554
-24.074645 -9.796119
4.534617 -28.666347
-17.784817 18.619400
18.934144 5.836496
5.099636 -1.170209
-9.482353 -6.701041
-9.678564 15.563879
-2.036466 14.595687
-8.391345 2.297761
-10.775157 -10.818860
-2.439584 -1.937691
-0.721284 -7.569609
-7.876989 -2.899342
6.793527 -2.957456
9.650339 3.914518
5.243200 -0.157321
-4.809701 -1.968093
-0.011927 7.942238
-3.084120 8.820988
-3.795503 1.440982
-3.096249 -5.543058
-2.996582 -6.900786
-2.085128 -2.497529
2.914641 -0.575378
3.234596 -1.479589
7.828493 -3.317987
2.007868 2.581426
1.261778 5.938695
-3.600461 2.027113
-0.107986 3.007103
-3.453909 3.681211
-3.241760 -1.475120
-2.153267 -6.606174
-0.352466 -2.460202
-0.148920 0.894144
5.676111 -1.955948
2.832577 -0.744246
2.518683 1.241036
-0.606136 4.448734
0.328724 3.666567
-4.328273 1.575213
-2.533198 1.030982
-3.333205 -0.540499
-1.616385 -2.966524
-1.203031 -3.635743
1.914081 -1.638671
1.670524 1.137432
2.641003 -0.677330
1.275520 1.781276
0.809539 2.402869
-1.896529 2.502352
-1.354052 1.189176
-3.792161 0.613809
-2.277914 -2.131547
-0.914163 -2.636817
0.435835 -2.355442
0.612186 -2.769397
2.419805 -1.718134
2.595350 2.053557
1.611574 1.304454
-0.428805 0.541759
-0.236495 1.668758
-2.328309 2.651655
-1.740975 -0.561249
-1.510200 -2.425196
-0.460544 -1.388667
0.418814 -2.047002
1.385091 -2.439427
1.572864 -0.950862
2.501356 1.185931
1.714292 2.206139
0.183824 1.009680
-1.539306 1.080886
-1.773039 2.212864
-2.585574 0.547414
-1.077856 -1.762028
-0.399016 -2.556648
0.227728 -1.465547
0.642291 -1.062940
2.116443 -0.352010
1.580680 0.860939
0.710411 1.467548
-0.108205 1.510911
-0.294661 1.642849
-2.794907 1.025093
-1.885186 -0.148814
-1.321875 -0.745209
-0.000130 -1.537686
-0.122969 -2.330606
1.227007 -0.719432
1.770664 0.645242
1.645233 0.335028
0.747263 0.911855
-0.060116 1.897905
-1.441874 1.611610
-1.176904 0.300645
-1.181706 -0.063371
-0.622989 -0.422149
-0.574874 -1.360696
0.682436 -1.762887
0.828594 -1.404085
1.874993 0.384873
1.392544 1.386306
0.860207 0.439304
-0.128874 1.299802
-0.906161 2.238796
-2.048376 0.513396
-1.032188 -1.208572
-0.785145 -1.135717
-0.021990 -0.933350
0.588366 -1.729782
1.388379 -1.398179
1.094320 0.700378
0.929060 1.220137
1.145645 0.890385
0.320450 0.666387
-0.938969 0.881885
-1.579926 0.733587
-1.245961 -0.694032
-0.285966 -1.463857
-0.278921 -1.599820
0.362366 -0.637407
0.957012 -0.826260
1.734079 -0.341830
0.321297 0.800572
0.133692 1.289143
0.299575 0.769662
-0.754476 0.846692
-1.786676 -0.052253
-0.914794 -0.129665
-0.188244 -0.711801
0.247197 -1.625105
-0.028893 -1.151838
0.986548 -0.471920
1.390820 0.226017
0.964554 0.640605
0.357883 0.666786
0.087067 1.689911
-0.860661 1.111119
-1.077190 -0.022306
-1.451991 -0.126508
-0.465219 -0.676106
0.294601 -1.005788
0.998884 -1.161525
0.570890 -0.583883
1.280011 0.922214
0.952493 0.503376
0.352700 0.634310
-0.067112 0.878771
-0.551383 1.108631
-1.230743 -0.168047
-0.647485 -0.894917
-0.686737 -0.714780
0.100574 -0.509477
0.975245 -1.430487
1.251816 -0.750536
0.291310 0.222354
0.859454 0.643325
0.738665 0.854308
0.019844 0.684187
-1.307821 0.803580
-1.203350 0.041863
-0.568463 -0.582739
-0.338203 -0.810828
0.079854 -1.017916
1.121383 -0.549675
1.186129 -0.406672
1.139357 -0.102489
0.325381 0.731701
0.195842 0.964720
0.208814 0.872214
-0.518848 0.209046
-1.602165 -0.043044
-0.873623 -0.148765
0.001677 -0.837162
0.233117 -1.083720
0.529964 -0.768719
1.093391 0.315519
0.782454 0.452003
0.723615 0.380673
-0.066718 1.206635
-0.495271 1.347649
-0.851509 0.211788
-0.602586 -0.252770
-1.206946 -0.345231
-0.516277 -0.789033
0.387731 -1.375313
0.827086 -0.582666
0.507277 -0.281107
0.604112 0.330475
1.032347 0.603312
-0.226316 1.090741
-0.750886 1.157010
-0.702360 0.330974
-0.795769 -0.245427
-0.630020 -0.548012
-0.665835 -1.097957
0.629838 -0.668957
1.138972 -0.617665
0.636660 0.147551
0.225669 0.377677
0.550627 0.881111
0.337066 1.466700
-0.673954 0.703678
-1.205923 0.280851
-0.424289 -0.298936
-0.472475 -0.656033
-0.205769 -0.727356
-0.028618 -0.743390
0.918193 0.214798
1.008798 -0.146918
0.475205 0.036506
-0.237897 0.700391
0.123799 1.266484
-0.354869 0.684365
-0.657287 0.292176
-0.585485 -0.459735
-0.204527 -0.305522
0.054982 -0.906323
0.291455 -1.103013
0.358049 -0.582210
1.551702 -0.277312
0.619622 0.324301
0.189975 0.421878
-0.298209 1.110811
-0.196847 0.903876
-0.238143 -0.198433
-0.501762 -0.416966
-0.588634 -0.084328
0.097114 -0.156075
0.898865 -0.428660
0.537187 -0.212238
0.291653 -0.068060
0.600071 0.420094
0.549224 0.728810
-0.284695 0.660177
-0.564440 0.717423
-0.727459 0.514374
-0.858213 -0.305182
-0.620405 -0.692935
-0.657320 -0.843309
0.921571 -0.729096
0.991447 -0.043144
0.433113 -0.005969
0.532811 0.376032
0.544766 0.838127
-0.265235 0.646012
-0.768857 0.473739
-0.871683 0.079752
-0.227622 0.080929
-0.093196 -0.457771
-0.443119 -1.073468
0.494832 -0.474418
1.000165 -0.221267
1.281644 -0.497549
0.566685 0.267667
0.009375 0.662850
-0.267978 0.955944
-0.673251 -0.218236
-0.678400 -0.117291
-0.788305 -0.309358
-0.172204 -0.676773
0.000413 -0.851024
0.227993 -0.501801
0.129497 -0.205722
1.048059 0.220341
0.739491 0.326770
-0.124700 0.782344
-0.690255 0.491457
-0.446920 0.456527
-0.733514 -0.341330
-0.804891 -0.566562
-0.609255 -0.397283
-0.045315 -0.845135
0.460277 -0.880331
0.577039 -0.478433
0.551278 0.206754
0.541331 0.619082
0.075223 0.546676
-0.337292 0.512788
-0.413424 0.095072
-0.429871 0.364976
-0.732335 -0.174236
-0.216093 -0.686811
0.022538 -0.486404
0.492175 -0.444785
0.810395 0.057744
0.529485 0.113984
0.423301 0.587669
0.344682 0.666563
-0.274974 0.369683
-0.284478 0.405439
-0.524106 0.274768
-0.404709 -0.234199
-0.143737 -1.286956
-0.125140 -0.250010
0.182021 -0.069901
0.757202 -0.019933
0.696630 -0.297099
0.554407 0.815324
0.091585 0.811178
-0.179866 0.611645
-0.771548 0.443082
-0.516275 0.221247
-0.664488 -0.344562
0.247909 -0.856040
0.050228 -0.945411
0.500197 0.031559
0.487808 -0.179786
0.615830 0.297914
0.637266 0.406143
-0.227855 0.723320
-0.193127 0.553701
-0.500708 0.332498
-0.674947 -0.622390
-0.591667 -0.584294
0.019456 -0.744161
0.222401 0.008847
0.582041 -0.684187
0.364430 -0.236037
0.675697 0.279917
0.551656 0.722116
0.253389 0.536854
-0.687658 0.545985
-0.374330 -0.025195
-0.404362 -0.208443
-0.011527 -1.100186
-0.019107 -0.285766
0.476923 -0.557308
0.698532 -0.154765
0.405930 -0.319356
0.156768 0.267482
0.550547 0.480844
0.129322 0.217109
-0.055372 0.348064
-0.994903 0.356545
-0.213571 -0.090258
-0.768554 -0.790646
-0.061508 -0.711657
0.004480 -0.535436
0.364263 -0.258592
0.556034 -0.084704
0.448185 -0.074563
-0.016429 0.266003
-0.104291 0.924482
-0.160344 0.493150
-0.186436 0.040253
-0.192937 -0.646402
-0.518465 -0.131759
0.105818 -0.599654
0.361501 -1.278585
0.348589 -0.496967
0.747285 0.185477
0.573471 0.467011
0.145142 0.564593
0.114985 0.620453
-0.327043 0.063741
-0.331886 0.185522
-0.770003 -0.386463
0.103234 -0.248564
0.168580 -0.040731
-0.054507 -0.401605
0.089738 -0.682222
0.457924 0.073194
0.251908 0.430172
0.009525 0.326418
0.181531 0.222727
-0.290317 0.801683
-0.592198 0.107001
-0.392855 -0.773976
-0.182532 -0.656994
-0.174805 -0.527500
0.409457 -0.428927
0.101589 -0.248159
0.364126 -0.050804
-0.311746 0.543369
0.235887 0.529442
-0.208505 0.334690
-0.645790 0.522725
-0.620765 0.415934
-0.568843 0.129415
-0.034758 -0.475156
-0.470654 -0.580164
-0.107176 -0.372528
0.361941 0.012955
0.364021 -0.017785
0.196395 0.138111
0.238995 0.701624
0.104192 0.266385
-0.311445 0.230649
-0.761482 -0.527444
-0.246075 -0.292359
-0.417440 -0.527826
0.472059 -0.968657
0.233152 -0.511754
0.276575 0.341746
0.466284 0.026267
0.270059 0.875794
-0.130203 0.363774
-0.341609 0.416094
-0.334604 0.548516
-0.750922 -0.422664
-0.680239 -0.268492
-0.118559 -0.284227
0.421744 -0.211754
-0.227285 -0.437997
0.226623 -0.486399
0.225099 0.412398
0.422563 0.778799
-0.120075 0.077633
-0.220154 0.098756
-0.205894 -0.074341
-0.472367 -0.300945
-0.176369 -0.536351
-0.329140 -0.759603
0.137275 -0.183624
0.612232 -0.472603
1.005034 -0.115732
0.181976 -0.043484
0.162691 0.663464
0.070296 0.417232
0.122603 0.540192
-0.357656 0.155134
-0.441945 -0.337328
0.024439 -0.708586
-0.146122 -0.239519
0.108453 -0.347053
0.285085 -0.027615
0.760857 -0.209890
0.531202 0.237820
0.097269 0.679390
0.050457 0.784690
-0.332748 0.874408
-0.174631 -0.285495
-0.683231 0.059033
-0.030802 -0.151857
-0.157974 -0.638632
0.649104 -0.162614
0.463029 -0.108417
0.486479 0.323195
0.383602 0.373157
-0.054356 0.579317
-0.184659 0.516515
-0.321306 0.362996
-0.174314 0.115318
-0.199391 -0.092940
-0.371597 -0.570568
-0.148607 -0.482267
0.382650 -0.352945
0.709193 -0.217919
0.670820 -0.225643
0.434276 0.255260
0.638280 0.340883
-0.002367 0.209474
-0.549516 0.704888
-0.156463 -0.060292
-0.391164 0.138942
-0.356188 -0.524816
-0.267951 -0.568035
0.387474 -0.212156
0.518818 -0.524899
0.310050 -0.047958
0.063360 0.340094
0.005677 0.487586
-0.086006 0.436174
-0.680676 0.796237
-0.355271 -0.249942
-0.315625 0.069545
-0.511875 -0.156453
0.047181 -0.601665
-0.000121 -0.311118
0.568700 -0.091062
0.655253 0.214964
0.574355 0.130360
-0.046698 0.351849
-0.154357 0.337891
0.019928 0.301350
-0.562013 -0.266851
-0.573627 -0.435812
-0.598135 0.112696
0.051262 -0.607419
0.166067 -0.365604
0.270195 -0.948954
0.529979 0.061074
0.118600 0.547711
0.498087 0.126100
-0.357125 0.581707
-0.543334 0.194655
-0.644348 -0.192099
-0.121854 -0.315054
-0.254440 0.167663
-0.070813 -0.264145
0.353299 -0.163867
0.466984 0.066204
0.036729 0.294510
0.013724 0.610947
0.256927 -0.167222
-0.286226 0.676536
-0.630753 0.288153
-0.342116 -0.156929
-0.158313 0.139230
-0.115671 -0.336385
-0.026598 -0.357034
0.208956 -0.187958
0.483699 0.214430
0.287197 -0.149107
-0.053190 0.180689
0.227359 0.562410
-0.204650 0.782306
-0.202320 0.264866
-0.747438 -0.409256
-0.381217 -0.274243
-0.082064 -0.530929
0.149334 -0.574273
0.178940 0.040162
0.765541 0.116166
0.472891 -0.149772
0.005121 0.202513
0.022986 0.407475
-0.260139 0.437854
-0.342675 0.554091
-0.436185 -0.318460
-0.169255 -0.333652
-0.086285 -0.087140
0.339273 -0.552327
0.492941 -0.501185
0.112053 0.025056
0.446042 0.263656
0.389643 0.297821
0.142506 0.364660
-0.624996 1.008762
-0.371972 0.374777
0.158937 -0.184901
-0.429730 -0.396564
-0.030122 -0.408134
0.182591 -0.584436
0.943179 -0.079970
0.904819 0.091265
0.425073 0.533684
0.015454 0.551385
0.097419 0.718345
-0.386247 0.332914
-0.560680 0.092227
-0.335759 0.132332
0.026844 -0.385480
0.016509 -0.553119
0.217209 -0.840026
0.414791 -0.087771
-0.062956 -0.235296
0.326222 0.135401
0.256392 0.406297
0.040103 0.620437
-0.009310 0.020088
-0.169713 0.031041
0.010608 0.010956
0.072232 -0.130698
-0.220548 -0.413843
0.286473 -0.417440
0.105206 -0.101899
0.423084 0.232368
0.519394 0.035960
0.034502 0.251210
-0.217028 0.649668
-0.216929 0.423591
-0.350289 -0.161576
-0.349487 -0.439651
-0.329317 -0.457778
-0.268700 -0.664629
0.277958 -0.077993
0.180162 -0.499861
0.241968 0.286152
0.787526 -0.204661
-0.124657 0.779083
-0.532467 0.641568
-0.411450 0.136575
-0.161272 0.133592
-0.423488 -0.410560
-0.283109 -0.298898
0.105911 -0.234946
0.125083 -0.186149
0.639841 -0.210473
0.032742 -0.257276
0.377933 0.439956
0.295589 0.251915
-0.092104 0.280697
-0.502198 0.452501
-0.408779 -0.302356
0.045685 -0.244178
0.069369 -0.191428
0.046223 -0.702918
-0.011427 -0.674181
0.380711 0.010442
0.647037 -0.025187
0.003596 0.377319
0.216348 0.749152
-0.063801 0.212508
-0.307016 0.044931
-0.713085 0.162039
-0.734543 0.036666
-0.303734 -0.482558
0.329966 -0.399762
0.100890 -0.318715
0.617702 0.164111
0.713683 -0.061785
0.833987 0.434928
-0.101465 0.596249
-0.506570 0.256483
-0.638494 0.270141
-0.374157 0.223959
-0.899908 -0.206647
-0.181132 -0.181611
0.402086 -0.057904
0.379622 -0.680267
0.233761 -0.360486
0.252334 -0.406643
-0.123453 -0.139470
-0.090323 0.387990
-0.070629 0.841817
-0.518196 -0.026920
-0.469863 0.224521
0.097536 -0.295910
-0.256492 -0.585929
-0.093276 -0.679649
0.350197 0.020034
0.255264 -0.322000
-0.046814 0.338277
0.235538 0.545863
0.055749 0.001720
-0.143661 0.218637
-0.218846 0.658431
-0.503702 -0.092427
-0.355243 -0.339181
-0.124940 -0.436770
0.136634 -0.260224
0.183216 -0.238999
0.704038 0.225788
0.313981 0.009636
-0.241232 0.424323
0.262054 0.549203
-0.349925 0.264537
-0.460838 -0.037928
-0.628161 -0.405450
-0.245805 -0.625390
-0.013965 -0.665713
0.087823 -0.482769
0.147976 -0.486255
0.287653 0.068988
0.686342 0.563376
0.182395 0.425557
-0.243021 0.411168
-0.070864 0.552639
-0.323284 0.061459
-0.470905 0.231618
-0.576624 -0.326179
-0.116268 -0.187253
0.394963 -0.333310
0.257350 -0.150245
0.354341 -0.381597
0.665573 -0.091405
0.716190 0.501072
-0.254413 0.146909
-0.050361 0.050545
-0.418583 0.541804
-0.464599 -0.345044
-0.415343 -0.208980
0.116118 -0.495100
-0.021033 -0.211353
0.133275 -0.485905
0.199448 -0.041547
0.045924 0.242501
-0.496283 0.446413
0.026398 0.320469
-0.646437 0.044847
-0.130833 0.003975
-0.193730 0.214776
-0.067585 -0.676615
-0.005804 -0.490237
0.403620 -0.167815
0.167061 -0.111892
0.710672 -0.089164
0.360172 0.233854
-0.106458 0.255358
-0.312683 0.486936
0.204116 0.184710
-0.521438 -0.041809
-0.874858 -0.149558
0.200239 -0.429889
-0.003993 -0.679122
-0.084606 -0.493935
0.680130 -0.494694
0.411678 0.244439
0.139348 0.340397
-0.051032 0.495228
-0.080938 0.101897
-0.172164 0.471216
-0.015782 0.336967
-0.493531 -0.924865
-0.670134 -0.470878
-0.031954 -0.348958
-0.113814 -0.563331
0.277338 -0.107162
0.661839 0.271206
0.861858 0.554220
0.217198 0.131945
0.089342 0.229348
-0.416820 -0.220250
-0.635990 0.003653
-0.103330 0.070203
-0.275469 -0.349827
-0.174914 -0.070522
0.215765 0.184992
0.359460 -0.470738
0.593310 0.010385
-0.190874 -0.055266
-0.044627 0.222588
0.069496 -0.006478
-0.411191 0.290044
-0.997228 -0.050510
-0.265305 -0.332357
0.097876 -0.107458
-0.150690 -0.235973
0.170847 -0.443303
0.295768 -0.384241
0.002932 0.510025
0.352485 0.299049
-0.363034 0.595055
0.239532 0.490261
-0.256851 0.267430
-0.700786 -0.382675
-0.386787 -0.070487
0.093619 -0.606399
0.223006 -0.453675
0.116063 -0.203826
0.476174 -0.149112
0.551900 -0.033246
0.593578 0.632522
-0.134095 0.164567
-0.468250 0.547129
-0.457956 -0.107758
-0.092425 -0.301274
-0.127905 -0.518748
-0.306870 -0.241691
0.098051 -0.305589
0.159562 -0.603558
0.427379 -0.025136
0.372829 -0.016841
-0.048853 0.445643
0.229601 0.083319
-0.374380 0.362431
-0.537273 0.459820
-0.213101 -0.260254
0.235979 -0.773061
-0.058208 -0.286640
0.022499 -0.270429
0.393031 -0.438082
0.826373 -0.117158
0.249666 -0.077312
-0.013428 0.709746
0.268174 0.734526
-0.076328 0.210832
-0.734886 0.128815
-0.754473 -0.128850
-0.208941 -0.431587
0.071141 -0.702310
0.068154 -1.027400
0.110985 -0.376825
0.315432 -0.052660
0.269272 0.484718
0.079074 0.469889
0.025342 0.456624
0.056324 0.106542
-0.382936 0.084791
-0.531149 -0.491658
-0.104618 -0.394642
0.217469 0.083894
0.161841 -0.398876
0.085761 -0.263083
0.190246 0.216625
0.116949 0.517185
0.147918 -0.168546
-0.443952 0.184879
-0.135798 0.227864
-0.236528 -0.049423
-0.399414 -0.368079
-0.241285 -0.580779
-0.284824 -0.573502
0.228047 -0.330161
0.105063 -0.256104
0.273404 -0.169686
0.211885 0.336984
0.331334 0.551132
0.036991 0.348834
-0.372657 -0.117179
-0.604253 0.098280
-0.287066 -0.283779
0.023390 -0.498321
-0.630639 -0.497912
0.348881 -0.258696
0.735112 -0.414101
0.388327 0.145955
0.383220 0.453594
-0.126273 0.331339
-0.292407 -0.132954
-0.285530 0.257805
-0.260688 -0.046976
-0.210069 0.052748
0.039805 -0.617280
-0.081661 -0.658987
-0.084505 -0.413744
0.666645 -0.413890
0.736486 0.206890
0.369525 0.247867
-0.083122 0.325084
0.052202 0.560042
-0.292542 0.237541
-0.521663 -0.508470
-0.906880 -0.529953
0.240760 -0.261744
0.157773 -0.592877
0.506477 -0.483765
0.649029 -0.460022
0.410646 0.442298
0.269001 0.369331
0.485908 0.380066
-0.692947 0.526309
-0.609294 -0.253592
-0.354535 0.160988
-0.645086 -0.394643
-0.076051 -0.152705
-0.117351 -0.591006
0.500202 -0.334849
0.315241 -0.255530
-0.015101 -0.085835
0.699645 0.445378
0.422030 0.167656
-0.138331 0.560904
-0.644910 0.120733
-0.288211 0.043249
-0.422735 -0.234295
0.086584 -0.452202
0.139545 -0.134598
0.595886 -0.830643
0.830875 -0.051827
0.056410 -0.241956
0.487092 -0.058820
0.213779 0.426414
-0.244750 0.384334
-0.290404 -0.112734
-0.557086 -0.613950
-0.284727 -0.298569
-0.174195 -0.677096
-0.156614 -0.507093
0.441632 -0.438437
0.537479 0.139181
-0.126903 0.011438
0.266297 0.197516
0.274184 0.746150
-0.354128 0.428257
-0.179467 -0.014184
-0.505766 -0.273605
-0.817903 0.264535
-0.357102 -0.508625
0.238715 -0.355616
0.577254 -0.241772
0.208049 -0.180431
0.232761 0.196308
0.163387 0.221848
0.068016 0.397887
-0.617782 0.415649
-0.188537 0.100800
-0.403704 -0.389290
-0.441889 -0.602323
-0.235291 -0.479214
0.594447 -0.220509
0.483460 -0.328698
0.223347 0.103962
0.035077 0.230356
0.197592 0.693018
-0.111778 0.627867
-0.797673 -0.070572
-0.212034 0.020836
-0.521366 -0.439317
-0.337638 0.006035
-0.009635 -0.649519
0.020370 -0.503080
0.289617 -0.192888
0.213948 0.093161
0.317230 0.124412
-0.202853 0.270374
-0.093323 0.717589
-0.668194 0.580698
-0.449921 -0.190071
-0.486610 -0.159108
-0.234402 -0.336463
-0.090491 -0.872174
0.163568 -0.500956
0.326920 -0.040589
0.124106 0.165385
0.495723 -0.222057
0.054831 0.367930
-0.605656 0.704238
-0.824883 -0.053425
-0.090594 -0.275382
-0.593934 -0.363965
-0.480324 -0.216877
0.476552 -1.024157
0.348844 -0.810829
0.692861 -0.542992
-0.015891 0.087724
0.587287 0.159210
0.289311 0.615349
-0.300406 0.272879
-0.459999 0.344121
-0.704393 -0.242469
-0.563134 -0.164132
0.229800 -0.682174
-0.244824 -0.425379
0.420452 -0.254216
0.460312 -0.192131
-0.106844 0.105669
0.370053 0.273123
-0.404045 0.925386
-0.244542 0.243763
-0.361202 0.026539
-0.309144 0.416918
-0.360712 -0.096937
-0.085135 -0.775193
-0.042585 -0.654373
0.586467 -0.399310
0.859980 -0.395225
0.558779 -0.279595
0.370733 0.389651
0.161874 0.996883
-0.070181 0.439938
-0.015438 0.326118
-0.714561 -0.128425
-0.470282 0.065245
-0.424826 -0.721074
-0.349817 -0.749926
0.620117 -0.197735
0.023384 0.202811
0.787406 0.070549
0.153407 0.495434
-0.333347 0.838992
-0.597497 0.856866
0.008600 0.197544
-0.114906 0.012780
-0.632629 -0.505632
-0.442474 -0.598810
0.407681 -0.452305
0.404679 -0.573314
0.391419 -0.518278
0.688177 0.450190
0.693440 0.814128
0.091770 0.547727
-0.645291 0.444225
-0.426257 0.575921
-0.621733 0.144573
-0.421764 -0.725221
-0.410041 -0.627644
0.509673 0.011422
0.185872 -0.354305
-0.056650 -0.469136
0.544371 0.244599
0.060650 0.697851
-0.260786 0.574033
-0.059973 0.505972
-0.400417 0.002761
-0.456717 0.340861
-0.528580 -0.989947
-0.225405 -0.810245
-0.128331 -0.728862
0.155690 -0.185228
0.695402 -0.146277
0.455944 -0.069228
0.183252 0.187262
-0.495667 1.012119
0.054739 0.346431
-0.679219 0.232349
-0.499467 -0.145338
-0.767687 -0.236923
0.126757 -0.586807
0.114572 -0.481116
0.444118 -0.655419
0.637354 -0.011738
0.730867 0.692308
-0.012812 0.622133
-0.439110 0.570531
-0.392298 -0.038276
-0.217072 0.214760
-0.669319 -0.473883
-0.186801 -0.404526
0.106429 -0.528521
0.344389 -0.737997
0.110700 -0.547341
0.572035 -0.129109
0.570264 0.507325
0.170800 0.635500
-0.576800 -0.053735
-0.597696 0.519427
-0.627467 0.123700
-0.483363 -0.215742
-0.242119 -0.584915
0.126326 -0.395211
-0.023663 -0.370543
0.173400 -0.464041
0.559758 -0.426138
0.348914 0.760185
0.107755 0.944052
-0.615945 0.259608
0.013460 -0.004415
-0.820488 0.170913
-0.554892 0.005550
-0.406706 -0.416858
-0.062829 -0.798345
-0.130355 -0.285754
0.537414 -0.399673
0.644753 0.059108
0.369414 0.365477
-0.300114 0.706676
-0.179786 0.560944
-0.182155 0.808819
-0.694537 0.082921
-0.986355 0.082614
-0.292698 -0.576543
0.556688 -0.785676
0.255322 -0.392146
0.111118 -0.468171
1.035073 0.543496
0.560265 0.600513
-0.081308 0.356785
-0.340346 0.410837
-0.587214 0.719566
-0.721323 -0.061750
-0.824656 -0.466071
-0.352800 -0.450535
0.197942 -0.753533
0.268802 -0.599949
0.217897 -0.492181
0.378702 0.072415
0.444983 0.594729
0.282244 0.167554
-0.206293 0.402539
-0.779235 0.049477
-0.856757 0.191062
-0.327218 -0.518101
0.168099 -1.018306
0.145905 -0.555900
0.368272 -0.388364
0.757591 -0.131079
0.658974 -0.229221
-0.077293 0.202030
0.249969 0.967804
-0.354028 0.457332
-0.636219 0.199968
-1.211219 -0.202058
-0.278940 -0.723790
0.286929 -0.327755
-0.230255 -0.339692
0.300579 -0.390379
0.946374 -0.203946
0.977943 0.234384
0.240279 0.564597
-0.034673 0.518576
-0.066540 0.502067
-0.431938 0.170674
-1.019855 -0.413176
-0.871579 -0.674139
-0.012433 -0.305631
0.184702 -0.782599
0.508196 -0.384772
0.393323 -0.162125
0.650149 0.083894
0.132396 0.724471
-0.288371 0.388149
-0.295712 0.254357
-0.261665 0.590440
-1.178984 -0.356974
-0.547653 -0.598442
-0.297156 -0.356972
0.263273 -0.680573
0.988626 -0.672118
0.557212 -0.129432
0.778143 0.806582
0.323593 1.070717
0.152855 0.696375
-0.685445 0.431584
-1.288028 0.411099
-1.009385 -0.392384
-0.377682 -0.857315
-0.079806 -0.770337
-0.282253 -0.677822
0.634823 -0.470056
0.897892 -0.283004
0.413758 0.799232
0.003877 0.508854
0.229324 0.875611
-0.070643 0.802733
-1.016499 -0.387036
-0.768230 -0.522953
-0.190644 -1.100599
-0.176401 -0.676055
-0.009134 -0.750311
0.879842 -0.867858
1.065926 0.164027
0.350908 0.538867
-0.099102 0.569204
-0.194175 1.010824
-0.661135 0.563362
-1.156392 -0.542956
-0.862195 -0.531027
-0.145922 -0.719277
0.027271 -0.579059
0.425036 -1.357820
0.530700 -0.407329
0.529599 0.303861
0.318462 0.625590
-0.010799 0.510464
-0.221663 0.612375
-0.766558 0.475963
-0.602213 -0.108343
-0.484151 -0.889865
-0.769858 -0.422528
-0.129961 -0.822818
0.315609 -0.910713
1.283661 -0.614558
0.654979 0.173426
-0.032125 0.751874
0.523771 0.892652
-0.093948 0.758022
-0.703888 0.402001
-1.000617 -0.052639
-0.511803 -0.257168
-0.323747 -0.964606
-0.096000 -0.838556
0.248648 -0.651779
1.140887 -0.229003
0.663566 0.075445
0.243997 0.397776
-0.210501 1.007793
-0.450285 0.775409
-1.008616 0.453657
-1.527722 -0.174547
-1.143680 -0.990812
-0.537890 -0.529101
-0.227744 -1.268919
0.379814 -1.078648
1.003179 -0.131840
0.918449 0.223500
0.363948 0.625304
-0.470641 0.518909
-0.458851 0.475557
-0.864017 0.472438
-1.383309 -0.430891
-1.068618 -0.570378
-0.777311 -0.876742
-0.411055 -1.058563
0.827680 -1.210333
0.896870 0.044505
0.937562 0.591294
0.473255 0.857303
-0.006118 1.047496
-0.867369 1.124851
-1.572214 0.959372
-0.719161 -0.300670
-0.511933 -0.791279
-1.335263 -0.583187
0.122823 -0.987908
1.173015 -0.586878
1.419545 -0.103517
0.506703 0.471500
0.291942 0.821398
0.430812 1.641181
-0.979514 0.944780
-1.530042 0.199948
-0.790684 -0.195039
-0.875211 -0.260846
-0.830681 -1.692672
-0.179023 -1.033697
1.014319 -0.766581
1.711922 0.288221
0.548013 0.075371
0.242784 0.707103
0.352012 1.505607
-0.963491 1.457323
-0.999896 -0.310925
-1.066098 -0.345752
-1.046299 -0.903015
-0.103817 -1.553851
0.210615 -1.680781
1.573309 -0.731434
1.533547 0.481800
1.107750 0.844908
0.796036 0.628000
-0.487332 1.734828
-1.386101 1.385443
-0.987803 -0.012188
-0.932380 -0.521715
-0.960907 -0.686866
-0.059827 -0.961151
0.670589 -1.592690
1.158291 -1.456525
0.955563 0.596751
1.304808 0.849434
0.626388 1.335679
-0.829692 0.801668
-1.789738 0.836290
-1.155815 0.586299
-0.779452 -0.692674
-0.978888 -1.740222
-0.616899 -1.724888
0.644641 -1.246320
1.638973 -0.103756
0.945816 -0.077287
0.580316 0.596978
1.428556 1.424437
0.031065 1.742476
-1.984683 0.254986
-2.096685 0.545017
-0.614132 0.124970
-0.803899 -1.890791
-0.441518 -3.150924
0.613443 -1.103667
1.734001 0.339579
1.734761 0.657456
2.006967 0.177391
0.322530 1.998720
-0.995749 1.679622
-1.611988 0.992170
-1.816569 -0.474453
-1.199971 -0.100162
-0.695436 -0.648692
-0.078948 -2.201805
0.565918 -2.419019
0.914941 0.188640
1.785944 1.109261
2.155006 1.610688
0.100394 0.815880
-2.228384 2.006438
-1.669062 1.272297
-1.492663 0.175812
-2.099736 -1.211028
-2.275970 -2.066103
0.575890 -2.105919
1.596751 -1.636968
0.341882 -0.902254
0.885980 0.935191
1.879295 1.717575
0.414116 1.706069
-1.594450 0.180514
-2.851086 1.561346
-2.299013 0.856080
-2.345026 -1.932161
-0.804609 -3.857466
-0.394585 -2.464827
1.164925 -1.085014
2.062561 -1.581970
1.833507 -0.272732
1.121214 3.206563
0.372617 3.510002
-1.766813 1.324735
-3.028978 -2.055592
-3.095157 1.621284
-1.493213 0.763374
-2.164617 -3.141643
1.492770 -4.593191
0.747264 -1.179407
2.289786 0.721446
2.138085 0.256604
0.900989 2.068704
-1.000256 5.492828
-2.037528 2.045978
-2.374729 0.384734
-5.500385 -1.003225
-6.431001 1.280096
1.049199 -2.344174
0.562705 -4.416497
2.117533 -3.176707
-1.258633 1.840415
1.795163 3.038759
3.283922 1.395669
-1.118797 3.295677
-4.133069 5.819410
-6.217784 -0.031425
-4.175732 -2.078118
-3.744050 -2.859296
-6.265741 1.905710
4.037668 -5.309558
0.339321 -5.428661
1.899889 -3.603490
0.656875 5.842601
1.430390 12.217416
-1.863424 0.528740
-6.793559 -2.581240
-5.602864 3.661423
-9.514333 2.250886
-8.660562 -3.089309
0.349820 -11.260925
-3.692226 3.072313
5.977511 -9.217110
-2.036177 -4.444889
0.897622 6.985042
-4.098433 8.207024
1.380729 10.867296
-5.534534 -7.556322
-16.580150 4.165998
-21.047181 4.818705
-10.491745 -19.177780
3.469737 -3.153959
6.734397 -12.594589
-16.426083 13.780311
4.476796 -32.947852
-0.392819 -10.811055
12.362243 57.172778
-43.342036 24.050446
-3.887666 -31.594496
-13.724142 -58.661735
-56.233415 43.878760
-38.509858 60.718390
15.437448 -84.659816
-11.363940 29.148242
-95.486140 -107.878050
70.980642 40.971373
64.618390 64.952268
-383.357943 -38.536955
82.221289 379.751246
-269.747778 58.635822
64.866624 354.021541
-1237.071125 -771.838023
-4299.492685 -3845.923296
