6290.706743 7116.392571
211.484483 -421.682390
-94.420101 64.027705
-43.109197 -379.891907
-37.860929 -211.568191
-23.621376 81.234713
-235.203890 -75.786290
10.798743 76.321999
-80.665826 -77.598718
101.440373 20.648546
-73.004860 22.719902
-63.018903 32.964652
-28.809992 -45.962200
12.115771 36.320044
-40.460973 -40.659636
-6.376964 -6.099987
-4.930924 12.029593
20.483607 -6.605692
-13.350797 2.535793
2.948144 2.341818
-9.505286 10.989279
-9.743755 9.944035
-6.835984 -0.836613
-2.051301 -16.317608
-9.088578 -0.318369
-1.306325 -3.678138
9.887180 -5.752262
3.477770 4.421179
7.338790 0.435805
-6.217978 -2.828335
-0.237162 16.503457
-3.199951 0.296092
-3.397724 -4.769180
-6.092816 -5.594545
3.521849 -2.073941
-2.043663 -3.686047
6.365944 0.926759
9.182227 -3.325788
-2.485875 4.577929
-1.386836 5.649378
0.848102 2.035920
-5.143635 3.280905
-3.148274 -0.523096
-0.938178 -8.412814
-3.320172 1.063443
4.723673 -1.751076
4.252418 -2.101006
0.908367 0.446322
3.756408 5.110239
-1.998780 1.272753
-4.396473 4.768551
0.237996 0.126111
-5.070000 -3.039466
-2.293283 -1.532902
2.653910 -3.518626
0.591136 -1.103173
2.111963 1.362386
4.775017 0.803489
-1.554645 1.050880
-0.508053 5.075267
-0.788218 0.169495
-5.086264 -0.516438
-0.598863 -1.232558
0.082904 -3.310229
-1.219093 -3.262398
4.199568 0.138385
3.241614 -1.072203
-1.023944 2.311153
2.668006 1.952881
-1.056846 1.152538
-3.895578 2.017940
0.166664 -0.442603
-0.972219 -3.400682
-1.613473 -1.038813
3.056298 -2.234793
1.334225 -2.089204
2.825098 2.466389
1.945684 1.464783
-0.447222 0.096846
-1.394501 4.006457
-1.132192 0.189823
-3.420699 -1.890308
0.607702 -0.286416
0.522034 -3.137073
-0.139229 -1.656565
3.044865 1.425860
2.345209 0.043473
-0.527455 0.925848
0.814107 3.161053
-1.678760 0.183125
-3.036809 0.984525
-0.425910 -0.106108
-0.926283 -3.001051
-0.225000 -0.985359
2.592186 -0.144176
1.474060 -0.982663
0.614794 1.850764
1.867053 1.565472
-2.171193 0.793370
-1.146789 2.134045
-0.246748 -0.099667
-1.572657 -1.521814
-1.148574 0.004421
2.035657 -2.796006
0.677506 -0.824842
1.875475 1.963743
1.629791 -0.281322
-0.214076 1.704837
-0.763348 2.743253
-1.335673 -0.494188
-2.278620 -0.400477
0.203143 -0.194353
0.026204 -2.934273
0.147740 -0.761621
2.344018 0.572066
1.123676 -0.559845
0.316830 1.762878
1.528734 1.514380
-1.207419 0.043379
-2.398517 1.321189
0.245690 -1.058070
-0.856389 -1.682516
-0.192508 -0.486266
1.700371 -1.657137
0.741796 -0.636612
0.622988 1.697306
1.546196 0.150153
-1.491433 0.945554
-0.563400 1.789598
-0.820609 -0.866360
-1.827984 -0.636409
0.168708 -0.505962
0.729719 -2.030690
-0.398097 -0.834858
1.654360 0.346814
1.408104 -0.018375
-0.170741 1.538317
0.037212 1.644437
-1.327052 -0.115383
-2.105061 0.911106
0.032530 -0.474125
-0.338350 -1.939941
0.033537 -0.064197
1.929984 -0.508878
0.126180 -0.352418
0.885932 1.488972
1.337837 1.149401
-1.348958 0.386094
-1.169093 1.106567
0.089859 -0.599298
-1.785240 -0.861280
0.849908 -0.651982
1.195398 -1.688066
-0.439588 -0.514647
1.537184 0.539946
1.517586 0.211385
-0.703724 1.108411
-0.504226 1.393497
-0.969633 -1.067641
-1.733062 0.250431
0.204689 -0.618650
0.348497 -1.939518
0.355475 -0.185322
1.613750 -0.139646
0.359337 -0.326720
0.691956 1.410162
0.770874 0.827332
-1.700042 -0.050887
-0.846187 0.853488
-0.431564 -0.667189
-0.882447 -1.660848
0.788455 -0.160908
1.542128 -0.699669
-0.359215 -0.441513
1.534362 1.431304
0.750068 0.847980
-1.036975 0.643352
-0.304696 1.204150
-0.849451 -0.672424
-1.499802 -0.560354
0.459306 -1.104436
0.492557 -1.765547
-0.158399 -0.253911
1.522583 0.231426
0.652830 -0.064753
-0.449235 1.292123
-0.007016 0.789181
-1.301633 -0.348751
-1.209044 0.094800
-0.464623 -1.266420
0.097738 -1.911149
0.386445 0.271031
1.186842 -0.800319
0.105643 -0.061515
0.716703 1.572759
0.406115 0.813169
-1.242740 0.153427
-0.652217 0.730892
-0.387985 -1.017989
-0.888624 -0.643116
0.613910 -0.330931
1.120722 -1.119687
-0.139369 0.299897
1.297987 0.580608
0.231056 0.024639
-0.749730 1.499764
0.090906 0.856817
-0.509809 -0.525767
-1.085343 -0.235438
0.206018 -0.626297
0.088217 -1.878654
0.628875 -0.154312
1.553481 -0.229630
0.094233 -0.180121
0.004441 1.067295
0.407735 0.228719
-0.919833 0.010108
-0.754057 0.392871
0.120645 -1.031913
-0.383624 -0.127023
0.662274 0.035690
0.964709 -0.735663
0.530601 -0.169118
0.811393 0.986430
0.361223 0.535694
-0.641220 1.086020
-0.396807 0.769482
-1.012205 -0.533695
-1.077326 -0.757196
0.729124 -0.400349
0.606381 -0.743375
0.424196 -0.189842
1.399599 0.349623
0.253595 0.132050
-0.456971 1.262170
0.257045 0.403131
-1.132084 0.115097
-0.785413 0.110025
0.060992 -0.633838
-0.194715 -0.931913
0.834171 -0.157512
1.704414 -0.725233
0.577470 0.211287
0.263548 1.017070
0.110182 0.044015
-0.964949 0.320575
-0.093337 0.294017
-0.353243 -1.119114
-0.762408 -0.643956
0.623202 -0.355240
1.067773 -0.858474
0.706895 -0.065493
0.888525 0.721768
0.214585 0.305143
-0.299681 0.841608
0.090716 0.518251
-1.042331 -0.631524
-0.614940 -0.203617
0.449999 -0.979681
0.123429 -1.270017
0.575985 -0.249560
1.421294 0.097943
-0.232945 0.011275
0.331270 0.623496
0.531433 0.317547
-1.133264 0.367809
-0.403093 0.009073
-0.464407 -1.083072
-0.170362 -0.432392
0.765971 -0.092294
0.947665 -0.654397
-0.158428 0.325531
0.723411 0.561694
0.400544 0.488858
-0.474750 0.999622
-0.271600 0.142219
-0.496495 -0.862220
-0.813677 0.038514
0.598238 -0.658074
0.204849 -1.121407
0.546896 0.366268
1.080710 0.155102
-0.138522 0.270682
0.104297 1.474595
0.055131 0.409102
-1.316850 -0.139259
-0.259658 0.152818
0.335329 -1.355670
-0.340342 -0.615036
0.668759 0.091848
0.865286 -0.178036
0.255305 0.421663
0.615103 1.242155
-0.154042 0.069850
-0.912790 0.314693
-0.190083 0.112751
-0.714044 -0.937361
-0.486921 -0.247441
0.742757 -0.419676
0.406184 -1.101713
0.198308 0.890638
0.996273 0.626741
-0.333857 0.310770
-0.501657 0.974621
-0.080028 -0.275605
-0.907979 -0.433431
0.221241 0.025342
0.348097 -1.098009
-0.213328 -0.445214
0.838259 0.039736
0.607226 -0.033115
0.402269 0.237418
0.599824 0.842151
-0.172073 0.449446
-0.874756 -0.204209
-0.303972 0.103913
-0.049544 -1.033823
-0.649705 -0.245298
0.852653 -0.455247
0.366437 -0.546976
0.046243 0.536510
0.611144 0.804398
-0.089775 0.153047
-0.697883 0.889365
0.192450 0.239319
-0.719428 -0.676424
-0.513401 -0.341729
0.523561 -1.191426
0.595635 -0.279419
0.140701 0.385150
1.268978 0.159249
-0.221444 0.361228
-0.327179 0.748318
0.018118 -0.278383
-0.299132 0.260457
-0.571982 0.156143
0.283639 -0.815708
-0.467800 -0.155421
0.395144 -0.245958
0.480643 -0.397806
0.016379 0.870952
0.452332 1.173358
-0.190034 -0.162452
-1.105460 0.368608
0.138588 -0.160968
-0.201840 -0.744905
-0.302352 -0.363598
0.619158 -0.400808
0.145363 -0.729158
0.515616 0.338534
0.508267 0.199313
-0.362753 0.021508
-0.259147 1.019779
-0.390208 0.274613
-0.630341 -0.405874
-0.332826 0.010401
-0.136473 -0.747744
-0.397826 -0.316814
0.588474 0.319282
0.491668 -0.206958
-0.224988 0.757966
0.052280 0.648640
-0.641574 0.001333
-0.933411 -0.211047
0.027034 -0.451764
-0.442945 -1.289695
-0.050145 -0.549389
0.782907 -0.075794
0.035294 -0.499009
0.558612 0.699256
0.430531 0.269225
-0.899297 -0.009997
-0.242193 0.643567
0.019658 -0.251444
-0.947472 -0.414793
0.062413 -0.329754
0.670342 -0.504414
-0.032707 -0.202627
0.275654 0.480262
0.574948 0.322781
-0.008042 0.257946
-0.024238 0.419634
-0.481487 -0.286178
-0.941634 -0.138232
0.250801 -0.176136
0.359521 -1.389534
0.113047 -0.343804
0.640701 -0.217288
0.377277 -0.224027
-0.041259 0.932669
0.455152 0.571447
0.040575 -0.388866
-1.059591 0.289614
0.170619 -0.193456
-0.442790 -0.783243
0.012624 -0.469300
0.633182 -0.532434
0.322640 -0.230218
0.242112 0.785738
0.683936 0.517480
-0.648634 0.446075
-0.407395 0.493104
-0.310060 -0.004946
-0.707130 -0.553967
0.514889 0.134417
0.607628 -0.934465
-0.168623 0.065912
0.676748 0.466702
0.444238 0.169969
-0.438624 0.645768
0.300381 0.866935
-0.693595 0.266926
-0.629118 -0.125883
-0.314856 -0.196312
-0.264741 -0.554232
0.014318 -0.020339
0.567878 -0.762256
0.521138 0.119892
0.278090 0.521851
0.359169 0.655688
-0.412516 0.173801
-0.449604 0.762871
-0.274251 -0.372687
-0.325972 -0.467120
0.085736 -0.126065
0.371706 -0.626997
0.243052 -0.235552
0.537320 0.175925
0.409257 0.390441
-0.539067 0.786740
0.039581 0.336373
-0.442001 -0.191374
-1.059561 0.057981
-0.089290 -0.135443
0.352104 -0.774747
-0.275139 0.076665
0.869144 0.137238
0.565099 -0.223327
0.210916 1.014177
0.515671 0.049511
-0.567518 0.213942
-0.597238 0.590487
0.104280 -0.355426
-0.624218 -0.858810
0.034985 -0.055267
0.509751 -0.762879
0.445413 0.184559
0.549679 0.473272
0.255497 0.047908
-0.727782 -0.078835
-0.121990 0.484451
-0.234181 -0.605455
-0.688652 -0.322109
0.141354 0.118998
0.469595 -0.365603
0.058630 -0.048224
0.352218 0.166900
0.408281 -0.029790
-0.203060 0.579630
-0.202027 0.347279
-0.553639 -0.005699
-0.613881 -0.082355
0.298509 -0.162001
-0.177270 -0.636360
-0.190349 -0.128198
0.887087 -0.722969
-0.002464 0.316937
0.510900 0.903585
0.091619 0.113976
-0.508716 0.119503
-0.758200 0.269930
-0.216411 -0.787680
-0.430973 -0.339360
0.292209 0.051565
0.560745 -0.777825
0.311361 -0.085177
0.431921 0.201349
0.154579 -0.132082
-0.068953 1.008530
-0.258240 0.259318
-0.670697 -0.519413
-0.347494 0.278366
0.535230 -0.329124
-0.240398 -1.052970
0.734911 -0.145212
0.660220 -0.173041
-0.139367 0.062097
0.191777 0.847341
0.126605 0.600227
-0.882167 -0.007013
-1.116516 0.222167
0.281026 -0.891119
-0.010750 -0.678825
0.400215 -0.184245
0.882609 -0.189561
0.083595 0.049049
0.442331 0.433583
0.135773 0.604502
-0.630837 0.856458
0.041432 0.356035
-0.207389 -0.244564
-0.139860 -0.238616
0.095296 -0.341403
-0.041170 -0.549580
0.176852 0.205736
0.558574 0.083802
-0.512165 -0.287364
0.332052 1.035390
0.189787 -0.029870
-0.881711 -0.145991
-0.081748 0.175476
0.208870 -0.309263
-0.144165 -0.839529
0.412365 -0.128767
0.687978 -0.074881
-0.086450 0.248132
0.519031 0.982501
0.094277 0.114470
-0.628390 0.301449
-0.160798 0.304936
-0.050143 -0.761148
-0.558264 -0.429932
0.381786 -0.438843
0.835473 -0.927824
0.007108 0.489326
0.507128 0.187525
-0.014050 0.007292
-0.195919 0.581264
-0.266933 0.014559
-0.176728 -0.550659
-0.406941 0.222095
0.007389 -0.725937
0.064509 -0.539325
0.838416 0.014339
0.393952 -0.235843
-0.339868 0.088991
0.076334 1.035337
0.202371 0.108559
-0.427985 0.139435
-0.442700 0.050866
-0.034773 -1.034172
-0.059943 -0.261862
0.375304 -0.256482
0.350964 -0.431957
0.536155 0.010025
0.612948 1.007115
-0.105201 0.047375
-0.403071 0.207466
-0.802480 0.563939
-0.586420 -0.620992
-0.747795 -0.470781
0.384283 -0.163314
0.555026 -0.569485
0.288245 0.366276
1.174607 -0.122116
-0.306145 0.069597
-0.044046 0.773808
-0.385553 0.027471
-0.710572 0.390976
-0.197194 0.544278
0.373747 -0.534334
-0.099150 -0.875820
0.294170 -0.088450
0.299204 -0.450604
0.011351 0.168921
0.020665 0.641021
0.047436 0.212462
-0.686771 0.279838
-0.205785 -0.248171
-0.043605 -0.884575
-0.544439 -0.054643
0.305791 -0.305355
0.194452 -0.677271
-0.102734 0.253781
0.738387 0.325570
-0.107372 0.295878
-0.220849 0.466367
-0.351934 -0.160981
-0.727161 -0.348575
-0.394287 -0.066072
0.811609 -0.677651
-0.188832 -0.391906
0.526368 0.531660
0.715459 0.173557
0.261791 0.728953
0.042911 0.621167
-0.164363 0.125793
-0.702312 -0.015013
-0.232561 -0.109782
-0.269794 -1.117267
-0.056611 -0.437580
0.427209 -0.270642
0.351910 -0.591988
0.345511 0.288574
0.365112 0.116606
-0.234899 -0.057204
-0.592575 0.463032
-0.549859 0.520919
-0.640827 -0.616253
-0.695659 0.234274
0.261142 -0.549568
-0.158649 -0.282642
0.620692 0.380980
0.635698 -0.030912
-0.218282 0.471041
-0.364105 0.643078
0.344478 -0.059229
-0.712113 0.144521
0.231435 -0.020517
0.468612 -0.757598
-0.034460 -0.143147
0.554548 -0.176059
0.417096 -0.097996
-0.220562 0.337541
-0.038501 0.230626
-0.283464 -0.086341
-0.997167 0.308509
-0.153248 -0.305341
-0.106399 -0.668011
-0.432571 -0.197663
0.513273 -0.749838
0.024334 -0.509306
0.711539 0.262615
0.119539 0.553236
-0.369639 -0.008528
-0.528739 0.760012
-0.069559 0.162350
-0.607554 -0.753350
0.082146 -0.226704
0.168652 -0.664372
-0.457775 -0.451366
0.750815 0.089645
0.864647 0.272798
-0.183776 0.593447
0.493501 0.674737
0.099326 -0.015842
-0.792200 0.024357
-0.553975 -0.684610
-0.438602 -0.271350
-0.144200 0.082327
0.840928 -0.200449
0.451701 -0.271204
-0.080465 0.136084
0.378985 0.250936
-0.157988 -0.403102
-0.772069 0.549494
0.043640 -0.058572
-0.347240 -0.422453
-0.370185 0.274212
0.534423 -0.482196
0.154402 -0.559254
0.472643 0.470944
0.351794 -0.044497
-0.689110 0.303095
0.332207 0.589254
-0.262813 -0.056576
-0.742494 -0.331700
0.307621 -0.576756
-0.200313 -0.707963
-0.171722 -0.523075
0.691653 -0.139235
0.356296 0.041593
-0.059706 0.620287
0.368220 0.096665
-0.650061 -0.012154
-0.851573 0.463846
0.104071 -0.519525
-0.662243 -1.041314
0.095442 -0.273658
0.724671 -0.309987
0.116394 -0.048647
0.091114 0.017301
0.183643 0.376800
0.036261 0.238377
-0.264544 0.560565
-0.206889 -0.498616
-0.576656 -0.361926
0.105787 -0.035335
0.367679 -1.091279
0.129806 -0.190995
0.300998 0.071926
0.245923 0.380131
-0.279288 0.320462
0.348182 0.535124
-0.803360 -0.092134
-0.543434 0.131432
-0.109317 -0.753752
-0.370829 -0.606220
0.150351 -0.386083
0.842144 -0.627889
0.473408 0.076198
0.251512 0.970370
0.505241 0.336850
-0.778872 0.707825
-0.026121 0.400805
0.265354 -0.541135
-0.804079 -0.737511
-0.056505 -0.094756
0.493280 -0.386545
-0.073939 -0.245416
0.541266 0.666551
0.116769 0.052097
-0.554259 0.083143
0.019003 0.363018
-0.198673 -0.545774
-0.358961 -0.447040
0.084559 0.101229
-0.053375 -0.704618
-0.063569 -0.142742
0.770691 -0.180637
0.099302 0.332872
0.369867 0.802344
0.037143 -0.054628
-0.431089 -0.145186
-0.239057 0.252888
-0.088583 -0.582421
-0.848567 -0.799640
0.410416 -0.234849
0.558330 -0.398366
0.202209 -0.090353
0.564596 0.212756
0.586108 0.164155
-0.792483 0.340164
-0.545870 0.240843
-0.093113 -0.955344
-0.315012 -0.047952
0.270399 -0.192371
0.264617 -0.773975
0.261177 -0.159783
0.588575 -0.239224
0.353445 0.147504
-0.181044 0.814567
0.313552 0.356559
-0.664584 -0.387267
-0.728962 -0.142510
0.164740 -0.258799
-0.298739 -1.359725
0.310478 0.303868
1.098722 -0.337131
0.443301 0.010531
-0.018831 0.517491
0.249562 0.472034
-1.053213 0.207584
-0.734028 0.101303
-0.061741 -0.730263
-0.732487 -0.360168
0.357143 -0.278088
0.673300 -0.519067
0.376028 -0.117371
0.479731 0.043229
0.277873 0.043461
-0.501264 0.913324
0.216287 0.091749
-0.418525 -0.082964
-0.809705 -0.024801
-0.012879 -0.644632
0.332301 -0.610729
0.179505 -0.154220
0.595687 -0.373106
0.409549 -0.262456
-0.075482 0.675302
-0.368300 0.226068
-0.568882 -0.173525
-0.719958 0.477510
0.004870 -0.637502
-0.747235 -0.763582
0.552355 0.030738
0.224762 -0.377070
-0.084662 0.199964
0.767580 0.726067
0.058040 0.118132
-0.940725 0.528640
-0.135739 0.458522
-0.166634 -0.432659
-0.685880 -0.397346
0.114874 -0.267216
-0.017579 -0.800991
-0.072275 0.469204
1.348066 -0.351218
0.062135 0.030097
-0.610963 1.087828
0.225726 0.082408
-0.674877 -0.030350
-0.297067 0.222791
0.024285 -0.734468
0.078664 -0.723897
-0.088289 0.228129
0.911570 -0.098058
0.067631 0.432131
0.103066 0.725791
-0.414723 0.260461
-0.668132 0.108424
-0.447080 0.098495
-0.179192 -1.009238
-0.646913 -0.496850
0.405460 -0.194264
0.191987 -0.467399
-0.101415 -0.074052
0.449777 0.700442
-0.397083 -0.136185
-0.576722 0.511417
-0.317697 0.615316
-0.735777 -0.649728
-0.577927 -0.221818
0.214391 -0.646132
-0.207519 -0.909000
0.302304 -0.346373
0.372744 0.305989
-0.194020 0.257472
0.034532 0.785549
-0.344358 -0.372502
-0.660168 -0.026122
-0.723776 0.248644
0.159662 -1.365589
-0.284219 -0.575856
0.541010 -0.087532
0.686469 -0.871141
0.119698 0.196592
0.399465 0.721568
-0.692631 0.048804
-0.361820 0.446424
-0.472045 0.231718
-1.072655 -1.027506
-0.310769 -0.316117
0.287555 -0.742018
-0.057837 -0.656362
0.639133 0.251117
0.519021 0.004891
-0.602573 0.190507
-0.390376 0.502717
0.188030 0.089588
-0.893463 -0.222908
0.147956 -0.484945
0.466621 -0.788582
-0.495163 -0.567704
0.917686 -0.287717
0.925204 -0.511482
0.108046 0.308609
0.228520 0.874052
-0.010031 0.122133
-0.880153 0.925862
-0.525784 -0.209665
-0.145436 -1.050729
-0.971065 -0.034412
0.485633 -0.545942
0.301921 -0.647874
0.387622 0.299183
0.752256 0.714290
0.034385 0.061486
-0.736649 0.829059
-0.256282 -0.160428
-0.681702 -0.276802
-0.071904 -0.615700
0.551979 -0.778944
-0.264920 -0.906508
0.384608 0.063662
0.802160 0.090041
-0.119868 0.328080
0.348128 1.164853
-0.604222 0.305889
-1.368612 0.221198
-0.400847 -0.036825
-0.080365 -1.048600
-0.599548 -0.662767
0.834664 0.019690
0.548041 -0.473559
-0.223682 0.536284
0.439084 0.289249
-0.115383 0.263723
-0.798462 0.731310
-0.181140 -0.047841
-0.307596 -0.893959
-0.360422 -0.158785
-0.006278 -1.155369
0.317601 -0.671357
0.396961 0.751357
0.599569 0.067537
-0.177017 0.167066
-0.265188 1.129396
-0.459384 0.273341
-0.996624 -0.145970
-0.099621 0.092269
0.144365 -1.107020
-0.524931 -0.579220
1.255503 -0.032412
0.421664 -0.640324
-0.083165 0.895864
0.539159 0.651870
-0.784273 0.236933
-0.956051 0.064828
0.161576 -0.684775
-0.445101 -0.648322
-0.054068 -0.538025
0.783601 -0.792027
0.221490 -0.205922
0.303205 0.471898
0.509067 0.290408
-0.309777 0.366992
-0.765137 0.956933
-0.345988 -0.335840
-0.523549 -0.288374
-0.379526 0.076606
0.729995 -1.128206
0.105006 -0.113205
0.853010 0.242278
0.192689 -0.171220
-0.186911 0.576449
0.204552 1.343773
-0.478697 0.028446
-0.580645 -0.176275
-0.050546 -0.250694
-0.435775 -0.584195
-0.008374 -0.416721
0.817037 -0.426840
0.461849 -0.351320
0.155637 1.015373
0.740971 0.529891
-0.748258 0.318431
-0.450926 0.461692
0.113285 0.275312
-0.894372 -0.846940
-0.298808 -0.379448
0.804562 -1.190634
0.489758 -0.495286
0.748741 0.888174
0.520231 -0.291849
-0.519145 0.863069
-0.164463 0.981713
-0.508055 -0.784245
-1.265667 -0.066570
-0.253573 -0.181076
0.026256 -1.090937
0.128469 -0.843383
1.067581 0.041932
0.274106 -0.314388
-0.181064 0.806263
0.487440 0.814624
-0.410820 -0.506103
-0.822948 0.678732
-0.283543 -0.558975
-0.707882 -1.245560
0.007648 -0.239901
1.363085 -0.445745
-0.046574 -0.569691
0.082207 0.656932
0.634993 0.366179
-1.025671 0.242084
-0.356307 0.852868
-0.733290 -0.712321
-1.165964 -0.580981
-0.266870 -0.322567
1.024206 -0.964133
-0.148643 0.191645
1.005502 0.044491
0.798024 -0.276553
-0.333795 1.103573
0.072698 0.717077
-0.591518 -0.780804
-1.205752 0.418395
-0.493289 -0.482327
-0.105616 -1.333462
0.177409 0.273381
1.099852 -0.180688
0.345750 -0.622058
0.245851 1.402936
0.476734 0.751507
-0.975725 -0.135532
-0.581880 0.620905
0.036749 -0.291737
-1.560847 -0.589378
0.386459 -0.065178
0.824404 -1.000947
-0.023598 -0.311378
1.220392 1.218727
0.582587 0.236251
-1.043793 1.094925
-0.479272 0.644738
-1.114423 -0.536265
-1.806717 -0.047575
0.021937 -1.021970
0.128024 -1.151216
0.100733 -0.146621
1.255808 0.192173
0.539148 -0.497143
-0.110939 1.775478
0.019985 0.682966
-0.312856 -0.192017
-0.958681 0.392472
-0.147072 -0.904185
-0.879737 -1.402575
0.804950 -0.366905
0.862738 -0.674636
0.058029 -0.108575
1.160654 1.162829
0.102151 0.804124
-1.339753 0.209017
-0.542412 0.841454
-0.737579 -0.866046
-1.270288 -0.742400
0.607741 -0.739111
0.372891 -1.288846
0.141942 -0.027004
1.164213 0.442360
-0.026006 0.167639
-1.077473 1.264841
0.194415 0.520336
-1.080152 -0.659579
-1.152793 0.297927
0.351764 -0.935968
-0.477511 -1.235664
0.207952 -0.165730
1.559256 -0.795242
0.561925 0.250436
0.076988 1.771641
0.220101 0.099314
-1.001689 0.491616
-0.425948 0.945743
-0.248833 -1.341746
-0.805564 -0.957188
0.406754 -0.430137
0.769961 -1.197761
0.452921 -0.097003
1.071723 1.191373
-0.227216 -0.181730
-0.933050 1.287714
-0.629523 0.557363
-1.530006 -0.676400
-1.531550 -0.426195
0.533085 -1.163420
-0.778656 -1.463766
0.419696 -0.014034
2.071766 -0.053312
-0.299945 0.325652
-0.293645 1.440572
-0.652784 0.443717
-1.623496 -0.349150
-1.225762 0.812412
-0.419800 -1.527622
-1.066971 -1.079400
-0.078483 -0.284442
1.634992 -1.012990
0.326383 0.513750
1.162218 1.486672
-0.340518 0.639026
-1.528186 1.331752
-0.460482 0.844654
-1.271863 -1.572496
-0.862190 -0.759834
0.451972 -0.480284
0.268063 -1.733629
0.882999 0.248806
1.985550 0.691589
-0.024462 0.340472
-0.845310 1.710429
-0.180043 0.899333
-2.318379 -0.651691
-0.837452 -0.181885
0.070010 -1.253561
-1.410581 -1.890092
0.940974 0.422296
2.173923 -0.800955
-0.005656 0.690146
-0.060540 1.595227
0.258443 0.664035
-2.264081 1.190950
-0.900677 0.063761
-0.684852 -2.124757
-1.546578 -0.925186
1.136996 -0.958583
0.916273 -1.829035
0.942549 1.212580
1.532444 1.617546
-0.394701 0.150797
-1.427728 2.067966
-1.316262 0.677675
-1.514649 -1.688022
-1.106769 -0.031403
0.524162 -1.647125
-0.330483 -2.099388
1.340152 0.371589
2.102786 0.176641
-0.676445 0.394007
0.112663 2.649698
-1.003811 0.192324
-2.806309 -0.015206
-0.832729 0.088969
-0.211866 -1.810429
-1.250032 -1.873992
1.530620 -0.171931
1.803267 -0.767020
-0.552927 1.856196
1.912595 1.322146
-0.191788 0.405736
-2.898272 2.240464
-0.926180 0.404568
-1.595066 -1.663310
-1.619715 -0.837552
0.882440 -2.580242
1.189978 -1.808293
0.789743 2.642764
2.568451 0.402355
0.027604 0.418568
-1.622814 3.273594
-0.915669 0.134501
-3.525933 -1.242292
-0.419531 0.754734
0.059374 -2.508136
-0.917339 -2.079064
2.087307 -0.126117
2.206126 -0.051201
0.159934 1.642376
0.802631 3.138987
-1.020344 -0.601448
-4.063259 1.649194
-0.649658 0.265523
-1.798597 -2.703701
-1.633972 -2.032679
2.810014 -1.431260
0.823145 -1.714178
-0.094677 2.095313
2.977606 1.606023
-1.663021 0.597806
-2.257624 2.482692
-1.455924 0.011006
-4.136744 -1.636792
-2.232214 -1.579842
2.527944 -3.786089
-1.140298 -2.988577
1.914308 1.066413
2.986837 -0.345545
-0.624090 2.648304
-0.435976 4.187590
-2.498728 -1.289837
-4.881354 -1.278061
-0.596510 1.762429
-2.036004 -4.204970
-0.743136 -3.384045
4.736534 -1.329074
1.050889 -1.777000
-0.334143 2.784377
2.986092 4.378673
-2.099443 0.805478
-6.204207 2.191253
-0.367943 -0.294512
-7.493153 -2.753667
-0.714554 -1.185138
3.707791 -4.172715
1.098803 -3.505288
-0.641025 4.121276
3.051525 0.810718
-0.702291 3.814976
-2.058141 5.966028
-5.907456 -1.580015
-8.931007 -3.222657
-1.732188 2.306429
-0.345023 -5.318173
-4.003905 -6.212041
5.503896 0.893360
1.383943 -5.019920
-1.498599 14.190902
-3.205580 4.179490
-3.632405 -3.140989
-9.236885 -0.888067
-10.609554 4.964709
-6.859354 -11.170170
0.639755 -3.102578
3.736294 -4.218338
-4.458847 -13.767513
0.988204 16.249510
3.820892 0.054262
-10.570912 6.620080
-6.309554 1.347944
-9.699695 1.808413
-31.672905 -12.672421
3.120170 -7.908557
6.073801 -4.027277
3.828814 -8.007167
-33.267348 -13.374952
41.120305 -9.768879
-32.422154 56.350766
-3.137697 14.235405
-45.929370 -72.927485
-4.242588 26.412996
-54.472244 34.563261
-30.689859 -33.177264
21.822925 3.453419
-96.006646 -63.244921
140.030157 -41.936004
-245.538212 143.524348
24.121320 107.286635
-284.539363 99.746482
-107.170337 513.936493
-368.351574 -471.901512
-4666.318785 -3691.985344
