5216.147339 7194.704390
-2232.597620 -1660.295195
-1366.270928 502.077065
-274.149458 940.860316
376.469580 506.394403
337.104540 11.285824
109.137261 -71.387935
14.760912 81.107356
97.934528 88.381864
-0.124536 141.610799
-304.553729 391.673809
-1.456368 -262.215771
-121.562231 41.235411
31.702886 64.393522
6.831960 53.714517
1.862123 -35.021655
7.466142 30.033851
-27.956375 18.791137
10.120454 -2.043095
-28.329895 -9.162205
-28.073459 -5.156205
33.862291 -24.504549
-11.321628 27.525236
-16.711544 -20.229522
-6.090174 14.291766
-23.996595 1.207923
-24.414061 6.350478
-30.210407 2.038070
-25.842757 -12.213007
-38.410185 -25.462937
3.489735 9.218343
36.593133 -12.471389
-39.421576 14.276742
8.571596 10.655147
-3.755743 -6.772272
12.474873 5.070827
-19.715448 8.194231
2.660607 -2.843639
2.811776 5.007037
-10.621344 -10.396801
3.722885 1.459872
0.001054 7.646889
-9.639556 -4.725363
-4.989292 0.302629
-10.257424 -3.016899
-8.915060 -1.562342
-10.271004 -5.048402
-3.221307 -4.726135
2.379642 -5.389250
-1.096200 -1.429610
-1.740084 10.922301
2.950262 1.576419
-6.885470 -9.854392
3.526696 11.128904
1.260766 -1.005324
-3.370168 1.899885
-2.570477 -5.552757
0.352210 4.198185
-0.057837 -2.341380
1.361434 -5.054622
-5.091422 2.448155
-4.542297 -3.099889
0.105821 -4.029261
-4.092011 -4.348836
-0.391539 0.100953
-1.719437 -3.206099
-0.407977 -0.608853
0.257383 1.492539
0.563176 1.290607
-2.390704 0.293386
-2.178588 0.887513
2.233557 1.079052
-0.679134 -1.982908
-2.738091 3.602584
-0.289540 -0.941609
-0.001214 -3.530713
1.024166 -1.039911
-2.521503 -0.802085
2.882015 -1.444342
-0.813092 -1.904277
-1.092525 -1.577608
-0.811553 -1.589283
1.336036 0.011599
-0.711586 -2.211281
-0.836699 2.431078
-0.007596 -1.355678
-1.912336 0.888889
0.573363 0.361091
-0.782936 -0.014685
-0.745679 -0.204863
-0.115511 1.948303
-0.600895 -0.495526
-0.534121 -1.552723
-0.778898 -1.531711
1.833288 0.163594
0.742504 -1.763957
0.414364 0.036463
0.025913 0.671323
-0.779462 0.022554
-0.178032 -1.079295
-0.588178 -1.099908
-0.138403 0.070744
-0.257854 1.632126
-0.684772 -0.905483
-1.491215 0.396976
1.038774 1.079280
-2.041261 0.280649
-0.170262 1.429356
-0.684267 -1.390250
-0.714706 0.374407
-0.331252 -0.771908
1.533448 -0.733501
0.459772 -0.881999
0.510419 -0.081665
0.086298 0.094982
1.594864 0.232620
-2.130638 0.636852
-1.141881 -1.289430
0.071627 -0.137285
-0.819154 -0.162997
0.223954 -0.290585
-1.007666 0.810879
-0.639817 -0.102259
0.419121 -0.579670
-0.817683 0.414760
-0.350806 1.378485
-0.878878 -1.067745
0.078247 0.107057
1.509854 -0.984924
0.522618 0.242580
0.556404 -0.347012
1.129724 0.633051
-0.204067 0.656102
-0.211979 0.690526
-0.005614 -0.344212
-1.095409 1.556905
-0.913559 -2.345977
0.482257 0.242125
-0.853547 0.370760
-0.490228 0.319667
-0.498111 0.393911
-0.726416 -0.512839
-0.363131 1.032367
-0.651550 0.357985
0.279029 -0.413127
-0.582773 0.162097
1.212306 0.065309
0.403012 1.227407
0.471622 0.634157
-0.797402 0.153264
0.174685 0.625500
-0.265993 -0.188613
-0.339013 -0.437477
0.237187 0.204595
-0.462717 -0.594309
-0.262800 -0.301213
1.321993 -0.217818
-1.326724 0.636147
-0.939647 -0.244857
-0.105887 -0.202864
0.098948 -0.066421
0.009181 0.120295
-0.727904 -0.352317
0.455736 -0.380011
-0.198758 -0.437275
0.701731 0.117941
-0.323245 1.148303
-0.271992 0.083168
-0.029092 -0.347412
-0.496051 -0.114111
0.068721 0.136193
0.346929 -0.343782
-0.310956 -0.550679
0.195146 0.101417
-0.227616 -0.152532
0.160340 -0.343531
-0.196122 0.002094
-0.242720 -0.186473
-0.134756 0.051701
-0.144682 0.041365
-0.676963 0.207036
0.549246 -0.916786
-0.081159 0.204628
0.115227 0.957702
-0.090566 -0.666431
0.128015 -0.223475
0.028190 -0.332953
0.354930 0.402315
0.267694 -0.365726
-0.339599 -0.017580
-0.722822 -0.439217
-0.195174 0.205698
-0.403749 -0.615890
-0.141703 0.464778
0.005101 0.056648
-0.137362 0.059053
-0.731755 0.468601
-0.135059 -0.034951
0.015871 -0.045284
-0.495908 0.019657
-0.148260 -0.123501
-0.154943 0.255824
-0.155896 0.307753
-0.136488 -0.041039
-0.144568 0.711912
0.300970 -0.427882
-0.236786 0.169158
-0.366307 0.544690
-0.038039 0.115617
-0.466813 -0.027382
-0.086185 0.268029
-0.290673 0.152219
0.047043 0.309845
-0.898651 0.321832
0.268912 -0.206654
-0.066821 -0.161581
-0.420662 0.320413
0.899676 0.340184
-0.562421 -0.165261
-0.191055 0.184497
-0.211910 0.050028
-0.416660 -0.420941
0.075755 0.414724
-0.246794 0.203274
0.398555 0.106319
-0.270368 -0.302552
0.112041 -0.060093
-0.241690 0.101660
0.042390 0.330357
-0.256887 0.096033
-0.119508 0.279461
0.164782 -0.005920
-0.313755 0.027300
-0.296164 -0.358195
-0.022097 -0.211949
0.033907 0.057074
0.507430 0.212691
-0.022707 0.584127
0.001918 -0.204658
-0.302221 -0.050776
0.478061 -0.083322
-0.146358 0.585772
-0.388920 0.097847
0.071378 0.036630
0.083964 0.151411
0.334174 -0.021553
-0.166978 0.204877
-0.537508 0.211118
0.008409 0.088888
-0.018877 -0.038567
0.321621 0.373326
-0.177906 0.091260
-0.193891 -0.028754
0.600248 -0.268727
0.194788 0.072250
0.218398 0.263332
-0.023724 -0.176566
-0.094803 -0.047520
-0.095902 0.411666
-0.103529 -0.021151
-0.158990 0.597109
-0.173509 -0.682683
0.156935 -0.114449
0.329950 0.688591
0.255473 0.049483
-0.128925 0.056356
-0.344843 0.215780
-0.005619 0.109033
0.063910 -0.702139
0.254217 -0.381155
-0.216529 -0.137097
-0.226231 0.396171
0.261103 0.108071
-0.187415 0.233282
0.078870 0.017862
-0.293268 0.147151
-0.169462 -0.090498
-0.359109 -0.324173
-0.005757 -0.390941
0.064854 0.066545
-0.117237 -0.373749
-0.035384 0.031606
0.042729 0.002982
-0.483904 -0.306801
-0.192338 -0.016876
0.127242 -0.041490
-0.109207 -0.217393
0.011881 0.096724
0.350533 -0.253956
0.049321 0.041489
0.304460 -0.067790
0.145769 0.180582
-0.061885 0.068530
0.560813 -0.161460
-0.121551 0.281628
0.100883 0.228983
-0.224238 -0.063330
-0.189821 0.129057
-0.196957 -0.400699
-0.196784 -0.149839
0.322994 0.096275
-0.478470 0.007668
-0.267399 0.080628
-0.035556 -0.340308
-0.160091 0.332738
-0.113507 0.171482
-0.279622 0.009111
0.141330 -0.004549
0.143513 0.113536
-0.065699 -0.086767
0.301580 0.107831
0.026932 0.361649
0.050416 0.125608
-0.122479 -0.032562
0.260987 0.111096
-0.199334 0.198555
0.098229 0.108273
-0.504239 -0.048068
-0.033780 -0.175999
-0.113144 -0.199441
-0.445752 0.069578
-0.311700 -0.395889
-0.079353 -0.001328
0.191915 -0.101164
-0.136655 0.132586
-0.214451 -0.119283
0.018894 0.121184
0.266698 -0.106606
-0.079980 0.216484
-0.106892 0.154147
0.089111 0.136118
-0.018743 -0.091145
-0.157288 0.183081
0.134792 -0.088485
0.490015 -0.175183
0.265572 -0.362417
-0.615115 0.066143
0.081349 -0.151539
-0.129147 -0.104272
-0.208172 -0.285156
-0.169607 -0.117561
-0.009649 0.178795
-0.165370 0.056646
0.455289 0.358481
0.111529 -0.194230
-0.094397 -0.274667
-0.089315 -0.020419
0.490314 -0.011042
-0.048225 -0.556161
-0.040205 -0.175872
0.172012 0.090863
-0.115954 0.008004
0.203034 0.297933
-0.085961 0.233884
0.072001 -0.011561
-0.096160 -0.123986
-0.042579 -0.021436
0.208465 0.112931
0.115709 -0.521652
-0.041387 0.318939
0.241058 -0.200581
0.006874 0.040169
-0.076285 -0.008558
-0.239133 -0.215598
-0.144674 -0.068399
0.117637 -0.001106
0.035551 -0.077570
-0.108489 0.119036
0.098922 -0.232132
-0.094896 0.351062
-0.257663 -0.119974
-0.240150 -0.023872
0.133278 0.100091
-0.192939 0.002043
0.144217 -0.228635
0.109125 -0.037805
-0.097228 0.062300
0.168006 -0.175412
0.235019 -0.156068
0.038001 0.141468
0.059314 -0.036416
0.024713 -0.205908
0.202754 0.021233
0.063939 -0.176856
0.014733 0.069644
0.125344 -0.034580
-0.026624 -0.042390
0.173420 -0.165025
-0.051852 0.198809
-0.093425 -0.147257
0.200181 -0.077294
-0.073811 -0.050511
-0.077387 -0.224353
-0.240302 -0.210776
0.020410 0.234736
0.026197 -0.124209
0.030657 0.118530
0.332581 0.008710
-0.056416 0.324584
-0.041958 -0.001316
0.342012 0.063031
0.111981 0.045941
-0.235051 0.096769
-0.069398 -0.049813
0.072335 -0.397570
0.034387 -0.336640
-0.088529 -0.108491
-0.115746 -0.035336
-0.119734 0.198896
0.199189 -0.124546
0.133999 -0.011026
0.169541 0.001657
-0.053546 -0.251094
-0.254891 0.235451
-0.168938 0.060101
0.138214 -0.205666
-0.206104 0.040324
0.337648 0.087954
-0.103800 -0.449240
-0.005836 0.004028
-0.274575 -0.010455
0.221860 -0.243482
-0.132703 0.112378
0.041327 -0.252182
0.202097 -0.021688
-0.195862 -0.109915
0.128545 0.077382
-0.406521 0.194513
-0.306744 0.043408
-0.041441 0.110525
-0.029187 -0.312806
-0.033774 -0.006201
-0.069953 -0.104207
-0.103914 0.022918
0.037937 0.093159
-0.136982 -0.075893
-0.164940 -0.014337
0.071067 0.103197
-0.088546 -0.275374
0.031213 0.006474
-0.105054 -0.040786
0.111073 -0.096881
-0.075061 -0.389553
-0.228702 0.007514
0.114863 -0.055253
-0.135800 -0.480736
0.313200 0.119275
0.063120 -0.417546
0.076114 -0.074910
-0.187753 -0.301135
-0.464171 0.042212
-0.212155 0.320325
0.260654 0.183998
-0.026338 -0.164190
-0.099216 -0.160290
0.046292 -0.191458
0.397818 -0.099056
0.272990 -0.058608
-0.078464 -0.039315
-0.040271 0.219549
-0.186111 -0.108455
-0.367869 -0.020784
-0.080863 -0.269672
-0.456739 -0.067225
-0.235163 -0.289172
0.125705 -0.572803
-0.189380 0.168271
-0.084494 -0.037820
-0.223444 -0.381233
-0.272660 -0.080606
-0.138540 -0.244737
0.049036 0.641542
0.203822 0.345538
-0.400182 -0.008931
0.327769 -0.532090
0.461528 -0.135762
-0.141296 0.343716
0.465386 -0.204710
0.417190 -0.400473
-0.249723 -0.162535
0.055846 1.257923
-0.352059 0.531157
0.167542 0.047258
-0.175684 0.437420
0.107345 0.205327
0.075205 -0.027148
0.274644 0.220204
0.270061 0.077947
-0.644747 -0.151067
0.388845 -0.459621
0.466924 -0.830639
0.441926 0.172330
0.117198 -0.054478
0.020753 -0.186838
-0.250285 -0.095407
0.114007 -0.094182
-0.060026 -0.340729
0.211805 -0.377338
0.038207 0.009189
0.089787 -0.031789
0.014173 0.018693
0.059266 0.044173
-0.212753 0.172876
-0.035979 -0.202127
0.075367 0.553087
-0.086934 -0.239230
0.478584 -0.041752
0.510522 -0.008064
0.461701 -0.341492
-0.441943 0.318453
-0.114437 0.470392
-0.043160 -0.013394
0.143701 0.193013
0.163026 -0.054293
0.041680 0.031941
-0.116649 0.196733
-0.060020 -0.214901
0.112742 -0.030812
-0.098328 0.255558
-0.125993 0.131138
0.001939 -0.071266
-0.221876 -0.238391
0.128318 0.466379
0.099087 -0.280267
0.013455 0.020981
0.021343 0.003594
0.175320 0.075469
0.030895 0.505346
-0.064345 0.116065
-0.098721 0.173929
-0.063970 -0.068099
0.161708 -0.324167
-0.049948 0.003630
-0.100808 0.020849
0.056120 -0.060483
-0.294900 -0.406821
-0.173426 -0.095860
0.050449 -0.214528
0.251289 0.002648
-0.088254 0.104571
-0.257994 0.204682
-0.272340 -0.119144
-0.313240 -0.457887
0.125248 -0.168706
-0.086983 -0.148443
-0.213404 -0.731107
-0.430822 -0.009697
-0.142901 0.309242
-0.081302 -0.376316
-0.403445 -0.245210
-0.066082 -0.025631
-0.188457 -0.318899
-0.231437 -0.605882
-0.195708 -0.115841
0.260276 -0.045716
0.168848 -0.105601
-0.063063 0.110697
0.186010 -0.122089
-0.147670 0.057298
-0.356107 -0.375620
0.315488 -0.061002
0.093422 -0.326871
0.167806 -0.139621
-0.495642 0.199863
0.434089 -0.008838
0.178698 -0.250997
0.033734 0.072101
-0.013551 -0.001456
0.035191 -0.673927
-0.503404 -0.403246
0.153612 0.095765
-0.027493 0.093734
0.181281 -0.294117
-0.386912 -0.135226
0.271485 0.074224
-0.078531 -0.209210
0.058819 0.185187
-0.191186 -0.098751
0.082395 0.082965
0.085689 0.050467
0.277847 -0.015078
-0.055505 0.135704
0.077812 0.276090
0.188784 -0.143475
0.101616 -0.005821
-0.274049 -0.237669
-0.271277 0.200168
-0.083471 -0.172896
0.300408 -0.236339
-0.093237 -0.004293
0.027206 -0.221636
0.217688 -0.396424
-0.085133 -0.203749
0.083332 0.079317
0.073473 0.119911
-0.044194 0.063713
0.066035 -0.116146
0.079868 -0.087431
-0.041004 0.121615
0.225683 -0.031327
0.135324 -0.041123
-0.035508 -0.040622
-0.011191 0.108240
-0.016362 0.148678
-0.078892 -0.336645
-0.109801 -0.051430
0.027883 -0.039447
0.113636 -0.257322
-0.143231 -0.281833
0.070528 -0.040133
0.243480 -0.111008
-0.001087 -0.073670
-0.240686 0.175598
-0.175002 0.051113
0.092630 0.020668
-0.166504 0.279172
0.207733 -0.146088
0.103119 -0.160089
0.016823 0.373699
-0.157245 0.057669
-0.145002 0.258605
-0.037694 0.040040
0.121806 0.000407
-0.081936 -0.049935
0.191285 -0.301889
-0.163939 -0.196558
0.237933 0.021045
0.032525 -0.195943
0.222920 -0.120490
-0.518354 0.387839
0.020498 0.007169
-0.214596 0.055047
0.208878 0.158925
-0.060308 -0.108137
-0.065918 -0.101872
-0.109736 -0.004438
0.419926 0.084312
-0.038774 -0.202983
-0.307944 0.118216
-0.078168 -0.016562
-0.175776 0.059886
0.291430 -0.020272
-0.012561 0.020434
-0.115137 0.180652
0.180230 0.087208
0.134458 0.018130
-0.023679 -0.162502
0.037120 0.216678
0.228099 -0.071052
0.063691 -0.031370
-0.016780 0.104771
0.005967 0.073063
-0.051630 0.068571
0.027822 -0.018764
-0.038863 -0.069608
-0.113842 0.240442
0.010259 0.091874
0.020539 0.103457
-0.128195 -0.046913
0.384101 0.310338
0.073141 0.225635
-0.272461 0.000993
-0.236103 0.032327
-0.068562 0.420135
0.158940 0.312088
0.029852 0.084968
0.434869 -0.025756
-0.286289 -0.356096
0.018413 -0.014587
-0.362894 -0.052073
-0.091948 0.449947
-0.182772 0.068223
0.083205 -0.105214
-0.080255 0.163667
-0.156057 0.326939
-0.056105 -0.039491
-0.057815 -0.000012
0.020940 0.158525
0.014579 0.176428
-0.373753 0.029969
0.239627 0.208286
-0.149742 0.101848
-0.171179 -0.033342
0.272908 -0.153202
-0.116920 -0.158742
0.076674 -0.005030
-0.107528 0.056739
-0.127887 -0.140296
0.015652 -0.446006
-0.144707 0.261268
0.037811 -0.033852
0.149329 0.142590
-0.349067 0.140382
-0.315753 0.144347
0.151818 0.074575
0.538884 0.034724
0.080102 -0.344776
0.247193 -0.075392
0.158742 -0.191630
0.107661 -0.036253
0.224531 0.107008
0.039424 -0.130790
-0.119469 -0.152076
0.279178 -0.172305
-0.039294 -0.419530
0.096838 -0.117945
0.305380 -0.038277
-0.103423 -0.320986
-0.006687 0.177314
-0.070185 -0.027356
-0.350030 -0.018256
0.238445 -0.025961
0.141559 0.170656
-0.240415 0.057907
-0.159311 0.127542
0.141989 -0.051655
0.001161 -0.183993
0.071111 -0.090234
-0.254853 -0.088256
0.024839 0.161505
-0.163693 0.222748
-0.318699 -0.247647
-0.110390 -0.130979
-0.220476 0.187429
0.208783 0.018320
0.212994 -0.300121
0.263819 -0.200393
0.175421 0.006025
0.212690 0.031241
0.064547 -0.039580
-0.104613 0.097281
0.304368 0.033161
0.149483 0.016265
-0.067108 -0.097182
0.069734 0.097095
-0.100334 -0.011183
-0.095042 -0.081668
0.107300 -0.174821
-0.303113 0.024856
0.123041 -0.082788
-0.060430 -0.028818
-0.016778 -0.002178
0.072443 -0.059378
0.048375 -0.065419
-0.113402 -0.007016
0.061386 -0.149712
0.060693 -0.147221
0.264118 0.084052
-0.056407 0.104863
0.055438 -0.234354
0.168842 -0.225237
0.110140 0.081057
0.060476 -0.095859
-0.056230 0.115628
0.112132 0.032959
-0.154049 -0.317417
0.139057 0.091380
0.073241 -0.344312
0.033299 0.136002
-0.094226 -0.047681
0.086485 0.175688
0.131825 0.211141
-0.247873 -0.035653
0.074340 0.122244
0.077869 0.280550
-0.246469 0.058568
0.013135 0.187097
-0.070047 0.259398
-0.000632 0.090872
-0.039173 0.000733
0.043943 -0.052188
0.239201 -0.075103
0.385354 0.205843
0.154041 0.020096
-0.339377 -0.296876
0.004627 0.153013
0.161527 0.144008
-0.103127 0.108624
-0.182279 -0.086542
-0.017785 0.051380
0.042329 -0.181089
0.045920 0.054215
-0.115987 -0.053141
-0.094228 -0.127932
0.282715 -0.179280
-0.327676 -0.046413
0.204037 0.352122
0.297948 0.202999
0.204255 0.339552
0.242771 -0.219010
-0.071401 -0.224990
-0.315465 -0.104119
-0.012289 0.174975
-0.055837 -0.111376
-0.128431 0.033622
-0.137098 -0.108783
-0.148215 0.339075
0.164624 0.140140
0.047813 0.050822
-0.224360 0.045255
-0.108784 -0.294843
0.250170 -0.014825
0.229444 -0.237780
0.017373 -0.126418
-0.082407 -0.071130
0.199100 -0.058562
-0.122222 0.094326
-0.078836 -0.227004
-0.279324 -0.031871
0.092577 0.080139
0.021073 0.286772
-0.079044 -0.015791
0.254253 -0.100281
-0.097318 -0.015834
-0.179337 -0.013528
-0.132196 -0.108630
-0.105022 -0.108110
0.201923 0.226619
0.263290 -0.214487
0.116821 -0.121433
0.042753 -0.064522
0.114719 0.169430
0.098937 -0.217810
-0.059076 -0.321613
-0.278461 -0.192732
-0.255151 0.198683
-0.181743 0.098480
0.266662 0.245535
-0.029869 -0.002199
-0.012684 0.045349
-0.091580 -0.252204
0.232374 -0.076308
-0.018130 0.151559
0.072742 0.047953
0.005369 0.014295
-0.019144 -0.007182
0.053597 -0.093209
-0.072662 -0.033645
0.033669 0.036313
-0.186966 0.014701
0.010240 -0.213887
-0.104131 0.142329
-0.093321 0.013653
-0.098483 -0.039832
0.156521 0.118364
0.199545 0.014536
-0.057494 -0.281902
-0.319037 -0.226534
-0.259428 -0.004906
-0.037811 0.014699
0.226920 0.259833
0.189473 -0.048191
0.101440 -0.013947
-0.007903 -0.054621
0.024021 -0.240863
-0.133398 0.175395
0.056551 0.343881
0.087279 0.163217
0.000803 -0.013896
0.059464 -0.054788
-0.163493 0.108413
-0.199015 -0.010522
-0.158673 0.010407
-0.142330 -0.036896
-0.207171 -0.036154
-0.142711 -0.083043
-0.048442 0.056486
0.178287 -0.108206
0.546520 0.043018
0.122174 -0.108868
-0.107988 -0.152289
-0.138020 0.043820
-0.011041 0.064578
0.037410 0.216150
0.010533 -0.089910
-0.162822 0.129866
0.076869 0.321042
-0.164303 0.017497
-0.100799 -0.062683
0.034789 0.203942
-0.188135 0.134570
0.277484 0.045218
0.026433 -0.312172
-0.001443 0.099547
-0.048520 0.134119
0.027336 -0.129128
-0.061957 -0.170746
0.081952 0.049349
-0.265521 0.170958
0.054382 0.047575
0.103513 0.219708
0.043572 0.169600
0.011016 -0.074045
-0.118066 -0.060628
-0.027286 -0.028409
-0.392796 0.305939
-0.056781 0.326861
0.315819 0.121908
0.076554 0.044088
-0.108573 0.118507
-0.237741 -0.214484
0.204365 -0.035895
0.230882 -0.281854
-0.232668 -0.280858
-0.342158 -0.013125
-0.292016 0.256693
-0.105922 0.358198
0.186563 0.019422
-0.122733 0.186489
-0.073369 0.008812
-0.003995 0.057933
-0.056431 -0.187204
0.203111 0.043296
0.075405 0.046318
-0.184031 -0.052169
0.233031 -0.025766
-0.027637 0.002094
-0.259135 -0.116618
-0.108178 -0.131514
0.200253 0.307057
-0.095041 -0.037377
-0.231050 0.228543
-0.321774 -0.064402
0.106415 -0.085832
0.086556 -0.116697
-0.451956 0.326146
0.187696 -0.072975
0.101902 -0.104560
0.027177 0.146009
0.047296 0.192236
-0.113495 0.154777
0.057674 -0.042299
-0.239336 -0.307118
-0.116118 -0.361565
-0.115882 -0.158682
-0.022028 -0.221094
0.034111 -0.061765
-0.267101 -0.126030
0.005583 -0.055922
-0.064587 -0.021913
-0.184819 -0.006583
-0.042887 -0.142088
0.086161 0.089220
0.037613 0.001358
-0.421841 0.259250
-0.132195 0.182552
-0.088359 0.080358
-0.003819 0.025538
0.260781 -0.015839
0.052766 0.138772
-0.168942 0.144086
-0.171667 -0.059514
0.149693 -0.203696
0.220469 0.362205
0.082186 0.195440
-0.344104 -0.149027
0.064536 0.018654
-0.004234 -0.013959
-0.328021 -0.006559
-0.090232 -0.133256
0.094400 -0.028444
-0.380100 0.005157
0.034646 0.286342
-0.310056 0.116757
-0.039146 -0.090999
-0.135584 -0.101184
0.040086 0.069367
-0.018949 -0.098842
0.076464 0.213286
-0.094488 -0.166593
0.052213 0.073686
0.373286 -0.065103
0.179795 -0.172977
-0.019742 0.231350
0.160948 0.057184
0.100993 -0.125668
-0.228373 -0.010740
-0.044891 -0.045321
-0.350881 -0.016216
0.022141 -0.246912
-0.175718 -0.172102
-0.460537 0.097795
-0.013068 0.067877
0.083715 0.184757
0.151890 0.093359
-0.264769 -0.106748
-0.237870 0.119382
0.099123 -0.399860
0.066095 0.088790
-0.125064 -0.060835
-0.176630 -0.083578
-0.022248 -0.091270
-0.135414 0.137815
0.363781 -0.000408
0.397415 0.065124
-0.026299 0.193833
0.192046 0.073227
-0.010154 0.076915
0.041966 0.160636
0.084297 0.229781
0.148673 -0.167222
0.347935 0.199192
0.280469 0.072257
-0.047447 0.405504
0.326972 -0.065281
-0.007028 0.098223
-0.153370 -0.033370
-0.071095 -0.208516
0.104911 -0.302940
0.303338 0.080946
-0.241830 -0.509007
-0.079904 0.501662
0.138715 0.221665
0.025734 0.109438
0.371423 -0.024840
0.037376 -0.009982
0.218349 0.121394
-0.210725 0.231757
-0.225235 -0.023768
0.084426 -0.235752
-0.049578 0.181046
-0.191150 0.028188
-0.063585 -0.119220
-0.047294 0.042063
0.126656 -0.023181
-0.136767 -0.324774
0.042694 -0.150481
-0.027388 0.030747
-0.221082 0.156081
0.042426 0.133734
0.194149 -0.039290
0.334050 -0.082479
-0.181370 0.259922
0.217412 -0.160866
-0.227303 0.164549
0.004043 0.167637
0.067099 -0.024987
0.010909 0.107336
-0.000695 -0.221488
-0.104973 -0.464057
-0.164496 -0.038621
-0.362226 0.030363
0.077992 0.221957
0.248042 0.137290
0.041663 -0.129707
-0.033247 0.074960
0.170170 0.189874
0.049530 -0.025147
-0.081353 0.132176
-0.029226 -0.010467
0.367970 0.149401
-0.025145 0.229831
-0.090216 0.104507
0.146707 0.363439
0.124618 -0.029092
-0.023145 -0.069928
-0.269529 -0.201939
-0.240409 0.114712
0.128964 0.213872
-0.334492 -0.085048
-0.243659 0.050271
-0.097390 0.072107
-0.136211 0.335165
0.388561 0.140426
-0.086986 0.018791
-0.009895 0.272180
-0.166151 0.242411
0.096878 -0.138691
-0.375717 0.077300
0.125077 0.312965
-0.469876 -0.137355
-0.028530 -0.130140
-0.169668 0.287653
0.178974 0.114313
-0.326919 0.089456
-0.182332 0.152621
-0.156666 0.130217
-0.235395 -0.040295
-0.150904 -0.022795
-0.120088 -0.101751
-0.117602 0.052621
0.067609 -0.283990
0.003486 -0.048865
-0.119496 0.088008
-0.333040 -0.044591
-0.128383 0.281674
0.036017 -0.028029
-0.112773 -0.176122
-0.098656 0.026318
-0.041919 0.139962
-0.145807 -0.152488
-0.252430 0.030942
-0.209228 0.375604
-0.078182 -0.029261
-0.226123 -0.298448
-0.171348 0.175241
-0.220142 0.069463
0.123925 -0.418761
-0.034580 0.033593
-0.112857 -0.041869
0.141389 0.066054
-0.185745 -0.101159
0.116333 0.030531
0.046744 0.048952
-0.204798 -0.015503
0.136626 -0.104161
0.253060 0.039417
-0.216374 0.010939
0.088720 0.062577
-0.151664 -0.183006
-0.193240 -0.236550
0.012521 0.185897
-0.218014 0.203535
0.170393 -0.274740
0.084175 -0.192260
-0.099965 -0.255579
-0.162788 -0.222073
0.228022 -0.104434
-0.273802 -0.145492
0.327764 0.030073
0.191645 0.011460
0.251013 -0.287949
-0.115034 0.168572
0.150607 -0.208772
-0.015859 0.030844
0.246210 -0.235988
-0.555596 -0.237627
-0.070714 -0.050683
0.031338 -0.004135
0.524803 0.028177
-0.029183 0.138174
0.206483 0.021346
-0.047145 -0.290001
-0.079905 -0.151493
0.059989 0.246894
0.358471 0.041992
0.014979 -0.039444
0.240272 0.317421
0.323171 -0.098313
0.190343 0.056521
-0.161232 0.504614
0.029328 -0.037598
0.038028 -0.069716
-0.107536 -0.240302
0.147268 0.034770
0.439481 0.045499
0.293217 0.037082
0.245912 0.233973
-0.070579 0.151236
-0.114422 -0.231577
-0.299583 0.142509
-0.147685 0.403659
-0.074980 0.053184
0.097170 -0.019027
-0.011447 0.587677
-0.079241 0.118060
-0.029338 0.450475
-0.387262 0.327782
0.036799 0.262145
-0.370149 -0.210989
-0.049233 0.198486
0.343006 -0.295287
0.278839 0.051438
-0.029298 0.071227
-0.026553 0.403728
0.285288 0.035231
0.095590 -0.057081
0.180356 0.071441
0.075416 0.169153
0.120022 0.103695
0.043812 -0.035937
-0.146608 -0.176949
-0.043106 -0.070306
0.552818 0.186350
-0.211072 -0.219926
-0.154373 -0.045089
-0.020128 0.262130
0.290564 -0.363484
-0.294376 0.431115
-0.049602 -0.024749
-0.060334 -0.113832
0.383223 -0.318857
0.141851 0.259029
0.138314 0.133873
0.014281 -0.156036
0.219305 -0.228224
-0.062686 0.019898
-0.198813 0.079055
0.170415 0.206410
-0.058242 0.010780
-0.119131 -0.290892
0.325790 -0.204003
-0.168313 -0.083069
0.206915 0.090924
-0.289397 0.025108
0.094113 0.041511
0.292742 0.364051
-0.025969 -0.298458
0.001745 -0.453182
-0.065297 -0.167789
0.165149 0.307986
0.063068 0.139354
0.057598 0.288205
0.161637 0.353605
-0.130376 0.216780
-0.110410 0.366583
-0.095144 -0.053226
0.064478 -0.014107
0.390623 -0.228330
-0.236487 0.400865
0.084484 0.565424
-0.635105 -0.149542
0.106108 0.121546
0.827400 -0.156897
0.254734 -0.306888
-0.519799 -0.277587
-0.146955 -0.531797
0.122156 -0.074392
-0.197120 -0.516294
0.049122 -1.085847
-0.241609 0.266094
0.483411 0.082958
0.315144 0.169920
-0.144498 -0.221310
0.109827 -0.232287
0.209345 0.501845
-0.381442 -0.488365
-0.246539 -0.361049
0.062436 -0.830712
0.037338 -0.269652
-0.216862 0.135590
0.109900 0.261237
-0.591472 -0.097466
-0.072964 0.105558
0.023503 0.226930
-0.309604 0.083203
-0.092788 0.368493
0.053175 0.083739
-0.447956 -0.028177
-0.544129 -0.072354
-0.032290 -0.176078
-0.037111 -0.158719
0.087605 -0.068356
0.541712 -0.114393
0.242258 -0.553662
-0.244007 0.010631
0.070421 -0.125403
-0.051658 -0.393309
0.228967 0.032095
-0.100158 -0.045104
-0.222149 0.276774
0.093893 -0.203310
-0.174122 -0.106542
0.177565 0.189796
0.132933 0.430241
0.158508 0.350085
-0.170864 0.226530
0.129712 0.023844
-0.110081 -0.360456
-0.127997 -0.272046
0.037508 0.096840
0.199122 -0.155331
0.018055 -0.241079
0.197453 -0.084221
0.151282 0.012797
-0.071855 -0.105163
0.296985 0.055138
0.036852 -0.101140
-0.240518 0.262229
-0.086943 0.093011
-0.306562 -0.076384
-0.077694 0.077794
-0.124351 0.024661
0.186777 0.013926
-0.069724 -0.067362
-0.136008 -0.311917
-0.200529 0.121171
0.140867 -0.134260
0.522957 0.148587
0.035717 0.201850
0.250013 -0.151387
0.318066 0.184490
-0.035866 -0.230670
-0.044744 0.422511
-0.038181 0.307428
0.000596 0.121947
-0.160119 0.025049
0.021081 0.036790
-0.173824 -0.205084
0.142674 0.102312
-0.040912 0.211546
-0.018528 0.196464
-0.240333 0.143992
0.139478 -0.142879
0.141235 0.022218
0.150245 0.157382
-0.030934 0.092713
-0.065045 0.361700
0.244710 0.074396
0.244101 0.070424
0.273753 -0.014128
-0.027647 -0.273205
-0.016841 -0.070744
-0.228771 0.347946
0.062153 -0.112447
-0.245563 0.145904
-0.368897 0.076664
-0.060160 0.233715
-0.208670 -0.120114
0.037328 0.262637
-0.032458 0.069238
-0.223288 -0.154709
0.257242 -0.069160
0.274226 0.225514
0.173909 0.041511
0.037728 0.167716
-0.076654 0.300509
0.014735 0.101771
0.055576 0.136582
-0.133329 -0.017078
0.078147 0.265771
-0.131491 0.039757
-0.122454 0.066589
-0.278439 -0.016231
0.171588 -0.064002
-0.389601 0.009214
0.002469 0.013190
-0.003999 -0.087617
-0.143164 -0.021743
-0.339538 0.190775
0.100833 -0.362526
0.046351 -0.062749
-0.127622 0.085478
-0.214519 0.321283
0.016659 0.079111
-0.241635 0.149372
-0.174516 -0.000144
-0.112600 -0.034096
-0.169333 -0.232437
-0.133635 0.220386
-0.577919 -0.187367
0.258621 0.077474
0.152779 -0.090847
0.057738 -0.072821
-0.102308 -0.121853
0.073788 -0.243442
-0.134460 0.119613
0.292354 -0.429283
-0.194107 0.015355
0.072129 -0.113646
0.102777 0.252243
-0.025891 0.433532
0.229327 0.104859
-0.019329 -0.138143
-0.177197 0.082984
0.140402 0.141383
0.321595 -0.430491
-0.397932 -0.061029
0.066417 -0.439142
-0.468900 -0.105772
0.040238 -0.023037
0.213629 0.263418
-0.111016 0.060006
-0.352804 0.050697
0.310585 0.145252
0.502772 0.299777
-0.129915 0.143771
0.111931 -0.151559
-0.020289 -0.132852
0.192258 -0.008769
0.087526 -0.177941
-0.039631 -0.514242
0.055429 0.079523
0.253205 -0.105244
-0.224468 -0.036008
-0.178531 -0.053475
0.267803 -0.243089
-0.094804 0.052287
0.058317 0.294451
-0.289204 -0.191987
0.131357 0.616803
-0.176829 0.102341
-0.455545 0.023259
0.090377 0.114806
0.080010 -0.287798
0.172399 0.094616
0.079583 -0.219871
0.393270 0.046301
0.199190 -0.584629
0.149593 0.131846
0.306818 0.119114
0.225586 -0.278464
-0.017426 -0.057024
0.024694 0.323411
-0.095122 -0.387103
-0.012710 -0.151448
0.268825 0.355271
-0.311383 -0.100803
-0.141164 0.335024
0.042917 0.031123
-0.298653 0.337522
0.112701 0.442924
-0.101685 -0.019689
0.062966 0.133497
0.240191 -0.127641
-0.144014 -0.400026
1.079576 0.354988
-0.020519 0.305553
0.349207 -0.273427
0.079447 0.225946
0.455462 0.205733
0.369760 0.086139
-0.000755 0.074922
-0.208966 0.631960
0.503056 -0.141488
-0.502833 0.381699
-0.160136 0.328446
0.043396 0.296933
-0.380444 0.159348
-0.023417 0.171094
0.224074 0.346802
0.208243 0.675045
0.022275 0.464373
0.042764 0.130921
-0.120343 -0.283144
0.153040 0.217834
-0.328697 0.428925
0.070621 0.153411
0.152574 -0.381165
-0.200403 0.179359
0.517400 0.572667
-0.212811 0.313328
-0.426120 0.148887
-0.463738 0.017211
0.202627 0.413944
0.118790 -0.214792
0.579286 -0.101219
-0.206385 -0.213666
0.136271 0.495079
-0.023331 -0.034473
-0.035706 0.233416
0.070444 -0.140377
0.147216 0.291152
0.284397 0.414108
0.007801 0.115194
0.073986 0.074234
0.290921 0.235310
-0.024937 -0.279362
0.005808 0.052824
-0.204850 -0.182853
0.019166 0.161528
0.166978 -0.401470
-0.682828 0.127874
-0.009884 -0.211063
0.130603 0.087878
0.050911 -0.242237
-0.382154 0.209553
0.535971 0.116847
0.054405 0.070825
0.532374 0.198275
0.056786 0.122753
-0.343342 0.093671
-0.156991 0.015095
-0.083107 0.114803
0.181253 -0.438478
0.411872 0.482893
-0.002757 -0.388625
-0.129037 0.070325
-0.569166 -0.221035
-0.607880 -0.503013
0.264201 0.487727
0.163062 -0.211441
-0.347159 -0.089620
0.629022 -0.097404
-0.451499 0.057033
0.475897 0.150180
-0.112524 0.259306
0.087948 0.700605
-0.287576 0.174202
-0.203471 0.298894
-0.079145 -0.333263
-0.706280 -0.048394
0.398168 -0.318407
0.105537 -1.026520
0.550934 0.703225
-0.255744 0.017904
-0.150528 -0.484721
-0.679180 -0.501226
0.186144 -0.746701
-0.181059 0.083319
-0.401894 0.619851
0.090796 -0.575777
-0.105763 -0.197044
0.081297 0.285739
0.301493 0.319609
-0.411230 -0.022541
-0.267061 0.387161
-0.251438 -0.323728
0.314433 -0.119342
-0.411180 -0.164757
0.227784 -0.053316
-0.187278 -0.398279
0.387433 -0.067829
-0.366016 -0.198106
-0.662120 -0.258140
0.469150 -0.910789
-0.021658 0.248522
-0.009523 0.035786
-0.026586 0.681016
-0.922966 0.014112
-0.113944 0.463908
0.384004 0.284350
-0.215364 0.296913
0.107043 0.694020
0.446488 0.399134
-0.432365 0.809123
0.591898 -0.855880
0.142351 -0.498453
0.568725 0.865150
-0.270481 -0.193289
0.277616 0.023746
-0.038859 -0.607411
-0.028598 0.476757
0.230485 -0.497348
0.471787 0.436198
0.330836 0.354923
-0.475258 0.359430
-0.007182 0.574713
-0.250629 0.032395
0.683993 0.534728
-1.259128 0.376959
0.306033 0.302839
-0.550253 0.316312
-0.144563 -0.531753
0.829786 0.179212
-0.254551 0.011509
1.073017 0.606395
-0.188397 -0.216447
-0.335800 -0.225984
0.341233 0.384156
0.971470 0.450676
-0.816009 -0.312433
-0.351653 0.322351
1.029264 0.151709
-1.049466 -0.196267
-0.569103 0.958855
-0.706581 -0.494040
0.692566 0.874831
-0.359860 0.550011
-0.767140 0.107322
-0.151624 -0.788160
0.167650 0.637328
-0.091317 -1.081764
0.921889 -0.443788
0.005394 -0.363829
0.954592 0.084335
-0.406271 0.831581
0.415044 -1.558838
-0.485478 0.324995
-0.081661 0.802070
-0.353801 -0.038379
-1.096509 -1.164035
-1.353043 1.205161
-0.075808 -0.344891
-0.917490 -0.856572
-0.942613 0.632661
0.017504 -0.276945
-0.708330 1.135591
0.443726 -1.402353
0.297392 0.223879
0.906074 0.170733
-0.633257 0.290482
0.985146 -0.300370
0.394328 1.282000
0.349434 0.594004
-0.456682 -0.586942
-0.146887 0.717913
0.825255 -0.184485
-3.050025 -0.170265
-1.021563 0.480116
-0.254433 -1.016401
-0.198839 -1.062716
-1.976346 0.893608
0.784402 0.973750
-2.164713 -0.142226
0.074385 -0.414839
-1.172548 0.642832
-0.010555 -0.397190
1.497797 0.441847
-0.732635 0.928617
-0.050668 0.502404
-0.519356 -0.009866
1.491381 1.420695
-3.223607 0.235457
-0.988077 -1.162511
-0.193960 -1.532871
-1.956481 1.692761
-0.388941 -2.128025
-2.298640 -3.475376
1.011851 1.483192
1.172109 0.600685
-2.243537 -0.079794
-2.236846 0.047899
-0.593745 0.492087
-0.405638 -2.606728
1.276992 0.761404
-0.221637 0.100843
0.396953 2.697208
-2.065541 -0.015365
0.231823 0.131727
-2.206133 0.757645
0.735028 -0.866024
-2.683446 2.187821
-1.628141 -6.082270
-0.189854 1.357467
-0.545303 -2.412029
-3.549385 -0.591626
5.281141 -2.078792
-1.092069 -0.110780
-2.228285 4.696930
-0.851311 -0.185620
-0.899309 -2.914533
-1.085394 -0.251402
1.804569 1.385125
1.227875 0.289666
-2.490327 3.160438
-2.173347 0.100783
-3.063680 0.075318
1.980309 -2.507195
-3.520756 -0.724705
-0.557303 -3.590720
-0.405593 0.330477
-2.763324 -6.432467
6.237482 -0.818520
-6.175869 1.160949
4.013612 -3.809821
-1.858742 1.761864
3.600113 7.956081
-7.832472 -3.451037
-5.115815 -1.137629
5.842614 -0.323540
1.532967 -0.579464
-3.478858 5.275906
-2.327346 1.634456
0.517387 -0.917826
-7.677517 -0.770650
3.872306 -9.904690
0.038182 -1.646244
2.567480 2.513329
0.059709 -8.240619
-1.739013 -4.000945
1.562963 -1.815201
7.068079 0.076904
-3.314230 6.976466
-1.960623 -4.294788
-1.409065 11.004092
-5.495484 -2.644386
-8.283226 6.784625
4.586491 -14.594745
-0.200976 10.697629
-0.291133 10.390767
-7.182823 -5.241124
-6.826048 -1.711898
0.054821 -4.824044
4.698891 -7.341577
2.281788 -9.648123
12.364161 5.475867
-3.125542 -18.374667
-15.247680 19.576307
29.458879 -28.046827
4.389851 7.622195
-5.850652 32.573695
-5.968974 20.389376
-15.648519 11.629563
-27.613353 12.442076
-11.415333 1.188746
-10.926600 22.858797
-14.570588 -15.657638
26.980243 25.600636
-46.902492 24.226239
5.511356 16.838343
12.989284 -25.754548
-10.475365 -1.248432
19.900787 4.434254
25.972204 -8.738336
14.370180 -11.243927
9.628025 0.174155
30.483739 19.117780
-69.129402 -175.063172
339.966785 310.740423
-114.214235 69.498173
-206.336883 136.609352
-23.326231 179.969962
-59.034055 0.735147
-108.382594 -3.536971
-136.420813 259.898901
73.639930 243.715266
224.763862 80.197260
-299.411449 310.038528
