7583.302265 2846.116951
-3476.516458 -110.955806
23.261722 1.395170
-462.739243 -65.669963
8.862223 -1.871971
-174.244300 -47.631506
3.178251 -0.792962
-94.557151 -30.910310
1.419739 -1.055758
-57.332752 -29.456121
0.946308 -1.658128
-32.373720 -22.340411
-0.779475 -2.179419
-21.498105 -15.140336
-0.069617 -4.192590
-12.973850 -13.268298
-0.817612 -3.729956
-5.633452 -8.454352
-1.718212 -4.001954
-2.538717 -5.755280
-1.123183 -4.540593
-0.503061 -3.236318
-0.574178 -3.999727
0.787688 -0.869627
-0.169503 -4.929625
0.132516 0.506342
1.314958 -3.208432
1.285566 0.329558
-0.947772 -4.267531
0.036905 2.149326
-0.574434 -3.391551
-0.011525 2.424282
-0.769374 -1.127253
0.433174 3.036460
-0.436295 -2.192462
-0.743096 2.363753
-0.002687 -1.602200
-1.139094 2.202098
-0.387023 -0.093853
-1.076431 1.682382
-0.829370 -1.080954
-1.388856 1.604533
-0.427299 -0.599378
-1.276614 1.225802
-0.907620 0.311978
-1.320879 0.072763
-1.214279 0.209994
-1.075195 -0.039934
-0.967105 0.369796
-0.958326 -0.002880
-1.276032 0.844969
-0.374695 -0.443536
-1.526773 -0.014418
-0.573235 0.336117
-0.655076 0.161965
0.126244 0.149711
-0.999665 -0.149789
-0.184596 -0.222338
-0.968079 0.016967
-0.180700 -0.398688
-0.990860 -0.031660
-0.282862 0.595620
-0.672594 0.345676
-0.156265 0.517233
-0.297901 0.123435
-0.056539 0.216079
-0.191468 -0.066432
-0.238446 0.888247
-0.375282 0.284164
0.095268 0.628366
-0.267430 0.025966
0.118854 0.306586
-0.065525 0.122890
-0.292864 0.806101
0.046351 0.167645
-0.101214 0.296165
0.092234 -0.263500
-0.603321 0.058448
0.088240 0.653448
-0.063187 0.175268
-0.194364 -0.126942
-0.100687 -0.050724
-0.409758 0.167541
0.133454 -0.026820
-0.130714 0.406831
0.195059 -0.390127
-0.155640 -0.114728
0.214158 -0.435732
-0.470817 -0.171727
-0.034849 -0.378856
-0.402525 0.016546
0.010105 -0.467859
-0.507983 -0.015027
0.254760 0.287495
-0.271688 -0.217057
0.074728 -0.317921
-0.305355 -0.000744
0.010397 -0.371276
-0.250129 0.535843
0.250951 0.211593
-0.112717 -0.103947
-0.031107 -0.277456
-0.201307 0.276213
0.311447 0.290496
0.224874 0.202551
-0.158829 0.208266
-0.088760 -0.166375
-0.045174 0.164842
0.142822 0.295655
0.054958 0.278932
0.189138 0.463108
-0.351301 0.032427
0.068789 0.122227
-0.096757 0.373424
0.494652 0.469371
0.054500 0.191412
0.308659 0.166598
-0.409250 -0.141298
0.247689 0.092947
0.081022 0.038691
-0.095787 0.082055
-0.106739 0.132625
-0.128591 0.204261
-0.103093 0.008047
0.293804 0.024481
-0.042991 -0.046404
-0.197123 -0.132258
-0.268505 0.233454
0.162660 0.124308
-0.078322 -0.168902
0.037532 0.049402
-0.007566 0.082893
-0.162713 -0.177481
0.129904 0.110479
-0.012961 0.009780
0.175863 -0.174330
-0.091272 -0.103454
-0.183747 -0.084173
-0.061525 -0.029211
0.246899 0.025831
-0.107346 -0.137100
-0.062507 -0.003227
-0.150969 0.015807
-0.014624 0.144279
0.182468 -0.139366
0.237369 0.120736
-0.023716 -0.106613
0.042329 -0.086907
0.017723 -0.041440
-0.109675 -0.321535
0.015659 0.051850
0.012943 0.035230
-0.128297 0.088591
0.119669 -0.015023
-0.050488 -0.171877
-0.173584 -0.094531
0.060980 0.029383
-0.055629 0.090493
-0.224289 0.011040
0.071334 0.163173
-0.029358 -0.025230
-0.125567 -0.121284
0.031232 0.251834
0.088105 0.131767
0.058790 -0.108543
-0.100441 0.059796
-0.011588 0.031966
-0.038553 -0.076077
0.109533 0.090421
-0.005737 0.010667
-0.106422 -0.000882
0.029851 0.137392
-0.166080 0.063430
0.223889 -0.016979
0.033415 0.084022
0.099108 0.148949
0.212673 -0.015569
0.038569 -0.053341
0.017166 -0.167792
0.058538 -0.152419
0.019294 0.082911
0.036623 0.082916
0.153844 -0.040618
0.022727 -0.115581
-0.027375 -0.122579
0.169606 -0.190528
-0.149274 0.064468
-0.057361 0.029678
0.198048 0.046446
-0.153662 -0.276076
-0.132191 0.139201
0.179326 0.098227
0.023850 0.015460
-0.066490 -0.021040
0.139022 -0.005544
-0.135937 -0.019869
0.040110 0.071157
0.045539 0.040328
-0.024520 -0.026643
-0.187884 -0.126054
0.080252 0.264653
-0.146932 -0.034134
-0.020910 0.187311
-0.067103 0.075785
-0.029302 0.044433
0.020689 0.104978
0.179265 0.140989
-0.065293 0.025608
-0.041932 -0.094114
-0.107675 0.015746
-0.105648 -0.054868
0.094957 0.173437
0.105046 0.124154
-0.005563 -0.118966
-0.144168 -0.283195
-0.196862 0.085375
0.144335 -0.107955
0.023643 0.001008
-0.140776 -0.049295
-0.151370 -0.016376
-0.080330 -0.173632
0.031867 0.065204
0.064914 -0.097264
0.176739 0.007322
-0.245865 -0.116243
0.057490 -0.018551
0.072226 -0.210999
0.043972 -0.017788
0.137251 -0.136620
-0.034600 -0.045968
-0.126085 -0.054747
0.066977 -0.027603
0.104144 -0.047773
0.063376 0.036398
0.097546 0.011576
0.067465 0.042951
0.093370 0.105196
0.296061 -0.164859
0.057274 -0.014199
-0.094805 -0.048007
0.144907 0.264156
0.185470 -0.036754
0.134123 0.057742
0.185318 -0.060765
0.025225 0.005481
-0.049432 -0.006926
0.119979 0.029345
0.002977 0.019892
0.076211 0.050851
-0.063166 -0.024317
-0.079504 0.166712
-0.059233 -0.021790
0.147342 0.111047
-0.042142 -0.025217
0.016277 0.048296
-0.108204 0.059363
-0.035069 -0.019354
-0.045136 -0.020334
0.071040 -0.110671
-0.157897 0.006959
-0.121713 -0.021912
-0.077996 0.095325
-0.099808 -0.140133
-0.092810 -0.011855
-0.014262 0.022255
0.007690 0.085105
0.042772 -0.186704
-0.151391 0.027577
0.013448 -0.156132
-0.054375 -0.064794
-0.041225 -0.007793
0.119765 0.052677
0.018417 -0.142473
0.124109 -0.043474
-0.089898 -0.244368
0.099963 -0.106974
-0.100037 -0.081068
0.176757 -0.042301
-0.069439 -0.183958
-0.035757 0.016365
-0.027060 -0.124718
0.076115 -0.059008
-0.034087 -0.025627
0.199810 0.007567
-0.077098 -0.129984
0.015024 0.061413
0.050413 -0.122304
0.072704 -0.143736
-0.050231 0.045498
0.121494 -0.045877
-0.037971 -0.047081
-0.149108 -0.096398
0.001412 0.082550
0.074803 -0.024398
0.026517 0.026661
-0.003064 0.041885
0.055770 -0.024109
-0.094583 -0.059647
0.081250 0.010618
-0.072773 -0.012774
0.076784 0.150588
-0.011502 -0.047011
0.162405 0.096506
-0.010409 -0.194284
0.107642 0.070613
-0.028396 -0.124926
0.034289 -0.024013
-0.077589 -0.085540
0.083756 0.028574
-0.019819 -0.121796
-0.081921 0.043282
0.017056 -0.054269
-0.103146 -0.061170
0.067549 0.017591
0.030232 -0.002552
0.022716 -0.098314
-0.220576 -0.054311
0.019482 0.053325
0.026644 -0.216618
-0.054768 -0.021828
-0.115104 -0.028901
-0.059831 0.010320
-0.292701 -0.123318
0.038566 0.075389
-0.102393 -0.144009
0.071955 0.093749
-0.203920 -0.109054
-0.110600 0.031928
-0.230954 -0.128648
-0.009079 0.087210
-0.016101 -0.061541
-0.048370 0.131366
-0.054531 -0.031968
-0.043625 -0.003645
-0.007166 -0.176137
0.000814 -0.034031
-0.019971 -0.055334
-0.090543 0.007100
-0.011255 0.008968
-0.068932 -0.179931
0.010992 0.024953
-0.057347 -0.112926
0.035966 0.185294
0.017081 -0.168559
-0.026232 0.054881
0.012119 -0.097097
0.101072 0.039283
-0.030283 -0.130687
-0.006201 0.108820
0.069336 -0.139277
0.008048 0.023476
-0.061591 -0.147124
-0.018989 0.190020
-0.001990 -0.119811
0.009978 0.117883
0.063147 -0.144358
-0.034885 0.051125
-0.093663 -0.049259
-0.068690 0.091281
-0.078922 -0.006814
-0.013882 0.076848
0.071125 0.042487
-0.034858 0.067477
0.035440 -0.004440
-0.087532 -0.056583
-0.040273 0.005055
0.039096 -0.068538
-0.053624 0.027491
-0.036477 -0.057220
-0.174851 0.035128
0.023103 -0.053646
-0.123006 -0.017614
0.031524 -0.072905
-0.120377 0.087098
-0.001745 -0.006894
-0.051103 -0.037393
-0.083716 -0.063636
-0.053084 0.036797
0.084463 -0.080808
-0.153859 -0.001374
-0.002534 0.020635
-0.088608 -0.018739
-0.050765 -0.026274
-0.098855 0.059191
0.091045 -0.025102
-0.092924 0.064855
0.003815 -0.033374
-0.115064 0.028113
-0.130746 0.007120
-0.127339 0.118940
0.099617 0.169303
-0.008046 0.065811
0.029013 0.082181
-0.062819 0.039243
-0.038210 0.072673
0.066064 0.048808
0.060489 -0.016552
-0.058480 0.105736
-0.007194 -0.021190
-0.049072 0.091410
-0.027097 -0.058706
0.036741 0.045919
0.042052 0.021951
-0.031980 -0.009027
-0.047142 -0.012576
0.002176 0.057073
0.085133 -0.099136
0.027300 -0.073440
-0.024300 -0.028140
-0.007856 -0.018784
0.024518 -0.106315
0.032073 -0.030398
-0.019765 -0.126481
0.070668 -0.047106
-0.102352 -0.020186
0.177696 -0.081164
-0.027456 -0.204787
-0.051872 -0.037836
-0.112377 -0.059718
-0.021985 0.086449
0.006680 0.011536
0.101664 -0.028211
0.030697 0.001988
0.014180 0.060433
-0.061378 -0.020157
0.054111 0.072093
0.003887 0.005298
0.158624 -0.045450
-0.117881 0.069190
-0.060474 0.139345
0.007572 0.061220
0.020734 -0.006204
-0.017137 0.026586
0.010694 0.077219
-0.075475 0.183521
-0.040538 0.105864
0.010101 -0.049868
-0.050959 0.047147
0.006733 0.039132
-0.022957 0.090221
-0.050963 0.144241
-0.079172 -0.092230
-0.007339 0.025483
-0.041964 -0.022865
0.058452 0.075631
0.017796 -0.075135
-0.121679 -0.041956
-0.083357 -0.127792
-0.060274 -0.074136
-0.101816 0.071620
0.036930 0.038538
0.087553 -0.009907
-0.057589 -0.136338
-0.019928 -0.085638
0.057897 0.044512
0.081774 -0.056064
0.057291 -0.132510
0.016812 -0.033878
0.043341 -0.118365
0.028466 -0.034096
0.115423 -0.013692
0.031479 -0.099449
0.030324 -0.117658
0.084937 0.026945
0.024118 -0.090022
0.095246 -0.001254
-0.001488 -0.004791
0.055883 -0.090389
0.017290 -0.076924
0.035378 0.081977
0.066996 -0.070718
-0.066412 0.015903
0.013081 0.057255
0.015923 -0.123076
-0.005500 0.001766
0.056023 0.032399
-0.059623 -0.139183
-0.170048 -0.074679
-0.249339 0.126764
0.044752 -0.049730
-0.102371 0.052551
-0.077195 0.021721
-0.110372 0.053097
-0.060947 -0.021762
-0.194853 0.048756
0.050768 -0.034203
-0.126565 -0.005694
-0.052931 0.064487
-0.079477 -0.037763
-0.035258 0.031216
-0.141897 -0.032141
0.041778 -0.035324
-0.046305 0.023134
-0.035464 -0.055713
-0.007663 0.049447
0.001589 -0.040742
-0.089445 -0.051500
0.065306 -0.004281
0.043656 -0.036659
-0.018046 -0.017221
0.079392 0.013440
-0.019466 -0.032733
-0.026110 -0.047967
0.138815 0.030312
0.201251 -0.060485
-0.035995 -0.241793
-0.016623 0.060224
-0.073088 -0.101164
0.027197 -0.081642
-0.074185 -0.039800
0.109018 0.069783
-0.111887 -0.155863
0.003024 0.146167
-0.048865 -0.144795
-0.024605 -0.018748
-0.021044 -0.051165
-0.073108 0.074536
-0.042872 -0.112188
-0.073009 0.103446
-0.051086 -0.114661
-0.029935 -0.025533
-0.143961 0.013573
-0.036715 0.034319
-0.084872 -0.069505
-0.033681 0.026671
-0.115978 -0.066276
-0.105724 -0.005093
-0.136446 0.122727
-0.009415 -0.045291
-0.041792 -0.052233
-0.120652 0.019390
-0.156252 0.122296
0.066398 0.089946
-0.076282 0.003446
0.046753 -0.119993
-0.027804 0.024555
-0.054783 -0.077214
-0.215310 0.127549
0.005089 -0.034114
-0.150578 0.060971
0.042678 -0.112001
-0.101479 0.163302
-0.012998 0.062449
-0.147523 0.043595
0.015715 0.011756
-0.133960 -0.056538
0.006312 0.063141
-0.027531 0.170480
-0.043374 0.027449
-0.062785 0.012770
-0.051075 -0.062608
-0.064054 0.052511
0.033508 0.076989
0.083319 0.071189
-0.181019 -0.112673
-0.019758 0.022774
-0.070713 0.001595
0.059588 0.016264
-0.023931 -0.011199
-0.023941 0.059176
-0.103871 -0.098303
0.002708 0.089471
0.027440 0.021002
0.118675 0.037092
0.064359 -0.095275
0.025692 -0.092671
-0.159682 -0.127215
0.088782 0.102296
-0.049543 -0.078657
-0.007764 0.000509
-0.011122 -0.044909
-0.066364 0.018957
0.024630 -0.014583
-0.030401 0.089399
-0.019180 -0.049971
-0.149557 0.005431
-0.007340 0.099075
-0.022519 0.075050
0.009128 0.049406
-0.111568 0.090308
-0.081055 0.117359
-0.036541 -0.010091
-0.019465 0.171278
-0.045075 0.009097
-0.035685 0.188577
-0.096712 -0.001435
-0.185663 0.128679
0.021395 0.077194
-0.080290 0.110175
-0.024756 0.081638
-0.154923 0.122292
-0.074542 0.169623
-0.050273 0.156409
0.174427 0.014013
-0.070699 0.043389
0.054458 -0.015009
-0.093644 0.056478
-0.023669 0.008296
-0.080831 0.027639
0.120764 0.023973
-0.076732 -0.070991
0.068271 0.087563
0.009534 -0.069961
-0.029639 0.000589
-0.064875 -0.042132
0.121849 0.028122
-0.036902 -0.119461
0.018844 0.089549
0.063850 0.009787
-0.037918 0.021474
0.097265 -0.082189
-0.053284 0.031454
0.177024 -0.009265
-0.015534 0.011589
0.078860 0.009597
-0.108849 -0.022147
0.082120 0.018333
0.005939 -0.037245
0.015469 0.042653
-0.051356 0.057124
-0.019201 0.123775
-0.069039 0.036490
0.123964 0.106741
-0.003035 0.023066
0.124705 0.092466
-0.018475 -0.040416
-0.051876 0.019584
-0.039212 0.009635
-0.010477 0.059006
0.017666 0.073295
0.023521 0.038412
0.019943 -0.092514
-0.132643 0.044642
0.062313 0.003023
-0.055730 0.043744
-0.020620 -0.047375
-0.116382 0.061036
0.124886 -0.004950
-0.133619 -0.031980
0.072822 0.158078
-0.064493 -0.001243
0.098538 0.033738
-0.050837 -0.094391
0.111530 0.054427
-0.020001 0.067353
0.101178 0.024664
-0.095784 0.003719
0.060451 -0.066410
-0.030732 0.015976
0.072715 0.100349
-0.002014 0.138359
-0.005728 0.084430
-0.015871 0.087661
0.166876 0.020927
0.110600 0.031928
0.098247 0.033723
-0.049302 0.098838
-0.041344 -0.017986
0.002917 0.090070
0.117076 -0.022803
0.115206 0.037692
-0.084020 0.039221
0.118484 0.019703
-0.239256 -0.185390
0.046943 0.108790
0.005397 -0.061759
0.041228 -0.030732
-0.236915 -0.047611
-0.010375 0.094136
-0.084604 -0.140013
0.030314 0.027120
-0.077796 -0.063042
0.055818 -0.040187
-0.208273 -0.096911
0.102188 -0.008344
-0.118825 -0.158923
0.043007 -0.056305
-0.150064 -0.063248
0.017648 -0.137501
-0.163311 -0.025816
0.014840 -0.004107
-0.039383 0.049614
0.076100 0.015627
-0.011072 -0.060511
0.101739 -0.044910
0.039769 -0.058732
0.017387 0.045160
0.085628 0.032994
-0.050883 -0.029265
0.117854 0.131858
0.183849 -0.105320
0.154771 0.044738
-0.076089 -0.054432
0.155483 0.176989
-0.018207 -0.147629
0.035254 0.043902
0.045691 0.065894
0.136635 0.064225
-0.136798 0.023162
0.062768 0.188578
-0.015422 -0.030834
0.022178 0.100683
0.089259 0.057136
0.030378 0.043563
-0.135107 0.009608
0.028210 0.139727
-0.074158 -0.046752
-0.011415 -0.038465
-0.117079 0.021119
-0.144329 0.041442
-0.133066 0.116940
-0.103118 0.148415
0.020738 -0.005887
-0.169136 -0.031761
0.099009 0.076251
-0.202200 -0.096588
-0.075735 0.119278
-0.141164 0.077450
0.013439 0.004568
-0.044115 -0.118826
-0.007462 0.092094
-0.003788 -0.031875
0.072065 -0.016289
-0.172085 -0.147877
-0.035354 -0.062346
-0.036620 -0.078595
0.038304 0.001374
-0.055045 -0.026857
-0.012815 -0.095065
-0.151106 0.026730
0.022336 -0.098372
0.111263 0.080289
0.045972 -0.101905
-0.009998 -0.030631
-0.000402 -0.052822
-0.021932 -0.040486
0.070289 -0.069191
0.100581 -0.046640
-0.149058 -0.107733
0.014079 0.028442
-0.137810 -0.064661
0.019265 0.261574
0.149091 -0.054425
0.115658 0.012401
-0.240287 -0.148838
0.080665 0.161852
-0.015290 0.080867
0.069855 0.097481
-0.019433 0.094277
0.049202 0.064888
-0.035110 0.047128
0.258671 0.080582
0.051600 0.041617
-0.031041 0.015878
-0.043422 0.078113
0.003419 -0.047969
-0.073709 0.080948
0.288446 0.049905
-0.208839 0.105881
-0.056033 0.064234
-0.077902 0.158771
0.056805 -0.024444
0.094186 0.068881
0.088009 0.080511
-0.088623 0.075537
-0.221489 -0.003557
0.127715 0.147733
0.048871 -0.208787
-0.064135 -0.069258
-0.211257 0.165752
-0.161857 0.210894
-0.003739 -0.046936
0.046445 0.042080
-0.062912 -0.118680
0.011989 0.042486
-0.272396 0.087044
-0.064509 0.114398
-0.045991 -0.034045
0.033623 0.079874
-0.031883 0.090517
0.123986 -0.033309
-0.107654 0.156676
0.175102 -0.126629
0.023450 -0.138282
-0.048974 0.039910
-0.015862 -0.036797
0.140716 -0.018937
-0.092293 -0.103177
0.078166 -0.017940
0.040993 -0.066408
-0.162150 0.103958
0.209663 0.076982
0.174953 -0.267556
-0.114045 0.005958
0.081451 0.040896
0.233643 0.045916
-0.143932 -0.176887
0.106417 -0.120777
0.003429 -0.099928
-0.084858 -0.021588
-0.010977 0.100070
0.036259 0.114885
-0.034287 -0.134346
0.023177 -0.127841
-0.016489 -0.035004
-0.187622 0.027245
-0.079858 0.166833
-0.022126 0.124971
-0.207978 -0.000328
0.166506 0.098655
-0.017606 0.151980
0.099872 0.026009
0.014225 0.022350
-0.118674 0.107859
0.043464 -0.068099
0.004204 0.040398
0.102259 0.063392
-0.060646 -0.107213
-0.088591 0.130534
-0.024847 0.249159
0.123831 -0.127454
0.045274 -0.028042
-0.073079 0.152410
0.249382 0.012215
0.055174 0.076016
-0.028744 0.038353
0.175604 -0.111255
0.086306 -0.152181
-0.114298 -0.031950
0.162941 0.120580
-0.003864 0.020641
0.012346 0.095967
0.122108 -0.330902
-0.001938 0.012718
-0.027761 -0.088057
0.022223 -0.046417
-0.222830 0.130614
-0.205148 -0.078833
0.026035 0.167481
0.104879 0.069693
0.066877 0.034730
0.037704 -0.097546
-0.254061 0.078793
-0.029525 -0.011678
0.160335 -0.017395
-0.016783 -0.114886
-0.220032 -0.096515
-0.105700 -0.036091
-0.198620 0.194945
0.041364 -0.261169
-0.088250 0.168168
-0.152806 -0.072921
-0.045425 -0.089810
-0.263045 -0.034663
0.118123 0.298701
0.119639 -0.323095
-0.130347 -0.002724
-0.342010 -0.190923
-0.087066 0.023086
0.113687 -0.026419
-0.091795 0.113338
0.115317 -0.153353
-0.277551 -0.018500
-0.195781 -0.136273
0.226433 -0.237256
-0.229623 -0.046096
-0.211373 0.058977
-0.396652 0.282034
-0.022361 0.210153
0.037665 -0.033243
0.280309 -0.152768
-0.086285 0.343085
-0.069897 0.083607
-0.056203 0.211385
0.090871 -0.026627
0.146977 -0.217896
0.265707 0.035869
-0.205741 0.177761
-0.147298 0.152449
0.173049 0.269724
0.244094 -0.367106
0.031810 -0.102120
-0.001767 0.181844
0.114745 0.535490
0.258841 -0.333371
0.117123 -0.013165
0.195975 -0.209352
0.035367 -0.249736
-0.002282 0.464328
0.230794 -0.073514
0.204893 -0.230831
0.093204 -0.069970
0.195137 -0.095159
0.138466 -0.284815
-0.122274 -0.123661
-0.191492 -0.249293
-0.180457 -0.071605
-0.224978 0.259074
-0.199280 0.274118
0.048712 0.017230
-0.042546 0.208266
-0.172529 -0.267965
-0.148384 0.369504
-0.465456 0.533396
0.337819 0.168516
-0.488039 -0.352497
-0.199743 0.307626
-0.472130 0.116827
-0.022753 0.710665
-0.403599 0.113285
-0.428128 0.102718
-0.258878 0.055774
-0.379261 0.321219
-0.220750 0.346510
-0.005633 0.488870
-0.483664 0.016850
-0.139272 -0.260080
-0.460773 0.212289
0.009321 -0.017993
-0.167649 0.422532
0.176840 0.018713
0.078446 0.015490
0.099169 -1.003076
0.000683 0.018984
0.103639 -0.846032
0.001885 -0.203450
-0.236088 -0.493669
-0.342279 0.049499
0.402316 -0.337783
0.564869 -0.179164
0.111291 -1.170226
0.386098 0.645820
0.575747 -0.815874
0.183865 0.166401
0.555494 -0.982417
0.567020 0.044788
0.658549 -1.049023
0.416468 0.238631
0.481501 -0.127190
0.099698 -0.518088
0.487800 -0.027714
0.657086 -0.776287
0.113147 -0.266162
0.343955 0.504850
0.171812 -0.080694
0.043739 -0.641579
-0.160524 -0.243459
0.497498 -0.809905
-1.204349 0.151339
0.769361 0.724275
-0.569403 -0.646761
0.417288 -1.041782
-0.397457 -0.961771
0.527146 -1.412108
-1.445802 -2.613918
-2.110622 0.135157
-0.193148 -1.992396
-1.111949 -1.141978
-0.972365 -2.569095
-1.296521 0.161068
-0.213635 -3.694871
-1.426401 -0.102907
0.603006 -4.430088
-1.579927 0.594130
1.355811 -4.677979
-3.273429 0.888424
4.514003 -6.206288
-4.829192 0.300315
5.747226 -3.710040
-4.909824 2.035487
3.759138 -5.046531
-7.375751 2.128999
4.872942 -4.030066
-8.506834 2.164185
-6.776350 6.584124
-10.811124 1.738052
-48.035497 10.243674
-16.904109 -0.127487
-201.588509 37.050391
-31.556922 2.284938
-2721.983356 206.857569
