5996.683126 3071.709994
-3344.086387 -9.060791
28.439856 262.093771
-289.382166 -156.229079
-45.021530 61.936627
-176.161047 -78.228654
-41.873004 -40.610666
-34.894255 11.429178
17.975896 18.083638
-19.402553 19.900582
10.182061 -17.121738
22.186910 10.827283
-24.460593 22.223879
-11.121535 -10.700422
-20.062068 -3.829099
-2.022607 -13.462883
1.144380 1.223323
-1.745351 -7.325008
16.271179 3.257596
-4.944657 -2.014041
11.985819 -8.802047
-2.470354 -0.794558
-1.792979 1.488216
-7.953114 -3.805840
4.790428 2.886496
10.145520 1.728918
5.236156 10.386204
1.651141 -2.748715
0.190001 0.651719
-5.063376 1.915667
-5.226490 0.412953
-4.416016 6.754396
-0.364271 -0.229586
0.735851 1.997788
1.649281 -3.866933
1.821146 -1.805931
-3.943463 1.715059
-3.138738 -1.831282
-1.778111 3.311331
1.445012 -2.537267
0.943391 1.790114
1.245040 -1.977619
2.374485 0.427056
0.526883 -1.879357
0.183877 0.343891
-1.154081 1.032158
-1.260533 0.509536
-1.334408 -0.208407
0.936914 -1.053262
0.968028 -0.386874
0.967613 -1.049139
-0.350166 -1.334647
0.153995 0.053439
-0.753497 0.592798
-1.182326 2.046639
-0.215101 0.629593
-0.137416 0.254597
0.618940 -0.312129
-0.206333 0.269911
-0.353394 -0.554877
-1.601998 0.060168
-0.031987 0.884717
-0.388529 0.299085
0.136246 0.860405
0.711666 -0.326754
-0.097112 -1.336652
0.506560 -0.359658
-0.232492 -0.161613
-0.110777 0.273947
-0.321907 0.597265
0.278044 0.373800
0.375682 0.278126
-0.485757 -0.573149
0.271588 -0.919656
-0.676623 -0.420798
-0.058284 0.384173
-0.691148 0.518244
-0.050959 -0.034799
-0.021909 0.263204
0.234321 -0.392404
-0.256371 -0.348605
-0.597300 0.082414
0.106339 0.033734
0.239951 0.262579
0.222312 0.261308
0.028738 0.382575
0.282833 0.437376
-0.107175 -0.069394
-0.005338 0.202761
-0.236440 0.308139
0.043995 0.075395
-0.037209 0.210570
-0.381226 -0.215078
0.613623 -0.136930
0.596199 -0.208150
0.157145 0.436687
-0.015605 -0.158815
-0.345731 0.204473
-0.097314 0.092903
0.145086 0.386649
-0.208229 0.093820
0.395494 -0.165516
-0.137352 0.322322
0.088171 -0.206718
-0.619152 0.373537
-0.875425 -0.279710
-0.034887 0.041071
-0.071216 0.282252
-0.195981 0.029474
0.039654 0.092396
0.043934 -0.248618
0.095565 0.272920
-0.278128 -0.117689
-0.195954 -0.364194
-0.205543 -0.095911
-0.317321 0.312841
0.357887 -0.142643
-0.095324 0.068060
-0.193302 0.141397
0.179295 -0.285052
-0.275604 -0.076763
-0.336788 -0.553886
-0.197593 0.234157
-0.087589 -0.263056
-0.627131 -0.023360
0.090396 -0.198564
0.227213 0.037960
0.109013 0.257270
0.352879 -0.007066
0.182819 0.124106
-0.063139 0.184513
-0.526244 -0.123126
-0.300166 -0.378534
-0.407762 0.019061
-0.232320 -0.007178
0.169819 -0.127811
-0.145732 0.480904
0.017815 -0.320576
0.705046 0.196818
-0.141784 0.443641
0.030133 -0.075580
0.313702 -0.213028
0.075619 0.056001
0.044861 -0.389284
0.070112 -0.249728
-0.289902 0.050515
-0.070191 -0.391400
0.278707 -0.191255
0.051408 0.097132
0.230862 -0.028894
0.003636 0.160735
0.206479 -0.324977
0.324415 -0.180115
-0.074951 0.025462
-0.272695 -0.288480
0.437265 -0.172876
-0.060275 -0.346055
-0.228937 -0.101575
-0.509331 -0.283790
-0.223123 0.498239
0.096427 0.040759
-0.128955 0.009024
-0.108309 0.254749
-0.407165 0.057999
0.134863 -0.134641
-0.382337 -0.073285
-0.012045 0.068763
-0.232360 0.280157
0.310087 -0.031060
0.129730 -0.032672
0.290685 -0.242102
-0.139924 -0.103878
-0.206134 0.366173
-0.114784 0.342483
0.208700 0.056972
0.093684 -0.167562
-0.196324 -0.215210
0.181532 0.114256
-0.215814 -0.074925
0.384522 0.217052
-0.200047 0.144379
0.256584 -0.095217
-0.275750 0.421518
0.042214 -0.312022
-0.363499 -0.299675
-0.160891 -0.229299
-0.128527 0.260241
0.242549 0.118312
-0.208858 -0.061886
0.196126 -0.087549
-0.444832 -0.270496
-0.368123 0.122586
0.037284 -0.014570
0.019770 0.006732
0.039923 0.068764
0.084628 -0.108797
0.189481 -0.066171
0.206391 -0.180942
-0.149873 -0.143050
-0.039947 0.042038
0.116606 -0.057155
-0.104264 -0.175398
0.115203 0.017615
-0.202902 -0.417942
0.213523 0.047019
-0.005856 -0.008077
-0.261795 0.064209
0.220066 0.222581
-0.028478 -0.146325
-0.441996 -0.045132
0.160755 -0.088139
-0.501532 -0.116996
0.442937 0.130841
-0.054702 0.055651
0.114651 -0.175880
0.171336 0.049024
-0.156816 -0.130318
-0.248998 0.050214
-0.089455 -0.271726
-0.154285 -0.184566
0.057320 -0.007265
-0.269672 0.040654
-0.416183 -0.192087
0.147728 -0.368096
-0.036888 -0.175341
0.281381 0.086659
-0.085321 -0.166613
0.004427 -0.002410
0.037029 -0.162943
-0.000118 -0.033104
-0.380197 0.345366
-0.018191 -0.466022
0.133064 0.103228
0.001812 -0.180824
0.045621 -0.128371
-0.097826 -0.095541
0.095027 0.114981
-0.098182 -0.022509
-0.035293 -0.183629
0.264154 0.107510
-0.233660 0.329234
0.114433 -0.045676
-0.007883 0.085999
-0.030263 0.214648
-0.000888 0.046385
-0.109620 -0.363368
-0.134773 -0.250527
-0.053031 -0.048534
-0.044896 -0.506203
-0.075558 -0.053725
-0.123175 -0.034836
0.149090 -0.101954
0.041696 -0.079061
0.291758 0.248115
-0.254717 -0.163299
-0.321582 0.214007
-0.094200 -0.209731
0.050916 0.094286
-0.057755 0.237375
-0.110546 -0.096500
0.119155 -0.105975
0.357078 -0.041800
0.067627 -0.000988
0.263574 -0.107420
0.057652 0.091451
0.060494 0.119123
-0.056721 -0.094562
0.113170 0.373087
-0.231023 -0.030803
-0.264595 0.158620
0.059171 -0.137615
-0.199288 0.011008
0.062999 -0.040183
0.209601 -0.055671
0.133182 -0.023447
0.189048 -0.050991
0.278659 -0.319492
0.066143 0.142837
0.017333 -0.479611
-0.367940 -0.138299
-0.025833 -0.013170
-0.202855 -0.214936
-0.043593 0.093930
-0.095701 -0.045223
-0.015571 0.004279
0.103740 -0.109494
-0.157040 0.144084
0.003687 -0.235819
-0.353591 -0.083338
-0.108383 -0.282288
-0.051393 -0.268606
-0.298717 0.556946
-0.016611 -0.223367
-0.218179 -0.240492
0.202835 0.161042
-0.239898 -0.113271
-0.068599 0.237630
-0.193614 0.064541
-0.109596 -0.020160
-0.108126 0.084277
-0.002298 0.023026
-0.271918 -0.213764
0.097619 -0.300339
0.143688 -0.200321
-0.077887 0.172297
-0.006861 -0.066850
0.070309 0.031284
-0.153252 -0.049998
-0.007301 0.204062
-0.086447 -0.343339
-0.036130 -0.061587
0.274042 -0.013661
-0.067566 -0.186727
-0.117229 0.043704
0.075777 -0.210166
-0.358319 0.014888
0.000064 -0.017641
0.049294 0.226470
0.187970 -0.186087
0.061140 0.107066
-0.005443 -0.023700
0.127315 0.108216
0.175323 -0.035452
0.020788 0.153697
-0.051386 0.278220
-0.037597 -0.058278
0.207254 0.027667
0.009158 -0.121606
-0.051889 -0.274096
-0.041370 -0.167267
-0.071627 0.089891
0.072535 -0.072385
0.109308 -0.212881
0.019544 -0.335006
-0.418323 -0.026343
-0.194120 -0.225349
0.220837 -0.058079
0.184573 0.184652
-0.025596 0.116660
0.030008 -0.085531
0.159397 0.220818
-0.052676 -0.013077
-0.153098 -0.264138
-0.065682 0.161971
-0.022170 0.030311
0.389585 0.087819
0.115788 0.047614
0.040628 -0.080660
-0.222330 0.065681
0.023612 0.066257
0.104984 0.099947
-0.000707 0.151838
-0.497848 -0.253104
0.017971 -0.172683
0.091021 -0.050671
-0.167507 0.005577
-0.042866 -0.195315
-0.118107 -0.086825
0.272544 -0.041086
-0.119036 0.219876
-0.115409 -0.170990
-0.165532 -0.131632
-0.127002 0.049450
-0.391213 -0.189221
-0.136381 0.199490
-0.038415 -0.028124
-0.070062 0.128438
0.059167 -0.196699
-0.068592 0.297859
-0.157728 -0.151108
0.047967 0.024261
-0.042610 -0.023408
0.107533 0.173646
-0.001060 -0.084992
-0.028471 -0.062427
0.062638 -0.074309
0.271900 -0.003965
-0.342888 -0.077623
-0.007665 -0.110296
-0.102327 -0.279964
0.141694 0.077718
0.012117 0.175477
0.072921 -0.055238
0.039840 0.201462
-0.004480 0.365046
-0.176851 0.344803
-0.239822 0.230012
-0.053409 0.335428
-0.201517 0.230381
0.233539 0.117886
-0.036533 0.052648
0.072221 -0.248986
-0.085745 -0.118697
0.036687 0.013487
0.005290 0.207305
0.026680 -0.002486
0.091542 -0.148410
-0.079854 -0.036433
-0.034026 -0.058546
0.060514 0.097315
-0.203604 0.197174
0.109662 -0.082538
0.089387 0.339771
-0.229378 0.165983
-0.317624 0.407923
0.091321 0.393246
0.067162 -0.143129
0.077013 0.089762
-0.073488 -0.298238
0.193294 0.008841
0.022269 -0.124879
0.417215 -0.334457
0.051283 -0.535221
0.168882 -0.334290
-0.003939 -0.033844
-0.042825 -0.063952
0.598435 0.153825
0.088185 -0.175256
-0.007018 0.045580
0.025904 -0.474076
0.064105 0.366369
0.352300 0.181004
0.005312 -0.125309
0.000000 0.068761
-0.080978 -0.229536
-0.231943 0.389273
-0.030411 0.152525
0.141388 -0.266558
0.293765 -0.300791
0.189217 0.133589
-0.189770 0.028521
0.375821 0.330504
0.535042 0.211735
0.185799 0.172027
0.240831 -0.104306
-0.050090 -0.052557
-0.051524 0.381087
0.046543 0.074044
-0.187480 0.101020
0.167083 0.040734
-0.336233 0.135263
0.013017 0.211601
0.193816 0.262678
0.265969 -0.055248
-0.199918 -0.095171
-0.086910 -0.316176
0.219194 -0.263653
0.089240 0.033848
0.072886 -0.357684
0.248119 -0.103988
-0.086402 -0.302521
-0.110894 -0.091151
-0.156618 0.058790
-0.237550 -0.052821
-0.169903 -0.209736
-0.193157 -0.308290
-0.290522 -0.127589
-0.099519 -0.058873
-0.244678 0.012892
0.218823 -0.024972
-0.099435 -0.012141
0.328687 0.023479
0.030514 0.213794
0.009502 0.004021
0.388510 -0.230741
-0.093320 0.155837
0.318071 -0.110757
-0.106274 -0.274066
0.294257 -0.173564
0.119191 -0.004414
-0.210166 0.019552
-0.155424 -0.089703
0.052366 -0.031105
-0.223305 -0.085378
-0.164741 -0.080643
-0.218909 0.149897
-0.206250 -0.302638
-0.136436 0.179964
-0.013083 -0.114886
-0.156097 0.281507
-0.132722 -0.162538
-0.073218 0.190602
0.079548 0.111951
0.059003 0.064466
0.051457 0.084123
-0.192973 0.000004
0.244719 0.045356
-0.331187 0.337499
-0.175496 -0.003558
-0.062152 -0.047241
-0.115300 -0.029116
0.055360 -0.183784
-0.174433 0.120909
0.049010 -0.198977
0.230164 -0.062226
0.115123 -0.093589
-0.121174 0.233513
-0.050490 0.069825
0.006631 -0.064271
0.118740 -0.136098
-0.286557 0.057132
-0.322110 0.074515
-0.091291 -0.063277
0.242573 0.225418
-0.056700 -0.206963
0.061931 -0.183560
0.007880 0.275190
-0.080867 0.079192
-0.019010 0.125523
-0.080625 0.190171
-0.092668 0.118260
0.182509 0.098545
0.250839 -0.045347
0.154382 -0.089879
-0.222188 -0.172899
-0.058935 0.112743
0.197252 -0.058885
0.042403 0.147799
0.051535 -0.373875
-0.013396 -0.112527
0.051704 0.119682
0.002679 0.087923
0.005045 0.284870
0.230154 -0.112355
0.015757 0.174512
-0.098888 0.064553
0.073212 0.104707
-0.122361 0.117032
-0.053029 0.067329
-0.282774 0.170389
0.242102 0.214712
0.101795 -0.112930
-0.101815 -0.080650
0.108289 -0.332769
0.094031 0.146034
-0.344978 0.059626
-0.221350 -0.018374
0.230409 -0.266001
0.073279 0.063749
0.146047 0.311662
-0.050714 -0.309015
-0.119615 0.217630
0.210903 0.040944
-0.287923 0.139345
-0.021655 -0.084325
-0.005624 -0.005502
-0.048150 -0.000390
-0.052818 0.045748
0.154743 -0.078269
-0.231189 0.303699
-0.074908 0.115771
-0.199228 -0.006051
-0.015171 0.271870
-0.242167 -0.066833
-0.116998 -0.019382
-0.130386 0.194974
-0.062842 -0.111287
-0.078747 -0.316367
-0.090776 0.180934
-0.132119 0.071236
-0.260106 0.134431
-0.118830 0.335496
-0.114449 -0.149547
-0.171836 0.457908
-0.162691 -0.025168
-0.160684 -0.228525
0.386861 0.293779
0.098353 0.157376
-0.006847 0.026867
-0.117400 -0.069025
-0.034583 -0.007840
-0.114473 -0.048557
-0.186428 0.128871
-0.166150 -0.109941
0.018933 0.170539
0.255987 -0.158675
0.415637 0.228261
0.246684 0.084221
0.260818 0.151212
0.022793 -0.266430
0.298911 0.029258
0.137679 0.184511
-0.460982 0.018663
0.186817 -0.171894
-0.093063 -0.018877
-0.135633 0.152871
-0.195447 -0.186809
0.011540 -0.123536
-0.066073 0.277991
-0.232550 -0.211379
0.208496 0.142260
0.165081 0.311540
-0.202314 0.003106
0.026897 -0.118691
-0.178997 0.209497
-0.055596 -0.062285
-0.345101 0.022827
0.211967 -0.279317
0.065931 -0.155361
-0.017190 -0.069545
0.318615 0.112724
0.026300 -0.290825
-0.067624 0.157192
0.240674 0.134403
-0.048688 0.301871
-0.124820 0.329377
-0.233669 0.157253
0.017286 0.244065
0.064996 -0.119442
-0.048614 0.329484
-0.052745 -0.151209
-0.033169 0.066247
0.080767 -0.324359
-0.107018 0.082961
-0.182536 0.090167
-0.042679 -0.095083
0.069923 0.190809
0.414010 0.124208
-0.260213 0.075638
0.018837 0.186071
-0.269344 -0.137830
-0.192558 0.165396
-0.185143 0.180778
-0.335425 -0.155987
0.187350 0.014609
0.197139 0.141653
-0.175466 0.065515
0.238599 -0.107155
-0.055559 0.052005
-0.049207 0.084984
0.134922 0.103696
-0.402952 0.100268
0.053323 0.296539
-0.433359 0.001873
-0.069960 0.274598
0.162866 -0.129687
0.165219 0.037741
0.103421 0.152563
0.119442 0.017177
-0.552366 0.416159
0.409905 0.046412
-0.024700 0.185906
-0.135224 0.077099
0.121380 -0.413799
0.063564 -0.007693
0.011309 0.092679
-0.143787 0.038074
-0.152171 0.329499
0.135268 -0.145047
-0.374141 -0.031224
-0.127716 -0.240647
-0.074399 -0.030618
-0.149522 0.127066
-0.026996 -0.034598
-0.198311 0.256953
0.413364 0.177516
0.081420 -0.055002
0.020916 -0.185854
-0.050367 0.005831
-0.015432 0.215561
-0.150476 0.151301
0.485575 0.204693
-0.132004 -0.252631
0.159870 0.076390
-0.301878 0.369935
0.036874 0.030906
-0.405523 0.017654
0.065608 0.066660
-0.210064 -0.035616
0.060589 0.005418
-0.002820 -0.310317
0.049071 -0.093328
-0.383640 -0.085915
-0.041399 0.187535
0.364493 -0.012088
0.091207 -0.242096
-0.078922 -0.339290
-0.264161 -0.248652
-0.131647 0.196673
-0.271904 -0.053741
0.239387 0.190463
-0.246595 -0.283013
-0.054240 -0.097360
-0.257762 -0.314307
0.547844 0.119651
-0.204743 0.137514
-0.197564 0.135428
0.002060 0.427744
0.210991 -0.013888
0.194478 -0.188613
-0.273138 0.025401
-0.171612 -0.159770
-0.017859 0.181362
0.348029 0.000801
-0.208702 0.217991
-0.099059 0.321962
-0.431817 0.442792
-0.115619 0.220700
0.022539 0.309790
0.023338 0.248973
0.087663 -0.259828
0.685290 0.134796
0.115210 -0.023789
0.000210 -0.345005
0.294029 0.233109
-0.519986 0.144267
0.154992 -0.213532
0.134698 0.370164
-0.030417 -0.072396
-0.113659 0.048398
0.056174 0.029361
-0.182427 -0.181708
0.250483 -0.089248
0.235215 0.155662
0.225270 -0.434877
0.446379 -0.244926
0.062698 0.127434
-0.300071 -0.094532
-0.338687 0.106346
-0.459464 0.648011
-0.788582 -0.002484
-0.026600 0.109033
0.353381 0.068629
0.034607 0.376657
-0.449045 -0.008384
0.247756 -0.365441
-0.048704 -0.064909
-0.603220 -0.009837
0.086472 0.279842
-0.323427 0.190046
-0.226544 -0.150983
0.136010 0.311108
0.219057 -0.061804
-0.104271 -0.158641
-0.206495 -0.200641
-0.061412 0.291788
-0.307023 -0.053167
-0.046030 0.113099
-0.216175 0.195797
-0.194285 -0.062382
-0.359702 0.219874
0.297109 -0.343694
-0.008031 0.273604
-0.366314 -0.330677
-0.179795 -0.284005
-0.178380 -0.275360
-0.065256 -0.626990
0.101851 0.358423
-0.270185 0.004954
0.268977 0.074382
0.136605 0.050230
-0.020524 0.036411
-0.192424 -0.163951
-0.334065 -0.974028
0.760288 -0.214832
0.075222 0.116549
-0.370586 0.263416
0.431180 0.510772
-0.180837 0.409114
0.157505 -0.554170
0.036201 -0.489317
0.218900 -0.607344
0.047063 -0.088710
-0.794199 0.006204
0.029505 0.330975
0.336789 0.670461
0.256728 -0.244094
-0.003405 -0.598103
-0.287037 -0.562292
-0.013132 -0.839600
0.051434 -0.123907
0.164397 1.118005
-0.280223 0.867201
-0.504494 0.232741
0.121421 -0.498914
0.142675 0.136478
-0.879026 -0.625054
-0.007037 -0.289651
-0.796591 -0.134084
0.006211 0.205050
-0.149681 1.399817
0.149561 0.151010
-0.643491 0.352374
-0.432514 -0.712039
0.386498 -1.715055
-0.361006 -0.392843
0.105005 -0.702638
0.484615 0.075643
-0.015763 1.260348
1.064591 0.677470
1.053699 0.542404
-0.222516 -0.406981
0.090822 -0.773492
-0.665605 -1.665757
0.307151 -0.159823
-0.663614 2.528315
-1.258653 0.249379
0.712182 2.444261
-0.564440 -1.158440
0.432950 -0.361685
-1.401080 -2.166049
-2.602832 -0.261152
-1.642409 -0.138484
-1.492411 -0.413453
2.341958 3.167910
-1.224158 2.828325
-0.353473 -2.791832
0.612658 -3.870687
-0.282341 -1.503493
1.419994 0.589925
-0.359949 -1.373655
3.023537 1.955229
1.663947 0.365763
1.708208 3.297124
4.152714 -0.443725
-2.110766 3.514614
-0.209120 -6.107730
-0.358469 -3.363877
-1.324968 1.567996
-2.812133 1.778665
-4.778919 5.404512
1.565792 -1.370170
-0.694704 1.565480
-1.704264 -9.650340
2.830267 -8.499831
-11.116140 -0.213533
0.219408 -8.116542
-2.291354 8.902245
10.973740 4.837099
-3.604368 10.591768
2.390363 -14.053239
-1.450795 -8.515961
4.009672 -0.761337
-14.873173 1.815451
9.921509 16.976061
-8.993570 21.536142
-0.065831 -2.048092
5.728143 22.255211
-23.852766 -9.533108
-15.796998 30.203011
-32.459945 -75.459393
70.310626 -28.389555
-16.531299 60.359302
-89.442597 -21.600104
-47.506243 140.161108
-1138.721255 234.587773
