5678.168208 2708.590851
-2862.025058 -110.715419
11.164021 156.254865
-201.980294 -138.936831
-55.540417 22.860553
-90.112186 -116.582820
11.583291 -21.897952
-40.704435 30.061569
0.181787 11.728337
-4.063215 20.852665
3.979318 4.943648
2.993452 16.361001
-13.438581 -17.434744
4.463155 4.505007
-6.391316 -19.078043
9.556292 -4.913614
-0.761844 5.712375
-3.565571 -1.032330
5.162905 4.045118
8.561553 0.357430
5.316798 3.528574
4.063653 -4.827165
0.287154 -2.156472
0.672851 2.600564
-5.316862 0.165669
-2.356788 9.199283
-5.009786 -0.693271
-0.661379 0.075898
2.022434 -0.795839
-1.317496 -3.130452
-1.684702 -0.506857
-2.595378 -5.167700
-1.721519 1.953085
-2.562873 -1.403644
1.529013 1.602451
0.335419 0.651819
2.047493 -2.125831
1.195629 0.327731
0.896515 -1.827661
-1.790432 -0.088588
0.657750 -1.119662
-0.175046 -0.360278
0.281656 0.209652
0.824722 -0.858064
-0.093930 -0.133651
0.154590 0.143796
0.253889 -0.668050
-0.567874 1.138939
-1.684910 -0.437442
-0.484843 -0.352562
-0.642967 0.084994
-0.700630 0.348579
-1.092340 -0.741562
0.252266 -0.366195
-0.423707 -0.199813
-0.208580 -0.153350
-0.621719 -0.217395
-0.036164 0.304851
-0.594398 -0.039611
-0.652498 0.069320
-0.516175 0.341113
-0.091400 -0.206847
1.011587 -0.264993
0.478024 -0.409958
-0.204292 -0.073108
-0.254681 -0.261888
-0.075960 -0.049584
0.011686 -0.473033
-0.224379 -0.281493
-0.133927 0.527814
-0.054149 0.446277
-0.369009 -0.000121
0.401585 0.142557
-0.878000 0.683488
-0.436598 -0.048668
-0.414330 -0.022148
-0.187177 -0.693371
-0.538384 0.432012
-0.223002 -0.291955
0.060792 0.085459
0.127230 -0.243349
0.017821 -0.073792
-0.332264 0.093620
-0.292057 -0.244895
0.149817 -0.346403
-0.034960 0.148786
-0.045194 -0.099855
0.156634 0.139516
0.267199 -0.118876
0.155043 0.029317
0.153165 -0.255387
-0.090798 -0.122422
-0.292374 0.398931
-0.270176 -0.021655
-0.046061 0.466105
0.001885 -0.110639
-0.110930 -0.120935
0.052891 0.077966
-0.421624 0.142475
-0.586331 -0.147054
-0.215900 -0.153289
-0.674691 0.222410
-0.052846 0.326040
-0.312898 0.109536
0.102659 0.023364
0.097259 -0.279883
-0.015773 -0.169200
0.070226 0.107800
-0.104622 -0.088379
0.136861 0.003803
0.262409 0.177112
-0.116205 -0.093090
0.077504 -0.044799
0.282970 -0.060991
0.231921 -0.071604
0.012058 0.072047
-0.039331 -0.019851
-0.197675 0.277874
-0.037433 0.046933
0.215222 -0.216233
0.021348 -0.054636
-0.173749 -0.079401
-0.311171 -0.220636
-0.050284 -0.224473
-0.227522 0.189751
-0.311231 -0.005587
-0.398646 -0.009889
-0.116026 -0.141756
-0.224852 0.102219
0.135264 0.218548
-0.046252 0.077405
0.212805 0.104869
-0.504361 0.015334
-0.168883 0.295435
-0.277216 0.018068
0.102427 -0.252484
-0.064140 -0.011005
0.044736 0.154572
-0.259416 0.160438
0.686106 0.135298
-0.110815 -0.227266
-0.057826 0.204458
-0.099122 -0.084761
0.146368 0.118712
0.094432 0.177203
0.024762 -0.362201
-0.137721 0.054993
0.177715 0.098469
0.040399 0.046729
0.134692 0.160704
0.179368 0.200971
-0.174227 0.042830
-0.025886 0.109521
0.127586 -0.135743
-0.144426 0.167398
-0.139959 -0.179164
-0.109419 -0.183100
-0.099095 0.006034
0.030631 -0.017071
0.177046 -0.211170
-0.149610 0.080624
-0.261826 -0.496467
-0.052908 0.021018
0.004929 0.109093
0.117642 0.325934
0.025184 -0.099157
0.396919 0.173281
-0.350934 -0.224059
0.116022 -0.089050
-0.326086 0.240717
-0.071289 0.039635
0.115940 0.206256
0.060959 -0.103434
-0.029849 -0.013582
-0.285936 -0.294830
0.161495 -0.226929
-0.037935 0.100931
0.059126 0.001038
-0.020302 0.000521
-0.095932 -0.083558
-0.171371 -0.084510
-0.219011 -0.001928
0.029227 -0.121915
0.219810 0.208961
0.218995 0.065511
0.169718 0.112299
0.289069 0.182903
-0.238712 0.172962
-0.265468 0.177513
-0.430916 0.311302
-0.275237 -0.261537
0.104225 0.025856
-0.120270 -0.227467
-0.169001 0.053385
0.027940 0.022241
0.142691 -0.055835
0.049154 -0.031214
0.025730 -0.265172
0.064043 -0.103024
0.018731 -0.023253
0.087642 -0.030033
-0.027120 0.126610
0.153037 -0.055181
-0.076430 -0.214831
0.048661 -0.171362
-0.534965 0.080223
0.035118 0.360477
-0.082516 0.406186
0.271212 0.211083
-0.020764 -0.018216
0.060779 0.184269
-0.232864 -0.139013
0.302487 0.006386
-0.036802 -0.112871
0.146953 -0.061003
0.162701 -0.027246
0.127113 -0.030062
-0.007833 0.204474
-0.448234 -0.012028
0.080689 -0.149466
-0.378338 0.118962
0.160493 -0.228539
-0.530679 0.165781
-0.103787 -0.107065
-0.048909 -0.000293
0.085600 0.213141
0.151319 -0.015507
0.066494 -0.043852
0.301165 0.043123
-0.084799 0.148080
0.425567 0.004827
-0.187374 0.031412
0.203006 -0.403377
-0.100036 -0.112496
-0.187590 0.083215
0.241123 -0.240453
0.117071 0.305798
0.018890 -0.057120
-0.153067 0.258092
-0.149958 0.412975
-0.321234 0.223817
0.132384 0.114139
-0.055088 -0.122620
0.080034 -0.041742
0.167731 -0.205087
0.128735 0.421236
0.133768 -0.114042
0.276297 0.116180
-0.034780 -0.171918
0.178275 -0.320727
0.144423 0.293975
-0.194562 -0.188847
0.189478 -0.050270
0.015382 -0.009139
0.038029 -0.195247
0.114665 -0.076947
-0.120036 -0.350001
0.131576 -0.520298
0.210444 -0.036960
-0.034957 -0.355334
0.067218 -0.121389
-0.202882 0.173775
0.035844 -0.137940
0.099117 0.476797
-0.034980 -0.107153
-0.150198 -0.223549
-0.072582 0.059461
-0.255420 -0.160628
-0.346058 0.072593
-0.234463 0.012864
-0.232946 -0.200907
0.313703 0.045943
-0.052361 -0.074644
0.044514 -0.110200
-0.277894 -0.050024
0.178936 -0.045164
-0.144738 -0.087871
-0.245342 0.227887
-0.100016 -0.251089
0.049346 0.338299
0.399986 0.090601
-0.234894 -0.289366
-0.015252 -0.327615
-0.100012 -0.105196
-0.237209 0.284554
-0.135693 0.253354
0.029080 -0.088521
-0.024965 0.059670
-0.064904 -0.038956
-0.170790 0.117799
-0.488451 -0.011278
0.135817 -0.039351
-0.193427 0.118087
-0.134598 0.169706
-0.027221 0.050926
0.147217 0.063954
0.194047 0.056906
0.291006 0.109616
-0.208150 -0.146542
0.382951 0.151936
-0.139123 0.137100
-0.021716 -0.104133
-0.070431 0.025706
-0.150004 -0.225932
-0.331181 -0.155758
0.072563 -0.131124
0.103684 0.152451
-0.052760 0.083278
0.405966 0.218170
-0.188436 -0.008075
-0.067346 0.262088
0.092652 0.072707
-0.083469 0.395311
-0.274461 0.154780
0.130647 -0.281142
-0.132009 -0.130266
0.087583 -0.041639
-0.082776 -0.254008
-0.050799 -0.048059
0.165467 -0.055960
0.117965 0.056423
-0.216054 0.202618
0.275076 -0.104703
0.015173 -0.094096
0.080919 -0.079788
-0.130356 0.071819
-0.273520 0.081333
-0.014894 0.072335
0.209399 -0.016429
-0.228756 -0.033722
-0.175460 -0.141841
0.251906 -0.241061
0.033832 0.333115
0.025986 -0.197084
0.106795 0.215870
-0.126432 0.177689
-0.109623 0.059374
0.042287 0.011697
-0.039516 -0.012751
0.071376 0.060673
0.205634 0.103764
-0.215648 0.294443
-0.270276 0.194450
0.039813 -0.054958
-0.299390 0.074221
-0.014759 -0.524225
-0.010208 -0.135112
-0.027885 0.111143
0.085064 0.072330
0.219910 -0.126637
0.010328 0.153375
-0.197393 -0.021448
0.079739 0.057459
-0.062031 0.227071
0.358955 -0.137517
0.211305 0.065452
0.084700 0.018067
0.036329 -0.014264
-0.088143 -0.171885
0.281980 0.202482
-0.103539 -0.021315
0.145017 -0.104428
0.100211 0.017122
-0.093827 0.042648
-0.070254 -0.070501
-0.124216 0.331883
-0.144243 -0.019773
0.029408 -0.076963
0.248502 0.034376
-0.294484 -0.073621
-0.436062 -0.103471
-0.102557 -0.102265
-0.091147 0.186998
0.108709 -0.216913
0.349647 0.128282
-0.100667 -0.257387
0.149935 -0.140370
0.039814 0.061400
-0.047614 0.125602
-0.018256 0.156807
0.339437 0.097247
0.049264 0.193885
-0.086027 -0.135088
0.109230 0.014783
-0.510868 -0.051031
0.117302 -0.148121
0.187002 0.202391
0.066649 -0.062224
0.296031 -0.106220
0.127939 0.000535
-0.024981 0.060357
0.093884 0.075576
0.123567 -0.262377
-0.071543 -0.177053
-0.030156 -0.124752
-0.017991 0.145445
-0.179820 0.195040
0.029911 0.057340
-0.257935 -0.036088
-0.382133 -0.026087
-0.118750 -0.463949
0.022754 -0.162220
0.101651 -0.095765
0.127083 0.145171
0.019993 0.015715
0.083369 0.081962
-0.100256 0.161877
-0.046333 0.022432
0.013655 -0.043371
0.080101 -0.035962
-0.095063 -0.086949
-0.210285 0.125485
0.324195 -0.042413
-0.070108 -0.092322
0.201523 -0.096721
-0.156720 -0.160828
0.114169 -0.058521
0.185007 0.318690
0.050220 0.072692
-0.112702 0.021599
0.006962 0.133641
-0.204059 -0.123619
-0.259614 -0.024050
-0.140205 0.018672
-0.178894 -0.358665
0.032150 0.187946
0.209579 0.048103
-0.261371 -0.072243
0.314824 -0.136528
0.053389 0.015472
-0.269312 0.050882
0.065951 0.213804
0.114238 0.194544
0.116988 0.052469
0.362384 -0.138999
0.222896 -0.324437
-0.083253 -0.150878
-0.023050 -0.165016
-0.240251 0.018823
-0.362867 0.118614
0.018718 -0.233859
0.003141 0.019009
-0.225538 -0.080886
0.084472 -0.131778
-0.249612 -0.208985
0.279689 -0.019576
-0.249231 0.218030
-0.193044 0.006887
0.159728 0.081200
0.325555 0.206195
-0.141195 -0.115785
0.126802 -0.068602
-0.323133 -0.268125
-0.112356 0.009053
0.064117 0.277811
-0.222649 -0.027965
-0.074020 -0.050856
0.091748 -0.442470
-0.165576 0.400558
-0.236867 -0.027301
0.108029 -0.122615
-0.023153 -0.161915
-0.190726 0.115997
-0.207397 -0.189266
-0.045845 0.435784
0.070868 -0.081491
-0.129533 0.080298
-0.082097 0.108228
-0.152880 -0.188591
-0.009588 0.051644
-0.080634 0.056997
-0.233687 0.094235
-0.081034 0.111382
-0.165207 0.113472
0.056648 -0.169769
-0.112853 0.431369
0.096352 -0.141653
0.193508 0.176768
-0.186173 0.100256
0.205113 -0.158871
-0.261180 0.563853
0.159555 -0.102824
0.167343 0.201605
0.023279 0.232655
0.067131 -0.059357
-0.070985 0.292629
-0.183576 -0.023589
0.017623 0.012548
0.111876 0.295492
-0.038474 -0.218727
0.438456 -0.014860
-0.009850 -0.100285
0.197526 0.077231
0.172320 0.063365
-0.084765 0.188372
0.039828 -0.276782
-0.063712 0.112901
0.025265 -0.016563
0.186364 0.110848
0.247557 0.427689
-0.117084 -0.311194
0.090533 -0.087534
-0.197512 -0.289589
-0.218198 -0.131200
0.270579 -0.367435
0.113635 -0.115939
0.122709 -0.549026
0.088228 -0.039292
-0.112818 0.196829
-0.201011 0.022631
-0.025736 0.286173
-0.121706 -0.013405
-0.186623 0.307932
0.001504 0.142491
-0.148387 0.151202
0.345184 -0.076908
0.095703 0.266317
0.077930 -0.109153
-0.085111 0.135964
0.160879 -0.115520
0.310250 -0.074111
-0.061853 0.265396
-0.162181 -0.491245
-0.285017 -0.006064
-0.062912 -0.459052
-0.218213 0.031905
-0.096991 -0.317626
0.083482 0.025706
0.263109 -0.072363
-0.051657 0.083092
-0.167194 0.121361
-0.246027 0.200239
0.133377 0.373937
0.085616 0.027432
0.081247 -0.086941
-0.231185 -0.343890
0.201845 -0.070016
-0.035723 -0.022750
0.261139 -0.084694
-0.082466 -0.082534
0.068232 -0.147525
0.078421 -0.130095
-0.061649 0.336208
-0.176405 0.151735
-0.060594 0.316433
0.116708 0.096967
0.024346 -0.072897
-0.427708 -0.116482
0.021463 -0.348022
0.076970 0.026249
0.159180 0.099318
0.048847 0.025582
-0.352602 0.105785
-0.086735 -0.180025
-0.138782 0.038095
-0.100361 -0.025087
-0.173934 -0.019866
0.166045 -0.278408
0.064526 0.109654
0.012392 -0.127912
-0.092447 0.238689
-0.143471 -0.061585
0.078942 0.122837
-0.129902 -0.286804
0.344577 -0.303012
-0.100698 0.004516
-0.054821 -0.235507
-0.112790 0.354416
0.108189 0.165950
0.184345 0.442076
0.035894 -0.094683
0.249059 -0.058228
-0.213853 0.078770
-0.229772 0.071814
-0.123624 0.188057
-0.296058 0.183779
0.166470 -0.045765
-0.028238 -0.117827
0.052030 -0.019473
-0.282622 -0.006311
-0.062318 -0.114312
-0.052595 0.161976
-0.040724 -0.409230
-0.082580 -0.068154
-0.022034 -0.188642
-0.080675 0.049150
-0.041991 0.015024
0.222748 0.152676
0.066219 -0.035347
0.180723 0.357472
0.075597 -0.038181
0.046144 0.149937
0.129612 0.070639
0.157811 -0.380713
-0.124606 0.314226
0.024928 0.157058
-0.161392 -0.129195
0.486130 -0.108778
-0.070738 -0.256450
-0.384256 -0.190958
-0.099069 -0.074920
0.321139 -0.182954
-0.333251 -0.140347
0.212031 -0.395684
-0.266867 0.036860
0.295007 0.134774
0.036475 -0.055272
-0.107642 0.128371
-0.669516 0.045091
-0.232484 0.077147
-0.410863 -0.042641
0.005355 -0.128840
-0.265301 -0.005970
0.068946 0.096818
-0.226618 0.161957
0.013474 -0.033200
0.107089 -0.102718
0.036315 0.036995
-0.135737 -0.140690
-0.302267 -0.302229
0.045593 0.122954
-0.010530 0.350784
0.036637 0.111125
0.152220 0.076508
0.170475 0.234532
-0.042027 -0.010261
0.255991 -0.069342
0.245171 -0.197685
-0.191266 0.001486
-0.268705 0.153657
-0.152080 0.011152
-0.434531 0.293471
0.155398 -0.242716
-0.154099 -0.054728
-0.121033 -0.243659
0.041281 -0.341273
-0.054447 -0.074503
0.021702 -0.068794
-0.113187 -0.203598
-0.040714 0.167752
0.093190 0.214554
0.024974 0.313668
0.086094 -0.031374
-0.245052 -0.115907
-0.384493 -0.157010
-0.056245 -0.078824
-0.505967 0.334345
-0.428422 0.022158
-0.394193 0.181296
-0.378398 0.077120
0.383674 -0.050408
-0.052457 -0.003704
0.192307 -0.358358
-0.234095 -0.578572
-0.111050 -0.300941
-0.177474 -0.065133
0.113478 0.600083
0.174335 0.292470
0.018418 0.407474
0.334622 -0.141373
0.379925 0.243028
-0.297111 -0.175445
-0.138260 -0.583058
-0.835115 -0.202597
-0.092475 0.747193
-0.486267 0.732827
-0.336395 0.428980
-0.031997 -0.132393
0.091634 0.050850
0.071904 -0.013973
-0.531842 -0.897702
-0.075582 -1.108533
-0.540424 0.242918
-0.019719 0.138105
-0.024056 0.654790
-0.598501 0.033854
-0.327669 0.133896
-0.449228 0.231930
0.500990 -0.079061
-0.475563 -0.027023
-0.175173 -0.519715
-0.870753 0.689596
-0.901930 0.216960
0.373499 0.073408
-0.706608 0.725860
1.036722 -0.954930
0.363652 0.388909
0.599530 -0.798747
-0.375680 0.162140
-0.543036 -0.366219
0.120229 0.588555
-1.137378 2.408433
-0.533751 0.481378
-0.622866 1.842723
0.536018 -0.076196
-0.238777 -0.540111
-1.739836 0.131090
-0.471325 -2.388801
-1.844976 0.789705
-0.510181 0.248764
-1.057264 0.553908
-1.030302 1.642732
0.785281 -0.459827
0.005608 0.711953
2.394488 -0.002748
0.024878 -0.195655
2.211300 -0.815015
0.763590 -0.699493
-0.156780 3.404574
-0.089482 0.438762
0.049015 4.142186
0.383043 1.151874
3.764128 -0.482508
0.187314 4.129317
-1.637012 -0.588381
-7.171027 -2.626793
-4.539871 -2.670403
-5.349549 -1.108482
-6.175212 -1.763459
4.698866 0.867055
-2.661971 -1.393246
12.870246 -7.643211
0.240237 1.045082
-7.990884 -5.999898
-2.059467 -9.717167
0.255381 6.204103
11.360429 8.603615
1.246706 6.973303
4.708839 13.707483
6.175237 8.940271
-20.924312 0.974167
27.953995 22.282384
-48.516108 -14.376911
23.177901 -69.902238
42.403872 41.559107
-75.153387 10.052825
-12.230019 145.987868
-899.674785 218.445898
