1134.197248 1477.147238
-243.280039 2.658298
280.785294 100.164037
-594.396525 -166.235583
-6.348101 -28.763010
-86.580572 -92.320831
-9.052461 -103.837847
-89.239835 22.240538
26.479831 -16.641445
27.469161 3.345404
36.518480 -49.384242
-18.379393 24.088560
52.626182 38.450233
54.289568 -56.296115
1.553698 -9.683515
58.982247 9.694130
53.709145 12.721044
28.860436 -19.413928
8.603725 -16.356118
3.211200 -7.072348
28.288767 -20.984376
19.190663 -20.713957
24.414842 -37.856429
21.252687 -25.122044
36.524763 -45.688554
6.800264 -37.117561
-14.392463 -23.530841
22.765104 -29.664200
4.672095 -24.654869
-18.580962 -34.797006
-14.606087 -20.622444
-9.625646 -16.609718
-6.270513 -17.817809
-28.360118 -10.538797
-15.134925 -3.523234
-5.161097 3.095572
-3.314496 -7.150852
-9.429726 -1.025378
-3.445449 5.826522
3.243619 1.140887
1.072006 -7.509119
2.852119 -1.075701
7.067473 11.892444
6.635028 -1.556308
2.689794 -6.067871
-1.468451 2.816118
12.537118 7.205770
12.394090 -3.672830
5.768891 -10.784096
1.544508 -9.102959
15.819874 -11.421750
10.809000 -6.058473
0.256832 -16.434593
9.010520 -9.677698
5.312107 -4.947270
1.437429 -14.493322
-1.143028 -10.516523
-0.373878 -8.210418
7.106370 -7.637213
-1.142826 -11.977338
-0.414709 -9.024101
0.398728 -2.937018
3.315267 -10.283280
-3.139428 -12.942377
-5.250618 -10.981553
-1.376902 -6.075112
-3.123750 -11.910653
-6.810019 -12.826568
-6.867109 -3.552408
-3.024370 -2.789840
-1.781185 -5.244075
-8.193733 -4.802339
-5.348211 0.450471
-2.416488 -0.357391
-0.549269 -3.272671
-6.704911 -0.695148
-3.261806 2.021080
-2.239544 2.294783
-2.024138 -3.721572
-2.249897 1.807558
-0.261198 3.504318
4.490256 1.660605
1.392929 -0.629793
2.215904 -0.266999
7.796609 2.182838
8.105673 -4.205988
6.497634 -4.136241
2.825061 -2.188076
6.673439 -3.972238
3.659521 -7.611995
1.231955 -9.533322
-0.118206 -4.363956
1.780231 -6.730015
0.698724 -8.159577
-3.033517 -7.466932
-2.157064 -4.433200
1.492070 -5.012958
-1.174436 -8.197465
-2.889775 -4.541556
-1.212112 -2.935859
0.814923 -4.194835
-2.543492 -5.813740
-2.882370 -3.165594
-2.878286 -0.276609
0.353634 -4.436748
-3.235378 -2.268074
-3.721722 -1.560049
-0.205907 0.511787
-0.627046 -3.734091
-2.219148 -5.233374
-2.603841 -1.155758
0.477794 -3.021423
0.206995 -3.935730
-3.212146 -3.534244
-0.427626 0.116452
-0.810333 0.021712
-1.095332 -3.088378
-4.134818 0.467794
-0.982855 1.025549
0.500492 2.034308
-0.682491 -1.124181
-0.224709 1.016607
1.623778 1.646228
3.621068 -1.753132
2.103361 -3.004578
1.521627 -2.687182
4.702757 -1.453447
3.809328 -4.701553
2.558363 -4.092934
-0.028734 -2.464988
3.994886 -4.380482
1.491504 -5.063304
-0.030198 -6.120844
-0.209701 -3.267962
0.959433 -6.296859
-1.828761 -7.017999
-4.779719 -6.359529
-3.162669 -4.600963
-2.214290 -5.670103
-4.646592 -6.242073
-4.895719 -2.565965
-4.168934 -0.777067
-1.836981 -1.697605
-4.970075 -1.013820
-2.981004 0.785963
-1.586267 2.869915
-0.944383 -0.139662
-2.625443 0.296366
-2.092072 1.213428
0.875993 0.927078
0.025973 -1.582633
-1.862088 -0.421888
0.035096 1.066309
2.025539 -0.441446
1.748502 -1.374736
-0.182377 -0.405396
2.305520 0.758579
2.182288 -0.777727
2.711657 -2.748147
0.451960 -0.751813
1.942011 -1.955323
2.435469 -2.177424
-0.285644 -4.250397
-0.738095 -2.214295
0.379511 -2.802187
1.373790 -4.725393
-0.471175 -3.615884
-0.914069 -2.616927
2.034852 -2.889110
0.212168 -4.851042
-0.534834 -4.328453
-1.341906 -2.486426
0.619706 -3.953358
-2.062425 -4.030875
-4.109635 -4.379850
-3.031678 -1.867404
-3.018834 -3.010665
-3.871074 -3.442785
-5.689033 -1.492408
-3.242497 -0.539423
-2.444676 -0.073539
-3.854364 -1.590500
-2.452751 0.963288
-1.880531 1.258009
0.294884 0.147442
-1.934390 0.861534
-0.929899 1.348213
1.049172 2.491982
0.864920 -0.519734
0.083414 1.083881
0.202324 1.904968
2.385091 0.544193
1.763897 -2.035435
1.004442 -1.940326
2.443201 -0.685712
2.676316 -2.898684
2.345097 -4.389167
-0.119350 -3.260353
1.593611 -3.120729
0.603346 -3.805286
-0.868819 -5.206254
-2.437799 -2.497704
-1.438612 -2.656306
-0.805115 -2.390917
-2.939975 -2.953120
-2.457741 -1.094524
-1.224941 -0.422893
-1.307439 -2.245644
-2.596037 -2.230323
-1.962128 -1.101311
-0.442539 -1.537173
-1.815482 -2.835953
-1.765792 -2.150655
-2.011713 0.229917
-0.173429 -1.363367
-1.599424 -1.388256
-2.512164 -0.617572
-0.763409 0.963591
-0.298198 -0.529370
-1.602623 -1.531287
-2.126457 -0.432917
-0.595291 -0.174401
-0.404207 -1.278502
-2.198225 -1.478819
-1.690776 0.200875
-1.061368 0.764652
0.459671 -1.072494
-1.938144 0.189180
0.096419 0.517783
1.604107 1.276954
0.827400 -1.220440
0.455766 -0.049432
1.099909 -0.019672
2.495787 -1.550017
0.886861 -2.695967
-0.153548 -2.338607
1.000098 -1.817507
0.340173 -3.443062
-0.142930 -4.210690
-1.730572 -2.153575
0.436477 -2.654423
-0.363403 -2.636596
-1.804179 -3.983566
-2.363876 -1.599205
-0.628340 -2.632320
-1.114197 -2.781090
-3.577995 -2.579188
-3.336473 -0.784804
-2.494247 -1.081820
-2.691436 -2.135467
-4.049471 -0.525914
-3.524726 0.233672
-0.899133 -0.151614
-2.257610 -0.215590
-1.976893 0.029702
-0.746058 1.585611
-0.118881 -0.310998
-0.289239 -0.391780
-1.321686 0.807124
0.171085 0.695499
-0.028069 -0.714488
-1.128303 -1.072242
-1.423882 0.406262
0.065346 0.894697
0.393870 -0.735538
-0.889504 -0.851117
0.385869 0.398091
0.865256 0.112295
1.727949 -1.829837
-0.353753 -0.946886
0.963391 -1.059640
1.857227 -0.946005
0.374690 -3.417181
-0.103691 -1.838744
-0.094221 -0.674605
0.769030 -2.363621
-0.913204 -3.141450
-1.920356 -2.472952
-0.291926 -1.581551
-0.661843 -3.445246
-1.500656 -4.120144
-3.080284 -2.018932
-1.027835 -2.928275
-2.374359 -2.859072
-3.946032 -3.173943
-3.313247 -0.561482
-3.057201 -0.620226
-3.020742 -0.892235
-4.631007 0.173570
-2.916704 1.754456
-1.855520 1.692350
-2.276399 0.354505
-2.339071 1.572318
-1.339446 2.168051
0.664312 0.795189
-0.674660 0.542728
-0.382735 0.681148
0.660039 1.801012
1.529225 -0.488522
0.689101 -0.556159
-0.219061 -0.096759
1.976222 0.217512
1.795801 -1.717647
0.569743 -2.201217
0.609495 -1.041697
0.637240 -1.817963
0.166677 -3.361713
-1.178594 -3.335738
-0.790881 -2.384299
-0.994803 -2.270244
-1.695221 -3.846262
-2.565056 -1.752874
-1.787439 -1.275955
-1.032696 -1.083667
-2.227139 -2.006173
-2.145004 -0.164630
-1.890602 0.401121
-0.944447 -0.965967
-1.919151 -1.217182
-3.041905 -0.340615
-0.853822 -0.282564
-1.792922 -1.378106
-2.387090 -1.268806
-3.136613 0.348495
-1.286741 -0.371546
-1.395887 -0.508363
-2.556730 -0.457629
-1.227382 0.963281
-0.927631 0.592731
-0.689101 -0.618004
-2.083665 0.497939
-0.867656 1.161500
-0.176152 0.354485
-1.600400 -0.528753
-1.122037 0.842129
-0.634873 1.118799
0.488956 -0.371393
-0.261580 0.118862
-0.160136 -0.021423
1.134629 0.751826
1.269666 -2.013077
0.690537 -1.250468
0.307466 -0.936934
1.534595 -1.374036
0.468718 -2.553065
-1.192530 -2.460407
-1.050191 -1.608324
-0.841059 -2.117460
-1.509848 -2.977344
-3.209082 -1.705989
-2.089423 -1.252242
-1.421274 -1.218706
-2.602268 -3.146164
-2.997840 -0.564473
-2.212555 -0.665395
-1.020403 -1.150563
-2.964702 -1.400577
-2.907171 0.331958
-1.939395 0.320344
-1.529060 -0.190019
-2.419339 0.040163
-3.117569 1.127141
-1.020754 0.847646
-1.449620 0.256473
-1.314546 -0.019497
-1.471441 1.273707
0.009394 -0.124635
-0.355916 -0.464600
-1.621862 -0.589768
-0.383508 0.688143
-0.248149 -0.355702
-0.833561 -0.656065
-1.841837 0.772210
-0.374375 1.413248
0.003642 0.872004
-0.918182 -0.119983
-0.378996 0.817622
0.126566 0.475149
1.256086 -1.239827
-0.385524 -0.922239
-0.400076 -1.032694
0.984040 -0.918752
0.249459 -2.682654
-0.630897 -2.371419
-1.196797 -1.266173
0.135721 -2.058326
-0.888745 -2.315559
-2.399904 -2.342482
-1.774676 -0.772054
-1.482104 -1.858869
-2.366367 -2.851636
-4.206286 -1.805480
-3.076379 -0.926739
-2.879129 -1.054495
-4.323258 -1.792106
-4.026553 0.248284
-3.331077 0.972131
-2.036283 1.016039
-3.517769 1.128786
-2.340553 2.365732
-0.998059 2.894343
-0.731394 1.544400
-1.153682 1.883767
-0.797231 3.024153
1.264530 1.429765
0.000060 1.026873
-0.140483 0.124598
0.088102 1.211432
0.929526 -0.150133
0.395907 -0.732651
-0.621604 -0.829623
1.171867 -0.077947
1.025012 -1.583193
0.537364 -2.624480
-0.933659 -1.248290
0.131578 -1.245006
0.063959 -2.297513
-2.099248 -2.108053
-2.025231 -1.625532
-1.930768 -0.837953
-1.695436 -2.400933
-3.102121 -1.302227
-3.169883 -1.162349
-1.433667 -0.602429
-1.998028 -1.453099
-2.621956 -0.465843
-1.942317 0.712422
-0.959944 -0.675161
-1.957563 -0.938033
-3.003202 -0.151206
-2.043907 0.856012
-2.189992 -0.229718
-2.577551 -0.241495
-3.529431 2.201046
-2.668944 1.304493
-1.558783 1.484624
-2.498612 0.627748
-1.835683 2.301775
-0.791601 1.809073
0.189310 0.331186
-1.649974 1.121735
0.157715 1.453919
0.856012 1.588044
0.385171 0.233394
-0.503596 0.458957
-0.301565 1.504045
1.412202 0.078374
0.006653 -0.305926
-0.511726 -0.857467
0.630023 0.358565
1.277120 -1.932008
-0.441156 -2.681591
-1.762775 -2.065207
-0.038930 -1.861166
-0.890756 -2.877351
-2.057634 -2.979801
-2.739150 -1.166156
-2.070658 -1.008838
-1.864917 -1.588701
-4.146403 -0.512377
-3.328372 0.463732
-2.407591 0.976553
-2.680914 -0.873239
-3.305020 0.497454
-2.933283 0.833871
-1.181117 0.664626
-2.431909 -0.371375
-2.674977 0.517121
-1.962194 1.929538
-0.520359 -0.090172
-1.847387 0.326279
-2.084278 1.689034
-0.187238 1.872750
-0.317517 0.818517
-1.355948 -0.091346
-1.696086 2.038761
-0.309793 0.648429
-0.904117 0.263682
-2.306912 -0.253325
-1.593072 1.385198
-0.772983 0.811032
-0.680264 -0.223194
-2.079133 0.583473
-0.469406 1.678690
0.915217 1.641917
0.069787 0.427187
-0.492256 0.322198
0.497531 1.392558
1.237655 -0.758060
0.246177 -1.338137
-0.943608 -1.777527
0.284753 -1.129194
-0.782458 -2.238263
-1.273239 -2.776314
-2.927994 -1.661902
-1.649911 -1.262100
-1.753823 -2.230318
-3.249301 -2.605911
-3.209512 0.203366
-2.906660 -0.659013
-2.500830 -1.351731
-5.027318 -0.361967
-3.560375 1.300936
-3.131249 1.521598
-4.177462 0.286954
-4.502051 2.055616
-3.147284 3.014350
-1.790047 2.735806
-3.042372 1.678255
-2.011803 3.160904
-0.490675 3.891282
0.503682 1.722012
-0.042151 1.613080
-0.558196 2.212579
1.662926 2.013053
0.995274 0.805928
-0.238820 -0.249757
0.143609 1.903814
0.585367 -0.045236
0.581906 -0.639172
-1.780764 -0.487112
0.235158 0.595307
0.173160 -0.746470
-0.207958 -2.499787
-1.465290 -1.027892
-0.425316 -0.756767
0.324866 -1.345566
-1.958926 -2.636011
-2.163689 -1.429420
-2.060541 0.102867
-1.122669 -1.633000
-3.084419 -0.888613
-3.871278 -0.145963
-2.007903 1.049663
-2.857213 -1.043804
-3.446898 -0.893589
-4.238324 0.362226
-2.287551 -0.232963
-3.329639 -0.645433
-4.625109 -0.239754
-3.791456 2.012811
-2.738375 1.613705
-3.196708 1.126818
-4.128604 3.253615
-2.649813 3.958711
-1.117426 4.151262
-2.156460 2.775159
-1.062689 4.562540
-0.380786 4.104221
1.689136 2.427663
-0.320261 1.798264
-0.292750 2.327919
1.843024 2.432792
1.404821 -0.391972
0.599894 -0.384351
0.497940 1.065978
2.372737 -1.037409
1.214479 -1.262207
-0.635463 -1.958780
0.100675 0.023114
-0.097940 -1.980498
-0.606031 -2.927909
-3.756499 -2.830524
-2.348738 -1.348690
-3.060255 -2.072624
-4.148153 -3.050443
-5.696762 -0.495913
-4.342049 0.520739
-3.360850 -0.267783
-4.894329 0.119479
-4.141515 2.183642
-2.607067 3.178102
-1.849680 0.910712
-3.519957 2.182940
-4.093944 2.967957
-1.399519 3.291338
-2.333611 1.242906
-2.967906 1.661567
-3.276091 3.663770
-0.413763 2.216959
-1.434279 1.037932
-3.325354 1.512565
-0.746211 3.504896
0.550528 2.094562
-0.077269 0.185931
-1.833874 2.607127
-0.836052 2.832314
1.057920 1.886628
-1.617810 0.372951
-1.951417 2.193289
-1.259299 3.177437
0.418836 0.916508
-1.791383 1.339438
-1.088491 1.980953
1.725077 1.676810
0.960217 -0.690060
0.479188 -0.559437
0.128369 0.318822
2.018453 -1.788200
-0.074805 -2.148088
-2.796327 -2.804898
-1.771938 -0.614924
-2.529061 -2.132128
-3.853935 -1.980731
-7.105292 -0.207853
-3.970047 0.630494
-3.409399 0.225068
-6.071440 -1.530771
-6.189001 1.885143
-4.782368 2.044603
-3.108702 0.545497
-6.676323 1.230512
-5.542145 3.390742
-2.884654 4.947826
-3.611020 2.452601
-4.512439 4.972413
-3.537540 6.667358
0.773667 6.444242
-2.323302 4.150341
-2.043343 5.426921
-0.666020 6.916006
2.215558 3.170053
0.349578 1.431282
-1.559371 2.112554
1.293759 2.052779
1.804956 0.046551
0.257862 -0.781399
-0.624509 2.519815
1.115816 2.358291
2.218636 0.474496
-2.226299 -0.505626
-0.903971 2.622443
0.468346 1.665684
1.887413 -2.186694
-2.916826 -1.733006
-3.460073 0.660120
-2.347995 -1.444220
-3.594645 -4.502681
-4.498471 -1.587125
-4.019247 0.235728
-2.117837 -1.707611
-4.974190 -0.507198
-7.625461 0.185197
-4.564724 2.356136
-5.500521 1.445867
-5.738031 1.620017
-9.282314 5.808718
-5.790015 6.512860
-5.555570 3.987003
-8.289076 3.076665
-8.749827 8.252310
-4.870070 9.180863
-2.352183 4.888798
-6.004751 8.927361
-1.741412 11.023516
3.541504 10.526279
1.960651 5.701195
3.105541 8.913602
2.968659 8.872814
9.012473 4.517286
3.256540 2.949728
3.921610 1.738430
5.075686 5.500807
3.691042 -0.587080
1.174269 -5.017585
-2.853460 -1.792881
1.429112 -2.480805
1.585159 -5.340574
-3.276496 -7.437692
-4.553710 -0.929012
-1.945560 -2.257088
-2.278843 -4.436361
-9.669420 -4.721573
-6.455467 0.900731
-9.119385 3.762322
-11.266640 -1.437364
-14.090288 3.144724
-9.706077 6.748820
-7.883646 8.673675
-9.706063 6.369535
-11.416847 9.042378
-4.735450 13.194316
-0.338303 3.203849
-3.487319 4.908963
-3.825883 11.191480
2.472199 11.546868
0.126487 0.842239
-5.170459 2.051729
-12.547359 14.656060
-6.433427 11.617834
-1.097854 10.706889
-3.174610 9.136977
-5.910065 13.927328
1.421509 12.933874
2.343492 0.265852
-4.125758 6.905065
-0.806372 11.270640
12.426729 14.669383
2.808103 5.092743
1.899253 9.128529
6.978628 13.467619
8.975614 1.708308
3.409299 4.937452
3.674866 -1.159771
5.316716 -0.322645
0.603852 -7.113829
-4.394063 -11.385960
0.544983 -2.917551
1.694402 -5.995864
0.421559 -10.459480
-34.608619 -16.375962
-28.864605 4.075934
-9.953770 18.574068
-32.025435 3.248101
-26.532892 -16.758117
-8.927739 18.892434
-28.626673 28.797098
-18.101343 11.883936
-18.727727 37.487186
-9.040705 20.152738
-4.073302 36.056515
-16.163305 25.140709
-34.685563 20.184028
-23.188326 45.619542
-25.736487 9.124163
-46.744306 52.669572
-6.894733 58.973371
34.911961 67.745440
21.840507 74.991540
14.270505 104.284692
58.902752 95.926552
68.692437 -55.051132
15.730519 -30.892440
4.625928 -41.090401
-49.350657 192.907251
176.977469 259.025752
