1717.695128 1641.068926
-263.495819 250.692344
3.633597 -345.553172
-388.832539 132.708554
-100.848878 -397.248973
-53.006815 -19.889891
-112.939198 -1.621113
-77.582115 -137.134516
-87.309703 -4.303797
-55.335596 -33.695878
27.206882 -64.774521
-97.586659 -32.079825
8.337735 9.844380
-28.599982 -34.482746
-3.474521 29.034980
-3.806792 -12.740091
-13.145193 10.065777
-29.423817 -8.088044
-8.570460 2.903876
-4.283720 11.591499
-18.822674 -19.205313
-13.831681 -19.045886
-7.154066 6.336792
-30.596494 -4.110967
-9.013490 -13.903527
-19.825805 -0.248870
-9.530443 -16.211089
-14.272377 -2.912565
-7.741165 14.403824
-2.492193 9.254406
7.949692 23.518769
4.644561 20.529372
5.917029 -7.244438
15.001330 -8.345172
4.933415 -12.044977
-7.481399 -29.215787
-10.092362 -19.836460
-23.748011 -13.588063
-19.843199 -14.792600
-13.478887 3.378335
-15.070819 7.117048
-4.227338 6.239448
-2.121962 6.590462
-4.031819 9.771337
-0.897996 13.024968
5.278259 4.012513
5.331191 -9.170106
4.666392 -6.854741
-1.969883 -9.049119
-9.166902 -14.157154
-11.902859 -7.911879
-10.735159 -2.539550
-4.055951 -1.822322
-4.507210 3.553620
-16.804256 2.981685
-5.523626 4.256116
4.546874 7.452878
0.756461 -0.429009
5.322228 -1.376371
0.492509 -1.407489
-5.087817 -2.717569
0.156549 -3.129777
-1.931515 -4.649704
-6.270102 -4.187173
-2.599826 -1.754650
-2.814718 -0.340547
-4.495123 -6.533453
-2.857023 -3.026387
-7.730101 -1.666061
-4.062182 -4.209465
-2.184367 -1.652112
-8.569561 -0.647545
-4.877657 4.167481
0.024777 7.061248
-0.519039 0.635941
-1.054694 -1.837696
-4.764793 0.927637
-2.669493 2.215987
1.740765 0.843513
1.711260 -3.984266
2.773174 -7.318868
1.843278 -7.335388
-7.301204 -4.690980
-7.806096 -4.432882
-7.152931 -3.240570
-10.910794 0.601053
-3.896658 2.542894
-1.609079 6.106752
-3.333471 5.208902
1.742921 3.461304
4.022097 3.412953
1.726201 -1.785639
1.844172 -5.963183
-1.333728 -5.377092
-3.048748 -5.627725
-3.787593 -4.975863
-6.178604 -3.339074
-7.494744 -3.603468
-5.289455 0.053475
-6.017203 5.086467
-1.746398 3.381381
0.992963 2.580013
-0.314972 1.178206
0.284992 -1.176881
-0.087803 0.915425
-0.513279 -0.156061
-0.280118 -2.849794
-2.522248 -2.634387
-2.819179 -3.765897
-2.604069 -3.120026
-4.716293 -0.993058
-4.350057 -0.924326
-2.204676 -0.036051
-2.266098 1.151981
-1.869178 -0.887925
-0.487501 0.757869
-2.680428 2.199524
-3.015348 -1.163568
-1.092508 2.057898
-3.289689 0.928580
-2.618412 -1.033033
-1.257068 1.081411
-1.209488 -0.548643
-0.919278 -1.379009
-0.587967 -0.242312
0.181924 -2.883609
-0.529748 -3.666289
-2.731185 -1.456857
-3.359888 -0.844127
-1.550862 -0.125695
-2.622072 -0.002206
-5.655095 -1.048596
-5.150705 1.441471
-3.700527 3.859744
-0.901467 2.858157
0.468528 1.565067
-0.597821 -0.273326
0.251921 -0.717722
2.362850 0.636688
0.038338 -3.898785
-1.364430 -4.856430
-2.341304 -2.411988
-3.233999 -2.443977
-3.968033 -1.097082
-5.391756 0.467934
-6.746660 2.130776
-2.384069 4.747771
-0.828192 5.131292
-0.771563 1.106247
1.178420 1.180304
1.955042 0.233643
2.422155 -2.878786
0.826844 -3.043382
-3.458510 -3.992227
-3.232136 -2.371740
-2.048075 -0.194463
-3.187127 -0.953905
-2.701406 0.304380
-2.631283 1.645072
-3.685884 0.951015
-1.822435 1.887050
-1.708088 1.105668
-1.969632 0.542231
-0.042514 0.994983
-0.294356 0.547030
-0.727230 -0.857745
0.788734 -0.800373
-1.101236 -1.001249
-2.112985 -1.789522
-1.103169 -0.123717
-3.196476 -0.589805
-1.159549 0.107872
-0.549573 0.611613
-1.617274 -0.319338
-1.726364 -0.072495
-2.939878 -0.208143
-3.203062 0.520477
-1.443470 1.272472
-1.462823 1.162717
-1.383391 -0.058389
-0.437899 0.222082
-2.376263 1.732618
-1.203752 1.934448
1.927119 1.013057
0.625346 -1.158213
0.935745 -3.525775
-1.554441 -2.347836
-4.220474 -1.468071
-2.703719 0.138205
-2.910319 2.073536
-3.789462 0.658551
-2.854827 -0.072759
-3.621973 1.769224
-2.709685 3.548094
1.310771 3.031657
2.001023 1.907087
0.840748 -0.926673
1.638682 -2.315529
0.295172 -1.351359
-0.928986 -3.391604
-1.441585 -2.752838
-3.771564 -0.642684
-2.810440 -0.258737
-3.294605 0.976588
-3.901088 1.768579
-2.329248 2.888617
-1.230471 3.318962
0.535878 1.062472
0.555219 -0.356446
-0.985950 -0.576891
-0.394019 0.163757
0.856063 -0.074983
0.089967 -1.381797
-1.955450 -2.292455
-1.747173 -0.808047
-2.315931 1.608974
-1.339301 -0.396089
-1.499878 0.442435
-2.555394 1.468748
-0.227262 -0.063671
-1.921517 0.956591
-2.899733 -0.278661
-2.061303 0.504942
-1.360259 2.428684
0.189071 0.913849
0.272735 -0.490233
-0.406017 0.153493
-0.633601 0.414172
0.009349 0.130616
-0.750274 0.409556
-0.751648 -0.945879
-0.824368 0.459411
-1.973218 0.886743
-1.624136 -1.568142
-2.154542 0.034462
-2.842760 0.109064
-2.504655 0.105694
-2.648009 1.998094
-1.706814 1.821834
-0.110860 1.709130
0.499688 1.591937
1.103732 0.929187
0.763879 0.226628
1.293222 0.510329
-0.609056 -1.892142
-1.041805 -2.050027
-2.804370 -0.940378
-2.991096 -1.772258
-2.883382 0.524768
-3.674954 0.738180
-3.349435 1.015465
-1.738397 3.276391
-0.524820 2.389231
0.349874 1.807583
1.295703 1.876538
1.701977 -0.158036
0.758473 -1.053318
0.106517 -0.218334
-0.941833 -0.996873
-0.963971 -0.948327
-1.897942 0.078173
-3.477850 -0.484613
-1.999300 0.603486
-2.273172 1.392734
-2.305167 -0.094616
-0.790964 1.933477
-0.835234 2.023791
0.559990 0.945264
0.523672 0.547499
-0.496283 -0.566478
-0.778868 -0.434816
-0.150861 0.572248
-0.361310 0.116824
-0.778441 0.333930
-0.609116 0.619427
-1.708179 0.256360
-0.646306 -0.181534
-1.530396 -0.054609
-2.608203 0.097891
-0.633046 1.068536
-0.827831 0.257073
-2.049932 -0.990209
-1.317488 1.423639
-1.628539 2.185715
0.135027 1.166423
-0.263398 0.982302
-1.108845 1.206014
-0.524424 1.901580
1.101953 1.004642
0.269360 -0.749970
-0.404316 -1.894047
-1.443291 -1.066128
-2.516429 -0.455116
-1.348450 -0.717504
-2.118775 0.144589
-3.503847 -0.055792
-1.651907 1.581274
-1.962554 2.769868
-0.446762 2.373597
0.699550 2.908156
0.410568 1.628016
2.150476 0.758678
1.512466 -0.483813
-0.293788 -1.275358
-0.980310 -1.598523
-1.615928 -1.020182
-3.120377 -0.737006
-2.554044 -0.145028
-2.312045 1.591646
-2.160233 1.717584
-0.282970 1.889301
-0.913835 2.490495
0.187784 1.135196
1.069794 0.657740
-0.547764 1.197040
0.504971 1.134639
0.239813 0.969579
-0.396776 -0.310190
-0.552548 -1.068459
-1.761080 -0.426986
-2.497281 0.149423
-1.606660 0.246611
-1.360821 0.574970
-0.898218 0.626534
-0.435646 -0.363067
-1.026460 1.198455
-1.349148 1.140920
-0.182369 1.580831
-0.406473 1.896579
-0.131068 0.318995
-0.138843 0.270609
-1.469540 1.092165
-0.362690 0.637663
-0.418917 0.886070
-0.326267 0.695494
0.201388 -0.552354
-0.557855 -0.513156
-0.947771 -0.612479
-1.192495 -1.047277
-1.356596 0.786235
-1.296059 0.466521
-0.888393 0.134296
-1.811529 2.177634
-1.157442 2.466866
0.301374 2.654538
0.438644 2.242017
-0.154059 0.637640
0.326968 1.539122
0.830862 0.686504
0.509250 -1.831528
-0.667340 -2.031061
-1.722412 -1.064989
-1.936223 -1.117071
-1.591882 0.216878
-3.001314 -0.044601
-3.053126 1.225654
-1.221296 4.436288
0.055357 3.475814
1.121319 1.672348
0.761618 1.775800
0.318208 0.274190
0.902914 0.352021
-0.138493 -0.715570
-0.922995 -1.841890
-1.186017 -0.731087
-1.450806 -0.039691
-1.477002 -0.361827
-1.492499 0.857436
-1.986833 1.273378
-1.078439 1.850794
-0.374429 1.949364
-0.335276 1.340964
-0.021256 1.110249
-0.315026 1.655739
-0.895976 0.598993
0.020075 0.900088
-0.127243 1.102977
-0.531877 -0.017394
0.438992 -0.143142
-0.824535 -0.631208
-1.179781 -0.667504
-1.318539 0.837428
-1.021430 0.892955
-0.581265 0.841342
-0.207408 1.080353
-1.037294 0.334766
-1.153590 0.481397
-1.072995 1.613985
-1.334027 1.680051
-0.451639 1.471722
-0.342456 1.517211
-1.011934 1.136221
0.564730 1.272570
1.222432 1.175011
1.068706 -0.605600
0.786268 -0.941747
-0.846752 -0.988487
-1.327243 -0.721798
-1.523102 0.727435
-2.314631 0.964472
-1.930892 1.145227
-1.469404 1.573168
-2.244369 1.967862
-0.628918 2.716236
0.521719 3.191424
0.998906 1.675249
2.136412 0.532454
0.980392 -0.206703
-0.268156 -1.031242
0.322523 -1.388304
-1.707748 -0.585092
-1.938628 -0.365245
-1.367351 0.699076
-1.960471 1.112956
-1.641096 0.988405
-1.425902 2.148101
-1.241770 3.433170
0.977139 2.897329
1.525624 1.525369
0.129589 0.400126
0.025514 0.118409
0.272859 0.884895
-0.237355 -0.389287
-0.414840 -1.120036
-1.304096 0.557561
-1.203250 0.692297
0.551163 0.755897
-0.719052 0.524408
-1.436989 0.632461
-0.376344 1.334249
-1.376752 1.713624
-0.626463 1.143136
-0.938990 1.542411
-1.004802 1.963079
0.192068 1.068582
0.019405 -0.075979
-0.643925 0.727877
0.156890 0.352257
0.614426 1.135459
0.288050 0.249857
0.454997 -0.243148
-0.702633 0.990148
-0.123806 0.319577
0.087835 0.182243
-1.596057 0.588272
-1.659734 0.277677
-1.951017 1.411491
-2.110195 2.115189
-0.844572 1.689500
-0.043903 1.814843
0.065588 2.579762
0.959995 0.796386
1.435066 1.263258
1.599231 0.182360
1.605026 -1.118114
0.626956 -0.439498
-1.000821 -0.903063
-1.545051 -1.206475
-2.774079 1.323731
-2.992775 1.955147
-2.187696 2.750831
-1.069493 3.873376
0.414154 1.840584
0.479462 2.024742
0.506994 1.609514
0.767654 0.367691
1.480742 1.077441
1.313070 -0.251710
0.093859 -1.350912
-0.416702 -0.525490
-1.703031 -0.232092
-1.513109 0.477859
-1.033354 2.114310
-1.990768 1.534950
-0.593044 1.288752
-1.098677 2.543972
-0.453819 1.669765
0.815581 1.774629
0.358934 1.116450
0.114841 -0.423242
0.073339 0.963183
0.261229 1.218731
0.379749 0.308360
0.771489 0.941713
-0.645436 0.432338
-0.545653 0.059197
-0.001869 1.638761
-1.128780 0.183983
-0.799312 0.764936
-0.598576 1.615520
-0.645796 0.335993
-0.367982 0.845989
-0.962220 1.580419
-1.304008 1.394197
0.701398 2.581757
0.294405 2.156006
0.558830 0.921477
0.832636 1.846771
0.750267 1.244714
1.537339 0.062656
0.985852 0.083457
-0.783557 -0.499515
-0.997792 0.353843
-0.375091 0.182577
-2.331313 -0.439713
-2.067656 0.328015
-2.443578 2.245788
-1.884160 2.746661
0.315538 3.074312
0.640322 2.998483
1.722746 2.148245
3.290925 1.211064
2.290573 -0.754189
0.779986 -1.717449
0.159589 -1.301959
-1.258265 -0.221765
-1.630707 -0.203859
-0.926031 0.296813
-2.959386 1.284150
-2.361833 1.849253
-0.895271 3.588497
-0.622970 3.229232
2.047452 2.021153
1.317728 1.561290
0.692431 0.532229
0.938699 1.042689
0.248681 1.275984
0.854376 0.165533
0.538622 -0.137772
-1.360636 0.355839
-1.285290 0.838142
0.110287 1.427220
-1.213068 1.282535
-0.907199 0.852761
-0.775708 0.975761
-1.558840 1.087101
-0.088259 1.564407
0.096973 1.877846
0.552409 1.672950
1.434136 0.508314
0.355674 1.206035
0.276127 1.277815
0.772559 1.737753
0.326914 1.851759
0.718498 1.636744
0.298341 0.511347
-0.060225 1.067040
-0.512003 -0.292410
-0.584032 -0.359857
-2.436160 0.998864
-0.947996 0.338441
-1.024715 1.471237
-1.675048 1.764461
-0.479916 1.866213
0.052401 3.867432
1.087969 3.123119
2.431974 1.501587
1.984371 2.636819
2.061083 0.656539
2.430743 -1.077734
-0.035986 -1.567450
-1.314936 -1.965784
-2.197838 -0.337550
-1.773222 1.297514
-1.944910 0.807008
-1.884215 1.997571
-1.595971 3.789220
0.981767 3.189740
2.169805 3.730481
1.621156 2.181279
1.875423 1.362481
2.716751 2.809436
1.867718 -0.668149
1.160067 -1.926786
-2.023595 -0.576699
-2.324444 0.363477
-0.892279 1.397322
-1.263435 1.357831
-1.381021 0.503180
-0.991483 1.895010
0.458331 3.236159
1.935436 1.408292
1.282251 1.994937
1.181915 1.449141
0.492591 1.620595
1.741739 3.363028
0.459034 1.703391
0.619982 0.050578
-0.067469 0.553705
-1.235853 0.123986
-0.467338 0.252080
-0.783718 1.246823
-0.491286 -0.098794
0.198346 1.036875
0.391201 1.857051
0.341656 0.368668
0.442172 1.641124
-0.687683 2.427483
-1.091346 1.997714
0.363936 4.090814
0.011166 3.199575
1.034738 1.621572
1.246900 2.339916
0.328616 0.835625
2.439303 0.626554
1.787872 0.032029
0.742230 -1.313717
0.444103 -0.959835
-0.800188 -0.685973
-3.155055 -0.268296
-2.081038 2.260950
-1.646254 4.189745
-1.042927 3.414696
1.002379 4.640030
1.563566 4.294471
2.944173 2.831754
4.709172 2.074845
2.073945 -0.246492
1.998806 -1.902314
1.030291 -0.912218
-0.932223 -1.990867
-0.215391 -0.826998
-1.607728 0.926162
-2.754701 0.602795
-1.250124 2.706603
-1.759323 4.320928
-0.349909 4.927958
3.322247 5.592642
2.798169 2.943709
1.723009 0.251317
1.824392 0.985258
0.633848 1.182046
2.017984 -0.035157
0.900033 -1.267474
-2.781419 -0.014834
-0.474928 1.474647
0.914749 2.606055
-0.103371 0.671874
0.725097 0.071713
-1.448894 2.393463
-0.841698 3.368890
1.544913 2.776803
0.809651 2.808111
0.282474 2.934220
1.967521 1.705463
0.843129 2.386324
0.782228 0.831809
2.098888 2.362591
0.458394 2.786463
3.223642 0.017909
2.036141 -0.382104
-0.767305 -0.073740
0.052584 0.355870
0.177490 1.879783
0.108884 1.237457
-0.171386 0.235301
-2.355285 1.884146
-1.847456 3.407083
0.188190 4.534895
-0.580379 5.011009
2.006737 4.991061
4.005102 4.811157
3.893734 3.385349
4.778094 -0.931486
3.793844 -1.874618
0.676447 -1.818002
0.524433 -3.809388
-2.030424 -1.677679
-3.634584 0.071927
-2.152870 2.119327
-2.046157 6.308753
-1.172216 6.686785
2.878528 5.516196
2.373941 6.303597
2.891503 4.421442
4.442922 2.459013
4.405952 2.072373
3.818557 -1.536343
3.350100 -3.643539
-0.631018 -0.717680
-1.308474 -1.923968
-0.402810 1.037585
-0.529751 3.935309
0.094184 1.998024
-0.395855 4.577147
1.339294 5.242242
2.609343 3.381524
1.227685 4.729876
1.081976 1.172294
0.713063 1.893702
1.245598 4.941841
2.731922 0.865906
3.380525 -1.189952
2.055675 0.376405
0.685122 0.022013
3.464542 2.708792
2.413593 3.594742
2.084747 0.168631
1.278899 2.821689
-1.223769 3.473716
0.131440 0.990064
0.601402 3.526064
-1.167954 3.918671
0.341607 5.641414
2.649940 6.841693
2.908761 0.736514
3.342785 0.960246
2.978774 3.475402
3.108070 3.292090
8.622300 2.186607
9.086815 1.921010
2.333891 -3.569568
0.150936 -2.650399
-4.136832 -1.434867
-3.222948 -2.773745
-4.012960 4.355436
-4.845318 8.310739
-1.272671 6.922554
2.643113 10.743883
1.431689 8.316062
10.297217 10.170395
14.532034 5.520387
9.740715 -6.102644
5.621315 -6.957072
2.677744 -3.290764
-0.390006 0.311493
3.485099 -1.051753
-3.052406 0.381111
-7.755543 2.031499
-2.172693 11.863134
-0.248771 13.481746
5.918803 5.440028
8.265128 5.257443
2.498318 2.907953
2.702954 -0.690427
9.198221 4.156322
6.066722 0.709272
8.834415 -1.134291
6.406618 -0.812609
2.256792 2.577378
4.696020 1.089539
2.124266 0.240076
-5.691638 7.647236
-3.420096 5.133662
-4.629767 7.945483
7.290646 4.602098
10.652586 3.791625
4.273438 5.432258
5.195410 5.562385
3.709637 4.280682
6.668437 1.712241
13.447112 3.535173
10.229087 6.931991
5.258618 -0.099002
12.834840 5.254083
8.512843 -0.315163
-5.023281 4.167215
0.723087 3.716776
10.414978 -2.588518
3.934947 -5.326209
-4.417945 2.844618
-13.933426 12.649813
6.149585 5.019232
-4.088009 12.434610
10.641585 26.465270
38.131047 31.868442
24.817649 30.601348
3.350144 -1.370901
31.849198 -6.567388
35.756149 -3.644251
24.769495 -43.977275
5.998660 -39.239403
-15.694971 -15.037330
-22.349364 19.936198
-7.435424 9.757759
-33.874027 47.821269
-15.343846 21.981755
-1.519144 67.878190
22.667566 66.104861
51.199801 2.590598
86.955677 50.833692
141.289487 72.855426
104.115899 -81.078605
110.128522 -113.397012
-35.138091 -137.810099
-16.588592 74.350473
-34.639707 -15.088329
180.505711 100.754264
