2083.872211 4025.508257
-1748.517942 1279.986456
-681.006365 1258.724143
183.413705 -196.532628
-294.234803 -2.193372
-52.032045 -30.158445
-73.442323 -33.012227
6.706464 -58.665351
-24.134966 -28.399714
38.647842 -13.877635
0.597451 -28.566783
15.664443 17.341937
6.956490 -8.908068
-0.321018 18.685534
3.519520 0.055252
-6.256260 21.492050
-7.311056 -1.697633
-16.635411 10.828789
1.889189 -7.243457
-17.795130 -6.100807
2.796506 2.346760
-1.184760 -16.404311
1.876683 -6.464677
-6.086781 -5.178800
13.020258 2.745299
1.005990 -5.879891
-0.217858 5.169944
0.887761 -1.007701
-2.691683 8.156883
3.548313 -1.502743
-2.764628 -0.360416
-0.471408 -2.091399
-4.502120 3.111612
3.659864 -3.225648
-7.442210 -3.266168
1.222514 -0.224402
-0.819325 -1.002683
3.854048 -1.733282
-1.035894 -4.514347
3.597632 2.713629
0.708689 -1.305573
2.086720 0.763046
-0.545595 1.023332
-0.778301 2.844423
-0.223579 -2.437009
-2.021975 1.379036
1.642893 -3.057085
-1.258542 -1.996978
0.431363 0.369869
1.979526 1.278339
1.400830 -3.085059
-3.195079 0.881955
2.694364 3.515564
0.732430 -2.147891
-1.269989 -2.104874
-4.011787 1.107437
0.963306 2.241463
1.300330 -2.742615
-0.095708 -2.206558
-1.002153 0.599184
1.702692 2.380067
1.637167 -1.764236
-1.658912 -1.072301
-0.002934 -1.589489
-1.136862 -0.036154
-1.652993 1.842213
0.189667 1.033652
-0.014194 -0.100303
-3.813870 0.131340
0.349559 0.954168
-0.187177 -0.889184
-0.276430 0.806205
0.337457 -1.363543
0.889526 -0.561234
-0.625353 -0.287708
-0.050630 0.751388
-0.456688 -0.783062
-0.201007 0.162684
0.677181 0.007102
-0.998570 0.947692
1.221582 1.334262
-0.111564 -0.151667
0.000907 -1.285010
-0.672278 -0.995356
0.303963 0.235803
0.116337 -0.504339
0.926866 -1.407195
-0.421900 -2.174005
0.485902 0.580604
0.803515 -0.174139
0.549232 0.599676
-0.378061 -0.017930
0.825203 0.576190
0.640154 0.092170
-0.185054 1.572726
-0.175149 0.458978
-0.649417 -0.941223
-0.312771 -0.519931
-0.148022 -0.586796
0.082504 -0.748654
-1.091159 -0.041533
-0.517891 0.125973
-0.169921 -1.133653
0.834529 -0.518330
-0.747942 0.831235
0.188592 0.955762
0.575119 -0.589957
-1.004901 -0.556856
-0.878430 0.856422
1.117061 1.385187
-0.602011 -0.637604
-2.295687 0.225397
0.001642 0.337180
0.435108 -0.320976
0.602883 -1.002046
-0.008487 -1.009643
-0.748997 -0.354845
-0.303446 0.904934
0.967520 0.611288
0.432102 -0.535316
-0.086556 0.447098
-0.066794 0.073201
0.059494 0.423225
0.054697 -0.518059
-0.490139 -0.158097
-0.898368 -0.496630
-0.064786 0.720515
0.311678 -0.844193
-0.253589 0.013799
-0.352119 -0.033523
-0.549848 -0.089733
0.697335 0.878567
0.492506 -0.912151
0.719350 -0.109335
0.322664 0.563520
0.689342 -0.145340
-0.667527 -0.350731
-0.192210 0.475333
-0.269439 -0.516158
0.105457 -0.790767
-0.238788 -0.355584
-0.268243 0.465782
0.256795 -0.278319
0.160803 0.186025
0.494882 -0.581740
0.131504 0.332693
0.262337 0.554022
-0.514190 -0.327736
0.027923 0.064038
0.020621 0.032902
-0.802521 -0.111158
-0.762049 0.698202
0.644514 -0.117645
-0.934035 -0.283508
-0.290040 -0.085169
1.097614 0.050331
-0.327043 0.423406
-0.258336 -0.024990
0.592463 -0.251538
0.036769 -0.662126
-0.428903 0.038644
0.158222 0.286106
-0.837780 0.410030
-0.513445 0.093895
0.151924 0.265146
-0.403359 0.540361
-0.022980 0.158340
0.021727 0.090602
-0.278703 -0.529207
0.150225 -0.336542
-0.411036 -0.749259
0.159160 0.153036
0.744002 -0.139745
-0.049740 -0.519871
-0.011249 0.165121
0.163912 0.295256
0.431620 -0.498512
-0.248966 -0.390983
-0.000895 0.218721
-0.164805 -0.092639
0.241331 0.243683
-0.356926 -0.569542
0.347864 -0.611680
0.133921 -0.242029
0.654443 0.241932
0.287975 -0.275978
-0.454933 0.063781
0.131251 0.222312
0.165079 0.536659
0.072779 0.617515
-0.350797 0.574686
-0.208933 -0.153491
-0.177023 -0.147927
0.171617 -0.049448
0.207018 -0.036820
0.214976 0.158379
-0.232233 -0.512502
0.063133 0.033660
0.060912 -0.130928
0.275500 0.097261
0.243621 0.292279
-0.183147 0.172330
-0.364585 -0.214263
-0.165196 0.534891
0.186311 0.373699
-0.035471 -0.243283
-0.404998 0.033068
0.001515 -0.124736
0.492239 -0.125594
0.279917 -0.819071
0.036910 -0.025524
0.098056 -0.267301
0.483388 -0.048368
-0.389066 0.378355
-0.115539 0.503771
0.388195 0.039193
-0.154982 0.487042
0.076000 0.038104
0.026496 -0.100553
-0.201356 0.177921
0.201101 0.267001
0.241661 -0.354808
-0.777222 -0.289173
0.042443 0.394054
-0.059957 0.201916
-0.192199 -0.196452
0.280781 0.214564
0.036501 0.471273
-0.148904 0.249763
0.462822 0.420014
-0.240984 -0.192323
-0.425295 0.035240
0.036909 0.179781
0.235058 0.145302
0.090772 -0.762247
-0.066878 0.097035
-0.358708 0.004301
0.187403 0.209591
0.114697 0.060863
-0.162843 -0.000152
-0.027860 0.159366
-0.021796 0.300140
-0.346653 -0.009533
0.005424 0.065652
0.017843 -0.254918
-0.221307 -0.264257
-0.053885 0.049718
-0.082553 -0.320033
0.165853 -0.086157
-0.019480 -0.072219
0.302813 -0.040277
-0.147574 0.085303
0.040214 0.096445
0.006648 0.176533
0.382858 0.020607
0.054862 0.065422
-0.367913 0.280559
-0.234403 0.450130
-0.091549 -0.197724
-0.306480 -0.289884
0.031620 -0.016156
0.199714 -0.362806
-0.005743 0.133823
-0.180423 -0.077704
0.195159 -0.098063
0.013973 -0.052456
-0.173508 -0.149729
-0.058361 0.104440
0.215627 0.244414
-0.089082 0.123976
-0.055184 -0.082076
-0.118626 0.204067
-0.013429 0.033969
0.026372 -0.420656
-0.318494 -0.188078
0.039917 -0.091724
-0.011993 -0.003690
0.330898 0.027827
0.395017 0.009897
0.008396 -0.153941
0.046746 0.380637
0.087374 0.367506
0.137945 0.273978
-0.115618 0.190848
-0.395012 -0.072308
-0.039181 -0.158933
-0.237556 0.168310
0.301321 -0.089412
0.074475 -0.118933
-0.231673 0.124820
0.096804 -0.186744
-0.225673 -0.143140
-0.042715 0.064254
0.084532 0.023452
-0.055801 0.107405
0.122365 0.234572
-0.096883 -0.349092
-0.131755 -0.085417
-0.050814 0.277989
-0.077563 -0.201068
0.098227 -0.377807
-0.102191 -0.282655
-0.000268 0.156819
0.099961 -0.081675
0.044531 -0.237694
-0.095241 0.150036
-0.365577 0.178336
0.181295 -0.226542
0.003500 0.033206
-0.249857 -0.097076
0.167356 0.048684
0.162617 0.182703
0.123523 0.088525
0.210149 0.243823
0.010059 -0.074284
-0.193545 -0.063888
-0.162742 -0.111169
0.145969 0.202324
0.027224 0.161621
-0.155734 -0.011726
0.041216 0.080620
-0.253683 0.056836
-0.170343 -0.190544
0.142335 0.009336
-0.314082 -0.122607
-0.142668 -0.270838
-0.115864 -0.150469
-0.155556 -0.423530
0.120320 -0.451472
0.028680 -0.064371
-0.078210 0.044822
0.281716 0.083296
0.040803 -0.277115
0.122009 -0.053113
-0.096487 0.330698
0.125727 0.097154
0.256278 -0.100924
-0.283798 0.193988
0.061044 0.019642
0.124501 0.032984
-0.141039 -0.215789
-0.530087 -0.246393
-0.252818 0.082231
0.042454 -0.032738
0.128348 -0.116492
0.016991 -0.284295
0.149625 -0.063246
-0.158396 -0.301334
0.164558 -0.014874
0.221155 0.099594
0.307718 0.216556
0.082876 -0.304007
0.014753 -0.163913
0.061935 0.138510
0.303400 -0.126437
0.207617 -0.180203
-0.065443 0.008797
0.324824 0.054954
-0.109797 -0.092795
0.060496 0.078793
0.355552 -0.265040
0.245068 -0.025521
-0.132259 0.147823
0.096371 0.006990
-0.137919 -0.037094
-0.335621 0.113834
-0.119441 0.056565
0.139849 0.064358
-0.183910 -0.026060
-0.196837 0.206028
-0.063721 -0.077108
0.010879 -0.222443
0.065077 0.050834
0.084093 -0.101583
-0.101688 0.053202
-0.150327 -0.036880
0.255878 -0.046770
0.143780 -0.079620
-0.033880 -0.001740
0.089583 -0.013119
-0.042589 0.056686
-0.110820 0.206530
0.081892 -0.039860
0.013971 0.095081
-0.060118 0.140814
0.031296 -0.046844
-0.034071 -0.021542
-0.150348 0.085472
0.000195 0.081679
-0.108351 0.147481
-0.016527 -0.005666
-0.183383 0.068799
0.064485 -0.056314
0.071680 0.008712
0.440344 -0.151248
-0.133108 -0.048597
0.001453 0.137129
0.001874 0.243710
-0.178011 -0.072345
-0.098809 -0.299665
-0.035940 -0.099190
-0.106241 -0.094519
-0.168235 -0.002835
0.054071 -0.228878
-0.315619 0.046388
0.091348 0.040355
0.256194 0.028443
-0.192735 -0.323961
-0.146035 -0.067177
0.078435 -0.163183
-0.139209 -0.102430
0.209903 -0.046090
0.077857 -0.158252
-0.168001 -0.231622
0.060473 -0.115614
0.059611 0.076267
0.180362 -0.222508
-0.078846 -0.114419
-0.272860 0.112474
-0.112599 -0.079484
0.018111 0.058670
0.067353 -0.234901
-0.009394 -0.072458
0.109597 -0.044974
0.091939 0.013453
0.009516 0.147229
-0.171516 0.242037
0.038982 0.067632
0.028490 0.277947
-0.082563 0.080227
-0.284546 0.256938
0.060751 0.313013
0.067941 -0.223446
-0.002285 -0.114438
-0.131687 -0.238363
0.138652 0.206846
0.024473 -0.057828
0.071874 -0.273612
0.014302 -0.151207
0.071323 -0.000064
0.123290 0.038731
0.009431 0.045513
0.142709 -0.105600
0.071015 0.042671
-0.184798 -0.023307
0.018703 0.229414
0.014430 0.158702
0.004494 -0.125240
-0.006418 -0.283712
-0.028046 -0.390406
-0.113813 -0.079214
-0.013552 0.229538
0.124254 -0.217043
-0.019153 0.136422
0.115348 -0.228249
-0.142664 -0.089095
-0.192204 -0.186393
-0.009003 0.314202
0.025570 0.207954
0.167240 -0.232737
-0.075794 -0.073604
-0.452460 -0.240564
0.199826 0.037153
-0.293278 0.352354
0.198090 0.133910
0.150104 0.070165
-0.092566 0.091956
-0.169224 -0.219866
-0.193116 0.129233
0.237444 0.073669
0.024569 -0.060121
-0.310407 -0.055657
-0.100864 0.457723
0.148687 0.055882
0.121985 -0.195717
-0.104714 -0.175664
0.096123 -0.084862
-0.214046 -0.010997
0.085436 0.108455
0.097327 -0.025522
-0.051011 -0.132673
-0.201986 0.119359
0.057593 0.253785
0.005934 0.122829
-0.069083 -0.147037
0.039539 -0.145502
-0.033911 0.298341
-0.087978 -0.096086
-0.053085 0.083179
0.246154 -0.024285
-0.082846 -0.152881
0.198261 -0.061750
-0.111462 0.216003
0.116303 0.004377
-0.017488 -0.188311
0.024090 -0.013401
-0.252993 0.168839
0.085750 0.495402
0.324392 0.147309
-0.108134 -0.041033
-0.123635 -0.236730
0.127734 0.274060
-0.321862 0.031391
-0.255865 0.206429
-0.178313 0.202800
-0.171440 -0.458332
-0.120585 -0.063378
-0.180959 0.171854
0.164389 -0.057365
-0.265069 -0.197915
-0.170698 0.345323
-0.102061 0.126410
-0.071645 -0.141318
-0.156098 -0.187317
-0.335073 0.114309
-0.195349 0.128496
0.208924 -0.227238
-0.092959 -0.149278
-0.240740 -0.067758
-0.157619 0.250448
0.165318 0.132969
-0.147147 0.135866
-0.429411 -0.047542
-0.206113 -0.067801
-0.257142 -0.201199
-0.065509 -0.108279
-0.024451 0.207286
0.026154 -0.097087
-0.001954 -0.226972
0.131774 -0.361531
-0.020739 -0.119038
-0.081566 -0.190294
0.087187 0.167937
0.000359 0.084222
-0.094718 -0.237557
0.361682 0.223078
-0.076748 0.047302
0.160237 -0.082852
-0.094366 0.181878
-0.066384 -0.016400
-0.053909 -0.242638
0.014203 0.214357
0.035191 -0.009323
-0.205252 -0.209448
-0.051273 -0.060348
0.106606 -0.101001
-0.145339 -0.127406
0.052948 0.062085
0.106702 -0.017533
-0.175487 -0.146316
0.063677 0.300262
0.073028 0.213385
0.232399 -0.138071
-0.238979 0.167442
-0.037148 -0.280688
0.062479 0.099345
-0.253420 -0.176652
0.136771 -0.062145
-0.144989 0.098563
-0.311596 0.067919
0.119233 -0.084129
0.023979 -0.073570
0.192555 -0.390661
-0.292009 -0.180839
0.173860 -0.005077
-0.232853 0.110338
-0.052358 0.182034
0.074376 0.032054
0.032940 0.002775
0.006551 -0.118060
0.000268 0.062823
-0.261001 -0.009264
-0.196461 0.363598
0.148194 0.016262
0.162684 0.123479
-0.090801 -0.426647
-0.291298 0.079586
0.020520 0.480351
0.123135 0.226742
0.087368 -0.044377
-0.071069 -0.216513
0.024302 -0.040627
0.037498 -0.012264
0.062601 0.000769
0.100611 0.110184
0.067289 0.064254
-0.008489 -0.025996
-0.007755 0.094219
0.141476 0.249218
-0.074838 0.020461
-0.085798 0.028889
-0.016654 -0.068551
0.097944 0.152246
0.091187 -0.054905
-0.098727 0.077005
0.128672 -0.239991
-0.159357 -0.042121
0.090143 -0.315686
0.007931 -0.143305
-0.045406 0.021057
-0.058231 -0.226366
-0.119292 0.007003
-0.022658 0.006585
0.312874 0.071915
-0.335843 -0.069257
0.003541 0.185818
0.051284 0.084833
-0.120053 -0.117559
-0.149855 -0.267789
-0.121219 0.181403
0.207938 0.008064
0.169061 0.153145
0.155922 0.159101
-0.016364 0.116688
-0.004009 0.283530
0.081807 0.161178
-0.011091 0.166833
-0.108648 0.271496
-0.098346 0.051295
-0.232398 0.175575
-0.026421 -0.076052
0.035992 0.044427
-0.070429 -0.028415
0.096969 -0.105940
-0.277380 -0.110211
-0.142554 0.197849
0.133611 0.315467
0.249508 0.171544
-0.275295 -0.092447
-0.251364 -0.048024
0.134390 0.206757
0.096961 -0.015089
0.152959 -0.022523
-0.070277 0.161578
0.035150 0.118405
-0.186236 -0.169241
-0.047991 -0.118122
-0.175987 -0.212416
-0.015114 -0.169772
-0.025007 -0.035247
0.078057 -0.121154
0.029102 0.032492
0.044100 -0.060714
0.040472 -0.028041
0.149678 0.109543
-0.096347 -0.116897
-0.092015 -0.052350
-0.082347 0.071956
-0.012507 0.164127
0.097357 -0.050898
0.146609 -0.047534
-0.232345 0.053500
-0.084030 -0.136987
0.116946 -0.049545
0.073558 0.036066
0.185586 0.062414
-0.039463 0.020360
-0.227645 -0.046510
-0.008364 0.057484
0.215624 -0.037745
-0.294454 0.083413
-0.150633 -0.084174
-0.332087 -0.006022
-0.169514 0.170087
0.129083 -0.081158
0.166555 -0.228101
0.013196 0.116831
0.211471 0.149936
-0.025199 -0.132628
0.252190 -0.181586
0.156825 0.126284
0.239040 -0.029365
0.222970 0.144498
0.180965 0.237293
0.239979 0.048574
-0.054997 0.190122
0.150773 0.091880
0.249061 -0.081396
0.173940 -0.041815
-0.358616 0.338101
0.107973 0.008581
0.126938 0.197242
-0.038719 0.018312
0.021126 -0.097787
-0.090597 0.136305
-0.386835 0.091215
-0.045247 -0.065275
-0.091056 0.252109
0.101801 0.162067
0.209400 -0.158072
-0.045836 -0.068003
-0.146117 -0.084008
0.056718 0.133950
0.093060 -0.162922
0.019608 0.000993
0.034254 0.206067
-0.017771 -0.280993
0.197419 0.048089
-0.069461 0.438685
0.030141 0.240826
-0.054197 0.374243
-0.179425 0.128592
-0.092998 0.146771
-0.081742 0.194644
-0.020519 0.107394
-0.231767 0.075304
-0.244652 -0.081639
0.096865 -0.002728
-0.206408 -0.153384
0.015057 -0.343434
0.062076 0.312897
-0.306587 -0.168965
0.083934 -0.083329
0.172493 -0.000212
0.138566 -0.265784
0.403162 -0.043433
0.027324 -0.060331
-0.196510 0.010234
0.012621 0.219458
0.038141 0.096036
-0.291648 -0.085891
-0.136483 -0.030866
0.088422 -0.123314
-0.137535 0.186029
0.002174 0.024018
0.248686 0.101606
-0.049497 0.226777
-0.203566 0.241946
0.119925 -0.049521
-0.025798 -0.021180
-0.133919 0.308431
-0.037598 -0.134234
0.025346 0.022691
0.145698 -0.081422
-0.244589 -0.232581
-0.250013 0.303555
0.080879 0.177896
-0.056682 -0.289200
-0.007826 0.076985
0.211661 0.013437
-0.079027 0.008282
0.068693 0.204966
-0.332642 -0.179693
-0.253290 0.083790
0.140947 -0.255205
0.147224 -0.334226
-0.082519 -0.279811
0.021821 0.020866
0.318156 -0.017536
0.149114 -0.036137
0.195275 -0.068242
-0.113139 0.025501
-0.153437 0.184523
0.175597 0.292454
-0.209583 -0.077434
0.046777 0.040697
0.129807 0.165057
-0.145060 -0.357820
0.089708 0.079349
-0.070863 -0.097164
-0.198376 0.126048
-0.107853 0.129117
0.076601 -0.022036
-0.040295 0.085419
-0.160762 -0.346833
0.158187 0.261892
0.121625 0.242227
0.007425 0.131872
-0.140028 -0.103306
-0.359219 -0.063656
-0.131530 -0.235171
0.095140 -0.072847
0.279019 0.133997
-0.021588 -0.132889
0.009146 -0.206180
-0.454453 0.106320
0.385722 -0.055816
0.015529 -0.001724
0.082247 -0.016052
-0.134142 0.027959
0.053238 0.220094
-0.207919 0.137471
0.342444 0.160452
-0.079322 0.096014
-0.346071 -0.067751
0.083316 -0.220405
-0.296680 0.279987
0.179135 -0.249663
-0.013192 -0.049086
-0.289565 -0.272524
-0.284595 0.127389
0.152608 0.057744
-0.013272 0.231574
0.240898 -0.268025
-0.267105 0.147462
0.073778 -0.043987
-0.034475 -0.097977
0.132928 -0.278772
-0.051955 -0.262368
0.101662 -0.118517
0.306467 -0.190090
-0.046075 -0.103247
-0.527118 -0.212600
-0.274224 0.151434
0.138835 0.055450
-0.230238 -0.157010
-0.293919 -0.166362
0.323482 0.206019
0.148731 -0.084402
-0.046834 -0.421972
0.064807 -0.093177
-0.006960 -0.202496
0.195317 -0.223992
-0.235257 -0.294469
0.127658 -0.334973
0.157967 0.488239
-0.129155 0.319780
0.543880 0.256520
0.250521 0.346477
-0.070999 0.134458
-0.002886 -0.138062
-0.063222 0.147015
-0.236167 -0.486811
0.303005 0.081030
-0.287252 -0.081677
-0.270548 -0.347097
-0.036939 -0.027789
0.270418 0.006688
0.137485 0.086277
0.047431 0.010198
-0.208443 -0.016274
-0.226614 0.125650
0.630418 0.059551
0.266308 -0.172311
-0.275685 0.180157
0.090264 0.280828
-0.268021 -0.762636
-0.448499 -0.498711
0.624192 0.169476
0.187461 -0.650386
-0.647907 -0.184188
-0.145792 0.385678
0.509509 -0.083637
0.487293 0.266673
0.358233 0.289054
-0.438740 -0.070195
-0.097201 0.263078
0.234926 0.077882
0.432805 -0.163674
-0.038068 0.221571
-0.002692 0.155713
0.054574 0.674890
0.282908 0.110972
0.389048 -0.040306
-0.295317 0.119188
-0.003062 0.315257
0.011787 0.538762
-0.228894 0.212070
-0.151024 -0.009873
-0.005601 0.086675
-0.035785 -0.378315
0.017378 -0.528062
0.371968 -0.141958
-0.589029 -0.173469
-0.399828 -0.293225
-0.521348 0.152971
0.033835 0.241303
0.102765 0.503827
-0.217710 0.191386
-0.364404 0.066923
-0.197969 -0.100812
0.868736 -0.807018
-0.008405 -0.027990
-1.236494 0.038481
0.708608 0.239684
0.206626 -0.681512
-1.177808 -0.084077
0.310936 0.110115
0.188699 0.481856
-0.745511 0.208010
0.108069 -0.104567
0.357887 -0.033686
-0.163786 -0.070724
0.040229 0.156766
-0.023443 0.042587
-0.295124 -0.645276
0.177548 0.117299
0.149620 0.381936
-0.412517 0.144938
0.202143 0.335311
-0.102920 0.131426
0.619525 0.203601
0.608685 -0.132685
0.130728 0.164170
0.479484 1.250865
0.398305 -0.402217
-0.583671 -0.286476
-0.513472 -0.429294
-0.791365 -0.195574
-0.187430 0.532537
0.998520 -0.001572
-0.384364 -0.775883
-0.825599 -0.361000
0.092101 1.454258
0.495788 -0.010958
0.631786 -0.008065
-0.173404 0.032314
0.070150 -0.162159
-0.245362 0.356642
0.025823 0.026745
-0.443995 -0.683853
-0.575935 0.358892
-0.303746 0.669928
0.650222 0.395497
0.492508 -0.203388
-0.999833 -0.792529
-0.772422 -0.734562
0.327936 -0.122805
0.127621 0.362873
0.279091 0.588456
0.065012 -0.241404
-1.626003 -0.163088
-0.569157 0.682303
1.470171 0.339685
-0.842722 -0.820064
-2.414818 0.293346
-0.177186 0.627487
0.768248 -0.912890
-0.412939 0.192051
0.054398 0.556410
0.402520 0.935565
-0.157259 -0.290060
0.627417 -0.652133
0.747138 -0.210045
0.187676 0.468984
-0.428916 0.522295
-0.097023 -0.349183
0.359639 -0.190943
-0.789748 -0.657513
-0.330361 1.919513
1.330343 0.672144
-0.223573 -1.380549
-0.482117 0.364205
1.825201 2.049622
1.096755 -1.178027
-0.990128 0.676777
1.081779 0.689558
0.865774 -0.131485
0.491669 -0.108895
-1.257799 0.082910
-1.694678 0.751423
-1.247153 1.343773
0.689389 -1.035711
-0.191525 -1.132787
-1.143135 0.998359
0.487877 -0.733202
1.090029 -0.191917
-0.125731 -1.341924
-1.641781 0.195964
-0.044435 -0.279122
0.571396 -0.317488
-1.939451 -0.787985
-0.696278 1.864936
0.340008 1.050324
-2.596420 1.060786
-0.620643 1.086478
0.703282 -0.442144
0.302028 -0.861515
1.156255 0.286778
-0.075662 -1.389933
-3.354239 0.441835
1.299378 2.863136
3.190423 -2.426326
-3.050756 -2.152868
-1.767213 2.582485
3.499145 3.088021
2.690215 -2.143714
-1.950483 -1.329384
-1.649552 1.758174
1.102229 4.474919
1.958674 -0.380063
-3.507881 -1.308893
-0.729384 2.201612
-0.452081 -1.668085
0.981426 -2.743040
0.295589 0.676968
3.149991 -0.274751
0.044966 -1.441855
1.774627 5.729891
3.491787 -1.064280
-3.163059 0.821781
0.068186 2.209025
-0.408508 3.345679
-0.873232 -4.655948
-5.097321 3.792733
3.558126 2.448834
0.334642 0.511072
2.928492 -1.416802
-8.330026 -1.662182
4.016866 3.040246
-1.602273 -0.628657
1.193282 -3.712724
-1.820168 0.295334
-0.423099 8.531622
0.332268 -3.083731
2.474032 9.681145
-3.774086 -8.538819
-3.716486 10.930411
6.428591 -3.324662
-3.838656 2.898280
-5.904528 -5.997326
1.813641 8.257612
3.035501 -0.006460
-17.088124 3.319666
5.695686 15.897489
-39.523236 0.118874
22.116172 -8.995858
-48.463362 22.365549
-3.397882 -53.014587
-3.948806 12.850129
-31.195608 -2.717301
26.103792 -182.653088
148.676771 225.817178
-160.596321 -359.954392
881.207380 630.623077
-146.286217 1425.392579
