3678.280731 2846.880763
-431.931668 -1019.794946
-1206.828132 116.929337
174.810073 -9.248122
-102.889764 -13.931459
-74.116134 -9.386795
-12.391977 72.366278
-28.827233 -25.453014
-2.414129 21.776615
-15.558388 -6.651900
10.127485 9.170240
-17.588913 3.783638
13.840928 -11.821078
-7.360223 3.507990
3.952420 -5.292645
5.057120 5.504388
0.379555 -12.661146
6.427350 3.050073
2.083852 -3.613362
4.895168 -1.786261
-1.594345 0.084480
3.720369 -3.721419
-2.934603 -0.182805
2.884090 -5.422375
-0.598095 -0.944205
-2.728179 -6.491913
0.550926 -0.631144
-1.657655 -6.126083
2.692943 -3.294145
-1.642318 -4.805964
1.535288 -3.831724
-1.166587 -2.026106
-0.478475 -4.041221
-1.841919 -0.753214
-3.114791 -3.890742
-0.591545 -0.981771
-4.167398 -2.442345
-0.186270 -0.028808
-3.275474 -1.212596
0.120737 -0.051631
-1.717592 -0.081893
-1.124066 -1.197576
-1.731829 0.169067
0.094329 -0.721906
0.271877 0.482836
-0.639022 -0.467077
-0.138793 0.857208
-1.092801 -0.033183
1.620347 0.271806
-0.178304 0.636069
0.823143 -0.276773
-0.095340 -0.071672
0.169744 0.103928
0.912636 -0.468689
0.585139 -0.026546
1.089073 -0.567913
0.138332 -0.282010
0.850226 -0.963275
0.628728 -0.388516
1.265329 -1.122959
0.361293 -0.421736
0.717794 -1.326248
0.842970 -0.240742
0.986502 -1.416014
1.343203 -0.951787
0.309677 -1.698712
0.177801 -0.944338
0.892014 -1.013391
0.782860 -0.816035
1.205220 -1.838505
-0.056287 -1.389460
0.198234 -0.954162
0.272881 -1.698817
0.214686 -0.077682
0.703509 -1.223166
0.225209 -1.585717
-0.140426 -0.523725
0.481000 -0.974898
-0.194418 -0.026721
0.052023 -0.855791
0.338565 -0.124753
-0.477393 -1.508338
0.070987 -0.807712
-0.617279 -1.269844
0.461990 -0.720064
0.407309 -1.110752
0.821269 -0.758671
-0.357590 -0.745263
-0.079599 -0.830951
0.143924 -0.671083
0.702126 -1.057442
0.188396 -0.967665
0.628515 -0.369925
0.220668 -0.464763
0.327375 -1.085316
0.433466 -0.882079
0.309847 -0.750707
-0.146753 -0.858874
0.493323 -0.739340
0.174307 -1.013033
-0.063527 -0.947698
-0.001444 -0.894055
-0.000526 -0.612022
-0.230816 -1.208880
-0.058299 -1.620553
-0.013481 -1.058269
-0.247832 -0.923641
-0.802318 -0.447750
0.371493 -0.849900
0.127025 -0.334820
-0.463380 -0.824499
-0.391799 -0.260274
-0.197177 -0.669944
0.158253 -1.132030
0.137813 -0.222296
-0.289672 -1.022891
-0.484059 -1.133410
0.275513 -0.662422
-0.685560 -0.770936
-0.010984 -0.441311
-0.510949 -0.648947
0.126268 0.087271
-0.487091 -0.729146
-0.449799 -0.758559
-0.276576 -0.723606
-0.333488 -0.598727
-0.194234 -0.325177
-0.401758 -0.125727
-0.068695 -0.472963
-0.192092 -1.062051
-0.380545 -0.428851
-0.170679 -0.665276
-0.052595 -0.108118
-0.273542 -0.733431
0.068652 -0.617709
-0.125298 -0.457682
-0.108036 -0.870278
-0.136965 -0.401124
0.243355 -0.538471
0.052220 -0.706189
0.060797 -0.640700
-0.173750 -0.573107
-0.102147 -0.372842
-0.294658 -0.743549
0.039587 -0.756265
-0.016201 -0.695395
-0.570816 -0.515094
-0.672100 -0.269517
-0.188319 -0.431487
-0.389956 -0.427785
-0.382976 -0.459880
-0.080319 -0.688716
-0.408948 -0.503465
-0.415855 -0.446630
-0.054179 -0.265912
-0.265496 -0.354161
-0.064554 -0.451943
-0.529124 -0.030564
0.027991 -0.313012
-0.455519 -0.460423
-0.302778 -0.674046
-0.429467 -0.337273
-0.242062 -0.568345
-0.454416 -0.589808
-0.735004 0.026692
-0.265277 -0.161015
-0.322489 -0.279711
-0.575369 -0.388564
-0.527923 -0.034539
-0.676680 -0.469854
-0.444789 -0.262792
-0.052159 -0.043694
-0.172290 0.010532
-0.510850 -0.201871
-0.057157 -0.122050
0.065729 -0.411195
-0.199011 -0.284321
-0.674552 -0.096343
0.091383 -0.177012
-0.121229 0.132296
-0.663854 -0.113166
-0.225055 0.248487
-0.578569 -0.134586
-0.572200 -0.231501
-0.474153 -0.229787
0.028413 -0.293628
-0.160876 -0.469256
-0.428474 -0.146248
0.032337 -0.129585
-0.068622 -0.138053
-0.499426 -0.259200
-0.296627 -0.230517
-0.208827 0.199086
-0.292150 0.005572
-0.392716 0.011788
0.356847 0.296470
-0.355189 0.004108
-0.210945 -0.210054
-0.326021 0.142895
-0.162779 -0.047020
-0.321207 -0.088305
-0.180277 0.259317
0.047184 0.017611
-0.143074 0.267303
0.067859 0.309487
-0.444867 -0.162327
-0.227729 0.131139
-0.118559 0.061650
-0.118766 -0.163941
-0.043030 0.167476
-0.285315 0.001392
-0.114835 -0.078907
0.003974 -0.204353
-0.299329 0.165593
-0.257402 0.032675
-0.367811 0.004750
-0.228960 0.199169
-0.181684 -0.076245
-0.225052 0.306952
-0.110946 0.059072
-0.127764 0.279750
-0.126315 -0.114786
0.019400 -0.118231
-0.080727 0.278289
0.130345 -0.345318
0.046901 -0.009558
-0.393133 0.041045
-0.088934 -0.320736
-0.108225 0.160125
0.056993 0.183752
-0.311936 0.309686
0.046463 0.245817
0.002283 0.041217
-0.251260 -0.056817
0.048558 0.146547
-0.339626 0.026133
-0.270269 0.322818
-0.204359 0.330891
-0.171375 0.086738
0.017128 0.198617
0.139358 0.050579
-0.154043 0.137419
0.006355 0.035593
-0.360265 0.182598
0.092041 0.274068
0.078776 -0.128717
-0.138043 -0.394801
-0.073562 -0.235435
0.208465 0.053248
0.039231 -0.158097
0.234648 -0.153607
0.238905 -0.017478
0.295989 -0.327637
0.005020 0.077092
-0.113322 0.104409
-0.065628 -0.182280
-0.116607 -0.034339
-0.049389 -0.076095
-0.143239 -0.045512
0.022864 -0.012633
0.120091 0.161580
-0.131196 0.352404
0.154317 -0.318865
-0.238998 -0.006518
0.214442 -0.230971
-0.330269 -0.470577
0.102684 -0.036111
0.083733 -0.131356
-0.272280 -0.121065
0.065509 -0.055177
0.187828 -0.215569
-0.061087 -0.238918
-0.010816 0.114743
-0.065595 0.052153
0.353602 -0.163802
0.183363 -0.111286
0.045027 -0.036311
0.078651 -0.066924
0.206353 -0.210054
0.059365 -0.218066
-0.454483 0.026164
-0.316989 0.152486
0.059033 -0.105517
-0.116733 0.279288
0.218128 0.015048
0.161734 -0.250618
0.076993 -0.473992
0.298724 -0.472514
-0.003906 -0.319831
0.071409 -0.211719
-0.244924 -0.255459
0.224327 -0.607946
-0.031383 0.086612
-0.289217 -0.201563
-0.015610 -0.189801
-0.076614 -0.262778
-0.206558 -0.079950
0.007390 -0.187163
-0.077462 -0.468307
-0.145125 -0.432238
-0.013490 -0.398800
0.000817 -0.467848
-0.166777 -0.227246
0.187288 -0.005408
-0.466473 -0.454421
-0.037137 -0.454456
0.152299 -0.347415
-0.136039 -0.660581
0.145450 -0.088348
-0.394551 -0.359807
-0.228848 -0.519084
0.448871 0.281147
0.295209 -0.237339
-0.213602 -0.023741
-0.572860 -0.563058
-0.089063 0.229610
-0.041125 -1.043746
0.909730 -0.469904
0.614991 -0.407175
-0.273280 -0.013272
-0.022826 -0.204930
-0.707237 0.511055
-0.224358 -0.301205
0.347076 -0.081698
-0.267242 0.015451
-0.127593 -0.445693
-0.469616 0.030435
-0.018313 -0.300982
-0.402072 -0.054084
-0.396574 0.027063
-0.043432 0.074914
0.020989 -0.228251
0.060719 -0.221777
-0.637833 0.204682
-0.258207 -0.344338
-0.457741 -0.331943
-0.146144 -0.244069
-0.500034 -0.140683
-0.208394 -0.367343
-0.204215 -0.179586
-0.067879 -0.194208
-0.209548 -0.254378
-0.409179 -0.217519
-0.285859 -0.035889
-0.047466 0.065564
-0.103321 -0.322586
-0.015113 0.031637
-0.433842 0.026968
-0.184605 0.403592
-0.190850 -0.882547
-0.330146 -0.184980
-0.451155 -0.002510
-0.542656 -0.162164
-0.176995 0.056714
0.009527 -0.233991
-0.228694 -0.057391
-0.145298 -0.296241
-0.314904 -0.186380
-0.396639 0.132639
-0.411284 -0.315708
-0.322227 -0.459185
-0.527445 0.140085
-0.039431 -0.231718
-0.472754 0.141813
-0.424923 -0.084105
-0.426790 -0.097673
0.042004 -0.001482
-0.716887 -0.304839
-0.416423 -0.118763
-0.395388 -0.029715
-0.401036 -0.058523
-0.341850 0.043997
-0.394813 -0.122729
0.021995 0.063404
0.184936 0.116060
-0.618200 -0.202492
0.063425 -0.313620
-0.770341 0.256339
-0.702421 0.031213
-0.062162 -0.123760
-0.363920 0.078511
-0.033217 0.070280
-0.247356 0.032688
-0.217322 -0.236666
0.105429 -0.011737
-0.413398 0.017211
-0.168732 -0.055324
-0.448066 -0.025768
0.135844 0.457964
-0.403134 -0.277720
-0.119145 0.158928
-0.498597 -0.081477
0.155026 -0.225512
-0.116098 0.151593
-0.404281 -0.083030
-0.389903 0.185377
-0.220242 -0.088407
-0.512529 -0.149176
-0.514798 0.342275
0.219673 0.153585
-0.184653 0.081025
-0.207768 -0.071077
-0.286688 -0.458024
-0.169994 0.498738
-0.220599 0.299544
-0.588868 0.260787
-0.120664 0.003802
-0.467532 0.143847
-0.269027 0.327730
-0.171623 0.188446
0.023781 -0.148252
-0.445881 0.015899
-0.320946 0.180455
-0.217891 0.180563
0.183968 -0.158062
-0.265426 -0.018109
-0.068332 0.164975
0.071227 0.132941
0.110559 0.203676
-0.452508 0.014601
-0.274229 0.406272
-0.169085 0.269951
-0.271329 0.279853
0.112459 0.233172
0.046435 0.111981
-0.039886 0.249159
-0.340906 0.024335
0.035025 0.215358
-0.375314 0.112147
-0.225059 0.199399
0.364867 0.810740
-0.301450 0.074953
0.248941 0.173781
-0.821680 -0.010323
-1.505973 -0.151429
-0.061171 -0.585837
0.085620 0.245072
0.237077 -0.313659
-0.282824 0.663897
-0.168367 -0.062752
-0.708950 0.299086
-0.123214 -0.100733
0.310134 0.231738
-0.330317 -0.101109
-0.068750 -0.331799
-0.329960 0.008662
-0.088589 -0.168208
0.192039 -0.139658
-0.123541 0.217584
-0.141302 0.074028
-0.188590 -0.135401
0.064185 -0.101597
-0.015881 -0.354217
-0.140369 0.100421
-0.053264 0.006358
0.184343 -0.056156
-0.151586 0.182446
0.147340 0.242918
0.042533 -0.172174
-0.106007 0.206254
-0.048343 -0.118516
0.197681 -0.094529
-0.368948 0.067697
0.035634 -0.271949
-0.106486 -0.307039
-0.292705 -0.022511
-0.137837 -0.013538
-0.326647 -0.161701
0.135793 0.464531
0.064171 0.495606
0.272230 0.100847
0.200976 -0.023798
0.024390 -0.022832
0.067408 0.161870
-0.288289 -0.005185
-0.176644 -0.087451
-0.179636 0.013107
-0.089792 0.110186
-0.002543 0.172174
-0.251149 -0.019381
0.105203 0.013591
0.104700 -0.147503
-0.169255 -0.023187
-0.014049 0.008290
0.184128 -0.056882
-0.088981 -0.124505
0.232473 -0.306627
-0.177323 -0.071633
0.300550 -0.207704
-0.258406 -0.186018
0.231045 0.414225
-0.058161 0.105247
-0.144257 -0.007992
0.271140 0.019138
-0.021163 -0.242319
0.126094 -0.003659
0.211949 -0.106231
0.081013 -0.164258
-0.267807 0.091793
-0.063717 -0.321732
-0.037367 -0.233347
-0.601154 -0.313371
-0.100740 -0.051136
0.014709 -0.224244
0.063960 -0.526299
-0.156173 -0.321181
-0.074869 -0.269751
-0.100566 -0.076276
0.272181 -0.023923
-0.120388 0.063753
-0.021485 -0.144012
-0.281358 -0.246486
-0.133135 0.050431
0.116772 -0.037208
-0.116409 0.049294
0.008903 0.089368
0.248215 -0.061910
-0.172622 -0.146763
-0.160268 -0.280293
-0.306845 -0.071845
-0.119889 0.104844
0.000431 -0.011266
-0.442155 0.023203
-0.163962 0.090708
-0.102080 -0.496592
-0.001370 -0.171803
-0.396837 -0.210412
-0.378912 -0.407772
-0.215488 0.155969
-0.438570 -0.268502
-0.230832 -0.319447
-0.066287 0.144873
-0.291120 0.006555
-0.204130 0.257987
-0.112402 -0.333646
-0.068396 -0.064258
-0.048683 0.123814
-0.082275 -0.019123
-0.103469 -0.218959
-0.421474 -0.367990
-0.116572 0.024497
-0.170913 -0.173085
-0.525505 -0.078858
-0.158905 -0.295423
-0.185360 -0.087141
-0.418240 0.109287
-0.011188 -0.293262
-0.398328 -0.024826
-0.407662 0.174278
-0.567730 0.100824
-0.333170 -0.003359
-0.244411 -0.308454
-0.292004 -0.037515
-0.256150 0.000304
-0.563870 -0.296399
-0.065894 0.002283
-0.817417 0.056780
-0.566193 -0.062246
-0.356969 0.243835
-0.057125 0.025791
-0.527844 -0.511505
-0.513886 0.027855
-0.335040 0.038033
-0.501161 -0.457780
-0.583299 -0.117397
-0.643743 -0.037725
-0.454094 -0.324510
-0.255710 -0.475876
-0.358809 0.103161
-0.025932 0.247175
-0.411099 0.054207
-0.284212 -0.105294
-0.516173 0.649755
-0.616097 -0.052707
-0.374842 -0.222083
-0.675787 0.108867
-0.401068 -0.126138
-0.783183 -0.160303
-0.679795 0.147146
-0.382913 0.368335
-0.548971 -0.098942
-0.616112 0.065691
-0.145468 0.069823
-0.223238 -0.021614
-0.456366 -0.183981
-0.409013 0.313193
-0.467672 0.092157
-0.531698 0.219982
-0.506750 0.013410
-0.286980 -0.178075
-0.582833 -0.103367
-1.059138 -0.008824
-0.381511 0.206167
-0.689805 -0.010108
-0.582802 0.431891
-1.176535 0.498642
-0.592535 0.399476
-0.717775 0.096796
-0.709106 0.246383
-0.623025 0.672383
-0.741002 0.121298
-0.584697 0.054662
-0.573665 0.597325
-0.533703 0.712467
-0.267571 0.585492
-0.420479 0.427646
-0.568524 0.385567
-0.759778 0.217991
-0.653205 0.418475
-0.540606 0.787226
-0.362050 0.330444
-0.843732 0.488216
-0.640358 0.570358
-0.727706 0.476103
-0.543613 0.653610
-0.421803 0.394731
-0.259511 0.540996
-0.641392 0.380723
-0.285043 0.601795
-0.284883 1.022680
-0.311184 0.101439
-0.198699 0.658949
-0.151849 0.384152
-0.279917 0.540456
-0.272815 0.555249
-0.345680 0.832544
0.180748 0.838173
-0.209265 0.257385
-0.450692 0.067928
0.089481 0.437427
-0.246738 1.359876
-0.203494 0.572256
-0.831162 0.700310
0.321632 0.159233
-0.637360 0.628926
-0.114801 0.565470
-0.337145 0.156007
-0.850728 0.647223
-0.528553 0.492785
0.015940 1.153012
-0.349038 0.916710
-0.407122 0.494815
-0.172774 1.346864
-0.442250 0.800157
-0.027514 1.163760
-0.235416 0.731189
0.024687 0.364689
-0.118630 0.093414
-0.181314 0.852890
-0.142872 0.916894
-0.195009 0.529401
0.012035 0.947607
-0.044471 0.985608
-0.684210 0.722137
0.018711 0.819083
-0.133897 1.041396
-0.213224 0.801807
-0.472205 0.703994
-0.008053 1.178184
-0.545998 1.181055
-0.170688 0.738242
-0.353842 0.915602
0.050968 0.677534
-0.061995 0.839992
0.431452 1.168268
-0.211416 0.871475
-0.480393 0.466152
-0.416029 1.137214
0.729938 0.610336
0.213755 0.793584
0.822893 0.541869
-0.224369 1.513924
-0.119769 1.286128
0.539461 2.082372
0.432786 0.758005
-0.082014 1.405763
0.142388 1.029614
0.082028 0.952319
0.413904 1.379484
0.118610 1.057792
0.804101 1.344666
0.897998 0.733079
-0.610510 0.196327
0.937020 1.595874
0.022825 0.988867
1.027813 1.357490
1.043099 0.531227
0.626600 0.367192
0.361000 0.902422
0.876638 1.493565
1.149202 0.458240
1.312664 0.546007
1.175941 0.468471
0.736335 0.703699
1.347536 0.162250
1.602034 0.483245
1.196070 -0.558235
0.697712 1.077667
0.993954 -0.636949
1.501260 0.491670
1.195272 -0.720492
0.848713 -0.082807
0.432283 -0.181108
-0.070698 0.166322
1.158076 -0.438211
0.687402 -0.560297
-0.286404 -0.398458
0.351644 -0.562755
-0.634466 -0.376696
-0.272722 -1.383882
0.305965 -0.719883
0.065894 -0.814458
-0.694924 0.843119
-0.833318 -0.660414
-1.184788 -0.341990
1.228518 -0.751035
-0.812135 0.050527
-0.577462 -0.087122
-1.930449 -1.285054
-1.428604 -0.045904
-1.812066 0.925819
-2.487197 0.904547
-5.012561 -2.196816
-2.533105 0.803628
-0.822314 0.355522
-0.992449 2.375138
-1.624658 2.130330
0.214452 0.765529
-2.221266 3.618955
0.667551 3.336312
0.470760 4.450439
-4.418880 3.858853
1.043515 5.575908
-4.091474 1.653550
0.288543 1.018946
-4.513917 3.389701
-1.197542 1.449129
-4.396330 -0.550872
5.715990 -7.432807
2.157081 6.447379
-9.011359 -1.954306
-4.769064 -0.585638
-4.432950 -26.584157
28.146991 14.642869
-33.386220 34.734822
-35.884407 -48.536519
-18.780134 -25.023779
102.463240 -38.187099
-150.899361 245.273111
-601.944787 -649.931161
-136.724490 -616.500340
