7031.749135 4276.194219
-3483.556373 -17.580007
21.770704 30.109119
-430.468067 -73.611370
6.259701 -106.622016
-99.594262 -20.231876
-72.425772 16.266194
-24.177372 -15.474256
-24.940004 6.135806
13.636399 -10.810537
-16.753641 -3.802038
6.049276 -17.570082
-19.717836 3.719222
-6.242370 6.485844
11.106283 5.723517
9.013969 4.492953
4.700413 -12.484172
-7.936088 -2.867868
0.829631 4.955448
-1.448025 8.805282
6.684598 0.156551
3.926427 1.403671
-1.445144 1.846807
0.088161 -2.916474
0.303271 3.902139
-0.710712 0.520566
-0.547311 1.953426
3.082123 2.061555
-0.248221 2.390062
-0.635230 -1.335308
-0.983132 -1.941925
-2.733296 2.712202
-1.323553 -0.536377
2.073012 2.571813
1.764287 -0.915163
-0.893270 -0.231480
-1.882897 -2.167854
-1.265564 1.546975
-1.047432 1.668237
1.514122 -1.083016
0.977525 -0.224965
-0.949891 0.115934
-1.652791 0.829915
0.956115 0.870177
0.400905 -0.590683
0.285785 -1.458087
0.270844 -0.083426
0.292961 0.639765
0.316266 -0.121396
0.428596 0.092613
-1.934340 -0.233940
-0.177564 0.553131
1.482592 -0.015704
1.108129 -0.420632
0.251194 -0.672962
-0.885749 0.109420
-0.723886 0.976999
-0.021180 -0.346097
0.533300 -0.795922
0.057645 -0.152262
-0.899650 0.366150
0.048323 0.230924
0.888211 -0.231491
-0.139641 0.164595
-0.707087 -0.081514
0.052878 0.541980
-0.300161 -0.108812
0.393840 -0.758606
0.639320 -0.772082
-0.286142 -0.026383
0.312624 0.257050
0.195147 0.141628
0.107763 -0.244449
-0.096194 -0.417367
0.268733 0.103196
-0.036377 0.216922
0.461824 -0.356506
-0.534913 -0.238374
-0.299639 -0.226851
-0.002110 0.156272
-0.029185 -0.157917
-0.081977 -0.743972
-0.167212 0.636670
-0.470058 0.103656
-0.438115 0.026456
0.062782 0.134644
-0.156077 0.218551
0.085721 -0.328105
-0.024875 0.315042
-0.161641 0.221933
-0.117543 -0.011536
-0.447767 0.166799
-0.210157 -0.076343
0.354208 -0.296398
-0.448836 0.591682
0.446051 0.332130
0.567709 -0.313382
-0.128035 0.191689
-0.411890 0.079953
-0.253666 -0.197175
0.272986 -0.328068
-0.062277 0.082415
0.490690 0.522828
0.319436 0.016154
-0.113403 0.304894
0.155366 0.072747
-0.171079 0.000023
0.142817 -0.564912
0.122127 0.086862
0.491057 -0.234897
-0.085993 0.032932
0.116231 -0.223523
0.050896 0.009676
-0.197867 -0.027377
0.088551 -0.125638
-0.100656 -0.188960
-0.096840 0.291199
0.018283 -0.510439
0.018557 0.346522
-0.064312 -0.102989
-0.176550 -0.030538
0.471150 0.001586
0.059953 -0.128565
0.091292 -0.319763
-0.269495 -0.583236
-0.126982 -0.173994
-0.205583 0.192180
0.126280 0.017283
0.287098 0.104839
-0.022220 0.104020
0.183326 0.106548
-0.068512 0.043309
0.072552 0.113281
-0.314711 0.260678
0.061708 0.000509
0.173869 -0.224560
0.026370 -0.306380
0.159939 -0.279236
-0.034873 0.034345
0.035247 -0.228426
-0.280002 0.532130
-0.120290 0.290981
-0.297925 -0.022949
0.023668 -0.092063
0.166302 0.173062
0.258600 -0.163361
-0.176882 -0.058885
-0.098358 -0.393448
0.424473 -0.018462
0.190510 0.082697
0.300935 -0.162696
-0.247026 -0.065874
-0.259506 -0.266626
-0.274743 -0.029214
0.160860 -0.099644
0.056489 -0.432965
-0.226775 0.224258
0.033745 0.226149
0.108576 0.052129
0.244723 -0.388621
-0.116429 -0.030921
-0.313152 -0.113328
-0.067826 -0.276558
0.326163 -0.118514
-0.386727 -0.245229
-0.040232 0.077395
-0.190149 -0.125244
0.024379 -0.039030
0.407803 0.239229
-0.051412 0.038144
0.222179 -0.414782
-0.263318 -0.287975
-0.278794 0.135464
0.173132 0.119005
-0.122594 0.181828
0.104397 0.076299
-0.140645 0.303772
0.172712 -0.083393
0.172366 0.189108
-0.123250 -0.466687
-0.018326 0.131610
-0.228074 -0.044983
-0.052984 0.019076
-0.188575 0.054108
-0.177295 0.041083
0.337408 -0.002853
-0.514587 0.237953
-0.159388 0.111245
0.040839 -0.064669
-0.008451 0.063084
-0.209607 0.088357
0.067519 -0.064800
0.302196 -0.391636
-0.351641 -0.034618
0.265712 0.031555
0.528455 0.228065
0.076006 -0.276950
-0.244224 -0.317300
0.120026 -0.261255
0.097625 -0.069037
-0.104904 -0.206117
0.048543 0.097716
-0.138807 -0.099561
0.000955 -0.126774
-0.139808 -0.111589
0.056373 0.256130
0.101989 0.271221
0.317844 -0.255524
0.029010 0.050975
-0.050142 -0.012072
-0.380815 -0.040503
-0.045756 0.010000
-0.217069 -0.023462
0.034259 -0.034259
0.094593 -0.270970
-0.058941 -0.115021
-0.083235 0.123012
-0.036845 0.155487
-0.213748 -0.068738
-0.223425 -0.242867
-0.004502 -0.244195
0.062851 0.184584
-0.074683 0.228750
-0.223808 -0.112148
0.343876 -0.005592
0.108782 0.135341
0.044005 0.249762
-0.075554 -0.076101
0.436282 -0.467718
0.311583 0.111415
0.140143 0.057638
-0.193921 0.456991
-0.638669 -0.120280
-0.068023 -0.222103
-0.002578 -0.354030
-0.249020 -0.128871
0.017231 -0.300355
0.160475 -0.012034
-0.203313 -0.031314
-0.564591 0.077125
-0.160620 -0.051165
0.112180 0.059936
-0.450119 0.158568
0.069038 -0.193523
-0.040449 0.253019
0.047208 -0.086685
0.060749 0.318510
0.165445 -0.101135
0.233171 -0.034463
0.040136 0.001788
-0.066555 -0.194066
-0.099787 0.102067
0.040513 0.075694
0.408478 -0.039172
-0.166390 0.011497
-0.158548 -0.016846
-0.151661 0.161290
0.258453 -0.098969
0.057105 0.206854
-0.229160 -0.082374
-0.056772 0.010853
0.074119 -0.560402
0.082638 -0.366637
0.060933 -0.288563
-0.220300 0.076045
-0.007265 -0.243236
0.118435 0.074263
-0.168804 0.261415
-0.026428 0.269752
-0.180763 -0.065559
-0.264792 0.210860
0.031864 -0.099157
-0.132421 0.461442
-0.240221 0.132506
-0.103450 0.246945
0.084036 0.015363
0.145828 0.144671
0.062763 -0.102326
0.066079 0.033051
-0.279157 0.058452
0.015211 0.192854
-0.172000 0.233430
-0.221294 -0.055837
-0.038564 -0.391475
0.033030 -0.089009
0.028843 -0.165732
-0.084258 -0.100232
0.540210 -0.321738
-0.058452 -0.292222
0.210405 0.119438
-0.190207 0.043632
-0.059231 0.223813
-0.173401 -0.208131
0.094035 0.048158
0.201265 0.042519
-0.204997 -0.059030
0.234523 0.013980
0.132938 -0.067727
0.174400 0.171470
0.097350 -0.153021
-0.010621 0.402017
-0.041141 -0.174381
-0.040554 -0.160649
0.068940 -0.021725
-0.011237 0.086992
0.028339 0.004177
-0.093087 -0.223090
-0.114023 -0.033711
0.026465 -0.128442
0.062300 0.106133
-0.001490 -0.217422
-0.278858 0.148173
-0.272254 0.018953
-0.438116 0.347000
-0.051521 0.099567
0.006516 0.283692
-0.233974 -0.071776
-0.096977 0.029184
-0.274381 0.001905
0.156115 0.293598
-0.043791 -0.170976
0.157884 -0.133678
-0.040867 0.035207
0.025846 -0.029697
-0.014537 -0.138379
0.081608 -0.058478
0.219652 -0.241218
-0.021462 -0.190529
0.026413 -0.057351
-0.100291 0.245458
0.093105 0.112074
-0.100089 0.034890
0.223869 -0.215003
0.250005 -0.002327
-0.311539 -0.218964
0.059142 0.260551
-0.002928 -0.019774
0.259741 -0.038156
-0.061995 0.266640
-0.098161 0.128493
-0.112345 0.057697
-0.095070 -0.005401
0.131086 0.063519
0.064641 0.008438
-0.074648 -0.099908
-0.066734 0.066440
-0.076419 -0.107442
0.049393 0.035627
-0.265076 -0.136114
0.216221 -0.162121
-0.037819 0.184313
0.256688 -0.121383
0.089211 0.280843
-0.073001 0.051727
-0.282871 0.285080
-0.160888 0.200967
-0.326466 0.250869
-0.048217 -0.246015
0.187272 0.062412
-0.230743 -0.034521
0.146091 -0.011751
0.136738 -0.250459
0.232648 -0.176459
0.171750 -0.059069
0.276949 0.131923
-0.238880 0.089370
-0.153627 -0.179962
-0.027837 -0.120180
0.288733 0.092658
-0.067118 -0.101723
0.005422 -0.253776
0.002660 -0.123386
0.099022 0.012160
0.173257 0.035420
-0.067754 0.279587
-0.006926 -0.065286
-0.060437 -0.022819
0.293803 -0.096537
-0.195409 0.433062
0.126676 0.005093
0.191430 -0.205572
-0.138845 0.181744
-0.063160 -0.132090
-0.151543 0.128891
-0.020776 -0.309521
-0.047088 0.144984
0.039997 -0.065341
0.217885 -0.260167
0.035478 -0.399650
0.026966 0.009755
-0.000380 0.100883
0.275082 -0.105272
-0.093527 -0.139838
-0.015246 0.010054
-0.255121 0.241881
0.171086 -0.178958
-0.123520 0.091185
-0.056867 -0.020707
-0.197428 0.207806
0.180850 -0.278044
0.117727 -0.261300
0.006013 -0.435131
-0.155056 -0.157486
-0.190866 -0.074422
0.112304 -0.195119
-0.147183 -0.141877
-0.031045 -0.053222
-0.207164 0.276141
0.092024 0.164777
0.051129 0.046188
-0.191074 -0.047227
-0.192657 0.251776
-0.401792 0.250321
0.056384 -0.158055
-0.502081 -0.002342
0.016482 -0.360907
-0.031817 -0.044599
0.022370 -0.253832
0.295780 -0.209628
-0.133059 -0.015092
0.120424 -0.229327
-0.006851 0.380689
-0.089357 0.043850
-0.033006 -0.187382
0.107962 0.091784
0.146391 0.060951
-0.068519 0.137038
-0.393017 0.086849
-0.038138 0.279770
-0.106224 -0.232584
0.139826 0.023669
-0.201207 0.260563
-0.293929 -0.164741
-0.103762 0.070307
-0.350523 -0.134914
-0.030246 -0.062346
-0.136528 -0.235424
-0.017575 -0.268267
0.105545 -0.102191
-0.119394 0.074772
0.116694 0.284306
0.317510 0.426222
-0.050635 -0.035437
-0.094213 -0.068757
-0.330029 0.333077
-0.065752 0.283252
-0.010358 0.223074
0.001031 -0.103035
-0.038465 -0.049664
-0.079624 -0.102030
0.135858 -0.144115
-0.283104 -0.115823
-0.214896 -0.291422
-0.107361 0.157322
0.051752 0.040528
0.179577 0.337114
-0.231739 -0.135313
0.019999 0.301836
-0.151540 0.237043
0.377268 0.324055
-0.131007 -0.054079
-0.076281 -0.040157
-0.224766 0.252409
0.047543 0.039874
-0.122146 0.012036
-0.152763 -0.363018
0.115434 0.286966
0.009418 -0.034677
0.059360 -0.063672
0.126720 0.036011
0.114217 0.185941
0.235046 0.148433
-0.081175 -0.132525
0.041662 0.011488
0.087418 0.367741
-0.103354 0.003516
0.012964 -0.035174
0.254937 0.116982
0.113618 0.074013
0.061752 0.157692
-0.147083 -0.164194
0.077712 -0.014450
0.127528 -0.274385
0.123960 0.017944
-0.047744 0.013496
0.004645 -0.176256
0.345402 -0.146325
0.000585 0.056746
0.040842 0.249586
-0.347480 0.019511
0.076384 -0.201534
-0.324365 -0.245322
0.008891 -0.101119
-0.048070 0.182734
-0.113749 -0.091606
0.034305 0.128597
0.266868 -0.035322
0.220227 0.422423
0.025133 -0.029132
0.095008 0.353156
-0.436950 0.086094
-0.013599 0.092305
-0.236710 0.063136
-0.066519 -0.253658
0.000272 -0.253862
-0.057960 -0.016380
-0.134030 -0.085730
0.166474 -0.016201
0.093239 -0.110307
-0.041156 -0.186200
-0.157248 -0.121916
0.098630 -0.055922
0.012227 0.003764
0.292971 0.099205
0.118168 0.218383
-0.023264 -0.185323
-0.071787 -0.124105
0.135879 0.093002
0.214928 -0.019974
-0.061102 -0.183098
-0.057673 0.023252
0.222513 -0.203443
0.003847 0.245054
0.046684 0.048226
0.060159 0.208780
-0.087145 -0.180690
-0.034411 -0.120373
-0.083628 0.005077
-0.051253 -0.169439
-0.084090 0.001750
-0.188837 0.133363
-0.176420 -0.008907
-0.211774 -0.052482
-0.027951 0.219076
-0.098201 0.182405
0.032951 -0.287316
-0.112184 0.260580
-0.160840 0.009811
-0.172596 0.455619
0.329430 -0.064071
0.140517 0.296989
-0.017633 -0.279680
-0.101656 -0.068049
-0.301035 -0.073668
-0.107802 -0.069024
0.043901 -0.190150
0.081792 -0.311030
-0.128170 -0.059741
-0.045239 -0.116881
-0.056799 0.077496
0.038701 -0.284369
0.100708 -0.102128
0.179017 0.246216
-0.103214 -0.021662
-0.036844 0.014766
-0.091874 0.101570
-0.060906 0.020174
0.257745 0.088751
-0.016452 0.039296
0.046713 0.215173
0.140145 -0.135945
0.305296 0.299547
0.078910 0.271280
0.042345 0.160245
-0.133821 -0.093929
-0.240836 -0.305525
-0.201738 0.140077
0.155798 -0.220517
-0.204327 0.089009
0.045505 -0.342105
0.081345 -0.073140
0.102010 0.346090
-0.087456 0.091181
0.055177 0.202027
-0.037274 -0.265751
-0.318764 0.134593
-0.216454 -0.248331
-0.282692 0.189413
0.051613 -0.077682
0.049891 0.255020
0.078240 0.075329
-0.120000 -0.025186
0.105210 -0.092954
0.100831 -0.069834
-0.030146 0.041044
0.095679 0.350191
-0.156482 -0.259362
0.011951 -0.121715
0.140923 -0.223135
-0.124008 -0.098142
-0.092028 -0.665953
-0.059375 -0.211926
-0.016716 -0.297039
0.335788 0.173262
-0.174116 0.040594
-0.240443 0.128717
0.026431 0.091716
0.270324 0.220583
-0.001843 0.071093
-0.302620 0.020463
-0.160148 0.191507
0.073300 0.210846
-0.087189 -0.133352
0.004487 0.192640
-0.378915 0.018217
-0.161069 0.070291
-0.155254 0.208990
-0.073311 0.214028
-0.173357 0.054865
-0.002116 0.091324
0.263586 0.045576
-0.076512 0.246144
0.010557 -0.189607
0.634449 0.171244
-0.033202 -0.015495
-0.109724 -0.145213
-0.132748 -0.076469
0.204520 -0.353836
-0.055120 -0.113235
0.045141 -0.526654
0.579371 0.214493
0.044310 0.092089
-0.086950 0.357818
-0.526271 -0.062526
-0.409757 -0.297011
-0.068597 -0.175359
-0.003206 0.369117
-0.361854 0.107118
-0.308865 -0.032313
-0.002788 0.042734
0.008280 0.223785
-0.200053 0.282646
0.012541 -0.197360
0.026387 -0.195454
0.141893 -0.075698
-0.095837 0.210670
-0.075190 0.300132
-0.001535 -0.131717
-0.123782 -0.099701
-0.034259 -0.034259
0.031146 0.001974
0.140003 0.042173
0.116162 0.105164
0.212155 0.127071
-0.160392 0.085464
0.000886 -0.067536
-0.364920 0.195957
0.217322 0.353137
-0.078894 0.010704
0.175053 0.062051
0.148243 0.046466
0.198327 0.169474
0.148486 -0.027805
-0.120314 -0.219512
0.016260 0.079310
0.072474 -0.306341
0.168323 0.086381
-0.528041 0.137968
-0.061502 0.322260
0.180912 -0.250417
-0.273156 -0.172675
-0.180895 -0.004888
0.099586 0.309734
0.183300 0.050376
-0.171818 -0.003499
0.187673 0.025747
0.181027 0.108637
-0.322167 0.157483
-0.157961 -0.009152
0.286906 0.183660
-0.028009 -0.248139
0.122042 0.077082
-0.195401 -0.350963
-0.048354 -0.183842
-0.326400 -0.081023
-0.272801 0.193765
0.220550 -0.079923
-0.175895 0.252552
-0.050540 -0.193000
-0.245483 0.210646
0.134970 0.182520
0.264723 -0.209727
-0.178795 -0.359682
0.172730 -0.015585
-0.552784 0.357093
-0.036026 -0.142303
0.129112 0.214155
0.046643 0.243957
0.418865 -0.064988
-0.134696 0.064720
-0.059971 -0.162947
0.345042 0.104668
-0.012333 0.111646
-0.146851 0.093093
-0.251090 0.155706
0.192641 0.522736
0.112526 0.391970
-0.125425 -0.251667
-0.183457 0.078528
0.166173 0.247133
0.314293 -0.038418
0.096924 0.012992
-0.069634 -0.006241
-0.536795 0.228090
-0.259157 -0.080002
-0.064378 -0.120415
0.209138 -0.138051
-0.306141 0.036424
-0.164257 -0.039467
0.065026 0.218531
0.058109 -0.319645
0.450087 0.482039
0.005422 0.404576
0.171042 -0.162129
-0.106959 -0.092700
0.018512 -0.136305
-0.104420 -0.350363
-0.085329 -0.260929
0.110239 0.017160
0.074688 0.298905
0.143108 0.046329
-0.089315 0.264487
0.016532 0.173195
-0.063415 0.179511
-0.064047 0.095559
-0.242835 0.166429
0.071395 0.203612
0.271018 0.030146
0.117820 -0.291130
0.152982 -0.240830
-0.128049 -0.078077
-0.274269 0.145941
-0.177127 -0.019947
0.237415 0.185275
-0.086506 0.477969
0.158584 -0.052708
0.216188 -0.064824
0.285808 0.286187
-0.250752 -0.516884
0.229241 0.525481
0.042354 -0.181980
0.100394 0.463001
0.254740 -0.401139
-0.133585 0.055406
-0.211391 -0.172396
-0.111201 -0.360814
0.242487 0.002735
0.120559 0.452214
0.268544 0.200402
0.053655 -0.073923
-0.458694 0.382263
-0.034031 0.074051
-0.300241 -0.405801
0.436743 0.098393
0.474211 0.029867
0.374320 0.019236
-0.509640 -0.564221
-0.657360 0.213680
0.206055 0.414253
-0.352386 -0.211208
0.141708 0.006447
0.498799 -0.069502
0.139221 -0.342525
-0.023418 0.080603
-0.485521 -0.047721
-0.140597 -0.226700
-0.157907 0.151699
0.013659 0.299426
0.287722 -0.548501
0.541623 0.241572
-0.420011 0.124043
-0.139709 -0.566543
-0.131139 -0.177050
-0.282103 0.584385
0.590640 -0.451876
0.294226 -0.164390
-0.288969 -0.427247
-0.835154 0.145596
0.099765 0.463069
-0.604743 0.042149
0.397032 0.179225
-0.254486 0.125728
-0.041770 0.604224
-0.151547 -0.268294
-0.892908 -0.309737
-0.426187 -0.295847
0.044626 0.747571
0.662300 0.592469
0.832148 0.279744
0.224905 -0.071265
-1.333814 -0.230744
-0.173651 0.761760
0.850674 1.100532
0.319836 0.302950
0.455317 -0.859743
0.061695 -0.502659
0.629119 0.408115
0.508654 0.243173
-0.356495 0.244519
-0.607680 -0.070021
-0.533087 0.306339
1.203652 -0.242020
1.342341 -0.630178
-0.465080 -0.674348
-1.211939 1.003441
0.339241 1.382144
0.313354 0.168575
1.337740 -1.745206
-1.086782 -1.959840
-1.487317 0.424372
0.110216 0.864289
0.865273 1.863597
-0.853501 0.109615
0.195191 -1.723861
0.483815 0.729403
-0.014541 -1.176470
-0.447105 -1.058261
-0.292759 -0.885082
-1.977789 2.001709
-0.576292 -0.713730
1.732111 -0.647221
1.058679 -2.382110
-1.858790 -2.533537
-0.959309 -1.713645
-0.449096 3.110295
-0.176086 1.411823
1.969081 -3.012748
1.162062 -2.342008
-3.576219 -2.214055
-1.285725 -1.538991
1.885377 1.629944
-0.909365 1.686247
0.174352 -3.466779
0.886692 2.416707
0.700383 2.122570
1.366242 -5.822788
-0.455087 -4.844306
-9.043770 5.672400
-2.453646 7.664878
8.721456 2.823450
9.392106 0.290182
-9.857379 -10.191688
-8.269194 3.978956
-6.500187 16.140126
-6.848959 5.935748
22.628975 6.367943
2.507950 5.211897
-0.945834 19.455604
-106.584689 -84.573722
11.685715 33.572215
-89.351098 75.721145
-1326.839706 157.805915
