8196.493088 4992.963949
-4746.809026 94.403965
168.757577 184.530315
-621.777104 -207.452655
-176.178468 -72.105625
-23.902462 44.256905
-73.477175 6.486351
5.646462 -24.347311
-79.012011 -24.202220
-10.977304 15.502414
-15.465240 1.221640
9.156324 -9.185058
-5.254295 -0.669814
-14.923573 9.227931
10.335134 -9.593589
6.534999 2.726303
-3.586328 0.442758
2.970201 1.913333
3.358958 -9.174606
7.104664 5.616257
-4.229686 2.546789
5.142683 -0.685047
4.946713 -4.065416
-1.616345 -0.402520
3.680760 3.921909
-3.966862 -2.005723
5.795066 -1.331129
-1.322633 -2.415989
1.910608 4.414182
-4.837728 -1.142083
1.677579 -3.239126
5.664451 0.186095
-3.935999 2.457966
-3.441690 -1.732135
0.658996 -3.345792
4.543128 3.659217
-3.591411 1.284642
-3.280670 -2.005342
1.912499 -2.833523
-0.191086 3.813995
-1.432486 1.582183
-0.710595 -1.339384
1.771952 -1.075387
-1.179280 0.204893
-0.755739 2.138973
-1.086863 -1.427512
0.943890 -0.226224
0.675784 -0.268073
-0.117696 2.476336
-0.679872 -1.199767
0.543511 -0.925183
1.815512 1.064094
-1.644401 1.014038
0.051600 0.097764
1.158494 -1.404185
1.939264 2.259587
-3.216079 -0.279486
-0.040579 0.394614
0.607392 -0.617730
0.699158 1.291722
-1.135011 -0.524832
0.091276 0.364704
0.446305 0.167768
-0.421432 -0.017997
-0.110355 0.168098
0.063935 -0.027044
0.464709 0.072770
0.153624 -0.646414
-0.568810 0.673442
0.061582 0.101071
0.149782 -0.232722
0.508212 0.791425
-0.932534 -0.416719
-0.209199 -1.042693
0.576160 -0.121339
0.523461 0.754382
-0.824697 -0.073637
-0.586933 -0.621169
0.104572 0.370988
0.231090 -0.210194
-0.193914 -0.543872
-0.179616 -0.552438
-0.293522 1.046015
-0.159736 -0.209135
0.094936 0.259439
0.132417 -0.660594
-0.336517 0.278419
0.577078 -0.781856
-0.309718 0.746486
-0.268260 -0.429315
0.252243 0.038572
-0.023070 0.277959
-0.043453 -0.168670
-0.201714 -0.288119
0.232683 -0.658624
-0.022076 0.736777
-0.049993 0.144341
-0.112673 -0.825876
0.241658 0.381215
-0.514483 -0.056489
0.185515 -0.036388
0.007072 -0.183480
0.143501 0.036607
0.088560 -0.435547
0.024488 -0.173305
-0.095632 -0.295687
0.175737 0.283443
0.099996 0.042081
-0.147179 -0.324820
0.313610 -0.185914
0.515706 -0.200096
-0.312816 0.107669
-0.115219 -0.079609
0.279329 0.176287
0.569242 0.395072
-0.301796 0.088218
-0.030708 -0.341038
0.070112 0.000527
0.207671 0.084511
-0.083954 -0.148038
-0.286095 0.274449
-0.083274 0.178023
-0.225749 -0.140702
0.101601 0.197575
0.178321 0.168239
-0.190399 -0.190779
0.124658 0.139443
0.164309 0.278157
-0.173819 0.130565
-0.439416 0.353063
0.194845 -0.307585
-0.079875 0.013157
-0.065707 -0.408251
-0.045361 -0.310036
0.081180 0.182218
-0.267943 0.063195
0.078569 -0.137048
-0.070099 -0.051140
-0.022694 -0.236985
0.121815 -0.213785
0.037713 -0.166061
0.052686 -0.242989
-0.056152 -0.015404
-0.126209 -0.380104
-0.357654 0.050180
0.457221 0.156157
0.100703 0.049460
-0.192295 0.068317
0.130890 -0.230097
0.051499 0.155884
-0.092529 0.061309
-0.242290 0.339721
-0.362228 0.179080
0.070944 -0.179820
0.041916 0.489405
-0.286476 -0.055555
0.220857 -0.369492
-0.166062 -0.146554
0.113783 0.034948
0.301200 0.145806
-0.276051 0.129289
0.040023 -0.185764
0.182820 -0.065886
-0.296584 0.254146
0.100365 -0.082384
0.097355 -0.383724
-0.072254 0.246674
0.215373 0.137775
0.166158 0.064698
-0.319238 -0.024104
0.365833 -0.079304
-0.434908 -0.203663
-0.022140 -0.504121
0.330650 0.018499
0.448962 -0.326385
-0.358318 -0.034770
0.239765 -0.115463
-0.104421 0.453948
-0.222013 -0.025764
0.293118 -0.441395
-0.064081 -0.198480
-0.003706 -0.303808
-0.144431 -0.144871
0.220874 0.434418
-0.649243 -0.062446
-0.111987 -0.120902
-0.072671 0.080872
0.351626 0.249244
-0.100119 -0.383274
0.053343 0.382124
0.002246 -0.050734
0.180999 -0.150219
0.305272 0.121812
-0.404729 -0.159821
-0.312651 -0.023987
0.346943 0.507977
0.380808 0.212097
-0.148207 0.041732
0.133051 0.011790
0.196046 -0.256851
0.226778 0.310762
-0.028225 0.311825
-0.288857 0.096442
-0.017114 -0.072582
0.004672 -0.147479
0.060194 -0.058141
0.182100 -0.170728
-0.081311 -0.066254
-0.352039 0.279517
-0.096262 -0.332718
0.367367 -0.178132
-0.220736 -0.008478
-0.143337 -0.165357
0.064766 -0.275041
-0.011104 -0.116285
0.017703 -0.462135
-0.140990 -0.219297
0.168927 0.138934
-0.252010 -0.130675
0.278794 0.015951
0.008156 0.199192
-0.226615 -0.030786
-0.294249 -0.434995
-0.038080 -0.279318
0.158722 0.106054
-0.121627 0.240300
-0.177556 0.173049
0.180569 0.480839
0.332643 0.243024
0.346469 -0.091140
0.113781 0.008682
0.191490 -0.210554
-0.153073 -0.337788
-0.249561 -0.104057
0.112544 0.151626
-0.328393 -0.255662
-0.209664 0.058321
-0.205927 0.481000
-0.176539 -0.089485
0.048169 -0.080233
0.174916 -0.099791
0.341284 -0.096147
0.162247 -0.162999
-0.412605 -0.086284
0.407986 -0.214439
0.021366 -0.171138
-0.392843 -0.049187
-0.199102 0.023579
-0.078691 -0.379450
0.112181 -0.161419
-0.341774 -0.111974
0.181299 0.067520
0.236340 -0.111696
0.025922 0.243894
0.184843 0.236333
0.131527 -0.012270
0.121210 0.251858
0.151051 0.058958
0.008855 -0.220524
0.064803 -0.375626
-0.214503 -0.346786
0.003136 -0.244706
-0.101452 0.457665
-0.294419 -0.005730
-0.099036 -0.076907
-0.247373 -0.182116
0.121204 -0.020256
0.195958 0.108506
0.042437 -0.205355
-0.152154 -0.178985
-0.668998 0.074122
0.398296 -0.124960
0.092150 0.053567
-0.090883 0.627825
0.077820 0.125528
-0.076687 -0.176687
-0.151890 -0.088589
0.181229 -0.265360
-0.071338 -0.046135
0.135915 -0.344531
-0.277403 -0.025714
0.053960 0.072726
-0.182191 0.134129
-0.324881 0.246537
-0.130001 -0.046533
-0.272782 0.339646
-0.149158 -0.240653
0.125112 -0.202935
0.342850 -0.092764
0.057471 0.170848
0.049965 0.095665
0.132991 -0.103143
0.062364 0.366119
-0.065621 -0.277360
-0.032245 -0.170684
-0.372846 -0.020750
0.205587 -0.020910
-0.092830 -0.216946
-0.157620 -0.415544
-0.201530 -0.261480
0.327863 0.055882
-0.091460 -0.195630
-0.105301 0.033921
0.071504 -0.025314
-0.234489 0.163443
-0.043774 -0.075106
-0.213049 0.091672
0.091145 0.230987
-0.208986 -0.006342
0.062574 0.065877
-0.290866 0.087127
0.413839 -0.000193
0.057250 -0.010045
-0.298960 0.023879
-0.212320 0.286839
-0.515741 -0.141076
0.053669 -0.099646
-0.214294 -0.274232
0.162180 -0.044671
-0.209297 -0.187305
0.164193 0.392873
0.222981 -0.308491
-0.036047 0.018214
0.529020 0.143998
-0.072778 0.119711
0.107748 -0.091123
-0.146591 -0.114108
-0.300270 0.227577
0.394469 -0.025477
-0.202638 0.212767
-0.014145 -0.001549
-0.286378 0.109625
0.122168 -0.075961
-0.127735 0.126282
-0.011621 -0.159671
-0.232157 0.081174
0.011069 0.038906
-0.115791 -0.005290
-0.078434 -0.203970
-0.046491 0.221872
0.167908 -0.222719
0.174588 -0.007106
0.155991 -0.171275
-0.055141 -0.126951
-0.193372 0.150628
0.262301 0.137409
0.218142 0.417915
-0.211095 -0.120163
-0.189133 0.029600
-0.048564 -0.057318
0.021483 0.112988
-0.298277 -0.202291
0.114536 -0.046592
-0.283958 0.198980
0.068902 -0.135913
-0.192142 0.411627
-0.372812 -0.191628
-0.267504 0.049510
-0.159285 -0.105177
0.001931 0.005896
-0.109916 0.367996
0.277672 -0.039632
0.081525 -0.140011
0.417098 0.105371
0.101102 0.084082
0.397502 0.032359
0.226484 -0.322056
-0.049561 0.228840
-0.139597 0.224024
0.230821 0.047185
-0.107047 0.135373
-0.068117 0.077819
-0.181275 -0.063265
-0.054502 -0.083174
-0.054661 -0.047263
-0.157102 -0.163620
-0.070138 -0.124828
-0.161500 0.300656
-0.062532 -0.045399
0.053291 0.011802
-0.047630 -0.117589
-0.015578 -0.043180
0.102736 0.118186
-0.241336 0.063692
-0.207647 -0.333053
0.303307 -0.327720
0.065409 -0.199543
0.316708 -0.080628
0.197941 0.282480
0.089313 0.076407
-0.132561 0.109191
0.185731 -0.190931
-0.162413 0.250381
-0.060189 0.071463
0.058415 0.124957
-0.335878 -0.053656
0.015661 -0.026814
-0.109754 -0.017737
0.231907 0.119995
0.053836 -0.056308
0.247354 0.075563
0.018064 0.287667
0.296574 0.020424
0.159734 0.099873
0.127560 0.111452
-0.023609 0.127369
-0.019654 0.154154
-0.054180 -0.395082
-0.246270 -0.236342
-0.150824 -0.047904
0.183700 -0.394982
-0.008728 -0.104893
0.027263 0.055856
0.125381 -0.081080
-0.201348 -0.088201
0.081199 0.008926
-0.197764 0.150330
-0.134829 -0.003793
-0.120474 -0.066157
0.048476 0.273848
-0.032100 0.130973
-0.144539 0.203532
0.018786 -0.036404
0.390376 0.124850
0.094911 -0.074857
0.024690 0.014874
-0.272627 -0.139668
0.162304 0.048935
0.235617 -0.267552
-0.093860 -0.057169
0.290630 0.044780
-0.195806 -0.103446
0.135690 -0.136888
-0.232924 -0.228443
0.149722 -0.106103
0.164559 0.197987
-0.123730 -0.126639
-0.182963 -0.197246
-0.007912 -0.026202
0.219197 -0.094209
-0.300670 0.154588
0.228101 -0.087257
-0.253281 0.044626
-0.027024 -0.013805
-0.217573 0.063270
-0.123608 -0.224562
0.071488 0.264576
-0.139922 -0.132632
-0.241542 -0.126996
0.256816 0.190581
0.181339 -0.233438
-0.105940 0.133247
0.033946 -0.122142
0.147790 0.020080
-0.048688 0.119302
-0.056005 -0.124309
-0.345983 -0.234267
-0.042700 0.200847
-0.022300 -0.195711
-0.255064 -0.150220
0.157485 0.042397
-0.221763 -0.318947
0.199037 -0.067361
0.034480 -0.343113
-0.117782 0.122094
0.360910 -0.253995
0.152831 -0.311177
0.188575 0.239023
0.077368 -0.100111
-0.171060 -0.041595
-0.249099 0.202424
-0.098986 -0.173601
0.236721 0.223859
0.242049 0.121468
-0.204162 0.367979
-0.123684 0.074885
-0.113642 -0.292413
0.001122 0.046877
0.067050 -0.027414
-0.105363 -0.094969
0.263541 -0.227584
0.212577 -0.159799
-0.157237 0.224953
0.349372 0.076350
-0.173902 0.197798
-0.436864 -0.097091
-0.399237 0.138826
-0.388970 0.279113
-0.247876 0.098395
-0.323664 0.019168
0.181105 0.162452
-0.320620 -0.157050
-0.175212 -0.256975
0.244453 0.040931
-0.335206 -0.224727
-0.385314 0.067766
-0.206113 -0.026319
-0.073565 0.200514
-0.044867 -0.017157
-0.139538 0.243422
-0.107834 0.196516
-0.021245 0.114051
0.052586 0.060185
-0.104062 0.094509
-0.172136 0.077218
-0.344305 -0.244596
0.265979 0.254814
-0.007562 -0.140000
-0.015003 -0.059932
0.104723 0.044778
0.197005 0.278710
0.094566 -0.182820
0.136856 -0.195537
0.235002 0.103416
-0.171771 0.271581
0.009021 -0.316273
0.005687 0.057310
0.119465 -0.139647
0.232806 0.297327
-0.114704 0.198070
0.214924 -0.058621
0.092937 0.092937
0.304599 0.056444
0.383645 0.278256
0.167952 -0.006819
0.226195 -0.139796
0.260727 0.042236
0.315131 -0.114157
0.341551 -0.243113
0.225131 0.187660
-0.129107 -0.301845
0.013607 0.000722
0.047560 -0.262649
0.029586 0.175508
0.022007 -0.206237
-0.281049 -0.077943
0.105689 -0.101848
0.074356 -0.172768
0.125507 -0.080439
-0.300798 0.078439
0.014052 -0.062012
-0.238975 0.018224
-0.232257 0.154377
-0.131359 0.124365
-0.359651 0.075389
-0.024133 -0.109434
-0.275134 0.152900
0.008288 -0.174975
-0.082596 -0.101569
-0.477886 -0.219033
-0.099978 -0.114647
-0.331490 -0.309420
-0.322911 0.038620
-0.068416 0.097433
0.085004 -0.046510
-0.116291 0.288336
0.210878 -0.115951
0.256058 0.070300
-0.116169 0.011671
-0.390450 0.020045
-0.230693 0.135367
-0.160874 -0.227782
-0.432874 -0.235891
0.167244 -0.173980
-0.290912 -0.116842
-0.000556 -0.043291
0.295195 -0.277216
0.025629 0.194088
0.230133 0.075210
-0.186461 0.199769
-0.075034 0.278256
0.129685 -0.018249
0.227242 -0.023743
0.436324 0.037588
-0.160394 0.113105
-0.011034 0.320890
-0.156063 -0.361384
-0.240889 -0.132070
0.138226 0.259809
-0.082424 -0.048005
-0.019401 -0.177608
0.050675 -0.054392
-0.004408 0.056572
0.052933 0.281488
0.072864 -0.235321
-0.002115 0.281593
0.254945 0.058528
-0.048717 -0.020620
-0.134553 0.393321
-0.026245 -0.190770
-0.266990 0.391349
-0.080637 0.007803
-0.233178 0.026863
-0.286689 0.170116
0.093831 0.028087
-0.065286 -0.032149
-0.110506 0.196419
0.174788 0.110691
-0.108021 -0.194753
0.240376 0.242976
-0.137019 -0.085533
0.109683 0.197542
-0.114249 -0.060230
0.140029 0.015946
-0.296366 0.014279
0.267207 -0.121446
0.223801 -0.144700
-0.277763 0.187909
0.095477 -0.007828
-0.147526 -0.176171
0.335056 -0.059919
-0.065542 -0.157200
0.001909 0.194879
-0.175712 -0.016096
-0.099509 -0.094275
0.030088 -0.080441
0.163387 0.150985
-0.027949 -0.037142
-0.256996 0.143831
0.025189 0.033363
-0.231002 0.268008
0.031367 0.111425
-0.016543 0.266733
0.230003 0.354361
-0.014401 0.095295
-0.057514 -0.114785
0.186000 0.216474
0.160131 0.177217
0.033648 -0.043756
-0.197013 -0.262528
-0.110474 0.110481
0.230834 0.035908
-0.262661 -0.413543
0.087044 -0.269705
0.241544 -0.252255
0.156323 -0.255631
0.135346 0.082093
-0.101095 -0.090110
0.000715 0.001291
-0.157788 0.264212
-0.051637 -0.045293
-0.180757 0.033363
0.042217 -0.028086
-0.207020 0.114097
0.119695 0.082346
-0.064617 -0.266795
0.347260 -0.107566
0.125541 0.200528
0.164580 -0.014346
0.165100 0.018963
0.201905 0.095112
-0.129173 0.204944
-0.028666 -0.162190
0.392804 0.222543
-0.504253 0.147355
-0.152233 0.238850
-0.260926 -0.335968
0.042191 -0.278623
0.071340 -0.218439
0.080129 0.084539
0.019554 0.256035
0.009712 -0.189047
0.129110 0.152981
-0.348082 -0.080433
0.179406 0.083209
0.236700 0.190160
-0.010801 0.032223
0.062891 -0.150644
-0.027308 -0.107932
0.327499 -0.128902
-0.009940 0.039427
0.006092 0.044144
0.083778 0.047955
0.041536 -0.073982
-0.050313 0.370330
-0.005029 0.086664
-0.239751 -0.419792
-0.018533 -0.055136
-0.475725 0.106866
-0.288774 0.011777
-0.213777 -0.274296
0.145529 -0.109760
-0.268511 0.359245
0.015493 -0.175537
0.188192 -0.009615
0.372803 -0.280283
0.335935 0.011100
-0.178573 0.077925
0.169757 0.100434
0.175403 -0.137148
-0.024522 0.028930
-0.198439 -0.229714
0.113854 -0.041945
0.066019 0.099631
0.119752 -0.313889
-0.208847 0.188198
-0.215490 0.056955
-0.153024 0.419872
0.046589 -0.075222
-0.295669 -0.161823
-0.202857 -0.053080
-0.048044 -0.165020
-0.293386 -0.020361
-0.208163 -0.203761
-0.003390 0.209290
0.199611 -0.278463
0.091590 0.196528
-0.155239 -0.168726
0.142677 0.009689
-0.024604 0.058885
0.367985 -0.037837
-0.338975 -0.063327
0.311245 0.105437
0.079339 0.090468
-0.029277 0.201739
-0.027333 -0.135662
0.089971 0.021656
0.199501 -0.110894
-0.066118 0.176156
-0.435729 0.019572
-0.233998 -0.215092
0.002191 0.139437
-0.180100 -0.028511
0.023197 0.061104
-0.067809 -0.472420
-0.143560 0.204392
0.333424 -0.444932
0.044977 -0.046816
0.281568 0.158632
0.040892 0.111838
-0.042548 0.022845
-0.446578 -0.113754
-0.250382 0.065996
0.247931 0.145006
-0.317002 0.029293
0.159139 0.220689
-0.374401 -0.046958
0.215074 0.195222
-0.049540 0.128302
-0.168469 -0.034797
0.052912 0.044614
-0.262110 0.022194
-0.172672 0.061251
-0.063378 -0.246125
0.246264 -0.327826
-0.303096 0.042199
0.011813 -0.164688
0.264854 0.297733
-0.034465 -0.281258
-0.165821 0.075415
0.187080 0.230061
-0.266035 0.202363
-0.079949 0.088941
-0.250513 0.235035
-0.099154 0.184509
-0.262292 -0.341795
0.084089 0.054482
0.199412 0.157769
0.117094 0.320377
0.424415 0.055681
-0.105269 0.271309
-0.032289 0.112021
0.099402 -0.095584
0.076962 -0.164818
-0.351740 -0.246466
-0.214812 -0.124160
0.039180 -0.291224
0.192496 0.043695
-0.553132 -0.032261
0.085291 0.460594
-0.185760 0.190558
-0.389134 -0.147859
0.228951 0.036714
0.212917 -0.445988
-0.142127 0.056600
-0.292247 0.118880
-0.346312 -0.196508
0.237132 -0.122239
0.068541 -0.042279
0.186177 0.271011
0.029563 0.180149
-0.042006 0.050162
0.231606 -0.405978
-0.043968 0.025684
-0.126519 -0.332902
-0.088609 0.228043
-0.051286 0.429675
-0.074278 0.290258
-0.326039 0.353240
0.140465 0.200956
-0.134841 0.356841
-0.188908 0.203883
0.247055 0.073654
0.126261 -0.218815
0.081325 0.123004
0.186326 0.061296
0.369139 0.078007
0.118086 -0.128022
-0.415579 0.088095
0.331393 -0.079744
-0.041785 -0.073096
-0.505169 -0.075929
-0.006547 0.008817
-0.242962 -0.069029
0.305256 -0.034358
-0.050450 0.388974
0.379039 0.075064
0.209020 -0.197395
-0.207882 0.096836
0.212229 -0.208518
0.128380 -0.338655
-0.200998 -0.139526
-0.272679 -0.084375
-0.314927 -0.125482
-0.404878 0.279339
-0.199395 0.499995
0.157235 0.235612
0.055005 0.265733
-0.225020 0.158056
0.160427 -0.219072
0.183225 -0.177735
0.241009 0.032963
-0.157617 0.239242
0.058723 0.234217
-0.053872 0.211977
-0.069176 0.215426
0.079893 -0.141725
0.195032 -0.139914
-0.180856 0.180412
-0.103933 -0.137782
0.293231 -0.104530
0.179829 0.315295
-0.369670 -0.017810
-0.042063 -0.082018
0.476959 0.189712
0.103834 0.159192
-0.247944 -0.073720
-0.165290 0.142157
0.014424 -0.363368
0.197830 -0.018663
0.137627 0.197151
-0.148774 0.315711
-0.058510 0.033469
-0.106675 -0.279498
-0.189591 -0.021601
-0.144476 -0.048563
-0.032956 -0.053562
-0.369377 0.414543
0.327040 -0.130401
0.212699 -0.335380
-0.118471 0.106283
0.003657 -0.510272
-0.123794 0.071555
0.030582 0.104540
-0.097610 -0.160385
0.231412 -0.163582
-0.267298 0.321126
0.361907 -0.206846
0.276199 0.053213
0.485314 0.423264
-0.187113 -0.026570
0.114102 -0.176812
-0.081102 -0.030431
0.034103 -0.302755
0.247829 0.246589
-0.114010 0.376645
-0.062287 0.503784
0.177995 -0.162172
-0.022549 0.146211
-0.747726 -0.107876
0.219056 0.096818
0.116046 -0.233885
0.145870 0.071348
-0.042344 0.262545
-0.176200 0.082735
-0.355609 0.417113
0.394576 0.105581
-0.281919 -0.085781
-0.210784 -0.200387
0.252033 0.352515
-0.036671 -0.072266
-0.034346 -0.315490
0.211834 0.246685
-0.468923 0.004494
0.042162 -0.098017
0.322141 -0.192472
-0.286163 -0.362571
-0.003879 -0.120570
0.222500 0.053627
0.132274 0.120522
0.187610 0.116976
0.036426 0.136582
0.330811 -0.116493
0.110316 0.362942
-0.383664 -0.038855
0.157375 -0.284037
-0.076989 0.164029
-0.330163 0.312871
0.145594 0.292776
0.077549 -0.370845
-0.103711 -0.174883
0.102901 0.153149
-0.229643 0.108966
-0.369169 -0.025927
-0.062081 -0.548110
0.188225 0.327100
-0.338149 0.478116
-0.154488 -0.145303
0.171316 0.104789
-0.129302 -0.084005
-0.162149 0.206206
-0.339173 -0.352209
0.304315 -0.312569
-0.021865 0.521937
0.065209 0.328602
-0.332664 0.146213
0.153340 0.088511
-0.051385 -0.347733
-0.294692 0.277154
-0.014577 0.178308
0.181778 -0.274541
0.316551 -0.236305
0.162904 0.445621
0.027902 -0.096786
0.006811 -0.317228
0.204107 -0.114143
0.054330 -0.349852
-0.023625 0.102379
0.134496 0.155235
-0.301353 0.224174
0.230914 -0.141216
0.182543 -0.113805
0.047357 0.260008
-0.436835 -0.360407
0.341825 -0.437505
0.084478 0.149009
-0.196890 0.774531
0.084113 -0.274918
0.453859 -0.571529
-0.144495 0.444467
-0.398749 -0.127109
0.075923 0.255344
0.470122 -0.208773
-0.026036 0.623740
-0.225573 0.211179
0.085717 -0.403369
0.504351 0.613890
-0.521263 0.499061
0.062380 -0.368961
-0.182129 0.217013
0.190284 0.058075
0.097721 0.119636
-0.272462 0.092135
-0.253052 0.527000
0.237695 0.085843
0.158852 0.040542
-0.373661 -0.451427
-0.352342 0.435667
-0.259145 -0.462373
0.749099 0.975952
-0.319850 -0.205668
0.101414 0.370996
-0.130653 -0.465791
-0.263489 0.203929
0.227371 -0.675046
0.363984 0.201015
-0.312327 0.586983
-0.218037 0.017031
0.231565 -0.246296
-0.146822 -0.373456
-1.104460 -0.078671
0.716736 -0.168450
0.643696 0.229784
-0.886184 0.659667
-1.039627 0.029366
0.842631 -0.675612
0.622483 0.122993
-1.114248 0.368738
-0.836972 -0.635255
0.795660 -0.058364
0.639147 0.225198
0.155054 -0.025521
-1.055247 0.026064
0.360109 -0.897920
0.103943 0.765429
1.627784 -0.659186
-0.664395 0.831216
0.196611 -1.512520
-0.188791 0.820003
0.715847 -0.081664
-1.867356 -0.102310
0.443443 -1.060082
0.665349 0.167297
-0.298228 0.252448
-1.422803 -1.352246
0.385258 0.574537
0.152356 -0.884935
-0.960212 0.293946
1.277688 -1.173559
-0.262656 1.294227
-0.126623 -1.699207
-1.335289 -1.151433
1.701678 1.876744
-1.710636 1.869616
-1.035339 -1.390207
3.514487 -3.259820
0.111300 3.819198
-2.844071 0.148528
-2.005489 -1.048911
4.933532 -2.087693
0.481212 2.534932
-3.984878 0.818586
-0.327022 -3.869539
1.741136 0.435015
3.423486 1.485267
-3.781570 3.928607
0.752203 -5.294609
0.014087 -1.974871
5.481263 4.884100
-4.207144 5.309638
-2.046914 -7.138193
3.238160 -5.487697
4.138193 12.781563
-7.376009 5.180687
-4.778018 -8.195754
12.326770 -5.795606
-0.445264 17.167161
-13.446459 -1.842263
-7.628541 -3.662134
22.727513 0.221010
-3.658176 19.158737
-22.437215 -10.930931
-12.468587 9.764438
33.574601 6.262437
10.162215 -1.868218
-23.162554 -6.340052
-63.140306 -4.082885
3.573093 58.279543
-7.982342 -54.784972
57.025042 -111.714146
-422.476252 48.677579
-1508.211791 365.041080
