2879.047152 2524.032333
-1371.655376 -820.602321
-46.603311 -51.758979
-276.309182 -72.160614
7.321252 -17.109330
-22.895255 -9.300168
38.562855 -15.428610
-39.576308 4.806366
-6.225293 0.813997
-13.450840 5.515645
13.395856 -1.748253
-8.028789 8.541773
-2.026097 -1.280400
-6.939278 2.474143
4.518215 -1.392097
-4.517972 2.374863
-0.395990 1.006017
-2.141732 2.335410
2.543332 -2.083792
-0.307553 -0.078124
-0.001292 2.271289
-0.672959 1.525686
0.897599 -0.981617
0.777550 -0.280224
0.748349 1.825222
-0.211720 0.932372
-0.625290 -1.059679
0.019403 -0.022809
-0.058260 0.113729
0.075351 0.813090
0.238396 0.168614
0.411741 -1.010034
-0.534402 -0.039156
0.550120 1.022579
-0.018105 0.830130
-0.651346 -0.232286
-0.347236 -0.459893
0.494305 0.589501
0.077277 0.805768
-0.752908 -0.661172
-1.083716 0.356086
0.627050 -0.430666
0.249128 0.010849
-1.024374 -0.396444
-0.010346 -0.009134
0.428724 -0.220268
0.299510 -0.639111
0.212066 -0.659487
-0.678543 0.484420
0.396867 -0.500543
-0.130306 -0.299764
-0.308809 -0.219971
0.922182 0.469070
0.253695 0.319728
0.216835 -0.148112
-0.314405 0.133539
0.280865 -0.165973
0.110908 -0.282966
-0.186788 0.163393
-0.048086 -0.632985
-0.332500 0.020629
0.253061 0.111112
-0.138412 -0.056890
0.274879 0.107358
-0.109421 -0.015849
-0.335230 0.106423
0.000061 -0.191698
-0.314448 0.194169
-1.035495 -0.105531
0.036272 -0.412059
0.034755 0.228175
-0.270139 -0.170715
0.064375 0.152456
0.034349 -0.274564
-0.201582 -0.188013
0.114119 0.223548
-0.412470 -0.158286
-0.192405 -0.006459
0.577128 0.017978
-0.274242 0.363835
0.128912 0.199773
0.014859 -0.122253
-0.136451 -0.040570
0.406037 0.112512
0.306117 0.338844
-0.239248 -0.024310
0.012786 -0.073065
-0.174754 -0.089083
-0.070426 -0.003919
0.009841 -0.331852
0.081613 -0.356477
-0.053182 0.041635
-0.112352 -0.115145
-0.031728 -0.068221
0.013487 -0.077695
-0.379040 0.141041
0.145387 0.182818
0.074452 0.189398
0.012372 -0.096232
0.028200 -0.467942
0.011751 0.073725
-0.060151 -0.109109
-0.206261 0.207292
0.328216 0.074920
-0.003481 0.061581
-0.212595 0.043881
-0.689623 0.303452
0.054043 0.012860
0.191749 0.152010
0.139056 -0.053458
0.136093 -0.033205
-0.250973 0.163549
0.306881 -0.003075
-0.131714 -0.183198
-0.234309 -0.432185
0.059675 0.048397
0.121691 0.021677
-0.350184 -0.134555
-0.155832 0.021595
0.189524 0.260796
-0.175353 0.110609
0.321555 0.229290
0.047079 -0.214187
-0.101545 0.068075
0.228923 -0.093790
0.156171 -0.320033
-0.085369 0.061740
0.047201 0.057514
0.075230 -0.011388
0.117697 0.340533
0.029249 0.117578
0.032165 -0.235111
0.325820 -0.199379
-0.437809 -0.077271
0.466181 0.007170
-0.114396 -0.006464
0.259910 0.267167
-0.070885 -0.262188
-0.386680 -0.215090
-0.252209 0.296115
-0.009339 -0.239171
0.126482 -0.497364
0.039085 -0.072632
-0.413365 -0.241611
0.017364 -0.184857
-0.017170 0.267018
-0.107782 0.036650
-0.114817 0.215860
0.121879 0.139202
-0.215656 -0.160974
-0.136511 -0.054194
-0.060135 0.110709
0.179143 -0.033201
0.074415 0.008846
-0.237844 0.251992
-0.054138 -0.013085
0.085138 0.010587
0.135778 0.074567
-0.229844 -0.031167
0.189556 -0.061524
0.001346 -0.069539
0.285309 -0.060113
0.021388 -0.092989
0.018437 -0.012730
-0.068888 0.089554
0.053807 -0.150344
-0.009767 0.037098
-0.028735 0.120732
0.037985 0.072977
-0.157213 -0.178590
0.159858 -0.028121
-0.097973 -0.013781
-0.052653 0.017001
-0.025008 -0.158382
-0.126809 -0.107508
-0.044127 0.050680
-0.106205 -0.149907
-0.159540 0.220004
-0.045588 0.154745
0.070901 0.148734
0.102862 0.070337
0.047918 -0.211231
0.021872 -0.105653
0.065415 -0.044180
0.022527 -0.013439
-0.094297 -0.027002
-0.165658 -0.037533
-0.012716 -0.004364
-0.068159 0.229966
0.048219 -0.098396
0.056468 0.190028
-0.210979 -0.123253
0.103629 0.035486
0.187715 -0.151661
-0.022301 -0.099408
-0.077950 -0.045814
-0.019701 -0.008410
0.151218 -0.061928
0.057996 0.221028
0.013016 -0.146998
0.041499 -0.056618
0.017143 -0.020611
0.010828 0.258277
-0.002081 -0.056229
0.004880 0.094349
0.012051 -0.179831
-0.033076 0.083282
0.150816 0.025722
0.072929 -0.161091
-0.050219 0.000631
0.087672 0.027015
-0.128984 -0.068744
-0.024144 0.003748
-0.042535 -0.405146
0.228005 0.179802
0.090822 0.038633
-0.033595 0.012272
-0.274609 -0.000942
-0.135372 -0.014256
0.184803 0.037956
-0.181700 0.140168
-0.317260 0.021463
0.058319 -0.382914
0.030253 -0.132982
0.009183 -0.201786
-0.031752 -0.360074
0.151412 -0.309915
0.074116 -0.279363
0.097783 -0.146478
-0.063278 0.249467
-0.028973 -0.102856
0.244818 -0.153164
-0.204168 0.286203
0.473628 0.022265
0.021412 0.112807
-0.164962 0.113870
-0.110468 -0.225598
-0.249285 0.086832
-0.379087 0.027605
-0.033840 -0.015026
-0.249979 0.062249
-0.275930 -0.099446
-0.500486 0.181403
-0.080857 0.120730
0.247511 -0.272113
-0.097999 -0.178768
-0.000187 -0.130268
0.730157 0.437104
-0.413273 -0.347288
-0.312549 0.142311
-0.092764 -0.089505
-0.440585 -0.195329
0.251967 0.224813
0.069091 -0.023708
0.852939 0.145310
-0.297878 -0.741658
0.017911 -0.101620
-0.396278 0.192838
-0.719273 -0.058884
0.175750 0.087875
0.616149 -0.440747
0.257811 0.072932
-0.429031 0.301386
0.362593 -0.369986
-0.930167 0.143221
-0.000288 -0.200657
-0.615947 0.299982
0.221980 -0.018727
-0.259041 0.081735
0.445077 0.203075
0.433429 -0.252782
-0.737296 0.413042
-0.494905 -0.036294
-0.065169 0.083439
-0.238359 0.170298
0.226971 0.271324
0.016695 0.188218
-0.249979 -0.020929
-0.115626 0.436928
0.028691 0.144637
0.011398 -0.110720
-0.226450 -0.219502
-0.232377 -0.295861
0.256694 0.031214
-0.018084 -0.091855
-0.521176 -0.317730
0.271534 0.149283
0.146387 -0.129613
0.366218 0.011840
0.244920 0.344473
0.062819 0.051179
0.185646 0.072916
0.008321 0.159256
-0.030276 0.092917
-0.120929 0.098563
-0.153401 0.127817
-0.247070 -0.097188
-0.016975 0.372935
-0.030797 0.234459
-0.313151 -0.020747
0.038531 -0.135439
0.047136 0.126171
-0.026714 0.010046
-0.023939 -0.011066
-0.059497 0.022840
0.039217 -0.231859
0.055337 0.077907
0.149415 0.033356
0.016807 -0.031439
0.032810 0.288583
-0.059674 -0.058965
-0.209931 0.090546
0.009801 -0.138907
-0.104560 -0.003004
0.015509 0.152145
0.052133 0.013094
0.100641 -0.087767
0.008699 0.002785
0.003964 -0.037375
0.065546 0.100213
0.135499 0.055319
0.016847 -0.000562
0.067069 -0.043404
0.010482 0.262823
0.029834 -0.098504
-0.045056 -0.001957
-0.038837 -0.081654
0.083107 0.054804
-0.225045 0.156867
0.023039 0.050299
0.184483 0.059506
-0.032202 0.058358
-0.037911 -0.112877
0.131682 0.128408
0.134574 -0.161685
-0.013912 -0.025800
-0.234946 -0.183995
-0.090749 -0.032229
0.014605 -0.000663
0.048654 0.170605
-0.126914 0.061576
0.039776 0.340538
0.096794 -0.191876
0.136448 0.113744
0.031929 -0.140895
-0.061178 -0.105938
-0.039053 -0.100690
0.068686 -0.005192
-0.267574 0.014330
0.134083 -0.109577
-0.069394 -0.097052
-0.018243 -0.012861
-0.097066 0.050664
-0.049890 -0.054922
0.118547 -0.003190
-0.001334 -0.137571
-0.026872 -0.038552
-0.229679 0.067338
0.045409 -0.077112
-0.282678 -0.099735
0.173592 0.176902
-0.081146 0.305471
-0.015346 0.013521
-0.176343 -0.167172
-0.004206 0.392168
-0.153934 0.261660
-0.032221 0.019375
-0.041475 -0.141471
-0.005673 -0.122680
0.097933 -0.060228
0.016913 0.258810
0.096647 0.171446
0.205014 0.113649
0.067534 0.343063
0.094873 -0.134611
0.142663 -0.183823
-0.126023 0.282996
-0.063181 -0.196119
0.245076 -0.268125
-0.114055 0.060845
-0.022982 -0.078384
-0.139685 0.090684
0.072773 0.341578
0.086916 -0.365752
-0.658481 -0.245215
0.138226 -0.004032
-0.122633 -0.053716
0.101956 -0.280252
0.187536 0.006602
-0.139095 0.285200
0.029103 -0.026323
-0.171597 0.153533
0.223807 0.284559
0.001811 -0.163155
0.006399 -0.218752
-0.118893 -0.045266
-0.150828 -0.053298
-0.262180 0.520073
0.481660 0.098408
-0.260961 0.126370
0.097644 0.066733
0.382909 0.091154
0.071906 0.043657
-0.224278 0.034703
0.119374 -0.255711
0.227809 0.088758
-0.099691 -0.089683
-0.053910 -0.047418
-0.564973 0.047506
-0.199862 0.296116
0.141470 0.138787
-0.088186 -0.394325
0.272549 -0.006716
-0.064270 0.168584
0.216116 0.220529
-0.081345 -0.066139
0.184504 -0.142987
-0.101289 -0.308689
-0.041533 0.120161
0.050422 -0.304001
0.111274 -0.058308
0.043684 0.004639
-0.153384 -0.012947
0.216275 0.234274
-0.109596 0.220920
0.167988 0.004738
0.222856 -0.316126
-0.122104 -0.012719
-0.370253 -0.075390
-0.084577 -0.142019
0.096715 -0.149972
0.000292 -0.221179
-0.338340 0.090847
0.049294 0.099038
-0.342493 0.099622
-0.516412 -0.156605
-0.055888 -0.017856
-0.125879 -0.011748
-0.069693 0.007581
0.372628 0.167344
-0.503661 0.076373
0.173695 0.266147
0.378203 -0.089981
-0.103411 0.373797
0.295480 0.094352
-0.128542 0.171384
-0.419027 0.284052
-0.129881 0.035250
-0.207400 0.424233
-0.257691 -0.048544
0.553050 -0.156579
-0.166061 0.176197
-0.125856 -0.406991
0.251659 0.191721
-0.280074 -0.149586
-0.569418 0.235761
0.361745 -0.322181
0.042151 0.075694
-0.003838 -0.146165
-0.378423 -0.189717
0.389427 0.149958
0.454637 -0.255433
-0.455998 -0.483553
-0.179921 0.542173
-0.186452 -0.201099
0.453850 0.351347
-0.760992 0.191723
0.205687 0.383991
0.350369 -0.241508
0.438997 -0.397121
0.841098 0.498360
-0.335342 0.621404
-0.244062 0.065214
0.170290 0.070325
-0.283937 -0.075805
0.269250 0.881349
-0.979206 0.796928
-0.657793 -0.440549
0.541990 -0.310141
0.079250 -0.194848
-0.756178 0.843853
-0.710120 -0.279789
-0.067436 -1.550991
0.726958 0.091331
0.473991 0.918771
-0.391590 -0.310977
-0.008699 -1.231747
-0.521341 -0.322054
0.768135 1.158859
0.033875 -0.550381
-0.840122 -1.423691
-0.931586 0.095197
1.920799 0.040739
-0.029968 -0.942557
-1.560771 -0.034081
-1.996695 -0.774015
1.949149 0.290349
0.304790 -0.739773
-0.717540 0.977251
-2.478362 -0.069546
1.590985 0.447462
-0.199769 -0.012700
-1.361894 0.573723
-2.463242 2.216105
1.262799 0.281948
-0.378377 -3.714245
-1.280089 -2.170162
-5.284772 9.481884
3.712439 -0.358495
1.786520 -9.686641
2.992976 -1.533811
-0.900151 20.004556
4.733832 11.219874
-16.478379 -23.338085
-8.625548 -19.465462
-18.569620 -8.558865
114.835730 132.837685
-750.747517 -713.182557
