5134.344282 3834.296799
-1825.026487 1665.959526
-101.487236 -452.550222
-69.889115 -176.363116
105.932521 113.487995
-66.811196 -293.270711
-13.925618 -133.702479
-85.150570 -60.081840
35.773586 37.526305
-32.806496 -4.458472
30.324487 -22.686002
-4.154861 -4.250633
-3.363081 -2.792957
-40.868484 -16.943128
-35.207083 -4.178759
7.649976 5.200275
-5.539485 -25.535406
-13.899922 15.057871
-8.465547 9.757941
-6.353522 0.947902
3.534854 5.739923
4.718682 2.729756
7.019145 -15.646488
-0.580811 4.952641
-3.664548 -0.384588
0.663705 4.943341
-0.827662 0.360657
-2.458098 -5.015761
-8.488493 1.160640
-3.123263 3.657668
-2.604291 -1.820116
4.866975 -2.123892
-1.379343 2.016269
-3.457956 4.266274
-0.815527 -0.080173
-4.417937 0.396856
-0.426019 -4.425537
2.175795 3.696686
-0.547536 0.302053
-2.945423 3.698000
1.540601 -0.576120
-0.505841 2.000180
0.965273 -1.627108
-0.011825 0.240873
0.354481 -0.473950
0.504583 -0.517616
1.812254 -1.156486
-0.478208 0.108238
-1.222841 -2.093873
-0.714652 0.650870
-0.968406 0.151977
-0.429960 -1.577691
0.529913 -0.698281
-1.265034 2.690480
0.959121 0.165166
-2.464232 1.732630
0.162429 -1.365412
-1.208323 -0.455290
0.314942 -0.428812
-1.072608 -0.128225
0.685562 -0.441996
-0.684767 0.752189
-0.142691 1.316847
1.120611 -0.803276
-0.329480 0.807694
-0.138000 -0.325795
0.151565 -0.533123
0.637424 -0.004595
0.847530 -0.457044
-0.709437 -0.277358
-0.519292 0.175539
-1.541073 -0.012417
0.277686 -0.470385
-0.887614 -0.467116
-0.201148 0.384995
-0.682347 -0.047783
-0.484873 0.633867
0.259325 -0.471123
-0.233901 0.638797
0.553807 -0.297402
-0.391735 0.484406
0.914734 -0.827535
-0.498093 0.744060
0.410563 0.085824
-0.607126 0.488349
0.263676 -0.351262
-0.800358 -0.634549
0.117528 -0.054297
0.242283 0.225367
-0.255161 0.617311
0.090602 0.158484
-0.175117 0.086353
-0.323012 0.250148
0.233520 -0.075098
-0.784094 0.317960
-0.291268 -0.080894
-0.348001 0.294134
0.786086 -0.102177
-0.739971 0.188236
0.132241 0.151553
0.002292 -0.126562
0.134021 -0.283149
-0.209078 -0.027832
0.255187 -0.013887
-0.319166 0.070169
0.201339 -0.007875
0.110080 -0.424473
0.349857 -0.111621
-0.140354 -0.396852
0.100969 0.492597
-0.076873 0.024737
-0.174689 -0.214276
-0.343614 -0.042532
0.027646 -0.104056
-0.386346 -0.073441
0.228162 -0.077394
-0.391946 -0.432333
0.155152 -0.137610
-0.140199 0.018279
0.129532 0.205470
-0.287422 -0.101291
-0.283278 0.026306
0.371475 -0.057568
-0.319081 0.242755
0.125921 0.212084
-0.057230 0.532787
0.157547 -0.206663
-0.234497 0.260720
-0.221191 0.354376
-0.282758 -0.054314
0.114160 0.018463
0.154271 -0.143415
0.007249 0.251258
-0.084331 -0.001655
-0.092460 0.124022
-0.482495 0.313705
0.184971 -0.281627
-0.149753 0.176927
-0.319464 -0.054832
-0.153334 -0.405847
0.160503 0.255800
-0.254297 -0.029521
0.116341 0.314162
-0.283790 -0.176979
0.241453 -0.191717
0.021196 -0.039705
0.148354 -0.053905
-0.007374 0.179374
0.222713 0.059677
-0.553114 -0.082697
0.048855 0.237037
-0.002956 -0.126856
0.107127 0.299353
-0.116278 0.019272
-0.010216 -0.219706
0.236752 0.313871
0.271741 0.396289
0.172677 0.008564
-0.037742 -0.332684
0.324204 -0.231454
0.064056 -0.195426
0.074604 -0.083843
-0.253779 0.085580
0.423643 0.013720
0.052041 -0.088727
-0.154710 0.319114
-0.146260 -0.010435
-0.003930 -0.066435
-0.167703 -0.017844
-0.031691 0.070537
-0.282804 0.258518
0.122558 0.067114
0.079037 -0.160296
-0.171410 0.122922
-0.048481 -0.092802
-0.144770 -0.082802
-0.262542 0.000151
0.411985 0.301608
-0.055115 -0.028640
-0.206807 -0.342707
-0.100636 0.157892
0.019758 0.015134
0.224012 -0.048279
0.015877 -0.164532
-0.121253 -0.096760
0.122900 -0.191668
-0.265748 0.034251
0.155947 0.186710
-0.088662 0.014493
0.199045 -0.070065
0.379734 -0.127304
-0.070775 0.095642
-0.223353 -0.157630
-0.064994 -0.040334
-0.086000 0.206815
-0.020593 -0.069372
0.248673 -0.019743
-0.064678 -0.286826
0.207064 0.128339
-0.094889 0.057984
0.091230 -0.407970
-0.012051 -0.026705
0.138608 0.155612
-0.406728 -0.101771
0.234463 0.145835
0.030175 0.323485
0.095046 -0.009651
-0.376819 -0.030387
0.389352 -0.366187
-0.270964 0.241841
-0.295702 -0.283945
-0.032888 -0.095901
-0.065729 -0.274656
0.074793 0.324846
-0.106188 0.225536
-0.456058 0.143154
0.356544 0.100328
0.085226 0.028874
-0.363576 -0.030982
-0.186827 -0.319782
-0.020447 0.027470
0.159652 -0.038749
0.144322 -0.127323
0.079114 0.003167
0.058872 0.113911
-0.142157 -0.158543
-0.120884 0.017613
-0.259033 0.042723
0.265758 0.156114
-0.125576 0.098292
-0.049758 0.007774
-0.205745 -0.135286
0.028378 -0.006439
-0.002985 -0.071333
0.177860 0.212768
0.278507 -0.101811
-0.073938 0.117588
0.072678 0.087666
0.064205 0.032730
-0.046957 -0.162371
-0.008265 -0.272338
0.029679 0.071642
-0.037819 -0.096911
0.007799 0.119117
0.081612 0.134541
-0.205675 0.139840
0.117417 -0.188665
-0.003021 -0.047720
0.246098 -0.169896
-0.194423 -0.215040
-0.016294 0.044367
-0.151640 0.266045
0.056230 0.026259
-0.260851 -0.028117
0.177703 -0.109018
0.226155 0.103080
-0.223072 0.070641
-0.310135 -0.128980
0.012738 -0.025890
0.003637 -0.033477
0.061142 -0.109826
-0.163303 -0.037557
0.051910 -0.121524
0.244897 0.108052
-0.047750 0.281834
-0.121410 -0.139872
-0.334454 0.017721
-0.006186 -0.221943
0.020329 0.084223
-0.193164 0.074715
0.114824 -0.009415
0.008380 -0.243055
0.006780 0.079833
-0.006238 0.056437
-0.206282 0.006447
-0.309272 -0.030700
0.082077 0.299760
0.138062 -0.010692
-0.161411 -0.065955
0.285489 -0.063812
0.037140 -0.042604
-0.049027 0.301229
0.174457 0.205011
0.112715 -0.270914
-0.074713 0.117269
-0.099885 0.030226
-0.006169 -0.026966
0.183385 -0.338726
0.063517 0.091713
0.267200 0.063917
-0.083454 -0.178182
-0.244428 -0.304803
0.251679 0.064429
-0.067046 0.000689
0.182386 0.093877
-0.103799 0.357981
-0.113241 -0.083185
-0.072014 0.051980
0.003415 -0.131411
-0.139933 -0.145490
0.051610 -0.313269
-0.150700 -0.260466
-0.269384 -0.040444
0.141844 0.121772
-0.141012 -0.083775
-0.263690 0.279604
-0.051870 -0.093514
-0.017371 0.096475
-0.203429 0.253853
-0.043563 -0.021051
-0.204897 0.104664
0.050900 -0.304255
-0.195282 -0.238888
0.143489 0.130456
-0.256181 -0.072211
-0.016324 0.207562
0.170412 0.435294
0.351610 -0.450993
-0.257357 0.005475
-0.108419 -0.120053
0.049578 -0.033274
-0.000914 0.286789
0.019644 0.057539
-0.397608 0.150390
-0.127207 -0.074607
-0.002756 -0.260770
-0.063949 0.010073
0.041939 0.035031
0.390819 -0.002745
-0.112675 0.015233
-0.160423 0.103400
-0.017624 0.390241
-0.065802 0.076155
-0.067146 0.315019
0.244480 0.335195
0.237050 0.087174
-0.198719 0.209363
0.048501 -0.053113
0.032900 0.390607
-0.058829 -0.289633
-0.101883 -0.082795
0.301772 0.065464
0.381972 -0.004535
0.038799 -0.060825
-0.130467 0.310873
-0.096495 -0.325024
0.041876 0.082124
0.093510 -0.006611
-0.340207 -0.333421
0.132367 -0.459025
0.149976 -0.282329
-0.336425 -0.207551
-0.086425 0.418452
-0.234625 -0.089811
0.131847 0.403802
0.230867 -0.065618
-0.194479 0.243236
-0.148716 -0.258489
0.095659 0.027542
-0.104198 0.024802
0.316145 -0.015497
0.034771 0.234850
-0.205136 0.117055
-0.038038 -0.023686
0.383231 0.074543
0.163600 -0.164499
-0.059890 -0.082441
-0.188834 -0.106413
0.243082 -0.302574
0.039998 0.178158
0.084413 0.333367
0.082967 0.354761
0.007925 -0.064299
-0.070649 -0.136052
0.356708 0.120084
-0.113247 0.003484
-0.139925 0.319917
0.015252 0.024882
0.186291 0.323080
-0.204766 0.202343
-0.021424 -0.154112
-0.472324 0.030687
-0.280299 -0.028705
0.039282 -0.138059
0.015591 -0.265803
0.074547 -0.327098
0.169056 0.018000
0.059504 -0.440714
0.360759 0.168774
0.154363 -0.296227
0.383904 -0.078826
0.108907 -0.305113
0.062779 0.254977
0.040489 0.039411
0.361611 0.133621
0.226304 0.148049
-0.266728 0.167238
0.072395 -0.221358
-0.115202 0.276907
-0.345486 0.164379
-0.170322 -0.311924
0.139593 -0.296342
0.548203 -0.086433
-0.114291 0.072907
-0.310697 -0.250046
0.210819 -0.140546
-0.169471 0.139432
-0.329135 -0.127287
0.120748 -0.093969
-0.042210 -0.082480
-0.278330 -0.129554
-0.125909 -0.257619
-0.085672 0.078183
-0.150652 0.105800
-0.268092 -0.350784
-0.061400 -0.253053
0.188110 -0.210329
0.034639 0.091302
-0.174516 -0.284939
0.403134 0.106433
-0.197431 0.213665
0.102872 0.072865
0.513897 -0.168767
0.110403 0.324005
0.171401 0.301577
-0.108444 0.242809
-0.320220 -0.039563
-0.302540 0.118708
-0.237738 0.025566
-0.442150 -0.005080
0.275270 0.014407
-0.327360 0.252785
-0.118703 -0.129934
-0.191528 -0.015049
-0.330257 -0.281363
-0.025731 -0.132700
0.009207 -0.146564
0.059018 -0.238464
0.387431 -0.426821
0.402585 0.498515
0.180542 0.159596
-0.255334 -0.076602
-0.382741 -0.428207
-0.177080 0.044996
0.151181 -0.034699
-0.155611 0.003976
0.205731 0.178823
0.050542 0.013500
-0.265916 0.007707
-0.191721 -0.000465
-0.016086 0.167734
-0.212582 0.138222
0.329845 -0.495782
-0.050620 0.209677
0.031848 0.161566
0.130986 0.431615
-0.123573 0.067101
-0.097059 -0.091990
-0.190857 0.153349
0.129268 0.177189
-0.063915 -0.380482
0.006134 0.240701
0.568231 0.140914
-0.157484 -0.318866
-0.047076 -0.184368
-0.206154 0.059662
0.148857 -0.110308
-0.183218 0.345565
-0.486067 0.478995
-0.070027 -0.041045
0.121151 -0.361750
-0.383358 -0.134360
-0.241687 -0.482810
-0.394876 0.347549
-0.001620 -0.080626
0.325804 0.404406
-0.122747 -0.073567
0.045923 0.403594
-0.105282 -0.158496
0.214219 0.393535
0.322383 -0.005890
0.133906 0.028959
0.308543 -0.107168
-0.183552 -0.061888
-0.245623 0.249976
0.133428 -0.169347
0.130376 0.017755
0.292406 -0.154105
0.284384 0.022022
-0.003105 -0.029093
-0.239641 0.032174
-0.067624 -0.035953
-0.006677 0.095744
0.081496 -0.217709
-0.439800 0.175422
0.025761 -0.042389
-0.049348 0.286834
0.052132 0.034263
0.176925 0.249091
-0.204594 -0.121512
0.231544 0.238589
0.053215 -0.149550
0.017954 -0.006171
0.080797 -0.151684
0.108255 0.283652
-0.041401 0.091490
-0.186377 0.142064
-0.008459 0.168925
0.124250 -0.227244
-0.173336 -0.213706
-0.052387 -0.173706
0.186022 -0.073010
-0.318816 -0.106736
0.783768 0.473899
-0.119831 -0.243828
-0.121802 -0.057525
-0.102918 0.340464
0.188745 -0.260231
-0.095920 -0.533695
0.164582 0.066046
0.010285 -0.011785
-0.174578 0.071764
-0.132790 -0.042805
-0.066461 -0.123777
0.210663 -0.254907
-0.021351 0.147688
0.117642 0.143411
0.444055 0.164085
-0.220248 -0.341407
-0.223203 0.220515
-0.244808 -0.171816
-0.211194 0.101096
0.105562 -0.351128
-0.049026 0.097512
0.137987 0.122058
-0.014643 0.065655
-0.023329 0.050445
-0.085248 0.236101
0.149132 0.176184
-0.179328 -0.247965
0.236540 -0.131131
0.112757 0.125898
-0.035446 0.125370
-0.366552 -0.208410
0.055564 -0.206746
0.148374 -0.032586
-0.001008 0.280223
-0.116103 0.149818
-0.120373 -0.240035
0.063666 -0.210947
-0.253227 0.172152
-0.128198 0.112462
0.203883 -0.278125
-0.167819 0.036555
0.021876 0.062032
-0.090923 0.304105
0.085543 0.134597
0.006684 0.100676
0.072162 0.125356
-0.125772 -0.188787
0.195320 -0.102426
-0.146844 0.081522
0.221263 -0.024463
0.114636 -0.111807
-0.007061 -0.255908
0.235259 -0.108647
-0.059778 -0.074729
-0.263259 0.059733
-0.087070 0.096012
-0.048012 -0.011509
0.294720 -0.190654
-0.101057 0.030263
-0.013267 0.003285
-0.022561 0.160360
-0.006914 0.006008
-0.213178 -0.292797
0.173346 0.171642
-0.238921 -0.001700
-0.028642 0.106365
0.376042 -0.081194
0.172778 0.012676
0.019084 -0.234782
-0.027831 0.004887
-0.281966 -0.351622
0.156599 0.121855
-0.281224 0.231875
-0.206920 0.029315
-0.080922 0.162723
0.036997 0.157184
-0.233127 -0.301873
0.085291 -0.209954
0.042344 -0.251307
0.021777 0.385734
-0.036349 -0.011075
-0.057059 0.284591
0.069738 0.140634
-0.196955 0.111411
-0.074262 0.090763
-0.202444 -0.084563
-0.014008 -0.114173
0.036767 0.136322
-0.333981 -0.028200
0.191984 -0.298490
0.066740 0.106602
0.223087 -0.184979
0.268167 0.321095
-0.027613 -0.295400
-0.138496 0.125934
0.162051 -0.208890
0.223246 -0.023496
-0.459860 -0.139703
-0.255966 -0.056430
0.148444 0.116516
0.157002 0.163551
0.048634 0.144361
-0.063762 -0.214227
0.032454 0.131494
0.093087 -0.279879
0.309160 0.186723
0.155104 -0.157597
0.227257 -0.101326
-0.529935 0.147488
0.248988 -0.397330
-0.231531 -0.138597
0.108178 0.050950
-0.428779 0.151925
0.025468 -0.292915
0.244435 0.191949
-0.126448 -0.072784
-0.137759 0.023497
-0.276877 -0.157109
0.184483 -0.220225
-0.529165 0.095762
-0.225985 0.279681
0.001410 0.216910
0.041162 -0.020887
-0.149818 0.196115
-0.192445 0.098214
-0.187658 0.127149
0.047621 -0.145458
0.321808 -0.283246
-0.138994 -0.213847
-0.298094 -0.116067
-0.081061 -0.132307
-0.333905 -0.015711
0.119125 -0.083858
0.054054 0.108445
-0.152868 -0.265351
-0.135890 -0.063864
-0.165367 0.389193
-0.079830 0.088535
0.208205 0.161656
-0.035336 0.153042
0.444541 -0.163629
-0.397956 0.110839
-0.131656 0.059651
0.465129 -0.070450
-0.462387 0.177020
-0.106045 0.160774
-0.169225 0.244496
0.088542 -0.241462
0.570701 -0.288417
0.128539 0.237165
-0.282945 0.389740
0.085360 0.141643
-0.273839 -0.280210
0.194698 0.204695
-0.222590 -0.105975
0.273203 0.327137
-0.293116 -0.267878
0.189246 0.265762
0.000686 0.121212
-0.070979 -0.153895
0.005235 0.119250
-0.331243 -0.173244
-0.360779 -0.173159
0.324658 -0.160220
-0.042619 0.320109
-0.299403 0.202363
-0.700110 -0.056053
0.124400 -0.287507
-0.138001 -0.125482
-0.081486 -0.148117
0.054980 -0.451615
-0.111295 0.230088
0.054384 0.059512
0.004448 0.206606
-0.425767 0.227539
0.038502 -0.183701
0.117365 -0.163412
-0.363322 0.203241
0.598816 0.361019
-0.051677 0.405799
0.197541 0.512965
0.346632 0.039442
-0.106874 -0.168907
-0.319788 0.488751
0.676428 -0.370544
0.334231 -0.649959
0.593239 -0.376704
-0.605919 0.295078
-0.204451 0.452162
-0.654560 -0.264530
0.117658 -0.392708
-0.341458 -0.204264
0.294685 0.179335
-0.015543 0.071184
0.571492 0.135597
-0.565639 0.149352
-0.049583 0.493029
-0.665113 0.039466
0.218452 0.340221
-0.477920 -0.157697
0.184136 -0.066885
0.511592 0.179873
-0.340416 0.246978
-0.078482 0.004187
-0.115716 0.187338
0.155132 -0.711246
0.621795 -0.743734
-0.118556 -0.522323
-0.237143 0.247136
-0.697126 -0.780309
-0.468886 0.448260
-0.839647 -1.174693
-0.397742 0.168483
-0.247751 0.695959
0.650736 0.194803
-0.214839 0.298179
0.008318 0.613548
0.550858 0.970333
-0.208320 -0.181530
-0.185844 0.000095
0.145215 -0.231289
0.363300 -0.677362
-0.172482 0.288694
0.612997 0.310612
-1.111868 0.406492
-0.577759 -0.106115
0.220825 1.170071
0.622290 -1.618878
0.110298 0.475294
-0.764664 -0.731603
-0.473930 -0.370157
0.272456 0.698219
-0.072697 -0.812674
-0.455174 -0.317863
-0.972375 0.381405
-0.603956 2.373752
0.700852 -0.994827
0.318354 1.708514
0.400459 0.376610
-0.329055 0.874292
0.326863 0.332421
0.365314 -0.908876
0.669954 -0.571494
2.806681 -0.468349
-2.042346 -0.370394
-0.330820 -0.498730
-1.615941 0.426830
1.735137 -2.005082
-0.607894 -2.137941
-0.019451 1.322886
-1.836133 -1.588987
1.921496 1.006361
-0.406867 -2.250711
-2.844618 0.173880
-0.974088 0.316198
-2.018976 3.930401
-1.285913 -3.104621
-1.146490 0.980486
0.878147 1.702900
0.130031 3.353377
-1.146805 1.759950
-0.571974 1.950932
1.696012 -6.562664
4.012150 1.330397
-1.216365 1.616496
-0.819215 1.152660
-4.472615 -6.730647
0.473634 1.953771
-4.627850 -5.109327
-0.170290 5.717255
-0.913023 1.315679
0.354057 -2.764024
1.786177 2.825803
-2.991425 3.163801
5.145825 1.018838
-6.957864 -0.820767
5.372520 6.952287
-0.410310 -8.599163
8.286177 4.614788
-3.972842 11.657448
17.712891 1.443959
4.893716 5.225392
-8.640965 -18.403936
20.641405 -9.469280
-1.528855 9.654046
41.587495 5.649133
-13.516790 -56.246925
-36.179677 -17.664636
-19.095923 4.275496
10.526702 -24.575328
-73.330594 -40.316307
-65.890696 -78.736210
-55.307305 69.185379
58.012259 43.297562
40.557981 164.115749
-225.355658 17.466024
106.229334 165.158178
