5539.054715 7607.313889
-3238.866820 1549.924832
108.596279 116.932804
187.242391 -295.141792
-215.255869 -41.281740
160.407385 200.879331
-217.840688 90.487910
-299.969714 -142.538667
-30.111762 71.391059
-117.866131 19.179069
71.956161 95.989183
-14.672364 -6.795374
15.218883 21.424405
-30.431642 -84.326979
-9.230440 36.887099
52.290813 -32.090878
-22.005862 15.271914
-58.903970 -8.123693
-6.670447 15.534180
-22.222258 15.205477
14.966895 -15.917253
-15.247195 -0.627032
-8.649514 -3.597316
-31.344683 -6.562439
3.639647 15.592810
9.233681 -9.667733
0.330548 5.134379
-9.132076 7.142692
9.008923 1.015315
0.269459 -4.136667
-5.600772 -7.132633
-5.792347 -7.641156
-12.868428 2.939675
-9.988765 -1.375801
-1.101651 7.709892
2.649401 -5.139674
-8.462956 4.418039
2.851524 -0.654902
-1.103496 -7.772440
-0.691321 -0.318859
-4.561148 2.845351
-1.278431 -1.611361
-3.036640 3.933801
-4.498430 -6.013912
3.940142 0.934640
-1.800582 -8.431412
-3.337385 2.449666
-0.580300 -4.793716
-6.693692 -3.188709
0.027089 0.540457
1.881158 4.777497
2.927057 -0.461814
-1.229191 1.981738
-3.579201 -0.436487
0.033451 -2.676553
0.423576 -2.796151
-0.588454 0.518590
-2.437691 -1.483426
-4.313023 -1.773974
-0.453821 1.178393
1.898104 -3.153634
0.820566 -0.563460
-0.847982 0.615579
-2.007956 1.226066
-2.220030 -0.455023
-0.046719 0.334518
0.770207 1.836408
0.971323 -0.544097
-0.917833 -0.310278
0.564699 0.077961
1.143043 -2.258603
1.194301 -1.365897
-1.292672 -1.349648
-0.096001 1.566803
-1.834734 0.796152
0.190986 1.486229
0.690970 0.541083
-0.696582 -2.365027
-0.879225 -0.161242
0.368938 0.606868
-1.459702 0.373984
-0.037491 -1.581741
0.254943 0.212526
-0.491311 -1.010924
0.919447 0.658049
-0.684398 -0.241410
0.537932 -2.243491
-1.103718 -0.231856
0.025975 -0.409758
0.745448 0.157308
-0.591785 -0.558235
0.621732 -0.054417
0.844472 0.237337
0.099384 -0.672931
0.207028 0.193575
-0.296163 -0.382757
1.082181 0.481616
0.424002 -0.219883
0.741682 -0.859622
-0.674651 -0.639024
-0.618261 1.250631
0.166738 0.116237
-0.318739 0.468253
-0.109146 1.115310
-1.044480 -0.435606
-0.248528 1.071360
-0.320465 -0.175899
1.034456 0.014333
-0.099712 -0.102886
-0.484627 -0.141485
-0.175622 0.978455
-1.824920 0.191101
0.378374 -0.486216
-1.653407 -0.420529
-0.280068 -1.025275
-0.301847 -0.167509
0.124283 -0.924681
0.271251 -1.077502
0.306793 0.181843
1.729851 0.216092
-0.015506 0.670401
-0.168396 -0.157234
0.141435 -0.232107
0.141390 0.221066
0.427230 0.164548
0.498344 -0.211992
-0.004846 -0.262397
-0.376065 -0.016385
-0.258606 0.150076
-0.676060 0.455913
0.026737 -0.263394
-0.702583 -0.139367
0.040086 0.424689
-0.099570 -0.127782
-0.601929 -0.428383
0.860495 -0.218372
0.109675 0.335635
0.467352 -0.680232
-0.155216 -0.022004
0.367006 -1.198230
-0.123772 0.079734
0.461436 0.106807
0.294614 0.129177
-0.655898 0.481065
0.421429 0.340903
0.073843 -0.101224
-0.112767 0.831512
0.867012 -0.232887
-0.563515 0.137650
0.111969 0.222925
0.032186 0.670503
0.437340 0.315513
0.048135 0.519641
0.196668 -0.355201
-0.053987 -0.146703
0.398269 -0.269269
-0.637011 0.354582
0.125130 0.557927
0.559114 -0.010859
-0.190068 0.668660
0.034468 0.245075
-0.657927 0.416345
-0.760429 0.185347
-0.285571 0.144716
-0.107693 0.338806
-0.771693 0.665871
0.211635 -0.222423
-0.044853 -0.162279
-0.038970 -0.459284
-0.323102 0.067084
-0.142038 -0.084521
-0.167898 0.032339
-0.020254 0.038904
0.114229 0.476617
0.536641 -0.134144
0.128568 -0.222388
-0.159048 -0.595647
-0.611420 -0.245925
0.304389 0.123920
0.007147 -0.642527
-0.285934 0.290834
0.101213 0.085143
-0.410226 -0.150088
-0.018412 -0.212193
0.016522 0.415003
-0.118062 0.080449
0.117933 0.338991
0.448452 -0.534135
-0.109120 0.338782
0.571831 -0.028828
0.055559 -0.015587
-0.458461 0.013774
-0.145186 0.215818
0.324076 0.116083
0.179160 -0.456223
-0.157733 0.007841
-0.139373 -0.194947
-0.257740 -0.027588
-0.519983 -0.142788
0.113318 0.880209
0.168808 0.638754
0.655960 0.167246
-0.037858 -0.115759
-0.407085 -0.005834
0.576250 1.111388
0.326205 -0.209907
0.008956 -0.172976
0.353606 -0.585636
0.064500 -0.201262
-0.388965 -0.563630
0.003824 0.213613
-0.220519 0.102516
0.027145 0.355563
0.483152 0.414631
-0.901016 -0.529480
-0.229142 0.827251
-0.099642 0.340391
0.257894 0.613207
0.271921 0.541498
0.316986 0.295578
0.244236 0.268041
0.639358 0.393811
0.011788 -0.081170
0.131048 -0.017839
0.456298 0.206645
0.346317 -0.790341
0.359810 -0.022558
0.401791 -0.849906
0.057553 0.239461
0.077694 -0.631080
0.179122 -0.384073
0.015286 -0.224272
0.185074 -0.431435
0.115164 -0.085527
0.212780 -0.475332
-0.121347 -0.368890
0.124196 -0.127985
-0.129105 0.075571
-0.321785 -0.479956
-0.792880 0.038971
-0.005364 0.056819
-0.182195 0.094801
-0.219714 -0.258590
-0.464853 0.171017
-0.092401 0.367232
0.013619 0.281661
-0.082826 0.188296
-0.139465 0.129009
-0.034272 0.001322
-0.089486 -0.113878
-0.004126 -0.300590
-0.140452 0.209862
-0.029374 -0.333433
0.181076 0.050315
0.091609 -0.325816
-0.059570 -0.286475
-0.022180 0.065706
-0.228152 0.064248
0.045174 -0.104557
0.013596 -0.068297
-0.131375 0.314808
0.366642 0.174071
0.148142 -0.156105
-0.203599 -0.215973
0.356774 0.311669
0.176341 0.033947
0.141751 0.053458
-0.013941 -0.101434
-0.243184 -0.285671
-0.177557 0.022720
-0.394438 0.091545
-0.006898 0.270775
0.289829 -0.171573
-0.223040 -0.156536
0.245569 -0.102107
-0.019516 0.265305
0.082647 0.127125
0.119279 0.358399
0.003842 0.076836
0.459677 0.075738
-0.157530 -0.258886
-0.075494 0.203471
-0.029224 0.212760
0.092480 -0.282135
0.032718 -0.213539
0.086606 -0.134857
-0.248987 0.080229
0.145320 0.055649
-0.149810 0.046994
0.228534 0.126188
0.044700 -0.089670
0.191086 0.325767
0.045556 -0.054268
-0.110123 -0.082817
0.075884 -0.053442
0.018958 -0.202476
-0.026618 -0.162243
0.094708 -0.134375
-0.036865 -0.376510
-0.200956 -0.078443
0.184344 -0.516849
-0.098457 -0.135469
-0.118853 -0.081764
0.262879 -0.179925
-0.529763 -0.238516
-0.180724 0.095532
-0.031391 0.028831
0.066677 -0.038324
0.153719 0.228238
-0.044193 -0.378258
-0.205878 -0.361820
-0.185241 0.168848
0.161312 -0.018219
0.093723 0.103177
-0.061440 0.123187
0.325558 -0.028532
0.095874 -0.272195
0.189542 -0.054960
-0.114777 0.214395
0.114292 -0.130418
-0.008295 0.124954
0.248227 -0.029705
0.034566 0.068240
0.095826 0.196656
0.105047 0.025971
0.118017 -0.087171
0.064611 -0.123664
-0.080291 0.186309
-0.125259 0.130210
-0.024477 0.134621
0.253052 -0.122100
0.069823 0.244894
0.146869 0.004030
-0.131722 0.244854
-0.058515 0.065794
-0.089302 0.018602
-0.103247 0.120528
-0.146229 0.232736
0.276342 0.120829
-0.114102 -0.346900
0.092657 -0.221206
-0.103677 -0.031698
0.053999 -0.000716
0.142188 0.111077
-0.034193 0.027184
-0.075760 -0.307104
0.046105 0.209645
0.224075 -0.404110
-0.213181 -0.034723
-0.137860 0.005005
0.103894 -0.135425
-0.236065 0.088979
0.314475 0.045872
-0.118678 -0.217830
0.056826 0.000979
-0.016296 0.057124
-0.023134 -0.051073
0.212952 0.322308
0.118516 -0.169097
0.089816 0.193010
0.366887 -0.111538
-0.095621 0.007785
-0.257479 -0.108937
0.056298 0.438641
0.097425 -0.050235
0.062628 -0.100416
-0.010574 -0.151454
-0.199228 0.168644
0.042133 -0.083457
-0.245938 -0.072826
0.342579 -0.039400
0.085480 0.063632
0.252288 -0.099837
-0.379191 0.067125
0.203726 0.245654
0.112217 -0.167092
0.315461 0.017644
0.144322 -0.107391
-0.008789 0.112278
0.145200 -0.241501
0.044596 0.007393
-0.082666 -0.133661
-0.014135 0.125427
0.100970 0.082391
-0.222250 0.048099
-0.139780 -0.239226
0.026101 -0.012035
-0.012728 -0.040166
-0.018577 0.130722
-0.056673 -0.077301
-0.106831 0.073474
0.068666 0.027758
0.090443 -0.345753
-0.135545 0.335749
-0.033200 -0.161421
0.158183 0.255942
0.068297 -0.102051
-0.171061 -0.150823
0.118076 0.140058
-0.037744 -0.197758
-0.011898 -0.232138
-0.293676 0.207207
-0.057501 -0.338675
0.131450 0.418678
-0.111933 -0.111604
-0.185447 0.049690
0.152052 0.372364
0.006186 -0.200850
-0.165370 0.091301
-0.107770 0.221252
-0.307189 -0.266499
-0.136367 0.341916
-0.096593 0.022232
-0.073134 0.259412
-0.193102 -0.254235
-0.049354 -0.003467
0.321931 -0.095236
-0.161015 -0.431557
-0.109174 0.238572
-0.360149 0.175528
0.118877 0.092871
-0.298515 0.086784
0.187535 -0.109802
-0.261924 -0.176666
-0.144103 0.080527
-0.203519 0.025673
0.077997 -0.174397
-0.335541 0.022037
-0.025895 0.166622
-0.193323 -0.057469
-0.293947 -0.224391
-0.189411 -0.217219
-0.216360 -0.298783
0.028385 -0.310431
-0.013593 -0.072858
0.085290 -0.158090
-0.038520 0.206005
-0.197694 -0.180084
0.215320 0.052780
-0.097514 -0.182645
0.065721 -0.083097
-0.241720 0.030209
-0.285648 -0.179490
0.152587 0.018405
0.154214 0.016309
-0.144903 -0.115203
-0.026782 -0.014504
0.165765 -0.015017
0.102596 -0.087087
0.201018 -0.190931
-0.274005 0.174452
0.075895 0.076626
0.032377 0.319520
-0.196705 0.009805
-0.055724 0.430885
0.199338 -0.013821
0.187880 -0.122293
0.150686 0.143675
-0.009959 -0.037759
-0.082752 0.191615
-0.038510 0.387228
0.002527 0.114980
-0.111875 0.249123
-0.218768 -0.074297
-0.009302 0.239322
-0.264347 -0.343565
0.006594 -0.039166
-0.258156 -0.188770
-0.134375 -0.033320
-0.134896 0.026457
0.004343 -0.053721
0.000305 0.062075
-0.092351 -0.073972
0.088571 -0.022845
-0.147052 -0.276700
0.055899 0.096096
0.141953 0.177760
0.073127 -0.215379
-0.146960 -0.154242
0.015774 -0.027639
0.258768 -0.040761
-0.390867 0.033543
-0.231837 0.049430
-0.029682 -0.032975
-0.185647 -0.207837
0.030550 -0.085388
-0.203207 0.010610
0.116007 -0.256064
-0.166509 0.036015
-0.083705 -0.104034
-0.004168 -0.059265
-0.160622 0.048816
-0.024495 0.008511
0.134609 0.195386
0.010262 -0.417597
0.191149 -0.185890
0.011577 -0.173197
0.080372 0.142683
-0.051478 0.255106
0.067726 -0.216902
0.000475 -0.014083
0.173926 0.118011
-0.058080 -0.350764
-0.136159 0.241405
0.090309 -0.155853
0.238967 -0.043930
0.088877 -0.058554
0.213071 0.140084
-0.156408 -0.149850
-0.002572 0.032233
0.068017 0.224220
0.180764 -0.068181
-0.034689 0.271757
-0.170524 -0.034481
0.000468 0.117098
-0.024253 0.156533
0.277494 0.139271
-0.075143 -0.083511
-0.457389 0.113723
0.224185 0.082497
-0.080600 0.010947
-0.342348 -0.003910
-0.054211 0.011440
-0.150424 -0.309615
0.053234 -0.214161
-0.121459 -0.137830
0.326095 -0.098097
0.006244 -0.071247
0.269970 -0.184259
-0.160396 0.185933
-0.075669 0.319392
-0.062490 -0.112660
0.125050 0.073662
-0.055971 0.048423
0.136487 -0.115405
-0.092657 -0.048827
-0.110491 0.127634
0.218277 0.093661
-0.115798 -0.006199
-0.199889 0.024128
-0.133691 -0.007493
-0.124968 -0.050405
0.001596 -0.165050
-0.110045 0.173490
0.054799 0.169652
0.194966 0.089830
-0.097036 0.086911
-0.144725 0.067090
-0.082068 -0.087887
-0.334538 0.219646
-0.021972 0.091346
0.035861 0.066002
0.278402 -0.044088
0.001305 -0.016090
0.092474 -0.172045
-0.080744 0.153500
0.005194 -0.027315
-0.075998 -0.019513
0.159769 -0.132022
0.038511 0.067276
0.112497 -0.240642
0.009298 -0.090107
-0.127962 0.036602
0.061179 -0.102541
0.134145 0.099784
-0.385612 0.029486
0.045939 0.155830
0.005378 -0.045939
-0.033821 -0.349597
-0.117161 0.098555
-0.216807 -0.000392
-0.145382 0.058782
0.372765 0.131420
-0.017585 -0.237893
0.274785 -0.175355
0.116922 0.063876
0.084525 -0.451478
-0.093399 0.394851
0.255233 -0.097795
0.073568 0.064218
-0.117308 -0.054041
0.179824 0.312377
-0.104512 0.022405
-0.072891 -0.301456
-0.223716 -0.103288
0.068658 -0.263642
-0.093045 0.141131
0.111754 0.121177
0.161036 0.062316
0.135377 -0.339667
0.128782 0.090931
0.029494 -0.191634
-0.149048 0.207591
-0.052499 -0.134227
-0.153313 -0.017510
0.391436 -0.052761
0.123082 -0.175418
-0.084609 0.020993
0.125694 -0.054699
-0.015892 -0.108349
0.107415 0.040933
0.147134 -0.279562
-0.142931 0.009318
-0.040537 -0.001672
0.392871 -0.173011
0.024163 -0.169002
0.173127 -0.231425
-0.211547 -0.057834
0.100951 0.020319
0.154594 -0.043636
0.034647 -0.318189
-0.306737 0.025974
-0.172437 -0.031631
-0.089881 -0.134627
-0.234701 -0.133397
0.215782 -0.133704
-0.124560 -0.017812
0.144661 -0.177261
-0.208308 -0.524455
-0.213250 0.243761
0.103673 0.197711
0.224238 0.207751
-0.106187 -0.031235
-0.190995 -0.195548
-0.214551 -0.178609
0.106001 0.110149
-0.050894 -0.324214
-0.233829 0.167848
0.198787 -0.236690
-0.169257 -0.056391
0.130114 0.076078
0.001982 0.050186
-0.153525 0.095410
0.085846 0.016241
-0.048059 -0.090917
-0.278740 0.045787
-0.011908 0.562826
0.363391 -0.241335
-0.206355 0.050917
0.063294 0.027800
0.045459 0.174015
-0.375549 -0.244161
0.324387 -0.112128
-0.184507 -0.166723
0.117186 -0.386385
-0.320975 0.072428
-0.085596 -0.049770
0.050399 0.066103
0.302162 -0.203353
-0.302782 -0.181016
-0.311706 0.215300
-0.015486 0.440050
-0.012120 -0.076794
-0.183498 0.067887
0.057409 0.422556
0.176801 -0.286486
-0.130900 0.601653
-0.138891 -0.302309
-0.195656 0.423847
0.428870 -0.234661
0.312435 -0.204529
-0.343240 -0.232695
0.109258 0.095239
-0.254431 0.188162
0.191355 -0.131865
-0.028812 -0.043735
-0.283239 0.452908
0.106220 0.195641
-0.118834 -0.150194
-0.201352 -0.089163
-0.153739 -0.026582
-0.240769 0.356106
0.096186 0.732651
0.164026 0.580757
0.262547 -0.071022
-0.008057 0.079079
-0.170129 0.124774
0.238500 0.228436
-0.035717 0.080795
0.526063 0.236236
0.068630 -0.075472
0.384490 0.267381
0.295016 -0.242831
-0.295579 0.250878
-0.120056 0.050254
-0.015216 -0.114245
-0.051674 -0.174036
-0.328262 -0.084423
0.394507 0.039924
-0.338077 -0.031994
0.295818 -0.392904
-0.302487 0.035776
0.182948 0.112855
-0.221568 -0.287345
-0.264538 -0.236750
0.297986 0.039209
0.228044 0.025078
-0.009025 -0.128810
-0.153615 0.341865
0.119598 -0.142296
-0.065504 -0.160317
-0.523217 0.471247
-0.189587 0.341746
-0.395443 0.472039
-0.180803 0.081288
0.440598 0.301784
-0.265667 -0.493691
-0.296207 0.467670
0.027753 -0.000195
-0.248231 -0.061679
-0.109936 0.191198
0.291699 -0.077349
-0.435903 -0.117552
-0.414118 0.538755
0.186541 -0.063381
-0.402420 -0.099878
-0.308501 -0.056683
-0.031049 0.162092
-0.146154 0.050448
-0.012051 0.268889
0.088560 0.375657
-0.033032 -0.142111
0.309616 0.135299
-0.182723 -0.422036
0.057269 0.310442
-0.267974 -0.338742
-0.001735 -0.132964
-0.026457 -0.130102
0.302876 -0.097244
-0.125915 -0.103449
-0.300776 -0.097077
-0.281425 0.144543
-0.058091 0.286635
0.016775 0.155916
0.069274 0.160181
0.009754 0.066281
0.264486 0.287883
-0.089545 0.136171
0.289767 0.118625
0.119265 -0.039651
0.172848 -0.208736
-0.229911 -0.124520
-0.225742 -0.060959
-0.284496 -0.135154
0.184545 0.310668
0.093604 -0.236304
0.312406 0.036708
0.002615 -0.406335
-0.068451 -0.022552
0.146309 0.565844
0.288750 -0.055106
0.223831 0.122097
0.093742 -0.066589
0.082701 -0.131907
0.141710 0.323713
0.173948 -0.369753
-0.024638 -0.137972
-0.082390 -0.203669
-0.246123 -0.093333
-0.168824 0.387349
-0.317470 -0.049053
-0.783575 0.005400
-0.401712 0.374729
-0.002197 -0.107771
-0.226479 0.193566
-0.329144 0.154793
-0.111512 0.115090
-0.161053 -0.121561
-0.140037 0.287143
-0.239807 0.157142
-0.186194 0.487898
0.273863 -0.019889
-0.099442 -0.212788
-0.251686 0.056745
0.137957 0.237698
0.003523 0.114183
0.175277 -0.182546
0.110494 0.239880
-0.138318 -0.389521
0.495344 -0.286320
-0.273117 -0.201273
0.094839 0.045315
0.083590 0.061261
-0.105029 -0.377934
0.022455 -0.097478
-0.143221 -0.222666
-0.056497 -0.001516
0.179434 -0.442492
-0.203583 0.005497
0.355119 0.070042
0.312777 0.324991
0.106543 0.199152
0.265270 0.213294
-0.025469 0.173689
0.105914 0.006313
-0.035706 0.027902
0.059475 -0.221890
-0.055882 0.025079
0.234826 -0.102917
0.272763 -0.264511
0.147329 -0.054332
-0.251511 -0.093159
0.033262 0.133763
0.095584 -0.018886
0.051357 0.311632
0.424956 0.095558
0.131597 0.069172
-0.033765 -0.290956
-0.073471 -0.060085
-0.110977 0.308534
0.013315 -0.049690
0.180510 0.006511
-0.110105 -0.067950
0.098332 -0.141854
-0.122993 0.041634
-0.104980 0.094513
0.203734 0.027924
-0.144647 -0.052646
-0.134399 0.073923
0.057862 -0.226645
-0.153398 0.209693
0.225253 -0.138723
-0.113313 0.148996
-0.024601 -0.210292
0.088516 0.082585
0.046909 -0.097093
0.096987 0.015044
0.040998 -0.289046
-0.107201 -0.141884
-0.120541 0.270588
0.060116 -0.213712
-0.127422 0.087615
-0.108777 0.077768
0.153983 -0.092274
0.078675 -0.231911
-0.332807 -0.082735
-0.058879 -0.028834
-0.052090 0.197214
-0.122030 -0.057107
-0.280878 0.112986
-0.170075 0.016562
-0.076030 0.241974
-0.229295 -0.117825
-0.071270 -0.068428
-0.022159 0.163431
0.150176 0.099976
0.066532 -0.191601
0.038800 0.030628
0.147375 -0.248525
-0.226284 -0.010952
0.008328 0.224965
0.177713 0.005931
-0.105645 -0.034203
-0.022898 0.011661
0.109706 0.107835
-0.332995 0.094718
-0.066654 -0.015736
-0.168683 0.104319
-0.002431 0.353122
0.128742 -0.257034
0.082030 0.243695
-0.012560 -0.215331
0.016673 0.006007
-0.009875 -0.373507
0.149312 0.002157
-0.230707 0.020412
0.257116 -0.065106
-0.211553 -0.155093
-0.003262 -0.205712
-0.098189 -0.024565
-0.310414 -0.089756
-0.000522 0.340150
-0.133632 -0.135441
0.142770 0.045294
0.266851 0.009045
0.100717 0.111865
0.041177 -0.095191
-0.008426 0.212704
-0.190351 0.049349
0.331507 0.197019
0.153052 -0.094077
0.228514 0.130336
-0.067276 -0.070999
0.008260 -0.017756
0.139997 0.182216
0.093432 0.317691
0.013930 0.068716
0.032841 0.172486
-0.067632 -0.204970
-0.248363 -0.006846
0.051350 0.093156
-0.083375 0.068982
-0.067432 -0.124311
-0.046178 -0.029428
-0.028643 0.025607
-0.153069 0.403469
0.058671 0.053613
0.154385 -0.041274
-0.217885 0.008689
-0.019274 0.134353
0.055999 -0.064691
-0.224714 -0.042260
0.019756 0.019082
0.274059 -0.281786
0.230915 -0.154252
-0.126727 -0.278961
-0.028406 -0.271180
0.031167 -0.008316
0.052834 -0.118203
-0.027396 -0.060917
-0.232794 -0.110432
0.029980 0.182358
-0.044887 -0.154982
0.025557 -0.300709
-0.187065 0.013472
-0.220683 -0.183548
0.144428 -0.132495
-0.015106 -0.048778
0.056406 -0.176755
-0.107629 0.101411
0.066230 -0.113197
0.084769 0.187168
-0.139937 0.200922
0.211682 0.109638
-0.222884 0.454587
0.084463 -0.058120
0.103262 0.300828
0.186670 -0.175400
-0.154421 0.140894
0.126294 0.184753
0.258882 -0.109322
0.093555 -0.097348
0.082838 -0.043493
0.081030 0.119212
0.077953 0.054448
-0.147993 0.133060
-0.033529 0.206733
-0.035313 0.041562
-0.012799 0.217123
0.149305 0.118060
0.125161 0.142160
-0.007594 -0.138697
0.231474 0.097545
0.007028 -0.259243
0.169998 0.010005
-0.185083 0.022230
0.036876 0.141843
0.186117 -0.135416
-0.033893 -0.230394
-0.036982 0.220887
0.298067 -0.123066
-0.259308 0.067596
-0.073962 0.255114
-0.243937 0.171726
0.101738 -0.028738
0.073952 0.230397
0.068766 0.085313
0.138282 -0.224370
-0.080370 -0.397891
-0.152765 -0.424942
-0.222980 0.123016
0.211106 -0.117087
-0.218141 0.360062
0.051388 -0.388318
0.175403 0.055529
0.000445 0.088304
0.031753 0.168681
0.332854 0.179170
0.218408 -0.141747
0.086003 -0.318517
0.388563 0.059532
0.268348 -0.035989
0.392332 -0.135555
-0.499990 -0.090878
0.489014 0.044960
-0.069025 -0.179690
-0.294515 -0.004324
-0.429803 -0.180220
-0.116369 0.023557
-0.303127 -0.157476
0.303160 0.103665
-0.250289 0.176048
-0.068792 0.007411
-0.270734 0.007318
-0.114024 -0.108664
-0.115296 0.351937
-0.300382 -0.543467
0.054725 0.206867
-0.007938 -0.723156
-0.467466 0.110083
-0.056647 0.035871
0.008713 0.428330
-0.029144 0.086478
0.153916 0.058620
-0.085792 0.255391
0.197287 0.050688
0.236421 0.565237
0.270214 0.115786
0.266227 0.184293
0.302346 0.065134
-0.416354 -0.254289
-0.212557 -0.106878
-0.288517 0.019506
-0.029097 -0.282382
0.111677 0.165292
-0.346390 -0.169120
-0.165206 0.196126
0.049777 0.186661
0.243246 0.145430
-0.833298 0.333795
0.399712 0.381444
-0.015688 -0.299110
0.226772 -0.206093
0.064898 -0.003728
-0.660650 0.235038
0.744976 0.169551
-0.183098 -0.203600
0.130651 0.221298
-0.004739 -0.186643
-0.053836 -0.063675
-0.827622 -0.306073
-0.177461 0.485398
-0.075739 0.306863
0.029497 0.005439
0.209699 -0.260230
-0.245665 0.149013
0.397209 -0.281430
0.037534 0.222359
0.196324 -0.199411
-0.309272 0.208634
-0.314722 0.166050
0.222901 -0.157038
-0.629481 0.003527
0.054116 -0.113553
-0.362165 -0.397048
-0.178292 -0.071208
0.616745 0.157321
-0.029129 0.046502
0.510637 -0.293845
-0.273562 -0.542630
-0.124136 0.242931
-0.596445 -0.023861
0.315069 0.612775
-0.373466 -0.171049
0.350391 0.120978
-0.223740 -0.277498
0.142300 0.475498
0.489439 -0.570065
0.084530 0.409772
0.484866 -0.555976
0.175508 0.472822
0.851575 0.249545
0.862158 0.358722
0.267211 0.580720
0.112942 -0.151285
0.081755 -0.201624
0.241811 0.186319
-0.218151 0.961993
-0.406585 -0.020219
0.153052 0.412652
-0.232026 -0.128775
0.048695 0.415176
-0.086300 0.460211
0.013688 0.590468
0.042980 -0.281977
1.178917 -0.170507
-0.516112 0.179790
0.937281 0.888632
-0.033190 -0.318720
-0.150690 -0.352497
-0.727008 0.154175
-0.881654 -0.185741
0.395591 0.200137
-0.655973 0.079327
0.080598 -0.451377
-0.085281 -0.160185
0.108438 0.217088
-0.495789 -0.143245
0.193724 -0.141353
0.130516 -0.471969
-0.397425 -0.225188
-0.478010 -0.345066
0.114043 -0.231067
0.560490 -0.329012
-0.482145 -0.497717
0.638511 -0.014700
-0.790552 0.008376
0.500063 0.045888
0.633399 -0.128349
0.376694 1.366061
0.062477 0.373783
-0.561061 0.467626
-0.060963 0.466419
-0.125573 0.737104
-0.876715 -1.049784
-0.534275 -0.593235
0.086080 -0.818678
0.045275 -1.045641
0.142952 -0.199357
0.594998 -0.698030
-0.726166 0.235324
-0.016141 -0.391550
-0.185477 1.408894
0.296701 -0.930668
0.414545 0.047253
0.829671 -0.863656
0.798701 -0.158714
0.450177 0.649871
1.411143 -0.020535
1.087554 -0.180827
-0.829276 0.452688
-0.362066 0.388478
-0.473590 0.758060
-0.278039 0.753038
0.677342 0.071775
-0.495982 -0.421189
0.401230 0.382272
-1.404799 0.550943
0.236392 -0.449471
-0.267309 0.415926
0.040306 -0.876217
-0.984962 0.448606
-0.578824 -0.380934
0.036581 0.970835
-0.212304 -1.392867
-0.469025 0.310631
-1.399217 -0.526533
-0.774575 1.356387
-1.185340 0.175659
0.731230 -0.444150
-0.408222 0.096127
0.193118 -1.483783
0.685880 0.413124
1.402150 0.727572
0.086742 -0.177539
2.601071 -1.390360
0.390977 -1.206754
-0.846101 1.495261
-1.737876 0.730305
-0.463588 0.554986
-1.365285 -0.454284
0.355917 -0.171112
0.143915 0.656113
-0.873238 0.820322
1.437095 0.083991
-0.062824 -1.189469
2.710610 1.095405
-1.100691 1.365788
0.753080 1.170474
-0.394946 -1.771839
-0.128681 -0.761640
-2.405050 -1.697198
0.112095 -0.188426
-0.267983 0.172457
-1.717274 -2.334478
0.399324 -0.863504
0.074934 -1.455081
0.654318 3.855713
1.372668 -1.536921
0.242164 1.865091
0.920644 -1.298535
-1.345673 0.281130
0.688527 -2.869044
-2.734820 2.065862
-1.242188 -1.112363
-0.123772 -2.038376
-1.847889 -2.789856
0.217456 -1.791379
-2.886269 3.064106
1.976235 -0.018794
-1.386015 3.053880
-1.022751 -1.910168
-0.884016 -0.402120
3.820457 3.074478
0.410365 1.439569
0.485479 -4.717723
0.450766 -4.618614
-5.533694 -1.376202
3.979689 -0.238841
-1.408027 -2.210295
4.651617 2.688596
-9.698224 -2.991975
2.484172 4.341397
-1.752470 2.843563
2.392659 8.276947
-0.818010 4.822245
0.868213 2.814051
-5.725313 1.583277
-3.015176 -4.664920
8.140775 -5.555465
2.063094 -6.794601
-7.346142 1.817467
-8.361677 -10.067489
0.096588 13.547414
-1.501594 1.957893
10.358488 12.525334
-7.254909 -11.003139
-21.846265 26.433356
-16.415950 14.174917
11.003160 -10.283144
-5.058635 29.723487
8.378690 -29.061439
-34.066090 11.137370
55.541436 -4.081500
-23.656167 2.616331
71.807547 -81.272700
-183.012945 -47.119964
-29.552365 145.862680
-83.237542 127.227760
-57.780612 54.607619
-10.400106 391.011551
-326.916106 50.511578
-161.043985 -455.163512
-111.052636 105.523856
661.328159 365.894448
