3885.736850 2970.320731
-505.612111 -162.348392
24.576912 4.800339
-9.941783 -37.659101
4.577351 -8.291960
-20.033706 9.756739
3.953109 23.550175
-17.722702 3.484479
-3.552922 -2.242053
-8.126588 -5.008601
-7.627725 -3.823631
-5.763952 -0.523807
0.841016 0.666534
1.364143 -0.348589
-1.325979 -2.714629
-1.428020 1.624735
-1.889564 0.360190
-1.976511 -0.550490
-1.062249 0.306133
1.740967 -3.540876
-1.972324 -0.041796
-0.301014 1.343662
-0.135738 -2.798304
-0.285796 0.201835
0.508270 -0.970493
0.547152 -0.279125
1.556130 -0.339338
0.250770 1.570253
0.552190 -0.134276
-0.811132 -0.463256
-0.959476 0.669526
0.886522 -0.345859
-0.349955 -0.057708
0.628354 -0.212087
-0.378984 0.444965
-0.388944 0.338194
-0.048326 -0.206509
0.524799 0.241185
0.500409 -0.107237
-0.332199 -0.157793
0.345353 0.320133
0.060273 0.384263
-0.079432 0.163919
-0.048529 0.250703
-0.218686 -0.098028
0.094854 0.273347
0.045773 0.260798
0.609646 0.054119
-0.319166 0.187185
0.107335 0.548412
-0.288520 -0.342159
0.064783 0.099838
-0.000786 -0.156912
0.150298 -0.145625
-0.140377 0.166114
-0.034031 0.273602
-0.016733 0.258477
-0.149804 -0.218123
-0.189858 -0.189125
0.129564 -0.017265
0.052619 -0.094016
-0.115094 -0.084385
0.137246 -0.102558
-0.304506 0.082273
-0.224164 -0.240721
-0.162618 0.053913
-0.015123 -0.266478
0.196335 -0.042663
0.018107 -0.037499
0.014420 0.244548
-0.059484 0.110000
-0.124959 -0.126708
-0.219479 -0.210754
0.153190 -0.130466
-0.103073 0.050355
-0.099717 -0.127039
0.202579 -0.001376
0.074719 0.081252
0.098130 0.033834
0.080938 0.146923
0.080427 0.117667
-0.024578 -0.047626
-0.013217 -0.078793
0.057603 -0.077047
-0.071299 -0.111511
0.143260 -0.051214
0.054307 -0.278160
0.090626 0.123797
0.220554 0.122637
-0.100814 -0.141129
0.071624 0.054314
0.142413 -0.071333
-0.035880 -0.284034
-0.070863 -0.058458
0.167875 0.030368
-0.391100 -0.257867
-0.008036 -0.165450
0.033514 -0.378874
0.125265 -0.012968
0.084649 -0.031721
0.072975 0.068526
-0.289492 0.198576
0.038528 -0.202883
-0.234349 -0.216274
-0.002399 0.000632
-0.156239 -0.024664
-0.402856 -0.192149
0.020021 -0.086082
0.015677 -0.128420
-0.061583 0.209779
-0.138479 0.012894
-0.174580 -0.103319
-0.108942 0.160623
0.062893 -0.432650
0.094839 0.176201
-0.051635 0.168000
-0.135731 0.009522
-0.194360 -0.138283
0.009525 0.228307
-0.168557 0.018436
-0.075410 0.006216
0.027168 0.076775
0.139316 -0.061333
-0.104125 0.125598
-0.037670 -0.000954
-0.027279 -0.053260
0.053998 0.194954
-0.075691 0.003219
0.016924 0.068382
-0.503084 0.277445
-0.083549 -0.085357
-0.173926 -0.278916
0.293267 0.204749
-0.187732 0.057514
0.025231 -0.098053
-0.150094 -0.045015
0.010892 0.004777
0.150229 -0.007011
-0.303779 0.093975
0.078108 0.195121
-0.243545 0.047850
0.044566 0.036372
-0.294400 -0.087551
0.211786 0.218475
-0.209280 -0.218994
0.266094 0.186711
0.187634 -0.015343
-0.232207 0.246387
-0.200084 -0.137211
-0.070848 0.087019
-0.066688 0.000471
0.058256 0.059793
-0.089675 -0.062571
-0.055375 -0.310100
0.114065 0.030033
0.510947 -0.262447
-0.032052 0.316114
0.254795 -0.076957
-0.274340 0.166530
0.071934 -0.338080
-0.062122 0.057887
0.070967 -0.052744
-0.026258 0.040739
-0.127392 -0.188680
0.213914 0.116465
0.278466 -0.244809
-0.052720 0.030394
0.006772 0.203787
-0.188997 -0.123601
-0.027754 0.192997
-0.089578 -0.143587
-0.093173 0.015087
-0.115015 0.082912
-0.295413 0.145026
-0.338219 0.123797
0.136402 -0.217725
-0.019594 -0.048753
-0.024355 -0.135529
0.181162 0.085067
-0.128144 0.178562
0.066196 0.208335
-0.340947 0.147049
0.087741 0.155444
-0.179210 0.191447
0.033061 0.084753
-0.098954 0.229427
0.128095 0.159542
-0.179060 0.473187
-0.444115 0.096308
0.159978 -0.313971
-0.204375 -0.124389
0.099697 -0.132787
-0.124935 0.035105
0.204550 0.438037
0.043418 0.069267
-0.240097 -0.036783
0.149525 -0.020735
-0.132512 -0.017018
-0.066699 -0.228108
-0.082912 0.250720
0.558369 -0.624848
-0.293745 0.190555
-0.013111 -0.122069
0.117901 -0.239291
-0.028918 0.065619
0.177795 0.243797
0.011565 0.017321
0.359108 0.236576
-0.167247 0.064100
-0.060540 0.068781
-0.194125 -0.166153
-0.207088 0.275399
0.035827 0.050496
-0.434339 0.017079
0.082321 -0.200629
-0.201863 -0.323725
-0.412442 0.100846
0.553946 -0.176517
0.233239 0.162853
0.451285 0.004620
0.260249 -0.172054
-0.013282 -0.086079
0.478009 0.232891
-0.437246 0.302882
0.213036 0.570320
0.201827 -0.186024
0.183037 0.051228
-0.404161 0.797351
0.081245 -0.674543
-0.571682 0.591446
0.186717 -0.189763
0.470339 -0.558199
0.381337 -0.047342
-0.164857 -0.426067
-0.557854 0.822095
-0.886241 -0.654897
-0.175345 0.409942
0.693025 -0.804353
-0.565727 -0.114199
0.958307 -0.519689
0.378104 -1.231311
-2.241930 2.007713
1.497018 -2.815249
0.331054 -0.511055
2.454008 -0.114583
2.536933 -0.095401
-0.371822 0.189811
-1.313651 2.987321
1.250915 3.479051
0.879400 1.636505
1.594710 2.282321
-0.691009 0.153219
-7.391562 0.419191
-10.906484 1.026322
4.014270 4.882917
-5.907540 -5.081252
-11.362775 -18.062038
5.439413 -17.220598
-20.988079 -31.738706
11.920871 45.582388
-137.936231 52.042513
