7751.445258 2449.498307
-3352.535626 -17.829152
-14.225344 -13.590054
-346.863102 17.339131
47.442137 4.492894
-225.900744 24.987083
-52.408250 9.912082
-57.607222 -0.307835
34.200367 -16.757272
-51.245361 5.390081
-22.266218 13.164621
-23.456981 11.458457
-2.046251 -1.320267
-11.757263 -4.431454
2.229293 -7.050296
4.916413 -0.347264
-8.350962 8.476558
-2.782122 4.299130
-3.036365 -3.877843
10.730049 -7.939520
-0.713802 -1.344286
7.097427 -1.451159
-2.647074 -0.778465
2.159171 -0.858265
-2.318746 1.787067
7.161897 -5.412069
0.079296 -3.421325
-0.720240 -0.231600
-0.312429 4.048898
4.808747 -0.849306
0.755313 -1.330667
-0.573047 -1.332540
0.018152 0.489816
3.075274 0.487363
2.557940 -0.160749
-0.218521 -0.788440
0.834228 -2.084679
0.677639 0.202035
0.936350 -0.786657
-2.647656 1.625250
1.326234 -0.508875
0.518007 2.510993
1.565917 1.186035
-2.747890 0.185424
-0.349248 -0.659816
-2.082722 1.231612
0.916753 0.720439
1.167532 -0.196536
-0.236121 -0.673868
-3.113315 2.546766
-0.155342 -1.041749
-1.923140 2.320315
-0.538968 1.103264
-0.547809 1.675989
-1.140040 0.925204
0.087850 0.302491
-0.819760 -0.111277
-0.202914 -2.432718
0.011979 1.373202
1.497471 0.341761
0.311144 0.482309
0.037260 -2.271209
-0.682414 0.449402
1.070102 0.419084
0.484665 0.162634
0.983773 -2.037512
-1.313215 -0.200856
0.665062 -1.117385
0.180462 0.990248
0.729969 -0.111526
-0.297808 -0.541526
0.324392 -0.508240
1.088686 -0.344068
0.014854 -1.572531
0.229135 -0.424844
-0.907319 -0.282328
0.319291 -0.102726
-0.167797 -0.676796
-0.373767 -0.349050
0.429153 0.359376
0.392711 -0.220609
-0.256218 0.057583
-1.119621 -0.746285
-0.011016 0.127695
0.195284 -0.811598
-0.188208 0.525338
-0.169580 0.367495
1.148148 -0.028275
0.365154 0.430833
-1.043175 0.322202
0.382243 -0.075189
-0.015253 0.529166
-0.069462 0.191600
-0.183608 -0.040536
-0.458158 1.263306
-0.157829 0.116526
-0.143313 -0.145586
-0.432467 0.807084
0.219913 -0.358093
0.619226 0.460625
-0.395854 0.295085
-0.098138 -0.050547
0.288647 0.170995
0.502502 -0.131167
-0.176402 -0.078021
-0.194555 0.038085
-0.310419 0.012667
-0.345520 -0.127654
-0.104245 -0.040132
0.372190 -0.073106
0.356644 -0.603928
-0.530682 -0.492250
-0.057240 0.152950
-0.439950 -0.193079
0.287374 -0.308214
-0.126125 -0.161649
-0.197958 0.793934
-0.155088 0.096178
0.043937 0.303713
0.167572 -0.016826
-0.368070 -0.775024
0.868067 -0.113586
-0.053171 -0.331120
-0.218471 0.331389
0.139530 0.045171
0.208044 -0.444814
-0.271062 -0.473197
-0.169315 0.187474
0.090831 -0.415877
0.168181 0.488743
-0.376043 0.334051
-0.418107 -0.362892
-0.360321 -0.088645
-0.461528 -0.179346
-0.073859 0.568432
0.001367 0.475023
0.296053 -0.564495
0.147116 0.197524
-0.773609 0.156989
-0.365030 -0.104184
-0.099249 -0.116504
-0.063392 0.229471
-0.224627 0.186770
0.639957 0.075883
0.088617 -0.266613
-0.669595 -0.202867
0.126219 -0.075292
0.041076 -0.035058
-0.027131 -0.375964
-0.055499 0.085767
-0.332477 0.010095
-0.346998 -0.181563
-0.571069 0.092077
-0.155880 -0.419571
-0.207211 -0.182950
-0.136483 0.257267
0.268665 0.041526
-0.256455 -0.033925
-0.355624 -0.044318
-0.309988 -0.270092
-0.412119 0.273186
-0.191541 0.036527
0.210689 -0.531455
0.241390 -0.119397
0.005707 -0.057213
-0.310821 -0.377877
0.425417 0.289694
0.013365 -0.167731
-0.012123 -0.369282
-0.137874 -0.160363
0.266653 0.119226
-0.352010 -0.140013
0.160865 0.322898
-0.028356 0.194156
0.024619 -0.216664
0.375206 0.225258
0.092570 -0.001827
0.047009 0.382448
-0.049897 0.331019
-0.119515 0.071462
0.064526 -0.006855
-0.047604 -0.398691
0.165701 0.035205
0.036878 0.137488
0.068439 -0.328002
-0.093674 0.174170
-0.000265 0.168479
-0.093779 0.295279
0.274502 0.020689
0.160455 -0.190366
0.110613 -0.094012
-0.172107 -0.230630
-0.037200 -0.120124
0.106643 0.062044
-0.042243 0.159143
-0.004000 -0.040275
0.235896 -0.234712
0.013135 -0.438852
-0.265607 0.205946
-0.070709 -0.138117
-0.226893 0.261103
-0.208847 0.229537
-0.231938 -0.151240
0.115039 -0.033134
-0.284231 0.027360
0.069285 0.115666
-0.058718 -0.191627
0.172157 -0.195189
-0.490465 -0.046068
0.148462 -0.368553
0.273102 -0.047204
0.190320 0.050278
0.174789 0.062385
-0.110394 -0.337302
-0.134416 -0.316615
-0.183715 0.072863
-0.065738 0.050251
-0.092801 -0.207596
0.135105 -0.142184
0.026357 -0.112145
0.015499 -0.040406
0.288591 0.044590
-0.157510 -0.369640
-0.153720 0.187095
-0.206292 -0.113707
0.211443 0.070039
0.049097 0.036533
-0.135395 0.086351
-0.051882 0.160091
-0.450605 -0.237484
0.192008 0.207991
0.154286 -0.246123
-0.163389 0.259491
0.106350 0.177067
-0.076830 -0.081603
0.098776 -0.066471
0.119117 -0.322481
-0.264067 0.007391
-0.210397 0.111568
0.008548 0.269942
-0.095796 0.077064
-0.270989 -0.118409
0.165874 0.001779
-0.089261 0.156278
-0.132887 -0.032202
-0.026271 -0.408314
-0.115809 -0.074744
-0.049550 -0.202451
-0.505123 -0.119418
-0.097718 -0.017629
-0.069321 0.201206
0.166015 -0.001850
-0.005337 -0.090877
-0.296034 -0.211732
-0.281115 0.193017
-0.093275 0.215368
0.015289 -0.020426
-0.280631 -0.154239
-0.068916 -0.092426
-0.244508 0.090219
-0.021504 -0.237151
0.184059 0.111306
-0.147757 -0.010025
0.072407 -0.126940
0.097929 -0.022681
-0.183604 0.198510
-0.157488 -0.119397
0.009037 -0.175478
-0.041972 -0.243968
-0.155772 0.092627
0.036290 -0.565090
0.285497 -0.106965
0.071440 -0.020275
-0.238468 -0.172426
-0.191942 -0.302331
-0.095106 0.216894
0.148232 0.392081
-0.027831 0.023966
0.011987 0.128641
0.067126 0.045994
0.160899 -0.062819
0.098034 -0.086265
-0.004405 0.125882
0.236551 0.270779
-0.043424 -0.150550
0.022442 -0.120108
-0.067918 0.034198
0.058212 0.058184
0.060740 -0.276059
0.003896 -0.056649
-0.050453 -0.112053
-0.079622 0.126449
0.276266 -0.065360
0.003042 -0.020052
-0.155599 -0.032049
-0.017740 0.073838
0.382147 0.095823
0.168965 -0.286959
-0.049384 -0.219148
-0.016790 0.065868
0.221581 -0.014708
0.156970 -0.144258
-0.171322 0.002065
-0.286516 -0.280597
-0.051758 0.312089
0.017857 0.127921
0.054730 -0.122057
0.054727 -0.001640
-0.059953 0.163673
-0.229983 -0.173245
0.023473 -0.035189
0.108458 -0.023283
0.185056 -0.023658
-0.508198 -0.199821
-0.340319 -0.019715
0.292359 -0.063390
0.039024 0.305203
0.038890 -0.339630
0.061666 0.033557
0.004499 0.068778
0.135462 -0.008709
0.114931 -0.085603
-0.035731 -0.118861
-0.097356 -0.081228
0.121228 0.011794
0.049808 -0.192321
0.024206 -0.366647
-0.092464 0.124002
-0.162172 -0.035176
-0.147570 0.101884
-0.116786 -0.214668
-0.079008 -0.029569
0.100733 0.106320
-0.097943 -0.040964
-0.261335 -0.087790
0.050439 0.002603
0.040334 0.016168
0.030409 -0.039599
-0.110647 0.070150
-0.112568 0.065625
-0.146227 -0.159648
-0.119456 0.232882
0.153476 -0.044379
0.105547 0.137119
-0.136018 -0.076455
0.170780 -0.089102
0.052508 0.006789
0.192811 -0.144146
-0.103753 0.044665
0.011574 -0.030277
-0.141962 0.077915
-0.338337 -0.011347
0.201905 0.151309
0.008894 -0.207803
0.144067 -0.009262
-0.423397 -0.236140
-0.089713 0.176611
0.029108 0.025972
0.104333 -0.004530
0.084180 -0.008370
-0.013004 0.093205
-0.008915 0.075046
-0.281653 0.298061
0.021159 0.177132
0.099494 -0.288474
-0.001458 0.116060
-0.189031 0.000900
0.111439 0.115848
0.067795 -0.165213
0.058931 -0.037630
0.087854 -0.266037
0.262764 -0.009656
-0.167029 -0.040171
0.106314 -0.196930
-0.254256 -0.003968
-0.157978 -0.369656
-0.017074 -0.348148
0.081389 0.240354
-0.181385 -0.197590
-0.083770 -0.206860
-0.109858 -0.075378
-0.190188 0.027876
-0.189088 0.123410
0.141551 0.060975
0.128977 0.046526
0.014492 -0.070119
0.038262 0.052291
0.012591 -0.139559
-0.040501 0.101446
0.074155 -0.103947
-0.059772 -0.112248
-0.190745 0.031211
-0.028676 0.081391
-0.226627 -0.111041
-0.150798 0.141074
0.120614 -0.300780
0.404275 -0.010264
-0.120204 -0.051798
-0.046356 -0.101616
0.150516 0.210889
0.063001 0.107226
0.031182 -0.000622
0.259778 -0.118227
-0.025727 -0.019145
-0.119408 0.004733
-0.018003 0.209967
0.252495 -0.278457
0.173866 0.190994
-0.031027 0.089324
-0.081189 0.225419
0.096648 -0.137863
0.340004 0.058848
0.074634 -0.017853
-0.144113 0.044745
-0.065547 0.016217
-0.006376 0.091793
-0.022715 -0.021328
-0.130926 -0.015962
-0.068545 0.075289
0.167950 -0.122753
-0.013327 0.124390
-0.077807 0.016259
-0.064327 -0.184485
0.294579 -0.018928
0.182245 -0.018671
-0.259155 0.257783
0.348021 -0.073186
0.044680 -0.098538
0.055581 0.114300
-0.369218 0.045124
-0.040235 -0.054151
0.088903 -0.060870
0.296324 0.071933
-0.005642 -0.167999
-0.006510 0.064326
0.066412 0.059726
-0.083803 -0.093780
-0.191489 -0.027119
-0.192741 0.013488
0.176730 -0.043628
0.093316 0.250850
0.084061 0.031278
0.038070 -0.191162
0.033064 -0.352799
-0.030682 -0.144424
-0.040079 -0.024641
-0.034629 0.101568
0.155277 -0.012271
-0.148795 -0.023573
-0.000986 -0.199311
0.035683 -0.081052
-0.027189 -0.081432
-0.146096 -0.081535
0.178638 0.121418
-0.189504 -0.066518
0.173245 -0.025663
-0.100944 -0.048178
-0.132699 0.025290
-0.085593 0.077594
-0.220793 -0.203001
0.162070 0.129304
0.057833 -0.198100
-0.055757 -0.169650
-0.399043 0.240991
-0.056889 -0.061144
-0.180938 0.084111
0.090049 -0.077156
-0.032405 -0.035937
-0.130039 0.196810
-0.004075 0.159096
-0.300879 0.236704
-0.170435 -0.074882
0.077836 -0.034419
-0.064834 0.014633
0.145886 0.040576
-0.014571 0.167203
-0.223639 0.128143
-0.169788 0.103607
0.168591 0.092270
0.162483 -0.081523
0.105398 -0.174743
-0.167416 -0.081631
-0.147899 0.236935
-0.049693 0.187244
-0.061359 -0.028823
0.325807 0.009419
0.273173 0.207515
0.146495 -0.104750
-0.195941 0.117164
0.057914 -0.013213
0.123225 -0.093357
-0.037792 -0.046880
-0.151984 0.002396
0.036602 -0.042945
0.288416 0.128983
0.110938 -0.010725
-0.008153 -0.168072
-0.204929 -0.144414
0.178413 0.283930
-0.162154 0.033902
-0.323191 -0.031204
0.210357 -0.255933
0.077152 -0.149025
0.058821 0.176200
-0.175516 -0.145667
0.136887 0.165555
0.118816 -0.148140
0.113157 0.065930
0.086060 -0.105619
0.109498 0.068322
0.098014 -0.052402
0.044762 0.232803
-0.179861 -0.118136
0.000084 -0.137277
0.012577 0.021989
0.110878 0.289581
-0.044951 0.087024
-0.048138 -0.191815
0.059825 0.045997
0.214279 0.061604
-0.010906 -0.147948
-0.125966 -0.049554
0.070112 -0.058174
0.172250 0.102142
-0.166360 0.139742
0.095610 -0.108586
0.056778 -0.059513
-0.278303 -0.073986
-0.062407 -0.261519
0.341082 0.082999
0.183303 -0.084281
-0.083918 0.004242
0.066942 0.208401
0.192987 -0.167910
0.042566 -0.089112
-0.027028 -0.006565
-0.159002 0.117922
-0.165470 0.125373
-0.020230 0.040945
-0.216043 -0.032996
-0.081279 0.203632
0.066329 0.211808
0.115470 0.249891
-0.170709 0.095422
0.117741 -0.073003
0.075527 -0.154981
-0.000174 0.312921
-0.203556 -0.093341
0.133952 -0.150129
0.004732 0.257433
-0.029950 -0.163364
0.077896 0.066106
-0.196756 -0.007703
-0.304766 0.082632
-0.023439 0.172114
-0.150485 0.024513
-0.086867 -0.033855
0.057753 0.113708
0.089524 0.208180
-0.093666 -0.071360
-0.046993 0.200276
0.169926 0.380331
0.037290 0.003309
0.046380 0.014175
-0.097772 -0.003508
-0.108673 0.098557
-0.024805 0.090062
0.068313 0.004345
0.326962 -0.340686
-0.148650 -0.156173
0.000737 -0.143464
-0.174155 0.064028
0.277222 0.021476
0.059529 -0.165051
-0.144528 -0.080904
0.066044 -0.102773
-0.150828 -0.076035
-0.069854 -0.148885
-0.320319 -0.066069
-0.019392 -0.153464
-0.137364 0.124324
-0.216632 -0.193413
0.053322 0.265277
0.080309 -0.065182
0.095156 0.090958
-0.064528 0.049720
-0.172206 -0.046915
-0.088182 0.154046
0.013734 -0.011842
0.183964 0.056936
-0.014882 0.023292
-0.206096 0.342314
0.032922 -0.071412
0.078495 -0.055930
0.146233 0.123876
0.163437 0.240500
0.021444 0.213129
-0.081316 -0.133506
-0.121306 -0.209301
-0.134114 0.132887
0.073775 0.033728
0.131940 0.122803
-0.157935 0.015105
-0.247392 0.054151
-0.158676 0.203004
0.033769 0.079067
0.004108 -0.235574
-0.044585 0.327150
-0.421524 0.224052
0.313688 -0.066857
0.394801 -0.111399
-0.214128 -0.164586
-0.085395 0.268654
0.063156 -0.119317
0.098637 0.033873
-0.114464 0.005645
-0.152754 0.223218
0.031464 -0.310105
0.037776 0.334265
0.050898 0.197035
0.139809 -0.047020
0.050876 -0.113120
-0.173502 0.028163
-0.053512 -0.165189
0.074966 0.164976
0.017899 -0.213580
-0.262322 -0.063604
-0.320555 0.065656
0.051944 0.048088
0.321481 -0.017247
0.123141 0.074222
-0.158503 0.023224
-0.033747 0.147702
0.140356 0.060754
0.208326 -0.110246
0.249886 -0.253821
-0.047427 -0.016891
0.120912 0.352610
0.043781 -0.102540
0.280757 -0.036526
-0.084366 0.060037
0.194797 0.300463
-0.047909 -0.117508
-0.106261 0.245711
0.012475 -0.021761
0.158594 0.232437
0.142396 -0.181182
-0.116345 0.619998
0.121035 0.244687
0.154326 -0.069951
0.249251 -0.264583
-0.047344 0.105823
-0.193060 -0.231663
-0.201576 -0.407871
-0.010835 0.215973
-0.077291 0.040843
0.063958 -0.288438
-0.013912 -0.164651
-0.019454 0.253683
-0.337887 0.311896
-0.171530 -0.002857
-0.081493 0.034502
-0.357326 0.080650
-0.184918 -0.146652
0.031196 0.228296
-0.230654 0.139721
0.045921 0.003929
-0.197043 -0.021630
-0.124685 0.188542
0.061358 0.283388
0.026849 0.015838
-0.227122 0.073461
-0.420178 0.099736
-0.032350 0.118394
-0.110705 -0.065667
0.282531 -0.040673
-0.206757 0.111318
0.065164 0.008198
-0.149303 -0.537574
-0.067975 -0.215607
-0.092228 0.281358
-0.165431 0.125497
0.146516 -0.037644
-0.097702 0.013134
-0.145029 0.213417
0.179485 -0.040357
0.204135 0.007670
-0.233870 -0.193104
-0.142537 0.054577
-0.034462 -0.206757
-0.195518 -0.003696
0.050801 0.209216
-0.111621 -0.135411
-0.268943 0.354886
0.420617 -0.197870
-0.114937 0.055405
0.065920 -0.038132
-0.167208 0.140352
-0.096591 0.292369
0.163049 0.009546
0.017863 0.166627
-0.108727 -0.322096
-0.241126 0.146685
0.012475 0.059615
-0.050297 0.074665
-0.323294 0.115638
0.051446 -0.052933
-0.061990 0.014704
0.120541 0.201417
0.092881 -0.035028
0.195766 -0.016866
-0.326441 0.146397
-0.354501 0.194060
-0.408754 0.050820
-0.043361 -0.133741
0.458372 0.110266
-0.179924 0.088137
-0.147642 -0.113832
-0.121556 0.258369
0.192275 0.081314
0.059364 0.166315
0.127450 -0.082075
0.152990 0.444904
0.034673 0.349195
0.220040 -0.112624
0.167512 0.104370
0.042171 -0.277336
-0.328418 -0.047417
0.123230 -0.010870
-0.156710 0.015455
-0.075332 0.050072
0.082280 -0.049207
0.353499 -0.229617
-0.259182 -0.084806
-0.216021 -0.174795
-0.227362 -0.028471
0.231051 0.116821
0.051518 0.156722
0.073297 0.267940
-0.003965 -0.254064
-0.084677 0.016879
0.001857 -0.109869
0.053624 -0.501475
0.128205 0.056553
-0.006524 0.239502
0.292512 0.351240
-0.173739 0.194541
0.109497 -0.189599
-0.501322 0.365280
0.382889 -0.075693
-0.161036 0.280717
-0.044580 0.234262
0.109007 -0.108309
0.130793 -0.025968
-0.044571 -0.072936
0.172679 -0.189434
-0.252334 0.154138
-0.210947 0.118695
-0.031146 -0.516131
0.053976 -0.071551
-0.384297 0.264734
-0.031964 -0.367578
-0.136928 0.140161
0.234652 0.146051
-0.025713 -0.256632
0.312611 0.059567
0.142832 0.299353
-0.358414 0.221459
-0.256889 0.266047
-0.266377 -0.201732
-0.104717 -0.332640
0.443197 0.260097
0.198242 -0.003698
-0.074105 0.294554
-0.258647 0.113330
-0.511780 -0.431463
-0.391197 -0.040016
-0.405416 0.340160
0.762741 -0.039013
-0.534114 -0.227937
-1.214946 -0.019166
-0.408471 0.472977
0.079163 0.296026
-0.048494 0.015737
0.226563 -0.127194
0.234730 0.393490
-0.507049 0.182553
-0.748164 -0.392713
0.000446 0.455519
-0.003292 0.696698
0.356378 -0.266177
-0.118091 0.135490
0.127725 -0.321705
0.118283 0.474223
-0.151953 0.393931
-0.081416 -0.306646
0.123528 0.059398
-0.163051 -0.312556
-0.554442 -0.252045
-0.119307 0.309420
0.428193 0.022125
-0.088387 -0.490638
-1.167361 0.025467
0.253938 -0.299106
-0.170271 0.025395
-0.155972 0.224109
0.075485 -0.038639
0.232483 0.841068
0.068454 -0.072698
-0.462239 0.011680
0.372346 0.023718
0.067640 0.042847
0.484768 -0.757566
-0.450359 -0.626984
-0.350601 0.208833
0.078318 0.227375
0.328626 -0.028537
0.221409 -0.263089
0.124848 -0.296426
0.027062 -0.113482
-0.326479 0.242314
-0.108707 0.291175
0.016015 -0.375906
-0.074735 -0.053048
-0.655154 0.318731
0.048283 -0.434101
0.628896 0.627910
-0.076361 -0.056481
-0.013022 -0.083611
0.294335 0.867082
0.036334 -0.684980
0.118683 0.280718
0.250813 0.456435
-0.377838 -0.069525
0.518889 -0.248055
-0.724872 0.324137
-1.204475 -0.484855
0.489944 0.467808
0.172435 0.362555
-0.349519 -0.590832
-0.622409 -0.154658
0.883452 -0.658254
0.312608 -0.065931
0.006000 -0.119272
-0.652472 0.589131
0.062496 0.210307
-0.057787 -0.226830
-0.345115 -0.275666
0.883927 0.115962
-0.066435 0.053506
0.436483 -0.424643
-1.339703 -0.292251
-0.521471 0.558772
0.120341 -0.411698
0.207661 1.086151
-0.152280 0.806055
-0.169365 0.596952
0.932290 -0.009767
-0.174030 -0.589156
-0.835120 -0.394222
-0.060051 1.879292
0.534878 0.246743
1.039268 -0.716453
-0.780208 0.104998
-0.623418 1.372036
-0.515274 0.630366
1.005642 -1.545076
0.750586 -0.464368
0.797098 0.576521
0.588069 0.072332
0.364996 1.752930
0.467323 0.819144
2.037191 1.452524
-0.003301 -1.910575
2.200765 1.530639
0.586249 -0.885799
-2.478284 -1.984611
-1.040232 0.438379
0.035402 -0.535895
1.361174 -1.013133
0.491156 -2.753946
-1.156243 1.247237
-3.573204 0.830554
-0.239222 0.050149
-0.401119 -1.232887
0.093520 -1.144611
-3.639039 -2.185210
0.426902 -1.081687
-2.381186 -1.515783
-1.307142 0.676358
-5.250047 -1.544015
0.577485 0.254514
0.074812 -1.280709
0.998216 0.319725
-3.942673 0.298669
-0.229504 4.878257
2.880107 0.698757
0.229377 -4.059791
-1.974341 -3.343761
1.837958 4.313382
5.601176 4.167221
0.643946 -1.269192
0.383594 -0.067215
-2.578618 -1.410427
2.604985 -2.289555
1.719260 -2.079745
14.105269 8.857704
0.770242 7.906583
4.667002 1.403579
-6.991547 -8.022293
22.921556 -0.347621
-2.397126 1.115057
20.157519 13.092178
8.918935 11.706525
28.916971 1.428311
-38.829633 -18.821560
1.016750 -3.602403
45.164998 15.763411
49.706950 15.980936
-70.475660 -3.127113
-235.817835 -13.231322
26.055197 -8.359796
-2200.267162 -82.780971
